-46.5,0.0,-3.25
-47.0,0.03681553890925571,-8.9375
-47.0,-0.00613592315154321,-1.625
-47.0,-0.018407769454626965,-3.25
-46.5,0.04908738521234035,-5.6875
-47.0,-0.030679615757713385,-1.625
-47.0,-0.030679615757712497,3.25
-47.0,0.0,7.3125
-47.0,0.05522330836388267,-3.25
-47.0,-0.024543692606170175,0.0
-47.0,0.024543692606170175,-10.5625
-47.0,-0.0674951546669682,10.5625
-47.5,0.07363107781851141,-5.6875
-47.0,-0.04908738521234035,0.0
-47.0,0.04295146206079714,-5.6875
-47.0,0.024543692606171064,-10.5625
-47.0,-0.030679615757713385,-4.875
-47.0,-0.012271846303084644,1.625
-47.0,0.012271846303084644,-3.25
-47.0,-0.006135923151542322,-5.6875
-47.0,-0.018407769454627854,-1.625
-47.0,0.006135923151542322,-5.6875
-47.0,0.00613592315154321,-3.25
-47.0,0.006135923151542322,-1.625
-47.0,-0.024543692606170175,3.25
-47.0,-0.012271846303085532,-1.625
-47.5,0.012271846303085532,-1.625
-47.0,-0.018407769454627854,1.625
-47.5,0.012271846303085532,1.625
-47.0,-0.00613592315154321,0.0
-47.5,-0.04295146206079803,10.5625
-47.5,0.024543692606170175,-4.875
-47.5,0.018407769454627854,-8.9375
-47.5,-0.018407769454627854,-7.3125
-48.0,-0.006135923151542322,-3.25
-48.0,-0.012271846303084644,3.25
-48.0,0.006135923151542322,0.0
-48.0,-0.04295146206079803,4.875
-48.0,0.06135923151542588,-4.875
-48.5,-0.030679615757713385,1.625
-48.0,0.0,3.25
-48.5,0.018407769454627854,5.6875
-48.5,0.04908738521234035,-5.6875
-48.5,-0.018407769454626965,5.6875
-48.5,-0.00613592315154321,13.0
-48.5,0.030679615757713385,3.25
-48.5,0.018407769454626965,-1.625
-48.5,-0.018407769454626965,3.25
-48.5,-0.012271846303085532,5.6875
-48.5,0.07363107781851053,-13.0
-48.5,-0.04908738521234035,5.6875
-48.5,0.030679615757713385,-13.0
-48.5,-0.012271846303085532,0.0
-48.5,0.03681553890925571,-4.875
-48.0,-0.018407769454627854,0.0
-48.5,-0.024543692606170175,4.875
-48.5,-0.00613592315154321,0.0
-48.5,0.024543692606171064,-4.875
-48.5,0.012271846303084644,-7.3125
-48.5,-0.03681553890925571,3.25
-48.5,0.024543692606171064,3.25
-48.5,0.018407769454626965,-4.875
-48.5,-0.018407769454626965,-1.625
-48.5,-0.030679615757713385,3.25
-48.5,0.04908738521234035,-5.6875
-48.5,0.04295146206079803,-16.25
-48.5,-0.0674951546669682,7.3125
-48.5,-0.012271846303084644,-4.875
-48.5,0.0,-3.25
-48.5,-0.00613592315154321,1.625
-48.0,0.018407769454627854,0.0
-48.5,-0.012271846303084644,4.875
-48.5,-0.030679615757713385,8.9375
-48.5,0.07976700097005374,-16.25
-48.5,-0.04295146206079803,0.0
-48.5,0.0,1.625
-49.0,-0.006135923151542322,4.875
-48.0,0.006135923151542322,-3.25
-48.5,0.012271846303085532,-1.625
-48.5,-0.012271846303085532,1.625
-48.5,-0.030679615757712497,8.9375
-48.5,0.03681553890925482,-3.25
-48.5,0.0,-1.625
-48.5,0.04295146206079803,-8.9375
-48.5,0.04908738521234035,-19.5
-48.5,-0.10431069357622302,0.0
-48.0,-0.00613592315154321,0.0
-48.5,0.0,7.3125
-48.0,0.012271846303085532,0.0
-48.0,0.030679615757712497,-8.9375
-48.5,0.00613592315154321,1.625
-48.5,0.012271846303084644,-10.5625
-48.0,-0.04908738521234035,3.25
-48.5,0.11658253987930856,-25.1875
-48.5,-0.11658253987930856,3.25
-48.5,-0.018407769454627854,10.5625
-48.5,0.0,10.5625
-48.5,0.07976700097005374,-12.1875
-48.5,-0.00613592315154321,-5.6875
-48.5,-0.024543692606170175,-1.625
-48.5,0.00613592315154321,-3.25
-48.5,0.030679615757712497,-10.5625
-48.5,-0.018407769454627854,-5.6875
-48.5,0.024543692606170175,-12.1875
-48.5,-0.03681553890925482,-5.6875
-48.5,0.04908738521234035,-12.1875
-48.5,-0.05522330836388356,-1.625
-48.5,-0.012271846303084644,7.3125
-48.5,0.03681553890925482,-10.5625
-48.5,0.018407769454627854,-14.625
-48.5,-0.04908738521234035,3.25
-48.5,-0.006135923151542322,3.25
-48.5,0.024543692606170175,-4.875
-48.5,-0.04295146206079803,8.9375
-48.5,0.0674951546669682,-8.9375
-49.0,-0.07363107781851053,14.625
-48.5,0.030679615757712497,7.3125
-48.5,0.024543692606170175,-5.6875
-48.5,-0.04295146206079803,8.9375
-48.5,0.018407769454627854,-1.625
-48.0,-0.006135923151542322,0.0
-48.5,0.012271846303084644,1.625
-48.5,-0.012271846303084644,0.0
-48.5,0.024543692606170175,-4.875
-48.5,0.012271846303084644,-3.25
-48.5,0.018407769454627854,-13.0
-48.5,-0.03681553890925482,-3.25
-48.5,0.03681553890925482,-13.0
-48.5,-0.006135923151542322,-7.3125
-49.0,-0.018407769454627854,-1.625
-48.5,-0.04908738521234035,13.0
-48.5,-0.006135923151542322,0.0
-48.0,0.030679615757712497,-1.625
-48.5,0.030679615757712497,-12.1875
-48.5,-0.024543692606170175,3.25
-49.0,0.024543692606170175,-5.6875
-48.5,-0.030679615757712497,-4.875
-48.5,0.006135923151542322,-3.25
-48.5,0.018407769454627854,-8.9375
-48.5,-0.04295146206079803,3.25
-48.5,0.0,5.6875
-48.5,0.00613592315154321,0.0
-48.5,-0.012271846303085532,5.6875
-48.5,-0.006135923151542322,1.625
-48.5,0.0,-1.625
-48.5,-0.00613592315154321,0.0
-48.5,0.06135923151542588,-19.5
-48.5,-0.05522330836388267,1.625
-48.5,0.0,5.6875
-48.5,0.0,0.0
-48.5,0.08590292412159606,-16.25
-48.5,-0.08590292412159606,5.6875
-48.5,0.012271846303084644,0.0
-48.5,0.03681553890925571,-14.625
-48.5,-0.024543692606170175,-7.3125
-48.5,0.0,-7.3125
-48.5,-0.012271846303085532,-1.625
-48.5,0.0,0.0
-48.5,0.04908738521234035,-13.0
-48.5,-0.03681553890925482,-5.6875
-48.5,-0.006135923151542322,0.0
-48.5,-0.018407769454627854,4.875
-48.5,0.030679615757712497,-5.6875
-48.5,-0.04295146206079803,-1.625
-48.5,0.06135923151542588,-10.5625
-48.5,0.018407769454627854,-14.625
-49.0,0.0,-14.625
-48.5,-0.012271846303085532,-7.3125
-48.5,0.0,-12.1875
-48.0,-0.06135923151542588,3.25
-48.5,0.03681553890925571,-7.3125
-48.5,-0.006135923151542322,-4.875
-45.5,0.018407769454627854,-5.6875
-49.0,-0.030679615757713385,4.875
-48.5,0.024543692606170175,-8.9375
-49.0,0.0,-5.6875
-48.5,0.00613592315154321,-8.9375
-48.5,-0.024543692606170175,3.25
-48.5,0.012271846303084644,-4.875
-48.5,-0.012271846303084644,-3.25
-48.5,0.012271846303084644,-5.6875
-48.5,0.018407769454627854,-10.5625
-48.5,-0.024543692606170175,1.625
-48.5,0.012271846303084644,-4.875
-48.5,0.0,-8.9375
-48.5,-0.012271846303084644,5.6875
-48.5,0.018407769454627854,-8.9375
-48.5,-0.03681553890925571,4.875
-48.5,0.024543692606170175,0.0
-48.5,-0.018407769454627854,0.0
-48.5,0.018407769454627854,1.625
-48.5,0.04295146206079803,-10.5625
-48.5,-0.0674951546669682,4.875
-48.5,0.03681553890925571,-10.5625
-49.0,0.0,0.0
-48.5,-0.018407769454627854,0.0
-48.5,-0.006135923151542322,-3.25
-48.5,-0.030679615757713385,5.6875
-48.5,0.04295146206079803,3.25
-48.5,0.024543692606170175,-4.875
-48.5,0.0,-7.3125
-48.5,-0.018407769454627854,-5.6875
-48.5,0.07976700097005374,-17.875
-48.5,-0.05522330836388356,-1.625
-48.5,0.03681553890925571,-16.25
-48.5,-0.06135923151542588,1.625
-48.5,0.0,0.0
-48.0,0.00613592315154321,1.625
-49.0,0.012271846303084644,-4.875
-48.5,-0.03681553890925482,3.25
-48.5,0.04295146206079714,-8.9375
-48.5,-0.024543692606170175,1.625
-48.5,-0.006135923151542322,1.625
-48.5,-0.012271846303084644,5.6875
-48.5,0.024543692606170175,-7.3125
-48.5,-0.018407769454627854,4.875
-48.5,0.03681553890925482,-3.25
-48.5,-0.018407769454626965,0.0
-48.5,-0.00613592315154321,4.875
-48.5,0.012271846303085532,-3.25
-48.5,0.030679615757712497,-7.3125
-48.0,-0.061359231515424995,7.3125
-48.5,0.018407769454626965,3.25
-48.5,-0.04908738521234035,13.0
-48.0,0.0674951546669682,-4.875
-48.5,0.018407769454627854,-3.25
-48.5,-0.03681553890925571,0.0
-48.5,0.018407769454627854,-8.9375
-48.5,0.03681553890925571,-12.1875
-48.5,-0.012271846303085532,-7.3125
-48.5,-0.04295146206079803,-1.625
-48.5,-0.006135923151542322,4.875
-48.5,-0.024543692606170175,5.6875
-48.5,0.06135923151542588,-8.9375
-48.5,-0.04908738521234035,5.6875
-48.5,0.03681553890925482,-4.875
-48.5,-0.006135923151542322,-4.875
-48.5,-0.030679615757712497,1.625
-48.5,-0.00613592315154321,5.6875
-48.5,0.018407769454627854,0.0
-48.5,0.04295146206079803,-12.1875
-48.5,-0.03681553890925571,3.25
-48.5,0.0,-7.3125
-48.5,-0.018407769454626965,-3.25
-48.5,0.006135923151542322,-4.875
-48.5,-0.018407769454627854,-1.625
-48.5,-0.006135923151542322,-1.625
-48.5,0.006135923151542322,-7.3125
-48.5,-0.018407769454627854,1.625
-48.5,0.04908738521234035,-16.25
-48.5,-0.05522330836388267,0.0
-48.0,-0.024543692606170175,5.6875
-49.0,0.012271846303084644,7.3125
-48.5,-0.012271846303084644,3.25
-48.5,0.03681553890925482,-8.9375
-48.5,0.00613592315154321,-12.1875
-48.5,-0.04908738521234035,1.625
-48.5,0.006135923151542322,1.625
-48.5,-0.012271846303085532,5.6875
-48.5,0.012271846303085532,-1.625
-48.0,0.0,-1.625
-48.0,-0.018407769454627854,3.25
-48.0,0.012271846303085532,5.6875
-48.5,0.0674951546669682,-16.25
-48.5,-0.04908738521234124,-4.875
-48.5,0.0,-1.625
-49.0,0.0,-3.25
-48.5,-0.006135923151542322,3.25
-48.5,-0.030679615757712497,12.1875
-49.0,0.04295146206079803,-5.6875
-48.5,-0.024543692606170175,1.625
-48.5,0.0,-3.25
-48.5,0.0,-1.625
-48.5,-0.012271846303085532,5.6875
-48.5,0.024543692606170175,-1.625
-48.5,-0.018407769454627854,1.625
-48.5,-0.006135923151542322,3.25
-48.5,0.024543692606170175,-3.25
-48.5,-0.024543692606170175,-1.625
-49.0,0.006135923151542322,1.625
-48.0,-0.024543692606170175,1.625
-48.5,-0.03681553890925482,12.1875
-48.5,0.030679615757712497,1.625
-48.5,0.018407769454627854,-1.625
-48.5,-0.03681553890925571,1.625
-48.5,-0.006135923151542322,5.6875
-48.5,0.024543692606170175,-1.625
-48.5,0.024543692606170175,-1.625
-49.0,-0.018407769454627854,-1.625
-48.5,-0.012271846303084644,-3.25
-48.5,0.0,1.625
-49.0,0.018407769454626965,0.0
-48.5,-0.018407769454626965,0.0
-48.5,-0.00613592315154321,7.3125
-48.5,-0.006135923151542322,1.625
-48.5,0.006135923151542322,7.3125
-48.5,0.0,1.625
-49.0,0.012271846303085532,-1.625
-48.5,-0.024543692606170175,0.0
-48.5,0.006135923151542322,1.625
-48.5,-0.006135923151542322,1.625
-48.5,0.012271846303084644,3.25
-48.5,0.0,0.0
-48.5,0.018407769454627854,0.0
-48.5,-0.012271846303084644,0.0
-48.5,-0.024543692606170175,4.875
-48.0,-0.030679615757713385,14.625
-48.5,0.030679615757713385,0.0
-48.5,0.012271846303084644,-1.625
-48.5,0.006135923151542322,0.0
-48.5,0.0,-1.625
-48.5,0.018407769454627854,1.625
-48.5,-0.006135923151542322,-5.6875
-48.5,0.012271846303084644,-4.875
-48.5,-0.006135923151542322,-1.625
-48.5,0.0,-7.3125
-48.5,-0.030679615757712497,3.25
-48.5,0.024543692606170175,-1.625
-48.5,0.012271846303084644,-5.6875
-48.5,0.012271846303085532,-7.3125
-48.0,-0.05522330836388267,5.6875
-48.5,0.018407769454626965,1.625
-48.5,0.0,1.625
-48.5,0.030679615757713385,-1.625
-48.0,-0.018407769454627854,4.875
-48.5,0.024543692606170175,-10.5625
-48.5,-0.012271846303085532,-3.25
-47.5,-0.006135923151542322,-1.625
-48.5,0.024543692606170175,-7.3125
-48.0,-0.030679615757712497,4.875
-48.0,0.012271846303084644,-4.875
-48.0,0.012271846303085532,-1.625
-48.0,-0.006135923151542322,-4.875
-47.5,-0.024543692606170175,5.6875
-47.5,0.04295146206079803,-4.875
-47.5,-0.030679615757713385,3.25
-47.5,0.0,1.625
-47.5,0.030679615757713385,-1.625
-47.5,-0.012271846303085532,-1.625
-47.5,-0.012271846303085532,5.6875
-47.5,0.018407769454627854,3.25
-47.5,-0.024543692606170175,7.3125
-47.5,0.030679615757713385,-4.875
-47.0,0.030679615757712497,-5.6875
-47.5,-0.06135923151542588,8.9375
-47.5,0.09203884727313838,-7.3125
-47.0,-0.03681553890925482,-3.25
-47.0,-0.00613592315154321,1.625
-47.0,0.03681553890925571,-7.3125
-47.0,0.006135923151542322,-7.3125
-47.0,-0.04295146206079803,3.25
-47.0,0.03681553890925571,-1.625
-46.5,-0.006135923151542322,1.625
-46.5,-0.00613592315154321,3.25
-46.5,0.012271846303085532,3.25
-46.5,0.006135923151542322,8.9375
-46.0,0.024543692606170175,0.0
-46.0,0.0,1.625
-46.0,0.024543692606170175,0.0
-46.0,-0.018407769454626965,5.6875
-45.5,-0.00613592315154321,4.875
-46.0,0.0,3.25
-45.5,-0.006135923151542322,12.1875
-45.5,0.03681553890925571,-1.625
-45.5,-0.018407769454627854,12.1875
-45.5,0.03681553890925571,-5.6875
-45.5,-0.018407769454627854,1.625
-45.5,0.030679615757712497,-3.25
-45.5,-0.030679615757712497,5.6875
-45.0,0.05522330836388267,-4.875
-45.0,-0.04295146206079803,4.875
-44.5,0.012271846303085532,4.875
-45.0,0.012271846303084644,7.3125
-44.5,0.030679615757713385,-3.25
-45.0,-0.012271846303085532,4.875
-45.0,0.0,-1.625
-44.5,0.00613592315154321,1.625
-44.5,-0.00613592315154321,3.25
-44.5,0.00613592315154321,4.875
-44.5,0.006135923151542322,3.25
-44.5,0.006135923151542322,1.625
-44.5,0.012271846303085532,0.0
-44.0,0.024543692606170175,1.625
-44.5,-0.03681553890925571,8.9375
-44.0,0.018407769454627854,4.875
-44.0,0.012271846303084644,3.25
-44.0,0.00613592315154321,0.0
-44.0,0.018407769454627854,1.625
-43.5,-0.00613592315154321,4.875
-44.0,0.030679615757713385,-1.625
-44.0,-0.06135923151542588,17.875
-43.5,0.018407769454627854,13.0
-43.5,0.024543692606170175,3.25
-43.5,0.018407769454627854,1.625
-43.5,0.006135923151542322,-1.625
-43.5,-0.006135923151542322,-1.625
-43.5,-0.030679615757713385,4.875
-43.5,0.03681553890925571,-1.625
-43.5,0.030679615757712497,-8.9375
-43.5,-0.012271846303084644,-1.625
-43.0,-0.00613592315154321,-4.875
-43.0,-0.03681553890925482,13.0
-43.0,-0.018407769454627854,16.25
-43.0,0.030679615757712497,5.6875
-43.0,0.024543692606170175,0.0
-43.0,-0.006135923151542322,3.25
-43.0,0.04908738521234035,-5.6875
-43.0,-0.030679615757712497,4.875
-42.5,0.0,3.25
-42.5,0.03681553890925571,3.25
-42.5,-0.04295146206079803,10.5625
-43.0,0.018407769454627854,10.5625
-42.5,0.006135923151542322,1.625
-42.5,0.018407769454627854,1.625
-42.5,-0.030679615757713385,8.9375
-42.0,0.030679615757713385,4.875
-42.5,-0.030679615757713385,12.1875
-42.5,0.012271846303085532,12.1875
-42.5,0.018407769454627854,7.3125
-42.0,0.012271846303084644,7.3125
-42.0,-0.018407769454627854,8.9375
-42.0,0.030679615757713385,1.625
-42.0,-0.00613592315154321,1.625
-42.0,0.0,5.6875
-42.0,-0.006135923151542322,7.3125
-42.0,0.030679615757713385,-1.625
-42.0,0.012271846303084644,1.625
-42.0,-0.04295146206079803,8.9375
-41.5,0.024543692606170175,3.25
-41.5,-0.012271846303084644,7.3125
-42.0,0.012271846303084644,4.875
-41.5,0.030679615757713385,0.0
-41.5,0.012271846303084644,4.875
-41.5,0.0,5.6875
-41.5,0.018407769454627854,7.3125
-41.0,0.03681553890925571,3.25
-41.5,0.030679615757712497,-1.625
-42.5,0.05522330836388267,3.25
-42.5,0.07363107781851141,0.0
-42.5,0.10431069357622302,0.0
-42.0,0.00613592315154321,4.875
-41.5,0.024543692606170175,3.25
-41.0,-0.018407769454627854,4.875
-41.0,0.006135923151542322,7.3125
-40.5,0.006135923151542322,5.6875
-40.5,0.00613592315154321,5.6875
-40.5,0.030679615757712497,1.625
-40.5,0.03681553890925571,-4.875
-41.0,-0.00613592315154321,0.0
-40.5,-0.030679615757712497,8.9375
-41.0,-0.006135923151542322,10.5625
-41.0,0.012271846303084644,4.875
-41.0,0.03681553890925571,-5.6875
-41.0,-0.012271846303085532,0.0
-41.0,-0.024543692606170175,4.875
-41.0,0.03681553890925571,0.0
-40.5,-0.006135923151542322,3.25
-41.0,-0.00613592315154321,5.6875
-40.5,0.018407769454627854,-4.875
-40.5,-0.030679615757712497,3.25
-41.0,0.012271846303084644,1.625
-40.5,0.018407769454627854,-5.6875
-40.5,-0.03681553890925482,3.25
-40.5,0.0,5.6875
-40.5,-0.00613592315154321,5.6875
-40.5,0.018407769454627854,-3.25
-40.5,-0.03681553890925482,12.1875
-40.5,0.0,7.3125
-40.5,0.0,5.6875
-40.0,-0.012271846303085532,7.3125
-40.0,0.012271846303085532,8.9375
-40.5,0.012271846303084644,4.875
-40.0,-0.018407769454627854,7.3125
-40.0,0.024543692606170175,23.5625
-40.0,-0.012271846303084644,1.625
-40.0,-0.012271846303085532,4.875
-40.0,-0.012271846303084644,4.875
-39.5,-0.030679615757713385,8.9375
-39.5,0.04295146206079803,-4.875
-39.5,-0.03681553890925482,8.9375
-39.5,0.012271846303084644,0.0
-39.0,0.006135923151542322,-1.625
-39.0,-0.006135923151542322,3.25
-39.0,-0.024543692606170175,5.6875
-38.5,-0.006135923151542322,3.25
-38.5,0.024543692606170175,-4.875
-38.0,-0.012271846303085532,-1.625
-38.0,-0.024543692606170175,7.3125
-38.0,0.018407769454627854,3.25
-38.0,0.018407769454627854,0.0
-37.5,-0.006135923151542322,0.0
-37.5,0.012271846303084644,-1.625
-37.5,-0.012271846303084644,3.25
-37.0,0.012271846303084644,1.625
-37.0,0.0,1.625
-37.0,0.012271846303085532,1.625
-37.0,-0.012271846303085532,7.3125
-36.5,0.05522330836388356,-7.3125
-37.0,-0.018407769454627854,3.25
-36.5,0.012271846303084644,0.0
-36.5,0.0,3.25
-36.5,0.0,3.25
-36.5,-0.006135923151542322,4.875
-36.0,0.024543692606170175,1.625
-36.0,0.024543692606170175,-5.6875
-36.0,-0.006135923151542322,-1.625
-36.0,0.012271846303085532,-4.875
-36.0,-0.018407769454627854,3.25
-36.0,-0.00613592315154321,3.25
-36.0,0.04908738521234124,-8.9375
-36.0,-0.03681553890925571,-1.625
-36.0,-0.012271846303085532,5.6875
-36.0,0.012271846303085532,3.25
-36.0,0.006135923151542322,1.625
-36.0,0.012271846303085532,0.0
-35.5,-0.018407769454627854,1.625
-36.0,0.024543692606170175,1.625
-35.5,-0.012271846303084644,4.875
-35.5,-0.00613592315154321,5.6875
-36.0,0.018407769454627854,-1.625
-35.5,0.0,-1.625
-36.0,0.006135923151542322,1.625
-35.5,0.012271846303085532,5.6875
-35.5,0.012271846303084644,7.3125
-35.5,0.04295146206079803,-1.625
-35.5,0.0,1.625
-36.0,0.012271846303085532,3.25
-35.5,0.012271846303084644,3.25
-36.0,0.012271846303085532,1.625
-35.5,-0.006135923151542322,3.25
-36.0,0.0,5.6875
-35.5,0.012271846303084644,1.625
-36.0,0.018407769454627854,0.0
-35.5,-0.018407769454627854,4.875
-36.0,0.030679615757713385,1.625
-36.0,-0.018407769454627854,5.6875
-36.0,0.018407769454627854,4.875
-36.0,0.012271846303084644,5.6875
-36.0,0.030679615757713385,0.0
-36.0,-0.03681553890925571,8.9375
-36.0,0.030679615757712497,4.875
-36.0,0.00613592315154321,3.25
-36.0,0.0,3.25
-36.0,0.018407769454626965,-1.625
-36.0,-0.012271846303084644,5.6875
-36.0,0.018407769454627854,3.25
-36.0,0.0,1.625
-36.0,0.024543692606170175,1.625
-36.5,-0.012271846303085532,4.875
-36.0,0.012271846303085532,3.25
-36.5,0.0,4.875
-36.5,0.012271846303084644,3.25
-36.0,0.012271846303085532,5.6875
-36.5,0.018407769454627854,3.25
-36.5,-0.00613592315154321,7.3125
-36.5,0.00613592315154321,5.6875
-36.5,0.0,8.9375
-36.5,0.012271846303084644,8.9375
-36.5,0.018407769454627854,4.875
-36.5,0.024543692606170175,4.875
-36.5,0.030679615757713385,-3.25
-36.5,0.024543692606170175,0.0
-37.0,0.03681553890925482,-8.9375
-37.0,-0.024543692606170175,-1.625
-37.0,0.012271846303085532,-3.25
-37.0,0.0,1.625
-37.0,0.006135923151542322,3.25
-37.0,0.030679615757712497,-3.25
-37.0,0.0,0.0
-37.5,0.00613592315154321,0.0
-37.0,0.006135923151542322,0.0
-37.5,0.012271846303084644,0.0
-37.5,0.0,3.25
-37.0,-6.252505691421873,1.625
-37.0,0.006135923151542565,3.25
-37.5,0.0,5.6875
-37.5,0.02454369260617026,3.25
-37.0,0.01227184630308513,5.6875
-37.0,0.030679615757712816,7.3125
-37.0,0.042951462060797946,0.0
-37.0,0.024543692606170286,-1.625
-37.0,0.006135923151542544,5.6875
-37.0,0.042951462060797974,1.625
-37.0,0.030679615757712803,3.25
-37.0,0.02454369260617026,1.625
-37.0,0.024543692606170286,3.25
-37.0,0.03067961575771283,3.25
-37.5,0.02454369260617023,1.625
-37.0,0.006135923151542544,5.6875
-37.0,0.03681553890925543,3.25
-37.5,0.04908738521234052,-3.25
-37.5,0.006135923151542544,3.25
-37.5,0.03067961575771283,0.0
-37.5,0.018407769454627687,3.25
-37.5,0.06135923151542566,-5.6875
-38.0,-0.006135923151542544,3.25
-38.0,0.036815538909255374,7.3125
-38.0,0.03067961575771283,5.6875
-38.0,0.024543692606170286,4.875
-38.5,0.03067961575771272,1.625
-38.5,0.006135923151542655,3.25
-38.5,0.012271846303085088,4.875
-38.5,-0.006135923151542544,4.875
-38.5,0.0,4.875
-38.5,0.01840776945462763,3.25
-38.5,0.006135923151542655,-1.625
-39.0,0.006135923151542544,-1.625
-38.5,-0.03067961575771283,4.875
-39.0,0.012271846303085088,3.25
-38.5,0.006135923151542544,-1.625
-39.0,-0.012271846303085088,3.25
-39.0,0.006135923151542544,-3.25
-39.0,-0.04295146206079792,5.6875
-39.0,0.04295146206079792,-4.875
-39.0,-0.04908738521234046,7.3125
-39.0,-0.006135923151542544,7.3125
-39.0,0.036815538909255374,-1.625
-39.0,-0.036815538909255374,4.875
-39.0,0.006135923151542544,4.875
-39.0,0.0,3.25
-39.0,-0.024543692606170286,8.9375
-39.5,0.018407769454627743,3.25
-39.5,0.006135923151542544,1.625
-39.5,-0.006135923151542544,4.875
-40.0,-0.006135923151542655,7.3125
-40.0,0.06135923151542566,-5.6875
-40.0,-0.01840776945462763,3.25
-40.5,0.006135923151542544,5.6875
-40.5,0.03067961575771283,-1.625
-41.0,0.03067961575771283,-3.25
-41.0,-0.006135923151542655,4.875
-41.0,0.012271846303085199,4.875
-41.5,0.03067961575771283,-4.875
-41.5,0.024543692606170286,-4.875
-41.5,-0.024543692606170286,3.25
-41.5,0.006135923151542544,1.625
-42.0,0.0,0.0
-42.0,-0.024543692606170286,1.625
-42.0,0.0,4.875
-42.0,-0.006135923151542544,1.625
-42.0,-0.006135923151542544,3.25
-42.0,-0.03067961575771283,1.625
-42.0,-0.05522330836388312,8.9375
-42.0,0.024543692606170286,-4.875
-41.5,-0.09817477042468103,3.25
-41.5,0.0,-7.3125
-41.5,-0.04908738521234057,-1.625
-42.0,-0.04295146206079792,5.6875
-42.0,-0.02454369260617023,7.3125
-42.0,-0.03067961575771283,8.9375
-41.5,-0.006135923151542544,-1.625
-42.0,-0.006135923151542599,0.0
-42.0,-0.006135923151542544,-5.6875
-42.0,-0.0736310778185108,3.25
-42.0,-0.018407769454627687,12.1875
-42.0,-0.012271846303085088,1.625
-42.0,-0.04908738521234057,3.25
-42.0,-0.018407769454627687,3.25
-41.5,0.012271846303085143,-4.875
-42.0,-0.05522330836388306,-3.25
-41.5,-0.006135923151542572,-7.3125
-42.0,-0.018407769454627715,-3.25
-42.0,-0.02454369260617023,-1.625
-41.5,-0.06749515466696823,4.875
-41.5,-0.03681553890925538,3.25
-41.5,-0.018407769454627694,3.25
-41.5,-0.02454369260617026,7.3125
-41.5,0.01227184630308513,1.625
-41.5,-0.01227184630308513,1.625
-41.5,6.258641614573415,5.6875
-41.5,0.0,3.25
-41.5,-0.006135923151542322,3.25
-41.5,0.0,4.875
-41.5,-6.258641614573416,-4.875
-41.5,6.240233845118788,3.25
-41.5,0.018407769454627854,3.25
-41.5,-6.252505691421873,-4.875
-41.5,6.22182607566416,10.5625
-41.5,-6.203418306209533,-13.0
-41.5,6.246369768270331,-3.25
-41.0,-0.024543692606170175,-1.625
-41.0,-0.04295146206079803,0.0
-40.5,-0.00613592315154321,-3.25
-40.5,-0.061359231515424995,4.875
-40.0,-0.024543692606170175,5.6875
-40.0,-0.04295146206079803,4.875
-39.5,-0.00613592315154321,1.625
-39.5,-0.05522330836388267,14.625
-39.5,0.012271846303085532,3.25
-39.5,0.018407769454626965,-3.25
-39.0,-0.024543692606170175,0.0
-39.0,-0.024543692606170175,4.875
-39.0,-0.018407769454627854,0.0
-38.5,-0.018407769454626965,1.625
-38.5,-0.00613592315154321,-3.25
-38.0,0.0,-4.875
-38.0,-0.030679615757712497,3.25
-38.0,-0.012271846303085532,3.25
-38.0,0.00613592315154321,4.875
-38.0,-0.012271846303085532,7.3125
-38.0,0.018407769454627854,1.625
-38.0,0.006135923151542322,-3.25
-38.0,-0.024543692606170175,7.3125
-38.0,-0.006135923151542322,4.875
-38.0,0.030679615757712497,-4.875
-38.0,-0.018407769454627854,1.625
-38.0,0.00613592315154321,0.0
-38.0,0.006135923151542322,-1.625
-38.0,0.0,1.625
-37.5,-0.018407769454627854,0.0
-37.5,-0.018407769454627854,4.875
-38.0,0.012271846303085532,4.875
-38.0,0.018407769454627854,-1.625
-38.0,-0.03681553890925571,4.875
-37.5,0.012271846303084644,1.625
-38.0,0.0,3.25
-37.5,0.0,1.625
-38.0,0.00613592315154321,3.25
-37.5,0.0,1.625
-37.5,0.012271846303084644,-3.25
-38.0,-0.012271846303084644,1.625
-38.0,-0.012271846303085532,1.625
-38.0,0.018407769454627854,0.0
-37.5,-0.024543692606170175,1.625
-38.0,0.0,4.875
-38.0,0.0,1.625
-38.0,-0.012271846303085532,4.875
-38.0,-0.024543692606170175,8.9375
-38.0,0.024543692606170175,4.875
-38.0,0.00613592315154321,0.0
-38.0,-0.018407769454627854,4.875
-38.0,0.0,5.6875
-38.0,0.024543692606170175,-3.25
-38.0,-0.012271846303085532,1.625
-38.0,-0.024543692606170175,4.875
-38.0,0.018407769454627854,0.0
-38.0,-0.018407769454627854,5.6875
-38.0,0.018407769454627854,0.0
-38.0,-0.012271846303084644,1.625
-38.0,0.0,1.625
-38.0,0.006135923151542322,0.0
-38.0,-0.006135923151542322,3.25
-38.0,-0.012271846303085532,7.3125
-38.0,0.012271846303085532,1.625
-38.0,-0.012271846303085532,3.25
-38.0,0.006135923151542322,0.0
-38.0,-0.018407769454627854,4.875
-38.0,0.0,1.625
-38.0,0.018407769454627854,-5.6875
-38.5,-0.03681553890925482,1.625
-38.5,-0.018407769454627854,3.25
-38.5,0.012271846303084644,-1.625
-38.5,-0.012271846303084644,0.0
-38.5,0.0,-5.6875
-38.5,-0.030679615757713385,0.0
-38.5,-0.012271846303084644,1.625
-39.0,-0.006135923151542322,3.25
-39.0,0.012271846303084644,1.625
-39.0,-0.012271846303084644,0.0
-39.0,-0.012271846303085532,1.625
-39.0,0.0,5.6875
-39.0,-0.006135923151542322,-1.625
-39.0,-0.006135923151542322,4.875
-39.0,-0.00613592315154321,4.875
-39.0,0.012271846303085532,1.625
-39.0,-0.018407769454627854,3.25
-39.0,0.006135923151542322,3.25
-39.0,0.00613592315154321,3.25
-39.0,0.006135923151542322,1.625
-39.0,-0.018407769454627854,4.875
-39.0,0.0,1.625
-39.0,0.012271846303085532,1.625
-39.0,-0.018407769454627854,0.0
-39.0,-0.00613592315154321,0.0
-39.5,-0.006135923151542322,4.875
-39.5,0.006135923151542322,0.0
-39.5,0.012271846303085532,-3.25
-39.5,-0.04295146206079803,4.875
-39.5,0.012271846303085532,0.0
-39.5,-0.00613592315154321,1.625
-39.5,-0.012271846303084644,4.875
-39.5,0.024543692606170175,-3.25
-39.5,-0.03681553890925571,5.6875
-39.5,-0.012271846303084644,12.1875
-39.5,0.024543692606170175,1.625
-40.0,0.006135923151542322,0.0
-39.5,0.0,0.0
-40.0,-0.006135923151542322,1.625
-40.0,-0.03681553890925571,5.6875
-39.5,0.006135923151542322,8.9375
-40.0,0.05522330836388356,-8.9375
-40.0,0.018407769454627854,-13.0
-40.0,-0.05522330836388356,0.0
-40.0,0.012271846303085532,0.0
-40.0,-0.024543692606170175,-1.625
-40.0,0.0,3.25
-40.0,0.006135923151542322,7.3125
-40.0,0.018407769454627854,-3.25
-40.0,-0.03681553890925571,5.6875
-40.0,0.024543692606170175,1.625
-40.0,-0.006135923151542322,3.25
-40.0,0.0,-1.625
-40.0,-0.018407769454627854,5.6875
-40.0,-0.006135923151542322,7.3125
-40.0,0.018407769454627854,0.0
-40.0,-0.00613592315154321,1.625
-40.0,0.018407769454627854,-1.625
-40.0,0.0,-3.25
-40.0,-0.024543692606170175,5.6875
-40.0,0.024543692606170175,1.625
-40.0,0.012271846303085532,-3.25
-40.0,-0.024543692606170175,0.0
-40.0,0.012271846303084644,0.0
-40.0,-0.018407769454627854,0.0
-40.0,0.0,1.625
-40.0,0.0,-1.625
-40.0,-0.006135923151542322,-1.625
-40.0,0.012271846303085532,-3.25
-40.0,-0.00613592315154321,-3.25
-40.5,-0.024543692606170175,3.25
-40.5,0.024543692606170175,0.0
-40.0,-0.006135923151542322,-1.625
-40.5,-0.012271846303084644,0.0
-40.5,0.012271846303084644,1.625
-40.0,-0.006135923151542322,-1.625
-40.5,0.0,-1.625
-40.0,-0.030679615757712497,5.6875
-40.0,0.018407769454626965,0.0
-40.5,0.00613592315154321,-1.625
-40.5,0.006135923151542322,0.0
-40.0,-0.012271846303085532,3.25
-40.5,-0.006135923151542322,0.0
-40.5,0.006135923151542322,-3.25
-40.5,0.012271846303085532,-5.6875
-40.0,0.006135923151542322,-5.6875
-40.5,-0.030679615757712497,0.0
-40.5,-0.012271846303085532,5.6875
-40.5,0.0,5.6875
-40.5,0.00613592315154321,5.6875
-40.5,0.0,4.875
-40.5,0.0,3.25
-40.5,-0.00613592315154321,-1.625
-40.5,-0.012271846303084644,5.6875
-40.5,-0.012271846303085532,8.9375
-41.0,-0.006135923151542322,5.6875
-41.0,0.03681553890925571,-3.25
-41.0,-0.030679615757713385,0.0
-41.0,0.0,1.625
-41.0,0.03681553890925571,-8.9375
-41.0,-0.030679615757713385,4.875
-41.0,0.012271846303085532,-3.25
-41.5,-0.03681553890925571,3.25
-41.0,0.04295146206079803,-3.25
-41.0,-0.04295146206079803,1.625
-41.0,-0.012271846303084644,5.6875
-41.5,0.006135923151542322,4.875
-41.5,0.024543692606170175,-3.25
-41.5,-0.024543692606170175,1.625
-41.5,0.012271846303085532,-4.875
-41.5,-0.018407769454627854,5.6875
-41.5,0.0,3.25
-41.5,0.006135923151542322,5.6875
-41.5,0.0,-1.625
-41.5,0.006135923151542322,-3.25
-41.5,-0.006135923151542322,0.0
-41.5,0.018407769454627854,-5.6875
-41.5,-0.024543692606170175,3.25
-42.0,0.012271846303084644,4.875
-41.5,-0.030679615757712497,7.3125
-42.0,0.012271846303085532,-1.625
-41.5,0.012271846303084644,1.625
-41.5,-0.012271846303084644,1.625
-42.0,0.018407769454626965,4.875
-41.5,-0.012271846303084644,4.875
-42.0,0.012271846303084644,-1.625
-42.0,0.012271846303085532,0.0
-42.0,-0.012271846303085532,4.875
-42.0,-0.006135923151542322,0.0
-42.0,0.012271846303085532,-3.25
-42.0,-0.03681553890925571,8.9375
-42.0,0.0,7.3125
-42.0,0.030679615757712497,-4.875
-42.0,-0.012271846303084644,1.625
-42.0,0.0,3.25
-42.0,0.0,4.875
-42.0,-0.006135923151542322,1.625
-42.0,0.0,1.625
-42.0,0.012271846303084644,-1.625
-42.0,-0.030679615757712497,3.25
-42.0,0.024543692606170175,-1.625
-42.0,-0.006135923151542322,-1.625
-42.0,-0.03681553890925571,8.9375
-42.0,0.03681553890925571,0.0
-42.5,-0.012271846303085532,1.625
-42.0,0.0,1.625
-42.0,0.024543692606170175,-3.25
-42.0,-0.030679615757712497,7.3125
-42.0,0.018407769454627854,-3.25
-42.0,-0.018407769454627854,0.0
-42.0,0.0,5.6875
-42.0,0.012271846303084644,-3.25
-42.0,-0.006135923151542322,1.625
-42.0,0.018407769454627854,-1.625
-42.0,0.006135923151542322,-4.875
-42.0,-0.03681553890925571,0.0
-42.0,0.018407769454627854,-1.625
-42.0,-0.006135923151542322,1.625
-42.5,0.006135923151542322,-1.625
-42.0,-0.04908738521234035,10.5625
-42.5,0.0674951546669682,-5.6875
-42.0,-0.024543692606170175,-1.625
-42.5,-0.024543692606170175,5.6875
-42.0,0.018407769454627854,0.0
-42.0,0.0,-3.25
-42.5,-0.00613592315154321,1.625
-42.0,0.012271846303085532,0.0
-42.0,-0.018407769454627854,3.25
-42.0,0.012271846303085532,1.625
-42.5,0.0,-1.625
-42.0,0.0,0.0
-42.0,0.012271846303084644,-5.6875
-42.0,-0.018407769454627854,-1.625
-42.0,0.012271846303085532,-5.6875
-42.0,0.012271846303085532,-5.6875
-42.0,-0.012271846303085532,-4.875
-42.0,0.012271846303085532,-4.875
-42.0,-0.03681553890925571,1.625
-42.5,0.030679615757712497,-4.875
-42.5,-0.024543692606170175,1.625
-42.0,0.006135923151542322,3.25
-42.0,0.0,-1.625
-42.0,0.0,1.625
-42.0,-0.006135923151542322,0.0
-42.0,0.0,0.0
-42.5,-0.012271846303084644,1.625
-42.0,0.018407769454626965,-1.625
-42.5,0.0,-1.625
-42.5,0.0,-1.625
-42.5,0.00613592315154321,-3.25
-42.5,-0.012271846303085532,0.0
-42.5,-0.006135923151542322,7.3125
-42.0,0.024543692606170175,-8.9375
-42.0,-0.024543692606170175,3.25
-42.5,0.018407769454627854,-3.25
-42.5,-0.03681553890925571,7.3125
-42.5,0.006135923151542322,5.6875
-42.5,0.0,0.0
-42.5,0.0,1.625
-42.5,0.030679615757713385,-7.3125
-42.5,-0.03681553890925571,3.25
-42.0,0.0,1.625
-42.0,0.024543692606170175,-3.25
-42.5,-0.024543692606170175,0.0
-42.0,0.030679615757712497,-4.875
-42.5,-0.03681553890925482,3.25
-42.5,0.030679615757712497,0.0
-42.5,-0.024543692606170175,4.875
-42.5,-0.018407769454627854,8.9375
-42.5,0.03681553890925571,-3.25
-42.0,-0.018407769454627854,3.25
-42.0,0.018407769454627854,-5.6875
-42.5,-0.018407769454627854,0.0
-42.5,-0.006135923151542322,1.625
-42.5,0.012271846303084644,0.0
-42.0,-0.024543692606170175,4.875
-42.5,0.012271846303085532,1.625
-42.5,-0.006135923151542322,3.25
-42.0,0.030679615757712497,-1.625
-42.5,-0.018407769454627854,1.625
-42.0,0.006135923151542322,3.25
-42.5,-0.012271846303084644,0.0
-42.0,0.0,3.25
-42.5,0.03681553890925482,-7.3125
-42.5,-0.04295146206079714,4.875
-42.5,0.03681553890925482,-5.6875
-42.5,-0.04908738521234035,5.6875
-42.5,0.030679615757712497,-1.625
-42.5,-0.012271846303084644,0.0
-42.5,0.030679615757712497,-5.6875
-42.5,-0.018407769454627854,-5.6875
-42.5,0.0,-5.6875
-42.5,-0.04295146206079803,5.6875
-42.5,0.024543692606171064,4.875
-42.5,-0.018407769454627854,5.6875
-42.5,0.030679615757712497,1.625
-42.5,-0.012271846303084644,-1.625
-42.5,0.012271846303084644,-1.625
-42.5,0.018407769454627854,-7.3125
-42.5,-0.03681553890925571,5.6875
-42.5,0.018407769454627854,1.625
-42.5,-0.04295146206079803,7.3125
-42.5,0.018407769454627854,4.875
-42.5,0.030679615757712497,-4.875
-42.5,-0.012271846303084644,0.0
-42.5,0.012271846303084644,-7.3125
-42.5,-0.024543692606170175,0.0
-42.5,-0.030679615757712497,7.3125
-42.5,0.05522330836388267,-5.6875
-42.5,-0.03681553890925482,5.6875
-42.5,0.012271846303084644,1.625
-42.5,0.018407769454627854,1.625
-42.5,-0.018407769454627854,3.25
-42.5,-0.006135923151542322,4.875
-42.5,0.018407769454627854,-1.625
-42.5,-0.024543692606170175,4.875
-42.5,0.030679615757712497,-4.875
-42.5,0.0,-3.25
-42.5,-0.030679615757712497,5.6875
-42.5,0.030679615757712497,-1.625
-42.5,0.0,-4.875
-42.5,-0.006135923151542322,-1.625
-42.5,-0.006135923151542322,3.25
-42.5,-0.030679615757713385,7.3125
-42.5,0.012271846303085532,-1.625
-42.0,0.012271846303084644,1.625
-42.5,0.0,1.625
-42.5,0.0,1.625
-42.5,-0.006135923151542322,1.625
-42.5,0.012271846303085532,-3.25
-42.5,-0.00613592315154321,0.0
-42.5,-0.03681553890925482,7.3125
-42.5,0.03681553890925482,1.625
-42.5,-0.024543692606170175,4.875
-42.5,0.012271846303085532,4.875
-42.5,0.018407769454627854,-3.25
-42.5,-0.012271846303085532,-1.625
-42.5,-0.006135923151542322,-1.625
-42.5,-0.018407769454627854,10.5625
-42.5,0.04295146206079803,-7.3125
-42.5,-0.04908738521234035,5.6875
-42.5,0.04295146206079803,-5.6875
-42.5,-0.030679615757713385,0.0
-42.5,-0.05522330836388267,14.625
-42.5,0.061359231515424995,-1.625
-42.5,-0.012271846303084644,7.3125
-42.5,-0.012271846303085532,3.25
-42.5,0.012271846303085532,0.0
-42.5,-0.006135923151542322,3.25
-42.5,0.03681553890925482,-3.25
-42.5,-0.061359231515424995,13.0
-42.5,0.030679615757712497,1.625
-42.5,0.024543692606170175,-4.875
-42.5,-0.030679615757712497,4.875
-43.0,-0.00613592315154321,7.3125
-42.5,0.00613592315154321,3.25
-42.5,0.012271846303084644,3.25
-42.5,-0.018407769454627854,5.6875
-42.5,0.012271846303085532,1.625
-42.5,0.012271846303084644,-5.6875
-42.5,-0.03681553890925482,5.6875
-42.5,0.024543692606170175,-1.625
-42.5,-0.018407769454627854,7.3125
-42.5,-0.006135923151542322,4.875
-42.5,0.012271846303084644,4.875
-42.5,-0.006135923151542322,5.6875
-42.5,0.006135923151542322,3.25
-42.5,-0.006135923151542322,7.3125
-42.5,0.024543692606170175,0.0
-42.5,-0.018407769454627854,1.625
-42.5,0.0,1.625
-42.5,0.00613592315154321,4.875
-42.5,0.006135923151542322,4.875
-42.5,-0.006135923151542322,0.0
-42.5,-0.018407769454627854,1.625
-42.5,0.0,4.875
-42.5,0.006135923151542322,3.25
-42.5,0.024543692606170175,-3.25
-42.5,-0.018407769454627854,3.25
-42.5,0.018407769454627854,-3.25
-42.5,-0.018407769454627854,7.3125
-42.5,0.0,1.625
-42.5,0.0,4.875
-42.5,-0.024543692606170175,8.9375
-42.5,0.03681553890925571,-5.6875
-42.5,-0.04295146206079803,7.3125
-42.5,0.04295146206079803,0.0
-42.5,-0.018407769454627854,3.25
-42.5,-0.018407769454627854,5.6875
-42.5,0.018407769454627854,3.25
-42.5,-0.030679615757712497,10.5625
-42.5,0.030679615757712497,1.625
-42.5,-0.04295146206079803,8.9375
-42.5,0.04295146206079803,1.625
-42.5,-0.03681553890925571,8.9375
-42.5,0.0,7.3125
-42.5,0.0,7.3125
-42.5,0.012271846303085532,4.875
-43.0,0.0,7.3125
-43.0,0.018407769454627854,1.625
-42.5,-0.018407769454627854,5.6875
-42.5,0.012271846303085532,5.6875
-42.5,0.018407769454626965,0.0
-42.5,-0.018407769454626965,0.0
-43.0,-0.012271846303085532,7.3125
-42.5,-0.030679615757712497,13.0
-42.5,0.030679615757712497,8.9375
-42.5,-0.018407769454627854,10.5625
-42.5,0.0,7.3125
-43.0,0.030679615757713385,3.25
-42.5,-0.04295146206079803,8.9375
-43.0,0.006135923151542322,14.625
-42.5,0.03681553890925571,0.0
-42.5,0.018407769454626965,0.0
-42.5,-0.024543692606170175,-1.625
-43.0,0.024543692606170175,-1.625
-42.5,0.0,-8.9375
-43.0,-0.04908738521234035,7.3125
-42.5,-0.006135923151542322,12.1875
-42.5,0.04908738521234035,0.0
-43.0,-0.030679615757712497,5.6875
-43.0,0.0,4.875
-42.5,0.024543692606170175,0.0
-42.5,-0.012271846303085532,-1.625
-42.5,0.0,8.9375
-43.0,0.024543692606170175,-8.9375
-42.5,0.012271846303085532,-4.875
-43.0,-0.05522330836388356,7.3125
-42.5,0.024543692606171064,-1.625
-43.0,-0.030679615757713385,8.9375
-42.5,0.03681553890925571,1.625
-42.5,-0.05522330836388356,8.9375
-43.0,0.018407769454627854,7.3125
-42.5,0.0,7.3125
-42.5,-0.006135923151542322,7.3125
-43.0,0.012271846303084644,1.625
-42.5,0.012271846303085532,4.875
-43.0,-0.030679615757712497,12.1875
-43.0,0.018407769454626965,4.875
-43.0,-0.030679615757712497,14.625
-43.0,0.03681553890925571,0.0
-43.0,0.018407769454627854,1.625
-42.5,-0.012271846303085532,3.25
-42.5,-0.018407769454627854,3.25
-42.5,-0.006135923151542322,1.625
-43.0,0.0,5.6875
-42.5,0.018407769454627854,-1.625
-42.5,-0.012271846303085532,5.6875
-43.0,-0.006135923151542322,10.5625
-42.5,-0.018407769454627854,10.5625
-43.0,0.06135923151542588,-10.5625
-43.0,-0.03681553890925571,3.25
-42.5,-0.030679615757712497,10.5625
-42.5,0.03681553890925482,1.625
-43.0,-0.030679615757712497,3.25
-42.5,0.006135923151542322,3.25
-43.0,0.024543692606170175,-4.875
-42.5,-0.006135923151542322,1.625
-42.5,-0.012271846303084644,0.0
-42.5,0.0,4.875
-43.0,0.012271846303084644,0.0
-42.5,-0.006135923151542322,1.625
-42.5,-0.012271846303085532,5.6875
-43.0,-0.012271846303084644,12.1875
-42.5,0.024543692606170175,0.0
-42.5,-0.030679615757712497,5.6875
-43.0,0.04295146206079714,0.0
-42.5,-0.030679615757712497,5.6875
-43.0,0.030679615757712497,0.0
-43.0,0.0,-3.25
-42.5,-0.012271846303084644,-1.625
-43.0,-0.006135923151542322,0.0
-42.5,-0.018407769454627854,3.25
-43.0,0.04295146206079803,-4.875
-42.5,-0.030679615757713385,4.875
-42.5,-0.006135923151542322,0.0
-42.5,0.018407769454627854,1.625
-42.5,-0.024543692606170175,7.3125
-42.5,-0.018407769454627854,10.5625
-42.5,0.030679615757712497,1.625
-42.5,0.00613592315154321,0.0
-42.5,0.0,0.0
-42.5,-0.012271846303085532,5.6875
-42.5,-0.012271846303084644,7.3125
-42.5,0.012271846303084644,4.875
-42.5,-0.006135923151542322,7.3125
-42.5,-0.006135923151542322,8.9375
-42.5,-0.00613592315154321,8.9375
-42.5,0.012271846303085532,3.25
-42.5,0.006135923151542322,4.875
-42.5,-0.024543692606170175,10.5625
-42.5,0.04908738521234035,-3.25
-43.0,-0.018407769454627854,1.625
-42.5,-0.018407769454626965,1.625
-42.5,0.0,5.6875
-42.5,-0.012271846303085532,10.5625
-42.5,0.012271846303085532,4.875
-42.5,0.0,4.875
-42.5,0.061359231515424995,-13.0
-43.0,-0.030679615757712497,-4.875
-42.5,0.018407769454627854,-8.9375
-42.5,-0.0674951546669682,5.6875
-42.5,0.0,8.9375
-42.5,-0.00613592315154321,10.5625
-42.5,0.00613592315154321,8.9375
-42.5,0.03681553890925482,-1.625
-42.5,-0.04295146206079803,7.3125
-42.5,0.05522330836388356,-1.625
-42.5,-0.006135923151542322,-1.625
-42.5,-0.030679615757713385,4.875
-42.0,0.0674951546669682,-5.6875
-41.5,0.04908738521234035,3.25
-38.5,0.21475731030399015,1.625
-37.0,0.24543692606170264,-4.875
-36.5,0.09203884727313838,0.0
-36.5,0.05522330836388356,1.625
-36.5,0.012271846303084644,3.25
-36.5,-0.012271846303084644,1.625
-36.0,-0.012271846303085532,-1.625
-36.5,-0.024543692606170175,0.0
-36.5,-0.018407769454627854,1.625
-36.5,-0.024543692606170175,0.0
-36.5,0.030679615757712497,-4.875
-36.5,-0.006135923151542322,0.0
-36.5,0.006135923151542322,1.625
-36.5,-0.012271846303084644,0.0
-36.5,0.012271846303084644,-4.875
-36.5,-0.012271846303084644,1.625
-36.5,-0.012271846303085532,7.3125
-36.5,0.018407769454627854,3.25
-36.5,0.006135923151542322,3.25
-36.5,0.012271846303085532,-1.625
-36.5,-0.006135923151542322,0.0
-36.5,-0.012271846303085532,4.875
-36.0,0.006135923151542322,4.875
-36.5,0.00613592315154321,-3.25
-36.5,-0.030679615757713385,5.6875
-36.5,0.012271846303085532,4.875
-36.5,0.006135923151542322,-1.625
-36.5,0.006135923151542322,-1.625
-36.5,0.018407769454627854,-4.875
-36.5,-0.024543692606170175,1.625
-36.5,0.006135923151542322,-1.625
-36.5,0.012271846303085532,-4.875
-36.5,-0.006135923151542322,-1.625
-36.5,-0.018407769454627854,3.25
-36.5,-0.006135923151542322,7.3125
-36.5,0.012271846303084644,1.625
-36.5,0.012271846303085532,0.0
-36.5,0.0,-1.625
-36.5,0.006135923151542322,-1.625
-36.5,0.006135923151542322,-3.25
-36.5,-0.012271846303084644,-1.625
-36.5,0.006135923151542322,1.625
-36.0,-0.018407769454627854,3.25
-36.5,0.018407769454627854,-1.625
-36.5,0.0,-3.25
-36.5,-0.012271846303085532,1.625
-36.5,0.00613592315154321,1.625
-36.5,0.0,-1.625
-36.5,0.006135923151542322,3.25
-36.0,0.012271846303084644,-3.25
-36.5,0.0,-3.25
-36.5,-0.006135923151542322,0.0
-36.5,0.012271846303085532,-4.875
-36.5,-0.012271846303085532,-1.625
-36.5,-0.006135923151542322,-1.625
-36.0,-0.012271846303085532,3.25
-36.5,0.0,4.875
-36.5,0.00613592315154321,-1.625
-36.5,0.006135923151542322,1.625
-36.5,0.006135923151542322,-3.25
-36.0,-0.006135923151542322,0.0
