100000000000000000006600,1,1480115870929239,1480115870929239,1,0.8125,13312,-34.0,865.7,0.3681554
100000000000000000006600,1,1480115870936063,1480115870936063,1,0.8125,13312,-34.0,865.7,0.3742913
100000000000000000006600,1,1480115870943202,1480115870943202,1,0.8125,13312,-34.0,865.7,0.3742913
100000000000000000006600,1,1480115870950072,1480115870950072,1,1.625,13312,-34.0,865.7,0.3742913
100000000000000000006600,1,1480115870956749,1480115870956749,1,2.4375,13312,-34.0,865.7,0.3681554
100000000000000000006600,1,1480115870963883,1480115870963883,1,-1.625,13312,-34.0,865.7,0.3926991
100000000000000000006600,1,1480115870970804,1480115870970804,1,0.8125,13312,-34.5,865.7,0.3742913
100000000000000000006600,1,1480115870977528,1480115870977528,1,0.0,13312,-34.0,865.7,0.3742913
100000000000000000006600,1,1480115870984715,1480115870984715,1,2.4375,13312,-34.0,865.7,0.36201948
100000000000000000006600,1,1480115870991413,1480115870991413,1,1.625,13312,-34.0,865.7,0.3742913
100000000000000000006600,1,1480115870998382,1480115870998382,1,2.4375,13312,-34.0,865.7,0.3681554
100000000000000000006600,1,1480115871005551,1480115871005551,1,1.625,13312,-34.0,865.7,0.3742913
100000000000000000006600,1,1480115871012278,1480115871012278,1,2.4375,13312,-34.0,865.7,0.3681554
100000000000000000006600,1,1480115871019193,1480115871019193,1,1.625,13312,-34.0,865.7,0.3742913
100000000000000000006600,1,1480115871026361,1480115871026361,1,1.625,13312,-34.0,865.7,0.3742913
100000000000000000006600,1,1480115871033255,1480115871033255,1,0.8125,13312,-34.5,865.7,0.38042724
100000000000000000006600,1,1480115871039935,1480115871039935,1,0.8125,13312,-34.0,865.7,0.3742913
100000000000000000006600,1,1480115871047115,1480115871047115,1,1.625,13312,-34.0,865.7,0.38042724
100000000000000000006600,1,1480115871053975,1480115871053975,1,0.0,13312,-34.0,865.7,0.3742913
100000000000000000006600,1,1480115871060899,1480115871060899,1,-0.8125,13312,-34.5,865.7,0.3926991
100000000000000000006600,1,1480115871067563,1480115871067563,1,1.625,13312,-34.0,865.7,0.36201948
100000000000000000006600,1,1480115871074447,1480115871074447,1,0.0,13312,-34.0,865.7,0.38042724
100000000000000000006600,1,1480115871081390,1480115871081390,1,0.8125,13312,-34.5,865.7,0.3742913
100000000000000000006600,1,1480115871088281,1480115871088281,1,0.8125,13312,-34.0,865.7,0.3742913
100000000000000000006600,1,1480115871095203,1480115871095203,1,0.8125,13312,-34.0,865.7,0.38042724
100000000000000000006600,1,1480115871102337,1480115871102337,1,1.625,13312,-34.0,865.7,0.3681554
100000000000000000006600,1,1480115871109244,1480115871109244,1,0.8125,13312,-34.0,865.7,0.3742913
100000000000000000006600,1,1480115871115924,1480115871115924,1,2.4375,13312,-34.0,865.7,0.3742913
100000000000000000006600,1,1480115871122855,1480115871122855,1,0.0,13312,-34.5,865.7,0.38656315
100000000000000000006600,1,1480115871129796,1480115871129796,1,2.4375,13312,-34.0,865.7,0.3681554
100000000000000000006600,1,1480115871136679,1480115871136679,1,0.8125,13312,-34.0,865.7,0.38042724
100000000000000000006600,1,1480115871143767,1480115871143767,1,2.4375,13312,-34.5,865.7,0.3681554
100000000000000000006600,1,1480115871150673,1480115871150673,1,2.4375,13312,-34.0,865.7,0.3681554
100000000000000000006600,1,1480115871157552,1480115871157552,1,4.875,13312,-34.0,865.7,0.36201948
100000000000000000006600,1,1480115871164241,1480115871164241,1,0.0,13312,-34.0,865.7,0.38656315
100000000000000000006600,1,1480115871171392,1480115871171392,1,2.4375,13312,-34.0,865.7,0.3681554
100000000000000000006600,1,1480115871178103,1480115871178103,1,1.625,13312,-34.5,865.7,0.3742913
100000000000000000006600,1,1480115871185266,1480115871185266,1,2.4375,13312,-34.0,865.7,0.36201948
100000000000000000006600,1,1480115871192149,1480115871192149,1,2.4375,13312,-34.0,865.7,0.3742913
100000000000000000006600,1,1480115871198821,1480115871198821,1,0.8125,13312,-34.0,865.7,0.38042724
100000000000000000006600,1,1480115871205998,1480115871205998,1,2.4375,13312,-34.5,865.7,0.3681554
100000000000000000006600,1,1480115871212662,1480115871212662,1,0.0,13312,-34.5,865.7,0.38042724
100000000000000000006600,1,1480115871219615,1480115871219615,1,4.875,13312,-34.5,865.7,0.36201948
100000000000000000006600,1,1480115871226705,1480115871226705,1,-1.625,13312,-34.5,865.7,0.3926991
100000000000000000006600,1,1480115871233384,1480115871233384,1,0.8125,13312,-34.5,865.7,0.3742913
100000000000000000006600,1,1480115871240294,1480115871240294,1,1.625,13312,-34.0,865.7,0.3742913
100000000000000000006600,1,1480115871247151,1480115871247151,1,0.8125,13312,-34.0,865.7,0.38656315
100000000000000000006600,1,1480115871254042,1480115871254042,1,2.4375,13312,-34.5,865.7,0.36201948
100000000000000000006600,1,1480115871261249,1480115871261249,1,1.625,13312,-34.0,865.7,0.38042724
100000000000000000006600,1,1480115871267946,1480115871267946,1,1.625,13312,-34.0,865.7,0.3742913
100000000000000000006600,1,1480115871274806,1480115871274806,1,0.8125,13312,-34.0,865.7,0.38656315
100000000000000000006600,1,1480115871281739,1480115871281739,1,1.625,13312,-34.5,865.7,0.3742913
100000000000000000006600,1,1480115871288914,1480115871288914,1,3.25,13312,-34.5,865.7,0.3681554
100000000000000000006600,1,1480115871295547,1480115871295547,1,0.0,13312,-34.0,865.7,0.38042724
100000000000000000006600,1,1480115871302485,1480115871302485,1,0.0,13312,-34.5,865.7,0.38656315
100000000000000000006600,1,1480115871309620,1480115871309620,1,0.8125,13312,-34.0,865.7,0.38042724
100000000000000000006600,1,1480115871316329,1480115871316329,1,1.625,13312,-34.0,865.7,0.3681554
100000000000000000006600,1,1480115871323549,1480115871323549,1,0.8125,13312,-34.0,865.7,0.3742913
100000000000000000006600,1,1480115871330423,1480115871330423,1,2.4375,13312,-34.0,865.7,0.3681554
100000000000000000006600,1,1480115871337079,1480115871337079,1,2.4375,13312,-34.0,865.7,0.3742913
100000000000000000006600,1,1480115871344227,1480115871344227,1,-1.625,13312,-34.0,865.7,0.38656315
100000000000000000006600,1,1480115871351097,1480115871351097,1,-9.75,13312,-34.0,865.7,0.44792238
100000000000000000006600,1,1480115871358003,1480115871358003,1,3.25,13312,-34.0,865.7,0.36201948
100000000000000000006600,1,1480115871364659,1480115871364659,1,0.0,13312,-34.0,865.7,0.38656315
100000000000000000006600,1,1480115871371538,1480115871371538,1,0.8125,13312,-34.0,865.7,0.38042724
100000000000000000006600,1,1480115871378403,1480115871378403,1,1.625,13312,-34.0,865.7,0.38042724
100000000000000000006600,1,1480115871385281,1480115871385281,1,1.625,13312,-34.5,865.7,0.38042724
100000000000000000006600,1,1480115871392198,1480115871392198,1,2.4375,13312,-34.0,865.7,0.38042724
100000000000000000006600,1,1480115871399383,1480115871399383,1,2.4375,13312,-34.0,865.7,0.3742913
100000000000000000006600,1,1480115871405974,1480115871405974,1,1.625,13312,-34.0,865.7,0.3742913
100000000000000000006600,1,1480115871413191,1480115871413191,1,0.8125,13312,-34.5,865.7,0.38656315
100000000000000000006600,1,1480115871419857,1480115871419857,1,0.8125,13312,-34.0,865.7,0.38042724
100000000000000000006600,1,1480115871426807,1480115871426807,1,0.8125,13312,-34.0,865.7,0.38042724
100000000000000000006600,1,1480115871433984,1480115871433984,1,0.8125,13312,-34.5,865.7,0.38042724
100000000000000000006600,1,1480115871440867,1480115871440867,1,3.25,13312,-34.0,865.7,0.3681554
100000000000000000006600,1,1480115871447537,1480115871447537,1,1.625,13312,-34.0,865.7,0.3742913
100000000000000000006600,1,1480115871454473,1480115871454473,1,2.4375,13312,-34.0,865.7,0.3681554
100000000000000000006600,1,1480115871461339,1480115871461339,1,0.8125,13312,-34.0,865.7,0.38042724
100000000000000000006600,1,1480115871468233,1480115871468233,1,0.8125,13312,-34.5,865.7,0.3742913
100000000000000000006600,1,1480115871475205,1480115871475205,1,2.4375,13312,-34.0,865.7,0.3681554
100000000000000000006600,1,1480115871482326,1480115871482326,1,0.8125,13312,-34.0,865.7,0.3742913
100000000000000000006600,1,1480115871490744,1480115871490744,1,1.625,13312,-34.0,865.7,0.3742913
100000000000000000006600,1,1480115871497660,1480115871497660,1,0.8125,13312,-34.0,865.7,0.38656315
100000000000000000006600,1,1480115871504308,1480115871504308,1,1.625,13312,-34.5,865.7,0.3681554
100000000000000000006600,1,1480115871511471,1480115871511471,1,3.25,13312,-34.0,865.7,0.36201948
100000000000000000006600,1,1480115871518106,1480115871518106,1,2.4375,13312,-34.5,865.7,0.3681554
100000000000000000006600,1,1480115871525236,1480115871525236,1,2.4375,13312,-34.5,865.7,0.3681554
100000000000000000006600,1,1480115871531977,1480115871531977,1,3.25,13312,-34.0,865.7,0.36201948
100000000000000000006600,1,1480115871539175,1480115871539175,1,0.8125,13312,-34.0,865.7,0.38042724
100000000000000000006600,1,1480115871546142,1480115871546142,1,3.25,13312,-34.5,865.7,0.36201948
100000000000000000006600,1,1480115871553088,1480115871553088,1,0.0,13312,-34.0,865.7,0.38656315
100000000000000000006600,1,1480115871559716,1480115871559716,1,1.625,13312,-34.0,865.7,0.3681554
100000000000000000006600,1,1480115871566850,1480115871566850,1,0.8125,13312,-34.5,865.7,0.38042724
100000000000000000006600,1,1480115871573780,1480115871573780,1,1.625,13312,-34.0,865.7,0.3681554
100000000000000000006600,1,1480115871580391,1480115871580391,1,0.8125,13312,-34.0,865.7,0.38042724
100000000000000000006600,1,1480115871587270,1480115871587270,1,0.8125,13312,-34.0,865.7,0.38042724
100000000000000000006600,1,1480115871594190,1480115871594190,1,1.625,13312,-34.0,865.7,0.3742913
100000000000000000006600,1,1480115871601099,1480115871601099,1,-0.8125,13312,-34.0,865.7,0.3926991
100000000000000000006600,1,1480115871608242,1480115871608242,1,0.0,13312,-34.5,865.7,0.3742913
100000000000000000006600,1,1480115871614936,1480115871614936,1,0.8125,13312,-34.0,865.7,0.38042724
100000000000000000006600,1,1480115871622114,1480115871622114,1,1.625,13312,-34.0,865.7,0.3681554
100000000000000000006600,1,1480115871628765,1480115871628765,1,0.8125,13312,-34.0,865.7,0.38042724
100000000000000000006600,1,1480115871635938,1480115871635938,1,1.625,13312,-34.0,865.7,0.3742913
100000000000000000006600,1,1480115871642687,1480115871642687,1,3.25,13312,-34.5,865.7,0.35588354
100000000000000000006600,1,1480115871649555,1480115871649555,1,1.625,13312,-34.5,865.7,0.3742913
100000000000000000006600,1,1480115871656449,1480115871656449,1,1.625,13312,-34.5,865.7,0.3681554
100000000000000000006600,1,1480115871663356,1480115871663356,1,3.25,13312,-34.5,865.7,0.36201948
100000000000000000006600,1,1480115871670208,1480115871670208,1,0.8125,13312,-34.0,865.7,0.3742913
100000000000000000006600,1,1480115871677142,1480115871677142,1,-0.8125,13312,-34.5,865.7,0.38042724
100000000000000000006600,1,1480115871684266,1480115871684266,1,1.625,13312,-34.0,865.7,0.3742913
100000000000000000006600,1,1480115871690935,1480115871690935,1,0.0,13312,-34.5,865.7,0.38042724
100000000000000000006600,1,1480115871698139,1480115871698139,1,1.625,13312,-34.0,865.7,0.3681554
100000000000000000006600,1,1480115871705042,1480115871705042,1,1.625,13312,-34.0,865.7,0.3681554
100000000000000000006600,1,1480115871711937,1480115871711937,1,0.8125,13312,-34.5,865.7,0.38042724
100000000000000000006600,1,1480115871718574,1480115871718574,1,0.8125,13312,-34.0,865.7,0.3742913
100000000000000000006600,1,1480115871725483,1480115871725483,1,1.625,13312,-34.5,865.7,0.3742913
100000000000000000006600,1,1480115871732406,1480115871732406,1,1.625,13312,-34.5,865.7,0.3681554
100000000000000000006600,1,1480115871739528,1480115871739528,1,2.4375,13312,-34.5,865.7,0.3681554
100000000000000000006600,1,1480115871746293,1480115871746293,1,-0.8125,13312,-34.5,865.7,0.38656315
100000000000000000006600,1,1480115871753231,1480115871753231,1,3.25,13312,-34.0,865.7,0.35588354
100000000000000000006600,1,1480115871760096,1480115871760096,1,0.0,13312,-34.0,865.7,0.38042724
100000000000000000006600,1,1480115871766952,1480115871766952,1,1.625,13312,-34.0,865.7,0.3742913
100000000000000000006600,1,1480115871773859,1480115871773859,1,0.0,13312,-34.5,865.7,0.3742913
100000000000000000006600,1,1480115871780742,1480115871780742,1,3.25,13312,-34.5,865.7,0.35588354
100000000000000000006600,1,1480115871787644,1480115871787644,1,2.4375,13312,-34.0,865.7,0.3681554
100000000000000000006600,1,1480115871794525,1480115871794525,1,1.625,13312,-34.0,865.7,0.3742913
100000000000000000006600,1,1480115871801432,1480115871801432,1,0.8125,13312,-34.0,865.7,0.3742913
100000000000000000006600,1,1480115871808570,1480115871808570,1,1.625,13312,-34.5,865.7,0.3742913
100000000000000000006600,1,1480115871815191,1480115871815191,1,0.8125,13312,-34.0,865.7,0.3681554
100000000000000000006600,1,1480115871822306,1480115871822306,1,0.0,13312,-34.0,865.7,0.38042724
100000000000000000006600,1,1480115871829177,1480115871829177,1,3.25,13312,-34.5,865.7,0.36201948
100000000000000000006600,1,1480115871835784,1480115871835784,1,-0.8125,13312,-34.0,865.7,0.38042724
100000000000000000006600,1,1480115871842723,1480115871842723,1,3.25,13312,-34.0,865.7,0.3681554
100000000000000000006600,1,1480115871849645,1480115871849645,1,2.4375,13312,-34.0,865.7,0.3681554
100000000000000000006600,1,1480115871856505,1480115871856505,1,3.25,13312,-34.0,865.7,0.35588354
100000000000000000006600,1,1480115871863583,1480115871863583,1,2.4375,13312,-34.0,865.7,0.36201948
100000000000000000006600,1,1480115871870486,1480115871870486,1,0.8125,13312,-34.0,865.7,0.3742913
100000000000000000006600,1,1480115871877085,1480115871877085,1,2.4375,13312,-34.0,865.7,0.3742913
100000000000000000006600,1,1480115871884109,1480115871884109,1,1.625,13312,-34.0,865.7,0.3742913
100000000000000000006600,1,1480115871891036,1480115871891036,1,3.25,13312,-34.0,865.7,0.36201948
100000000000000000006600,1,1480115871898199,1480115871898199,1,1.625,13312,-34.0,865.7,0.3681554
100000000000000000006600,1,1480115871905077,1480115871905077,1,0.0,13312,-34.5,865.7,0.38656315
100000000000000000006600,1,1480115871912055,1480115871912055,1,1.625,13312,-34.0,865.7,0.3742913
100000000000000000006600,1,1480115871918943,1480115871918943,1,2.4375,13312,-34.5,865.7,0.3681554
100000000000000000006600,1,1480115871925593,1480115871925593,1,2.4375,13312,-34.0,865.7,0.3681554
100000000000000000006600,1,1480115871932547,1480115871932547,1,3.25,13312,-34.5,865.7,0.36201948
100000000000000000006600,1,1480115871939414,1480115871939414,1,0.0,13312,-34.0,865.7,0.38042724
100000000000000000006600,1,1480115871946551,1480115871946551,1,0.8125,13312,-34.0,865.7,0.3742913
100000000000000000006600,1,1480115871953573,1480115871953573,1,0.8125,13312,-34.0,865.7,0.3681554
100000000000000000006600,1,1480115871960468,1480115871960468,1,1.625,13312,-34.0,865.7,0.3742913
100000000000000000006600,1,1480115871967154,1480115871967154,1,-0.8125,13312,-34.0,865.7,0.38042724
100000000000000000006600,1,1480115871974261,1480115871974261,1,0.0,13312,-34.0,865.7,0.38042724
100000000000000000006600,1,1480115871981180,1480115871981180,1,-0.8125,13312,-34.0,865.7,0.38042724
100000000000000000006600,1,1480115871987922,1480115871987922,1,1.625,13312,-34.5,865.7,0.36201948
100000000000000000006600,1,1480115871994938,1480115871994938,1,1.625,13312,-34.0,865.7,0.3742913
100000000000000000006600,1,1480115872001932,1480115872001932,1,2.4375,13312,-34.0,865.7,0.3681554
100000000000000000006600,1,1480115872008941,1480115872008941,1,2.4375,13312,-34.5,865.7,0.36201948
100000000000000000006600,1,1480115872015966,1480115872015966,1,0.8125,13312,-34.0,865.7,0.38042724
100000000000000000006600,1,1480115872023222,1480115872023222,1,0.0,13312,-34.5,865.7,0.38042724
100000000000000000006600,1,1480115872029969,1480115872029969,1,2.4375,13312,-34.0,865.7,0.3681554
100000000000000000006600,1,1480115872036975,1480115872036975,1,4.875,13312,-34.5,865.7,0.34974763
100000000000000000006600,1,1480115872044258,1480115872044258,1,0.0,13312,-34.0,865.7,0.38042724
100000000000000000006600,1,1480115872050973,1480115872050973,1,0.8125,13312,-34.0,865.7,0.3742913
100000000000000000006600,1,1480115872057985,1480115872057985,1,-1.625,13312,-34.0,865.7,0.38656315
100000000000000000006600,1,1480115872065002,1480115872065002,1,3.25,13312,-34.5,865.7,0.36201948
100000000000000000006600,1,1480115872073326,1480115872073326,1,3.25,13312,-34.5,865.7,0.36201948
100000000000000000006600,1,1480115872080069,1480115872080069,1,0.0,13312,-34.0,865.7,0.3681554
100000000000000000006600,1,1480115872087046,1480115872087046,1,0.0,13312,-34.0,865.7,0.38042724
100000000000000000006600,1,1480115872094073,1480115872094073,1,0.0,13312,-34.0,865.7,0.38042724
100000000000000000006600,1,1480115872101276,1480115872101276,1,1.625,13312,-34.5,865.7,0.38042724
100000000000000000006600,1,1480115872108279,1480115872108279,1,1.625,13312,-34.5,865.7,0.36201948
100000000000000000006600,1,1480115872115030,1480115872115030,1,0.8125,13312,-34.5,865.7,0.38042724
100000000000000000006600,1,1480115872122268,1480115872122268,1,1.625,13312,-34.5,865.7,0.3681554
100000000000000000006600,1,1480115872129258,1480115872129258,1,0.8125,13312,-34.0,865.7,0.3681554
100000000000000000006600,1,1480115872136033,1480115872136033,1,2.4375,13312,-34.5,865.7,0.35588354
100000000000000000006600,1,1480115872143046,1480115872143046,1,1.625,13312,-34.5,865.7,0.3681554
100000000000000000006600,1,1480115872150034,1480115872150034,1,0.8125,13312,-34.5,865.7,0.38042724
100000000000000000006600,1,1480115872157018,1480115872157018,1,0.0,13312,-34.5,865.7,0.3742913
100000000000000000006600,1,1480115872164291,1480115872164291,1,1.625,13312,-34.5,865.7,0.36201948
100000000000000000006600,1,1480115872171045,1480115872171045,1,0.0,13312,-34.5,865.7,0.3742913
100000000000000000006600,1,1480115872178135,1480115872178135,1,0.8125,13312,-34.5,865.7,0.3742913
100000000000000000006600,1,1480115872185104,1480115872185104,1,0.8125,13312,-34.5,865.7,0.3681554
100000000000000000006600,1,1480115872191788,1480115872191788,1,2.4375,13312,-34.5,865.7,0.36201948
100000000000000000006600,1,1480115872198960,1480115872198960,1,4.875,13312,-34.5,865.7,0.35588354
100000000000000000006600,1,1480115872205613,1480115872205613,1,0.8125,13312,-34.5,865.7,0.3681554
100000000000000000006600,1,1480115872212585,1480115872212585,1,1.625,13312,-34.5,865.7,0.35588354
100000000000000000006600,1,1480115872219706,1480115872219706,1,2.4375,13312,-34.5,865.7,0.35588354
100000000000000000006600,1,1480115872226345,1480115872226345,1,2.4375,13312,-35.0,865.7,0.36201948
100000000000000000006600,1,1480115872233480,1480115872233480,1,3.25,13312,-34.5,865.7,0.34974763
100000000000000000006600,1,1480115872240403,1480115872240403,1,1.625,13312,-34.5,865.7,0.35588354
100000000000000000006600,1,1480115872247079,1480115872247079,1,0.8125,13312,-34.5,865.7,0.35588354
100000000000000000006600,1,1480115872254032,1480115872254032,1,2.4375,13312,-34.5,865.7,0.35588354
100000000000000000006600,1,1480115872261169,1480115872261169,1,0.0,13312,-34.5,865.7,0.36201948
100000000000000000006600,1,1480115872268106,1480115872268106,1,3.25,13312,-34.5,865.7,0.3436117
100000000000000000006600,1,1480115872274803,1480115872274803,1,-0.8125,13312,-34.5,865.7,0.36201948
100000000000000000006600,1,1480115872281994,1480115872281994,1,1.625,13312,-34.5,865.7,0.3436117
100000000000000000006600,1,1480115872288626,1480115872288626,1,1.625,13312,-34.5,865.7,0.3436117
100000000000000000006600,1,1480115872295792,1480115872295792,1,1.625,13312,-34.5,865.7,0.3436117
100000000000000000006600,1,1480115872302750,1480115872302750,1,3.25,13312,-35.0,865.7,0.3436117
100000000000000000006600,1,1480115872309674,1480115872309674,1,2.4375,13312,-34.5,865.7,0.3436117
100000000000000000006600,1,1480115872316296,1480115872316296,1,3.25,13312,-34.5,865.7,0.34974763
100000000000000000006600,1,1480115872323226,1480115872323226,1,2.4375,13312,-34.5,865.7,0.33747578
100000000000000000006600,1,1480115872330393,1480115872330393,1,2.4375,13312,-34.5,865.7,0.3436117
100000000000000000006600,1,1480115872337380,1480115872337380,1,3.25,13312,-34.5,865.7,0.33747578
100000000000000000006600,1,1480115872344286,1480115872344286,1,0.8125,13312,-35.0,865.7,0.3436117
100000000000000000006600,1,1480115872351167,1480115872351167,1,1.625,13312,-35.0,865.7,0.34974763
100000000000000000006600,1,1480115872357851,1480115872357851,1,4.875,13312,-34.5,865.7,0.33133984
100000000000000000006600,1,1480115872364984,1480115872364984,1,0.8125,13312,-34.5,865.7,0.33747578
100000000000000000006600,1,1480115872371931,1480115872371931,1,0.0,13312,-34.5,865.7,0.35588354
100000000000000000006600,1,1480115872378628,1480115872378628,1,3.25,13312,-34.5,865.7,0.33133984
100000000000000000006600,1,1480115872385801,1480115872385801,1,0.8125,13312,-34.5,865.7,0.3436117
100000000000000000006600,1,1480115872392822,1480115872392822,1,2.4375,13312,-35.0,865.7,0.3436117
100000000000000000006600,1,1480115872399524,1480115872399524,1,-0.8125,13312,-35.0,865.7,0.36201948
100000000000000000006600,1,1480115872406619,1480115872406619,1,2.4375,13312,-35.0,865.7,0.33747578
100000000000000000006600,1,1480115872413572,1480115872413572,1,0.0,13312,-35.0,865.7,0.35588354
100000000000000000006600,1,1480115872420440,1480115872420440,1,2.4375,13312,-34.5,865.7,0.33747578
100000000000000000006600,1,1480115872427330,1480115872427330,1,1.625,13312,-35.0,865.7,0.3436117
100000000000000000006600,1,1480115872434220,1480115872434220,1,0.0,13312,-34.5,865.7,0.34974763
100000000000000000006600,1,1480115872440926,1480115872440926,1,2.4375,13312,-35.0,865.7,0.3436117
100000000000000000006600,1,1480115872448009,1480115872448009,1,3.25,13312,-35.0,865.7,0.3436117
100000000000000000006600,1,1480115872454911,1480115872454911,1,2.4375,13312,-35.0,865.7,0.33747578
100000000000000000006600,1,1480115872461763,1480115872461763,1,3.25,13312,-35.0,865.7,0.33133984
100000000000000000006600,1,1480115872468468,1480115872468468,1,1.625,13312,-35.0,865.7,0.34974763
100000000000000000006600,1,1480115872475629,1480115872475629,1,3.25,13312,-35.0,865.7,0.33747578
100000000000000000006600,1,1480115872482264,1480115872482264,1,1.625,13312,-35.0,865.7,0.34974763
100000000000000000006600,1,1480115872489372,1480115872489372,1,2.4375,13312,-35.0,865.7,0.33747578
100000000000000000006600,1,1480115872496006,1480115872496006,1,-0.8125,13312,-35.0,865.7,0.34974763
100000000000000000006600,1,1480115872502931,1480115872502931,1,2.4375,13312,-35.0,865.7,0.33747578
100000000000000000006600,1,1480115872510070,1480115872510070,1,2.4375,13312,-35.0,865.7,0.3436117
100000000000000000006600,1,1480115872516695,1480115872516695,1,1.625,13312,-35.0,865.7,0.3436117
100000000000000000006600,1,1480115872525186,1480115872525186,1,1.625,13312,-35.0,865.7,0.33747578
100000000000000000006600,1,1480115872532322,1480115872532322,1,1.625,13312,-35.5,865.7,0.3436117
100000000000000000006600,1,1480115872539014,1480115872539014,1,0.8125,13312,-35.0,865.7,0.3436117
100000000000000000006600,1,1480115872545954,1480115872545954,1,1.625,13312,-35.0,865.7,0.33747578
100000000000000000006600,1,1480115872552914,1480115872552914,1,1.625,13312,-35.0,865.7,0.33133984
100000000000000000006600,1,1480115872560051,1480115872560051,1,4.875,13312,-35.5,865.7,0.32520393
100000000000000000006600,1,1480115872566716,1480115872566716,1,1.625,13312,-35.0,865.7,0.33133984
100000000000000000006600,1,1480115872573672,1480115872573672,1,2.4375,13312,-35.0,865.7,0.32520393
100000000000000000006600,1,1480115872580599,1480115872580599,1,2.4375,13312,-35.0,865.7,0.319068
100000000000000000006600,1,1480115872587550,1480115872587550,1,4.875,13312,-35.0,865.7,0.319068
100000000000000000006600,1,1480115872594751,1480115872594751,1,2.4375,13312,-35.5,865.7,0.33133984
100000000000000000006600,1,1480115872601363,1480115872601363,1,1.625,13312,-35.5,865.7,0.32520393
100000000000000000006600,1,1480115872608325,1480115872608325,1,1.625,13312,-35.5,865.7,0.32520393
100000000000000000006600,1,1480115872615220,1480115872615220,1,2.4375,13312,-35.5,865.7,0.32520393
100000000000000000006600,1,1480115872622180,1480115872622180,1,0.8125,13312,-35.0,865.7,0.32520393
100000000000000000006600,1,1480115872629348,1480115872629348,1,0.8125,13312,-35.5,865.7,0.33133984
100000000000000000006600,1,1480115872636248,1480115872636248,1,2.4375,13312,-35.5,865.7,0.31293207
100000000000000000006600,1,1480115872642951,1480115872642951,1,1.625,13312,-35.5,865.7,0.31293207
100000000000000000006600,1,1480115872649847,1480115872649847,1,1.625,13312,-35.5,865.7,0.31293207
100000000000000000006600,1,1480115872656713,1480115872656713,1,1.625,13312,-35.5,865.7,0.31293207
100000000000000000006600,1,1480115872663876,1480115872663876,1,1.625,13312,-36.0,865.7,0.319068
100000000000000000006600,1,1480115872670730,1480115872670730,1,2.4375,13312,-35.5,865.7,0.30679616
100000000000000000006600,1,1480115872677652,1480115872677652,1,4.875,13312,-35.5,865.7,0.2945243
100000000000000000006600,1,1480115872684600,1480115872684600,1,2.4375,13312,-35.5,865.7,0.2945243
100000000000000000006600,1,1480115872691512,1480115872691512,1,2.4375,13312,-35.5,865.7,0.2945243
100000000000000000006600,1,1480115872698135,1480115872698135,1,2.4375,13312,-35.5,865.7,0.30679616
100000000000000000006600,1,1480115872705268,1480115872705268,1,4.875,13312,-35.5,865.7,0.28225246
100000000000000000006600,1,1480115872712090,1480115872712090,1,1.625,13312,-36.0,865.7,0.30679616
100000000000000000006600,1,1480115872719022,1480115872719022,1,4.875,13312,-35.5,865.7,0.28225246
100000000000000000006600,1,1480115872725625,1480115872725625,1,1.625,13312,-36.0,865.7,0.30066022
100000000000000000006600,1,1480115872732594,1480115872732594,1,3.25,13312,-36.0,865.7,0.2945243
100000000000000000006600,1,1480115872739546,1480115872739546,1,-1.625,13312,-36.0,865.7,0.31293207
100000000000000000006600,1,1480115872746444,1480115872746444,1,4.875,13312,-35.5,865.7,0.28225246
100000000000000000006600,1,1480115872753656,1480115872753656,1,3.25,13312,-35.5,865.7,0.2883884
100000000000000000006600,1,1480115872760550,1480115872760550,1,2.4375,13312,-35.5,865.7,0.28225246
100000000000000000006600,1,1480115872767190,1480115872767190,1,2.4375,13312,-36.0,865.7,0.30066022
100000000000000000006600,1,1480115872774323,1480115872774323,1,0.8125,13312,-35.5,865.7,0.30066022
100000000000000000006600,1,1480115872781190,1480115872781190,1,2.4375,13312,-36.0,865.7,0.2883884
100000000000000000006600,1,1480115872788065,1480115872788065,1,2.4375,13312,-35.5,865.7,0.28225246
100000000000000000006600,1,1480115872794776,1480115872794776,1,2.4375,13312,-36.0,865.7,0.2883884
100000000000000000006600,1,1480115872801670,1480115872801670,1,4.875,13312,-36.0,865.7,0.27611655
100000000000000000006600,1,1480115872808780,1480115872808780,1,3.25,13312,-36.0,865.7,0.27611655
100000000000000000006600,1,1480115872815729,1480115872815729,1,5.6875,13312,-36.0,865.7,0.2699806
100000000000000000006600,1,1480115872822473,1480115872822473,1,1.625,13312,-35.5,865.7,0.27611655
100000000000000000006600,1,1480115872829623,1480115872829623,1,2.4375,13312,-35.5,865.7,0.28225246
100000000000000000006600,1,1480115872836501,1480115872836501,1,3.25,13312,-36.0,865.7,0.2699806
100000000000000000006600,1,1480115872843390,1480115872843390,1,5.6875,13312,-35.5,865.7,0.2699806
100000000000000000006600,1,1480115872850296,1480115872850296,1,1.625,13312,-36.0,865.7,0.2883884
100000000000000000006600,1,1480115872857218,1480115872857218,1,0.8125,13312,-36.0,865.7,0.2883884
100000000000000000006600,1,1480115872864111,1480115872864111,1,2.4375,13312,-36.0,865.7,0.28225246
100000000000000000006600,1,1480115872870772,1480115872870772,1,0.0,13312,-36.0,865.7,0.28225246
100000000000000000006600,1,1480115872877627,1480115872877627,1,2.4375,13312,-36.0,865.7,0.27611655
100000000000000000006600,1,1480115872884593,1480115872884593,1,2.4375,13312,-36.0,865.7,0.27611655
100000000000000000006600,1,1480115872891513,1480115872891513,1,6.5,13312,-35.5,865.7,0.25157285
100000000000000000006600,1,1480115872898696,1480115872898696,1,0.0,13312,-35.5,865.7,0.27611655
100000000000000000006600,1,1480115872905358,1480115872905358,1,3.25,13312,-36.0,865.7,0.2699806
100000000000000000006600,1,1480115872912279,1480115872912279,1,0.8125,13312,-35.5,865.7,0.27611655
100000000000000000006600,1,1480115872919358,1480115872919358,1,0.8125,13312,-36.0,865.7,0.28225246
100000000000000000006600,1,1480115872926010,1480115872926010,1,2.4375,13312,-35.5,865.7,0.2638447
100000000000000000006600,1,1480115872932857,1480115872932857,1,2.4375,13312,-36.0,865.7,0.2699806
100000000000000000006600,1,1480115872940012,1480115872940012,1,2.4375,13312,-35.5,865.7,0.27611655
100000000000000000006600,1,1480115872946685,1480115872946685,1,1.625,13312,-36.0,865.7,0.27611655
100000000000000000006600,1,1480115872953625,1480115872953625,1,0.8125,13312,-36.0,865.7,0.27611655
100000000000000000006600,1,1480115872960521,1480115872960521,1,0.0,13312,-35.5,865.7,0.27611655
100000000000000000006600,1,1480115872967681,1480115872967681,1,2.4375,13312,-35.5,865.7,0.2699806
100000000000000000006600,1,1480115872974571,1480115872974571,1,0.0,13312,-36.0,865.7,0.28225246
100000000000000000006600,1,1480115872981450,1480115872981450,1,2.4375,13312,-36.0,865.7,0.25770876
100000000000000000006600,1,1480115872988386,1480115872988386,1,2.4375,13312,-35.5,865.7,0.2699806
100000000000000000006600,1,1480115872995167,1480115872995167,1,3.25,13312,-36.0,865.7,0.2638447
100000000000000000006600,1,1480115873002373,1480115873002373,1,0.8125,13312,-35.5,865.7,0.2638447
100000000000000000006600,1,1480115873009152,1480115873009152,1,2.4375,13312,-35.5,865.7,0.2638447
100000000000000000006600,1,1480115873016026,1480115873016026,1,0.8125,13312,-36.0,865.7,0.2699806
100000000000000000006600,1,1480115873023133,1480115873023133,1,0.8125,13312,-36.0,865.7,0.2699806
100000000000000000006600,1,1480115873029820,1480115873029820,1,0.0,13312,-36.0,865.7,0.27611655
100000000000000000006600,1,1480115873036752,1480115873036752,1,1.625,13312,-35.5,865.7,0.2638447
100000000000000000006600,1,1480115873043939,1480115873043939,1,0.8125,13312,-35.5,865.7,0.2699806
100000000000000000006600,1,1480115873050548,1480115873050548,1,4.875,13312,-36.0,865.7,0.24543692
100000000000000000006600,1,1480115873057713,1480115873057713,1,1.625,13312,-36.0,865.7,0.2638447
100000000000000000006600,1,1480115873064347,1480115873064347,1,4.875,13312,-35.5,865.7,0.24543692
100000000000000000006600,1,1480115873071486,1480115873071486,1,2.4375,13312,-36.0,865.7,0.25157285
100000000000000000006600,1,1480115873078410,1480115873078410,1,2.4375,13312,-36.0,865.7,0.25157285
100000000000000000006600,1,1480115873085288,1480115873085288,1,0.8125,13312,-35.5,865.7,0.2638447
100000000000000000006600,1,1480115873091947,1480115873091947,1,0.0,13312,-35.5,865.7,0.2638447
100000000000000000006600,1,1480115873098815,1480115873098815,1,1.625,13312,-35.5,865.7,0.25770876
100000000000000000006600,1,1480115873105929,1480115873105929,1,5.6875,13312,-35.5,865.7,0.23316509
100000000000000000006600,1,1480115873112625,1480115873112625,1,4.875,13312,-35.5,865.7,0.239301
100000000000000000006600,1,1480115873119533,1480115873119533,1,-0.8125,13312,-36.0,865.7,0.2638447
100000000000000000006600,1,1480115873126669,1480115873126669,1,1.625,13312,-35.5,865.7,0.25157285
100000000000000000006600,1,1480115873133297,1480115873133297,1,0.8125,13312,-35.5,865.7,0.25157285
100000000000000000006600,1,1480115873140170,1480115873140170,1,0.0,13312,-35.5,865.7,0.25157285
100000000000000000006600,1,1480115873147097,1480115873147097,1,2.4375,13312,-35.5,865.7,0.239301
100000000000000000006600,1,1480115873154037,1480115873154037,1,2.4375,13312,-36.0,865.7,0.23316509
100000000000000000006600,1,1480115873161186,1480115873161186,1,2.4375,13312,-35.5,865.7,0.239301
100000000000000000006600,1,1480115873168037,1480115873168037,1,0.8125,13312,-35.5,865.7,0.24543692
100000000000000000006600,1,1480115873176387,1480115873176387,1,0.0,13312,-36.0,865.7,0.25157285
100000000000000000006600,1,1480115873183095,1480115873183095,1,2.4375,13312,-35.5,865.7,0.23316509
100000000000000000006600,1,1480115873189981,1480115873189981,1,0.0,13312,-35.5,865.7,0.24543692
100000000000000000006600,1,1480115873196879,1480115873196879,1,6.5,13312,-36.0,865.7,0.22089323
100000000000000000006600,1,1480115873204082,1480115873204082,1,2.4375,13312,-36.0,865.7,0.22089323
100000000000000000006600,1,1480115873210922,1480115873210922,1,1.625,13312,-35.5,865.7,0.22702916
100000000000000000006600,1,1480115873217670,1480115873217670,1,2.4375,13312,-35.5,865.7,0.22702916
100000000000000000006600,1,1480115873224621,1480115873224621,1,3.25,13312,-35.5,865.7,0.22089323
100000000000000000006600,1,1480115873231756,1480115873231756,1,1.625,13312,-36.0,865.7,0.239301
100000000000000000006600,1,1480115873238453,1480115873238453,1,3.25,13312,-35.5,865.7,0.22089323
100000000000000000006600,1,1480115873245589,1480115873245589,1,1.625,13312,-35.5,865.7,0.23316509
100000000000000000006600,1,1480115873252435,1480115873252435,1,0.0,13312,-35.5,865.7,0.239301
100000000000000000006600,1,1480115873259377,1480115873259377,1,0.8125,13312,-35.5,865.7,0.23316509
100000000000000000006600,1,1480115873266315,1480115873266315,1,2.4375,13312,-35.5,865.7,0.21475731
100000000000000000006600,1,1480115873272940,1480115873272940,1,1.625,13312,-35.5,865.7,0.22089323
100000000000000000006600,1,1480115873279831,1480115873279831,1,2.4375,13312,-35.5,865.7,0.21475731
100000000000000000006600,1,1480115873286779,1480115873286779,1,0.8125,13312,-35.5,865.7,0.21475731
100000000000000000006600,1,1480115873294016,1480115873294016,1,1.625,13312,-35.5,865.7,0.20862138
100000000000000000006600,1,1480115873300896,1480115873300896,1,4.875,13312,-35.5,865.7,0.19021362
100000000000000000006600,1,1480115873307807,1480115873307807,1,4.875,13312,-35.5,865.7,0.19634955
100000000000000000006600,1,1480115873314725,1480115873314725,1,0.8125,13312,-35.5,865.7,0.19634955
100000000000000000006600,1,1480115873321415,1480115873321415,1,1.625,13312,-35.5,865.7,0.20248546
100000000000000000006600,1,1480115873328312,1480115873328312,1,2.4375,13312,-35.5,865.7,0.19021362
100000000000000000006600,1,1480115873335191,1480115873335191,1,3.25,13312,-35.5,865.7,0.1840777
100000000000000000006600,1,1480115873342345,1480115873342345,1,0.0,13312,-35.5,865.7,0.19634955
100000000000000000006600,1,1480115873348961,1480115873348961,1,5.6875,13312,-35.5,865.7,0.17794177
100000000000000000006600,1,1480115873355910,1480115873355910,1,2.4375,13312,-35.5,865.7,0.17794177
100000000000000000006600,1,1480115873362815,1480115873362815,1,0.0,13312,-35.5,865.7,0.19021362
100000000000000000006600,1,1480115873369705,1480115873369705,1,2.4375,13312,-35.5,865.7,0.17794177
100000000000000000006600,1,1480115873376631,1480115873376631,1,1.625,13312,-35.0,865.7,0.17794177
100000000000000000006600,1,1480115873383523,1480115873383523,1,4.875,13312,-35.5,865.7,0.16566992
100000000000000000006600,1,1480115873390766,1480115873390766,1,3.25,13312,-35.5,865.7,0.16566992
100000000000000000006600,1,1480115873397387,1480115873397387,1,0.8125,13312,-35.5,865.7,0.1840777
100000000000000000006600,1,1480115873404286,1480115873404286,1,5.6875,13312,-35.5,865.7,0.159534
100000000000000000006600,1,1480115873411405,1480115873411405,1,2.4375,13312,-35.5,865.7,0.16566992
100000000000000000006600,1,1480115873418326,1480115873418326,1,0.0,13312,-35.5,865.7,0.17180584
100000000000000000006600,1,1480115873425078,1480115873425078,1,1.625,13312,-35.5,865.7,0.17180584
100000000000000000006600,1,1480115873432014,1480115873432014,1,3.25,13312,-35.5,865.7,0.15339808
100000000000000000006600,1,1480115873438949,1480115873438949,1,1.625,13312,-35.5,865.7,0.17180584
100000000000000000006600,1,1480115873446134,1480115873446134,1,2.4375,13312,-35.5,865.7,0.16566992
100000000000000000006600,1,1480115873452798,1480115873452798,1,5.6875,13312,-35.5,865.7,0.15339808
100000000000000000006600,1,1480115873459990,1480115873459990,1,0.8125,13312,-35.5,865.7,0.17794177
100000000000000000006600,1,1480115873466625,1480115873466625,1,2.4375,13312,-35.5,865.7,0.16566992
100000000000000000006600,1,1480115873473819,1480115873473819,1,2.4375,13312,-35.5,865.7,0.17180584
100000000000000000006600,1,1480115873480729,1480115873480729,1,4.875,13312,-35.5,865.7,0.159534
100000000000000000006600,1,1480115873487395,1480115873487395,1,1.625,13312,-35.5,865.7,0.17180584
100000000000000000006600,1,1480115873494596,1480115873494596,1,0.0,13312,-35.5,865.7,0.19021362
100000000000000000006600,1,1480115873501265,1480115873501265,1,2.4375,13312,-35.5,865.7,0.17180584
100000000000000000006600,1,1480115873508209,1480115873508209,1,5.6875,13312,-35.5,865.7,0.15339808
100000000000000000006600,1,1480115873515131,1480115873515131,1,0.8125,13312,-35.5,865.7,0.17794177
100000000000000000006600,1,1480115873522283,1480115873522283,1,6.5,13312,-35.5,865.7,0.15339808
100000000000000000006600,1,1480115873528892,1480115873528892,1,1.625,13312,-35.5,865.7,0.17180584
100000000000000000006600,1,1480115873536044,1480115873536044,1,5.6875,13312,-35.5,865.7,0.159534
100000000000000000006600,1,1480115873543004,1480115873543004,1,3.25,13312,-35.5,865.7,0.16566992
100000000000000000006600,1,1480115873549709,1480115873549709,1,4.875,13312,-35.5,865.7,0.14726216
100000000000000000006600,1,1480115873556877,1480115873556877,1,0.8125,13312,-35.0,865.7,0.17180584
100000000000000000006600,1,1480115873563497,1480115873563497,1,2.4375,13312,-35.5,865.7,0.159534
100000000000000000006600,1,1480115873570376,1480115873570376,1,4.875,13312,-35.0,865.7,0.14726216
100000000000000000006600,1,1480115873577559,1480115873577559,1,1.625,13312,-35.0,865.7,0.159534
100000000000000000006600,1,1480115873584240,1480115873584240,1,0.0,13312,-35.0,865.7,0.159534
100000000000000000006600,1,1480115873591124,1480115873591124,1,2.4375,13312,-35.0,865.7,0.15339808
100000000000000000006600,1,1480115873598288,1480115873598288,1,2.4375,13312,-35.0,865.7,0.15339808
100000000000000000006600,1,1480115873604893,1480115873604893,1,2.4375,13312,-35.0,865.7,0.14112623
100000000000000000006600,1,1480115873611769,1480115873611769,1,3.25,13312,-35.0,865.7,0.14112623
100000000000000000006600,1,1480115873618900,1480115873618900,1,6.5,13312,-34.5,865.7,0.11658254
100000000000000000006600,1,1480115873625818,1480115873625818,1,2.4375,13312,-34.5,865.7,0.12885438
100000000000000000006600,1,1480115873632812,1480115873632812,1,0.0,13312,-35.0,865.7,0.14112623
100000000000000000006600,1,1480115873639775,1480115873639775,1,4.875,13312,-34.5,865.7,0.1349903
100000000000000000006600,1,1480115873646726,1480115873646726,1,-0.8125,13312,-34.5,865.7,0.14726216
100000000000000000006600,1,1480115873653678,1480115873653678,1,3.25,13312,-34.5,865.7,0.12271846
100000000000000000006600,1,1480115873660415,1480115873660415,1,0.8125,13312,-34.0,865.7,0.1349903
100000000000000000006600,1,1480115873667534,1480115873667534,1,2.4375,13312,-34.0,865.7,0.12271846
100000000000000000006600,1,1480115873674189,1480115873674189,1,1.625,13312,-34.0,865.7,0.12885438
100000000000000000006600,1,1480115873681078,1480115873681078,1,-1.625,13312,-33.5,865.7,0.14726216
100000000000000000006600,1,1480115873688243,1480115873688243,1,1.625,13312,-33.5,865.7,0.1349903
100000000000000000006600,1,1480115873695080,1480115873695080,1,-0.8125,13312,-33.5,865.7,0.14726216
100000000000000000006600,1,1480115873701774,1480115873701774,1,0.8125,13312,-33.0,865.7,0.14112623
100000000000000000006600,1,1480115873708672,1480115873708672,1,0.8125,13312,-33.0,865.7,0.14726216
100000000000000000006600,1,1480115873715549,1480115873715549,1,1.625,13312,-33.0,865.7,0.15339808
100000000000000000006600,1,1480115873722536,1480115873722536,1,0.8125,13312,-32.5,865.7,0.159534
100000000000000000006600,1,1480115873731272,1480115873731272,1,-0.8125,13312,-32.5,865.7,0.19021362
100000000000000000006600,1,1480115873738165,1480115873738165,1,0.8125,13312,-32.0,865.7,0.19021362
100000000000000000006600,1,1480115873745053,1480115873745053,1,0.0,13312,-32.5,865.7,0.20248546
100000000000000000006600,1,1480115873751689,1480115873751689,1,2.4375,13312,-32.0,865.7,0.19021362
100000000000000000006600,1,1480115873758845,1480115873758845,1,0.0,13312,-32.0,865.7,0.21475731
100000000000000000006600,1,1480115873765773,1480115873765773,1,0.8125,13312,-32.0,865.7,0.22702916
100000000000000000006600,1,1480115873772686,1480115873772686,1,-0.8125,13312,-31.5,865.7,0.24543692
100000000000000000006600,1,1480115873779352,1480115873779352,1,-0.8125,13312,-31.5,865.7,0.24543692
100000000000000000006600,1,1480115873786484,1480115873786484,1,-3.25,13312,-31.5,865.7,0.2638447
100000000000000000006600,1,1480115873793091,1480115873793091,1,0.0,13312,-31.5,865.7,0.25157285
100000000000000000006600,1,1480115873799984,1480115873799984,1,0.8125,13312,-31.5,865.7,0.24543692
100000000000000000006600,1,1480115873807100,1480115873807100,1,-0.8125,13312,-31.0,865.7,0.2638447
100000000000000000006600,1,1480115873813749,1480115873813749,1,0.0,13312,-31.0,865.7,0.25770876
100000000000000000006600,1,1480115873820873,1480115873820873,1,-0.8125,13312,-31.0,865.7,0.2699806
100000000000000000006600,1,1480115873827756,1480115873827756,1,-0.8125,13312,-31.0,865.7,0.2699806
100000000000000000006600,1,1480115873834607,1480115873834607,1,-0.8125,13312,-31.0,865.7,0.28225246
100000000000000000006600,1,1480115873841274,1480115873841274,1,0.0,13312,-31.0,865.7,0.2699806
100000000000000000006600,1,1480115873848255,1480115873848255,1,0.0,13312,-31.0,865.7,0.27611655
100000000000000000006600,1,1480115873855429,1480115873855429,1,0.0,13312,-31.0,865.7,0.2699806
100000000000000000006600,1,1480115873862104,1480115873862104,1,-0.8125,13312,-31.0,865.7,0.2699806
100000000000000000006600,1,1480115873869319,1480115873869319,1,-1.625,13312,-31.0,865.7,0.28225246
100000000000000000006600,1,1480115873876098,1480115873876098,1,0.8125,13312,-31.0,865.7,0.2699806
100000000000000000006600,1,1480115873883366,1480115873883366,1,1.625,13312,-31.0,865.7,0.2699806
100000000000000000006600,1,1480115873890249,1480115873890249,1,-0.8125,13312,-30.5,865.7,0.27611655
100000000000000000006600,1,1480115873896955,1480115873896955,1,1.625,13312,-30.5,865.7,0.27611655
100000000000000000006600,1,1480115873903853,1480115873903853,1,0.8125,13312,-30.5,865.7,0.28225246
100000000000000000006600,1,1480115873910972,1480115873910972,1,-0.8125,13312,-31.0,865.7,0.28225246
100000000000000000006600,1,1480115873917807,1480115873917807,1,-1.625,13312,-30.5,865.7,0.28225246
100000000000000000006600,1,1480115873924490,1480115873924490,1,0.8125,13312,-30.5,865.7,0.28225246
100000000000000000006600,1,1480115873931606,1480115873931606,1,0.0,13312,-30.5,865.7,0.28225246
100000000000000000006600,1,1480115873938480,1480115873938480,1,-0.8125,13312,-30.5,865.7,0.27611655
100000000000000000006600,1,1480115873945190,1480115873945190,1,-0.8125,13312,-30.5,865.7,0.28225246
100000000000000000006600,1,1480115873952333,1480115873952333,1,0.0,13312,-30.5,865.7,0.2699806
100000000000000000006600,1,1480115873959213,1480115873959213,1,0.0,13312,-30.5,865.7,0.27611655
100000000000000000006600,1,1480115873966118,1480115873966118,1,1.625,13312,-30.5,865.7,0.2638447
100000000000000000006600,1,1480115873973027,1480115873973027,1,-0.8125,13312,-30.5,865.7,0.2699806
100000000000000000006600,1,1480115873979874,1480115873979874,1,0.0,13312,-30.5,865.7,0.2699806
100000000000000000006600,1,1480115873986765,1480115873986765,1,0.8125,13312,-30.5,865.7,0.2638447
100000000000000000006600,1,1480115873993425,1480115873993425,1,0.0,13312,-30.5,865.7,0.2699806
100000000000000000006600,1,1480115874000592,1480115874000592,1,-1.625,13312,-30.5,865.7,0.2699806
100000000000000000006600,1,1480115874007340,1480115874007340,1,0.8125,13312,-31.0,865.7,0.2638447
100000000000000000006600,1,1480115874014458,1480115874014458,1,-0.8125,13312,-30.5,865.7,0.2638447
100000000000000000006600,1,1480115874021185,1480115874021185,1,0.0,13312,-30.5,865.7,0.2699806
100000000000000000006600,1,1480115874028394,1480115874028394,1,0.8125,13312,-30.5,865.7,0.2638447
100000000000000000006600,1,1480115874035344,1480115874035344,1,-1.625,13312,-30.5,865.7,0.2699806
100000000000000000006600,1,1480115874041978,1480115874041978,1,0.0,13312,-30.5,865.7,0.2638447
100000000000000000006600,1,1480115874049085,1480115874049085,1,-0.8125,13312,-30.0,865.7,0.27611655
100000000000000000006600,1,1480115874056019,1480115874056019,1,0.0,13312,-30.0,865.7,0.2699806
100000000000000000006600,1,1480115874062756,1480115874062756,1,-0.8125,13312,-30.0,865.7,0.27611655
100000000000000000006600,1,1480115874069868,1480115874069868,1,-1.625,13312,-30.0,865.7,0.28225246
100000000000000000006600,1,1480115874076746,1480115874076746,1,0.8125,13312,-30.0,865.7,0.2699806
100000000000000000006600,1,1480115874083403,1480115874083403,1,0.8125,13312,-30.0,865.7,0.27611655
100000000000000000006600,1,1480115874090559,1480115874090559,1,0.0,13312,-30.0,865.7,0.28225246
100000000000000000006600,1,1480115874097227,1480115874097227,1,-0.8125,13312,-30.0,865.7,0.28225246
100000000000000000006600,1,1480115874104077,1480115874104077,1,0.0,13312,-29.5,865.7,0.27611655
100000000000000000006600,1,1480115874110940,1480115874110940,1,0.0,13312,-29.5,865.7,0.28225246
100000000000000000006600,1,1480115874117829,1480115874117829,1,-0.8125,13312,-29.5,865.7,0.2883884
100000000000000000006600,1,1480115874124705,1480115874124705,1,0.0,13312,-29.5,865.7,0.2883884
100000000000000000006600,1,1480115874131880,1480115874131880,1,0.8125,13312,-29.5,865.7,0.28225246
100000000000000000006600,1,1480115874138566,1480115874138566,1,0.0,13312,-29.5,865.7,0.28225246
100000000000000000006600,1,1480115874145509,1480115874145509,1,0.8125,13312,-29.5,865.7,0.28225246
100000000000000000006600,1,1480115874152683,1480115874152683,1,-1.625,13312,-29.5,865.7,0.30679616
100000000000000000006600,1,1480115874159407,1480115874159407,1,-1.625,13312,-29.5,865.7,0.2883884
100000000000000000006600,1,1480115874166268,1480115874166268,1,0.0,13312,-29.5,865.7,0.30066022
100000000000000000006600,1,1480115874173133,1480115874173133,1,0.8125,13312,-29.0,865.7,0.2883884
100000000000000000006600,1,1480115874180282,1480115874180282,1,0.8125,13312,-29.0,865.7,0.28225246
100000000000000000006600,1,1480115874188297,1480115874188297,1,-0.8125,13312,-29.0,865.7,0.2945243
100000000000000000006600,1,1480115874194983,1480115874194983,1,1.625,13312,-29.0,865.7,0.2883884
100000000000000000006600,1,1480115874202129,1480115874202129,1,0.0,13312,-29.0,865.7,0.2945243
100000000000000000006600,1,1480115874209049,1480115874209049,1,-1.625,13312,-29.0,865.7,0.30066022
100000000000000000006600,1,1480115874215747,1480115874215747,1,-0.8125,13312,-29.0,865.7,0.30066022
100000000000000000006600,1,1480115874222716,1480115874222716,1,-0.8125,13312,-29.0,865.7,0.2945243
100000000000000000006600,1,1480115874229887,1480115874229887,1,0.8125,13312,-28.5,865.7,0.2883884
100000000000000000006600,1,1480115874236778,1480115874236778,1,0.8125,13312,-29.0,865.7,0.28225246
100000000000000000006600,1,1480115874243683,1480115874243683,1,0.8125,13312,-29.0,865.7,0.28225246
100000000000000000006600,1,1480115874250611,1480115874250611,1,0.8125,13312,-28.5,865.7,0.27611655
100000000000000000006600,1,1480115874257538,1480115874257538,1,0.0,13312,-29.0,865.7,0.28225246
100000000000000000006600,1,1480115874264601,1480115874264601,1,1.625,13312,-29.0,865.7,0.2699806
100000000000000000006600,1,1480115874271504,1480115874271504,1,-0.8125,13312,-28.5,865.7,0.27611655
100000000000000000006600,1,1480115874278189,1480115874278189,1,0.0,13312,-29.0,865.7,0.2699806
100000000000000000006600,1,1480115874285326,1480115874285326,1,-0.8125,13312,-29.0,865.7,0.2638447
100000000000000000006600,1,1480115874292189,1480115874292189,1,0.0,13312,-28.5,865.7,0.25770876
100000000000000000006600,1,1480115874299147,1480115874299147,1,0.8125,13312,-29.0,865.7,0.239301
100000000000000000006600,1,1480115874306170,1480115874306170,1,0.0,13312,-28.5,865.7,0.239301
100000000000000000006600,1,1480115874312834,1480115874312834,1,-0.8125,13312,-28.5,865.7,0.23316509
100000000000000000006600,1,1480115874319737,1480115874319737,1,2.4375,13312,-28.5,865.7,0.22089323
100000000000000000006600,1,1480115874326959,1480115874326959,1,-0.8125,13312,-28.5,865.7,0.22702916
100000000000000000006600,1,1480115874333892,1480115874333892,1,0.0,13312,-28.5,865.7,0.22089323
100000000000000000006600,1,1480115874342286,1480115874342286,1,0.8125,13312,-29.0,865.7,0.21475731
100000000000000000006600,1,1480115874349184,1480115874349184,1,2.4375,13312,-29.0,865.7,0.20862138
100000000000000000006600,1,1480115874355877,1480115874355877,1,0.8125,13312,-28.5,865.7,0.20248546
100000000000000000006600,1,1480115874363019,1480115874363019,1,0.0,13312,-28.5,865.7,0.20248546
100000000000000000006600,1,1480115874369911,1480115874369911,1,0.8125,13312,-29.0,865.7,0.20862138
100000000000000000006600,1,1480115874376829,1480115874376829,1,0.0,13312,-29.0,865.7,0.20862138
100000000000000000006600,1,1480115874383782,1480115874383782,1,0.8125,13312,-29.0,865.7,0.20248546
100000000000000000006600,1,1480115874390445,1480115874390445,1,-0.8125,13312,-28.5,865.7,0.21475731
100000000000000000006600,1,1480115874397620,1480115874397620,1,0.8125,13312,-29.0,865.7,0.20248546
100000000000000000006600,1,1480115874404531,1480115874404531,1,0.8125,13312,-28.5,865.7,0.19634955
100000000000000000006600,1,1480115874411475,1480115874411475,1,-0.8125,13312,-29.0,865.7,0.20248546
100000000000000000006600,1,1480115874419906,1480115874419906,1,-0.8125,13312,-28.5,865.7,0.20248546
100000000000000000006600,1,1480115874427656,1480115874427656,1,0.0,13312,-28.5,865.7,0.19634955
100000000000000000006600,1,1480115874434823,1480115874434823,1,1.625,13312,-28.5,865.7,0.1840777
100000000000000000006600,1,1480115874441491,1480115874441491,1,0.0,13312,-28.5,865.7,0.19634955
100000000000000000006600,1,1480115874448636,1480115874448636,1,-0.8125,13312,-28.5,865.7,0.19021362
100000000000000000006600,1,1480115874455294,1480115874455294,1,0.0,13312,-28.5,865.7,0.1840777
100000000000000000006600,1,1480115874462171,1480115874462171,1,0.0,13312,-28.5,865.7,0.17794177
100000000000000000006600,1,1480115874469096,1480115874469096,1,1.625,13312,-28.5,865.7,0.16566992
100000000000000000006600,1,1480115874476316,1480115874476316,1,0.8125,13312,-29.0,865.7,0.16566992
100000000000000000006600,1,1480115874483269,1480115874483269,1,-1.625,13312,-28.5,865.7,0.16566992
100000000000000000006600,1,1480115874490177,1480115874490177,1,0.0,13312,-28.5,865.7,0.159534
100000000000000000006600,1,1480115874497096,1480115874497096,1,-0.8125,13312,-28.5,865.7,0.17180584
100000000000000000006600,1,1480115874503988,1480115874503988,1,1.625,13312,-28.5,865.7,0.15339808
100000000000000000006600,1,1480115874510594,1480115874510594,1,0.0,13312,-28.5,865.7,0.16566992
100000000000000000006600,1,1480115874517528,1480115874517528,1,0.8125,13312,-28.5,865.7,0.159534
100000000000000000006600,1,1480115874524648,1480115874524648,1,0.0,13312,-28.5,865.7,0.17180584
100000000000000000006600,1,1480115874531319,1480115874531319,1,1.625,13312,-29.0,865.7,0.16566992
100000000000000000006600,1,1480115874538274,1480115874538274,1,0.8125,13312,-28.5,865.7,0.17794177
100000000000000000006600,1,1480115874546240,1480115874546240,1,2.4375,13312,-28.5,865.7,0.17794177
100000000000000000006600,1,1480115874553120,1480115874553120,1,1.625,13312,-29.0,865.7,0.19021362
100000000000000000006600,1,1480115874560040,1480115874560040,1,1.625,13312,-28.5,865.7,0.19634955
100000000000000000006600,1,1480115874566919,1480115874566919,1,-3.25,13312,-29.0,865.7,0.23316509
100000000000000000006600,1,1480115874573799,1480115874573799,1,0.8125,13312,-28.5,865.7,0.22702916
100000000000000000006600,1,1480115874580966,1480115874580966,1,0.8125,13312,-29.0,865.7,0.24543692
100000000000000000006600,1,1480115874587848,1480115874587848,1,1.625,13312,-29.0,865.7,0.239301
100000000000000000006600,1,1480115874595833,1480115874595833,1,0.0,13312,-29.0,865.7,0.2699806
100000000000000000006600,1,1480115874602571,1480115874602571,1,-1.625,13312,-29.0,865.7,0.2883884
100000000000000000006600,1,1480115874609488,1480115874609488,1,0.0,13312,-29.0,865.7,0.28225246
100000000000000000006600,1,1480115874616645,1480115874616645,1,1.625,13312,-29.0,865.7,0.28225246
100000000000000000006600,1,1480115874623559,1480115874623559,1,0.8125,13312,-29.0,865.7,0.2945243
100000000000000000006600,1,1480115874630438,1480115874630438,1,-0.8125,13312,-29.0,865.7,0.30066022
100000000000000000006600,1,1480115874637367,1480115874637367,1,0.0,13312,-29.0,865.7,0.30066022
100000000000000000006600,1,1480115874644061,1480115874644061,1,-1.625,13312,-29.0,865.7,0.31293207
100000000000000000006600,1,1480115874650951,1480115874650951,1,0.8125,13312,-29.5,865.7,0.30679616
100000000000000000006600,1,1480115874658089,1480115874658089,1,0.8125,13312,-29.0,865.7,0.30679616
100000000000000000006600,1,1480115874666108,1480115874666108,1,1.625,13312,-29.5,865.7,0.31293207
100000000000000000006600,1,1480115874672953,1480115874672953,1,0.0,13312,-29.0,865.7,0.31293207
100000000000000000006600,1,1480115874679900,1480115874679900,1,0.0,13312,-29.0,865.7,0.31293207
100000000000000000006600,1,1480115874686905,1480115874686905,1,-0.8125,13312,-29.5,865.7,0.33747578
100000000000000000006600,1,1480115874693906,1480115874693906,1,-2.4375,13312,-29.0,865.7,0.33747578
100000000000000000006600,1,1480115874700783,1480115874700783,1,1.625,13312,-29.5,865.7,0.319068
100000000000000000006600,1,1480115874707417,1480115874707417,1,0.0,13312,-29.0,865.7,0.32520393
100000000000000000006600,1,1480115874714512,1480115874714512,1,0.8125,13312,-29.5,865.7,0.33133984
100000000000000000006600,1,1480115874721192,1480115874721192,1,-1.625,13312,-29.0,865.7,0.33747578
100000000000000000006600,1,1480115874836600,1480115874836600,1,0.8125,13312,-29.5,865.7,0.31293207
100000000000000000006600,1,1480115874843724,1480115874843724,1,0.0,13312,-29.5,865.7,0.31293207
100000000000000000006600,1,1480115874850353,1480115874850353,1,0.8125,13312,-29.0,865.7,0.30679616
100000000000000000006600,1,1480115874857507,1480115874857507,1,-0.8125,13312,-29.5,865.7,0.319068
100000000000000000006600,1,1480115874864382,1480115874864382,1,1.625,13312,-29.5,865.7,0.30066022
100000000000000000006600,1,1480115874871322,1480115874871322,1,0.0,13312,-29.5,865.7,0.30679616
100000000000000000006600,1,1480115874878230,1480115874878230,1,1.625,13312,-29.5,865.7,0.30066022
100000000000000000006600,1,1480115874885024,1480115874885024,1,-0.8125,13312,-29.5,865.7,0.30679616
100000000000000000006600,1,1480115874892207,1480115874892207,1,0.8125,13312,-29.5,865.7,0.2883884
100000000000000000006600,1,1480115874899189,1480115874899189,1,1.625,13312,-29.5,865.7,0.2945243
100000000000000000006600,1,1480115874906095,1480115874906095,1,1.625,13312,-30.0,865.7,0.2883884
100000000000000000006600,1,1480115874913031,1480115874913031,1,0.0,13312,-29.5,865.7,0.2883884
100000000000000000006600,1,1480115874919709,1480115874919709,1,2.4375,13312,-30.0,865.7,0.27611655
100000000000000000006600,1,1480115874926668,1480115874926668,1,0.0,13312,-30.0,865.7,0.27611655
100000000000000000006600,1,1480115874933567,1480115874933567,1,0.8125,13312,-30.0,865.7,0.2699806
100000000000000000006600,1,1480115874940505,1480115874940505,1,-0.8125,13312,-29.5,865.7,0.2699806
100000000000000000006600,1,1480115874947668,1480115874947668,1,-0.8125,13312,-30.0,865.7,0.2883884
100000000000000000006600,1,1480115874954562,1480115874954562,1,0.8125,13312,-30.0,865.7,0.2699806
100000000000000000006600,1,1480115874961195,1480115874961195,1,0.8125,13312,-30.0,865.7,0.2638447
100000000000000000006600,1,1480115874968358,1480115874968358,1,0.8125,13312,-30.0,865.7,0.25770876
100000000000000000006600,1,1480115874975211,1480115874975211,1,0.0,13312,-30.0,865.7,0.2638447
100000000000000000006600,1,1480115874981889,1480115874981889,1,1.625,13312,-30.0,865.7,0.25157285
100000000000000000006600,1,1480115874989059,1480115874989059,1,0.0,13312,-30.0,865.7,0.25157285
100000000000000000006600,1,1480115874995661,1480115874995661,1,0.0,13312,-30.0,865.7,0.24543692
100000000000000000006600,1,1480115875002885,1480115875002885,1,-1.625,13312,-30.0,865.7,0.25770876
100000000000000000006600,1,1480115875009793,1480115875009793,1,1.625,13312,-30.5,865.7,0.239301
100000000000000000006600,1,1480115875016518,1480115875016518,1,1.625,13312,-30.5,865.7,0.23316509
100000000000000000006600,1,1480115875023688,1480115875023688,1,1.625,13312,-30.0,865.7,0.23316509
100000000000000000006600,1,1480115875030591,1480115875030591,1,0.0,13312,-30.0,865.7,0.239301
100000000000000000006600,1,1480115875037198,1480115875037198,1,0.0,13312,-30.0,865.7,0.239301
100000000000000000006600,1,1480115875044069,1480115875044069,1,0.0,13312,-30.0,865.7,0.23316509
100000000000000000006600,1,1480115875050951,1480115875050951,1,1.625,13312,-30.0,865.7,0.22089323
100000000000000000006600,1,1480115875058124,1480115875058124,1,0.0,13312,-30.0,865.7,0.22702916
100000000000000000006600,1,1480115875064999,1480115875064999,1,0.8125,13312,-30.0,865.7,0.22089323
100000000000000000006600,1,1480115875071664,1480115875071664,1,-1.625,13312,-30.0,865.7,0.23316509
100000000000000000006600,1,1480115875078798,1480115875078798,1,0.0,13312,-30.0,865.7,0.23316509
100000000000000000006600,1,1480115875085423,1480115875085423,1,0.0,13312,-30.0,865.7,0.22702916
100000000000000000006600,1,1480115875092651,1480115875092651,1,0.8125,13312,-30.0,865.7,0.22702916
100000000000000000006600,1,1480115875099571,1480115875099571,1,2.4375,13312,-30.0,865.7,0.21475731
100000000000000000006600,1,1480115875106335,1480115875106335,1,1.625,13312,-30.0,865.7,0.22089323
100000000000000000006600,1,1480115875113226,1480115875113226,1,0.8125,13312,-30.0,865.7,0.22702916
100000000000000000006600,1,1480115875120420,1480115875120420,1,1.625,13312,-30.0,865.7,0.22089323
100000000000000000006600,1,1480115875127039,1480115875127039,1,0.0,13312,-29.5,865.7,0.23316509
100000000000000000006600,1,1480115875134198,1480115875134198,1,-1.625,13312,-29.5,865.7,0.24543692
100000000000000000006600,1,1480115875141058,1480115875141058,1,0.8125,13312,-30.0,865.7,0.22702916
100000000000000000006600,1,1480115875147968,1480115875147968,1,0.8125,13312,-30.0,865.7,0.23316509
100000000000000000006600,1,1480115875154905,1480115875154905,1,-0.8125,13312,-29.5,865.7,0.22702916
100000000000000000006600,1,1480115875162740,1480115875162740,1,-2.4375,13312,-29.5,865.7,0.239301
100000000000000000006600,1,1480115875169856,1480115875169856,1,-0.8125,13312,-29.5,865.7,0.22702916
100000000000000000006600,1,1480115875176517,1480115875176517,1,-0.8125,13312,-29.5,865.7,0.22702916
100000000000000000006600,1,1480115875183782,1480115875183782,1,-0.8125,13312,-30.0,865.7,0.22702916
100000000000000000006600,1,1480115875190466,1480115875190466,1,0.0,13312,-30.0,865.7,0.22089323
100000000000000000006600,1,1480115875197599,1480115875197599,1,0.0,13312,-29.5,865.7,0.22089323
100000000000000000006600,1,1480115875204520,1480115875204520,1,-0.8125,13312,-30.0,865.7,0.21475731
100000000000000000006600,1,1480115875211441,1480115875211441,1,1.625,13312,-30.0,865.7,0.20248546
100000000000000000006600,1,1480115875218369,1480115875218369,1,-2.4375,13312,-30.0,865.7,0.21475731
100000000000000000006600,1,1480115875225279,1480115875225279,1,-0.8125,13312,-30.0,865.7,0.20862138
100000000000000000006600,1,1480115875233294,1480115875233294,1,0.0,13312,-30.5,865.7,0.20248546
100000000000000000006600,1,1480115875240154,1480115875240154,1,0.0,13312,-30.0,865.7,0.19634955
100000000000000000006600,1,1480115875247046,1480115875247046,1,0.0,13312,-30.0,865.7,0.19021362
100000000000000000006600,1,1480115875253754,1480115875253754,1,-0.8125,13312,-30.0,865.7,0.19021362
100000000000000000006600,1,1480115875260633,1480115875260633,1,0.8125,13312,-30.0,865.7,0.1840777
100000000000000000006600,1,1480115875267813,1480115875267813,1,-1.625,13312,-30.5,865.7,0.19021362
100000000000000000006600,1,1480115875274485,1480115875274485,1,-0.8125,13312,-30.5,865.7,0.17794177
100000000000000000006600,1,1480115875281402,1480115875281402,1,1.625,13312,-30.0,865.7,0.17180584
100000000000000000006600,1,1480115875288320,1480115875288320,1,-0.8125,13312,-30.5,865.7,0.17180584
100000000000000000006600,1,1480115875295550,1480115875295550,1,0.8125,13312,-30.5,865.7,0.159534
100000000000000000006600,1,1480115875302201,1480115875302201,1,-0.8125,13312,-30.5,865.7,0.17180584
100000000000000000006600,1,1480115875309380,1480115875309380,1,0.0,13312,-31.0,865.7,0.159534
100000000000000000006600,1,1480115875316083,1480115875316083,1,0.0,13312,-30.5,865.7,0.15339808
100000000000000000006600,1,1480115875323270,1480115875323270,1,1.625,13312,-30.5,865.7,0.14726216
100000000000000000006600,1,1480115875330169,1480115875330169,1,-1.625,13312,-30.5,865.7,0.14726216
100000000000000000006600,1,1480115875336833,1480115875336833,1,0.8125,13312,-31.0,865.7,0.12885438
100000000000000000006600,1,1480115875343751,1480115875343751,1,0.8125,13312,-31.0,865.7,0.12885438
100000000000000000006600,1,1480115875350915,1480115875350915,1,-1.625,13312,-31.0,865.7,0.1349903
100000000000000000006600,1,1480115875357905,1480115875357905,1,-1.625,13312,-31.5,865.7,0.12885438
100000000000000000006600,1,1480115875364798,1480115875364798,1,0.0,13312,-31.5,865.7,0.11658254
100000000000000000006600,1,1480115875373249,1480115875373249,1,-1.625,13312,-31.5,865.7,0.11044662
100000000000000000006600,1,1480115875379868,1480115875379868,1,0.0,13312,-32.0,865.7,0.11044662
100000000000000000006600,1,1480115875386788,1480115875386788,1,0.0,13312,-31.5,865.7,0.09817477
100000000000000000006600,1,1480115875393694,1480115875393694,1,0.0,13312,-31.5,865.7,0.09203885
100000000000000000006600,1,1480115875400619,1480115875400619,1,0.0,13312,-32.0,865.7,0.10431069
100000000000000000006600,1,1480115875407498,1480115875407498,1,0.0,13312,-32.0,865.7,0.09203885
100000000000000000006600,1,1480115875414645,1480115875414645,1,0.0,13312,-32.0,865.7,0.10431069
100000000000000000006600,1,1480115875421541,1480115875421541,1,0.8125,13312,-32.0,865.7,0.09817477
100000000000000000006600,1,1480115875428465,1480115875428465,1,-0.8125,13312,-32.5,865.7,0.11044662
100000000000000000006600,1,1480115875435159,1480115875435159,1,0.0,13312,-32.5,865.7,0.10431069
100000000000000000006600,1,1480115875442303,1480115875442303,1,-1.625,13312,-32.5,865.7,0.11658254
100000000000000000006600,1,1480115875449228,1480115875449228,1,0.0,13312,-32.5,865.7,0.10431069
100000000000000000006600,1,1480115875456139,1480115875456139,1,0.8125,13312,-32.5,865.7,0.11044662
100000000000000000006600,1,1480115875464114,1480115875464114,1,0.0,13312,-32.5,865.7,0.10431069
100000000000000000006600,1,1480115875470973,1480115875470973,1,0.0,13312,-32.5,865.7,0.11658254
100000000000000000006600,1,1480115875477813,1480115875477813,1,0.8125,13312,-32.5,865.7,0.10431069
100000000000000000006600,1,1480115875484703,1480115875484703,1,1.625,13312,-33.0,865.7,0.11044662
100000000000000000006600,1,1480115875491383,1480115875491383,1,0.0,13312,-32.5,865.7,0.11044662
100000000000000000006600,1,1480115875500109,1480115875500109,1,0.8125,13312,-32.5,865.7,0.11044662
100000000000000000006600,1,1480115875506745,1480115875506745,1,0.8125,13312,-32.5,865.7,0.11044662
100000000000000000006600,1,1480115875513652,1480115875513652,1,0.0,13312,-32.5,865.7,0.11044662
100000000000000000006600,1,1480115875520534,1480115875520534,1,0.0,13312,-32.5,865.7,0.12885438
100000000000000000006600,1,1480115875527528,1480115875527528,1,1.625,13312,-33.0,865.7,0.11658254
100000000000000000006600,1,1480115875534419,1480115875534419,1,0.0,13312,-32.5,865.7,0.12271846
100000000000000000006600,1,1480115875541566,1480115875541566,1,0.0,13312,-33.0,865.7,0.12271846
100000000000000000006600,1,1480115875548449,1480115875548449,1,3.25,13312,-32.5,865.7,0.09817477
100000000000000000006600,1,1480115875555137,1480115875555137,1,-0.8125,13312,-33.0,865.7,0.12271846
100000000000000000006600,1,1480115875561971,1480115875561971,1,0.8125,13312,-32.5,865.7,0.11658254
100000000000000000006600,1,1480115875568878,1480115875568878,1,0.8125,13312,-32.5,865.7,0.11658254
100000000000000000006600,1,1480115875575729,1480115875575729,1,2.4375,13312,-33.0,865.7,0.11044662
100000000000000000006600,1,1480115875582681,1480115875582681,1,0.0,13312,-33.0,865.7,0.12885438
100000000000000000006600,1,1480115875589555,1480115875589555,1,1.625,13312,-33.0,865.7,0.11044662
100000000000000000006600,1,1480115875596476,1480115875596476,1,1.625,13312,-33.0,865.7,0.11658254
100000000000000000006600,1,1480115875603606,1480115875603606,1,0.8125,13312,-32.5,865.7,0.12271846
100000000000000000006600,1,1480115875610328,1480115875610328,1,1.625,13312,-32.5,865.7,0.12271846
100000000000000000006600,1,1480115875617280,1480115875617280,1,1.625,13312,-33.0,865.7,0.11658254
100000000000000000006600,1,1480115875624426,1480115875624426,1,0.8125,13312,-32.5,865.7,0.11658254
100000000000000000006600,1,1480115875631079,1480115875631079,1,0.8125,13312,-33.0,865.7,0.11658254
100000000000000000006600,1,1480115875637953,1480115875637953,1,0.8125,13312,-33.0,865.7,0.11658254
100000000000000000006600,1,1480115875644861,1480115875644861,1,1.625,13312,-33.0,865.7,0.11044662
100000000000000000006600,1,1480115875651755,1480115875651755,1,0.0,13312,-33.0,865.7,0.12271846
100000000000000000006600,1,1480115875658678,1480115875658678,1,0.0,13312,-33.0,865.7,0.12271846
100000000000000000006600,1,1480115875665862,1480115875665862,1,0.8125,13312,-33.0,865.7,0.11658254
100000000000000000006600,1,1480115875672822,1480115875672822,1,0.8125,13312,-33.0,865.7,0.11658254
100000000000000000006600,1,1480115875681247,1480115875681247,1,-0.8125,13312,-33.0,865.7,0.12885438
100000000000000000006600,1,1480115875688277,1480115875688277,1,1.625,13312,-33.0,865.7,0.11044662
100000000000000000006600,1,1480115875695209,1480115875695209,1,0.8125,13312,-33.0,865.7,0.11658254
100000000000000000006600,1,1480115875701866,1480115875701866,1,-0.8125,13312,-33.0,865.7,0.12271846
100000000000000000006600,1,1480115875709053,1480115875709053,1,0.8125,13312,-33.0,865.7,0.11658254
100000000000000000006600,1,1480115875715720,1480115875715720,1,-1.625,13312,-33.0,865.7,0.12885438
100000000000000000006600,1,1480115875722932,1480115875722932,1,0.0,13312,-33.0,865.7,0.11658254
100000000000000000006600,1,1480115875729586,1480115875729586,1,2.4375,13312,-33.0,865.7,0.11044662
100000000000000000006600,1,1480115875736549,1480115875736549,1,0.0,13312,-33.0,865.7,0.11658254
100000000000000000006600,1,1480115875743721,1480115875743721,1,0.0,13312,-33.0,865.7,0.12271846
100000000000000000006600,1,1480115875750374,1480115875750374,1,0.0,13312,-33.0,865.7,0.12271846
100000000000000000006600,1,1480115875757528,1480115875757528,1,0.8125,13312,-33.0,865.7,0.11044662
100000000000000000006600,1,1480115875764238,1480115875764238,1,2.4375,13312,-33.0,865.7,0.11044662
100000000000000000006600,1,1480115875771344,1480115875771344,1,1.625,13312,-33.0,865.7,0.11044662
100000000000000000006600,1,1480115875778265,1480115875778265,1,3.25,13312,-33.5,865.7,0.10431069
100000000000000000006600,1,1480115875784918,1480115875784918,1,0.8125,13312,-33.5,865.7,0.11658254
100000000000000000006600,1,1480115875792059,1480115875792059,1,0.8125,13312,-33.0,865.7,0.11658254
100000000000000000006600,1,1480115875798713,1480115875798713,1,3.25,13312,-33.0,865.7,0.10431069
100000000000000000006600,1,1480115875805873,1480115875805873,1,0.8125,13312,-33.0,865.7,0.11658254
100000000000000000006600,1,1480115875812631,1480115875812631,1,1.625,13312,-33.0,865.7,0.11044662
100000000000000000006600,1,1480115875820841,1480115875820841,1,0.0,13312,-33.0,865.7,0.11044662
100000000000000000006600,1,1480115875827821,1480115875827821,1,0.8125,13312,-33.0,865.7,0.11044662
100000000000000000006600,1,1480115875834530,1480115875834530,1,0.8125,13312,-33.5,865.7,0.12271846
100000000000000000006600,1,1480115875842887,1480115875842887,1,-0.8125,13312,-33.0,865.7,0.11658254
100000000000000000006600,1,1480115875849810,1480115875849810,1,3.25,13312,-33.0,865.7,0.09817477
100000000000000000006600,1,1480115875856731,1480115875856731,1,2.4375,13312,-33.0,865.7,0.09817477
100000000000000000006600,1,1480115875863877,1480115875863877,1,-0.8125,13312,-33.5,865.7,0.11658254
100000000000000000006600,1,1480115875870516,1480115875870516,1,0.8125,13312,-33.5,865.7,0.10431069
100000000000000000006600,1,1480115875877679,1480115875877679,1,0.0,13312,-33.0,865.7,0.10431069
100000000000000000006600,1,1480115875884688,1480115875884688,1,-0.8125,13312,-33.5,865.7,0.11044662
100000000000000000006600,1,1480115875891606,1480115875891606,1,0.0,13312,-33.0,865.7,0.11044662
100000000000000000006600,1,1480115875898278,1480115875898278,1,-2.4375,13312,-33.0,865.7,0.12885438
100000000000000000006600,1,1480115875905175,1480115875905175,1,3.25,13312,-33.5,865.7,0.08590292
100000000000000000006600,1,1480115875912322,1480115875912322,1,0.0,13312,-33.0,865.7,0.09817477
100000000000000000006600,1,1480115875919258,1480115875919258,1,2.4375,13312,-33.5,865.7,0.09817477
100000000000000000006600,1,1480115875926138,1480115875926138,1,-1.625,13312,-33.5,865.7,0.11044662
100000000000000000006600,1,1480115875932789,1480115875932789,1,1.625,13312,-33.5,865.7,0.08590292
100000000000000000006600,1,1480115875939974,1480115875939974,1,0.8125,13312,-33.5,865.7,0.09817477
100000000000000000006600,1,1480115875946950,1480115875946950,1,0.0,13312,-33.0,865.7,0.09817477
100000000000000000006600,1,1480115875953618,1480115875953618,1,0.8125,13312,-33.5,865.7,0.08590292
100000000000000000006600,1,1480115875960797,1480115875960797,1,0.0,13312,-33.5,865.7,0.09817477
100000000000000000006600,1,1480115875967391,1480115875967391,1,0.0,13312,-33.5,865.7,0.09203885
100000000000000000006600,1,1480115875974299,1480115875974299,1,2.4375,13312,-33.5,865.7,0.08590292
100000000000000000006600,1,1480115875981223,1480115875981223,1,4.875,13312,-33.5,865.7,0.07363108
100000000000000000006600,1,1480115875988339,1480115875988339,1,0.8125,13312,-33.5,865.7,0.08590292
100000000000000000006600,1,1480115875995258,1480115875995258,1,-0.8125,13312,-33.5,865.7,0.09817477
100000000000000000006600,1,1480115876001938,1480115876001938,1,2.4375,13312,-33.5,865.7,0.079767
100000000000000000006600,1,1480115876008884,1480115876008884,1,0.8125,13312,-33.5,865.7,0.08590292
100000000000000000006600,1,1480115876015723,1480115876015723,1,1.625,13312,-33.5,865.7,0.079767
100000000000000000006600,1,1480115876022962,1480115876022962,1,3.25,13312,-33.5,865.7,0.07363108
100000000000000000006600,1,1480115876029967,1480115876029967,1,1.625,13312,-33.5,865.7,0.08590292
100000000000000000006600,1,1480115876038331,1480115876038331,1,0.8125,13312,-33.5,865.7,0.079767
100000000000000000006600,1,1480115876045239,1480115876045239,1,0.0,13312,-33.5,865.7,0.08590292
100000000000000000006600,1,1480115876052148,1480115876052148,1,0.0,13312,-33.5,865.7,0.08590292
100000000000000000006600,1,1480115876058985,1480115876058985,1,-0.8125,13312,-34.0,865.7,0.08590292
100000000000000000006600,1,1480115876067369,1480115876067369,1,1.625,13312,-33.5,865.7,0.07363108
100000000000000000006600,1,1480115876074030,1480115876074030,1,0.8125,13312,-33.5,865.7,0.07363108
100000000000000000006600,1,1480115876080930,1480115876080930,1,-0.8125,13312,-33.5,865.7,0.079767
100000000000000000006600,1,1480115876088125,1480115876088125,1,2.4375,13312,-33.5,865.7,0.06135923
100000000000000000006600,1,1480115876095007,1480115876095007,1,2.4375,13312,-34.0,865.7,0.06135923
100000000000000000006600,1,1480115876101659,1480115876101659,1,0.8125,13312,-33.5,865.7,0.06749515
100000000000000000006600,1,1480115876108794,1480115876108794,1,0.0,13312,-33.5,865.7,0.06749515
100000000000000000006600,1,1480115876115475,1480115876115475,1,0.0,13312,-34.0,865.7,0.06749515
100000000000000000006600,1,1480115876122328,1480115876122328,1,0.0,13312,-34.0,865.7,0.06749515
100000000000000000006600,1,1480115876129253,1480115876129253,1,0.0,13312,-34.0,865.7,0.06749515
100000000000000000006600,1,1480115876136395,1480115876136395,1,0.0,13312,-33.5,865.7,0.06135923
100000000000000000006600,1,1480115876143329,1480115876143329,1,0.8125,13312,-34.0,865.7,0.05522331
100000000000000000006600,1,1480115876149998,1480115876149998,1,0.0,13312,-33.5,865.7,0.06135923
100000000000000000006600,1,1480115876157230,1480115876157230,1,0.8125,13312,-33.5,865.7,0.05522331
100000000000000000006600,1,1480115876164123,1480115876164123,1,0.0,13312,-33.5,865.7,0.05522331
100000000000000000006600,1,1480115876170733,1480115876170733,1,0.8125,13312,-33.5,865.7,0.049087387
100000000000000000006600,1,1480115876177640,1480115876177640,1,1.625,13312,-34.0,865.7,0.04295146
100000000000000000006600,1,1480115876184559,1480115876184559,1,1.625,13312,-33.5,865.7,0.03681554
100000000000000000006600,1,1480115876191716,1480115876191716,1,0.8125,13312,-33.5,865.7,0.04295146
100000000000000000006600,1,1480115876198610,1480115876198610,1,2.4375,13312,-33.5,865.7,0.030679615
100000000000000000006600,1,1480115876205515,1480115876205515,1,0.0,13312,-33.5,865.7,0.04295146
100000000000000000006600,1,1480115876212165,1480115876212165,1,0.0,13312,-34.0,865.7,0.03681554
100000000000000000006600,1,1480115876219119,1480115876219119,1,2.4375,13312,-33.5,865.7,0.024543693
100000000000000000006600,1,1480115876226042,1480115876226042,1,0.0,13312,-33.5,865.7,0.024543693
100000000000000000006600,1,1480115876233190,1480115876233190,1,0.0,13312,-34.0,865.7,0.030679615
100000000000000000006600,1,1480115876239829,1480115876239829,1,0.8125,13312,-34.0,865.7,0.030679615
100000000000000000006600,1,1480115876246793,1480115876246793,1,3.25,13312,-34.0,865.7,0.012271847
100000000000000000006600,1,1480115876253743,1480115876253743,1,0.8125,13312,-33.5,865.7,0.030679615
100000000000000000006600,1,1480115876260853,1480115876260853,1,0.8125,13312,-34.0,865.7,0.024543693
100000000000000000006600,1,1480115876267756,1480115876267756,1,0.8125,13312,-33.5,865.7,0.024543693
100000000000000000006600,1,1480115876274419,1480115876274419,1,-0.8125,13312,-34.0,865.7,0.030679615
100000000000000000006600,1,1480115876281382,1480115876281382,1,2.4375,13312,-34.0,865.7,0.012271847
100000000000000000006600,1,1480115876288526,1480115876288526,1,1.625,13312,-34.0,865.7,0.012271847
100000000000000000006600,1,1480115876295398,1480115876295398,1,0.0,13312,-34.0,865.7,0.01840777
100000000000000000006600,1,1480115876302067,1480115876302067,1,0.8125,13312,-34.0,865.7,0.012271847
100000000000000000006600,1,1480115876309196,1480115876309196,1,0.8125,13312,-34.0,865.7,0.012271847
100000000000000000006600,1,1480115876315863,1480115876315863,1,0.8125,13312,-33.5,865.7,0.012271847
100000000000000000006600,1,1480115876322827,1480115876322827,1,1.625,13312,-34.0,865.7,0.0061359233
100000000000000000006600,1,1480115876331036,1480115876331036,1,3.25,13312,-34.0,865.7,6.2770495
100000000000000000006600,1,1480115876337736,1480115876337736,1,5.6875,13312,-34.0,865.7,6.2709136
100000000000000000006600,1,1480115876344632,1480115876344632,1,1.625,13312,-34.0,865.7,0.0
100000000000000000006600,1,1480115876351536,1480115876351536,1,0.8125,13312,-34.0,865.7,0.012271847
100000000000000000006600,1,1480115876358458,1480115876358458,1,1.625,13312,-33.5,865.7,6.2770495
100000000000000000006600,1,1480115876365678,1480115876365678,1,0.0,13312,-34.0,865.7,0.0061359233
100000000000000000006600,1,1480115876372632,1480115876372632,1,0.8125,13312,-33.5,865.7,0.0
100000000000000000006600,1,1480115876381044,1480115876381044,1,0.8125,13312,-34.0,865.7,0.0061359233
100000000000000000006600,1,1480115876387968,1480115876387968,1,0.8125,13312,-34.0,865.7,0.0061359233
100000000000000000006600,1,1480115876394929,1480115876394929,1,0.8125,13312,-34.0,865.7,0.0061359233
100000000000000000006600,1,1480115876401845,1480115876401845,1,4.875,13312,-34.0,865.7,6.2647777
100000000000000000006600,1,1480115876408791,1480115876408791,1,0.8125,13312,-33.5,865.7,6.2770495
100000000000000000006600,1,1480115876415468,1480115876415468,1,0.8125,13312,-33.5,865.7,0.0
100000000000000000006600,1,1480115876422662,1480115876422662,1,2.4375,13312,-33.5,865.7,6.2647777
100000000000000000006600,1,1480115876429356,1480115876429356,1,1.625,13312,-33.5,865.7,6.2770495
100000000000000000006600,1,1480115876436542,1480115876436542,1,0.8125,13312,-34.0,865.7,0.0
100000000000000000006600,1,1480115876443244,1480115876443244,1,1.625,13312,-33.5,865.7,0.0
100000000000000000006600,1,1480115876450421,1480115876450421,1,1.625,13312,-34.0,865.7,0.0
100000000000000000006600,1,1480115876457097,1480115876457097,1,0.8125,13312,-34.0,865.7,0.0
100000000000000000006600,1,1480115876463999,1480115876463999,1,0.0,13312,-33.5,865.7,0.0
100000000000000000006600,1,1480115876470923,1480115876470923,1,3.25,13312,-33.5,865.7,6.2709136
100000000000000000006600,1,1480115876477811,1480115876477811,1,-0.8125,13312,-33.5,865.7,0.012271847
100000000000000000006600,1,1480115876484944,1480115876484944,1,2.4375,13312,-33.5,865.7,6.2709136
100000000000000000006600,1,1480115876491589,1480115876491589,1,2.4375,13312,-33.5,865.7,6.2709136
100000000000000000006600,1,1480115876498519,1480115876498519,1,-0.8125,13312,-34.0,865.7,0.01840777
100000000000000000006600,1,1480115876505690,1480115876505690,1,2.4375,13312,-34.0,865.7,6.2647777
100000000000000000006600,1,1480115876512616,1480115876512616,1,0.0,13312,-33.5,865.7,0.0
100000000000000000006600,1,1480115876519308,1480115876519308,1,1.625,13312,-33.5,865.7,6.2770495
100000000000000000006600,1,1480115876526187,1480115876526187,1,1.625,13312,-33.5,865.7,6.2770495
100000000000000000006600,1,1480115876533336,1480115876533336,1,-2.4375,13312,-33.5,865.7,0.024543693
100000000000000000006600,1,1480115876539938,1480115876539938,1,-0.8125,13312,-33.5,865.7,0.01840777
100000000000000000006600,1,1480115876547117,1480115876547117,1,0.0,13312,-33.5,865.7,0.0061359233
100000000000000000006600,1,1480115876554017,1480115876554017,1,0.8125,13312,-33.5,865.7,0.012271847
100000000000000000006600,1,1480115876560922,1480115876560922,1,0.0,13312,-33.5,865.7,0.012271847
100000000000000000006600,1,1480115876567802,1480115876567802,1,0.0,13312,-33.5,865.7,0.012271847
100000000000000000006600,1,1480115876574780,1480115876574780,1,0.8125,13312,-33.5,865.7,0.0061359233
100000000000000000006600,1,1480115876581506,1480115876581506,1,2.4375,13312,-33.5,865.7,0.0
100000000000000000006600,1,1480115876588671,1480115876588671,1,0.8125,13312,-33.5,865.7,0.0061359233
100000000000000000006600,1,1480115876595309,1480115876595309,1,1.625,13312,-33.0,865.7,0.0
100000000000000000006600,1,1480115876602481,1480115876602481,1,0.0,13312,-33.0,865.7,0.01840777
100000000000000000006600,1,1480115876609150,1480115876609150,1,-0.8125,13312,-33.0,865.7,0.01840777
100000000000000000006600,1,1480115876616069,1480115876616069,1,0.0,13312,-33.0,865.7,0.012271847
100000000000000000006600,1,1480115876622962,1480115876622962,1,0.0,13312,-33.0,865.7,0.024543693
100000000000000000006600,1,1480115876629859,1480115876629859,1,0.8125,13312,-33.0,865.7,0.024543693
100000000000000000006600,1,1480115876637046,1480115876637046,1,0.8125,13312,-33.0,865.7,0.01840777
100000000000000000006600,1,1480115876643755,1480115876643755,1,1.625,13312,-32.5,865.7,0.01840777
100000000000000000006600,1,1480115876650650,1480115876650650,1,0.0,13312,-32.5,865.7,0.03681554
100000000000000000006600,1,1480115876657838,1480115876657838,1,1.625,13312,-33.0,865.7,0.024543693
100000000000000000006600,1,1480115876664501,1480115876664501,1,0.8125,13312,-32.5,865.7,0.030679615
100000000000000000006600,1,1480115876671618,1480115876671618,1,-0.8125,13312,-32.5,865.7,0.05522331
100000000000000000006600,1,1480115876679368,1480115876679368,1,0.8125,13312,-32.0,865.7,0.05522331
100000000000000000006600,1,1480115876686287,1480115876686287,1,0.0,13312,-32.0,865.7,0.06749515
100000000000000000006600,1,1480115876693199,1480115876693199,1,0.0,13312,-32.0,865.7,0.079767
100000000000000000006600,1,1480115876700095,1480115876700095,1,0.0,13312,-31.5,865.7,0.08590292
100000000000000000006600,1,1480115876707016,1480115876707016,1,0.8125,13312,-31.5,865.7,0.09203885
100000000000000000006600,1,1480115876713935,1480115876713935,1,0.0,13312,-31.0,865.7,0.11658254
100000000000000000006600,1,1480115876720817,1480115876720817,1,0.8125,13312,-31.0,865.7,0.12885438
100000000000000000006600,1,1480115876727948,1480115876727948,1,0.8125,13312,-31.0,865.7,0.14112623
100000000000000000006600,1,1480115876734824,1480115876734824,1,-0.8125,13312,-30.5,865.7,0.16566992
100000000000000000006600,1,1480115876741730,1480115876741730,1,0.8125,13312,-30.5,865.7,0.16566992
100000000000000000006600,1,1480115876748366,1480115876748366,1,0.0,13312,-30.5,865.7,0.1840777
100000000000000000006600,1,1480115876755538,1480115876755538,1,-0.8125,13312,-30.5,865.7,0.19021362
100000000000000000006600,1,1480115876762188,1480115876762188,1,-0.8125,13312,-30.0,865.7,0.19634955
100000000000000000006600,1,1480115876769390,1480115876769390,1,-1.625,13312,-30.0,865.7,0.20862138
100000000000000000006600,1,1480115876776051,1480115876776051,1,0.8125,13312,-30.0,865.7,0.21475731
100000000000000000006600,1,1480115876783372,1480115876783372,1,0.0,13312,-30.0,865.7,0.21475731
100000000000000000006600,1,1480115876789987,1480115876789987,1,0.0,13312,-30.0,865.7,0.22089323
100000000000000000006600,1,1480115876797148,1480115876797148,1,-0.8125,13312,-30.0,865.7,0.22702916
100000000000000000006600,1,1480115876803998,1480115876803998,1,-0.8125,13312,-30.0,865.7,0.23316509
100000000000000000006600,1,1480115876810688,1480115876810688,1,1.625,13312,-30.0,865.7,0.239301
100000000000000000006600,1,1480115876817591,1480115876817591,1,0.8125,13312,-29.5,865.7,0.239301
100000000000000000006600,1,1480115876824483,1480115876824483,1,0.0,13312,-29.5,865.7,0.25157285
100000000000000000006600,1,1480115876831464,1480115876831464,1,-0.8125,13312,-29.5,865.7,0.2638447
100000000000000000006600,1,1480115876838390,1480115876838390,1,-2.4375,13312,-29.5,865.7,0.28225246
100000000000000000006600,1,1480115876845310,1480115876845310,1,2.4375,13312,-29.5,865.7,0.2638447
100000000000000000006600,1,1480115876852172,1480115876852172,1,0.0,13312,-29.5,865.7,0.28225246
100000000000000000006600,1,1480115876860951,1480115876860951,1,0.8125,13312,-29.0,865.7,0.28225246
100000000000000000006600,1,1480115876867855,1480115876867855,1,0.8125,13312,-29.5,865.7,0.28225246
100000000000000000006600,1,1480115876874774,1480115876874774,1,0.0,13312,-29.0,865.7,0.30679616
100000000000000000006600,1,1480115876881409,1480115876881409,1,0.8125,13312,-29.0,865.7,0.30066022
100000000000000000006600,1,1480115876888378,1480115876888378,1,0.0,13312,-29.0,865.7,0.30679616
100000000000000000006600,1,1480115876895278,1480115876895278,1,2.4375,13312,-29.0,865.7,0.31293207
100000000000000000006600,1,1480115876902222,1480115876902222,1,-1.625,13312,-29.0,865.7,0.34974763
100000000000000000006600,1,1480115876909403,1480115876909403,1,-0.8125,13312,-28.5,865.7,0.35588354
100000000000000000006600,1,1480115876917367,1480115876917367,1,-1.625,13312,-28.5,865.7,0.36201948
100000000000000000006600,1,1480115876924024,1480115876924024,1,0.8125,13312,-28.5,865.7,0.3436117
100000000000000000006600,1,1480115876931157,1480115876931157,1,0.0,13312,-29.0,865.7,0.34974763
100000000000000000006600,1,1480115876938135,1480115876938135,1,0.8125,13312,-28.5,865.7,0.3436117
100000000000000000006600,1,1480115876944794,1480115876944794,1,0.8125,13312,-28.5,865.7,0.34974763
100000000000000000006600,1,1480115876951972,1480115876951972,1,1.625,13312,-28.5,865.7,0.35588354
100000000000000000006600,1,1480115876958607,1480115876958607,1,0.8125,13312,-28.5,865.7,0.34974763
100000000000000000006600,1,1480115876965802,1480115876965802,1,0.0,13312,-29.0,865.7,0.34974763
100000000000000000006600,1,1480115876972830,1480115876972830,1,1.625,13312,-28.5,865.7,0.3436117
100000000000000000006600,1,1480115876979785,1480115876979785,1,1.625,13312,-28.5,865.7,0.3436117
100000000000000000006600,1,1480115876986464,1480115876986464,1,0.8125,13312,-28.5,865.7,0.3436117
100000000000000000006600,1,1480115876993440,1480115876993440,1,0.8125,13312,-28.5,865.7,0.3436117
100000000000000000006600,1,1480115877000560,1480115877000560,1,1.625,13312,-28.5,865.7,0.3436117
100000000000000000006600,1,1480115877007524,1480115877007524,1,0.0,13312,-28.5,865.7,0.3436117
100000000000000000006600,1,1480115877014212,1480115877014212,1,1.625,13312,-29.0,865.7,0.3436117
100000000000000000006600,1,1480115877021157,1480115877021157,1,-1.625,13312,-28.5,865.7,0.34974763
100000000000000000006600,1,1480115877029790,1480115877029790,1,2.4375,13312,-29.0,865.7,0.3436117
100000000000000000006600,1,1480115877036508,1480115877036508,1,0.8125,13312,-29.0,865.7,0.34974763
100000000000000000006600,1,1480115877043449,1480115877043449,1,0.0,13312,-28.5,865.7,0.34974763
100000000000000000006600,1,1480115877050588,1480115877050588,1,0.8125,13312,-28.5,865.7,0.34974763
100000000000000000006600,1,1480115877057253,1480115877057253,1,1.625,13312,-28.5,865.7,0.3436117
100000000000000000006600,1,1480115877064400,1480115877064400,1,0.8125,13312,-28.5,865.7,0.3436117
100000000000000000006600,1,1480115877071323,1480115877071323,1,3.25,13312,-29.0,865.7,0.33747578
100000000000000000006600,1,1480115877078238,1480115877078238,1,1.625,13312,-28.5,865.7,0.3436117
100000000000000000006600,1,1480115877084908,1480115877084908,1,0.0,13312,-28.5,865.7,0.34974763
100000000000000000006600,1,1480115877092057,1480115877092057,1,1.625,13312,-28.5,865.7,0.3436117
100000000000000000006600,1,1480115877098946,1480115877098946,1,0.0,13312,-29.0,865.7,0.35588354
100000000000000000006600,1,1480115877107357,1480115877107357,1,0.8125,13312,-29.0,865.7,0.35588354
100000000000000000006600,1,1480115877114056,1480115877114056,1,0.0,13312,-28.5,865.7,0.34974763
100000000000000000006600,1,1480115877121184,1480115877121184,1,0.8125,13312,-28.5,865.7,0.33747578
100000000000000000006600,1,1480115877128076,1480115877128076,1,-2.4375,13312,-28.5,865.7,0.3681554
100000000000000000006600,1,1480115877134988,1480115877134988,1,0.0,13312,-28.5,865.7,0.3681554
100000000000000000006600,1,1480115877141919,1480115877141919,1,0.8125,13312,-28.5,865.7,0.3681554
100000000000000000006600,1,1480115877148848,1480115877148848,1,0.0,13312,-28.5,865.7,0.3742913
100000000000000000006600,1,1480115877155520,1480115877155520,1,0.0,13312,-28.5,865.7,0.3742913
100000000000000000006600,1,1480115877162504,1480115877162504,1,0.8125,13312,-28.5,865.7,0.38656315
100000000000000000006600,1,1480115877169448,1480115877169448,1,-1.625,13312,-28.5,865.7,0.3926991
100000000000000000006600,1,1480115877176617,1480115877176617,1,0.0,13312,-28.5,865.7,0.3926991
100000000000000000006600,1,1480115877183710,1480115877183710,1,1.625,13312,-28.5,865.7,0.3926991
100000000000000000006600,1,1480115877190498,1480115877190498,1,0.0,13312,-28.5,865.7,0.3926991
100000000000000000006600,1,1480115877197791,1480115877197791,1,0.0,13312,-28.0,865.7,0.38656315
100000000000000000006600,1,1480115877204610,1480115877204610,1,-0.8125,13312,-28.5,865.7,0.3926991
100000000000000000006600,1,1480115877211642,1480115877211642,1,-1.625,13312,-28.0,865.7,0.398835
100000000000000000006600,1,1480115877218921,1480115877218921,1,-0.8125,13312,-28.0,865.7,0.3926991
100000000000000000006600,1,1480115877225678,1480115877225678,1,0.0,13312,-28.0,865.7,0.3926991
100000000000000000006600,1,1480115877233033,1480115877233033,1,0.0,13312,-28.0,865.7,0.398835
100000000000000000006600,1,1480115877240007,1480115877240007,1,0.0,13312,-28.0,865.7,0.3926991
100000000000000000006600,1,1480115877246988,1480115877246988,1,0.8125,13312,-28.0,865.7,0.38656315
100000000000000000006600,1,1480115877254002,1480115877254002,1,0.0,13312,-28.0,865.7,0.398835
100000000000000000006600,1,1480115877260772,1480115877260772,1,0.0,13312,-28.0,865.7,0.398835
100000000000000000006600,1,1480115877267756,1480115877267756,1,0.0,13312,-28.5,865.7,0.398835
100000000000000000006600,1,1480115877274704,1480115877274704,1,0.8125,13312,-28.0,865.7,0.3926991
100000000000000000006600,1,1480115877281718,1480115877281718,1,0.8125,13312,-28.0,865.7,0.398835
100000000000000000006600,1,1480115877288962,1480115877288962,1,0.8125,13312,-28.0,865.7,0.398835
100000000000000000006600,1,1480115877295765,1480115877295765,1,0.0,13312,-28.0,865.7,0.4233787
100000000000000000006600,1,1480115877303056,1480115877303056,1,-0.8125,13312,-28.0,865.7,0.4233787
100000000000000000006600,1,1480115877310069,1480115877310069,1,-1.625,13312,-28.0,865.7,0.43565056
100000000000000000006600,1,1480115877317078,1480115877317078,1,-1.625,13312,-28.0,865.7,0.44178647
100000000000000000006600,1,1480115877324047,1480115877324047,1,1.625,13312,-28.0,865.7,0.4233787
100000000000000000006600,1,1480115877330821,1480115877330821,1,1.625,13312,-28.0,865.7,0.4233787
100000000000000000006600,1,1480115877338076,1480115877338076,1,1.625,13312,-28.0,865.7,0.41724277
100000000000000000006600,1,1480115877346652,1480115877346652,1,0.0,13312,-28.0,865.7,0.43565056
100000000000000000006600,1,1480115877353424,1480115877353424,1,0.0,13312,-28.0,865.7,0.43565056
100000000000000000006600,1,1480115877360427,1480115877360427,1,0.8125,13312,-28.0,865.7,0.43565056
100000000000000000006600,1,1480115877367399,1480115877367399,1,0.8125,13312,-27.5,865.7,0.42951462
100000000000000000006600,1,1480115877374297,1480115877374297,1,-0.8125,13312,-27.5,865.7,0.44792238
100000000000000000006600,1,1480115877382751,1480115877382751,1,2.4375,13312,-28.0,865.7,0.44792238
100000000000000000006600,1,1480115877389883,1480115877389883,1,2.4375,13312,-27.5,865.7,0.44178647
100000000000000000006600,1,1480115877396835,1480115877396835,1,1.625,13312,-27.5,865.7,0.46019423
