0000000000000000AAAAAAAA,1,1473722351962743,1473722351962743,1,8.125,13312,-44.0,865.7,1.0737865
000000000000000000AAAAAA,1,1473722351965924,1473722351965924,1,1.625,13312,-38.0,865.7,0.49087384
0000000000000000000000AA,1,1473722351967859,1473722351967859,1,1.625,13312,-38.5,865.7,3.202952
00000000000000000000AAAA,1,1473722351970342,1473722351970342,1,-1.625,13312,-42.0,865.7,5.58369
0000000000000000000000AA,1,1473722351980346,1473722351980346,1,0.0,13312,-38.5,865.7,3.2090878
00000000000000000000AAAA,1,1473722351981726,1473722351981726,1,0.8125,13312,-42.0,865.7,5.5714183
000000000000000000AAAAAA,1,1473722351983857,1473722351983857,1,5.6875,13312,-38.5,865.7,0.45405832
0000000000000000AAAAAAAA,1,1473722351985810,1473722351985810,1,8.125,13312,-44.0,865.7,1.0799224
0000000000000000AAAAAAAA,1,1473722351994223,1473722351994223,1,2.4375,13312,-43.5,865.7,1.0983303
0000000000000000000000AA,1,1473722351995802,1473722351995802,1,2.4375,13312,-38.5,865.7,3.196816
000000000000000000AAAAAA,1,1473722351999906,1473722351999906,1,4.0625,13312,-38.5,865.7,0.47246608
00000000000000000000AAAA,1,1473722352001265,1473722352001265,1,-2.4375,13312,-42.0,865.7,5.595962
00000000000000000000AAAA,1,1473722352010578,1473722352010578,1,0.0,13312,-42.0,865.7,5.602098
0000000000000000000000AA,1,1473722352012758,1473722352012758,1,1.625,13312,-38.5,865.7,3.2152238
000000000000000000AAAAAA,1,1473722352014376,1473722352014376,1,-0.8125,13312,-38.5,865.7,0.478602
0000000000000000AAAAAAAA,1,1473722352015721,1473722352015721,1,1.625,13312,-43.5,865.7,1.0983303
0000000000000000000000AA,1,1473722352146858,1473722352146858,1,0.8125,13312,-38.0,865.7,3.270447
00000000000000000000AAAA,1,1473722352148208,1473722352148208,1,0.8125,13312,-41.0,865.7,5.8598065
000000000000000000AAAAAA,1,1473722352149771,1473722352149771,1,4.0625,13312,-37.5,865.7,0.41724277
0000000000000000AAAAAAAA,1,1473722352151795,1473722352151795,1,7.3125,13312,-43.5,865.7,1.1535536
000000000000000000AAAAAA,1,1473722352163487,1473722352163487,1,5.6875,13312,-37.5,865.7,0.3926991
00000000000000000000AAAA,1,1473722352165699,1473722352165699,1,-0.8125,13312,-41.0,865.7,5.902758
0000000000000000000000AA,1,1473722352167934,1473722352167934,1,1.625,13312,-38.0,865.7,3.276583
0000000000000000AAAAAAAA,1,1473722352169264,1473722352169264,1,7.3125,13312,-43.5,865.7,1.1596894
000000000000000000AAAAAA,1,1473722352179242,1473722352179242,1,4.0625,13312,-37.5,865.7,0.41110685
00000000000000000000AAAA,1,1473722352181226,1473722352181226,1,0.8125,13312,-40.5,865.7,5.908894
0000000000000000000000AA,1,1473722352182764,1473722352182764,1,3.25,13312,-37.5,865.7,3.270447
0000000000000000AAAAAAAA,1,1473722352184492,1473722352184492,1,8.125,13312,-43.5,865.7,1.1412817
000000000000000000AAAAAA,1,1473722352194283,1473722352194283,1,5.6875,13312,-37.0,865.7,0.38042724
0000000000000000AAAAAAAA,1,1473722352195869,1473722352195869,1,8.9375,13312,-43.5,865.7,1.1658254
00000000000000000000AAAA,1,1473722352197145,1473722352197145,1,0.8125,13312,-41.0,865.7,5.902758
0000000000000000000000AA,1,1473722352198872,1473722352198872,1,8.9375,13312,-38.0,865.7,3.2397673
0000000000000000AAAAAAAA,1,1473722352205362,1473722352205362,1,7.3125,13312,-43.5,865.7,1.1596894
000000000000000000AAAAAA,1,1473722352207024,1473722352207024,1,5.6875,13312,-37.0,865.7,0.398835
0000000000000000000000AA,1,1473722352208335,1473722352208335,1,3.25,13312,-38.0,865.7,3.282719
00000000000000000000AAAA,1,1473722352210195,1473722352210195,1,8.9375,13312,-40.5,865.7,5.8720784
0000000000000000AAAAAAAA,1,1473722352222122,1473722352222122,1,8.125,13312,-43.5,865.7,1.1474177
000000000000000000AAAAAA,1,1473722352225855,1473722352225855,1,5.6875,13312,-37.0,865.7,0.3926991
00000000000000000000AAAA,1,1473722352227828,1473722352227828,1,6.5,13312,-40.5,865.7,5.8782144
0000000000000000000000AA,1,1473722352229138,1473722352229138,1,-1.625,13312,-37.5,865.7,3.3072627
0000000000000000AAAAAAAA,1,1473722352237892,1473722352237892,1,2.4375,13312,-43.5,865.7,1.1903691
0000000000000000000000AA,1,1473722352239459,1473722352239459,1,5.6875,13312,-38.0,865.7,3.276583
000000000000000000AAAAAA,1,1473722352242410,1473722352242410,1,8.125,13312,-37.0,865.7,0.38042724
00000000000000000000AAAA,1,1473722352244113,1473722352244113,1,2.4375,13312,-40.5,865.7,5.91503
000000000000000000AAAAAA,1,1473722352251705,1473722352251705,1,2.4375,13312,-37.0,865.7,0.4049709
0000000000000000000000AA,1,1473722352254693,1473722352254693,1,1.625,13312,-38.0,865.7,3.2949908
00000000000000000000AAAA,1,1473722352256396,1473722352256396,1,-4.875,13312,-41.0,865.7,5.9457097
0000000000000000AAAAAAAA,1,1473722352258863,1473722352258863,1,5.6875,13312,-43.5,865.7,1.2026409
0000000000000000000000AA,1,1473722352266510,1473722352266510,1,-1.625,13312,-38.0,865.7,3.3195345
0000000000000000AAAAAAAA,1,1473722352267885,1473722352267885,1,5.6875,13312,-43.5,865.7,1.2026409
00000000000000000000AAAA,1,1473722352270578,1473722352270578,1,0.0,13312,-40.5,865.7,5.927302
000000000000000000AAAAAA,1,1473722352273677,1473722352273677,1,2.4375,13312,-37.0,865.7,0.398835
000000000000000000AAAAAA,1,1473722352282106,1473722352282106,1,4.0625,13312,-37.0,865.7,0.398835
0000000000000000AAAAAAAA,1,1473722352285677,1473722352285677,1,2.4375,13312,-43.0,865.7,1.2210487
00000000000000000000AAAA,1,1473722352289058,1473722352289058,1,-0.8125,13312,-40.5,865.7,5.939574
0000000000000000000000AA,1,1473722352290385,1473722352290385,1,6.5,13312,-38.0,865.7,3.282719
0000000000000000000000AA,1,1473722352296923,1473722352296923,1,0.8125,13312,-38.0,865.7,3.3072627
00000000000000000000AAAA,1,1473722352300938,1473722352300938,1,0.0,13312,-40.5,865.7,5.927302
0000000000000000AAAAAAAA,1,1473722352302895,1473722352302895,1,6.5,13312,-43.5,865.7,1.1842332
000000000000000000AAAAAA,1,1473722352304201,1473722352304201,1,4.0625,13312,-37.0,865.7,0.4049709
00000000000000000000AAAA,1,1473722352310572,1473722352310572,1,4.875,13312,-40.5,865.7,5.921166
000000000000000000AAAAAA,1,1473722352312857,1473722352312857,1,4.875,13312,-37.0,865.7,0.398835
0000000000000000AAAAAAAA,1,1473722352317270,1473722352317270,1,5.6875,13312,-43.5,865.7,1.1842332
0000000000000000000000AA,1,1473722352318864,1473722352318864,1,1.625,13312,-37.5,865.7,3.3011267
000000000000000000AAAAAA,1,1473722352326544,1473722352326544,1,5.6875,13312,-37.0,865.7,0.398835
0000000000000000AAAAAAAA,1,1473722352328273,1473722352328273,1,8.125,13312,-43.5,865.7,1.1719613
00000000000000000000AAAA,1,1473722352330685,1473722352330685,1,4.875,13312,-40.5,865.7,5.91503
0000000000000000000000AA,1,1473722352332308,1473722352332308,1,2.4375,13312,-37.5,865.7,3.3011267
0000000000000000AAAAAAAA,1,1473722352340822,1473722352340822,1,6.5,13312,-43.5,865.7,1.1965051
00000000000000000000AAAA,1,1473722352344001,1473722352344001,1,-4.875,13312,-41.0,865.7,5.970253
000000000000000000AAAAAA,1,1473722352346188,1473722352346188,1,2.4375,13312,-37.0,865.7,0.4049709
0000000000000000000000AA,1,1473722352348710,1473722352348710,1,4.875,13312,-37.5,865.7,3.2888548
00000000000000000000AAAA,1,1473722352359132,1473722352359132,1,0.0,13312,-40.5,865.7,5.9518456
0000000000000000000000AA,1,1473722352361055,1473722352361055,1,2.4375,13312,-38.0,865.7,3.3195345
000000000000000000AAAAAA,1,1473722352362391,1473722352362391,1,2.4375,13312,-36.5,865.7,0.41724277
0000000000000000AAAAAAAA,1,1473722352363835,1473722352363835,1,5.6875,13312,-43.5,865.7,1.2026409
000000000000000000AAAAAA,1,1473722352371484,1473722352371484,1,5.6875,13312,-36.5,865.7,0.3926991
0000000000000000AAAAAAAA,1,1473722352373281,1473722352373281,1,8.125,13312,-43.5,865.7,1.1965051
0000000000000000000000AA,1,1473722352375301,1473722352375301,1,7.3125,13312,-37.5,865.7,3.2888548
00000000000000000000AAAA,1,1473722352377953,1473722352377953,1,4.875,13312,-40.5,865.7,5.939574
00000000000000000000AAAA,1,1473722352385759,1473722352385759,1,-0.8125,13312,-40.5,865.7,5.982525
0000000000000000000000AA,1,1473722352388632,1473722352388632,1,6.5,13312,-38.0,865.7,3.2949908
0000000000000000AAAAAAAA,1,1473722352391921,1473722352391921,1,10.5625,13312,-43.5,865.7,1.1842332
000000000000000000AAAAAA,1,1473722352393752,1473722352393752,1,4.0625,13312,-36.5,865.7,0.4049709
0000000000000000AAAAAAAA,1,1473722352402277,1473722352402277,1,4.875,13312,-43.5,865.7,1.2026409
000000000000000000AAAAAA,1,1473722352404749,1473722352404749,1,4.875,13312,-36.5,865.7,0.4049709
0000000000000000000000AA,1,1473722352406455,1473722352406455,1,0.8125,13312,-37.5,865.7,3.3318062
00000000000000000000AAAA,1,1473722352408295,1473722352408295,1,-1.625,13312,-41.0,865.7,6.0070686
000000000000000000AAAAAA,1,1473722352417684,1473722352417684,1,6.5,13312,-37.0,865.7,0.38042724
0000000000000000000000AA,1,1473722352419024,1473722352419024,1,3.25,13312,-37.5,865.7,3.3072627
00000000000000000000AAAA,1,1473722352420356,1473722352420356,1,-0.8125,13312,-41.0,865.7,5.9947968
0000000000000000AAAAAAAA,1,1473722352423037,1473722352423037,1,7.3125,13312,-43.5,865.7,1.2087768
0000000000000000000000AA,1,1473722352431405,1473722352431405,1,0.8125,13312,-38.0,865.7,3.3318062
0000000000000000AAAAAAAA,1,1473722352433120,1473722352433120,1,6.5,13312,-43.5,865.7,1.2149128
000000000000000000AAAAAA,1,1473722352435261,1473722352435261,1,0.0,13312,-36.5,865.7,0.42951462
00000000000000000000AAAA,1,1473722352438004,1473722352438004,1,0.0,13312,-40.5,865.7,6.0132046
0000000000000000000000AA,1,1473722352445643,1473722352445643,1,0.0,13312,-37.5,865.7,3.35635
00000000000000000000AAAA,1,1473722352447391,1473722352447391,1,1.625,13312,-41.0,865.7,5.988661
0000000000000000AAAAAAAA,1,1473722352449844,1473722352449844,1,7.3125,13312,-43.5,865.7,1.2026409
000000000000000000AAAAAA,1,1473722352451619,1473722352451619,1,2.4375,13312,-36.5,865.7,0.4049709
0000000000000000000000AA,1,1473722352462041,1473722352462041,1,4.875,13312,-38.0,865.7,3.3133986
000000000000000000AAAAAA,1,1473722352464200,1473722352464200,1,5.6875,13312,-36.5,865.7,0.3926991
0000000000000000AAAAAAAA,1,1473722352465588,1473722352465588,1,8.125,13312,-43.5,865.7,1.2026409
00000000000000000000AAAA,1,1473722352466906,1473722352466906,1,0.0,13312,-41.0,865.7,6.0070686
0000000000000000AAAAAAAA,1,1473722352475670,1473722352475670,1,4.875,13312,-43.5,865.7,1.2149128
000000000000000000AAAAAA,1,1473722352479673,1473722352479673,1,4.875,13312,-36.5,865.7,0.398835
0000000000000000000000AA,1,1473722352481646,1473722352481646,1,2.4375,13312,-38.0,865.7,3.3318062
00000000000000000000AAAA,1,1473722352483008,1473722352483008,1,-0.8125,13312,-41.0,865.7,6.0193405
0000000000000000000000AA,1,1473722352489776,1473722352489776,1,7.3125,13312,-37.5,865.7,3.3072627
00000000000000000000AAAA,1,1473722352494344,1473722352494344,1,-3.25,13312,-41.0,865.7,6.0377483
000000000000000000AAAAAA,1,1473722352495721,1473722352495721,1,4.875,13312,-36.5,865.7,0.4049709
0000000000000000AAAAAAAA,1,1473722352498129,1473722352498129,1,8.9375,13312,-43.5,865.7,1.2210487
0000000000000000000000AA,1,1473722352505751,1473722352505751,1,0.0,13312,-37.5,865.7,3.35635
00000000000000000000AAAA,1,1473722352509230,1473722352509230,1,0.0,13312,-41.0,865.7,6.0254765
000000000000000000AAAAAA,1,1473722352512325,1473722352512325,1,2.4375,13312,-36.5,865.7,0.4049709
0000000000000000AAAAAAAA,1,1473722352513668,1473722352513668,1,0.8125,13312,-43.5,865.7,1.2333206
0000000000000000000000AA,1,1473722352522921,1473722352522921,1,0.0,13312,-37.5,865.7,3.344078
00000000000000000000AAAA,1,1473722352524640,1473722352524640,1,0.0,13312,-41.0,865.7,6.0438843
0000000000000000AAAAAAAA,1,1473722352526003,1473722352526003,1,3.25,13312,-44.0,865.7,1.2394565
000000000000000000AAAAAA,1,1473722352527351,1473722352527351,1,0.8125,13312,-36.5,865.7,0.42951462
000000000000000000AAAAAA,1,1473722352536860,1473722352536860,1,6.5,13312,-36.5,865.7,0.3926991
0000000000000000AAAAAAAA,1,1473722352539042,1473722352539042,1,3.25,13312,-43.5,865.7,1.2271847
00000000000000000000AAAA,1,1473722352540418,1473722352540418,1,2.4375,13312,-40.5,865.7,6.0254765
0000000000000000000000AA,1,1473722352541995,1473722352541995,1,0.0,13312,-37.5,865.7,3.35635
0000000000000000000000AA,1,1473722352551250,1473722352551250,1,0.8125,13312,-38.0,865.7,3.344078
00000000000000000000AAAA,1,1473722352552598,1473722352552598,1,-0.8125,13312,-41.0,865.7,6.05002
000000000000000000AAAAAA,1,1473722352554148,1473722352554148,1,5.6875,13312,-36.5,865.7,0.4049709
0000000000000000AAAAAAAA,1,1473722352556629,1473722352556629,1,4.875,13312,-44.0,865.7,1.2333206
000000000000000000AAAAAA,1,1473722352563798,1473722352563798,1,5.6875,13312,-36.5,865.7,0.41110685
00000000000000000000AAAA,1,1473722352565386,1473722352565386,1,-2.4375,13312,-41.0,865.7,6.056156
0000000000000000000000AA,1,1473722352568327,1473722352568327,1,0.0,13312,-37.5,865.7,3.35635
0000000000000000AAAAAAAA,1,1473722352569659,1473722352569659,1,4.875,13312,-43.5,865.7,1.2394565
000000000000000000AAAAAA,1,1473722352579292,1473722352579292,1,7.3125,13312,-36.0,865.7,0.3926991
0000000000000000000000AA,1,1473722352583340,1473722352583340,1,5.6875,13312,-37.5,865.7,3.3195345
0000000000000000AAAAAAAA,1,1473722352584712,1473722352584712,1,4.875,13312,-43.5,865.7,1.2517283
00000000000000000000AAAA,1,1473722352587262,1473722352587262,1,1.625,13312,-41.0,865.7,6.0377483
0000000000000000000000AA,1,1473722352595667,1473722352595667,1,0.8125,13312,-37.5,865.7,3.350214
00000000000000000000AAAA,1,1473722352597173,1473722352597173,1,0.8125,13312,-41.0,865.7,6.0316124
000000000000000000AAAAAA,1,1473722352599647,1473722352599647,1,4.0625,13312,-36.0,865.7,0.4233787
0000000000000000AAAAAAAA,1,1473722352600976,1473722352600976,1,-3.25,13312,-43.5,865.7,1.2701361
000000000000000000AAAAAA,1,1473722352610104,1473722352610104,1,5.6875,13312,-36.0,865.7,0.4049709
0000000000000000AAAAAAAA,1,1473722352613716,1473722352613716,1,6.5,13312,-43.5,865.7,1.2578642
0000000000000000000000AA,1,1473722352615536,1473722352615536,1,0.0,13312,-37.5,865.7,3.362486
00000000000000000000AAAA,1,1473722352617611,1473722352617611,1,8.9375,13312,-41.0,865.7,6.0316124
00000000000000000000AAAA,1,1473722352626054,1473722352626054,1,-2.4375,13312,-41.0,865.7,6.142059
0000000000000000000000AA,1,1473722352629325,1473722352629325,1,2.4375,13312,-37.5,865.7,3.3747578
000000000000000000AAAAAA,1,1473722352631044,1473722352631044,1,-0.8125,13312,-36.5,865.7,0.4233787
0000000000000000AAAAAAAA,1,1473722352632445,1473722352632445,1,0.8125,13312,-43.5,865.7,1.2885438
0000000000000000000000AA,1,1473722352641890,1473722352641890,1,3.25,13312,-37.5,865.7,3.35635
00000000000000000000AAAA,1,1473722352643367,1473722352643367,1,5.6875,13312,-41.0,865.7,6.086836
000000000000000000AAAAAA,1,1473722352644956,1473722352644956,1,7.3125,13312,-36.0,865.7,0.4049709
0000000000000000AAAAAAAA,1,1473722352648160,1473722352648160,1,4.875,13312,-44.0,865.7,1.276272
000000000000000000AAAAAA,1,1473722352658234,1473722352658234,1,1.625,13312,-35.5,865.7,0.4049709
00000000000000000000AAAA,1,1473722352659641,1473722352659641,1,-3.25,13312,-41.0,865.7,6.21569
0000000000000000000000AA,1,1473722352661460,1473722352661460,1,4.875,13312,-37.0,865.7,3.3808937
0000000000000000AAAAAAAA,1,1473722352663668,1473722352663668,1,0.8125,13312,-44.0,865.7,1.3376312
0000000000000000000000AA,1,1473722352671006,1473722352671006,1,2.4375,13312,-37.0,865.7,3.3931656
00000000000000000000AAAA,1,1473722352672950,1473722352672950,1,-0.8125,13312,-41.0,865.7,6.21569
000000000000000000AAAAAA,1,1473722352675024,1473722352675024,1,4.875,13312,-35.5,865.7,0.3926991
0000000000000000AAAAAAAA,1,1473722352677945,1473722352677945,1,3.25,13312,-43.5,865.7,1.3314953
0000000000000000AAAAAAAA,1,1473722352685623,1473722352685623,1,8.9375,13312,-43.5,865.7,1.3192235
0000000000000000000000AA,1,1473722352688311,1473722352688311,1,5.6875,13312,-37.0,865.7,3.3808937
000000000000000000AAAAAA,1,1473722352691023,1473722352691023,1,5.6875,13312,-35.5,865.7,0.398835
00000000000000000000AAAA,1,1473722352692980,1473722352692980,1,0.8125,13312,-41.0,865.7,6.2034183
0000000000000000AAAAAAAA,1,1473722352700069,1473722352700069,1,2.4375,13312,-44.0,865.7,1.3253593
000000000000000000AAAAAA,1,1473722352701389,1473722352701389,1,1.625,13312,-35.5,865.7,0.4049709
0000000000000000000000AA,1,1473722352704380,1473722352704380,1,2.4375,13312,-37.0,865.7,3.3993015
00000000000000000000AAAA,1,1473722352706312,1473722352706312,1,-2.4375,13312,-41.0,865.7,6.227962
000000000000000000AAAAAA,1,1473722352714474,1473722352714474,1,4.0625,13312,-35.5,865.7,0.4049709
0000000000000000AAAAAAAA,1,1473722352717380,1473722352717380,1,7.3125,13312,-43.5,865.7,1.3069516
00000000000000000000AAAA,1,1473722352718981,1473722352718981,1,0.0,13312,-41.0,865.7,6.1911464
0000000000000000000000AA,1,1473722352722465,1473722352722465,1,2.4375,13312,-37.0,865.7,3.3808937
0000000000000000AAAAAAAA,1,1473722352729795,1473722352729795,1,3.25,13312,-44.0,865.7,1.3253593
00000000000000000000AAAA,1,1473722352732015,1473722352732015,1,5.6875,13312,-41.0,865.7,6.1788745
0000000000000000000000AA,1,1473722352737578,1473722352737578,1,4.875,13312,-37.0,865.7,3.3686218
000000000000000000AAAAAA,1,1473722352739282,1473722352739282,1,2.4375,13312,-35.5,865.7,0.3926991
00000000000000000000AAAA,1,1473722352745794,1473722352745794,1,2.4375,13312,-41.0,865.7,6.209554
000000000000000000AAAAAA,1,1473722352748464,1473722352748464,1,6.5,13312,-35.5,865.7,0.3926991
0000000000000000AAAAAAAA,1,1473722352751271,1473722352751271,1,-0.8125,13312,-43.5,865.7,1.3499031
0000000000000000000000AA,1,1473722352752879,1473722352752879,1,2.4375,13312,-37.0,865.7,3.3870296
00000000000000000000AAAA,1,1473722352759526,1473722352759526,1,1.625,13312,-41.0,865.7,6.1911464
0000000000000000000000AA,1,1473722352761362,1473722352761362,1,4.875,13312,-37.0,865.7,3.3747578
000000000000000000AAAAAA,1,1473722352764759,1473722352764759,1,2.4375,13312,-35.5,865.7,0.3926991
0000000000000000AAAAAAAA,1,1473722352766684,1473722352766684,1,1.625,13312,-43.5,865.7,1.3376312
00000000000000000000AAAA,1,1473722352775789,1473722352775789,1,0.0,13312,-40.5,865.7,6.1850104
000000000000000000AAAAAA,1,1473722352777653,1473722352777653,1,5.6875,13312,-35.5,865.7,0.38042724
0000000000000000AAAAAAAA,1,1473722352779678,1473722352779678,1,8.9375,13312,-44.0,865.7,1.3069516
0000000000000000000000AA,1,1473722352781711,1473722352781711,1,1.625,13312,-37.5,865.7,3.3747578
0000000000000000000000AA,1,1473722352793570,1473722352793570,1,-1.625,13312,-37.5,865.7,3.3808937
0000000000000000AAAAAAAA,1,1473722352795043,1473722352795043,1,0.8125,13312,-44.0,865.7,1.3069516
000000000000000000AAAAAA,1,1473722352797218,1473722352797218,1,4.0625,13312,-36.0,865.7,0.398835
00000000000000000000AAAA,1,1473722352800426,1473722352800426,1,2.4375,13312,-40.5,865.7,6.086836
00000000000000000000AAAA,1,1473722352806235,1473722352806235,1,-1.625,13312,-41.0,865.7,6.068428
0000000000000000000000AA,1,1473722352807588,1473722352807588,1,2.4375,13312,-37.5,865.7,3.3256702
0000000000000000AAAAAAAA,1,1473722352809629,1473722352809629,1,13.8125,13312,-43.5,865.7,1.2087768
000000000000000000AAAAAA,1,1473722352814382,1473722352814382,1,1.625,13312,-36.5,865.7,0.4049709
0000000000000000AAAAAAAA,1,1473722352822158,1473722352822158,1,4.875,13312,-43.5,865.7,1.2333206
0000000000000000000000AA,1,1473722352824786,1473722352824786,1,-0.8125,13312,-38.0,865.7,3.3379421
00000000000000000000AAAA,1,1473722352827413,1473722352827413,1,-3.25,13312,-41.0,865.7,6.0438843
000000000000000000AAAAAA,1,1473722352829104,1473722352829104,1,7.3125,13312,-36.5,865.7,0.38042724
0000000000000000000000AA,1,1473722352836539,1473722352836539,1,0.8125,13312,-37.5,865.7,3.3195345
0000000000000000AAAAAAAA,1,1473722352837901,1473722352837901,1,5.6875,13312,-43.5,865.7,1.2271847
00000000000000000000AAAA,1,1473722352840214,1473722352840214,1,-3.25,13312,-40.5,865.7,6.0132046
000000000000000000AAAAAA,1,1473722352844301,1473722352844301,1,4.0625,13312,-36.5,865.7,0.4049709
0000000000000000AAAAAAAA,1,1473722352855043,1473722352855043,1,7.3125,13312,-43.5,865.7,1.2026409
000000000000000000AAAAAA,1,1473722352856448,1473722352856448,1,5.6875,13312,-36.5,865.7,0.3926991
00000000000000000000AAAA,1,1473722352858517,1473722352858517,1,-2.4375,13312,-40.5,865.7,6.0132046
0000000000000000000000AA,1,1473722352860112,1473722352860112,1,-0.8125,13312,-37.5,865.7,3.3379421
0000000000000000AAAAAAAA,1,1473722352867577,1473722352867577,1,-0.8125,13312,-43.5,865.7,1.2333206
000000000000000000AAAAAA,1,1473722352872063,1473722352872063,1,1.625,13312,-37.0,865.7,0.38656315
00000000000000000000AAAA,1,1473722352873509,1473722352873509,1,-0.8125,13312,-40.5,865.7,5.9947968
0000000000000000000000AA,1,1473722352875117,1473722352875117,1,1.625,13312,-38.0,865.7,3.3072627
0000000000000000000000AA,1,1473722352882482,1473722352882482,1,2.4375,13312,-38.0,865.7,3.3133986
000000000000000000AAAAAA,1,1473722352883819,1473722352883819,1,6.5,13312,-37.0,865.7,0.38042724
00000000000000000000AAAA,1,1473722352885152,1473722352885152,1,1.625,13312,-40.5,865.7,5.970253
0000000000000000AAAAAAAA,1,1473722352889420,1473722352889420,1,5.6875,13312,-43.5,865.7,1.2149128
0000000000000000AAAAAAAA,1,1473722352897878,1473722352897878,1,8.125,13312,-43.5,865.7,1.1903691
0000000000000000000000AA,1,1473722352900311,1473722352900311,1,4.875,13312,-37.5,865.7,3.2949908
00000000000000000000AAAA,1,1473722352902128,1473722352902128,1,8.125,13312,-40.5,865.7,5.939574
000000000000000000AAAAAA,1,1473722352903914,1473722352903914,1,2.4375,13312,-36.5,865.7,0.38042724
000000000000000000AAAAAA,1,1473722352913424,1473722352913424,1,2.4375,13312,-36.5,865.7,0.38042724
0000000000000000AAAAAAAA,1,1473722352915849,1473722352915849,1,10.5625,13312,-43.5,865.7,1.1596894
0000000000000000000000AA,1,1473722352917385,1473722352917385,1,0.8125,13312,-38.0,865.7,3.3133986
00000000000000000000AAAA,1,1473722352919727,1473722352919727,1,2.4375,13312,-40.5,865.7,5.939574
000000000000000000AAAAAA,1,1473722352931971,1473722352931971,1,4.875,13312,-36.5,865.7,0.38042724
0000000000000000AAAAAAAA,1,1473722352933328,1473722352933328,1,0.0,13312,-43.5,865.7,1.2087768
00000000000000000000AAAA,1,1473722352934692,1473722352934692,1,1.625,13312,-40.5,865.7,5.9457097
0000000000000000000000AA,1,1473722352937025,1473722352937025,1,5.6875,13312,-38.0,865.7,3.282719
0000000000000000AAAAAAAA,1,1473722352944188,1473722352944188,1,8.9375,13312,-43.5,865.7,1.1780972
0000000000000000000000AA,1,1473722352947383,1473722352947383,1,-1.625,13312,-37.5,865.7,3.3318062
000000000000000000AAAAAA,1,1473722352948998,1473722352948998,1,5.6875,13312,-37.0,865.7,0.38042724
00000000000000000000AAAA,1,1473722352952529,1473722352952529,1,0.8125,13312,-40.5,865.7,5.927302
0000000000000000000000AA,1,1473722352962660,1473722352962660,1,0.8125,13312,-38.0,865.7,3.264311
00000000000000000000AAAA,1,1473722352964844,1473722352964844,1,0.8125,13312,-40.5,865.7,5.773904
000000000000000000AAAAAA,1,1473722352966153,1473722352966153,1,6.5,13312,-37.5,865.7,0.398835
0000000000000000AAAAAAAA,1,1473722352967497,1473722352967497,1,3.25,13312,-43.5,865.7,1.1044662
0000000000000000000000AA,1,1473722352975886,1473722352975886,1,2.4375,13312,-38.0,865.7,3.2459033
000000000000000000AAAAAA,1,1473722352978273,1473722352978273,1,5.6875,13312,-37.5,865.7,0.41110685
00000000000000000000AAAA,1,1473722352980259,1473722352980259,1,0.8125,13312,-40.5,865.7,5.743224
0000000000000000AAAAAAAA,1,1473722352981576,1473722352981576,1,8.125,13312,-43.0,865.7,1.1106021
0000000000000000000000AA,1,1473722352990286,1473722352990286,1,3.25,13312,-38.5,865.7,3.2520392
000000000000000000AAAAAA,1,1473722352991876,1473722352991876,1,2.4375,13312,-37.5,865.7,0.41724277
00000000000000000000AAAA,1,1473722352994361,1473722352994361,1,0.8125,13312,-40.5,865.7,5.7861757
0000000000000000AAAAAAAA,1,1473722352995991,1473722352995991,1,4.875,13312,-43.0,865.7,1.1412817
000000000000000000AAAAAA,1,1473722353005771,1473722353005771,1,4.0625,13312,-37.5,865.7,0.4049709
0000000000000000000000AA,1,1473722353007111,1473722353007111,1,3.25,13312,-38.0,865.7,3.2520392
0000000000000000AAAAAAAA,1,1473722353008469,1473722353008469,1,8.9375,13312,-43.5,865.7,1.1106021
00000000000000000000AAAA,1,1473722353009827,1473722353009827,1,0.0,13312,-40.5,865.7,5.7984476
00000000000000000000AAAA,1,1473722353023436,1473722353023436,1,-0.8125,13312,-40.5,865.7,5.829127
0000000000000000000000AA,1,1473722353025389,1473722353025389,1,5.6875,13312,-38.0,865.7,3.2459033
000000000000000000AAAAAA,1,1473722353027349,1473722353027349,1,6.5,13312,-37.5,865.7,0.38042724
0000000000000000AAAAAAAA,1,1473722353028679,1473722353028679,1,7.3125,13312,-43.0,865.7,1.1228739
00000000000000000000AAAA,1,1473722353035928,1473722353035928,1,1.625,13312,-40.5,865.7,5.822991
000000000000000000AAAAAA,1,1473722353038865,1473722353038865,1,5.6875,13312,-37.5,865.7,0.3926991
0000000000000000AAAAAAAA,1,1473722353040536,1473722353040536,1,4.875,13312,-43.0,865.7,1.1474177
0000000000000000000000AA,1,1473722353043208,1473722353043208,1,3.25,13312,-38.0,865.7,3.264311
0000000000000000000000AA,1,1473722353051448,1473722353051448,1,-0.8125,13312,-38.0,865.7,3.2888548
0000000000000000AAAAAAAA,1,1473722353054113,1473722353054113,1,10.5625,13312,-43.5,865.7,1.116738
000000000000000000AAAAAA,1,1473722353056513,1473722353056513,1,4.875,13312,-37.0,865.7,0.398835
00000000000000000000AAAA,1,1473722353058214,1473722353058214,1,0.8125,13312,-40.5,865.7,5.835263
00000000000000000000AAAA,1,1473722353066272,1473722353066272,1,4.0625,13312,-40.5,865.7,5.8413987
0000000000000000AAAAAAAA,1,1473722353067631,1473722353067631,1,5.6875,13312,-43.5,865.7,1.1474177
000000000000000000AAAAAA,1,1473722353069132,1473722353069132,1,0.8125,13312,-37.0,865.7,0.4049709
0000000000000000000000AA,1,1473722353072534,1473722353072534,1,3.25,13312,-38.0,865.7,3.264311
0000000000000000000000AA,1,1473722353080706,1473722353080706,1,0.8125,13312,-38.0,865.7,3.2888548
000000000000000000AAAAAA,1,1473722353083972,1473722353083972,1,2.4375,13312,-36.5,865.7,0.38656315
00000000000000000000AAAA,1,1473722353085771,1473722353085771,1,0.8125,13312,-40.5,865.7,5.9457097
0000000000000000AAAAAAAA,1,1473722353087614,1473722353087614,1,7.3125,13312,-43.0,865.7,1.1780972
000000000000000000AAAAAA,1,1473722353095052,1473722353095052,1,4.875,13312,-36.5,865.7,0.36201948
0000000000000000000000AA,1,1473722353099569,1473722353099569,1,-3.25,13312,-37.5,865.7,3.3318062
00000000000000000000AAAA,1,1473722353100916,1473722353100916,1,-1.625,13312,-40.5,865.7,5.970253
0000000000000000AAAAAAAA,1,1473722353103823,1473722353103823,1,4.875,13312,-43.0,865.7,1.2026409
000000000000000000AAAAAA,1,1473722353111421,1473722353111421,1,8.125,13312,-36.5,865.7,0.3436117
0000000000000000AAAAAAAA,1,1473722353113376,1473722353113376,1,3.25,13312,-43.0,865.7,1.2271847
0000000000000000000000AA,1,1473722353116261,1473722353116261,1,1.625,13312,-37.5,865.7,3.3011267
00000000000000000000AAAA,1,1473722353118587,1473722353118587,1,0.8125,13312,-40.5,865.7,5.9579816
0000000000000000000000AA,1,1473722353126131,1473722353126131,1,1.625,13312,-38.0,865.7,3.3072627
000000000000000000AAAAAA,1,1473722353128604,1473722353128604,1,4.875,13312,-36.5,865.7,0.35588354
00000000000000000000AAAA,1,1473722353129936,1473722353129936,1,1.625,13312,-40.5,865.7,5.970253
0000000000000000AAAAAAAA,1,1473722353132059,1473722353132059,1,3.25,13312,-43.0,865.7,1.2210487
0000000000000000AAAAAAAA,1,1473722353140305,1473722353140305,1,-2.4375,13312,-43.5,865.7,1.2640002
00000000000000000000AAAA,1,1473722353143895,1473722353143895,1,2.4375,13312,-40.0,865.7,5.982525
000000000000000000AAAAAA,1,1473722353145501,1473722353145501,1,5.6875,13312,-36.5,865.7,0.34974763
0000000000000000000000AA,1,1473722353146839,1473722353146839,1,5.6875,13312,-37.5,865.7,3.3011267
0000000000000000000000AA,1,1473722353156250,1473722353156250,1,0.8125,13312,-38.0,865.7,3.3256702
000000000000000000AAAAAA,1,1473722353158726,1473722353158726,1,6.5,13312,-36.0,865.7,0.33747578
0000000000000000AAAAAAAA,1,1473722353160964,1473722353160964,1,7.3125,13312,-43.0,865.7,1.2271847
00000000000000000000AAAA,1,1473722353162454,1473722353162454,1,0.8125,13312,-40.5,865.7,6.0070686
00000000000000000000AAAA,1,1473722353169874,1473722353169874,1,3.25,13312,-40.5,865.7,6.05002
0000000000000000AAAAAAAA,1,1473722353173080,1473722353173080,1,2.4375,13312,-43.5,865.7,1.3069516
0000000000000000000000AA,1,1473722353174406,1473722353174406,1,4.875,13312,-37.5,865.7,3.3379421
000000000000000000AAAAAA,1,1473722353176011,1473722353176011,1,1.625,13312,-35.5,865.7,0.3436117
00000000000000000000AAAA,1,1473722353187172,1473722353187172,1,0.0,13312,-40.5,865.7,6.2647777
000000000000000000AAAAAA,1,1473722353189870,1473722353189870,1,1.625,13312,-35.0,865.7,0.35588354
0000000000000000000000AA,1,1473722353191197,1473722353191197,1,4.875,13312,-37.0,865.7,3.3747578
0000000000000000AAAAAAAA,1,1473722353193009,1473722353193009,1,5.6875,13312,-43.5,865.7,1.3867186
000000000000000000AAAAAA,1,1473722353203401,1473722353203401,1,4.0625,13312,-35.0,865.7,0.33133984
00000000000000000000AAAA,1,1473722353204875,1473722353204875,1,0.0,13312,-40.5,865.7,6.2586417
0000000000000000000000AA,1,1473722353206684,1473722353206684,1,3.25,13312,-37.0,865.7,3.3808937
0000000000000000AAAAAAAA,1,1473722353208469,1473722353208469,1,3.25,13312,-43.5,865.7,1.3805827
00000000000000000000AAAA,1,1473722353217198,1473722353217198,1,0.0,13312,-40.0,865.7,6.1972823
000000000000000000AAAAAA,1,1473722353219115,1473722353219115,1,0.0,13312,-35.5,865.7,0.33133984
0000000000000000000000AA,1,1473722353221550,1473722353221550,1,4.875,13312,-37.0,865.7,3.3379421
0000000000000000AAAAAAAA,1,1473722353223759,1473722353223759,1,1.625,13312,-43.5,865.7,1.3376312
000000000000000000AAAAAA,1,1473722353230612,1473722353230612,1,7.3125,13312,-35.5,865.7,0.30066022
0000000000000000000000AA,1,1473722353234863,1473722353234863,1,5.6875,13312,-37.5,865.7,3.3256702
00000000000000000000AAAA,1,1473722353236168,1473722353236168,1,-1.625,13312,-40.0,865.7,6.1113796
0000000000000000AAAAAAAA,1,1473722353238223,1473722353238223,1,8.125,13312,-43.5,865.7,1.276272
0000000000000000AAAAAAAA,1,1473722353246216,1473722353246216,1,3.25,13312,-43.0,865.7,1.2946798
00000000000000000000AAAA,1,1473722353248187,1473722353248187,1,0.8125,13312,-40.0,865.7,6.1113796
0000000000000000000000AA,1,1473722353249543,1473722353249543,1,4.875,13312,-37.5,865.7,3.344078
000000000000000000AAAAAA,1,1473722353252758,1473722353252758,1,4.875,13312,-35.5,865.7,0.30679616
0000000000000000AAAAAAAA,1,1473722353260936,1473722353260936,1,4.875,13312,-43.5,865.7,1.2824079
00000000000000000000AAAA,1,1473722353262524,1473722353262524,1,-5.6875,13312,-40.0,865.7,6.1236515
000000000000000000AAAAAA,1,1473722353264922,1473722353264922,1,2.4375,13312,-35.5,865.7,0.31293207
0000000000000000000000AA,1,1473722353268245,1473722353268245,1,-0.8125,13312,-37.5,865.7,3.350214
0000000000000000AAAAAAAA,1,1473722353276042,1473722353276042,1,-3.25,13312,-43.5,865.7,1.3008157
0000000000000000000000AA,1,1473722353279817,1473722353279817,1,4.875,13312,-37.5,865.7,3.3318062
000000000000000000AAAAAA,1,1473722353281195,1473722353281195,1,6.5,13312,-36.0,865.7,0.2945243
00000000000000000000AAAA,1,1473722353282755,1473722353282755,1,3.25,13312,-39.5,865.7,6.0377483
000000000000000000AAAAAA,1,1473722353292278,1473722353292278,1,4.0625,13312,-35.5,865.7,0.30679616
0000000000000000000000AA,1,1473722353294966,1473722353294966,1,4.875,13312,-37.5,865.7,3.3011267
0000000000000000AAAAAAAA,1,1473722353296969,1473722353296969,1,9.75,13312,-43.5,865.7,1.2149128
00000000000000000000AAAA,1,1473722353298514,1473722353298514,1,3.25,13312,-39.5,865.7,6.0009327
0000000000000000AAAAAAAA,1,1473722353305660,1473722353305660,1,7.3125,13312,-43.0,865.7,1.2087768
0000000000000000000000AA,1,1473722353307609,1473722353307609,1,4.875,13312,-37.5,865.7,3.2949908
00000000000000000000AAAA,1,1473722353308972,1473722353308972,1,1.625,13312,-40.0,865.7,5.9641175
000000000000000000AAAAAA,1,1473722353310279,1473722353310279,1,5.6875,13312,-36.0,865.7,0.2945243
000000000000000000AAAAAA,1,1473722353320817,1473722353320817,1,4.0625,13312,-36.0,865.7,0.2883884
00000000000000000000AAAA,1,1473722353323767,1473722353323767,1,1.625,13312,-39.5,865.7,5.939574
0000000000000000000000AA,1,1473722353325615,1473722353325615,1,2.4375,13312,-38.0,865.7,3.282719
0000000000000000AAAAAAAA,1,1473722353328493,1473722353328493,1,4.875,13312,-43.0,865.7,1.2087768
0000000000000000AAAAAAAA,1,1473722353337322,1473722353337322,1,0.0,13312,-43.0,865.7,1.2087768
0000000000000000000000AA,1,1473722353339700,1473722353339700,1,4.875,13312,-38.0,865.7,3.270447
000000000000000000AAAAAA,1,1473722353341929,1473722353341929,1,0.8125,13312,-36.5,865.7,0.30066022
00000000000000000000AAAA,1,1473722353344102,1473722353344102,1,5.6875,13312,-39.5,865.7,5.8598065
0000000000000000AAAAAAAA,1,1473722353350791,1473722353350791,1,0.8125,13312,-43.0,865.7,1.1842332
00000000000000000000AAAA,1,1473722353352768,1473722353352768,1,5.6875,13312,-39.5,865.7,5.8475347
000000000000000000AAAAAA,1,1473722353357237,1473722353357237,1,5.6875,13312,-36.5,865.7,0.28225246
0000000000000000000000AA,1,1473722353358546,1473722353358546,1,-0.8125,13312,-38.0,865.7,3.270447
0000000000000000AAAAAAAA,1,1473722353366064,1473722353366064,1,8.9375,13312,-43.0,865.7,1.1474177
00000000000000000000AAAA,1,1473722353368561,1473722353368561,1,0.8125,13312,-40.0,865.7,5.816855
0000000000000000000000AA,1,1473722353370997,1473722353370997,1,8.9375,13312,-38.5,865.7,3.2213597
000000000000000000AAAAAA,1,1473722353372302,1473722353372302,1,5.6875,13312,-36.5,865.7,0.28225246
00000000000000000000AAAA,1,1473722353380971,1473722353380971,1,1.625,13312,-40.0,865.7,5.7861757
0000000000000000AAAAAAAA,1,1473722353382629,1473722353382629,1,8.125,13312,-42.5,865.7,1.1290098
000000000000000000AAAAAA,1,1473722353384815,1473722353384815,1,2.4375,13312,-36.5,865.7,0.30066022
0000000000000000000000AA,1,1473722353386423,1473722353386423,1,4.875,13312,-38.5,865.7,3.2336316
0000000000000000000000AA,1,1473722353396643,1473722353396643,1,-1.625,13312,-38.5,865.7,3.2888548
00000000000000000000AAAA,1,1473722353398362,1473722353398362,1,6.5,13312,-40.0,865.7,5.7309523
000000000000000000AAAAAA,1,1473722353399683,1473722353399683,1,4.0625,13312,-37.0,865.7,0.2945243
0000000000000000AAAAAAAA,1,1473722353401609,1473722353401609,1,4.875,13312,-42.5,865.7,1.1412817
0000000000000000000000AA,1,1473722353408143,1473722353408143,1,0.8125,13312,-38.5,865.7,3.270447
0000000000000000AAAAAAAA,1,1473722353410129,1473722353410129,1,9.75,13312,-43.0,865.7,1.1106021
000000000000000000AAAAAA,1,1473722353411947,1473722353411947,1,4.875,13312,-36.5,865.7,0.28225246
00000000000000000000AAAA,1,1473722353415705,1473722353415705,1,0.8125,13312,-40.5,865.7,5.6941366
0000000000000000AAAAAAAA,1,1473722353425984,1473722353425984,1,7.3125,13312,-43.0,865.7,1.1228739
0000000000000000000000AA,1,1473722353427651,1473722353427651,1,-0.8125,13312,-38.5,865.7,3.276583
00000000000000000000AAAA,1,1473722353429224,1473722353429224,1,-0.8125,13312,-40.5,865.7,5.638913
000000000000000000AAAAAA,1,1473722353430604,1473722353430604,1,4.875,13312,-37.0,865.7,0.28225246
00000000000000000000AAAA,1,1473722353438763,1473722353438763,1,-1.625,13312,-41.0,865.7,5.6266418
0000000000000000000000AA,1,1473722353440571,1473722353440571,1,3.25,13312,-38.5,865.7,3.264311
000000000000000000AAAAAA,1,1473722353444745,1473722353444745,1,5.6875,13312,-37.0,865.7,0.2883884
0000000000000000AAAAAAAA,1,1473722353446061,1473722353446061,1,5.6875,13312,-43.0,865.7,1.1228739
0000000000000000AAAAAAAA,1,1473722353452816,1473722353452816,1,4.875,13312,-43.5,865.7,1.1228739
0000000000000000000000AA,1,1473722353455814,1473722353455814,1,-0.8125,13312,-38.5,865.7,3.3072627
00000000000000000000AAAA,1,1473722353458270,1473722353458270,1,-3.25,13312,-41.5,865.7,5.516195
000000000000000000AAAAAA,1,1473722353459647,1473722353459647,1,4.875,13312,-37.0,865.7,0.31293207
00000000000000000000AAAA,1,1473722353466475,1473722353466475,1,1.625,13312,-41.5,865.7,5.4671073
0000000000000000AAAAAAAA,1,1473722353467862,1473722353467862,1,6.5,13312,-43.0,865.7,1.1106021
0000000000000000000000AA,1,1473722353471045,1473722353471045,1,6.5,13312,-39.0,865.7,3.2581751
000000000000000000AAAAAA,1,1473722353473217,1473722353473217,1,2.4375,13312,-37.5,865.7,0.32520393
0000000000000000AAAAAAAA,1,1473722353482101,1473722353482101,1,3.25,13312,-43.0,865.7,1.1290098
000000000000000000AAAAAA,1,1473722353483764,1473722353483764,1,4.0625,13312,-37.0,865.7,0.31293207
0000000000000000000000AA,1,1473722353489081,1473722353489081,1,1.625,13312,-38.5,865.7,3.276583
00000000000000000000AAAA,1,1473722353490429,1473722353490429,1,-5.6875,13312,-41.5,865.7,5.4671073
00000000000000000000AAAA,1,1473722353498035,1473722353498035,1,-1.625,13312,-41.5,865.7,5.4180202
0000000000000000000000AA,1,1473722353500470,1473722353500470,1,3.25,13312,-38.5,865.7,3.276583
0000000000000000AAAAAAAA,1,1473722353502665,1473722353502665,1,2.4375,13312,-43.5,865.7,1.1412817
000000000000000000AAAAAA,1,1473722353504059,1473722353504059,1,4.0625,13312,-37.0,865.7,0.319068
000000000000000000AAAAAA,1,1473722353511108,1473722353511108,1,2.4375,13312,-37.0,865.7,0.32520393
00000000000000000000AAAA,1,1473722353514044,1473722353514044,1,0.8125,13312,-42.0,865.7,5.344389
0000000000000000AAAAAAAA,1,1473722353516256,1473722353516256,1,7.3125,13312,-43.5,865.7,1.1351458
0000000000000000000000AA,1,1473722353517594,1473722353517594,1,4.875,13312,-38.5,865.7,3.2888548
0000000000000000AAAAAAAA,1,1473722353527385,1473722353527385,1,5.6875,13312,-43.5,865.7,1.1290098
0000000000000000000000AA,1,1473722353529417,1473722353529417,1,8.125,13312,-39.0,865.7,3.282719
000000000000000000AAAAAA,1,1473722353530710,1473722353530710,1,4.875,13312,-37.0,865.7,0.30066022
00000000000000000000AAAA,1,1473722353533034,1473722353533034,1,-6.5,13312,-41.5,865.7,5.338253
0000000000000000000000AA,1,1473722353545124,1473722353545124,1,2.4375,13312,-38.5,865.7,3.3195345
000000000000000000AAAAAA,1,1473722353546630,1473722353546630,1,2.4375,13312,-36.5,865.7,0.319068
0000000000000000AAAAAAAA,1,1473722353549761,1473722353549761,1,8.9375,13312,-43.5,865.7,1.1412817
00000000000000000000AAAA,1,1473722353551108,1473722353551108,1,-1.625,13312,-42.0,865.7,5.28303
0000000000000000AAAAAAAA,1,1473722353558473,1473722353558473,1,0.8125,13312,-43.5,865.7,1.1780972
000000000000000000AAAAAA,1,1473722353559796,1473722353559796,1,4.0625,13312,-37.0,865.7,0.30679616
0000000000000000000000AA,1,1473722353562098,1473722353562098,1,4.875,13312,-38.5,865.7,3.3011267
00000000000000000000AAAA,1,1473722353565245,1473722353565245,1,-2.4375,13312,-42.0,865.7,5.270758
000000000000000000AAAAAA,1,1473722353573022,1473722353573022,1,4.0625,13312,-36.5,865.7,0.30066022
0000000000000000000000AA,1,1473722353578419,1473722353578419,1,6.5,13312,-38.5,865.7,3.3072627
00000000000000000000AAAA,1,1473722353581705,1473722353581705,1,-2.4375,13312,-42.0,865.7,5.264622
0000000000000000AAAAAAAA,1,1473722353583007,1473722353583007,1,7.3125,13312,-43.5,865.7,1.1474177
0000000000000000000000AA,1,1473722353589276,1473722353589276,1,0.0,13312,-38.5,865.7,3.3379421
0000000000000000AAAAAAAA,1,1473722353590622,1473722353590622,1,2.4375,13312,-43.5,865.7,1.1719613
00000000000000000000AAAA,1,1473722353591941,1473722353591941,1,0.8125,13312,-42.0,865.7,5.2093987
000000000000000000AAAAAA,1,1473722353597179,1473722353597179,1,5.6875,13312,-37.0,865.7,0.2699806
0000000000000000000000AA,1,1473722353604454,1473722353604454,1,3.25,13312,-38.5,865.7,3.3256702
000000000000000000AAAAAA,1,1473722353607334,1473722353607334,1,0.8125,13312,-37.0,865.7,0.30066022
0000000000000000AAAAAAAA,1,1473722353608861,1473722353608861,1,-0.8125,13312,-43.5,865.7,1.2149128
00000000000000000000AAAA,1,1473722353612906,1473722353612906,1,-3.25,13312,-42.0,865.7,5.2278066
00000000000000000000AAAA,1,1473722353620781,1473722353620781,1,3.25,13312,-42.0,865.7,5.160311
000000000000000000AAAAAA,1,1473722353624289,1473722353624289,1,5.6875,13312,-36.5,865.7,0.28225246
0000000000000000AAAAAAAA,1,1473722353625776,1473722353625776,1,1.625,13312,-44.0,865.7,1.2087768
0000000000000000000000AA,1,1473722353627581,1473722353627581,1,-0.8125,13312,-38.5,865.7,3.3686218
0000000000000000AAAAAAAA,1,1473722353634720,1473722353634720,1,0.8125,13312,-43.5,865.7,1.2271847
000000000000000000AAAAAA,1,1473722353636342,1473722353636342,1,4.875,13312,-36.5,865.7,0.27611655
00000000000000000000AAAA,1,1473722353638313,1473722353638313,1,-0.8125,13312,-42.0,865.7,5.178719
0000000000000000000000AA,1,1473722353639895,1473722353639895,1,6.5,13312,-38.5,865.7,3.3318062
0000000000000000AAAAAAAA,1,1473722353649420,1473722353649420,1,1.625,13312,-44.0,865.7,1.2210487
000000000000000000AAAAAA,1,1473722353650996,1473722353650996,1,1.625,13312,-36.5,865.7,0.28225246
00000000000000000000AAAA,1,1473722353656257,1473722353656257,1,0.0,13312,-42.0,865.7,5.172583
0000000000000000000000AA,1,1473722353657654,1473722353657654,1,2.4375,13312,-38.0,865.7,3.3256702
0000000000000000AAAAAAAA,1,1473722353666782,1473722353666782,1,10.5625,13312,-43.5,865.7,1.1965051
000000000000000000AAAAAA,1,1473722353669787,1473722353669787,1,2.4375,13312,-36.5,865.7,0.2638447
0000000000000000000000AA,1,1473722353671082,1473722353671082,1,0.8125,13312,-38.5,865.7,3.350214
00000000000000000000AAAA,1,1473722353672785,1473722353672785,1,-2.4375,13312,-42.0,865.7,5.1296315
0000000000000000000000AA,1,1473722353680316,1473722353680316,1,0.8125,13312,-38.0,865.7,3.350214
0000000000000000AAAAAAAA,1,1473722353682983,1473722353682983,1,3.25,13312,-43.5,865.7,1.2271847
00000000000000000000AAAA,1,1473722353685209,1473722353685209,1,1.625,13312,-42.5,865.7,5.0928164
000000000000000000AAAAAA,1,1473722353686544,1473722353686544,1,2.4375,13312,-36.5,865.7,0.2699806
00000000000000000000AAAA,1,1473722353692931,1473722353692931,1,4.875,13312,-42.5,865.7,5.0744085
0000000000000000000000AA,1,1473722353696325,1473722353696325,1,1.625,13312,-38.0,865.7,3.350214
000000000000000000AAAAAA,1,1473722353698031,1473722353698031,1,2.4375,13312,-36.5,865.7,0.2699806
0000000000000000AAAAAAAA,1,1473722353699915,1473722353699915,1,5.6875,13312,-43.5,865.7,1.2271847
00000000000000000000AAAA,1,1473722353708380,1473722353708380,1,-0.8125,13312,-42.5,865.7,5.123496
0000000000000000000000AA,1,1473722353712386,1473722353712386,1,0.0,13312,-38.0,865.7,3.362486
0000000000000000AAAAAAAA,1,1473722353715182,1473722353715182,1,-3.25,13312,-43.5,865.7,1.2885438
000000000000000000AAAAAA,1,1473722353716516,1473722353716516,1,0.8125,13312,-36.0,865.7,0.2699806
0000000000000000000000AA,1,1473722353724796,1473722353724796,1,0.8125,13312,-38.0,865.7,3.350214
000000000000000000AAAAAA,1,1473722353727038,1473722353727038,1,1.625,13312,-36.5,865.7,0.24543692
0000000000000000AAAAAAAA,1,1473722353728482,1473722353728482,1,7.3125,13312,-43.5,865.7,1.2271847
00000000000000000000AAAA,1,1473722353729813,1473722353729813,1,0.0,13312,-42.5,865.7,5.049865
000000000000000000AAAAAA,1,1473722353737124,1473722353737124,1,6.5,13312,-36.0,865.7,0.23316509
00000000000000000000AAAA,1,1473722353741428,1473722353741428,1,-3.25,13312,-42.5,865.7,5.0621367
0000000000000000000000AA,1,1473722353742952,1473722353742952,1,2.4375,13312,-37.5,865.7,3.3379421
0000000000000000AAAAAAAA,1,1473722353744851,1473722353744851,1,5.6875,13312,-43.5,865.7,1.2394565
0000000000000000000000AA,1,1473722353752201,1473722353752201,1,1.625,13312,-38.0,865.7,3.344078
000000000000000000AAAAAA,1,1473722353755453,1473722353755453,1,0.0,13312,-36.5,865.7,0.25157285
00000000000000000000AAAA,1,1473722353759383,1473722353759383,1,0.8125,13312,-42.5,865.7,5.006913
0000000000000000AAAAAAAA,1,1473722353760787,1473722353760787,1,7.3125,13312,-43.5,865.7,1.2578642
0000000000000000000000AA,1,1473722353768895,1473722353768895,1,0.8125,13312,-37.5,865.7,3.3686218
000000000000000000AAAAAA,1,1473722353770259,1473722353770259,1,2.4375,13312,-36.0,865.7,0.22702916
0000000000000000AAAAAAAA,1,1473722353772044,1473722353772044,1,4.875,13312,-43.5,865.7,1.2517283
00000000000000000000AAAA,1,1473722353775179,1473722353775179,1,-3.25,13312,-42.5,865.7,5.013049
0000000000000000AAAAAAAA,1,1473722353783954,1473722353783954,1,9.75,13312,-43.5,865.7,1.2455924
000000000000000000AAAAAA,1,1473722353786624,1473722353786624,1,4.0625,13312,-36.0,865.7,0.23316509
0000000000000000000000AA,1,1473722353788574,1473722353788574,1,4.875,13312,-38.0,865.7,3.3379421
00000000000000000000AAAA,1,1473722353790460,1473722353790460,1,-7.3125,13312,-43.0,865.7,5.013049
00000000000000000000AAAA,1,1473722353798628,1473722353798628,1,-3.25,13312,-43.0,865.7,5.0007772
0000000000000000AAAAAAAA,1,1473722353801560,1473722353801560,1,5.6875,13312,-43.5,865.7,1.2946798
0000000000000000000000AA,1,1473722353803027,1473722353803027,1,2.4375,13312,-37.5,865.7,3.3808937
000000000000000000AAAAAA,1,1473722353804647,1473722353804647,1,4.0625,13312,-36.0,865.7,0.22089323
00000000000000000000AAAA,1,1473722353812253,1473722353812253,1,4.875,13312,-43.0,865.7,4.9394183
0000000000000000AAAAAAAA,1,1473722353814708,1473722353814708,1,7.3125,13312,-43.5,865.7,1.2885438
000000000000000000AAAAAA,1,1473722353816012,1473722353816012,1,0.8125,13312,-36.0,865.7,0.22089323
0000000000000000000000AA,1,1473722353818192,1473722353818192,1,3.25,13312,-38.0,865.7,3.362486
0000000000000000000000AA,1,1473722353828813,1473722353828813,1,5.6875,13312,-37.5,865.7,3.344078
0000000000000000AAAAAAAA,1,1473722353830258,1473722353830258,1,7.3125,13312,-43.5,865.7,1.276272
00000000000000000000AAAA,1,1473722353832056,1473722353832056,1,-1.625,13312,-43.0,865.7,4.9455543
000000000000000000AAAAAA,1,1473722353834084,1473722353834084,1,-0.8125,13312,-35.5,865.7,0.239301
0000000000000000000000AA,1,1473722353842610,1473722353842610,1,-0.8125,13312,-37.5,865.7,3.3931656
00000000000000000000AAAA,1,1473722353845449,1473722353845449,1,-10.5625,13312,-43.0,865.7,4.9762335
0000000000000000AAAAAAAA,1,1473722353846765,1473722353846765,1,8.125,13312,-43.5,865.7,1.2824079
000000000000000000AAAAAA,1,1473722353848610,1473722353848610,1,0.8125,13312,-36.0,865.7,0.22702916
000000000000000000AAAAAA,1,1473722353857055,1473722353857055,1,5.6875,13312,-36.0,865.7,0.1840777
0000000000000000000000AA,1,1473722353860790,1473722353860790,1,0.8125,13312,-38.0,865.7,3.3808937
00000000000000000000AAAA,1,1473722353862720,1473722353862720,1,0.8125,13312,-43.0,865.7,4.9026027
0000000000000000AAAAAAAA,1,1473722353864037,1473722353864037,1,-0.8125,13312,-43.5,865.7,1.3192235
000000000000000000AAAAAA,1,1473722353872666,1473722353872666,1,1.625,13312,-36.0,865.7,0.20862138
0000000000000000000000AA,1,1473722353875550,1473722353875550,1,0.0,13312,-37.5,865.7,3.3931656
0000000000000000AAAAAAAA,1,1473722353877438,1473722353877438,1,7.3125,13312,-43.5,865.7,1.2824079
00000000000000000000AAAA,1,1473722353878814,1473722353878814,1,-3.25,13312,-43.0,865.7,4.9087386
0000000000000000000000AA,1,1473722353885707,1473722353885707,1,-2.4375,13312,-38.0,865.7,3.429981
000000000000000000AAAAAA,1,1473722353889700,1473722353889700,1,2.4375,13312,-36.0,865.7,0.19634955
0000000000000000AAAAAAAA,1,1473722353892268,1473722353892268,1,8.125,13312,-43.5,865.7,1.2824079
00000000000000000000AAAA,1,1473722353893584,1473722353893584,1,-0.8125,13312,-43.0,865.7,4.871923
0000000000000000000000AA,1,1473722353899853,1473722353899853,1,2.4375,13312,-37.5,865.7,3.3993015
0000000000000000AAAAAAAA,1,1473722353902265,1473722353902265,1,8.125,13312,-43.5,865.7,1.2885438
00000000000000000000AAAA,1,1473722353904987,1473722353904987,1,2.4375,13312,-43.0,865.7,4.8289714
000000000000000000AAAAAA,1,1473722353906321,1473722353906321,1,0.8125,13312,-36.0,865.7,0.20248546
0000000000000000000000AA,1,1473722353917705,1473722353917705,1,3.25,13312,-38.0,865.7,3.3931656
0000000000000000AAAAAAAA,1,1473722353919929,1473722353919929,1,1.625,13312,-43.5,865.7,1.3253593
000000000000000000AAAAAA,1,1473722353921519,1473722353921519,1,0.8125,13312,-36.0,865.7,0.21475731
00000000000000000000AAAA,1,1473722353923220,1473722353923220,1,0.0,13312,-43.0,865.7,4.859651
00000000000000000000AAAA,1,1473722353929905,1473722353929905,1,0.0,13312,-43.0,865.7,4.8289714
0000000000000000AAAAAAAA,1,1473722353931865,1473722353931865,1,4.875,13312,-44.0,865.7,1.3008157
0000000000000000000000AA,1,1473722353934777,1473722353934777,1,1.625,13312,-38.0,865.7,3.417709
000000000000000000AAAAAA,1,1473722353936242,1473722353936242,1,5.6875,13312,-36.0,865.7,0.17794177
00000000000000000000AAAA,1,1473722353943621,1473722353943621,1,-2.4375,13312,-43.0,865.7,4.8289714
0000000000000000000000AA,1,1473722353947654,1473722353947654,1,0.8125,13312,-38.0,865.7,3.429981
0000000000000000AAAAAAAA,1,1473722353949170,1473722353949170,1,6.5,13312,-43.5,865.7,1.276272
000000000000000000AAAAAA,1,1473722353950985,1473722353950985,1,-0.8125,13312,-36.0,865.7,0.19634955
0000000000000000AAAAAAAA,1,1473722353958938,1473722353958938,1,6.5,13312,-44.0,865.7,1.2824079
0000000000000000000000AA,1,1473722353960302,1473722353960302,1,0.0,13312,-38.0,865.7,3.429981
000000000000000000AAAAAA,1,1473722353962361,1473722353962361,1,0.0,13312,-36.0,865.7,0.19021362
00000000000000000000AAAA,1,1473722353966420,1473722353966420,1,-0.8125,13312,-42.5,865.7,4.792156
0000000000000000000000AA,1,1473722353974349,1473722353974349,1,2.4375,13312,-38.0,865.7,3.423845
000000000000000000AAAAAA,1,1473722353976776,1473722353976776,1,-0.8125,13312,-36.0,865.7,0.19021362
0000000000000000AAAAAAAA,1,1473722353979501,1473722353979501,1,3.25,13312,-44.0,865.7,1.3008157
00000000000000000000AAAA,1,1473722353981698,1473722353981698,1,-2.4375,13312,-43.0,865.7,4.7737484
000000000000000000AAAAAA,1,1473722353989517,1473722353989517,1,4.0625,13312,-36.0,865.7,0.15339808
0000000000000000AAAAAAAA,1,1473722353990876,1473722353990876,1,-4.875,13312,-43.5,865.7,1.3499031
0000000000000000000000AA,1,1473722353993789,1473722353993789,1,-2.4375,13312,-38.0,865.7,3.4667966
00000000000000000000AAAA,1,1473722353996032,1473722353996032,1,0.8125,13312,-43.0,865.7,4.7492046
000000000000000000AAAAAA,1,1473722354003234,1473722354003234,1,1.625,13312,-36.0,865.7,0.159534
0000000000000000000000AA,1,1473722354008290,1473722354008290,1,6.5,13312,-38.5,865.7,3.429981
0000000000000000AAAAAAAA,1,1473722354010512,1473722354010512,1,8.9375,13312,-44.0,865.7,1.2824079
00000000000000000000AAAA,1,1473722354011871,1473722354011871,1,0.0,13312,-43.0,865.7,4.7430687
