40000000000000000000CC00,865.7,0.7485826,-5.6875
40000000000000000000CC00,865.7,0.83448553,-20.3125
40000000000000000000CC00,865.7,0.77926224,-4.875
40000000000000000000CC00,865.7,0.69949526,3.25
40000000000000000000CC00,865.7,0.70563114,6.5
40000000000000000000CC00,865.7,0.6810875,3.25
40000000000000000000CC00,865.7,0.75471854,-3.25
40000000000000000000CC00,865.7,0.6626797,13.8125
40000000000000000000CC00,865.7,0.6933593,12.1875
40000000000000000000CC00,865.7,0.62586415,14.625
40000000000000000000CC00,865.7,0.69949526,-2.4375
40000000000000000000CC00,865.7,0.79153407,-18.6875
40000000000000000000CC00,865.7,0.62586415,13.8125
40000000000000000000CC00,865.7,0.41110685,44.75
40000000000000000000CC00,865.7,0.7363108,-7.3125
40000000000000000000CC00,865.7,0.7608545,-6.5
40000000000000000000CC00,865.7,0.62586415,1.625
40000000000000000000CC00,865.7,0.7363108,-3.25
40000000000000000000CC00,865.7,0.6565438,1.625
40000000000000000000CC00,865.7,0.6810875,-3.25
40000000000000000000CC00,865.7,0.59518456,19.5
40000000000000000000CC00,865.7,0.6320001,-4.875
40000000000000000000CC00,865.7,0.79153407,-30.875
40000000000000000000CC00,865.7,0.57064086,-1.625
40000000000000000000CC00,865.7,0.46633017,8.125
40000000000000000000CC00,865.7,0.44178647,4.875
40000000000000000000CC00,865.7,0.5829127,-15.4375
40000000000000000000CC00,865.7,0.25157285,25.1875
40000000000000000000CC00,865.7,0.44178647,-10.5625
40000000000000000000CC00,865.7,0.28225246,13.8125
40000000000000000000CC00,865.7,0.3926991,-19.5
40000000000000000000CC00,865.7,0.3742913,-27.625
40000000000000000000CC00,865.7,0.17794177,-19.5
40000000000000000000CC00,865.7,6.142059,13.8125
40000000000000000000CC00,865.7,0.07363108,-24.375
40000000000000000000CC00,865.7,6.1911464,-14.625
40000000000000000000CC00,865.7,6.062292,-5.6875
40000000000000000000CC00,865.7,5.9641175,2.4375
40000000000000000000CC00,865.7,6.1788745,-32.5
40000000000000000000CC00,865.7,6.0991077,-28.4375
40000000000000000000CC00,865.7,5.8843503,-1.625
40000000000000000000CC00,865.7,5.7923117,-0.8125
40000000000000000000CC00,865.7,5.822991,-14.625
40000000000000000000CC00,865.7,5.829127,-0.8125
40000000000000000000CC00,865.7,5.761632,-2.4375
40000000000000000000CC00,865.7,5.602098,31.6875
40000000000000000000CC00,865.7,5.829127,-17.0625
40000000000000000000CC00,865.7,5.657321,6.5
40000000000000000000CC00,865.7,5.6818647,-0.8125
40000000000000000000CC00,865.7,5.7002726,-3.25
40000000000000000000CC00,865.7,5.602098,3.25
40000000000000000000CC00,865.7,5.835263,-28.4375
40000000000000000000CC00,865.7,5.6818647,3.25
40000000000000000000CC00,865.7,5.829127,-40.6875
40000000000000000000CC00,865.7,5.7248163,-21.125
40000000000000000000CC00,865.7,5.485515,26.8125
40000000000000000000CC00,865.7,5.5714183,-5.6875
40000000000000000000CC00,865.7,5.479379,7.3125
40000000000000000000CC00,865.7,5.5284667,9.75
40000000000000000000CC00,865.7,5.5468745,0.0
40000000000000000000CC00,865.7,5.761632,-29.25
40000000000000000000CC00,865.7,5.5468745,0.0
40000000000000000000CC00,865.7,5.2339425,54.5
40000000000000000000CC00,865.7,5.473243,26.0
40000000000000000000CC00,865.7,5.479379,11.375
40000000000000000000CC00,865.7,5.4057484,22.75
40000000000000000000CC00,865.7,5.491651,9.75
40000000000000000000CC00,865.7,5.5284667,-4.875
40000000000000000000CC00,865.7,5.4118843,-1.625
40000000000000000000CC00,865.7,5.74936,-36.5625
40000000000000000000CC00,865.7,5.58369,1.625
40000000000000000000CC00,865.7,5.4057484,25.1875
40000000000000000000CC00,865.7,5.608234,-15.4375
40000000000000000000CC00,865.7,5.516195,19.5
40000000000000000000CC00,865.7,5.577554,-17.0625
40000000000000000000CC00,865.7,5.5591464,-4.875
40000000000000000000CC00,865.7,5.497787,-4.875
40000000000000000000CC00,865.7,5.485515,13.8125
40000000000000000000CC00,865.7,5.497787,-9.75
40000000000000000000CC00,865.7,5.4057484,21.125
40000000000000000000CC00,865.7,5.4487,-2.4375
40000000000000000000CC00,865.7,5.4671073,23.5625
40000000000000000000CC00,865.7,5.4671073,8.125
40000000000000000000CC00,865.7,5.479379,-2.4375
40000000000000000000CC00,865.7,5.4057484,23.5625
40000000000000000000CC00,865.7,5.491651,9.75
40000000000000000000CC00,865.7,5.5591464,2.4375
40000000000000000000CC00,865.7,5.3689327,26.8125
40000000000000000000CC00,865.7,5.4671073,23.5625
40000000000000000000CC00,865.7,5.491651,8.125
40000000000000000000CC00,865.7,5.7186804,-30.875
40000000000000000000CC00,865.7,5.5652823,0.0
40000000000000000000CC00,865.7,5.491651,4.875
40000000000000000000CC00,865.7,5.436428,17.0625
40000000000000000000CC00,865.7,5.5530105,5.6875
40000000000000000000CC00,865.7,5.6880007,-25.1875
40000000000000000000CC00,865.7,5.737088,-28.4375
40000000000000000000CC00,865.7,5.602098,-17.0625
40000000000000000000CC00,865.7,5.6327777,-15.4375
40000000000000000000CC00,865.7,5.3137093,41.5
40000000000000000000CC00,865.7,5.276894,33.3125
40000000000000000000CC00,865.7,5.4180202,17.0625
40000000000000000000CC00,865.7,5.4180202,24.375
40000000000000000000CC00,865.7,5.3075733,32.5
40000000000000000000CC00,865.7,5.6327777,-16.25
40000000000000000000CC00,865.7,5.7248163,-24.375
40000000000000000000CC00,865.7,5.5591464,2.4375
40000000000000000000CC00,865.7,5.491651,3.25
40000000000000000000CC00,865.7,5.5652823,-1.625
40000000000000000000CC00,865.7,5.442564,12.1875
40000000000000000000CC00,865.7,5.3075733,26.0
40000000000000000000CC00,865.7,5.4671073,3.25
40000000000000000000CC00,865.7,5.608234,0.0
40000000000000000000CC00,865.7,5.479379,18.6875
40000000000000000000CC00,865.7,5.430292,19.5
40000000000000000000CC00,865.7,5.743224,-23.5625
40000000000000000000CC00,865.7,5.485515,8.9375
40000000000000000000CC00,865.7,5.595962,0.0
40000000000000000000CC00,865.7,5.5468745,-0.8125
40000000000000000000CC00,865.7,5.3137093,30.875
40000000000000000000CC00,865.7,5.5468745,13.8125
40000000000000000000CC00,865.7,5.424156,16.25
40000000000000000000CC00,865.7,5.595962,-15.4375
40000000000000000000CC00,865.7,5.497787,12.1875
40000000000000000000CC00,865.7,5.7186804,-30.875
40000000000000000000CC00,865.7,5.7002726,-28.4375
40000000000000000000CC00,865.7,5.7002726,-8.125
40000000000000000000CC00,865.7,5.362797,29.25
40000000000000000000CC00,865.7,5.577554,-6.5
40000000000000000000CC00,865.7,5.589826,-9.75
40000000000000000000CC00,865.7,5.577554,2.4375
40000000000000000000CC00,865.7,5.7064085,-17.0625
40000000000000000000CC00,865.7,5.460972,12.1875
40000000000000000000CC00,865.7,5.5407386,17.875
40000000000000000000CC00,865.7,5.6818647,-19.5
40000000000000000000CC00,865.7,5.4180202,20.3125
40000000000000000000CC00,865.7,5.3934765,34.125
40000000000000000000CC00,865.7,5.7861757,-33.3125
40000000000000000000CC00,865.7,5.454836,17.875
40000000000000000000CC00,865.7,5.657321,-6.5
40000000000000000000CC00,865.7,5.7064085,-22.75
40000000000000000000CC00,865.7,5.7064085,-17.0625
40000000000000000000CC00,865.7,5.5407386,14.625
40000000000000000000CC00,865.7,5.8475347,-42.3125
40000000000000000000CC00,865.7,5.338253,44.75
40000000000000000000CC00,865.7,5.6327777,-10.5625
40000000000000000000CC00,865.7,5.6818647,-17.0625
40000000000000000000CC00,865.7,5.356661,36.5625
40000000000000000000CC00,865.7,5.663457,-6.5
40000000000000000000CC00,865.7,5.3137093,45.5625
40000000000000000000CC00,865.7,5.5530105,24.375
40000000000000000000CC00,865.7,5.430292,37.375
40000000000000000000CC00,865.7,5.7984476,-25.1875
40000000000000000000CC00,865.7,5.491651,34.125
40000000000000000000CC00,865.7,5.4118843,43.9375
40000000000000000000CC00,865.7,5.5407386,25.1875
40000000000000000000CC00,865.7,5.5407386,12.1875
40000000000000000000CC00,865.7,5.6266418,11.375
40000000000000000000CC00,865.7,5.362797,44.75
40000000000000000000CC00,865.7,5.3873405,40.6875
40000000000000000000CC00,865.7,5.5530105,18.6875
40000000000000000000CC00,865.7,5.7309523,1.625
40000000000000000000CC00,865.7,5.638913,16.25
40000000000000000000CC00,865.7,5.58369,16.25
40000000000000000000CC00,865.7,5.7064085,-6.5
40000000000000000000CC00,865.7,5.74936,-8.125
40000000000000000000CC00,865.7,5.5223308,38.1875
40000000000000000000CC00,865.7,5.7064085,8.125
40000000000000000000CC00,865.7,5.829127,-10.5625
40000000000000000000CC00,865.7,5.675729,17.875
40000000000000000000CC00,865.7,6.0438843,-37.375
40000000000000000000CC00,865.7,5.8720784,-17.0625
40000000000000000000CC00,865.7,5.7186804,2.4375
40000000000000000000CC00,865.7,5.638913,10.5625
40000000000000000000CC00,865.7,5.804583,-17.875
40000000000000000000CC00,865.7,5.927302,-17.875
40000000000000000000CC00,865.7,5.7248163,8.125
40000000000000000000CC00,865.7,5.9579816,-17.875
40000000000000000000CC00,865.7,5.7309523,12.1875
40000000000000000000CC00,865.7,5.8843503,-11.375
40000000000000000000CC00,865.7,5.773904,13.8125
40000000000000000000CC00,865.7,6.0132046,-28.4375
40000000000000000000CC00,865.7,5.816855,22.75
40000000000000000000CC00,865.7,5.773904,10.5625
40000000000000000000CC00,865.7,5.7923117,7.3125
40000000000000000000CC00,865.7,5.7186804,22.75
40000000000000000000CC00,865.7,5.7309523,21.125
40000000000000000000CC00,865.7,6.086836,-22.75
40000000000000000000CC00,865.7,5.9518456,-0.8125
40000000000000000000CC00,865.7,5.988661,-10.5625
40000000000000000000CC00,865.7,6.1052437,-23.5625
40000000000000000000CC00,865.7,5.810719,16.25
40000000000000000000CC00,865.7,5.970253,-8.9375
40000000000000000000CC00,865.7,5.804583,28.4375
40000000000000000000CC00,865.7,5.8659425,12.1875
40000000000000000000CC00,865.7,5.8904862,0.8125
40000000000000000000CC00,865.7,5.7923117,9.75
40000000000000000000CC00,865.7,5.7984476,20.3125
40000000000000000000CC00,865.7,5.7002726,22.75
40000000000000000000CC00,865.7,6.056156,-18.6875
40000000000000000000CC00,865.7,5.8475347,20.3125
40000000000000000000CC00,865.7,5.8782144,13.8125
40000000000000000000CC00,865.7,5.9947968,4.875
40000000000000000000CC00,865.7,5.921166,28.4375
40000000000000000000CC00,865.7,6.142059,-30.875
40000000000000000000CC00,865.7,5.8475347,23.5625
40000000000000000000CC00,865.7,5.8413987,25.1875
40000000000000000000CC00,865.7,5.976389,3.25
40000000000000000000CC00,865.7,6.0807,1.625
40000000000000000000CC00,865.7,5.988661,2.4375
40000000000000000000CC00,865.7,6.056156,-2.4375
40000000000000000000CC00,865.7,6.1727386,-21.125
40000000000000000000CC00,865.7,6.0991077,-18.6875
40000000000000000000CC00,865.7,6.0807,0.0
40000000000000000000CC00,865.7,0.07363108,-35.75
40000000000000000000CC00,865.7,6.092972,-8.9375
40000000000000000000CC00,865.7,6.092972,-17.0625
40000000000000000000CC00,865.7,5.982525,9.75
40000000000000000000CC00,865.7,6.0070686,17.0625
40000000000000000000CC00,865.7,6.062292,8.125
40000000000000000000CC00,865.7,6.1236515,8.9375
40000000000000000000CC00,865.7,5.8536706,43.9375
40000000000000000000CC00,865.7,6.1788745,2.4375
40000000000000000000CC00,865.7,6.1850104,-3.25
40000000000000000000CC00,865.7,5.933438,28.4375
40000000000000000000CC00,865.7,5.9947968,29.25
40000000000000000000CC00,865.7,6.1113796,8.125
40000000000000000000CC00,865.7,5.8475347,37.375
40000000000000000000CC00,865.7,5.927302,35.75
40000000000000000000CC00,865.7,6.0193405,26.8125
40000000000000000000CC00,865.7,5.902758,38.1875
40000000000000000000CC00,865.7,0.05522331,-13.8125
40000000000000000000CC00,865.7,6.1543307,5.6875
40000000000000000000CC00,865.7,0.1349903,-26.8125
40000000000000000000CC00,865.7,6.1666026,3.25
40000000000000000000CC00,865.7,6.1543307,3.25
40000000000000000000CC00,865.7,6.092972,19.5
40000000000000000000CC00,865.7,6.2709136,-15.4375
40000000000000000000CC00,865.7,6.234098,7.3125
40000000000000000000CC00,865.7,6.209554,-3.25
40000000000000000000CC00,865.7,0.1349903,-27.625
40000000000000000000CC00,865.7,6.227962,2.4375
40000000000000000000CC00,865.7,0.11044662,-22.75
40000000000000000000CC00,865.7,0.10431069,-21.125
40000000000000000000CC00,865.7,0.04295146,-14.625
40000000000000000000CC00,865.7,6.0193405,27.625
40000000000000000000CC00,865.7,6.1175156,20.3125
40000000000000000000CC00,865.7,6.2647777,-11.375
40000000000000000000CC00,865.7,6.1543307,0.8125
40000000000000000000CC00,865.7,0.01840777,0.0
40000000000000000000CC00,865.7,6.0438843,16.25
40000000000000000000CC00,865.7,0.01840777,-7.3125
40000000000000000000CC00,865.7,6.1666026,7.3125
40000000000000000000CC00,865.7,0.06135923,-8.9375
40000000000000000000CC00,865.7,0.08590292,-17.0625
40000000000000000000CC00,865.7,0.19021362,-28.4375
40000000000000000000CC00,865.7,0.012271847,6.5
40000000000000000000CC00,865.7,6.1604667,20.3125
40000000000000000000CC00,865.7,5.91503,48.8125
40000000000000000000CC00,865.7,6.2647777,-2.4375
40000000000000000000CC00,865.7,6.068428,33.3125
40000000000000000000CC00,865.7,0.09203885,-14.625
40000000000000000000CC00,865.7,6.234098,12.1875
40000000000000000000CC00,865.7,6.1911464,32.5
40000000000000000000CC00,865.7,6.056156,34.125
40000000000000000000CC00,865.7,6.234098,-3.25
40000000000000000000CC00,865.7,0.07363108,-17.875
40000000000000000000CC00,865.7,0.06135923,-24.375
40000000000000000000CC00,865.7,6.1727386,15.4375
40000000000000000000CC00,865.7,6.2770495,-11.375
40000000000000000000CC00,865.7,6.074564,12.1875
40000000000000000000CC00,865.7,0.12885438,-17.0625
40000000000000000000CC00,865.7,0.06135923,-11.375
40000000000000000000CC00,865.7,0.1840777,-18.6875
40000000000000000000CC00,865.7,6.24637,-3.25
40000000000000000000CC00,865.7,6.1604667,34.9375
40000000000000000000CC00,865.7,6.227962,1.625
40000000000000000000CC00,865.7,0.030679615,0.0
40000000000000000000CC00,865.7,0.0061359233,-8.9375
40000000000000000000CC00,865.7,0.04295146,0.8125
40000000000000000000CC00,865.7,0.07363108,-4.875
40000000000000000000CC00,865.7,6.21569,7.3125
40000000000000000000CC00,865.7,0.079767,0.0
40000000000000000000CC00,865.7,6.234098,17.0625
40000000000000000000CC00,865.7,6.142059,25.1875
40000000000000000000CC00,865.7,0.024543693,2.4375
40000000000000000000CC00,865.7,0.17794177,-16.25
40000000000000000000CC00,865.7,6.24637,35.75
40000000000000000000CC00,865.7,0.12271846,-7.3125
40000000000000000000CC00,865.7,0.08590292,-1.625
40000000000000000000CC00,865.7,0.15339808,-7.3125
40000000000000000000CC00,865.7,0.159534,4.875
40000000000000000000CC00,865.7,0.09817477,11.375
40000000000000000000CC00,865.7,6.1359234,32.5
40000000000000000000CC00,865.7,6.0807,41.5
40000000000000000000CC00,865.7,0.030679615,17.875
40000000000000000000CC00,865.7,0.28225246,-17.0625
40000000000000000000CC00,865.7,6.21569,30.875
40000000000000000000CC00,865.7,0.08590292,0.0
40000000000000000000CC00,865.7,0.16566992,0.8125
40000000000000000000CC00,865.7,0.1349903,1.625
40000000000000000000CC00,865.7,0.12271846,18.6875
40000000000000000000CC00,865.7,0.2945243,-16.25
40000000000000000000CC00,865.7,0.012271847,18.6875
40000000000000000000CC00,865.7,0.19634955,28.4375
40000000000000000000CC00,865.7,0.2699806,2.4375
40000000000000000000CC00,865.7,0.17794177,17.0625
40000000000000000000CC00,865.7,0.46633017,-24.375
40000000000000000000CC00,865.7,0.2699806,0.8125
40000000000000000000CC00,865.7,0.35588354,-8.9375
40000000000000000000CC00,865.7,0.14112623,22.75
40000000000000000000CC00,865.7,0.4049709,-11.375
40000000000000000000CC00,865.7,0.23316509,12.1875
40000000000000000000CC00,865.7,0.2638447,13.8125
40000000000000000000CC00,865.7,0.319068,-3.25
40000000000000000000CC00,865.7,0.5645049,-21.125
40000000000000000000CC00,865.7,0.49087384,-12.1875
40000000000000000000CC00,865.7,0.398835,-8.125
40000000000000000000CC00,865.7,0.36201948,11.375
40000000000000000000CC00,865.7,0.478602,3.25
40000000000000000000CC00,865.7,0.5031457,-12.1875
40000000000000000000CC00,865.7,0.2945243,17.0625
40000000000000000000CC00,865.7,0.3926991,-3.25
40000000000000000000CC00,865.7,0.53382534,-28.4375
40000000000000000000CC00,865.7,0.11044662,46.375
40000000000000000000CC00,865.7,0.46019423,-14.625
40000000000000000000CC00,865.7,0.2945243,30.875
40000000000000000000CC00,865.7,0.11658254,38.1875
40000000000000000000CC00,865.7,0.44178647,7.3125
40000000000000000000CC00,865.7,0.3681554,9.75
40000000000000000000CC00,865.7,0.44792238,-3.25
40000000000000000000CC00,865.7,0.45405832,8.9375
40000000000000000000CC00,865.7,0.48473793,0.8125
40000000000000000000CC00,865.7,0.34974763,19.5
40000000000000000000CC00,865.7,0.61972827,-12.1875
40000000000000000000CC00,865.7,0.35588354,24.375
40000000000000000000CC00,865.7,0.38042724,23.5625
40000000000000000000CC00,865.7,0.48473793,8.9375
40000000000000000000CC00,865.7,0.478602,-3.25
40000000000000000000CC00,865.7,0.6442719,-10.5625
40000000000000000000CC00,865.7,0.5154175,14.625
40000000000000000000CC00,865.7,0.41724277,26.8125
40000000000000000000CC00,865.7,0.47246608,11.375
40000000000000000000CC00,865.7,0.6933593,-14.625
40000000000000000000CC00,865.7,0.9387962,-43.125
40000000000000000000CC00,865.7,0.81607777,-22.75
40000000000000000000CC00,865.7,0.61972827,21.125
40000000000000000000CC00,865.7,0.7669904,6.5
40000000000000000000CC00,865.7,0.7363108,11.375
40000000000000000000CC00,865.7,0.6135923,18.6875
40000000000000000000CC00,865.7,0.79153407,-4.875
40000000000000000000CC00,865.7,0.6810875,16.25
40000000000000000000CC00,865.7,0.5890486,33.3125
40000000000000000000CC00,865.7,0.7424467,17.0625
40000000000000000000CC00,865.7,0.9142526,-3.25
40000000000000000000CC00,865.7,0.9510681,-7.3125
40000000000000000000CC00,865.7,0.9510681,-4.875
40000000000000000000CC00,865.7,0.82834965,24.375
40000000000000000000CC00,865.7,0.7853982,20.3125
40000000000000000000CC00,865.7,0.9633399,5.6875
40000000000000000000CC00,865.7,1.0431069,-8.9375
40000000000000000000CC00,865.7,1.0062914,4.875
40000000000000000000CC00,865.7,0.94493216,13.8125
40000000000000000000CC00,865.7,1.0185633,12.1875
40000000000000000000CC00,865.7,1.1842332,-19.5
40000000000000000000CC00,865.7,1.1106021,8.9375
40000000000000000000CC00,865.7,0.88357294,33.3125
40000000000000000000CC00,865.7,1.2149128,-7.3125
40000000000000000000CC00,865.7,1.0983303,16.25
40000000000000000000CC00,865.7,1.1106021,19.5
40000000000000000000CC00,865.7,1.0676507,21.125
40000000000000000000CC00,865.7,1.1842332,0.0
40000000000000000000CC00,865.7,1.1842332,8.125
40000000000000000000CC00,865.7,1.116738,19.5
40000000000000000000CC00,865.7,1.0799224,23.5625
40000000000000000000CC00,865.7,1.2946798,-8.125
40000000000000000000CC00,865.7,1.2578642,-1.625
40000000000000000000CC00,865.7,1.2701361,0.0
40000000000000000000CC00,865.7,1.2087768,9.75
40000000000000000000CC00,865.7,1.2210487,16.25
40000000000000000000CC00,865.7,1.1535536,25.1875
40000000000000000000CC00,865.7,1.3314953,-8.125
40000000000000000000CC00,865.7,1.1535536,26.0
40000000000000000000CC00,865.7,1.2087768,9.75
40000000000000000000CC00,865.7,1.3376312,2.4375
40000000000000000000CC00,865.7,1.116738,31.6875
40000000000000000000CC00,865.7,1.3928546,-1.625
40000000000000000000CC00,865.7,1.3192235,-2.4375
40000000000000000000CC00,865.7,1.1351458,28.4375
40000000000000000000CC00,865.7,1.2885438,8.125
40000000000000000000CC00,865.7,1.3867186,-10.5625
40000000000000000000CC00,865.7,1.3314953,8.125
40000000000000000000CC00,865.7,1.3008157,8.125
40000000000000000000CC00,865.7,1.4051265,-18.6875
40000000000000000000CC00,865.7,1.3192235,-2.4375
40000000000000000000CC00,865.7,1.2394565,18.6875
40000000000000000000CC00,865.7,1.3314953,0.8125
40000000000000000000CC00,865.7,1.2885438,7.3125
40000000000000000000CC00,865.7,1.3253593,-8.125
40000000000000000000CC00,865.7,1.362175,-10.5625
40000000000000000000CC00,865.7,1.2824079,1.625
40000000000000000000CC00,865.7,1.356039,-6.5
40000000000000000000CC00,865.7,1.3130876,0.8125
40000000000000000000CC00,865.7,1.4051265,-10.5625
40000000000000000000CC00,865.7,1.2394565,14.625
40000000000000000000CC00,865.7,1.276272,1.625
40000000000000000000CC00,865.7,1.362175,-9.75
40000000000000000000CC00,865.7,1.2394565,17.875
40000000000000000000CC00,865.7,1.2087768,13.8125
40000000000000000000CC00,865.7,1.3499031,-5.6875
40000000000000000000CC00,865.7,1.2701361,4.875
40000000000000000000CC00,865.7,1.3928546,-20.3125
40000000000000000000CC00,865.7,1.2640002,7.3125
40000000000000000000CC00,865.7,1.2640002,4.875
40000000000000000000CC00,865.7,1.2455924,0.0
40000000000000000000CC00,865.7,1.1658254,18.6875
40000000000000000000CC00,865.7,1.2885438,-6.5
40000000000000000000CC00,865.7,1.362175,-19.5
40000000000000000000CC00,865.7,1.3008157,-13.8125
40000000000000000000CC00,865.7,1.2394565,8.125
40000000000000000000CC00,865.7,1.2271847,1.625
40000000000000000000CC00,865.7,1.2824079,-14.625
40000000000000000000CC00,865.7,1.2824079,-6.5
40000000000000000000CC00,865.7,1.1351458,17.875
40000000000000000000CC00,865.7,1.1903691,7.3125
40000000000000000000CC00,865.7,1.1596894,9.75
40000000000000000000CC00,865.7,1.2455924,-3.25
40000000000000000000CC00,865.7,1.1780972,1.625
40000000000000000000CC00,865.7,1.2333206,-8.125
40000000000000000000CC00,865.7,1.2333206,-0.8125
40000000000000000000CC00,865.7,1.2333206,-4.875
40000000000000000000CC00,865.7,1.1965051,10.5625
40000000000000000000CC00,865.7,1.1903691,2.4375
40000000000000000000CC00,865.7,1.2087768,5.6875
40000000000000000000CC00,865.7,1.0983303,13.8125
40000000000000000000CC00,865.7,1.2455924,-5.6875
40000000000000000000CC00,865.7,1.1474177,12.1875
40000000000000000000CC00,865.7,1.2271847,-5.6875
40000000000000000000CC00,865.7,1.1596894,6.5
40000000000000000000CC00,865.7,1.1842332,-2.4375
40000000000000000000CC00,865.7,1.1842332,-4.875
40000000000000000000CC00,865.7,1.1596894,3.25
40000000000000000000CC00,865.7,1.1903691,-1.625
40000000000000000000CC00,865.7,1.0921943,12.1875
40000000000000000000CC00,865.7,1.1228739,8.125
40000000000000000000CC00,865.7,1.1658254,-1.625
40000000000000000000CC00,865.7,1.1719613,-6.5
40000000000000000000CC00,865.7,1.1351458,-0.8125
40000000000000000000CC00,865.7,1.036971,10.5625
40000000000000000000CC00,865.7,1.0185633,14.625
40000000000000000000CC00,865.7,1.1965051,-12.1875
40000000000000000000CC00,865.7,1.030835,6.5
40000000000000000000CC00,865.7,0.96947587,11.375
40000000000000000000CC00,865.7,1.0124273,3.25
40000000000000000000CC00,865.7,1.0001554,2.4375
40000000000000000000CC00,865.7,0.9878836,4.875
40000000000000000000CC00,865.7,0.9142526,11.375
40000000000000000000CC00,865.7,0.94493216,2.4375
40000000000000000000CC00,865.7,0.92038846,-0.8125
40000000000000000000CC00,865.7,0.8713011,7.3125
40000000000000000000CC00,865.7,0.8651652,8.125
40000000000000000000CC00,865.7,0.8099418,9.75
40000000000000000000CC00,865.7,0.877437,-8.9375
40000000000000000000CC00,865.7,0.877437,-1.625
40000000000000000000CC00,865.7,0.8099418,6.5
40000000000000000000CC00,865.7,0.9265244,-12.1875
40000000000000000000CC00,865.7,0.82834965,-7.3125
40000000000000000000CC00,865.7,0.7669904,3.25
40000000000000000000CC00,865.7,0.7853982,-3.25
40000000000000000000CC00,865.7,0.7485826,-5.6875
40000000000000000000CC00,865.7,0.6810875,6.5
40000000000000000000CC00,865.7,0.7363108,-3.25
40000000000000000000CC00,865.7,0.6135923,11.375
40000000000000000000CC00,865.7,0.61972827,1.625
40000000000000000000CC00,865.7,0.61972827,1.625
40000000000000000000CC00,865.7,0.6135923,-4.875
40000000000000000000CC00,865.7,0.60132045,-0.8125
40000000000000000000CC00,865.7,0.49087384,12.1875
40000000000000000000CC00,865.7,0.6135923,-6.5
40000000000000000000CC00,865.7,0.49087384,3.25
40000000000000000000CC00,865.7,0.45405832,8.125
40000000000000000000CC00,865.7,0.47246608,4.875
40000000000000000000CC00,865.7,0.45405832,7.3125
40000000000000000000CC00,865.7,0.45405832,4.875
40000000000000000000CC00,865.7,0.478602,-1.625
40000000000000000000CC00,865.7,0.46019423,-4.875
40000000000000000000CC00,865.7,0.38042724,8.9375
40000000000000000000CC00,865.7,0.2945243,17.0625
40000000000000000000CC00,865.7,0.3742913,2.4375
40000000000000000000CC00,865.7,0.398835,-1.625
40000000000000000000CC00,865.7,0.398835,0.8125
40000000000000000000CC00,865.7,0.2699806,13.8125
40000000000000000000CC00,865.7,0.34974763,1.625
40000000000000000000CC00,865.7,0.30679616,8.9375
40000000000000000000CC00,865.7,0.319068,2.4375
40000000000000000000CC00,865.7,0.2638447,12.1875
40000000000000000000CC00,865.7,0.31293207,2.4375
40000000000000000000CC00,865.7,0.33747578,-0.8125
40000000000000000000CC00,865.7,0.30679616,0.0
40000000000000000000CC00,865.7,0.22702916,9.75
40000000000000000000CC00,865.7,0.2699806,4.875
40000000000000000000CC00,865.7,0.22702916,8.125
40000000000000000000CC00,865.7,0.21475731,10.5625
40000000000000000000CC00,865.7,0.22702916,5.6875
40000000000000000000CC00,865.7,0.28225246,-6.5
40000000000000000000CC00,865.7,0.2638447,0.0
40000000000000000000CC00,865.7,0.22702916,5.6875
40000000000000000000CC00,865.7,0.14726216,6.5
40000000000000000000CC00,865.7,0.1840777,4.875
40000000000000000000CC00,865.7,0.22702916,-10.5625
40000000000000000000CC00,865.7,0.159534,4.875
40000000000000000000CC00,865.7,0.09817477,8.125
40000000000000000000CC00,865.7,0.17794177,-7.3125
40000000000000000000CC00,865.7,0.0061359233,16.25
40000000000000000000CC00,865.7,0.14112623,-2.4375
40000000000000000000CC00,865.7,0.09817477,4.875
40000000000000000000CC00,865.7,0.11658254,5.6875
40000000000000000000CC00,865.7,0.10431069,4.875
40000000000000000000CC00,865.7,0.11044662,-0.8125
40000000000000000000CC00,865.7,0.05522331,7.3125
40000000000000000000CC00,865.7,0.06135923,3.25
40000000000000000000CC00,865.7,0.09817477,0.8125
40000000000000000000CC00,865.7,0.049087387,1.625
40000000000000000000CC00,865.7,0.07363108,3.25
40000000000000000000CC00,865.7,6.252506,9.75
40000000000000000000CC00,865.7,0.09817477,-4.875
40000000000000000000CC00,865.7,0.01840777,8.9375
40000000000000000000CC00,865.7,0.01840777,2.4375
40000000000000000000CC00,865.7,6.240234,13.8125
40000000000000000000CC00,865.7,6.1972823,16.25
40000000000000000000CC00,865.7,6.2770495,5.6875
40000000000000000000CC00,865.7,6.252506,8.125
40000000000000000000CC00,865.7,0.049087387,-4.875
40000000000000000000CC00,865.7,6.209554,11.375
40000000000000000000CC00,865.7,6.2647777,0.0
40000000000000000000CC00,865.7,6.2709136,4.875
40000000000000000000CC00,865.7,0.0,4.875
40000000000000000000CC00,865.7,6.2770495,7.3125
40000000000000000000CC00,865.7,6.068428,11.375
40000000000000000000CC00,865.7,6.209554,-14.625
40000000000000000000CC00,865.7,6.05002,9.75
40000000000000000000CC00,865.7,6.1052437,3.25
40000000000000000000CC00,865.7,6.1297874,-7.3125
40000000000000000000CC00,865.7,6.05002,-0.8125
40000000000000000000CC00,865.7,6.0807,0.0
40000000000000000000CC00,865.7,6.0254765,1.625
40000000000000000000CC00,865.7,6.0009327,5.6875
40000000000000000000CC00,865.7,5.970253,8.9375
40000000000000000000CC00,865.7,6.0316124,-6.5
40000000000000000000CC00,865.7,5.9641175,2.4375
40000000000000000000CC00,865.7,5.9947968,-3.25
40000000000000000000CC00,865.7,5.976389,-1.625
40000000000000000000CC00,865.7,5.8413987,16.25
40000000000000000000CC00,865.7,5.8598065,13.8125
40000000000000000000CC00,865.7,5.896622,4.875
40000000000000000000CC00,865.7,5.835263,10.5625
40000000000000000000CC00,865.7,5.902758,-1.625
40000000000000000000CC00,865.7,5.822991,4.875
40000000000000000000CC00,865.7,5.933438,-8.9375
40000000000000000000CC00,865.7,5.7984476,6.5
40000000000000000000CC00,865.7,5.8659425,-3.25
40000000000000000000CC00,865.7,5.8413987,-3.25
40000000000000000000CC00,865.7,5.767768,6.5
40000000000000000000CC00,865.7,5.7186804,9.75
40000000000000000000CC00,865.7,5.737088,6.5
40000000000000000000CC00,865.7,5.7002726,5.6875
40000000000000000000CC00,865.7,5.78004,-3.25
40000000000000000000CC00,865.7,5.767768,-5.6875
40000000000000000000CC00,865.7,5.651185,9.75
40000000000000000000CC00,865.7,5.651185,8.125
40000000000000000000CC00,865.7,5.638913,8.125
40000000000000000000CC00,865.7,5.602098,13.8125
40000000000000000000CC00,865.7,5.6880007,0.8125
40000000000000000000CC00,865.7,5.651185,1.625
40000000000000000000CC00,865.7,5.5468745,14.625
40000000000000000000CC00,865.7,5.577554,6.5
40000000000000000000CC00,865.7,5.620506,1.625
40000000000000000000CC00,865.7,5.638913,-2.4375
40000000000000000000CC00,865.7,5.5530105,12.1875
40000000000000000000CC00,865.7,5.5591464,-0.8125
40000000000000000000CC00,865.7,5.5468745,1.625
40000000000000000000CC00,865.7,5.5407386,-6.5
40000000000000000000CC00,865.7,5.5407386,-3.25
40000000000000000000CC00,865.7,5.485515,10.5625
40000000000000000000CC00,865.7,5.491651,2.4375
40000000000000000000CC00,865.7,5.510059,0.0
40000000000000000000CC00,865.7,5.491651,-2.4375
40000000000000000000CC00,865.7,5.485515,3.25
40000000000000000000CC00,865.7,5.442564,4.875
40000000000000000000CC00,865.7,5.479379,1.625
40000000000000000000CC00,865.7,5.424156,5.6875
40000000000000000000CC00,865.7,5.485515,-1.625
40000000000000000000CC00,865.7,5.3996124,5.6875
40000000000000000000CC00,865.7,5.442564,0.8125
40000000000000000000CC00,865.7,5.362797,9.75
40000000000000000000CC00,865.7,5.503923,-10.5625
40000000000000000000CC00,865.7,5.3812046,6.5
40000000000000000000CC00,865.7,5.442564,-2.4375
40000000000000000000CC00,865.7,5.356661,11.375
40000000000000000000CC00,865.7,5.338253,12.1875
40000000000000000000CC00,865.7,5.503923,-14.625
40000000000000000000CC00,865.7,5.3873405,4.875
40000000000000000000CC00,865.7,5.503923,-17.0625
40000000000000000000CC00,865.7,5.332117,6.5
40000000000000000000CC00,865.7,5.295302,18.6875
40000000000000000000CC00,865.7,5.344389,3.25
40000000000000000000CC00,865.7,5.3750687,3.25
40000000000000000000CC00,865.7,5.3689327,0.8125
40000000000000000000CC00,865.7,5.3689327,1.625
40000000000000000000CC00,865.7,5.338253,1.625
40000000000000000000CC00,865.7,5.325981,4.875
40000000000000000000CC00,865.7,5.350525,5.6875
40000000000000000000CC00,865.7,5.3014374,9.75
40000000000000000000CC00,865.7,5.362797,-1.625
40000000000000000000CC00,865.7,5.4180202,-6.5
40000000000000000000CC00,865.7,5.3750687,0.0
40000000000000000000CC00,865.7,5.3812046,0.0
40000000000000000000CC00,865.7,5.3137093,5.6875
40000000000000000000CC00,865.7,5.28303,12.1875
40000000000000000000CC00,865.7,5.3812046,-3.25
40000000000000000000CC00,865.7,5.442564,-12.1875
40000000000000000000CC00,865.7,5.3934765,-1.625
40000000000000000000CC00,865.7,5.270758,15.4375
40000000000000000000CC00,865.7,5.344389,-0.8125
40000000000000000000CC00,865.7,5.3014374,4.875
40000000000000000000CC00,865.7,5.3075733,2.4375
40000000000000000000CC00,865.7,5.325981,-0.8125
40000000000000000000CC00,865.7,5.3075733,0.8125
40000000000000000000CC00,865.7,5.295302,4.875
40000000000000000000CC00,865.7,5.28303,8.9375
40000000000000000000CC00,865.7,5.276894,3.25
40000000000000000000CC00,865.7,5.28303,0.0
40000000000000000000CC00,865.7,5.2462144,9.75
40000000000000000000CC00,865.7,5.2155347,15.4375
40000000000000000000CC00,865.7,5.2216706,15.4375
40000000000000000000CC00,865.7,5.270758,3.25
40000000000000000000CC00,865.7,5.2278066,7.3125
40000000000000000000CC00,865.7,5.332117,-8.9375
40000000000000000000CC00,865.7,5.2400784,3.25
40000000000000000000CC00,865.7,5.2339425,6.5
40000000000000000000CC00,865.7,5.3137093,-8.9375
40000000000000000000CC00,865.7,5.295302,-4.875
40000000000000000000CC00,865.7,5.2523503,0.8125
40000000000000000000CC00,865.7,5.28303,-3.25
40000000000000000000CC00,865.7,5.264622,-2.4375
40000000000000000000CC00,865.7,5.2400784,0.0
40000000000000000000CC00,865.7,5.2584863,-3.25
40000000000000000000CC00,865.7,5.1480393,10.5625
40000000000000000000CC00,865.7,5.1419034,8.9375
40000000000000000000CC00,865.7,5.166447,8.125
40000000000000000000CC00,865.7,5.1357675,1.625
40000000000000000000CC00,865.7,5.2155347,-0.8125
40000000000000000000CC00,865.7,5.105088,5.6875
40000000000000000000CC00,865.7,5.2216706,-7.3125
40000000000000000000CC00,865.7,5.184855,-6.5
40000000000000000000CC00,865.7,5.2584863,-17.875
40000000000000000000CC00,865.7,5.0928164,13.8125
40000000000000000000CC00,865.7,5.2584863,-17.0625
40000000000000000000CC00,865.7,5.049865,15.4375
40000000000000000000CC00,865.7,5.0805445,8.125
40000000000000000000CC00,865.7,5.1296315,1.625
40000000000000000000CC00,865.7,5.197127,-9.75
40000000000000000000CC00,865.7,5.0560007,10.5625
40000000000000000000CC00,865.7,5.0682726,15.4375
40000000000000000000CC00,865.7,5.1419034,-2.4375
40000000000000000000CC00,865.7,5.1296315,-1.625
40000000000000000000CC00,865.7,5.0866804,6.5
40000000000000000000CC00,865.7,5.0682726,5.6875
40000000000000000000CC00,865.7,5.0928164,10.5625
40000000000000000000CC00,865.7,5.0560007,12.1875
40000000000000000000CC00,865.7,5.11736,-2.4375
40000000000000000000CC00,865.7,5.1357675,2.4375
40000000000000000000CC00,865.7,5.0682726,11.375
40000000000000000000CC00,865.7,5.11736,4.875
40000000000000000000CC00,865.7,5.0989523,11.375
40000000000000000000CC00,865.7,5.1296315,-1.625
40000000000000000000CC00,865.7,5.1296315,0.8125
40000000000000000000CC00,865.7,5.1480393,-2.4375
40000000000000000000CC00,865.7,5.0744085,10.5625
40000000000000000000CC00,865.7,5.1541753,-6.5
40000000000000000000CC00,865.7,5.123496,2.4375
40000000000000000000CC00,865.7,5.172583,-2.4375
40000000000000000000CC00,865.7,5.0989523,5.6875
40000000000000000000CC00,865.7,5.1296315,2.4375
40000000000000000000CC00,865.7,5.0744085,10.5625
40000000000000000000CC00,865.7,5.025321,16.25
40000000000000000000CC00,865.7,5.2155347,-9.75
40000000000000000000CC00,865.7,5.1357675,8.125
40000000000000000000CC00,865.7,5.037593,18.6875
40000000000000000000CC00,865.7,5.0805445,10.5625
40000000000000000000CC00,865.7,5.1541753,1.625
40000000000000000000CC00,865.7,5.1480393,-1.625
40000000000000000000CC00,865.7,5.1480393,5.6875
40000000000000000000CC00,865.7,5.160311,-2.4375
40000000000000000000CC00,865.7,5.178719,-3.25
40000000000000000000CC00,865.7,5.1419034,0.8125
40000000000000000000CC00,865.7,5.105088,9.75
40000000000000000000CC00,865.7,5.0989523,13.8125
40000000000000000000CC00,865.7,5.1480393,0.8125
40000000000000000000CC00,865.7,5.105088,6.5
40000000000000000000CC00,865.7,5.1541753,-2.4375
40000000000000000000CC00,865.7,5.184855,-4.875
40000000000000000000CC00,865.7,5.1357675,3.25
40000000000000000000CC00,865.7,5.172583,-3.25
40000000000000000000CC00,865.7,5.11736,6.5
40000000000000000000CC00,865.7,5.1357675,5.6875
40000000000000000000CC00,865.7,5.2216706,-8.9375
40000000000000000000CC00,865.7,5.2339425,-9.75
40000000000000000000CC00,865.7,5.0805445,10.5625
40000000000000000000CC00,865.7,5.0744085,14.625
40000000000000000000CC00,865.7,5.2155347,-6.5
40000000000000000000CC00,865.7,5.0744085,13.8125
40000000000000000000CC00,865.7,5.295302,-15.4375
40000000000000000000CC00,865.7,5.184855,-1.625
40000000000000000000CC00,865.7,5.111224,8.9375
40000000000000000000CC00,865.7,5.190991,-1.625
40000000000000000000CC00,865.7,5.197127,-3.25
40000000000000000000CC00,865.7,5.184855,0.0
40000000000000000000CC00,865.7,5.2400784,-8.9375
40000000000000000000CC00,865.7,5.2462144,-3.25
40000000000000000000CC00,865.7,5.2093987,-4.875
40000000000000000000CC00,865.7,5.1541753,6.5
40000000000000000000CC00,865.7,5.1419034,8.9375
40000000000000000000CC00,865.7,5.190991,-0.8125
40000000000000000000CC00,865.7,5.289166,-12.1875
40000000000000000000CC00,865.7,5.319845,-14.625
40000000000000000000CC00,865.7,5.172583,12.1875
40000000000000000000CC00,865.7,5.289166,-8.9375
40000000000000000000CC00,865.7,5.3075733,-9.75
40000000000000000000CC00,865.7,5.2093987,4.875
40000000000000000000CC00,865.7,5.1541753,12.1875
40000000000000000000CC00,865.7,5.2584863,3.25
40000000000000000000CC00,865.7,5.2523503,3.25
40000000000000000000CC00,865.7,5.166447,20.3125
40000000000000000000CC00,865.7,5.344389,-8.9375
40000000000000000000CC00,865.7,5.2093987,15.4375
40000000000000000000CC00,865.7,5.203263,18.6875
40000000000000000000CC00,865.7,5.344389,-6.5
40000000000000000000CC00,865.7,5.2462144,7.3125
40000000000000000000CC00,865.7,5.319845,-0.8125
40000000000000000000CC00,865.7,5.270758,5.6875
40000000000000000000CC00,865.7,5.3137093,0.8125
40000000000000000000CC00,865.7,5.289166,-0.8125
40000000000000000000CC00,865.7,5.2278066,14.625
40000000000000000000CC00,865.7,5.28303,6.5
40000000000000000000CC00,865.7,5.2462144,1.625
40000000000000000000CC00,865.7,5.264622,-0.8125
40000000000000000000CC00,865.7,5.2584863,3.25
40000000000000000000CC00,865.7,5.264622,-1.625
40000000000000000000CC00,865.7,5.178719,6.5
40000000000000000000CC00,865.7,5.178719,9.75
40000000000000000000CC00,865.7,5.123496,14.625
40000000000000000000CC00,865.7,5.350525,-22.75
40000000000000000000CC00,865.7,5.0928164,16.25
40000000000000000000CC00,865.7,5.178719,8.125
40000000000000000000CC00,865.7,5.166447,-0.8125
40000000000000000000CC00,865.7,5.049865,17.875
40000000000000000000CC00,865.7,5.1357675,-1.625
40000000000000000000CC00,865.7,5.1357675,0.8125
40000000000000000000CC00,865.7,5.0744085,8.125
40000000000000000000CC00,865.7,5.0682726,2.4375
40000000000000000000CC00,865.7,5.0744085,5.6875
40000000000000000000CC00,865.7,5.006913,16.25
40000000000000000000CC00,865.7,5.019185,14.625
40000000000000000000CC00,865.7,5.031457,17.0625
40000000000000000000CC00,865.7,4.9700975,13.8125
40000000000000000000CC00,865.7,5.031457,8.125
40000000000000000000CC00,865.7,5.013049,2.4375
40000000000000000000CC00,865.7,5.0560007,-5.6875
40000000000000000000CC00,865.7,4.9762335,12.1875
40000000000000000000CC00,865.7,5.043729,-4.875
40000000000000000000CC00,865.7,4.9210105,18.6875
40000000000000000000CC00,865.7,4.9394183,16.25
40000000000000000000CC00,865.7,4.9885054,4.875
40000000000000000000CC00,865.7,5.037593,-8.125
40000000000000000000CC00,865.7,5.013049,-0.8125
40000000000000000000CC00,865.7,5.006913,0.8125
40000000000000000000CC00,865.7,4.9823694,6.5
40000000000000000000CC00,865.7,5.0007772,0.8125
40000000000000000000CC00,865.7,5.037593,-7.3125
40000000000000000000CC00,865.7,4.95169,5.6875
40000000000000000000CC00,865.7,4.9762335,7.3125
40000000000000000000CC00,865.7,4.9455543,8.125
40000000000000000000CC00,865.7,4.9639616,3.25
40000000000000000000CC00,865.7,4.9639616,4.875
40000000000000000000CC00,865.7,4.9700975,5.6875
40000000000000000000CC00,865.7,5.037593,-2.4375
40000000000000000000CC00,865.7,5.025321,3.25
40000000000000000000CC00,865.7,5.0805445,-6.5
40000000000000000000CC00,865.7,4.9823694,9.75
40000000000000000000CC00,865.7,5.037593,0.8125
40000000000000000000CC00,865.7,5.037593,-0.8125
40000000000000000000CC00,865.7,5.043729,2.4375
40000000000000000000CC00,865.7,5.1419034,-12.1875
40000000000000000000CC00,865.7,5.123496,-2.4375
40000000000000000000CC00,865.7,5.1296315,-3.25
40000000000000000000CC00,865.7,5.049865,16.25
40000000000000000000CC00,865.7,5.160311,5.6875
40000000000000000000CC00,865.7,5.166447,11.375
40000000000000000000CC00,865.7,5.356661,-11.375
40000000000000000000CC00,865.7,5.295302,8.125
40000000000000000000CC00,865.7,5.3750687,-3.25
40000000000000000000CC00,865.7,5.319845,12.1875
40000000000000000000CC00,865.7,5.295302,17.0625
40000000000000000000CC00,865.7,5.5530105,-25.1875
40000000000000000000CC00,865.7,5.4118843,2.4375
40000000000000000000CC00,865.7,5.4487,1.625
40000000000000000000CC00,865.7,5.424156,8.9375
40000000000000000000CC00,865.7,5.497787,-2.4375
40000000000000000000CC00,865.7,5.460972,7.3125
40000000000000000000CC00,865.7,5.4180202,3.25
40000000000000000000CC00,865.7,5.4057484,0.8125
40000000000000000000CC00,865.7,5.3750687,1.625
40000000000000000000CC00,865.7,5.3689327,-4.875
40000000000000000000CC00,865.7,5.4057484,-8.9375
40000000000000000000CC00,865.7,5.344389,-2.4375
40000000000000000000CC00,865.7,5.319845,-0.8125
40000000000000000000CC00,865.7,5.3996124,-11.375
40000000000000000000CC00,865.7,5.28303,4.875
40000000000000000000CC00,865.7,5.28303,10.5625
40000000000000000000CC00,865.7,5.3014374,6.5
40000000000000000000CC00,865.7,5.460972,-12.1875
40000000000000000000CC00,865.7,5.332117,6.5
40000000000000000000CC00,865.7,5.3075733,8.9375
40000000000000000000CC00,865.7,5.503923,-17.875
40000000000000000000CC00,865.7,5.442564,-7.3125
40000000000000000000CC00,865.7,5.424156,-4.875
40000000000000000000CC00,865.7,5.503923,-11.375
40000000000000000000CC00,865.7,5.4118843,0.8125
40000000000000000000CC00,865.7,5.4487,0.8125
40000000000000000000CC00,865.7,5.479379,-1.625
40000000000000000000CC00,865.7,5.491651,9.75
40000000000000000000CC00,865.7,5.485515,17.875
40000000000000000000CC00,865.7,5.761632,-13.8125
40000000000000000000CC00,865.7,5.7861757,4.875
40000000000000000000CC00,865.7,6.0316124,-3.25
40000000000000000000CC00,865.7,6.1113796,4.875
40000000000000000000CC00,865.7,0.079767,-6.5
40000000000000000000CC00,865.7,0.17794177,8.125
40000000000000000000CC00,865.7,0.44792238,-4.875
40000000000000000000CC00,865.7,0.62586415,-2.4375
40000000000000000000CC00,865.7,0.79153407,-0.8125
40000000000000000000CC00,865.7,0.77926224,16.25
40000000000000000000CC00,865.7,1.0124273,-1.625
40000000000000000000CC00,865.7,1.0615147,0.0
40000000000000000000CC00,865.7,1.0921943,6.5
40000000000000000000CC00,865.7,1.1903691,4.875
40000000000000000000CC00,865.7,1.1903691,16.25
40000000000000000000CC00,865.7,1.1903691,23.5625
40000000000000000000CC00,865.7,1.2394565,15.4375
40000000000000000000CC00,865.7,1.356039,8.125
40000000000000000000CC00,865.7,1.3928546,10.5625
40000000000000000000CC00,865.7,1.4848934,-0.8125
40000000000000000000CC00,865.7,1.4603497,21.125
40000000000000000000CC00,865.7,1.6873789,-24.375
40000000000000000000CC00,865.7,1.6260196,-9.75
40000000000000000000CC00,865.7,1.601476,10.5625
40000000000000000000CC00,865.7,1.754874,-7.3125
40000000000000000000CC00,865.7,1.6137478,14.625
40000000000000000000CC00,865.7,1.7671459,-0.8125
40000000000000000000CC00,865.7,1.8039614,-6.5
40000000000000000000CC00,865.7,1.6935148,26.8125
40000000000000000000CC00,865.7,1.8100973,5.6875
40000000000000000000CC00,865.7,2.1905246,-48.8125
40000000000000000000CC00,865.7,1.8469129,9.75
40000000000000000000CC00,865.7,2.0371265,-24.375
40000000000000000000CC00,865.7,1.9205439,-0.8125
40000000000000000000CC00,865.7,1.9696313,-14.625
40000000000000000000CC00,865.7,2.0187187,-8.125
40000000000000000000CC00,865.7,1.9328158,8.9375
40000000000000000000CC00,865.7,1.6873789,40.6875
40000000000000000000CC00,865.7,1.9021362,3.25
40000000000000000000CC00,865.7,1.9512236,-7.3125
40000000000000000000CC00,865.7,1.748738,17.0625
40000000000000000000CC00,865.7,1.7119225,20.3125
40000000000000000000CC00,865.7,1.6996508,17.0625
40000000000000000000CC00,865.7,1.8775924,-17.0625
40000000000000000000CC00,865.7,1.8469129,-15.4375
40000000000000000000CC00,865.7,1.7364663,7.3125
40000000000000000000CC00,865.7,1.6321555,6.5
40000000000000000000CC00,865.7,1.7978255,-0.8125
40000000000000000000CC00,865.7,1.7671459,-10.5625
40000000000000000000CC00,865.7,1.8100973,-10.5625
40000000000000000000CC00,865.7,1.6137478,17.875
40000000000000000000CC00,865.7,1.754874,0.8125
40000000000000000000CC00,865.7,1.7303303,7.3125
40000000000000000000CC00,865.7,2.0555344,-49.625
40000000000000000000CC00,865.7,1.9205439,-29.25
40000000000000000000CC00,865.7,1.748738,4.875
40000000000000000000CC00,865.7,1.7303303,4.875
40000000000000000000CC00,865.7,1.6076119,26.8125
40000000000000000000CC00,865.7,1.6260196,17.0625
40000000000000000000CC00,865.7,1.6444274,15.4375
40000000000000000000CC00,865.7,1.59534,42.3125
40000000000000000000CC00,865.7,1.5646604,38.1875
40000000000000000000CC00,865.7,1.521709,44.75
40000000000000000000CC00,865.7,1.7119225,15.4375
40000000000000000000CC00,865.7,1.6566993,29.25
40000000000000000000CC00,865.7,1.6260196,36.5625
40000000000000000000CC00,865.7,1.7732818,8.125
40000000000000000000CC00,865.7,1.6076119,35.75
40000000000000000000CC00,865.7,1.6566993,24.375
40000000000000000000CC00,865.7,1.6566993,21.125
40000000000000000000CC00,865.7,1.8223692,-7.3125
40000000000000000000CC00,865.7,1.7671459,3.25
40000000000000000000CC00,865.7,1.6382915,22.75
40000000000000000000CC00,865.7,1.6076119,15.4375
40000000000000000000CC00,865.7,1.7241944,8.9375
40000000000000000000CC00,865.7,1.6873789,5.6875
40000000000000000000CC00,865.7,1.9021362,-17.875
40000000000000000000CC00,865.7,1.7303303,8.125
40000000000000000000CC00,865.7,1.5769322,39.875
40000000000000000000CC00,865.7,1.7426022,-1.625
40000000000000000000CC00,865.7,1.7916895,-26.0
40000000000000000000CC00,865.7,1.6321555,8.125
40000000000000000000CC00,865.7,1.7241944,8.125
40000000000000000000CC00,865.7,1.601476,26.8125
40000000000000000000CC00,865.7,1.7426022,-2.4375
40000000000000000000CC00,865.7,1.5892041,27.625
40000000000000000000CC00,865.7,1.5646604,28.4375
40000000000000000000CC00,865.7,1.4235342,45.5625
40000000000000000000CC00,865.7,1.6444274,12.1875
40000000000000000000CC00,865.7,1.7364663,-5.6875
40000000000000000000CC00,865.7,1.7241944,-10.5625
40000000000000000000CC00,865.7,1.5278449,42.3125
40000000000000000000CC00,865.7,1.7180585,-0.8125
40000000000000000000CC00,865.7,1.6198837,16.25
40000000000000000000CC00,865.7,1.7671459,7.3125
40000000000000000000CC00,865.7,1.6873789,1.625
40000000000000000000CC00,865.7,1.5646604,36.5625
40000000000000000000CC00,865.7,1.362175,61.8125
40000000000000000000CC00,865.7,1.7241944,-1.625
40000000000000000000CC00,865.7,1.675107,3.25
40000000000000000000CC00,865.7,1.6566993,18.6875
40000000000000000000CC00,865.7,1.6076119,20.3125
40000000000000000000CC00,865.7,1.7119225,5.6875
40000000000000000000CC00,865.7,1.7855537,-8.125
40000000000000000000CC00,865.7,1.8469129,-19.5
40000000000000000000CC00,865.7,1.6260196,23.5625
40000000000000000000CC00,865.7,1.5462526,43.9375
40000000000000000000CC00,865.7,1.7057866,11.375
40000000000000000000CC00,865.7,1.7610099,-15.4375
40000000000000000000CC00,865.7,1.5339808,32.5
40000000000000000000CC00,865.7,1.7119225,2.4375
40000000000000000000CC00,865.7,1.6628351,0.0
40000000000000000000CC00,865.7,1.521709,31.6875
40000000000000000000CC00,865.7,1.7057866,-10.5625
40000000000000000000CC00,865.7,1.7303303,-17.0625
