-30.5,0.0,4.875
-30.5,0.012271846303084644,4.875
-30.5,0.0,4.875
-30.5,0.05522330836388356,-4.0625
-30.5,-0.012271846303085532,-2.4375
-30.5,0.0,-4.0625
-30.5,-0.04295146206079803,6.5
-30.5,0.04295146206079803,-2.4375
-30.5,-0.006135923151542322,-0.8125
-30.5,-0.006135923151542322,-4.0625
-30.5,0.012271846303084644,-4.0625
-30.5,-0.03681553890925482,5.6875
-30.5,0.006135923151542322,4.0625
-30.5,0.030679615757712497,-4.0625
-30.5,-0.012271846303084644,0.8125
-30.5,-0.012271846303085532,2.4375
-30.5,0.04295146206079803,-6.5
-30.5,-0.024543692606170175,-0.8125
-30.5,-0.018407769454627854,2.4375
-30.5,0.012271846303085532,-0.8125
-30.5,-0.024543692606170175,2.4375
-30.5,0.024543692606170175,-0.8125
-30.5,-0.018407769454627854,1.625
-30.5,-0.012271846303085532,4.875
-30.5,0.06135923151542588,-5.6875
-30.5,-0.04295146206079803,5.6875
-30.5,0.012271846303085532,2.4375
-30.5,0.024543692606170175,-1.625
-30.5,-0.04295146206079803,4.875
-30.5,0.006135923151542322,0.8125
-30.5,-0.012271846303084644,6.5
-30.5,0.03681553890925482,-2.4375
-30.5,-0.012271846303084644,0.0
-30.5,-0.012271846303085532,4.0625
-30.5,-0.012271846303084644,4.0625
-30.5,0.006135923151542322,2.4375
-30.5,-0.006135923151542322,2.4375
-30.5,0.04908738521234035,-5.6875
-30.5,-0.06135923151542588,4.0625
-30.5,0.030679615757712497,0.0
-30.5,-0.024543692606170175,4.0625
-30.5,0.030679615757713385,-1.625
-30.5,-0.024543692606170175,1.625
-30.5,-0.012271846303085532,6.5
-30.5,0.0,5.6875
-30.5,0.006135923151542322,4.875
-30.5,0.024543692606170175,-1.625
-30.5,-0.012271846303084644,-1.625
-30.5,-0.012271846303085532,4.875
-30.5,0.030679615757713385,-4.0625
-30.5,0.012271846303084644,-4.0625
-30.5,-0.024543692606170175,1.625
-30.5,-0.006135923151542322,2.4375
-30.5,-0.012271846303085532,5.6875
-30.5,0.04908738521234035,-4.875
-30.5,-0.03681553890925482,1.625
-30.5,0.006135923151542322,0.8125
-30.5,0.018407769454627854,-0.8125
-30.5,-0.006135923151542322,-0.8125
-30.5,-0.024543692606170175,4.0625
-30.5,-0.00613592315154321,4.875
-30.5,0.018407769454627854,-0.8125
-30.5,-0.012271846303084644,0.8125
-30.5,0.018407769454626965,-1.625
-30.5,-0.006135923151542322,0.8125
-30.5,-0.012271846303084644,0.0
-30.5,-0.012271846303085532,4.0625
-30.5,0.006135923151542322,4.0625
-30.5,0.03681553890925571,-4.0625
-30.5,-0.006135923151542322,-2.4375
-30.5,-0.018407769454627854,-0.8125
-30.5,-0.006135923151542322,4.0625
-30.5,0.04908738521234035,-2.4375
-30.5,-0.03681553890925571,0.8125
-30.5,-0.012271846303084644,1.625
-30.5,0.012271846303084644,2.4375
-30.5,0.012271846303085532,1.625
-30.5,0.018407769454626965,-4.0625
-30.5,-0.04295146206079714,4.0625
-30.5,0.03681553890925482,-4.0625
-30.5,-0.03681553890925482,4.0625
-30.5,-0.00613592315154321,4.875
-30.5,0.00613592315154321,6.5
-30.5,0.006135923151542322,4.0625
-30.5,0.018407769454627854,-0.8125
-30.5,-0.024543692606170175,4.875
-30.5,0.012271846303084644,1.625
-30.5,-0.006135923151542322,0.8125
-30.5,-0.012271846303085532,4.875
-30.5,0.0,5.6875
-30.5,0.018407769454627854,0.0
-30.5,0.0,1.625
-30.5,0.03681553890925571,-4.875
-30.5,-0.018407769454627854,-0.8125
-30.5,0.0,-4.0625
-30.5,-0.012271846303085532,-0.8125
-30.5,0.0,0.8125
-30.5,-0.006135923151542322,4.875
-30.5,0.030679615757712497,-4.875
-30.5,-0.03681553890925482,-0.8125
-30.5,0.024543692606170175,-4.0625
-30.5,-0.030679615757712497,4.875
-30.5,0.012271846303084644,-0.8125
-30.5,-0.006135923151542322,-0.8125
-30.5,-0.006135923151542322,0.8125
-30.5,-0.024543692606171064,4.875
-30.5,0.0,5.6875
-30.5,0.012271846303085532,4.0625
-30.5,0.006135923151542322,1.625
-30.5,-0.012271846303084644,6.5
-30.5,0.018407769454627854,1.625
-30.5,0.0,0.0
-30.5,-0.012271846303085532,1.625
-30.5,0.006135923151542322,1.625
-30.5,0.0,1.625
-30.5,0.00613592315154321,1.625
-30.5,-0.012271846303085532,0.8125
-30.5,0.018407769454627854,-1.625
-30.5,-0.04295146206079803,7.3125
-30.5,0.03681553890925571,-1.625
-30.5,-0.012271846303085532,4.0625
-30.5,0.0,0.8125
-30.5,-0.006135923151542322,6.5
-30.5,0.024543692606170175,0.0
-30.5,-0.024543692606170175,4.0625
-30.5,0.024543692606170175,1.625
-30.5,-0.012271846303085532,4.0625
-30.5,-0.012271846303084644,4.875
-30.5,0.04295146206079803,-4.0625
-30.5,-0.024543692606170175,1.625
-30.5,-0.00613592315154321,4.875
-30.5,-0.006135923151542322,4.0625
-30.5,-0.012271846303085532,5.6875
-30.5,0.05522330836388356,-4.875
-30.5,-0.012271846303085532,-1.625
-30.5,-0.030679615757712497,4.0625
-30.5,0.030679615757712497,-1.625
-30.5,0.0,-1.625
-30.5,-0.04295146206079803,5.6875
-30.5,0.024543692606171064,1.625
-30.5,-0.018407769454627854,4.875
-30.5,0.04295146206079803,-4.0625
-30.5,-0.04295146206079803,4.875
-30.5,0.006135923151542322,4.0625
-30.5,0.012271846303085532,-0.8125
-30.5,0.006135923151542322,-2.4375
-30.5,0.012271846303084644,-2.4375
-30.5,0.012271846303085532,-6.5
-30.5,-0.05522330836388356,7.3125
-30.5,0.04295146206079803,-2.4375
-30.5,0.00613592315154321,-1.625
-30.5,0.012271846303084644,-5.6875
-30.5,-0.018407769454627854,-0.8125
-30.5,-0.030679615757712497,4.875
-30.5,0.04908738521234035,-4.0625
-30.5,-0.018407769454627854,0.0
-30.5,-0.018407769454626965,1.625
-30.5,-0.012271846303085532,4.0625
-30.5,-0.018407769454627854,6.5
-30.5,0.04295146206079803,-2.4375
-30.5,-0.024543692606170175,4.0625
-30.5,0.024543692606170175,-0.8125
-30.5,0.018407769454627854,-4.0625
-30.5,-0.030679615757712497,1.625
-30.5,0.012271846303084644,-2.4375
-30.5,0.024543692606170175,-4.875
-30.5,-0.030679615757712497,0.8125
-30.5,-0.012271846303085532,2.4375
-30.5,0.0,6.5
-30.5,0.012271846303085532,2.4375
-30.5,-0.006135923151542322,5.6875
-30.5,0.012271846303084644,2.4375
-30.5,0.0,1.625
-30.5,0.006135923151542322,0.8125
-30.5,0.024543692606170175,-0.8125
-30.5,0.00613592315154321,0.0
-30.5,-0.030679615757713385,4.0625
-30.5,0.018407769454627854,0.0
-30.5,0.0,2.4375
-31.0,0.030679615757713385,-4.875
-30.5,-0.03681553890925571,1.625
-30.5,0.018407769454627854,-1.625
-30.5,0.0,0.0
-30.5,0.012271846303084644,-4.0625
-31.0,-0.024543692606170175,1.625
-30.5,-0.012271846303084644,4.0625
-30.5,0.0,1.625
-30.5,-0.00613592315154321,7.3125
-30.5,0.012271846303085532,2.4375
-30.5,0.006135923151542322,0.0
-30.5,0.0,0.8125
-30.5,0.012271846303085532,0.0
-30.5,-0.024543692606170175,4.875
-30.5,0.024543692606170175,0.8125
-30.5,-0.012271846303085532,4.0625
-30.5,0.012271846303085532,0.8125
-30.5,0.0,0.8125
-30.5,-0.018407769454627854,2.4375
-30.5,0.03681553890925571,-1.625
-30.5,-0.030679615757713385,1.625
-30.5,0.0,4.875
-30.5,0.006135923151542322,1.625
-30.5,-0.012271846303084644,2.4375
-30.5,0.024543692606170175,-0.8125
-31.0,0.006135923151542322,-1.625
-30.5,-0.012271846303084644,0.8125
-30.5,0.018407769454627854,-2.4375
-30.5,-0.04295146206079803,6.5
-30.5,0.030679615757712497,0.0
-30.5,-0.006135923151542322,0.8125
-30.5,0.006135923151542322,-0.8125
-30.5,0.018407769454627854,-2.4375
-31.0,-0.03681553890925571,4.0625
-30.5,0.04295146206079803,-4.0625
-31.0,-0.030679615757712497,4.0625
-30.5,0.012271846303084644,0.0
-30.5,-0.018407769454627854,2.4375
-30.5,0.030679615757713385,0.0
-30.5,-0.024543692606170175,0.8125
-30.5,-0.018407769454627854,4.0625
-30.5,0.018407769454627854,2.4375
-31.0,-0.024543692606170175,6.5
-31.0,0.018407769454626965,2.4375
-30.5,0.030679615757713385,-1.625
-30.5,-0.04908738521234035,6.5
-30.5,0.024543692606170175,2.4375
-30.5,0.024543692606170175,-1.625
-31.0,-0.030679615757713385,4.875
-31.0,0.04295146206079803,-2.4375
-30.5,-0.030679615757712497,-0.8125
-30.5,0.03681553890925571,-4.875
-30.5,-0.024543692606170175,0.8125
-30.5,0.0,-2.4375
-31.0,-0.024543692606171064,4.875
-30.5,0.0,5.6875
-30.5,0.024543692606171064,0.0
-30.5,-0.024543692606171064,4.0625
-30.5,0.018407769454627854,-0.8125
-31.0,-0.03681553890925482,6.5
-30.5,0.0,5.6875
-30.5,0.024543692606170175,2.4375
-30.5,0.04908738521234035,-4.0625
-30.5,-0.03681553890925571,0.0
-31.0,-0.03681553890925482,7.3125
-30.5,0.030679615757712497,0.8125
-31.0,-0.024543692606170175,5.6875
-30.5,0.012271846303084644,5.6875
-30.5,0.04295146206079803,-4.0625
-31.0,0.00613592315154321,-5.6875
-30.5,-0.03681553890925571,2.4375
-30.5,-0.012271846303085532,2.4375
-30.5,0.012271846303085532,4.0625
-30.5,0.024543692606170175,-4.875
-30.5,-0.04295146206079803,4.875
-30.5,0.030679615757713385,-0.8125
-30.5,-0.012271846303085532,1.625
-30.5,-0.018407769454627854,2.4375
-30.5,-0.006135923151542322,4.0625
-30.5,0.006135923151542322,1.625
-30.5,-0.006135923151542322,4.875
-30.5,0.030679615757712497,0.8125
-30.5,-0.012271846303084644,0.0
-30.5,0.018407769454627854,-2.4375
-30.5,-0.05522330836388356,8.125
-30.5,0.04295146206079803,-1.625
-30.5,-0.04295146206079803,5.6875
-30.5,0.030679615757712497,0.0
-30.5,-0.012271846303084644,4.0625
-30.5,-0.006135923151542322,1.625
-30.5,0.018407769454626965,-1.625
-30.5,-0.03681553890925482,8.125
-30.5,0.024543692606170175,-0.8125
-30.5,0.024543692606170175,-2.4375
-30.5,-0.04908738521234035,5.6875
-30.5,0.018407769454627854,0.0
-30.5,0.012271846303084644,-2.4375
-30.5,-0.024543692606170175,0.8125
-30.5,-0.012271846303084644,2.4375
-30.5,0.0,4.0625
-30.5,0.018407769454626965,-1.625
-30.5,-0.006135923151542322,0.0
-30.5,-0.018407769454627854,4.0625
-30.5,0.024543692606170175,0.0
-30.5,-0.018407769454626965,4.875
-30.5,0.0,0.0
-30.5,0.012271846303084644,-1.625
-30.5,-0.012271846303084644,0.8125
-30.5,-0.012271846303085532,4.0625
-30.5,-0.012271846303085532,2.4375
-30.5,0.030679615757713385,0.0
-30.5,0.024543692606170175,-2.4375
-30.5,-0.04295146206079803,2.4375
-30.5,-0.012271846303085532,4.0625
-30.5,0.0,4.0625
-30.5,0.012271846303085532,-0.8125
-30.5,-0.018407769454627854,4.875
-30.5,-0.006135923151542322,7.3125
-30.5,-0.006135923151542322,4.875
-30.5,0.006135923151542322,4.875
-30.5,0.012271846303084644,0.8125
-30.0,0.030679615757713385,-5.6875
-30.5,-0.04908738521234035,2.4375
-30.5,-0.018407769454627854,5.6875
-30.0,0.030679615757712497,-1.625
-30.5,-0.006135923151542322,0.8125
-30.5,-0.018407769454627854,1.625
-30.0,-0.006135923151542322,5.6875
-30.0,0.03681553890925482,-2.4375
-30.5,-0.03681553890925482,-1.625
-30.0,0.006135923151542322,0.8125
-30.0,-0.012271846303084644,0.8125
-30.5,0.024543692606170175,-2.4375
-30.0,-0.030679615757713385,1.625
-30.0,0.012271846303085532,-4.875
-30.0,-0.030679615757713385,2.4375
-30.0,-0.012271846303084644,4.875
-30.0,0.03681553890925571,-5.6875
-30.0,-0.012271846303085532,-1.625
-30.0,0.0,-4.0625
-30.0,-0.04908738521234035,4.875
-30.0,0.018407769454627854,0.0
-30.0,-0.012271846303085532,7.3125
-30.0,0.018407769454627854,-4.0625
-30.0,0.012271846303084644,-5.6875
-30.0,-0.04295146206079714,0.8125
-30.0,0.0,0.0
-30.0,-0.024543692606171064,1.625
-30.0,-0.006135923151542322,4.0625
-30.0,0.006135923151542322,2.4375
-30.0,-0.024543692606170175,5.6875
-30.0,0.04295146206079803,-4.875
-30.0,-0.04295146206079803,4.0625
-30.0,-0.012271846303084644,2.4375
-30.0,0.0,0.0
-30.0,0.0,0.0
-30.0,0.018407769454627854,-2.4375
-30.0,-0.012271846303085532,-0.8125
-30.0,0.006135923151542322,-4.0625
-30.0,0.0,-4.0625
-30.0,-0.0674951546669682,5.6875
-30.0,0.012271846303085532,2.4375
-30.0,0.0,1.625
-29.5,0.006135923151542322,0.0
-29.5,0.0,0.0
-29.5,-0.030679615757712497,4.0625
-29.5,0.04295146206079803,-5.6875
-29.5,-0.012271846303085532,-4.0625
-29.5,-0.04295146206079803,2.4375
-29.5,0.024543692606170175,-1.625
-29.5,-0.04295146206079803,2.4375
-29.5,0.03681553890925571,0.8125
-29.5,-0.018407769454627854,-2.4375
-29.5,0.0,0.0
-29.5,-0.006135923151542322,-0.8125
-29.0,0.0,-4.0625
-29.0,-0.024543692606170175,1.625
-29.0,0.006135923151542322,0.0
-29.0,0.012271846303085532,-4.875
-29.5,0.0,-5.6875
-29.0,-0.030679615757713385,0.8125
-29.0,0.00613592315154321,0.8125
-29.0,-0.030679615757713385,0.8125
-29.0,0.024543692606170175,-0.8125
-29.0,0.0,-4.0625
-29.0,-0.030679615757712497,2.4375
-29.0,0.024543692606170175,-0.8125
-29.0,-0.04295146206079803,2.4375
-29.0,0.018407769454627854,0.0
-29.0,-0.024543692606170175,4.0625
-28.5,0.0,-0.8125
-29.0,0.018407769454627854,-2.4375
-28.5,-0.030679615757713385,4.0625
-28.5,-0.012271846303084644,1.625
-28.5,0.0,2.4375
-28.5,-0.018407769454627854,2.4375
-28.5,0.0,2.4375
-28.5,-0.012271846303085532,2.4375
-28.5,0.030679615757713385,-0.8125
-28.5,-0.04908738521234035,5.6875
-28.5,0.012271846303084644,2.4375
-28.5,0.012271846303085532,0.8125
-28.5,-0.018407769454627854,-1.625
-28.5,0.012271846303084644,-0.8125
-28.5,0.024543692606171064,-4.875
-28.5,-0.07363107781851141,4.875
-28.5,0.024543692606170175,1.625
-28.0,-0.030679615757712497,5.6875
-28.5,0.0,4.875
-28.0,-0.006135923151542322,2.4375
-28.5,0.024543692606170175,-1.625
-28.0,-0.006135923151542322,-2.4375
-28.0,-0.03681553890925571,2.4375
-28.0,0.03681553890925571,-5.6875
-28.0,-0.04295146206079803,4.0625
-28.0,0.006135923151542322,0.0
-28.0,0.006135923151542322,-1.625
-28.0,-0.024543692606170175,1.625
-28.0,-0.024543692606170175,4.0625
-28.0,0.012271846303085532,2.4375
-28.0,0.018407769454626965,-2.4375
-28.0,-0.030679615757712497,2.4375
-28.0,0.018407769454627854,-1.625
-28.0,-0.04908738521234035,4.875
-28.0,0.05522330836388267,-6.5
-28.0,-0.04295146206079803,4.875
-28.0,0.030679615757713385,-4.0625
-28.0,-0.06135923151542588,6.5
-28.0,0.03681553890925482,0.0
-28.0,-0.024543692606170175,6.5
-28.0,0.030679615757713385,-1.625
-28.0,-0.030679615757713385,4.0625
-28.0,0.0,1.625
-28.0,-0.006135923151542322,0.8125
-27.5,0.024543692606170175,-2.4375
-28.0,-0.05522330836388267,5.6875
-28.0,0.03681553890925482,0.0
-28.0,0.00613592315154321,-0.8125
-28.0,-0.018407769454627854,0.8125
-28.0,-0.00613592315154321,0.8125
-27.5,-0.006135923151542322,4.0625
-28.0,-0.006135923151542322,4.875
-28.0,0.0,2.4375
-28.0,0.0,4.0625
-27.5,0.012271846303084644,0.0
-28.0,0.012271846303085532,-0.8125
-28.0,-0.012271846303085532,0.0
-28.0,0.012271846303085532,-0.8125
-28.0,-0.006135923151542322,-0.8125
-28.0,0.0,-0.8125
-28.0,0.018407769454627854,-1.625
-28.0,0.006135923151542322,-4.875
-28.0,-0.04295146206079803,4.0625
-28.0,0.018407769454627854,0.0
-28.0,0.012271846303084644,-1.625
-28.0,0.018407769454627854,-5.6875
-28.0,-0.012271846303084644,-1.625
-28.0,-0.00613592315154321,-1.625
-28.0,0.00613592315154321,-0.8125
-28.0,-0.012271846303085532,0.0
-28.0,-0.006135923151542322,1.625
-28.0,0.006135923151542322,2.4375
-28.0,0.012271846303085532,-2.4375
-28.0,-0.012271846303085532,0.8125
-28.0,-0.012271846303085532,2.4375
-28.0,0.00613592315154321,1.625
-28.0,0.018407769454627854,-0.8125
-28.0,0.006135923151542322,-1.625
-28.0,-0.030679615757713385,4.0625
-28.0,0.012271846303085532,1.625
-28.0,0.024543692606170175,-4.875
-28.0,-0.030679615757712497,2.4375
-28.0,0.0,2.4375
-28.0,0.018407769454627854,-0.8125
-28.0,-0.012271846303085532,1.625
-28.0,0.006135923151542322,0.8125
-28.0,-0.006135923151542322,0.8125
-28.0,-0.006135923151542322,1.625
-28.0,0.006135923151542322,0.8125
-28.0,0.006135923151542322,0.0
-28.0,-0.006135923151542322,1.625
-28.0,0.024543692606170175,-1.625
-28.0,-0.018407769454627854,1.625
-28.0,-0.006135923151542322,0.8125
-28.0,0.0,1.625
-28.0,0.018407769454627854,-1.625
-28.0,-0.03681553890925571,4.0625
-28.0,0.018407769454627854,0.8125
-28.0,0.03681553890925571,-4.875
-28.0,-0.012271846303085532,-4.0625
-28.0,-0.006135923151542322,-2.4375
-28.0,-0.030679615757713385,4.0625
-28.0,-0.006135923151542322,5.6875
-28.0,0.018407769454627854,2.4375
-28.0,0.030679615757712497,-4.0625
-28.0,-0.024543692606170175,4.0625
-28.0,0.0,2.4375
-28.0,-0.006135923151542322,1.625
-28.0,0.0,4.875
-28.0,0.03681553890925571,-4.875
-28.0,-0.06135923151542588,6.5
-28.0,0.0674951546669682,-4.0625
-28.0,-0.018407769454627854,-0.8125
-28.0,0.006135923151542322,-4.0625
-28.0,0.0,-1.625
-28.0,0.0,-0.8125
-28.0,-0.018407769454626965,5.6875
-28.0,0.006135923151542322,2.4375
-28.0,0.03681553890925571,-2.4375
-28.0,-0.018407769454627854,0.0
-28.5,0.030679615757712497,-4.0625
-28.5,-0.006135923151542322,-1.625
-28.0,-0.018407769454627854,4.875
-28.5,0.024543692606170175,-2.4375
-28.5,0.006135923151542322,-2.4375
-28.5,-0.030679615757712497,1.625
-28.5,-0.006135923151542322,2.4375
-28.0,0.04295146206079803,-2.4375
-28.0,-0.018407769454627854,1.625
-28.5,0.0,0.8125
-28.5,0.030679615757712497,-4.875
-28.5,-0.012271846303084644,-4.0625
-28.5,-0.030679615757713385,2.4375
-28.5,0.024543692606170175,-1.625
-28.5,-0.024543692606170175,4.0625
-28.5,0.012271846303085532,2.4375
-28.5,0.03681553890925482,-6.5
-28.5,-0.030679615757712497,0.8125
-28.5,0.018407769454627854,-4.0625
-28.5,0.006135923151542322,-4.875
-28.5,-0.024543692606170175,0.8125
-28.5,0.018407769454627854,-0.8125
-28.5,-0.030679615757712497,4.875
-28.5,0.04908738521234035,-1.625
-28.5,-0.05522330836388356,6.5
-28.5,0.018407769454627854,5.6875
-28.5,0.030679615757712497,-4.0625
-28.5,-0.012271846303084644,0.0
-28.5,-0.030679615757712497,4.875
-29.0,0.03681553890925482,0.8125
-28.5,-0.024543692606170175,2.4375
-29.0,0.006135923151542322,2.4375
-28.5,0.0,4.0625
-29.0,0.012271846303085532,-0.8125
-28.5,-0.024543692606170175,6.5
-29.0,0.03681553890925482,-4.0625
-29.0,0.018407769454627854,-4.875
-29.0,-0.006135923151542322,-4.0625
-29.0,0.0,-4.0625
-29.0,0.006135923151542322,-5.6875
-29.0,-0.006135923151542322,-2.4375
-29.0,0.0,-4.0625
-29.0,-0.024543692606170175,-0.8125
-29.0,-0.012271846303085532,2.4375
-29.0,0.024543692606170175,-0.8125
-29.0,0.012271846303085532,-4.875
-29.0,-0.024543692606170175,0.8125
-29.0,0.0,2.4375
-29.0,-0.006135923151542322,2.4375
-29.0,0.0,0.8125
-29.0,0.03681553890925482,-4.875
-29.0,-0.024543692606170175,0.0
-29.0,-0.006135923151542322,0.0
-29.0,0.04295146206079803,0.8125
-29.5,0.012271846303084644,-0.8125
-29.5,0.0,1.625
-29.5,0.012271846303085532,0.8125
-29.0,-0.012271846303085532,5.6875
-29.5,0.06135923151542588,-4.875
-29.5,0.0,-4.875
-29.0,-0.04295146206079803,4.0625
-29.5,0.030679615757713385,4.875
-29.5,0.024543692606170175,-1.625
-29.5,0.0,-2.4375
-29.5,0.006135923151542322,0.0
-29.5,-0.012271846303085532,2.4375
-29.5,0.018407769454627854,0.0
-29.5,-0.006135923151542322,2.4375
-29.5,-0.030679615757712497,8.125
-29.5,0.006135923151542322,5.6875
-29.5,0.018407769454627854,0.8125
-29.5,-0.018407769454627854,2.4375
-30.0,0.006135923151542322,7.3125
-30.0,0.024543692606170175,-1.625
-30.0,-0.012271846303084644,-0.8125
-29.5,-0.04295146206079803,4.875
-29.5,0.04908738521234035,-4.0625
-29.5,0.0,-5.6875
-29.5,-0.04908738521234035,4.0625
-29.5,-0.012271846303085532,2.4375
-29.5,0.030679615757713385,-2.4375
-29.5,-0.03681553890925571,2.4375
-29.5,0.006135923151542322,1.625
-29.5,0.006135923151542322,-2.4375
-29.5,-0.04908738521234035,7.3125
-29.5,0.030679615757713385,0.8125
-29.5,-0.024543692606170175,4.875
-29.5,0.03681553890925482,-1.625
-29.5,-0.006135923151542322,-2.4375
-29.5,-0.012271846303085532,0.8125
-29.5,-0.018407769454626965,2.4375
-29.5,0.006135923151542322,1.625
-29.5,0.0,0.8125
-29.5,0.006135923151542322,0.8125
-29.5,-0.006135923151542322,1.625
-29.5,0.012271846303084644,-0.8125
-29.0,-0.012271846303084644,6.5
-29.5,-0.012271846303085532,8.125
-29.5,0.03681553890925571,-1.625
-29.0,0.0,1.625
-29.0,-0.024543692606170175,4.875
-29.0,0.018407769454627854,1.625
-29.0,0.006135923151542322,1.625
-29.0,-0.006135923151542322,4.0625
-29.0,-0.00613592315154321,4.0625
-29.0,-0.024543692606170175,7.3125
-29.5,0.04295146206079803,1.625
-29.0,0.006135923151542322,1.625
-29.0,-0.018407769454626965,4.875
-29.5,0.018407769454626965,4.0625
-29.0,0.00613592315154321,4.0625
-29.0,0.006135923151542322,1.625
-29.0,0.0,1.625
-29.0,-0.024543692606170175,4.0625
-29.5,0.024543692606170175,-0.8125
-29.0,0.006135923151542322,-0.8125
-29.5,-0.030679615757712497,2.4375
-29.0,0.0,4.875
-29.0,0.0,4.0625
-29.0,0.012271846303084644,4.0625
-29.0,0.024543692606171064,-2.4375
-29.0,-0.024543692606171064,1.625
-29.0,-0.006135923151542322,1.625
-29.0,0.0,1.625
-29.0,0.012271846303085532,4.875
-29.5,0.0,1.625
-29.0,-0.00613592315154321,6.5
-29.0,0.00613592315154321,1.625
-29.5,0.006135923151542322,1.625
-29.5,0.012271846303085532,-1.625
-29.0,-0.03681553890925571,7.3125
-29.5,0.018407769454627854,0.8125
-29.0,-0.024543692606170175,8.125
-29.5,0.012271846303084644,5.6875
-29.0,0.0,4.875
-29.5,0.012271846303085532,2.4375
-29.5,0.0,2.4375
-29.5,0.006135923151542322,4.875
-29.5,0.006135923151542322,0.8125
-29.5,0.024543692606170175,-0.8125
-29.5,-0.006135923151542322,-0.8125
-29.5,-0.006135923151542322,0.8125
-29.5,-0.006135923151542322,6.5
-29.5,0.030679615757712497,-2.4375
-29.5,-0.07363107781851053,9.75
-29.5,0.030679615757712497,5.6875
-29.5,0.006135923151542322,2.4375
-29.5,0.0,5.6875
-29.5,0.00613592315154321,2.4375
-29.5,0.030679615757712497,-1.625
-29.5,-0.030679615757712497,4.875
-29.5,0.0,4.0625
-29.5,0.006135923151542322,2.4375
-29.5,-0.006135923151542322,4.0625
-29.5,0.030679615757712497,-4.0625
-29.5,0.0,-1.625
-29.5,-0.018407769454627854,2.4375
-29.5,0.018407769454627854,-1.625
-29.5,0.0,-1.625
-30.0,-0.012271846303085532,-1.625
-29.5,0.012271846303085532,-1.625
-29.5,-0.030679615757712497,4.875
-30.0,0.024543692606170175,0.0
-29.5,-0.012271846303085532,1.625
-30.0,0.018407769454627854,-2.4375
-29.5,-0.030679615757712497,4.875
-29.5,0.018407769454626965,1.625
-30.0,-0.018407769454626965,2.4375
-29.5,0.018407769454626965,1.625
-29.5,-0.006135923151542322,4.0625
-29.5,-0.012271846303084644,6.5
-30.0,0.03681553890925482,-1.625
-29.5,-0.024543692606170175,5.6875
-30.0,0.018407769454627854,-0.8125
-30.0,0.0,0.0
-30.0,0.012271846303084644,-4.0625
-30.0,-0.030679615757712497,4.0625
-30.0,0.030679615757712497,-0.8125
-30.0,0.0,-4.0625
-30.0,0.00613592315154321,-4.0625
-30.0,-0.04295146206079803,4.875
-30.0,0.04295146206079803,-2.4375
-30.0,0.0,-1.625
-30.0,-0.05522330836388356,6.5
-30.0,0.04908738521234035,-0.8125
-30.0,-0.030679615757712497,2.4375
-29.5,0.0,2.4375
-30.0,0.03681553890925571,-1.625
-30.0,-0.03681553890925571,4.875
-30.0,0.030679615757712497,0.8125
-30.0,0.018407769454627854,-2.4375
-30.0,0.012271846303085532,-6.5
-30.0,0.0,-5.6875
-30.0,-0.06135923151542588,5.6875
-30.0,0.024543692606170175,1.625
-30.0,-0.018407769454627854,5.6875
-30.0,0.018407769454627854,4.0625
-30.0,0.012271846303085532,1.625
-30.0,-0.012271846303085532,2.4375
-30.0,0.006135923151542322,1.625
-30.0,0.03681553890925571,-4.0625
-30.0,0.0,-2.4375
-30.0,-0.006135923151542322,1.625
-30.0,-0.018407769454627854,1.625
-30.0,0.006135923151542322,1.625
-30.0,0.04295146206079803,-6.5
-30.0,-0.05522330836388267,5.6875
-30.0,0.030679615757712497,0.8125
-30.0,0.0,2.4375
-30.0,-0.024543692606170175,4.0625
-30.0,0.05522330836388267,-6.5
-30.0,0.0,-4.875
-30.5,-0.030679615757712497,-1.625
-30.0,0.006135923151542322,0.8125
-30.0,0.018407769454627854,-5.6875
-30.0,0.0,-2.4375
-30.5,0.0,-4.0625
-30.0,0.0,-2.4375
-30.0,0.006135923151542322,-2.4375
-30.0,-0.03681553890925482,4.0625
-30.0,0.006135923151542322,0.0
-30.0,0.03681553890925571,-4.0625
