400000000000000000007700,1,1479872161317601,1479872161317601,1,17.0625,12288,-53.0,865.7,6.0807
400000000000000000007700,1,1479872161328107,1479872161328107,1,13.8125,12288,-53.0,865.7,6.1604667
400000000000000000007700,1,1479872161338129,1479872161338129,1,-3.25,12288,-53.0,865.7,6.1604667
400000000000000000007700,1,1479872161348820,1479872161348820,1,6.5,12288,-53.5,865.7,6.1359234
400000000000000000007700,1,1479872161359941,1479872161359941,1,9.75,12288,-53.0,865.7,6.1297874
400000000000000000007700,1,1479872161370004,1479872161370004,1,-8.125,12288,-53.0,865.7,6.1850104
400000000000000000007700,1,1479872161380575,1479872161380575,1,-15.4375,12288,-53.0,865.7,6.1911464
400000000000000000007700,1,1479872161390723,1479872161390723,1,8.125,12288,-53.5,865.7,6.0991077
400000000000000000007700,1,1479872161402598,1479872161402598,1,11.375,12288,-53.0,865.7,6.0991077
400000000000000000007700,1,1479872161412702,1479872161412702,1,0.0,12288,-53.0,865.7,6.148195
400000000000000000007700,1,1479872161423350,1479872161423350,1,-3.25,12288,-53.0,865.7,6.1543307
400000000000000000007700,1,1479872161433567,1479872161433567,1,-31.6875,12288,-53.5,865.7,6.2770495
400000000000000000007700,1,1479872161443847,1479872161443847,1,-15.4375,12288,-53.0,865.7,6.209554
400000000000000000007700,1,1479872161454555,1479872161454555,1,6.5,12288,-53.0,865.7,6.1727386
400000000000000000007700,1,1479872161464685,1479872161464685,1,4.875,12288,-53.5,865.7,6.1297874
400000000000000000007700,1,1479872161475006,1479872161475006,1,-1.625,12288,-53.5,865.7,6.148195
400000000000000000007700,1,1479872161485543,1479872161485543,1,-3.25,12288,-53.5,865.7,6.1359234
400000000000000000007700,1,1479872161495776,1479872161495776,1,-4.875,12288,-53.0,865.7,6.1850104
400000000000000000007700,1,1479872161505667,1479872161505667,1,11.375,12288,-53.5,865.7,6.0991077
400000000000000000007700,1,1479872161516170,1479872161516170,1,-3.25,12288,-53.0,865.7,6.1727386
400000000000000000007700,1,1479872161526120,1479872161526120,1,1.625,12288,-53.5,865.7,6.148195
400000000000000000007700,1,1479872161536323,1479872161536323,1,-8.125,12288,-53.5,865.7,6.1788745
400000000000000000007700,1,1479872161546915,1479872161546915,1,-13.8125,12288,-53.0,865.7,6.21569
400000000000000000007700,1,1479872161558219,1479872161558219,1,8.125,12288,-53.5,865.7,6.1175156
400000000000000000007700,1,1479872161568340,1479872161568340,1,-26.8125,12288,-53.0,865.7,6.1911464
400000000000000000007700,1,1479872161578649,1479872161578649,1,6.5,12288,-53.5,865.7,6.1175156
400000000000000000007700,1,1479872161588555,1479872161588555,1,-9.75,12288,-53.5,865.7,6.1543307
400000000000000000007700,1,1479872161599170,1479872161599170,1,-1.625,12288,-53.5,865.7,6.1727386
400000000000000000007700,1,1479872161609270,1479872161609270,1,0.0,12288,-53.5,865.7,6.1052437
400000000000000000007700,1,1479872161619631,1479872161619631,1,-4.875,12288,-53.0,865.7,6.1543307
400000000000000000007700,1,1479872161631496,1479872161631496,1,-9.75,12288,-53.0,865.7,6.1604667
400000000000000000007700,1,1479872161641963,1479872161641963,1,4.875,12288,-53.5,865.7,6.1175156
400000000000000000007700,1,1479872161651943,1479872161651943,1,4.875,12288,-53.5,865.7,6.1236515
400000000000000000007700,1,1479872161662604,1479872161662604,1,11.375,12288,-53.5,865.7,6.0991077
400000000000000000007700,1,1479872161672918,1479872161672918,1,-8.125,12288,-53.5,865.7,6.148195
400000000000000000007700,1,1479872161682955,1479872161682955,1,3.25,12288,-53.5,865.7,6.1113796
400000000000000000007700,1,1479872161693208,1479872161693208,1,-13.8125,12288,-53.5,865.7,6.1850104
400000000000000000007700,1,1479872161703668,1479872161703668,1,0.0,12288,-54.0,865.7,6.1052437
400000000000000000007700,1,1479872161713921,1479872161713921,1,-11.375,12288,-53.5,865.7,6.1666026
400000000000000000007700,1,1479872161723953,1479872161723953,1,-6.5,12288,-53.5,865.7,6.1604667
400000000000000000007700,1,1479872161735874,1479872161735874,1,-1.625,12288,-53.0,865.7,6.086836
400000000000000000007700,1,1479872161745804,1479872161745804,1,-13.8125,12288,-53.5,865.7,6.1543307
400000000000000000007700,1,1479872161755963,1479872161755963,1,-42.3125,12288,-53.5,865.7,0.01840777
400000000000000000007700,1,1479872161766317,1479872161766317,1,-3.25,12288,-53.5,865.7,6.142059
400000000000000000007700,1,1479872161776974,1479872161776974,1,20.3125,12288,-53.5,865.7,6.062292
400000000000000000007700,1,1479872161787320,1479872161787320,1,-6.5,12288,-53.0,865.7,6.142059
400000000000000000007700,1,1479872161797352,1479872161797352,1,-8.125,12288,-53.5,865.7,6.148195
400000000000000000007700,1,1479872161807542,1479872161807542,1,-13.0,12288,-54.0,865.7,6.1666026
400000000000000000007700,1,1479872161818152,1479872161818152,1,30.0625,12288,-53.5,865.7,6.0254765
400000000000000000007700,1,1479872161828182,1479872161828182,1,9.75,12288,-53.5,865.7,6.086836
400000000000000000007700,1,1479872161838488,1479872161838488,1,26.8125,12288,-53.5,865.7,6.068428
400000000000000000007700,1,1479872161849033,1479872161849033,1,18.6875,12288,-53.5,865.7,6.0438843
400000000000000000007700,1,1479872161859321,1479872161859321,1,-13.8125,12288,-53.5,865.7,6.1543307
400000000000000000007700,1,1479872161869711,1479872161869711,1,-26.8125,12288,-53.5,865.7,6.2034183
400000000000000000007700,1,1479872161879755,1479872161879755,1,1.625,12288,-54.0,865.7,6.1359234
400000000000000000007700,1,1479872161890218,1479872161890218,1,-3.25,12288,-53.5,865.7,6.1297874
400000000000000000007700,1,1479872161900650,1479872161900650,1,9.75,12288,-53.5,865.7,6.1297874
400000000000000000007700,1,1479872161911157,1479872161911157,1,21.9375,12288,-53.5,865.7,6.056156
400000000000000000007700,1,1479872161922554,1479872161922554,1,-13.8125,12288,-53.5,865.7,6.221826
400000000000000000007700,1,1479872161932970,1479872161932970,1,-1.625,12288,-53.5,865.7,6.1359234
400000000000000000007700,1,1479872161943230,1479872161943230,1,11.375,12288,-53.5,865.7,6.1052437
400000000000000000007700,1,1479872161953705,1479872161953705,1,-9.75,12288,-53.5,865.7,6.1788745
400000000000000000007700,1,1479872161964140,1479872161964140,1,-3.25,12288,-53.5,865.7,6.1604667
400000000000000000007700,1,1479872161976951,1479872161976951,1,18.6875,12288,-53.5,865.7,6.062292
400000000000000000007700,1,1479872161987497,1479872161987497,1,13.8125,12288,-53.5,865.7,6.1175156
400000000000000000007700,1,1479872161999189,1479872161999189,1,20.3125,12288,-54.0,865.7,6.0807
400000000000000000007700,1,1479872162009720,1479872162009720,1,-8.125,12288,-54.0,865.7,6.1788745
400000000000000000007700,1,1479872162020121,1479872162020121,1,21.9375,12288,-53.5,865.7,6.0807
400000000000000000007700,1,1479872162030384,1479872162030384,1,-15.4375,12288,-53.5,865.7,6.1911464
400000000000000000007700,1,1479872162040653,1479872162040653,1,25.1875,12288,-53.5,865.7,6.0193405
400000000000000000007700,1,1479872162050801,1479872162050801,1,-1.625,12288,-53.5,865.7,6.1543307
400000000000000000007700,1,1479872162061240,1479872162061240,1,20.3125,12288,-53.5,865.7,6.092972
400000000000000000007700,1,1479872162071519,1479872162071519,1,0.0,12288,-53.5,865.7,6.1666026
400000000000000000007700,1,1479872162081797,1479872162081797,1,-3.25,12288,-53.5,865.7,6.1297874
400000000000000000007700,1,1479872162092085,1479872162092085,1,3.25,12288,-54.0,865.7,6.1236515
400000000000000000007700,1,1479872162103635,1479872162103635,1,0.0,12288,-54.0,865.7,6.1175156
400000000000000000007700,1,1479872162113658,1479872162113658,1,0.0,12288,-53.5,865.7,6.142059
400000000000000000007700,1,1479872162124294,1479872162124294,1,23.5625,12288,-54.0,865.7,6.056156
400000000000000000007700,1,1479872162134489,1479872162134489,1,1.625,12288,-54.0,865.7,6.1727386
400000000000000000007700,1,1479872162144838,1479872162144838,1,-4.875,12288,-53.5,865.7,6.1727386
400000000000000000007700,1,1479872162154828,1479872162154828,1,13.0,12288,-53.5,865.7,6.1359234
400000000000000000007700,1,1479872162166613,1479872162166613,1,1.625,12288,-54.0,865.7,6.1236515
400000000000000000007700,1,1479872162176868,1479872162176868,1,4.875,12288,-53.5,865.7,6.1359234
400000000000000000007700,1,1479872162188642,1479872162188642,1,13.0,12288,-54.0,865.7,6.1297874
400000000000000000007700,1,1479872162199191,1479872162199191,1,4.875,12288,-54.0,865.7,6.1236515
400000000000000000007700,1,1479872162210555,1479872162210555,1,25.1875,12288,-53.5,865.7,6.0316124
400000000000000000007700,1,1479872162220469,1479872162220469,1,1.625,12288,-53.5,865.7,6.1297874
400000000000000000007700,1,1479872162230817,1479872162230817,1,-1.625,12288,-53.5,865.7,6.1543307
400000000000000000007700,1,1479872162241226,1479872162241226,1,-8.125,12288,-53.5,865.7,6.1666026
400000000000000000007700,1,1479872162251559,1479872162251559,1,13.8125,12288,-54.0,865.7,6.056156
400000000000000000007700,1,1479872162261934,1479872162261934,1,13.8125,12288,-54.5,865.7,6.0254765
400000000000000000007700,1,1479872162272395,1479872162272395,1,-4.875,12288,-54.0,865.7,6.1236515
400000000000000000007700,1,1479872162282917,1479872162282917,1,-3.25,12288,-54.5,865.7,6.05002
400000000000000000007700,1,1479872162293024,1479872162293024,1,-8.125,12288,-55.0,865.7,6.0316124
400000000000000000007700,1,1479872162303244,1479872162303244,1,33.3125,12288,-54.5,865.7,5.9457097
400000000000000000007700,1,1479872162313826,1479872162313826,1,-1.625,12288,-54.5,865.7,6.068428
400000000000000000007700,1,1479872162325679,1479872162325679,1,13.8125,12288,-55.0,865.7,5.988661
400000000000000000007700,1,1479872162335875,1479872162335875,1,21.9375,12288,-54.5,865.7,5.933438
400000000000000000007700,1,1479872162345854,1479872162345854,1,-28.4375,12288,-55.0,865.7,6.1236515
400000000000000000007700,1,1479872162356012,1479872162356012,1,13.0,12288,-54.5,865.7,6.0070686
400000000000000000007700,1,1479872162366457,1479872162366457,1,18.6875,12288,-55.0,865.7,5.9641175
400000000000000000007700,1,1479872162376370,1479872162376370,1,-1.625,12288,-55.0,865.7,6.0438843
400000000000000000007700,1,1479872162386646,1479872162386646,1,23.5625,12288,-55.0,865.7,5.939574
400000000000000000007700,1,1479872162397195,1479872162397195,1,9.75,12288,-55.0,865.7,5.9641175
400000000000000000007700,1,1479872162407439,1479872162407439,1,13.0,12288,-55.0,865.7,5.9947968
400000000000000000007700,1,1479872162417387,1479872162417387,1,15.4375,12288,-55.0,865.7,6.0009327
400000000000000000007700,1,1479872162429272,1479872162429272,1,-11.375,12288,-55.0,865.7,6.0438843
400000000000000000007700,1,1479872162439513,1479872162439513,1,1.625,12288,-55.0,865.7,6.0316124
400000000000000000007700,1,1479872162449930,1479872162449930,1,8.125,12288,-55.0,865.7,6.0070686
400000000000000000007700,1,1479872162460182,1479872162460182,1,15.4375,12288,-55.5,865.7,5.9947968
400000000000000000007700,1,1479872162470315,1479872162470315,1,4.875,12288,-55.5,865.7,6.0438843
400000000000000000007700,1,1479872162481023,1479872162481023,1,31.6875,12288,-55.5,865.7,5.970253
400000000000000000007700,1,1479872162490942,1479872162490942,1,6.5,12288,-55.0,865.7,5.982525
400000000000000000007700,1,1479872162501494,1479872162501494,1,-6.5,12288,-55.0,865.7,6.0316124
400000000000000000007700,1,1479872162511744,1479872162511744,1,8.125,12288,-55.5,865.7,6.0009327
400000000000000000007700,1,1479872162522824,1479872162522824,1,56.9375,12288,-55.5,865.7,6.068428
400000000000000000007700,1,1479872162532905,1479872162532905,1,15.4375,12288,-55.5,865.7,5.9579816
400000000000000000007700,1,1479872162543068,1479872162543068,1,-3.25,12288,-55.0,865.7,6.074564
400000000000000000007700,1,1479872162553406,1479872162553406,1,28.4375,12288,-55.0,865.7,5.9518456
400000000000000000007700,1,1479872162563810,1479872162563810,1,21.9375,12288,-55.0,865.7,5.933438
400000000000000000007700,1,1479872162575455,1479872162575455,1,43.9375,12288,-55.0,865.7,5.7861757
400000000000000000007700,1,1479872162585465,1479872162585465,1,-80.5625,12288,-55.5,865.7,6.240234
400000000000000000007700,1,1479872162595746,1479872162595746,1,11.375,12288,-56.0,865.7,5.939574
400000000000000000007700,1,1479872162606278,1479872162606278,1,13.8125,12288,-56.0,865.7,5.896622
400000000000000000007700,1,1479872162616594,1479872162616594,1,-43.9375,12288,-55.0,865.7,6.05002
400000000000000000007700,1,1479872162626870,1479872162626870,1,-6.5,12288,-56.0,865.7,5.939574
400000000000000000007700,1,1479872162638355,1479872162638355,1,-3.25,12288,-56.5,865.7,5.927302
400000000000000000007700,1,1479872162648737,1479872162648737,1,43.9375,12288,-57.0,865.7,5.7064085
400000000000000000007700,1,1479872162658957,1479872162658957,1,21.9375,12288,-56.0,865.7,5.767768
400000000000000000007700,1,1479872162671257,1479872162671257,1,1.625,12288,-56.5,865.7,5.8598065
400000000000000000007700,1,1479872162681260,1479872162681260,1,18.6875,12288,-57.0,865.7,5.7923117
400000000000000000007700,1,1479872162691826,1479872162691826,1,23.5625,12288,-57.0,865.7,5.773904
400000000000000000007700,1,1479872162701880,1479872162701880,1,38.1875,12288,-56.5,865.7,5.6818647
400000000000000000007700,1,1479872162712103,1479872162712103,1,28.4375,12288,-57.0,865.7,5.7064085
400000000000000000007700,1,1479872162722519,1479872162722519,1,-8.125,12288,-56.5,865.7,5.829127
400000000000000000007700,1,1479872162732719,1479872162732719,1,-1.625,12288,-56.5,865.7,5.7923117
400000000000000000007700,1,1479872162743024,1479872162743024,1,-13.0,12288,-57.5,865.7,5.810719
400000000000000000007700,1,1479872162753420,1479872162753420,1,20.3125,12288,-56.5,865.7,5.737088
400000000000000000007700,1,1479872162763386,1479872162763386,1,-13.8125,12288,-57.0,865.7,5.822991
400000000000000000007700,1,1479872162773743,1479872162773743,1,-13.0,12288,-56.5,865.7,5.8536706
400000000000000000007700,1,1479872162784219,1479872162784219,1,20.3125,12288,-56.5,865.7,5.767768
400000000000000000007700,1,1479872162794397,1479872162794397,1,34.9375,12288,-56.5,865.7,5.6818647
400000000000000000007700,1,1479872162804715,1479872162804715,1,3.25,12288,-57.0,865.7,5.835263
400000000000000000007700,1,1479872162815109,1479872162815109,1,-8.125,12288,-57.0,865.7,5.829127
400000000000000000007700,1,1479872162826692,1479872162826692,1,30.0625,12288,-56.5,865.7,5.7064085
400000000000000000007700,1,1479872162837154,1479872162837154,1,13.0,12288,-57.0,865.7,5.810719
400000000000000000007700,1,1479872162847359,1479872162847359,1,-1.625,12288,-56.5,865.7,5.804583
400000000000000000007700,1,1479872162857627,1479872162857627,1,11.375,12288,-56.5,865.7,5.7923117
400000000000000000007700,1,1479872162867856,1479872162867856,1,-30.0625,12288,-57.0,865.7,5.908894
400000000000000000007700,1,1479872162878472,1479872162878472,1,-13.0,12288,-57.0,865.7,5.804583
400000000000000000007700,1,1479872162888586,1479872162888586,1,9.75,12288,-56.5,865.7,5.7984476
400000000000000000007700,1,1479872162900680,1479872162900680,1,17.0625,12288,-56.5,865.7,5.755496
400000000000000000007700,1,1479872162910861,1479872162910861,1,-15.4375,12288,-56.5,865.7,5.8413987
400000000000000000007700,1,1479872162921158,1479872162921158,1,23.5625,12288,-56.5,865.7,5.773904
400000000000000000007700,1,1479872162931079,1479872162931079,1,30.0625,12288,-56.5,865.7,5.7248163
400000000000000000007700,1,1479872162941624,1479872162941624,1,13.8125,12288,-56.0,865.7,5.804583
400000000000000000007700,1,1479872162951756,1479872162951756,1,6.5,12288,-56.0,865.7,5.7923117
400000000000000000007700,1,1479872162962059,1479872162962059,1,-13.0,12288,-55.5,865.7,5.829127
400000000000000000007700,1,1479872162972385,1479872162972385,1,17.0625,12288,-55.5,865.7,5.7923117
400000000000000000007700,1,1479872162982698,1479872162982698,1,-1.625,12288,-55.5,865.7,5.8413987
400000000000000000007700,1,1479872162993023,1479872162993023,1,-4.875,12288,-55.5,865.7,5.829127
400000000000000000007700,1,1479872163003627,1479872163003627,1,4.875,12288,-55.0,865.7,5.804583
400000000000000000007700,1,1479872163013932,1479872163013932,1,4.875,12288,-55.0,865.7,5.7861757
400000000000000000007700,1,1479872163025803,1479872163025803,1,34.9375,12288,-55.0,865.7,5.6941366
400000000000000000007700,1,1479872163037296,1479872163037296,1,23.5625,12288,-55.0,865.7,5.7064085
400000000000000000007700,1,1479872163048442,1479872163048442,1,15.4375,12288,-54.5,865.7,5.773904
400000000000000000007700,1,1479872163058772,1479872163058772,1,28.4375,12288,-54.5,865.7,5.761632
400000000000000000007700,1,1479872163069180,1479872163069180,1,34.9375,12288,-55.0,865.7,5.7064085
400000000000000000007700,1,1479872163079542,1479872163079542,1,-1.625,12288,-54.5,865.7,5.835263
400000000000000000007700,1,1479872163089596,1479872163089596,1,42.3125,12288,-55.0,865.7,5.663457
400000000000000000007700,1,1479872163101225,1479872163101225,1,25.1875,12288,-54.5,865.7,5.737088
400000000000000000007700,1,1479872163111941,1479872163111941,1,17.0625,12288,-54.5,865.7,5.761632
400000000000000000007700,1,1479872163122184,1479872163122184,1,15.4375,12288,-54.5,865.7,5.755496
400000000000000000007700,1,1479872163132444,1479872163132444,1,-13.8125,12288,-54.0,865.7,5.896622
400000000000000000007700,1,1479872163142834,1479872163142834,1,-8.125,12288,-54.0,865.7,5.8720784
400000000000000000007700,1,1479872163153295,1479872163153295,1,17.0625,12288,-53.5,865.7,5.7861757
400000000000000000007700,1,1479872163163545,1479872163163545,1,-9.75,12288,-53.5,865.7,5.8843503
400000000000000000007700,1,1479872163173522,1479872163173522,1,-13.8125,12288,-53.5,865.7,5.8720784
400000000000000000007700,1,1479872163183840,1479872163183840,1,18.6875,12288,-53.0,865.7,5.7984476
400000000000000000007700,1,1479872163194416,1479872163194416,1,11.375,12288,-53.0,865.7,5.8598065
400000000000000000007700,1,1479872163204425,1479872163204425,1,1.625,12288,-53.0,865.7,5.8720784
400000000000000000007700,1,1479872163215020,1479872163215020,1,6.5,12288,-53.0,865.7,5.8536706
400000000000000000007700,1,1479872163225313,1479872163225313,1,-23.5625,12288,-52.5,865.7,5.976389
400000000000000000007700,1,1479872163235568,1479872163235568,1,-13.8125,12288,-52.5,865.7,5.970253
400000000000000000007700,1,1479872163245528,1479872163245528,1,-13.0,12288,-52.5,865.7,5.91503
400000000000000000007700,1,1479872163255814,1479872163255814,1,21.9375,12288,-52.5,865.7,5.816855
400000000000000000007700,1,1479872163267424,1479872163267424,1,0.0,12288,-52.5,865.7,5.939574
400000000000000000007700,1,1479872163277485,1479872163277485,1,-13.0,12288,-52.5,865.7,5.9518456
400000000000000000007700,1,1479872163287833,1479872163287833,1,17.0625,12288,-52.5,865.7,5.8843503
400000000000000000007700,1,1479872163298405,1479872163298405,1,6.5,12288,-52.0,865.7,5.91503
400000000000000000007700,1,1479872163308394,1479872163308394,1,6.5,12288,-52.5,865.7,5.896622
400000000000000000007700,1,1479872163319000,1479872163319000,1,-4.875,12288,-52.5,865.7,5.908894
400000000000000000007700,1,1479872163329382,1479872163329382,1,20.3125,12288,-52.0,865.7,5.8598065
400000000000000000007700,1,1479872163340910,1479872163340910,1,13.8125,12288,-52.5,865.7,5.921166
400000000000000000007700,1,1479872163351509,1479872163351509,1,8.125,12288,-52.5,865.7,5.8904862
400000000000000000007700,1,1479872163362602,1479872163362602,1,-1.625,12288,-51.5,865.7,5.9641175
400000000000000000007700,1,1479872163373093,1479872163373093,1,8.125,12288,-51.5,865.7,5.9518456
400000000000000000007700,1,1479872163384164,1479872163384164,1,6.5,12288,-51.5,865.7,5.970253
400000000000000000007700,1,1479872163394520,1479872163394520,1,0.0,12288,-51.0,865.7,6.0070686
400000000000000000007700,1,1479872163404911,1479872163404911,1,-13.0,12288,-50.5,865.7,6.0807
400000000000000000007700,1,1479872163414932,1479872163414932,1,9.75,12288,-50.5,865.7,6.0070686
400000000000000000007700,1,1479872163426580,1479872163426580,1,9.75,12288,-50.5,865.7,6.0316124
400000000000000000007700,1,1479872163436972,1479872163436972,1,26.8125,12288,-50.5,865.7,6.0009327
400000000000000000007700,1,1479872163447069,1479872163447069,1,13.8125,12288,-50.5,865.7,6.0377483
400000000000000000007700,1,1479872163457752,1479872163457752,1,-3.25,12288,-50.0,865.7,6.0377483
400000000000000000007700,1,1479872163469462,1479872163469462,1,1.625,12288,-50.5,865.7,6.0377483
400000000000000000007700,1,1479872163479928,1479872163479928,1,11.375,12288,-50.5,865.7,6.05002
400000000000000000007700,1,1479872163490242,1479872163490242,1,-6.5,12288,-50.5,865.7,6.086836
400000000000000000007700,1,1479872163500426,1479872163500426,1,-1.625,12288,-50.5,865.7,6.068428
400000000000000000007700,1,1479872163510649,1479872163510649,1,26.8125,12288,-50.5,865.7,5.9947968
400000000000000000007700,1,1479872163520936,1479872163520936,1,9.75,12288,-50.0,865.7,6.0991077
400000000000000000007700,1,1479872163532760,1479872163532760,1,8.125,12288,-50.0,865.7,6.074564
400000000000000000007700,1,1479872163543807,1479872163543807,1,11.375,12288,-50.0,865.7,6.1236515
400000000000000000007700,1,1479872163554227,1479872163554227,1,-4.875,12288,-49.5,865.7,6.1543307
400000000000000000007700,1,1479872163564787,1479872163564787,1,3.25,12288,-49.5,865.7,6.148195
400000000000000000007700,1,1479872163576304,1479872163576304,1,6.5,12288,-49.5,865.7,6.1788745
400000000000000000007700,1,1479872163586834,1479872163586834,1,-6.5,12288,-49.0,865.7,6.221826
400000000000000000007700,1,1479872163598580,1479872163598580,1,13.0,12288,-49.5,865.7,6.1543307
400000000000000000007700,1,1479872163608595,1479872163608595,1,-39.875,12288,-49.5,865.7,0.09203885
400000000000000000007700,1,1479872163619073,1479872163619073,1,13.0,12288,-49.5,865.7,6.1911464
400000000000000000007700,1,1479872163629120,1479872163629120,1,13.8125,12288,-49.5,865.7,6.1788745
400000000000000000007700,1,1479872163641261,1479872163641261,1,-4.875,12288,-49.5,865.7,6.24637
400000000000000000007700,1,1479872163651449,1479872163651449,1,1.625,12288,-49.0,865.7,6.209554
400000000000000000007700,1,1479872163661574,1479872163661574,1,18.6875,12288,-49.5,865.7,6.1972823
400000000000000000007700,1,1479872163672157,1479872163672157,1,4.875,12288,-50.0,865.7,6.2770495
400000000000000000007700,1,1479872163682147,1479872163682147,1,25.1875,12288,-50.0,865.7,6.2647777
400000000000000000007700,1,1479872163692566,1479872163692566,1,3.25,12288,-49.5,865.7,0.049087387
400000000000000000007700,1,1479872163703617,1479872163703617,1,-18.6875,12288,-49.5,865.7,0.17794177
400000000000000000007700,1,1479872163713787,1479872163713787,1,-6.5,12288,-49.5,865.7,0.159534
400000000000000000007700,1,1479872163724381,1479872163724381,1,6.5,12288,-49.5,865.7,0.14112623
400000000000000000007700,1,1479872163734711,1479872163734711,1,-1.625,12288,-49.0,865.7,0.16566992
400000000000000000007700,1,1479872163744751,1479872163744751,1,17.0625,12288,-49.0,865.7,0.11658254
400000000000000000007700,1,1479872163754967,1479872163754967,1,13.0,12288,-49.0,865.7,0.12885438
400000000000000000007700,1,1479872163766862,1479872163766862,1,9.75,12288,-48.5,865.7,0.17180584
400000000000000000007700,1,1479872163778400,1479872163778400,1,4.875,12288,-48.5,865.7,0.22089323
400000000000000000007700,1,1479872163788318,1479872163788318,1,-1.625,12288,-48.5,865.7,0.20862138
400000000000000000007700,1,1479872163801234,1479872163801234,1,3.25,12288,-48.0,865.7,0.1840777
400000000000000000007700,1,1479872163811414,1479872163811414,1,8.125,12288,-48.0,865.7,0.17794177
400000000000000000007700,1,1479872163821949,1479872163821949,1,8.125,12288,-48.0,865.7,0.19021362
400000000000000000007700,1,1479872163831921,1479872163831921,1,4.875,12288,-48.5,865.7,0.20862138
400000000000000000007700,1,1479872163843464,1479872163843464,1,6.5,12288,-48.0,865.7,0.19021362
400000000000000000007700,1,1479872163853551,1479872163853551,1,-1.625,12288,-47.5,865.7,0.239301
400000000000000000007700,1,1479872163863900,1479872163863900,1,20.3125,12288,-47.5,865.7,0.14726216
400000000000000000007700,1,1479872163874474,1479872163874474,1,6.5,12288,-47.5,865.7,0.20862138
400000000000000000007700,1,1479872163884634,1479872163884634,1,-6.5,12288,-47.0,865.7,0.239301
400000000000000000007700,1,1479872163895310,1479872163895310,1,8.125,12288,-47.0,865.7,0.19634955
400000000000000000007700,1,1479872163905316,1479872163905316,1,3.25,12288,-46.5,865.7,0.239301
400000000000000000007700,1,1479872163915558,1479872163915558,1,1.625,12288,-46.0,865.7,0.23316509
400000000000000000007700,1,1479872163926915,1479872163926915,1,-9.75,12288,-46.0,865.7,0.2699806
400000000000000000007700,1,1479872163937478,1479872163937478,1,8.125,12288,-46.0,865.7,0.21475731
400000000000000000007700,1,1479872163947783,1479872163947783,1,4.875,12288,-46.0,865.7,0.239301
400000000000000000007700,1,1479872163957817,1479872163957817,1,-1.625,12288,-46.0,865.7,0.239301
400000000000000000007700,1,1479872163967915,1479872163967915,1,6.5,12288,-46.0,865.7,0.23316509
400000000000000000007700,1,1479872163978441,1479872163978441,1,1.625,12288,-45.5,865.7,0.25770876
400000000000000000007700,1,1479872163988529,1479872163988529,1,-6.5,12288,-45.5,865.7,0.27611655
400000000000000000007700,1,1479872164000359,1479872164000359,1,3.25,12288,-46.0,865.7,0.2699806
400000000000000000007700,1,1479872164010536,1479872164010536,1,9.75,12288,-46.0,865.7,0.22089323
400000000000000000007700,1,1479872164021005,1479872164021005,1,-1.625,12288,-45.5,865.7,0.25770876
400000000000000000007700,1,1479872164031366,1479872164031366,1,9.75,12288,-45.5,865.7,0.239301
400000000000000000007700,1,1479872164041691,1479872164041691,1,-6.5,12288,-44.5,865.7,0.34974763
400000000000000000007700,1,1479872164052005,1479872164052005,1,8.125,12288,-44.0,865.7,0.35588354
400000000000000000007700,1,1479872164062679,1479872164062679,1,3.25,12288,-43.5,865.7,0.41724277
400000000000000000007700,1,1479872164073072,1479872164073072,1,3.25,12288,-43.0,865.7,0.5031457
400000000000000000007700,1,1479872164083163,1479872164083163,1,0.0,12288,-42.5,865.7,0.54609716
400000000000000000007700,1,1479872164093434,1479872164093434,1,0.0,12288,-42.5,865.7,0.59518456
400000000000000000007700,1,1479872164103854,1479872164103854,1,6.5,12288,-42.5,865.7,0.61972827
400000000000000000007700,1,1479872164113972,1479872164113972,1,9.75,12288,-43.0,865.7,0.6442719
400000000000000000007700,1,1479872164124319,1479872164124319,1,4.875,12288,-43.0,865.7,0.6688156
400000000000000000007700,1,1479872164134622,1479872164134622,1,-4.875,12288,-42.5,865.7,0.73017484
400000000000000000007700,1,1479872164144974,1479872164144974,1,-6.5,12288,-43.0,865.7,0.7424467
400000000000000000007700,1,1479872164159476,1479872164159476,1,-3.25,12288,-43.0,865.7,0.7363108
400000000000000000007700,1,1479872164169792,1479872164169792,1,1.625,12288,-43.0,865.7,0.7363108
400000000000000000007700,1,1479872164182812,1479872164182812,1,-3.25,12288,-43.0,865.7,0.7485826
400000000000000000007700,1,1479872164193149,1479872164193149,1,-3.25,12288,-43.0,865.7,0.7424467
400000000000000000007700,1,1479872164203249,1479872164203249,1,0.0,12288,-43.0,865.7,0.73017484
400000000000000000007700,1,1479872164214574,1479872164214574,1,0.0,12288,-43.0,865.7,0.73017484
400000000000000000007700,1,1479872164224725,1479872164224725,1,-3.25,12288,-43.0,865.7,0.7363108
400000000000000000007700,1,1479872164234858,1479872164234858,1,0.0,12288,-43.0,865.7,0.7485826
400000000000000000007700,1,1479872164245061,1479872164245061,1,3.25,12288,-43.0,865.7,0.7424467
400000000000000000007700,1,1479872164255580,1479872164255580,1,-11.375,12288,-43.0,865.7,0.7608545
400000000000000000007700,1,1479872164265876,1479872164265876,1,-4.875,12288,-43.0,865.7,0.75471854
400000000000000000007700,1,1479872164276196,1479872164276196,1,1.625,12288,-43.0,865.7,0.7485826
400000000000000000007700,1,1479872164287835,1479872164287835,1,0.0,12288,-42.5,865.7,0.7485826
400000000000000000007700,1,1479872164299512,1479872164299512,1,3.25,12288,-43.0,865.7,0.7485826
400000000000000000007700,1,1479872164310131,1479872164310131,1,0.0,12288,-43.0,865.7,0.79767
400000000000000000007700,1,1479872164320296,1479872164320296,1,1.625,12288,-43.0,865.7,0.8406215
400000000000000000007700,1,1479872164330509,1479872164330509,1,1.625,12288,-43.0,865.7,0.8528933
400000000000000000007700,1,1479872164340814,1479872164340814,1,1.625,12288,-43.0,865.7,0.88357294
400000000000000000007700,1,1479872164351147,1479872164351147,1,-3.25,12288,-42.5,865.7,0.9633399
400000000000000000007700,1,1479872164361552,1479872164361552,1,4.875,12288,-42.5,865.7,0.96947587
400000000000000000007700,1,1479872164371868,1479872164371868,1,0.0,12288,-42.5,865.7,0.99401957
400000000000000000007700,1,1479872164382388,1479872164382388,1,9.75,12288,-42.5,865.7,1.0062914
400000000000000000007700,1,1479872164392616,1479872164392616,1,1.625,12288,-42.5,865.7,1.0492429
400000000000000000007700,1,1479872164403171,1479872164403171,1,4.875,12288,-42.5,865.7,1.0492429
400000000000000000007700,1,1479872164413304,1479872164413304,1,6.5,12288,-42.5,865.7,1.0553788
400000000000000000007700,1,1479872164423886,1479872164423886,1,1.625,12288,-42.5,865.7,1.0860584
400000000000000000007700,1,1479872164433806,1479872164433806,1,3.25,12288,-42.5,865.7,1.0799224
400000000000000000007700,1,1479872164444378,1479872164444378,1,0.0,12288,-42.5,865.7,1.0799224
400000000000000000007700,1,1479872164454401,1479872164454401,1,-1.625,12288,-43.0,865.7,1.0860584
400000000000000000007700,1,1479872164464895,1479872164464895,1,8.125,12288,-43.0,865.7,1.0615147
400000000000000000007700,1,1479872164475219,1479872164475219,1,4.875,12288,-43.0,865.7,1.1658254
400000000000000000007700,1,1479872164485451,1479872164485451,1,0.0,12288,-43.5,865.7,1.1903691
400000000000000000007700,1,1479872164497237,1479872164497237,1,6.5,12288,-43.5,865.7,1.1903691
400000000000000000007700,1,1479872164507644,1479872164507644,1,-3.25,12288,-43.5,865.7,1.2333206
400000000000000000007700,1,1479872164517902,1479872164517902,1,-11.375,12288,-43.5,865.7,1.2578642
400000000000000000007700,1,1479872164527925,1479872164527925,1,6.5,12288,-44.5,865.7,1.2333206
400000000000000000007700,1,1479872164538013,1479872164538013,1,1.625,12288,-44.5,865.7,1.2640002
400000000000000000007700,1,1479872164548309,1479872164548309,1,-1.625,12288,-44.5,865.7,1.2824079
400000000000000000007700,1,1479872164558777,1479872164558777,1,1.625,12288,-44.5,865.7,1.2701361
400000000000000000007700,1,1479872164568820,1479872164568820,1,11.375,12288,-44.5,865.7,1.2271847
400000000000000000007700,1,1479872164579090,1479872164579090,1,8.125,12288,-45.5,865.7,1.276272
400000000000000000007700,1,1479872164589474,1479872164589474,1,8.125,12288,-45.5,865.7,1.3069516
400000000000000000007700,1,1479872164601439,1479872164601439,1,3.25,12288,-45.5,865.7,1.2946798
400000000000000000007700,1,1479872164611554,1479872164611554,1,-3.25,12288,-45.5,865.7,1.3314953
400000000000000000007700,1,1479872164621990,1479872164621990,1,9.75,12288,-45.5,865.7,1.3069516
400000000000000000007700,1,1479872164633984,1479872164633984,1,15.4375,12288,-46.0,865.7,1.2885438
400000000000000000007700,1,1479872164644236,1479872164644236,1,3.25,12288,-47.0,865.7,1.3928546
400000000000000000007700,1,1479872164654204,1479872164654204,1,-4.875,12288,-47.0,865.7,1.4235342
400000000000000000007700,1,1479872164666214,1479872164666214,1,8.125,12288,-47.0,865.7,1.3683108
400000000000000000007700,1,1479872164676493,1479872164676493,1,17.0625,12288,-47.0,865.7,1.3192235
400000000000000000007700,1,1479872164690634,1479872164690634,1,0.0,12288,-47.0,865.7,1.3499031
400000000000000000007700,1,1479872164700947,1479872164700947,1,-1.625,12288,-46.5,865.7,1.3744467
400000000000000000007700,1,1479872164711322,1479872164711322,1,4.875,12288,-47.5,865.7,1.3253593
400000000000000000007700,1,1479872164721545,1479872164721545,1,3.25,12288,-48.0,865.7,1.3683108
400000000000000000007700,1,1479872164733360,1479872164733360,1,4.875,12288,-48.0,865.7,1.3376312
400000000000000000007700,1,1479872164743311,1479872164743311,1,15.4375,12288,-47.5,865.7,1.2701361
400000000000000000007700,1,1479872164755335,1479872164755335,1,1.625,12288,-47.5,865.7,1.2946798
400000000000000000007700,1,1479872164765329,1479872164765329,1,3.25,12288,-49.0,865.7,1.3008157
400000000000000000007700,1,1479872164775694,1479872164775694,1,-9.75,12288,-49.0,865.7,1.3314953
400000000000000000007700,1,1479872164786259,1479872164786259,1,3.25,12288,-48.5,865.7,1.2271847
400000000000000000007700,1,1479872164796367,1479872164796367,1,3.25,12288,-48.0,865.7,1.1719613
400000000000000000007700,1,1479872164809658,1479872164809658,1,17.0625,12288,-49.0,865.7,1.0737865
400000000000000000007700,1,1479872164821702,1479872164821702,1,-4.875,12288,-49.5,865.7,1.1228739
400000000000000000007700,1,1479872164831674,1479872164831674,1,4.875,12288,-49.0,865.7,1.0492429
400000000000000000007700,1,1479872164842097,1479872164842097,1,-3.25,12288,-49.0,865.7,1.0185633
400000000000000000007700,1,1479872164852742,1479872164852742,1,11.375,12288,-48.5,865.7,0.9387962
400000000000000000007700,1,1479872164862750,1479872164862750,1,11.375,12288,-49.0,865.7,0.7485826
400000000000000000007700,1,1479872164873255,1479872164873255,1,-4.875,12288,-49.0,865.7,0.73017484
400000000000000000007700,1,1479872164883648,1479872164883648,1,13.8125,12288,-49.0,865.7,0.6320001
400000000000000000007700,1,1479872164895198,1479872164895198,1,13.8125,12288,-48.5,865.7,0.61972827
400000000000000000007700,1,1479872164905421,1479872164905421,1,6.5,12288,-48.5,865.7,0.61972827
400000000000000000007700,1,1479872164916112,1479872164916112,1,9.75,12288,-48.5,865.7,0.53382534
400000000000000000007700,1,1479872164926312,1479872164926312,1,18.6875,12288,-48.0,865.7,0.478602
400000000000000000007700,1,1479872164936337,1479872164936337,1,11.375,12288,-48.0,865.7,0.478602
400000000000000000007700,1,1479872164946586,1479872164946586,1,13.8125,12288,-48.0,865.7,0.42951462
400000000000000000007700,1,1479872164957169,1479872164957169,1,9.75,12288,-48.0,865.7,0.45405832
400000000000000000007700,1,1479872164967281,1479872164967281,1,-6.5,12288,-47.5,865.7,0.5031457
400000000000000000007700,1,1479872164977642,1479872164977642,1,-3.25,12288,-47.5,865.7,0.47246608
400000000000000000007700,1,1479872164987696,1479872164987696,1,3.25,12288,-47.0,865.7,0.31293207
400000000000000000007700,1,1479872164997948,1479872164997948,1,6.5,12288,-47.0,865.7,0.2945243
400000000000000000007700,1,1479872165008341,1479872165008341,1,1.625,12288,-47.0,865.7,0.30679616
400000000000000000007700,1,1479872165020362,1479872165020362,1,1.625,12288,-46.5,865.7,0.31293207
400000000000000000007700,1,1479872165030578,1479872165030578,1,0.0,12288,-47.0,865.7,0.31293207
400000000000000000007700,1,1479872165040948,1479872165040948,1,6.5,12288,-46.5,865.7,0.2945243
400000000000000000007700,1,1479872165051612,1479872165051612,1,4.875,12288,-46.5,865.7,0.2945243
400000000000000000007700,1,1479872165061727,1479872165061727,1,0.0,12288,-47.0,865.7,0.2883884
400000000000000000007700,1,1479872165072109,1479872165072109,1,13.0,12288,-47.0,865.7,0.25157285
400000000000000000007700,1,1479872165083940,1479872165083940,1,15.4375,12288,-47.0,865.7,0.23316509
400000000000000000007700,1,1479872165094103,1479872165094103,1,1.625,12288,-46.5,865.7,0.25770876
400000000000000000007700,1,1479872165217224,1479872165217224,1,-8.125,12288,-47.5,865.7,0.24543692
400000000000000000007700,1,1479872165227952,1479872165227952,1,0.0,12288,-47.0,865.7,0.23316509
400000000000000000007700,1,1479872165238160,1479872165238160,1,0.0,12288,-47.0,865.7,0.21475731
400000000000000000007700,1,1479872165249999,1479872165249999,1,0.0,12288,-47.0,865.7,0.21475731
400000000000000000007700,1,1479872165260559,1479872165260559,1,-6.5,12288,-47.0,865.7,0.21475731
400000000000000000007700,1,1479872165270789,1479872165270789,1,1.625,12288,-47.0,865.7,0.17794177
400000000000000000007700,1,1479872165280869,1479872165280869,1,3.25,12288,-47.5,865.7,0.19634955
400000000000000000007700,1,1479872165291179,1479872165291179,1,6.5,12288,-47.5,865.7,0.159534
400000000000000000007700,1,1479872165301770,1479872165301770,1,18.6875,12288,-47.5,865.7,0.12885438
400000000000000000007700,1,1479872165311746,1479872165311746,1,9.75,12288,-47.0,865.7,0.14112623
400000000000000000007700,1,1479872165322067,1479872165322067,1,-6.5,12288,-47.5,865.7,0.19021362
400000000000000000007700,1,1479872165332488,1479872165332488,1,8.125,12288,-47.5,865.7,0.159534
400000000000000000007700,1,1479872165342745,1479872165342745,1,-4.875,12288,-47.5,865.7,0.1840777
400000000000000000007700,1,1479872165353080,1479872165353080,1,11.375,12288,-47.5,865.7,0.14112623
400000000000000000007700,1,1479872165364314,1479872165364314,1,1.625,12288,-47.5,865.7,0.1840777
400000000000000000007700,1,1479872165374485,1479872165374485,1,0.0,12288,-47.5,865.7,0.17794177
400000000000000000007700,1,1479872165384469,1479872165384469,1,-17.0625,12288,-47.5,865.7,0.20862138
400000000000000000007700,1,1479872165394658,1479872165394658,1,8.125,12288,-47.0,865.7,0.14112623
400000000000000000007700,1,1479872165404921,1479872165404921,1,-1.625,12288,-47.5,865.7,0.17794177
400000000000000000007700,1,1479872165415345,1479872165415345,1,20.3125,12288,-47.5,865.7,0.10431069
400000000000000000007700,1,1479872165428145,1479872165428145,1,0.0,12288,-48.0,865.7,0.159534
400000000000000000007700,1,1479872165440156,1479872165440156,1,11.375,12288,-48.0,865.7,0.10431069
400000000000000000007700,1,1479872165450538,1479872165450538,1,8.125,12288,-47.5,865.7,0.10431069
400000000000000000007700,1,1479872165460554,1479872165460554,1,4.875,12288,-48.0,865.7,0.12885438
400000000000000000007700,1,1479872165470805,1479872165470805,1,3.25,12288,-48.0,865.7,0.10431069
400000000000000000007700,1,1479872165481361,1479872165481361,1,13.0,12288,-48.0,865.7,0.08590292
400000000000000000007700,1,1479872165491439,1479872165491439,1,-1.625,12288,-48.5,865.7,0.08590292
400000000000000000007700,1,1479872165501883,1479872165501883,1,6.5,12288,-48.5,865.7,0.06135923
400000000000000000007700,1,1479872165511966,1479872165511966,1,26.8125,12288,-48.5,865.7,0.03681554
400000000000000000007700,1,1479872165522425,1479872165522425,1,-1.625,12288,-48.5,865.7,0.11044662
400000000000000000007700,1,1479872165532540,1479872165532540,1,6.5,12288,-48.5,865.7,0.079767
400000000000000000007700,1,1479872165542964,1479872165542964,1,13.0,12288,-48.0,865.7,0.049087387
400000000000000000007700,1,1479872165553422,1479872165553422,1,0.0,12288,-48.5,865.7,0.079767
400000000000000000007700,1,1479872165563684,1479872165563684,1,0.0,12288,-49.0,865.7,0.09817477
400000000000000000007700,1,1479872165573915,1479872165573915,1,8.125,12288,-49.0,865.7,0.03681554
400000000000000000007700,1,1479872165584476,1479872165584476,1,-13.0,12288,-49.0,865.7,0.14112623
400000000000000000007700,1,1479872165594478,1479872165594478,1,11.375,12288,-48.5,865.7,0.03681554
400000000000000000007700,1,1479872165604709,1479872165604709,1,9.75,12288,-48.5,865.7,0.04295146
400000000000000000007700,1,1479872165615007,1479872165615007,1,-8.125,12288,-48.5,865.7,0.10431069
400000000000000000007700,1,1479872165629128,1479872165629128,1,15.4375,12288,-48.5,865.7,0.030679615
400000000000000000007700,1,1479872165639515,1479872165639515,1,-6.5,12288,-48.5,865.7,0.08590292
400000000000000000007700,1,1479872165649662,1479872165649662,1,-8.125,12288,-49.0,865.7,0.09203885
400000000000000000007700,1,1479872165660306,1479872165660306,1,-1.625,12288,-49.0,865.7,0.06749515
400000000000000000007700,1,1479872165670652,1479872165670652,1,3.25,12288,-49.0,865.7,0.04295146
400000000000000000007700,1,1479872165680616,1479872165680616,1,21.9375,12288,-49.5,865.7,6.2586417
400000000000000000007700,1,1479872165691247,1479872165691247,1,6.5,12288,-49.5,865.7,0.024543693
400000000000000000007700,1,1479872165701543,1479872165701543,1,3.25,12288,-49.5,865.7,0.024543693
400000000000000000007700,1,1479872165712024,1479872165712024,1,26.8125,12288,-49.5,865.7,6.240234
400000000000000000007700,1,1479872165722120,1479872165722120,1,-1.625,12288,-50.0,865.7,0.04295146
400000000000000000007700,1,1479872165732402,1479872165732402,1,6.5,12288,-50.0,865.7,0.0
400000000000000000007700,1,1479872165742881,1479872165742881,1,33.3125,12288,-49.5,865.7,6.234098
400000000000000000007700,1,1479872165754040,1479872165754040,1,13.8125,12288,-50.0,865.7,6.24637
400000000000000000007700,1,1479872165764606,1479872165764606,1,15.4375,12288,-50.0,865.7,6.252506
400000000000000000007700,1,1479872165777745,1479872165777745,1,-8.125,12288,-49.5,865.7,0.030679615
400000000000000000007700,1,1479872165788215,1479872165788215,1,-8.125,12288,-50.0,865.7,0.024543693
400000000000000000007700,1,1479872165798164,1479872165798164,1,3.25,12288,-49.5,865.7,6.240234
400000000000000000007700,1,1479872165808511,1479872165808511,1,3.25,12288,-49.5,865.7,0.0
400000000000000000007700,1,1479872165819901,1479872165819901,1,17.0625,12288,-50.5,865.7,6.234098
400000000000000000007700,1,1479872165830382,1479872165830382,1,13.8125,12288,-50.0,865.7,6.21569
400000000000000000007700,1,1479872165840386,1479872165840386,1,23.5625,12288,-50.0,865.7,6.1972823
400000000000000000007700,1,1479872165851718,1479872165851718,1,17.0625,12288,-50.0,865.7,6.227962
400000000000000000007700,1,1479872165861897,1479872165861897,1,0.0,12288,-50.5,865.7,6.2586417
400000000000000000007700,1,1479872165873464,1479872165873464,1,13.8125,12288,-50.5,865.7,6.209554
400000000000000000007700,1,1479872165884020,1479872165884020,1,-3.25,12288,-50.5,865.7,0.0
400000000000000000007700,1,1479872165893990,1479872165893990,1,33.3125,12288,-50.5,865.7,6.1236515
400000000000000000007700,1,1479872165904434,1479872165904434,1,13.0,12288,-50.0,865.7,6.2034183
400000000000000000007700,1,1479872165914863,1479872165914863,1,-18.6875,12288,-50.0,865.7,0.03681554
400000000000000000007700,1,1479872165924977,1479872165924977,1,21.9375,12288,-50.5,865.7,6.1788745
400000000000000000007700,1,1479872165935413,1479872165935413,1,25.1875,12288,-50.0,865.7,6.1297874
400000000000000000007700,1,1479872165946870,1479872165946870,1,9.75,12288,-50.5,865.7,6.209554
400000000000000000007700,1,1479872165956972,1479872165956972,1,17.0625,12288,-50.5,865.7,6.1788745
400000000000000000007700,1,1479872165967183,1479872165967183,1,13.8125,12288,-50.5,865.7,6.1911464
400000000000000000007700,1,1479872165977756,1479872165977756,1,-4.875,12288,-50.5,865.7,6.252506
400000000000000000007700,1,1479872165987791,1479872165987791,1,25.1875,12288,-50.5,865.7,6.142059
400000000000000000007700,1,1479872165999407,1479872165999407,1,6.5,12288,-50.5,865.7,6.1911464
400000000000000000007700,1,1479872166011564,1479872166011564,1,6.5,12288,-51.0,865.7,6.209554
400000000000000000007700,1,1479872166021830,1479872166021830,1,-20.3125,12288,-50.0,865.7,6.2709136
400000000000000000007700,1,1479872166032058,1479872166032058,1,3.25,12288,-50.0,865.7,6.1788745
400000000000000000007700,1,1479872166042361,1479872166042361,1,20.3125,12288,-50.5,865.7,6.1359234
400000000000000000007700,1,1479872166052692,1479872166052692,1,-1.625,12288,-50.5,865.7,6.234098
400000000000000000007700,1,1479872166062835,1479872166062835,1,13.0,12288,-50.0,865.7,6.1543307
400000000000000000007700,1,1479872166073164,1479872166073164,1,9.75,12288,-50.5,865.7,6.1666026
400000000000000000007700,1,1479872166083386,1479872166083386,1,8.125,12288,-50.5,865.7,6.1666026
400000000000000000007700,1,1479872166093983,1479872166093983,1,8.125,12288,-50.5,865.7,6.1727386
400000000000000000007700,1,1479872166104168,1479872166104168,1,18.6875,12288,-50.5,865.7,6.1359234
400000000000000000007700,1,1479872166114235,1479872166114235,1,26.8125,12288,-50.5,865.7,6.0807
400000000000000000007700,1,1479872166124570,1479872166124570,1,-4.875,12288,-50.5,865.7,6.1850104
400000000000000000007700,1,1479872166134904,1479872166134904,1,13.8125,12288,-50.5,865.7,6.0991077
400000000000000000007700,1,1479872166145317,1479872166145317,1,13.8125,12288,-50.5,865.7,6.1175156
400000000000000000007700,1,1479872166155659,1479872166155659,1,9.75,12288,-50.5,865.7,6.1359234
400000000000000000007700,1,1479872166166112,1479872166166112,1,-8.125,12288,-50.5,865.7,6.1788745
400000000000000000007700,1,1479872166177600,1479872166177600,1,-4.875,12288,-50.5,865.7,6.1850104
400000000000000000007700,1,1479872166188111,1479872166188111,1,-13.8125,12288,-50.5,865.7,6.1850104
400000000000000000007700,1,1479872166198118,1479872166198118,1,-4.875,12288,-50.5,865.7,6.1727386
400000000000000000007700,1,1479872166210136,1479872166210136,1,8.125,12288,-50.5,865.7,6.1175156
400000000000000000007700,1,1479872166220212,1479872166220212,1,23.5625,12288,-50.5,865.7,6.074564
400000000000000000007700,1,1479872166231501,1479872166231501,1,-4.875,12288,-50.5,865.7,6.1788745
400000000000000000007700,1,1479872166241847,1479872166241847,1,-20.3125,12288,-50.5,865.7,6.1911464
400000000000000000007700,1,1479872166251800,1479872166251800,1,18.6875,12288,-50.5,865.7,6.1113796
400000000000000000007700,1,1479872166263357,1479872166263357,1,11.375,12288,-50.5,865.7,6.1175156
400000000000000000007700,1,1479872166273401,1479872166273401,1,25.1875,12288,-50.5,865.7,6.068428
400000000000000000007700,1,1479872166283836,1479872166283836,1,9.75,12288,-50.5,865.7,6.1175156
400000000000000000007700,1,1479872166294444,1479872166294444,1,26.8125,12288,-50.5,865.7,6.0438843
400000000000000000007700,1,1479872166304784,1479872166304784,1,6.5,12288,-50.5,865.7,6.1052437
400000000000000000007700,1,1479872166315127,1479872166315127,1,13.8125,12288,-50.5,865.7,6.0991077
400000000000000000007700,1,1479872166325467,1479872166325467,1,17.0625,12288,-50.5,865.7,6.092972
400000000000000000007700,1,1479872166337243,1479872166337243,1,15.4375,12288,-50.5,865.7,6.056156
400000000000000000007700,1,1479872166347385,1479872166347385,1,1.625,12288,-50.5,865.7,6.0991077
400000000000000000007700,1,1479872166357855,1479872166357855,1,-4.875,12288,-50.0,865.7,6.148195
400000000000000000007700,1,1479872166368290,1479872166368290,1,26.8125,12288,-50.0,865.7,6.0316124
400000000000000000007700,1,1479872166378832,1479872166378832,1,13.8125,12288,-50.0,865.7,6.0807
400000000000000000007700,1,1479872166389176,1479872166389176,1,25.1875,12288,-50.5,865.7,6.0193405
400000000000000000007700,1,1479872166399434,1479872166399434,1,-18.6875,12288,-50.0,865.7,6.1788745
400000000000000000007700,1,1479872166409632,1479872166409632,1,-9.75,12288,-50.5,865.7,6.148195
400000000000000000007700,1,1479872166419977,1479872166419977,1,-1.625,12288,-50.0,865.7,6.1113796
400000000000000000007700,1,1479872166430050,1479872166430050,1,1.625,12288,-50.0,865.7,6.1052437
400000000000000000007700,1,1479872166440792,1479872166440792,1,1.625,12288,-50.0,865.7,6.1113796
400000000000000000007700,1,1479872166451292,1479872166451292,1,23.5625,12288,-50.0,865.7,6.0438843
400000000000000000007700,1,1479872166461585,1479872166461585,1,4.875,12288,-50.0,865.7,6.092972
400000000000000000007700,1,1479872166471534,1479872166471534,1,1.625,12288,-50.0,865.7,6.0991077
400000000000000000007700,1,1479872166481774,1479872166481774,1,13.0,12288,-49.5,865.7,6.074564
400000000000000000007700,1,1479872166492125,1479872166492125,1,-13.8125,12288,-50.0,865.7,6.1297874
400000000000000000007700,1,1479872166502769,1479872166502769,1,26.8125,12288,-50.0,865.7,6.0254765
400000000000000000007700,1,1479872166513087,1479872166513087,1,18.6875,12288,-49.5,865.7,6.0316124
400000000000000000007700,1,1479872166523038,1479872166523038,1,0.0,12288,-49.5,865.7,6.092972
400000000000000000007700,1,1479872166533305,1479872166533305,1,18.6875,12288,-49.5,865.7,6.0316124
400000000000000000007700,1,1479872166543531,1479872166543531,1,-6.5,12288,-49.0,865.7,6.1359234
400000000000000000007700,1,1479872166553963,1479872166553963,1,20.3125,12288,-49.0,865.7,6.0377483
400000000000000000007700,1,1479872166564325,1479872166564325,1,-20.3125,12288,-49.0,865.7,6.1911464
400000000000000000007700,1,1479872166574480,1479872166574480,1,9.75,12288,-49.0,865.7,6.0807
400000000000000000007700,1,1479872166584769,1479872166584769,1,0.0,12288,-48.5,865.7,6.148195
400000000000000000007700,1,1479872166595301,1479872166595301,1,-11.375,12288,-48.5,865.7,6.1727386
400000000000000000007700,1,1479872166608108,1479872166608108,1,13.0,12288,-48.0,865.7,6.092972
400000000000000000007700,1,1479872166620139,1479872166620139,1,1.625,12288,-48.0,865.7,6.148195
400000000000000000007700,1,1479872166631733,1479872166631733,1,1.625,12288,-48.0,865.7,6.1850104
400000000000000000007700,1,1479872166643795,1479872166643795,1,9.75,12288,-48.0,865.7,6.1052437
400000000000000000007700,1,1479872166655536,1479872166655536,1,15.4375,12288,-48.0,865.7,6.0991077
400000000000000000007700,1,1479872166665892,1479872166665892,1,-1.625,12288,-47.5,865.7,6.21569
400000000000000000007700,1,1479872166675887,1479872166675887,1,4.875,12288,-47.5,865.7,6.1850104
400000000000000000007700,1,1479872166686260,1479872166686260,1,0.0,12288,-47.5,865.7,6.221826
400000000000000000007700,1,1479872166696778,1479872166696778,1,0.0,12288,-46.5,865.7,6.2647777
400000000000000000007700,1,1479872166706901,1479872166706901,1,11.375,12288,-46.5,865.7,6.2647777
400000000000000000007700,1,1479872166718876,1479872166718876,1,20.3125,12288,-45.5,865.7,0.030679615
400000000000000000007700,1,1479872166729153,1479872166729153,1,-6.5,12288,-45.0,865.7,0.159534
400000000000000000007700,1,1479872166739150,1479872166739150,1,8.125,12288,-44.5,865.7,0.159534
400000000000000000007700,1,1479872166749577,1479872166749577,1,0.0,12288,-44.5,865.7,0.20248546
400000000000000000007700,1,1479872166759430,1479872166759430,1,3.25,12288,-44.0,865.7,0.25157285
400000000000000000007700,1,1479872166771283,1479872166771283,1,17.0625,12288,-44.0,865.7,0.23316509
400000000000000000007700,1,1479872166781584,1479872166781584,1,3.25,12288,-43.5,865.7,0.30679616
400000000000000000007700,1,1479872166793325,1479872166793325,1,1.625,12288,-43.5,865.7,0.34974763
400000000000000000007700,1,1479872166803803,1479872166803803,1,0.0,12288,-43.0,865.7,0.3926991
400000000000000000007700,1,1479872166814906,1479872166814906,1,-8.125,12288,-43.0,865.7,0.47246608
400000000000000000007700,1,1479872166825444,1479872166825444,1,13.8125,12288,-43.0,865.7,0.44178647
400000000000000000007700,1,1479872166837018,1479872166837018,1,3.25,12288,-43.0,865.7,0.48473793
400000000000000000007700,1,1479872166847282,1479872166847282,1,1.625,12288,-42.5,865.7,0.5154175
400000000000000000007700,1,1479872166858860,1479872166858860,1,1.625,12288,-42.5,865.7,0.52155346
400000000000000000007700,1,1479872166869270,1479872166869270,1,11.375,12288,-42.5,865.7,0.50928164
400000000000000000007700,1,1479872166879866,1479872166879866,1,1.625,12288,-42.5,865.7,0.54609716
400000000000000000007700,1,1479872166889991,1479872166889991,1,9.75,12288,-42.5,865.7,0.54609716
400000000000000000007700,1,1479872166900543,1479872166900543,1,1.625,12288,-42.5,865.7,0.57064086
400000000000000000007700,1,1479872166910661,1479872166910661,1,-4.875,12288,-42.5,865.7,0.59518456
400000000000000000007700,1,1479872166921004,1479872166921004,1,3.25,12288,-42.5,865.7,0.60132045
400000000000000000007700,1,1479872166931468,1479872166931468,1,9.75,12288,-42.5,865.7,0.5890486
400000000000000000007700,1,1479872166941724,1479872166941724,1,1.625,12288,-42.5,865.7,0.61972827
400000000000000000007700,1,1479872166951760,1479872166951760,1,13.0,12288,-42.5,865.7,0.6074564
400000000000000000007700,1,1479872166961886,1479872166961886,1,8.125,12288,-42.5,865.7,0.6320001
400000000000000000007700,1,1479872166972191,1479872166972191,1,0.0,12288,-42.0,865.7,0.6565438
400000000000000000007700,1,1479872166984266,1479872166984266,1,6.5,12288,-42.5,865.7,0.6565438
400000000000000000007700,1,1479872166994594,1479872166994594,1,-6.5,12288,-42.5,865.7,0.717903
400000000000000000007700,1,1479872167004491,1479872167004491,1,1.625,12288,-42.5,865.7,0.7117671
400000000000000000007700,1,1479872167016327,1479872167016327,1,4.875,12288,-42.5,865.7,0.69949526
400000000000000000007700,1,1479872167026640,1479872167026640,1,-4.875,12288,-42.5,865.7,0.717903
400000000000000000007700,1,1479872167038389,1479872167038389,1,3.25,12288,-42.5,865.7,0.7117671
400000000000000000007700,1,1479872167048380,1479872167048380,1,-6.5,12288,-42.5,865.7,0.72403896
400000000000000000007700,1,1479872167058648,1479872167058648,1,6.5,12288,-42.5,865.7,0.6872234
400000000000000000007700,1,1479872167069233,1479872167069233,1,-3.25,12288,-42.5,865.7,0.69949526
400000000000000000007700,1,1479872167079780,1479872167079780,1,-1.625,12288,-42.5,865.7,0.7117671
400000000000000000007700,1,1479872167089942,1479872167089942,1,-1.625,12288,-42.5,865.7,0.717903
400000000000000000007700,1,1479872167100152,1479872167100152,1,6.5,12288,-42.5,865.7,0.6872234
400000000000000000007700,1,1479872167110440,1479872167110440,1,-1.625,12288,-42.0,865.7,0.70563114
400000000000000000007700,1,1479872167120582,1479872167120582,1,-4.875,12288,-42.5,865.7,0.70563114
400000000000000000007700,1,1479872167133356,1479872167133356,1,-8.125,12288,-42.5,865.7,0.73017484
400000000000000000007700,1,1479872167143391,1479872167143391,1,1.625,12288,-42.5,865.7,0.69949526
400000000000000000007700,1,1479872167154901,1479872167154901,1,3.25,12288,-42.5,865.7,0.6933593
400000000000000000007700,1,1479872167164884,1479872167164884,1,-3.25,12288,-42.5,865.7,0.70563114
400000000000000000007700,1,1479872167176954,1479872167176954,1,-6.5,12288,-42.5,865.7,0.70563114
400000000000000000007700,1,1479872167187208,1479872167187208,1,-11.375,12288,-42.5,865.7,0.7424467
400000000000000000007700,1,1479872167197411,1479872167197411,1,1.625,12288,-42.5,865.7,0.717903
400000000000000000007700,1,1479872167207787,1479872167207787,1,-3.25,12288,-42.5,865.7,0.7363108
400000000000000000007700,1,1479872167218064,1479872167218064,1,-3.25,12288,-42.5,865.7,0.7363108
400000000000000000007700,1,1479872167228342,1479872167228342,1,-3.25,12288,-42.5,865.7,0.73017484
400000000000000000007700,1,1479872167238659,1479872167238659,1,0.0,12288,-42.5,865.7,0.72403896
400000000000000000007700,1,1479872167248686,1479872167248686,1,-3.25,12288,-42.5,865.7,0.7485826
400000000000000000007700,1,1479872167260612,1479872167260612,1,-3.25,12288,-42.5,865.7,0.7363108
400000000000000000007700,1,1479872167271016,1479872167271016,1,-1.625,12288,-42.5,865.7,0.7363108
400000000000000000007700,1,1479872167283802,1479872167283802,1,-4.875,12288,-42.5,865.7,0.7669904
400000000000000000007700,1,1479872167295658,1479872167295658,1,-1.625,12288,-42.5,865.7,0.7608545
400000000000000000007700,1,1479872167305683,1479872167305683,1,-1.625,12288,-42.5,865.7,0.7485826
400000000000000000007700,1,1479872167316188,1479872167316188,1,-8.125,12288,-42.5,865.7,0.77926224
400000000000000000007700,1,1479872167326042,1479872167326042,1,-1.625,12288,-42.5,865.7,0.7669904
400000000000000000007700,1,1479872167336677,1479872167336677,1,-11.375,12288,-42.5,865.7,0.77926224
400000000000000000007700,1,1479872167347092,1479872167347092,1,-4.875,12288,-42.5,865.7,0.7608545
400000000000000000007700,1,1479872167358605,1479872167358605,1,-3.25,12288,-42.5,865.7,0.7731263
400000000000000000007700,1,1479872167368762,1479872167368762,1,-3.25,12288,-42.5,865.7,0.7608545
400000000000000000007700,1,1479872167379269,1479872167379269,1,-1.625,12288,-42.5,865.7,0.7669904
400000000000000000007700,1,1479872167389468,1479872167389468,1,-6.5,12288,-42.5,865.7,0.7853982
400000000000000000007700,1,1479872167399802,1479872167399802,1,-3.25,12288,-42.5,865.7,0.7731263
