-30.0,1.8775924843720249,7.3125
-30.0,1.88986433067511,4.875
-30.0,1.9082721001297376,4.0625
-30.0,1.9389517158874505,-0.8125
-30.0,1.9144080232812801,4.875
-30.0,1.9144080232812801,1.625
-30.0,1.9389517158874505,-0.8125
-30.5,1.9266798695843652,1.625
-30.0,1.9266798695843652,1.625
-30.0,1.9389517158874505,-1.625
-30.0,1.9266798695843652,0.8125
-30.0,1.9205439464328227,2.4375
-30.0,1.9205439464328227,4.0625
-30.0,1.9266798695843652,4.875
-30.0,1.9144080232812801,2.4375
-30.0,1.932815792735908,1.625
-30.5,1.9266798695843652,2.4375
-30.5,1.9205439464328227,4.875
-30.5,1.9144080232812801,2.4375
-30.5,1.8960002538266525,5.6875
-30.0,1.9082721001297376,4.875
-30.0,1.9266798695843652,1.625
-30.5,1.9082721001297376,4.0625
-30.0,1.9205439464328227,4.0625
-30.0,1.9205439464328227,1.625
-30.0,1.9144080232812801,4.0625
-30.0,1.9266798695843652,0.8125
-30.0,1.9266798695843652,1.625
-30.0,1.9144080232812801,4.875
-30.0,1.9389517158874505,0.8125
-30.0,1.9205439464328227,2.4375
-30.0,1.9205439464328227,4.875
-30.0,1.9082721001297376,6.5
-30.0,1.9266798695843652,1.625
-30.0,1.932815792735908,2.4375
-30.5,1.9512235621905356,-0.8125
-30.0,1.9144080232812801,4.875
-30.0,1.932815792735908,2.4375
-30.0,1.9205439464328227,4.0625
-30.0,1.932815792735908,1.625
-30.0,1.9389517158874505,0.0
-30.0,1.9082721001297376,4.875
-30.0,1.932815792735908,2.4375
-30.0,1.932815792735908,2.4375
-30.0,1.932815792735908,1.625
-30.0,1.9205439464328227,4.0625
-30.0,1.9144080232812801,4.875
-30.0,1.9082721001297376,5.6875
-30.5,1.9082721001297376,6.5
-30.0,1.932815792735908,1.625
-30.0,1.9389517158874505,1.625
-30.0,1.932815792735908,1.625
-30.0,1.932815792735908,1.625
-30.5,1.9205439464328227,2.4375
-30.5,1.932815792735908,4.0625
-30.0,1.9205439464328227,4.0625
-30.0,1.9266798695843652,4.875
-30.0,1.932815792735908,1.625
-30.0,1.9205439464328227,4.875
-30.0,1.932815792735908,0.8125
-30.0,1.9266798695843652,2.4375
-30.0,1.9389517158874505,1.625
-30.0,1.9205439464328227,4.875
-30.0,1.9266798695843652,2.4375
-30.0,1.932815792735908,1.625
-30.0,1.945087639038993,1.625
-30.0,1.932815792735908,4.0625
-30.0,1.9389517158874505,1.625
-30.0,1.9266798695843652,4.875
-30.5,1.945087639038993,0.0
-30.0,1.945087639038993,-0.8125
-30.0,1.932815792735908,1.625
-30.0,1.9144080232812801,4.0625
-30.5,1.932815792735908,4.0625
-30.0,1.9389517158874505,2.4375
-30.0,1.932815792735908,0.8125
-30.5,1.932815792735908,2.4375
-30.0,1.9144080232812801,5.6875
-30.0,1.9205439464328227,4.875
-30.0,1.945087639038993,0.8125
-30.5,1.9266798695843652,4.875
-30.0,1.9266798695843652,2.4375
-30.0,1.9144080232812801,5.6875
-30.5,1.945087639038993,1.625
-30.0,1.9389517158874505,1.625
-30.0,1.9266798695843652,4.0625
-30.0,1.9205439464328227,5.6875
-30.0,1.9389517158874505,0.8125
-30.0,1.9266798695843652,2.4375
-30.0,1.9266798695843652,1.625
-30.0,1.9512235621905356,0.0
-30.0,1.9512235621905356,-0.8125
-30.0,1.9573594853420782,0.0
-30.0,1.9512235621905356,1.625
-30.5,1.932815792735908,0.8125
-30.5,1.9266798695843652,4.0625
-30.0,1.932815792735908,5.6875
-30.0,1.932815792735908,4.875
-30.5,1.9266798695843652,4.0625
-30.5,1.932815792735908,2.4375
-30.0,1.9144080232812801,5.6875
-30.0,1.932815792735908,1.625
-30.5,1.9144080232812801,4.875
-30.0,1.932815792735908,1.625
-30.0,1.932815792735908,4.875
-30.0,1.9266798695843652,2.4375
-30.0,1.9512235621905356,0.8125
-30.0,1.9266798695843652,4.875
-30.0,1.945087639038993,-0.8125
-30.0,1.932815792735908,2.4375
-30.0,1.932815792735908,1.625
-30.0,1.945087639038993,2.4375
-30.0,1.9512235621905356,1.625
-30.0,1.945087639038993,1.625
-30.0,1.9205439464328227,1.625
-30.0,1.932815792735908,1.625
-30.0,1.932815792735908,2.4375
-30.0,1.9266798695843652,4.875
-30.0,1.932815792735908,4.0625
-30.0,1.9573594853420782,0.0
-30.0,1.9266798695843652,5.6875
-30.0,1.932815792735908,4.875
-30.0,1.932815792735908,4.0625
-30.0,1.945087639038993,1.625
-30.0,1.945087639038993,0.8125
-30.0,1.945087639038993,0.0
-30.0,1.945087639038993,0.8125
-30.0,1.932815792735908,2.4375
-30.0,1.9205439464328227,4.875
-30.0,1.9266798695843652,4.875
-30.0,1.945087639038993,0.8125
-30.0,1.9389517158874505,0.8125
-30.0,1.9205439464328227,5.6875
-30.0,1.932815792735908,0.8125
-30.0,1.932815792735908,2.4375
-30.0,1.9512235621905356,0.8125
-30.0,1.9573594853420782,0.0
-30.0,1.932815792735908,1.625
-30.0,1.9266798695843652,4.0625
-30.0,1.9205439464328227,4.0625
-30.0,1.9205439464328227,4.875
-30.0,1.932815792735908,4.0625
-30.0,1.932815792735908,4.875
-30.0,1.9389517158874505,0.8125
-30.0,1.945087639038993,0.8125
-30.0,1.9205439464328227,4.0625
-30.0,1.9266798695843652,2.4375
-30.0,1.9389517158874505,2.4375
-30.0,1.9144080232812801,2.4375
-30.0,1.945087639038993,-1.625
-30.0,1.9266798695843652,4.875
-30.0,1.9389517158874505,4.0625
-30.0,1.9266798695843652,2.4375
-30.0,1.945087639038993,0.8125
-30.0,1.9389517158874505,2.4375
-30.0,1.932815792735908,1.625
-30.0,1.9266798695843652,4.875
-30.0,1.9266798695843652,2.4375
-30.0,1.9266798695843652,1.625
-30.0,1.9389517158874505,1.625
-30.0,1.932815792735908,4.0625
-30.0,1.9205439464328227,5.6875
-30.0,1.9389517158874505,1.625
-30.0,1.932815792735908,1.625
-30.0,1.9266798695843652,5.6875
-30.0,1.9389517158874505,1.625
-30.0,1.932815792735908,2.4375
-30.5,1.932815792735908,4.0625
-30.5,1.9512235621905356,2.4375
-30.0,1.9205439464328227,2.4375
-30.0,1.932815792735908,1.625
-30.0,1.9266798695843652,4.875
-30.0,1.945087639038993,1.625
-30.0,1.9512235621905356,0.8125
-30.0,1.9389517158874505,1.625
-30.0,1.932815792735908,1.625
-30.0,1.9266798695843652,4.0625
-30.0,1.9266798695843652,1.625
-30.0,1.932815792735908,-0.8125
-30.0,1.9389517158874505,0.8125
-30.0,1.9266798695843652,1.625
-30.0,1.9205439464328227,4.875
-30.0,1.932815792735908,2.4375
-30.0,1.9205439464328227,4.875
-30.0,1.9389517158874505,1.625
-30.0,1.9266798695843652,4.875
-30.0,1.9512235621905356,0.0
-30.0,1.932815792735908,1.625
-30.0,1.9512235621905356,0.0
-30.0,1.9266798695843652,4.875
-30.0,1.9205439464328227,4.875
-30.0,1.9512235621905356,0.8125
-30.0,1.945087639038993,1.625
-30.0,1.932815792735908,4.0625
-30.0,1.9389517158874505,0.8125
-30.0,1.932815792735908,2.4375
-30.0,1.9266798695843652,4.875
-30.0,1.945087639038993,0.8125
-30.0,1.9389517158874505,1.625
-30.0,1.9266798695843652,4.875
-30.0,1.9389517158874505,1.625
-30.0,1.945087639038993,2.4375
-30.0,1.9389517158874505,4.875
-30.0,1.9389517158874505,4.0625
-30.0,1.9573594853420782,1.625
-30.0,1.9634954084936207,0.0
-30.0,1.932815792735908,2.4375
-30.5,1.9573594853420782,0.8125
-30.0,1.9266798695843652,5.6875
-30.0,1.945087639038993,1.625
-30.0,1.9389517158874505,2.4375
-30.0,1.932815792735908,4.0625
-30.0,1.9512235621905356,0.8125
-30.0,1.945087639038993,1.625
-30.0,1.9389517158874505,0.8125
-30.0,1.932815792735908,2.4375
-30.0,1.945087639038993,0.0
-30.0,1.932815792735908,2.4375
-30.0,1.9082721001297376,4.875
-30.0,1.9205439464328227,1.625
-30.0,1.9205439464328227,0.8125
-30.0,1.902136176978195,1.625
-30.5,1.9082721001297376,1.625
-30.0,1.9144080232812801,0.8125
-30.0,1.88986433067511,2.4375
-30.0,1.9266798695843652,-1.625
-30.5,1.9082721001297376,0.8125
-30.5,1.88986433067511,5.6875
-30.0,1.8960002538266525,4.0625
-30.0,1.88986433067511,5.6875
-30.0,1.8960002538266525,2.4375
-30.0,1.9205439464328227,0.8125
-30.0,1.88986433067511,4.0625
-30.0,1.88986433067511,5.6875
-30.0,1.88986433067511,4.0625
-30.5,1.9205439464328227,-0.8125
-30.5,1.9082721001297376,0.8125
-30.5,1.8960002538266525,2.4375
-30.5,1.902136176978195,4.0625
-30.5,1.9205439464328227,0.8125
-30.5,1.8960002538266525,4.0625
-30.5,1.9082721001297376,1.625
-30.5,1.9082721001297376,4.0625
-30.5,1.902136176978195,2.4375
-30.5,1.9082721001297376,1.625
-30.5,1.902136176978195,2.4375
-30.0,1.8960002538266525,4.0625
-30.5,1.9082721001297376,2.4375
-30.5,1.9144080232812801,0.0
-30.5,1.9144080232812801,2.4375
-30.5,1.9082721001297376,2.4375
-30.5,1.9082721001297376,4.875
-30.5,1.9144080232812801,0.8125
-30.5,1.9082721001297376,4.0625
-30.5,1.932815792735908,0.0
-30.5,1.9082721001297376,4.0625
-30.5,1.9082721001297376,4.0625
-30.5,1.9082721001297376,2.4375
-30.5,1.9144080232812801,2.4375
-30.5,1.9082721001297376,1.625
-30.5,1.9144080232812801,2.4375
-30.5,1.9205439464328227,1.625
-30.5,1.902136176978195,4.0625
-30.5,1.902136176978195,4.875
-30.5,1.9082721001297376,2.4375
-30.5,1.9082721001297376,1.625
-30.5,1.9205439464328227,0.8125
-30.5,1.9082721001297376,2.4375
-30.5,1.8960002538266525,2.4375
-30.5,1.9082721001297376,4.875
-30.5,1.9144080232812801,1.625
-30.5,1.9082721001297376,2.4375
-30.5,1.902136176978195,4.875
-30.5,1.945087639038993,-0.8125
-30.5,1.9266798695843652,0.8125
-30.5,1.9266798695843652,1.625
-30.5,1.9082721001297376,4.0625
-30.5,1.9266798695843652,0.8125
-30.5,1.945087639038993,-0.8125
-30.5,1.9389517158874505,-0.8125
-30.5,1.932815792735908,0.0
-30.5,1.9266798695843652,2.4375
-30.5,1.9144080232812801,4.0625
-30.5,1.9266798695843652,2.4375
-30.5,1.9266798695843652,4.0625
-30.5,1.902136176978195,4.875
-30.5,1.9205439464328227,0.8125
-30.5,1.932815792735908,0.0
-30.5,1.9266798695843652,1.625
-30.5,1.9082721001297376,4.0625
-30.5,1.9082721001297376,4.875
-30.5,1.9266798695843652,1.625
-30.5,1.88986433067511,6.5
-30.5,1.9266798695843652,0.8125
-30.5,1.9266798695843652,1.625
-30.5,1.9144080232812801,4.0625
-30.5,1.9205439464328227,0.8125
-30.5,1.9082721001297376,4.0625
-30.5,1.932815792735908,1.625
-30.5,1.902136176978195,4.875
-30.5,1.9144080232812801,2.4375
-30.5,1.9266798695843652,0.8125
-30.5,1.9144080232812801,4.0625
-30.5,1.9144080232812801,4.875
-30.5,1.9144080232812801,5.6875
-30.5,1.932815792735908,0.8125
-30.5,1.9205439464328227,1.625
-30.5,1.9389517158874505,0.8125
-30.5,1.9144080232812801,2.4375
-30.5,1.9082721001297376,4.875
-30.5,1.9144080232812801,2.4375
-30.5,1.9082721001297376,2.4375
-30.5,1.932815792735908,1.625
-30.5,1.932815792735908,0.8125
-30.5,1.9266798695843652,0.8125
-30.5,1.9082721001297376,4.875
-30.5,1.9389517158874505,0.8125
-30.5,1.9205439464328227,2.4375
-30.5,1.9512235621905356,-2.4375
-30.5,1.932815792735908,0.8125
-30.5,1.9205439464328227,2.4375
-30.5,1.9144080232812801,4.0625
-30.5,1.9266798695843652,2.4375
-30.5,1.9266798695843652,0.8125
-30.5,1.9144080232812801,4.875
-30.5,1.902136176978195,6.5
-30.5,1.9082721001297376,5.6875
-30.5,1.9205439464328227,1.625
-30.5,1.932815792735908,0.0
-30.5,1.9205439464328227,4.0625
-30.5,1.9144080232812801,4.875
-30.5,1.932815792735908,0.0
-30.5,1.9082721001297376,4.875
-30.5,1.9266798695843652,0.8125
-30.5,1.9389517158874505,0.8125
-30.5,1.902136176978195,5.6875
-30.5,1.932815792735908,2.4375
-30.5,1.9266798695843652,0.8125
-30.5,1.9389517158874505,1.625
-30.5,1.9144080232812801,2.4375
-30.5,1.9082721001297376,4.875
-30.5,1.9144080232812801,4.0625
-30.5,1.9389517158874505,0.8125
-30.5,1.9205439464328227,2.4375
-30.5,1.9082721001297376,2.4375
-30.5,1.945087639038993,-0.8125
-30.5,1.9144080232812801,4.875
-30.5,1.9266798695843652,2.4375
-30.5,1.9266798695843652,2.4375
-30.5,1.9144080232812801,2.4375
-30.5,1.9082721001297376,5.6875
-30.5,1.9205439464328227,1.625
-30.5,1.9144080232812801,4.0625
-30.5,1.9266798695843652,2.4375
-30.5,1.9389517158874505,0.8125
-30.5,1.9205439464328227,1.625
-30.5,1.9266798695843652,4.0625
-30.5,1.9266798695843652,0.8125
-30.5,1.9266798695843652,4.0625
-30.5,1.9144080232812801,2.4375
-30.5,1.9266798695843652,2.4375
-30.5,1.945087639038993,0.0
-30.5,1.9144080232812801,4.875
-30.5,1.9205439464328227,2.4375
-30.5,1.9266798695843652,0.8125
-30.5,1.9082721001297376,4.875
-30.5,1.9389517158874505,0.0
-30.5,1.9389517158874505,-1.625
-30.5,1.9205439464328227,2.4375
-30.5,1.9144080232812801,4.875
-30.5,1.932815792735908,2.4375
-30.5,1.9389517158874505,0.8125
-30.5,1.9144080232812801,4.0625
-30.5,1.9144080232812801,2.4375
-30.5,1.932815792735908,0.0
-30.5,1.902136176978195,5.6875
-30.5,1.9144080232812801,4.0625
-30.5,1.9205439464328227,2.4375
-30.5,1.9266798695843652,2.4375
-30.5,1.9266798695843652,2.4375
-30.5,1.9205439464328227,4.875
-30.5,1.932815792735908,2.4375
-30.5,1.9266798695843652,1.625
-30.5,1.945087639038993,-4.0625
-30.5,1.932815792735908,1.625
-30.5,1.9144080232812801,2.4375
-30.5,1.9205439464328227,4.0625
-30.5,1.9205439464328227,4.875
-30.5,1.9082721001297376,7.3125
-30.5,1.9205439464328227,4.0625
-30.5,1.9082721001297376,5.6875
-30.5,1.9389517158874505,0.0
-30.5,1.932815792735908,0.8125
-30.5,1.932815792735908,1.625
-30.5,1.9205439464328227,4.0625
-30.5,1.9266798695843652,1.625
-30.5,1.9144080232812801,4.875
-30.5,1.945087639038993,-0.8125
-30.5,1.9573594853420782,0.0
-30.5,1.932815792735908,0.8125
-30.5,1.9205439464328227,2.4375
-30.5,1.932815792735908,1.625
-30.5,1.9512235621905356,0.0
-30.5,1.9144080232812801,5.6875
-30.5,1.9205439464328227,4.0625
-30.5,1.9205439464328227,4.0625
-30.5,1.9205439464328227,4.875
-30.5,1.9082721001297376,5.6875
-30.5,1.9266798695843652,5.6875
-30.5,1.9266798695843652,2.4375
-30.5,1.9144080232812801,4.875
-30.5,1.9266798695843652,0.0
-30.5,1.9205439464328227,4.0625
-30.5,1.945087639038993,1.625
-30.5,1.9266798695843652,1.625
-30.5,1.932815792735908,1.625
-30.5,1.9266798695843652,4.0625
-30.5,1.9205439464328227,4.0625
-30.5,1.9144080232812801,4.875
-30.5,1.9082721001297376,5.6875
-30.5,1.945087639038993,1.625
-30.5,1.945087639038993,0.0
-30.5,1.932815792735908,0.0
-30.5,1.9144080232812801,6.5
-30.5,1.9389517158874505,1.625
-30.5,1.9205439464328227,5.6875
-30.5,1.9266798695843652,0.8125
-30.5,1.902136176978195,7.3125
-30.5,1.932815792735908,0.8125
-30.5,1.9144080232812801,4.0625
-30.5,1.9266798695843652,1.625
-30.5,1.9389517158874505,0.0
-30.5,1.9144080232812801,1.625
-30.5,1.9389517158874505,2.4375
-30.5,1.9266798695843652,4.0625
-30.5,1.9266798695843652,4.0625
-30.5,1.932815792735908,1.625
-30.5,1.9205439464328227,2.4375
-30.5,1.9266798695843652,2.4375
-30.5,1.932815792735908,0.8125
-30.5,1.9389517158874505,2.4375
-30.5,1.932815792735908,1.625
-30.5,1.9266798695843652,4.875
-30.5,1.945087639038993,0.0
-30.5,1.9205439464328227,4.875
-30.5,1.9266798695843652,2.4375
-30.5,1.9389517158874505,1.625
-30.5,1.932815792735908,2.4375
-30.5,1.9389517158874505,2.4375
-30.5,1.9266798695843652,4.0625
-30.5,1.932815792735908,1.625
-30.5,1.9266798695843652,4.0625
-30.5,1.9389517158874505,1.625
-30.5,1.945087639038993,0.8125
-30.5,1.9389517158874505,0.8125
-30.5,1.9205439464328227,5.6875
-30.5,1.945087639038993,0.0
-30.5,1.9389517158874505,2.4375
-30.5,1.9205439464328227,4.0625
-30.5,1.9512235621905356,0.8125
-30.5,1.9266798695843652,2.4375
-30.5,1.945087639038993,1.625
-30.5,1.9389517158874505,1.625
-30.5,1.9266798695843652,4.875
-30.5,1.9205439464328227,4.0625
-30.5,1.9389517158874505,1.625
-30.5,1.932815792735908,1.625
-30.5,1.9266798695843652,4.0625
-30.5,1.945087639038993,2.4375
-30.5,1.932815792735908,2.4375
-30.5,1.9205439464328227,4.875
-30.5,1.932815792735908,2.4375
-30.5,1.9205439464328227,5.6875
-30.5,1.932815792735908,2.4375
-30.5,1.9512235621905356,0.8125
-30.5,1.9144080232812801,6.5
-30.5,1.945087639038993,0.0
-30.5,1.9266798695843652,4.875
-30.5,1.932815792735908,2.4375
-30.5,1.9205439464328227,4.875
-30.5,1.9266798695843652,4.875
-30.5,1.932815792735908,2.4375
-30.5,1.9144080232812801,4.875
-30.5,1.932815792735908,4.875
-30.5,1.9266798695843652,4.0625
-30.5,1.9266798695843652,4.0625
-30.5,1.9389517158874505,0.8125
-30.5,1.932815792735908,1.625
-30.5,1.9205439464328227,4.0625
-30.5,1.9144080232812801,5.6875
-30.5,1.945087639038993,1.625
-30.5,1.932815792735908,2.4375
-30.5,1.945087639038993,0.8125
-30.5,1.9082721001297376,5.6875
-30.5,1.932815792735908,1.625
-30.5,1.9266798695843652,5.6875
-30.5,1.932815792735908,2.4375
-30.5,1.9389517158874505,2.4375
-30.5,1.9389517158874505,1.625
-30.5,1.9389517158874505,0.8125
-30.5,1.9266798695843652,2.4375
-30.5,1.9205439464328227,5.6875
-30.5,1.932815792735908,2.4375
-30.5,1.932815792735908,2.4375
-30.5,1.945087639038993,0.8125
-30.5,1.932815792735908,4.0625
-30.5,1.9205439464328227,5.6875
-30.5,1.945087639038993,1.625
-30.5,1.9512235621905356,0.8125
-30.5,1.932815792735908,2.4375
-30.5,1.932815792735908,4.0625
-30.5,1.9389517158874505,1.625
-30.5,1.9205439464328227,5.6875
-30.5,1.9266798695843652,1.625
-30.5,1.9266798695843652,4.0625
-30.5,1.932815792735908,4.0625
-30.5,1.9389517158874505,2.4375
-30.5,1.932815792735908,4.0625
-30.5,1.945087639038993,0.8125
-30.5,1.9573594853420782,0.0
-30.5,1.9266798695843652,4.0625
-30.5,1.9205439464328227,4.875
-30.5,1.932815792735908,2.4375
-30.5,1.932815792735908,2.4375
-30.5,1.9266798695843652,4.875
-30.5,1.932815792735908,2.4375
-30.5,1.9266798695843652,4.0625
-30.5,1.932815792735908,4.0625
-30.5,1.9205439464328227,4.875
-30.5,1.945087639038993,1.625
-30.5,1.9205439464328227,4.875
-30.5,1.945087639038993,0.8125
-30.5,1.9205439464328227,4.875
-30.5,1.945087639038993,1.625
-30.5,1.9634954084936207,-1.625
-30.5,1.9573594853420782,0.0
-30.5,1.9389517158874505,2.4375
-30.5,1.9512235621905356,0.8125
-30.5,1.9082721001297376,5.6875
-30.5,1.9266798695843652,2.4375
-30.5,1.945087639038993,0.8125
-30.5,1.9266798695843652,4.0625
-30.5,1.9144080232812801,0.8125
-30.5,1.9205439464328227,1.625
-30.5,1.902136176978195,4.875
-30.5,1.9205439464328227,0.8125
-30.5,1.9389517158874505,-0.8125
-30.5,1.9144080232812801,2.4375
-30.5,1.9144080232812801,2.4375
-30.0,1.9144080232812801,4.875
-30.0,1.902136176978195,4.875
-30.5,1.9205439464328227,1.625
-30.5,1.9389517158874505,0.0
-30.5,1.932815792735908,0.8125
-30.5,1.9144080232812801,4.0625
-30.5,1.932815792735908,1.625
-30.5,1.9144080232812801,2.4375
-30.5,1.9082721001297376,4.0625
-30.5,1.9389517158874505,0.0
-30.5,1.9144080232812801,5.6875
-30.5,1.9266798695843652,1.625
-30.5,1.9082721001297376,4.875
-30.5,1.932815792735908,-0.8125
-30.5,1.9205439464328227,1.625
-30.5,1.9082721001297376,5.6875
-30.5,1.9205439464328227,0.8125
-30.0,1.9266798695843652,0.8125
-30.0,1.9205439464328227,4.0625
-30.0,1.9082721001297376,4.875
-30.0,1.9205439464328227,2.4375
-30.5,1.9266798695843652,1.625
-30.5,1.9144080232812801,4.0625
-30.0,1.9266798695843652,4.0625
-30.0,1.9266798695843652,1.625
-30.5,1.9266798695843652,1.625
-30.0,1.9144080232812801,2.4375
-30.0,1.945087639038993,-1.625
-30.0,1.9205439464328227,0.0
-30.0,1.9205439464328227,4.0625
-30.0,1.9205439464328227,2.4375
-30.0,1.932815792735908,0.0
-30.5,1.9205439464328227,1.625
-30.0,1.932815792735908,0.8125
-30.5,1.8960002538266525,5.6875
-30.0,1.9205439464328227,1.625
-30.0,1.9144080232812801,2.4375
-30.5,1.9082721001297376,5.6875
-30.0,1.9205439464328227,1.625
-30.0,1.9205439464328227,2.4375
-30.0,1.9266798695843652,4.0625
-30.0,1.9389517158874505,1.625
-30.0,1.9389517158874505,0.0
-30.5,1.9512235621905356,-1.625
-30.0,1.9266798695843652,1.625
-30.0,1.9205439464328227,2.4375
-30.0,1.9144080232812801,4.0625
-30.5,1.9266798695843652,2.4375
-30.0,1.932815792735908,1.625
-30.5,1.932815792735908,0.8125
-30.0,1.9389517158874505,0.0
-30.0,1.932815792735908,0.8125
-30.5,1.932815792735908,1.625
-30.0,1.9205439464328227,2.4375
-30.5,1.932815792735908,0.8125
-30.5,1.9144080232812801,2.4375
-30.0,1.9082721001297376,2.4375
-30.0,1.9082721001297376,4.875
-30.0,1.9266798695843652,2.4375
-30.5,1.9205439464328227,1.625
-30.0,1.8960002538266525,7.3125
-30.5,1.9205439464328227,1.625
-30.5,1.9082721001297376,4.0625
-30.0,1.932815792735908,0.8125
-30.0,1.9266798695843652,1.625
-30.5,1.9266798695843652,0.0
-30.0,1.9205439464328227,1.625
-30.5,1.9144080232812801,4.875
-30.0,1.9205439464328227,2.4375
-30.0,1.945087639038993,0.0
-30.5,1.9144080232812801,4.0625
-30.5,1.9144080232812801,4.0625
-30.0,1.932815792735908,0.0
-30.0,1.9144080232812801,4.0625
-30.5,1.8960002538266525,5.6875
-30.0,1.9266798695843652,0.8125
-30.0,1.902136176978195,5.6875
-30.5,1.9082721001297376,4.0625
-30.0,1.9205439464328227,0.8125
-30.0,1.945087639038993,-1.625
-30.0,1.9205439464328227,1.625
-30.0,1.9082721001297376,2.4375
-30.0,1.9205439464328227,4.0625
-30.5,1.9082721001297376,4.0625
-30.0,1.9205439464328227,2.4375
-30.0,1.9082721001297376,4.875
-30.0,1.932815792735908,1.625
-30.0,1.9144080232812801,2.4375
-30.5,1.902136176978195,6.5
-30.0,1.9205439464328227,2.4375
-30.0,1.9082721001297376,1.625
-30.0,1.9205439464328227,2.4375
-30.0,1.9144080232812801,2.4375
-30.0,1.932815792735908,0.8125
-30.0,1.9082721001297376,4.0625
-30.5,1.9144080232812801,4.0625
-30.0,1.9205439464328227,4.0625
-30.0,1.9266798695843652,1.625
-30.5,1.9082721001297376,5.6875
-30.5,1.9266798695843652,2.4375
-30.5,1.9144080232812801,4.875
-30.0,1.932815792735908,0.8125
-30.0,1.9266798695843652,1.625
-30.0,1.932815792735908,0.8125
-30.0,1.9389517158874505,0.0
-30.0,1.9205439464328227,1.625
-30.0,1.9266798695843652,1.625
-30.0,1.9266798695843652,0.8125
-30.0,1.932815792735908,0.8125
-30.0,1.932815792735908,4.0625
-30.0,1.9205439464328227,2.4375
-30.0,1.9205439464328227,4.0625
-30.0,1.9205439464328227,0.8125
-30.0,1.9205439464328227,4.0625
-30.0,1.945087639038993,0.0
-30.0,1.9266798695843652,0.8125
-30.0,1.9082721001297376,6.5
-30.0,1.9573594853420782,-1.625
-30.0,1.9205439464328227,0.8125
-30.0,1.9205439464328227,2.4375
-30.0,1.9205439464328227,2.4375
-30.0,1.9389517158874505,0.8125
-30.0,1.9389517158874505,1.625
-30.0,1.9205439464328227,4.0625
-30.5,1.9266798695843652,4.0625
-30.0,1.9512235621905356,0.8125
-30.0,1.9389517158874505,2.4375
-30.0,1.945087639038993,-0.8125
-30.0,1.9266798695843652,4.0625
-30.0,1.932815792735908,4.875
-30.0,1.9389517158874505,0.8125
-30.0,1.9205439464328227,4.875
-30.0,1.9205439464328227,4.875
-30.0,1.9389517158874505,0.8125
-30.0,1.9266798695843652,2.4375
-30.0,1.945087639038993,0.8125
-30.0,1.9266798695843652,4.0625
-30.5,1.9389517158874505,1.625
-30.0,1.9144080232812801,4.875
-30.0,1.9389517158874505,1.625
-30.5,1.9389517158874505,1.625
-30.0,1.9266798695843652,4.875
-30.0,1.9389517158874505,0.8125
-30.0,1.9389517158874505,1.625
-30.5,1.932815792735908,4.0625
-30.0,1.932815792735908,1.625
-30.0,1.932815792735908,4.0625
-30.5,1.932815792735908,0.0
-30.0,1.9266798695843652,4.0625
-30.0,1.9266798695843652,4.0625
-30.0,1.9205439464328227,4.875
-30.5,1.9512235621905356,0.8125
-30.5,1.9205439464328227,4.0625
-30.0,1.932815792735908,1.625
-30.0,1.9266798695843652,4.0625
-30.0,1.932815792735908,1.625
-30.5,1.9266798695843652,4.0625
-30.0,1.932815792735908,2.4375
-30.0,1.932815792735908,2.4375
-30.5,1.9512235621905356,0.0
-30.0,1.9512235621905356,0.0
-30.5,1.932815792735908,2.4375
-30.0,1.9266798695843652,5.6875
-30.5,1.945087639038993,0.8125
-30.0,1.932815792735908,2.4375
-30.0,1.9266798695843652,4.875
-30.0,1.9389517158874505,1.625
-30.0,1.9389517158874505,2.4375
-30.0,1.9573594853420782,0.0
-30.0,1.932815792735908,4.0625
-30.0,1.9389517158874505,2.4375
-30.5,1.945087639038993,0.8125
-30.0,1.9634954084936207,-0.8125
-30.0,1.945087639038993,0.8125
-30.0,1.9389517158874505,4.0625
-30.0,1.9389517158874505,5.6875
-30.0,1.932815792735908,4.875
-30.0,1.9634954084936207,-1.625
-30.0,1.945087639038993,1.625
-30.0,1.945087639038993,2.4375
-30.0,1.945087639038993,2.4375
-30.0,1.9573594853420782,2.4375
-30.0,1.9512235621905356,0.8125
-30.0,1.9634954084936207,1.625
-30.0,1.9573594853420782,0.8125
-30.0,1.9389517158874505,4.875
-30.0,1.9634954084936207,2.4375
-30.0,1.9512235621905356,4.875
-30.0,1.9573594853420782,2.4375
-30.0,1.9757672547967058,0.0
-30.0,1.9512235621905356,6.5
-30.0,1.9634954084936207,2.4375
-30.0,1.9634954084936207,2.4375
-30.0,1.9512235621905356,4.875
-30.0,1.9757672547967058,1.625
-30.0,1.9757672547967058,1.625
-30.0,1.9634954084936207,4.875
-30.0,1.9819031779482483,0.0
-30.0,1.9573594853420782,4.875
-30.0,1.9819031779482483,-0.8125
-30.0,1.9573594853420782,4.0625
-30.0,1.9757672547967058,4.0625
-30.0,1.9573594853420782,4.875
-30.0,1.9634954084936207,1.625
-30.0,1.9634954084936207,0.8125
-30.0,1.9757672547967058,0.0
-30.0,1.9757672547967058,0.8125
-30.0,1.9512235621905356,4.875
-30.0,1.9634954084936207,4.0625
-30.0,1.9573594853420782,4.875
-30.0,1.9696313316451632,2.4375
-30.0,1.9757672547967058,0.0
-30.0,1.9573594853420782,4.0625
-30.0,1.9757672547967058,1.625
-30.0,1.9573594853420782,4.875
-30.0,1.9757672547967058,1.625
-30.0,1.9634954084936207,2.4375
-30.0,1.9880391010997909,0.0
-30.0,1.9757672547967058,1.625
-30.0,1.9757672547967058,1.625
-30.0,2.0064468705544187,-2.4375
-30.0,1.9634954084936207,4.875
-30.0,1.9819031779482483,0.0
-30.0,1.9819031779482483,0.8125
-30.0,1.9819031779482483,2.4375
-30.0,1.9757672547967058,4.0625
-30.0,1.9880391010997909,0.0
-30.0,1.9696313316451632,4.0625
-30.0,1.9819031779482483,1.625
-30.0,1.9696313316451632,1.625
-30.0,1.9696313316451632,4.0625
-30.0,2.018718716857504,-1.625
-30.0,1.9757672547967058,4.0625
-30.0,1.9880391010997909,1.625
-30.0,1.9573594853420782,6.5
-30.0,1.9880391010997909,2.4375
-30.0,1.9880391010997909,2.4375
-30.0,1.9880391010997909,1.625
-30.0,1.9819031779482483,2.4375
-30.0,1.9819031779482483,4.875
-30.0,1.9880391010997909,1.625
-30.0,1.9880391010997909,1.625
-30.0,1.9880391010997909,4.0625
-30.0,1.9696313316451632,4.0625
-30.0,1.9757672547967058,5.6875
-30.0,1.9880391010997909,0.8125
-30.0,2.000310947402876,0.0
-30.0,1.9880391010997909,1.625
-30.0,1.9819031779482483,4.875
-30.0,1.9634954084936207,5.6875
-30.0,1.9696313316451632,4.0625
-30.0,2.000310947402876,1.625
-30.0,1.9757672547967058,4.0625
-30.0,1.9941750242513334,0.8125
-30.0,1.9880391010997909,0.8125
-30.0,1.9819031779482483,4.0625
-30.0,1.9757672547967058,2.4375
-30.0,1.9696313316451632,4.875
-30.0,1.9880391010997909,1.625
-30.0,2.000310947402876,0.8125
-30.0,1.9880391010997909,1.625
-30.0,1.9819031779482483,4.875
-30.0,1.9941750242513334,1.625
-30.0,1.9880391010997909,2.4375
-30.0,1.9941750242513334,1.625
-30.0,1.9819031779482483,4.0625
-30.0,1.9941750242513334,1.625
-30.0,1.9880391010997909,1.625
-30.0,1.9880391010997909,2.4375
-30.0,1.9880391010997909,2.4375
-30.0,1.9880391010997909,1.625
-30.0,2.0064468705544187,0.8125
-30.0,1.9819031779482483,4.0625
-30.0,2.000310947402876,2.4375
-30.0,1.9880391010997909,4.0625
-30.0,1.9819031779482483,2.4375
-30.0,1.9880391010997909,4.0625
-30.0,1.9819031779482483,1.625
-30.0,1.9819031779482483,4.875
-30.0,1.9819031779482483,4.875
-30.0,1.9819031779482483,4.0625
-30.0,1.9819031779482483,4.0625
-30.0,1.9941750242513334,0.8125
-30.0,2.0064468705544187,1.625
-30.0,2.012582793705961,0.0
-30.0,1.9819031779482483,4.0625
-30.0,1.9757672547967058,5.6875
-30.0,2.000310947402876,0.8125
-30.0,1.9941750242513334,2.4375
-30.0,1.9757672547967058,5.6875
-30.0,1.9880391010997909,0.8125
-30.0,1.9757672547967058,4.875
-30.0,1.9757672547967058,4.875
-30.0,1.9880391010997909,2.4375
-30.0,1.9696313316451632,4.0625
-30.0,1.9757672547967058,2.4375
-30.0,1.9757672547967058,1.625
-30.0,1.9696313316451632,4.0625
-30.0,1.9696313316451632,5.6875
-30.0,1.9941750242513334,0.8125
-30.0,1.9819031779482483,5.6875
-30.0,1.9819031779482483,4.0625
-30.0,1.9941750242513334,0.8125
-30.0,1.9757672547967058,4.0625
-30.0,1.9941750242513334,0.0
-30.0,1.9880391010997909,1.625
-30.0,1.9941750242513334,0.0
-30.0,1.9941750242513334,2.4375
-30.0,2.000310947402876,0.8125
-30.0,1.9819031779482483,4.875
-30.0,1.9819031779482483,2.4375
-30.0,1.9941750242513334,1.625
-30.0,1.9941750242513334,2.4375
-30.0,1.9819031779482483,4.875
-30.0,2.000310947402876,0.8125
-30.0,1.9757672547967058,5.6875
-30.0,1.9941750242513334,2.4375
-30.0,1.9880391010997909,1.625
-30.0,1.9819031779482483,4.0625
-30.0,1.9819031779482483,4.875
-30.0,1.9819031779482483,2.4375
-30.0,1.9880391010997909,4.0625
-30.0,1.9941750242513334,1.625
-30.0,2.012582793705961,0.0
-30.0,1.9757672547967058,6.5
-30.0,1.9757672547967058,4.875
-30.0,1.9819031779482483,4.0625
-30.0,1.9819031779482483,4.875
-30.0,1.9880391010997909,4.0625
-30.0,1.9941750242513334,4.0625
-30.0,2.0064468705544187,0.8125
-30.0,2.0064468705544187,0.8125
-30.0,2.0064468705544187,0.0
-30.0,2.000310947402876,0.8125
-30.0,1.9757672547967058,7.3125
-30.0,2.000310947402876,1.625
-30.0,1.9941750242513334,2.4375
-30.0,2.0064468705544187,1.625
-30.0,2.0064468705544187,2.4375
-30.0,1.9941750242513334,4.0625
-30.0,1.9941750242513334,4.875
-30.0,2.030990563160589,-0.8125
-30.0,2.000310947402876,4.0625
-30.0,1.9941750242513334,5.6875
-30.0,2.000310947402876,4.875
-29.5,2.0064468705544187,4.0625
-30.0,2.018718716857504,0.8125
-30.0,1.9941750242513334,5.6875
-30.0,2.0064468705544187,1.625
-29.5,2.000310947402876,4.875
-29.5,2.000310947402876,4.0625
-30.0,2.0064468705544187,1.625
-30.0,2.0064468705544187,4.0625
-30.0,2.012582793705961,0.8125
-30.0,2.0064468705544187,4.0625
-29.5,2.012582793705961,4.875
-29.5,2.030990563160589,0.0
-29.5,1.9941750242513334,5.6875
-29.5,2.012582793705961,4.875
-30.0,2.0064468705544187,4.0625
-29.5,2.000310947402876,5.6875
-29.5,2.018718716857504,1.625
-29.5,2.012582793705961,2.4375
-30.0,2.000310947402876,2.4375
-29.5,2.018718716857504,0.8125
-29.5,2.0064468705544187,4.0625
-29.5,2.012582793705961,2.4375
-29.5,2.0064468705544187,2.4375
-30.0,1.9941750242513334,4.0625
-29.5,2.018718716857504,0.0
-30.0,2.018718716857504,2.4375
-30.0,2.012582793705961,1.625
-29.5,2.0064468705544187,2.4375
-30.0,2.018718716857504,1.625
-30.0,2.012582793705961,1.625
-29.5,2.000310947402876,4.0625
-29.5,2.000310947402876,5.6875
-30.0,2.024854640009046,1.625
-29.5,2.012582793705961,4.875
-29.5,2.018718716857504,2.4375
-29.5,2.018718716857504,2.4375
-29.5,2.0064468705544187,4.875
-30.0,2.030990563160589,0.8125
-29.5,2.012582793705961,1.625
-29.5,2.024854640009046,1.625
-29.5,2.024854640009046,1.625
-30.0,2.012582793705961,4.875
-29.5,2.0064468705544187,4.875
-30.0,2.030990563160589,0.8125
-29.5,2.024854640009046,2.4375
-30.0,2.0371264863121317,0.0
-30.0,2.018718716857504,5.6875
-30.0,2.030990563160589,1.625
-29.5,2.043262409463674,1.625
-29.5,2.030990563160589,2.4375
-29.5,2.030990563160589,4.875
-29.5,2.0493983326152168,1.625
-29.5,2.043262409463674,0.0
-29.5,2.030990563160589,4.0625
-29.5,2.030990563160589,2.4375
-29.5,2.043262409463674,1.625
-29.5,2.030990563160589,4.875
-29.5,2.055534255766759,0.0
-29.5,2.061670178918302,0.0
-29.5,2.0371264863121317,2.4375
-29.5,2.0371264863121317,4.0625
-29.5,2.0493983326152168,4.0625
-29.5,2.067806102069844,-0.8125
-29.5,2.055534255766759,1.625
-29.5,2.061670178918302,0.8125
-29.5,2.043262409463674,2.4375
-29.5,2.055534255766759,1.625
-29.5,2.073942025221387,0.0
-29.5,2.043262409463674,4.0625
-29.5,2.073942025221387,0.0
-29.5,2.061670178918302,1.625
-29.5,2.0493983326152168,4.0625
-29.5,2.043262409463674,4.0625
-29.5,2.0493983326152168,4.0625
-29.5,2.055534255766759,0.8125
-29.5,2.055534255766759,1.625
-29.5,2.0493983326152168,1.625
-29.5,2.055534255766759,2.4375
-29.5,2.061670178918302,1.625
-29.5,2.055534255766759,2.4375
-29.5,2.055534255766759,4.0625
-29.5,2.067806102069844,1.625
-29.5,2.073942025221387,0.8125
-29.5,2.055534255766759,2.4375
-29.5,2.067806102069844,0.0
-29.5,2.061670178918302,1.625
-29.5,2.055534255766759,4.0625
-29.5,2.073942025221387,0.8125
-29.5,2.055534255766759,4.875
-29.5,2.0800779483729293,-1.625
-29.5,2.061670178918302,1.625
-29.5,2.073942025221387,0.8125
-29.5,2.055534255766759,4.0625
-29.5,2.055534255766759,4.875
-29.5,2.067806102069844,0.8125
-29.5,2.0493983326152168,6.5
-29.5,2.0800779483729293,-0.8125
-29.5,2.061670178918302,4.875
-29.5,2.067806102069844,4.0625
-29.5,2.067806102069844,4.0625
-29.5,2.086213871524472,4.0625
-29.5,2.086213871524472,2.4375
-29.5,2.073942025221387,5.6875
-29.5,2.0923497946760143,2.4375
-29.5,2.086213871524472,2.4375
-29.5,2.086213871524472,4.0625
-29.5,2.0800779483729293,4.0625
-29.5,2.098485717827557,0.8125
-29.5,2.098485717827557,1.625
-29.5,2.073942025221387,6.5
-29.5,2.086213871524472,4.875
-29.5,2.0923497946760143,1.625
-29.5,2.1230294104337273,-1.625
-29.5,2.098485717827557,0.0
-29.5,2.098485717827557,2.4375
-29.5,2.086213871524472,4.0625
-29.5,2.0923497946760143,2.4375
-29.0,2.098485717827557,4.0625
-29.5,2.098485717827557,2.4375
-29.5,2.110757564130642,0.8125
-29.5,2.098485717827557,2.4375
-29.5,2.1046216409791,0.8125
-29.5,2.098485717827557,2.4375
-29.5,2.1046216409791,2.4375
-29.5,2.116893487282185,0.0
-29.5,2.086213871524472,5.6875
-29.5,2.110757564130642,2.4375
-29.5,2.1353012567368124,-2.4375
-29.0,2.1230294104337273,1.625
-29.5,2.098485717827557,4.875
-29.5,2.1046216409791,2.4375
-29.0,2.1046216409791,4.875
-29.0,2.110757564130642,4.0625
-29.5,2.110757564130642,4.875
-29.5,2.110757564130642,0.8125
-29.5,2.1353012567368124,-0.8125
-29.0,2.116893487282185,2.4375
-29.0,2.098485717827557,5.6875
-29.0,2.1230294104337273,0.8125
-29.5,2.110757564130642,4.0625
-29.5,2.1046216409791,4.875
-29.0,2.116893487282185,4.0625
-29.0,2.116893487282185,5.6875
-29.0,2.12916533358527,4.0625
-29.5,2.1230294104337273,2.4375
-29.0,2.116893487282185,4.875
-29.5,2.1353012567368124,0.8125
-29.0,2.12916533358527,2.4375
-29.0,2.1475731030398975,1.625
-29.0,2.1230294104337273,4.0625
-29.0,2.141437179888355,4.0625
-29.0,2.1353012567368124,5.6875
-29.5,2.1353012567368124,4.875
-29.0,2.12916533358527,6.5
-29.0,2.141437179888355,2.4375
-29.0,2.1353012567368124,4.875
-29.0,2.141437179888355,2.4375
-29.0,2.1537090261914402,1.625
-29.0,2.1353012567368124,4.875
-29.0,2.1537090261914402,1.625
-29.0,2.141437179888355,4.0625
-29.0,2.1475731030398975,4.0625
-29.0,2.1475731030398975,2.4375
-29.0,2.1353012567368124,4.0625
-29.0,2.1353012567368124,4.0625
-29.0,2.1537090261914402,0.8125
-29.0,2.172116795646068,0.0
-29.0,2.1353012567368124,6.5
-29.0,2.1598449493429825,2.4375
-29.0,2.1537090261914402,2.4375
-29.0,2.1598449493429825,4.0625
-29.0,2.1659808724945253,1.625
-29.0,2.1598449493429825,2.4375
-29.0,2.1598449493429825,2.4375
-29.0,2.1659808724945253,2.4375
-29.0,2.1598449493429825,4.875
-29.0,2.184388641949153,0.0
-29.0,2.172116795646068,4.0625
-29.0,2.2027964114037806,-2.4375
-29.0,2.172116795646068,2.4375
-29.0,2.172116795646068,4.0625
-29.0,2.1966604882522383,0.0
-29.0,2.184388641949153,4.0625
-29.0,2.1782527187976104,4.875
-29.0,2.1782527187976104,4.875
-29.0,2.184388641949153,4.0625
-29.0,2.2089323345553233,0.8125
-29.0,2.1966604882522383,5.6875
-29.0,2.2212041808584084,-0.8125
-29.0,2.2089323345553233,1.625
-29.0,2.2027964114037806,4.875
-29.0,2.2089323345553233,1.625
-29.0,2.1966604882522383,4.875
-29.0,2.2027964114037806,4.0625
-29.0,2.1966604882522383,4.0625
-29.0,2.2150682577068657,1.625
-29.0,2.2089323345553233,4.0625
-29.0,2.2027964114037806,1.625
-29.0,2.2027964114037806,1.625
-29.0,2.2027964114037806,2.4375
-29.0,2.2027964114037806,2.4375
-29.0,2.2027964114037806,2.4375
-29.0,2.2089323345553233,-0.8125
-29.0,2.172116795646068,5.6875
-29.0,2.184388641949153,1.625
-29.0,2.1782527187976104,1.625
-29.0,2.184388641949153,2.4375
-29.0,2.172116795646068,1.625
-29.0,2.1782527187976104,1.625
-29.0,2.172116795646068,0.8125
-29.0,2.172116795646068,2.4375
-29.0,2.1659808724945253,4.0625
-29.0,2.1782527187976104,0.8125
-29.0,2.1905245651006955,1.625
-29.0,2.1905245651006955,0.8125
-29.0,2.1782527187976104,5.6875
-29.0,2.1782527187976104,4.875
-29.0,2.1966604882522383,0.8125
-29.0,2.184388641949153,4.0625
-29.0,2.1782527187976104,2.4375
-29.0,2.1782527187976104,2.4375
-29.0,2.1905245651006955,1.625
-29.0,2.2089323345553233,-0.8125
-29.0,2.1905245651006955,4.0625
-29.0,2.1905245651006955,2.4375
-29.0,2.2027964114037806,4.0625
-29.0,2.1966604882522383,4.875
-29.0,2.2212041808584084,0.8125
-29.0,2.2089323345553233,1.625
-29.0,2.2089323345553233,2.4375
-29.0,2.2396119503130363,2.4375
-29.0,2.227340104009951,0.0
-29.0,2.2457478734645786,-1.625
-29.0,2.227340104009951,2.4375
-29.0,2.2334760271614935,4.0625
-29.0,2.2334760271614935,5.6875
-29.0,2.2641556429192065,1.625
-29.0,2.2580197197676637,1.625
-29.0,2.2641556429192065,1.625
-29.0,2.282563412373834,-1.625
-29.0,2.270291566070749,2.4375
-29.0,2.270291566070749,2.4375
-29.0,2.2886993355253766,-1.625
-29.0,2.2948352586769194,0.0
-29.0,2.282563412373834,1.625
-29.0,2.2948352586769194,-0.8125
-29.0,2.282563412373834,4.0625
-29.0,2.2948352586769194,0.0
-29.0,2.2886993355253766,1.625
-29.0,2.2948352586769194,0.0
-29.0,2.2948352586769194,0.0
-29.0,2.3071071049800045,-0.8125
-29.0,2.3009711818284617,0.8125
-29.0,2.2948352586769194,4.0625
-29.0,2.325514874434632,-1.625
-29.0,2.3009711818284617,0.8125
-29.0,2.3071071049800045,1.625
-29.0,2.3009711818284617,2.4375
-29.0,2.3071071049800045,0.8125
-29.0,2.3009711818284617,4.0625
-29.0,2.3193789512830896,0.0
-29.0,2.337786720737717,-1.625
-29.0,2.3193789512830896,1.625
-29.0,2.3193789512830896,1.625
-29.0,2.325514874434632,4.0625
-29.0,2.3193789512830896,0.8125
-29.0,2.3439226438892597,-1.625
-29.0,2.3439226438892597,-1.625
-29.0,2.337786720737717,0.0
-29.0,2.3193789512830896,4.875
-29.0,2.356194490192345,-0.8125
-29.0,2.350058567040802,0.0
-29.0,2.337786720737717,0.8125
-29.0,2.3439226438892597,0.8125
-29.0,2.356194490192345,-0.8125
-29.0,2.356194490192345,0.8125
-29.0,2.3316507975861747,4.875
-29.0,2.3623304133438876,0.0
-29.0,2.3746022596469727,-0.8125
-29.0,2.356194490192345,0.8125
-29.0,2.3746022596469727,1.625
-29.0,2.3623304133438876,1.625
-29.0,2.36846633649543,0.8125
-29.0,2.350058567040802,2.4375
-29.0,2.3623304133438876,2.4375
-28.5,2.3930100291016,-1.625
-29.0,2.386874105950058,0.0
-28.5,2.3746022596469727,1.625
-28.5,2.386874105950058,0.8125
-29.0,2.380738182798515,0.0
-29.0,2.380738182798515,-0.8125
-29.0,2.399145952253143,-1.625
-29.0,2.386874105950058,1.625
-28.5,2.380738182798515,0.8125
-28.5,2.3930100291016,2.4375
-29.0,2.3930100291016,0.8125
-28.5,2.380738182798515,0.8125
-28.5,2.3930100291016,0.8125
-28.5,2.3930100291016,0.8125
-28.5,2.386874105950058,2.4375
-28.5,2.3930100291016,1.625
-28.5,2.399145952253143,0.8125
-28.5,2.3930100291016,1.625
-28.5,2.4175537217077703,0.0
-28.5,2.399145952253143,0.8125
-28.5,2.399145952253143,1.625
-28.5,2.411417798556228,1.625
-28.5,2.411417798556228,4.0625
-28.5,2.448233337465483,-2.4375
-28.5,2.429825568010856,0.0
-28.5,2.423689644859313,2.4375
-28.5,2.435961491162398,0.0
-28.5,2.423689644859313,1.625
-28.5,2.429825568010856,1.625
-28.5,2.423689644859313,2.4375
-28.5,2.448233337465483,0.0
-28.5,2.442097414313941,1.625
-28.0,2.442097414313941,2.4375
-28.0,2.454369260617026,0.8125
-28.5,2.442097414313941,1.625
-28.5,2.466641106920111,2.4375
-28.5,2.454369260617026,2.4375
-28.0,2.466641106920111,0.0
-28.0,2.4605051837685683,1.625
-28.0,2.478912953223196,-1.625
-28.0,2.478912953223196,0.8125
-28.0,2.466641106920111,2.4375
-28.0,2.478912953223196,0.8125
-28.0,2.4605051837685683,4.0625
-28.0,2.478912953223196,0.8125
-28.0,2.4850488763747385,0.8125
-28.0,2.478912953223196,4.0625
-28.0,2.478912953223196,4.0625
-28.0,2.4911847995262812,0.0
-28.0,2.478912953223196,4.0625
-28.0,2.509592568980909,0.0
-28.0,2.4911847995262812,4.0625
-28.0,2.497320722677824,1.625
-28.0,2.497320722677824,2.4375
-28.0,2.5034566458293663,0.8125
-28.0,2.509592568980909,0.0
-28.0,2.5034566458293663,4.0625
-28.0,2.497320722677824,4.0625
-28.0,2.509592568980909,0.8125
-28.0,2.5034566458293663,4.0625
-28.0,2.521864415283994,0.0
-28.0,2.497320722677824,5.6875
-28.0,2.509592568980909,1.625
-28.0,2.5157284921324514,2.4375
-28.0,2.5341362615870793,0.0
-28.0,2.521864415283994,0.8125
-28.0,2.521864415283994,4.0625
-28.0,2.5341362615870793,0.8125
-28.0,2.5341362615870793,0.8125
-28.0,2.521864415283994,4.0625
-28.0,2.5280003384355365,2.4375
-28.0,2.5402721847386216,2.4375
-28.0,2.5341362615870793,2.4375
-28.0,2.5341362615870793,2.4375
-28.0,2.5464081078901644,1.625
-28.0,2.5464081078901644,1.625
-28.0,2.5586799541932495,1.625
-28.0,2.5402721847386216,5.6875
-27.5,2.5586799541932495,4.0625
-27.5,2.5832236467994196,1.625
-27.5,2.5709518004963345,2.4375
-27.5,2.564815877344792,5.6875
-27.5,2.5770877236478773,1.625
-27.5,2.5893595699509624,1.625
-27.5,2.5832236467994196,1.625
-27.5,2.60776733940559,0.8125
-27.5,2.5832236467994196,4.875
-27.5,2.5832236467994196,4.875
-27.5,2.5954954931025047,2.4375
-27.5,2.6200391857086753,0.0
-27.5,2.60776733940559,2.4375
-27.5,2.5954954931025047,4.0625
-27.5,2.60776733940559,0.0
-27.5,2.5954954931025047,4.875
-27.5,2.6139032625571326,0.0
-27.5,2.60776733940559,1.625
-27.5,2.60776733940559,2.4375
-27.5,2.6016314162540475,1.625
-27.5,2.5954954931025047,4.875
-27.5,2.6139032625571326,1.625
-27.5,2.60776733940559,2.4375
-27.5,2.60776733940559,4.0625
-27.5,2.6139032625571326,2.4375
-27.5,2.6139032625571326,4.0625
-27.5,2.6200391857086753,1.625
-27.5,2.60776733940559,4.875
-27.5,2.6139032625571326,4.0625
-27.5,2.6200391857086753,4.0625
-27.5,2.6139032625571326,5.6875
-27.5,2.6200391857086753,4.0625
-27.5,2.6323110320117604,1.625
-27.5,2.6200391857086753,4.875
-27.5,2.6261751088602177,4.875
-27.5,2.6323110320117604,4.875
-27.5,2.6261751088602177,4.875
-27.5,2.6323110320117604,4.875
-27.5,2.6445828783148455,4.875
-27.5,2.6568547246179306,2.4375
-27.5,2.6323110320117604,5.6875
-27.5,2.6568547246179306,4.0625
-27.5,2.662990647769473,1.625
-27.0,2.6691265709210157,1.625
-27.5,2.6813984172241008,0.8125
-27.5,2.6875343403756435,1.625
-27.5,2.662990647769473,4.0625
-27.5,2.6998061866787286,0.0
-27.5,2.693670263527186,0.0
-27.5,2.6875343403756435,0.8125
-27.5,2.6813984172241008,2.4375
-27.5,2.6875343403756435,0.8125
-27.5,2.705942109830271,0.8125
-27.5,2.675262494072558,5.6875
-27.5,2.6875343403756435,4.875
-27.5,2.675262494072558,5.6875
-27.5,2.693670263527186,1.625
-27.5,2.693670263527186,4.875
-27.5,2.6875343403756435,4.875
-27.5,2.705942109830271,1.625
-27.5,2.7120780329818137,0.8125
-27.5,2.693670263527186,4.875
-27.5,2.693670263527186,4.0625
-27.5,2.6998061866787286,2.4375
-27.5,2.6998061866787286,2.4375
-27.5,2.6998061866787286,4.0625
-27.5,2.693670263527186,4.875
-27.5,2.705942109830271,2.4375
-27.5,2.718213956133356,1.625
-27.5,2.718213956133356,1.625
-27.5,2.736621725587984,0.0
-27.5,2.6998061866787286,5.6875
-27.5,2.718213956133356,1.625
-27.5,2.705942109830271,4.0625
-27.5,2.7120780329818137,2.4375
-27.5,2.705942109830271,4.0625
-27.5,2.6998061866787286,6.5
-27.5,2.7120780329818137,2.4375
-27.5,2.693670263527186,4.875
-27.5,2.6875343403756435,5.6875
-27.5,2.6998061866787286,2.4375
-27.5,2.693670263527186,2.4375
-27.5,2.693670263527186,1.625
-27.5,2.6875343403756435,4.875
-27.5,2.6998061866787286,0.8125
-27.5,2.6813984172241008,0.8125
-27.5,2.6813984172241008,1.625
-27.5,2.693670263527186,0.8125
-27.5,2.6691265709210157,4.875
-27.5,2.6875343403756435,0.8125
-27.5,2.675262494072558,4.0625
-27.5,2.662990647769473,4.0625
-27.5,2.650718801466388,4.0625
-27.5,2.6445828783148455,4.875
-27.5,2.6445828783148455,1.625
-27.5,2.6323110320117604,4.0625
-27.5,2.6384469551633027,4.875
-27.5,2.6445828783148455,4.0625
-27.5,2.6384469551633027,2.4375
-27.5,2.6568547246179306,0.0
-27.5,2.6323110320117604,5.6875
-27.5,2.6384469551633027,2.4375
-27.5,2.6323110320117604,5.6875
-27.5,2.6568547246179306,1.625
-27.5,2.6384469551633027,4.0625
-27.5,2.6445828783148455,2.4375
-27.5,2.650718801466388,1.625
-27.5,2.6261751088602177,4.875
-27.5,2.6384469551633027,4.0625
-27.5,2.6261751088602177,4.875
-27.5,2.650718801466388,0.8125
-27.5,2.6568547246179306,0.0
-27.5,2.6445828783148455,0.8125
-27.5,2.6384469551633027,1.625
-27.5,2.650718801466388,0.8125
-27.5,2.6445828783148455,2.4375
-27.5,2.6323110320117604,4.0625
-27.5,2.6568547246179306,0.8125
-27.5,2.6384469551633027,4.875
-27.5,2.6568547246179306,2.4375
-27.5,2.6568547246179306,1.625
-27.5,2.662990647769473,0.8125
-27.5,2.650718801466388,2.4375
-27.5,2.6568547246179306,2.4375
-27.5,2.6445828783148455,5.6875
-27.5,2.6445828783148455,4.875
-27.5,2.650718801466388,4.875
-27.5,2.675262494072558,0.8125
-27.5,2.6691265709210157,2.4375
-27.5,2.662990647769473,4.875
-27.5,2.6875343403756435,0.8125
-27.5,2.6875343403756435,0.8125
-27.5,2.693670263527186,1.625
-27.5,2.693670263527186,0.0
-27.0,2.693670263527186,4.0625
-27.5,2.6813984172241008,5.6875
-27.5,2.693670263527186,4.875
-27.5,2.6998061866787286,5.6875
-27.5,2.724349879284899,1.625
-27.5,2.718213956133356,2.4375
-27.5,2.724349879284899,2.4375
-27.5,2.7120780329818137,4.875
-27.5,2.724349879284899,1.625
-27.5,2.724349879284899,4.0625
-27.0,2.724349879284899,4.0625
-27.5,2.736621725587984,0.8125
-27.5,2.736621725587984,1.625
-27.5,2.736621725587984,2.4375
-27.0,2.7550294950426117,-0.8125
-27.5,2.761165418194154,0.0
-27.5,2.748893571891069,1.625
-27.5,2.761165418194154,0.8125
-27.5,2.742757648739526,4.0625
-27.0,2.748893571891069,5.6875
-27.5,2.767301341345697,0.0
-27.0,2.767301341345697,0.0
-27.0,2.7550294950426117,2.4375
-27.0,2.767301341345697,0.0
-27.5,2.761165418194154,1.625
-27.0,2.761165418194154,2.4375
-27.5,2.742757648739526,6.5
-27.5,2.773437264497239,0.8125
-27.5,2.767301341345697,2.4375
-27.0,2.748893571891069,4.0625
-27.0,2.761165418194154,2.4375
-27.5,2.748893571891069,4.875
-27.5,2.761165418194154,1.625
-27.0,2.761165418194154,2.4375
-27.0,2.773437264497239,1.625
-27.5,2.773437264497239,4.0625
-27.0,2.7550294950426117,4.875
-27.0,2.773437264497239,2.4375
-27.0,2.7857091108003242,1.625
-27.5,2.773437264497239,4.0625
-27.5,2.773437264497239,4.0625
-27.0,2.7857091108003242,1.625
-27.5,2.779573187648782,4.0625
-27.0,2.779573187648782,4.875
-27.0,2.791845033951867,4.0625
-27.5,2.7979809571034093,4.875
-27.0,2.791845033951867,5.6875
-27.0,2.8102528034064944,2.4375
-27.5,2.804116880254952,4.0625
-27.5,2.8102528034064944,5.6875
-27.0,2.82252464970958,2.4375
-27.5,2.82252464970958,4.875
-27.5,2.8409324191642074,2.4375
-27.0,2.859340188618835,0.8125
-27.5,2.8409324191642074,1.625
-27.5,2.84706834231575,2.4375
-27.0,2.8532042654672924,4.875
-27.5,2.8654761117703775,2.4375
-27.0,2.859340188618835,4.875
-27.5,2.8532042654672924,5.6875
-27.0,2.8654761117703775,4.0625
-27.0,2.859340188618835,4.875
-27.0,2.8838838812250054,2.4375
-27.0,2.8777479580734626,4.0625
-27.0,2.8777479580734626,4.875
-27.0,2.8838838812250054,4.875
-27.0,2.9084275738311756,1.625
-27.0,2.8838838812250054,5.6875
-27.0,2.9084275738311756,0.0
-27.0,2.9022916506796332,2.4375
-27.0,2.8961557275280905,5.6875
-27.0,2.8961557275280905,4.875
-27.0,2.9206994201342606,2.4375
-27.0,2.9022916506796332,4.0625
-27.5,2.9268353432858034,2.4375
-27.0,2.9268353432858034,4.0625
-27.5,2.945243112740431,1.625
-27.0,2.9206994201342606,6.5
-27.5,2.9391071895888885,4.0625
-27.5,2.9697868053466014,0.0
-27.0,2.9513790358919736,4.0625
-27.5,2.9575149590435164,2.4375
-27.0,2.9575149590435164,5.6875
-27.5,2.9759227284981438,2.4375
-27.0,2.9697868053466014,4.875
-27.5,3.000466421104314,0.8125
-27.0,3.0066023442558567,1.625
-27.5,3.0127382674073995,0.8125
-27.0,3.043417883165112,-1.625
-27.0,3.0250101137104846,1.625
-27.5,3.043417883165112,0.0
-27.0,3.031146036862027,2.4375
-27.5,3.0495538063166547,0.8125
-27.5,3.0372819600135696,4.875
-27.5,3.0802334220743677,-0.8125
-27.5,3.0925052683774528,-1.625
-27.5,3.098641191528995,-2.4375
-27.5,3.0925052683774528,-0.8125
-27.5,3.0925052683774528,0.0
-27.5,3.074097498922825,4.0625
-27.5,3.0925052683774528,2.4375
-27.5,3.104777114680538,0.8125
-27.5,3.098641191528995,0.8125
-27.5,3.11091303783208,0.0
-27.5,3.098641191528995,4.0625
-27.5,3.117048960983623,2.4375
-27.5,3.1354567304382504,4.0625
-27.5,3.1354567304382504,1.625
-27.5,3.147728576741336,2.4375
-27.5,3.160000423044421,2.4375
-27.5,3.172272269347506,1.625
-27.5,3.1906800388021335,0.8125
-27.0,3.2029518851052186,0.8125
-27.0,3.2090878082567613,0.8125
-27.0,3.2213596545598464,0.8125
-27.0,3.227495577711389,1.625
-27.0,3.227495577711389,4.0625
-27.0,3.2397674240144743,1.625
-27.0,3.2520392703175593,1.625
-27.0,3.2643111166206444,0.8125
-27.0,3.2643111166206444,1.625
-27.0,3.2704470397721868,1.625
-27.0,3.2704470397721868,0.8125
-27.0,3.2765829629237295,0.8125
-27.0,3.2765829629237295,0.8125
-27.0,3.2765829629237295,0.8125
-27.0,3.2765829629237295,0.8125
-27.0,3.2643111166206444,0.8125
-27.0,3.2520392703175593,0.8125
-27.0,3.2520392703175593,0.8125
-27.0,3.2520392703175593,0.8125
-27.0,3.2520392703175593,4.0625
-27.0,3.2704470397721868,0.0
-27.0,3.2765829629237295,0.0
-27.0,3.2888548092268146,0.0
-27.0,3.2827188860752723,1.625
-27.0,3.2888548092268146,0.8125
-27.0,3.3072625786814425,0.0
-27.0,3.2949907323783574,2.4375
-27.0,3.3072625786814425,1.625
-27.0,3.3072625786814425,2.4375
-27.0,3.3195344249845276,0.0
-27.0,3.32567034813607,1.625
-27.0,3.3195344249845276,2.4375
-27.0,3.3195344249845276,2.4375
-27.0,3.32567034813607,0.8125
-27.0,3.32567034813607,1.625
-27.0,3.32567034813607,1.625
-27.0,3.313398501832985,0.8125
-27.0,3.3072625786814425,2.4375
-27.0,3.3072625786814425,1.625
-27.0,3.3072625786814425,2.4375
-27.0,3.313398501832985,0.8125
-27.0,3.32567034813607,-0.8125
-27.0,3.313398501832985,0.0
-27.0,3.3072625786814425,1.625
-27.0,3.313398501832985,0.8125
-27.0,3.32567034813607,-0.8125
-27.5,3.3072625786814425,0.8125
-27.0,3.32567034813607,-2.4375
-27.0,3.3072625786814425,0.8125
-27.5,3.313398501832985,-0.8125
-27.0,3.3072625786814425,0.0
-27.5,3.3072625786814425,0.8125
-27.5,3.3072625786814425,0.0
-27.5,3.3072625786814425,0.0
-27.5,3.3195344249845276,-1.625
-27.0,3.3195344249845276,0.0
-27.5,3.313398501832985,0.0
-27.5,3.313398501832985,0.8125
-27.5,3.3195344249845276,0.0
-27.5,3.3195344249845276,0.8125
-27.0,3.3318062712876126,-0.8125
-27.5,3.3072625786814425,1.625
-27.5,3.3195344249845276,0.8125
-27.5,3.32567034813607,-0.8125
-27.5,3.3195344249845276,0.0
-27.5,3.3195344249845276,1.625
-27.5,3.32567034813607,-0.8125
-27.5,3.3195344249845276,0.8125
-27.5,3.3195344249845276,0.8125
-27.5,3.32567034813607,0.0
-27.5,3.3195344249845276,2.4375
-27.5,3.3440781175906977,0.0
-27.5,3.32567034813607,0.8125
-27.5,3.3379421944391554,-0.8125
-27.5,3.3440781175906977,-0.8125
-27.5,3.3440781175906977,0.8125
-27.5,3.3440781175906977,-0.8125
-27.5,3.3379421944391554,0.0
-27.5,3.3379421944391554,0.8125
-27.5,3.3440781175906977,0.8125
-27.5,3.3502140407422405,0.8125
-27.5,3.3440781175906977,0.8125
-27.5,3.3502140407422405,0.8125
-27.5,3.356349963893783,-0.8125
-27.5,3.356349963893783,4.0625
-27.5,3.3624858870453256,1.625
-27.5,3.380893656499953,0.0
-27.5,3.393165502803038,-0.8125
-28.0,3.393165502803038,1.625
-28.0,3.4054373491061236,1.625
-28.0,3.411573272257666,1.625
-28.0,3.436116964863836,-0.8125
-28.0,3.436116964863836,0.8125
-28.0,3.442252888015379,0.8125
-28.0,3.454524734318464,0.0
-28.0,3.4606606574700063,0.8125
-28.0,3.472932503773092,1.625
-28.5,3.4913402732277192,0.8125
-28.5,3.5036121195308043,0.8125
-28.5,3.5465635815916023,-5.6875
-28.5,3.5281558121369745,-0.8125
-28.5,3.5281558121369745,1.625
-28.5,3.552699504743145,0.8125
-28.5,3.5588354278946874,-0.8125
-28.5,3.552699504743145,0.8125
-29.0,3.5772431973493153,-1.625
-28.5,3.56497135104623,0.8125
-29.0,3.5895150436524004,-2.4375
-28.5,3.5772431973493153,0.8125
-29.0,3.6079228131070282,-5.6875
-29.0,3.552699504743145,5.6875
-28.5,3.6017868899554855,-1.625
-28.5,3.5895150436524004,-0.8125
-28.5,3.5833791205008576,0.0
-28.5,3.5895150436524004,-0.8125
-28.5,3.6017868899554855,-2.4375
-29.0,3.5956509668039427,-1.625
-29.0,3.5956509668039427,-1.625
-28.5,3.5895150436524004,-0.8125
-29.0,3.5833791205008576,-0.8125
-28.5,3.5711072741977725,0.0
-28.5,3.5895150436524004,-2.4375
-28.5,3.56497135104623,1.625
-28.5,3.6140587362585705,-0.8125
-29.0,3.5956509668039427,1.625
-29.0,3.5956509668039427,4.0625
-29.0,3.6017868899554855,4.0625
-29.0,3.6079228131070282,2.4375
-29.0,3.6140587362585705,2.4375
-29.0,3.6263305825616556,1.625
-29.0,3.6447383520162835,0.8125
-29.0,3.6324665057131984,2.4375
-29.0,3.6386024288647407,4.0625
-29.0,3.6386024288647407,4.0625
-29.0,3.650874275167826,0.8125
-29.0,3.650874275167826,4.0625
-29.5,3.6324665057131984,4.875
-29.0,3.650874275167826,1.625
-29.0,3.6570101983193686,0.8125
-29.0,3.650874275167826,4.0625
-29.0,3.6447383520162835,4.875
-29.0,3.6570101983193686,2.4375
-29.0,3.663146121470911,1.625
-29.0,3.663146121470911,2.4375
-29.0,3.650874275167826,4.0625
-29.0,3.663146121470911,4.0625
-29.0,3.663146121470911,2.4375
-29.0,3.6570101983193686,4.0625
-29.0,3.6447383520162835,4.875
-29.0,3.6692820446224537,2.4375
-29.0,3.6692820446224537,1.625
-29.0,3.6692820446224537,1.625
-29.0,3.6692820446224537,1.625
-29.0,3.6692820446224537,1.625
-29.0,3.663146121470911,4.875
-29.0,3.6692820446224537,2.4375
-29.0,3.6570101983193686,4.0625
-29.0,3.6815538909255388,1.625
-29.0,3.6815538909255388,0.8125
-29.0,3.6754179677739964,2.4375
-29.0,3.6754179677739964,2.4375
-29.0,3.6876898140770815,0.8125
-29.0,3.663146121470911,4.0625
-29.5,3.6754179677739964,2.4375
-29.0,3.6754179677739964,4.875
-29.0,3.6692820446224537,4.0625
-29.0,3.663146121470911,5.6875
-29.0,3.6754179677739964,4.0625
-29.5,3.6815538909255388,1.625
-29.0,3.6876898140770815,0.8125
-29.0,3.6876898140770815,1.625
-29.5,3.6815538909255388,2.4375
-29.5,3.6754179677739964,4.875
-29.0,3.6815538909255388,2.4375
-29.5,3.6815538909255388,2.4375
-29.5,3.6754179677739964,2.4375
-29.5,3.6754179677739964,4.0625
-29.5,3.663146121470911,4.875
-29.5,3.6754179677739964,2.4375
-29.5,3.6754179677739964,2.4375
-29.5,3.6692820446224537,4.0625
-29.5,3.663146121470911,4.0625
-29.5,3.663146121470911,4.0625
-29.5,3.650874275167826,4.875
-29.5,3.663146121470911,1.625
-29.5,3.6692820446224537,1.625
-29.5,3.663146121470911,2.4375
-29.5,3.6570101983193686,2.4375
-29.5,3.650874275167826,4.875
-29.5,3.6570101983193686,4.875
-29.5,3.6570101983193686,4.875
-29.0,3.6692820446224537,1.625
-29.0,3.663146121470911,4.0625
-29.0,3.663146121470911,5.6875
-29.0,3.6692820446224537,4.875
-29.0,3.6754179677739964,4.0625
-29.0,3.6876898140770815,2.4375
-29.0,3.6815538909255388,4.0625
-29.0,3.6692820446224537,7.3125
-29.0,3.6815538909255388,4.875
-29.0,3.6876898140770815,2.4375
-29.0,3.693825737228624,4.0625
-29.0,3.693825737228624,2.4375
-29.0,3.6876898140770815,4.875
-29.0,3.6876898140770815,2.4375
-29.0,3.6754179677739964,4.875
-29.0,3.6754179677739964,6.5
-28.5,3.6692820446224537,6.5
-29.0,3.6570101983193686,4.875
-28.5,3.6570101983193686,6.5
-28.5,3.663146121470911,4.0625
-28.5,3.650874275167826,6.5
-29.0,3.6447383520162835,7.3125
-29.0,3.6570101983193686,4.875
-29.0,3.663146121470911,4.0625
-29.0,3.6570101983193686,5.6875
-28.5,3.6692820446224537,4.0625
-29.0,3.6570101983193686,7.3125
-28.5,3.6692820446224537,4.875
-28.5,3.6754179677739964,4.0625
-28.5,3.663146121470911,5.6875
-28.5,3.663146121470911,5.6875
-28.5,3.663146121470911,6.5
-28.5,3.6570101983193686,6.5
-28.5,3.6754179677739964,5.6875
-28.5,3.6692820446224537,5.6875
-28.5,3.6754179677739964,4.875
-29.0,3.6876898140770815,4.0625
-28.5,3.6876898140770815,6.5
-28.5,3.6876898140770815,5.6875
-28.5,3.6999616603801666,2.4375
-29.0,3.6876898140770815,5.6875
-28.5,3.706097583531709,2.4375
-28.5,3.6876898140770815,7.3125
-28.0,3.693825737228624,4.875
-28.5,3.6876898140770815,4.875
-28.0,3.6999616603801666,4.0625
-28.0,3.6876898140770815,6.5
-28.0,3.6876898140770815,4.875
-28.0,3.6876898140770815,4.875
-28.5,3.6692820446224537,6.5
-28.0,3.6754179677739964,2.4375
-28.0,3.6692820446224537,2.4375
-28.0,3.6570101983193686,4.875
-28.0,3.6447383520162835,5.6875
-28.0,3.6570101983193686,4.875
-28.0,3.650874275167826,4.875
-28.0,3.6570101983193686,2.4375
-28.0,3.650874275167826,4.875
-28.0,3.650874275167826,4.0625
-28.0,3.6447383520162835,5.6875
-28.0,3.6570101983193686,4.875
-28.0,3.6570101983193686,4.0625
-28.0,3.6570101983193686,2.4375
-27.5,3.650874275167826,5.6875
-28.0,3.663146121470911,0.8125
-28.0,3.6447383520162835,5.6875
-27.5,3.6570101983193686,5.6875
-28.0,3.6570101983193686,4.875
-27.5,3.6570101983193686,4.875
-28.0,3.650874275167826,4.875
-28.0,3.650874275167826,4.0625
-28.0,3.6447383520162835,5.6875
-27.5,3.6386024288647407,5.6875
-28.0,3.6447383520162835,4.875
-27.5,3.650874275167826,4.875
-28.0,3.6447383520162835,6.5
-28.0,3.6570101983193686,2.4375
-28.0,3.6447383520162835,4.875
-27.5,3.6447383520162835,5.6875
-27.5,3.650874275167826,5.6875
-27.5,3.650874275167826,4.0625
-27.5,3.650874275167826,1.625
-27.5,3.6324665057131984,7.3125
-27.5,3.6386024288647407,4.875
-27.5,3.6386024288647407,4.875
-27.5,3.6324665057131984,6.5
-28.0,3.6386024288647407,4.875
-27.5,3.6386024288647407,4.875
-27.5,3.6324665057131984,4.875
-28.0,3.6386024288647407,6.5
-27.5,3.6386024288647407,6.5
-27.5,3.6447383520162835,4.0625
-27.5,3.6263305825616556,5.6875
-27.5,3.6324665057131984,4.875
-27.5,3.6447383520162835,2.4375
-27.5,3.6263305825616556,5.6875
-27.5,3.6447383520162835,4.0625
-27.5,3.6201946594101133,6.5
-27.5,3.6263305825616556,4.875
-27.5,3.6386024288647407,4.0625
-27.0,3.6201946594101133,7.3125
-27.5,3.6324665057131984,4.875
-27.5,3.6263305825616556,4.0625
-27.5,3.6201946594101133,5.6875
-27.5,3.6201946594101133,5.6875
-27.5,3.6140587362585705,7.3125
-27.5,3.6201946594101133,5.6875
-27.5,3.6079228131070282,6.5
-27.5,3.6263305825616556,4.875
-27.5,3.6201946594101133,4.875
-27.5,3.6324665057131984,4.875
-27.5,3.6201946594101133,5.6875
-27.5,3.6263305825616556,4.875
-27.5,3.6201946594101133,6.5
-27.5,3.6201946594101133,6.5
-27.0,3.6201946594101133,5.6875
-27.5,3.6201946594101133,4.875
-27.5,3.6140587362585705,5.6875
-27.5,3.6140587362585705,4.875
-27.5,3.6201946594101133,4.0625
-27.0,3.6017868899554855,5.6875
-27.5,3.6079228131070282,4.875
-27.0,3.6201946594101133,4.0625
-27.5,3.6140587362585705,4.0625
-27.0,3.6079228131070282,4.875
-27.0,3.6017868899554855,6.5
-27.5,3.5895150436524004,7.3125
-27.0,3.6017868899554855,5.6875
-27.5,3.6140587362585705,2.4375
-27.0,3.5956509668039427,5.6875
-27.5,3.6140587362585705,1.625
-27.5,3.6140587362585705,1.625
-27.5,3.5956509668039427,5.6875
-27.5,3.6017868899554855,4.875
-27.5,3.5895150436524004,5.6875
-27.0,3.5956509668039427,5.6875
-27.5,3.5956509668039427,4.875
-27.5,3.6017868899554855,0.8125
-27.5,3.6017868899554855,2.4375
-27.5,3.5956509668039427,4.0625
-27.0,3.5895150436524004,4.0625
-27.5,3.5895150436524004,4.0625
-27.5,3.5895150436524004,2.4375
-27.5,3.5772431973493153,5.6875
-27.0,3.5772431973493153,4.875
-27.5,3.56497135104623,4.875
-27.5,3.5711072741977725,4.875
-27.0,3.5772431973493153,2.4375
-27.5,3.5711072741977725,4.0625
-27.5,3.552699504743145,5.6875
-27.5,3.56497135104623,4.0625
-27.0,3.5711072741977725,1.625
-27.0,3.552699504743145,5.6875
-27.5,3.552699504743145,4.875
-27.5,3.552699504743145,4.0625
-27.5,3.54042765844006,4.875
-27.5,3.5342917352885173,5.6875
-27.5,3.5465635815916023,2.4375
-27.5,3.5342917352885173,4.875
-28.0,3.5281558121369745,5.6875
-27.5,3.5342917352885173,4.875
-27.5,3.5342917352885173,1.625
-27.5,3.5281558121369745,4.875
-27.5,3.54042765844006,2.4375
-28.0,3.522019888985432,6.5
-28.0,3.5281558121369745,4.875
-27.5,3.5342917352885173,4.0625
-28.0,3.522019888985432,2.4375
-28.0,3.522019888985432,5.6875
-27.5,3.5158839658338894,6.5
-28.0,3.522019888985432,5.6875
-28.0,3.522019888985432,5.6875
-27.5,3.522019888985432,4.875
-27.5,3.5281558121369745,4.875
-27.5,3.5158839658338894,6.5
-27.5,3.5281558121369745,5.6875
-28.0,3.522019888985432,4.875
-27.5,3.522019888985432,4.875
-28.0,3.5342917352885173,4.0625
-27.5,3.522019888985432,6.5
-27.5,3.522019888985432,5.6875
-27.5,3.522019888985432,5.6875
-27.5,3.522019888985432,4.0625
-27.5,3.5281558121369745,2.4375
-27.5,3.5158839658338894,4.875
-27.5,3.509748042682347,4.875
-27.5,3.5158839658338894,4.875
-27.5,3.509748042682347,4.875
-27.5,3.5036121195308043,5.6875
-27.5,3.5036121195308043,5.6875
-27.5,3.5036121195308043,4.0625
-27.5,3.509748042682347,4.0625
-27.5,3.509748042682347,4.0625
-27.5,3.5158839658338894,2.4375
-27.5,3.509748042682347,2.4375
-27.5,3.509748042682347,5.6875
-27.5,3.5036121195308043,5.6875
-27.5,3.509748042682347,4.0625
-27.5,3.509748042682347,4.875
-28.0,3.509748042682347,4.875
-27.5,3.509748042682347,4.0625
-27.5,3.5036121195308043,5.6875
-27.5,3.509748042682347,5.6875
-27.5,3.497476196379262,5.6875
-27.5,3.5036121195308043,4.875
-27.5,3.5036121195308043,5.6875
-27.5,3.509748042682347,2.4375
-27.5,3.485204350076177,6.5
-27.5,3.4913402732277192,6.5
-27.5,3.5036121195308043,4.875
-27.5,3.5036121195308043,2.4375
-27.5,3.509748042682347,2.4375
-27.5,3.4913402732277192,5.6875
-27.5,3.5036121195308043,4.0625
-28.0,3.4913402732277192,6.5
-27.5,3.497476196379262,6.5
-27.5,3.485204350076177,4.0625
-27.5,3.479068426924634,6.5
-27.5,3.472932503773092,5.6875
-27.5,3.479068426924634,2.4375
-27.5,3.479068426924634,2.4375
-27.5,3.466796580621549,4.0625
-27.0,3.472932503773092,4.875
-27.5,3.466796580621549,4.0625
-27.5,3.479068426924634,4.0625
-27.0,3.485204350076177,0.8125
-27.0,3.472932503773092,4.0625
-27.0,3.472932503773092,5.6875
-27.0,3.479068426924634,2.4375
-27.0,3.479068426924634,2.4375
-27.0,3.466796580621549,4.0625
-27.0,3.448388811166921,4.875
-27.0,3.454524734318464,4.0625
-27.5,3.454524734318464,4.0625
-27.0,3.442252888015379,4.875
-27.0,3.436116964863836,4.875
-27.0,3.436116964863836,4.0625
-27.5,3.436116964863836,5.6875
-27.0,3.436116964863836,4.875
-27.0,3.436116964863836,2.4375
-27.5,3.429981041712294,4.875
-27.0,3.423845118560751,4.0625
-27.0,3.429981041712294,4.0625
-27.0,3.423845118560751,4.0625
-27.0,3.4177091954092087,2.4375
-27.0,3.4054373491061236,5.6875
-27.0,3.399301425954581,4.875
-27.5,3.411573272257666,2.4375
-27.5,3.393165502803038,4.875
-27.0,3.4054373491061236,4.0625
-27.5,3.4054373491061236,4.0625
-27.5,3.4054373491061236,1.625
-27.5,3.399301425954581,4.0625
-27.0,3.393165502803038,2.4375
-27.5,3.3870295796514958,4.0625
-27.0,3.399301425954581,2.4375
-27.0,3.3870295796514958,2.4375
-27.0,3.380893656499953,4.0625
-27.5,3.3747577333484107,4.875
-27.0,3.3747577333484107,5.6875
-27.5,3.3747577333484107,4.0625
-27.5,3.3870295796514958,0.0
-27.5,3.368621810196868,4.875
-27.0,3.3624858870453256,4.0625
-27.0,3.3624858870453256,4.0625
-27.0,3.3502140407422405,2.4375
-27.5,3.3318062712876126,5.6875
-27.5,3.3318062712876126,4.0625
-27.5,3.3379421944391554,1.625
-27.0,3.3195344249845276,5.6875
-27.0,3.313398501832985,5.6875
-27.0,3.3195344249845276,2.4375
-27.0,3.3072625786814425,4.0625
-27.0,3.3011266555298997,4.0625
-27.0,3.3011266555298997,1.625
-27.0,3.2765829629237295,2.4375
-27.5,3.2581751934691017,1.625
-27.5,3.2397674240144743,0.0
-27.5,3.2090878082567613,0.8125
-27.5,3.153864499892878,4.0625
-27.5,3.104777114680538,5.6875
-27.5,3.098641191528995,0.8125
-27.5,3.067961575771282,0.0
-27.5,3.0250101137104846,5.6875
-27.5,3.018874190558942,1.625
-27.5,2.9820586516496865,1.625
-27.5,2.9513790358919736,4.875
-27.5,2.9084275738311756,7.3125
-27.5,2.9145634969827183,4.0625
-27.5,2.9022916506796332,4.0625
-27.5,2.9084275738311756,0.8125
-27.5,2.8777479580734626,4.875
-27.5,2.8777479580734626,4.0625
-27.5,2.859340188618835,4.0625
-27.5,2.8532042654672924,2.4375
-28.0,2.834796496012665,4.875
-27.5,2.816388726558037,7.3125
-28.0,2.816388726558037,4.0625
-28.0,2.7979809571034093,4.875
-28.0,2.779573187648782,4.875
-28.0,2.767301341345697,4.875
-28.0,2.761165418194154,1.625
-28.0,2.748893571891069,2.4375
-28.0,2.724349879284899,4.875
-28.0,2.7120780329818137,4.0625
-28.0,2.724349879284899,1.625
-28.0,2.6813984172241008,7.3125
-28.0,2.7120780329818137,0.8125
-28.0,2.693670263527186,5.6875
-28.5,2.718213956133356,0.8125
-28.0,2.705942109830271,4.0625
-28.0,2.705942109830271,2.4375
-28.0,2.6998061866787286,5.6875
-28.0,2.705942109830271,4.0625
-28.0,2.724349879284899,2.4375
-28.0,2.718213956133356,4.875
-28.0,2.730485802436441,4.0625
-28.0,2.742757648739526,4.0625
-28.0,2.742757648739526,4.875
-28.0,2.736621725587984,4.875
-27.5,2.736621725587984,5.6875
-27.5,2.736621725587984,5.6875
-27.5,2.736621725587984,2.4375
-27.5,2.7120780329818137,4.875
-28.0,2.705942109830271,4.875
-28.0,2.6998061866787286,0.8125
-28.0,2.650718801466388,6.5
-28.0,2.6384469551633027,2.4375
-28.5,2.6200391857086753,1.625
-28.5,2.6016314162540475,2.4375
-29.0,2.5832236467994196,4.875
-29.0,2.5709518004963345,4.0625
-28.5,2.552544031041707,4.875
-29.0,2.564815877344792,2.4375
-29.0,2.5586799541932495,4.875
-29.0,2.564815877344792,0.8125
-29.0,2.5341362615870793,5.6875
-29.0,2.552544031041707,2.4375
-29.0,2.5586799541932495,1.625
-29.0,2.564815877344792,2.4375
-29.0,2.5464081078901644,5.6875
-29.0,2.5586799541932495,5.6875
-28.5,2.5770877236478773,1.625
-28.5,2.564815877344792,4.0625
-28.5,2.564815877344792,4.0625
-28.5,2.5770877236478773,1.625
-28.5,2.5586799541932495,5.6875
-28.5,2.5709518004963345,1.625
-29.0,2.5464081078901644,5.6875
-29.0,2.5586799541932495,2.4375
-28.5,2.5586799541932495,0.0
-28.5,2.552544031041707,4.875
-29.0,2.552544031041707,1.625
-29.0,2.5586799541932495,2.4375
-28.5,2.552544031041707,2.4375
-29.0,2.552544031041707,1.625
-29.0,2.552544031041707,1.625
-28.5,2.5402721847386216,2.4375
-29.0,2.5402721847386216,1.625
-29.0,2.5341362615870793,2.4375
-29.0,2.521864415283994,4.0625
-29.0,2.5280003384355365,1.625
-29.0,2.5280003384355365,2.4375
-29.0,2.5280003384355365,0.8125
-29.0,2.521864415283994,2.4375
-29.0,2.5280003384355365,0.8125
-28.5,2.5402721847386216,-0.8125
-29.0,2.521864415283994,4.0625
-29.0,2.5280003384355365,2.4375
-29.0,2.521864415283994,2.4375
-29.0,2.521864415283994,1.625
-28.5,2.5280003384355365,0.8125
-29.0,2.5034566458293663,4.0625
-28.5,2.5034566458293663,4.0625
-29.0,2.509592568980909,0.8125
-29.0,2.5034566458293663,2.4375
-29.0,2.497320722677824,4.0625
-29.0,2.497320722677824,0.0
-29.0,2.4850488763747385,1.625
-29.0,2.4911847995262812,0.0
-29.0,2.4727770300716534,2.4375
-29.0,2.4850488763747385,0.0
-29.0,2.4605051837685683,2.4375
-29.0,2.448233337465483,4.0625
-29.0,2.448233337465483,2.4375
-29.5,2.442097414313941,1.625
-29.0,2.435961491162398,2.4375
-29.5,2.429825568010856,0.8125
-29.5,2.423689644859313,1.625
-29.5,2.423689644859313,0.0
-29.5,2.405281875404685,2.4375
-29.5,2.380738182798515,4.875
-30.0,2.399145952253143,2.4375
-29.5,2.3623304133438876,7.3125
-29.5,2.399145952253143,1.625
-29.5,2.380738182798515,2.4375
-29.5,2.399145952253143,0.8125
-29.5,2.386874105950058,2.4375
-29.5,2.380738182798515,4.0625
-29.5,2.380738182798515,4.875
-29.5,2.399145952253143,2.4375
-29.5,2.423689644859313,0.0
-29.5,2.423689644859313,0.8125
-29.0,2.429825568010856,1.625
-29.0,2.448233337465483,0.8125
-29.0,2.4605051837685683,-0.8125
-29.0,2.448233337465483,4.0625
-29.0,2.454369260617026,2.4375
-29.0,2.4605051837685683,2.4375
-29.0,2.448233337465483,4.875
-29.0,2.4727770300716534,0.0
-29.0,2.448233337465483,4.875
-29.0,2.454369260617026,1.625
-29.0,2.442097414313941,1.625
-29.5,2.435961491162398,0.8125
-29.5,2.405281875404685,0.0
-29.5,2.3623304133438876,4.0625
-29.5,2.356194490192345,2.4375
-30.0,2.356194490192345,-1.625
-30.0,2.356194490192345,-4.0625
-30.5,2.325514874434632,0.0
-30.0,2.3071071049800045,1.625
-30.5,2.282563412373834,2.4375
-30.0,2.2948352586769194,-0.8125
-30.5,2.2518837966161214,2.4375
-30.5,2.2580197197676637,2.4375
-30.5,2.2641556429192065,0.0
-30.5,2.2457478734645786,2.4375
-30.5,2.2396119503130363,4.0625
-30.5,2.2457478734645786,2.4375
-30.5,2.2334760271614935,4.0625
-30.5,2.2396119503130363,4.0625
-30.5,2.2457478734645786,2.4375
-30.5,2.2457478734645786,2.4375
-30.5,2.2334760271614935,5.6875
-30.5,2.2457478734645786,2.4375
-30.5,2.2334760271614935,8.125
-30.5,2.2396119503130363,2.4375
-30.5,2.2641556429192065,-2.4375
-30.5,2.2150682577068657,5.6875
-30.5,2.2212041808584084,2.4375
-30.5,2.2518837966161214,-0.8125
-30.5,2.2212041808584084,4.0625
-30.5,2.2027964114037806,4.875
-30.5,2.2089323345553233,1.625
-30.5,2.2089323345553233,4.0625
-30.5,2.184388641949153,5.6875
-31.0,2.184388641949153,5.6875
-30.5,2.184388641949153,4.875
-31.0,2.184388641949153,2.4375
-31.0,2.1659808724945253,4.0625
-31.0,2.1598449493429825,4.0625
-31.0,2.1598449493429825,2.4375
-31.0,2.1353012567368124,5.6875
-31.0,2.1537090261914402,0.0
-31.0,2.1353012567368124,1.625
-31.0,2.12916533358527,1.625
-31.0,2.1230294104337273,2.4375
-31.0,2.1230294104337273,1.625
-31.0,2.1475731030398975,-0.8125
-31.0,2.1230294104337273,1.625
-31.5,2.12916533358527,4.875
-31.0,2.1475731030398975,0.8125
-31.0,2.1475731030398975,0.8125
-31.0,2.1353012567368124,5.6875
-31.0,2.1659808724945253,0.0
-31.0,2.1475731030398975,2.4375
-31.0,2.141437179888355,4.0625
-31.0,2.1353012567368124,4.875
-31.5,2.12916533358527,4.0625
-31.5,2.116893487282185,5.6875
-31.5,2.110757564130642,2.4375
-31.5,2.1230294104337273,0.8125
-31.5,2.1353012567368124,-2.4375
-31.5,2.110757564130642,2.4375
-31.5,2.110757564130642,4.875
-31.5,2.1353012567368124,0.8125
-31.0,2.110757564130642,5.6875
-31.5,2.1230294104337273,1.625
-31.5,2.116893487282185,1.625
-31.5,2.12916533358527,0.0
-31.0,2.1230294104337273,4.0625
-31.5,2.116893487282185,2.4375
-31.5,2.12916533358527,0.0
-31.5,2.1046216409791,4.0625
-31.5,2.110757564130642,4.875
-31.5,2.110757564130642,2.4375
-31.5,2.110757564130642,1.625
-31.5,2.1230294104337273,-1.625
-31.5,2.0923497946760143,4.0625
-31.5,2.110757564130642,0.0
-31.5,2.086213871524472,4.0625
-32.0,2.073942025221387,4.875
-32.0,2.0800779483729293,2.4375
-32.0,2.0800779483729293,2.4375
-32.0,2.086213871524472,1.625
-32.0,2.0800779483729293,4.0625
-32.0,2.0493983326152168,6.5
-32.0,2.061670178918302,5.6875
-32.0,2.0800779483729293,1.625
-32.0,2.0800779483729293,1.625
-32.0,2.061670178918302,4.875
-32.0,2.061670178918302,4.875
-32.0,2.061670178918302,4.0625
-32.0,2.067806102069844,4.875
-32.0,2.0800779483729293,2.4375
-32.0,2.067806102069844,4.0625
-32.0,2.067806102069844,1.625
-32.0,2.055534255766759,4.875
-32.0,2.055534255766759,4.0625
-32.0,2.086213871524472,0.0
-32.0,2.0493983326152168,4.0625
-32.0,2.055534255766759,2.4375
-32.0,2.0371264863121317,4.875
-32.0,2.0371264863121317,4.875
-32.0,2.030990563160589,5.6875
-32.0,2.067806102069844,0.0
-32.0,2.030990563160589,4.875
-32.0,2.024854640009046,4.875
-32.5,2.0493983326152168,0.0
-32.5,2.055534255766759,0.0
-32.0,2.018718716857504,5.6875
-32.5,2.0064468705544187,5.6875
-32.5,2.0064468705544187,4.875
-32.5,1.9941750242513334,4.875
-32.5,2.000310947402876,2.4375
-32.5,2.018718716857504,0.8125
-32.5,1.9941750242513334,4.0625
-32.5,1.9757672547967058,5.6875
-32.5,1.9819031779482483,4.875
-32.5,1.9880391010997909,2.4375
-32.5,1.9941750242513334,0.0
-32.5,1.9634954084936207,4.875
-32.5,1.9819031779482483,2.4375
-32.5,1.9757672547967058,2.4375
-33.0,1.9819031779482483,1.625
-32.5,1.9696313316451632,4.0625
-33.0,1.9819031779482483,2.4375
-32.5,2.0064468705544187,-0.8125
-32.5,1.9696313316451632,5.6875
-32.5,1.9634954084936207,4.875
-32.5,1.9634954084936207,5.6875
-32.5,1.9634954084936207,4.0625
-33.0,1.9573594853420782,6.5
-32.5,1.9941750242513334,-0.8125
-33.0,1.9757672547967058,0.0
-33.0,1.9696313316451632,1.625
-32.5,1.9880391010997909,0.0
-32.5,1.9634954084936207,2.4375
-33.0,1.9573594853420782,1.625
-33.0,1.945087639038993,6.5
-33.0,1.932815792735908,7.3125
-33.0,1.9696313316451632,1.625
-33.0,1.9573594853420782,0.8125
-33.0,1.945087639038993,4.875
-33.0,1.9389517158874505,4.875
-33.0,1.9696313316451632,-1.625
-33.0,1.932815792735908,1.625
-33.0,1.932815792735908,0.8125
-33.0,1.9266798695843652,2.4375
-33.0,1.902136176978195,5.6875
-33.0,1.902136176978195,6.5
-33.5,1.902136176978195,4.0625
-33.0,1.9082721001297376,1.625
-33.0,1.88986433067511,5.6875
-33.0,1.902136176978195,1.625
-33.5,1.8960002538266525,4.0625
-33.5,1.8837284075235674,6.5
-33.0,1.9082721001297376,1.625
-33.5,1.8837284075235674,5.6875
-33.0,1.8714565612204823,4.0625
-33.5,1.8837284075235674,4.0625
-33.5,1.902136176978195,-0.8125
-33.5,1.88986433067511,1.625
-33.5,1.8837284075235674,0.0
-33.5,1.8837284075235674,0.8125
-33.5,1.8775924843720249,0.0
-33.5,1.8653206380689396,4.0625
-33.5,1.8714565612204823,1.625
-33.5,1.8714565612204823,0.8125
-33.5,1.8530487917658545,4.875
-33.5,1.8530487917658545,4.0625
-33.5,1.88986433067511,-0.8125
-33.5,1.8653206380689396,1.625
-33.5,1.8530487917658545,2.4375
-33.5,1.8407769454627694,5.6875
-33.5,1.859184714917397,1.625
-33.5,1.8407769454627694,4.0625
-33.5,1.8407769454627694,4.0625
-33.5,1.8285050991596843,4.0625
-33.5,1.8346410223112268,2.4375
-33.5,1.8223691760081417,7.3125
-33.5,1.8407769454627694,2.4375
-33.5,1.8407769454627694,1.625
-33.5,1.8346410223112268,4.0625
-33.5,1.859184714917397,-0.8125
-33.5,1.8223691760081417,4.0625
-33.5,1.8100973297050567,6.5
-33.5,1.8223691760081417,4.875
-33.5,1.8162332528565992,4.875
-33.5,1.8100973297050567,4.875
-33.5,1.8162332528565992,1.625
-33.5,1.8223691760081417,0.0
-33.5,1.8162332528565992,2.4375
-34.0,1.8100973297050567,2.4375
-33.5,1.7978254834019713,4.875
-33.5,1.7916895602504288,4.0625
-34.0,1.7794177139473437,7.3125
-33.5,1.8162332528565992,-0.8125
-34.0,1.7916895602504288,4.0625
-34.0,1.8223691760081417,0.0
-34.0,1.8223691760081417,1.625
-34.0,1.8039614065535141,4.0625
-34.0,1.7978254834019713,2.4375
-33.5,1.7855536370988863,6.5
-34.0,1.8039614065535141,4.0625
-34.0,1.8162332528565992,1.625
-33.5,1.8223691760081417,1.625
-33.5,1.8100973297050567,4.0625
-34.0,1.8285050991596843,0.0
-34.0,1.8100973297050567,2.4375
-34.0,1.7978254834019713,7.3125
-34.0,1.7978254834019713,5.6875
-33.5,1.8039614065535141,4.875
-34.0,1.8100973297050567,2.4375
-34.0,1.8162332528565992,1.625
-34.0,1.8039614065535141,7.3125
-33.5,1.846912868614312,-1.625
-34.0,1.8162332528565992,2.4375
-34.0,1.8285050991596843,1.625
-33.5,1.8039614065535141,4.875
-34.0,1.8162332528565992,2.4375
-33.5,1.8039614065535141,4.875
-34.0,1.8162332528565992,4.0625
-34.0,1.8039614065535141,4.0625
-33.5,1.7916895602504288,5.6875
-33.5,1.8346410223112268,-1.625
-33.5,1.7978254834019713,1.625
-34.0,1.7978254834019713,2.4375
-34.0,1.7916895602504288,4.0625
-33.5,1.8100973297050567,4.0625
-34.0,1.7978254834019713,1.625
-33.5,1.7794177139473437,4.0625
-34.0,1.7794177139473437,4.0625
-34.0,1.7732817907958012,4.0625
-34.0,1.8162332528565992,-2.4375
-34.0,1.7855536370988863,1.625
-34.0,1.7855536370988863,0.8125
-34.0,1.7794177139473437,1.625
-34.0,1.7732817907958012,5.6875
-34.0,1.7978254834019713,-1.625
-34.0,1.7732817907958012,4.0625
-34.0,1.7794177139473437,5.6875
-34.0,1.7732817907958012,4.875
-34.0,1.7794177139473437,1.625
-34.0,1.7916895602504288,0.8125
-34.0,1.7794177139473437,4.0625
-34.0,1.8162332528565992,-2.4375
-34.0,1.7855536370988863,2.4375
-34.0,1.7794177139473437,4.0625
-34.0,1.8039614065535141,0.0
-34.0,1.7916895602504288,0.8125
-34.0,1.7671458676442586,6.5
-34.0,1.7978254834019713,2.4375
-34.0,1.8039614065535141,1.625
-34.0,1.7732817907958012,6.5
-34.0,1.8100973297050567,0.8125
-34.0,1.8100973297050567,1.625
-34.0,1.8100973297050567,-0.8125
-34.0,1.7978254834019713,2.4375
-34.0,1.7978254834019713,4.875
-34.0,1.8162332528565992,0.0
-34.0,1.8039614065535141,0.8125
-34.0,1.7916895602504288,2.4375
-34.0,1.7916895602504288,1.625
-34.0,1.8039614065535141,1.625
-34.0,1.7916895602504288,4.875
-34.0,1.8039614065535141,1.625
-34.0,1.8039614065535141,0.8125
-34.0,1.7978254834019713,0.0
-34.0,1.8039614065535141,1.625
-33.5,1.7978254834019713,2.4375
-34.0,1.7916895602504288,2.4375
-34.0,1.7794177139473437,4.875
-34.0,1.8223691760081417,-0.8125
-34.0,1.7855536370988863,2.4375
-34.0,1.7978254834019713,1.625
-34.0,1.7916895602504288,5.6875
-34.0,1.8100973297050567,2.4375
-34.0,1.7978254834019713,2.4375
-34.0,1.7916895602504288,4.875
-34.0,1.7916895602504288,4.0625
-34.0,1.7855536370988863,4.875
-34.0,1.8039614065535141,0.0
-34.0,1.7978254834019713,0.0
-34.0,1.7671458676442586,4.875
-34.0,1.7916895602504288,1.625
-34.0,1.748738098189631,4.875
-34.0,1.748738098189631,5.6875
-34.0,1.7732817907958012,2.4375
-34.0,1.7732817907958012,1.625
-34.0,1.7671458676442586,4.0625
-34.0,1.748738098189631,4.875
-34.0,1.7671458676442586,2.4375
-34.0,1.7548740213411735,4.0625
-34.0,1.761009944492716,2.4375
-34.0,1.748738098189631,5.6875
-34.0,1.7671458676442586,4.0625
-34.0,1.7548740213411735,4.0625
-34.0,1.7548740213411735,4.875
-34.0,1.7732817907958012,1.625
-34.0,1.748738098189631,4.875
-34.0,1.7671458676442586,4.875
-34.0,1.7732817907958012,0.0
-34.0,1.7671458676442586,4.0625
-34.0,1.7548740213411735,4.875
-34.0,1.736466251886546,6.5
-34.0,1.7548740213411735,6.5
-34.0,1.761009944492716,5.6875
-34.0,1.7671458676442586,2.4375
-34.0,1.761009944492716,2.4375
-34.0,1.761009944492716,4.875
-34.0,1.7732817907958012,2.4375
-34.0,1.7732817907958012,4.0625
-34.0,1.7855536370988863,-0.8125
-34.0,1.748738098189631,5.6875
-34.0,1.761009944492716,4.0625
-34.0,1.7794177139473437,1.625
-34.0,1.7671458676442586,4.0625
-34.0,1.7671458676442586,1.625
-34.0,1.7548740213411735,5.6875
-34.0,1.7732817907958012,0.8125
-34.0,1.7732817907958012,1.625
-34.0,1.761009944492716,0.8125
-34.0,1.761009944492716,1.625
-34.0,1.7548740213411735,5.6875
-34.0,1.7671458676442586,2.4375
-34.0,1.7548740213411735,4.0625
-34.0,1.7671458676442586,-0.8125
-34.0,1.7426021750380885,4.0625
-34.0,1.7732817907958012,-0.8125
-34.0,1.7426021750380885,4.0625
-34.0,1.7548740213411735,2.4375
-34.0,1.7548740213411735,5.6875
-34.0,1.736466251886546,7.3125
-34.0,1.7794177139473437,-0.8125
-34.0,1.7303303287350031,4.875
-34.0,1.7732817907958012,0.0
-34.0,1.7794177139473437,0.0
-34.0,1.748738098189631,2.4375
-34.0,1.7548740213411735,4.875
-34.0,1.736466251886546,5.6875
-34.0,1.748738098189631,4.875
-34.0,1.761009944492716,1.625
-34.0,1.736466251886546,4.875
-34.0,1.7855536370988863,-4.0625
-34.0,1.748738098189631,2.4375
-34.0,1.761009944492716,0.0
-34.0,1.7548740213411735,1.625
-34.0,1.761009944492716,1.625
-34.0,1.7426021750380885,4.0625
-34.0,1.7426021750380885,4.0625
-34.0,1.7548740213411735,0.8125
-34.0,1.748738098189631,2.4375
-34.0,1.761009944492716,-0.8125
-34.0,1.748738098189631,1.625
-34.0,1.761009944492716,-0.8125
-34.0,1.7426021750380885,5.6875
-34.0,1.748738098189631,4.0625
-34.0,1.736466251886546,4.0625
-34.0,1.7426021750380885,2.4375
-34.0,1.7303303287350031,4.0625
-34.0,1.7426021750380885,2.4375
-34.0,1.7548740213411735,0.8125
-34.0,1.736466251886546,4.0625
-34.0,1.7303303287350031,4.0625
-34.0,1.736466251886546,5.6875
-34.0,1.7241944055834606,4.875
-34.0,1.7303303287350031,7.3125
-34.0,1.736466251886546,4.0625
-34.0,1.761009944492716,0.0
-34.0,1.7426021750380885,1.625
-34.5,1.7241944055834606,2.4375
-34.0,1.7303303287350031,4.0625
-34.0,1.718058482431918,4.875
-34.0,1.7241944055834606,4.0625
-34.0,1.7119225592803755,4.875
-34.0,1.748738098189631,1.625
-34.0,1.7548740213411735,0.8125
-34.0,1.7241944055834606,1.625
-34.0,1.7241944055834606,4.0625
-34.0,1.736466251886546,2.4375
-34.0,1.7241944055834606,1.625
-34.0,1.718058482431918,2.4375
-34.0,1.7426021750380885,0.8125
-34.0,1.7303303287350031,0.8125
-34.0,1.7303303287350031,6.5
-34.0,1.748738098189631,0.0
-34.0,1.7241944055834606,5.6875
-34.0,1.718058482431918,5.6875
-34.0,1.7241944055834606,4.0625
-34.0,1.7303303287350031,1.625
-34.0,1.7303303287350031,4.875
-34.0,1.718058482431918,4.875
-34.0,1.736466251886546,0.8125
-34.0,1.7548740213411735,0.0
-34.0,1.7241944055834606,4.0625
-34.0,1.7671458676442586,0.8125
-34.0,1.7303303287350031,2.4375
-34.0,1.748738098189631,0.0
-34.0,1.7426021750380885,0.8125
-34.0,1.7303303287350031,1.625
-34.0,1.7241944055834606,2.4375
-34.0,1.7426021750380885,1.625
-34.0,1.718058482431918,5.6875
-34.0,1.7426021750380885,0.8125
-34.0,1.7426021750380885,0.0
-34.0,1.7119225592803755,8.9375
-34.0,1.7303303287350031,1.625
-34.0,1.736466251886546,1.625
-34.0,1.7426021750380885,-0.8125
-34.0,1.7426021750380885,0.8125
-34.0,1.7426021750380885,0.0
-34.0,1.7426021750380885,0.8125
-34.0,1.7303303287350031,4.0625
-34.0,1.7303303287350031,4.875
-34.0,1.7426021750380885,2.4375
-34.0,1.761009944492716,-0.8125
-34.0,1.736466251886546,4.875
-34.0,1.7548740213411735,0.8125
-34.0,1.736466251886546,4.875
-34.0,1.7303303287350031,4.875
-34.0,1.7548740213411735,0.0
-34.0,1.7241944055834606,5.6875
-34.0,1.7548740213411735,2.4375
-34.0,1.7671458676442586,-1.625
-34.0,1.7426021750380885,4.875
-34.0,1.7548740213411735,-0.8125
-34.0,1.7426021750380885,1.625
-34.0,1.7426021750380885,1.625
-34.0,1.7548740213411735,0.0
-34.0,1.7671458676442586,0.8125
-34.0,1.748738098189631,2.4375
-33.5,1.7303303287350031,4.0625
-34.0,1.7426021750380885,2.4375
-34.0,1.761009944492716,0.8125
-34.0,1.7548740213411735,1.625
-33.5,1.7426021750380885,4.0625
-34.0,1.761009944492716,-1.625
-34.0,1.7426021750380885,2.4375
-33.5,1.761009944492716,0.0
-34.0,1.7671458676442586,0.0
-34.0,1.7732817907958012,0.0
-34.0,1.7794177139473437,0.0
-33.5,1.7426021750380885,7.3125
-33.5,1.7732817907958012,0.8125
-33.5,1.7426021750380885,5.6875
-34.0,1.7794177139473437,0.0
-34.0,1.748738098189631,0.8125
-33.5,1.7671458676442586,2.4375
-34.0,1.7548740213411735,4.875
-34.0,1.7794177139473437,0.0
-34.0,1.7916895602504288,-0.8125
-34.0,1.7671458676442586,4.875
-33.5,1.7732817907958012,1.625
-33.5,1.7671458676442586,4.0625
-33.5,1.7794177139473437,0.8125
-34.0,1.7794177139473437,1.625
-34.0,1.7732817907958012,1.625
-33.5,1.7916895602504288,-0.8125
-34.0,1.7794177139473437,2.4375
-33.5,1.7855536370988863,2.4375
-34.0,1.7916895602504288,-0.8125
-34.0,1.7855536370988863,-0.8125
-34.0,1.7855536370988863,1.625
-33.5,1.7548740213411735,4.875
-33.5,1.761009944492716,2.4375
-33.5,1.7732817907958012,0.8125
-34.0,1.7671458676442586,5.6875
-34.0,1.7916895602504288,0.0
-33.5,1.7794177139473437,2.4375
-33.5,1.7732817907958012,4.875
-33.5,1.7916895602504288,0.0
-33.5,1.7855536370988863,0.0
-33.5,1.7671458676442586,4.0625
-33.5,1.7732817907958012,4.0625
-33.5,1.761009944492716,4.875
-33.5,1.7671458676442586,4.0625
-33.5,1.7855536370988863,4.0625
-33.5,1.8039614065535141,-0.8125
-33.5,1.7855536370988863,4.0625
-33.5,1.7794177139473437,4.875
-33.5,1.8162332528565992,1.625
-33.5,1.8162332528565992,0.8125
-33.5,1.8100973297050567,4.875
-33.5,1.8285050991596843,0.0
-33.5,1.8223691760081417,1.625
-33.5,1.8162332528565992,6.5
-33.5,1.8346410223112268,0.0
-33.5,1.8285050991596843,1.625
-33.5,1.8285050991596843,2.4375
-33.5,1.8346410223112268,0.8125
-33.5,1.8346410223112268,4.0625
-33.5,1.8530487917658545,-1.625
-33.5,1.8346410223112268,2.4375
-33.0,1.8285050991596843,4.875
-33.5,1.8407769454627694,0.0
-33.5,1.8407769454627694,0.8125
-33.5,1.8223691760081417,4.875
-33.0,1.8285050991596843,2.4375
-33.5,1.846912868614312,1.625
-33.5,1.8346410223112268,1.625
-33.5,1.846912868614312,0.0
-33.5,1.8285050991596843,5.6875
-33.5,1.846912868614312,1.625
-33.5,1.8346410223112268,4.0625
-33.0,1.8407769454627694,2.4375
-33.0,1.8530487917658545,2.4375
-33.0,1.8653206380689396,1.625
-33.0,1.859184714917397,2.4375
-33.5,1.859184714917397,1.625
-33.0,1.846912868614312,4.0625
-33.0,1.8837284075235674,-0.8125
-33.0,1.859184714917397,4.875
-33.0,1.859184714917397,4.875
-33.5,1.8653206380689396,0.8125
-33.0,1.8653206380689396,-0.8125
-33.0,1.8714565612204823,0.0
-33.0,1.8653206380689396,0.0
-33.0,1.8530487917658545,4.875
-33.5,1.859184714917397,4.875
-33.0,1.859184714917397,4.0625
-33.0,1.8407769454627694,5.6875
-33.0,1.859184714917397,0.0
-33.0,1.8530487917658545,5.6875
-33.5,1.8714565612204823,0.8125
-33.5,1.8653206380689396,0.8125
-33.0,1.88986433067511,0.0
-33.0,1.8714565612204823,0.0
-33.5,1.902136176978195,-0.8125
-33.0,1.8960002538266525,-0.8125
-33.0,1.902136176978195,-0.8125
-33.0,1.8775924843720249,4.0625
-33.0,1.9082721001297376,0.8125
-33.0,1.9205439464328227,2.4375
-33.0,1.9573594853420782,-2.4375
-33.0,1.932815792735908,6.5
-32.5,1.9634954084936207,2.4375
-32.5,1.9696313316451632,4.0625
-32.5,1.9880391010997909,1.625
-32.5,1.9880391010997909,2.4375
-32.5,2.000310947402876,2.4375
-32.5,2.0064468705544187,4.875
-32.5,2.0493983326152168,0.8125
-32.5,2.055534255766759,2.4375
-32.0,2.086213871524472,-0.8125
-32.0,2.0923497946760143,2.4375
-32.0,2.098485717827557,2.4375
-32.0,2.110757564130642,4.0625
-32.0,2.1537090261914402,1.625
-32.0,2.1537090261914402,4.875
-32.0,2.1537090261914402,6.5
-32.0,2.1659808724945253,4.875
-32.0,2.1905245651006955,2.4375
-31.5,2.2027964114037806,4.0625
-32.0,2.227340104009951,0.8125
-32.0,2.2150682577068657,4.0625
-32.0,2.2764274892222915,-2.4375
-31.5,2.282563412373834,-0.8125
-31.5,2.313243028131547,-2.4375
-31.5,2.3439226438892597,-2.4375
-31.5,2.337786720737717,-0.8125
-31.5,2.337786720737717,0.8125
-31.5,2.3439226438892597,0.8125
-31.5,2.36846633649543,-4.875
-31.5,2.3439226438892597,-1.625
-31.5,2.3193789512830896,0.0
-31.5,2.313243028131547,0.0
-32.0,2.2948352586769194,0.8125
-31.5,2.3071071049800045,-0.8125
-31.5,2.313243028131547,-1.625
-31.5,2.313243028131547,-0.8125
-31.5,2.3071071049800045,1.625
-31.5,2.3071071049800045,1.625
-31.5,2.3193789512830896,0.8125
-31.5,2.3071071049800045,4.0625
-31.5,2.3071071049800045,0.8125
-31.5,2.3193789512830896,2.4375
-31.5,2.356194490192345,-0.8125
-31.5,2.36846633649543,-1.625
-31.5,2.356194490192345,2.4375
-31.5,2.386874105950058,0.0
-31.0,2.399145952253143,1.625
-31.0,2.429825568010856,-0.8125
-31.0,2.448233337465483,-1.625
-31.0,2.4605051837685683,0.0
-30.5,2.478912953223196,2.4375
-30.5,2.497320722677824,4.0625
-30.5,2.5157284921324514,1.625
-30.0,2.521864415283994,4.875
-30.5,2.5402721847386216,-0.8125
-30.5,2.5280003384355365,4.0625
-30.5,2.5464081078901644,2.4375
-30.5,2.5464081078901644,0.0
-30.0,2.5341362615870793,4.875
-30.5,2.5402721847386216,2.4375
-30.5,2.5464081078901644,1.625
-30.5,2.5402721847386216,0.0
-30.5,2.5280003384355365,4.0625
-30.5,2.5157284921324514,4.0625
-30.5,2.5402721847386216,-1.625
-30.5,2.509592568980909,0.8125
-30.5,2.497320722677824,2.4375
-30.5,2.5034566458293663,0.8125
-30.5,2.521864415283994,-1.625
-30.5,2.509592568980909,-1.625
-30.5,2.4605051837685683,4.875
-31.0,2.442097414313941,4.0625
-31.0,2.442097414313941,0.8125
-31.0,2.4175537217077703,0.0
-31.0,2.399145952253143,0.8125
-31.0,2.36846633649543,4.0625
-31.5,2.386874105950058,1.625
-31.5,2.3623304133438876,4.0625
-31.5,2.3746022596469727,-0.8125
-31.5,2.350058567040802,1.625
-31.5,2.350058567040802,0.8125
-31.5,2.356194490192345,0.0
-31.5,2.350058567040802,0.8125
-31.5,2.3439226438892597,1.625
-31.5,2.3623304133438876,-2.4375
-31.5,2.337786720737717,1.625
-31.5,2.337786720737717,0.0
-32.0,2.325514874434632,0.8125
-32.0,2.3316507975861747,-0.8125
-32.0,2.3009711818284617,4.0625
-32.0,2.3071071049800045,4.0625
-32.0,2.3193789512830896,1.625
-32.0,2.2948352586769194,4.875
-31.5,2.3071071049800045,-0.8125
-31.5,2.2948352586769194,2.4375
-31.5,2.313243028131547,-4.0625
-32.0,2.2948352586769194,1.625
-31.5,2.2580197197676637,5.6875
-32.0,2.282563412373834,-0.8125
-32.0,2.270291566070749,0.8125
-32.0,2.2457478734645786,0.8125
-32.0,2.2212041808584084,4.875
-32.0,2.2150682577068657,5.6875
-32.0,2.2150682577068657,5.6875
-32.0,2.227340104009951,4.0625
-32.0,2.2212041808584084,7.3125
-32.0,2.2150682577068657,6.5
-32.0,2.2457478734645786,0.8125
-32.0,2.2212041808584084,4.0625
-32.0,2.2457478734645786,0.0
-32.0,2.2518837966161214,1.625
-32.0,2.2457478734645786,0.8125
-32.0,2.2212041808584084,4.875
-32.0,2.2334760271614935,2.4375
-32.0,2.2334760271614935,2.4375
-32.0,2.2212041808584084,4.875
-32.0,2.2334760271614935,4.0625
-32.0,2.2580197197676637,0.8125
-32.0,2.2518837966161214,0.0
-32.0,2.2334760271614935,4.0625
-32.0,2.2212041808584084,7.3125
-32.0,2.2641556429192065,0.0
-32.0,2.2396119503130363,1.625
-32.0,2.2396119503130363,1.625
-32.0,2.2518837966161214,-0.8125
-32.0,2.2212041808584084,4.875
-32.0,2.2212041808584084,4.875
-32.0,2.2641556429192065,-1.625
-32.0,2.2334760271614935,2.4375
-32.0,2.2641556429192065,-2.4375
-32.0,2.2396119503130363,4.0625
-32.0,2.2396119503130363,4.875
-32.0,2.2212041808584084,4.0625
-32.0,2.2212041808584084,2.4375
-32.0,2.2150682577068657,6.5
-32.0,2.2089323345553233,2.4375
-32.0,2.1966604882522383,5.6875
-32.0,2.1905245651006955,4.875
-32.0,2.2027964114037806,2.4375
-32.0,2.1966604882522383,4.0625
-32.0,2.1905245651006955,4.0625
-32.0,2.1966604882522383,2.4375
-32.0,2.1782527187976104,4.0625
-32.0,2.1537090261914402,5.6875
-32.0,2.1659808724945253,1.625
-32.0,2.1475731030398975,4.0625
-32.0,2.1475731030398975,2.4375
-32.0,2.1475731030398975,4.0625
-32.0,2.1537090261914402,2.4375
-32.0,2.1353012567368124,4.875
-32.0,2.116893487282185,5.6875
-32.0,2.1230294104337273,4.0625
-32.0,2.116893487282185,4.875
-32.0,2.12916533358527,2.4375
-32.0,2.12916533358527,2.4375
-32.0,2.116893487282185,4.875
-32.0,2.1353012567368124,0.8125
-32.0,2.116893487282185,4.875
-32.0,2.1046216409791,5.6875
-32.0,2.1230294104337273,4.875
-32.0,2.1046216409791,4.0625
-32.0,2.1046216409791,4.0625
-32.0,2.12916533358527,0.0
-32.0,2.1230294104337273,0.8125
-32.0,2.1353012567368124,0.0
-32.0,2.12916533358527,2.4375
-32.0,2.141437179888355,-0.8125
-32.0,2.141437179888355,0.0
-32.0,2.141437179888355,0.8125
-32.0,2.12916533358527,4.0625
-32.0,2.1475731030398975,0.0
-32.0,2.1475731030398975,-0.8125
-32.0,2.116893487282185,4.0625
-32.0,2.141437179888355,0.8125
-32.0,2.110757564130642,6.5
-32.0,2.1230294104337273,2.4375
-32.0,2.110757564130642,6.5
-32.0,2.12916533358527,6.5
-32.0,2.1353012567368124,1.625
-32.0,2.1475731030398975,0.8125
-32.0,2.12916533358527,5.6875
-32.0,2.1353012567368124,4.0625
-32.0,2.141437179888355,6.5
-32.0,2.1475731030398975,4.0625
-32.0,2.141437179888355,4.875
-32.0,2.1659808724945253,0.0
-32.0,2.1537090261914402,4.0625
-32.0,2.1537090261914402,1.625
-32.0,2.1475731030398975,2.4375
-32.0,2.141437179888355,4.0625
-32.0,2.1353012567368124,4.0625
-32.0,2.12916533358527,4.875
-32.0,2.116893487282185,6.5
-32.0,2.141437179888355,2.4375
-32.0,2.1230294104337273,5.6875
-32.0,2.098485717827557,8.125
-32.0,2.12916533358527,4.0625
-32.0,2.1598449493429825,-0.8125
-32.5,2.1230294104337273,4.875
-32.0,2.1230294104337273,2.4375
-32.0,2.1230294104337273,2.4375
-32.0,2.1353012567368124,0.8125
-32.0,2.141437179888355,1.625
-32.0,2.1537090261914402,1.625
-32.0,2.12916533358527,1.625
-32.0,2.1230294104337273,4.0625
-32.5,2.116893487282185,5.6875
-32.0,2.1475731030398975,0.8125
-32.0,2.1230294104337273,4.0625
-32.0,2.116893487282185,4.875
-32.0,2.12916533358527,1.625
-32.0,2.12916533358527,0.8125
-32.0,2.116893487282185,5.6875
-32.0,2.1230294104337273,0.8125
-32.0,2.1046216409791,6.5
-32.0,2.086213871524472,6.5
-32.0,2.098485717827557,2.4375
-32.0,2.116893487282185,0.8125
-32.0,2.0923497946760143,1.625
-32.0,2.098485717827557,1.625
-32.0,2.1046216409791,0.0
-32.5,2.098485717827557,0.8125
-32.0,2.1046216409791,0.8125
-32.0,2.1046216409791,2.4375
-32.0,2.1046216409791,2.4375
-32.0,2.1230294104337273,-0.8125
-32.0,2.1046216409791,4.875
-32.0,2.0923497946760143,4.0625
-32.0,2.12916533358527,0.0
-32.0,2.086213871524472,5.6875
-32.0,2.098485717827557,4.875
-32.0,2.110757564130642,4.0625
-32.0,2.1230294104337273,4.0625
-32.0,2.12916533358527,4.875
-32.0,2.141437179888355,0.8125
-32.0,2.1353012567368124,0.8125
-32.0,2.116893487282185,4.0625
-32.0,2.110757564130642,2.4375
-32.0,2.110757564130642,1.625
-32.0,2.1230294104337273,2.4375
-32.0,2.116893487282185,0.8125
-32.5,2.0800779483729293,4.875
