40000000000000000000AA00,865.7,4.8289714,6.5
40000000000000000000AA00,865.7,4.847379,3.25
40000000000000000000AA00,865.7,4.859651,3.25
40000000000000000000AA00,865.7,4.871923,0.8125
40000000000000000000AA00,865.7,4.865787,1.625
40000000000000000000AA00,865.7,4.865787,2.4375
40000000000000000000AA00,865.7,4.871923,0.8125
40000000000000000000AA00,865.7,4.871923,0.0
40000000000000000000AA00,865.7,4.871923,0.8125
40000000000000000000AA00,865.7,4.859651,3.25
40000000000000000000AA00,865.7,4.871923,0.8125
40000000000000000000AA00,865.7,4.853515,5.6875
40000000000000000000AA00,865.7,4.865787,3.25
40000000000000000000AA00,865.7,4.878059,2.4375
40000000000000000000AA00,865.7,4.853515,5.6875
40000000000000000000AA00,865.7,4.865787,4.875
40000000000000000000AA00,865.7,4.878059,0.8125
40000000000000000000AA00,865.7,4.865787,1.625
40000000000000000000AA00,865.7,4.871923,1.625
40000000000000000000AA00,865.7,4.859651,5.6875
40000000000000000000AA00,865.7,4.847379,3.25
40000000000000000000AA00,865.7,4.853515,2.4375
40000000000000000000AA00,865.7,4.871923,0.0
40000000000000000000AA00,865.7,4.865787,-1.625
40000000000000000000AA00,865.7,4.853515,3.25
40000000000000000000AA00,865.7,4.871923,0.0
40000000000000000000AA00,865.7,4.847379,3.25
40000000000000000000AA00,865.7,4.847379,4.875
40000000000000000000AA00,865.7,4.8351073,7.3125
40000000000000000000AA00,865.7,4.884195,-0.8125
40000000000000000000AA00,865.7,4.859651,2.4375
40000000000000000000AA00,865.7,4.8412433,3.25
40000000000000000000AA00,865.7,4.878059,-1.625
40000000000000000000AA00,865.7,4.859651,2.4375
40000000000000000000AA00,865.7,4.847379,2.4375
40000000000000000000AA00,865.7,4.853515,2.4375
40000000000000000000AA00,865.7,4.8412433,3.25
40000000000000000000AA00,865.7,4.847379,4.875
40000000000000000000AA00,865.7,4.8412433,4.875
40000000000000000000AA00,865.7,4.8412433,4.875
40000000000000000000AA00,865.7,4.859651,1.625
40000000000000000000AA00,865.7,4.853515,3.25
40000000000000000000AA00,865.7,4.8412433,4.875
40000000000000000000AA00,865.7,4.8289714,6.5
40000000000000000000AA00,865.7,4.859651,0.0
40000000000000000000AA00,865.7,4.847379,2.4375
40000000000000000000AA00,865.7,4.847379,1.625
40000000000000000000AA00,865.7,4.847379,0.0
40000000000000000000AA00,865.7,4.865787,0.0
40000000000000000000AA00,865.7,4.8289714,4.875
40000000000000000000AA00,865.7,4.8412433,3.25
40000000000000000000AA00,865.7,4.847379,2.4375
40000000000000000000AA00,865.7,4.8412433,3.25
40000000000000000000AA00,865.7,4.847379,3.25
40000000000000000000AA00,865.7,4.859651,1.625
40000000000000000000AA00,865.7,4.8412433,3.25
40000000000000000000AA00,865.7,4.859651,2.4375
40000000000000000000AA00,865.7,4.847379,1.625
40000000000000000000AA00,865.7,4.853515,1.625
40000000000000000000AA00,865.7,4.859651,0.0
40000000000000000000AA00,865.7,4.859651,0.8125
40000000000000000000AA00,865.7,4.8351073,4.875
40000000000000000000AA00,865.7,4.847379,4.875
40000000000000000000AA00,865.7,4.8289714,4.875
40000000000000000000AA00,865.7,4.8351073,4.875
40000000000000000000AA00,865.7,4.8412433,2.4375
40000000000000000000AA00,865.7,4.859651,0.8125
40000000000000000000AA00,865.7,4.8351073,5.6875
40000000000000000000AA00,865.7,4.847379,3.25
40000000000000000000AA00,865.7,4.8412433,3.25
40000000000000000000AA00,865.7,4.8412433,2.4375
40000000000000000000AA00,865.7,4.8228354,3.25
40000000000000000000AA00,865.7,4.8412433,2.4375
40000000000000000000AA00,865.7,4.8289714,3.25
40000000000000000000AA00,865.7,4.8166995,5.6875
40000000000000000000AA00,865.7,4.8166995,8.125
40000000000000000000AA00,865.7,4.8351073,4.875
40000000000000000000AA00,865.7,4.8412433,2.4375
40000000000000000000AA00,865.7,4.847379,1.625
40000000000000000000AA00,865.7,4.8351073,5.6875
40000000000000000000AA00,865.7,4.8351073,2.4375
40000000000000000000AA00,865.7,4.8351073,3.25
40000000000000000000AA00,865.7,4.8289714,5.6875
40000000000000000000AA00,865.7,4.8351073,3.25
40000000000000000000AA00,865.7,4.8412433,2.4375
40000000000000000000AA00,865.7,4.8412433,1.625
40000000000000000000AA00,865.7,4.8228354,4.875
40000000000000000000AA00,865.7,4.847379,0.0
40000000000000000000AA00,865.7,4.8351073,4.875
40000000000000000000AA00,865.7,4.8412433,0.8125
40000000000000000000AA00,865.7,4.8351073,1.625
40000000000000000000AA00,865.7,4.8351073,3.25
40000000000000000000AA00,865.7,4.8105636,7.3125
40000000000000000000AA00,865.7,4.8289714,3.25
40000000000000000000AA00,865.7,4.8412433,0.8125
40000000000000000000AA00,865.7,4.847379,-0.8125
40000000000000000000AA00,865.7,4.8289714,4.875
40000000000000000000AA00,865.7,4.8351073,1.625
40000000000000000000AA00,865.7,4.8166995,3.25
40000000000000000000AA00,865.7,4.847379,-0.8125
40000000000000000000AA00,865.7,4.8228354,5.6875
40000000000000000000AA00,865.7,4.8412433,0.0
40000000000000000000AA00,865.7,4.8105636,5.6875
40000000000000000000AA00,865.7,4.8228354,3.25
40000000000000000000AA00,865.7,4.8228354,3.25
40000000000000000000AA00,865.7,4.8412433,1.625
40000000000000000000AA00,865.7,4.8412433,0.0
40000000000000000000AA00,865.7,4.8289714,1.625
40000000000000000000AA00,865.7,4.8166995,4.875
40000000000000000000AA00,865.7,4.8289714,1.625
40000000000000000000AA00,865.7,4.8228354,1.625
40000000000000000000AA00,865.7,4.8166995,3.25
40000000000000000000AA00,865.7,4.8105636,7.3125
40000000000000000000AA00,865.7,4.8166995,3.25
40000000000000000000AA00,865.7,4.8289714,0.8125
40000000000000000000AA00,865.7,4.8351073,0.8125
40000000000000000000AA00,865.7,4.8228354,1.625
40000000000000000000AA00,865.7,4.8166995,2.4375
40000000000000000000AA00,865.7,4.8105636,2.4375
40000000000000000000AA00,865.7,4.8228354,3.25
40000000000000000000AA00,865.7,4.8166995,1.625
40000000000000000000AA00,865.7,4.7982917,4.875
40000000000000000000AA00,865.7,4.8228354,1.625
40000000000000000000AA00,865.7,4.8105636,3.25
40000000000000000000AA00,865.7,4.8105636,3.25
40000000000000000000AA00,865.7,4.8228354,2.4375
40000000000000000000AA00,865.7,4.8228354,2.4375
40000000000000000000AA00,865.7,4.8166995,1.625
40000000000000000000AA00,865.7,4.8044276,3.25
40000000000000000000AA00,865.7,4.792156,5.6875
40000000000000000000AA00,865.7,4.7982917,2.4375
40000000000000000000AA00,865.7,4.8044276,2.4375
40000000000000000000AA00,865.7,4.7860203,4.875
40000000000000000000AA00,865.7,4.7798843,2.4375
40000000000000000000AA00,865.7,4.7798843,4.875
40000000000000000000AA00,865.7,4.7737484,5.6875
40000000000000000000AA00,865.7,4.7798843,2.4375
40000000000000000000AA00,865.7,4.7737484,2.4375
40000000000000000000AA00,865.7,4.7860203,2.4375
40000000000000000000AA00,865.7,4.7737484,4.875
40000000000000000000AA00,865.7,4.7614765,5.6875
40000000000000000000AA00,865.7,4.7798843,1.625
40000000000000000000AA00,865.7,4.7982917,-0.8125
40000000000000000000AA00,865.7,4.7798843,1.625
40000000000000000000AA00,865.7,4.7798843,0.8125
40000000000000000000AA00,865.7,4.7614765,4.875
40000000000000000000AA00,865.7,4.7737484,1.625
40000000000000000000AA00,865.7,4.7737484,4.875
40000000000000000000AA00,865.7,4.7737484,2.4375
40000000000000000000AA00,865.7,4.7676125,1.625
40000000000000000000AA00,865.7,4.7553406,3.25
40000000000000000000AA00,865.7,4.7614765,2.4375
40000000000000000000AA00,865.7,4.7553406,2.4375
40000000000000000000AA00,865.7,4.7553406,2.4375
40000000000000000000AA00,865.7,4.7614765,-0.8125
40000000000000000000AA00,865.7,4.7369328,2.4375
40000000000000000000AA00,865.7,4.7430687,1.625
40000000000000000000AA00,865.7,4.7369328,1.625
40000000000000000000AA00,865.7,4.7430687,0.0
40000000000000000000AA00,865.7,4.724661,4.875
40000000000000000000AA00,865.7,4.718525,1.625
40000000000000000000AA00,865.7,4.712389,3.25
40000000000000000000AA00,865.7,4.712389,6.5
40000000000000000000AA00,865.7,4.7492046,0.0
40000000000000000000AA00,865.7,4.718525,4.875
40000000000000000000AA00,865.7,4.730797,2.4375
40000000000000000000AA00,865.7,4.724661,2.4375
40000000000000000000AA00,865.7,4.712389,5.6875
40000000000000000000AA00,865.7,4.730797,1.625
40000000000000000000AA00,865.7,4.724661,2.4375
40000000000000000000AA00,865.7,4.730797,2.4375
40000000000000000000AA00,865.7,4.718525,1.625
40000000000000000000AA00,865.7,4.7369328,0.8125
40000000000000000000AA00,865.7,4.730797,3.25
40000000000000000000AA00,865.7,4.7430687,0.0
40000000000000000000AA00,865.7,4.7430687,0.0
40000000000000000000AA00,865.7,4.724661,4.875
40000000000000000000AA00,865.7,4.7492046,0.0
40000000000000000000AA00,865.7,4.730797,1.625
40000000000000000000AA00,865.7,4.7553406,0.8125
40000000000000000000AA00,865.7,4.730797,4.875
40000000000000000000AA00,865.7,4.7430687,1.625
40000000000000000000AA00,865.7,4.718525,5.6875
40000000000000000000AA00,865.7,4.7430687,0.0
40000000000000000000AA00,865.7,4.7369328,0.8125
40000000000000000000AA00,865.7,4.730797,4.875
40000000000000000000AA00,865.7,4.7369328,2.4375
40000000000000000000AA00,865.7,4.7492046,0.8125
40000000000000000000AA00,865.7,4.7369328,1.625
40000000000000000000AA00,865.7,4.7369328,1.625
40000000000000000000AA00,865.7,4.7430687,1.625
40000000000000000000AA00,865.7,4.7430687,1.625
40000000000000000000AA00,865.7,4.7492046,2.4375
40000000000000000000AA00,865.7,4.7430687,1.625
40000000000000000000AA00,865.7,4.7553406,1.625
40000000000000000000AA00,865.7,4.7369328,2.4375
40000000000000000000AA00,865.7,4.7369328,2.4375
40000000000000000000AA00,865.7,4.724661,4.875
40000000000000000000AA00,865.7,4.7369328,3.25
40000000000000000000AA00,865.7,4.7553406,0.0
40000000000000000000AA00,865.7,4.7430687,0.8125
40000000000000000000AA00,865.7,4.7492046,2.4375
40000000000000000000AA00,865.7,4.7369328,1.625
40000000000000000000AA00,865.7,4.7369328,1.625
40000000000000000000AA00,865.7,4.7369328,4.875
40000000000000000000AA00,865.7,4.7553406,0.8125
40000000000000000000AA00,865.7,4.730797,4.875
40000000000000000000AA00,865.7,4.7492046,2.4375
40000000000000000000AA00,865.7,4.7369328,3.25
40000000000000000000AA00,865.7,4.7430687,2.4375
40000000000000000000AA00,865.7,4.730797,2.4375
40000000000000000000AA00,865.7,4.724661,3.25
40000000000000000000AA00,865.7,4.7369328,0.8125
40000000000000000000AA00,865.7,4.7430687,0.0
40000000000000000000AA00,865.7,4.724661,0.0
40000000000000000000AA00,865.7,4.7553406,-2.4375
40000000000000000000AA00,865.7,4.724661,0.8125
40000000000000000000AA00,865.7,4.706253,3.25
40000000000000000000AA00,865.7,4.718525,0.8125
40000000000000000000AA00,865.7,4.724661,1.625
40000000000000000000AA00,865.7,4.724661,1.625
40000000000000000000AA00,865.7,4.730797,0.0
40000000000000000000AA00,865.7,4.7369328,-1.625
40000000000000000000AA00,865.7,4.7492046,-1.625
40000000000000000000AA00,865.7,4.7369328,0.0
40000000000000000000AA00,865.7,4.7369328,0.0
40000000000000000000AA00,865.7,4.730797,0.0
40000000000000000000AA00,865.7,4.730797,0.8125
40000000000000000000AA00,865.7,4.7369328,1.625
40000000000000000000AA00,865.7,4.718525,1.625
40000000000000000000AA00,865.7,4.687845,6.5
40000000000000000000AA00,865.7,4.706253,3.25
40000000000000000000AA00,865.7,4.724661,0.0
40000000000000000000AA00,865.7,4.730797,0.0
40000000000000000000AA00,865.7,4.706253,3.25
40000000000000000000AA00,865.7,4.7492046,-3.25
40000000000000000000AA00,865.7,4.724661,1.625
40000000000000000000AA00,865.7,4.724661,2.4375
40000000000000000000AA00,865.7,4.718525,3.25
40000000000000000000AA00,865.7,4.7430687,-0.8125
40000000000000000000AA00,865.7,4.712389,2.4375
40000000000000000000AA00,865.7,4.718525,2.4375
40000000000000000000AA00,865.7,4.7369328,0.0
40000000000000000000AA00,865.7,4.724661,1.625
40000000000000000000AA00,865.7,4.718525,2.4375
40000000000000000000AA00,865.7,4.718525,3.25
40000000000000000000AA00,865.7,4.730797,0.8125
40000000000000000000AA00,865.7,4.724661,1.625
40000000000000000000AA00,865.7,4.718525,1.625
40000000000000000000AA00,865.7,4.724661,0.0
40000000000000000000AA00,865.7,4.724661,3.25
40000000000000000000AA00,865.7,4.724661,0.8125
40000000000000000000AA00,865.7,4.706253,5.6875
40000000000000000000AA00,865.7,4.730797,0.0
40000000000000000000AA00,865.7,4.718525,1.625
40000000000000000000AA00,865.7,4.7369328,-0.8125
40000000000000000000AA00,865.7,4.718525,1.625
40000000000000000000AA00,865.7,4.7369328,-0.8125
40000000000000000000AA00,865.7,4.730797,0.0
40000000000000000000AA00,865.7,4.7430687,-0.8125
40000000000000000000AA00,865.7,4.724661,1.625
40000000000000000000AA00,865.7,4.724661,0.8125
40000000000000000000AA00,865.7,4.730797,0.8125
40000000000000000000AA00,865.7,4.718525,1.625
40000000000000000000AA00,865.7,4.693981,6.5
40000000000000000000AA00,865.7,4.724661,1.625
40000000000000000000AA00,865.7,4.712389,3.25
40000000000000000000AA00,865.7,4.712389,3.25
40000000000000000000AA00,865.7,4.724661,1.625
40000000000000000000AA00,865.7,4.706253,4.875
40000000000000000000AA00,865.7,4.730797,0.8125
40000000000000000000AA00,865.7,4.718525,2.4375
40000000000000000000AA00,865.7,4.7614765,-2.4375
40000000000000000000AA00,865.7,4.7430687,3.25
40000000000000000000AA00,865.7,4.7430687,1.625
40000000000000000000AA00,865.7,4.7553406,2.4375
40000000000000000000AA00,865.7,4.7492046,5.6875
40000000000000000000AA00,865.7,4.7737484,0.0
40000000000000000000AA00,865.7,4.7676125,2.4375
40000000000000000000AA00,865.7,4.7798843,2.4375
40000000000000000000AA00,865.7,4.7798843,4.875
40000000000000000000AA00,865.7,4.792156,3.25
40000000000000000000AA00,865.7,4.8105636,0.0
40000000000000000000AA00,865.7,4.8166995,0.8125
40000000000000000000AA00,865.7,4.8228354,3.25
40000000000000000000AA00,865.7,4.8289714,3.25
40000000000000000000AA00,865.7,4.8351073,5.6875
40000000000000000000AA00,865.7,4.853515,0.0
40000000000000000000AA00,865.7,4.8412433,2.4375
40000000000000000000AA00,865.7,4.859651,0.0
40000000000000000000AA00,865.7,4.859651,1.625
40000000000000000000AA00,865.7,4.847379,2.4375
40000000000000000000AA00,865.7,4.853515,3.25
40000000000000000000AA00,865.7,4.847379,3.25
40000000000000000000AA00,865.7,4.853515,0.0
40000000000000000000AA00,865.7,4.8412433,1.625
40000000000000000000AA00,865.7,4.8412433,0.0
40000000000000000000AA00,865.7,4.8166995,4.875
40000000000000000000AA00,865.7,4.8166995,3.25
40000000000000000000AA00,865.7,4.8105636,7.3125
40000000000000000000AA00,865.7,4.8351073,1.625
40000000000000000000AA00,865.7,4.8166995,3.25
40000000000000000000AA00,865.7,4.8228354,4.875
40000000000000000000AA00,865.7,4.8166995,4.875
40000000000000000000AA00,865.7,4.8166995,5.6875
40000000000000000000AA00,865.7,4.8289714,1.625
40000000000000000000AA00,865.7,4.8289714,1.625
40000000000000000000AA00,865.7,4.8105636,5.6875
40000000000000000000AA00,865.7,4.8289714,2.4375
40000000000000000000AA00,865.7,4.8105636,4.875
40000000000000000000AA00,865.7,4.8351073,0.8125
40000000000000000000AA00,865.7,4.8166995,1.625
40000000000000000000AA00,865.7,4.8166995,3.25
40000000000000000000AA00,865.7,4.8228354,1.625
40000000000000000000AA00,865.7,4.8166995,3.25
40000000000000000000AA00,865.7,4.7982917,3.25
40000000000000000000AA00,865.7,4.8289714,-2.4375
40000000000000000000AA00,865.7,4.8105636,2.4375
40000000000000000000AA00,865.7,4.8166995,2.4375
40000000000000000000AA00,865.7,4.8044276,5.6875
40000000000000000000AA00,865.7,4.8228354,2.4375
40000000000000000000AA00,865.7,4.8166995,0.8125
40000000000000000000AA00,865.7,4.8166995,2.4375
40000000000000000000AA00,865.7,4.8166995,1.625
40000000000000000000AA00,865.7,4.8228354,1.625
40000000000000000000AA00,865.7,4.8228354,1.625
40000000000000000000AA00,865.7,4.8228354,2.4375
40000000000000000000AA00,865.7,4.8351073,-0.8125
40000000000000000000AA00,865.7,4.8105636,2.4375
40000000000000000000AA00,865.7,4.8351073,0.8125
40000000000000000000AA00,865.7,4.8289714,1.625
40000000000000000000AA00,865.7,4.8044276,4.875
40000000000000000000AA00,865.7,4.8289714,0.8125
40000000000000000000AA00,865.7,4.8105636,6.5
40000000000000000000AA00,865.7,4.8166995,3.25
40000000000000000000AA00,865.7,4.8228354,-0.8125
40000000000000000000AA00,865.7,4.8289714,2.4375
40000000000000000000AA00,865.7,4.8228354,3.25
40000000000000000000AA00,865.7,4.8166995,3.25
40000000000000000000AA00,865.7,4.8228354,5.6875
40000000000000000000AA00,865.7,4.8351073,1.625
40000000000000000000AA00,865.7,4.8351073,2.4375
40000000000000000000AA00,865.7,4.8289714,4.875
40000000000000000000AA00,865.7,4.8351073,1.625
40000000000000000000AA00,865.7,4.8228354,3.25
40000000000000000000AA00,865.7,4.8289714,4.875
40000000000000000000AA00,865.7,4.8351073,2.4375
40000000000000000000AA00,865.7,4.8412433,0.8125
40000000000000000000AA00,865.7,4.853515,0.8125
40000000000000000000AA00,865.7,4.847379,0.8125
40000000000000000000AA00,865.7,4.853515,0.0
40000000000000000000AA00,865.7,4.8289714,5.6875
40000000000000000000AA00,865.7,4.8351073,1.625
40000000000000000000AA00,865.7,4.8351073,3.25
40000000000000000000AA00,865.7,4.853515,0.0
40000000000000000000AA00,865.7,4.8289714,3.25
40000000000000000000AA00,865.7,4.8289714,4.875
40000000000000000000AA00,865.7,4.847379,0.8125
40000000000000000000AA00,865.7,4.8289714,4.875
40000000000000000000AA00,865.7,4.8351073,2.4375
40000000000000000000AA00,865.7,4.8228354,4.875
40000000000000000000AA00,865.7,4.8412433,0.0
40000000000000000000AA00,865.7,4.8351073,5.6875
40000000000000000000AA00,865.7,4.847379,0.0
40000000000000000000AA00,865.7,4.8289714,5.6875
40000000000000000000AA00,865.7,4.853515,0.8125
40000000000000000000AA00,865.7,4.8412433,3.25
40000000000000000000AA00,865.7,4.8412433,1.625
40000000000000000000AA00,865.7,4.8105636,3.25
40000000000000000000AA00,865.7,4.8166995,3.25
40000000000000000000AA00,865.7,4.8105636,3.25
40000000000000000000AA00,865.7,4.8044276,1.625
40000000000000000000AA00,865.7,4.8105636,0.8125
40000000000000000000AA00,865.7,4.792156,3.25
40000000000000000000AA00,865.7,4.792156,1.625
40000000000000000000AA00,865.7,4.7737484,4.875
40000000000000000000AA00,865.7,4.792156,3.25
40000000000000000000AA00,865.7,4.7798843,4.875
40000000000000000000AA00,865.7,4.7860203,3.25
40000000000000000000AA00,865.7,4.8044276,0.8125
40000000000000000000AA00,865.7,4.7982917,1.625
40000000000000000000AA00,865.7,4.8166995,-0.8125
40000000000000000000AA00,865.7,4.8228354,-1.625
40000000000000000000AA00,865.7,4.8166995,0.8125
40000000000000000000AA00,865.7,4.8105636,2.4375
40000000000000000000AA00,865.7,4.8166995,2.4375
40000000000000000000AA00,865.7,4.8228354,3.25
40000000000000000000AA00,865.7,4.8166995,1.625
40000000000000000000AA00,865.7,4.8044276,5.6875
40000000000000000000AA00,865.7,4.8289714,0.8125
40000000000000000000AA00,865.7,4.8228354,4.875
40000000000000000000AA00,865.7,4.8289714,0.0
40000000000000000000AA00,865.7,4.8105636,4.875
40000000000000000000AA00,865.7,4.8351073,-1.625
40000000000000000000AA00,865.7,4.8228354,3.25
40000000000000000000AA00,865.7,4.8166995,4.875
40000000000000000000AA00,865.7,4.8166995,1.625
40000000000000000000AA00,865.7,4.7982917,4.875
40000000000000000000AA00,865.7,4.7982917,2.4375
40000000000000000000AA00,865.7,4.7982917,2.4375
40000000000000000000AA00,865.7,4.8105636,0.8125
40000000000000000000AA00,865.7,4.8105636,1.625
40000000000000000000AA00,865.7,4.8105636,2.4375
40000000000000000000AA00,865.7,4.8228354,2.4375
40000000000000000000AA00,865.7,4.8412433,0.8125
40000000000000000000AA00,865.7,4.8412433,2.4375
40000000000000000000AA00,865.7,4.865787,0.0
40000000000000000000AA00,865.7,4.878059,0.8125
40000000000000000000AA00,865.7,4.871923,3.25
40000000000000000000AA00,865.7,4.8964667,2.4375
40000000000000000000AA00,865.7,4.9148746,-0.8125
40000000000000000000AA00,865.7,4.9148746,0.8125
40000000000000000000AA00,865.7,4.9087386,2.4375
40000000000000000000AA00,865.7,4.9026027,4.875
40000000000000000000AA00,865.7,4.9087386,-0.8125
40000000000000000000AA00,865.7,4.890331,2.4375
40000000000000000000AA00,865.7,4.9026027,0.0
40000000000000000000AA00,865.7,4.8964667,0.8125
40000000000000000000AA00,865.7,4.9087386,0.8125
40000000000000000000AA00,865.7,4.8964667,0.8125
40000000000000000000AA00,865.7,4.890331,1.625
40000000000000000000AA00,865.7,4.884195,3.25
40000000000000000000AA00,865.7,4.9148746,0.8125
40000000000000000000AA00,865.7,4.9394183,0.0
40000000000000000000AA00,865.7,4.9332824,2.4375
40000000000000000000AA00,865.7,4.9455543,0.8125
40000000000000000000AA00,865.7,4.9271464,3.25
40000000000000000000AA00,865.7,4.9394183,-0.8125
40000000000000000000AA00,865.7,4.9210105,1.625
40000000000000000000AA00,865.7,4.9394183,-0.8125
40000000000000000000AA00,865.7,4.9455543,-0.8125
40000000000000000000AA00,865.7,4.9332824,2.4375
40000000000000000000AA00,865.7,4.957826,0.8125
40000000000000000000AA00,865.7,4.9700975,2.4375
40000000000000000000AA00,865.7,4.9762335,-1.625
40000000000000000000AA00,865.7,4.9639616,2.4375
40000000000000000000AA00,865.7,4.95169,4.875
40000000000000000000AA00,865.7,4.9823694,0.0
40000000000000000000AA00,865.7,4.9762335,1.625
40000000000000000000AA00,865.7,4.9762335,4.875
40000000000000000000AA00,865.7,5.0007772,2.4375
40000000000000000000AA00,865.7,5.037593,1.625
40000000000000000000AA00,865.7,5.0621367,4.875
40000000000000000000AA00,865.7,5.111224,0.8125
40000000000000000000AA00,865.7,5.1419034,3.25
40000000000000000000AA00,865.7,5.178719,1.625
40000000000000000000AA00,865.7,5.2093987,-0.8125
40000000000000000000AA00,865.7,5.190991,6.5
40000000000000000000AA00,865.7,5.2278066,4.875
40000000000000000000AA00,865.7,5.2462144,4.875
40000000000000000000AA00,865.7,5.3014374,-0.8125
40000000000000000000AA00,865.7,5.295302,2.4375
40000000000000000000AA00,865.7,5.295302,4.875
40000000000000000000AA00,865.7,5.3014374,6.5
40000000000000000000AA00,865.7,5.338253,4.875
40000000000000000000AA00,865.7,5.350525,5.6875
40000000000000000000AA00,865.7,5.4057484,-0.8125
40000000000000000000AA00,865.7,5.4057484,2.4375
40000000000000000000AA00,865.7,5.4180202,2.4375
40000000000000000000AA00,865.7,5.454836,0.8125
40000000000000000000AA00,865.7,5.454836,2.4375
40000000000000000000AA00,865.7,5.491651,-2.4375
40000000000000000000AA00,865.7,5.497787,2.4375
40000000000000000000AA00,865.7,5.503923,6.5
40000000000000000000AA00,865.7,5.5407386,1.625
40000000000000000000AA00,865.7,5.577554,1.625
40000000000000000000AA00,865.7,5.5468745,6.5
40000000000000000000AA00,865.7,5.620506,1.625
40000000000000000000AA00,865.7,5.589826,8.125
40000000000000000000AA00,865.7,5.620506,3.25
40000000000000000000AA00,865.7,5.663457,0.0
40000000000000000000AA00,865.7,5.6880007,-3.25
40000000000000000000AA00,865.7,5.6880007,-0.8125
40000000000000000000AA00,865.7,5.6818647,0.8125
40000000000000000000AA00,865.7,5.6818647,3.25
40000000000000000000AA00,865.7,5.6941366,-0.8125
40000000000000000000AA00,865.7,5.6941366,0.8125
40000000000000000000AA00,865.7,5.7002726,0.0
40000000000000000000AA00,865.7,5.663457,8.125
40000000000000000000AA00,865.7,5.6941366,2.4375
40000000000000000000AA00,865.7,5.6880007,1.625
40000000000000000000AA00,865.7,5.7064085,-1.625
40000000000000000000AA00,865.7,5.6880007,-1.625
40000000000000000000AA00,865.7,5.6818647,3.25
40000000000000000000AA00,865.7,5.663457,2.4375
40000000000000000000AA00,865.7,5.657321,0.8125
40000000000000000000AA00,865.7,5.657321,-0.8125
40000000000000000000AA00,865.7,5.663457,-1.625
40000000000000000000AA00,865.7,5.620506,2.4375
40000000000000000000AA00,865.7,5.6327777,2.4375
40000000000000000000AA00,865.7,5.645049,2.4375
40000000000000000000AA00,865.7,5.6327777,2.4375
40000000000000000000AA00,865.7,5.638913,2.4375
40000000000000000000AA00,865.7,5.651185,2.4375
40000000000000000000AA00,865.7,5.663457,3.25
40000000000000000000AA00,865.7,5.6818647,4.875
40000000000000000000AA00,865.7,5.7248163,-0.8125
40000000000000000000AA00,865.7,5.7309523,3.25
40000000000000000000AA00,865.7,5.78004,5.6875
40000000000000000000AA00,865.7,5.829127,5.6875
40000000000000000000AA00,865.7,5.896622,3.25
40000000000000000000AA00,865.7,5.9518456,4.875
40000000000000000000AA00,865.7,6.05002,2.4375
40000000000000000000AA00,865.7,6.1788745,2.4375
40000000000000000000AA00,865.7,6.2770495,-0.8125
40000000000000000000AA00,865.7,0.10431069,4.875
40000000000000000000AA00,865.7,0.19021362,3.25
40000000000000000000AA00,865.7,0.25157285,2.4375
40000000000000000000AA00,865.7,0.2945243,2.4375
40000000000000000000AA00,865.7,0.3436117,0.0
40000000000000000000AA00,865.7,0.3681554,4.875
40000000000000000000AA00,865.7,0.41110685,2.4375
40000000000000000000AA00,865.7,0.44178647,2.4375
40000000000000000000AA00,865.7,0.46633017,3.25
40000000000000000000AA00,865.7,0.52155346,0.8125
40000000000000000000AA00,865.7,0.5399612,4.875
40000000000000000000AA00,865.7,0.5645049,1.625
40000000000000000000AA00,865.7,0.60132045,2.4375
40000000000000000000AA00,865.7,0.6320001,2.4375
40000000000000000000AA00,865.7,0.67495155,2.4375
40000000000000000000AA00,865.7,0.7117671,0.8125
40000000000000000000AA00,865.7,0.72403896,3.25
40000000000000000000AA00,865.7,0.77926224,1.625
40000000000000000000AA00,865.7,0.80380595,1.625
40000000000000000000AA00,865.7,0.82834965,2.4375
40000000000000000000AA00,865.7,0.877437,1.625
40000000000000000000AA00,865.7,0.9142526,2.4375
40000000000000000000AA00,865.7,0.94493216,1.625
40000000000000000000AA00,865.7,0.9817477,4.875
40000000000000000000AA00,865.7,1.030835,1.625
40000000000000000000AA00,865.7,1.0615147,4.875
40000000000000000000AA00,865.7,1.1290098,3.25
40000000000000000000AA00,865.7,1.1780972,3.25
40000000000000000000AA00,865.7,1.2149128,4.875
40000000000000000000AA00,865.7,1.2640002,5.6875
40000000000000000000AA00,865.7,1.3192235,5.6875
40000000000000000000AA00,865.7,1.356039,4.875
40000000000000000000AA00,865.7,1.4173982,3.25
40000000000000000000AA00,865.7,1.435806,1.625
40000000000000000000AA00,865.7,1.4542137,2.4375
40000000000000000000AA00,865.7,1.4726216,0.8125
40000000000000000000AA00,865.7,1.4787575,1.625
40000000000000000000AA00,865.7,1.4971652,0.8125
40000000000000000000AA00,865.7,1.4971652,0.8125
40000000000000000000AA00,865.7,1.4971652,1.625
40000000000000000000AA00,865.7,1.5094371,-0.8125
40000000000000000000AA00,865.7,1.4971652,2.4375
40000000000000000000AA00,865.7,1.5033011,2.4375
40000000000000000000AA00,865.7,1.5033011,0.8125
40000000000000000000AA00,865.7,1.4971652,1.625
40000000000000000000AA00,865.7,1.5094371,0.8125
40000000000000000000AA00,865.7,1.5094371,3.25
40000000000000000000AA00,865.7,1.5094371,1.625
40000000000000000000AA00,865.7,1.5094371,1.625
40000000000000000000AA00,865.7,1.521709,0.0
40000000000000000000AA00,865.7,1.5339808,-0.8125
40000000000000000000AA00,865.7,1.515573,4.875
40000000000000000000AA00,865.7,1.5278449,0.0
40000000000000000000AA00,865.7,1.521709,1.625
40000000000000000000AA00,865.7,1.5339808,0.8125
40000000000000000000AA00,865.7,1.5339808,0.0
40000000000000000000AA00,865.7,1.5339808,-1.625
40000000000000000000AA00,865.7,1.5339808,-0.8125
40000000000000000000AA00,865.7,1.521709,2.4375
40000000000000000000AA00,865.7,1.515573,4.875
40000000000000000000AA00,865.7,1.5462526,4.875
40000000000000000000AA00,865.7,1.5523885,4.875
40000000000000000000AA00,865.7,1.5830681,0.8125
40000000000000000000AA00,865.7,1.5646604,6.5
40000000000000000000AA00,865.7,1.5892041,5.6875
40000000000000000000AA00,865.7,1.6198837,3.25
40000000000000000000AA00,865.7,1.6260196,5.6875
40000000000000000000AA00,865.7,1.6628351,1.625
40000000000000000000AA00,865.7,1.681243,4.875
40000000000000000000AA00,865.7,1.7241944,1.625
40000000000000000000AA00,865.7,1.7119225,5.6875
40000000000000000000AA00,865.7,1.754874,5.6875
40000000000000000000AA00,865.7,1.7978255,3.25
40000000000000000000AA00,865.7,1.8223692,7.3125
40000000000000000000AA00,865.7,1.9021362,4.875
40000000000000000000AA00,865.7,2.000311,8.125
40000000000000000000AA00,865.7,2.0923498,8.9375
40000000000000000000AA00,865.7,2.1843886,5.6875
40000000000000000000AA00,865.7,2.2396119,1.625
40000000000000000000AA00,865.7,2.2457478,5.6875
40000000000000000000AA00,865.7,2.2089324,11.375
40000000000000000000AA00,865.7,2.2273402,9.75
40000000000000000000AA00,865.7,2.2027965,10.5625
40000000000000000000AA00,865.7,2.2764275,0.8125
40000000000000000000AA00,865.7,2.2212043,8.125
40000000000000000000AA00,865.7,2.2089324,11.375
40000000000000000000AA00,865.7,2.2457478,1.625
40000000000000000000AA00,865.7,2.2212043,7.3125
40000000000000000000AA00,865.7,2.2273402,3.25
40000000000000000000AA00,865.7,2.2027965,8.125
40000000000000000000AA00,865.7,2.1966605,9.75
40000000000000000000AA00,865.7,2.1598449,9.75
40000000000000000000AA00,865.7,2.1659808,10.5625
40000000000000000000AA00,865.7,2.147573,7.3125
40000000000000000000AA00,865.7,2.1353014,8.9375
40000000000000000000AA00,865.7,2.1353014,4.875
40000000000000000000AA00,865.7,2.0984857,8.125
40000000000000000000AA00,865.7,2.1046216,4.875
40000000000000000000AA00,865.7,2.080078,7.3125
40000000000000000000AA00,865.7,2.073942,6.5
40000000000000000000AA00,865.7,2.0432625,8.9375
40000000000000000000AA00,865.7,2.0493984,2.4375
40000000000000000000AA00,865.7,2.0187187,7.3125
40000000000000000000AA00,865.7,2.0248547,4.875
40000000000000000000AA00,865.7,1.9880391,7.3125
40000000000000000000AA00,865.7,1.9696313,9.75
40000000000000000000AA00,865.7,1.9757673,8.125
40000000000000000000AA00,865.7,1.9573594,7.3125
40000000000000000000AA00,865.7,1.9512236,7.3125
40000000000000000000AA00,865.7,1.9450877,10.5625
40000000000000000000AA00,865.7,1.9450877,8.125
40000000000000000000AA00,865.7,1.9696313,3.25
40000000000000000000AA00,865.7,1.9450877,10.5625
40000000000000000000AA00,865.7,1.9512236,7.3125
40000000000000000000AA00,865.7,1.9696313,5.6875
40000000000000000000AA00,865.7,1.9696313,7.3125
40000000000000000000AA00,865.7,2.0125828,1.625
40000000000000000000AA00,865.7,2.0187187,2.4375
40000000000000000000AA00,865.7,2.0555344,0.8125
40000000000000000000AA00,865.7,2.0493984,5.6875
40000000000000000000AA00,865.7,2.0555344,6.5
40000000000000000000AA00,865.7,2.080078,7.3125
40000000000000000000AA00,865.7,2.1107576,3.25
40000000000000000000AA00,865.7,2.0984857,10.5625
40000000000000000000AA00,865.7,2.1107576,11.375
40000000000000000000AA00,865.7,2.1291654,13.8125
40000000000000000000AA00,865.7,2.147573,6.5
40000000000000000000AA00,865.7,2.1659808,9.75
40000000000000000000AA00,865.7,2.147573,9.75
40000000000000000000AA00,865.7,2.1843886,6.5
40000000000000000000AA00,865.7,2.1353014,12.1875
40000000000000000000AA00,865.7,2.1659808,7.3125
40000000000000000000AA00,865.7,2.1659808,7.3125
40000000000000000000AA00,865.7,2.1414373,11.375
40000000000000000000AA00,865.7,2.1353014,8.125
40000000000000000000AA00,865.7,2.1107576,7.3125
40000000000000000000AA00,865.7,2.1046216,9.75
40000000000000000000AA00,865.7,2.06167,11.375
40000000000000000000AA00,865.7,2.0493984,11.375
40000000000000000000AA00,865.7,2.0125828,6.5
40000000000000000000AA00,865.7,1.9512236,6.5
40000000000000000000AA00,865.7,1.8591847,8.125
40000000000000000000AA00,865.7,1.7855537,8.125
40000000000000000000AA00,865.7,1.7303303,7.3125
40000000000000000000AA00,865.7,1.7057866,3.25
40000000000000000000AA00,865.7,1.6321555,12.1875
40000000000000000000AA00,865.7,1.675107,5.6875
40000000000000000000AA00,865.7,1.6935148,3.25
40000000000000000000AA00,865.7,1.6444274,9.75
40000000000000000000AA00,865.7,1.6689711,14.625
40000000000000000000AA00,865.7,1.7364663,6.5
40000000000000000000AA00,865.7,1.8285052,9.75
40000000000000000000AA00,865.7,1.9082721,13.8125
40000000000000000000AA00,865.7,1.9941751,8.9375
40000000000000000000AA00,865.7,2.1230295,8.9375
40000000000000000000AA00,865.7,2.1782527,8.9375
40000000000000000000AA00,865.7,2.1721168,20.3125
40000000000000000000AA00,865.7,2.2825634,14.625
40000000000000000000AA00,865.7,2.4359615,0.8125
40000000000000000000AA00,865.7,2.478913,4.875
40000000000000000000AA00,865.7,2.3868742,18.6875
40000000000000000000AA00,865.7,2.5402722,8.9375
40000000000000000000AA00,865.7,2.5280004,18.6875
40000000000000000000AA00,865.7,2.712078,-6.5
40000000000000000000AA00,865.7,2.632311,13.8125
40000000000000000000AA00,865.7,2.804117,-6.5
40000000000000000000AA00,865.7,2.6875343,10.5625
40000000000000000000AA00,865.7,2.7673013,0.8125
40000000000000000000AA00,865.7,2.6507187,20.3125
40000000000000000000AA00,865.7,2.730486,10.5625
40000000000000000000AA00,865.7,2.883884,-8.9375
40000000000000000000AA00,865.7,2.804117,4.875
40000000000000000000AA00,865.7,2.883884,-4.875
40000000000000000000AA00,865.7,2.712078,17.875
40000000000000000000AA00,865.7,2.9206994,-12.1875
40000000000000000000AA00,865.7,2.89002,-9.75
40000000000000000000AA00,865.7,2.6936703,19.5
40000000000000000000AA00,865.7,2.7059422,17.0625
40000000000000000000AA00,865.7,2.632311,27.625
40000000000000000000AA00,865.7,2.7611654,1.625
40000000000000000000AA00,865.7,2.712078,8.9375
40000000000000000000AA00,865.7,2.638447,17.0625
40000000000000000000AA00,865.7,2.5893595,15.4375
40000000000000000000AA00,865.7,2.5832236,15.4375
40000000000000000000AA00,865.7,2.5770876,7.3125
40000000000000000000AA00,865.7,2.5402722,14.625
40000000000000000000AA00,865.7,2.5832236,6.5
40000000000000000000AA00,865.7,2.4850488,16.25
40000000000000000000AA00,865.7,2.5341363,0.8125
40000000000000000000AA00,865.7,2.4973207,0.0
40000000000000000000AA00,865.7,2.5157285,-2.4375
40000000000000000000AA00,865.7,2.4236896,10.5625
40000000000000000000AA00,865.7,2.4359615,5.6875
40000000000000000000AA00,865.7,2.3316507,19.5
40000000000000000000AA00,865.7,2.3807383,5.6875
40000000000000000000AA00,865.7,2.3316507,20.3125
40000000000000000000AA00,865.7,2.3500586,9.75
40000000000000000000AA00,865.7,2.3561945,11.375
40000000000000000000AA00,865.7,2.3500586,7.3125
40000000000000000000AA00,865.7,2.4114177,-2.4375
40000000000000000000AA00,865.7,2.3991458,2.4375
40000000000000000000AA00,865.7,2.4605052,-14.625
40000000000000000000AA00,865.7,2.3009713,9.75
40000000000000000000AA00,865.7,2.3193789,11.375
40000000000000000000AA00,865.7,2.3746023,-2.4375
40000000000000000000AA00,865.7,2.3071072,5.6875
40000000000000000000AA00,865.7,2.3561945,-8.125
40000000000000000000AA00,865.7,2.2457478,8.125
40000000000000000000AA00,865.7,2.2150683,6.5
40000000000000000000AA00,865.7,2.1966605,7.3125
40000000000000000000AA00,865.7,2.1659808,7.3125
40000000000000000000AA00,865.7,2.2150683,-2.4375
40000000000000000000AA00,865.7,2.1414373,8.9375
40000000000000000000AA00,865.7,2.1107576,10.5625
40000000000000000000AA00,865.7,2.1107576,0.8125
40000000000000000000AA00,865.7,2.0493984,12.1875
40000000000000000000AA00,865.7,2.080078,5.6875
40000000000000000000AA00,865.7,1.9941751,14.625
40000000000000000000AA00,865.7,2.06167,3.25
40000000000000000000AA00,865.7,2.0125828,8.125
40000000000000000000AA00,865.7,1.9634954,9.75
40000000000000000000AA00,865.7,2.0187187,-0.8125
40000000000000000000AA00,865.7,1.8653207,23.5625
40000000000000000000AA00,865.7,1.9634954,8.9375
40000000000000000000AA00,865.7,1.9696313,1.625
40000000000000000000AA00,865.7,1.9266798,10.5625
40000000000000000000AA00,865.7,1.9573594,4.875
40000000000000000000AA00,865.7,1.9266798,8.9375
40000000000000000000AA00,865.7,1.9205439,7.3125
40000000000000000000AA00,865.7,1.9512236,0.0
40000000000000000000AA00,865.7,1.9696313,8.9375
40000000000000000000AA00,865.7,1.9757673,12.1875
40000000000000000000AA00,865.7,2.080078,-2.4375
40000000000000000000AA00,865.7,2.0862138,5.6875
40000000000000000000AA00,865.7,2.0493984,25.1875
40000000000000000000AA00,865.7,2.147573,6.5
40000000000000000000AA00,865.7,2.1905246,6.5
40000000000000000000AA00,865.7,2.1291654,22.75
40000000000000000000AA00,865.7,2.2580197,4.875
40000000000000000000AA00,865.7,2.3623304,-6.5
40000000000000000000AA00,865.7,2.2396119,14.625
40000000000000000000AA00,865.7,2.3071072,0.0
40000000000000000000AA00,865.7,2.3439226,-7.3125
40000000000000000000AA00,865.7,2.313243,8.9375
40000000000000000000AA00,865.7,2.1782527,22.75
40000000000000000000AA00,865.7,2.1659808,21.125
40000000000000000000AA00,865.7,2.1659808,11.375
40000000000000000000AA00,865.7,2.1107576,13.8125
40000000000000000000AA00,865.7,2.1353014,1.625
40000000000000000000AA00,865.7,2.0432625,-2.4375
40000000000000000000AA00,865.7,1.9512236,10.5625
40000000000000000000AA00,865.7,1.8591847,4.875
40000000000000000000AA00,865.7,1.7916895,10.5625
40000000000000000000AA00,865.7,1.7978255,-1.625
40000000000000000000AA00,865.7,1.7671459,-0.8125
40000000000000000000AA00,865.7,1.7732818,-4.875
40000000000000000000AA00,865.7,1.6137478,21.125
40000000000000000000AA00,865.7,1.6444274,8.125
40000000000000000000AA00,865.7,1.6076119,7.3125
40000000000000000000AA00,865.7,1.5585245,11.375
40000000000000000000AA00,865.7,1.521709,23.5625
40000000000000000000AA00,865.7,1.5892041,10.5625
40000000000000000000AA00,865.7,1.5094371,14.625
40000000000000000000AA00,865.7,1.5462526,3.25
40000000000000000000AA00,865.7,1.5646604,4.875
40000000000000000000AA00,865.7,1.515573,8.125
40000000000000000000AA00,865.7,1.4051265,16.25
40000000000000000000AA00,865.7,1.4664856,4.875
40000000000000000000AA00,865.7,1.435806,7.3125
40000000000000000000AA00,865.7,1.356039,14.625
40000000000000000000AA00,865.7,1.3069516,17.875
40000000000000000000AA00,865.7,1.2701361,18.6875
40000000000000000000AA00,865.7,1.3192235,-0.8125
40000000000000000000AA00,865.7,1.2333206,14.625
40000000000000000000AA00,865.7,1.2701361,4.875
40000000000000000000AA00,865.7,1.3130876,-5.6875
40000000000000000000AA00,865.7,1.2271847,5.6875
40000000000000000000AA00,865.7,1.1903691,4.875
40000000000000000000AA00,865.7,1.2026409,-1.625
40000000000000000000AA00,865.7,1.2149128,-2.4375
40000000000000000000AA00,865.7,1.1412817,1.625
40000000000000000000AA00,865.7,1.0553788,13.8125
40000000000000000000AA00,865.7,1.0246992,11.375
40000000000000000000AA00,865.7,1.1351458,-5.6875
40000000000000000000AA00,865.7,1.1044662,-2.4375
40000000000000000000AA00,865.7,0.99401957,11.375
40000000000000000000AA00,865.7,1.0431069,4.875
40000000000000000000AA00,865.7,0.9510681,15.4375
40000000000000000000AA00,865.7,0.9510681,10.5625
40000000000000000000AA00,865.7,0.9510681,10.5625
40000000000000000000AA00,865.7,0.9633399,3.25
40000000000000000000AA00,865.7,0.957204,-0.8125
40000000000000000000AA00,865.7,0.89584476,6.5
40000000000000000000AA00,865.7,0.92038846,-2.4375
40000000000000000000AA00,865.7,0.9387962,-9.75
40000000000000000000AA00,865.7,0.8713011,4.875
40000000000000000000AA00,865.7,0.8713011,0.8125
40000000000000000000AA00,865.7,0.79153407,10.5625
40000000000000000000AA00,865.7,0.8528933,-2.4375
40000000000000000000AA00,865.7,0.79153407,3.25
40000000000000000000AA00,865.7,0.83448553,-1.625
40000000000000000000AA00,865.7,0.7424467,6.5
40000000000000000000AA00,865.7,0.7853982,-1.625
40000000000000000000AA00,865.7,0.67495155,5.6875
40000000000000000000AA00,865.7,0.7363108,2.4375
40000000000000000000AA00,865.7,0.72403896,-4.875
40000000000000000000AA00,865.7,0.61972827,13.8125
40000000000000000000AA00,865.7,0.6872234,-1.625
40000000000000000000AA00,865.7,0.62586415,5.6875
40000000000000000000AA00,865.7,0.52155346,21.125
40000000000000000000AA00,865.7,0.558369,8.9375
40000000000000000000AA00,865.7,0.5890486,0.8125
40000000000000000000AA00,865.7,0.5767768,3.25
40000000000000000000AA00,865.7,0.47246608,15.4375
40000000000000000000AA00,865.7,0.5154175,5.6875
40000000000000000000AA00,865.7,0.478602,13.8125
40000000000000000000AA00,865.7,0.54609716,4.875
40000000000000000000AA00,865.7,0.49700978,5.6875
40000000000000000000AA00,865.7,0.5522331,5.6875
40000000000000000000AA00,865.7,0.54609716,12.1875
40000000000000000000AA00,865.7,0.62586415,-2.4375
40000000000000000000AA00,865.7,0.6442719,-4.875
40000000000000000000AA00,865.7,0.60132045,2.4375
40000000000000000000AA00,865.7,0.60132045,8.125
40000000000000000000AA00,865.7,0.717903,-6.5
40000000000000000000AA00,865.7,0.6810875,2.4375
40000000000000000000AA00,865.7,0.7424467,1.625
40000000000000000000AA00,865.7,0.8222137,-8.125
40000000000000000000AA00,865.7,0.7363108,15.4375
40000000000000000000AA00,865.7,0.81607777,8.9375
40000000000000000000AA00,865.7,0.90811664,0.8125
40000000000000000000AA00,865.7,0.957204,1.625
40000000000000000000AA00,865.7,0.9878836,8.9375
40000000000000000000AA00,865.7,1.0921943,-0.8125
40000000000000000000AA00,865.7,1.1228739,8.9375
40000000000000000000AA00,865.7,1.1842332,8.9375
40000000000000000000AA00,865.7,1.3867186,-0.8125
40000000000000000000AA00,865.7,1.3130876,17.875
40000000000000000000AA00,865.7,1.4480779,6.5
40000000000000000000AA00,865.7,1.5462526,0.0
40000000000000000000AA00,865.7,1.5892041,0.0
40000000000000000000AA00,865.7,1.6137478,8.9375
40000000000000000000AA00,865.7,1.7180585,1.625
40000000000000000000AA00,865.7,1.7180585,16.25
40000000000000000000AA00,865.7,1.9634954,-7.3125
40000000000000000000AA00,865.7,1.8530488,9.75
40000000000000000000AA00,865.7,1.8162333,11.375
40000000000000000000AA00,865.7,1.914408,25.1875
40000000000000000000AA00,865.7,1.9941751,20.3125
40000000000000000000AA00,865.7,2.1843886,-18.6875
40000000000000000000AA00,865.7,1.8100973,45.5625
40000000000000000000AA00,865.7,1.8407769,61.0
40000000000000000000AA00,865.7,2.1414373,11.375
40000000000000000000AA00,865.7,2.2641556,-0.8125
40000000000000000000AA00,865.7,2.2764275,10.5625
40000000000000000000AA00,865.7,2.2212043,12.1875
40000000000000000000AA00,865.7,2.233476,18.6875
40000000000000000000AA00,865.7,2.2150683,20.3125
40000000000000000000AA00,865.7,2.1843886,19.5
40000000000000000000AA00,865.7,2.313243,-7.3125
40000000000000000000AA00,865.7,2.2457478,3.25
40000000000000000000AA00,865.7,2.147573,18.6875
40000000000000000000AA00,865.7,2.2212043,6.5
40000000000000000000AA00,865.7,2.4052818,-33.3125
40000000000000000000AA00,865.7,2.1291654,2.4375
40000000000000000000AA00,865.7,1.9512236,27.625
40000000000000000000AA00,865.7,2.067806,14.625
40000000000000000000AA00,865.7,2.1905246,0.0
40000000000000000000AA00,865.7,2.0555344,26.8125
40000000000000000000AA00,865.7,1.7978255,51.25
40000000000000000000AA00,865.7,2.3439226,-19.5
40000000000000000000AA00,865.7,2.1782527,-26.0
40000000000000000000AA00,865.7,2.0984857,3.25
40000000000000000000AA00,865.7,2.080078,-40.6875
40000000000000000000AA00,865.7,1.8837284,34.125
40000000000000000000AA00,865.7,1.8407769,33.3125
40000000000000000000AA00,865.7,1.8653207,7.3125
40000000000000000000AA00,865.7,1.7303303,45.5625
40000000000000000000AA00,865.7,2.000311,11.375
40000000000000000000AA00,865.7,2.0371265,-3.25
40000000000000000000AA00,865.7,2.073942,-8.9375
40000000000000000000AA00,865.7,1.9880391,8.125
40000000000000000000AA00,865.7,2.0371265,0.8125
40000000000000000000AA00,865.7,2.1107576,-3.25
40000000000000000000AA00,865.7,2.0923498,2.4375
40000000000000000000AA00,865.7,1.7794178,38.1875
40000000000000000000AA00,865.7,2.0125828,19.5
40000000000000000000AA00,865.7,2.067806,-2.4375
40000000000000000000AA00,865.7,1.8653207,22.75
40000000000000000000AA00,865.7,2.000311,40.6875
40000000000000000000AA00,865.7,2.3991458,-34.9375
40000000000000000000AA00,865.7,1.9450877,34.125
40000000000000000000AA00,865.7,2.2212043,6.5
40000000000000000000AA00,865.7,2.1659808,7.3125
40000000000000000000AA00,865.7,2.000311,12.1875
40000000000000000000AA00,865.7,1.9389517,23.5625
40000000000000000000AA00,865.7,1.9266798,12.1875
40000000000000000000AA00,865.7,2.153709,-26.0
40000000000000000000AA00,865.7,1.7180585,51.25
40000000000000000000AA00,865.7,2.0555344,-0.8125
40000000000000000000AA00,865.7,1.8530488,22.75
40000000000000000000AA00,865.7,1.9266798,11.375
40000000000000000000AA00,865.7,2.2089324,-17.0625
40000000000000000000AA00,865.7,2.0432625,1.625
40000000000000000000AA00,865.7,1.9880391,8.9375
40000000000000000000AA00,865.7,1.8223692,31.6875
40000000000000000000AA00,865.7,1.7057866,66.6875
40000000000000000000AA00,865.7,2.1353014,-12.1875
40000000000000000000AA00,865.7,1.9757673,31.6875
40000000000000000000AA00,865.7,1.9757673,23.5625
40000000000000000000AA00,865.7,2.0248547,5.6875
40000000000000000000AA00,865.7,2.06167,-0.8125
40000000000000000000AA00,865.7,1.9573594,17.875
40000000000000000000AA00,865.7,1.9941751,-0.8125
40000000000000000000AA00,865.7,1.9450877,20.3125
40000000000000000000AA00,865.7,2.0923498,-8.9375
40000000000000000000AA00,865.7,1.9021362,10.5625
40000000000000000000AA00,865.7,1.8653207,32.5
40000000000000000000AA00,865.7,1.7303303,24.375
40000000000000000000AA00,865.7,1.8100973,28.4375
40000000000000000000AA00,865.7,1.7364663,28.4375
40000000000000000000AA00,865.7,1.7978255,10.5625
40000000000000000000AA00,865.7,2.0125828,-25.1875
40000000000000000000AA00,865.7,1.9880391,-40.6875
40000000000000000000AA00,865.7,2.1353014,-42.3125
40000000000000000000AA00,865.7,1.59534,30.875
40000000000000000000AA00,865.7,1.5646604,22.75
40000000000000000000AA00,865.7,1.6076119,42.3125
40000000000000000000AA00,865.7,1.8469129,-17.875
40000000000000000000AA00,865.7,1.6505634,35.75
40000000000000000000AA00,865.7,1.9512236,8.9375
40000000000000000000AA00,865.7,1.8530488,17.875
40000000000000000000AA00,865.7,1.8039614,0.0
40000000000000000000AA00,865.7,1.754874,13.8125
40000000000000000000AA00,865.7,1.9328158,18.6875
40000000000000000000AA00,865.7,2.1046216,-0.8125
40000000000000000000AA00,865.7,1.7794178,43.9375
40000000000000000000AA00,865.7,1.7610099,26.8125
40000000000000000000AA00,865.7,1.7794178,23.5625
40000000000000000000AA00,865.7,1.8223692,22.75
40000000000000000000AA00,865.7,1.8837284,18.6875
40000000000000000000AA00,865.7,1.8960003,-1.625
40000000000000000000AA00,865.7,1.7794178,34.9375
40000000000000000000AA00,865.7,1.8407769,10.5625
40000000000000000000AA00,865.7,1.8407769,0.8125
40000000000000000000AA00,865.7,1.7794178,18.6875
40000000000000000000AA00,865.7,1.8898643,0.8125
40000000000000000000AA00,865.7,1.8285052,15.4375
40000000000000000000AA00,865.7,1.7303303,26.8125
40000000000000000000AA00,865.7,1.7732818,30.875
40000000000000000000AA00,865.7,2.0187187,-1.625
40000000000000000000AA00,865.7,1.748738,34.125
40000000000000000000AA00,865.7,1.7732818,15.4375
40000000000000000000AA00,865.7,1.9880391,-9.75
40000000000000000000AA00,865.7,1.7916895,13.8125
40000000000000000000AA00,865.7,1.7180585,16.25
40000000000000000000AA00,865.7,1.7057866,26.0
40000000000000000000AA00,865.7,1.748738,17.0625
40000000000000000000AA00,865.7,1.7426022,33.3125
40000000000000000000AA00,865.7,1.8100973,10.5625
40000000000000000000AA00,865.7,1.754874,22.75
40000000000000000000AA00,865.7,1.8100973,8.125
40000000000000000000AA00,865.7,1.8837284,-5.6875
40000000000000000000AA00,865.7,1.7732818,17.875
40000000000000000000AA00,865.7,1.8469129,4.875
40000000000000000000AA00,865.7,1.5585245,47.1875
40000000000000000000AA00,865.7,1.748738,23.5625
40000000000000000000AA00,865.7,1.834641,9.75
40000000000000000000AA00,865.7,1.8530488,6.5
40000000000000000000AA00,865.7,1.8407769,8.125
40000000000000000000AA00,865.7,1.7732818,10.5625
40000000000000000000AA00,865.7,1.7426022,18.6875
40000000000000000000AA00,865.7,1.8775924,11.375
40000000000000000000AA00,865.7,1.754874,11.375
40000000000000000000AA00,865.7,1.8223692,6.5
40000000000000000000AA00,865.7,1.5830681,36.5625
40000000000000000000AA00,865.7,1.7057866,25.1875
40000000000000000000AA00,865.7,1.675107,19.5
40000000000000000000AA00,865.7,1.7364663,13.8125
40000000000000000000AA00,865.7,1.5646604,35.75
40000000000000000000AA00,865.7,1.7180585,4.875
40000000000000000000AA00,865.7,1.8285052,0.8125
40000000000000000000AA00,865.7,1.7426022,2.4375
40000000000000000000AA00,865.7,1.7364663,19.5
40000000000000000000AA00,865.7,1.6260196,18.6875
40000000000000000000AA00,865.7,1.6566993,27.625
40000000000000000000AA00,865.7,1.6873789,18.6875
40000000000000000000AA00,865.7,1.7303303,8.9375
40000000000000000000AA00,865.7,1.7610099,8.125
40000000000000000000AA00,865.7,1.748738,-1.625
40000000000000000000AA00,865.7,1.5094371,39.875
40000000000000000000AA00,865.7,1.6382915,18.6875
40000000000000000000AA00,865.7,1.6689711,15.4375
40000000000000000000AA00,865.7,1.6076119,20.3125
40000000000000000000AA00,865.7,1.7180585,3.25
40000000000000000000AA00,865.7,1.7057866,-5.6875
40000000000000000000AA00,865.7,1.6628351,6.5
40000000000000000000AA00,865.7,1.6935148,1.625
40000000000000000000AA00,865.7,1.6198837,12.1875
40000000000000000000AA00,865.7,1.5278449,22.75
40000000000000000000AA00,865.7,1.601476,10.5625
40000000000000000000AA00,865.7,1.601476,8.9375
40000000000000000000AA00,865.7,1.675107,0.0
40000000000000000000AA00,865.7,1.6566993,-0.8125
40000000000000000000AA00,865.7,1.6382915,0.8125
40000000000000000000AA00,865.7,1.5769322,17.0625
40000000000000000000AA00,865.7,1.521709,28.4375
40000000000000000000AA00,865.7,1.675107,6.5
40000000000000000000AA00,865.7,1.5830681,17.0625
40000000000000000000AA00,865.7,1.6444274,12.1875
40000000000000000000AA00,865.7,1.6444274,6.5
40000000000000000000AA00,865.7,1.5892041,10.5625
40000000000000000000AA00,865.7,1.6505634,6.5
40000000000000000000AA00,865.7,1.6260196,2.4375
40000000000000000000AA00,865.7,1.5646604,16.25
40000000000000000000AA00,865.7,1.7732818,-17.875
40000000000000000000AA00,865.7,1.4848934,34.125
40000000000000000000AA00,865.7,1.6628351,3.25
40000000000000000000AA00,865.7,1.6505634,10.5625
40000000000000000000AA00,865.7,1.6873789,-2.4375
40000000000000000000AA00,865.7,1.6444274,2.4375
40000000000000000000AA00,865.7,1.5523885,22.75
40000000000000000000AA00,865.7,1.6321555,9.75
40000000000000000000AA00,865.7,1.6382915,13.8125
40000000000000000000AA00,865.7,1.3989905,53.6875
40000000000000000000AA00,865.7,1.7241944,-8.9375
40000000000000000000AA00,865.7,1.5769322,22.75
40000000000000000000AA00,865.7,1.5707964,16.25
40000000000000000000AA00,865.7,1.675107,4.875
40000000000000000000AA00,865.7,1.7303303,1.625
40000000000000000000AA00,865.7,1.6137478,23.5625
40000000000000000000AA00,865.7,1.7426022,0.0
40000000000000000000AA00,865.7,1.6505634,17.0625
40000000000000000000AA00,865.7,1.6628351,10.5625
40000000000000000000AA00,865.7,1.6873789,8.125
40000000000000000000AA00,865.7,1.7180585,6.5
40000000000000000000AA00,865.7,1.6321555,24.375
40000000000000000000AA00,865.7,1.6689711,13.8125
40000000000000000000AA00,865.7,1.6382915,14.625
40000000000000000000AA00,865.7,1.6689711,14.625
40000000000000000000AA00,865.7,1.6505634,5.6875
40000000000000000000AA00,865.7,1.5830681,15.4375
40000000000000000000AA00,865.7,1.6689711,12.1875
40000000000000000000AA00,865.7,1.7241944,0.0
40000000000000000000AA00,865.7,1.7610099,0.0
40000000000000000000AA00,865.7,1.6689711,9.75
40000000000000000000AA00,865.7,1.6444274,8.9375
40000000000000000000AA00,865.7,1.6873789,8.125
40000000000000000000AA00,865.7,1.6444274,15.4375
40000000000000000000AA00,865.7,1.7241944,7.3125
40000000000000000000AA00,865.7,1.5462526,29.25
40000000000000000000AA00,865.7,1.8530488,-10.5625
40000000000000000000AA00,865.7,1.8162333,-5.6875
40000000000000000000AA00,865.7,1.6689711,14.625
40000000000000000000AA00,865.7,1.6321555,21.125
40000000000000000000AA00,865.7,1.8223692,-9.75
40000000000000000000AA00,865.7,1.6628351,-0.8125
40000000000000000000AA00,865.7,1.8285052,-5.6875
40000000000000000000AA00,865.7,1.675107,8.9375
40000000000000000000AA00,865.7,1.7303303,2.4375
40000000000000000000AA00,865.7,1.6321555,18.6875
40000000000000000000AA00,865.7,1.6382915,21.125
40000000000000000000AA00,865.7,1.6198837,7.3125
40000000000000000000AA00,865.7,1.521709,32.5
40000000000000000000AA00,865.7,1.4603497,30.875
40000000000000000000AA00,865.7,1.7303303,-2.4375
40000000000000000000AA00,865.7,1.6628351,8.125
40000000000000000000AA00,865.7,1.5462526,22.75
40000000000000000000AA00,865.7,1.6382915,9.75
40000000000000000000AA00,865.7,1.5585245,13.8125
40000000000000000000AA00,865.7,1.6873789,-10.5625
40000000000000000000AA00,865.7,1.59534,15.4375
40000000000000000000AA00,865.7,1.5401167,14.625
40000000000000000000AA00,865.7,1.5646604,12.1875
40000000000000000000AA00,865.7,1.5769322,7.3125
40000000000000000000AA00,865.7,1.601476,-0.8125
40000000000000000000AA00,865.7,1.4971652,26.8125
40000000000000000000AA00,865.7,1.5585245,4.875
40000000000000000000AA00,865.7,1.521709,16.25
40000000000000000000AA00,865.7,1.59534,4.875
40000000000000000000AA00,865.7,1.5462526,15.4375
40000000000000000000AA00,865.7,1.521709,17.875
40000000000000000000AA00,865.7,1.5033011,17.0625
40000000000000000000AA00,865.7,1.4971652,22.75
40000000000000000000AA00,865.7,1.4787575,22.75
40000000000000000000AA00,865.7,1.5401167,16.25
40000000000000000000AA00,865.7,1.5892041,0.0
40000000000000000000AA00,865.7,1.5707964,8.125
40000000000000000000AA00,865.7,1.4664856,17.875
40000000000000000000AA00,865.7,1.6198837,-3.25
40000000000000000000AA00,865.7,1.5830681,7.3125
40000000000000000000AA00,865.7,1.515573,9.75
40000000000000000000AA00,865.7,1.5707964,2.4375
40000000000000000000AA00,865.7,1.5339808,10.5625
40000000000000000000AA00,865.7,1.5769322,14.625
40000000000000000000AA00,865.7,1.5033011,14.625
40000000000000000000AA00,865.7,1.5094371,16.25
40000000000000000000AA00,865.7,1.5094371,17.875
40000000000000000000AA00,865.7,1.5585245,8.9375
40000000000000000000AA00,865.7,1.59534,1.625
40000000000000000000AA00,865.7,1.7119225,-20.3125
40000000000000000000AA00,865.7,1.515573,9.75
40000000000000000000AA00,865.7,1.5033011,9.75
40000000000000000000AA00,865.7,1.5769322,9.75
40000000000000000000AA00,865.7,1.5278449,6.5
40000000000000000000AA00,865.7,1.601476,-4.875
40000000000000000000AA00,865.7,1.521709,3.25
40000000000000000000AA00,865.7,1.4173982,26.0
40000000000000000000AA00,865.7,1.5585245,2.4375
40000000000000000000AA00,865.7,1.4971652,14.625
40000000000000000000AA00,865.7,1.3376312,36.5625
40000000000000000000AA00,865.7,1.4664856,18.6875
40000000000000000000AA00,865.7,1.4910294,13.8125
40000000000000000000AA00,865.7,1.4787575,14.625
40000000000000000000AA00,865.7,1.4848934,16.25
40000000000000000000AA00,865.7,1.5339808,2.4375
40000000000000000000AA00,865.7,1.4848934,21.125
40000000000000000000AA00,865.7,1.5094371,8.9375
40000000000000000000AA00,865.7,1.521709,10.5625
40000000000000000000AA00,865.7,1.4971652,9.75
40000000000000000000AA00,865.7,1.4910294,7.3125
40000000000000000000AA00,865.7,1.5769322,-7.3125
40000000000000000000AA00,865.7,1.5033011,17.0625
40000000000000000000AA00,865.7,1.5585245,3.25
40000000000000000000AA00,865.7,1.5769322,1.625
40000000000000000000AA00,865.7,1.4664856,10.5625
40000000000000000000AA00,865.7,1.5707964,-1.625
40000000000000000000AA00,865.7,1.5339808,5.6875
40000000000000000000AA00,865.7,1.59534,-0.8125
40000000000000000000AA00,865.7,1.4235342,25.1875
40000000000000000000AA00,865.7,1.5339808,10.5625
40000000000000000000AA00,865.7,1.5462526,8.125
40000000000000000000AA00,865.7,1.5523885,2.4375
40000000000000000000AA00,865.7,1.5707964,-3.25
40000000000000000000AA00,865.7,1.4910294,8.9375
40000000000000000000AA00,865.7,1.4542137,22.75
40000000000000000000AA00,865.7,1.5462526,8.9375
40000000000000000000AA00,865.7,1.4910294,15.4375
40000000000000000000AA00,865.7,1.521709,9.75
40000000000000000000AA00,865.7,1.6260196,-1.625
40000000000000000000AA00,865.7,1.3867186,17.0625
40000000000000000000AA00,865.7,1.5892041,-3.25
40000000000000000000AA00,865.7,1.4971652,6.5
40000000000000000000AA00,865.7,1.5401167,8.125
40000000000000000000AA00,865.7,1.6076119,-0.8125
40000000000000000000AA00,865.7,1.5278449,7.3125
40000000000000000000AA00,865.7,1.5094371,8.9375
40000000000000000000AA00,865.7,1.59534,-3.25
40000000000000000000AA00,865.7,1.441942,26.8125
40000000000000000000AA00,865.7,1.4664856,8.9375
40000000000000000000AA00,865.7,1.4910294,11.375
40000000000000000000AA00,865.7,1.4051265,26.8125
40000000000000000000AA00,865.7,1.4664856,15.4375
40000000000000000000AA00,865.7,1.4787575,13.8125
40000000000000000000AA00,865.7,1.3376312,38.1875
40000000000000000000AA00,865.7,1.5339808,8.125
40000000000000000000AA00,865.7,1.5278449,2.4375
40000000000000000000AA00,865.7,1.5585245,0.0
40000000000000000000AA00,865.7,1.5646604,9.75
40000000000000000000AA00,865.7,1.6198837,-7.3125
40000000000000000000AA00,865.7,1.5278449,3.25
40000000000000000000AA00,865.7,1.515573,11.375
40000000000000000000AA00,865.7,1.59534,-18.6875
40000000000000000000AA00,865.7,1.4542137,20.3125
40000000000000000000AA00,865.7,1.4480779,16.25
40000000000000000000AA00,865.7,1.4910294,2.4375
40000000000000000000AA00,865.7,1.59534,-4.875
40000000000000000000AA00,865.7,1.521709,5.6875
40000000000000000000AA00,865.7,1.6321555,-17.0625
40000000000000000000AA00,865.7,1.5523885,-7.3125
40000000000000000000AA00,865.7,1.5646604,7.3125
40000000000000000000AA00,865.7,1.441942,16.25
40000000000000000000AA00,865.7,1.4726216,13.8125
40000000000000000000AA00,865.7,1.4542137,24.375
40000000000000000000AA00,865.7,1.4910294,12.1875
40000000000000000000AA00,865.7,1.3867186,28.4375
40000000000000000000AA00,865.7,1.6076119,1.625
40000000000000000000AA00,865.7,1.521709,13.8125
40000000000000000000AA00,865.7,1.5707964,-11.375
40000000000000000000AA00,865.7,1.6198837,2.4375
40000000000000000000AA00,865.7,1.5830681,7.3125
40000000000000000000AA00,865.7,1.4664856,24.375
40000000000000000000AA00,865.7,1.5830681,3.25
40000000000000000000AA00,865.7,1.4235342,35.75
40000000000000000000AA00,865.7,1.6198837,-10.5625
40000000000000000000AA00,865.7,1.601476,7.3125
40000000000000000000AA00,865.7,1.5462526,11.375
40000000000000000000AA00,865.7,1.6628351,1.625
40000000000000000000AA00,865.7,1.5033011,38.1875
40000000000000000000AA00,865.7,1.5830681,21.125
40000000000000000000AA00,865.7,1.5830681,4.875
40000000000000000000AA00,865.7,1.6137478,15.4375
40000000000000000000AA00,865.7,1.5830681,9.75
40000000000000000000AA00,865.7,1.6689711,-7.3125
40000000000000000000AA00,865.7,1.59534,27.625
40000000000000000000AA00,865.7,1.675107,8.9375
40000000000000000000AA00,865.7,1.601476,12.1875
40000000000000000000AA00,865.7,1.9450877,1.625
40000000000000000000AA00,865.7,1.8591847,19.5
40000000000000000000AA00,865.7,1.7855537,25.1875
40000000000000000000AA00,865.7,1.9021362,39.875
40000000000000000000AA00,865.7,1.9512236,35.75
40000000000000000000AA00,865.7,1.9880391,34.125
40000000000000000000AA00,865.7,2.0125828,26.0
40000000000000000000AA00,865.7,2.2580197,-16.25
40000000000000000000AA00,865.7,2.1598449,23.5625
40000000000000000000AA00,865.7,2.0064468,37.375
40000000000000000000AA00,865.7,1.9757673,45.5625
40000000000000000000AA00,865.7,2.5464082,-14.625
40000000000000000000AA00,865.7,2.3868742,-30.875
40000000000000000000AA00,865.7,2.1905246,24.375
40000000000000000000AA00,865.7,2.2641556,22.75
40000000000000000000AA00,865.7,2.3991458,27.625
40000000000000000000AA00,865.7,2.5464082,5.6875
40000000000000000000AA00,865.7,2.3746023,37.375
40000000000000000000AA00,865.7,2.7366216,-17.0625
40000000000000000000AA00,865.7,2.2457478,59.375
40000000000000000000AA00,865.7,2.5402722,22.75
40000000000000000000AA00,865.7,2.233476,73.1875
40000000000000000000AA00,865.7,2.1291654,61.8125
40000000000000000000AA00,865.7,2.3255148,-23.5625
40000000000000000000AA00,865.7,2.3071072,28.4375
40000000000000000000AA00,865.7,2.5648158,8.9375
40000000000000000000AA00,865.7,2.3868742,21.125
40000000000000000000AA00,865.7,2.5280004,-36.5625
40000000000000000000AA00,865.7,2.638447,-6.5
40000000000000000000AA00,865.7,2.5280004,16.25
40000000000000000000AA00,865.7,2.1598449,66.6875
40000000000000000000AA00,865.7,2.0984857,79.75
40000000000000000000AA00,865.7,2.6139033,5.6875
40000000000000000000AA00,865.7,2.5095925,17.0625
40000000000000000000AA00,865.7,2.55868,24.375
40000000000000000000AA00,865.7,2.5341363,46.375
40000000000000000000AA00,865.7,2.6261752,36.5625
40000000000000000000AA00,865.7,2.6568546,31.6875
40000000000000000000AA00,865.7,3.104777,-11.375
40000000000000000000AA00,865.7,2.951379,26.8125
40000000000000000000AA00,865.7,2.877748,61.0
40000000000000000000AA00,865.7,3.0986412,22.75
40000000000000000000AA00,865.7,3.110913,38.1875
40000000000000000000AA00,865.7,3.2090878,16.25
40000000000000000000AA00,865.7,3.4667966,-18.6875
40000000000000000000AA00,865.7,3.1354568,36.5625
40000000000000000000AA00,865.7,3.3686218,-7.3125
40000000000000000000AA00,865.7,3.5281558,-17.0625
40000000000000000000AA00,865.7,3.417709,-22.75
40000000000000000000AA00,865.7,3.1600003,17.875
40000000000000000000AA00,865.7,3.1784081,12.1875
40000000000000000000AA00,865.7,3.1293209,19.5
40000000000000000000AA00,865.7,3.276583,-1.625
40000000000000000000AA00,865.7,3.0863693,19.5
40000000000000000000AA00,865.7,3.3318062,-19.5
40000000000000000000AA00,865.7,3.110913,17.0625
40000000000000000000AA00,865.7,3.3195345,-1.625
40000000000000000000AA00,865.7,3.2949908,5.6875
40000000000000000000AA00,865.7,3.0188742,47.1875
40000000000000000000AA00,865.7,3.0986412,30.875
40000000000000000000AA00,865.7,3.3195345,-2.4375
40000000000000000000AA00,865.7,3.3256702,7.3125
40000000000000000000AA00,865.7,3.497476,-22.75
40000000000000000000AA00,865.7,3.350214,26.0
40000000000000000000AA00,865.7,3.4729326,-8.9375
40000000000000000000AA00,865.7,3.4606607,-4.875
40000000000000000000AA00,865.7,3.509748,-0.8125
40000000000000000000AA00,865.7,3.4483888,4.875
40000000000000000000AA00,865.7,3.35635,20.3125
40000000000000000000AA00,865.7,3.3808937,5.6875
40000000000000000000AA00,865.7,3.4545248,-3.25
40000000000000000000AA00,865.7,3.4606607,0.8125
40000000000000000000AA00,865.7,3.3011267,17.0625
40000000000000000000AA00,865.7,3.2581751,22.75
40000000000000000000AA00,865.7,3.4054372,12.1875
40000000000000000000AA00,865.7,3.2949908,26.8125
40000000000000000000AA00,865.7,3.3931656,18.6875
40000000000000000000AA00,865.7,3.4913402,0.8125
40000000000000000000AA00,865.7,3.503612,5.6875
40000000000000000000AA00,865.7,3.5588355,-1.625
40000000000000000000AA00,865.7,3.4545248,10.5625
40000000000000000000AA00,865.7,3.3808937,24.375
40000000000000000000AA00,865.7,3.3993015,17.0625
40000000000000000000AA00,865.7,3.3931656,10.5625
40000000000000000000AA00,865.7,3.436117,16.25
40000000000000000000AA00,865.7,3.589515,-7.3125
40000000000000000000AA00,865.7,3.577243,-8.9375
40000000000000000000AA00,865.7,3.4115732,15.4375
40000000000000000000AA00,865.7,3.3195345,27.625
40000000000000000000AA00,865.7,3.7245054,-31.6875
40000000000000000000AA00,865.7,3.503612,6.5
40000000000000000000AA00,865.7,3.4606607,4.875
40000000000000000000AA00,865.7,3.4790685,8.125
40000000000000000000AA00,865.7,3.3379421,34.125
40000000000000000000AA00,865.7,3.3870296,15.4375
40000000000000000000AA00,865.7,3.276583,21.125
40000000000000000000AA00,865.7,3.3808937,20.3125
40000000000000000000AA00,865.7,3.3747578,25.1875
40000000000000000000AA00,865.7,3.503612,3.25
40000000000000000000AA00,865.7,3.509748,-0.8125
40000000000000000000AA00,865.7,3.4422529,6.5
40000000000000000000AA00,865.7,3.4115732,21.125
40000000000000000000AA00,865.7,3.362486,26.0
40000000000000000000AA00,865.7,3.5526996,5.6875
40000000000000000000AA00,865.7,3.4606607,18.6875
40000000000000000000AA00,865.7,3.5526996,4.875
40000000000000000000AA00,865.7,3.4790685,0.8125
40000000000000000000AA00,865.7,3.6263306,-6.5
40000000000000000000AA00,865.7,3.4729326,24.375
40000000000000000000AA00,865.7,3.583379,-5.6875
40000000000000000000AA00,865.7,3.5342917,-0.8125
40000000000000000000AA00,865.7,3.3931656,25.1875
40000000000000000000AA00,865.7,3.4606607,18.6875
40000000000000000000AA00,865.7,3.6386025,-5.6875
40000000000000000000AA00,865.7,3.429981,14.625
40000000000000000000AA00,865.7,3.5526996,5.6875
40000000000000000000AA00,865.7,3.6324666,-9.75
40000000000000000000AA00,865.7,3.5711074,-4.875
40000000000000000000AA00,865.7,3.4483888,18.6875
40000000000000000000AA00,865.7,3.5649714,7.3125
40000000000000000000AA00,865.7,3.663146,-13.8125
40000000000000000000AA00,865.7,3.5281558,9.75
40000000000000000000AA00,865.7,3.4790685,11.375
40000000000000000000AA00,865.7,3.4913402,6.5
40000000000000000000AA00,865.7,3.5342917,2.4375
40000000000000000000AA00,865.7,3.3808937,32.5
40000000000000000000AA00,865.7,3.663146,-9.75
40000000000000000000AA00,865.7,3.509748,10.5625
40000000000000000000AA00,865.7,3.589515,5.6875
40000000000000000000AA00,865.7,3.436117,21.125
40000000000000000000AA00,865.7,3.663146,-8.125
40000000000000000000AA00,865.7,3.429981,27.625
40000000000000000000AA00,865.7,3.589515,-5.6875
40000000000000000000AA00,865.7,3.6815538,-9.75
40000000000000000000AA00,865.7,3.577243,2.4375
40000000000000000000AA00,865.7,3.6324666,-7.3125
40000000000000000000AA00,865.7,3.6017869,1.625
40000000000000000000AA00,865.7,3.5588355,11.375
40000000000000000000AA00,865.7,3.4913402,12.1875
40000000000000000000AA00,865.7,3.5404277,8.9375
40000000000000000000AA00,865.7,3.4790685,0.0
40000000000000000000AA00,865.7,3.3379421,17.875
40000000000000000000AA00,865.7,3.19068,32.5
40000000000000000000AA00,865.7,3.282719,-15.4375
40000000000000000000AA00,865.7,3.02501,20.3125
40000000000000000000AA00,865.7,2.6568546,52.0625
40000000000000000000AA00,865.7,2.1843886,46.375
40000000000000000000AA00,865.7,2.0309906,28.4375
40000000000000000000AA00,865.7,1.9819032,19.5
40000000000000000000AA00,865.7,1.6382915,47.1875
40000000000000000000AA00,865.7,1.6566993,26.0
40000000000000000000AA00,865.7,1.7794178,-0.8125
40000000000000000000AA00,865.7,1.7610099,2.4375
40000000000000000000AA00,865.7,1.7794178,-14.625
40000000000000000000AA00,865.7,1.5033011,32.5
40000000000000000000AA00,865.7,1.6505634,13.8125
40000000000000000000AA00,865.7,1.4971652,34.125
40000000000000000000AA00,865.7,1.6076119,16.25
40000000000000000000AA00,865.7,1.515573,41.5
40000000000000000000AA00,865.7,1.5646604,17.875
40000000000000000000AA00,865.7,1.681243,-6.5
40000000000000000000AA00,865.7,1.6566993,18.6875
40000000000000000000AA00,865.7,1.7303303,4.875
40000000000000000000AA00,865.7,1.8591847,-11.375
40000000000000000000AA00,865.7,1.7978255,1.625
40000000000000000000AA00,865.7,1.4910294,46.375
40000000000000000000AA00,865.7,1.7057866,24.375
40000000000000000000AA00,865.7,1.6382915,22.75
40000000000000000000AA00,865.7,1.6996508,10.5625
40000000000000000000AA00,865.7,1.6996508,13.8125
40000000000000000000AA00,865.7,1.6444274,9.75
40000000000000000000AA00,865.7,1.6628351,7.3125
40000000000000000000AA00,865.7,1.7057866,-7.3125
40000000000000000000AA00,865.7,1.675107,7.3125
40000000000000000000AA00,865.7,1.6935148,16.25
40000000000000000000AA00,865.7,1.5707964,35.75
40000000000000000000AA00,865.7,1.6628351,11.375
40000000000000000000AA00,865.7,1.748738,3.25
40000000000000000000AA00,865.7,1.5707964,22.75
40000000000000000000AA00,865.7,1.6444274,16.25
40000000000000000000AA00,865.7,1.6689711,7.3125
40000000000000000000AA00,865.7,1.6505634,17.0625
40000000000000000000AA00,865.7,1.7855537,-8.9375
40000000000000000000AA00,865.7,1.748738,-1.625
40000000000000000000AA00,865.7,1.6566993,19.5
40000000000000000000AA00,865.7,1.6689711,27.625
40000000000000000000AA00,865.7,1.7794178,22.75
40000000000000000000AA00,865.7,1.7364663,26.0
40000000000000000000AA00,865.7,1.6996508,46.375
40000000000000000000AA00,865.7,1.7732818,27.625
40000000000000000000AA00,865.7,1.9021362,16.25
40000000000000000000AA00,865.7,1.9266798,6.5
40000000000000000000AA00,865.7,1.8714565,10.5625
40000000000000000000AA00,865.7,1.9082721,8.125
40000000000000000000AA00,865.7,1.8653207,15.4375
40000000000000000000AA00,865.7,1.9082721,14.625
40000000000000000000AA00,865.7,1.8469129,11.375
40000000000000000000AA00,865.7,1.9021362,5.6875
40000000000000000000AA00,865.7,1.8100973,21.125
40000000000000000000AA00,865.7,1.9819032,-6.5
40000000000000000000AA00,865.7,1.9634954,3.25
40000000000000000000AA00,865.7,1.9266798,5.6875
40000000000000000000AA00,865.7,1.9880391,22.75
40000000000000000000AA00,865.7,1.9757673,11.375
40000000000000000000AA00,865.7,1.8407769,25.1875
40000000000000000000AA00,865.7,1.9021362,13.8125
40000000000000000000AA00,865.7,1.8898643,26.0
40000000000000000000AA00,865.7,1.8775924,24.375
40000000000000000000AA00,865.7,2.1659808,-12.1875
40000000000000000000AA00,865.7,1.8530488,38.1875
40000000000000000000AA00,865.7,1.9696313,15.4375
40000000000000000000AA00,865.7,2.0309906,15.4375
40000000000000000000AA00,865.7,2.0187187,26.8125
40000000000000000000AA00,865.7,1.914408,41.5
40000000000000000000AA00,865.7,1.9880391,34.9375
40000000000000000000AA00,865.7,2.0309906,34.9375
40000000000000000000AA00,865.7,2.0493984,24.375
40000000000000000000AA00,865.7,2.153709,12.1875
40000000000000000000AA00,865.7,2.0555344,26.0
40000000000000000000AA00,865.7,2.0862138,19.5
40000000000000000000AA00,865.7,2.1230295,24.375
40000000000000000000AA00,865.7,2.2457478,-0.8125
40000000000000000000AA00,865.7,2.5770876,-45.5625
40000000000000000000AA00,865.7,2.2580197,-6.5
40000000000000000000AA00,865.7,2.2027965,22.75
40000000000000000000AA00,865.7,2.1168935,31.6875
40000000000000000000AA00,865.7,2.233476,21.125
40000000000000000000AA00,865.7,2.4114177,-16.25
40000000000000000000AA00,865.7,2.2825634,-1.625
40000000000000000000AA00,865.7,2.2641556,10.5625
40000000000000000000AA00,865.7,2.3255148,13.8125
40000000000000000000AA00,865.7,2.1659808,21.125
40000000000000000000AA00,865.7,2.3009713,2.4375
40000000000000000000AA00,865.7,2.3439226,-8.125
40000000000000000000AA00,865.7,2.1659808,14.625
40000000000000000000AA00,865.7,2.2027965,17.0625
40000000000000000000AA00,865.7,2.1414373,13.8125
40000000000000000000AA00,865.7,2.1107576,31.6875
40000000000000000000AA00,865.7,2.2457478,17.0625
40000000000000000000AA00,865.7,2.3377867,-12.1875
40000000000000000000AA00,865.7,2.1905246,28.4375
40000000000000000000AA00,865.7,2.1598449,23.5625
40000000000000000000AA00,865.7,2.3009713,-2.4375
40000000000000000000AA00,865.7,2.1414373,25.1875
40000000000000000000AA00,865.7,2.2518837,5.6875
40000000000000000000AA00,865.7,2.2948353,-5.6875
40000000000000000000AA00,865.7,2.1598449,8.9375
40000000000000000000AA00,865.7,2.2273402,5.6875
40000000000000000000AA00,865.7,2.0862138,15.4375
40000000000000000000AA00,865.7,2.3930101,-26.8125
40000000000000000000AA00,865.7,2.080078,32.5
40000000000000000000AA00,865.7,2.1843886,-1.625
40000000000000000000AA00,865.7,2.080078,18.6875
40000000000000000000AA00,865.7,2.0555344,22.75
40000000000000000000AA00,865.7,2.1353014,34.125
40000000000000000000AA00,865.7,2.0064468,44.75
40000000000000000000AA00,865.7,2.2212043,0.8125
40000000000000000000AA00,865.7,2.0862138,37.375
40000000000000000000AA00,865.7,2.3316507,-2.4375
40000000000000000000AA00,865.7,2.1107576,14.625
40000000000000000000AA00,865.7,2.1721168,15.4375
40000000000000000000AA00,865.7,2.1782527,4.875
40000000000000000000AA00,865.7,2.0862138,17.875
40000000000000000000AA00,865.7,2.0862138,17.875
40000000000000000000AA00,865.7,2.233476,3.25
40000000000000000000AA00,865.7,2.0862138,20.3125
40000000000000000000AA00,865.7,2.147573,12.1875
40000000000000000000AA00,865.7,2.0923498,20.3125
40000000000000000000AA00,865.7,2.1598449,9.75
40000000000000000000AA00,865.7,2.147573,14.625
40000000000000000000AA00,865.7,2.1905246,-2.4375
40000000000000000000AA00,865.7,2.2273402,3.25
40000000000000000000AA00,865.7,2.0187187,30.875
40000000000000000000AA00,865.7,2.1721168,29.25
40000000000000000000AA00,865.7,2.1168935,15.4375
40000000000000000000AA00,865.7,2.1168935,13.8125
40000000000000000000AA00,865.7,2.080078,25.1875
40000000000000000000AA00,865.7,2.0862138,13.8125
40000000000000000000AA00,865.7,2.2641556,-10.5625
40000000000000000000AA00,865.7,2.0432625,26.0
40000000000000000000AA00,865.7,2.1782527,3.25
40000000000000000000AA00,865.7,2.1721168,14.625
40000000000000000000AA00,865.7,2.080078,22.75
40000000000000000000AA00,865.7,2.0309906,17.875
40000000000000000000AA00,865.7,2.0493984,27.625
40000000000000000000AA00,865.7,2.067806,23.5625
40000000000000000000AA00,865.7,2.0309906,25.1875
40000000000000000000AA00,865.7,2.0555344,25.1875
40000000000000000000AA00,865.7,2.147573,8.125
40000000000000000000AA00,865.7,2.147573,10.5625
40000000000000000000AA00,865.7,2.067806,21.125
40000000000000000000AA00,865.7,2.1107576,14.625
40000000000000000000AA00,865.7,2.1230295,13.8125
40000000000000000000AA00,865.7,2.0309906,25.1875
40000000000000000000AA00,865.7,2.1291654,4.875
40000000000000000000AA00,865.7,2.2212043,-4.875
40000000000000000000AA00,865.7,1.9880391,37.375
40000000000000000000AA00,865.7,2.1230295,8.125
40000000000000000000AA00,865.7,2.0984857,16.25
40000000000000000000AA00,865.7,2.067806,9.75
40000000000000000000AA00,865.7,2.0862138,18.6875
40000000000000000000AA00,865.7,2.1107576,17.0625
40000000000000000000AA00,865.7,2.2457478,1.625
40000000000000000000AA00,865.7,2.0125828,21.125
40000000000000000000AA00,865.7,2.1782527,5.6875
40000000000000000000AA00,865.7,2.0555344,11.375
40000000000000000000AA00,865.7,2.0309906,16.25
40000000000000000000AA00,865.7,2.2948353,-17.875
40000000000000000000AA00,865.7,2.2150683,5.6875
40000000000000000000AA00,865.7,2.073942,27.625
40000000000000000000AA00,865.7,2.1905246,0.0
40000000000000000000AA00,865.7,2.1230295,16.25
40000000000000000000AA00,865.7,2.0862138,10.5625
40000000000000000000AA00,865.7,2.0187187,27.625
40000000000000000000AA00,865.7,2.080078,11.375
40000000000000000000AA00,865.7,2.147573,8.9375
40000000000000000000AA00,865.7,1.9941751,36.5625
40000000000000000000AA00,865.7,2.1659808,0.8125
40000000000000000000AA00,865.7,2.1168935,2.4375
40000000000000000000AA00,865.7,1.9634954,22.75
40000000000000000000AA00,865.7,2.0064468,12.1875
40000000000000000000AA00,865.7,1.9819032,25.1875
40000000000000000000AA00,865.7,2.0187187,8.9375
40000000000000000000AA00,865.7,2.2396119,-17.875
40000000000000000000AA00,865.7,2.0493984,12.1875
40000000000000000000AA00,865.7,2.0984857,5.6875
40000000000000000000AA00,865.7,2.000311,24.375
40000000000000000000AA00,865.7,2.1230295,-1.625
40000000000000000000AA00,865.7,2.0064468,24.375
40000000000000000000AA00,865.7,2.0371265,16.25
40000000000000000000AA00,865.7,2.0493984,7.3125
40000000000000000000AA00,865.7,2.000311,25.1875
40000000000000000000AA00,865.7,1.9880391,23.5625
40000000000000000000AA00,865.7,1.8960003,38.1875
40000000000000000000AA00,865.7,2.2764275,-18.6875
40000000000000000000AA00,865.7,2.2702916,-15.4375
40000000000000000000AA00,865.7,1.9328158,38.1875
40000000000000000000AA00,865.7,2.3071072,-4.875
40000000000000000000AA00,865.7,2.0862138,17.875
40000000000000000000AA00,865.7,2.073942,14.625
40000000000000000000AA00,865.7,2.1046216,5.6875
40000000000000000000AA00,865.7,2.1598449,-4.875
40000000000000000000AA00,865.7,1.8837284,33.3125
40000000000000000000AA00,865.7,2.1168935,-5.6875
40000000000000000000AA00,865.7,2.0309906,13.8125
40000000000000000000AA00,865.7,2.1291654,0.8125
40000000000000000000AA00,865.7,2.1659808,-2.4375
40000000000000000000AA00,865.7,2.1107576,17.875
40000000000000000000AA00,865.7,1.9696313,39.875
40000000000000000000AA00,865.7,1.9880391,26.8125
40000000000000000000AA00,865.7,2.2948353,-14.625
40000000000000000000AA00,865.7,1.8837284,37.375
40000000000000000000AA00,865.7,2.2396119,5.6875
40000000000000000000AA00,865.7,2.0187187,23.5625
40000000000000000000AA00,865.7,2.1414373,1.625
40000000000000000000AA00,865.7,2.1291654,8.125
40000000000000000000AA00,865.7,2.3377867,-6.5
40000000000000000000AA00,865.7,2.1046216,9.75
40000000000000000000AA00,865.7,2.1046216,17.875
40000000000000000000AA00,865.7,2.147573,0.0
40000000000000000000AA00,865.7,2.0187187,45.5625
40000000000000000000AA00,865.7,2.0248547,28.4375
40000000000000000000AA00,865.7,2.0187187,21.125
40000000000000000000AA00,865.7,2.1046216,12.1875
40000000000000000000AA00,865.7,2.1107576,5.6875
40000000000000000000AA00,865.7,2.0555344,22.75
40000000000000000000AA00,865.7,1.914408,40.6875
40000000000000000000AA00,865.7,2.1107576,9.75
40000000000000000000AA00,865.7,2.06167,10.5625
40000000000000000000AA00,865.7,1.9450877,30.875
40000000000000000000AA00,865.7,1.9757673,40.6875
40000000000000000000AA00,865.7,2.1107576,0.8125
40000000000000000000AA00,865.7,2.1414373,4.875
40000000000000000000AA00,865.7,2.153709,-11.375
40000000000000000000AA00,865.7,1.9757673,25.1875
40000000000000000000AA00,865.7,1.8898643,24.375
40000000000000000000AA00,865.7,2.0493984,2.4375
40000000000000000000AA00,865.7,2.1905246,-8.125
40000000000000000000AA00,865.7,2.1291654,-8.9375
40000000000000000000AA00,865.7,1.9880391,21.125
40000000000000000000AA00,865.7,2.0555344,-5.6875
40000000000000000000AA00,865.7,1.8960003,11.375
40000000000000000000AA00,865.7,1.9266798,23.5625
40000000000000000000AA00,865.7,1.9021362,28.4375
40000000000000000000AA00,865.7,2.0187187,0.8125
40000000000000000000AA00,865.7,2.067806,0.0
40000000000000000000AA00,865.7,2.073942,-8.9375
40000000000000000000AA00,865.7,1.834641,18.6875
40000000000000000000AA00,865.7,1.8898643,17.875
40000000000000000000AA00,865.7,1.834641,26.8125
40000000000000000000AA00,865.7,1.8530488,23.5625
40000000000000000000AA00,865.7,1.8407769,23.5625
40000000000000000000AA00,865.7,1.9634954,4.875
40000000000000000000AA00,865.7,1.8407769,21.125
40000000000000000000AA00,865.7,1.9573594,8.125
40000000000000000000AA00,865.7,1.9021362,2.4375
40000000000000000000AA00,865.7,2.0555344,-6.5
40000000000000000000AA00,865.7,1.8407769,18.6875
40000000000000000000AA00,865.7,1.9389517,8.9375
40000000000000000000AA00,865.7,2.0371265,-7.3125
40000000000000000000AA00,865.7,1.8714565,25.1875
40000000000000000000AA00,865.7,2.0248547,-6.5
40000000000000000000AA00,865.7,1.9573594,3.25
40000000000000000000AA00,865.7,1.9512236,8.125
40000000000000000000AA00,865.7,1.8469129,16.25
40000000000000000000AA00,865.7,1.9389517,3.25
40000000000000000000AA00,865.7,1.8960003,29.25
40000000000000000000AA00,865.7,1.8960003,19.5
40000000000000000000AA00,865.7,2.2518837,-17.0625
40000000000000000000AA00,865.7,1.8898643,29.25
40000000000000000000AA00,865.7,1.9389517,31.6875
40000000000000000000AA00,865.7,2.080078,9.75
40000000000000000000AA00,865.7,2.0064468,23.5625
40000000000000000000AA00,865.7,2.0862138,18.6875
40000000000000000000AA00,865.7,2.06167,7.3125
40000000000000000000AA00,865.7,2.1046216,13.8125
40000000000000000000AA00,865.7,1.9634954,18.6875
40000000000000000000AA00,865.7,2.0248547,10.5625
40000000000000000000AA00,865.7,2.0187187,11.375
40000000000000000000AA00,865.7,2.0125828,21.125
40000000000000000000AA00,865.7,1.9266798,24.375
40000000000000000000AA00,865.7,2.1230295,3.25
40000000000000000000AA00,865.7,1.9941751,16.25
40000000000000000000AA00,865.7,2.080078,22.75
40000000000000000000AA00,865.7,2.2396119,-24.375
40000000000000000000AA00,865.7,2.0125828,11.375
40000000000000000000AA00,865.7,2.233476,-18.6875
40000000000000000000AA00,865.7,2.0187187,8.125
40000000000000000000AA00,865.7,2.000311,-3.25
40000000000000000000AA00,865.7,1.9634954,22.75
40000000000000000000AA00,865.7,1.9328158,28.4375
40000000000000000000AA00,865.7,2.000311,19.5
40000000000000000000AA00,865.7,1.9757673,29.25
40000000000000000000AA00,865.7,1.9880391,29.25
40000000000000000000AA00,865.7,2.0432625,8.9375
40000000000000000000AA00,865.7,1.9512236,17.875
40000000000000000000AA00,865.7,2.06167,1.625
40000000000000000000AA00,865.7,2.06167,6.5
40000000000000000000AA00,865.7,2.0125828,10.5625
40000000000000000000AA00,865.7,2.0187187,0.8125
40000000000000000000AA00,865.7,2.000311,17.0625
40000000000000000000AA00,865.7,1.9819032,12.1875
40000000000000000000AA00,865.7,1.9757673,11.375
40000000000000000000AA00,865.7,2.0555344,-1.625
40000000000000000000AA00,865.7,2.1046216,-7.3125
40000000000000000000AA00,865.7,1.9941751,13.8125
40000000000000000000AA00,865.7,2.0432625,4.875
40000000000000000000AA00,865.7,2.0309906,20.3125
40000000000000000000AA00,865.7,2.1046216,-5.6875
40000000000000000000AA00,865.7,1.8837284,25.1875
40000000000000000000AA00,865.7,1.9634954,15.4375
40000000000000000000AA00,865.7,2.067806,3.25
40000000000000000000AA00,865.7,2.1905246,-8.9375
40000000000000000000AA00,865.7,2.0371265,18.6875
40000000000000000000AA00,865.7,1.9266798,29.25
40000000000000000000AA00,865.7,2.0432625,11.375
40000000000000000000AA00,865.7,2.0984857,3.25
40000000000000000000AA00,865.7,1.9634954,12.1875
40000000000000000000AA00,865.7,1.9880391,21.125
40000000000000000000AA00,865.7,1.9573594,36.5625
40000000000000000000AA00,865.7,1.9757673,23.5625
40000000000000000000AA00,865.7,2.0923498,7.3125
40000000000000000000AA00,865.7,2.0432625,10.5625
40000000000000000000AA00,865.7,2.1414373,-2.4375
40000000000000000000AA00,865.7,2.147573,-2.4375
40000000000000000000AA00,865.7,2.2273402,-16.25
40000000000000000000AA00,865.7,1.9634954,19.5
40000000000000000000AA00,865.7,2.1230295,7.3125
40000000000000000000AA00,865.7,2.1230295,3.25
40000000000000000000AA00,865.7,1.9512236,25.1875
40000000000000000000AA00,865.7,2.1843886,-4.875
40000000000000000000AA00,865.7,2.153709,-3.25
40000000000000000000AA00,865.7,2.073942,12.1875
40000000000000000000AA00,865.7,2.080078,4.875
40000000000000000000AA00,865.7,1.9941751,22.75
40000000000000000000AA00,865.7,2.0923498,9.75
40000000000000000000AA00,865.7,2.0493984,17.875
40000000000000000000AA00,865.7,2.067806,8.125
40000000000000000000AA00,865.7,2.0984857,6.5
40000000000000000000AA00,865.7,2.1966605,-8.125
40000000000000000000AA00,865.7,2.1046216,18.6875
40000000000000000000AA00,865.7,2.147573,-0.8125
40000000000000000000AA00,865.7,2.0125828,20.3125
40000000000000000000AA00,865.7,2.2273402,-8.125
40000000000000000000AA00,865.7,2.000311,33.3125
40000000000000000000AA00,865.7,1.9696313,26.8125
40000000000000000000AA00,865.7,2.1966605,-9.75
40000000000000000000AA00,865.7,2.0432625,22.75
40000000000000000000AA00,865.7,2.080078,20.3125
40000000000000000000AA00,865.7,2.1353014,5.6875
40000000000000000000AA00,865.7,2.0923498,21.125
40000000000000000000AA00,865.7,2.2089324,-1.625
40000000000000000000AA00,865.7,2.067806,9.75
40000000000000000000AA00,865.7,2.1168935,4.875
40000000000000000000AA00,865.7,2.0923498,16.25
40000000000000000000AA00,865.7,2.1598449,8.125
40000000000000000000AA00,865.7,2.1291654,10.5625
40000000000000000000AA00,865.7,2.080078,12.1875
40000000000000000000AA00,865.7,2.1046216,7.3125
40000000000000000000AA00,865.7,2.0493984,17.0625
40000000000000000000AA00,865.7,2.1966605,-2.4375
40000000000000000000AA00,865.7,2.1782527,8.9375
40000000000000000000AA00,865.7,2.1230295,0.0
40000000000000000000AA00,865.7,1.9450877,29.25
40000000000000000000AA00,865.7,2.3316507,-17.875
40000000000000000000AA00,865.7,2.3377867,-25.1875
40000000000000000000AA00,865.7,2.3807383,-33.3125
40000000000000000000AA00,865.7,2.0555344,20.3125
40000000000000000000AA00,865.7,2.0432625,19.5
40000000000000000000AA00,865.7,2.153709,4.875
40000000000000000000AA00,865.7,2.0248547,15.4375
40000000000000000000AA00,865.7,2.0923498,8.9375
40000000000000000000AA00,865.7,2.1659808,-8.9375
40000000000000000000AA00,865.7,2.2457478,-16.25
40000000000000000000AA00,865.7,2.1230295,2.4375
40000000000000000000AA00,865.7,2.0862138,17.0625
40000000000000000000AA00,865.7,2.2150683,-2.4375
40000000000000000000AA00,865.7,2.000311,8.125
40000000000000000000AA00,865.7,2.0862138,14.625
40000000000000000000AA00,865.7,2.0248547,9.75
40000000000000000000AA00,865.7,2.080078,8.9375
40000000000000000000AA00,865.7,2.073942,17.0625
40000000000000000000AA00,865.7,2.153709,5.6875
40000000000000000000AA00,865.7,2.1414373,-1.625
40000000000000000000AA00,865.7,2.1107576,1.625
40000000000000000000AA00,865.7,2.1414373,-1.625
40000000000000000000AA00,865.7,1.8591847,36.5625
40000000000000000000AA00,865.7,2.067806,14.625
40000000000000000000AA00,865.7,2.2089324,-3.25
40000000000000000000AA00,865.7,2.147573,-1.625
40000000000000000000AA00,865.7,2.0923498,2.4375
40000000000000000000AA00,865.7,2.1291654,3.25
40000000000000000000AA00,865.7,2.0064468,22.75
40000000000000000000AA00,865.7,2.06167,0.8125
40000000000000000000AA00,865.7,2.1659808,-4.875
40000000000000000000AA00,865.7,2.1230295,5.6875
40000000000000000000AA00,865.7,1.9205439,32.5
40000000000000000000AA00,865.7,2.1721168,6.5
40000000000000000000AA00,865.7,2.2764275,-20.3125
40000000000000000000AA00,865.7,1.9634954,25.1875
40000000000000000000AA00,865.7,2.0923498,-5.6875
40000000000000000000AA00,865.7,2.2273402,-17.875
40000000000000000000AA00,865.7,2.0371265,16.25
40000000000000000000AA00,865.7,2.0187187,29.25
40000000000000000000AA00,865.7,2.0371265,8.9375
40000000000000000000AA00,865.7,2.0923498,0.8125
40000000000000000000AA00,865.7,1.9634954,18.6875
40000000000000000000AA00,865.7,2.080078,12.1875
40000000000000000000AA00,865.7,2.1353014,1.625
40000000000000000000AA00,865.7,1.914408,35.75
40000000000000000000AA00,865.7,2.0125828,21.125
40000000000000000000AA00,865.7,2.0248547,20.3125
40000000000000000000AA00,865.7,2.0923498,17.875
40000000000000000000AA00,865.7,2.2273402,3.25
40000000000000000000AA00,865.7,2.1168935,13.8125
40000000000000000000AA00,865.7,2.2027965,15.4375
40000000000000000000AA00,865.7,2.153709,10.5625
40000000000000000000AA00,865.7,2.0493984,20.3125
40000000000000000000AA00,865.7,2.1598449,20.3125
40000000000000000000AA00,865.7,2.4543693,-26.8125
40000000000000000000AA00,865.7,2.2518837,-14.625
40000000000000000000AA00,865.7,2.3500586,-15.4375
40000000000000000000AA00,865.7,2.1353014,21.125
40000000000000000000AA00,865.7,2.2641556,0.8125
40000000000000000000AA00,865.7,2.2396119,6.5
40000000000000000000AA00,865.7,2.1353014,3.25
40000000000000000000AA00,865.7,2.0371265,17.875
40000000000000000000AA00,865.7,2.0432625,35.75
40000000000000000000AA00,865.7,2.0493984,19.5
40000000000000000000AA00,865.7,2.1782527,-2.4375
40000000000000000000AA00,865.7,2.0125828,21.125
40000000000000000000AA00,865.7,2.1782527,11.375
40000000000000000000AA00,865.7,2.2948353,-14.625
40000000000000000000AA00,865.7,2.1843886,0.8125
40000000000000000000AA00,865.7,2.233476,-2.4375
40000000000000000000AA00,865.7,2.1168935,15.4375
40000000000000000000AA00,865.7,1.9941751,28.4375
40000000000000000000AA00,865.7,2.2641556,-8.9375
40000000000000000000AA00,865.7,2.147573,14.625
40000000000000000000AA00,865.7,2.0493984,17.875
40000000000000000000AA00,865.7,2.0555344,27.625
40000000000000000000AA00,865.7,2.2150683,-0.8125
40000000000000000000AA00,865.7,2.1046216,17.875
40000000000000000000AA00,865.7,2.0248547,20.3125
40000000000000000000AA00,865.7,2.0187187,45.5625
40000000000000000000AA00,865.7,2.0984857,17.0625
40000000000000000000AA00,865.7,2.080078,21.125
40000000000000000000AA00,865.7,2.2212043,-5.6875
40000000000000000000AA00,865.7,2.2150683,5.6875
40000000000000000000AA00,865.7,2.1230295,13.8125
40000000000000000000AA00,865.7,2.0984857,20.3125
40000000000000000000AA00,865.7,2.3071072,-28.4375
40000000000000000000AA00,865.7,2.1782527,1.625
40000000000000000000AA00,865.7,2.1843886,6.5
40000000000000000000AA00,865.7,2.0432625,26.8125
40000000000000000000AA00,865.7,2.2702916,-5.6875
40000000000000000000AA00,865.7,2.1598449,8.9375
40000000000000000000AA00,865.7,2.2580197,4.875
40000000000000000000AA00,865.7,2.1291654,10.5625
40000000000000000000AA00,865.7,2.0923498,15.4375
40000000000000000000AA00,865.7,2.3316507,-8.125
40000000000000000000AA00,865.7,2.1230295,16.25
40000000000000000000AA00,865.7,2.2027965,15.4375
40000000000000000000AA00,865.7,2.2089324,4.875
40000000000000000000AA00,865.7,2.1230295,24.375
40000000000000000000AA00,865.7,2.233476,7.3125
40000000000000000000AA00,865.7,2.2212043,-2.4375
40000000000000000000AA00,865.7,2.1966605,15.4375
40000000000000000000AA00,865.7,2.1782527,9.75
40000000000000000000AA00,865.7,2.1414373,15.4375
40000000000000000000AA00,865.7,2.2150683,6.5
40000000000000000000AA00,865.7,2.3316507,-15.4375
40000000000000000000AA00,865.7,2.1107576,17.0625
40000000000000000000AA00,865.7,2.1168935,18.6875
40000000000000000000AA00,865.7,2.2580197,2.4375
40000000000000000000AA00,865.7,2.2150683,4.875
40000000000000000000AA00,865.7,2.2150683,13.8125
40000000000000000000AA00,865.7,2.2764275,6.5
40000000000000000000AA00,865.7,2.2150683,14.625
40000000000000000000AA00,865.7,2.1168935,25.1875
40000000000000000000AA00,865.7,2.1782527,16.25
40000000000000000000AA00,865.7,2.1966605,8.9375
40000000000000000000AA00,865.7,2.1721168,9.75
40000000000000000000AA00,865.7,2.153709,21.125
40000000000000000000AA00,865.7,2.1230295,17.875
40000000000000000000AA00,865.7,2.2273402,3.25
40000000000000000000AA00,865.7,2.3746023,-14.625
40000000000000000000AA00,865.7,2.2396119,5.6875
40000000000000000000AA00,865.7,2.2764275,-0.8125
40000000000000000000AA00,865.7,2.1721168,21.125
40000000000000000000AA00,865.7,2.2764275,-4.875
40000000000000000000AA00,865.7,2.2641556,2.4375
40000000000000000000AA00,865.7,2.2212043,13.8125
40000000000000000000AA00,865.7,2.2089324,22.75
40000000000000000000AA00,865.7,2.2273402,0.0
40000000000000000000AA00,865.7,2.1782527,2.4375
40000000000000000000AA00,865.7,2.3561945,-19.5
40000000000000000000AA00,865.7,2.1291654,11.375
40000000000000000000AA00,865.7,2.1107576,20.3125
40000000000000000000AA00,865.7,2.1353014,11.375
40000000000000000000AA00,865.7,2.0493984,18.6875
40000000000000000000AA00,865.7,2.2396119,-2.4375
40000000000000000000AA00,865.7,2.1905246,-0.8125
40000000000000000000AA00,865.7,2.153709,13.8125
40000000000000000000AA00,865.7,2.2089324,4.875
40000000000000000000AA00,865.7,2.233476,1.625
40000000000000000000AA00,865.7,2.0371265,19.5
40000000000000000000AA00,865.7,1.9880391,23.5625
40000000000000000000AA00,865.7,2.1843886,-8.125
40000000000000000000AA00,865.7,2.0432625,20.3125
40000000000000000000AA00,865.7,2.0187187,27.625
40000000000000000000AA00,865.7,2.1843886,-5.6875
40000000000000000000AA00,865.7,2.1966605,-1.625
40000000000000000000AA00,865.7,2.0984857,5.6875
40000000000000000000AA00,865.7,2.1291654,12.1875
40000000000000000000AA00,865.7,2.2089324,0.8125
40000000000000000000AA00,865.7,2.073942,22.75
40000000000000000000AA00,865.7,2.1046216,17.875
40000000000000000000AA00,865.7,2.2089324,6.5
40000000000000000000AA00,865.7,2.1782527,3.25
40000000000000000000AA00,865.7,2.0984857,18.6875
40000000000000000000AA00,865.7,2.080078,8.9375
40000000000000000000AA00,865.7,2.06167,20.3125
40000000000000000000AA00,865.7,2.1414373,7.3125
40000000000000000000AA00,865.7,2.1168935,12.1875
40000000000000000000AA00,865.7,2.0923498,15.4375
40000000000000000000AA00,865.7,2.147573,6.5
40000000000000000000AA00,865.7,2.1230295,12.1875
40000000000000000000AA00,865.7,2.067806,22.75
40000000000000000000AA00,865.7,1.9819032,35.75
40000000000000000000AA00,865.7,2.2089324,0.8125
40000000000000000000AA00,865.7,2.0432625,12.1875
40000000000000000000AA00,865.7,2.147573,-6.5
40000000000000000000AA00,865.7,1.9880391,34.9375
40000000000000000000AA00,865.7,2.1230295,9.75
40000000000000000000AA00,865.7,2.1414373,13.8125
40000000000000000000AA00,865.7,2.080078,19.5
40000000000000000000AA00,865.7,1.9941751,26.0
40000000000000000000AA00,865.7,2.1353014,8.9375
40000000000000000000AA00,865.7,2.1291654,8.125
40000000000000000000AA00,865.7,2.1107576,10.5625
40000000000000000000AA00,865.7,2.0064468,27.625
40000000000000000000AA00,865.7,2.0493984,26.8125
40000000000000000000AA00,865.7,2.0187187,30.875
40000000000000000000AA00,865.7,2.0555344,14.625
40000000000000000000AA00,865.7,2.1168935,7.3125
40000000000000000000AA00,865.7,2.06167,17.875
40000000000000000000AA00,865.7,2.0064468,31.6875
