-42.0,6.234097921967246,1.625
-42.0,6.252505691421874,3.25
-42.0,6.258641614573416,-0.8125
-42.0,6.240233845118788,5.6875
-42.0,6.1850105367549055,13.8125
-42.0,6.252505691421874,2.4375
-42.0,6.2463697682703305,0.0
-42.0,6.22182607566416,6.5
-42.5,6.234097921967246,5.6875
-42.0,6.240233845118788,3.25
-42.0,6.1850105367549055,11.375
-42.0,6.209554229361076,8.9375
-42.0,6.252505691421874,3.25
-42.0,6.2463697682703305,5.6875
-42.0,6.240233845118788,2.4375
-42.0,6.234097921967246,6.5
-42.5,6.215690152512618,8.125
-42.0,6.252505691421874,1.625
-42.0,6.22182607566416,4.875
-42.0,6.2463697682703305,0.8125
-42.0,6.264777537724958,2.4375
-42.0,6.22182607566416,5.6875
-42.0,6.2034183062095325,8.9375
-42.0,6.227961998815704,5.6875
-42.5,6.234097921967246,7.3125
-42.0,6.234097921967246,7.3125
-42.0,6.22182607566416,8.125
-42.5,6.264777537724958,0.0
-42.0,6.234097921967246,4.875
-42.0,6.264777537724958,1.625
-42.5,6.215690152512618,9.75
-42.5,6.264777537724958,1.625
-42.5,6.240233845118788,3.25
-42.5,6.270913460876501,1.625
-42.0,6.252505691421874,2.4375
-42.0,6.258641614573416,3.25
-42.5,6.234097921967246,5.6875
-42.0,6.264777537724958,1.625
-42.0,6.2463697682703305,3.25
-42.5,6.240233845118788,6.5
-42.0,6.240233845118788,4.875
-42.0,6.2463697682703305,2.4375
-42.5,6.2463697682703305,2.4375
-42.5,6.264777537724958,2.4375
-42.0,6.2463697682703305,6.5
-42.0,6.240233845118788,4.875
-42.0,6.2463697682703305,3.25
-42.0,6.234097921967246,5.6875
-42.5,6.258641614573416,0.8125
-42.0,6.258641614573416,3.25
-42.0,6.258641614573416,1.625
-42.5,6.234097921967246,7.3125
-42.0,6.240233845118788,5.6875
-42.5,6.2463697682703305,5.6875
-42.5,6.240233845118788,5.6875
-42.5,6.252505691421874,4.875
-42.0,6.240233845118788,4.875
-42.5,6.234097921967246,6.5
-42.5,6.270913460876501,0.8125
-42.0,6.227961998815704,7.3125
-42.5,6.258641614573416,0.8125
-42.0,6.209554229361076,8.125
-42.0,6.252505691421874,2.4375
-42.0,6.2463697682703305,4.875
-42.0,6.252505691421874,2.4375
-42.0,6.240233845118788,5.6875
-42.0,6.240233845118788,4.875
-42.0,6.252505691421874,5.6875
-42.0,6.258641614573416,2.4375
-42.0,6.252505691421874,2.4375
-42.5,6.240233845118788,5.6875
-42.0,0.01227184630308513,-1.625
-42.0,6.2463697682703305,2.4375
-42.0,6.2463697682703305,4.875
-42.5,6.234097921967246,7.3125
-42.5,6.258641614573416,4.875
-42.0,6.258641614573416,1.625
-42.5,6.277049384028044,0.8125
-42.0,6.277049384028044,-0.8125
-42.5,6.270913460876501,2.4375
-42.0,6.277049384028044,2.4375
-42.0,6.277049384028044,0.8125
-42.0,0.006135923151542565,-1.625
-42.0,6.252505691421874,2.4375
-42.0,6.258641614573416,2.4375
-42.5,6.22182607566416,7.3125
-42.5,6.252505691421874,6.5
-42.5,6.234097921967246,7.3125
-42.0,6.264777537724958,3.25
-42.5,6.264777537724958,3.25
-42.0,6.240233845118788,10.5625
-42.0,6.240233845118788,5.6875
-42.0,6.264777537724958,1.625
-42.0,6.264777537724958,0.8125
-42.0,6.252505691421874,0.8125
-42.0,6.240233845118788,5.6875
-42.5,6.258641614573416,3.25
-42.0,6.270913460876501,3.25
-42.0,6.270913460876501,4.875
-42.0,6.277049384028044,3.25
-42.0,6.2463697682703305,3.25
-42.0,6.277049384028044,1.625
-42.0,6.264777537724958,5.6875
-41.5,6.252505691421874,7.3125
-42.0,6.2463697682703305,9.75
-42.0,0.006135923151542565,4.875
-42.0,0.01227184630308513,2.4375
-42.0,0.01227184630308513,4.875
-42.0,0.01227184630308513,6.5
-42.0,0.04295146206079795,2.4375
-42.0,0.05522330836388308,4.875
-42.0,0.04295146206079795,6.5
-42.0,0.018407769454627694,8.9375
-42.5,0.06135923151542565,4.875
-42.5,0.03681553890925539,5.6875
-42.5,0.06135923151542565,2.4375
-42.5,0.03681553890925539,3.25
-42.5,0.04295146206079795,4.875
-42.5,0.0,8.125
-43.0,0.018407769454627694,3.25
-43.0,0.01227184630308513,3.25
-43.0,0.006135923151542565,5.6875
-42.5,6.277049384028044,6.5
-43.0,0.02454369260617026,1.625
-42.5,0.018407769454627694,1.625
-42.5,0.01227184630308513,4.875
-43.0,6.264777537724958,5.6875
-42.5,6.270913460876501,7.3125
-42.5,6.277049384028044,4.875
-42.5,6.258641614573416,8.125
-42.5,6.277049384028044,5.6875
-42.5,6.252505691421874,8.125
-42.5,6.258641614573416,6.5
-42.5,6.252505691421874,8.9375
-42.5,6.277049384028044,2.4375
-42.5,0.0,0.0
-42.5,6.258641614573416,2.4375
-42.5,6.234097921967246,4.875
-42.5,6.215690152512618,7.3125
-42.5,6.227961998815704,4.875
-42.5,6.240233845118788,2.4375
-42.5,6.227961998815704,4.875
-42.5,6.252505691421874,1.625
-42.5,6.2034183062095325,8.9375
-42.5,6.264777537724958,0.8125
-42.5,6.264777537724958,0.8125
-42.5,6.227961998815704,6.5
-42.5,6.270913460876501,0.8125
-42.5,6.264777537724958,0.8125
-42.5,6.270913460876501,2.4375
-42.5,6.240233845118788,5.6875
-42.5,6.234097921967246,6.5
-42.5,6.227961998815704,7.3125
-42.0,6.252505691421874,2.4375
-42.5,6.264777537724958,0.0
-42.0,6.234097921967246,4.875
-42.5,6.2463697682703305,4.875
-42.5,6.277049384028044,-0.8125
-42.0,6.277049384028044,0.0
-42.5,6.252505691421874,3.25
-42.5,6.270913460876501,2.4375
-42.5,6.234097921967246,7.3125
-42.0,6.258641614573416,3.25
-42.0,6.240233845118788,4.875
-42.5,6.264777537724958,3.25
-42.5,6.22182607566416,8.9375
-42.0,6.252505691421874,5.6875
-42.5,6.240233845118788,8.9375
-42.0,6.258641614573416,4.875
-42.5,6.227961998815704,10.5625
-42.0,6.270913460876501,1.625
-42.0,6.264777537724958,3.25
-42.5,6.264777537724958,5.6875
-42.0,0.0,2.4375
-42.0,6.264777537724958,3.25
-42.5,6.264777537724958,5.6875
-42.5,6.252505691421874,6.5
-42.5,6.270913460876501,5.6875
-42.5,6.258641614573416,5.6875
-42.5,6.277049384028044,3.25
-42.0,6.258641614573416,4.875
-42.5,6.264777537724958,3.25
-42.0,6.258641614573416,4.875
-42.5,6.258641614573416,7.3125
-42.5,6.2463697682703305,6.5
-42.0,6.264777537724958,3.25
-42.5,6.270913460876501,3.25
-42.5,6.270913460876501,2.4375
-42.0,6.2463697682703305,5.6875
-42.5,0.006135923151542565,-1.625
-42.5,6.2463697682703305,8.9375
-42.0,6.252505691421874,4.875
-42.5,6.277049384028044,1.625
-42.5,6.258641614573416,4.875
-42.5,6.270913460876501,3.25
-42.5,6.258641614573416,2.4375
-42.0,6.2463697682703305,5.6875
-42.5,6.264777537724958,2.4375
-42.0,6.270913460876501,3.25
-42.5,0.006135923151542565,-0.8125
-42.5,6.234097921967246,8.9375
-42.5,6.258641614573416,5.6875
-42.0,6.258641614573416,4.875
-42.5,6.258641614573416,8.125
-42.5,0.0,1.625
-42.0,6.264777537724958,3.25
-42.5,6.2463697682703305,5.6875
-42.5,0.030679615757712823,0.0
-42.5,6.264777537724958,6.5
-42.5,6.270913460876501,3.25
-42.5,0.0,4.875
-42.5,6.252505691421874,8.9375
-42.0,0.02454369260617026,2.4375
-42.0,0.018407769454627694,4.875
-42.5,0.006135923151542565,6.5
-42.0,0.02454369260617026,3.25
-42.5,0.02454369260617026,6.5
-42.5,0.06135923151542565,3.25
-42.5,0.0674951546669682,1.625
-42.5,0.0859029241215959,0.0
-42.5,0.07976700097005335,3.25
-43.0,0.07363107781851078,3.25
-42.5,0.04295146206079795,6.5
-42.5,0.05522330836388308,2.4375
-43.0,0.04908738521234052,3.25
-42.5,0.01227184630308513,8.9375
-42.5,0.04295146206079795,4.875
-42.5,0.04295146206079795,3.25
-42.5,0.03681553890925539,6.5
-42.5,0.04295146206079795,5.6875
-42.5,0.05522330836388308,2.4375
-42.5,0.03681553890925539,7.3125
-42.5,0.04908738521234052,1.625
-42.5,0.06135923151542565,0.8125
-42.0,0.03681553890925539,3.25
-42.5,0.030679615757712823,6.5
-42.5,0.0,8.9375
-42.5,0.04908738521234052,0.0
-42.5,0.018407769454627694,3.25
-42.5,6.264777537724958,6.5
-42.5,0.0,1.625
-43.0,6.252505691421874,8.9375
-42.5,6.264777537724958,6.5
-42.5,6.2463697682703305,7.3125
-42.0,6.258641614573416,1.625
-42.5,6.270913460876501,5.6875
-42.5,0.0,0.0
-42.5,0.0,1.625
-42.5,6.277049384028044,2.4375
-42.5,6.258641614573416,5.6875
-42.5,0.02454369260617026,1.625
-42.5,0.006135923151542565,8.125
-42.0,0.06135923151542565,0.0
-42.0,0.06135923151542565,4.875
-42.5,0.07976700097005335,3.25
-42.0,0.07976700097005335,4.875
-42.0,0.07976700097005335,4.875
-42.0,0.09203884727313846,7.3125
-42.0,0.11658253987930872,1.625
-42.0,0.1349903093339364,0.8125
-42.0,0.14726215563702155,0.0
-42.5,0.1595340019401067,0.0
-42.0,0.12885438618239387,4.875
-42.0,0.18407769454627693,-1.625
-42.5,0.16566992509164924,3.25
-42.0,0.1595340019401067,3.25
-42.5,0.1718058482431918,0.8125
-42.5,0.14726215563702155,6.5
-42.0,0.1595340019401067,6.5
-42.0,0.18407769454627693,1.625
-42.5,0.17794177139473438,3.25
-42.5,0.17794177139473438,4.875
-42.5,0.1718058482431918,6.5
-42.5,0.20248546400090464,2.4375
-42.5,0.19634954084936207,1.625
-42.5,0.1718058482431918,7.3125
-42.5,0.20248546400090464,2.4375
-42.5,0.17794177139473438,8.125
-42.5,0.20248546400090464,4.875
-42.5,0.22089323345553233,1.625
-42.5,0.20248546400090464,4.875
-43.0,0.2086213871524472,2.4375
-42.5,0.20248546400090464,3.25
-43.0,0.20248546400090464,3.25
-43.0,0.1902136176978195,2.4375
-42.5,0.17794177139473438,3.25
-42.5,0.1902136176978195,0.8125
-43.0,0.16566992509164924,1.625
-43.0,0.1349903093339364,0.0
-43.0,0.1227184630308513,-0.8125
-44.5,6.2463697682703305,5.6875
-44.0,6.19728238305799,5.6875
-44.5,6.215690152512618,-0.8125
-44.0,6.129787228391022,8.9375
-44.5,6.17273869045182,1.625
-44.0,6.117515382087937,6.5
-44.5,6.092971689481767,5.6875
-44.0,6.074563920027139,8.9375
-44.0,6.086835766330224,6.5
-44.5,6.117515382087937,-1.625
-44.0,6.092971689481767,5.6875
-44.5,6.080699843178682,4.875
-44.0,6.050020227420969,8.9375
-44.5,6.105243535784852,3.25
-44.0,6.092971689481767,1.625
-44.0,6.0991076126333095,5.6875
-44.5,6.0991076126333095,6.5
-44.5,6.086835766330224,8.125
-44.0,6.105243535784852,6.5
-44.5,6.154330920997192,-1.625
-44.5,6.14819499784565,4.875
-44.5,6.129787228391022,8.9375
-44.5,6.14819499784565,6.5
-44.5,6.209554229361076,0.8125
-44.5,6.1850105367549055,3.25
-44.5,6.209554229361076,0.8125
-44.5,6.191146459906448,4.875
-45.0,6.191146459906448,8.9375
-44.5,6.2034183062095325,7.3125
-45.0,6.191146459906448,10.5625
-45.0,6.2463697682703305,0.8125
-45.0,6.22182607566416,10.5625
-45.0,6.2463697682703305,4.875
-45.0,6.258641614573416,4.875
-45.0,0.0,0.8125
-45.0,6.264777537724958,1.625
-45.0,0.0,1.625
-45.0,0.01227184630308513,3.25
-45.0,6.277049384028044,1.625
-45.0,0.01227184630308513,0.0
-45.0,0.006135923151542565,2.4375
-45.0,6.277049384028044,8.125
-45.0,0.006135923151542565,0.8125
-45.0,0.01227184630308513,1.625
-44.5,6.277049384028044,2.4375
-45.0,0.030679615757712823,0.0
-45.0,0.0,4.875
-45.0,6.264777537724958,7.3125
-45.0,0.01227184630308513,1.625
-44.5,6.270913460876501,5.6875
-44.5,6.270913460876501,4.875
-44.5,0.01227184630308513,0.8125
-44.5,0.01227184630308513,0.8125
-44.5,0.0,4.875
-44.5,6.277049384028044,6.5
-44.5,6.252505691421874,10.5625
-44.5,6.270913460876501,1.625
-44.5,0.01227184630308513,0.8125
-44.5,0.01227184630308513,0.8125
-45.0,6.277049384028044,5.6875
-44.5,6.277049384028044,6.5
-44.5,0.018407769454627694,-1.625
-44.5,6.264777537724958,6.5
-44.5,6.270913460876501,7.3125
-44.5,6.2463697682703305,8.9375
-44.5,6.270913460876501,4.875
-44.5,6.270913460876501,4.875
-45.0,0.006135923151542565,0.0
-44.5,6.258641614573416,5.6875
-45.0,6.258641614573416,4.875
-44.5,6.258641614573416,6.5
-44.5,6.2463697682703305,6.5
-44.5,6.264777537724958,3.25
-44.5,6.264777537724958,3.25
-44.5,6.234097921967246,6.5
-45.0,6.240233845118788,3.25
-45.0,6.2463697682703305,1.625
-44.5,6.215690152512618,3.25
-44.5,6.2034183062095325,7.3125
-44.5,6.240233845118788,0.0
-44.5,6.191146459906448,11.375
-44.5,6.2034183062095325,3.25
-44.5,6.215690152512618,4.875
-44.5,6.209554229361076,0.0
-44.5,6.258641614573416,-9.75
-45.0,6.160466844148735,7.3125
-44.5,6.17273869045182,1.625
-45.0,6.191146459906448,1.625
-45.0,6.178874613603362,3.25
-44.5,6.19728238305799,2.4375
-44.5,6.2034183062095325,1.625
-45.0,6.1850105367549055,3.25
-44.5,6.215690152512618,0.0
-44.5,6.215690152512618,-0.8125
-45.0,6.1850105367549055,6.5
-45.0,6.209554229361076,-3.25
-45.0,6.154330920997192,7.3125
-44.5,6.1420590746941075,7.3125
-44.5,6.191146459906448,2.4375
-45.0,6.154330920997192,6.5
-45.0,6.166602767300278,4.875
-44.5,6.154330920997192,0.0
-44.5,6.111379458936394,9.75
-44.5,6.135923151542564,2.4375
-44.5,6.12365130523948,2.4375
-44.5,6.092971689481767,6.5
-44.5,6.117515382087937,0.8125
-44.5,6.074563920027139,7.3125
-44.5,6.1420590746941075,-5.6875
-44.5,6.111379458936394,0.0
-44.5,6.074563920027139,6.5
-44.5,6.0991076126333095,7.3125
-44.5,6.074563920027139,7.3125
-45.0,6.092971689481767,5.6875
-44.5,6.074563920027139,6.5
-45.0,6.154330920997192,-0.8125
-45.0,6.0991076126333095,6.5
-45.0,6.1420590746941075,3.25
-44.5,6.135923151542564,5.6875
-45.0,6.1420590746941075,6.5
-45.0,6.14819499784565,5.6875
-45.0,6.19728238305799,0.8125
-45.0,6.209554229361076,0.0
-45.0,6.22182607566416,-1.625
-45.0,6.215690152512618,1.625
-45.5,6.22182607566416,-1.625
-45.0,6.209554229361076,-0.8125
-45.0,6.178874613603362,6.5
-45.0,6.178874613603362,8.9375
-45.0,6.215690152512618,0.0
-45.5,6.19728238305799,4.875
-45.0,6.22182607566416,0.0
-45.0,6.166602767300278,8.9375
-45.0,6.19728238305799,3.25
-44.5,6.160466844148735,8.9375
-45.0,6.1850105367549055,4.875
-45.0,6.166602767300278,6.5
-45.0,6.19728238305799,0.8125
-44.5,6.160466844148735,7.3125
-44.5,6.215690152512618,0.0
-45.0,6.17273869045182,7.3125
-45.0,6.166602767300278,5.6875
-45.0,6.1850105367549055,0.8125
-45.0,6.178874613603362,2.4375
-44.5,6.19728238305799,0.0
-44.5,6.1420590746941075,8.125
-44.5,6.191146459906448,1.625
-44.5,6.191146459906448,5.6875
-44.5,6.2034183062095325,0.8125
-44.5,6.19728238305799,0.8125
-44.5,6.191146459906448,3.25
-44.5,6.1850105367549055,5.6875
-44.5,6.17273869045182,8.125
-44.5,6.19728238305799,5.6875
-44.5,6.209554229361076,0.8125
-44.5,6.209554229361076,0.8125
-44.5,6.1850105367549055,8.125
-44.0,6.191146459906448,5.6875
-44.5,6.2034183062095325,1.625
-44.5,6.1850105367549055,2.4375
-44.5,6.1850105367549055,1.625
-44.5,6.1850105367549055,-0.8125
-44.0,6.1850105367549055,0.8125
-44.0,6.154330920997192,3.25
-44.0,6.154330920997192,7.3125
-44.0,6.191146459906448,0.0
-44.0,6.166602767300278,1.625
-44.5,6.135923151542564,8.125
-44.0,6.1420590746941075,7.3125
-44.0,6.154330920997192,5.6875
-44.0,6.191146459906448,0.8125
-44.0,6.19728238305799,0.8125
-44.0,6.17273869045182,4.875
-44.0,6.160466844148735,7.3125
-44.0,6.215690152512618,-1.625
-44.0,6.1850105367549055,2.4375
-44.0,6.191146459906448,3.25
-44.0,6.178874613603362,4.875
-44.5,6.2034183062095325,2.4375
-44.0,6.178874613603362,6.5
-44.0,6.191146459906448,3.25
-44.0,6.227961998815704,-0.8125
-44.0,6.227961998815704,0.8125
-44.5,6.234097921967246,0.8125
-44.0,6.234097921967246,2.4375
-44.0,6.240233845118788,0.0
-44.0,6.22182607566416,4.875
-44.0,6.22182607566416,5.6875
-44.0,6.252505691421874,0.0
-44.0,6.234097921967246,7.3125
-44.0,6.252505691421874,2.4375
-44.0,0.02454369260617026,-4.875
-44.0,6.22182607566416,7.3125
-44.0,6.258641614573416,2.4375
-44.5,6.2463697682703305,3.25
-44.0,6.227961998815704,5.6875
-44.0,6.240233845118788,2.4375
-44.5,6.227961998815704,5.6875
-44.5,6.215690152512618,4.875
-44.5,6.227961998815704,5.6875
-44.5,6.215690152512618,4.875
-44.5,6.234097921967246,1.625
-44.5,6.209554229361076,4.875
-44.5,6.240233845118788,0.0
-44.5,6.19728238305799,3.25
-44.5,6.2034183062095325,2.4375
-44.5,6.2034183062095325,0.0
-44.5,6.2034183062095325,0.8125
-44.0,6.2034183062095325,1.625
-44.5,6.19728238305799,2.4375
-44.5,6.209554229361076,-2.4375
-44.5,6.17273869045182,0.8125
-44.5,6.14819499784565,4.875
-44.5,6.17273869045182,1.625
-44.5,6.17273869045182,2.4375
-44.5,6.154330920997192,4.875
-44.5,6.166602767300278,0.8125
-44.5,6.19728238305799,-1.625
-44.5,6.117515382087937,8.125
-44.5,6.166602767300278,0.8125
-44.5,6.17273869045182,1.625
-44.5,6.14819499784565,6.5
-44.5,6.19728238305799,-0.8125
-44.5,6.1850105367549055,3.25
-44.5,6.1850105367549055,1.625
-44.5,6.1850105367549055,0.8125
-44.5,6.191146459906448,3.25
-44.5,6.191146459906448,1.625
-44.5,6.209554229361076,1.625
-44.5,6.215690152512618,-0.8125
-44.5,6.1850105367549055,4.875
-44.5,6.1850105367549055,3.25
-44.5,6.22182607566416,0.8125
-44.5,6.2034183062095325,0.8125
-44.5,6.19728238305799,1.625
-44.5,6.19728238305799,0.0
-44.5,6.178874613603362,5.6875
-44.5,6.240233845118788,-5.6875
-44.5,6.178874613603362,1.625
-44.5,6.178874613603362,1.625
-44.0,6.166602767300278,5.6875
-44.0,6.166602767300278,2.4375
-44.5,6.178874613603362,0.8125
-44.5,6.178874613603362,-0.8125
-44.5,6.117515382087937,8.125
-44.5,6.135923151542564,2.4375
-44.5,6.154330920997192,-1.625
-44.5,6.135923151542564,2.4375
-44.5,6.14819499784565,-2.4375
-44.5,6.1420590746941075,0.0
-44.5,6.1420590746941075,0.0
-44.5,6.0991076126333095,7.3125
-44.0,6.092971689481767,5.6875
-44.5,6.117515382087937,0.0
-44.0,6.117515382087937,3.25
-44.5,6.105243535784852,5.6875
-44.5,6.086835766330224,7.3125
-44.5,6.12365130523948,0.0
-44.5,6.056156150572511,8.9375
-44.0,6.092971689481767,5.6875
-44.5,6.0991076126333095,6.5
-44.0,6.062292073724054,13.8125
-44.5,6.105243535784852,6.5
-44.5,6.129787228391022,0.8125
-44.5,6.080699843178682,8.125
-44.5,6.154330920997192,-2.4375
-44.5,6.111379458936394,4.875
-44.5,6.1420590746941075,0.0
-44.5,6.092971689481767,6.5
-44.5,6.105243535784852,3.25
-44.5,6.135923151542564,3.25
-44.5,6.117515382087937,3.25
-44.5,6.17273869045182,-1.625
-44.5,6.1420590746941075,0.8125
-44.5,6.12365130523948,6.5
-44.5,6.129787228391022,2.4375
-44.5,6.135923151542564,0.8125
-44.5,6.166602767300278,-0.8125
-44.5,6.1420590746941075,2.4375
-44.5,6.12365130523948,4.875
-44.0,6.135923151542564,3.25
-44.5,6.12365130523948,7.3125
-44.5,6.074563920027139,12.1875
-44.5,6.166602767300278,-1.625
-44.5,6.092971689481767,8.9375
-44.5,6.092971689481767,8.125
-44.5,6.092971689481767,6.5
-44.5,6.135923151542564,1.625
-44.5,6.092971689481767,7.3125
-44.5,6.129787228391022,0.8125
-44.5,6.092971689481767,4.875
-44.5,6.111379458936394,0.0
-44.5,6.0991076126333095,4.875
-44.5,6.086835766330224,5.6875
-44.5,6.092971689481767,1.625
-44.5,6.111379458936394,0.0
-44.5,6.092971689481767,3.25
-44.5,6.074563920027139,7.3125
-44.5,6.0991076126333095,6.5
-44.0,6.092971689481767,3.25
-44.5,6.117515382087937,0.8125
-44.5,6.092971689481767,5.6875
-44.5,6.111379458936394,5.6875
-44.5,6.111379458936394,5.6875
-44.5,6.117515382087937,3.25
-44.5,6.105243535784852,5.6875
-44.5,6.117515382087937,2.4375
-45.0,6.086835766330224,8.125
-44.5,6.14819499784565,-3.25
-44.5,6.129787228391022,0.8125
-44.5,6.080699843178682,7.3125
-44.5,6.129787228391022,-0.8125
-44.5,6.092971689481767,8.125
-44.5,6.135923151542564,0.8125
-44.5,6.129787228391022,0.8125
-44.5,6.105243535784852,5.6875
-44.5,6.129787228391022,2.4375
-44.5,6.092971689481767,5.6875
-44.5,6.1420590746941075,0.8125
-44.0,6.117515382087937,7.3125
-44.5,6.111379458936394,4.875
-44.5,6.135923151542564,3.25
-44.5,6.12365130523948,3.25
-44.5,6.117515382087937,2.4375
-44.5,6.129787228391022,-0.8125
-45.0,6.0991076126333095,5.6875
-44.5,6.111379458936394,6.5
-44.5,6.154330920997192,-3.25
-45.0,6.0991076126333095,6.5
-44.5,6.12365130523948,0.8125
-44.5,6.086835766330224,5.6875
-44.5,6.117515382087937,-0.8125
-44.5,6.154330920997192,-0.8125
-44.5,6.135923151542564,0.8125
-44.5,6.111379458936394,4.875
-44.5,6.135923151542564,0.0
-44.5,6.105243535784852,6.5
-44.5,6.111379458936394,5.6875
-44.5,6.129787228391022,0.8125
-44.5,6.135923151542564,0.8125
-44.5,6.117515382087937,4.875
-44.5,6.117515382087937,4.875
-45.0,6.117515382087937,1.625
-44.5,6.12365130523948,4.875
-44.5,6.12365130523948,3.25
-44.5,6.105243535784852,2.4375
-44.5,6.117515382087937,4.875
-44.5,6.117515382087937,2.4375
-44.5,6.12365130523948,2.4375
-44.5,6.092971689481767,7.3125
-44.5,6.129787228391022,-0.8125
-44.5,6.135923151542564,2.4375
-44.5,6.092971689481767,8.125
-44.5,6.0991076126333095,5.6875
-44.5,6.12365130523948,3.25
-44.5,6.080699843178682,6.5
-44.5,6.166602767300278,-3.25
-44.5,6.135923151542564,-0.8125
-44.5,6.105243535784852,2.4375
-44.5,6.105243535784852,5.6875
-44.5,6.092971689481767,6.5
-44.5,6.105243535784852,5.6875
-44.5,6.12365130523948,4.875
-44.5,6.111379458936394,7.3125
-44.5,6.17273869045182,0.8125
-44.5,6.154330920997192,0.8125
-45.0,6.154330920997192,7.3125
-45.0,6.215690152512618,1.625
-44.5,6.154330920997192,8.9375
-45.0,6.17273869045182,8.9375
-44.5,6.215690152512618,5.6875
-44.5,6.240233845118788,0.8125
-44.5,6.22182607566416,8.9375
-45.0,6.234097921967246,5.6875
-45.0,6.215690152512618,7.3125
-45.0,6.209554229361076,6.5
-44.5,6.209554229361076,8.125
-44.5,6.19728238305799,8.125
-44.5,6.234097921967246,1.625
-44.5,6.215690152512618,3.25
-44.5,6.227961998815704,2.4375
-44.5,6.252505691421874,-0.8125
-44.5,6.215690152512618,0.8125
-44.5,6.215690152512618,0.8125
-44.5,6.1850105367549055,2.4375
-44.5,6.19728238305799,1.625
-45.0,6.178874613603362,3.25
-44.5,6.166602767300278,5.6875
-45.0,6.17273869045182,2.4375
-44.5,6.19728238305799,0.8125
-44.5,6.166602767300278,6.5
-44.5,6.154330920997192,2.4375
-44.5,6.154330920997192,5.6875
-44.5,6.1420590746941075,3.25
-44.5,6.19728238305799,-4.875
-44.5,6.154330920997192,5.6875
-45.0,6.14819499784565,3.25
-44.5,6.160466844148735,0.8125
-44.5,6.117515382087937,5.6875
-45.0,6.111379458936394,8.125
-44.5,6.105243535784852,8.9375
-44.5,6.12365130523948,6.5
-44.5,6.14819499784565,1.625
-44.5,6.135923151542564,1.625
-44.5,6.166602767300278,-0.8125
-44.5,6.17273869045182,-1.625
-45.0,6.105243535784852,5.6875
-44.5,6.117515382087937,2.4375
-44.5,6.092971689481767,7.3125
-44.5,6.092971689481767,3.25
-44.5,6.092971689481767,5.6875
-44.5,6.074563920027139,7.3125
-44.5,6.086835766330224,5.6875
-44.5,6.0991076126333095,4.875
-44.5,6.062292073724054,6.5
-44.5,6.105243535784852,3.25
-44.5,6.062292073724054,8.125
-44.5,6.074563920027139,5.6875
-44.5,6.056156150572511,7.3125
-44.5,6.074563920027139,3.25
-44.5,6.062292073724054,8.125
-44.5,6.105243535784852,3.25
-45.0,6.080699843178682,4.875
-44.5,6.105243535784852,4.875
-45.0,6.092971689481767,6.5
-44.5,6.154330920997192,-4.875
-45.0,6.0991076126333095,2.4375
-45.0,6.092971689481767,6.5
-44.5,6.154330920997192,0.0
-45.0,6.1420590746941075,-0.8125
-45.0,6.111379458936394,2.4375
-44.5,6.092971689481767,8.125
-44.5,6.0991076126333095,4.875
-45.0,6.111379458936394,5.6875
-45.0,6.154330920997192,0.8125
-45.0,6.178874613603362,-3.25
-44.5,6.1420590746941075,3.25
-44.5,6.105243535784852,7.3125
-45.0,6.14819499784565,4.875
-44.5,6.14819499784565,4.875
-45.0,6.154330920997192,0.0
-45.0,6.129787228391022,4.875
-44.5,6.12365130523948,8.125
-45.0,6.135923151542564,1.625
-44.5,6.14819499784565,1.625
-45.0,6.166602767300278,2.4375
-45.0,6.12365130523948,8.9375
-44.5,6.166602767300278,2.4375
-45.0,6.178874613603362,3.25
-45.0,6.160466844148735,7.3125
-45.0,6.234097921967246,-0.8125
-45.0,6.19728238305799,5.6875
-45.0,6.227961998815704,2.4375
-45.0,6.209554229361076,3.25
-45.0,6.252505691421874,0.8125
-45.0,6.258641614573416,0.8125
-45.0,6.227961998815704,5.6875
-45.0,6.270913460876501,0.0
-45.0,6.270913460876501,0.0
-45.0,6.234097921967246,7.3125
-45.0,6.240233845118788,6.5
-45.0,0.0,-1.625
-44.5,6.258641614573416,3.25
-45.0,6.270913460876501,-2.4375
-45.0,6.22182607566416,7.3125
-45.0,6.2463697682703305,1.625
-45.0,6.22182607566416,6.5
-45.0,6.234097921967246,7.3125
-45.0,0.0,-1.625
-45.0,6.227961998815704,4.875
-45.0,6.2463697682703305,1.625
-44.5,6.234097921967246,2.4375
-45.0,6.240233845118788,1.625
-45.0,6.234097921967246,3.25
-45.0,6.2463697682703305,1.625
-45.0,6.215690152512618,5.6875
-45.0,6.19728238305799,8.9375
-45.0,6.215690152512618,7.3125
-45.0,6.234097921967246,6.5
-45.0,6.234097921967246,5.6875
-45.0,6.2463697682703305,1.625
-45.0,6.22182607566416,5.6875
-45.0,6.234097921967246,8.125
-45.0,6.2034183062095325,9.75
-44.5,6.234097921967246,5.6875
-45.0,6.258641614573416,2.4375
-45.0,6.234097921967246,5.6875
-45.0,6.240233845118788,3.25
-44.5,6.22182607566416,6.5
-44.5,6.258641614573416,2.4375
-44.5,6.240233845118788,3.25
-44.5,6.22182607566416,7.3125
-44.5,6.234097921967246,6.5
-44.5,6.264777537724958,0.8125
-44.5,6.234097921967246,6.5
-44.5,6.22182607566416,8.125
-44.5,6.240233845118788,7.3125
-44.5,6.252505691421874,5.6875
-44.5,6.22182607566416,8.125
-45.0,6.240233845118788,5.6875
-44.5,6.258641614573416,5.6875
-44.5,6.258641614573416,1.625
-44.5,0.01227184630308513,0.8125
-44.5,6.264777537724958,5.6875
-44.5,6.252505691421874,7.3125
-44.5,6.258641614573416,3.25
-44.5,6.270913460876501,6.5
-44.5,6.252505691421874,7.3125
-44.5,6.252505691421874,8.9375
-44.5,6.277049384028044,3.25
-44.0,6.240233845118788,10.5625
-44.5,0.006135923151542565,1.625
-44.0,6.258641614573416,6.5
-44.5,6.264777537724958,5.6875
-44.5,6.270913460876501,3.25
-44.5,6.264777537724958,4.875
-44.5,6.258641614573416,6.5
-44.5,6.270913460876501,2.4375
-44.5,6.270913460876501,3.25
-44.5,6.264777537724958,2.4375
-44.5,6.258641614573416,4.875
-44.5,6.252505691421874,4.875
-44.5,6.2463697682703305,3.25
-44.5,0.006135923151542565,-0.8125
-44.5,6.2463697682703305,3.25
-44.5,6.277049384028044,3.25
-44.5,0.006135923151542565,0.8125
-44.5,6.264777537724958,2.4375
-44.5,6.2463697682703305,8.125
-44.5,6.264777537724958,2.4375
-45.0,6.264777537724958,3.25
-44.5,6.240233845118788,8.125
-44.5,6.2463697682703305,3.25
-44.5,6.252505691421874,6.5
-45.0,6.258641614573416,5.6875
-44.5,6.258641614573416,3.25
-44.5,6.270913460876501,3.25
-44.5,6.2463697682703305,8.125
-45.0,6.2463697682703305,5.6875
-44.5,6.270913460876501,1.625
-44.5,6.270913460876501,3.25
-44.5,6.234097921967246,8.125
-44.5,6.270913460876501,1.625
-44.5,6.277049384028044,-2.4375
-44.5,6.264777537724958,0.8125
-44.5,6.2463697682703305,5.6875
-44.5,6.234097921967246,2.4375
-44.5,6.2463697682703305,3.25
-44.5,6.215690152512618,5.6875
-44.5,6.258641614573416,-0.8125
-44.5,6.215690152512618,5.6875
-44.5,6.22182607566416,4.875
-44.5,6.17273869045182,10.5625
-44.5,6.178874613603362,8.9375
-45.0,6.19728238305799,7.3125
-44.5,6.215690152512618,4.875
-44.5,6.22182607566416,1.625
-45.0,6.209554229361076,5.6875
-45.0,6.191146459906448,6.5
-44.5,6.2034183062095325,2.4375
-44.5,6.166602767300278,7.3125
-45.0,6.191146459906448,2.4375
-45.0,6.22182607566416,0.8125
-45.0,6.178874613603362,6.5
-44.5,6.160466844148735,6.5
-44.5,6.227961998815704,-3.25
-44.5,6.2034183062095325,2.4375
-44.5,6.209554229361076,1.625
-45.0,6.166602767300278,5.6875
-45.0,6.1850105367549055,1.625
-44.5,6.154330920997192,7.3125
-44.5,6.2034183062095325,-0.8125
-45.0,6.160466844148735,5.6875
-45.0,6.191146459906448,1.625
-45.0,6.19728238305799,0.8125
-44.5,6.227961998815704,-2.4375
-44.5,6.178874613603362,2.4375
-45.0,6.178874613603362,4.875
-44.5,6.191146459906448,-1.625
-45.0,6.19728238305799,0.8125
-45.0,6.135923151542564,8.9375
-45.0,6.19728238305799,0.0
-45.0,6.166602767300278,3.25
-44.5,6.209554229361076,-0.8125
-44.5,6.19728238305799,0.0
-44.5,6.135923151542564,6.5
-45.0,6.2034183062095325,-2.4375
-44.5,6.19728238305799,0.0
-44.5,6.12365130523948,9.75
-44.5,6.166602767300278,5.6875
-45.0,6.129787228391022,10.5625
-44.5,6.1850105367549055,0.0
-44.5,6.17273869045182,1.625
-44.5,6.178874613603362,2.4375
-45.0,6.2034183062095325,0.0
-45.0,6.129787228391022,8.9375
-45.0,6.17273869045182,3.25
-44.5,6.166602767300278,3.25
-45.0,6.17273869045182,4.875
-45.0,6.19728238305799,-2.4375
-45.0,6.166602767300278,2.4375
-45.0,6.19728238305799,1.625
-45.0,6.209554229361076,0.0
-45.0,6.209554229361076,-2.4375
-45.0,6.178874613603362,6.5
-45.0,6.227961998815704,0.0
-45.0,6.19728238305799,1.625
-45.0,6.19728238305799,0.0
-45.0,6.178874613603362,6.5
-45.0,6.178874613603362,4.875
-45.0,6.191146459906448,3.25
-45.0,6.191146459906448,0.8125
-45.0,6.1850105367549055,6.5
-45.0,6.191146459906448,4.875
-45.0,6.178874613603362,6.5
-45.0,6.154330920997192,9.75
-45.0,6.166602767300278,5.6875
-45.0,6.2034183062095325,4.875
-45.0,6.2034183062095325,0.0
-44.5,6.19728238305799,3.25
-44.5,6.2034183062095325,2.4375
-45.0,6.160466844148735,4.875
-45.0,6.1850105367549055,4.875
-44.5,6.234097921967246,-1.625
-45.0,6.209554229361076,-2.4375
-45.0,6.19728238305799,0.8125
-45.0,6.215690152512618,2.4375
-45.0,6.209554229361076,-1.625
-44.5,6.1850105367549055,7.3125
-45.0,6.19728238305799,5.6875
-45.0,6.17273869045182,5.6875
-45.0,6.166602767300278,6.5
-44.5,6.17273869045182,5.6875
-45.0,6.215690152512618,-1.625
-45.0,6.19728238305799,1.625
-45.0,6.166602767300278,6.5
-45.0,6.19728238305799,0.8125
-45.0,6.191146459906448,4.875
-45.0,6.166602767300278,4.875
-45.0,6.19728238305799,1.625
-45.0,6.1850105367549055,5.6875
-45.0,6.209554229361076,0.0
-45.0,6.19728238305799,3.25
-45.0,6.166602767300278,6.5
-45.0,6.191146459906448,2.4375
-45.0,6.191146459906448,4.875
