-36.0,0.0,0.8125
-36.5,-0.018407769454627854,2.4375
-36.5,-0.012271846303085088,4.875
-37.0,-0.01840776945462741,7.3125
-36.5,0.024543692606170175,4.875
-37.0,-0.006135923151542766,6.5
-36.5,0.018407769454627854,1.625
-36.5,-0.04295146206079803,8.9375
-36.5,0.03067961575771294,5.6875
-36.5,0.0,6.5
-36.5,0.0,4.875
-37.0,0.012271846303085088,2.4375
-36.5,0.012271846303085088,2.4375
-36.5,-0.012271846303085088,2.4375
-36.5,0.006135923151542322,2.4375
-36.5,-0.01840776945462741,6.5
-36.5,0.03681553890925526,1.625
-36.5,-0.018407769454627854,4.0625
-37.0,-0.024543692606170175,4.0625
-36.5,0.04295146206079803,0.0
-37.0,-0.018407769454627854,0.0
-37.0,0.012271846303085088,4.0625
-36.5,-0.006135923151542322,4.0625
-36.5,0.024543692606170175,-0.8125
-36.5,-0.04295146206079803,2.4375
-36.5,0.024543692606170175,2.4375
-36.5,-0.030679615757712497,6.5
-36.5,0.012271846303085088,6.5
-37.0,0.01840776945462741,-0.8125
-37.0,0.018407769454627854,-2.4375
-37.0,-0.04908738521234035,4.875
-36.5,0.024543692606170175,5.6875
-37.0,-0.03681553890925526,6.5
-37.0,0.01840776945462741,5.6875
-36.5,-0.006135923151542322,7.3125
-37.0,0.030679615757712497,0.0
-36.5,-0.042951462060797585,8.9375
-36.5,0.04908738521234035,2.4375
-36.5,-0.006135923151542766,2.4375
-36.5,-0.024543692606170175,6.5
-37.0,0.018407769454627854,7.3125
-36.5,0.03067961575771294,1.625
-36.5,-0.02454369260617062,1.625
-36.5,-0.012271846303085088,5.6875
-37.0,-0.030679615757712497,8.125
-36.5,0.042951462060797585,5.6875
-37.0,0.018407769454627854,0.0
-37.0,-0.012271846303085088,1.625
-37.0,0.006135923151542766,4.0625
-36.5,0.030679615757712497,0.8125
-36.5,-0.012271846303085088,2.4375
-36.5,-0.006135923151542322,4.0625
-36.5,-0.049087385212340795,8.9375
-37.0,0.024543692606170175,6.5
-36.5,0.049087385212340795,-0.8125
-36.5,-0.018407769454627854,1.625
-37.0,-0.04295146206079803,7.3125
-36.5,0.049087385212340795,0.0
-37.0,-0.03067961575771294,5.6875
-37.0,0.024543692606170175,0.0
-37.0,-0.04295146206079803,7.3125
-36.5,0.012271846303085088,6.5
-36.5,-0.012271846303085088,8.125
-37.0,0.018407769454627854,4.875
-37.0,-0.024543692606170175,7.3125
-37.0,0.05522330836388312,0.8125
-36.5,0.006135923151542322,0.0
-36.5,-0.024543692606170175,4.875
-37.0,0.012271846303085088,0.0
-37.0,-0.006135923151542322,0.0
-36.5,-0.012271846303085088,4.0625
-37.0,-0.03067961575771294,5.6875
-36.5,0.006135923151542322,6.5
-36.5,0.012271846303085088,4.875
-36.5,-0.012271846303085088,7.3125
-36.5,0.018407769454627854,4.875
-36.5,0.012271846303085088,5.6875
-37.0,-0.006135923151542322,1.625
-36.5,-0.02454369260617062,8.125
-36.5,0.03681553890925571,2.4375
-36.5,-0.03681553890925571,4.875
-36.5,0.04295146206079803,0.8125
-36.5,0.006135923151542766,0.8125
-36.5,-0.03681553890925571,5.6875
-36.5,0.0,5.6875
-36.5,0.02454369260617062,0.0
-36.5,0.0,4.875
-37.0,-0.04295146206079803,7.3125
-36.5,0.006135923151542322,7.3125
-36.5,0.02454369260617062,1.625
-36.5,0.0,4.0625
-36.5,0.024543692606170175,-0.8125
-36.5,-0.03681553890925571,6.5
-36.5,-0.006135923151542322,5.6875
-36.5,0.012271846303085088,4.875
-36.5,0.03067961575771294,2.4375
-37.0,-0.04295146206079803,4.0625
-36.5,0.012271846303085088,4.875
-36.5,0.0,6.5
-36.5,0.006135923151542766,1.625
-37.0,-0.02454369260617062,6.5
-37.0,0.018407769454627854,4.0625
-36.5,0.018407769454627854,2.4375
-36.5,-0.03067961575771294,6.5
-37.0,0.018407769454627854,2.4375
-36.5,-0.02454369260617062,7.3125
-37.0,0.0674951546669682,-1.625
-37.0,-0.06135923151542544,5.6875
-36.5,0.03681553890925526,2.4375
-36.5,-0.04295146206079803,8.125
-36.5,0.0,8.9375
-36.5,0.03067961575771294,4.875
-37.0,-0.018407769454627854,5.6875
-36.5,0.02454369260617062,4.875
-36.5,0.03681553890925526,-1.625
-36.5,-0.04295146206079803,4.875
-36.5,0.0,4.0625
-36.5,-0.006135923151542322,6.5
-36.5,0.042951462060797585,-0.8125
-36.5,-0.0674951546669682,9.75
-37.0,0.04295146206079803,1.625
-37.0,0.012271846303085088,-0.8125
-37.0,-0.024543692606170175,5.6875
-36.5,-0.018407769454627854,6.5
-37.0,0.006135923151542766,4.875
-36.5,0.03681553890925526,4.0625
-37.0,-0.024543692606170175,5.6875
-36.5,0.0,5.6875
-36.5,-0.012271846303085088,5.6875
-36.5,0.04295146206079803,1.625
-36.5,-0.03067961575771294,4.0625
-36.5,-0.006135923151542322,6.5
-36.5,0.024543692606170175,2.4375
-37.0,-0.018407769454627854,4.875
-37.0,-0.03067961575771294,7.3125
-36.5,0.06135923151542588,1.625
-37.0,-0.049087385212340795,4.0625
-37.0,0.04295146206079803,1.625
-36.5,-0.01840776945462741,2.4375
-36.5,-0.012271846303085088,5.6875
-37.0,0.030679615757712497,-2.4375
-37.0,-0.04295146206079803,4.875
-36.5,0.04295146206079803,0.8125
-37.0,-0.030679615757712497,4.875
-37.0,0.006135923151542322,1.625
-37.0,-0.018407769454627854,5.6875
-37.0,0.03681553890925571,0.8125
-37.0,-0.03681553890925571,6.5
-36.5,0.049087385212340795,0.8125
-37.0,-0.049087385212340795,7.3125
-36.5,0.03681553890925571,0.8125
-36.5,-0.03067961575771294,6.5
-37.0,-0.018407769454627854,7.3125
-36.5,0.049087385212340795,1.625
-36.5,-0.018407769454627854,4.875
-37.0,-0.03067961575771294,5.6875
-36.5,0.05522330836388312,1.625
-36.5,0.012271846303085088,1.625
-36.5,-0.06135923151542544,8.9375
-36.5,0.05522330836388312,-0.8125
-37.0,-0.018407769454627854,0.0
-37.0,0.012271846303085088,0.8125
-36.5,-0.030679615757712497,4.875
-36.5,0.01840776945462741,1.625
-36.5,-0.006135923151542322,4.875
-37.0,-0.018407769454627854,4.875
-36.5,-0.024543692606170175,9.75
-37.0,0.04295146206079803,2.4375
-36.5,0.01840776945462741,0.0
-36.5,-0.01840776945462741,4.0625
-36.5,-0.02454369260617062,8.125
-36.5,0.018407769454627854,4.0625
-36.5,0.0,5.6875
-37.0,-0.012271846303085088,6.5
-37.0,0.018407769454627854,0.8125
-37.0,0.024543692606170175,0.0
-36.5,0.0,-1.625
-36.5,-0.04295146206079803,7.3125
-37.0,0.006135923151542766,5.6875
-36.5,0.024543692606170175,2.4375
-37.0,-0.012271846303085088,1.625
-36.5,0.0,4.0625
-36.5,-0.012271846303085088,6.5
-37.0,-0.006135923151542766,5.6875
-37.0,0.012271846303085088,4.875
-36.5,-0.012271846303085088,7.3125
-36.5,0.03681553890925526,4.0625
-37.0,-0.01840776945462741,2.4375
-37.0,0.0,4.875
-37.0,-0.006135923151542766,5.6875
-36.5,-0.006135923151542322,5.6875
-36.5,0.04908738521234035,-2.4375
-36.5,-0.05522330836388312,5.6875
-36.5,0.006135923151542766,6.5
-37.0,0.012271846303085088,4.0625
-37.0,-0.006135923151542766,4.875
-37.0,0.012271846303085088,4.0625
-36.5,-0.006135923151542322,5.6875
-36.5,-0.018407769454627854,6.5
-36.5,0.024543692606170175,5.6875
-37.0,-0.006135923151542322,4.0625
-37.0,-0.018407769454627854,6.5
-36.5,0.024543692606170175,1.625
-36.5,-0.006135923151542322,4.0625
-37.0,0.024543692606170175,0.0
-37.0,-0.024543692606170175,4.0625
-36.5,0.01840776945462741,1.625
-36.5,-0.012271846303085088,2.4375
-37.0,0.006135923151542766,0.8125
-36.5,-0.03681553890925571,8.125
-37.0,0.03067961575771294,4.875
-37.0,-0.012271846303085088,4.0625
-36.5,-0.012271846303085088,6.5
-36.5,0.03681553890925526,4.875
-37.0,-0.006135923151542322,-0.8125
-36.5,-0.018407769454627854,4.875
-36.5,-0.024543692606170175,8.9375
-36.5,-0.006135923151542766,8.9375
-36.5,0.006135923151542766,8.9375
-37.0,0.018407769454627854,4.0625
-37.0,0.0,4.875
-37.0,0.024543692606170175,1.625
-36.5,-0.04295146206079803,9.75
-37.0,0.06135923151542544,-1.625
-36.5,-0.030679615757712497,2.4375
-36.5,-0.018407769454627854,7.3125
-36.5,0.012271846303085088,5.6875
-36.5,0.006135923151542766,4.875
-36.5,0.01840776945462741,2.4375
-36.5,-0.024543692606170175,5.6875
-36.5,0.024543692606170175,0.8125
-36.5,-0.012271846303085088,2.4375
-37.0,0.018407769454627854,0.0
-37.0,-0.018407769454627854,0.8125
-37.0,-0.012271846303085088,1.625
-37.0,0.012271846303085088,4.0625
-37.0,0.006135923151542766,2.4375
-36.5,-0.006135923151542766,4.0625
-37.0,-0.03067961575771294,7.3125
-37.0,0.06135923151542588,-1.625
-36.5,-0.018407769454627854,2.4375
-37.0,-0.01840776945462741,0.0
-36.5,-0.012271846303085088,5.6875
-36.5,-0.012271846303085532,6.5
-36.5,0.012271846303085532,6.5
-36.5,0.024543692606170175,0.8125
-36.5,-0.03067961575771294,8.125
-36.5,0.012271846303085088,4.875
-36.5,0.024543692606170175,1.625
-37.0,-0.04295146206079803,4.875
-37.0,0.02454369260617062,5.6875
-37.0,-0.006135923151542766,5.6875
-36.5,0.012271846303085088,4.0625
-36.5,0.012271846303085088,2.4375
-36.5,-0.03681553890925526,5.6875
-36.5,0.012271846303085088,4.0625
-37.0,0.03067961575771294,-0.8125
-36.5,-0.05522330836388312,8.9375
-36.5,0.018407769454627854,5.6875
-37.0,0.006135923151542322,4.875
-37.0,-0.012271846303085088,7.3125
-36.5,-0.006135923151542766,8.125
-37.0,0.03681553890925571,4.0625
-37.0,-0.006135923151542766,0.8125
-37.0,0.0,4.0625
-37.0,-0.006135923151542322,4.0625
-36.5,-0.012271846303085088,4.0625
-37.0,0.006135923151542322,2.4375
-37.0,-0.006135923151542322,2.4375
-36.5,-0.012271846303085532,7.3125
-36.5,0.02454369260617062,4.0625
-37.0,-0.012271846303085088,6.5
-36.5,0.024543692606170175,4.0625
-36.5,-0.03067961575771294,7.3125
-36.5,0.04908738521234035,0.0
-37.0,-0.030679615757712497,4.0625
-36.5,-0.012271846303085088,5.6875
-36.5,0.03681553890925526,0.8125
-37.0,0.006135923151542322,-0.8125
-36.5,-0.024543692606170175,4.875
-36.5,0.006135923151542766,4.0625
-37.0,-0.024543692606170175,4.0625
-37.0,-0.02454369260617062,7.3125
-36.5,0.049087385212340795,5.6875
-37.0,0.0,1.625
-37.0,0.012271846303085088,-0.8125
-37.0,-0.04295146206079803,4.875
-36.5,-0.006135923151542766,6.5
-36.5,0.012271846303085532,4.875
-37.0,-0.018407769454627854,8.125
-36.5,0.03067961575771294,4.875
-37.0,0.030679615757712497,-1.625
-36.5,-0.04908738521234035,7.3125
-37.0,0.05522330836388312,0.0
-37.0,-0.05522330836388312,5.6875
-36.5,0.024543692606170175,4.875
-37.0,-0.03067961575771294,7.3125
-36.5,0.0674951546669682,-0.8125
-36.5,-0.06135923151542544,7.3125
-36.5,0.04908738521234035,0.0
-36.5,-0.01840776945462741,1.625
-36.5,0.012271846303085088,4.0625
-36.5,0.0,0.8125
-37.0,-0.03681553890925526,5.6875
-37.0,0.03681553890925526,0.8125
-37.0,0.006135923151542322,-0.8125
-36.5,-0.024543692606170175,4.0625
-37.0,-0.04295146206079803,8.9375
-36.5,0.06135923151542588,1.625
-37.0,-0.024543692606170175,4.875
-36.5,-0.02454369260617062,7.3125
-37.0,0.02454369260617062,4.0625
-37.0,0.03681553890925526,-0.8125
-36.5,-0.04908738521234035,6.5
-37.0,-0.006135923151542766,5.6875
-37.0,-0.006135923151542766,6.5
-37.0,0.05522330836388312,-4.0625
-37.0,-0.030679615757712497,4.875
-36.5,-0.03681553890925571,9.75
-36.5,0.05522330836388312,1.625
-37.0,-0.030679615757712497,5.6875
-37.0,-0.018407769454627854,8.9375
-37.0,0.05522330836388312,2.4375
-36.5,-0.018407769454627854,4.0625
-37.0,0.03067961575771294,-1.625
-37.0,-0.04908738521234035,6.5
-36.5,-0.006135923151542766,8.9375
-37.0,0.05522330836388312,0.0
-37.0,0.0,-0.8125
-36.5,-0.03681553890925526,5.6875
-37.0,0.0,4.875
-36.5,-0.018407769454627854,6.5
-36.5,0.0,6.5
-37.0,0.0,4.875
-37.0,0.0,5.6875
-36.5,0.03067961575771294,5.6875
-37.0,-0.024543692606170175,5.6875
-37.0,0.024543692606170175,0.8125
-37.0,-0.03067961575771294,7.3125
-37.0,0.024543692606170175,4.875
-37.0,0.0,5.6875
-37.0,0.03067961575771294,-0.8125
-37.0,-0.018407769454627854,1.625
-37.0,-0.01840776945462741,5.6875
-37.0,0.012271846303085088,0.8125
-36.5,0.012271846303085088,0.8125
-37.0,-0.03067961575771294,5.6875
-37.0,0.0,5.6875
-37.0,0.024543692606170175,2.4375
-37.0,0.012271846303085088,-1.625
-37.0,-0.03681553890925526,5.6875
-37.0,0.0,4.0625
-36.5,-0.018407769454627854,8.9375
-37.0,0.018407769454627854,4.0625
-37.0,-0.012271846303085088,7.3125
-37.0,0.018407769454627854,1.625
-37.0,-0.006135923151542766,4.0625
-37.0,-0.024543692606170175,7.3125
-37.0,0.0,6.5
-37.0,0.018407769454627854,4.875
-37.0,-0.018407769454627854,8.125
-37.0,0.03067961575771294,4.0625
-37.0,-0.006135923151542766,4.0625
-37.0,-0.006135923151542322,4.0625
-37.0,0.03681553890925526,0.0
-37.0,-0.049087385212340795,5.6875
-37.0,-0.006135923151542322,7.3125
-37.0,0.04295146206079803,4.0625
-37.0,-0.024543692606170175,1.625
-37.0,-0.02454369260617062,6.5
-37.0,0.04295146206079803,0.0
-37.0,-0.024543692606170175,2.4375
-37.0,0.024543692606170175,0.8125
-37.0,-0.03067961575771294,7.3125
-37.0,-0.006135923151542322,7.3125
-37.0,0.03681553890925526,0.8125
-37.0,-0.006135923151542322,0.0
-37.0,-0.018407769454627854,4.875
-37.0,0.006135923151542766,2.4375
-37.0,-0.012271846303085532,5.6875
-37.0,-0.006135923151542322,4.875
-37.0,0.03681553890925526,2.4375
-37.0,0.0,1.625
-37.5,0.006135923151542766,-1.625
-37.0,-0.018407769454627854,4.0625
-37.0,-0.012271846303085088,5.6875
-37.0,-0.012271846303085088,6.5
-37.0,0.04908738521234035,-1.625
-37.5,-0.012271846303085088,0.0
-37.0,-0.05522330836388312,9.75
-37.0,0.018407769454627854,6.5
-37.5,0.04295146206079803,0.8125
-37.0,-0.024543692606170175,2.4375
-37.5,0.04908738521234035,-5.6875
-37.5,-0.08590292412159606,9.75
-37.5,0.049087385212340795,0.8125
-37.5,-0.03067961575771294,6.5
-37.0,0.0,5.6875
-37.5,0.012271846303085088,4.0625
-37.0,-0.012271846303085088,2.4375
-37.5,0.03681553890925526,2.4375
-37.5,-0.0674951546669682,7.3125
-37.5,0.049087385212340795,4.0625
-37.5,0.0,0.0
-37.5,-0.02454369260617062,4.0625
-37.0,-0.024543692606170175,8.9375
-37.5,0.06135923151542588,-1.625
-37.5,-0.05522330836388312,5.6875
-37.5,0.006135923151542322,6.5
-37.5,-0.01840776945462741,8.9375
-37.5,0.024543692606170175,6.5
-37.5,0.01840776945462741,0.8125
-37.5,0.006135923151542766,1.625
-37.5,0.0,2.4375
-37.5,-0.05522330836388312,8.9375
-37.5,0.012271846303085088,4.875
-37.5,0.018407769454627854,4.875
-37.5,-0.024543692606170175,6.5
-37.5,0.030679615757712497,1.625
-38.0,0.012271846303085088,-0.8125
-38.0,0.0,-1.625
-37.5,-0.03681553890925526,6.5
-38.0,0.049087385212340795,-0.8125
-37.5,0.0,4.0625
-37.5,-0.05522330836388312,8.9375
-37.5,0.01840776945462741,4.875
-37.5,-0.012271846303085088,8.125
-37.5,0.04295146206079803,1.625
-38.0,-0.05522330836388312,9.75
-38.0,0.018407769454627854,4.0625
-38.0,0.024543692606170175,1.625
-37.5,-0.024543692606170175,5.6875
-37.5,0.006135923151542322,4.875
-38.0,-0.030679615757712497,6.5
-38.0,0.07363107781851053,-4.0625
-37.5,-0.03681553890925526,2.4375
-38.0,0.006135923151542322,0.0
-38.0,-0.030679615757712497,8.125
-37.5,0.042951462060797585,0.8125
-38.0,0.012271846303085532,-2.4375
-38.0,-0.006135923151542766,0.0
-38.0,-0.03067961575771294,4.0625
-37.5,-0.006135923151542322,4.875
-38.0,-0.006135923151542766,6.5
-38.0,-0.006135923151542322,6.5
-38.0,0.04908738521234035,0.0
-38.0,0.0,-2.4375
-38.0,-0.04908738521234035,6.5
-38.0,0.04908738521234035,-4.0625
-38.0,-0.06135923151542544,7.3125
-38.0,0.030679615757712497,2.4375
-38.0,-0.03681553890925526,7.3125
-38.0,0.024543692606170175,2.4375
-38.0,-0.012271846303085088,5.6875
-38.0,0.03681553890925526,1.625
-38.0,-0.01840776945462741,4.0625
-38.0,-0.024543692606170175,6.5
-38.0,0.006135923151542322,5.6875
-38.5,0.03067961575771294,0.0
-38.0,-0.03067961575771294,6.5
-38.0,0.0,7.3125
-38.0,-0.012271846303085088,5.6875
-38.0,0.0,8.125
-38.0,0.0674951546669682,-4.0625
-38.0,-0.03681553890925526,1.625
-38.5,0.006135923151542322,0.0
-38.0,-0.006135923151542322,1.625
-38.0,-0.012271846303085088,1.625
-38.0,0.0,5.6875
-38.0,0.012271846303085088,1.625
-38.0,0.030679615757712497,0.0
-38.5,-0.06135923151542544,7.3125
-38.0,0.018407769454627854,4.0625
-38.0,0.06135923151542544,-5.6875
-38.0,-0.06135923151542544,5.6875
-38.0,0.030679615757712497,-0.8125
-38.0,0.02454369260617062,-4.875
-38.0,-0.012271846303085532,-0.8125
-38.0,-0.012271846303085088,0.0
-38.5,-0.024543692606170175,4.0625
-38.0,-0.03067961575771294,8.9375
-38.0,0.02454369260617062,1.625
-38.5,-0.006135923151542766,4.875
-38.0,-0.024543692606170175,8.125
-38.0,0.024543692606170175,7.3125
-38.5,-0.024543692606170175,7.3125
-38.0,0.012271846303085088,6.5
-38.5,-0.006135923151542766,6.5
-38.5,0.03067961575771294,0.8125
-38.0,0.006135923151542766,-0.8125
-38.0,-0.024543692606170175,4.875
-38.5,-0.006135923151542766,7.3125
-38.0,0.03067961575771294,0.0
-38.5,0.03681553890925526,-0.8125
-38.0,-0.0674951546669682,7.3125
-38.0,0.012271846303085088,6.5
-38.0,0.012271846303085088,4.0625
-38.5,-0.04295146206079803,8.9375
-38.0,0.03681553890925571,4.0625
-38.0,-0.02454369260617062,8.125
-38.5,-0.006135923151542322,7.3125
-38.0,0.04295146206079803,0.0
-38.5,0.006135923151542322,2.4375
-38.0,-0.04295146206079803,7.3125
-38.5,0.02454369260617062,1.625
-38.5,0.006135923151542322,2.4375
-38.0,-0.012271846303085088,6.5
-38.0,-0.012271846303085088,7.3125
-38.5,0.024543692606170175,0.0
-38.0,-0.006135923151542322,4.875
-38.5,-0.02454369260617062,7.3125
-38.0,-0.012271846303085088,8.125
-38.5,0.0674951546669682,-1.625
-38.0,-0.006135923151542322,0.0
-38.5,-0.03681553890925526,5.6875
-38.0,-0.006135923151542766,4.875
-38.0,0.04295146206079803,0.0
-38.0,-0.06135923151542588,7.3125
-38.0,0.02454369260617062,5.6875
-38.5,-0.012271846303085532,6.5
-38.5,0.04295146206079803,0.0
-38.5,-0.012271846303085088,0.8125
-38.5,0.024543692606170175,-1.625
-38.5,-0.024543692606170175,1.625
-38.5,-0.012271846303085088,2.4375
-38.5,0.018407769454627854,0.8125
-38.5,-0.024543692606170175,4.875
-38.0,0.006135923151542322,5.6875
-38.5,0.006135923151542766,1.625
-38.0,-0.018407769454627854,4.0625
-38.5,-0.006135923151542766,4.0625
-38.5,0.006135923151542766,4.0625
-38.5,0.024543692606170175,4.0625
-38.5,0.012271846303085088,0.0
-38.5,-0.01840776945462741,0.0
-38.5,0.01840776945462741,-2.4375
-38.0,0.012271846303085088,-0.8125
-38.5,-0.05522330836388312,5.6875
-38.5,-0.01840776945462741,8.125
-38.5,0.024543692606170175,4.875
-38.5,0.04295146206079803,-2.4375
-38.5,-0.04295146206079803,4.0625
-38.5,-0.03067961575771294,5.6875
-38.5,0.024543692606170175,0.8125
-38.5,0.012271846303085532,0.8125
-38.5,-0.03681553890925571,8.125
-38.5,0.024543692606170175,5.6875
-38.5,-0.01840776945462741,8.125
-38.5,0.06135923151542544,0.8125
-38.0,-0.01840776945462741,1.625
-38.5,-0.02454369260617062,5.6875
-38.5,-0.006135923151542322,5.6875
-38.5,0.006135923151542322,4.875
-38.5,-0.01840776945462741,5.6875
-38.5,0.006135923151542322,7.3125
-38.5,-0.006135923151542322,6.5
-38.5,0.0674951546669682,-4.875
-38.5,-0.03067961575771294,4.875
-38.5,0.012271846303085088,0.0
-38.5,-0.01840776945462741,1.625
-38.5,-0.018407769454627854,5.6875
-38.5,0.024543692606170175,4.875
-39.0,0.024543692606170175,-2.4375
-38.5,-0.04908738521234035,6.5
-38.5,-0.006135923151542766,7.3125
-38.5,0.006135923151542766,8.125
-38.5,-0.018407769454627854,8.125
-38.5,0.03681553890925571,4.0625
-38.5,-0.006135923151542766,4.0625
-38.5,0.03067961575771294,0.8125
-38.5,-0.03681553890925571,5.6875
-39.0,-0.012271846303085088,5.6875
-38.5,0.03067961575771294,4.875
-38.5,0.03681553890925526,-2.4375
-39.0,0.0,-4.875
-38.5,-0.006135923151542322,-0.8125
-38.5,-0.05522330836388312,7.3125
-38.5,0.012271846303085088,4.875
-38.5,-0.018407769454627854,7.3125
-38.5,-0.012271846303085088,10.5625
-39.0,0.018407769454627854,7.3125
-39.0,0.05522330836388312,-4.0625
-38.5,-0.05522330836388312,6.5
-38.5,0.03681553890925526,0.8125
-38.5,-0.024543692606170175,5.6875
-38.5,-0.006135923151542766,6.5
-38.5,0.018407769454627854,4.0625
-38.5,0.04295146206079803,-2.4375
-38.5,-0.07363107781851097,6.5
-38.5,0.006135923151542766,9.75
-39.0,0.012271846303085088,4.0625
-38.5,0.03067961575771294,-0.8125
-38.5,-0.018407769454627854,4.0625
-38.5,0.0,4.875
-39.0,0.012271846303085088,1.625
-39.0,-0.012271846303085088,2.4375
-39.0,0.012271846303085088,-0.8125
-38.5,-0.012271846303085088,4.875
-39.0,-0.018407769454627854,5.6875
-38.5,0.012271846303085532,4.875
-38.5,0.024543692606170175,1.625
-39.0,-0.03681553890925571,8.125
-38.5,-0.012271846303085088,9.75
-39.0,0.006135923151542766,6.5
-39.0,0.006135923151542322,6.5
-39.0,-0.01840776945462741,8.125
-39.0,0.06135923151542544,0.0
-39.0,-0.01840776945462741,4.0625
-39.0,-0.02454369260617062,5.6875
-38.5,-0.006135923151542322,9.75
-38.5,0.006135923151542322,7.3125
-38.5,0.0,6.5
-39.0,0.0,8.9375
-39.0,0.02454369260617062,2.4375
-39.0,0.0,4.875
-39.0,-0.006135923151542766,6.5
-39.0,0.0,6.5
-38.5,-0.012271846303085088,8.125
-38.5,0.0674951546669682,-1.625
-39.0,-0.05522330836388312,7.3125
-39.0,0.03681553890925526,1.625
-39.0,-0.042951462060797585,5.6875
-39.0,0.042951462060797585,2.4375
-39.0,-0.006135923151542322,4.0625
-39.0,-0.006135923151542766,4.0625
-39.0,-0.024543692606170175,7.3125
-39.0,0.04908738521234035,0.8125
-39.0,-0.03681553890925526,7.3125
-39.0,0.03681553890925526,1.625
-39.0,0.0,0.0
-39.0,0.006135923151542766,2.4375
-39.0,0.0,0.0
-38.5,0.024543692606170175,-1.625
-39.0,-0.03067961575771294,2.4375
-39.0,-0.024543692606170175,6.5
-39.0,0.07363107781851097,-6.5
-39.0,-0.04295146206079803,0.8125
-39.0,0.018407769454627854,-1.625
-39.0,-0.02454369260617062,2.4375
-39.0,0.03681553890925571,-2.4375
-39.0,-0.03681553890925571,4.875
-39.0,-0.030679615757712497,8.125
-39.0,0.030679615757712497,4.875
-39.0,0.03681553890925571,-1.625
-39.0,-0.024543692606170175,1.625
-39.0,-0.02454369260617062,7.3125
-39.0,0.006135923151542766,6.5
-39.5,0.018407769454627854,4.0625
-39.0,0.006135923151542322,6.5
-39.0,-0.03067961575771294,8.9375
-39.5,0.012271846303085088,5.6875
-39.0,-0.012271846303085088,7.3125
-39.0,-0.012271846303085088,7.3125
-39.0,0.024543692606170175,7.3125
-39.0,0.012271846303085532,6.5
-39.0,0.0,4.0625
-39.5,0.024543692606170175,-0.8125
-39.0,-0.012271846303085088,1.625
-39.0,-0.006135923151542766,4.875
-39.0,-0.018407769454627854,4.875
-39.0,0.049087385212340795,0.8125
-39.0,-0.03067961575771294,5.6875
-39.0,-0.018407769454627854,7.3125
-39.0,0.05522330836388312,-2.4375
-39.0,-0.0674951546669682,8.125
-39.0,0.018407769454627854,8.125
-39.5,0.0674951546669682,-2.4375
-39.0,-0.006135923151542766,-1.625
-39.0,0.0,-0.8125
-39.0,-0.0674951546669682,9.75
-39.0,0.04295146206079803,1.625
-39.0,-0.006135923151542322,0.0
-39.0,0.03681553890925526,0.0
-39.5,-0.03067961575771294,4.0625
-39.5,-0.01840776945462741,4.0625
-39.0,-0.02454369260617062,9.75
-39.0,0.02454369260617062,6.5
-39.0,0.024543692606170175,1.625
-39.5,-0.04295146206079803,8.125
-39.0,0.04295146206079803,-0.8125
-39.5,-0.03681553890925526,8.125
-39.0,0.006135923151542322,4.875
-39.0,0.024543692606170175,4.0625
-39.5,-0.0674951546669682,13.8125
-39.0,0.08590292412159606,1.625
-39.0,-0.04908738521234035,7.3125
-39.5,-0.012271846303085532,8.9375
-39.5,0.018407769454627854,4.875
-39.0,0.012271846303085088,5.6875
-39.5,-0.006135923151542322,6.5
-39.0,-0.012271846303085088,8.9375
-39.0,0.030679615757712497,1.625
-39.5,-0.01840776945462741,8.125
-39.0,0.006135923151542322,5.6875
-39.0,0.0,6.5
-39.5,-0.012271846303085088,5.6875
-39.5,0.0,8.9375
-39.0,0.024543692606170175,1.625
-39.5,0.0,4.0625
-39.0,-0.01840776945462741,6.5
-39.0,0.04908738521234035,-0.8125
-39.0,-0.04295146206079803,6.5
-39.5,0.012271846303085088,7.3125
-39.0,-0.024543692606170175,12.1875
-39.0,0.04908738521234035,4.0625
-39.0,0.02454369260617062,0.0
-39.0,-0.049087385212340795,4.0625
-39.0,-0.03681553890925526,8.9375
-39.0,0.0674951546669682,1.625
-39.5,-0.04908738521234035,9.75
-39.0,0.012271846303085088,8.9375
-39.5,0.024543692606170175,2.4375
-39.5,0.0,6.5
-39.0,0.03067961575771294,0.8125
-39.0,-0.06135923151542588,6.5
-39.5,0.05522330836388312,-0.8125
-39.0,0.0,0.0
-39.5,0.03681553890925526,-5.6875
-39.5,-0.07363107781851053,7.3125
-39.5,0.024543692606170175,1.625
-39.0,-0.04295146206079803,9.75
-39.0,0.07363107781851097,-1.625
-39.5,-0.03681553890925571,2.4375
-39.0,-0.012271846303085088,8.125
-39.5,0.018407769454627854,2.4375
-39.0,0.0,4.875
-39.0,0.012271846303085088,1.625
-39.0,0.0674951546669682,-7.3125
-39.0,-0.0674951546669682,4.0625
-39.5,0.006135923151542766,2.4375
-39.5,-0.03067961575771294,6.5
-39.0,-0.006135923151542766,10.5625
-39.5,0.07976700097005329,-2.4375
-39.5,-0.04908738521234035,1.625
-39.5,0.018407769454627854,-1.625
-39.0,0.006135923151542322,0.0
-39.0,-0.030679615757712497,2.4375
-39.0,-0.018407769454627854,8.125
-39.5,0.04908738521234035,-0.8125
-39.5,-0.030679615757712497,5.6875
-39.0,0.024543692606170175,4.875
-39.5,-0.03067961575771294,5.6875
-39.0,0.0674951546669682,-1.625
-39.5,-0.0674951546669682,8.125
-39.0,0.07363107781851097,-4.0625
-39.0,-0.012271846303085532,-2.4375
-39.5,-0.09203884727313838,13.0
-39.5,0.09203884727313838,4.875
-39.5,-0.04908738521234035,10.5625
-39.5,0.024543692606170175,0.0
-39.5,0.012271846303085088,1.625
-39.5,-0.03681553890925526,7.3125
-39.5,0.012271846303085088,4.875
-39.5,0.018407769454627854,2.4375
-39.5,0.06135923151542544,-4.875
-39.5,-0.11044661672776623,12.1875
-39.5,0.07976700097005374,2.4375
-39.5,-0.02454369260617062,4.875
-39.0,0.04295146206079803,-1.625
-39.5,-0.03681553890925526,5.6875
-39.5,0.018407769454627854,2.4375
-39.5,-0.006135923151542766,5.6875
-39.5,-0.04908738521234035,10.5625
-39.5,0.04908738521234035,4.0625
-39.5,-0.006135923151542766,5.6875
-39.5,0.07363107781851097,-4.0625
-39.5,-0.07976700097005329,5.6875
-39.5,-0.006135923151542766,9.75
-40.0,0.07363107781851097,-4.0625
-39.5,-0.07363107781851097,8.125
-39.5,0.07363107781851097,0.0
-39.5,-0.018407769454627854,0.0
-39.5,-0.024543692606170175,7.3125
-39.5,0.06135923151542588,-1.625
-39.5,-0.03681553890925571,4.0625
-39.5,0.0,5.6875
-39.5,-0.030679615757712497,8.9375
-39.5,0.0,7.3125
-39.5,0.01840776945462741,5.6875
-39.5,0.049087385212340795,4.0625
-39.5,-0.012271846303085532,-0.8125
-40.0,0.018407769454627854,-4.0625
-39.5,-0.04908738521234035,6.5
-39.5,0.01840776945462741,5.6875
-39.5,-0.04908738521234035,9.75
-39.5,0.012271846303085088,7.3125
-39.5,0.06135923151542588,0.8125
-40.0,-0.03681553890925571,2.4375
-39.5,0.024543692606170175,0.0
-39.5,-0.05522330836388267,9.75
-39.5,0.04908738521234035,5.6875
-40.0,-0.012271846303085088,2.4375
-40.0,-0.03681553890925526,6.5
-40.0,0.03681553890925526,5.6875
-39.5,0.012271846303085088,6.5
-39.5,0.018407769454627854,0.8125
-39.5,-0.049087385212340795,8.125
-39.5,0.012271846303085088,6.5
-39.5,0.03681553890925571,2.4375
-39.5,0.024543692606170175,-4.0625
-39.5,-0.04295146206079803,4.875
-40.0,0.006135923151542322,2.4375
-39.5,-0.04908738521234035,8.125
-40.0,0.04908738521234035,4.0625
-40.0,0.0,2.4375
-40.0,0.018407769454627854,1.625
-39.5,-0.018407769454627854,7.3125
-39.5,-0.006135923151542322,5.6875
-40.0,-0.012271846303085088,7.3125
-39.5,0.012271846303085088,4.875
-40.0,0.0674951546669682,-4.875
-40.0,-0.03067961575771294,1.625
-39.5,-0.01840776945462741,2.4375
-40.0,-0.02454369260617062,7.3125
-39.5,0.03067961575771294,4.0625
-40.0,0.03681553890925526,-4.0625
-39.5,-0.03681553890925526,2.4375
-39.5,-0.024543692606170175,6.5
-40.0,0.05522330836388312,-0.8125
-40.0,-0.018407769454627854,2.4375
-39.5,-0.01840776945462741,6.5
-39.5,0.030679615757712497,0.0
-40.0,0.02454369260617062,-1.625
-39.5,-0.05522330836388312,7.3125
-39.5,0.0,7.3125
-40.0,0.006135923151542322,6.5
-40.0,-0.03067961575771294,13.0
-40.0,0.09817477042468115,-5.6875
-40.0,-0.05522330836388312,4.0625
-39.5,0.049087385212340795,-4.0625
-39.5,-0.049087385212340795,6.5
-40.0,-0.03681553890925526,8.125
-39.5,0.012271846303085088,8.125
-39.5,0.024543692606170175,1.625
-40.0,-0.012271846303085088,8.125
-40.0,0.05522330836388312,-0.8125
-39.5,0.0,2.4375
-39.5,-0.04295146206079803,7.3125
-39.5,0.012271846303085088,4.875
-40.0,0.02454369260617062,0.8125
-40.0,-0.06749515466696865,9.75
-39.5,0.08590292412159606,0.0
-40.0,-0.024543692606170175,0.8125
-40.0,-0.006135923151542766,0.8125
-39.5,0.02454369260617062,0.8125
-40.0,-0.02454369260617062,2.4375
-40.0,-0.04908738521234035,10.5625
-40.0,0.04295146206079803,5.6875
-39.5,-0.018407769454627854,8.9375
-40.0,0.0,8.125
-39.5,0.018407769454627854,7.3125
-39.5,-0.006135923151542766,8.125
-39.5,0.0,10.5625
-40.0,0.07976700097005329,-7.3125
-40.0,0.0,-1.625
-40.0,-0.07363107781851053,4.0625
-39.5,0.006135923151542322,8.125
-39.5,0.012271846303085532,7.3125
-39.5,-0.012271846303085532,4.875
-40.0,0.06135923151542588,-0.8125
-40.0,-0.024543692606170175,-1.625
-40.0,0.012271846303085088,2.4375
-40.0,-0.049087385212340795,7.3125
-40.0,0.012271846303085532,5.6875
-40.0,0.0674951546669682,-2.4375
-40.0,-0.049087385212340795,4.875
-40.0,0.012271846303085088,4.875
-39.5,0.03681553890925571,0.8125
-40.0,-0.04295146206079803,5.6875
-40.0,0.024543692606170175,2.4375
-40.0,0.018407769454627854,-2.4375
-40.0,-0.02454369260617062,0.0
-40.0,-0.042951462060797585,8.9375
-40.0,0.06135923151542544,0.0
-40.5,-0.018407769454627854,4.875
-39.5,0.006135923151542766,2.4375
-39.5,0.06135923151542544,-7.3125
-40.0,-0.03681553890925526,0.8125
-40.0,-0.03067961575771294,6.5
-40.0,0.05522330836388312,0.8125
-40.0,0.0,-2.4375
-40.0,-0.04295146206079803,4.0625
-40.0,0.012271846303085532,4.875
-40.5,0.0,5.6875
-40.5,-0.02454369260617062,9.75
-40.0,0.049087385212340795,-0.8125
-40.5,-0.049087385212340795,7.3125
-40.0,0.02454369260617062,6.5
-40.5,-0.006135923151542766,9.75
-40.0,-0.006135923151542766,7.3125
-40.0,0.049087385212340795,1.625
-40.0,-0.03067961575771294,7.3125
-40.0,0.04295146206079803,-0.8125
-40.0,-0.07363107781851097,8.125
-40.0,0.0,8.9375
-40.0,0.07363107781851097,0.8125
-40.0,-0.018407769454627854,4.0625
-40.0,0.018407769454627854,0.8125
-40.5,-0.03681553890925526,8.125
-40.5,0.024543692606170175,2.4375
-40.0,0.01840776945462741,2.4375
-40.0,-0.01840776945462741,0.8125
-40.0,0.04295146206079803,-1.625
-40.5,-0.05522330836388312,5.6875
-40.5,0.01840776945462741,2.4375
-40.0,-0.030679615757712497,5.6875
-40.0,0.030679615757712497,0.8125
-40.0,0.02454369260617062,1.625
-40.0,0.006135923151542322,0.0
-40.0,0.006135923151542766,0.8125
-40.0,-0.05522330836388312,5.6875
-40.0,-0.018407769454627854,9.75
-40.0,0.018407769454627854,6.5
-40.5,0.006135923151542322,5.6875
-40.0,0.04295146206079803,1.625
-40.0,-0.024543692606170175,4.0625
-40.0,-0.018407769454627854,4.875
-40.0,0.024543692606170175,2.4375
-40.0,0.06135923151542588,-4.875
-40.0,-0.07976700097005329,5.6875
-40.5,-0.012271846303085088,7.3125
-40.0,0.030679615757712497,4.0625
-40.5,-0.03681553890925526,8.9375
-40.0,0.012271846303085088,8.9375
-40.5,0.0,5.6875
-40.0,0.018407769454627854,4.875
-40.0,0.03067961575771294,2.4375
-40.0,-0.012271846303085088,2.4375
-40.0,0.01840776945462741,2.4375
-40.5,-0.03681553890925526,7.3125
-40.0,0.0,5.6875
-40.0,0.018407769454627854,6.5
-40.0,-0.012271846303085532,8.125
-40.0,0.049087385212340795,1.625
-40.0,-0.03681553890925526,7.3125
-40.0,-0.006135923151542766,6.5
-40.0,0.03067961575771294,2.4375
-40.5,0.01840776945462741,0.0
-40.0,-0.01840776945462741,1.625
-40.0,-0.03067961575771294,8.9375
-40.0,0.06135923151542544,1.625
-39.5,-0.05522330836388267,7.3125
-40.0,0.01840776945462741,5.6875
-40.5,0.05522330836388312,-0.8125
-40.0,0.0,-2.4375
-40.0,-0.024543692606170175,2.4375
-40.0,0.03067961575771294,-1.625
-40.0,-0.03681553890925571,4.875
-40.0,0.03681553890925571,-0.8125
-40.0,-0.05522330836388312,8.9375
-40.0,0.03681553890925526,2.4375
-40.0,0.03681553890925526,-5.6875
-39.5,-0.04908738521234035,4.875
-40.0,0.03681553890925526,0.8125
-40.0,-0.006135923151542322,0.8125
-39.5,-0.05522330836388312,9.75
-40.0,0.04908738521234035,2.4375
-39.5,-0.018407769454627854,7.3125
-40.0,0.012271846303085532,4.875
-40.0,0.06135923151542544,-6.5
-40.0,-0.08590292412159606,6.5
-40.0,-0.006135923151542322,12.1875
-39.5,0.012271846303085088,4.875
-40.0,0.018407769454627854,4.0625
-40.0,0.01840776945462741,1.625
-39.5,0.0,0.0
-39.5,-0.03067961575771294,6.5
-40.0,0.04295146206079803,1.625
-40.0,0.0,0.8125
-40.0,-0.012271846303085088,1.625
-40.0,-0.03681553890925526,12.1875
-40.0,-0.012271846303085088,9.75
-39.5,0.04908738521234035,1.625
-40.0,0.049087385212340795,-4.0625
-39.5,-0.0674951546669682,7.3125
-40.0,0.030679615757712497,2.4375
-39.5,0.018407769454627854,0.0
-40.0,-0.006135923151542766,0.8125
-40.0,0.006135923151542766,0.8125
-40.0,-0.04908738521234035,6.5
-40.0,0.01840776945462741,6.5
-40.0,0.012271846303085088,4.875
-40.0,0.024543692606170175,1.625
-40.0,-0.012271846303085088,4.0625
-40.0,-0.03681553890925526,8.9375
-40.0,0.04295146206079803,4.875
-40.0,0.03067961575771294,-0.8125
-40.0,-0.03681553890925571,8.9375
-40.0,0.02454369260617062,2.4375
-40.0,0.03681553890925526,-4.0625
-39.5,-0.05522330836388312,7.3125
-39.5,0.024543692606170175,1.625
-39.5,-0.03067961575771294,8.125
-39.5,0.018407769454627854,8.9375
-39.5,0.06135923151542588,0.0
-39.5,-0.04295146206079803,5.6875
-39.5,0.05522330836388312,-0.8125
-39.5,-0.02454369260617062,0.8125
-40.0,-0.006135923151542322,4.875
-39.5,0.0,4.0625
-39.5,0.018407769454627854,1.625
-39.5,-0.02454369260617062,4.875
-39.5,0.012271846303085088,2.4375
-39.5,0.006135923151542766,4.0625
-39.5,-0.018407769454627854,7.3125
-39.5,0.03681553890925571,2.4375
-39.5,0.01840776945462741,0.8125
-39.5,-0.03681553890925526,5.6875
-39.5,0.04908738521234035,0.8125
-39.5,-0.006135923151542322,0.0
-39.5,-0.018407769454627854,5.6875
-39.5,-0.006135923151542322,5.6875
-39.5,-0.012271846303085088,6.5
-40.0,0.06135923151542544,-0.8125
-39.5,-0.04295146206079803,5.6875
-39.0,-0.006135923151542322,6.5
-39.5,0.03681553890925526,0.8125
-39.5,-0.024543692606170175,6.5
-39.5,0.04908738521234035,-0.8125
-39.5,-0.05522330836388312,5.6875
-39.5,0.012271846303085088,2.4375
-39.5,0.006135923151542766,4.0625
-39.5,0.0,4.875
-39.5,0.012271846303085088,2.4375
-39.0,-0.018407769454627854,1.625
-39.5,0.006135923151542766,4.875
-39.5,-0.024543692606170175,7.3125
-39.5,0.03681553890925526,4.875
-39.5,-0.03067961575771294,7.3125
-39.5,0.07363107781851097,-1.625
-39.5,-0.024543692606170175,4.0625
-39.5,-0.02454369260617062,2.4375
-39.5,0.006135923151542766,0.8125
-39.5,-0.018407769454627854,6.5
-39.5,-0.012271846303085088,8.125
-39.5,0.049087385212340795,0.8125
-39.5,-0.02454369260617062,2.4375
-39.0,-0.006135923151542322,5.6875
-39.5,0.006135923151542322,2.4375
-39.5,0.049087385212340795,-1.625
-39.5,0.006135923151542322,-1.625
-40.0,-0.04295146206079803,2.4375
-39.0,0.018407769454627854,0.0
-39.5,-0.04295146206079803,8.125
-39.0,0.05522330836388312,-0.8125
-39.5,-0.04295146206079803,5.6875
-39.5,0.0,5.6875
-39.0,0.012271846303085088,4.0625
-39.5,0.03681553890925571,-1.625
-39.0,-0.03681553890925571,5.6875
-39.5,0.012271846303085532,7.3125
-39.5,0.0,5.6875
-39.0,-0.03681553890925571,10.5625
-40.0,0.05522330836388312,4.0625
-39.5,-0.024543692606170175,5.6875
-39.5,-0.006135923151542766,5.6875
-39.5,-0.012271846303085088,8.9375
-39.0,-0.006135923151542322,8.9375
-39.5,0.01840776945462741,8.125
-39.5,0.03681553890925571,1.625
-39.5,-0.006135923151542766,0.8125
-39.5,-0.01840776945462741,4.0625
-39.5,0.012271846303085088,5.6875
-39.5,0.006135923151542322,2.4375
-39.5,0.018407769454627854,0.8125
-39.5,-0.03067961575771294,7.3125
-39.5,0.012271846303085088,5.6875
-40.0,-0.006135923151542322,6.5
-39.5,0.024543692606170175,0.0
-39.5,-0.049087385212340795,9.75
-39.5,0.04295146206079803,0.8125
-39.5,0.006135923151542766,6.5
-40.0,-0.006135923151542766,6.5
-40.0,-0.024543692606170175,8.9375
-39.5,0.03067961575771294,5.6875
-40.0,0.04295146206079803,-0.8125
-39.5,-0.05522330836388312,5.6875
-39.5,0.04908738521234035,-0.8125
-39.5,0.018407769454627854,-2.4375
-39.5,-0.06135923151542588,6.5
-39.5,0.012271846303085088,4.0625
-40.0,0.03067961575771294,2.4375
-39.5,0.006135923151542766,2.4375
-39.5,-0.03681553890925571,4.0625
-39.5,0.05522330836388312,-4.0625
-39.5,-0.06135923151542544,7.3125
-39.5,-0.006135923151542766,5.6875
-39.5,0.024543692606170175,0.8125
-39.5,0.006135923151542766,4.875
-39.5,-0.024543692606170175,6.5
-39.5,-0.006135923151542766,8.125
-39.5,0.006135923151542766,7.3125
-39.5,0.05522330836388312,-1.625
-39.5,-0.012271846303085088,0.0
-39.5,-0.018407769454627854,0.8125
-39.5,-0.03067961575771294,8.125
-39.5,0.07363107781851097,-4.0625
-39.5,-0.06135923151542588,7.3125
-39.5,0.02454369260617062,2.4375
-39.5,0.0,2.4375
-39.5,-0.012271846303085532,5.6875
-39.5,0.006135923151542766,5.6875
-39.5,0.0,4.0625
-39.5,0.024543692606170175,0.8125
-39.0,-0.024543692606170175,4.875
-39.5,0.05522330836388312,-4.875
-39.5,-0.03681553890925526,6.5
-39.5,0.0,2.4375
-39.5,-0.02454369260617062,7.3125
-39.5,0.04295146206079803,4.0625
-39.5,-0.04295146206079803,5.6875
-39.0,0.018407769454627854,4.875
-39.5,0.03681553890925526,1.625
-39.5,-0.030679615757712497,4.875
-39.0,0.03681553890925526,-2.4375
-39.0,-0.04295146206079803,7.3125
-39.5,0.018407769454627854,1.625
-39.5,-0.012271846303085088,4.875
-39.5,-0.012271846303085088,6.5
-39.5,0.006135923151542322,6.5
-39.5,0.024543692606170175,2.4375
-39.5,-0.024543692606170175,6.5
-39.5,-0.018407769454627854,7.3125
-39.5,0.05522330836388312,2.4375
-39.0,-0.01840776945462741,2.4375
-39.5,0.030679615757712497,2.4375
-39.5,-0.01840776945462741,4.0625
-39.5,-0.012271846303085088,4.0625
-39.0,0.006135923151542322,5.6875
-39.5,0.0,6.5
-39.0,0.024543692606170175,4.875
-39.5,-0.006135923151542322,4.875
-39.0,0.024543692606170175,2.4375
-39.0,-0.012271846303085088,6.5
-39.5,0.024543692606170175,1.625
-39.0,-0.03067961575771294,8.125
-39.0,0.018407769454627854,5.6875
-39.0,0.018407769454627854,2.4375
-39.0,-0.012271846303085088,5.6875
-39.0,0.03681553890925526,-0.8125
-39.5,-0.012271846303085088,0.8125
-39.0,0.04908738521234035,-4.875
-39.0,-0.04295146206079803,5.6875
-39.0,-0.006135923151542322,4.0625
-39.0,0.01840776945462741,2.4375
-39.5,-0.024543692606170175,6.5
-39.5,0.012271846303085088,7.3125
-39.0,0.06135923151542588,-4.875
-39.0,-0.024543692606170175,2.4375
-39.0,0.03681553890925526,-1.625
-39.0,-0.018407769454627854,0.8125
-39.0,-0.03681553890925526,4.875
-39.0,0.018407769454627854,4.875
-39.0,0.01840776945462741,4.0625
-39.5,-0.006135923151542322,7.3125
-39.0,0.0,5.6875
-38.5,0.024543692606170175,4.875
-39.0,0.024543692606170175,2.4375
-39.0,-0.03067961575771294,2.4375
-39.0,0.03067961575771294,-0.8125
-39.0,0.024543692606170175,-0.8125
-39.0,-0.012271846303085088,-2.4375
-39.0,-0.01840776945462741,2.4375
-39.0,0.006135923151542322,4.0625
-39.0,0.018407769454627854,1.625
-39.0,-0.012271846303085088,4.0625
-38.5,0.030679615757712497,-2.4375
-39.0,-0.03681553890925526,4.875
-39.0,0.04908738521234035,-2.4375
-39.0,-0.042951462060797585,2.4375
-39.0,0.006135923151542322,4.875
-39.0,0.006135923151542766,5.6875
-39.0,0.012271846303085088,0.0
-39.0,-0.024543692606170175,7.3125
-39.0,0.01840776945462741,2.4375
-39.0,0.012271846303085088,4.0625
-38.5,-0.01840776945462741,2.4375
-39.0,0.024543692606170175,1.625
-39.0,-0.03681553890925526,8.9375
-39.0,0.012271846303085088,4.0625
-38.5,0.0,2.4375
-39.0,0.012271846303085088,6.5
-39.0,0.024543692606170175,1.625
-38.5,-0.012271846303085088,2.4375
-38.5,0.012271846303085088,2.4375
-39.0,0.012271846303085088,4.0625
-38.5,0.024543692606170175,0.8125
-38.5,-0.024543692606170175,0.8125
-39.0,-0.012271846303085088,4.875
-39.0,0.018407769454627854,2.4375
-38.5,0.012271846303085088,1.625
-38.5,0.0,0.0
-38.5,-0.03681553890925571,4.875
-39.0,0.02454369260617062,2.4375
-39.0,0.0,4.0625
-38.5,0.0,2.4375
-39.0,0.0,7.3125
-39.0,0.01840776945462741,4.875
-39.0,0.006135923151542766,2.4375
-38.5,-0.018407769454627854,4.875
-39.0,0.03067961575771294,0.8125
-38.5,0.024543692606170175,-1.625
-38.5,-0.024543692606170175,1.625
-39.0,-0.03067961575771294,7.3125
-38.5,0.006135923151542766,6.5
-39.0,0.03067961575771294,1.625
-38.5,-0.006135923151542766,2.4375
-38.5,0.0,4.0625
-38.5,-0.006135923151542766,5.6875
-38.5,0.018407769454627854,2.4375
-38.5,-0.03067961575771294,8.125
-39.0,0.06135923151542588,-0.8125
-38.5,0.0,-1.625
-39.0,0.006135923151542322,1.625
-38.5,0.012271846303085088,-2.4375
-38.5,-0.030679615757712497,4.0625
-38.5,0.0,1.625
-38.5,0.030679615757712497,-4.0625
-39.0,-0.006135923151542322,1.625
-38.5,-0.012271846303085088,4.875
-38.5,0.04295146206079803,0.0
-38.5,0.012271846303085088,0.0
-38.5,0.006135923151542322,0.0
-38.5,-0.01840776945462741,0.0
-38.5,-0.006135923151542766,-0.8125
-38.5,-0.024543692606170175,6.5
-38.5,0.03681553890925526,2.4375
-38.5,0.012271846303085088,-4.0625
-38.5,0.024543692606170175,-4.875
-38.5,-0.030679615757712497,0.8125
-39.0,0.03681553890925526,-6.5
-38.5,-0.03067961575771294,2.4375
-39.0,0.0,0.0
-38.5,0.006135923151542766,-0.8125
-39.0,0.01840776945462741,-4.0625
-39.0,-0.03681553890925526,2.4375
-38.5,0.012271846303085088,0.0
-38.5,-0.012271846303085088,2.4375
-38.5,0.006135923151542766,0.0
-38.5,0.0,2.4375
-38.5,-0.018407769454627854,2.4375
-39.0,0.024543692606170175,0.0
-39.0,-0.024543692606170175,0.8125
-39.0,0.05522330836388312,-2.4375
-38.5,-0.03681553890925526,0.0
-38.5,0.024543692606170175,-4.0625
-38.5,-0.018407769454627854,-2.4375
-38.5,-0.030679615757712497,0.8125
-38.5,0.012271846303085088,2.4375
-38.5,0.0,2.4375
-38.5,0.012271846303085088,1.625
-38.5,0.012271846303085088,-0.8125
-38.5,-0.006135923151542766,-0.8125
-38.5,0.012271846303085088,-4.0625
-38.5,-0.012271846303085088,-1.625
-38.5,0.012271846303085088,0.0
-38.5,-0.012271846303085088,1.625
-38.5,-0.01840776945462741,1.625
-38.5,0.0,0.8125
-38.5,0.012271846303085088,0.0
-38.5,0.05522330836388312,-6.5
-38.5,-0.05522330836388312,0.0
-38.5,0.012271846303085088,1.625
-38.5,-0.006135923151542766,1.625
-38.5,-0.012271846303085088,2.4375
-38.5,0.024543692606170175,-0.8125
-38.5,-0.01840776945462741,4.875
-38.5,0.024543692606170175,0.0
-38.5,-0.018407769454627854,2.4375
-38.5,0.012271846303085088,0.8125
-38.5,0.012271846303085088,0.0
-38.0,-0.024543692606170175,4.0625
-39.0,0.03067961575771294,-1.625
-38.5,-0.012271846303085088,0.0
-38.5,-0.006135923151542766,0.0
-38.0,0.006135923151542766,1.625
-38.0,0.0,0.8125
-38.5,0.018407769454627854,0.0
-38.0,-0.006135923151542766,-0.8125
-38.5,0.0,0.8125
-38.0,0.012271846303085088,-0.8125
-38.0,-0.012271846303085088,0.0
-38.0,0.006135923151542766,0.0
-38.5,-0.012271846303085532,0.8125
-38.0,0.03681553890925571,-1.625
-38.0,-0.012271846303085088,0.0
-38.0,-0.006135923151542766,1.625
-38.0,0.006135923151542766,0.0
-38.5,0.006135923151542322,-1.625
-38.0,-0.01840776945462741,4.0625
-38.0,0.030679615757712497,-1.625
-38.0,-0.012271846303085088,-0.8125
-38.0,-0.012271846303085088,4.875
-38.0,0.024543692606170175,-0.8125
-38.0,0.0,0.8125
-38.0,-0.006135923151542322,-1.625
-37.5,0.006135923151542322,1.625
-37.5,0.0,4.0625
-38.0,0.03067961575771294,-0.8125
-38.0,-0.024543692606170175,1.625
-37.5,0.01840776945462741,0.8125
-37.5,0.012271846303085088,-1.625
-37.5,-0.012271846303085088,0.0
-37.5,0.006135923151542766,1.625
-37.5,0.04295146206079803,-4.0625
-37.0,-0.024543692606170175,0.8125
-37.5,0.006135923151542322,0.8125
-37.5,0.03681553890925571,-4.875
-37.5,-0.030679615757713385,1.625
-37.0,0.00613592315154321,0.0
-37.0,0.006135923151542322,-0.8125
-37.0,-0.024543692606170175,4.0625
-37.0,0.030679615757712497,0.0
-37.0,0.012271846303085532,-0.8125
-37.0,-0.00613592315154321,0.0
-36.5,-0.006135923151542322,1.625
-36.5,0.006135923151542322,0.8125
-36.5,0.030679615757713385,-2.4375
-37.0,-0.018407769454627854,1.625
-36.5,-0.012271846303085532,0.8125
-36.5,0.030679615757713385,0.0
-36.5,0.030679615757712497,-1.625
-36.5,-0.012271846303084644,-1.625
-36.5,-0.018407769454627854,4.0625
-36.0,0.024543692606170175,0.0
-36.0,-0.006135923151542322,1.625
-36.0,0.006135923151542322,4.875
-36.0,0.018407769454627854,-2.4375
-36.0,0.04295146206079803,-2.4375
-36.0,-0.05522330836388356,2.4375
-36.0,0.012271846303085532,1.625
-36.0,0.030679615757712497,-2.4375
-36.0,-0.024543692606170175,4.875
-36.0,0.0,4.875
-35.5,0.018407769454627854,-0.8125
-35.5,0.024543692606170175,0.0
-36.0,0.006135923151542322,-2.4375
-35.5,0.0,-0.8125
-35.5,-0.006135923151542322,-0.8125
-35.5,0.006135923151542322,1.625
-35.5,-0.012271846303084644,0.8125
-35.5,0.018407769454626965,0.8125
-35.5,0.012271846303085532,0.0
-35.5,-0.018407769454627854,4.0625
-35.5,0.018407769454627854,0.0
-35.0,0.018407769454627854,-0.8125
-35.0,0.018407769454627854,-4.0625
-35.0,0.0,0.0
-35.0,-0.018407769454627854,2.4375
-35.0,0.018407769454627854,0.8125
-35.0,-0.00613592315154321,2.4375
-35.0,-0.012271846303084644,4.875
-34.5,0.006135923151542322,4.0625
-34.5,0.03681553890925571,0.0
-34.5,0.012271846303084644,-0.8125
-34.5,0.00613592315154321,-1.625
-34.5,0.006135923151542322,0.0
-34.5,0.012271846303084644,-1.625
-34.5,0.00613592315154321,-1.625
-34.5,0.0,-1.625
-34.5,0.018407769454626965,-2.4375
-34.5,-0.018407769454626965,0.8125
-34.5,0.024543692606170175,-2.4375
-34.0,-0.012271846303085532,0.0
-34.5,0.012271846303085532,-0.8125
-34.5,-0.00613592315154321,-0.8125
-34.0,0.018407769454627854,-2.4375
-34.5,-0.006135923151542322,-1.625
-34.0,-0.006135923151542322,1.625
-34.5,-0.012271846303085532,2.4375
-34.0,0.030679615757713385,0.8125
-34.0,0.024543692606170175,-1.625
-34.0,-0.03681553890925571,2.4375
-34.0,0.030679615757712497,0.0
-34.0,0.00613592315154321,0.0
-33.5,0.0,2.4375
-34.0,0.012271846303084644,0.8125
-33.5,-0.006135923151542322,1.625
-33.5,0.012271846303085532,0.0
-33.5,0.018407769454626965,-1.625
-33.5,-0.006135923151542322,0.8125
-33.5,-0.006135923151542322,1.625
-33.5,0.04295146206079803,-4.875
-33.5,-0.024543692606170175,0.0
-33.5,0.006135923151542322,-0.8125
-33.5,0.006135923151542322,0.0
-33.5,0.0,2.4375
-33.0,-0.006135923151542322,1.625
-33.0,0.018407769454627854,0.0
-33.5,0.0,0.8125
-33.5,0.012271846303084644,-0.8125
-33.0,-0.024543692606170175,0.8125
-33.5,0.024543692606170175,0.0
-33.0,-0.024543692606170175,4.875
-33.0,0.018407769454627854,1.625
-33.0,0.030679615757712497,-2.4375
-33.0,-0.006135923151542322,0.0
-33.0,0.0,-1.625
-33.0,-0.012271846303084644,0.8125
-33.0,0.012271846303084644,1.625
-33.0,0.0,0.8125
-33.0,0.006135923151542322,0.0
-33.0,0.00613592315154321,0.0
-33.0,0.0,-0.8125
-33.0,0.006135923151542322,-1.625
-33.0,0.012271846303084644,0.0
-32.5,0.0,-0.8125
-32.5,0.00613592315154321,0.0
-32.5,0.024543692606170175,-4.0625
-32.5,-0.012271846303085532,-1.625
-32.5,-0.012271846303084644,0.0
-32.5,0.0,0.0
-32.5,0.018407769454627854,-0.8125
-32.5,-0.00613592315154321,-1.625
-32.5,-0.018407769454627854,1.625
-32.5,0.00613592315154321,0.8125
-32.5,0.006135923151542322,1.625
-32.5,0.0,1.625
-32.5,-0.012271846303085532,2.4375
-32.5,0.024543692606171064,-0.8125
-32.5,0.012271846303084644,-4.0625
-32.5,-0.006135923151542322,0.0
-32.5,-0.012271846303085532,1.625
-32.0,0.00613592315154321,2.4375
-32.5,0.03681553890925482,-4.0625
-32.0,-0.012271846303084644,-2.4375
-32.0,-0.00613592315154321,0.0
-32.0,0.012271846303085532,-2.4375
-32.0,-0.024543692606170175,1.625
-32.0,0.030679615757712497,-1.625
-32.0,0.0,-1.625
-32.0,0.0,-1.625
-32.0,0.006135923151542322,-2.4375
-31.5,-0.006135923151542322,0.0
-32.0,0.018407769454627854,-2.4375
-31.5,0.018407769454627854,-4.875
-31.5,-0.018407769454627854,-2.4375
-31.5,-0.012271846303085532,-0.8125
-31.5,0.00613592315154321,-1.625
-31.0,-0.00613592315154321,-0.8125
-31.0,0.00613592315154321,-0.8125
-31.0,0.012271846303084644,-2.4375
-31.0,0.00613592315154321,-4.0625
-31.0,-0.03681553890925571,1.625
-31.0,0.024543692606170175,-4.0625
-31.0,-0.006135923151542322,-0.8125
-31.5,-0.018407769454627854,0.0
-31.0,0.012271846303084644,-1.625
-31.0,0.00613592315154321,-2.4375
-30.5,0.006135923151542322,-0.8125
-31.0,-0.006135923151542322,-1.625
-30.5,0.006135923151542322,-4.0625
-30.5,0.006135923151542322,-4.875
-30.5,-0.012271846303084644,-1.625
-30.5,-0.018407769454627854,0.8125
-30.5,0.012271846303084644,-0.8125
-30.5,-0.012271846303084644,0.8125
-30.5,0.012271846303084644,-0.8125
-30.5,-0.006135923151542322,-0.8125
-30.0,0.012271846303085532,-2.4375
-30.5,-0.024543692606170175,1.625
-30.0,0.0,0.8125
-30.5,0.012271846303084644,-1.625
-30.5,0.012271846303085532,-1.625
-30.0,-0.018407769454627854,0.0
-30.5,0.012271846303084644,-2.4375
-30.5,-0.012271846303084644,0.0
-30.5,0.012271846303084644,-1.625
-30.0,-0.018407769454626965,1.625
-30.5,0.018407769454626965,-1.625
-30.0,-0.006135923151542322,-0.8125
-30.0,0.012271846303085532,-2.4375
-30.0,-0.024543692606170175,-0.8125
-30.0,0.018407769454626965,-1.625
-30.0,0.00613592315154321,-2.4375
-30.0,-0.03681553890925571,2.4375
-30.0,0.030679615757712497,-1.625
-30.0,-0.012271846303084644,-0.8125
-30.0,0.0,0.0
-30.0,0.0,0.0
-30.0,0.012271846303084644,-2.4375
-30.0,-0.006135923151542322,-1.625
-30.0,0.012271846303085532,-4.0625
-30.0,-0.024543692606170175,0.0
-30.0,0.030679615757712497,-4.0625
-30.0,-0.018407769454627854,-1.625
-30.0,-0.012271846303084644,0.8125
-30.0,-0.00613592315154321,1.625
-30.0,-0.006135923151542322,2.4375
-30.0,0.012271846303085532,0.8125
-30.0,0.024543692606170175,-2.4375
-30.0,-0.00613592315154321,-2.4375
-30.0,-0.012271846303084644,-0.8125
-30.0,-0.006135923151542322,0.0
-29.5,0.0,0.0
-30.0,0.012271846303084644,-1.625
-29.5,-0.006135923151542322,-0.8125
-29.5,-0.006135923151542322,0.0
-30.0,0.018407769454626965,-1.625
-29.5,-0.024543692606170175,-0.8125
-29.5,-0.006135923151542322,1.625
-29.5,0.012271846303085532,0.0
-29.5,0.006135923151542322,0.0
-29.5,0.006135923151542322,-2.4375
-29.5,-0.018407769454627854,0.0
-29.5,0.00613592315154321,0.0
-29.5,-0.00613592315154321,0.0
-29.5,0.0,0.0
-29.5,0.0,0.8125
-29.5,0.0,0.0
-29.5,-0.006135923151542322,1.625
-29.0,0.012271846303085532,-1.625
-29.0,-0.012271846303085532,0.0
-29.0,-0.006135923151542322,0.8125
-29.5,0.006135923151542322,0.0
-29.0,0.0,-0.8125
-29.0,-0.012271846303084644,0.8125
-29.0,0.018407769454626965,-0.8125
-29.0,-0.018407769454626965,0.0
-29.0,0.0,0.0
-29.0,0.0,-0.8125
-29.0,-0.00613592315154321,0.8125
-29.0,0.00613592315154321,2.4375
-29.0,0.006135923151542322,-1.625
-29.0,-0.012271846303085532,1.625
-28.5,0.0,1.625
-29.0,-0.006135923151542322,1.625
-28.5,0.006135923151542322,-0.8125
-28.5,-0.006135923151542322,0.8125
-28.5,0.012271846303085532,-0.8125
-28.5,-0.018407769454627854,1.625
-28.5,0.0,0.0
-28.5,-0.024543692606170175,4.875
-28.5,0.018407769454626965,0.8125
-28.5,-0.006135923151542322,0.8125
-28.5,0.006135923151542322,1.625
-28.5,0.0,0.8125
-28.5,0.00613592315154321,-0.8125
-28.5,-0.012271846303085532,1.625
-28.5,0.0,1.625
-28.0,0.0,0.0
-28.0,0.0,0.0
-28.0,0.0,0.0
-28.0,-0.012271846303084644,0.8125
-28.0,0.006135923151542322,1.625
-28.0,0.0,0.8125
-28.0,-0.018407769454627854,2.4375
-28.0,0.0,2.4375
-27.5,0.012271846303085532,-0.8125
-28.0,-0.018407769454627854,1.625
-28.0,0.018407769454627854,-0.8125
-28.0,0.0,-0.8125
-28.0,-0.012271846303085532,0.0
-28.0,0.006135923151542322,0.0
-27.5,0.0,0.8125
-28.0,-0.012271846303084644,0.8125
-28.0,0.006135923151542322,-0.8125
-27.5,-0.006135923151542322,1.625
-27.5,-0.012271846303085532,1.625
-28.0,0.012271846303085532,1.625
-28.0,0.006135923151542322,0.0
-28.0,0.0,-0.8125
-27.5,-0.012271846303084644,1.625
-27.5,0.012271846303084644,0.8125
-28.0,0.0,0.0
-28.0,0.0,0.8125
-27.5,0.006135923151542322,-1.625
-28.0,0.0,-0.8125
-28.0,-0.012271846303084644,0.8125
-27.5,0.012271846303084644,0.8125
-27.5,-0.006135923151542322,0.8125
-27.5,0.006135923151542322,0.0
-28.0,0.0,0.0
-28.0,-0.012271846303084644,1.625
-28.0,0.0,0.0
-27.5,0.012271846303084644,-1.625
-27.5,-0.006135923151542322,0.8125
-27.5,0.006135923151542322,0.0
-27.5,0.00613592315154321,0.8125
-28.0,-0.00613592315154321,-0.8125
-27.5,-0.024543692606170175,4.0625
-28.0,0.00613592315154321,1.625
-28.0,0.018407769454626965,-1.625
-27.5,-0.018407769454626965,2.4375
-28.0,0.0,1.625
-28.0,0.006135923151542322,0.0
-27.5,0.0,1.625
-27.5,0.012271846303084644,0.0
-27.5,-0.018407769454626965,2.4375
-27.5,0.006135923151542322,0.0
-27.5,0.0,0.8125
-27.5,-0.012271846303085532,1.625
-27.5,0.00613592315154321,1.625
-27.5,0.0,0.0
-27.5,0.006135923151542322,0.0
-27.5,-0.012271846303085532,1.625
-27.5,0.012271846303085532,-0.8125
-27.5,-0.018407769454627854,1.625
-27.5,0.0,0.8125
-27.5,0.0,0.0
-27.5,0.0,0.0
-27.5,-0.006135923151542322,1.625
-27.0,-0.00613592315154321,0.8125
-27.0,0.00613592315154321,-0.8125
-27.0,-0.018407769454627854,1.625
-27.0,-0.006135923151542322,2.4375
-27.0,0.018407769454626965,-1.625
-27.0,-0.012271846303084644,0.0
-27.0,-0.024543692606170175,2.4375
-27.0,0.006135923151542322,0.8125
-27.0,0.0,-0.8125
-26.5,-0.006135923151542322,1.625
-26.5,-0.006135923151542322,1.625
-26.5,0.0,0.0
-26.5,-0.018407769454627854,2.4375
-26.5,0.006135923151542322,0.0
-26.0,-0.012271846303085532,0.8125
-26.5,-0.030679615757712497,4.875
-26.0,0.018407769454627854,-0.8125
-26.0,-0.006135923151542322,0.8125
-26.0,-0.012271846303085532,1.625
-26.0,0.0,-0.8125
-26.0,-0.006135923151542322,-0.8125
-26.0,-0.012271846303085532,2.4375
-26.0,0.006135923151542322,-0.8125
-26.0,-0.006135923151542322,0.0
-25.5,-0.0981747704246807,0.0
-25.5,-0.006135923151542322,0.8125
-25.0,0.0,2.4375
-25.0,-0.012271846303085532,4.0625
-25.0,0.006135923151542322,2.4375
-25.0,-0.012271846303084644,4.875
-25.0,0.006135923151542322,1.625
-25.0,-0.006135923151542322,2.4375
-25.0,0.006135923151542322,0.0
-25.0,-0.018407769454627854,1.625
-25.0,-0.012271846303084644,4.0625
-25.0,0.012271846303084644,1.625
-25.0,0.0,2.4375
-25.0,-0.006135923151542322,2.4375
-25.0,0.006135923151542322,1.625
-25.0,0.0,0.8125
-25.0,-0.006135923151542322,1.625
-25.5,0.0,1.625
-25.0,-0.006135923151542322,1.625
-25.0,0.006135923151542322,1.625
-25.0,-0.006135923151542322,2.4375
-25.0,-0.00613592315154321,2.4375
-25.0,0.0,2.4375
-25.0,0.012271846303085532,1.625
-25.0,0.0,0.8125
-25.0,0.0,1.625
-25.0,-0.012271846303085532,2.4375
-25.0,0.018407769454627854,0.8125
-25.0,-0.018407769454627854,4.0625
-25.0,0.0,2.4375
-25.0,0.012271846303085532,0.0
-25.0,0.0,0.8125
-25.0,-0.012271846303085532,0.0
-25.0,-0.006135923151542322,4.0625
-25.0,0.0,4.0625
-25.0,0.0,2.4375
-25.0,0.0,2.4375
-25.0,0.012271846303085532,0.8125
-25.0,0.006135923151542322,0.0
-25.0,-0.012271846303085532,1.625
-25.0,0.0,0.8125
-25.0,0.0,1.625
-25.0,0.00613592315154321,0.8125
-25.0,-0.00613592315154321,2.4375
-25.0,-0.012271846303084644,1.625
-25.0,0.006135923151542322,1.625
-25.0,0.0,0.0
-25.0,-0.006135923151542322,4.0625
-25.0,0.006135923151542322,2.4375
-25.0,-0.006135923151542322,2.4375
-25.0,0.0,1.625
-25.0,-0.006135923151542322,4.0625
-24.5,0.012271846303084644,1.625
-25.0,-0.012271846303084644,2.4375
-25.0,-0.012271846303085532,4.875
-25.0,0.006135923151542322,1.625
-25.0,-0.006135923151542322,2.4375
-24.5,-0.006135923151542322,4.875
-24.5,-0.00613592315154321,5.6875
-24.5,0.00613592315154321,2.4375
-24.5,0.006135923151542322,1.625
-24.5,-0.006135923151542322,2.4375
-24.5,-0.00613592315154321,2.4375
-24.5,-0.006135923151542322,4.875
-25.0,-0.006135923151542322,2.4375
-24.5,0.0,4.0625
-24.5,0.0,5.6875
-24.5,0.0,0.8125
-25.0,0.0,1.625
-25.0,0.0,1.625
-25.0,-0.012271846303085532,4.0625
-24.5,0.00613592315154321,0.0
-24.5,0.0,0.8125
-24.5,-0.00613592315154321,5.6875
-24.5,-0.012271846303084644,6.5
-24.5,0.006135923151542322,0.0
-24.5,-0.006135923151542322,4.875
-24.5,0.006135923151542322,2.4375
-24.5,-0.006135923151542322,0.8125
-24.5,0.006135923151542322,2.4375
-24.5,-0.012271846303084644,4.0625
-24.5,-0.00613592315154321,4.875
-24.5,-0.006135923151542322,4.875
-24.5,0.012271846303085532,0.8125
-24.5,-0.018407769454627854,4.875
-24.5,-0.00613592315154321,4.875
-24.5,-0.006135923151542322,5.6875
-25.0,0.006135923151542322,0.8125
-24.5,-0.006135923151542322,1.625
-24.5,-0.018407769454627854,4.0625
-24.5,-0.006135923151542322,4.875
-24.5,0.0,4.0625
-24.5,-0.006135923151542322,4.0625
-24.5,0.0,2.4375
-24.5,-0.018407769454627854,4.0625
-24.5,-0.006135923151542766,4.0625
-24.5,-0.006135923151542322,2.4375
-24.5,-0.012271846303085088,4.0625
-24.5,0.0,4.0625
-24.5,-0.012271846303085088,4.875
-24.5,-0.006135923151542766,4.0625
-24.5,-0.01840776945462741,6.5
-24.5,0.006135923151542322,4.0625
-24.5,-0.012271846303085088,4.0625
-24.5,0.0,4.0625
-24.5,0.0,2.4375
-24.5,-0.024543692606170175,4.875
-24.5,0.0,4.0625
-24.5,0.0,0.0
-24.5,-0.024543692606170175,2.4375
-24.5,0.006135923151542322,4.0625
-24.0,-0.024543692606170175,5.6875
-24.5,0.006135923151542766,4.0625
-24.5,-0.012271846303085532,4.875
-24.5,0.0,4.0625
-24.5,-0.006135923151542322,4.875
-24.5,-0.012271846303085088,4.875
-24.0,-0.018407769454627854,5.6875
-24.0,0.006135923151542766,5.6875
-24.0,0.006135923151542322,4.0625
-24.5,-0.03681553890925526,7.3125
-24.5,0.0,7.3125
-24.5,0.0,6.5
-24.0,-0.006135923151542766,4.875
-24.0,-0.012271846303085088,7.3125
-24.0,0.018407769454627854,4.875
-24.0,-0.024543692606170175,7.3125
-24.0,0.006135923151542322,2.4375
-24.0,-0.024543692606170175,8.125
-24.0,0.012271846303085088,5.6875
-24.0,-0.006135923151542322,4.875
-24.0,-0.012271846303085088,5.6875
-23.5,-0.006135923151542766,5.6875
-24.0,-0.006135923151542766,5.6875
-24.0,-0.012271846303085088,5.6875
-24.0,0.0,4.875
-23.5,-0.012271846303085088,4.875
-23.5,-0.012271846303085088,7.3125
-23.5,-0.006135923151542322,5.6875
-23.5,-0.006135923151542766,4.875
-24.0,-0.018407769454627854,5.6875
-24.0,-0.012271846303085088,6.5
-24.0,0.0,5.6875
-24.0,0.006135923151542766,5.6875
-24.0,0.0,4.0625
-24.0,-0.024543692606170175,4.0625
-24.0,-0.012271846303085088,6.5
-23.5,0.0,4.875
-23.5,-0.018407769454627854,6.5
-23.5,0.0,4.875
-23.5,-0.012271846303085088,5.6875
-23.5,-0.012271846303085088,6.5
-23.5,-0.012271846303085088,5.6875
-23.5,-0.006135923151542766,5.6875
-23.5,-0.006135923151542322,6.5
-23.5,-0.018407769454627854,5.6875
-23.5,-0.006135923151542766,4.875
-23.5,0.0,4.875
-23.0,-0.030679615757712497,6.5
-23.5,0.006135923151542322,4.0625
-23.5,-0.012271846303085088,4.0625
-23.5,-0.012271846303085088,2.4375
-23.5,-0.024543692606170175,6.5
-23.0,0.0,4.0625
-23.5,-0.012271846303085088,2.4375
-23.0,-0.024543692606170175,4.875
-23.0,-0.006135923151542766,2.4375
-23.5,-0.018407769454627854,4.0625
-23.0,-0.01840776945462741,4.875
-23.5,-0.006135923151542766,2.4375
-23.5,-0.024543692606170175,4.875
-23.5,-0.018407769454627854,4.0625
-23.5,-0.012271846303085088,4.875
-23.5,0.0,2.4375
-23.5,-0.024543692606170175,6.5
-23.5,0.006135923151542766,1.625
-23.5,-0.02454369260617062,2.4375
-23.5,-0.012271846303085088,2.4375
-23.5,0.0,1.625
-23.5,-0.024543692606170175,5.6875
-23.5,-0.006135923151542322,4.875
-23.5,-0.006135923151542766,1.625
-23.5,0.0,2.4375
-23.5,-0.024543692606170175,2.4375
-24.0,0.006135923151542322,0.8125
-24.0,-0.01840776945462741,2.4375
-24.0,-0.012271846303085088,2.4375
-24.0,-0.006135923151542766,0.8125
-24.0,-0.012271846303085088,1.625
-24.0,-0.018407769454627854,4.0625
-24.0,0.0,1.625
-24.0,-0.012271846303085088,-0.8125
-24.0,-0.03681553890925526,6.5
-24.0,0.03067961575771294,-1.625
-24.0,-0.024543692606170175,0.0
-24.0,-0.012271846303085088,0.0
-24.0,-0.006135923151542766,-1.625
-24.0,-0.018407769454627854,-0.8125
-24.0,-0.01840776945462741,0.0
-24.0,-0.03067961575771294,1.625
-23.5,-0.012271846303085088,2.4375
-24.0,-0.012271846303085088,4.0625
-23.5,-0.006135923151542766,1.625
-24.0,-0.024543692606170175,4.875
-24.0,0.006135923151542766,2.4375
-24.0,-0.012271846303085532,2.4375
-24.0,-0.012271846303085088,4.0625
-24.0,-0.012271846303085088,4.0625
-23.5,-0.006135923151542322,4.0625
-23.5,0.0,1.625
-24.0,-0.012271846303085088,4.0625
-23.5,0.0,0.8125
-23.5,-0.006135923151542766,0.8125
-24.0,0.0,0.0
-23.5,-0.024543692606170175,1.625
-24.0,-0.04295146206079803,6.5
-24.0,0.024543692606170175,0.8125
-23.5,-0.012271846303085088,0.8125
-24.0,-0.03067961575771294,5.6875
-24.0,0.0,4.0625
-24.0,0.006135923151542766,0.8125
-24.0,-0.024543692606170175,2.4375
-24.0,-0.006135923151542766,2.4375
-24.0,0.006135923151542766,0.8125
-24.0,-0.018407769454627854,1.625
-24.0,-0.006135923151542322,1.625
-24.0,-0.012271846303085088,2.4375
-24.0,-0.006135923151542766,2.4375
-24.0,-0.006135923151542766,1.625
-24.0,-0.012271846303085088,2.4375
-24.0,0.006135923151542766,0.8125
-24.0,-0.024543692606170175,0.8125
-24.5,-0.012271846303085088,4.0625
-24.0,0.012271846303085088,-0.8125
-24.5,-0.018407769454627854,0.0
-24.5,-0.012271846303085088,1.625
-24.5,-0.006135923151542766,1.625
-24.0,0.0,0.0
-24.5,-0.012271846303085088,0.8125
-24.5,-0.006135923151542322,0.0
-24.5,0.0,0.0
-24.5,-0.018407769454627854,0.8125
-24.0,0.018407769454627854,-1.625
-24.5,-0.018407769454627854,-1.625
-24.5,-0.024543692606170175,1.625
-24.5,-0.012271846303085088,4.0625
-24.5,-0.006135923151542766,2.4375
-24.5,0.006135923151542766,0.0
-24.5,-0.006135923151542766,0.8125
-24.5,-0.01840776945462741,1.625
-24.5,0.0,0.8125
-24.5,-0.006135923151542766,-0.8125
-24.5,-0.012271846303085088,0.8125
-24.5,0.0,-0.8125
-24.5,-0.012271846303085088,0.0
-25.0,0.0,0.0
-24.5,-0.012271846303085088,0.0
-25.0,0.0,-0.8125
-25.0,-0.024543692606170175,2.4375
-25.0,0.01840776945462741,-2.4375
-24.5,-0.006135923151542322,-0.8125
-25.0,-0.006135923151542766,-0.8125
-25.0,0.0,-1.625
-25.0,-0.012271846303085088,-1.625
-25.0,-0.012271846303085088,1.625
-25.0,0.0,0.8125
-25.0,0.018407769454627854,-2.4375
-25.0,-0.012271846303085088,-2.4375
-25.0,-0.02454369260617062,0.8125
-25.0,0.012271846303085088,-1.625
-25.0,0.0,-1.625
-25.0,0.006135923151542766,-4.0625
-25.0,-0.018407769454627854,-1.625
-25.0,0.0,-1.625
-25.0,0.006135923151542766,-4.0625
-25.0,-0.018407769454627854,0.0
-25.0,0.006135923151542766,-2.4375
-25.0,-0.006135923151542766,-1.625
-25.5,-0.012271846303085088,-0.8125
-25.0,0.0,-0.8125
-25.5,-0.012271846303085088,0.0
-25.5,-0.006135923151542322,0.8125
-25.0,0.012271846303085088,-1.625
-25.0,0.0,-1.625
-25.0,-0.006135923151542766,-2.4375
-25.0,-0.012271846303085088,-0.8125
-25.5,0.0,-0.8125
-25.5,-0.012271846303085088,-0.8125
-25.5,0.0,-0.8125
-25.5,0.012271846303085088,-1.625
-25.5,-0.012271846303085088,-1.625
-25.5,0.0,-2.4375
-25.5,0.0,-4.875
-25.5,-0.006135923151542766,-4.0625
-25.5,-0.006135923151542322,-1.625
-25.5,-0.018407769454627854,0.0
-25.5,0.012271846303085088,-2.4375
-26.0,-0.012271846303085088,-2.4375
-26.0,-0.012271846303085088,0.0
-26.0,0.0,-1.625
-25.5,0.006135923151542766,-4.0625
-25.5,-0.018407769454627854,-2.4375
-26.0,0.0,-2.4375
-26.0,0.0,-4.875
-26.0,-0.006135923151542766,-2.4375
-26.0,0.006135923151542766,0.8125
-26.0,-0.018407769454627854,-4.0625
-26.0,0.012271846303085088,-4.875
-26.0,0.0,-6.5
-26.0,-0.012271846303085088,-5.6875
-26.0,-0.012271846303085088,-2.4375
-26.0,-0.012271846303085088,-1.625
-26.0,0.006135923151542766,-4.0625
-26.0,-0.006135923151542766,-2.4375
-26.0,-0.01840776945462741,0.0
-26.0,0.01840776945462741,-4.875
-26.0,-0.006135923151542322,-4.0625
-26.0,-0.012271846303085088,-2.4375
-26.0,0.006135923151542322,-4.0625
-26.0,-0.006135923151542322,-4.0625
-26.0,-0.006135923151542766,-2.4375
-26.0,0.006135923151542766,-4.0625
-26.0,-0.006135923151542766,-1.625
-26.0,0.0,-4.0625
-26.0,-0.012271846303085088,-1.625
-26.0,-0.024543692606170175,0.8125
-26.0,0.012271846303085088,-1.625
-26.0,0.006135923151542322,-2.4375
-26.5,0.0,-2.4375
-26.0,-0.012271846303085088,-1.625
-26.0,0.0,-0.8125
-26.0,0.006135923151542766,-2.4375
-26.0,0.006135923151542322,-4.875
-26.0,-0.012271846303085088,-1.625
-26.0,0.0,-2.4375
-26.0,0.012271846303085088,-4.875
-26.0,-0.006135923151542322,-4.875
-26.5,0.0,-2.4375
-26.0,-0.006135923151542766,-2.4375
-26.0,-0.006135923151542322,-4.0625
-26.0,0.0,-2.4375
-26.0,0.0,-4.0625
-26.0,-0.024543692606170175,-0.8125
-26.0,0.024543692606170175,-4.0625
-26.0,-0.03681553890925571,0.8125
-26.5,0.006135923151542766,-1.625
-26.0,-0.012271846303085088,0.8125
-26.0,0.006135923151542322,-0.8125
-26.0,-0.006135923151542322,-0.8125
-26.0,-0.006135923151542766,-0.8125
-26.0,0.0,-0.8125
-26.0,-0.012271846303085088,0.0
-26.0,0.0,0.0
-26.5,-0.012271846303085088,0.8125
-26.0,0.006135923151542766,0.8125
-26.0,0.0,-0.8125
-26.0,0.006135923151542322,-2.4375
-26.0,-0.006135923151542322,-1.625
-26.5,-0.006135923151542766,-2.4375
-26.0,0.0,-0.8125
-26.5,-0.018407769454627854,-0.8125
-26.0,0.0,-0.8125
-26.5,-0.006135923151542322,0.0
-26.5,-0.006135923151542766,0.8125
-26.0,0.012271846303085088,-1.625
-26.0,-0.01840776945462741,0.0
-26.0,-0.006135923151542766,4.0625
-26.5,0.0,0.0
-26.5,0.012271846303085088,-0.8125
-26.0,-0.012271846303085088,-0.8125
-26.0,0.006135923151542766,-2.4375
-26.5,-0.012271846303085088,0.0
-26.0,-0.012271846303085088,0.0
-26.5,-0.006135923151542766,1.625
-26.5,0.018407769454627854,-2.4375
-26.0,-0.012271846303085088,-0.8125
-26.0,-0.012271846303085088,0.8125
-26.5,0.012271846303085088,-1.625
-26.0,-0.012271846303085088,-0.8125
-26.5,0.0,-0.8125
-26.0,0.0,-1.625
-26.0,0.0,-0.8125
-26.0,-0.006135923151542766,-0.8125
-26.5,0.0,-1.625
-26.5,0.006135923151542766,-1.625
-26.5,-0.018407769454627854,-0.8125
-26.5,0.0,0.0
-26.5,0.0,0.0
-26.5,-0.006135923151542766,-0.8125
-26.5,0.0,0.0
-26.5,0.006135923151542766,-0.8125
-26.5,-0.006135923151542766,-0.8125
-26.0,0.006135923151542766,-1.625
-26.0,0.0,-0.8125
-26.5,-0.012271846303085088,0.0
-26.5,0.0,0.0
-26.5,-0.006135923151542766,0.8125
-26.5,0.006135923151542766,-0.8125
-26.0,0.0,-0.8125
-26.5,0.006135923151542322,-1.625
-26.5,-0.006135923151542322,-0.8125
-26.5,-0.006135923151542766,0.0
-26.5,0.0,0.0
-26.5,-0.006135923151542322,0.0
-26.5,-0.006135923151542766,0.8125
-26.5,0.012271846303085088,0.0
-26.5,-0.006135923151542322,0.0
-26.5,0.012271846303085088,-1.625
-26.5,-0.012271846303085088,0.0
-26.5,0.0,0.0
-26.5,0.0,0.0
-26.5,0.0,0.0
-26.5,0.012271846303085088,-0.8125
-26.5,-0.012271846303085088,0.0
-26.5,0.0,0.0
-26.5,0.0,-0.8125
-26.5,0.012271846303085088,-1.625
-26.5,-0.012271846303085088,0.0
-26.5,0.012271846303085088,-1.625
-26.5,-0.012271846303085088,0.0
-26.5,-0.006135923151542766,0.0
-26.5,0.0,0.0
-26.5,0.018407769454627854,-2.4375
-26.5,-0.024543692606170175,0.8125
-26.5,0.012271846303085088,-0.8125
-26.5,0.0,-1.625
-26.5,-0.006135923151542766,0.8125
-26.5,-0.006135923151542322,-0.8125
-26.5,0.012271846303085088,-1.625
-26.5,-0.012271846303085088,-0.8125
-26.5,-0.006135923151542766,0.8125
-26.5,0.0,0.0
-26.5,0.012271846303085088,-2.4375
-26.5,-0.012271846303085088,0.0
-26.5,0.012271846303085088,-0.8125
-26.5,-0.012271846303085088,1.625
-26.5,0.0,0.8125
-26.5,0.018407769454627854,-1.625
-26.5,-0.012271846303085088,0.0
-26.5,0.006135923151542322,-1.625
-26.5,-0.006135923151542322,0.0
-26.5,0.0,-0.8125
-26.5,0.0,-0.8125
-26.5,0.006135923151542322,0.0
-26.5,-0.012271846303085088,1.625
-26.5,0.006135923151542766,0.0
-26.5,0.006135923151542322,-0.8125
-26.5,-0.006135923151542322,0.0
-26.5,-0.006135923151542766,0.8125
-26.5,0.0,0.8125
-26.5,0.012271846303085088,1.625
-26.5,0.0,-0.8125
-26.5,-0.006135923151542322,0.0
-26.5,0.012271846303085088,-0.8125
-26.5,0.0,-0.8125
-26.5,-0.012271846303085088,0.0
-26.5,0.01840776945462741,-0.8125
-26.5,0.006135923151542766,-1.625
-26.5,0.0,-1.625
-26.5,0.0,-1.625
-26.5,-0.006135923151542766,0.0
-26.5,0.006135923151542766,-0.8125
-26.5,-0.006135923151542766,0.8125
-26.5,0.0,1.625
-26.5,0.012271846303085088,-0.8125
-26.5,0.006135923151542766,-0.8125
-26.5,0.006135923151542322,-0.8125
-26.5,-0.012271846303085088,1.625
-26.5,0.018407769454627854,-0.8125
-26.5,0.0,0.0
-26.5,0.0,-0.8125
-26.5,0.0,0.0
-26.5,0.0,-0.8125
-26.5,0.006135923151542766,0.8125
-26.5,0.006135923151542322,-0.8125
-26.5,0.012271846303085088,-1.625
-26.5,0.006135923151542766,-1.625
-26.5,-0.012271846303085088,0.0
-27.0,0.006135923151542322,2.4375
-26.5,0.024543692606170175,-4.0625
-26.5,0.0,-1.625
-26.5,-0.012271846303085088,0.0
-27.0,0.006135923151542766,2.4375
-26.5,0.006135923151542322,0.0
-26.5,0.006135923151542766,0.0
-26.5,0.012271846303085088,-1.625
-26.5,0.006135923151542766,-0.8125
-26.5,-0.006135923151542766,0.0
-26.5,0.006135923151542766,0.0
-26.5,0.006135923151542322,-0.8125
-26.5,0.006135923151542766,-0.8125
-26.5,0.006135923151542322,-0.8125
-26.5,-0.006135923151542322,-0.8125
-26.5,0.0,0.0
-26.5,0.006135923151542322,-0.8125
-26.5,0.012271846303085088,-1.625
-26.5,-0.01840776945462741,0.0
-26.5,0.006135923151542322,0.0
-26.5,0.0,-0.8125
-26.5,0.0,-0.8125
-26.5,-0.006135923151542322,0.8125
-27.0,0.012271846303085088,-0.8125
-26.5,0.012271846303085088,-2.4375
-26.5,-0.018407769454627854,0.8125
-26.5,0.006135923151542766,0.0
-26.5,0.006135923151542322,0.0
-26.5,0.0,0.0
-26.5,0.0,0.0
-26.5,0.006135923151542766,0.8125
-26.5,0.0,-0.8125
-26.5,0.006135923151542322,-0.8125
-26.5,-0.006135923151542322,0.0
-26.5,0.0,1.625
-26.5,0.04295146206079803,-4.875
-26.5,-0.03067961575771294,0.0
-26.5,0.0,0.8125
-26.5,0.012271846303085088,-0.8125
-26.5,0.024543692606170175,-4.0625
-26.5,0.0,-4.0625
-26.5,0.006135923151542766,-4.0625
-26.5,-0.006135923151542766,-2.4375
-26.5,0.006135923151542766,-0.8125
-26.5,0.006135923151542322,-2.4375
-26.5,-0.012271846303085088,0.0
-26.5,0.03067961575771294,-2.4375
-26.5,0.012271846303085088,-4.875
-26.5,0.0,-4.875
-26.5,-0.006135923151542322,-2.4375
-26.5,0.012271846303085088,-2.4375
-26.5,0.01840776945462741,-4.875
-26.5,-0.006135923151542322,-2.4375
-26.5,0.024543692606170175,-5.6875
-26.5,-0.012271846303085088,-1.625
-26.5,0.024543692606170175,-2.4375
-26.0,0.018407769454627854,-4.875
-26.0,0.012271846303085088,-5.6875
-26.0,-0.012271846303085088,-1.625
-26.0,0.006135923151542322,-1.625
-26.0,0.03067961575771294,-5.6875
-26.0,-0.012271846303085088,0.0
-26.0,0.012271846303085088,-0.8125
-26.0,0.03067961575771294,-1.625
-25.5,0.0,0.0
-24.5,0.23930100291015988,1.625
-24.5,0.03681553890925526,0.0
-24.5,0.03681553890925571,-0.8125
-24.0,0.0,4.875
-24.0,0.030679615757712497,5.6875
-24.0,0.04295146206079803,4.875
-24.0,0.04908738521234035,2.4375
-24.0,0.03681553890925571,1.625
-24.0,0.03681553890925526,0.8125
-24.0,0.012271846303085088,5.6875
-24.0,0.04295146206079803,1.625
-24.0,0.03067961575771294,-0.8125
-24.5,0.01840776945462741,-1.625
-24.0,-0.012271846303085088,0.0
-24.0,0.012271846303085088,-0.8125
-24.0,-0.012271846303085088,1.625
-24.0,0.018407769454627854,-2.4375
-24.0,0.0,-0.8125
-24.0,0.018407769454627854,-2.4375
-24.0,0.006135923151542322,-1.625
-24.0,0.018407769454627854,-4.0625
-24.0,0.0,-1.625
-24.0,-0.006135923151542766,4.0625
-24.0,0.03681553890925526,0.8125
-24.0,0.012271846303085532,1.625
-24.0,0.024543692606170175,0.8125
-24.0,0.01840776945462741,0.8125
-23.5,0.0,1.625
-23.5,0.03067961575771294,0.0
-23.5,0.012271846303085088,0.8125
-23.5,0.03067961575771294,1.625
-23.5,0.024543692606170175,1.625
-23.5,0.018407769454627854,2.4375
-23.5,0.012271846303085088,2.4375
-23.5,0.012271846303085088,2.4375
-23.5,0.006135923151542766,2.4375
-23.0,0.0,2.4375
-23.5,0.03681553890925526,4.0625
-23.0,0.03681553890925526,4.0625
-23.0,0.06135923151542588,2.4375
-22.5,0.05522330836388267,5.6875
-23.0,0.07363107781851097,4.0625
-22.5,0.07363107781851097,1.625
-23.0,0.05522330836388267,2.4375
-23.0,0.04295146206079803,1.625
-23.0,0.03681553890925571,2.4375
-23.0,0.030679615757712497,2.4375
-23.0,0.018407769454627854,0.8125
-23.0,0.006135923151542766,1.625
-23.0,0.01840776945462741,-0.8125
-23.0,0.006135923151542766,0.0
-23.0,-0.012271846303085088,1.625
-23.5,-0.006135923151542766,0.8125
-23.0,-0.03067961575771294,4.0625
-23.0,0.006135923151542766,0.8125
-23.0,-0.018407769454627854,1.625
-23.0,-0.006135923151542322,0.0
-23.0,-0.006135923151542766,-0.8125
-23.0,-0.03681553890925526,2.4375
-23.0,-0.006135923151542766,1.625
-23.0,-0.01840776945462741,2.4375
-23.0,-0.018407769454627854,2.4375
-23.0,-0.012271846303085088,2.4375
-23.0,-0.024543692606170175,1.625
-23.0,-0.018407769454627854,1.625
-23.0,-0.024543692606170175,2.4375
-22.5,-0.018407769454627854,2.4375
-22.5,-0.024543692606170175,4.0625
-23.0,-0.006135923151542322,2.4375
-23.0,0.006135923151542322,0.0
-23.0,-0.018407769454627854,4.0625
-23.0,0.018407769454627854,0.8125
-23.0,0.0,0.8125
-22.5,0.006135923151542766,1.625
-22.5,-0.006135923151542766,0.8125
-23.0,-0.006135923151542322,4.875
-23.0,0.0,2.4375
-23.0,0.0,2.4375
-23.0,0.006135923151542322,1.625
-23.0,0.0,-0.8125
-23.0,-0.024543692606170175,1.625
-23.0,0.012271846303085088,0.8125
-22.5,-0.018407769454627854,1.625
-23.0,-0.006135923151542322,0.8125
-23.0,-0.018407769454627854,4.0625
-23.0,-0.012271846303085088,4.0625
-23.0,0.006135923151542766,0.8125
-23.0,-0.006135923151542766,0.8125
-23.0,-0.018407769454627854,1.625
-23.0,-0.012271846303085088,4.0625
-23.0,0.006135923151542766,0.0
-23.0,-0.024543692606170175,0.0
-23.0,-0.03681553890925571,2.4375
-23.0,-0.012271846303085088,1.625
-23.0,-0.012271846303085088,0.8125
-23.0,-0.01840776945462741,4.0625
-23.5,0.0,4.0625
-23.0,0.0,1.625
-23.0,-0.006135923151542766,1.625
-23.0,-0.006135923151542322,4.0625
-23.0,-0.006135923151542766,4.875
-23.0,0.0,4.0625
-23.5,0.006135923151542766,4.0625
-23.0,0.0,2.4375
-23.0,0.0,0.8125
-23.0,-0.012271846303085532,2.4375
-23.0,0.0,2.4375
-23.0,-0.006135923151542322,1.625
-23.5,-0.012271846303085088,4.0625
-23.5,0.0,1.625
-23.0,-0.012271846303085088,4.0625
-23.0,0.0,1.625
-23.5,0.0,2.4375
-23.5,-0.006135923151542766,1.625
-23.5,-0.006135923151542322,4.0625
-23.0,-0.012271846303085088,4.0625
-23.5,0.006135923151542322,4.0625
-23.5,0.006135923151542766,2.4375
-23.0,-0.006135923151542766,1.625
-23.5,0.006135923151542766,1.625
-23.5,0.006135923151542322,0.8125
-23.5,-0.006135923151542322,1.625
-23.5,-0.006135923151542766,2.4375
-23.5,0.006135923151542766,1.625
-23.5,0.012271846303085088,0.8125
-23.5,0.0,1.625
-23.0,0.006135923151542322,0.8125
-23.5,0.0,2.4375
-23.0,0.0,2.4375
-23.5,0.006135923151542766,2.4375
-23.5,0.0,2.4375
-23.0,0.0,0.0
-23.5,0.006135923151542322,0.0
-23.5,-0.012271846303085088,2.4375
-23.0,0.0,0.8125
-23.5,-0.006135923151542322,1.625
-23.5,-0.012271846303085088,2.4375
-23.5,0.0,1.625
-23.5,0.0,0.0
-23.5,-0.012271846303085088,2.4375
-23.0,-0.006135923151542766,1.625
-23.5,-0.006135923151542766,1.625
-23.5,-0.012271846303085088,2.4375
-23.5,0.018407769454627854,0.0
-23.5,-0.018407769454627854,2.4375
-23.5,0.006135923151542766,0.8125
-23.5,0.0,0.8125
-24.0,0.0,0.0
-23.5,-0.006135923151542766,0.8125
-23.5,0.0,0.8125
-23.5,-0.006135923151542322,0.8125
-23.5,0.006135923151542322,0.0
-23.5,0.0,1.625
-23.5,-0.012271846303085088,1.625
-23.5,0.0,1.625
-23.5,0.012271846303085088,-0.8125
-23.5,-0.01840776945462741,2.4375
-23.5,-0.012271846303085088,4.0625
-23.5,0.012271846303085088,1.625
-23.5,0.0,1.625
-23.5,0.006135923151542322,0.8125
-23.5,-0.006135923151542322,2.4375
-23.5,0.0,0.8125
-23.5,-0.006135923151542766,1.625
-23.5,0.0,1.625
-24.0,-0.012271846303085088,4.875
-23.5,0.012271846303085088,1.625
-23.5,0.0,0.8125
-23.5,0.012271846303085088,-0.8125
-23.5,-0.006135923151542322,1.625
-23.5,0.0,1.625
-23.5,0.0,0.8125
-23.5,0.01840776945462741,-0.8125
-23.5,-0.024543692606170175,2.4375
-23.5,0.006135923151542766,1.625
-23.5,0.006135923151542322,0.0
-23.5,-0.01840776945462741,1.625
-23.5,0.006135923151542322,0.8125
-23.5,-0.006135923151542322,0.8125
-23.5,0.0,2.4375
-23.5,-0.018407769454627854,4.875
-23.5,0.006135923151542322,0.8125
-23.5,0.0,1.625
-23.5,0.012271846303085532,-0.8125
-23.5,-0.012271846303085532,0.8125
-23.5,0.0,1.625
-23.5,0.0,0.8125
-23.5,0.0,0.8125
-23.5,0.006135923151542766,0.0
-23.5,-0.012271846303085088,1.625
-23.5,0.006135923151542322,0.0
-24.0,-0.006135923151542322,0.8125
-23.5,-0.018407769454627854,2.4375
-23.5,0.006135923151542766,0.8125
-24.0,-0.012271846303085088,2.4375
-24.0,0.006135923151542322,0.8125
-23.5,-0.012271846303085088,1.625
-24.0,-0.006135923151542322,1.625
-24.0,0.01840776945462741,-0.8125
-24.0,-0.024543692606170175,2.4375
-24.0,-0.006135923151542322,4.0625
-24.0,0.012271846303085088,0.8125
-24.0,0.0,1.625
-24.0,0.0,0.8125
-24.0,-0.012271846303085088,2.4375
-24.0,0.012271846303085088,0.8125
-24.0,-0.012271846303085088,4.0625
-24.0,0.012271846303085088,0.8125
-24.0,0.0,0.8125
-24.0,0.0,0.8125
-24.0,-0.012271846303085088,1.625
-24.0,0.0,1.625
-24.0,0.006135923151542322,0.8125
-24.0,-0.012271846303085088,1.625
-24.0,0.012271846303085088,0.8125
-24.0,-0.018407769454627854,2.4375
-24.0,0.012271846303085532,0.8125
-24.0,0.0,0.8125
-24.0,0.0,1.625
-24.0,-0.018407769454627854,4.0625
-24.0,0.006135923151542322,2.4375
-24.0,0.0,2.4375
-24.0,0.012271846303085532,0.8125
-24.0,0.01840776945462741,-1.625
-24.0,-0.024543692606170175,2.4375
-24.0,0.012271846303085088,0.0
-24.0,0.0,0.0
-24.0,-0.018407769454627854,4.0625
-24.0,0.0,1.625
-24.0,-0.006135923151542322,4.875
-24.0,0.012271846303085088,0.8125
-24.0,0.006135923151542766,0.0
-24.0,0.0,-0.8125
-24.0,-0.02454369260617062,2.4375
-24.0,0.012271846303085088,1.625
-24.0,-0.006135923151542322,1.625
-24.0,0.012271846303085088,-1.625
-24.0,-0.024543692606170175,0.8125
-24.0,0.006135923151542322,1.625
-24.0,0.0,2.4375
-24.0,0.0,0.0
-24.0,-0.012271846303085088,2.4375
-24.0,0.012271846303085088,-0.8125
-24.0,0.0,-0.8125
-24.0,-0.01840776945462741,4.0625
-24.0,0.012271846303085088,0.0
-24.0,0.006135923151542322,-1.625
-24.0,-0.01840776945462741,1.625
-24.0,0.0,0.8125
-24.0,0.006135923151542322,-0.8125
-24.0,0.0,0.0
-24.0,0.006135923151542766,-0.8125
-24.0,-0.006135923151542766,0.0
-24.0,-0.012271846303085088,2.4375
-24.0,0.024543692606170175,0.0
-24.0,0.006135923151542766,0.8125
-24.0,-0.012271846303085088,1.625
-24.0,0.024543692606170175,-0.8125
-24.0,-0.012271846303085088,0.8125
-24.0,-0.006135923151542766,4.0625
-24.0,0.02454369260617062,0.0
-24.0,0.006135923151542322,0.0
-24.0,0.012271846303085088,-1.625
-24.0,-0.012271846303085088,0.8125
-24.0,0.006135923151542766,1.625
-24.0,-0.012271846303085088,1.625
-24.0,0.006135923151542322,2.4375
-24.0,0.018407769454627854,-0.8125
-24.0,-0.006135923151542766,0.0
-24.0,-0.006135923151542322,1.625
-24.0,0.0,1.625
-24.0,0.01840776945462741,-0.8125
-23.5,-0.006135923151542322,0.0
-24.0,0.0,0.8125
-24.0,-0.006135923151542766,2.4375
-24.0,0.006135923151542766,0.8125
-24.0,-0.012271846303085088,2.4375
-24.0,0.006135923151542322,1.625
-24.0,-0.006135923151542322,0.8125
-24.0,-0.012271846303085088,2.4375
-24.0,0.012271846303085088,0.8125
-24.0,0.0,0.0
-24.0,-0.02454369260617062,4.0625
-24.0,0.02454369260617062,-0.8125
-24.0,-0.018407769454627854,1.625
-24.0,0.006135923151542766,0.8125
-24.0,0.006135923151542322,0.8125
-24.0,0.0,0.8125
-24.0,-0.006135923151542322,0.8125
-24.0,0.012271846303085088,0.0
-24.0,-0.012271846303085088,4.0625
-24.0,0.01840776945462741,0.8125
-24.0,-0.006135923151542322,1.625
-24.0,0.0,2.4375
-24.0,0.006135923151542322,0.8125
-24.0,0.006135923151542766,0.0
-24.0,-0.018407769454627854,2.4375
-24.0,0.018407769454627854,0.8125
-24.0,-0.012271846303085088,4.0625
-24.0,0.024543692606170175,-0.8125
-24.0,0.0,0.8125
-24.0,0.0,1.625
-24.0,-0.006135923151542766,2.4375
-24.0,0.012271846303085088,1.625
-23.5,-0.006135923151542322,2.4375
-24.0,0.01840776945462741,0.0
-24.0,-0.006135923151542322,1.625
-23.5,0.006135923151542322,1.625
-23.5,0.0,0.8125
-24.0,0.0,1.625
-23.5,-0.006135923151542322,0.8125
-24.0,0.006135923151542322,0.8125
-24.0,0.006135923151542766,0.8125
-23.5,-0.018407769454627854,1.625
-24.0,0.012271846303085088,-0.8125
-24.0,-0.012271846303085088,1.625
-24.0,-0.012271846303085088,2.4375
-24.0,0.006135923151542766,0.8125
-24.0,-0.006135923151542766,2.4375
-24.0,-0.006135923151542322,2.4375
-23.5,-0.006135923151542766,4.0625
-24.0,0.006135923151542766,2.4375
-24.0,-0.006135923151542766,1.625
-24.0,0.006135923151542766,0.0
-24.0,0.006135923151542322,0.8125
-24.0,0.006135923151542766,0.8125
-24.0,0.0,1.625
-23.5,0.0,0.8125
-24.0,0.0,0.0
-24.0,0.0,1.625
-24.0,0.0,-0.8125
-24.0,-0.012271846303085088,1.625
-24.0,0.0,2.4375
-24.0,-0.006135923151542766,2.4375
-24.0,-0.006135923151542322,2.4375
-24.0,0.0,2.4375
-24.0,0.006135923151542322,1.625
-24.0,0.018407769454627854,-1.625
-24.0,-0.018407769454627854,1.625
-24.0,-0.012271846303085088,4.0625
-23.5,0.024543692606170175,0.0
-24.0,-0.006135923151542322,0.0
-24.0,0.0,0.8125
-24.0,-0.012271846303085088,2.4375
-24.0,0.006135923151542322,0.8125
-24.0,-0.012271846303085088,4.0625
-24.0,0.012271846303085088,1.625
-24.0,0.018407769454627854,-1.625
-24.0,-0.03067961575771294,2.4375
-24.0,0.006135923151542766,1.625
-24.0,0.0,1.625
-24.0,0.012271846303085088,0.0
-24.0,-0.006135923151542766,0.8125
-24.0,-0.012271846303085088,2.4375
-24.0,0.0,2.4375
-24.0,0.018407769454627854,0.8125
-24.0,-0.024543692606170175,4.0625
-24.0,0.01840776945462741,0.8125
-24.0,-0.024543692606170175,4.875
-24.0,0.024543692606170175,1.625
-24.0,0.0,0.8125
-24.0,0.0,0.8125
-24.0,-0.006135923151542322,1.625
-24.0,0.006135923151542322,0.8125
-24.0,-0.012271846303085088,1.625
-24.0,-0.006135923151542322,4.0625
-24.0,0.006135923151542322,0.8125
-24.0,0.006135923151542766,0.8125
-24.0,-0.018407769454627854,4.875
-24.0,0.018407769454627854,0.8125
-24.0,0.0,0.8125
-24.0,-0.012271846303085088,1.625
-24.0,-0.006135923151542766,2.4375
-24.0,-0.006135923151542766,4.0625
-24.0,0.006135923151542766,4.0625
-24.0,0.018407769454627854,0.8125
-24.0,0.0,0.0
-24.0,0.0,0.8125
-24.0,-0.006135923151542766,1.625
-24.0,-0.006135923151542322,1.625
-24.0,0.006135923151542322,1.625
-24.0,-0.006135923151542322,4.0625
-24.0,0.012271846303085088,0.8125
-24.0,0.0,0.8125
-24.0,-0.02454369260617062,4.0625
-24.0,0.012271846303085532,0.8125
-24.0,0.012271846303085088,0.8125
-24.0,-0.012271846303085088,2.4375
-24.0,0.0,2.4375
-24.0,0.0,1.625
-24.0,-0.006135923151542766,1.625
-24.0,0.018407769454627854,0.0
-24.0,0.006135923151542322,-0.8125
-24.0,0.0,0.0
-24.0,-0.006135923151542322,0.8125
-24.0,0.006135923151542322,0.0
-24.0,-0.006135923151542322,0.8125
-24.0,-0.006135923151542766,1.625
-24.0,0.012271846303085088,0.0
-24.0,-0.024543692606170175,4.0625
-24.0,0.0,2.4375
-24.0,0.018407769454627854,0.0
-24.0,-0.012271846303085088,2.4375
-24.0,0.012271846303085088,0.0
-24.0,0.0,1.625
-24.0,-0.018407769454627854,1.625
-24.0,0.006135923151542766,2.4375
-24.0,0.01840776945462741,-0.8125
-24.0,-0.006135923151542322,0.8125
-24.0,0.0,-0.8125
-24.0,0.0,0.8125
-24.0,0.0,0.8125
-24.0,-0.006135923151542766,0.8125
-24.0,0.0,2.4375
-24.0,-0.018407769454627854,4.0625
-24.0,0.02454369260617062,0.8125
-24.0,-0.006135923151542766,0.8125
-24.0,0.018407769454627854,-0.8125
-24.0,-0.018407769454627854,2.4375
-24.0,0.006135923151542766,1.625
-24.0,0.0,1.625
-24.0,-0.006135923151542766,2.4375
-24.0,0.018407769454627854,0.8125
-24.0,-0.018407769454627854,4.0625
-24.0,0.012271846303085088,0.8125
-24.0,-0.006135923151542322,2.4375
-24.0,0.012271846303085088,0.8125
-24.0,0.0,0.8125
-24.0,0.0,0.0
-24.0,0.012271846303085088,0.0
-24.0,-0.006135923151542766,0.8125
-24.0,-0.006135923151542322,0.8125
-24.0,-0.006135923151542766,2.4375
-24.0,0.018407769454627854,0.0
-24.0,-0.018407769454627854,1.625
-24.0,0.012271846303085088,0.0
-24.0,0.006135923151542766,0.0
-23.5,-0.006135923151542766,0.8125
-24.0,0.006135923151542766,0.0
-24.0,0.0,0.8125
-23.5,0.0,0.8125
-24.0,-0.006135923151542766,1.625
-24.0,-0.01840776945462741,4.875
-24.0,0.01840776945462741,1.625
-24.0,0.006135923151542766,0.8125
-24.0,-0.018407769454627854,4.0625
-24.0,0.006135923151542766,2.4375
-24.0,0.006135923151542322,0.0
-24.0,0.012271846303085088,0.0
-23.5,-0.024543692606170175,4.0625
-23.5,0.006135923151542766,2.4375
-24.0,0.012271846303085088,1.625
-24.0,-0.018407769454627854,4.0625
-24.0,0.018407769454627854,0.0
-23.5,0.0,0.8125
-24.0,0.0,0.0
-24.0,-0.006135923151542766,1.625
-24.0,0.006135923151542766,0.8125
-24.0,-0.018407769454627854,4.0625
-24.0,0.018407769454627854,1.625
-23.5,-0.006135923151542766,2.4375
-24.0,0.0,2.4375
-24.0,0.012271846303085088,0.8125
-24.0,0.006135923151542766,0.8125
-24.0,-0.024543692606170175,4.0625
-23.5,0.0,4.0625
-23.5,0.024543692606170175,0.0
-24.0,-0.006135923151542766,1.625
-23.5,0.0,2.4375
-23.5,0.012271846303085088,0.8125
-23.5,-0.012271846303085088,2.4375
-23.5,0.018407769454627854,0.0
-24.0,-0.018407769454627854,4.0625
-24.0,0.018407769454627854,0.0
-24.0,-0.012271846303085088,2.4375
-23.5,0.0,1.625
-23.5,0.0,0.8125
-24.0,-0.006135923151542766,2.4375
-23.5,0.006135923151542766,1.625
-24.0,0.012271846303085088,0.8125
-24.0,-0.006135923151542766,1.625
-23.5,0.0,0.8125
-24.0,0.006135923151542766,0.8125
-24.0,-0.006135923151542766,1.625
-23.5,-0.01840776945462741,4.0625
-24.0,0.012271846303085088,0.8125
-24.0,0.006135923151542322,1.625
-23.5,0.006135923151542766,0.0
-23.5,-0.012271846303085088,1.625
-24.0,-0.006135923151542766,2.4375
-24.0,0.018407769454627854,0.0
-23.5,-0.012271846303085088,0.8125
-24.0,0.0,2.4375
-24.0,-0.006135923151542766,2.4375
-23.5,0.012271846303085088,0.0
-24.0,0.0,0.0
-23.5,-0.012271846303085088,1.625
-23.5,0.006135923151542766,0.8125
-24.0,0.0,0.8125
-24.0,-0.006135923151542766,2.4375
-24.0,-0.006135923151542322,4.0625
-24.0,0.012271846303085088,1.625
-24.0,0.0,0.8125
-24.0,0.006135923151542322,0.8125
-24.0,-0.006135923151542322,1.625
-24.0,0.006135923151542322,0.0
-24.0,-0.012271846303085088,2.4375
-24.0,0.0,1.625
-24.0,-0.012271846303085088,4.875
-23.5,0.012271846303085088,1.625
-24.0,-0.012271846303085088,2.4375
-24.0,0.006135923151542766,4.0625
-23.5,0.006135923151542322,0.8125
-23.5,-0.006135923151542322,1.625
-24.0,0.006135923151542322,1.625
-24.0,0.0,1.625
-24.0,-0.01840776945462741,4.875
-24.0,0.0,4.875
-24.0,0.0,4.0625
-23.5,0.012271846303085088,1.625
-23.5,0.0,0.0
-24.0,-0.006135923151542766,0.8125
-24.0,-0.006135923151542322,1.625
-23.5,0.0,1.625
-23.5,0.0,1.625
-24.0,-0.006135923151542766,2.4375
-24.0,-0.006135923151542322,2.4375
-24.0,0.01840776945462741,0.0
-24.0,-0.012271846303085088,1.625
-24.0,-0.006135923151542322,2.4375
-24.0,0.0,1.625
-24.0,0.0,1.625
-23.5,0.006135923151542322,0.8125
-24.0,0.0,0.8125
-24.0,0.0,1.625
-24.0,-0.012271846303085088,2.4375
-24.0,0.012271846303085088,0.8125
-24.0,-0.006135923151542322,1.625
-24.0,0.01840776945462741,0.0
-24.0,0.0,-0.8125
-24.0,-0.01840776945462741,1.625
-24.0,0.006135923151542322,0.8125
-24.0,0.012271846303085088,-0.8125
-24.0,-0.006135923151542322,0.8125
-24.0,-0.006135923151542766,1.625
-24.0,0.006135923151542766,0.8125
-24.0,-0.012271846303085088,4.0625
-24.0,0.012271846303085088,1.625
-24.0,0.0,0.8125
-23.5,0.006135923151542322,0.8125
-24.0,0.0,0.0
-24.0,-0.01840776945462741,4.0625
-23.5,0.012271846303085088,1.625
-24.0,0.006135923151542322,0.0
-23.5,-0.006135923151542322,1.625
-24.0,0.0,0.8125
-24.0,-0.006135923151542766,1.625
-23.5,0.006135923151542766,0.8125
-24.0,0.006135923151542322,0.8125
-24.0,0.0,0.8125
-24.0,0.0,0.0
-24.0,0.0,0.8125
-24.0,0.006135923151542766,0.0
-24.0,-0.018407769454627854,2.4375
-24.0,0.012271846303085088,0.8125
-23.5,0.0,0.8125
-24.0,-0.012271846303085088,4.0625
-24.0,0.018407769454627854,1.625
-23.5,-0.006135923151542766,0.8125
-23.5,-0.012271846303085088,1.625
-24.0,0.012271846303085088,0.8125
-24.0,-0.012271846303085088,1.625
-24.0,0.006135923151542766,0.8125
-24.0,-0.006135923151542766,1.625
-24.0,0.006135923151542766,0.8125
-23.5,0.0,1.625
-24.0,0.006135923151542322,0.8125
-24.0,-0.01840776945462741,4.0625
-24.0,0.0,4.875
-24.0,0.006135923151542322,2.4375
-24.0,0.0,2.4375
-24.0,0.024543692606170175,0.8125
-24.0,-0.030679615757712497,4.875
-24.0,0.012271846303085088,2.4375
-24.0,0.0,4.0625
-24.0,0.006135923151542322,1.625
-23.5,0.018407769454627854,0.0
-24.0,-0.03067961575771294,4.0625
-24.0,-0.006135923151542322,4.0625
-24.0,0.024543692606170175,1.625
-24.0,-0.006135923151542766,1.625
-24.0,-0.006135923151542322,4.0625
-24.0,0.0,2.4375
-24.0,0.006135923151542322,1.625
-24.0,0.006135923151542766,1.625
-24.0,0.0,0.0
-24.0,0.0,1.625
-24.0,-0.012271846303085088,2.4375
-24.0,0.006135923151542322,0.8125
-24.0,-0.012271846303085088,4.0625
-24.0,0.012271846303085088,0.8125
-24.0,-0.006135923151542322,1.625
-24.0,0.006135923151542322,1.625
-23.5,0.0,0.0
-24.0,0.0,1.625
-24.0,-0.012271846303085088,2.4375
-23.5,0.012271846303085088,0.8125
-24.0,-0.006135923151542322,1.625
-23.5,0.006135923151542322,1.625
-24.0,0.006135923151542766,0.8125
-24.0,-0.012271846303085088,2.4375
-24.0,0.0,2.4375
-23.5,0.024543692606170175,-0.8125
-24.0,-0.018407769454627854,1.625
-24.0,-0.012271846303085088,4.0625
-23.5,0.012271846303085088,1.625
-23.5,0.012271846303085088,0.0
-24.0,-0.006135923151542322,1.625
-23.5,-0.006135923151542766,1.625
-23.5,0.006135923151542766,0.8125
-24.0,0.0,2.4375
-24.0,0.0,2.4375
-23.5,0.012271846303085088,0.8125
-24.0,0.006135923151542322,0.8125
-24.0,0.006135923151542766,0.8125
-23.5,-0.006135923151542766,2.4375
-23.5,-0.006135923151542322,4.0625
-24.0,0.018407769454627854,0.0
-24.0,-0.006135923151542766,0.8125
-23.5,0.0,0.8125
-23.5,0.012271846303085088,0.8125
-23.5,-0.012271846303085088,1.625
-23.5,0.006135923151542766,1.625
-24.0,0.012271846303085088,0.8125
-23.5,-0.012271846303085088,2.4375
-23.5,-0.006135923151542766,4.0625
-23.5,0.0,4.0625
-23.5,0.024543692606170175,0.0
-23.5,-0.012271846303085088,1.625
-23.5,0.006135923151542766,1.625
-23.5,0.012271846303085088,-0.8125
-23.5,-0.006135923151542766,0.8125
-23.5,0.0,0.8125
-23.5,-0.006135923151542322,1.625
-23.5,-0.006135923151542766,1.625
-23.5,0.0,1.625
-23.5,0.0,1.625
-23.5,0.0,1.625
-23.5,-0.006135923151542322,2.4375
-23.5,-0.012271846303085532,0.8125
-23.5,-0.012271846303085088,4.875
-23.5,0.006135923151542766,1.625
-23.5,-0.006135923151542766,0.8125
-24.0,0.0,0.8125
-23.5,-0.006135923151542322,1.625
-24.0,-0.006135923151542766,1.625
-24.0,0.006135923151542766,0.8125
-24.0,-0.012271846303085088,2.4375
-23.5,0.006135923151542322,0.8125
-24.0,0.012271846303085088,-0.8125
-23.5,-0.012271846303085088,0.0
-23.5,-0.012271846303085088,2.4375
-23.5,0.006135923151542766,2.4375
-23.5,-0.012271846303085088,4.875
-24.0,0.012271846303085088,2.4375
-24.0,0.006135923151542322,0.0
-23.5,0.006135923151542766,-1.625
-23.5,-0.006135923151542766,0.0
-24.0,0.006135923151542766,-0.8125
-24.0,-0.018407769454627854,0.8125
-24.0,0.0,0.8125
-24.0,-0.012271846303085088,2.4375
-24.0,-0.006135923151542322,4.0625
-24.0,0.01840776945462741,-0.8125
-24.0,-0.006135923151542322,0.0
-24.0,-0.018407769454627854,2.4375
-24.0,0.006135923151542766,0.8125
-24.0,0.0,0.0
-24.0,-0.018407769454627854,2.4375
-24.0,0.012271846303085088,0.0
-24.0,0.0,0.0
-24.0,-0.018407769454627854,1.625
-24.0,0.0,1.625
-24.0,-0.006135923151542322,2.4375
-24.0,0.012271846303085088,0.0
-24.0,-0.012271846303085088,2.4375
-24.5,0.012271846303085088,1.625
-24.0,-0.012271846303085088,2.4375
-24.0,0.012271846303085088,0.8125
-24.0,-0.012271846303085088,2.4375
-24.0,0.01840776945462741,0.0
-24.0,0.0,0.0
-24.0,0.006135923151542766,0.0
-24.0,-0.024543692606170175,2.4375
-24.0,0.006135923151542322,1.625
-24.0,0.0,2.4375
-24.0,0.018407769454627854,0.0
-24.0,-0.012271846303085088,0.8125
-24.0,-0.006135923151542766,4.0625
-24.0,0.006135923151542766,0.8125
-24.0,0.0,0.8125
-24.0,0.0,1.625
-24.0,0.012271846303085088,-0.8125
-24.0,-0.018407769454627854,0.8125
-24.0,0.0,0.8125
-24.0,-0.024543692606170175,4.0625
-24.0,0.018407769454627854,1.625
