-41.5,1.6444274046134073,3.25
-42.0,1.6444274046134073,6.5
-42.0,1.662835174068035,3.25
-42.0,1.662835174068035,5.6875
-42.0,1.6689710972195777,4.875
-42.0,1.662835174068035,5.6875
-42.0,1.662835174068035,4.875
-42.0,1.6689710972195777,4.875
-42.0,1.662835174068035,5.6875
-42.0,1.6751070203711202,3.25
-42.0,1.6996507129772904,0.8125
-42.0,1.6812429435226628,1.625
-42.0,1.6873788666742053,0.8125
-42.0,1.6996507129772904,0.8125
-42.0,1.6935147898257479,3.25
-42.0,1.6751070203711202,2.4375
-42.0,1.6935147898257479,1.625
-42.0,1.6812429435226628,4.875
-42.0,1.6873788666742053,1.625
-42.0,1.6873788666742053,3.25
-41.5,1.6996507129772904,0.0
-42.0,1.6996507129772904,2.4375
-42.0,1.6566992509164924,8.9375
-42.0,1.705786636128833,0.0
-41.5,1.6996507129772904,3.25
-42.0,1.6812429435226628,1.625
-41.5,1.6935147898257479,1.625
-42.0,1.6566992509164924,8.125
-42.0,1.6812429435226628,4.875
-42.0,1.6689710972195777,5.6875
-42.0,1.6873788666742053,5.6875
-42.0,1.6935147898257479,2.4375
-41.5,1.6935147898257479,2.4375
-41.5,1.6751070203711202,5.6875
-41.5,1.6873788666742053,5.6875
-42.0,1.705786636128833,1.625
-41.5,1.718058482431918,0.0
-42.0,1.6996507129772904,0.0
-41.5,1.6751070203711202,4.875
-42.0,1.6935147898257479,3.25
-41.5,1.6812429435226628,3.25
-42.0,1.6996507129772904,0.8125
-42.0,1.705786636128833,2.4375
-42.0,1.6689710972195777,5.6875
-41.5,1.718058482431918,-2.4375
-42.0,1.6996507129772904,1.625
-41.5,1.6996507129772904,1.625
-42.0,1.6996507129772904,3.25
-41.5,1.6996507129772904,3.25
-42.0,1.6996507129772904,2.4375
-42.0,1.6873788666742053,3.25
-42.0,1.7241944055834606,0.0
-41.5,1.6873788666742053,5.6875
-42.0,1.6812429435226628,7.3125
-42.0,1.6935147898257479,3.25
-41.5,1.6751070203711202,8.125
-41.5,1.6996507129772904,4.875
-42.0,1.6996507129772904,4.875
-42.0,1.6873788666742053,4.875
-42.0,1.6873788666742053,6.5
-42.0,1.6751070203711202,8.125
-41.5,1.6996507129772904,2.4375
-41.5,1.6873788666742053,8.125
-42.0,1.718058482431918,0.8125
-41.5,1.6873788666742053,5.6875
-42.0,1.7119225592803755,2.4375
-41.5,1.6689710972195777,7.3125
-42.0,1.6935147898257479,4.875
-42.0,1.718058482431918,0.0
-42.0,1.6996507129772904,1.625
-42.0,1.705786636128833,2.4375
-42.0,1.6996507129772904,3.25
-41.5,1.6873788666742053,5.6875
-42.0,1.6873788666742053,4.875
-41.5,1.6935147898257479,3.25
-42.0,1.705786636128833,4.875
-41.5,1.6751070203711202,6.5
-42.0,1.7119225592803755,0.0
-42.0,1.6873788666742053,5.6875
-41.5,1.6812429435226628,6.5
-42.0,1.718058482431918,0.8125
-42.0,1.6689710972195777,6.5
-42.0,1.6935147898257479,4.875
-42.0,1.705786636128833,2.4375
-42.0,1.6689710972195777,6.5
-42.0,1.6935147898257479,2.4375
-42.0,1.6751070203711202,4.875
-42.0,1.6812429435226628,2.4375
-42.0,1.6689710972195777,5.6875
-42.0,1.6935147898257479,1.625
-42.0,1.6566992509164924,5.6875
-42.0,1.6505633277649499,5.6875
-42.0,1.6812429435226628,0.8125
-42.0,1.6812429435226628,0.8125
-42.0,1.6566992509164924,4.875
-42.0,1.6812429435226628,-0.8125
-42.0,1.6751070203711202,1.625
-42.0,1.6751070203711202,2.4375
-41.5,1.6689710972195777,3.25
-41.5,1.662835174068035,4.875
-42.0,1.6751070203711202,2.4375
-42.0,1.6935147898257479,0.0
-42.0,1.6812429435226628,2.4375
-41.5,1.662835174068035,4.875
-42.0,1.6812429435226628,2.4375
-41.5,1.6751070203711202,2.4375
-42.0,1.6812429435226628,1.625
-42.0,1.6505633277649499,5.6875
-42.0,1.6382914814618648,7.3125
-42.0,1.6566992509164924,4.875
-42.0,1.6566992509164924,3.25
-42.0,1.6689710972195777,2.4375
-42.0,1.662835174068035,2.4375
-42.0,1.6812429435226628,1.625
-42.0,1.6751070203711202,0.8125
-42.0,1.6505633277649499,4.875
-42.0,1.6751070203711202,2.4375
-42.0,1.6751070203711202,0.0
-42.0,1.6689710972195777,1.625
-42.0,1.6444274046134073,6.5
-42.0,1.6751070203711202,0.0
-42.0,1.6566992509164924,1.625
-42.0,1.662835174068035,0.0
-42.0,1.6137477888556946,7.3125
-42.0,1.6014759425526093,7.3125
-42.0,1.6260196351587797,4.875
-41.5,1.6198837120072371,4.875
-42.0,1.6260196351587797,3.25
-41.5,1.6444274046134073,0.0
-42.0,1.6137477888556946,4.875
-41.5,1.6382914814618648,2.4375
-41.5,1.6198837120072371,5.6875
-41.5,1.6566992509164924,-0.8125
-41.5,1.6382914814618648,5.6875
-41.5,1.6505633277649499,5.6875
-41.5,1.6935147898257479,-0.8125
-41.5,1.6689710972195777,3.25
-41.5,1.6566992509164924,7.3125
-41.5,1.6996507129772904,1.625
-41.5,1.6996507129772904,4.875
-41.5,1.7119225592803755,4.875
-42.0,1.748738098189631,2.4375
-42.0,1.736466251886546,4.875
-41.5,1.7119225592803755,10.5625
-41.5,1.761009944492716,5.6875
-42.0,1.7732817907958012,3.25
-42.0,1.7794177139473437,2.4375
-41.5,1.7916895602504288,4.875
-42.0,1.7978254834019713,1.625
-42.0,1.7916895602504288,5.6875
-42.0,1.8162332528565992,3.25
-42.0,1.8100973297050567,4.875
-41.5,1.8407769454627694,2.4375
-41.5,1.8530487917658545,2.4375
-42.0,1.8407769454627694,5.6875
-42.0,1.859184714917397,3.25
-42.0,1.8653206380689396,0.8125
-42.0,1.846912868614312,3.25
-42.0,1.8223691760081417,3.25
-42.0,1.7978254834019713,3.25
-42.0,1.7794177139473437,6.5
-42.0,1.7794177139473437,6.5
-42.5,1.7855536370988863,5.6875
-42.5,1.8407769454627694,0.0
-42.5,1.7916895602504288,6.5
-42.5,1.7978254834019713,7.3125
-42.5,1.8285050991596843,4.875
-42.5,1.8223691760081417,6.5
-42.5,1.859184714917397,3.25
-42.5,1.8653206380689396,0.8125
-42.5,1.8837284075235674,2.4375
-42.5,1.8714565612204823,6.5
-43.0,1.8714565612204823,7.3125
-42.5,1.859184714917397,8.125
-43.0,1.8960002538266525,1.625
-42.5,1.8775924843720249,2.4375
-42.5,1.8775924843720249,4.875
-43.0,1.859184714917397,4.875
-43.0,1.8714565612204823,4.875
-43.0,1.8530487917658545,8.125
-42.5,1.8775924843720249,3.25
-43.0,1.8530487917658545,5.6875
-43.0,1.8653206380689396,1.625
-42.5,1.859184714917397,4.875
-43.0,1.8285050991596843,7.3125
-42.5,1.8714565612204823,1.625
-42.5,1.8100973297050567,6.5
-43.0,1.8285050991596843,3.25
-42.5,1.8223691760081417,3.25
-42.5,1.8039614065535141,4.875
-42.5,1.7794177139473437,6.5
-42.5,1.7916895602504288,7.3125
-42.5,1.8162332528565992,0.8125
-42.5,1.8100973297050567,3.25
-42.5,1.8039614065535141,1.625
-42.0,1.8100973297050567,0.0
-42.5,1.7978254834019713,3.25
-42.0,1.7978254834019713,6.5
-42.5,1.7916895602504288,5.6875
-42.5,1.8223691760081417,0.8125
-42.5,1.8162332528565992,4.875
-42.5,1.7916895602504288,8.125
-42.5,1.8285050991596843,5.6875
-42.5,1.8223691760081417,7.3125
-42.5,1.8346410223112268,5.6875
-42.5,1.846912868614312,3.25
-42.5,1.8407769454627694,5.6875
-42.5,1.859184714917397,3.25
-42.5,1.8714565612204823,0.8125
-42.5,1.846912868614312,5.6875
-42.5,1.8100973297050567,10.5625
-42.5,1.8223691760081417,6.5
-42.5,1.8653206380689396,0.8125
-42.5,1.8407769454627694,6.5
-42.5,1.859184714917397,0.8125
-42.5,1.8162332528565992,3.25
-42.5,1.846912868614312,2.4375
-42.5,1.8407769454627694,4.875
-42.5,1.8223691760081417,3.25
-42.5,1.8162332528565992,4.875
-42.5,1.8407769454627694,2.4375
-42.0,1.8285050991596843,2.4375
-42.5,1.8285050991596843,2.4375
-42.5,1.8100973297050567,7.3125
-42.5,1.8346410223112268,1.625
-42.5,1.8285050991596843,4.875
-42.5,1.8100973297050567,6.5
-42.5,1.859184714917397,0.0
-43.0,1.8407769454627694,4.875
-43.0,1.846912868614312,5.6875
-43.0,1.8162332528565992,14.625
-43.0,1.8775924843720249,3.25
-43.0,1.88986433067511,3.25
-43.0,1.9082721001297376,0.0
-43.0,1.9082721001297376,0.8125
-43.0,1.9205439464328227,-0.8125
-43.0,1.9205439464328227,-2.4375
-43.0,1.8837284075235674,4.875
-43.0,1.902136176978195,2.4375
-43.0,1.9082721001297376,1.625
-43.0,1.9205439464328227,-0.8125
-43.0,1.8653206380689396,8.9375
-43.0,1.9144080232812801,1.625
-43.0,1.8714565612204823,5.6875
-43.0,1.8837284075235674,5.6875
-43.0,1.902136176978195,3.25
-43.0,1.9144080232812801,3.25
-43.0,1.9144080232812801,5.6875
-43.0,1.9389517158874505,8.125
-43.5,1.9389517158874505,8.9375
-43.5,2.030990563160589,8.125
-43.0,2.073942025221387,5.6875
-43.0,2.0800779483729293,5.6875
-43.0,2.110757564130642,2.4375
-43.0,2.110757564130642,1.625
-43.5,2.1230294104337273,1.625
-43.5,2.1230294104337273,3.25
-43.0,2.116893487282185,4.875
-43.5,2.116893487282185,2.4375
-43.0,2.1230294104337273,1.625
-43.0,2.110757564130642,4.875
-43.5,2.0800779483729293,8.125
-43.5,2.110757564130642,1.625
-43.0,2.110757564130642,4.875
-43.0,2.116893487282185,4.875
-43.0,2.1230294104337273,2.4375
-43.0,2.116893487282185,3.25
-42.5,2.110757564130642,4.875
-43.0,2.098485717827557,6.5
-43.0,2.1230294104337273,3.25
-43.0,2.1230294104337273,1.625
-43.0,2.086213871524472,9.75
-43.0,2.141437179888355,0.0
-43.0,2.1046216409791,7.3125
-43.0,2.1046216409791,8.9375
-43.0,2.110757564130642,5.6875
-43.0,2.1230294104337273,4.875
-43.0,2.1230294104337273,4.875
-43.0,2.1230294104337273,3.25
-43.0,2.1230294104337273,4.875
-43.0,2.116893487282185,3.25
-43.0,2.1353012567368124,-0.8125
-42.5,2.098485717827557,7.3125
-43.0,2.086213871524472,7.3125
-42.5,2.110757564130642,5.6875
-43.0,2.116893487282185,3.25
-43.0,2.098485717827557,5.6875
-42.5,2.110757564130642,2.4375
-42.5,2.073942025221387,8.9375
-43.0,2.1046216409791,3.25
-42.5,2.073942025221387,8.9375
-42.5,2.0800779483729293,8.9375
-42.5,2.0923497946760143,5.6875
-42.5,2.098485717827557,4.875
-42.5,2.067806102069844,8.125
-42.5,2.110757564130642,1.625
-43.0,2.098485717827557,3.25
-42.5,2.0923497946760143,3.25
-43.0,2.067806102069844,6.5
-43.0,2.0923497946760143,6.5
-43.0,2.0923497946760143,5.6875
-43.0,2.0923497946760143,3.25
-42.5,2.086213871524472,4.875
-42.5,2.043262409463674,8.125
-43.0,2.073942025221387,7.3125
-42.5,2.0800779483729293,4.875
-42.5,2.067806102069844,5.6875
-43.0,2.0800779483729293,3.25
-42.5,2.0371264863121317,11.375
-42.5,2.073942025221387,4.875
-42.5,2.086213871524472,2.4375
-42.5,2.043262409463674,10.5625
-43.0,2.067806102069844,4.875
-43.0,2.0800779483729293,4.875
-42.5,2.067806102069844,4.875
-42.5,2.073942025221387,7.3125
-42.5,2.067806102069844,5.6875
-42.5,2.061670178918302,5.6875
-43.0,2.067806102069844,6.5
-43.0,2.043262409463674,9.75
-42.5,2.067806102069844,5.6875
-42.5,2.0493983326152168,7.3125
-42.5,2.073942025221387,2.4375
-42.5,2.0493983326152168,8.125
-43.0,2.0800779483729293,2.4375
-43.0,2.067806102069844,0.8125
-43.0,2.055534255766759,4.875
-43.0,2.043262409463674,6.5
-43.0,2.018718716857504,11.375
-43.0,2.043262409463674,7.3125
-43.0,2.0371264863121317,5.6875
-43.0,2.0493983326152168,8.125
-43.0,2.055534255766759,4.875
-43.0,2.055534255766759,2.4375
-43.0,2.061670178918302,6.5
-42.5,2.0493983326152168,1.625
-42.5,2.024854640009046,7.3125
-43.0,2.030990563160589,8.125
-42.5,2.061670178918302,0.0
-42.5,2.0493983326152168,5.6875
-42.5,2.061670178918302,0.8125
-43.0,2.030990563160589,7.3125
-43.0,2.067806102069844,0.0
-43.0,2.0493983326152168,5.6875
-42.5,2.0371264863121317,6.5
-43.0,2.043262409463674,5.6875
-42.5,2.043262409463674,5.6875
-42.5,2.043262409463674,4.875
-43.0,2.024854640009046,7.3125
-43.0,2.024854640009046,6.5
-43.0,2.024854640009046,5.6875
-43.0,2.0493983326152168,1.625
-43.0,2.030990563160589,5.6875
-43.0,2.0493983326152168,3.25
-42.5,2.018718716857504,8.125
-43.0,2.030990563160589,2.4375
-43.0,2.012582793705961,7.3125
-43.0,2.0371264863121317,3.25
-43.0,2.018718716857504,6.5
-43.0,2.018718716857504,4.875
-43.5,2.0064468705544187,8.125
-43.5,2.012582793705961,5.6875
-43.0,1.9880391010997909,11.375
-43.0,2.012582793705961,4.875
-43.0,2.0064468705544187,5.6875
-43.0,1.9880391010997909,8.9375
-43.0,2.018718716857504,3.25
-43.0,1.9819031779482483,8.9375
-43.5,2.0064468705544187,5.6875
-43.0,2.030990563160589,2.4375
-43.0,2.018718716857504,3.25
-43.0,2.018718716857504,3.25
-43.5,2.0371264863121317,1.625
-43.5,2.000310947402876,6.5
-43.0,2.018718716857504,3.25
-43.0,1.9880391010997909,7.3125
-43.0,2.024854640009046,6.5
-43.0,2.0064468705544187,7.3125
-43.0,1.9941750242513334,6.5
-43.0,2.0064468705544187,6.5
-43.5,2.018718716857504,2.4375
-43.5,1.9880391010997909,8.9375
-43.0,1.9757672547967058,8.9375
-43.0,1.9819031779482483,8.9375
-43.0,2.018718716857504,1.625
-43.5,1.9880391010997909,7.3125
-43.5,2.012582793705961,3.25
-43.5,2.0064468705544187,4.875
-43.5,2.018718716857504,2.4375
-43.0,2.012582793705961,2.4375
-43.0,2.012582793705961,1.625
-43.0,2.0064468705544187,3.25
-43.0,2.0064468705544187,5.6875
-43.0,1.9941750242513334,7.3125
-43.5,2.018718716857504,2.4375
-43.0,1.9941750242513334,5.6875
-43.0,2.000310947402876,6.5
-43.0,1.9941750242513334,6.5
-43.0,2.030990563160589,0.0
-43.0,2.0064468705544187,7.3125
-43.0,2.012582793705961,5.6875
-43.0,2.018718716857504,2.4375
-43.0,2.018718716857504,2.4375
-43.0,2.018718716857504,3.25
-43.0,2.012582793705961,3.25
-43.0,2.024854640009046,0.8125
-43.5,2.030990563160589,1.625
-43.5,2.0064468705544187,4.875
-43.5,2.0064468705544187,2.4375
-43.5,1.9941750242513334,4.875
-43.0,2.030990563160589,1.625
-43.5,2.012582793705961,3.25
-43.5,2.000310947402876,3.25
-43.0,1.9880391010997909,7.3125
-43.5,2.0064468705544187,6.5
-43.5,2.012582793705961,0.8125
-43.5,1.9880391010997909,7.3125
-43.0,2.0064468705544187,4.875
-43.5,1.9880391010997909,7.3125
-43.5,1.9757672547967058,10.5625
-43.5,2.024854640009046,2.4375
-43.0,1.9757672547967058,10.5625
-43.0,2.000310947402876,6.5
-43.5,2.012582793705961,5.6875
-43.5,2.055534255766759,-2.4375
-43.5,2.018718716857504,2.4375
-43.0,2.0064468705544187,6.5
-43.5,1.9941750242513334,8.125
-43.5,2.024854640009046,4.875
-43.5,2.000310947402876,7.3125
-43.5,1.9941750242513334,6.5
-43.5,2.0064468705544187,5.6875
-44.0,2.030990563160589,4.875
-43.5,2.018718716857504,5.6875
-43.5,2.018718716857504,5.6875
-44.0,2.018718716857504,8.9375
-43.5,2.0371264863121317,5.6875
-44.0,2.0371264863121317,6.5
-44.0,2.061670178918302,1.625
-43.5,2.086213871524472,-0.8125
-43.5,2.0923497946760143,-0.8125
-43.5,2.012582793705961,11.375
-43.5,2.043262409463674,8.125
-44.0,2.055534255766759,7.3125
-43.5,2.055534255766759,6.5
-44.0,2.055534255766759,6.5
-44.0,2.055534255766759,7.3125
-44.0,2.0800779483729293,3.25
-44.0,2.0800779483729293,3.25
-44.0,2.0800779483729293,3.25
-44.0,2.043262409463674,8.125
-44.0,2.055534255766759,8.125
-44.0,2.043262409463674,9.75
-44.0,2.0800779483729293,2.4375
-44.0,2.086213871524472,3.25
-44.0,2.061670178918302,8.9375
-44.0,2.0493983326152168,11.375
-44.0,2.098485717827557,1.625
-44.0,2.073942025221387,6.5
-44.0,2.098485717827557,2.4375
-44.5,2.098485717827557,4.875
-44.0,2.086213871524472,6.5
-44.0,2.1046216409791,2.4375
-44.5,2.1046216409791,4.875
-44.5,2.098485717827557,6.5
-44.5,2.086213871524472,5.6875
-44.0,2.098485717827557,4.875
-44.5,2.098485717827557,4.875
-44.5,2.1046216409791,2.4375
-44.5,2.116893487282185,-0.8125
-44.5,2.098485717827557,5.6875
-44.5,2.0923497946760143,6.5
-44.5,2.073942025221387,5.6875
-44.5,2.073942025221387,5.6875
-45.0,2.1046216409791,4.875
-45.0,2.0923497946760143,5.6875
-45.0,2.1046216409791,2.4375
-45.0,2.1046216409791,6.5
-45.0,2.086213871524472,8.125
-44.5,2.1230294104337273,3.25
-45.0,2.116893487282185,5.6875
-45.0,2.110757564130642,6.5
-44.5,2.043262409463674,16.25
-45.0,2.1046216409791,5.6875
-44.5,2.116893487282185,7.3125
-45.0,2.1475731030398975,3.25
-45.0,2.1046216409791,8.125
-45.0,2.12916533358527,5.6875
-45.0,2.1537090261914402,0.0
-45.0,2.141437179888355,2.4375
-45.0,2.098485717827557,11.375
-45.0,2.1353012567368124,3.25
-45.0,2.12916533358527,6.5
-45.5,2.1230294104337273,7.3125
-45.5,2.1659808724945253,0.0
-45.0,2.1475731030398975,4.875
-45.0,2.1659808724945253,1.625
-45.0,2.141437179888355,8.125
-45.0,2.1598449493429825,4.875
-45.0,2.1537090261914402,4.875
-45.0,2.1782527187976104,0.8125
-45.0,2.1598449493429825,3.25
-45.0,2.141437179888355,8.9375
-45.0,2.12916533358527,8.125
-45.0,2.141437179888355,4.875
-45.0,2.1475731030398975,3.25
-45.5,2.110757564130642,8.9375
-45.0,2.1230294104337273,8.125
-45.0,2.1598449493429825,6.5
-45.0,2.1537090261914402,5.6875
-45.5,2.172116795646068,7.3125
-45.5,2.1598449493429825,9.75
-45.0,2.2089323345553233,5.6875
-45.0,2.1905245651006955,6.5
-45.5,2.2027964114037806,5.6875
-45.5,2.2027964114037806,7.3125
-45.0,2.2089323345553233,7.3125
-45.0,2.2150682577068657,8.125
-45.5,2.1905245651006955,6.5
-45.5,2.1905245651006955,7.3125
-45.5,2.2027964114037806,8.125
-45.5,2.2089323345553233,4.875
-45.0,2.184388641949153,7.3125
-45.0,2.172116795646068,8.9375
-45.0,2.172116795646068,6.5
-45.0,2.184388641949153,5.6875
-45.5,2.2027964114037806,2.4375
-45.5,2.1905245651006955,0.0
-45.0,2.172116795646068,8.125
-45.0,2.1598449493429825,8.9375
-45.0,2.1782527187976104,7.3125
-45.0,2.184388641949153,6.5
-45.0,2.1966604882522383,7.3125
-45.5,2.2150682577068657,2.4375
-45.0,2.2089323345553233,6.5
-45.0,2.2150682577068657,5.6875
-45.5,2.227340104009951,5.6875
-45.5,2.2886993355253766,-3.25
-45.5,2.2641556429192065,4.875
-45.0,2.2089323345553233,10.5625
-45.0,2.2580197197676637,4.875
-45.5,2.2580197197676637,5.6875
-45.5,2.2764274892222915,3.25
-45.5,2.2641556429192065,6.5
-45.5,2.2396119503130363,12.1875
-45.5,2.2886993355253766,5.6875
-45.5,2.325514874434632,0.0
-45.5,2.3439226438892597,3.25
-45.5,2.3316507975861747,3.25
-45.5,2.325514874434632,6.5
-46.0,2.350058567040802,5.6875
-45.5,2.405281875404685,-0.8125
-45.5,2.411417798556228,2.4375
-45.5,2.4175537217077703,6.5
-45.5,2.435961491162398,3.25
-45.5,2.423689644859313,8.9375
-46.0,2.4605051837685683,6.5
-45.0,2.509592568980909,-0.8125
-45.5,2.5034566458293663,2.4375
-45.5,2.466641106920111,10.5625
-45.5,2.5157284921324514,1.625
-45.0,2.5034566458293663,5.6875
-45.0,2.5034566458293663,4.875
-45.5,2.564815877344792,1.625
-45.5,2.521864415283994,5.6875
-45.0,2.5586799541932495,7.3125
-45.5,2.5402721847386216,8.9375
-45.5,2.5832236467994196,5.6875
-45.5,2.6139032625571326,-0.8125
-45.0,2.564815877344792,10.5625
-45.0,2.6139032625571326,6.5
-45.5,2.5954954931025047,8.125
-45.0,2.6384469551633027,6.5
-45.0,2.6384469551633027,4.875
-44.5,2.6568547246179306,2.4375
-45.5,2.650718801466388,10.5625
-45.0,2.6875343403756435,4.875
-45.0,2.6813984172241008,8.125
-44.5,2.6998061866787286,8.125
-45.0,2.705942109830271,5.6875
-45.0,2.6875343403756435,8.9375
-45.0,2.718213956133356,8.125
-44.5,2.6998061866787286,8.9375
-44.5,2.718213956133356,11.375
-44.5,2.730485802436441,6.5
-44.5,2.736621725587984,7.3125
-44.0,2.748893571891069,6.5
-44.5,2.779573187648782,5.6875
-44.5,2.791845033951867,2.4375
-44.5,2.7857091108003242,7.3125
-44.0,2.761165418194154,11.375
-44.0,2.7857091108003242,8.9375
-44.0,2.791845033951867,8.125
-44.0,2.7979809571034093,8.125
-44.0,2.804116880254952,4.875
-43.5,2.779573187648782,7.3125
-43.5,2.7979809571034093,8.125
-44.0,2.804116880254952,7.3125
-43.5,2.791845033951867,10.5625
-43.5,2.82252464970958,6.5
-44.0,2.804116880254952,7.3125
-43.5,2.7857091108003242,10.5625
-43.5,2.816388726558037,8.125
-43.5,2.804116880254952,8.125
-43.5,2.816388726558037,7.3125
-43.5,2.8409324191642074,3.25
-43.5,2.816388726558037,6.5
-43.5,2.8286605728611223,7.3125
-43.0,2.834796496012665,5.6875
-43.0,2.834796496012665,8.125
-43.0,2.8409324191642074,6.5
-42.5,2.8286605728611223,8.125
-42.5,2.834796496012665,8.125
-42.5,2.8777479580734626,0.8125
-42.5,2.8409324191642074,7.3125
-42.0,2.84706834231575,8.125
-42.0,2.84706834231575,7.3125
-42.0,2.8286605728611223,11.375
-42.5,2.82252464970958,9.75
-42.0,2.8286605728611223,10.5625
-42.0,2.8409324191642074,8.125
-42.0,2.8409324191642074,8.125
-42.0,2.84706834231575,8.125
-42.0,2.8286605728611223,8.9375
-42.0,2.82252464970958,10.5625
-41.5,2.84706834231575,7.3125
-42.0,2.834796496012665,8.9375
-41.5,2.834796496012665,6.5
-41.5,2.8286605728611223,8.125
-41.5,2.82252464970958,9.75
-41.5,2.816388726558037,10.5625
-41.5,2.834796496012665,5.6875
-41.5,2.834796496012665,5.6875
-41.0,2.8102528034064944,8.9375
-41.5,2.804116880254952,9.75
-41.0,2.82252464970958,6.5
-41.5,2.816388726558037,6.5
-41.5,2.8102528034064944,6.5
-41.0,2.8102528034064944,6.5
-41.0,2.804116880254952,8.125
-41.0,2.804116880254952,8.125
-41.0,2.791845033951867,8.9375
-41.0,2.7979809571034093,8.9375
-41.0,2.791845033951867,6.5
-41.0,2.773437264497239,7.3125
-41.0,2.791845033951867,6.5
-41.0,2.791845033951867,6.5
-40.5,2.8102528034064944,2.4375
-41.0,2.791845033951867,6.5
-41.0,2.7979809571034093,4.875
-41.0,2.7979809571034093,5.6875
-41.0,2.779573187648782,6.5
-41.0,2.7979809571034093,7.3125
-41.0,2.791845033951867,9.75
-41.0,2.7979809571034093,7.3125
-41.0,2.8102528034064944,6.5
-41.5,2.8102528034064944,6.5
-41.0,2.804116880254952,10.5625
-41.5,2.816388726558037,7.3125
-41.0,2.816388726558037,8.9375
-41.5,2.8102528034064944,8.9375
-41.5,2.8102528034064944,8.9375
-41.0,2.8102528034064944,9.75
-41.0,2.8286605728611223,5.6875
-41.5,2.834796496012665,5.6875
-42.0,2.834796496012665,6.5
-42.0,2.8286605728611223,8.9375
-41.5,2.84706834231575,5.6875
-42.0,2.859340188618835,6.5
-42.0,2.834796496012665,9.75
-42.5,2.84706834231575,8.125
-42.5,2.8654761117703775,4.875
-43.0,2.82252464970958,9.75
-44.5,2.6568547246179306,8.125
-44.5,2.521864415283994,8.125
-44.0,2.3439226438892597,6.5
-44.0,2.282563412373834,4.875
-44.0,2.2396119503130363,8.9375
-43.5,2.2886993355253766,-0.8125
-43.0,2.2764274892222915,5.6875
-43.0,2.3009711818284617,2.4375
-42.5,2.2886993355253766,7.3125
-42.5,2.3009711818284617,3.25
-42.5,2.3071071049800045,5.6875
-42.0,2.3193789512830896,3.25
-42.0,2.313243028131547,0.0
-42.0,2.270291566070749,5.6875
-41.5,2.282563412373834,2.4375
-41.5,2.2764274892222915,3.25
-41.0,2.2150682577068657,8.9375
-41.0,2.2089323345553233,6.5
-41.0,2.2334760271614935,1.625
-41.0,2.184388641949153,8.125
-41.0,2.1966604882522383,3.25
-41.0,2.1782527187976104,3.25
-40.5,2.172116795646068,1.625
-40.5,2.1537090261914402,2.4375
-40.5,2.110757564130642,8.125
-40.5,2.116893487282185,6.5
-40.5,2.110757564130642,5.6875
-40.5,2.110757564130642,5.6875
-40.5,2.116893487282185,2.4375
-40.5,2.1230294104337273,0.8125
-40.5,2.098485717827557,5.6875
-40.0,2.098485717827557,4.875
-40.0,2.0923497946760143,3.25
-40.0,2.0923497946760143,5.6875
-40.5,2.067806102069844,8.9375
-40.0,2.0800779483729293,7.3125
-40.0,2.0923497946760143,2.4375
-40.0,2.0800779483729293,4.875
-40.0,2.0493983326152168,8.125
-40.5,2.055534255766759,5.6875
-40.5,2.061670178918302,6.5
-40.5,2.061670178918302,5.6875
-40.0,2.043262409463674,8.125
-40.0,2.043262409463674,6.5
-40.0,2.055534255766759,3.25
-40.0,2.0371264863121317,4.875
-40.5,2.030990563160589,5.6875
-40.5,2.018718716857504,8.125
-40.0,2.024854640009046,7.3125
-40.0,2.012582793705961,7.3125
-40.5,2.0064468705544187,9.75
-40.0,2.0064468705544187,6.5
-40.0,2.0064468705544187,5.6875
-39.5,2.000310947402876,4.875
-40.0,2.000310947402876,4.875
-40.0,1.9819031779482483,5.6875
-40.0,1.9819031779482483,5.6875
-40.0,1.9696313316451632,5.6875
-40.0,1.9880391010997909,4.875
-40.0,1.9696313316451632,7.3125
-40.0,1.9696313316451632,8.9375
-40.0,1.9696313316451632,7.3125
-40.0,1.9696313316451632,7.3125
-40.0,1.9634954084936207,8.9375
-40.0,1.9941750242513334,6.5
-40.5,2.0064468705544187,5.6875
-40.0,1.9941750242513334,7.3125
-40.0,2.000310947402876,5.6875
-40.0,1.9696313316451632,11.375
-40.0,2.012582793705961,5.6875
-40.0,1.9880391010997909,8.125
-40.0,2.000310947402876,4.875
-40.0,1.9880391010997909,5.6875
-40.0,1.9941750242513334,6.5
-40.5,1.9634954084936207,7.3125
-40.0,1.9819031779482483,4.875
-40.0,1.9634954084936207,7.3125
-40.0,1.9573594853420782,7.3125
-40.0,1.9757672547967058,4.875
-40.0,1.9573594853420782,6.5
-40.0,1.9634954084936207,5.6875
-40.0,1.9389517158874505,8.125
-40.0,1.9512235621905356,4.875
-40.0,1.945087639038993,6.5
-40.0,1.9512235621905356,5.6875
-40.0,1.945087639038993,6.5
-40.0,1.9696313316451632,3.25
-40.0,1.9634954084936207,5.6875
-40.0,1.9512235621905356,8.125
-40.5,1.9880391010997909,4.875
-40.0,1.9941750242513334,3.25
-40.0,1.9819031779482483,5.6875
-40.0,2.012582793705961,5.6875
-40.0,2.0064468705544187,7.3125
-40.0,1.9941750242513334,6.5
-40.0,2.0064468705544187,4.875
-40.5,1.9880391010997909,8.9375
-40.0,1.9941750242513334,7.3125
-40.0,2.018718716857504,4.875
-40.0,1.9819031779482483,7.3125
-40.0,1.9941750242513334,3.25
-40.0,1.9819031779482483,4.875
-40.0,1.9573594853420782,8.9375
-40.0,1.9819031779482483,3.25
-40.0,1.9757672547967058,1.625
-40.0,1.9512235621905356,6.5
-40.0,1.945087639038993,8.125
-40.0,1.9389517158874505,9.75
-40.0,1.9573594853420782,5.6875
-40.0,1.945087639038993,8.125
-40.0,1.932815792735908,8.125
-40.0,1.9266798695843652,8.9375
-40.5,1.932815792735908,5.6875
-40.0,1.9144080232812801,4.875
-40.0,1.902136176978195,5.6875
-40.5,1.8285050991596843,7.3125
