-39.5,1.0062913968529805,2.4375
-39.5,0.9694758579437253,7.3125
-39.5,1.012427320004523,1.625
-39.5,1.000155473701438,5.6875
-39.5,1.0246991663076084,0.8125
-39.5,1.0246991663076084,0.0
-39.5,1.0185632431560658,2.4375
-39.5,0.9940195505498954,9.75
-39.5,1.0369710126106935,1.625
-39.5,1.030835089459151,-0.8125
-39.5,1.012427320004523,2.4375
-39.5,1.012427320004523,3.25
-39.5,1.0246991663076084,3.25
-39.5,1.0369710126106935,2.4375
-39.5,1.030835089459151,2.4375
-39.5,1.0246991663076084,1.625
-39.5,1.030835089459151,0.8125
-40.0,1.0062913968529805,2.4375
-39.5,1.0492428589137786,0.8125
-39.5,1.0246991663076084,4.875
-39.5,1.0246991663076084,4.875
-39.5,1.0369710126106935,1.625
-39.5,1.0246991663076084,5.6875
-39.5,1.0185632431560658,5.6875
-39.5,1.0185632431560658,6.5
-39.5,0.9940195505498954,8.125
-39.5,1.0185632431560658,5.6875
-39.5,1.012427320004523,6.5
-39.5,1.012427320004523,8.125
-39.5,0.9940195505498954,8.9375
-39.5,1.0062913968529805,5.6875
-39.5,1.0369710126106935,1.625
-39.5,1.0185632431560658,6.5
-39.5,0.9940195505498954,7.3125
-39.5,1.055378782065321,0.0
-39.5,1.012427320004523,8.125
-39.5,1.012427320004523,4.875
-39.0,1.0246991663076084,6.5
-39.5,1.0246991663076084,4.875
-39.5,1.0369710126106935,2.4375
-39.0,1.055378782065321,0.8125
-39.5,1.0492428589137786,0.8125
-39.5,1.055378782065321,0.0
-39.0,1.0492428589137786,2.4375
-39.5,1.0369710126106935,4.875
-39.5,1.0676506283684062,0.0
-39.0,1.043106935762236,10.5625
-39.0,1.0615147052168636,3.25
-39.0,1.055378782065321,4.875
-39.0,1.0369710126106935,11.375
-39.0,1.055378782065321,2.4375
-39.0,1.0737865515199487,0.8125
-39.0,1.0676506283684062,5.6875
-39.0,1.0737865515199487,2.4375
-39.5,1.0492428589137786,7.3125
-39.0,1.0676506283684062,4.875
-39.0,1.086058397823034,3.25
-39.0,1.1167380135807468,0.0
-39.5,1.0799224746714913,3.25
-39.5,1.0983302441261191,3.25
-39.5,1.0983302441261191,3.25
-39.5,1.0676506283684062,7.3125
-39.0,1.0983302441261191,8.125
-39.0,1.1351457830353744,-0.8125
-39.0,1.1044661672776617,3.25
-39.0,1.1167380135807468,2.4375
-39.0,1.086058397823034,7.3125
-39.5,1.141281706186917,-2.4375
-39.0,1.1167380135807468,7.3125
-39.0,1.1167380135807468,6.5
-39.0,1.141281706186917,0.0
-39.0,1.1535535524900022,-0.8125
-39.0,1.1535535524900022,0.0
-39.5,1.1106020904292042,8.9375
-39.5,1.1106020904292042,4.875
-39.5,1.141281706186917,3.25
-39.5,1.0983302441261191,7.3125
-39.0,1.1596894756415448,2.4375
-39.5,1.1290098598838318,5.6875
-39.0,1.1351457830353744,5.6875
-39.5,1.1167380135807468,4.875
-39.5,1.1228739367322893,5.6875
-39.5,1.1658253987930873,-0.8125
-39.5,1.1658253987930873,0.8125
-39.5,1.1903690913992575,1.625
-39.5,1.1780972450961724,3.25
-39.5,1.1658253987930873,8.125
-39.5,1.184233168247715,6.5
-39.0,1.1965050145508,6.5
-39.0,1.2087768608538851,3.25
-39.0,1.2517283229146832,0.8125
-38.5,1.2517283229146832,0.0
-38.5,1.239456476611598,0.8125
-39.0,1.2333205534600555,1.625
-38.5,1.2210487071569704,4.875
-39.0,1.227184630308513,2.4375
-38.5,1.227184630308513,4.875
-38.5,1.2333205534600555,4.875
-38.5,1.239456476611598,2.4375
-38.5,1.2578642460662257,1.625
-38.5,1.2455923997631406,0.8125
-38.5,1.239456476611598,1.625
-38.5,1.2578642460662257,2.4375
-38.5,1.2578642460662257,-1.625
-38.5,1.227184630308513,1.625
-38.5,1.2087768608538851,5.6875
-38.5,1.1965050145508,5.6875
-38.5,1.2333205534600555,3.25
-38.5,1.214912784005428,7.3125
-38.0,1.2087768608538851,4.875
-38.0,1.2087768608538851,4.875
-38.0,1.1965050145508,3.25
-38.0,1.1965050145508,5.6875
-38.0,1.1780972450961724,8.125
-38.0,1.227184630308513,3.25
-38.0,1.184233168247715,8.9375
-38.0,1.2210487071569704,2.4375
-38.0,1.1965050145508,6.5
-38.0,1.227184630308513,2.4375
-38.0,1.2087768608538851,6.5
-38.0,1.2026409377023426,4.875
-38.5,1.2087768608538851,5.6875
-38.0,1.2210487071569704,3.25
-38.0,1.214912784005428,3.25
-38.0,1.227184630308513,1.625
-38.0,1.2210487071569704,2.4375
-38.0,1.239456476611598,0.0
-38.0,1.2210487071569704,1.625
-38.0,1.2026409377023426,5.6875
-38.0,1.1965050145508,4.875
-38.0,1.214912784005428,4.875
-38.0,1.1965050145508,5.6875
-38.0,1.2087768608538851,4.875
-38.0,1.227184630308513,2.4375
-38.0,1.2087768608538851,4.875
-38.0,1.2026409377023426,6.5
-38.0,1.2026409377023426,3.25
-38.0,1.2210487071569704,5.6875
-38.0,1.214912784005428,2.4375
-38.0,1.214912784005428,3.25
-38.0,1.2026409377023426,6.5
-38.0,1.2087768608538851,2.4375
-38.0,1.2026409377023426,5.6875
-37.5,1.1965050145508,4.875
-37.5,1.214912784005428,4.875
-38.0,1.1965050145508,4.875
-37.5,1.2026409377023426,4.875
-37.5,1.1903690913992575,4.875
-37.5,1.2087768608538851,3.25
-38.0,1.1903690913992575,4.875
-37.5,1.227184630308513,-0.8125
-37.5,1.2210487071569704,2.4375
-37.5,1.1965050145508,2.4375
-37.5,1.184233168247715,4.875
-37.5,1.1719613219446299,4.875
-37.5,1.1719613219446299,3.25
-37.5,1.1903690913992575,0.0
-37.5,1.2026409377023426,-0.8125
-37.5,1.1474176293384597,3.25
-37.5,1.1596894756415448,3.25
-37.5,1.1474176293384597,4.875
-37.5,1.1780972450961724,1.625
-37.5,1.1596894756415448,4.875
-37.5,1.1719613219446299,1.625
-37.0,1.1535535524900022,3.25
-37.0,1.1719613219446299,1.625
-37.5,1.1474176293384597,4.875
-37.0,1.1658253987930873,0.0
-37.5,1.1474176293384597,1.625
-37.5,1.1474176293384597,3.25
-37.0,1.1351457830353744,5.6875
-37.5,1.1474176293384597,2.4375
-37.5,1.141281706186917,2.4375
-37.5,1.1167380135807468,6.5
-37.5,1.1228739367322893,3.25
-37.0,1.1106020904292042,6.5
-37.0,1.1351457830353744,0.8125
-37.0,1.1228739367322893,4.875
-37.0,1.1044661672776617,4.875
-37.5,1.1167380135807468,2.4375
-37.0,1.1290098598838318,1.625
-37.0,1.1106020904292042,2.4375
-37.0,1.1167380135807468,3.25
-37.0,1.0983302441261191,5.6875
-37.5,1.0799224746714913,6.5
-37.0,1.1044661672776617,1.625
-37.5,1.1228739367322893,0.0
-37.5,1.1167380135807468,0.0
-37.5,1.1044661672776617,0.8125
-37.0,1.0921943209745766,2.4375
-37.0,1.0921943209745766,5.6875
-37.0,1.0615147052168636,7.3125
-37.5,1.0799224746714913,4.875
-37.0,1.0676506283684062,5.6875
-37.0,1.0983302441261191,1.625
-37.0,1.1044661672776617,0.8125
-37.0,1.0737865515199487,5.6875
-37.0,1.1044661672776617,0.8125
-37.0,1.1044661672776617,4.875
-37.0,1.0983302441261191,1.625
-37.5,1.0799224746714913,5.6875
-37.5,1.0983302441261191,1.625
-37.0,1.0799224746714913,5.6875
-37.0,1.0737865515199487,4.875
-37.0,1.0737865515199487,3.25
-37.5,1.0799224746714913,5.6875
-37.5,1.0799224746714913,4.875
-37.0,1.0737865515199487,6.5
-37.5,1.0921943209745766,2.4375
-37.5,1.0921943209745766,1.625
-37.5,1.141281706186917,0.8125
-37.5,1.1106020904292042,8.125
-38.0,1.1351457830353744,4.875
-37.5,1.1474176293384597,3.25
-37.5,1.1535535524900022,4.875
-38.0,1.184233168247715,2.4375
-38.0,1.184233168247715,3.25
-38.0,1.214912784005428,1.625
-38.0,1.2026409377023426,8.125
-38.0,1.2333205534600555,3.25
-38.0,1.2333205534600555,6.5
-37.5,1.239456476611598,6.5
-38.0,1.3069516312785663,-0.8125
-38.0,1.2640001692177683,2.4375
-38.0,1.2640001692177683,8.125
-37.5,1.2885438618239387,4.875
-38.0,1.2885438618239387,6.5
-38.0,1.282407938672396,5.6875
-38.0,1.2640001692177683,8.9375
-37.5,1.2885438618239387,4.875
-38.0,1.3069516312785663,4.875
-38.0,1.282407938672396,7.3125
-37.5,1.337631247036279,0.8125
-37.5,1.3069516312785663,6.5
-38.0,1.3130875544301088,4.875
-37.5,1.3069516312785663,5.6875
-37.5,1.3008157081270237,7.3125
-37.5,1.3008157081270237,8.9375
-38.0,1.2946797849754812,6.5
-37.5,1.3192234775816514,4.875
-37.5,1.337631247036279,4.875
-38.0,1.3560390164909069,0.8125
-37.5,1.3499030933393643,3.25
-37.5,1.337631247036279,1.625
-38.0,1.3192234775816514,6.5
-37.5,1.3437671701878218,3.25
-38.0,1.3560390164909069,1.625
-38.0,1.3069516312785663,7.3125
-37.5,1.3437671701878218,4.875
-37.5,1.3437671701878218,5.6875
-38.0,1.3437671701878218,1.625
-38.0,1.3069516312785663,8.125
-37.5,1.3560390164909069,1.625
-37.5,1.3314953238847365,6.5
-37.5,1.3499030933393643,1.625
-37.5,1.3314953238847365,6.5
-37.5,1.3560390164909069,2.4375
-37.5,1.337631247036279,5.6875
-37.5,1.3560390164909069,4.875
-37.5,1.337631247036279,7.3125
-37.5,1.368310862793992,3.25
-37.5,1.3560390164909069,6.5
-37.5,1.3744467859455345,3.25
-37.5,1.3499030933393643,7.3125
-37.5,1.3621749396424494,4.875
-37.5,1.3867186322486196,3.25
-38.0,1.3989904785517047,1.625
-37.5,1.423534171157875,0.8125
-37.5,1.3867186322486196,4.875
-38.0,1.4051264017032472,0.0
-37.5,1.3867186322486196,4.875
-38.0,1.3928545554001621,4.875
-38.0,1.41126232485479,0.0
-38.0,1.380582709097077,5.6875
-38.0,1.3437671701878218,8.9375
-38.5,1.325359400733194,6.5
-38.5,1.2640001692177683,4.875
-38.5,1.2026409377023426,7.3125
-38.5,1.1658253987930873,9.75
-38.0,1.1535535524900022,7.3125
-38.0,1.141281706186917,9.75
-38.0,1.1903690913992575,0.0
-38.0,1.1903690913992575,4.875
-38.0,1.1965050145508,3.25
-37.5,1.214912784005428,-0.8125
-37.5,1.2026409377023426,2.4375
-37.5,1.184233168247715,1.625
-38.0,1.1719613219446299,3.25
-37.5,1.184233168247715,0.8125
-38.0,1.1658253987930873,3.25
-38.0,1.1596894756415448,8.125
-38.0,1.1719613219446299,4.875
-37.5,1.184233168247715,1.625
-38.0,1.1535535524900022,5.6875
-37.5,1.1596894756415448,5.6875
-37.5,1.1780972450961724,2.4375
-37.5,1.1596894756415448,2.4375
-37.5,1.1596894756415448,4.875
-38.0,1.1535535524900022,7.3125
-37.5,1.1903690913992575,1.625
-37.5,1.184233168247715,3.25
-37.5,1.1719613219446299,2.4375
-37.5,1.1719613219446299,4.875
-38.0,1.1780972450961724,6.5
-38.0,1.1965050145508,6.5
-38.0,1.1780972450961724,1.625
-37.5,1.1658253987930873,7.3125
-38.0,1.1719613219446299,5.6875
-38.0,1.184233168247715,1.625
-38.0,1.184233168247715,4.875
-37.5,1.1903690913992575,3.25
-38.0,1.1965050145508,0.0
-38.0,1.1780972450961724,4.875
-38.0,1.1780972450961724,5.6875
-38.0,1.1903690913992575,0.0
-38.0,1.184233168247715,3.25
-38.0,1.1596894756415448,8.125
-38.0,1.227184630308513,-2.4375
-38.0,1.1965050145508,0.8125
-38.0,1.1535535524900022,8.125
-38.0,1.1658253987930873,5.6875
-37.5,1.1903690913992575,0.8125
-38.0,1.2026409377023426,1.625
-38.0,1.2087768608538851,-1.625
-38.0,1.184233168247715,3.25
-38.0,1.184233168247715,4.875
-38.0,1.1780972450961724,6.5
-38.0,1.1596894756415448,6.5
-38.0,1.1903690913992575,1.625
-38.0,1.1965050145508,3.25
-38.0,1.2087768608538851,1.625
-38.0,1.1780972450961724,7.3125
-38.0,1.1780972450961724,6.5
-38.0,1.2026409377023426,3.25
-38.0,1.1965050145508,1.625
-38.0,1.1658253987930873,7.3125
-38.0,1.1965050145508,4.875
-38.0,1.214912784005428,0.8125
-38.0,1.1719613219446299,6.5
-38.0,1.2026409377023426,2.4375
-38.0,1.1903690913992575,3.25
-38.0,1.214912784005428,-0.8125
-38.0,1.1719613219446299,5.6875
-38.0,1.1903690913992575,3.25
-38.0,1.1903690913992575,2.4375
-38.0,1.1965050145508,2.4375
-38.0,1.1658253987930873,7.3125
-38.0,1.1903690913992575,3.25
-38.5,1.1719613219446299,6.5
-38.0,1.1903690913992575,3.25
-37.5,1.1719613219446299,5.6875
-38.0,1.1780972450961724,2.4375
-38.0,1.1596894756415448,5.6875
-38.0,1.1965050145508,1.625
-38.0,1.2087768608538851,-0.8125
-37.5,1.1965050145508,2.4375
-38.0,1.1903690913992575,1.625
-38.0,1.1965050145508,0.8125
-38.0,1.2026409377023426,0.8125
-38.0,1.184233168247715,3.25
-38.0,1.1596894756415448,7.3125
-38.0,1.1780972450961724,6.5
-38.0,1.1596894756415448,8.125
-38.0,1.1719613219446299,5.6875
-38.0,1.1780972450961724,4.875
-38.0,1.184233168247715,3.25
-38.0,1.184233168247715,3.25
-38.0,1.1596894756415448,4.875
-38.0,1.1596894756415448,5.6875
-38.0,1.1474176293384597,8.9375
-38.0,1.1351457830353744,9.75
-38.0,1.1903690913992575,0.0
-38.0,1.141281706186917,7.3125
-38.0,1.1290098598838318,9.75
-38.0,1.184233168247715,1.625
-38.0,1.1719613219446299,3.25
-38.0,1.1780972450961724,0.8125
-38.0,1.1535535524900022,6.5
-38.0,1.1719613219446299,1.625
-38.0,1.141281706186917,5.6875
-38.0,1.1596894756415448,4.875
-38.0,1.141281706186917,6.5
-38.0,1.1535535524900022,2.4375
-38.5,1.1596894756415448,0.8125
