-44.5,0.0,7.3125
-45.0,0.006135923151542322,8.9375
-45.0,0.0,5.6875
-45.0,0.024543692606170175,1.625
-45.0,0.018407769454627854,-4.875
-45.0,-0.03681553890925482,3.25
-45.0,-0.012271846303085532,16.25
-45.0,0.024543692606170175,4.875
-45.0,0.0,4.875
-45.0,-0.012271846303084644,5.6875
-45.0,0.0,3.25
-45.0,0.018407769454626965,4.875
-45.5,0.0,1.625
-45.5,-0.012271846303084644,3.25
-45.0,0.006135923151542322,4.875
-45.0,-0.018407769454627854,5.6875
-45.0,0.030679615757713385,-1.625
-45.0,-0.012271846303085532,0.0
-45.0,-0.0674951546669682,14.625
-45.5,0.024543692606170175,10.5625
-45.0,0.04295146206079803,4.875
-45.5,-0.006135923151542322,3.25
-45.0,-0.030679615757713385,10.5625
-45.0,0.03681553890925571,-3.25
-45.0,0.03681553890925571,-4.875
-45.0,-0.09203884727313838,19.5
-45.0,0.04295146206079803,1.625
-45.0,-0.00613592315154321,5.6875
-45.5,0.024543692606170175,0.0
-45.0,-0.05522330836388267,16.25
-45.5,0.05522330836388267,5.6875
-45.5,0.018407769454627854,-7.3125
-45.0,-0.04908738521234035,8.9375
-45.5,0.006135923151542322,10.5625
-45.5,0.018407769454627854,3.25
-45.5,0.04295146206079803,-8.9375
-45.0,-0.06135923151542588,5.6875
-45.0,0.04295146206079803,-3.25
-45.5,-0.03681553890925482,4.875
-45.5,0.04908738521234035,-5.6875
-45.5,0.0,-1.625
-45.5,-0.030679615757713385,1.625
-45.5,0.00613592315154321,3.25
-45.5,-0.018407769454627854,8.9375
-45.0,0.0,1.625
-45.5,0.03681553890925482,-3.25
-45.5,0.012271846303085532,-4.875
-45.0,-0.05522330836388267,1.625
-45.0,0.030679615757712497,-1.625
-45.5,-0.012271846303085532,1.625
-45.0,0.012271846303085532,-3.25
-45.5,-0.04908738521234035,14.625
-45.5,0.018407769454627854,1.625
-45.0,0.012271846303084644,7.3125
-45.5,-0.024543692606170175,4.875
-45.5,-0.006135923151542322,5.6875
-45.0,-0.018407769454627854,14.625
-45.5,0.0,14.625
-45.5,0.030679615757712497,5.6875
-45.5,-0.024543692606170175,7.3125
-45.0,0.04908738521234035,0.0
-45.0,0.0,-1.625
-45.5,-0.061359231515424995,16.25
-45.5,0.018407769454626965,3.25
-45.0,0.03681553890925571,-5.6875
-45.5,-0.006135923151542322,-1.625
-45.5,-0.012271846303085532,7.3125
-45.0,0.00613592315154321,-1.625
-45.0,-0.024543692606171064,14.625
-45.5,0.030679615757713385,-4.875
-45.5,-0.018407769454627854,3.25
-45.0,0.006135923151542322,5.6875
-45.5,-0.012271846303084644,8.9375
-45.5,0.012271846303084644,-1.625
-45.0,-0.024543692606170175,10.5625
-45.0,0.0,12.1875
-45.5,0.05522330836388356,-5.6875
-45.5,-0.06135923151542588,10.5625
-45.5,-0.024543692606170175,12.1875
-45.5,0.04295146206079803,5.6875
-45.5,-0.018407769454627854,5.6875
-45.5,0.006135923151542322,7.3125
-45.5,0.018407769454627854,4.875
-45.5,-0.024543692606170175,4.875
-45.5,0.012271846303084644,3.25
-45.0,0.03681553890925571,-5.6875
-45.5,-0.03681553890925571,7.3125
-45.5,0.030679615757713385,-3.25
-45.0,-0.030679615757713385,4.875
-45.0,0.00613592315154321,3.25
-45.5,0.012271846303084644,1.625
-45.5,-0.018407769454627854,3.25
-45.0,-0.012271846303084644,1.625
-45.0,0.04295146206079803,-4.875
-45.5,-0.030679615757713385,-1.625
-46.0,0.024543692606171064,-1.625
-45.0,-0.030679615757713385,7.3125
-45.5,-0.006135923151542322,4.875
-45.5,0.024543692606170175,1.625
-45.0,-0.030679615757712497,10.5625
-45.5,0.03681553890925482,-1.625
-45.5,-0.030679615757712497,5.6875
-45.0,0.006135923151542322,7.3125
-45.5,0.012271846303085532,0.0
-45.5,0.006135923151542322,-3.25
-45.5,-0.04295146206079803,7.3125
-45.5,0.018407769454627854,5.6875
-45.0,0.024543692606170175,1.625
-45.5,-0.030679615757712497,7.3125
-45.0,0.024543692606170175,1.625
-45.5,-0.00613592315154321,0.0
-45.5,-0.018407769454626965,7.3125
-45.5,0.018407769454626965,3.25
-45.0,0.018407769454627854,-4.875
-45.0,-0.024543692606170175,-1.625
-45.5,0.012271846303085532,1.625
-45.5,-0.012271846303085532,1.625
-45.5,0.030679615757713385,-3.25
-45.5,0.0,-10.5625
-45.5,0.0,-7.3125
-45.5,-0.05522330836388356,5.6875
-45.0,0.018407769454627854,4.875
-45.5,0.04908738521234035,-10.5625
-45.5,-0.04295146206079803,1.625
-45.5,0.0,1.625
-45.5,-0.024543692606170175,12.1875
-45.5,0.0674951546669682,-8.9375
-45.5,-0.04295146206079803,0.0
-45.5,-0.030679615757712497,10.5625
-45.5,-0.030679615757713385,12.1875
-45.5,0.04908738521234124,1.625
-45.5,0.018407769454626965,0.0
-45.5,-0.024543692606170175,0.0
-45.5,-0.006135923151542322,3.25
-45.5,0.012271846303085532,-1.625
-46.0,0.006135923151542322,4.875
-45.5,-0.024543692606170175,4.875
-45.5,0.024543692606170175,-4.875
-45.5,0.024543692606170175,1.625
-45.5,-0.04295146206079803,0.0
-45.0,-0.018407769454627854,3.25
-45.5,0.018407769454627854,1.625
-45.5,0.006135923151542322,-3.25
-45.5,0.012271846303085532,0.0
-45.5,-0.006135923151542322,-1.625
-46.0,0.018407769454626965,-1.625
-45.5,-0.03681553890925482,8.9375
-45.5,0.06135923151542588,-10.5625
-45.5,-0.03681553890925571,3.25
-45.5,-0.006135923151542322,0.0
-45.5,-0.018407769454627854,7.3125
-45.5,0.030679615757712497,-1.625
-45.5,-0.024543692606170175,7.3125
-45.5,-0.018407769454627854,7.3125
-45.5,0.00613592315154321,7.3125
-45.5,0.018407769454626965,5.6875
-46.0,-0.006135923151542322,5.6875
-45.5,0.012271846303085532,4.875
-45.5,0.006135923151542322,0.0
-45.5,0.0,1.625
-46.0,0.0,-3.25
-45.5,-0.006135923151542322,3.25
-45.5,-0.030679615757713385,8.9375
-45.5,0.04295146206079803,1.625
-46.0,-0.006135923151542322,4.875
-46.0,-0.024543692606170175,3.25
-45.5,0.04295146206079803,-3.25
-45.5,-0.030679615757713385,1.625
-45.5,0.012271846303085532,4.875
-46.0,0.024543692606170175,-5.6875
-45.5,-0.06135923151542588,14.625
-46.0,0.06135923151542588,-3.25
-45.5,0.018407769454627854,-7.3125
-45.5,-0.08590292412159606,14.625
-45.5,0.006135923151542322,13.0
-46.0,0.012271846303085532,8.9375
-46.0,-0.012271846303085532,19.5
-45.5,0.04908738521234035,0.0
-45.5,-0.03681553890925482,12.1875
-46.0,0.03681553890925482,5.6875
-46.0,0.0,1.625
-46.0,0.012271846303085532,-3.25
-46.0,-0.04908738521234035,14.625
-46.0,0.030679615757712497,7.3125
-46.0,0.024543692606170175,-3.25
-46.0,-0.0674951546669682,8.9375
-46.0,0.00613592315154321,8.9375
-45.5,0.04295146206079714,-7.3125
-46.0,-0.018407769454626965,1.625
-45.5,-0.04908738521234124,13.0
-46.0,0.012271846303085532,10.5625
-46.0,0.024543692606170175,1.625
-46.0,-0.012271846303084644,0.0
-46.0,0.04908738521234035,-1.625
-46.0,-0.03681553890925571,4.875
-45.5,-0.04908738521234035,17.875
-46.0,0.06135923151542588,-4.875
-46.0,-0.012271846303085532,-3.25
-46.0,-0.030679615757712497,8.9375
-46.0,0.0,5.6875
-46.0,0.07363107781851053,-7.3125
-46.0,-0.06135923151542588,3.25
-46.0,-0.006135923151542322,5.6875
-46.0,0.04295146206079803,-7.3125
-45.5,-0.06135923151542588,13.0
-46.0,0.024543692606170175,3.25
-46.0,0.018407769454627854,-1.625
-46.0,-0.018407769454627854,4.875
-46.0,-0.030679615757712497,21.125
-46.0,0.05522330836388267,-1.625
-46.0,0.0,0.0
-46.5,-0.006135923151542322,0.0
-46.0,-0.024543692606170175,8.9375
-46.0,0.05522330836388267,-5.6875
-46.5,-0.03681553890925482,1.625
-46.0,-0.04908738521234035,16.25
-46.5,0.0674951546669682,-3.25
-46.5,-0.03681553890925571,1.625
-46.5,0.0,5.6875
-46.5,-0.012271846303085532,5.6875
-46.5,0.030679615757713385,1.625
-46.5,0.0,-3.25
-46.0,-0.03681553890925571,3.25
-46.5,0.0,5.6875
-46.5,0.018407769454627854,1.625
-46.5,-0.018407769454627854,1.625
-46.5,-0.006135923151542322,3.25
-46.5,0.012271846303084644,-1.625
-46.5,-0.05522330836388267,16.25
-46.5,0.030679615757712497,1.625
-46.5,-0.006135923151542322,8.9375
-46.5,0.012271846303085532,1.625
-46.5,0.012271846303084644,-3.25
-46.5,-0.018407769454627854,3.25
-46.5,0.0,7.3125
-46.5,0.00613592315154321,-1.625
-46.5,-0.030679615757713385,5.6875
-46.5,0.030679615757713385,1.625
-46.5,0.012271846303084644,-1.625
-46.5,-0.006135923151542322,-4.875
-46.5,-0.03681553890925571,3.25
-46.5,-0.030679615757712497,7.3125
-46.5,0.006135923151542322,7.3125
-46.5,0.03681553890925571,-8.9375
-46.5,0.0,-5.6875
-46.5,0.07363107781851053,-23.5625
-46.5,-0.11044661672776623,4.875
-46.5,0.05522330836388356,-8.9375
-46.5,-0.07363107781851141,5.6875
-46.5,0.018407769454627854,-3.25
-46.5,-0.024543692606170175,7.3125
-46.5,0.0674951546669682,-5.6875
-46.5,-0.04908738521234035,0.0
-46.5,0.012271846303084644,-5.6875
-46.5,-0.03681553890925482,4.875
-46.5,0.0,8.9375
-47.0,0.012271846303084644,1.625
-47.0,-0.012271846303084644,4.875
-46.5,-0.012271846303085532,5.6875
-47.0,0.012271846303085532,-1.625
-46.5,-0.00613592315154321,-1.625
-46.5,0.012271846303085532,-4.875
-46.5,-0.05522330836388267,5.6875
-47.0,0.04295146206079714,-3.25
-46.5,0.012271846303085532,-3.25
-46.5,-0.006135923151542322,-5.6875
-46.5,-0.08590292412159606,14.625
-46.5,0.04908738521234035,3.25
-46.5,-0.006135923151542322,3.25
-46.5,-0.03681553890925571,16.25
-47.0,0.05522330836388356,-7.3125
-47.0,-0.06135923151542588,13.0
-46.5,0.012271846303084644,12.1875
-46.5,0.012271846303085532,3.25
-47.0,0.012271846303085532,-3.25
-46.5,0.018407769454626965,-7.3125
-47.0,-0.03681553890925482,-1.625
-46.5,-0.012271846303085532,7.3125
-46.5,-0.006135923151542322,12.1875
-46.5,0.006135923151542322,4.875
-46.5,-0.012271846303084644,10.5625
-47.0,0.03681553890925482,0.0
-47.0,-0.006135923151542322,3.25
-46.5,-0.030679615757712497,4.875
-46.5,0.012271846303084644,7.3125
-46.5,0.006135923151542322,4.875
-46.5,0.0,3.25
-46.5,0.012271846303085532,-3.25
-46.0,0.012271846303085532,-5.6875
-46.5,-0.0674951546669682,8.9375
-46.0,0.05522330836388267,-3.25
-46.5,0.012271846303085532,-4.875
-46.5,-0.07976700097005374,12.1875
-46.5,0.030679615757712497,7.3125
-46.5,0.00613592315154321,5.6875
-46.5,0.006135923151542322,3.25
-46.5,-0.006135923151542322,1.625
-46.5,-0.024543692606170175,5.6875
-46.5,0.04295146206079714,-3.25
-46.5,0.012271846303085532,-5.6875
-46.5,-0.0674951546669682,13.0
-46.5,0.04908738521234035,-1.625
-46.0,0.012271846303085532,-4.875
-46.0,-0.00613592315154321,3.25
-46.5,-0.012271846303084644,-3.25
-46.5,-0.006135923151542322,4.875
-46.5,0.006135923151542322,5.6875
-46.5,0.024543692606170175,-3.25
-46.5,-0.03681553890925571,5.6875
-46.5,0.012271846303085532,3.25
-46.0,-0.030679615757712497,8.9375
-46.0,0.03681553890925482,5.6875
-46.0,-0.012271846303084644,5.6875
-45.5,-0.012271846303085532,12.1875
-46.0,0.024543692606170175,7.3125
-46.0,-0.012271846303084644,5.6875
-46.0,0.024543692606170175,7.3125
-45.5,-0.018407769454627854,7.3125
-46.0,0.012271846303084644,5.6875
-46.0,-0.012271846303084644,8.9375
-46.0,0.006135923151542322,7.3125
-45.5,0.0,8.9375
-45.5,0.0,10.5625
-45.0,0.0,12.1875
-45.5,0.024543692606170175,5.6875
-45.5,0.012271846303085532,5.6875
-45.0,-0.030679615757713385,7.3125
-45.5,0.04908738521234124,-4.875
-45.0,-0.024543692606170175,1.625
-45.0,-0.018407769454627854,12.1875
-45.5,0.012271846303084644,1.625
-45.5,0.00613592315154321,4.875
-45.0,-0.012271846303085532,10.5625
-45.0,0.03681553890925571,1.625
-45.0,-0.012271846303085532,12.1875
-44.5,-0.030679615757712497,12.1875
-44.5,0.03681553890925482,5.6875
-44.5,0.018407769454627854,1.625
-44.0,0.0,7.3125
-44.0,0.030679615757713385,5.6875
-44.0,-0.024543692606171064,10.5625
-44.0,0.00613592315154321,5.6875
-44.0,0.03681553890925482,3.25
-44.0,-0.024543692606170175,14.625
-44.0,0.04908738521234124,1.625
-44.0,-0.018407769454627854,7.3125
-43.5,0.006135923151542322,3.25
-43.5,-0.012271846303085532,4.875
-43.5,-0.030679615757712497,13.0
-43.5,0.0674951546669682,-1.625
-43.5,-0.04295146206079803,7.3125
-43.5,0.018407769454627854,12.1875
-43.0,0.012271846303085532,7.3125
-43.0,-0.00613592315154321,3.25
-43.0,0.018407769454627854,5.6875
-42.5,0.018407769454627854,-1.625
-42.5,0.0,7.3125
-42.5,0.018407769454627854,0.0
-42.5,-0.00613592315154321,3.25
-42.5,0.012271846303085532,5.6875
-42.0,0.0,12.1875
-42.0,0.024543692606170175,7.3125
-42.0,0.024543692606170175,3.25
-42.0,-0.018407769454627854,5.6875
-42.0,0.030679615757713385,3.25
-41.5,-0.024543692606170175,5.6875
-40.5,0.04908738521234035,3.25
-40.5,0.04295146206079803,-4.875
-41.0,-0.018407769454627854,4.875
-40.5,0.0,3.25
-40.5,0.012271846303084644,0.0
-40.5,0.0,1.625
-40.5,-0.006135923151542322,3.25
-40.5,0.0,5.6875
-40.0,0.006135923151542322,4.875
-40.0,0.024543692606171064,-3.25
-40.0,0.0,4.875
-39.5,0.03681553890925482,4.875
-39.5,0.04908738521234035,-3.25
-40.0,0.00613592315154321,0.0
-40.0,0.012271846303084644,4.875
-40.5,0.10431069357622391,-1.625
-41.0,0.04908738521234035,8.9375
-40.5,0.07363107781851053,0.0
-40.5,0.030679615757713385,-4.875
-39.5,0.0,-1.625
-39.5,0.018407769454626965,3.25
-39.5,-0.006135923151542322,1.625
-39.0,0.018407769454627854,-3.25
-39.0,-0.012271846303085532,-1.625
-39.0,0.012271846303085532,-3.25
-39.0,-0.018407769454627854,0.0
-39.0,0.006135923151542322,1.625
-39.0,0.00613592315154321,-1.625
-39.0,-0.00613592315154321,-1.625
-39.0,-0.006135923151542322,1.625
-39.0,0.012271846303085532,-3.25
-39.0,-0.00613592315154321,-1.625
-39.0,-0.006135923151542322,-1.625
-39.0,-0.012271846303084644,1.625
-39.0,0.006135923151542322,0.0
-38.5,-0.024543692606170175,1.625
-39.0,0.03681553890925482,-5.6875
-39.0,0.0,-5.6875
-38.5,-0.024543692606170175,0.0
-38.5,0.024543692606170175,-10.5625
-38.0,-0.030679615757712497,0.0
-38.0,-0.012271846303084644,-1.625
-38.0,-0.024543692606171064,0.0
-38.0,0.0,1.625
-37.5,-0.012271846303084644,-1.625
-37.5,0.012271846303084644,-3.25
-37.0,0.0,-4.875
-36.5,0.00613592315154321,-1.625
-36.0,0.024543692606170175,7.3125
-35.5,0.05522330836388267,-3.25
-35.0,0.030679615757713385,-4.875
-35.5,-0.012271846303085532,-3.25
-35.0,0.024543692606170175,-4.875
-35.0,-0.006135923151542322,-4.875
-35.0,0.0,-3.25
-35.0,-0.012271846303085532,-1.625
-35.0,-0.006135923151542322,1.625
-35.0,0.006135923151542322,-1.625
-35.0,0.012271846303085532,0.0
-35.0,-0.024543692606170175,5.6875
-35.0,0.006135923151542322,4.875
-35.0,0.024543692606170175,-4.875
-35.0,0.0,-1.625
-35.0,-0.006135923151542322,-1.625
-35.0,0.006135923151542322,-3.25
-34.5,-0.006135923151542322,0.0
-35.0,0.006135923151542322,0.0
-35.0,0.0,1.625
-34.5,0.012271846303085532,-1.625
-35.0,0.0,0.0
-35.0,-0.00613592315154321,3.25
-35.0,0.04908738521234124,-3.25
-34.5,0.024543692606170175,-4.875
-35.0,-0.018407769454627854,1.625
-34.5,0.030679615757712497,-4.875
-34.5,0.024543692606170175,-5.6875
-35.0,0.0,0.0
-35.0,0.012271846303085532,1.625
-35.0,0.0,5.6875
-35.0,0.04295146206079803,-1.625
-35.0,0.012271846303084644,-1.625
-35.0,0.018407769454627854,-1.625
-35.5,0.030679615757713385,-4.875
-35.0,0.006135923151542322,-4.875
-35.5,0.024543692606170175,-10.5625
-35.5,-0.006135923151542322,-5.6875
-35.5,0.0,0.0
-35.5,0.018407769454627854,-4.875
-35.5,-0.00613592315154321,0.0
-35.5,0.0,0.0
-35.5,0.012271846303085532,-4.875
-35.5,0.018407769454627854,-4.875
-35.5,0.0,-4.875
-35.5,0.0,-1.625
-35.5,0.012271846303084644,-3.25
-36.0,0.012271846303085532,-1.625
-35.5,0.006135923151542322,-1.625
-35.5,0.018407769454627854,-1.625
-36.0,0.030679615757712497,-5.6875
-36.0,0.006135923151542322,1.625
-36.0,0.03681553890925571,0.0
-36.5,0.03681553890925571,-1.625
-36.5,-6.209554229361076,-10.5625
-36.5,0.01227184630308513,3.25
-36.5,0.06749515466696822,-5.6875
-36.5,0.04908738521234052,1.625
-36.5,0.0674951546669682,1.625
-37.0,0.04908738521234052,1.625
-36.5,0.018407769454627687,1.625
-37.0,0.05522330836388312,1.625
-37.0,0.05522330836388306,3.25
-37.0,0.06135923151542566,0.0
-37.5,0.030679615757712775,1.625
-37.5,0.012271846303085143,3.25
-37.5,0.012271846303085143,1.625
-37.5,0.0,4.875
-37.5,0.006135923151542544,-1.625
-37.5,0.018407769454627743,-5.6875
-37.5,-0.03067961575771283,3.25
-37.5,-0.006135923151542599,0.0
-38.0,0.0,5.6875
-38.0,-0.012271846303085143,5.6875
-38.0,-0.006135923151542544,3.25
-38.0,-0.012271846303085143,5.6875
-38.0,0.0,1.625
-38.0,-0.012271846303085088,4.875
-38.5,0.018407769454627687,-4.875
-39.0,0.0,1.625
-39.0,-0.012271846303085143,3.25
-39.5,0.006135923151542544,7.3125
-39.5,0.03067961575771283,-3.25
-40.0,0.0,7.3125
-40.5,0.030679615757712886,4.875
-41.0,-0.018407769454627743,12.1875
-41.0,0.024543692606170286,1.625
-41.0,-0.042951462060797974,-3.25
-41.5,-0.04908738521234052,3.25
-41.0,-0.04908738521234052,8.9375
-41.5,-0.024543692606170286,3.25
-41.5,-0.012271846303085088,1.625
-41.0,-0.006135923151542599,-5.6875
-41.5,-0.0674951546669682,5.6875
-41.5,-0.012271846303085143,7.3125
-41.5,0.006135923151542599,1.625
-41.5,-0.006135923151542599,-1.625
-41.5,0.006135923151542599,-3.25
-41.5,-0.04908738521234052,5.6875
-41.5,0.0,-3.25
-41.5,-0.03067961575771283,4.875
-41.5,-0.04908738521234052,5.6875
-41.5,-0.03067961575771283,-3.25
-41.5,-0.03681553890925539,-7.3125
-41.0,6.178874613603362,3.25
-40.5,-0.09203884727313838,-4.875
-39.5,-0.11658253987930856,-4.875
-38.0,-0.12271846303085177,-1.625
-37.5,-0.061359231515424995,3.25
-37.5,0.006135923151542322,0.0
-37.5,-0.024543692606170175,-3.25
-37.5,-0.012271846303085532,-3.25
-37.5,-0.012271846303084644,3.25
-37.5,0.0,0.0
-37.5,0.0,-4.875
-37.5,-0.012271846303085532,-3.25
-37.5,-0.006135923151542322,0.0
-37.5,0.006135923151542322,-1.625
-37.5,0.0,-5.6875
-37.5,-0.006135923151542322,-3.25
-37.5,-0.012271846303085532,-1.625
-38.0,0.012271846303085532,-4.875
-37.5,0.0,-7.3125
-37.5,-0.018407769454627854,0.0
-37.5,0.024543692606170175,-4.875
-38.0,-0.04908738521234035,8.9375
-37.5,0.024543692606170175,1.625
-37.5,0.030679615757712497,-7.3125
-38.0,-0.04908738521234035,5.6875
-37.5,0.024543692606170175,-5.6875
-38.0,-0.012271846303084644,-1.625
-37.5,0.0,-3.25
-37.5,-0.00613592315154321,-4.875
-38.0,0.00613592315154321,-5.6875
-38.0,-0.00613592315154321,-5.6875
-38.5,-0.030679615757712497,0.0
-38.0,-0.006135923151542322,-1.625
-38.0,-0.012271846303085532,3.25
-38.0,0.024543692606170175,-7.3125
-38.5,-0.03681553890925482,0.0
-38.5,-0.012271846303085532,-1.625
-39.0,-0.06135923151542588,10.5625
-39.0,0.030679615757713385,-1.625
-39.0,-0.030679615757713385,3.25
-39.5,-0.006135923151542322,1.625
-39.5,-0.006135923151542322,0.0
-39.5,0.012271846303084644,0.0
-39.5,0.018407769454627854,-3.25
-39.5,-0.024543692606170175,-1.625
-39.5,0.0,-1.625
-39.5,0.012271846303085532,-1.625
-39.5,-0.024543692606170175,7.3125
-39.5,0.018407769454626965,-4.875
-39.5,0.0,-5.6875
-39.5,0.0,-1.625
-39.5,0.00613592315154321,-7.3125
-39.5,-0.00613592315154321,-1.625
-39.5,0.012271846303085532,-8.9375
-39.5,0.012271846303085532,-10.5625
-39.5,-0.030679615757713385,-3.25
-39.5,0.018407769454627854,-7.3125
-39.5,-0.024543692606170175,-1.625
-39.5,0.018407769454627854,-5.6875
-39.5,-0.018407769454627854,0.0
-40.0,-0.012271846303085532,1.625
-40.0,0.024543692606170175,-4.875
-39.5,-0.018407769454626965,-1.625
-39.5,-0.00613592315154321,-3.25
-40.0,0.0,0.0
-40.0,-0.012271846303084644,-1.625
-40.0,-0.012271846303085532,1.625
-40.0,0.00613592315154321,0.0
-40.5,0.024543692606170175,-8.9375
-40.0,-0.018407769454627854,-10.5625
-40.5,-0.03681553890925571,3.25
-40.5,-0.012271846303084644,0.0
-40.5,0.012271846303084644,-1.625
-40.5,0.012271846303085532,-3.25
-41.0,-0.024543692606170175,4.875
-40.5,0.04295146206079803,-10.5625
-40.5,-0.03681553890925571,0.0
-40.5,-0.012271846303085532,5.6875
-40.5,0.03681553890925571,-5.6875
-41.0,-0.030679615757712497,0.0
-40.5,0.024543692606170175,-3.25
-40.5,-0.012271846303085532,-4.875
-40.5,0.006135923151542322,-1.625
-40.5,-0.006135923151542322,-3.25
-40.5,0.024543692606170175,-8.9375
-40.5,-0.012271846303084644,-3.25
-41.0,-0.018407769454627854,1.625
-40.5,-0.006135923151542322,1.625
-41.0,0.04908738521234035,-10.5625
-41.0,-0.024543692606170175,-8.9375
-41.0,0.018407769454627854,-10.5625
-41.0,-0.018407769454627854,-8.9375
-40.5,-0.012271846303085532,-3.25
-41.0,-0.018407769454627854,0.0
-41.0,0.018407769454627854,-7.3125
-41.0,0.0,-5.6875
-41.0,0.006135923151542322,-8.9375
-41.0,-0.006135923151542322,-7.3125
-41.5,-0.024543692606170175,3.25
-41.0,-0.006135923151542322,0.0
-41.0,0.006135923151542322,-1.625
-41.0,-0.006135923151542322,-3.25
-41.5,0.006135923151542322,-4.875
-41.5,0.0,-5.6875
-41.0,-0.012271846303084644,-5.6875
-41.5,0.006135923151542322,-3.25
-41.5,0.006135923151542322,-5.6875
-41.5,0.0,-5.6875
-41.5,0.006135923151542322,-1.625
-41.5,-0.012271846303084644,-4.875
-41.5,-0.024543692606170175,3.25
-42.0,0.030679615757712497,-4.875
-41.5,-0.018407769454627854,-3.25
-41.5,0.00613592315154321,-4.875
-42.0,0.030679615757712497,-13.0
-41.5,-0.03681553890925571,-5.6875
-42.0,-0.012271846303084644,4.875
-41.5,0.006135923151542322,-1.625
-41.5,-0.006135923151542322,-4.875
-42.0,0.030679615757712497,-10.5625
-41.5,0.0,-13.0
-42.0,-0.030679615757712497,1.625
-41.5,-0.00613592315154321,-1.625
-42.0,0.030679615757713385,-4.875
-42.0,-0.030679615757713385,1.625
-42.0,0.024543692606171064,-7.3125
-42.0,-0.03681553890925571,-1.625
-42.0,-0.006135923151542322,1.625
-42.0,0.0,1.625
-42.0,0.030679615757712497,-4.875
-41.5,0.012271846303085532,-7.3125
-42.0,-0.03681553890925571,1.625
-42.0,0.012271846303084644,0.0
-42.0,0.024543692606171064,-8.9375
-42.0,-0.024543692606171064,-4.875
-42.0,0.012271846303085532,-5.6875
-42.0,-0.018407769454627854,-4.875
-42.0,-0.012271846303084644,1.625
-42.0,0.006135923151542322,-4.875
-42.0,0.012271846303084644,-3.25
-42.0,-0.012271846303084644,0.0
-42.0,0.006135923151542322,-5.6875
-42.0,-0.006135923151542322,1.625
-42.0,0.006135923151542322,-1.625
-42.0,0.0,1.625
-42.0,-0.018407769454627854,3.25
-42.0,0.04295146206079803,-10.5625
-42.0,-0.030679615757712497,-1.625
-42.0,0.0,-4.875
-42.0,0.018407769454627854,-4.875
-42.0,-0.04295146206079803,1.625
-42.0,0.006135923151542322,3.25
-42.0,0.018407769454627854,-4.875
-42.0,0.0,-1.625
-42.0,-0.006135923151542322,0.0
-42.0,-0.012271846303085532,1.625
-42.0,-0.006135923151542322,1.625
-42.0,0.018407769454627854,1.625
-42.0,0.012271846303084644,-4.875
-42.0,-0.024543692606170175,-4.875
-42.0,0.0,-4.875
-42.0,0.006135923151542322,-4.875
-42.0,0.00613592315154321,-3.25
-42.0,0.018407769454626965,-7.3125
-42.0,-0.03681553890925482,0.0
-42.0,0.006135923151542322,0.0
-42.0,0.012271846303085532,-5.6875
-42.0,-0.018407769454627854,0.0
-42.0,0.012271846303084644,-1.625
-42.0,0.03681553890925571,-10.5625
-42.0,-0.0674951546669682,4.875
-42.0,0.030679615757712497,-4.875
-42.0,-0.006135923151542322,-5.6875
-42.0,0.0,-3.25
-42.0,-0.03681553890925571,5.6875
-42.0,0.0674951546669682,-8.9375
-42.0,-0.018407769454626965,-7.3125
-42.0,-0.012271846303085532,-1.625
-42.0,0.006135923151542322,-5.6875
-42.0,-0.012271846303084644,-1.625
-42.0,-0.012271846303085532,-1.625
-42.0,0.0,0.0
-42.0,0.030679615757713385,-10.5625
-42.0,-0.018407769454627854,-5.6875
-42.0,-0.006135923151542322,3.25
-42.0,0.006135923151542322,-5.6875
-42.0,0.012271846303084644,-8.9375
-42.0,-0.024543692606170175,0.0
-42.0,0.0,0.0
-42.5,0.012271846303085532,-4.875
-42.0,0.006135923151542322,-7.3125
-42.0,0.024543692606170175,-8.9375
-42.0,-0.030679615757712497,-4.875
-42.0,-0.018407769454627854,0.0
-42.0,0.024543692606170175,-5.6875
-42.0,-0.012271846303084644,-4.875
-42.0,-0.00613592315154321,-1.625
-42.0,0.024543692606170175,-8.9375
-42.5,-0.012271846303084644,-4.875
-42.0,-0.04908738521234035,7.3125
-42.5,0.030679615757712497,-3.25
-42.0,0.030679615757712497,-7.3125
-42.0,-0.024543692606170175,-7.3125
-42.0,0.012271846303085532,-4.875
-42.0,-0.012271846303085532,-5.6875
-42.0,-0.024543692606170175,3.25
-42.0,0.024543692606170175,0.0
-42.0,0.00613592315154321,-4.875
-42.0,0.0,-5.6875
-42.0,0.0,-1.625
-42.0,-0.012271846303085532,-4.875
-42.0,-0.030679615757712497,4.875
-42.0,0.04908738521234035,-7.3125
-42.5,-0.030679615757713385,-1.625
-42.5,0.00613592315154321,4.875
-42.0,0.030679615757712497,-7.3125
-42.0,-0.05522330836388267,-1.625
-42.0,-0.018407769454627854,5.6875
-42.0,0.024543692606170175,-5.6875
-42.0,0.012271846303084644,-3.25
-42.0,-0.024543692606170175,-3.25
-42.0,0.018407769454627854,-4.875
-42.0,-0.012271846303084644,0.0
-42.0,0.024543692606170175,-8.9375
-42.0,-0.03681553890925571,0.0
-42.0,0.006135923151542322,-1.625
-42.0,0.0,1.625
-42.5,0.012271846303085532,-3.25
-42.0,-0.012271846303085532,0.0
-42.0,0.0,3.25
-42.5,0.00613592315154321,-3.25
-42.0,-0.03681553890925571,4.875
-42.5,0.0,4.875
-42.0,-0.018407769454627854,12.1875
-42.0,0.012271846303085532,3.25
-42.0,0.006135923151542322,3.25
-42.5,0.018407769454627854,1.625
-42.0,-0.024543692606170175,4.875
-42.0,-0.00613592315154321,5.6875
-42.0,-0.006135923151542322,5.6875
-42.0,0.06135923151542588,-8.9375
-42.0,-0.05522330836388356,3.25
-42.5,0.024543692606171064,0.0
-42.0,-0.03681553890925571,7.3125
-42.0,0.030679615757712497,-3.25
-42.0,-0.018407769454627854,4.875
-42.5,-0.006135923151542322,4.875
-42.0,0.006135923151542322,1.625
-42.5,-0.006135923151542322,5.6875
-42.5,-0.006135923151542322,5.6875
-42.0,-0.006135923151542322,1.625
-42.5,-0.00613592315154321,7.3125
-42.5,0.012271846303085532,3.25
-42.0,-0.012271846303085532,5.6875
-42.0,0.03681553890925571,-4.875
-42.0,-0.04295146206079803,5.6875
-42.0,0.012271846303085532,4.875
-42.5,-0.012271846303085532,7.3125
-42.0,0.030679615757712497,-4.875
-42.0,-0.012271846303084644,-1.625
-42.0,-0.03681553890925571,8.9375
-42.5,0.030679615757713385,-1.625
-42.0,-0.030679615757713385,5.6875
-42.0,0.012271846303085532,5.6875
-42.0,-0.006135923151542322,1.625
-42.5,0.006135923151542322,3.25
-42.0,0.03681553890925482,-7.3125
-42.5,-0.04908738521234035,5.6875
-42.5,-0.012271846303084644,7.3125
-42.5,0.012271846303084644,1.625
-42.5,0.04295146206079803,-7.3125
-42.0,-0.006135923151542322,-3.25
-42.0,-0.012271846303085532,0.0
-42.5,-0.018407769454626965,1.625
-42.5,0.018407769454626965,3.25
-42.5,-0.03681553890925482,7.3125
-42.5,0.030679615757712497,-1.625
-42.5,0.018407769454627854,-4.875
-42.0,-0.04908738521234035,8.9375
-42.5,0.024543692606170175,4.875
-42.0,-0.006135923151542322,0.0
-42.5,-0.024543692606171064,12.1875
-42.0,0.018407769454627854,4.875
-42.5,0.00613592315154321,1.625
-42.0,0.012271846303084644,0.0
-42.0,0.012271846303085532,-4.875
-42.5,-0.04295146206079803,7.3125
-42.5,0.030679615757712497,-3.25
-42.0,-0.03681553890925571,7.3125
-42.5,0.04908738521234124,-4.875
-42.5,-0.030679615757713385,3.25
-42.5,0.00613592315154321,4.875
-42.5,0.0,3.25
-42.0,-0.024543692606171064,7.3125
-42.0,0.00613592315154321,7.3125
-42.0,-0.018407769454627854,5.6875
-42.0,0.04295146206079803,-1.625
-42.0,-0.018407769454627854,3.25
-42.0,-0.018407769454627854,7.3125
-42.0,0.030679615757713385,-1.625
-42.0,-0.00613592315154321,0.0
-42.0,-0.024543692606170175,4.875
-42.5,0.0,4.875
-42.0,0.012271846303085532,4.875
-42.0,0.006135923151542322,-1.625
-42.0,0.0,0.0
-42.0,0.0,3.25
-42.0,-0.018407769454627854,7.3125
-42.0,0.012271846303085532,3.25
-42.0,0.0,3.25
-42.0,0.0,-1.625
-42.0,0.006135923151542322,0.0
-42.0,-0.018407769454627854,4.875
-42.0,0.018407769454627854,0.0
-42.0,-0.018407769454627854,7.3125
-42.0,0.04295146206079803,-7.3125
-42.0,-0.024543692606170175,-1.625
-42.0,-0.006135923151542322,0.0
-42.0,0.018407769454627854,-1.625
-42.0,-0.03681553890925571,7.3125
-42.0,0.0,3.25
-42.0,0.05522330836388267,-7.3125
-42.0,0.0,-4.875
-42.0,-0.04908738521234035,4.875
-42.0,-0.030679615757712497,17.875
-42.0,0.030679615757712497,4.875
-42.0,0.0,12.1875
-41.5,0.012271846303085532,3.25
-42.0,-0.012271846303085532,5.6875
-42.0,0.0,12.1875
-41.5,-0.006135923151542322,4.875
-42.0,0.018407769454627854,4.875
-42.0,0.006135923151542322,0.0
-42.0,-0.018407769454627854,1.625
-42.0,-0.006135923151542322,12.1875
-42.0,0.024543692606170175,3.25
-41.5,0.018407769454627854,1.625
-42.0,-0.006135923151542322,0.0
-42.0,-0.030679615757713385,7.3125
-42.0,0.018407769454627854,5.6875
-41.5,-0.012271846303085532,8.9375
-42.0,0.024543692606171064,3.25
-42.0,-0.024543692606171064,4.875
-41.5,0.012271846303085532,3.25
-42.0,-0.018407769454627854,13.0
-41.5,0.012271846303085532,7.3125
-42.0,0.0,7.3125
-42.0,-0.00613592315154321,5.6875
-42.0,0.00613592315154321,7.3125
-41.5,0.030679615757712497,-5.6875
-41.5,-0.006135923151542322,-3.25
-42.0,-0.006135923151542322,0.0
-42.0,0.018407769454626965,-3.25
-41.5,-0.018407769454626965,0.0
-42.0,-0.00613592315154321,4.875
-42.0,-0.024543692606170175,10.5625
-41.5,0.0,8.9375
-41.5,0.024543692606170175,4.875
-41.5,0.0,3.25
-41.5,0.024543692606170175,-1.625
-41.5,-0.012271846303084644,4.875
-41.5,-0.018407769454627854,3.25
-42.0,0.0,3.25
-42.0,0.03681553890925571,-7.3125
-42.0,-0.024543692606170175,-1.625
-42.0,0.0,0.0
-41.5,-0.00613592315154321,3.25
-42.0,0.0,1.625
-42.0,0.00613592315154321,3.25
-41.5,-0.00613592315154321,7.3125
-42.0,-0.012271846303084644,8.9375
-42.0,0.006135923151542322,8.9375
-41.5,0.006135923151542322,4.875
-42.0,0.0,5.6875
-41.5,0.00613592315154321,1.625
-41.5,0.006135923151542322,0.0
-41.5,-0.018407769454627854,4.875
-41.5,0.024543692606170175,0.0
-41.5,-0.018407769454627854,7.3125
-41.5,0.024543692606170175,3.25
-41.5,-0.012271846303084644,-1.625
-42.0,0.018407769454627854,-3.25
-41.5,-0.04295146206079803,10.5625
-41.5,0.024543692606170175,1.625
-41.5,0.04295146206079803,-8.9375
-41.5,-0.04295146206079803,4.875
-41.5,0.018407769454627854,-1.625
-41.5,-0.03681553890925571,5.6875
-41.5,0.024543692606170175,0.0
-41.5,0.006135923151542322,1.625
-42.0,-0.024543692606170175,8.9375
-41.5,0.03681553890925571,-1.625
-41.5,0.0,4.875
-41.5,-0.006135923151542322,0.0
-41.5,-0.030679615757713385,13.0
-41.5,0.00613592315154321,8.9375
-41.5,0.0,5.6875
-41.5,-0.00613592315154321,12.1875
-41.5,0.018407769454627854,4.875
-41.5,-0.012271846303084644,12.1875
-41.0,0.0,12.1875
-41.5,0.04295146206079714,0.0
-41.5,-0.018407769454626965,1.625
-41.5,0.012271846303084644,1.625
-41.5,0.006135923151542322,-4.875
-41.5,0.0,-1.625
-41.0,-0.024543692606170175,3.25
-41.0,0.00613592315154321,4.875
-41.0,-0.018407769454627854,7.3125
-41.0,0.0,5.6875
-41.0,0.030679615757712497,1.625
-41.0,-0.024543692606170175,5.6875
-41.5,0.012271846303085532,7.3125
-41.0,-0.018407769454627854,8.9375
-41.5,-0.018407769454627854,21.125
-41.0,0.024543692606170175,7.3125
-41.0,0.018407769454627854,4.875
-41.0,0.0,0.0
-41.5,0.018407769454627854,0.0
-41.0,-0.018407769454627854,5.6875
-41.0,0.012271846303084644,0.0
-41.5,-0.006135923151542322,3.25
-41.5,-0.012271846303084644,5.6875
-41.0,-0.012271846303085532,7.3125
-41.0,0.018407769454627854,4.875
-41.5,0.0,1.625
-41.0,-0.012271846303085532,4.875
-41.0,0.0,1.625
-41.0,0.018407769454627854,0.0
-41.5,0.0,4.875
-41.0,-0.012271846303084644,3.25
-41.0,0.012271846303084644,1.625
-41.0,-0.024543692606170175,10.5625
-41.0,0.018407769454627854,3.25
-41.5,0.030679615757712497,-5.6875
-41.0,0.018407769454627854,-7.3125
-41.5,-0.018407769454627854,0.0
-41.0,-0.018407769454627854,1.625
-41.0,0.00613592315154321,4.875
-41.0,0.006135923151542322,1.625
-41.0,-0.012271846303085532,3.25
-41.0,0.012271846303085532,3.25
-41.0,-0.012271846303085532,1.625
-41.0,0.012271846303085532,0.0
-41.0,-0.006135923151542322,0.0
-41.0,0.018407769454627854,1.625
-41.0,-0.012271846303085532,7.3125
-41.0,0.03681553890925571,-4.875
-41.0,-0.03681553890925571,4.875
-40.5,0.03681553890925571,-1.625
-40.0,-0.018407769454627854,3.25
-40.0,0.03681553890925482,5.6875
-39.5,0.03681553890925571,0.0
-38.5,0.07363107781851053,-3.25
