40000000000000000000CC00,865.7,5.976389,1.625
40000000000000000000CC00,865.7,5.976389,2.4375
40000000000000000000CC00,865.7,5.976389,3.25
40000000000000000000CC00,865.7,5.976389,2.4375
40000000000000000000CC00,865.7,5.988661,2.4375
40000000000000000000CC00,865.7,5.988661,3.25
40000000000000000000CC00,865.7,6.0070686,-0.8125
40000000000000000000CC00,865.7,6.0070686,0.8125
40000000000000000000CC00,865.7,6.0070686,0.8125
40000000000000000000CC00,865.7,6.0132046,1.625
40000000000000000000CC00,865.7,6.0254765,-1.625
40000000000000000000CC00,865.7,6.0009327,2.4375
40000000000000000000CC00,865.7,6.0070686,2.4375
40000000000000000000CC00,865.7,6.0070686,3.25
40000000000000000000CC00,865.7,6.0132046,0.8125
40000000000000000000CC00,865.7,6.0193405,0.8125
40000000000000000000CC00,865.7,6.0193405,0.0
40000000000000000000CC00,865.7,6.0193405,0.8125
40000000000000000000CC00,865.7,6.0070686,1.625
40000000000000000000CC00,865.7,6.0070686,1.625
40000000000000000000CC00,865.7,6.0009327,3.25
40000000000000000000CC00,865.7,5.9947968,3.25
40000000000000000000CC00,865.7,6.0070686,0.8125
40000000000000000000CC00,865.7,6.0009327,1.625
40000000000000000000CC00,865.7,5.9947968,3.25
40000000000000000000CC00,865.7,5.988661,4.875
40000000000000000000CC00,865.7,6.0070686,0.0
40000000000000000000CC00,865.7,5.9947968,2.4375
40000000000000000000CC00,865.7,5.988661,3.25
40000000000000000000CC00,865.7,5.982525,5.6875
40000000000000000000CC00,865.7,6.0009327,1.625
40000000000000000000CC00,865.7,6.0009327,0.8125
40000000000000000000CC00,865.7,5.988661,4.875
40000000000000000000CC00,865.7,6.0009327,0.0
40000000000000000000CC00,865.7,6.0009327,1.625
40000000000000000000CC00,865.7,5.988661,1.625
40000000000000000000CC00,865.7,5.988661,3.25
40000000000000000000CC00,865.7,6.0009327,0.8125
40000000000000000000CC00,865.7,5.9947968,2.4375
40000000000000000000CC00,865.7,6.0070686,0.8125
40000000000000000000CC00,865.7,6.0070686,0.0
40000000000000000000CC00,865.7,5.976389,3.25
40000000000000000000CC00,865.7,5.9947968,1.625
40000000000000000000CC00,865.7,6.0070686,0.0
40000000000000000000CC00,865.7,5.988661,3.25
40000000000000000000CC00,865.7,5.988661,2.4375
40000000000000000000CC00,865.7,5.976389,4.875
40000000000000000000CC00,865.7,5.976389,3.25
40000000000000000000CC00,865.7,5.982525,2.4375
40000000000000000000CC00,865.7,5.988661,0.0
40000000000000000000CC00,865.7,5.988661,1.625
40000000000000000000CC00,865.7,5.970253,2.4375
40000000000000000000CC00,865.7,5.970253,3.25
40000000000000000000CC00,865.7,5.970253,4.875
40000000000000000000CC00,865.7,5.976389,1.625
40000000000000000000CC00,865.7,5.976389,1.625
40000000000000000000CC00,865.7,5.970253,0.8125
40000000000000000000CC00,865.7,5.970253,1.625
40000000000000000000CC00,865.7,5.970253,1.625
40000000000000000000CC00,865.7,5.982525,0.8125
40000000000000000000CC00,865.7,5.982525,1.625
40000000000000000000CC00,865.7,5.970253,1.625
40000000000000000000CC00,865.7,5.970253,2.4375
40000000000000000000CC00,865.7,5.976389,2.4375
40000000000000000000CC00,865.7,5.970253,2.4375
40000000000000000000CC00,865.7,5.976389,2.4375
40000000000000000000CC00,865.7,5.970253,3.25
40000000000000000000CC00,865.7,5.976389,1.625
40000000000000000000CC00,865.7,5.976389,0.8125
40000000000000000000CC00,865.7,5.970253,2.4375
40000000000000000000CC00,865.7,5.970253,1.625
40000000000000000000CC00,865.7,5.982525,0.8125
40000000000000000000CC00,865.7,5.970253,2.4375
40000000000000000000CC00,865.7,5.976389,0.0
40000000000000000000CC00,865.7,5.970253,1.625
40000000000000000000CC00,865.7,5.976389,0.8125
40000000000000000000CC00,865.7,5.970253,0.8125
40000000000000000000CC00,865.7,5.9579816,2.4375
40000000000000000000CC00,865.7,5.9641175,2.4375
40000000000000000000CC00,865.7,5.9457097,5.6875
40000000000000000000CC00,865.7,5.9641175,1.625
40000000000000000000CC00,865.7,5.9518456,3.25
40000000000000000000CC00,865.7,5.933438,2.4375
40000000000000000000CC00,865.7,5.939574,2.4375
40000000000000000000CC00,865.7,5.933438,3.25
40000000000000000000CC00,865.7,5.9457097,1.625
40000000000000000000CC00,865.7,5.9457097,1.625
40000000000000000000CC00,865.7,5.9457097,0.8125
40000000000000000000CC00,865.7,5.9457097,1.625
40000000000000000000CC00,865.7,5.939574,1.625
40000000000000000000CC00,865.7,5.933438,2.4375
40000000000000000000CC00,865.7,5.933438,2.4375
40000000000000000000CC00,865.7,5.939574,0.8125
40000000000000000000CC00,865.7,5.933438,2.4375
40000000000000000000CC00,865.7,5.927302,3.25
40000000000000000000CC00,865.7,5.927302,2.4375
40000000000000000000CC00,865.7,5.927302,0.8125
40000000000000000000CC00,865.7,5.927302,2.4375
40000000000000000000CC00,865.7,5.91503,4.875
40000000000000000000CC00,865.7,5.91503,0.8125
40000000000000000000CC00,865.7,5.902758,3.25
40000000000000000000CC00,865.7,5.91503,0.0
40000000000000000000CC00,865.7,5.896622,2.4375
40000000000000000000CC00,865.7,5.902758,2.4375
40000000000000000000CC00,865.7,5.91503,0.8125
40000000000000000000CC00,865.7,5.896622,2.4375
40000000000000000000CC00,865.7,5.896622,1.625
40000000000000000000CC00,865.7,5.902758,1.625
40000000000000000000CC00,865.7,5.8843503,2.4375
40000000000000000000CC00,865.7,5.8904862,0.8125
40000000000000000000CC00,865.7,5.8843503,1.625
40000000000000000000CC00,865.7,5.8659425,3.25
40000000000000000000CC00,865.7,5.8720784,2.4375
40000000000000000000CC00,865.7,5.8782144,1.625
40000000000000000000CC00,865.7,5.8782144,0.8125
40000000000000000000CC00,865.7,5.8720784,0.0
40000000000000000000CC00,865.7,5.8659425,1.625
40000000000000000000CC00,865.7,5.8659425,0.0
40000000000000000000CC00,865.7,5.8475347,3.25
40000000000000000000CC00,865.7,5.8475347,3.25
40000000000000000000CC00,865.7,5.8475347,3.25
40000000000000000000CC00,865.7,5.8536706,0.8125
40000000000000000000CC00,865.7,5.8598065,0.0
40000000000000000000CC00,865.7,5.8413987,0.8125
40000000000000000000CC00,865.7,5.8475347,0.0
40000000000000000000CC00,865.7,5.835263,2.4375
40000000000000000000CC00,865.7,5.835263,1.625
40000000000000000000CC00,865.7,5.829127,1.625
40000000000000000000CC00,865.7,5.829127,2.4375
40000000000000000000CC00,865.7,5.810719,3.25
40000000000000000000CC00,865.7,5.829127,0.0
40000000000000000000CC00,865.7,5.822991,0.8125
40000000000000000000CC00,865.7,5.810719,2.4375
40000000000000000000CC00,865.7,5.810719,1.625
40000000000000000000CC00,865.7,5.816855,0.8125
40000000000000000000CC00,865.7,5.810719,1.625
40000000000000000000CC00,865.7,5.829127,0.8125
40000000000000000000CC00,865.7,5.7984476,2.4375
40000000000000000000CC00,865.7,5.804583,3.25
40000000000000000000CC00,865.7,5.804583,0.8125
40000000000000000000CC00,865.7,5.7923117,2.4375
40000000000000000000CC00,865.7,5.7984476,0.8125
40000000000000000000CC00,865.7,5.78004,3.25
40000000000000000000CC00,865.7,5.7861757,2.4375
40000000000000000000CC00,865.7,5.78004,2.4375
40000000000000000000CC00,865.7,5.78004,1.625
40000000000000000000CC00,865.7,5.767768,1.625
40000000000000000000CC00,865.7,5.755496,3.25
40000000000000000000CC00,865.7,5.74936,2.4375
40000000000000000000CC00,865.7,5.7309523,5.6875
40000000000000000000CC00,865.7,5.737088,1.625
40000000000000000000CC00,865.7,5.7248163,2.4375
40000000000000000000CC00,865.7,5.7125444,3.25
40000000000000000000CC00,865.7,5.7186804,0.8125
40000000000000000000CC00,865.7,5.7002726,0.8125
40000000000000000000CC00,865.7,5.6818647,1.625
40000000000000000000CC00,865.7,5.669593,2.4375
40000000000000000000CC00,865.7,5.663457,3.25
40000000000000000000CC00,865.7,5.651185,3.25
40000000000000000000CC00,865.7,5.651185,2.4375
40000000000000000000CC00,865.7,5.645049,0.0
40000000000000000000CC00,865.7,5.6266418,2.4375
40000000000000000000CC00,865.7,5.61437,1.625
40000000000000000000CC00,865.7,5.620506,1.625
40000000000000000000CC00,865.7,5.602098,2.4375
40000000000000000000CC00,865.7,5.595962,1.625
40000000000000000000CC00,865.7,5.589826,1.625
40000000000000000000CC00,865.7,5.577554,1.625
40000000000000000000CC00,865.7,5.577554,1.625
40000000000000000000CC00,865.7,5.58369,0.8125
40000000000000000000CC00,865.7,5.5714183,1.625
40000000000000000000CC00,865.7,5.5530105,1.625
40000000000000000000CC00,865.7,5.5652823,0.0
40000000000000000000CC00,865.7,5.577554,-2.4375
40000000000000000000CC00,865.7,5.5468745,1.625
40000000000000000000CC00,865.7,5.5468745,1.625
40000000000000000000CC00,865.7,5.5346026,0.8125
40000000000000000000CC00,865.7,5.5407386,0.0
40000000000000000000CC00,865.7,5.5346026,0.8125
40000000000000000000CC00,865.7,5.5407386,-0.8125
40000000000000000000CC00,865.7,5.5284667,0.0
40000000000000000000CC00,865.7,5.5284667,0.8125
40000000000000000000CC00,865.7,5.510059,2.4375
40000000000000000000CC00,865.7,5.5223308,0.8125
40000000000000000000CC00,865.7,5.510059,1.625
40000000000000000000CC00,865.7,5.503923,1.625
40000000000000000000CC00,865.7,5.510059,0.8125
40000000000000000000CC00,865.7,5.503923,0.8125
40000000000000000000CC00,865.7,5.491651,3.25
40000000000000000000CC00,865.7,5.491651,1.625
40000000000000000000CC00,865.7,5.497787,0.8125
40000000000000000000CC00,865.7,5.497787,1.625
40000000000000000000CC00,865.7,5.491651,1.625
40000000000000000000CC00,865.7,5.491651,0.8125
40000000000000000000CC00,865.7,5.485515,1.625
40000000000000000000CC00,865.7,5.485515,0.0
40000000000000000000CC00,865.7,5.4671073,1.625
40000000000000000000CC00,865.7,5.485515,0.8125
40000000000000000000CC00,865.7,5.485515,0.0
40000000000000000000CC00,865.7,5.473243,0.8125
40000000000000000000CC00,865.7,5.454836,3.25
40000000000000000000CC00,865.7,5.473243,0.8125
40000000000000000000CC00,865.7,5.4671073,0.8125
40000000000000000000CC00,865.7,5.479379,-0.8125
40000000000000000000CC00,865.7,5.485515,-0.8125
40000000000000000000CC00,865.7,5.4671073,-0.8125
40000000000000000000CC00,865.7,5.4671073,0.8125
40000000000000000000CC00,865.7,5.460972,0.0
40000000000000000000CC00,865.7,5.436428,2.4375
40000000000000000000CC00,865.7,5.460972,0.0
40000000000000000000CC00,865.7,5.442564,0.8125
40000000000000000000CC00,865.7,5.4487,0.0
40000000000000000000CC00,865.7,5.430292,3.25
40000000000000000000CC00,865.7,5.4487,0.8125
40000000000000000000CC00,865.7,5.442564,1.625
40000000000000000000CC00,865.7,5.442564,0.8125
40000000000000000000CC00,865.7,5.4487,0.0
40000000000000000000CC00,865.7,5.436428,0.8125
40000000000000000000CC00,865.7,5.424156,1.625
40000000000000000000CC00,865.7,5.430292,1.625
40000000000000000000CC00,865.7,5.436428,0.0
40000000000000000000CC00,865.7,5.436428,1.625
40000000000000000000CC00,865.7,5.442564,0.0
40000000000000000000CC00,865.7,5.436428,0.8125
40000000000000000000CC00,865.7,5.430292,1.625
40000000000000000000CC00,865.7,5.424156,3.25
40000000000000000000CC00,865.7,5.430292,1.625
40000000000000000000CC00,865.7,5.430292,1.625
40000000000000000000CC00,865.7,5.430292,0.8125
40000000000000000000CC00,865.7,5.442564,0.8125
40000000000000000000CC00,865.7,5.430292,2.4375
40000000000000000000CC00,865.7,5.436428,2.4375
40000000000000000000CC00,865.7,5.424156,4.875
40000000000000000000CC00,865.7,5.454836,-1.625
40000000000000000000CC00,865.7,5.436428,1.625
40000000000000000000CC00,865.7,5.436428,0.8125
40000000000000000000CC00,865.7,5.442564,0.8125
40000000000000000000CC00,865.7,5.4487,0.0
40000000000000000000CC00,865.7,5.442564,0.0
40000000000000000000CC00,865.7,5.442564,0.8125
40000000000000000000CC00,865.7,5.4487,0.8125
40000000000000000000CC00,865.7,5.442564,0.8125
40000000000000000000CC00,865.7,5.436428,1.625
40000000000000000000CC00,865.7,5.4487,1.625
40000000000000000000CC00,865.7,5.4487,1.625
40000000000000000000CC00,865.7,5.442564,1.625
40000000000000000000CC00,865.7,5.4487,0.8125
40000000000000000000CC00,865.7,5.442564,0.8125
40000000000000000000CC00,865.7,5.436428,2.4375
40000000000000000000CC00,865.7,5.442564,2.4375
40000000000000000000CC00,865.7,5.4487,-0.8125
40000000000000000000CC00,865.7,5.4487,2.4375
40000000000000000000CC00,865.7,5.436428,1.625
40000000000000000000CC00,865.7,5.436428,2.4375
40000000000000000000CC00,865.7,5.442564,1.625
40000000000000000000CC00,865.7,5.442564,0.0
40000000000000000000CC00,865.7,5.436428,0.8125
40000000000000000000CC00,865.7,5.442564,0.8125
40000000000000000000CC00,865.7,5.436428,1.625
40000000000000000000CC00,865.7,5.430292,2.4375
40000000000000000000CC00,865.7,5.436428,1.625
40000000000000000000CC00,865.7,5.436428,1.625
40000000000000000000CC00,865.7,5.424156,2.4375
40000000000000000000CC00,865.7,5.430292,0.0
40000000000000000000CC00,865.7,5.436428,0.8125
40000000000000000000CC00,865.7,5.436428,0.8125
40000000000000000000CC00,865.7,5.436428,0.0
40000000000000000000CC00,865.7,5.430292,0.0
40000000000000000000CC00,865.7,5.430292,0.0
40000000000000000000CC00,865.7,5.430292,0.8125
40000000000000000000CC00,865.7,5.442564,-0.8125
40000000000000000000CC00,865.7,5.442564,-0.8125
40000000000000000000CC00,865.7,5.430292,0.0
40000000000000000000CC00,865.7,5.430292,0.0
40000000000000000000CC00,865.7,5.442564,-1.625
40000000000000000000CC00,865.7,5.424156,0.0
40000000000000000000CC00,865.7,5.4180202,1.625
40000000000000000000CC00,865.7,5.424156,0.0
40000000000000000000CC00,865.7,5.424156,-0.8125
40000000000000000000CC00,865.7,5.424156,0.8125
40000000000000000000CC00,865.7,5.424156,0.0
40000000000000000000CC00,865.7,5.430292,0.0
40000000000000000000CC00,865.7,5.4180202,1.625
40000000000000000000CC00,865.7,5.424156,0.0
40000000000000000000CC00,865.7,5.4118843,2.4375
40000000000000000000CC00,865.7,5.4180202,0.0
40000000000000000000CC00,865.7,5.3996124,3.25
40000000000000000000CC00,865.7,5.4118843,1.625
40000000000000000000CC00,865.7,5.4118843,2.4375
40000000000000000000CC00,865.7,5.4118843,0.8125
40000000000000000000CC00,865.7,5.4180202,-0.8125
40000000000000000000CC00,865.7,5.424156,0.0
40000000000000000000CC00,865.7,5.4180202,0.8125
40000000000000000000CC00,865.7,5.4057484,1.625
40000000000000000000CC00,865.7,5.4057484,2.4375
40000000000000000000CC00,865.7,5.4118843,0.8125
40000000000000000000CC00,865.7,5.4180202,1.625
40000000000000000000CC00,865.7,5.4118843,0.0
40000000000000000000CC00,865.7,5.4118843,0.8125
40000000000000000000CC00,865.7,5.3996124,2.4375
40000000000000000000CC00,865.7,5.4180202,0.0
40000000000000000000CC00,865.7,5.4057484,1.625
40000000000000000000CC00,865.7,5.4118843,0.8125
40000000000000000000CC00,865.7,5.430292,-1.625
40000000000000000000CC00,865.7,5.4118843,0.0
40000000000000000000CC00,865.7,5.4057484,1.625
40000000000000000000CC00,865.7,5.4118843,1.625
40000000000000000000CC00,865.7,5.424156,0.8125
40000000000000000000CC00,865.7,5.4180202,1.625
40000000000000000000CC00,865.7,5.3934765,3.25
40000000000000000000CC00,865.7,5.424156,0.0
40000000000000000000CC00,865.7,5.4180202,0.8125
40000000000000000000CC00,865.7,5.424156,0.8125
40000000000000000000CC00,865.7,5.424156,0.0
40000000000000000000CC00,865.7,5.4180202,1.625
40000000000000000000CC00,865.7,5.4180202,0.0
40000000000000000000CC00,865.7,5.424156,1.625
40000000000000000000CC00,865.7,5.4180202,2.4375
40000000000000000000CC00,865.7,5.4180202,1.625
40000000000000000000CC00,865.7,5.424156,1.625
40000000000000000000CC00,865.7,5.430292,1.625
40000000000000000000CC00,865.7,5.424156,1.625
40000000000000000000CC00,865.7,5.424156,2.4375
40000000000000000000CC00,865.7,5.430292,0.8125
40000000000000000000CC00,865.7,5.430292,0.8125
40000000000000000000CC00,865.7,5.442564,0.8125
40000000000000000000CC00,865.7,5.436428,1.625
40000000000000000000CC00,865.7,5.4180202,3.25
40000000000000000000CC00,865.7,5.430292,1.625
40000000000000000000CC00,865.7,5.424156,1.625
40000000000000000000CC00,865.7,5.454836,-2.4375
40000000000000000000CC00,865.7,5.442564,0.8125
40000000000000000000CC00,865.7,5.430292,2.4375
40000000000000000000CC00,865.7,5.4487,0.8125
40000000000000000000CC00,865.7,5.454836,1.625
40000000000000000000CC00,865.7,5.4487,1.625
40000000000000000000CC00,865.7,5.454836,0.0
40000000000000000000CC00,865.7,5.454836,0.0
40000000000000000000CC00,865.7,5.436428,3.25
40000000000000000000CC00,865.7,5.436428,2.4375
40000000000000000000CC00,865.7,5.454836,0.8125
40000000000000000000CC00,865.7,5.454836,0.0
40000000000000000000CC00,865.7,5.460972,0.0
40000000000000000000CC00,865.7,5.4487,1.625
40000000000000000000CC00,865.7,5.460972,-0.8125
40000000000000000000CC00,865.7,5.460972,0.8125
40000000000000000000CC00,865.7,5.454836,1.625
40000000000000000000CC00,865.7,5.460972,0.8125
40000000000000000000CC00,865.7,5.454836,1.625
40000000000000000000CC00,865.7,5.454836,0.8125
40000000000000000000CC00,865.7,5.4671073,0.8125
40000000000000000000CC00,865.7,5.454836,2.4375
40000000000000000000CC00,865.7,5.4671073,0.0
40000000000000000000CC00,865.7,5.454836,3.25
40000000000000000000CC00,865.7,5.460972,1.625
40000000000000000000CC00,865.7,5.4671073,0.8125
40000000000000000000CC00,865.7,5.473243,0.8125
40000000000000000000CC00,865.7,5.454836,2.4375
40000000000000000000CC00,865.7,5.4671073,0.8125
40000000000000000000CC00,865.7,5.4671073,1.625
40000000000000000000CC00,865.7,5.460972,1.625
40000000000000000000CC00,865.7,5.4671073,1.625
40000000000000000000CC00,865.7,5.485515,-1.625
40000000000000000000CC00,865.7,5.473243,0.8125
40000000000000000000CC00,865.7,5.454836,2.4375
40000000000000000000CC00,865.7,5.454836,4.875
40000000000000000000CC00,865.7,5.473243,0.8125
40000000000000000000CC00,865.7,5.479379,0.8125
40000000000000000000CC00,865.7,5.473243,0.8125
40000000000000000000CC00,865.7,5.479379,1.625
40000000000000000000CC00,865.7,5.485515,1.625
40000000000000000000CC00,865.7,5.479379,1.625
40000000000000000000CC00,865.7,5.491651,0.0
40000000000000000000CC00,865.7,5.491651,-0.8125
40000000000000000000CC00,865.7,5.460972,5.6875
40000000000000000000CC00,865.7,5.479379,0.8125
40000000000000000000CC00,865.7,5.491651,0.0
40000000000000000000CC00,865.7,5.485515,1.625
40000000000000000000CC00,865.7,5.485515,0.8125
40000000000000000000CC00,865.7,5.491651,0.8125
40000000000000000000CC00,865.7,5.491651,0.0
40000000000000000000CC00,865.7,5.485515,0.8125
40000000000000000000CC00,865.7,5.491651,-0.8125
40000000000000000000CC00,865.7,5.485515,1.625
40000000000000000000CC00,865.7,5.491651,0.8125
40000000000000000000CC00,865.7,5.473243,3.25
40000000000000000000CC00,865.7,5.485515,0.8125
40000000000000000000CC00,865.7,5.485515,1.625
40000000000000000000CC00,865.7,5.491651,0.8125
40000000000000000000CC00,865.7,5.491651,1.625
40000000000000000000CC00,865.7,5.497787,0.8125
40000000000000000000CC00,865.7,5.497787,0.8125
40000000000000000000CC00,865.7,5.497787,0.8125
40000000000000000000CC00,865.7,5.497787,0.0
40000000000000000000CC00,865.7,5.497787,1.625
40000000000000000000CC00,865.7,5.503923,0.0
40000000000000000000CC00,865.7,5.497787,1.625
40000000000000000000CC00,865.7,5.497787,0.0
40000000000000000000CC00,865.7,5.503923,0.0
40000000000000000000CC00,865.7,5.510059,-0.8125
40000000000000000000CC00,865.7,5.503923,0.8125
40000000000000000000CC00,865.7,5.503923,0.8125
40000000000000000000CC00,865.7,5.503923,0.8125
40000000000000000000CC00,865.7,5.497787,2.4375
40000000000000000000CC00,865.7,5.5223308,0.0
40000000000000000000CC00,865.7,5.503923,1.625
40000000000000000000CC00,865.7,5.503923,0.8125
40000000000000000000CC00,865.7,5.503923,0.8125
40000000000000000000CC00,865.7,5.516195,0.8125
40000000000000000000CC00,865.7,5.510059,0.0
40000000000000000000CC00,865.7,5.5284667,-1.625
40000000000000000000CC00,865.7,5.510059,1.625
40000000000000000000CC00,865.7,5.516195,3.25
40000000000000000000CC00,865.7,5.510059,3.25
40000000000000000000CC00,865.7,5.5346026,-0.8125
40000000000000000000CC00,865.7,5.516195,1.625
40000000000000000000CC00,865.7,5.5284667,0.8125
40000000000000000000CC00,865.7,5.5223308,1.625
40000000000000000000CC00,865.7,5.5346026,0.8125
40000000000000000000CC00,865.7,5.5468745,-0.8125
40000000000000000000CC00,865.7,5.5284667,0.8125
40000000000000000000CC00,865.7,5.5223308,1.625
40000000000000000000CC00,865.7,5.5284667,3.25
40000000000000000000CC00,865.7,5.5407386,1.625
40000000000000000000CC00,865.7,5.5468745,0.8125
40000000000000000000CC00,865.7,5.5530105,-0.8125
40000000000000000000CC00,865.7,5.5407386,1.625
40000000000000000000CC00,865.7,5.5468745,1.625
40000000000000000000CC00,865.7,5.5468745,1.625
40000000000000000000CC00,865.7,5.5530105,0.0
40000000000000000000CC00,865.7,5.5591464,0.0
40000000000000000000CC00,865.7,5.5530105,1.625
40000000000000000000CC00,865.7,5.5468745,2.4375
40000000000000000000CC00,865.7,5.5530105,1.625
40000000000000000000CC00,865.7,5.5591464,0.8125
40000000000000000000CC00,865.7,5.5652823,1.625
40000000000000000000CC00,865.7,5.5652823,1.625
40000000000000000000CC00,865.7,5.577554,0.0
40000000000000000000CC00,865.7,5.5652823,0.8125
40000000000000000000CC00,865.7,5.58369,-0.8125
40000000000000000000CC00,865.7,5.577554,-0.8125
40000000000000000000CC00,865.7,5.577554,0.8125
40000000000000000000CC00,865.7,5.58369,0.8125
40000000000000000000CC00,865.7,5.58369,1.625
40000000000000000000CC00,865.7,5.589826,0.0
40000000000000000000CC00,865.7,5.577554,3.25
40000000000000000000CC00,865.7,5.58369,2.4375
40000000000000000000CC00,865.7,5.58369,1.625
40000000000000000000CC00,865.7,5.589826,0.8125
40000000000000000000CC00,865.7,5.608234,0.0
40000000000000000000CC00,865.7,5.595962,0.8125
40000000000000000000CC00,865.7,5.608234,0.8125
40000000000000000000CC00,865.7,5.61437,0.8125
40000000000000000000CC00,865.7,5.61437,0.0
40000000000000000000CC00,865.7,5.608234,0.8125
40000000000000000000CC00,865.7,5.61437,0.8125
40000000000000000000CC00,865.7,5.620506,0.8125
40000000000000000000CC00,865.7,5.602098,3.25
40000000000000000000CC00,865.7,5.6266418,1.625
40000000000000000000CC00,865.7,5.620506,0.8125
40000000000000000000CC00,865.7,5.620506,3.25
40000000000000000000CC00,865.7,5.6266418,1.625
40000000000000000000CC00,865.7,5.645049,0.8125
40000000000000000000CC00,865.7,5.651185,-0.8125
40000000000000000000CC00,865.7,5.6266418,5.6875
40000000000000000000CC00,865.7,5.645049,1.625
40000000000000000000CC00,865.7,5.669593,0.0
40000000000000000000CC00,865.7,5.663457,0.8125
40000000000000000000CC00,865.7,5.669593,-0.8125
40000000000000000000CC00,865.7,5.651185,2.4375
40000000000000000000CC00,865.7,5.663457,2.4375
40000000000000000000CC00,865.7,5.675729,2.4375
40000000000000000000CC00,865.7,5.675729,1.625
40000000000000000000CC00,865.7,5.6880007,0.0
40000000000000000000CC00,865.7,5.7002726,-0.8125
40000000000000000000CC00,865.7,5.6880007,2.4375
40000000000000000000CC00,865.7,5.6941366,2.4375
40000000000000000000CC00,865.7,5.6880007,2.4375
40000000000000000000CC00,865.7,5.7125444,0.8125
40000000000000000000CC00,865.7,5.7125444,1.625
40000000000000000000CC00,865.7,5.7064085,3.25
40000000000000000000CC00,865.7,5.7248163,1.625
40000000000000000000CC00,865.7,5.7248163,3.25
40000000000000000000CC00,865.7,5.74936,0.8125
40000000000000000000CC00,865.7,5.74936,2.4375
40000000000000000000CC00,865.7,5.761632,0.0
40000000000000000000CC00,865.7,5.767768,1.625
40000000000000000000CC00,865.7,5.78004,1.625
40000000000000000000CC00,865.7,5.7861757,1.625
40000000000000000000CC00,865.7,5.7923117,3.25
40000000000000000000CC00,865.7,5.804583,2.4375
40000000000000000000CC00,865.7,5.835263,-0.8125
40000000000000000000CC00,865.7,5.829127,3.25
40000000000000000000CC00,865.7,5.8413987,1.625
40000000000000000000CC00,865.7,5.8413987,3.25
40000000000000000000CC00,865.7,5.8536706,2.4375
40000000000000000000CC00,865.7,5.8659425,3.25
40000000000000000000CC00,865.7,5.8782144,1.625
40000000000000000000CC00,865.7,5.8904862,3.25
40000000000000000000CC00,865.7,5.902758,2.4375
40000000000000000000CC00,865.7,5.933438,-0.8125
40000000000000000000CC00,865.7,5.933438,1.625
40000000000000000000CC00,865.7,5.939574,1.625
40000000000000000000CC00,865.7,5.939574,2.4375
40000000000000000000CC00,865.7,5.9518456,3.25
40000000000000000000CC00,865.7,5.976389,0.8125
40000000000000000000CC00,865.7,5.976389,3.25
40000000000000000000CC00,865.7,5.9947968,0.8125
40000000000000000000CC00,865.7,6.0070686,0.8125
40000000000000000000CC00,865.7,6.0193405,0.8125
40000000000000000000CC00,865.7,6.05002,-1.625
40000000000000000000CC00,865.7,6.0377483,2.4375
40000000000000000000CC00,865.7,6.05002,0.8125
40000000000000000000CC00,865.7,6.05002,2.4375
40000000000000000000CC00,865.7,6.05002,3.25
40000000000000000000CC00,865.7,6.086836,0.0
40000000000000000000CC00,865.7,6.0807,2.4375
40000000000000000000CC00,865.7,6.074564,5.6875
40000000000000000000CC00,865.7,6.092972,3.25
40000000000000000000CC00,865.7,6.1113796,1.625
40000000000000000000CC00,865.7,6.1604667,-3.25
40000000000000000000CC00,865.7,6.148195,0.0
40000000000000000000CC00,865.7,6.1297874,2.4375
40000000000000000000CC00,865.7,6.148195,1.625
40000000000000000000CC00,865.7,6.1604667,1.625
40000000000000000000CC00,865.7,6.1850104,-1.625
40000000000000000000CC00,865.7,6.1850104,-0.8125
40000000000000000000CC00,865.7,6.1788745,1.625
40000000000000000000CC00,865.7,6.209554,-2.4375
40000000000000000000CC00,865.7,6.1972823,0.8125
40000000000000000000CC00,865.7,6.21569,-0.8125
40000000000000000000CC00,865.7,6.21569,-0.8125
40000000000000000000CC00,865.7,6.21569,0.0
40000000000000000000CC00,865.7,6.227962,1.625
40000000000000000000CC00,865.7,6.240234,-2.4375
40000000000000000000CC00,865.7,6.240234,0.8125
40000000000000000000CC00,865.7,6.2586417,-1.625
40000000000000000000CC00,865.7,6.240234,1.625
40000000000000000000CC00,865.7,6.252506,1.625
40000000000000000000CC00,865.7,6.24637,3.25
40000000000000000000CC00,865.7,6.2586417,1.625
40000000000000000000CC00,865.7,6.2770495,0.8125
40000000000000000000CC00,865.7,6.2770495,1.625
40000000000000000000CC00,865.7,0.01840777,-0.8125
40000000000000000000CC00,865.7,0.024543693,0.0
40000000000000000000CC00,865.7,0.11044662,0.8125
40000000000000000000CC00,865.7,0.12271846,0.0
40000000000000000000CC00,865.7,0.12885438,0.8125
40000000000000000000CC00,865.7,0.1349903,0.0
40000000000000000000CC00,865.7,0.14112623,0.8125
40000000000000000000CC00,865.7,0.15339808,0.0
40000000000000000000CC00,865.7,0.14726216,1.625
40000000000000000000CC00,865.7,0.16566992,0.8125
40000000000000000000CC00,865.7,0.15339808,2.4375
40000000000000000000CC00,865.7,0.19634955,-3.25
40000000000000000000CC00,865.7,0.19021362,0.0
40000000000000000000CC00,865.7,0.1840777,0.0
40000000000000000000CC00,865.7,0.19021362,0.8125
40000000000000000000CC00,865.7,0.20248546,-0.8125
40000000000000000000CC00,865.7,0.20248546,1.625
40000000000000000000CC00,865.7,0.20248546,0.8125
40000000000000000000CC00,865.7,0.20862138,0.8125
40000000000000000000CC00,865.7,0.20862138,0.8125
40000000000000000000CC00,865.7,0.21475731,0.8125
40000000000000000000CC00,865.7,0.21475731,0.8125
40000000000000000000CC00,865.7,0.22089323,0.0
40000000000000000000CC00,865.7,0.23316509,0.0
40000000000000000000CC00,865.7,0.22089323,2.4375
40000000000000000000CC00,865.7,0.22702916,1.625
40000000000000000000CC00,865.7,0.22702916,1.625
40000000000000000000CC00,865.7,0.25157285,0.0
40000000000000000000CC00,865.7,0.24543692,1.625
40000000000000000000CC00,865.7,0.25770876,0.8125
40000000000000000000CC00,865.7,0.2638447,0.8125
40000000000000000000CC00,865.7,0.2699806,1.625
40000000000000000000CC00,865.7,0.2699806,0.8125
40000000000000000000CC00,865.7,0.2883884,-1.625
40000000000000000000CC00,865.7,0.2638447,1.625
40000000000000000000CC00,865.7,0.25770876,2.4375
40000000000000000000CC00,865.7,0.2699806,1.625
40000000000000000000CC00,865.7,0.2638447,1.625
40000000000000000000CC00,865.7,0.27611655,0.8125
40000000000000000000CC00,865.7,0.27611655,0.8125
40000000000000000000CC00,865.7,0.28225246,2.4375
40000000000000000000CC00,865.7,0.30679616,-1.625
40000000000000000000CC00,865.7,0.31293207,-0.8125
40000000000000000000CC00,865.7,0.2883884,2.4375
40000000000000000000CC00,865.7,0.2945243,2.4375
40000000000000000000CC00,865.7,0.30066022,1.625
40000000000000000000CC00,865.7,0.30679616,2.4375
40000000000000000000CC00,865.7,0.30679616,1.625
40000000000000000000CC00,865.7,0.319068,1.625
40000000000000000000CC00,865.7,0.30679616,3.25
40000000000000000000CC00,865.7,0.31293207,3.25
40000000000000000000CC00,865.7,0.319068,2.4375
40000000000000000000CC00,865.7,0.33133984,3.25
40000000000000000000CC00,865.7,0.3436117,1.625
40000000000000000000CC00,865.7,0.35588354,0.8125
40000000000000000000CC00,865.7,0.35588354,1.625
40000000000000000000CC00,865.7,0.35588354,4.875
40000000000000000000CC00,865.7,0.38042724,0.8125
40000000000000000000CC00,865.7,0.38656315,0.8125
40000000000000000000CC00,865.7,0.398835,1.625
40000000000000000000CC00,865.7,0.4049709,0.8125
40000000000000000000CC00,865.7,0.4233787,0.0
40000000000000000000CC00,865.7,0.41724277,3.25
40000000000000000000CC00,865.7,0.43565056,1.625
40000000000000000000CC00,865.7,0.45405832,1.625
40000000000000000000CC00,865.7,0.46019423,1.625
40000000000000000000CC00,865.7,0.478602,2.4375
40000000000000000000CC00,865.7,0.48473793,2.4375
40000000000000000000CC00,865.7,0.49087384,2.4375
40000000000000000000CC00,865.7,0.50928164,1.625
40000000000000000000CC00,865.7,0.52155346,2.4375
40000000000000000000CC00,865.7,0.5276894,3.25
40000000000000000000CC00,865.7,0.54609716,2.4375
40000000000000000000CC00,865.7,0.57064086,0.8125
40000000000000000000CC00,865.7,0.5767768,1.625
40000000000000000000CC00,865.7,0.5829127,4.875
40000000000000000000CC00,865.7,0.6135923,1.625
40000000000000000000CC00,865.7,0.61972827,3.25
40000000000000000000CC00,865.7,0.6688156,0.0
40000000000000000000CC00,865.7,0.6810875,0.8125
40000000000000000000CC00,865.7,0.69949526,2.4375
40000000000000000000CC00,865.7,0.7424467,0.0
40000000000000000000CC00,865.7,0.7363108,2.4375
40000000000000000000CC00,865.7,0.77926224,0.0
40000000000000000000CC00,865.7,0.79767,0.8125
40000000000000000000CC00,865.7,0.80380595,1.625
40000000000000000000CC00,865.7,0.82834965,2.4375
40000000000000000000CC00,865.7,0.83448553,1.625
40000000000000000000CC00,865.7,0.8467574,1.625
40000000000000000000CC00,865.7,0.85902923,0.8125
40000000000000000000CC00,865.7,0.877437,0.0
40000000000000000000CC00,865.7,0.877437,0.8125
40000000000000000000CC00,865.7,0.88357294,0.8125
40000000000000000000CC00,865.7,0.8897089,0.8125
40000000000000000000CC00,865.7,0.9019807,-0.8125
40000000000000000000CC00,865.7,0.89584476,1.625
40000000000000000000CC00,865.7,0.9019807,0.8125
40000000000000000000CC00,865.7,0.9142526,0.0
40000000000000000000CC00,865.7,0.9142526,0.8125
40000000000000000000CC00,865.7,0.9265244,0.0
40000000000000000000CC00,865.7,0.93266034,1.625
40000000000000000000CC00,865.7,0.93266034,2.4375
40000000000000000000CC00,865.7,0.94493216,1.625
40000000000000000000CC00,865.7,0.957204,1.625
40000000000000000000CC00,865.7,0.9633399,3.25
40000000000000000000CC00,865.7,0.99401957,0.0
40000000000000000000CC00,865.7,1.0001554,2.4375
40000000000000000000CC00,865.7,1.0185633,1.625
40000000000000000000CC00,865.7,1.030835,3.25
40000000000000000000CC00,865.7,1.0553788,3.25
40000000000000000000CC00,865.7,1.0737865,2.4375
40000000000000000000CC00,865.7,1.0921943,2.4375
40000000000000000000CC00,865.7,1.1044662,2.4375
40000000000000000000CC00,865.7,1.1228739,0.8125
40000000000000000000CC00,865.7,1.1290098,2.4375
40000000000000000000CC00,865.7,1.1412817,0.8125
40000000000000000000CC00,865.7,1.1474177,1.625
40000000000000000000CC00,865.7,1.1596894,0.8125
40000000000000000000CC00,865.7,1.1596894,1.625
40000000000000000000CC00,865.7,1.1658254,1.625
40000000000000000000CC00,865.7,1.1780972,1.625
40000000000000000000CC00,865.7,1.1903691,0.8125
40000000000000000000CC00,865.7,1.1965051,0.8125
40000000000000000000CC00,865.7,1.1965051,2.4375
40000000000000000000CC00,865.7,1.2026409,0.8125
40000000000000000000CC00,865.7,1.2149128,0.0
40000000000000000000CC00,865.7,1.2087768,1.625
40000000000000000000CC00,865.7,1.2149128,1.625
40000000000000000000CC00,865.7,1.2149128,1.625
40000000000000000000CC00,865.7,1.2149128,3.25
40000000000000000000CC00,865.7,1.2210487,2.4375
40000000000000000000CC00,865.7,1.2210487,2.4375
40000000000000000000CC00,865.7,1.2271847,2.4375
40000000000000000000CC00,865.7,1.2210487,2.4375
40000000000000000000CC00,865.7,1.2394565,1.625
40000000000000000000CC00,865.7,1.2210487,5.6875
40000000000000000000CC00,865.7,1.2333206,2.4375
40000000000000000000CC00,865.7,1.2394565,2.4375
40000000000000000000CC00,865.7,1.2271847,2.4375
40000000000000000000CC00,865.7,1.2210487,2.4375
40000000000000000000CC00,865.7,1.2149128,3.25
40000000000000000000CC00,865.7,1.2087768,3.25
40000000000000000000CC00,865.7,1.2087768,4.875
40000000000000000000CC00,865.7,1.2026409,3.25
40000000000000000000CC00,865.7,1.2026409,2.4375
40000000000000000000CC00,865.7,1.1965051,3.25
40000000000000000000CC00,865.7,1.1965051,2.4375
40000000000000000000CC00,865.7,1.1842332,2.4375
40000000000000000000CC00,865.7,1.1780972,3.25
40000000000000000000CC00,865.7,1.1780972,1.625
40000000000000000000CC00,865.7,1.1719613,2.4375
40000000000000000000CC00,865.7,1.1596894,3.25
40000000000000000000CC00,865.7,1.1596894,0.8125
40000000000000000000CC00,865.7,1.1474177,3.25
40000000000000000000CC00,865.7,1.1412817,2.4375
40000000000000000000CC00,865.7,1.1351458,3.25
40000000000000000000CC00,865.7,1.1290098,3.25
40000000000000000000CC00,865.7,1.1106021,5.6875
40000000000000000000CC00,865.7,1.1106021,5.6875
40000000000000000000CC00,865.7,1.1106021,3.25
40000000000000000000CC00,865.7,1.0983303,4.875
40000000000000000000CC00,865.7,1.0983303,4.875
40000000000000000000CC00,865.7,1.1044662,0.8125
40000000000000000000CC00,865.7,1.0983303,1.625
40000000000000000000CC00,865.7,1.0860584,3.25
40000000000000000000CC00,865.7,1.0799224,4.875
40000000000000000000CC00,865.7,1.0799224,2.4375
40000000000000000000CC00,865.7,1.0799224,0.8125
40000000000000000000CC00,865.7,1.0615147,4.875
40000000000000000000CC00,865.7,1.0615147,2.4375
40000000000000000000CC00,865.7,1.0431069,2.4375
40000000000000000000CC00,865.7,1.0431069,1.625
40000000000000000000CC00,865.7,1.0246992,3.25
40000000000000000000CC00,865.7,1.0124273,2.4375
40000000000000000000CC00,865.7,0.99401957,2.4375
40000000000000000000CC00,865.7,0.9817477,1.625
40000000000000000000CC00,865.7,0.957204,3.25
40000000000000000000CC00,865.7,0.9387962,2.4375
40000000000000000000CC00,865.7,0.92038846,3.25
40000000000000000000CC00,865.7,0.89584476,2.4375
40000000000000000000CC00,865.7,0.8651652,2.4375
40000000000000000000CC00,865.7,0.8528933,1.625
40000000000000000000CC00,865.7,0.81607777,2.4375
40000000000000000000CC00,865.7,0.79767,1.625
40000000000000000000CC00,865.7,0.7853982,0.0
40000000000000000000CC00,865.7,0.7485826,3.25
40000000000000000000CC00,865.7,0.73017484,2.4375
40000000000000000000CC00,865.7,0.7363108,-0.8125
40000000000000000000CC00,865.7,0.7117671,0.8125
40000000000000000000CC00,865.7,0.6933593,0.8125
40000000000000000000CC00,865.7,0.6810875,0.8125
40000000000000000000CC00,865.7,0.65040785,3.25
40000000000000000000CC00,865.7,0.6442719,0.0
40000000000000000000CC00,865.7,0.60132045,3.25
40000000000000000000CC00,865.7,0.5767768,4.875
40000000000000000000CC00,865.7,0.5645049,2.4375
40000000000000000000CC00,865.7,0.5399612,2.4375
40000000000000000000CC00,865.7,0.50928164,1.625
40000000000000000000CC00,865.7,0.478602,3.25
40000000000000000000CC00,865.7,0.44178647,0.8125
40000000000000000000CC00,865.7,0.41724277,0.0
40000000000000000000CC00,865.7,0.36201948,3.25
40000000000000000000CC00,865.7,0.32520393,2.4375
40000000000000000000CC00,865.7,0.2883884,1.625
40000000000000000000CC00,865.7,0.25157285,2.4375
40000000000000000000CC00,865.7,0.22702916,0.8125
40000000000000000000CC00,865.7,0.1840777,4.875
40000000000000000000CC00,865.7,0.159534,0.8125
40000000000000000000CC00,865.7,0.12271846,3.25
40000000000000000000CC00,865.7,0.09817477,1.625
40000000000000000000CC00,865.7,0.07363108,2.4375
40000000000000000000CC00,865.7,0.05522331,1.625
40000000000000000000CC00,865.7,0.03681554,1.625
40000000000000000000CC00,865.7,0.012271847,1.625
40000000000000000000CC00,865.7,6.2770495,1.625
40000000000000000000CC00,865.7,6.2586417,0.8125
40000000000000000000CC00,865.7,6.2586417,-1.625
40000000000000000000CC00,865.7,6.24637,-0.8125
40000000000000000000CC00,865.7,6.221826,-0.8125
40000000000000000000CC00,865.7,6.2034183,1.625
40000000000000000000CC00,865.7,6.221826,-2.4375
40000000000000000000CC00,865.7,6.1972823,-1.625
40000000000000000000CC00,865.7,6.1850104,0.0
40000000000000000000CC00,865.7,6.1604667,1.625
40000000000000000000CC00,865.7,6.1727386,-2.4375
40000000000000000000CC00,865.7,6.1359234,0.8125
40000000000000000000CC00,865.7,6.1236515,1.625
40000000000000000000CC00,865.7,6.1052437,0.8125
40000000000000000000CC00,865.7,6.0991077,1.625
40000000000000000000CC00,865.7,6.0991077,0.8125
40000000000000000000CC00,865.7,6.062292,4.875
40000000000000000000CC00,865.7,6.056156,4.875
40000000000000000000CC00,865.7,6.05002,3.25
40000000000000000000CC00,865.7,6.0438843,1.625
40000000000000000000CC00,865.7,6.0316124,4.875
40000000000000000000CC00,865.7,6.0316124,3.25
40000000000000000000CC00,865.7,6.0316124,0.8125
40000000000000000000CC00,865.7,6.0132046,2.4375
40000000000000000000CC00,865.7,6.0009327,1.625
40000000000000000000CC00,865.7,5.988661,1.625
40000000000000000000CC00,865.7,5.988661,1.625
40000000000000000000CC00,865.7,5.976389,1.625
40000000000000000000CC00,865.7,5.970253,2.4375
40000000000000000000CC00,865.7,5.9641175,1.625
40000000000000000000CC00,865.7,5.9641175,1.625
40000000000000000000CC00,865.7,5.9518456,1.625
40000000000000000000CC00,865.7,5.939574,1.625
40000000000000000000CC00,865.7,5.927302,3.25
40000000000000000000CC00,865.7,5.933438,0.8125
40000000000000000000CC00,865.7,5.933438,1.625
40000000000000000000CC00,865.7,5.933438,0.8125
40000000000000000000CC00,865.7,5.921166,2.4375
40000000000000000000CC00,865.7,5.91503,2.4375
40000000000000000000CC00,865.7,5.908894,1.625
40000000000000000000CC00,865.7,5.908894,2.4375
40000000000000000000CC00,865.7,5.902758,1.625
40000000000000000000CC00,865.7,5.902758,3.25
40000000000000000000CC00,865.7,5.8904862,4.875
40000000000000000000CC00,865.7,5.902758,2.4375
40000000000000000000CC00,865.7,5.8843503,3.25
40000000000000000000CC00,865.7,5.8904862,2.4375
40000000000000000000CC00,865.7,5.8904862,0.0
40000000000000000000CC00,865.7,5.8904862,0.8125
40000000000000000000CC00,865.7,5.8904862,0.0
40000000000000000000CC00,865.7,5.8782144,2.4375
40000000000000000000CC00,865.7,5.8720784,3.25
40000000000000000000CC00,865.7,5.8720784,0.8125
40000000000000000000CC00,865.7,5.8659425,2.4375
40000000000000000000CC00,865.7,5.8720784,3.25
40000000000000000000CC00,865.7,5.8598065,2.4375
40000000000000000000CC00,865.7,5.8536706,3.25
40000000000000000000CC00,865.7,5.8475347,3.25
40000000000000000000CC00,865.7,5.8536706,1.625
40000000000000000000CC00,865.7,5.8536706,0.0
40000000000000000000CC00,865.7,5.8536706,1.625
40000000000000000000CC00,865.7,5.8598065,1.625
40000000000000000000CC00,865.7,5.8475347,2.4375
40000000000000000000CC00,865.7,5.8536706,0.8125
40000000000000000000CC00,865.7,5.8475347,2.4375
40000000000000000000CC00,865.7,5.8475347,0.8125
40000000000000000000CC00,865.7,5.822991,5.6875
40000000000000000000CC00,865.7,5.8413987,2.4375
40000000000000000000CC00,865.7,5.829127,3.25
40000000000000000000CC00,865.7,5.829127,3.25
40000000000000000000CC00,865.7,5.835263,1.625
40000000000000000000CC00,865.7,5.810719,5.6875
40000000000000000000CC00,865.7,5.816855,1.625
40000000000000000000CC00,865.7,5.810719,2.4375
40000000000000000000CC00,865.7,5.7984476,3.25
40000000000000000000CC00,865.7,5.7984476,3.25
40000000000000000000CC00,865.7,5.7984476,1.625
40000000000000000000CC00,865.7,5.7923117,2.4375
40000000000000000000CC00,865.7,5.7923117,1.625
40000000000000000000CC00,865.7,5.78004,4.875
40000000000000000000CC00,865.7,5.773904,4.875
40000000000000000000CC00,865.7,5.773904,4.875
40000000000000000000CC00,865.7,5.773904,2.4375
40000000000000000000CC00,865.7,5.773904,2.4375
40000000000000000000CC00,865.7,5.773904,2.4375
40000000000000000000CC00,865.7,5.755496,5.6875
40000000000000000000CC00,865.7,5.761632,0.8125
40000000000000000000CC00,865.7,5.755496,3.25
40000000000000000000CC00,865.7,5.755496,3.25
40000000000000000000CC00,865.7,5.755496,4.875
40000000000000000000CC00,865.7,5.755496,2.4375
40000000000000000000CC00,865.7,5.74936,2.4375
40000000000000000000CC00,865.7,5.737088,5.6875
40000000000000000000CC00,865.7,5.743224,5.6875
40000000000000000000CC00,865.7,5.74936,2.4375
40000000000000000000CC00,865.7,5.743224,0.8125
40000000000000000000CC00,865.7,5.737088,2.4375
40000000000000000000CC00,865.7,5.737088,3.25
40000000000000000000CC00,865.7,5.737088,3.25
40000000000000000000CC00,865.7,5.737088,0.8125
40000000000000000000CC00,865.7,5.7309523,3.25
40000000000000000000CC00,865.7,5.7309523,1.625
40000000000000000000CC00,865.7,5.7248163,1.625
40000000000000000000CC00,865.7,5.7186804,2.4375
40000000000000000000CC00,865.7,5.7186804,5.6875
40000000000000000000CC00,865.7,5.7125444,4.875
40000000000000000000CC00,865.7,5.7125444,4.875
40000000000000000000CC00,865.7,5.7064085,4.875
40000000000000000000CC00,865.7,5.7064085,3.25
40000000000000000000CC00,865.7,5.7125444,0.8125
40000000000000000000CC00,865.7,5.7002726,4.875
40000000000000000000CC00,865.7,5.7125444,1.625
40000000000000000000CC00,865.7,5.7064085,1.625
40000000000000000000CC00,865.7,5.6880007,2.4375
40000000000000000000CC00,865.7,5.6880007,4.875
40000000000000000000CC00,865.7,5.6880007,4.875
40000000000000000000CC00,865.7,5.6941366,1.625
40000000000000000000CC00,865.7,5.7002726,1.625
40000000000000000000CC00,865.7,5.6880007,1.625
40000000000000000000CC00,865.7,5.6880007,2.4375
40000000000000000000CC00,865.7,5.6880007,1.625
40000000000000000000CC00,865.7,5.675729,3.25
40000000000000000000CC00,865.7,5.6818647,3.25
40000000000000000000CC00,865.7,5.675729,2.4375
40000000000000000000CC00,865.7,5.675729,3.25
40000000000000000000CC00,865.7,5.675729,3.25
40000000000000000000CC00,865.7,5.663457,3.25
40000000000000000000CC00,865.7,5.657321,3.25
40000000000000000000CC00,865.7,5.663457,2.4375
40000000000000000000CC00,865.7,5.663457,1.625
40000000000000000000CC00,865.7,5.657321,2.4375
40000000000000000000CC00,865.7,5.663457,1.625
40000000000000000000CC00,865.7,5.657321,0.8125
40000000000000000000CC00,865.7,5.657321,0.8125
40000000000000000000CC00,865.7,5.6327777,4.875
40000000000000000000CC00,865.7,5.638913,2.4375
40000000000000000000CC00,865.7,5.6327777,2.4375
40000000000000000000CC00,865.7,5.620506,5.6875
40000000000000000000CC00,865.7,5.620506,2.4375
40000000000000000000CC00,865.7,5.6266418,1.625
40000000000000000000CC00,865.7,5.61437,3.25
40000000000000000000CC00,865.7,5.608234,2.4375
40000000000000000000CC00,865.7,5.602098,3.25
40000000000000000000CC00,865.7,5.602098,1.625
40000000000000000000CC00,865.7,5.595962,2.4375
40000000000000000000CC00,865.7,5.5714183,4.875
40000000000000000000CC00,865.7,5.589826,0.8125
40000000000000000000CC00,865.7,5.577554,1.625
40000000000000000000CC00,865.7,5.5652823,3.25
40000000000000000000CC00,865.7,5.5591464,4.875
40000000000000000000CC00,865.7,5.5468745,2.4375
40000000000000000000CC00,865.7,5.5468745,2.4375
40000000000000000000CC00,865.7,5.5468745,3.25
40000000000000000000CC00,865.7,5.5468745,3.25
40000000000000000000CC00,865.7,5.5468745,2.4375
40000000000000000000CC00,865.7,5.5346026,2.4375
40000000000000000000CC00,865.7,5.5346026,1.625
40000000000000000000CC00,865.7,5.5284667,5.6875
40000000000000000000CC00,865.7,5.5284667,3.25
40000000000000000000CC00,865.7,5.5407386,1.625
40000000000000000000CC00,865.7,5.5284667,3.25
40000000000000000000CC00,865.7,5.5346026,2.4375
40000000000000000000CC00,865.7,5.5284667,5.6875
40000000000000000000CC00,865.7,5.516195,4.875
40000000000000000000CC00,865.7,5.5223308,4.875
40000000000000000000CC00,865.7,5.5468745,0.8125
40000000000000000000CC00,865.7,5.5530105,-0.8125
40000000000000000000CC00,865.7,5.5346026,1.625
40000000000000000000CC00,865.7,5.5468745,0.8125
40000000000000000000CC00,865.7,5.5284667,3.25
40000000000000000000CC00,865.7,5.5468745,0.8125
40000000000000000000CC00,865.7,5.5407386,0.8125
40000000000000000000CC00,865.7,5.5284667,3.25
40000000000000000000CC00,865.7,5.516195,3.25
40000000000000000000CC00,865.7,5.516195,3.25
40000000000000000000CC00,865.7,5.516195,1.625
40000000000000000000CC00,865.7,5.510059,1.625
40000000000000000000CC00,865.7,5.503923,1.625
40000000000000000000CC00,865.7,5.503923,0.8125
40000000000000000000CC00,865.7,5.485515,4.875
40000000000000000000CC00,865.7,5.485515,1.625
40000000000000000000CC00,865.7,5.473243,3.25
40000000000000000000CC00,865.7,5.4671073,4.875
40000000000000000000CC00,865.7,5.473243,2.4375
40000000000000000000CC00,865.7,5.4487,2.4375
40000000000000000000CC00,865.7,5.442564,4.875
40000000000000000000CC00,865.7,5.4487,0.8125
40000000000000000000CC00,865.7,5.436428,1.625
40000000000000000000CC00,865.7,5.430292,2.4375
40000000000000000000CC00,865.7,5.424156,2.4375
40000000000000000000CC00,865.7,5.4118843,3.25
40000000000000000000CC00,865.7,5.4118843,2.4375
40000000000000000000CC00,865.7,5.4118843,0.0
40000000000000000000CC00,865.7,5.4118843,1.625
40000000000000000000CC00,865.7,5.4057484,0.0
40000000000000000000CC00,865.7,5.3873405,2.4375
40000000000000000000CC00,865.7,5.3996124,3.25
40000000000000000000CC00,865.7,5.3812046,4.875
40000000000000000000CC00,865.7,5.3934765,3.25
40000000000000000000CC00,865.7,5.3750687,3.25
40000000000000000000CC00,865.7,5.3934765,2.4375
40000000000000000000CC00,865.7,5.3750687,5.6875
40000000000000000000CC00,865.7,5.3934765,3.25
40000000000000000000CC00,865.7,5.3873405,1.625
40000000000000000000CC00,865.7,5.362797,7.3125
40000000000000000000CC00,865.7,5.3812046,2.4375
40000000000000000000CC00,865.7,5.3689327,3.25
40000000000000000000CC00,865.7,5.3934765,2.4375
40000000000000000000CC00,865.7,5.3812046,3.25
40000000000000000000CC00,865.7,5.3934765,2.4375
40000000000000000000CC00,865.7,5.3812046,2.4375
40000000000000000000CC00,865.7,5.3812046,2.4375
40000000000000000000CC00,865.7,5.3873405,0.8125
40000000000000000000CC00,865.7,5.3750687,5.6875
40000000000000000000CC00,865.7,5.362797,4.875
40000000000000000000CC00,865.7,5.3873405,2.4375
40000000000000000000CC00,865.7,5.362797,4.875
40000000000000000000CC00,865.7,5.3812046,1.625
40000000000000000000CC00,865.7,5.3873405,0.8125
40000000000000000000CC00,865.7,5.3812046,1.625
40000000000000000000CC00,865.7,5.3689327,4.875
40000000000000000000CC00,865.7,5.3689327,5.6875
40000000000000000000CC00,865.7,5.3689327,4.875
40000000000000000000CC00,865.7,5.3750687,2.4375
40000000000000000000CC00,865.7,5.3750687,2.4375
40000000000000000000CC00,865.7,5.3812046,0.8125
40000000000000000000CC00,865.7,5.3689327,3.25
40000000000000000000CC00,865.7,5.3689327,3.25
40000000000000000000CC00,865.7,5.362797,4.875
40000000000000000000CC00,865.7,5.362797,5.6875
40000000000000000000CC00,865.7,5.356661,5.6875
40000000000000000000CC00,865.7,5.3750687,2.4375
40000000000000000000CC00,865.7,5.3689327,4.875
40000000000000000000CC00,865.7,5.3689327,3.25
40000000000000000000CC00,865.7,5.3689327,3.25
40000000000000000000CC00,865.7,5.362797,5.6875
40000000000000000000CC00,865.7,5.3812046,2.4375
40000000000000000000CC00,865.7,5.362797,5.6875
40000000000000000000CC00,865.7,5.3689327,3.25
40000000000000000000CC00,865.7,5.3689327,4.875
40000000000000000000CC00,865.7,5.362797,4.875
40000000000000000000CC00,865.7,5.362797,4.875
40000000000000000000CC00,865.7,5.356661,5.6875
40000000000000000000CC00,865.7,5.362797,3.25
40000000000000000000CC00,865.7,5.362797,4.875
40000000000000000000CC00,865.7,5.362797,3.25
40000000000000000000CC00,865.7,5.3689327,3.25
40000000000000000000CC00,865.7,5.362797,3.25
40000000000000000000CC00,865.7,5.350525,4.875
40000000000000000000CC00,865.7,5.356661,4.875
40000000000000000000CC00,865.7,5.344389,6.5
40000000000000000000CC00,865.7,5.362797,2.4375
40000000000000000000CC00,865.7,5.356661,3.25
40000000000000000000CC00,865.7,5.338253,5.6875
40000000000000000000CC00,865.7,5.338253,4.875
40000000000000000000CC00,865.7,5.344389,5.6875
40000000000000000000CC00,865.7,5.350525,2.4375
40000000000000000000CC00,865.7,5.350525,2.4375
40000000000000000000CC00,865.7,5.344389,3.25
40000000000000000000CC00,865.7,5.344389,3.25
40000000000000000000CC00,865.7,5.350525,4.875
40000000000000000000CC00,865.7,5.350525,4.875
40000000000000000000CC00,865.7,5.344389,3.25
40000000000000000000CC00,865.7,5.332117,6.5
40000000000000000000CC00,865.7,5.338253,5.6875
