000000000000000000AAAAAA,1,1473451002717247,1473451002717247,1,4.0625,13312,-54.5,865.7,3.6508744
000000AAAAAAAAAAAAAAAA00,1,1473451002718689,1473451002718689,1,3.25,13312,-36.5,865.7,3.9760783
00000000000000AAAAAAAA00,1,1473451002720493,1473451002720493,1,3.25,13312,-36.0,865.7,1.9082721
00000000000000AAAAAAAAAA,1,1473451002721898,1473451002721898,1,-4.875,13312,-41.5,865.7,5.497787
00000000000000AAAAAAAAAA,1,1473451002729814,1473451002729814,1,-4.0625,13312,-41.5,865.7,5.485515
000000AAAAAAAAAAAAAAAA00,1,1473451002732285,1473451002732285,1,1.625,13312,-37.0,865.7,3.9944859
00000000000000000000AAAA,1,1473451002734187,1473451002734187,1,5.6875,13312,-40.5,865.7,2.3746023
00000000000000AAAAAAAA00,1,1473451002735539,1473451002735539,1,7.3125,13312,-36.0,865.7,1.9021362
000000000000000000AAAAAA,1,1473451002737477,1473451002737477,1,17.875,13312,-54.0,865.7,3.6017869
000000AAAAAAAAAAAAAAAA00,1,1473451002745196,1473451002745196,1,-1.625,13312,-37.0,865.7,4.0067577
000000000000000000AAAAAA,1,1473451002748421,1473451002748421,1,21.9375,13312,-53.5,865.7,3.5404277
00000000000000000000AAAA,1,1473451002750349,1473451002750349,1,5.6875,13312,-40.5,865.7,2.3684664
00000000000000AAAAAAAA00,1,1473451002751686,1473451002751686,1,6.5,13312,-36.0,865.7,1.9021362
00000000000000AAAAAAAAAA,1,1473451002753149,1473451002753149,1,-1.625,13312,-42.0,865.7,5.497787
00000000000000000000AAAA,1,1473451002759905,1473451002759905,1,2.4375,13312,-40.0,865.7,2.3746023
000000000000000000AAAAAA,1,1473451002762675,1473451002762675,1,-4.0625,13312,-53.5,865.7,3.7183695
00000000000000AAAAAAAA00,1,1473451002764835,1473451002764835,1,5.6875,13312,-36.5,865.7,1.9266798
000000AAAAAAAAAAAAAAAA00,1,1473451002766533,1473451002766533,1,-1.625,13312,-37.0,865.7,4.000622
00000000000000AAAAAAAAAA,1,1473451002768109,1473451002768109,1,-2.4375,13312,-42.0,865.7,5.497787
00000000000000000000AAAA,1,1473451002775700,1473451002775700,1,6.5,13312,-40.5,865.7,2.3684664
00000000000000AAAAAAAAAA,1,1473451002777898,1473451002777898,1,-0.8125,13312,-42.0,865.7,5.479379
000000AAAAAAAAAAAAAAAA00,1,1473451002779525,1473451002779525,1,3.25,13312,-37.0,865.7,3.9638064
00000000000000AAAAAAAA00,1,1473451002781075,1473451002781075,1,5.6875,13312,-36.5,865.7,1.9205439
000000000000000000AAAAAA,1,1473451002784018,1473451002784018,1,4.875,13312,-53.5,865.7,3.6876898
000000AAAAAAAAAAAAAAAA00,1,1473451002794526,1473451002794526,1,0.8125,13312,-37.0,865.7,4.000622
00000000000000AAAAAAAAAA,1,1473451002796491,1473451002796491,1,-4.875,13312,-42.0,865.7,5.497787
00000000000000AAAAAAAA00,1,1473451002797772,1473451002797772,1,4.875,13312,-36.0,865.7,1.9266798
000000000000000000AAAAAA,1,1473451002799424,1473451002799424,1,16.25,13312,-53.5,865.7,3.5465636
00000000000000000000AAAA,1,1473451002801037,1473451002801037,1,6.5,13312,-40.5,865.7,2.3684664
000000AAAAAAAAAAAAAAAA00,1,1473451002808813,1473451002808813,1,1.625,13312,-37.0,865.7,3.9944859
00000000000000000000AAAA,1,1473451002810697,1473451002810697,1,0.8125,13312,-40.5,865.7,2.3868742
00000000000000AAAAAAAAAA,1,1473451002812271,1473451002812271,1,0.0,13312,-42.0,865.7,5.479379
00000000000000AAAAAAAA00,1,1473451002815800,1473451002815800,1,6.5,13312,-35.5,865.7,1.914408
000000000000000000AAAAAA,1,1473451002817267,1473451002817267,1,10.5625,13312,-53.5,865.7,3.6447384
000000AAAAAAAAAAAAAAAA00,1,1473451002828476,1473451002828476,1,2.4375,13312,-37.0,865.7,3.9883502
000000000000000000AAAAAA,1,1473451002830384,1473451002830384,1,-4.875,13312,-53.5,865.7,3.7613208
00000000000000AAAAAAAA00,1,1473451002832032,1473451002832032,1,9.75,13312,-36.0,865.7,1.8960003
00000000000000AAAAAAAAAA,1,1473451002834849,1473451002834849,1,0.8125,13312,-42.0,865.7,5.491651
00000000000000000000AAAA,1,1473451002836155,1473451002836155,1,7.3125,13312,-40.5,865.7,2.3500586
000000AAAAAAAAAAAAAAAA00,1,1473451002843780,1473451002843780,1,6.5,13312,-37.0,865.7,3.9638064
00000000000000AAAAAAAAAA,1,1473451002845995,1473451002845995,1,-2.4375,13312,-42.0,865.7,5.503923
00000000000000000000AAAA,1,1473451002847313,1473451002847313,1,5.6875,13312,-40.5,865.7,2.3623304
00000000000000AAAAAAAA00,1,1473451002849434,1473451002849434,1,5.6875,13312,-36.0,865.7,1.9389517
000000000000000000AAAAAA,1,1473451002851419,1473451002851419,1,23.5625,13312,-54.0,865.7,3.5281558
00000000000000AAAAAAAA00,1,1473451002859105,1473451002859105,1,2.4375,13312,-36.0,865.7,1.9328158
000000000000000000AAAAAA,1,1473451002863153,1473451002863153,1,15.4375,13312,-54.0,865.7,3.6447384
00000000000000000000AAAA,1,1473451002865066,1473451002865066,1,4.875,13312,-40.5,865.7,2.3684664
000000AAAAAAAAAAAAAAAA00,1,1473451002866422,1473451002866422,1,1.625,13312,-37.0,865.7,3.9822142
00000000000000AAAAAAAAAA,1,1473451002868369,1473451002868369,1,0.8125,13312,-42.5,865.7,5.491651
00000000000000AAAAAAAA00,1,1473451002877160,1473451002877160,1,8.9375,13312,-36.0,865.7,1.914408
000000AAAAAAAAAAAAAAAA00,1,1473451002878756,1473451002878756,1,-0.8125,13312,-37.0,865.7,4.000622
00000000000000AAAAAAAAAA,1,1473451002880090,1473451002880090,1,0.0,13312,-42.0,865.7,5.491651
00000000000000000000AAAA,1,1473451002881893,1473451002881893,1,7.3125,13312,-40.5,865.7,2.3623304
000000000000000000AAAAAA,1,1473451002884099,1473451002884099,1,-4.875,13312,-54.5,865.7,3.7367773
00000000000000AAAAAAAAAA,1,1473451003059150,1473451003059150,1,-5.6875,13312,-42.0,865.7,5.5223308
00000000000000AAAAAAAA00,1,1473451003060998,1473451003060998,1,5.6875,13312,-36.0,865.7,1.8960003
000000000000000000AAAAAA,1,1473451003063458,1473451003063458,1,0.0,13312,-54.0,865.7,3.7367773
000000AAAAAAAAAAAAAAAA00,1,1473451003066077,1473451003066077,1,2.4375,13312,-36.5,865.7,3.9638064
00000000000000000000AAAA,1,1473451003067440,1473451003067440,1,7.3125,13312,-40.5,865.7,2.3561945
00000000000000AAAAAAAA00,1,1473451003076116,1473451003076116,1,2.4375,13312,-36.0,865.7,1.9266798
00000000000000AAAAAAAAAA,1,1473451003077859,1473451003077859,1,-1.625,13312,-42.0,865.7,5.510059
00000000000000000000AAAA,1,1473451003079687,1473451003079687,1,0.8125,13312,-40.5,865.7,2.3930101
000000AAAAAAAAAAAAAAAA00,1,1473451003081693,1473451003081693,1,0.0,13312,-36.5,865.7,3.9822142
000000000000000000AAAAAA,1,1473451003084258,1473451003084258,1,21.9375,13312,-54.0,865.7,3.6815538
00000000000000AAAAAAAAAA,1,1473451003090266,1473451003090266,1,-8.125,13312,-42.0,865.7,5.5407386
000000AAAAAAAAAAAAAAAA00,1,1473451003092721,1473451003092721,1,0.0,13312,-36.5,865.7,3.9699423
000000000000000000AAAAAA,1,1473451003094064,1473451003094064,1,6.5,13312,-55.0,865.7,3.7122335
00000000000000AAAAAAAA00,1,1473451003096977,1473451003096977,1,7.3125,13312,-36.0,865.7,1.9082721
00000000000000000000AAAA,1,1473451003100077,1473451003100077,1,2.4375,13312,-41.0,865.7,2.3684664
00000000000000AAAAAAAA00,1,1473451003107683,1473451003107683,1,4.875,13312,-36.0,865.7,1.9205439
000000000000000000AAAAAA,1,1473451003109758,1473451003109758,1,4.0625,13312,-54.0,865.7,3.749049
000000AAAAAAAAAAAAAAAA00,1,1473451003111071,1473451003111071,1,2.4375,13312,-37.0,865.7,3.9638064
00000000000000AAAAAAAAAA,1,1473451003112856,1473451003112856,1,0.0,13312,-42.0,865.7,5.510059
00000000000000000000AAAA,1,1473451003115425,1473451003115425,1,4.875,13312,-40.5,865.7,2.3623304
00000000000000AAAAAAAAAA,1,1473451003124271,1473451003124271,1,-4.875,13312,-42.0,865.7,5.5223308
000000000000000000AAAAAA,1,1473451003127008,1473451003127008,1,-1.625,13312,-54.5,865.7,3.8472238
00000000000000000000AAAA,1,1473451003129689,1473451003129689,1,6.5,13312,-40.5,865.7,2.3500586
00000000000000AAAAAAAA00,1,1473451003131369,1473451003131369,1,6.5,13312,-36.0,865.7,1.914408
000000AAAAAAAAAAAAAAAA00,1,1473451003132741,1473451003132741,1,4.875,13312,-37.0,865.7,3.9638064
00000000000000AAAAAAAAAA,1,1473451003139637,1473451003139637,1,1.625,13312,-42.0,865.7,5.516195
000000AAAAAAAAAAAAAAAA00,1,1473451003143380,1473451003143380,1,-0.8125,13312,-37.0,865.7,3.9944859
00000000000000AAAAAAAA00,1,1473451003145301,1473451003145301,1,8.9375,13312,-36.0,865.7,1.9021362
00000000000000000000AAAA,1,1473451003147060,1473451003147060,1,5.6875,13312,-40.5,865.7,2.3316507
000000000000000000AAAAAA,1,1473451003148924,1473451003148924,1,21.9375,13312,-54.0,865.7,3.669282
000000AAAAAAAAAAAAAAAA00,1,1473451003157000,1473451003157000,1,0.8125,13312,-37.0,865.7,3.9883502
00000000000000AAAAAAAA00,1,1473451003160257,1473451003160257,1,5.6875,13312,-36.0,865.7,1.9205439
000000000000000000AAAAAA,1,1473451003162280,1473451003162280,1,-2.4375,13312,-54.5,865.7,3.8533597
00000000000000000000AAAA,1,1473451003167229,1473451003167229,1,0.0,13312,-41.0,865.7,2.3500586
00000000000000AAAAAAAAAA,1,1473451003168580,1473451003168580,1,-2.4375,13312,-42.5,865.7,5.5223308
000000AAAAAAAAAAAAAAAA00,1,1473451003174412,1473451003174412,1,-3.25,13312,-36.5,865.7,4.0190296
000000000000000000AAAAAA,1,1473451003176248,1473451003176248,1,19.5,13312,-54.5,865.7,3.7183695
00000000000000000000AAAA,1,1473451003180741,1473451003180741,1,-0.8125,13312,-40.5,865.7,2.3500586
00000000000000AAAAAAAA00,1,1473451003182435,1473451003182435,1,2.4375,13312,-36.0,865.7,1.9389517
00000000000000AAAAAAAAAA,1,1473451003183713,1473451003183713,1,-0.8125,13312,-42.5,865.7,5.5284667
00000000000000AAAAAAAA00,1,1473451003190579,1473451003190579,1,3.25,13312,-36.0,865.7,1.9389517
00000000000000000000AAAA,1,1473451003193115,1473451003193115,1,0.8125,13312,-40.5,865.7,2.3316507
000000AAAAAAAAAAAAAAAA00,1,1473451003195236,1473451003195236,1,1.625,13312,-37.0,865.7,3.9822142
00000000000000AAAAAAAAAA,1,1473451003197098,1473451003197098,1,-1.625,13312,-42.0,865.7,5.5407386
000000000000000000AAAAAA,1,1473451003201516,1473451003201516,1,-0.8125,13312,-55.5,865.7,3.8349519
000000000000000000AAAAAA,1,1473451003208041,1473451003208041,1,-21.125,13312,-55.0,865.7,3.9944859
00000000000000000000AAAA,1,1473451003212081,1473451003212081,1,5.6875,13312,-40.5,865.7,2.2948353
00000000000000AAAAAAAA00,1,1473451003213433,1473451003213433,1,5.6875,13312,-36.0,865.7,1.9634954
000000AAAAAAAAAAAAAAAA00,1,1473451003215015,1473451003215015,1,1.625,13312,-36.5,865.7,3.9883502
00000000000000AAAAAAAAAA,1,1473451003216944,1473451003216944,1,0.0,13312,-42.5,865.7,5.5468745
00000000000000000000AAAA,1,1473451003224349,1473451003224349,1,8.9375,13312,-40.5,865.7,2.2641556
000000AAAAAAAAAAAAAAAA00,1,1473451003226826,1473451003226826,1,0.8125,13312,-37.0,865.7,3.9944859
00000000000000AAAAAAAA00,1,1473451003229713,1473451003229713,1,5.6875,13312,-36.0,865.7,1.9634954
00000000000000AAAAAAAAAA,1,1473451003231047,1473451003231047,1,1.625,13312,-42.5,865.7,5.5468745
000000000000000000AAAAAA,1,1473451003232613,1473451003232613,1,-2.4375,13312,-54.5,865.7,3.9269907
000000AAAAAAAAAAAAAAAA00,1,1473451003240662,1473451003240662,1,0.0,13312,-37.0,865.7,4.0128937
00000000000000AAAAAAAA00,1,1473451003243052,1473451003243052,1,3.25,13312,-36.0,865.7,1.9819032
000000000000000000AAAAAA,1,1473451003246180,1473451003246180,1,9.75,13312,-54.5,865.7,3.8840394
00000000000000000000AAAA,1,1473451003248587,1473451003248587,1,4.875,13312,-40.5,865.7,2.2825634
00000000000000AAAAAAAAAA,1,1473451003249949,1473451003249949,1,-0.8125,13312,-42.5,865.7,5.5714183
00000000000000000000AAAA,1,1473451003258046,1473451003258046,1,0.8125,13312,-41.0,865.7,2.2886994
000000AAAAAAAAAAAAAAAA00,1,1473451003260454,1473451003260454,1,3.25,13312,-36.5,865.7,3.9822142
00000000000000AAAAAAAA00,1,1473451003261963,1473451003261963,1,2.4375,13312,-36.0,865.7,1.9880391
00000000000000AAAAAAAAAA,1,1473451003263780,1473451003263780,1,-7.3125,13312,-42.5,865.7,5.608234
000000000000000000AAAAAA,1,1473451003265276,1473451003265276,1,6.5,13312,-54.0,865.7,3.8840394
00000000000000000000AAAA,1,1473451003272905,1473451003272905,1,3.25,13312,-40.5,865.7,2.2886994
00000000000000AAAAAAAAAA,1,1473451003274546,1473451003274546,1,-4.0625,13312,-42.5,865.7,5.620506
000000AAAAAAAAAAAAAAAA00,1,1473451003275830,1473451003275830,1,2.4375,13312,-36.5,865.7,3.9883502
000000000000000000AAAAAA,1,1473451003277426,1473451003277426,1,14.625,13312,-54.5,865.7,3.8656316
00000000000000AAAAAAAA00,1,1473451003280271,1473451003280271,1,4.875,13312,-36.0,865.7,1.9880391
00000000000000AAAAAAAAAA,1,1473451003291078,1473451003291078,1,-2.4375,13312,-43.0,865.7,5.61437
00000000000000AAAAAAAA00,1,1473451003292388,1473451003292388,1,5.6875,13312,-36.0,865.7,1.9880391
00000000000000000000AAAA,1,1473451003293946,1473451003293946,1,3.25,13312,-41.0,865.7,2.2702916
000000AAAAAAAAAAAAAAAA00,1,1473451003295500,1473451003295500,1,5.6875,13312,-36.5,865.7,3.9883502
000000000000000000AAAAAA,1,1473451003298083,1473451003298083,1,0.8125,13312,-53.5,865.7,3.9822142
000000AAAAAAAAAAAAAAAA00,1,1473451003308482,1473451003308482,1,1.625,13312,-36.5,865.7,3.9944859
00000000000000AAAAAAAA00,1,1473451003310162,1473451003310162,1,2.4375,13312,-36.0,865.7,2.0064468
00000000000000AAAAAAAAAA,1,1473451003311723,1473451003311723,1,0.8125,13312,-42.5,865.7,5.608234
00000000000000000000AAAA,1,1473451003313594,1473451003313594,1,0.8125,13312,-41.0,865.7,2.2948353
000000000000000000AAAAAA,1,1473451003315447,1473451003315447,1,13.8125,13312,-54.5,865.7,3.9085832
000000000000000000AAAAAA,1,1473451003326120,1473451003326120,1,-16.25,13312,-54.0,865.7,4.1662917
00000000000000000000AAAA,1,1473451003327975,1473451003327975,1,4.875,13312,-40.5,865.7,2.2886994
000000AAAAAAAAAAAAAAAA00,1,1473451003329940,1473451003329940,1,0.0,13312,-36.5,865.7,4.000622
00000000000000AAAAAAAA00,1,1473451003331763,1473451003331763,1,4.875,13312,-36.0,865.7,1.9941751
00000000000000AAAAAAAAAA,1,1473451003334955,1473451003334955,1,-2.4375,13312,-42.5,865.7,5.6327777
000000000000000000AAAAAA,1,1473451003342450,1473451003342450,1,41.5,13312,-55.0,865.7,3.8963113
00000000000000AAAAAAAAAA,1,1473451003345896,1473451003345896,1,1.625,13312,-42.5,865.7,5.61437
000000AAAAAAAAAAAAAAAA00,1,1473451003347893,1473451003347893,1,5.6875,13312,-36.5,865.7,3.9760783
00000000000000AAAAAAAA00,1,1473451003349843,1473451003349843,1,6.5,13312,-36.5,865.7,2.000311
00000000000000000000AAAA,1,1473451003351233,1473451003351233,1,8.125,13312,-41.0,865.7,2.2518837
00000000000000000000AAAA,1,1473451003358376,1473451003358376,1,7.3125,13312,-41.0,865.7,2.2457478
000000AAAAAAAAAAAAAAAA00,1,1473451003361963,1473451003361963,1,4.875,13312,-36.5,865.7,3.9760783
00000000000000AAAAAAAAAA,1,1473451003364190,1473451003364190,1,-0.8125,13312,-42.5,865.7,5.6266418
00000000000000AAAAAAAA00,1,1473451003365800,1473451003365800,1,6.5,13312,-36.0,865.7,1.9880391
000000000000000000AAAAAA,1,1473451003367481,1473451003367481,1,4.875,13312,-56.5,865.7,4.2092433
00000000000000000000AAAA,1,1473451003375917,1473451003375917,1,1.625,13312,-41.0,865.7,2.2641556
000000AAAAAAAAAAAAAAAA00,1,1473451003377602,1473451003377602,1,3.25,13312,-36.5,865.7,3.9822142
00000000000000AAAAAAAAAA,1,1473451003378893,1473451003378893,1,-1.625,13312,-42.5,865.7,5.61437
00000000000000AAAAAAAA00,1,1473451003380700,1473451003380700,1,7.3125,13312,-36.0,865.7,1.9757673
000000000000000000AAAAAA,1,1473451003383956,1473451003383956,1,-2.4375,13312,-58.0,865.7,4.2828746
000000AAAAAAAAAAAAAAAA00,1,1473451003389750,1473451003389750,1,0.0,13312,-36.5,865.7,4.0251656
000000000000000000AAAAAA,1,1473451003393426,1473451003393426,1,8.125,13312,-59.0,865.7,4.3380976
00000000000000000000AAAA,1,1473451003395594,1473451003395594,1,7.3125,13312,-41.5,865.7,2.2089324
00000000000000AAAAAAAA00,1,1473451003397002,1473451003397002,1,6.5,13312,-36.0,865.7,1.9757673
00000000000000AAAAAAAAAA,1,1473451003398350,1473451003398350,1,-5.6875,13312,-42.5,865.7,5.651185
00000000000000AAAAAAAAAA,1,1473451003405744,1473451003405744,1,2.4375,13312,-42.0,865.7,5.58369
00000000000000000000AAAA,1,1473451003407120,1473451003407120,1,8.9375,13312,-41.5,865.7,2.1966605
00000000000000AAAAAAAA00,1,1473451003410486,1473451003410486,1,7.3125,13312,-36.5,865.7,1.9696313
000000AAAAAAAAAAAAAAAA00,1,1473451003412297,1473451003412297,1,-0.8125,13312,-36.5,865.7,4.0251656
000000000000000000AAAAAA,1,1473451003413653,1473451003413653,1,-44.75,13312,-60.0,865.7,4.6080785
00000000000000000000AAAA,1,1473451003424209,1473451003424209,1,5.6875,13312,-41.5,865.7,2.1905246
000000000000000000AAAAAA,1,1473451003428158,1473451003428158,1,-17.875,13312,-60.0,865.7,4.8412433
00000000000000AAAAAAAAAA,1,1473451003430387,1473451003430387,1,0.0,13312,-42.0,865.7,5.589826
00000000000000AAAAAAAA00,1,1473451003432400,1473451003432400,1,7.3125,13312,-36.5,865.7,1.9757673
000000AAAAAAAAAAAAAAAA00,1,1473451003433841,1473451003433841,1,1.625,13312,-36.5,865.7,4.0128937
00000000000000AAAAAAAA00,1,1473451003441465,1473451003441465,1,4.875,13312,-36.5,865.7,2.000311
000000AAAAAAAAAAAAAAAA00,1,1473451003443968,1473451003443968,1,-1.625,13312,-36.5,865.7,4.0313015
00000000000000AAAAAAAAAA,1,1473451003446195,1473451003446195,1,-1.625,13312,-42.0,865.7,5.5652823
00000000000000000000AAAA,1,1473451003447826,1473451003447826,1,9.75,13312,-41.0,865.7,2.1230295
00000000000000AAAAAAAAAA,1,1473451003456355,1473451003456355,1,1.625,13312,-42.0,865.7,5.5530105
000000AAAAAAAAAAAAAAAA00,1,1473451003459095,1473451003459095,1,3.25,13312,-36.5,865.7,4.0067577
00000000000000000000AAAA,1,1473451003461275,1473451003461275,1,5.6875,13312,-41.0,865.7,2.1353014
00000000000000AAAAAAAA00,1,1473451003462670,1473451003462670,1,6.5,13312,-36.5,865.7,1.9880391
00000000000000AAAAAAAA00,1,1473451003469419,1473451003469419,1,7.3125,13312,-36.5,865.7,1.9880391
000000AAAAAAAAAAAAAAAA00,1,1473451003471001,1473451003471001,1,-3.25,13312,-36.5,865.7,4.0558453
00000000000000000000AAAA,1,1473451003472291,1473451003472291,1,3.25,13312,-41.5,865.7,2.1291654
00000000000000AAAAAAAAAA,1,1473451003476431,1473451003476431,1,-1.625,13312,-42.0,865.7,5.516195
00000000000000000000AAAA,1,1473451003485274,1473451003485274,1,5.6875,13312,-41.0,865.7,2.1168935
00000000000000AAAAAAAA00,1,1473451003487690,1473451003487690,1,4.875,13312,-36.5,865.7,1.9941751
000000AAAAAAAAAAAAAAAA00,1,1473451003489532,1473451003489532,1,-0.8125,13312,-36.5,865.7,4.0435734
00000000000000AAAAAAAAAA,1,1473451003491733,1473451003491733,1,0.8125,13312,-42.0,865.7,5.503923
000000AAAAAAAAAAAAAAAA00,1,1473451003500835,1473451003500835,1,1.625,13312,-36.0,865.7,4.0313015
00000000000000000000AAAA,1,1473451003503019,1473451003503019,1,5.6875,13312,-41.0,865.7,2.1046216
00000000000000AAAAAAAA00,1,1473451003504726,1473451003504726,1,7.3125,13312,-36.5,865.7,1.9757673
00000000000000AAAAAAAAAA,1,1473451003507189,1473451003507189,1,0.0,13312,-41.5,865.7,5.497787
00000000000000AAAAAAAAAA,1,1473451003514283,1473451003514283,1,-0.8125,13312,-42.0,865.7,5.497787
00000000000000AAAAAAAA00,1,1473451003517008,1473451003517008,1,10.5625,13312,-37.0,865.7,1.9634954
00000000000000000000AAAA,1,1473451003519488,1473451003519488,1,9.75,13312,-41.0,865.7,2.06167
000000AAAAAAAAAAAAAAAA00,1,1473451003521797,1473451003521797,1,1.625,13312,-36.5,865.7,4.0497093
00000000000000000000AAAA,1,1473451003531610,1473451003531610,1,8.125,13312,-41.0,865.7,2.06167
000000AAAAAAAAAAAAAAAA00,1,1473451003533179,1473451003533179,1,3.25,13312,-36.5,865.7,4.0251656
00000000000000AAAAAAAA00,1,1473451003534545,1473451003534545,1,5.6875,13312,-37.0,865.7,1.9757673
00000000000000AAAAAAAAAA,1,1473451003536969,1473451003536969,1,0.8125,13312,-42.0,865.7,5.454836
00000000000000000000AAAA,1,1473451003545855,1473451003545855,1,10.5625,13312,-41.0,865.7,2.0493984
00000000000000AAAAAAAAAA,1,1473451003548596,1473451003548596,1,-4.0625,13312,-41.5,865.7,5.460972
00000000000000AAAAAAAA00,1,1473451003550870,1473451003550870,1,6.5,13312,-37.0,865.7,1.9757673
000000AAAAAAAAAAAAAAAA00,1,1473451003552610,1473451003552610,1,0.8125,13312,-36.5,865.7,4.0374374
00000000000000AAAAAAAAAA,1,1473451003559768,1473451003559768,1,-1.625,13312,-41.5,865.7,5.442564
00000000000000AAAAAAAA00,1,1473451003562613,1473451003562613,1,6.5,13312,-37.0,865.7,1.9757673
000000AAAAAAAAAAAAAAAA00,1,1473451003564378,1473451003564378,1,-0.8125,13312,-36.5,865.7,4.0558453
00000000000000000000AAAA,1,1473451003566207,1473451003566207,1,8.125,13312,-41.0,865.7,2.06167
00000000000000AAAAAAAA00,1,1473451003573966,1473451003573966,1,5.6875,13312,-37.0,865.7,1.9880391
000000AAAAAAAAAAAAAAAA00,1,1473451003575832,1473451003575832,1,2.4375,13312,-36.5,865.7,4.0313015
00000000000000000000AAAA,1,1473451003577433,1473451003577433,1,8.9375,13312,-41.0,865.7,2.0371265
00000000000000AAAAAAAAAA,1,1473451003580056,1473451003580056,1,0.8125,13312,-41.5,865.7,5.4057484
000000AAAAAAAAAAAAAAAA00,1,1473451003591984,1473451003591984,1,2.4375,13312,-36.5,865.7,4.0190296
00000000000000000000AAAA,1,1473451003593502,1473451003593502,1,1.625,13312,-41.0,865.7,2.080078
00000000000000AAAAAAAAAA,1,1473451003594853,1473451003594853,1,4.875,13312,-41.5,865.7,5.3689327
00000000000000AAAAAAAA00,1,1473451003596175,1473451003596175,1,8.9375,13312,-37.0,865.7,1.9634954
000000AAAAAAAAAAAAAAAA00,1,1473451003604552,1473451003604552,1,0.0,13312,-36.5,865.7,4.0497093
00000000000000AAAAAAAA00,1,1473451003606160,1473451003606160,1,8.125,13312,-37.0,865.7,1.9634954
00000000000000000000AAAA,1,1473451003608172,1473451003608172,1,8.9375,13312,-41.0,865.7,2.0493984
00000000000000AAAAAAAAAA,1,1473451003609759,1473451003609759,1,0.0,13312,-41.5,865.7,5.3996124
00000000000000AAAAAAAA00,1,1473451003622484,1473451003622484,1,6.5,13312,-37.0,865.7,1.9757673
00000000000000000000AAAA,1,1473451003624923,1473451003624923,1,3.25,13312,-41.0,865.7,2.0493984
000000AAAAAAAAAAAAAAAA00,1,1473451003626392,1473451003626392,1,-0.8125,13312,-36.5,865.7,4.0558453
00000000000000AAAAAAAAAA,1,1473451003628789,1473451003628789,1,0.0,13312,-41.0,865.7,5.3689327
00000000000000AAAAAAAAAA,1,1473451003637218,1473451003637218,1,-1.625,13312,-41.5,865.7,5.3812046
000000AAAAAAAAAAAAAAAA00,1,1473451003639069,1473451003639069,1,0.0,13312,-36.5,865.7,4.0435734
00000000000000AAAAAAAA00,1,1473451003641169,1473451003641169,1,6.5,13312,-37.5,865.7,1.9757673
00000000000000000000AAAA,1,1473451003642755,1473451003642755,1,4.875,13312,-41.0,865.7,2.0432625
00000000000000AAAAAAAA00,1,1473451003653817,1473451003653817,1,8.125,13312,-37.5,865.7,1.9696313
000000AAAAAAAAAAAAAAAA00,1,1473451003655985,1473451003655985,1,2.4375,13312,-36.5,865.7,4.0313015
00000000000000AAAAAAAAAA,1,1473451003658051,1473451003658051,1,4.875,13312,-41.5,865.7,5.3137093
00000000000000000000AAAA,1,1473451003660234,1473451003660234,1,5.6875,13312,-41.0,865.7,2.0432625
00000000000000AAAAAAAAAA,1,1473451003667788,1473451003667788,1,4.875,13312,-41.5,865.7,5.3137093
000000AAAAAAAAAAAAAAAA00,1,1473451003670223,1473451003670223,1,3.25,13312,-36.0,865.7,4.0251656
00000000000000AAAAAAAA00,1,1473451003672243,1473451003672243,1,6.5,13312,-37.5,865.7,1.9819032
00000000000000000000AAAA,1,1473451003674042,1473451003674042,1,9.75,13312,-41.0,865.7,2.0064468
000000AAAAAAAAAAAAAAAA00,1,1473451003683235,1473451003683235,1,-4.875,13312,-36.5,865.7,4.068117
00000000000000AAAAAAAAAA,1,1473451003685680,1473451003685680,1,-1.625,13312,-41.0,865.7,5.325981
00000000000000000000AAAA,1,1473451003687836,1473451003687836,1,3.25,13312,-41.0,865.7,2.0248547
00000000000000AAAAAAAA00,1,1473451003690652,1473451003690652,1,4.875,13312,-37.0,865.7,1.9696313
000000AAAAAAAAAAAAAAAA00,1,1473451003696820,1473451003696820,1,3.25,13312,-36.5,865.7,4.0251656
00000000000000000000AAAA,1,1473451003699740,1473451003699740,1,2.4375,13312,-41.0,865.7,2.0125828
00000000000000AAAAAAAAAA,1,1473451003703360,1473451003703360,1,0.8125,13312,-41.5,865.7,5.289166
00000000000000AAAAAAAA00,1,1473451003704687,1473451003704687,1,4.875,13312,-37.0,865.7,1.9757673
000000AAAAAAAAAAAAAAAA00,1,1473451003712019,1473451003712019,1,-1.625,13312,-36.5,865.7,4.0558453
00000000000000000000AAAA,1,1473451003713365,1473451003713365,1,6.5,13312,-41.0,865.7,2.000311
00000000000000AAAAAAAA00,1,1473451003715763,1473451003715763,1,6.5,13312,-37.0,865.7,1.9757673
00000000000000AAAAAAAAAA,1,1473451003717292,1473451003717292,1,0.8125,13312,-41.0,865.7,5.28303
00000000000000000000AAAA,1,1473451003727739,1473451003727739,1,7.3125,13312,-41.0,865.7,1.9880391
000000AAAAAAAAAAAAAAAA00,1,1473451003729563,1473451003729563,1,3.25,13312,-36.5,865.7,4.0128937
00000000000000AAAAAAAA00,1,1473451003733651,1473451003733651,1,8.125,13312,-37.0,865.7,1.9634954
00000000000000AAAAAAAAAA,1,1473451003735638,1473451003735638,1,0.8125,13312,-41.0,865.7,5.264622
00000000000000AAAAAAAAAA,1,1473451003744127,1473451003744127,1,-0.8125,13312,-41.0,865.7,5.264622
00000000000000AAAAAAAA00,1,1473451003747000,1473451003747000,1,8.125,13312,-37.0,865.7,1.9634954
000000AAAAAAAAAAAAAAAA00,1,1473451003748657,1473451003748657,1,3.25,13312,-36.5,865.7,4.0251656
00000000000000000000AAAA,1,1473451003749988,1473451003749988,1,4.875,13312,-41.0,865.7,1.9941751
000000AAAAAAAAAAAAAAAA00,1,1473451003759803,1473451003759803,1,-0.8125,13312,-36.5,865.7,4.0497093
00000000000000000000AAAA,1,1473451003761363,1473451003761363,1,10.5625,13312,-41.0,865.7,1.9450877
00000000000000AAAAAAAAAA,1,1473451003764293,1473451003764293,1,0.0,13312,-41.5,865.7,5.2278066
00000000000000AAAAAAAA00,1,1473451003765876,1473451003765876,1,9.75,13312,-37.5,865.7,1.9450877
000000AAAAAAAAAAAAAAAA00,1,1473451003772735,1473451003772735,1,0.8125,13312,-36.5,865.7,4.0374374
00000000000000AAAAAAAA00,1,1473451003776511,1473451003776511,1,7.3125,13312,-37.5,865.7,1.9696313
00000000000000000000AAAA,1,1473451003778140,1473451003778140,1,8.125,13312,-41.0,865.7,1.9573594
00000000000000AAAAAAAAAA,1,1473451003779474,1473451003779474,1,2.4375,13312,-41.0,865.7,5.203263
00000000000000000000AAAA,1,1473451003790489,1473451003790489,1,4.875,13312,-41.0,865.7,1.9757673
000000AAAAAAAAAAAAAAAA00,1,1473451003792355,1473451003792355,1,2.4375,13312,-36.5,865.7,4.0251656
00000000000000AAAAAAAA00,1,1473451003793905,1473451003793905,1,5.6875,13312,-37.0,865.7,1.9819032
00000000000000AAAAAAAAAA,1,1473451003795208,1473451003795208,1,-0.8125,13312,-41.0,865.7,5.178719
000000AAAAAAAAAAAAAAAA00,1,1473451003802668,1473451003802668,1,-2.4375,13312,-36.5,865.7,4.0558453
00000000000000AAAAAAAAAA,1,1473451003806938,1473451003806938,1,7.3125,13312,-41.0,865.7,5.1419034
00000000000000AAAAAAAA00,1,1473451003808278,1473451003808278,1,4.875,13312,-37.5,865.7,1.9819032
00000000000000000000AAAA,1,1473451003810339,1473451003810339,1,4.875,13312,-41.0,865.7,1.9757673
00000000000000AAAAAAAA00,1,1473451003818912,1473451003818912,1,2.4375,13312,-37.5,865.7,1.9941751
00000000000000AAAAAAAAAA,1,1473451003820258,1473451003820258,1,0.0,13312,-41.0,865.7,5.1480393
000000AAAAAAAAAAAAAAAA00,1,1473451003823164,1473451003823164,1,0.8125,13312,-36.5,865.7,4.0435734
00000000000000000000AAAA,1,1473451003825718,1473451003825718,1,3.25,13312,-41.0,865.7,1.9819032
00000000000000AAAAAAAAAA,1,1473451003835402,1473451003835402,1,-2.4375,13312,-41.0,865.7,5.11736
000000AAAAAAAAAAAAAAAA00,1,1473451003836858,1473451003836858,1,0.8125,13312,-36.5,865.7,4.0313015
00000000000000AAAAAAAA00,1,1473451003839941,1473451003839941,1,5.6875,13312,-37.5,865.7,1.9757673
00000000000000000000AAAA,1,1473451003841272,1473451003841272,1,5.6875,13312,-41.0,865.7,1.9573594
00000000000000000000AAAA,1,1473451003849349,1473451003849349,1,5.6875,13312,-41.0,865.7,1.9696313
00000000000000AAAAAAAA00,1,1473451003851794,1473451003851794,1,7.3125,13312,-37.5,865.7,1.9757673
000000AAAAAAAAAAAAAAAA00,1,1473451003853249,1473451003853249,1,4.875,13312,-36.0,865.7,4.0190296
00000000000000AAAAAAAAAA,1,1473451003855705,1473451003855705,1,4.875,13312,-41.0,865.7,5.049865
00000000000000AAAAAAAAAA,1,1473451003864674,1473451003864674,1,4.0625,13312,-41.0,865.7,5.037593
000000AAAAAAAAAAAAAAAA00,1,1473451003866294,1473451003866294,1,5.6875,13312,-36.5,865.7,4.0190296
00000000000000000000AAAA,1,1473451003868729,1473451003868729,1,3.25,13312,-41.0,865.7,1.9819032
00000000000000AAAAAAAA00,1,1473451003870053,1473451003870053,1,4.875,13312,-38.0,865.7,2.0125828
00000000000000AAAAAAAAAA,1,1473451003878756,1473451003878756,1,2.4375,13312,-40.5,865.7,5.006913
00000000000000000000AAAA,1,1473451003881181,1473451003881181,1,9.75,13312,-40.5,865.7,1.9573594
00000000000000AAAAAAAA00,1,1473451003883343,1473451003883343,1,6.5,13312,-38.0,865.7,2.0187187
000000AAAAAAAAAAAAAAAA00,1,1473451003884912,1473451003884912,1,3.25,13312,-36.5,865.7,4.0374374
00000000000000AAAAAAAAAA,1,1473451003892534,1473451003892534,1,-0.8125,13312,-40.5,865.7,5.006913
00000000000000AAAAAAAA00,1,1473451003894725,1473451003894725,1,9.75,13312,-37.5,865.7,2.000311
00000000000000000000AAAA,1,1473451003897549,1473451003897549,1,6.5,13312,-40.5,865.7,1.9696313
000000AAAAAAAAAAAAAAAA00,1,1473451003898889,1473451003898889,1,0.8125,13312,-36.0,865.7,4.0497093
00000000000000AAAAAAAA00,1,1473451003909364,1473451003909364,1,5.6875,13312,-37.5,865.7,2.0125828
00000000000000AAAAAAAAAA,1,1473451003911066,1473451003911066,1,-0.8125,13312,-41.0,865.7,4.9946413
000000AAAAAAAAAAAAAAAA00,1,1473451003912694,1473451003912694,1,5.6875,13312,-36.5,865.7,4.0251656
00000000000000000000AAAA,1,1473451003914213,1473451003914213,1,4.875,13312,-40.5,865.7,1.9573594
00000000000000AAAAAAAA00,1,1473451003921753,1473451003921753,1,6.5,13312,-38.0,865.7,2.000311
00000000000000AAAAAAAAAA,1,1473451003923583,1473451003923583,1,2.4375,13312,-41.0,865.7,4.957826
000000AAAAAAAAAAAAAAAA00,1,1473451003925151,1473451003925151,1,1.625,13312,-36.0,865.7,4.0374374
00000000000000000000AAAA,1,1473451003927220,1473451003927220,1,5.6875,13312,-41.5,865.7,1.9205439
000000000000000000AAAAAA,1,1473451003930632,1473451003930632,1,13.0,13312,-52.0,865.7,3.5649714
000000000000000000AAAAAA,1,1473451003938822,1473451003938822,1,12.1875,13312,-51.0,865.7,3.675418
000000AAAAAAAAAAAAAAAA00,1,1473451003941235,1473451003941235,1,1.625,13312,-36.5,865.7,4.0435734
00000000000000000000AAAA,1,1473451003942566,1473451003942566,1,-0.8125,13312,-41.5,865.7,1.8960003
00000000000000AAAAAAAAAA,1,1473451003944880,1473451003944880,1,0.8125,13312,-40.5,865.7,4.9271464
00000000000000AAAAAAAA00,1,1473451003946488,1473451003946488,1,8.9375,13312,-38.0,865.7,1.9450877
00000000000000AAAAAAAA00,1,1473451003956549,1473451003956549,1,7.3125,13312,-37.5,865.7,1.9389517
000000AAAAAAAAAAAAAAAA00,1,1473451003961452,1473451003961452,1,3.25,13312,-36.5,865.7,4.0313015
00000000000000000000AAAA,1,1473451003962781,1473451003962781,1,0.8125,13312,-41.5,865.7,1.8223692
000000000000000000AAAAAA,1,1473451003964110,1473451003964110,1,9.75,13312,-51.0,865.7,3.7613208
00000000000000AAAAAAAAAA,1,1473451003965445,1473451003965445,1,4.875,13312,-41.0,865.7,4.878059
000000AAAAAAAAAAAAAAAA00,1,1473451003972174,1473451003972174,1,5.6875,13312,-36.0,865.7,4.0251656
000000000000000000AAAAAA,1,1473451003975075,1473451003975075,1,5.6875,13312,-50.5,865.7,3.7245054
00000000000000000000AAAA,1,1473451003978380,1473451003978380,1,1.625,13312,-41.0,865.7,1.8285052
00000000000000AAAAAAAA00,1,1473451003981510,1473451003981510,1,4.875,13312,-38.0,865.7,1.9512236
00000000000000AAAAAAAAAA,1,1473451003982828,1473451003982828,1,0.8125,13312,-40.5,865.7,4.859651
00000000000000AAAAAAAA00,1,1473451003988853,1473451003988853,1,5.6875,13312,-37.5,865.7,1.9389517
000000AAAAAAAAAAAAAAAA00,1,1473451003990196,1473451003990196,1,3.25,13312,-36.5,865.7,4.0435734
00000000000000000000AAAA,1,1473451003991482,1473451003991482,1,-0.8125,13312,-41.0,865.7,1.8162333
000000000000000000AAAAAA,1,1473451003995188,1473451003995188,1,2.4375,13312,-50.0,865.7,3.7183695
00000000000000AAAAAAAAAA,1,1473451003999349,1473451003999349,1,0.0,13312,-41.0,865.7,4.865787
00000000000000AAAAAAAAAA,1,1473451004005933,1473451004005933,1,1.625,13312,-40.5,865.7,4.8228354
000000AAAAAAAAAAAAAAAA00,1,1473451004009928,1473451004009928,1,0.8125,13312,-36.5,865.7,4.0558453
00000000000000AAAAAAAA00,1,1473451004011696,1473451004011696,1,7.3125,13312,-37.5,865.7,1.9389517
00000000000000000000AAAA,1,1473451004013283,1473451004013283,1,5.6875,13312,-40.5,865.7,1.7855537
000000000000000000AAAAAA,1,1473451004015249,1473451004015249,1,12.1875,13312,-50.0,865.7,3.6079228
00000000000000AAAAAAAA00,1,1473451004021454,1473451004021454,1,6.5,13312,-37.5,865.7,1.9450877
000000000000000000AAAAAA,1,1473451004024998,1473451004024998,1,4.0625,13312,-50.0,865.7,3.6570103
00000000000000AAAAAAAAAA,1,1473451004026287,1473451004026287,1,0.0,13312,-41.0,865.7,4.8105636
00000000000000000000AAAA,1,1473451004027621,1473451004027621,1,2.4375,13312,-40.5,865.7,1.7855537
000000AAAAAAAAAAAAAAAA00,1,1473451004029927,1473451004029927,1,1.625,13312,-36.5,865.7,4.0435734
00000000000000AAAAAAAAAA,1,1473451004039784,1473451004039784,1,0.0,13312,-40.5,865.7,4.792156
000000AAAAAAAAAAAAAAAA00,1,1473451004041343,1473451004041343,1,2.4375,13312,-36.0,865.7,4.0374374
00000000000000000000AAAA,1,1473451004042660,1473451004042660,1,1.625,13312,-40.5,865.7,1.8039614
000000000000000000AAAAAA,1,1473451004044992,1473451004044992,1,8.125,13312,-49.5,865.7,3.5526996
00000000000000AAAAAAAA00,1,1473451004046973,1473451004046973,1,7.3125,13312,-38.0,865.7,1.9450877
00000000000000AAAAAAAAAA,1,1473451004055137,1473451004055137,1,2.4375,13312,-40.5,865.7,4.7798843
000000000000000000AAAAAA,1,1473451004058470,1473451004058470,1,1.625,13312,-49.5,865.7,3.5649714
000000AAAAAAAAAAAAAAAA00,1,1473451004060424,1473451004060424,1,2.4375,13312,-36.5,865.7,4.0435734
00000000000000AAAAAAAA00,1,1473451004061747,1473451004061747,1,6.5,13312,-38.0,865.7,1.9634954
00000000000000000000AAAA,1,1473451004063487,1473451004063487,1,6.5,13312,-40.0,865.7,1.7855537
000000AAAAAAAAAAAAAAAA00,1,1473451004070481,1473451004070481,1,0.0,13312,-36.0,865.7,4.0497093
000000000000000000AAAAAA,1,1473451004071850,1473451004071850,1,9.75,13312,-49.5,865.7,3.4852045
00000000000000AAAAAAAA00,1,1473451004074060,1473451004074060,1,5.6875,13312,-38.0,865.7,1.9573594
00000000000000AAAAAAAAAA,1,1473451004076965,1473451004076965,1,-5.6875,13312,-40.5,865.7,4.8228354
00000000000000000000AAAA,1,1473451004079520,1473451004079520,1,6.5,13312,-39.5,865.7,1.7732818
000000000000000000AAAAAA,1,1473451004086082,1473451004086082,1,-5.6875,13312,-49.0,865.7,3.6263306
00000000000000AAAAAAAA00,1,1473451004088242,1473451004088242,1,4.875,13312,-38.0,865.7,1.9634954
00000000000000AAAAAAAAAA,1,1473451004089830,1473451004089830,1,0.0,13312,-40.5,865.7,4.792156
00000000000000000000AAAA,1,1473451004091872,1473451004091872,1,4.875,13312,-40.0,865.7,1.7732818
000000AAAAAAAAAAAAAAAA00,1,1473451004096247,1473451004096247,1,-1.625,13312,-36.0,865.7,4.074253
000000000000000000AAAAAA,1,1473451004103071,1473451004103071,1,2.4375,13312,-49.5,865.7,3.5649714
00000000000000000000AAAA,1,1473451004105799,1473451004105799,1,5.6875,13312,-39.5,865.7,1.7794178
000000AAAAAAAAAAAAAAAA00,1,1473451004108005,1473451004108005,1,-0.8125,13312,-36.5,865.7,4.068117
00000000000000AAAAAAAA00,1,1473451004109731,1473451004109731,1,5.6875,13312,-38.0,865.7,1.9512236
00000000000000AAAAAAAAAA,1,1473451004111516,1473451004111516,1,0.0,13312,-40.5,865.7,4.7798843
000000000000000000AAAAAA,1,1473451004119730,1473451004119730,1,13.8125,13312,-49.0,865.7,3.4913402
000000AAAAAAAAAAAAAAAA00,1,1473451004121538,1473451004121538,1,4.875,13312,-36.0,865.7,4.0497093
00000000000000AAAAAAAA00,1,1473451004123756,1473451004123756,1,3.25,13312,-38.0,865.7,1.9696313
00000000000000000000AAAA,1,1473451004125044,1473451004125044,1,8.125,13312,-40.0,865.7,1.7732818
00000000000000AAAAAAAAAA,1,1473451004127327,1473451004127327,1,0.8125,13312,-40.5,865.7,4.7798843
00000000000000AAAAAAAA00,1,1473451004135747,1473451004135747,1,6.5,13312,-38.0,865.7,1.9573594
00000000000000000000AAAA,1,1473451004137914,1473451004137914,1,1.625,13312,-40.0,865.7,1.7916895
00000000000000AAAAAAAAAA,1,1473451004139874,1473451004139874,1,0.8125,13312,-40.0,865.7,4.7798843
000000AAAAAAAAAAAAAAAA00,1,1473451004142153,1473451004142153,1,2.4375,13312,-36.5,865.7,4.0435734
000000000000000000AAAAAA,1,1473451004143678,1473451004143678,1,5.6875,13312,-49.5,865.7,3.5220199
00000000000000AAAAAAAA00,1,1473451004151122,1473451004151122,1,5.6875,13312,-38.0,865.7,1.9512236
000000000000000000AAAAAA,1,1473451004152675,1473451004152675,1,6.5,13312,-49.0,865.7,3.5342917
000000AAAAAAAAAAAAAAAA00,1,1473451004155109,1473451004155109,1,1.625,13312,-36.5,865.7,4.0435734
00000000000000000000AAAA,1,1473451004157842,1473451004157842,1,2.4375,13312,-39.5,865.7,1.8039614
00000000000000AAAAAAAAAA,1,1473451004159529,1473451004159529,1,0.8125,13312,-40.5,865.7,4.8166995
00000000000000AAAAAAAA00,1,1473451004167135,1473451004167135,1,3.25,13312,-37.5,865.7,1.9573594
00000000000000000000AAAA,1,1473451004170412,1473451004170412,1,-3.25,13312,-39.5,865.7,1.8162333
000000AAAAAAAAAAAAAAAA00,1,1473451004172010,1473451004172010,1,1.625,13312,-36.5,865.7,4.0558453
000000000000000000AAAAAA,1,1473451004174017,1473451004174017,1,6.5,13312,-49.0,865.7,3.5526996
00000000000000AAAAAAAAAA,1,1473451004176841,1473451004176841,1,0.0,13312,-40.5,865.7,4.8166995
000000AAAAAAAAAAAAAAAA00,1,1473451004184192,1473451004184192,1,3.25,13312,-36.5,865.7,4.0374374
00000000000000AAAAAAAA00,1,1473451004186224,1473451004186224,1,5.6875,13312,-38.0,865.7,1.9450877
000000000000000000AAAAAA,1,1473451004188510,1473451004188510,1,13.8125,13312,-50.0,865.7,3.5404277
00000000000000AAAAAAAAAA,1,1473451004189817,1473451004189817,1,1.625,13312,-40.5,865.7,4.8105636
00000000000000000000AAAA,1,1473451004191886,1473451004191886,1,8.9375,13312,-39.5,865.7,1.7794178
00000000000000000000AAAA,1,1473451004202796,1473451004202796,1,8.125,13312,-40.0,865.7,1.7855537
00000000000000AAAAAAAA00,1,1473451004204149,1473451004204149,1,2.4375,13312,-38.0,865.7,1.9634954
000000000000000000AAAAAA,1,1473451004205514,1473451004205514,1,0.8125,13312,-49.0,865.7,3.5649714
000000AAAAAAAAAAAAAAAA00,1,1473451004206842,1473451004206842,1,-0.8125,13312,-36.0,865.7,4.092661
00000000000000AAAAAAAAAA,1,1473451004208645,1473451004208645,1,-0.8125,13312,-40.5,865.7,4.8166995
00000000000000AAAAAAAA00,1,1473451004217828,1473451004217828,1,7.3125,13312,-37.5,865.7,1.9512236
00000000000000AAAAAAAAAA,1,1473451004219401,1473451004219401,1,-0.8125,13312,-40.5,865.7,4.847379
000000000000000000AAAAAA,1,1473451004221466,1473451004221466,1,8.9375,13312,-49.0,865.7,3.509748
000000AAAAAAAAAAAAAAAA00,1,1473451004222836,1473451004222836,1,1.625,13312,-36.5,865.7,4.0497093
00000000000000000000AAAA,1,1473451004226692,1473451004226692,1,4.875,13312,-40.0,865.7,1.7978255
00000000000000AAAAAAAAAA,1,1473451004234990,1473451004234990,1,0.0,13312,-40.5,865.7,4.8351073
00000000000000000000AAAA,1,1473451004238064,1473451004238064,1,4.875,13312,-39.5,865.7,1.8100973
00000000000000AAAAAAAA00,1,1473451004239401,1473451004239401,1,2.4375,13312,-37.5,865.7,1.9634954
000000AAAAAAAAAAAAAAAA00,1,1473451004241525,1473451004241525,1,6.5,13312,-36.0,865.7,4.061981
000000000000000000AAAAAA,1,1473451004244611,1473451004244611,1,-4.875,13312,-49.0,865.7,3.5588355
000000AAAAAAAAAAAAAAAA00,1,1473451004250388,1473451004250388,1,1.625,13312,-36.5,865.7,4.068117
00000000000000000000AAAA,1,1473451004251947,1473451004251947,1,5.6875,13312,-40.0,865.7,1.7855537
000000000000000000AAAAAA,1,1473451004253499,1473451004253499,1,9.75,13312,-49.0,865.7,3.509748
00000000000000AAAAAAAA00,1,1473451004256972,1473451004256972,1,5.6875,13312,-37.5,865.7,1.9634954
00000000000000AAAAAAAAAA,1,1473451004260374,1473451004260374,1,8.9375,13312,-40.5,865.7,4.7798843
000000000000000000AAAAAA,1,1473451004267576,1473451004267576,1,0.0,13312,-49.0,865.7,3.589515
00000000000000AAAAAAAAAA,1,1473451004269650,1473451004269650,1,1.625,13312,-40.5,865.7,4.8228354
00000000000000000000AAAA,1,1473451004274300,1473451004274300,1,0.8125,13312,-39.5,865.7,1.8162333
000000AAAAAAAAAAAAAAAA00,1,1473451004275972,1473451004275972,1,0.0,13312,-36.0,865.7,4.092661
00000000000000AAAAAAAA00,1,1473451004277712,1473451004277712,1,8.125,13312,-37.5,865.7,1.9512236
000000AAAAAAAAAAAAAAAA00,1,1473451004284746,1473451004284746,1,4.875,13312,-36.0,865.7,4.068117
000000000000000000AAAAAA,1,1473451004286469,1473451004286469,1,4.0625,13312,-48.5,865.7,3.5526996
00000000000000AAAAAAAAAA,1,1473451004288268,1473451004288268,1,0.8125,13312,-40.0,865.7,4.8166995
00000000000000000000AAAA,1,1473451004290757,1473451004290757,1,4.875,13312,-39.5,865.7,1.7978255
00000000000000AAAAAAAA00,1,1473451004294045,1473451004294045,1,7.3125,13312,-38.0,865.7,1.9573594
00000000000000000000AAAA,1,1473451004300046,1473451004300046,1,3.25,13312,-40.0,865.7,1.8223692
000000AAAAAAAAAAAAAAAA00,1,1473451004301884,1473451004301884,1,4.875,13312,-36.0,865.7,4.0558453
000000000000000000AAAAAA,1,1473451004304814,1473451004304814,1,0.0,13312,-48.5,865.7,3.5281558
00000000000000AAAAAAAAAA,1,1473451004309555,1473451004309555,1,2.4375,13312,-40.0,865.7,4.8289714
00000000000000AAAAAAAA00,1,1473451004310867,1473451004310867,1,5.6875,13312,-38.0,865.7,1.9634954
00000000000000AAAAAAAAAA,1,1473451004317425,1473451004317425,1,-1.625,13312,-40.0,865.7,4.8289714
000000000000000000AAAAAA,1,1473451004320068,1473451004320068,1,8.125,13312,-49.0,865.7,3.515884
00000000000000000000AAAA,1,1473451004322533,1473451004322533,1,4.875,13312,-39.5,865.7,1.8100973
00000000000000AAAAAAAA00,1,1473451004324014,1473451004324014,1,8.125,13312,-37.5,865.7,1.9512236
000000AAAAAAAAAAAAAAAA00,1,1473451004325581,1473451004325581,1,2.4375,13312,-36.0,865.7,4.068117
000000000000000000AAAAAA,1,1473451004332464,1473451004332464,1,-1.625,13312,-48.5,865.7,3.5711074
00000000000000AAAAAAAAAA,1,1473451004334549,1473451004334549,1,2.4375,13312,-40.0,865.7,4.8351073
00000000000000000000AAAA,1,1473451004337826,1473451004337826,1,2.4375,13312,-40.0,865.7,1.8039614
000000AAAAAAAAAAAAAAAA00,1,1473451004341189,1473451004341189,1,4.875,13312,-36.0,865.7,4.061981
00000000000000AAAAAAAA00,1,1473451004342713,1473451004342713,1,7.3125,13312,-37.5,865.7,1.9573594
00000000000000AAAAAAAAAA,1,1473451004348466,1473451004348466,1,6.5,13312,-40.0,865.7,4.8105636
00000000000000AAAAAAAA00,1,1473451004352946,1473451004352946,1,8.9375,13312,-37.5,865.7,1.9389517
000000AAAAAAAAAAAAAAAA00,1,1473451004355112,1473451004355112,1,4.875,13312,-36.0,865.7,4.068117
000000000000000000AAAAAA,1,1473451004356778,1473451004356778,1,4.0625,13312,-48.5,865.7,3.515884
00000000000000000000AAAA,1,1473451004358109,1473451004358109,1,3.25,13312,-40.0,865.7,1.8100973
000000AAAAAAAAAAAAAAAA00,1,1473451004365734,1473451004365734,1,-0.8125,13312,-36.0,865.7,4.086525
00000000000000000000AAAA,1,1473451004367038,1473451004367038,1,4.875,13312,-40.0,865.7,1.8285052
00000000000000AAAAAAAAAA,1,1473451004368884,1473451004368884,1,5.6875,13312,-40.0,865.7,4.8105636
00000000000000AAAAAAAA00,1,1473451004370476,1473451004370476,1,5.6875,13312,-38.0,865.7,1.9634954
000000000000000000AAAAAA,1,1473451004372837,1473451004372837,1,21.125,13312,-48.0,865.7,3.4054372
000000AAAAAAAAAAAAAAAA00,1,1473451004384644,1473451004384644,1,-1.625,13312,-36.0,865.7,4.086525
00000000000000AAAAAAAA00,1,1473451004386382,1473451004386382,1,8.125,13312,-38.0,865.7,1.9512236
00000000000000000000AAAA,1,1473451004388595,1473451004388595,1,6.5,13312,-39.5,865.7,1.8162333
00000000000000AAAAAAAAAA,1,1473451004389927,1473451004389927,1,-2.4375,13312,-40.0,865.7,4.847379
000000000000000000AAAAAA,1,1473451004391253,1473451004391253,1,4.875,13312,-48.5,865.7,3.503612
00000000000000000000AAAA,1,1473451004397877,1473451004397877,1,5.6875,13312,-39.5,865.7,1.8223692
000000AAAAAAAAAAAAAAAA00,1,1473451004399778,1473451004399778,1,1.625,13312,-36.0,865.7,4.068117
000000000000000000AAAAAA,1,1473451004403581,1473451004403581,1,-4.875,13312,-48.5,865.7,3.577243
00000000000000AAAAAAAAAA,1,1473451004405154,1473451004405154,1,1.625,13312,-40.0,865.7,4.8228354
00000000000000AAAAAAAA00,1,1473451004406975,1473451004406975,1,5.6875,13312,-37.5,865.7,1.9573594
00000000000000000000AAAA,1,1473451004416266,1473451004416266,1,4.875,13312,-39.5,865.7,1.834641
000000000000000000AAAAAA,1,1473451004418087,1473451004418087,1,-2.4375,13312,-48.5,865.7,3.5220199
00000000000000AAAAAAAA00,1,1473451004419925,1473451004419925,1,8.125,13312,-38.0,865.7,1.9634954
00000000000000AAAAAAAAAA,1,1473451004421783,1473451004421783,1,0.8125,13312,-40.0,865.7,4.8166995
000000AAAAAAAAAAAAAAAA00,1,1473451004423144,1473451004423144,1,4.875,13312,-36.0,865.7,4.068117
00000000000000000000AAAA,1,1473451004432928,1473451004432928,1,3.25,13312,-40.0,865.7,1.8407769
000000AAAAAAAAAAAAAAAA00,1,1473451004436795,1473451004436795,1,4.875,13312,-36.0,865.7,4.0558453
000000000000000000AAAAAA,1,1473451004438347,1473451004438347,1,14.625,13312,-48.0,865.7,3.4422529
00000000000000AAAAAAAA00,1,1473451004439897,1473451004439897,1,7.3125,13312,-38.0,865.7,1.9634954
00000000000000AAAAAAAAAA,1,1473451004441756,1473451004441756,1,1.625,13312,-40.0,865.7,4.8105636
00000000000000AAAAAAAAAA,1,1473451004449527,1473451004449527,1,0.8125,13312,-39.5,865.7,4.8228354
00000000000000000000AAAA,1,1473451004451957,1473451004451957,1,2.4375,13312,-40.0,865.7,1.834641
00000000000000AAAAAAAA00,1,1473451004453312,1473451004453312,1,5.6875,13312,-38.0,865.7,1.9757673
000000AAAAAAAAAAAAAAAA00,1,1473451004454624,1473451004454624,1,-1.625,13312,-36.0,865.7,4.098797
000000000000000000AAAAAA,1,1473451004456249,1473451004456249,1,-10.5625,13312,-48.5,865.7,3.595651
00000000000000AAAAAAAAAA,1,1473451004469054,1473451004469054,1,4.0625,13312,-39.5,865.7,4.8228354
000000AAAAAAAAAAAAAAAA00,1,1473451004470468,1473451004470468,1,6.5,13312,-36.0,865.7,4.0558453
00000000000000000000AAAA,1,1473451004471758,1473451004471758,1,4.875,13312,-40.0,865.7,1.8223692
000000000000000000AAAAAA,1,1473451004473355,1473451004473355,1,13.0,13312,-49.0,865.7,3.4606607
00000000000000AAAAAAAA00,1,1473451004476127,1473451004476127,1,9.75,13312,-38.0,865.7,1.9389517
00000000000000AAAAAAAAAA,1,1473451004485535,1473451004485535,1,4.0625,13312,-40.0,865.7,4.8289714
000000AAAAAAAAAAAAAAAA00,1,1473451004489826,1473451004489826,1,0.8125,13312,-36.0,865.7,4.080389
00000000000000000000AAAA,1,1473451004491146,1473451004491146,1,7.3125,13312,-40.0,865.7,1.8407769
000000000000000000AAAAAA,1,1473451004492485,1473451004492485,1,4.0625,13312,-49.0,865.7,3.5342917
00000000000000AAAAAAAA00,1,1473451004494374,1473451004494374,1,6.5,13312,-37.5,865.7,1.9512236
000000000000000000AAAAAA,1,1473451004502219,1473451004502219,1,5.6875,13312,-48.5,865.7,3.515884
00000000000000AAAAAAAA00,1,1473451004504038,1473451004504038,1,7.3125,13312,-38.0,865.7,1.9634954
00000000000000AAAAAAAAAA,1,1473451004506226,1473451004506226,1,6.5,13312,-40.0,865.7,4.8044276
00000000000000000000AAAA,1,1473451004509546,1473451004509546,1,2.4375,13312,-40.0,865.7,1.8530488
000000AAAAAAAAAAAAAAAA00,1,1473451004510861,1473451004510861,1,2.4375,13312,-36.0,865.7,4.080389
000000000000000000AAAAAA,1,1473451004517970,1473451004517970,1,-2.4375,13312,-49.0,865.7,3.589515
000000AAAAAAAAAAAAAAAA00,1,1473451004520903,1473451004520903,1,2.4375,13312,-36.0,865.7,4.086525
00000000000000000000AAAA,1,1473451004523123,1473451004523123,1,4.875,13312,-39.5,865.7,1.8469129
00000000000000AAAAAAAAAA,1,1473451004524683,1473451004524683,1,5.6875,13312,-39.5,865.7,4.792156
00000000000000AAAAAAAA00,1,1473451004526049,1473451004526049,1,5.6875,13312,-38.0,865.7,1.9634954
000000AAAAAAAAAAAAAAAA00,1,1473451004536130,1473451004536130,1,1.625,13312,-36.0,865.7,4.086525
000000000000000000AAAAAA,1,1473451004537924,1473451004537924,1,10.5625,13312,-49.0,865.7,3.5281558
00000000000000AAAAAAAA00,1,1473451004539261,1473451004539261,1,7.3125,13312,-38.0,865.7,1.9512236
00000000000000000000AAAA,1,1473451004541583,1473451004541583,1,8.9375,13312,-39.5,865.7,1.8469129
00000000000000AAAAAAAAAA,1,1473451004543401,1473451004543401,1,6.5,13312,-40.0,865.7,4.7860203
00000000000000AAAAAAAAAA,1,1473451004555447,1473451004555447,1,2.4375,13312,-40.0,865.7,4.792156
000000000000000000AAAAAA,1,1473451004556802,1473451004556802,1,-21.9375,13312,-48.5,865.7,3.742913
000000AAAAAAAAAAAAAAAA00,1,1473451004558830,1473451004558830,1,0.8125,13312,-36.0,865.7,4.092661
00000000000000000000AAAA,1,1473451004560896,1473451004560896,1,1.625,13312,-39.5,865.7,1.8591847
00000000000000AAAAAAAA00,1,1473451004562265,1473451004562265,1,8.125,13312,-38.0,865.7,1.9573594
00000000000000AAAAAAAAAA,1,1473451004570973,1473451004570973,1,0.8125,13312,-39.5,865.7,4.7737484
000000000000000000AAAAAA,1,1473451004574079,1473451004574079,1,13.0,13312,-49.0,865.7,3.4790685
00000000000000000000AAAA,1,1473451004575453,1473451004575453,1,2.4375,13312,-39.5,865.7,1.8714565
00000000000000AAAAAAAA00,1,1473451004576776,1473451004576776,1,7.3125,13312,-38.0,865.7,1.9573594
000000AAAAAAAAAAAAAAAA00,1,1473451004578118,1473451004578118,1,1.625,13312,-36.0,865.7,4.098797
00000000000000000000AAAA,1,1473451004585483,1473451004585483,1,6.5,13312,-39.0,865.7,1.8591847
000000000000000000AAAAAA,1,1473451004587193,1473451004587193,1,16.25,13312,-48.5,865.7,3.429981
00000000000000AAAAAAAAAA,1,1473451004591616,1473451004591616,1,1.625,13312,-39.5,865.7,4.7492046
000000AAAAAAAAAAAAAAAA00,1,1473451004594302,1473451004594302,1,-0.8125,13312,-36.0,865.7,4.104933
00000000000000AAAAAAAA00,1,1473451004595657,1473451004595657,1,5.6875,13312,-38.5,865.7,1.9819032
00000000000000AAAAAAAAAA,1,1473451004602718,1473451004602718,1,0.8125,13312,-39.5,865.7,4.7492046
000000000000000000AAAAAA,1,1473451004604924,1473451004604924,1,1.625,13312,-48.5,865.7,3.5711074
000000AAAAAAAAAAAAAAAA00,1,1473451004607133,1473451004607133,1,2.4375,13312,-36.0,865.7,4.086525
00000000000000AAAAAAAA00,1,1473451004609731,1473451004609731,1,6.5,13312,-38.5,865.7,1.9819032
00000000000000000000AAAA,1,1473451004611077,1473451004611077,1,8.125,13312,-39.0,865.7,1.8653207
00000000000000000000AAAA,1,1473451004618749,1473451004618749,1,5.6875,13312,-39.0,865.7,1.8591847
00000000000000AAAAAAAAAA,1,1473451004620921,1473451004620921,1,5.6875,13312,-39.0,865.7,4.693981
00000000000000AAAAAAAA00,1,1473451004622515,1473451004622515,1,7.3125,13312,-38.0,865.7,1.9634954
000000AAAAAAAAAAAAAAAA00,1,1473451004623812,1473451004623812,1,0.0,13312,-35.5,865.7,4.12334
000000000000000000AAAAAA,1,1473451004625878,1473451004625878,1,-31.6875,13312,-49.5,865.7,3.9822142
00000000000000AAAAAAAAAA,1,1473451004635306,1473451004635306,1,2.4375,13312,-39.0,865.7,4.6694374
00000000000000000000AAAA,1,1473451004637236,1473451004637236,1,7.3125,13312,-39.0,865.7,1.8775924
00000000000000AAAAAAAA00,1,1473451004638800,1473451004638800,1,3.25,13312,-38.0,865.7,1.9450877
000000AAAAAAAAAAAAAAAA00,1,1473451004640339,1473451004640339,1,1.625,13312,-36.0,865.7,4.086525
000000000000000000AAAAAA,1,1473451004642778,1473451004642778,1,0.8125,13312,-52.0,865.7,3.8533597
00000000000000AAAAAAAAAA,1,1473451004651402,1473451004651402,1,2.4375,13312,-38.5,865.7,4.6387577
000000AAAAAAAAAAAAAAAA00,1,1473451004653393,1473451004653393,1,-2.4375,13312,-36.0,865.7,4.080389
00000000000000AAAAAAAA00,1,1473451004655456,1473451004655456,1,4.875,13312,-38.0,865.7,1.9082721
00000000000000000000AAAA,1,1473451004657596,1473451004657596,1,8.125,13312,-39.0,865.7,1.9205439
000000000000000000AAAAAA,1,1473451004659389,1473451004659389,1,-13.0,13312,-53.0,865.7,3.9024472
00000000000000000000AAAA,1,1473451004668611,1473451004668611,1,8.125,13312,-39.0,865.7,1.9880391
00000000000000AAAAAAAA00,1,1473451004672137,1473451004672137,1,7.3125,13312,-38.0,865.7,1.8714565
00000000000000AAAAAAAAAA,1,1473451004673824,1473451004673824,1,0.0,13312,-37.0,865.7,4.546719
000000AAAAAAAAAAAAAAAA00,1,1473451004675350,1473451004675350,1,0.0,13312,-36.0,865.7,4.000622
00000000000000000000AAAA,1,1473451004683050,1473451004683050,1,9.75,13312,-38.0,865.7,1.9941751
000000AAAAAAAAAAAAAAAA00,1,1473451004684859,1473451004684859,1,-2.4375,13312,-36.0,865.7,3.9944859
00000000000000AAAAAAAAAA,1,1473451004688655,1473451004688655,1,1.625,13312,-37.0,865.7,4.417865
00000000000000AAAAAAAA00,1,1473451004690550,1473451004690550,1,3.25,13312,-37.5,865.7,1.8775924
00000000000000AAAAAAAAAA,1,1473451004699490,1473451004699490,1,-4.875,13312,-36.5,865.7,4.3687773
00000000000000000000AAAA,1,1473451004700805,1473451004700805,1,7.3125,13312,-37.5,865.7,1.9634954
00000000000000AAAAAAAA00,1,1473451004702640,1473451004702640,1,3.25,13312,-38.0,865.7,1.8591847
000000AAAAAAAAAAAAAAAA00,1,1473451004704251,1473451004704251,1,-1.625,13312,-36.5,865.7,3.9392626
00000000000000AAAAAAAA00,1,1473451004714744,1473451004714744,1,-0.8125,13312,-37.5,865.7,1.8407769
00000000000000000000AAAA,1,1473451004717467,1473451004717467,1,3.25,13312,-37.0,865.7,1.9021362
0000000000000000AAAAAAAA,1,1473451004719685,1473451004719685,1,-1.625,13312,-49.5,865.7,2.2886994
00000000000000AAAAAAAAAA,1,1473451004721800,1473451004721800,1,-1.625,13312,-36.5,865.7,4.141748
000000AAAAAAAAAAAAAAAA00,1,1473451004723412,1473451004723412,1,-2.4375,13312,-36.0,865.7,3.8963113
00000000000000000000AAAA,1,1473451004731664,1473451004731664,1,8.9375,13312,-37.0,865.7,1.8100973
00000000000000AAAAAAAAAA,1,1473451004733722,1473451004733722,1,-4.875,13312,-36.5,865.7,4.074253
000000AAAAAAAAAAAAAAAA00,1,1473451004735331,1473451004735331,1,-1.625,13312,-36.0,865.7,3.8533597
00000000000000AAAAAAAA00,1,1473451004739595,1473451004739595,1,4.875,13312,-37.5,865.7,1.7671459
000000AAAAAAAAAAAAAAAA00,1,1473451004748347,1473451004748347,1,1.625,13312,-36.5,865.7,3.8104084
00000000000000AAAAAAAAAA,1,1473451004749951,1473451004749951,1,-5.6875,13312,-37.5,865.7,3.9453986
00000000000000AAAAAAAA00,1,1473451004751559,1473451004751559,1,5.6875,13312,-37.5,865.7,1.7303303
00000000000000000000AAAA,1,1473451004752947,1473451004752947,1,6.5,13312,-38.0,865.7,1.748738
00000000000000000000AAAA,1,1473451004765051,1473451004765051,1,3.25,13312,-38.5,865.7,1.7364663
00000000000000AAAAAAAA00,1,1473451004767257,1473451004767257,1,4.875,13312,-38.0,865.7,1.7119225
000000AAAAAAAAAAAAAAAA00,1,1473451004769721,1473451004769721,1,3.25,13312,-36.5,865.7,3.755185
00000000000000AAAAAAAAAA,1,1473451004771325,1473451004771325,1,2.4375,13312,-38.0,865.7,3.749049
000000AAAAAAAAAAAAAAAA00,1,1473451004779708,1473451004779708,1,-2.4375,13312,-37.0,865.7,3.7674568
00000000000000000000AAAA,1,1473451004781295,1473451004781295,1,7.3125,13312,-39.0,865.7,1.6935148
00000000000000AAAAAAAAAA,1,1473451004783436,1473451004783436,1,-1.625,13312,-38.5,865.7,3.7245054
00000000000000AAAAAAAA00,1,1473451004785654,1473451004785654,1,0.0,13312,-39.0,865.7,1.7303303
000000AAAAAAAAAAAAAAAA00,1,1473451004793936,1473451004793936,1,0.0,13312,-37.5,865.7,3.7613208
00000000000000AAAAAAAA00,1,1473451004795419,1473451004795419,1,8.9375,13312,-39.0,865.7,1.6873789
0000000000000000AAAAAAAA,1,1473451004798363,1473451004798363,1,5.6875,13312,-52.0,865.7,5.755496
00000000000000AAAAAAAAAA,1,1473451004800535,1473451004800535,1,-2.4375,13312,-39.5,865.7,3.675418
00000000000000000000AAAA,1,1473451004801868,1473451004801868,1,3.25,13312,-40.0,865.7,1.7119225
0000000000000000AAAAAAAA,1,1473451004808772,1473451004808772,1,21.125,13312,-51.5,865.7,5.5714183
00000000000000000000AAAA,1,1473451004811677,1473451004811677,1,4.875,13312,-40.5,865.7,1.748738
00000000000000AAAAAAAA00,1,1473451004813000,1473451004813000,1,2.4375,13312,-39.5,865.7,1.8039614
00000000000000AAAAAAAAAA,1,1473451004817169,1473451004817169,1,4.0625,13312,-40.5,865.7,3.6508744
000000AAAAAAAAAAAAAAAA00,1,1473451004818510,1473451004818510,1,-0.8125,13312,-38.5,865.7,3.828816
00000000000000000000AAAA,1,1473451004828322,1473451004828322,1,4.875,13312,-40.0,865.7,1.7916895
00000000000000AAAAAAAAAA,1,1473451004830105,1473451004830105,1,-0.8125,13312,-41.5,865.7,3.6999617
00000000000000AAAAAAAA00,1,1473451004831558,1473451004831558,1,2.4375,13312,-40.0,865.7,1.8530488
000000AAAAAAAAAAAAAAAA00,1,1473451004833264,1473451004833264,1,0.8125,13312,-39.0,865.7,3.8717675
0000000000000000AAAAAAAA,1,1473451004834777,1473451004834777,1,-0.8125,13312,-54.5,865.7,5.5223308
000000000000000000AAAAAA,1,1473451004838152,1473451004838152,1,-26.8125,13312,-61.0,865.7,5.5714183
00000000000000000000AAAA,1,1473451004845932,1473451004845932,1,3.25,13312,-40.0,865.7,1.8469129
0000000000000000AAAAAAAA,1,1473451004847500,1473451004847500,1,7.3125,13312,-56.0,865.7,5.479379
00000000000000AAAAAAAA00,1,1473451004849561,1473451004849561,1,5.6875,13312,-40.0,865.7,1.9021362
000000AAAAAAAAAAAAAAAA00,1,1473451004852484,1473451004852484,1,-2.4375,13312,-39.0,865.7,3.9822142
00000000000000AAAAAAAAAA,1,1473451004854117,1473451004854117,1,4.0625,13312,-42.5,865.7,3.8472238
000000000000000000AAAAAA,1,1473451004860047,1473451004860047,1,0.8125,13312,-61.0,865.7,4.6694374
