-45.5,4.06811704947272,7.3125
-45.0,4.025165587411922,7.3125
-45.5,4.037437433715008,5.6875
-46.5,3.9822141253511245,5.6875
-48.0,4.080388895775806,2.4375
-48.0,4.0987966652304335,0.0
-48.5,4.061981126321178,0.0
-48.0,4.06811704947272,-0.8125
-47.5,3.988350048502667,7.3125
-47.5,4.061981126321178,-1.625
-47.0,4.01902966426038,7.3125
-47.0,4.0128937411088375,-0.8125
-47.0,3.9269908169872414,2.4375
-46.5,3.890175278077986,1.625
-46.5,3.9392626632903265,-2.4375
-46.5,3.902447124381071,2.4375
-46.5,3.933126740138784,-2.4375
-46.5,3.9085830475326135,-4.875
-46.5,3.8533597391687304,-0.8125
-46.0,3.7429131224409646,1.625
-46.5,3.761320891895592,0.8125
-46.5,3.810408277107933,-2.4375
-46.0,3.724505352986337,4.875
-45.5,3.7429131224409646,-1.625
-45.5,3.6876898140770815,1.625
-45.0,3.6263305825616556,10.5625
-44.5,3.5895150436524004,6.5
-45.0,3.6324665057131984,2.4375
-44.5,3.6263305825616556,3.25
-44.5,3.650874275167826,1.625
-45.0,3.6386024288647407,3.25
-44.5,3.6754179677739964,-1.625
-44.5,3.6386024288647407,4.875
-44.5,3.6140587362585705,3.25
-44.5,3.6017868899554855,8.9375
-45.0,3.650874275167826,3.25
-44.5,3.663146121470911,1.625
-45.0,3.663146121470911,4.875
-45.0,3.706097583531709,7.3125
-45.0,3.773592738198677,0.8125
-45.0,3.785864584501762,0.0
-45.0,3.773592738198677,8.9375
-45.5,3.8288160465625602,4.875
-45.5,3.902447124381071,-0.8125
-45.5,3.9147189706841563,0.8125
-45.0,3.9699422790480394,0.0
-45.0,4.006757817957295,1.625
-45.0,4.04357335686655,7.3125
-45.0,4.129476280988146,3.25
-44.5,4.178563666200486,3.25
-44.5,4.246058820867455,3.25
-44.5,4.368777283898306,-0.8125
-44.0,4.3933209765044765,4.875
-43.5,4.424000592262189,2.4375
-43.5,4.448544284868359,3.25
-43.5,4.479223900626073,0.0
-43.5,4.485359823777615,2.4375
-43.0,4.491495746929157,1.625
-43.5,4.503767593232243,0.0
-43.5,4.485359823777615,1.625
-43.0,4.485359823777615,2.4375
-43.0,4.479223900626073,5.6875
-42.5,4.454680208019902,2.4375
-42.5,4.466952054322987,0.8125
-42.5,4.466952054322987,-0.8125
-42.5,4.454680208019902,0.8125
-42.0,4.430136515413731,2.4375
-42.0,4.424000592262189,4.875
-42.0,4.442408361716817,-1.625
-41.5,4.424000592262189,1.625
-41.5,4.399456899656019,1.625
-41.5,4.387185053352934,-1.625
-41.5,4.362641360746763,2.4375
-41.5,4.344233591292136,-0.8125
-41.5,4.325825821837508,3.25
-42.0,4.319689898685965,5.6875
-42.0,4.338097668140593,2.4375
-42.0,4.368777283898306,0.0
-42.5,4.331961744989051,4.875
-43.0,4.344233591292136,0.8125
-42.5,4.331961744989051,1.625
-43.0,4.313553975534423,4.875
-42.5,4.319689898685965,1.625
-42.5,4.313553975534423,1.625
-42.5,4.3074180523828804,-0.8125
-42.5,4.276738436625168,0.8125
-42.0,4.276738436625168,3.25
-42.5,4.25833066717054,-0.8125
-42.5,4.239922897715912,3.25
-42.5,4.221515128261284,0.0
-42.0,4.184699589352029,1.625
-42.0,4.166291819897402,1.625
-42.0,4.154019973594316,0.8125
-42.0,4.1601558967458585,0.8125
-42.0,4.1172044346850605,6.5
-42.5,4.123340357836604,2.4375
-42.5,4.154019973594316,-0.8125
-42.0,4.1417481272912315,0.8125
-42.5,4.061981126321178,0.0
-43.0,3.9944859716542096,1.625
-43.5,3.877903431774901,7.3125
-43.5,3.8717675086233583,-0.8125
-43.5,3.816544200259475,-1.625
-43.0,3.736777199289422,6.5
-43.0,3.736777199289422,0.0
-43.0,3.6017868899554855,7.3125
-42.5,3.5956509668039427,3.25
-42.5,3.5711072741977725,2.4375
-43.0,3.5465635815916023,1.625
-43.0,3.509748042682347,6.5
-43.0,3.485204350076177,3.25
-43.0,3.4913402732277192,0.0
-44.5,3.9453985864418692,3.25
-43.5,4.190835512503572,1.625
-39.5,4.111068511533518,-0.8125
-38.5,3.6692820446224537,0.8125
-40.0,3.2888548092268146,2.4375
-44.5,3.2704470397721868,5.6875
-45.5,3.6079228131070282,-0.8125
-46.0,3.933126740138784,-8.9375
-44.5,4.0128937411088375,3.25
-44.0,4.031301510563465,-2.4375
-44.0,3.9699422790480394,1.625
-44.5,3.9638063558964967,-7.3125
-44.0,3.877903431774901,0.0
-44.0,3.7981364308048478,1.625
-43.5,3.7122335066832517,5.6875
-43.5,3.718369429834794,-0.8125
-43.0,3.663146121470911,2.4375
-43.0,3.6140587362585705,3.25
-43.5,3.6140587362585705,0.8125
-43.5,3.5711072741977725,8.125
-43.5,3.6263305825616556,6.5
-43.5,3.6692820446224537,7.3125
-43.5,3.6815538909255388,7.3125
-43.0,3.706097583531709,7.3125
-43.0,3.6876898140770815,4.875
-43.0,3.6815538909255388,4.875
-42.0,3.663146121470911,2.4375
-42.0,3.6386024288647407,3.25
-42.5,3.6447383520162835,0.0
-42.0,3.6017868899554855,7.3125
-42.0,3.6079228131070282,3.25
-42.0,3.6201946594101133,1.625
-42.0,3.6201946594101133,1.625
-42.0,3.6017868899554855,3.25
-42.0,3.6201946594101133,1.625
-42.5,3.6140587362585705,4.875
-42.5,3.5833791205008576,8.125
-42.0,3.5956509668039427,4.875
-42.0,3.6017868899554855,1.625
-42.5,3.6017868899554855,4.875
-42.0,3.6079228131070282,3.25
-42.5,3.6324665057131984,0.8125
-42.5,3.6140587362585705,6.5
-42.5,3.6140587362585705,8.125
-42.5,3.6140587362585705,8.125
-42.0,3.650874275167826,4.875
-42.5,3.6447383520162835,5.6875
-42.5,3.650874275167826,6.5
-42.5,3.6570101983193686,5.6875
-42.5,3.663146121470911,4.875
-42.5,3.6570101983193686,6.5
-42.5,3.6692820446224537,3.25
-42.5,3.6815538909255388,2.4375
-42.5,3.6815538909255388,0.8125
-42.5,3.6815538909255388,2.4375
-42.5,3.650874275167826,2.4375
-42.5,3.6754179677739964,0.0
-42.5,3.6386024288647407,8.125
-42.5,3.6386024288647407,6.5
-43.0,3.6570101983193686,1.625
-42.5,3.6447383520162835,4.875
-42.5,3.6447383520162835,3.25
-42.5,3.6324665057131984,6.5
-42.5,3.6201946594101133,7.3125
-42.5,3.6570101983193686,0.8125
-42.5,3.6263305825616556,5.6875
-42.5,3.6447383520162835,2.4375
-42.5,3.6447383520162835,2.4375
-42.5,3.6447383520162835,3.25
