-37.5,1.705786636128833,0.0
-37.5,1.6935147898257479,6.5
-38.0,1.6873788666742053,6.5
-37.5,1.6873788666742053,5.6875
-38.0,1.705786636128833,5.6875
-37.5,1.7426021750380885,0.0
-37.5,1.718058482431918,2.4375
-37.5,1.6873788666742053,7.3125
-37.5,1.705786636128833,4.875
-38.0,1.6996507129772904,5.6875
-37.5,1.6812429435226628,7.3125
-37.5,1.7426021750380885,0.0
-37.5,1.718058482431918,3.25
-37.5,1.7426021750380885,-0.8125
-38.0,1.705786636128833,6.5
-37.5,1.6996507129772904,6.5
-37.5,1.7548740213411735,0.8125
-37.5,1.736466251886546,5.6875
-37.5,1.705786636128833,8.9375
-37.5,1.736466251886546,4.875
-37.5,1.7119225592803755,9.75
-37.5,1.7426021750380885,1.625
-37.5,1.718058482431918,6.5
-37.5,1.6751070203711202,13.8125
-37.5,1.705786636128833,5.6875
-37.5,1.7548740213411735,1.625
-38.0,1.7241944055834606,5.6875
-37.5,1.7426021750380885,2.4375
-38.0,1.705786636128833,7.3125
-37.5,1.718058482431918,7.3125
-37.5,1.736466251886546,5.6875
-37.5,1.736466251886546,5.6875
-38.0,1.748738098189631,2.4375
-37.5,1.7426021750380885,4.875
-38.0,1.748738098189631,4.875
-38.0,1.736466251886546,6.5
-37.5,1.7426021750380885,6.5
-37.5,1.7426021750380885,5.6875
-37.5,1.7303303287350031,3.25
-37.5,1.761009944492716,2.4375
-37.5,1.7119225592803755,9.75
-37.5,1.7548740213411735,4.875
-37.5,1.761009944492716,3.25
-38.0,1.736466251886546,6.5
-38.0,1.7671458676442586,2.4375
-37.5,1.7303303287350031,8.125
-38.0,1.7426021750380885,5.6875
-37.5,1.7794177139473437,-0.8125
-38.0,1.7671458676442586,3.25
-38.0,1.7671458676442586,4.875
-38.0,1.7794177139473437,1.625
-37.5,1.736466251886546,8.9375
-38.0,1.736466251886546,6.5
-37.5,1.7548740213411735,4.875
-37.5,1.748738098189631,8.125
-37.5,1.761009944492716,4.875
-38.0,1.7548740213411735,6.5
-37.5,1.7548740213411735,5.6875
-38.0,1.7303303287350031,6.5
-37.5,1.748738098189631,6.5
-37.5,1.7855536370988863,2.4375
-37.5,1.748738098189631,8.125
-37.5,1.7671458676442586,4.875
-37.5,1.748738098189631,8.9375
-37.5,1.7548740213411735,5.6875
-37.5,1.7916895602504288,0.8125
-38.0,1.7794177139473437,3.25
-38.0,1.7978254834019713,0.8125
-37.5,1.7671458676442586,4.875
-38.0,1.7671458676442586,7.3125
-37.5,1.7548740213411735,7.3125
-37.5,1.7794177139473437,6.5
-37.5,1.8039614065535141,1.625
-37.5,1.8100973297050567,0.8125
-37.5,1.8346410223112268,-3.25
-37.5,1.8100973297050567,0.8125
-37.5,1.7671458676442586,8.125
-37.5,1.7978254834019713,1.625
-37.5,1.7732817907958012,8.9375
-37.5,1.7794177139473437,7.3125
-37.5,1.7916895602504288,3.25
-37.5,1.7855536370988863,7.3125
-37.5,1.7794177139473437,8.9375
-37.5,1.7855536370988863,7.3125
-37.5,1.7671458676442586,9.75
-37.5,1.7855536370988863,8.125
-37.5,1.8162332528565992,5.6875
-37.5,1.7916895602504288,7.3125
-37.5,1.8100973297050567,5.6875
-37.5,1.8100973297050567,8.9375
-37.5,1.8223691760081417,9.75
-37.5,1.846912868614312,5.6875
-37.5,1.8407769454627694,7.3125
-37.5,1.846912868614312,7.3125
-37.5,1.88986433067511,0.0
-37.5,1.846912868614312,7.3125
-37.5,1.8407769454627694,3.25
-37.5,1.8775924843720249,3.25
-37.5,1.8653206380689396,2.4375
-37.5,1.8653206380689396,4.875
-37.0,1.8775924843720249,4.875
-37.5,1.9082721001297376,-0.8125
-37.5,1.8960002538266525,2.4375
-37.5,1.8530487917658545,7.3125
-37.5,1.8960002538266525,3.25
-37.5,1.9082721001297376,-0.8125
-37.5,1.8714565612204823,6.5
-37.5,1.859184714917397,8.9375
-37.5,1.8775924843720249,7.3125
-37.5,1.88986433067511,5.6875
-37.5,1.8714565612204823,8.9375
-37.5,1.9205439464328227,1.625
-37.0,1.8960002538266525,5.6875
-37.5,1.88986433067511,6.5
-37.5,1.9082721001297376,1.625
-37.5,1.8837284075235674,8.125
-37.5,1.9205439464328227,2.4375
-37.5,1.9144080232812801,6.5
-37.5,1.9205439464328227,7.3125
-37.5,1.9144080232812801,5.6875
-37.5,1.9205439464328227,8.125
-37.0,1.945087639038993,2.4375
-37.5,1.9634954084936207,0.8125
-37.5,1.932815792735908,8.9375
-37.0,1.9389517158874505,5.6875
-37.0,1.932815792735908,7.3125
-37.0,1.9819031779482483,3.25
-37.5,1.9819031779482483,1.625
-37.5,1.9634954084936207,7.3125
-37.0,1.945087639038993,11.375
-37.5,1.9880391010997909,2.4375
-37.5,1.9696313316451632,6.5
-37.5,1.9757672547967058,8.9375
-37.0,2.018718716857504,1.625
-37.5,1.9819031779482483,8.125
-37.5,2.0371264863121317,0.0
-37.5,2.012582793705961,7.3125
-37.5,1.9941750242513334,8.9375
-37.5,2.018718716857504,4.875
-37.5,2.012582793705961,4.875
-37.5,2.000310947402876,8.125
-37.5,1.9880391010997909,10.5625
-37.5,2.012582793705961,7.3125
-37.5,1.9941750242513334,9.75
-37.5,2.043262409463674,4.875
-37.5,2.030990563160589,6.5
-37.5,2.061670178918302,3.25
-37.5,2.055534255766759,5.6875
-37.5,2.061670178918302,5.6875
-37.5,2.055534255766759,5.6875
-37.5,2.067806102069844,2.4375
-37.5,2.067806102069844,5.6875
-37.5,2.1046216409791,-0.8125
-37.5,2.067806102069844,6.5
-38.0,2.061670178918302,8.125
-37.5,2.055534255766759,5.6875
-37.5,2.0371264863121317,9.75
-38.0,2.043262409463674,8.125
-38.0,2.0923497946760143,4.875
-37.5,2.0800779483729293,6.5
-37.5,2.073942025221387,4.875
-37.5,2.061670178918302,7.3125
-37.5,2.141437179888355,-1.625
-37.5,2.0800779483729293,6.5
-38.0,2.098485717827557,2.4375
-37.5,2.0923497946760143,4.875
-38.0,2.110757564130642,1.625
-38.0,2.061670178918302,8.9375
-38.0,2.086213871524472,8.125
-38.0,2.1046216409791,4.875
-38.0,2.0923497946760143,4.875
-37.5,2.110757564130642,3.25
-38.0,2.0923497946760143,3.25
-37.5,2.1230294104337273,0.8125
-37.5,2.0923497946760143,8.125
-38.0,2.12916533358527,2.4375
-38.0,2.1353012567368124,2.4375
-37.5,2.12916533358527,4.875
-37.5,2.141437179888355,0.8125
-38.0,2.1353012567368124,5.6875
-37.5,2.1230294104337273,4.875
-37.5,2.1353012567368124,5.6875
-38.0,2.1537090261914402,0.0
-37.5,2.098485717827557,8.9375
-37.5,2.1353012567368124,4.875
-37.5,2.1475731030398975,3.25
-38.0,2.110757564130642,8.9375
-37.5,2.0923497946760143,9.75
-38.0,2.1537090261914402,3.25
-37.5,2.12916533358527,3.25
-37.5,2.098485717827557,9.75
-38.0,2.1230294104337273,5.6875
-37.5,2.116893487282185,7.3125
-37.5,2.1537090261914402,2.4375
-38.0,2.141437179888355,3.25
-37.5,2.1046216409791,8.9375
-37.5,2.1659808724945253,1.625
-37.5,2.1475731030398975,3.25
-37.5,2.1046216409791,8.9375
-37.5,2.1230294104337273,8.9375
-37.5,2.110757564130642,11.375
-37.5,2.116893487282185,6.5
-37.5,2.1353012567368124,5.6875
-37.5,2.141437179888355,8.125
-37.5,2.184388641949153,-0.8125
-37.5,2.1598449493429825,5.6875
-37.5,2.1659808724945253,0.0
-37.5,2.141437179888355,6.5
-37.5,2.12916533358527,7.3125
-37.5,2.12916533358527,9.75
-37.5,2.184388641949153,0.0
-37.5,2.116893487282185,8.9375
-37.5,2.110757564130642,8.125
-37.5,2.116893487282185,7.3125
-37.5,2.1353012567368124,5.6875
-37.5,2.1046216409791,8.9375
-37.5,2.116893487282185,9.75
-37.5,2.116893487282185,8.125
-37.5,2.1475731030398975,5.6875
-37.5,2.1598449493429825,-0.8125
-37.5,2.110757564130642,6.5
-37.5,2.116893487282185,6.5
-37.5,2.1598449493429825,-1.625
-37.5,2.12916533358527,2.4375
-37.5,2.110757564130642,2.4375
-37.5,2.086213871524472,3.25
-37.5,2.12916533358527,2.4375
-38.0,2.0800779483729293,5.6875
-37.5,2.110757564130642,5.6875
-37.5,2.116893487282185,4.875
-37.5,2.0923497946760143,8.125
-37.5,2.141437179888355,3.25
-38.0,2.1353012567368124,1.625
-37.5,2.110757564130642,4.875
-38.0,2.1598449493429825,0.8125
-37.5,2.1230294104337273,8.125
-37.5,2.098485717827557,8.125
-37.5,2.116893487282185,7.3125
-37.5,2.12916533358527,7.3125
-37.5,2.116893487282185,7.3125
-37.5,2.1598449493429825,1.625
-37.5,2.1475731030398975,3.25
-38.0,2.1475731030398975,5.6875
-38.0,2.1475731030398975,3.25
-38.0,2.1475731030398975,5.6875
-38.0,2.1353012567368124,5.6875
-38.0,2.1782527187976104,1.625
-37.5,2.1230294104337273,8.125
-38.0,2.1537090261914402,5.6875
-37.5,2.1475731030398975,6.5
-37.5,2.116893487282185,7.3125
-38.0,2.1598449493429825,5.6875
-38.0,2.12916533358527,8.9375
-37.5,2.1353012567368124,9.75
-38.0,2.1537090261914402,6.5
-38.0,2.1782527187976104,2.4375
-37.5,2.1782527187976104,4.875
-38.0,2.1353012567368124,10.5625
-37.5,2.141437179888355,9.75
-37.5,2.184388641949153,0.8125
-38.0,2.1782527187976104,3.25
-37.5,2.12916533358527,9.75
-38.0,2.1537090261914402,8.9375
-38.0,2.1475731030398975,7.3125
-38.0,2.1598449493429825,4.875
-38.0,2.1905245651006955,3.25
-37.5,2.1659808724945253,6.5
-38.0,2.2027964114037806,2.4375
-38.0,2.1537090261914402,6.5
-38.0,2.1598449493429825,8.9375
-38.0,2.1782527187976104,2.4375
-38.0,2.2089323345553233,1.625
-38.0,2.2212041808584084,0.8125
-38.0,2.1782527187976104,8.125
-38.0,2.1782527187976104,5.6875
-38.0,2.184388641949153,4.875
-38.0,2.172116795646068,6.5
-38.0,2.172116795646068,8.125
-38.0,2.1782527187976104,8.125
-38.0,2.2089323345553233,1.625
-38.0,2.2027964114037806,5.6875
-38.0,2.2150682577068657,1.625
-38.0,2.2089323345553233,3.25
-38.0,2.2334760271614935,2.4375
-38.0,2.2212041808584084,0.8125
-38.0,2.184388641949153,8.125
-38.0,2.2580197197676637,-3.25
-38.0,2.1966604882522383,7.3125
-38.0,2.2580197197676637,-3.25
-38.0,2.2089323345553233,3.25
-38.0,2.1905245651006955,6.5
-38.0,2.1966604882522383,8.9375
-38.0,2.2580197197676637,0.0
-38.5,2.2089323345553233,7.3125
-38.5,2.2027964114037806,8.9375
-38.0,2.2396119503130363,0.8125
-38.0,2.2150682577068657,5.6875
-38.0,2.2089323345553233,8.125
-38.0,2.2580197197676637,0.0
-38.5,2.2212041808584084,5.6875
-38.0,2.2886993355253766,-1.625
-38.5,2.2641556429192065,0.0
-38.0,2.2212041808584084,4.875
-38.0,2.2089323345553233,8.125
-38.5,2.2518837966161214,1.625
-38.0,2.2580197197676637,2.4375
-38.0,2.2641556429192065,1.625
-38.0,2.2150682577068657,7.3125
-38.0,2.2457478734645786,2.4375
-38.0,2.2089323345553233,8.9375
-38.5,2.282563412373834,-0.8125
-38.0,2.2334760271614935,1.625
-38.0,2.3071071049800045,-7.3125
-38.0,2.227340104009951,5.6875
-38.5,2.2212041808584084,8.125
-38.5,2.2518837966161214,2.4375
-38.5,2.2580197197676637,1.625
-38.0,2.2089323345553233,9.75
-38.5,2.282563412373834,-0.8125
-38.0,2.270291566070749,-0.8125
-38.0,2.2212041808584084,3.25
-38.0,2.2948352586769194,-3.25
-38.0,2.270291566070749,-1.625
-38.5,2.2150682577068657,7.3125
-38.0,2.1966604882522383,8.9375
-38.5,2.2089323345553233,8.125
-38.0,2.227340104009951,5.6875
-38.0,2.2886993355253766,-2.4375
-38.5,2.227340104009951,5.6875
-38.5,2.3071071049800045,-3.25
-38.0,2.270291566070749,-1.625
-38.0,2.2948352586769194,-4.875
-38.0,2.2886993355253766,-3.25
-38.5,2.2150682577068657,6.5
-38.0,2.2396119503130363,3.25
-38.5,2.2886993355253766,-3.25
-38.5,2.2948352586769194,-1.625
-38.0,2.2212041808584084,5.6875
-38.0,2.2150682577068657,7.3125
-38.5,2.2212041808584084,8.125
-38.5,2.2764274892222915,0.8125
-38.5,2.2396119503130363,5.6875
-38.5,2.2948352586769194,-4.875
-38.5,2.2457478734645786,3.25
-38.0,2.282563412373834,0.0
-38.0,2.2948352586769194,-2.4375
-38.0,2.270291566070749,1.625
-38.5,2.2457478734645786,8.125
-38.5,2.2580197197676637,5.6875
-38.5,2.2580197197676637,3.25
-38.5,2.2396119503130363,6.5
-38.0,2.2212041808584084,5.6875
-38.5,2.3009711818284617,-3.25
-38.5,2.2518837966161214,3.25
-38.0,2.2518837966161214,0.8125
-38.0,2.2457478734645786,5.6875
-38.5,2.2518837966161214,4.875
-38.5,2.2089323345553233,6.5
-38.0,2.2764274892222915,-0.8125
-38.5,2.2948352586769194,-2.4375
-38.5,2.2518837966161214,4.875
-38.0,2.2641556429192065,0.0
-38.0,2.2396119503130363,3.25
