-30.0,0.0,3.25
-30.0,0.0,1.625
-30.0,0.0,1.625
-30.5,0.006135923151542322,0.8125
-30.0,0.0,0.0
-30.0,-0.012271846303085532,4.875
-30.0,0.012271846303085532,1.625
-30.0,0.0,0.0
-30.0,-0.006135923151542322,1.625
-30.0,-0.00613592315154321,3.25
-30.5,-0.012271846303084644,4.875
-30.0,0.030679615757712497,0.0
-30.5,0.0,0.0
-30.0,-0.018407769454627854,3.25
-30.0,0.00613592315154321,0.8125
-30.0,-0.012271846303085532,4.875
-30.5,0.0,1.625
-30.0,0.018407769454627854,0.8125
-30.0,-0.012271846303085532,3.25
-30.0,0.0,1.625
-30.0,0.0,3.25
-30.0,0.0,0.8125
-30.5,0.00613592315154321,-0.8125
-30.5,-0.024543692606170175,4.875
-30.0,0.012271846303084644,3.25
-30.0,0.012271846303085532,0.0
-30.0,-0.024543692606170175,3.25
-30.0,0.024543692606170175,1.625
-30.5,0.0,1.625
-30.5,-0.00613592315154321,1.625
-30.5,0.00613592315154321,1.625
-30.5,0.0,0.8125
-30.0,-0.012271846303085532,3.25
-30.5,0.006135923151542322,1.625
-30.5,-0.012271846303084644,3.25
-30.5,0.018407769454627854,0.8125
-30.5,0.0,3.25
-30.0,-0.00613592315154321,2.4375
-30.5,0.0,3.25
-30.0,0.012271846303085532,0.8125
-30.5,-0.006135923151542322,3.25
-30.0,0.006135923151542322,1.625
-30.5,-0.006135923151542322,1.625
-30.0,0.0,2.4375
-30.5,0.006135923151542322,0.8125
-30.5,-0.018407769454627854,4.875
-30.0,0.018407769454627854,0.8125
-30.0,-0.006135923151542322,0.8125
-30.5,0.0,0.8125
-30.0,0.006135923151542322,0.8125
-30.5,-0.012271846303085532,2.4375
-30.0,0.0,3.25
-30.0,-0.012271846303084644,4.875
-30.0,0.0,4.875
-30.0,0.006135923151542322,3.25
-30.5,0.0,4.875
-30.0,0.006135923151542322,3.25
-30.5,0.0,2.4375
-30.0,0.012271846303085532,0.8125
-30.5,-0.012271846303085532,2.4375
-30.0,0.00613592315154321,3.25
-30.5,0.0,2.4375
-30.5,0.012271846303084644,0.8125
-30.0,-0.012271846303084644,2.4375
-30.0,-0.00613592315154321,3.25
-30.0,0.012271846303085532,0.8125
-30.0,-0.006135923151542322,1.625
-30.5,0.024543692606170175,-0.8125
-30.5,-0.012271846303085532,1.625
-30.0,-0.024543692606170175,3.25
-30.0,0.012271846303085532,3.25
-30.5,-0.012271846303085532,3.25
-30.0,0.006135923151542322,3.25
-30.5,0.0,2.4375
-30.5,0.0,3.25
-30.5,0.00613592315154321,0.0
-30.5,-0.00613592315154321,2.4375
-30.0,-0.006135923151542322,5.6875
-30.5,0.018407769454627854,1.625
-30.5,-0.024543692606170175,2.4375
-30.5,0.012271846303084644,2.4375
-30.5,0.012271846303085532,2.4375
-30.5,0.0,1.625
-30.5,0.0,0.8125
-30.5,-0.006135923151542322,1.625
-30.5,-0.012271846303085532,3.25
-30.0,0.012271846303085532,1.625
-30.0,-0.00613592315154321,3.25
-30.5,0.00613592315154321,2.4375
-30.0,0.012271846303084644,0.0
-30.5,-0.024543692606170175,4.875
-30.5,0.012271846303085532,2.4375
-30.5,-0.00613592315154321,4.875
-30.5,0.0,3.25
-30.0,0.0,3.25
-30.5,0.00613592315154321,2.4375
-30.0,0.0,4.875
-30.5,-0.00613592315154321,4.875
-30.5,0.0,3.25
-30.5,0.018407769454627854,0.8125
-30.5,-0.018407769454627854,3.25
-30.5,-0.012271846303084644,2.4375
-30.5,0.018407769454627854,0.8125
-30.5,-0.00613592315154321,1.625
-30.5,0.00613592315154321,0.8125
-30.5,-0.012271846303085532,3.25
-30.5,0.006135923151542322,2.4375
-30.5,-0.012271846303084644,3.25
-30.5,0.0,2.4375
-30.5,0.006135923151542322,3.25
-30.5,-0.006135923151542322,3.25
-30.5,0.006135923151542322,0.8125
-30.5,0.006135923151542322,0.8125
-30.5,0.0,1.625
-30.5,-0.012271846303084644,1.625
-30.5,0.0,2.4375
-30.5,-0.006135923151542322,5.6875
-30.5,0.0,3.25
-30.5,0.012271846303084644,2.4375
-30.5,0.0,1.625
-30.5,0.0,3.25
-30.5,-0.006135923151542322,0.8125
-30.5,-0.012271846303085532,3.25
-30.5,0.012271846303085532,1.625
-30.5,-0.012271846303085532,1.625
-30.5,-0.006135923151542322,3.25
-30.5,0.006135923151542322,1.625
-30.5,0.0,1.625
-30.5,-0.012271846303084644,4.875
-30.5,-0.012271846303085532,4.875
-30.5,0.012271846303085532,0.8125
-31.0,-0.012271846303085532,1.625
-31.0,0.00613592315154321,1.625
-31.0,-0.012271846303085532,1.625
-31.0,-0.006135923151542322,1.625
-31.0,-0.00613592315154321,2.4375
-31.0,0.012271846303085532,-0.8125
-31.0,-0.006135923151542322,0.8125
-30.5,-0.018407769454627854,3.25
-31.0,0.0,1.625
-31.0,0.0,1.625
-31.0,0.0,1.625
-31.0,-0.006135923151542322,1.625
-31.0,-0.012271846303085532,3.25
-31.0,-0.006135923151542322,2.4375
-31.0,0.012271846303084644,2.4375
-31.0,-0.006135923151542322,1.625
-31.0,-0.006135923151542322,2.4375
-31.0,0.006135923151542322,0.0
-31.0,0.006135923151542322,0.8125
-31.5,0.0,0.0
-31.0,-0.030679615757712497,4.875
-31.0,0.018407769454627854,1.625
-31.5,0.0,-0.8125
-31.5,-0.018407769454627854,2.4375
-31.5,0.018407769454627854,0.8125
-31.0,0.006135923151542322,0.8125
-31.5,-0.024543692606170175,2.4375
-31.5,0.012271846303085532,1.625
-31.5,-0.00613592315154321,2.4375
-31.0,0.00613592315154321,1.625
-31.5,0.0,0.8125
-31.5,-0.012271846303085532,4.875
-31.0,0.024543692606170175,0.0
-31.5,-0.024543692606170175,4.875
-31.5,0.012271846303085532,1.625
-31.5,0.0,1.625
-31.5,-0.018407769454627854,4.875
-31.5,0.006135923151542322,3.25
-31.5,0.024543692606170175,1.625
-31.5,-0.012271846303084644,2.4375
-31.5,0.006135923151542322,0.0
-31.5,-0.012271846303085532,2.4375
-31.5,0.024543692606170175,0.0
-31.5,-0.012271846303084644,2.4375
-31.5,-0.012271846303085532,3.25
-31.5,0.00613592315154321,3.25
-31.5,0.006135923151542322,0.8125
-31.5,-0.012271846303085532,3.25
-31.5,0.0,3.25
-31.5,0.018407769454627854,0.8125
-31.5,-0.006135923151542322,0.8125
-31.5,0.0,0.8125
-31.5,-0.012271846303085532,2.4375
-31.5,0.00613592315154321,0.8125
-31.5,0.0,1.625
-31.5,-0.012271846303085532,3.25
-32.0,0.012271846303085532,0.0
-31.5,-0.00613592315154321,1.625
-31.5,0.018407769454627854,0.8125
-31.5,-0.012271846303084644,0.8125
-31.5,0.012271846303084644,0.8125
-31.5,-0.012271846303084644,2.4375
-31.5,0.0,1.625
-31.5,0.012271846303084644,-0.8125
-31.5,-0.006135923151542322,0.0
-31.5,-0.024543692606170175,5.6875
-31.5,0.030679615757712497,0.0
-31.5,-0.03681553890925571,6.5
-31.5,0.024543692606171064,2.4375
-31.5,-0.00613592315154321,3.25
-31.5,0.00613592315154321,3.25
-31.5,0.006135923151542322,1.625
-31.5,0.018407769454627854,-0.8125
-31.5,-0.018407769454627854,1.625
-32.0,0.006135923151542322,0.8125
-31.5,-0.018407769454627854,2.4375
-31.5,0.00613592315154321,3.25
-31.5,-0.00613592315154321,4.875
-31.5,0.024543692606170175,1.625
-31.5,-0.012271846303084644,2.4375
-31.5,0.012271846303084644,1.625
-31.5,-0.006135923151542322,4.875
-31.5,0.006135923151542322,1.625
-31.5,-0.006135923151542322,2.4375
-31.5,0.0,4.875
-31.5,-0.006135923151542322,4.875
-31.5,0.018407769454627854,1.625
-31.5,0.018407769454626965,0.0
-32.0,-0.006135923151542322,0.0
-31.5,0.0,1.625
-31.5,-0.006135923151542322,2.4375
-31.5,0.006135923151542322,2.4375
-31.5,0.006135923151542322,1.625
-31.5,0.0,0.8125
-31.5,0.018407769454627854,0.0
-32.0,-0.018407769454627854,2.4375
-31.5,0.012271846303085532,1.625
-31.5,0.0,0.0
-31.5,0.006135923151542322,0.8125
-31.5,0.0,0.8125
-32.0,-0.012271846303084644,2.4375
-31.5,0.006135923151542322,1.625
-31.5,0.018407769454627854,-0.8125
-31.5,-0.006135923151542322,1.625
-31.5,-0.00613592315154321,1.625
-31.5,0.018407769454627854,0.8125
-31.5,-0.012271846303084644,2.4375
-31.5,0.006135923151542322,1.625
-31.5,-0.006135923151542322,2.4375
-31.5,0.018407769454626965,0.8125
-31.5,-0.006135923151542322,2.4375
-31.5,-0.006135923151542322,1.625
-31.5,0.0,2.4375
-31.5,0.012271846303084644,2.4375
-31.5,0.012271846303085532,0.8125
-31.5,-0.012271846303085532,2.4375
-31.5,0.012271846303085532,1.625
-31.0,0.006135923151542322,1.625
-31.0,0.018407769454627854,0.0
-31.5,0.0,0.8125
-31.5,-0.012271846303085532,1.625
-31.0,0.0,3.25
-31.5,0.0,3.25
-31.0,0.0,4.875
-31.0,0.018407769454627854,2.4375
-31.0,0.012271846303085532,1.625
-31.0,-0.012271846303085532,4.875
-31.0,0.018407769454627854,0.0
-31.0,0.012271846303085532,0.8125
-31.5,0.006135923151542322,0.8125
-31.0,-0.024543692606170175,4.875
-31.0,0.018407769454627854,1.625
-31.0,0.006135923151542322,2.4375
-31.0,0.006135923151542322,2.4375
-31.0,0.006135923151542322,1.625
-31.0,0.00613592315154321,2.4375
-31.0,0.006135923151542322,3.25
-31.5,0.0,2.4375
-31.0,0.0,4.875
-31.0,0.018407769454627854,2.4375
-31.0,0.012271846303084644,0.8125
-31.0,-0.012271846303084644,3.25
-31.5,0.018407769454627854,1.625
-31.0,0.006135923151542322,1.625
-31.5,0.012271846303084644,0.8125
-31.0,0.00613592315154321,1.625
-31.0,0.006135923151542322,2.4375
-31.5,0.018407769454627854,0.0
-31.0,-0.006135923151542322,1.625
-31.0,0.006135923151542322,2.4375
-31.0,0.0,2.4375
-31.0,0.006135923151542322,4.875
-31.0,0.024543692606170175,0.8125
-31.0,0.00613592315154321,1.625
-31.0,0.0,3.25
-31.0,0.018407769454626965,0.8125
-31.0,0.012271846303085532,0.8125
-31.0,-0.012271846303085532,3.25
-31.0,0.00613592315154321,4.875
-31.5,0.018407769454626965,1.625
-31.0,0.00613592315154321,2.4375
-31.0,-0.00613592315154321,3.25
-31.0,0.018407769454627854,0.8125
-31.0,-0.006135923151542322,1.625
-31.0,0.006135923151542322,2.4375
-31.0,0.024543692606170175,0.0
-31.0,-0.006135923151542322,1.625
-31.0,0.0,2.4375
-31.5,0.006135923151542322,3.25
-31.0,0.00613592315154321,3.25
-31.5,0.0,3.25
-31.0,0.018407769454626965,0.8125
-31.0,-0.006135923151542322,3.25
-31.0,0.012271846303085532,2.4375
-31.0,0.0,2.4375
-31.0,0.012271846303084644,0.0
-31.5,0.0,2.4375
-31.5,-0.012271846303084644,7.3125
-31.5,0.018407769454627854,2.4375
-31.5,0.006135923151542322,1.625
-31.5,0.018407769454627854,1.625
-31.5,0.018407769454626965,0.0
-31.0,-0.006135923151542322,0.8125
-31.5,0.030679615757713385,-1.625
-31.5,-0.012271846303085532,1.625
-31.5,0.012271846303085532,0.8125
-31.5,0.012271846303084644,-0.8125
-31.5,0.006135923151542322,0.8125
-31.5,0.012271846303085532,-0.8125
-31.5,0.006135923151542322,0.8125
-31.5,0.0,0.8125
-31.5,0.006135923151542322,1.625
-31.5,0.03681553890925571,-3.25
-31.5,-0.006135923151542322,-0.8125
-31.5,0.0,0.8125
-31.5,0.0,2.4375
-31.5,0.024543692606170175,0.8125
-31.5,0.006135923151542322,0.0
-31.5,0.012271846303085532,0.0
-32.0,-0.00613592315154321,0.8125
-31.5,0.00613592315154321,2.4375
-31.5,-6.270913460876502,0.0
-32.0,0.006135923151542565,0.8125
-31.5,0.006135923151542565,2.4375
-31.5,0.018407769454627694,0.8125
-31.5,-0.006135923151542565,1.625
-31.5,0.01227184630308513,2.4375
-31.5,0.018407769454627694,0.8125
-31.5,-0.006135923151542565,1.625
-31.5,0.006135923151542565,1.625
-31.5,0.02454369260617026,0.0
-31.5,-0.01227184630308513,1.625
-31.5,0.02454369260617026,0.8125
-31.5,0.01227184630308513,-0.8125
-31.5,0.006135923151542558,-0.8125
-31.5,-0.012271846303085115,2.4375
-31.5,0.006135923151542558,1.625
-31.5,0.01227184630308513,1.625
-31.5,0.018407769454627687,-0.8125
-31.5,0.006135923151542572,0.0
-31.5,-0.012271846303085143,1.625
-31.5,0.018407769454627715,1.625
-31.5,-0.006135923151542572,3.25
-31.5,0.012271846303085143,0.8125
-31.5,0.018407769454627687,1.625
-31.5,0.0,1.625
-31.5,0.012271846303085115,0.8125
-31.5,0.018407769454627715,2.4375
-31.5,-0.006135923151542572,3.25
-31.5,0.02454369260617026,0.8125
-31.5,-0.012271846303085143,2.4375
-31.5,0.018407769454627687,3.25
-32.0,0.012271846303085143,3.25
-31.5,0.012271846303085143,2.4375
-31.5,0.006135923151542544,3.25
-31.5,0.024543692606170286,0.8125
-31.5,0.006135923151542544,2.4375
-31.5,-0.006135923151542544,3.25
-31.5,0.036815538909255374,-1.625
-31.5,0.006135923151542544,0.0
-31.5,-0.006135923151542544,2.4375
-31.5,0.018407769454627687,1.625
-31.5,0.0,1.625
-31.5,0.018407769454627687,2.4375
-31.5,0.0,4.875
-31.5,0.0,3.25
-31.5,0.03067961575771283,0.8125
-31.5,0.012271846303085143,-0.8125
-31.5,0.006135923151542544,2.4375
-31.5,-0.018407769454627687,4.875
-31.5,0.036815538909255374,0.8125
-31.5,0.0,2.4375
-31.5,0.0,4.875
-32.0,0.03067961575771283,0.0
-31.5,0.012271846303085143,0.8125
-31.5,0.006135923151542544,0.0
-31.5,0.012271846303085143,0.0
-31.5,-0.006135923151542544,1.625
-32.0,-0.006135923151542599,4.875
-31.5,0.02454369260617023,0.8125
-31.5,-0.012271846303085088,2.4375
-32.0,0.012271846303085088,1.625
-32.0,0.0,4.875
-31.5,0.024543692606170286,1.625
-31.5,0.006135923151542544,0.8125
-32.0,0.006135923151542544,1.625
-32.0,0.0,1.625
-31.5,-0.006135923151542544,2.4375
-31.5,0.0,4.875
-32.0,0.018407769454627743,1.625
-32.0,-0.012271846303085199,4.875
-32.0,0.03067961575771283,0.8125
-31.5,-0.012271846303085088,4.875
-32.0,0.024543692606170286,2.4375
-32.0,-0.018407769454627743,6.5
-32.0,0.012271846303085199,4.875
-32.0,0.012271846303085088,3.25
-32.0,0.012271846303085088,2.4375
-32.0,-0.006135923151542544,4.875
-32.0,0.024543692606170286,3.25
-32.0,0.006135923151542544,3.25
-32.5,-0.006135923151542544,4.875
-32.5,0.018407769454627743,2.4375
-32.0,0.012271846303085088,4.875
-32.0,0.04295146206079792,-0.8125
-32.5,-0.012271846303085088,2.4375
-32.5,0.01840776945462763,1.625
-32.5,0.012271846303085199,1.625
-32.5,0.024543692606170175,1.625
-32.5,-0.006135923151542544,2.4375
-32.5,0.024543692606170286,2.4375
-32.5,0.018407769454627743,2.4375
-32.0,0.006135923151542544,2.4375
-32.5,0.036815538909255374,-0.8125
-32.0,0.0,2.4375
-32.0,0.024543692606170286,0.8125
-32.0,0.012271846303085088,1.625
-32.0,0.018407769454627743,1.625
-32.0,0.03067961575771283,0.0
-32.0,0.01840776945462763,1.625
-31.5,0.018407769454627743,2.4375
-31.5,0.012271846303085088,3.25
-31.5,0.024543692606170286,1.625
-31.5,0.012271846303085088,1.625
-31.5,0.01840776945462763,1.625
-31.5,0.018407769454627854,0.8125
-31.5,-0.006135923151542544,4.875
-31.0,0.024543692606170175,1.625
-31.5,0.01840776945462763,0.8125
-31.5,0.012271846303085088,1.625
-31.5,-0.012271846303085088,4.875
-31.0,0.0,3.25
-31.0,0.012271846303085088,2.4375
-31.5,0.006135923151542544,2.4375
-31.5,0.01227184630308531,3.25
-31.5,0.024543692606170175,1.625
-31.0,-0.006135923151542544,4.875
-31.0,0.024543692606170175,1.625
-30.5,0.006135923151542544,2.4375
-30.5,0.024543692606170397,0.8125
-31.0,0.012271846303085088,0.8125
-30.5,0.0,2.4375
-30.5,0.024543692606170175,0.8125
-30.5,0.0,8.125
-31.0,0.024543692606170397,7.3125
-31.0,0.006135923151542544,1.625
-31.0,0.01840776945462763,1.625
-30.5,0.006135923151542544,1.625
-30.5,0.012271846303085088,0.8125
-31.0,0.006135923151542766,1.625
-30.5,0.01840776945462763,1.625
-31.0,-0.006135923151542544,2.4375
-30.5,0.0,2.4375
-30.5,0.024543692606170175,0.0
-30.5,0.0,4.875
-30.0,0.006135923151542544,0.8125
-30.5,-0.01840776945462763,3.25
-30.0,0.03067961575771272,0.0
-30.0,-0.006135923151542544,0.8125
-30.0,0.0,0.0
-30.0,-0.01840776945462763,3.25
-30.0,0.006135923151542544,3.25
-30.0,0.0,3.25
-30.0,0.006135923151542544,2.4375
-30.0,0.012271846303085088,0.8125
-30.0,-0.006135923151542544,0.8125
-29.5,0.0,2.4375
-29.5,-0.006135923151542544,3.25
-29.5,0.0,2.4375
-29.5,-0.006135923151542544,3.25
-29.0,0.006135923151542544,2.4375
-29.5,-0.006135923151542544,3.25
-29.0,-0.006135923151542544,4.875
-29.0,0.0,3.25
-29.0,0.0,3.25
-29.0,-0.006135923151542544,3.25
-29.0,0.01840776945462763,0.8125
-28.5,-0.01840776945462763,4.875
-28.5,-0.006135923151542544,4.875
-28.5,-0.012271846303085088,5.6875
-28.5,0.03067961575771272,0.0
-28.5,-0.024543692606170175,2.4375
-28.0,-0.006135923151542544,4.875
-28.0,0.0,3.25
-28.5,-0.01227184630308531,3.25
-28.0,0.006135923151542766,2.4375
-28.0,-0.01227184630308531,4.875
-28.0,-0.006135923151542544,3.25
-28.0,-0.012271846303085088,4.875
-27.5,-0.006135923151542544,4.875
-28.0,-0.006135923151542544,3.25
-27.5,-0.006135923151542544,3.25
-27.5,-0.006135923151542544,4.875
-27.5,-0.01227184630308531,5.6875
-27.5,0.006135923151542766,3.25
-27.5,0.0,2.4375
-27.5,-0.01227184630308531,4.875
-27.5,0.0,4.875
-27.5,-0.006135923151542544,4.875
-27.0,0.0,4.875
-27.0,0.006135923151542544,1.625
-27.5,-0.012271846303085088,3.25
-27.0,-0.012271846303085088,5.6875
-27.0,0.006135923151542544,5.6875
-27.0,-0.01840776945462763,6.5
-27.0,0.01840776945462763,3.25
-27.0,-0.006135923151542544,4.875
-27.0,-0.006135923151542544,5.6875
-27.0,0.0,4.875
-27.0,0.012271846303085088,1.625
-27.0,-0.012271846303085088,4.875
-27.0,-0.006135923151542544,3.25
-26.5,0.0,4.875
-26.5,0.0,2.4375
-26.5,-0.006135923151542544,2.4375
-26.5,-0.012271846303085088,4.875
-26.5,0.006135923151542544,3.25
-26.5,-0.006135923151542544,1.625
-26.5,0.0,1.625
-26.5,-0.01227184630308531,2.4375
-26.0,-0.01840776945462763,5.6875
-26.0,-0.006135923151542544,5.6875
-26.0,0.012271846303085088,0.0
-26.0,-0.012271846303085088,2.4375
-26.0,-0.012271846303085088,2.4375
-25.5,-0.012271846303085088,3.25
-25.5,-0.01227184630308531,2.4375
-25.5,-0.01840776945462763,3.25
-25.5,-0.012271846303085088,4.875
-26.0,-0.006135923151542544,1.625
-25.5,-0.01840776945462763,4.875
-25.5,-0.018407769454627854,4.875
-25.5,0.0,2.4375
-25.0,-0.024543692606170175,3.25
-25.5,-0.2024854640009046,1.625
-25.5,-0.018407769454627743,2.4375
-25.0,0.0,2.4375
-25.0,-0.006135923151542544,2.4375
-25.0,-0.006135923151542544,1.625
-25.0,0.0,0.8125
-25.5,-0.018407769454627743,3.25
-25.0,0.006135923151542544,0.8125
-25.0,-0.006135923151542544,2.4375
-25.0,-0.006135923151542544,1.625
-25.0,-0.006135923151542544,1.625
-25.0,-0.012271846303085199,1.625
-25.0,-0.012271846303085088,1.625
-25.0,-0.012271846303085088,2.4375
-25.0,-0.036815538909255374,7.3125
-24.5,-0.006135923151542655,7.3125
-24.5,0.0,3.25
-25.0,0.0,3.25
-24.5,-0.01840776945462763,5.6875
-24.5,-0.006135923151542544,0.8125
-24.5,-0.012271846303085199,4.875
-24.5,-0.012271846303085088,3.25
-24.5,-0.012271846303085199,4.875
-24.5,-0.01840776945462763,5.6875
-24.5,-0.006135923151542544,5.6875
-25.0,-0.024543692606170286,6.5
-24.5,0.0,4.875
-25.0,-0.006135923151542544,2.4375
-24.5,-0.018407769454627743,4.875
-24.5,-0.006135923151542544,4.875
-24.5,-0.024543692606170286,3.25
-24.5,-0.006135923151542544,3.25
-24.5,-0.012271846303085143,2.4375
-24.5,-0.018407769454627687,3.25
-24.5,-0.018407769454627687,4.875
-24.5,-0.006135923151542544,3.25
-24.5,-0.018407769454627687,3.25
-24.5,-0.018407769454627743,4.875
-25.0,0.0,3.25
-24.5,-0.018407769454627687,3.25
-25.0,-0.012271846303085088,3.25
-24.5,0.0,1.625
-25.0,-0.024543692606170286,4.875
-25.0,-0.012271846303085143,4.875
-25.0,-0.006135923151542544,3.25
-25.0,0.006135923151542544,0.0
-24.5,-0.03067961575771283,3.25
-25.0,-0.006135923151542544,0.8125
-25.0,-0.02454369260617026,3.25
-25.0,-0.006135923151542572,1.625
-25.0,-0.02454369260617023,3.25
-25.0,-0.012271846303085143,3.25
-25.0,0.0,0.0
-25.0,-0.012271846303085143,1.625
-25.0,-0.012271846303085115,2.4375
-25.5,-0.012271846303085115,1.625
-25.5,0.0,0.8125
-25.0,-0.024543692606170286,1.625
-25.5,-0.006135923151542544,2.4375
-25.5,-0.006135923151542572,0.0
-25.5,-0.018407769454627687,2.4375
-25.5,-0.012271846303085143,2.4375
-25.5,-0.006135923151542558,1.625
-25.5,-0.01227184630308513,1.625
-25.5,-0.018407769454627694,2.4375
-25.5,-0.01227184630308513,2.4375
-26.0,0.0,1.625
-26.0,-0.018407769454627694,2.4375
-26.0,-0.006135923151542565,0.8125
-26.0,6.258641614573416,2.4375
-26.5,-0.018407769454627854,3.25
-26.5,0.006135923151542322,0.8125
-26.0,-0.012271846303084644,0.8125
-26.0,-0.024543692606170175,0.8125
-26.5,0.0,-0.8125
-26.0,-0.030679615757713385,0.0
-26.0,-0.018407769454627854,0.0
-26.0,-0.012271846303084644,0.0
-26.0,-0.030679615757713385,2.4375
-26.5,-0.006135923151542322,1.625
-26.0,-0.018407769454627854,2.4375
-26.0,-0.024543692606170175,4.875
-26.0,0.00613592315154321,0.8125
-26.0,-0.018407769454627854,2.4375
-26.0,-0.018407769454627854,1.625
-26.5,-0.006135923151542322,2.4375
-26.0,-0.00613592315154321,0.8125
-26.0,-0.024543692606170175,0.8125
-26.0,-0.006135923151542322,2.4375
-26.0,-0.012271846303085532,2.4375
-26.5,-0.012271846303084644,2.4375
-26.5,-0.006135923151542322,2.4375
-26.0,-0.012271846303085532,3.25
-26.0,0.012271846303085532,0.8125
-26.0,-0.030679615757713385,3.25
-26.5,0.00613592315154321,0.8125
-26.0,-0.00613592315154321,2.4375
-26.0,0.0,0.8125
-26.5,-0.024543692606170175,3.25
-26.5,0.006135923151542322,1.625
-26.0,-0.012271846303084644,2.4375
-26.5,-0.006135923151542322,3.25
-26.0,0.0,2.4375
-26.5,-0.00613592315154321,0.0
-26.5,-0.006135923151542322,0.0
-26.5,-0.012271846303085532,4.875
-26.5,0.00613592315154321,0.8125
-26.5,-0.012271846303085532,1.625
-26.5,-0.018407769454627854,1.625
-26.5,0.0,2.4375
-26.5,-0.006135923151542322,2.4375
-26.5,-0.012271846303084644,2.4375
-26.5,0.012271846303084644,0.0
-26.5,-0.018407769454627854,2.4375
-26.5,-0.012271846303084644,3.25
-26.5,-0.012271846303085532,2.4375
-26.5,-0.006135923151542322,3.25
-26.5,-0.012271846303085532,3.25
-26.5,0.0,2.4375
-27.0,-0.018407769454626965,2.4375
-26.5,0.0,0.8125
-26.5,-0.018407769454627854,3.25
-27.0,-0.00613592315154321,2.4375
-27.0,-0.006135923151542322,2.4375
-26.5,-0.006135923151542322,2.4375
-27.0,-0.018407769454627854,3.25
-27.0,-0.006135923151542322,3.25
-27.0,0.006135923151542322,2.4375
-27.0,-0.006135923151542322,0.8125
-27.0,-0.012271846303085532,1.625
-27.5,-0.018407769454627854,3.25
-27.0,0.0,2.4375
-27.0,-0.006135923151542322,1.625
-27.5,-0.012271846303084644,2.4375
-27.0,-0.00613592315154321,2.4375
-27.0,0.0,0.0
-27.0,-0.006135923151542322,2.4375
-27.0,-0.018407769454627854,4.875
-27.5,0.0,1.625
-27.5,0.00613592315154321,1.625
-27.5,-0.012271846303085532,1.625
-27.5,-0.006135923151542322,3.25
-27.5,0.0,2.4375
-27.5,0.0,3.25
-27.0,-0.00613592315154321,2.4375
-27.5,0.00613592315154321,0.8125
-27.5,-0.012271846303085532,3.25
-27.5,0.006135923151542322,2.4375
-27.5,-0.006135923151542322,2.4375
-27.5,0.0,1.625
-27.5,0.0,2.4375
-27.5,0.0,1.625
-27.5,0.006135923151542322,-0.8125
-27.5,-0.006135923151542322,1.625
-27.5,-0.006135923151542322,1.625
-27.5,-0.006135923151542322,1.625
-27.5,0.0,2.4375
-27.5,-0.00613592315154321,0.8125
-27.5,0.0,1.625
-27.5,-0.012271846303084644,2.4375
-27.5,0.006135923151542322,1.625
-27.5,0.0,1.625
-27.5,0.006135923151542322,0.0
-27.5,-0.018407769454626965,3.25
-28.0,0.012271846303084644,1.625
-27.5,-0.018407769454627854,3.25
-27.5,0.012271846303085532,2.4375
-28.0,0.0,2.4375
-27.5,-0.006135923151542322,4.875
-27.5,0.006135923151542322,2.4375
-27.5,-0.012271846303085532,3.25
-27.5,0.00613592315154321,1.625
-27.5,0.0,1.625
-27.5,0.0,2.4375
-27.5,0.0,1.625
-27.5,0.0,2.4375
-28.0,0.006135923151542322,0.8125
-28.0,0.0,2.4375
-27.5,-0.012271846303085532,1.625
-27.5,0.0,3.25
-27.5,0.012271846303085532,0.8125
-27.5,-0.012271846303085532,3.25
-27.5,0.00613592315154321,1.625
-28.0,0.0,0.8125
-27.5,0.018407769454626965,0.0
-27.5,-0.018407769454626965,1.625
-27.5,-0.00613592315154321,3.25
-27.5,0.00613592315154321,2.4375
-27.5,-0.00613592315154321,2.4375
-27.5,0.018407769454627854,0.8125
-28.0,-0.024543692606170175,2.4375
-27.5,0.006135923151542322,2.4375
-28.0,0.012271846303085532,1.625
-27.5,-0.006135923151542322,1.625
-28.0,-0.00613592315154321,1.625
-28.0,0.012271846303085532,1.625
-27.5,-0.006135923151542322,0.0
-27.5,-0.012271846303085532,3.25
-27.5,0.012271846303085532,1.625
-27.5,0.006135923151542322,0.8125
-27.5,-0.018407769454627854,3.25
-27.5,0.006135923151542322,1.625
-27.5,-0.006135923151542322,4.875
-27.5,0.018407769454627854,0.0
-27.5,-0.018407769454627854,3.25
-27.5,0.006135923151542322,2.4375
-27.5,0.012271846303085532,0.0
-28.0,-0.006135923151542322,0.0
-27.5,0.012271846303084644,0.0
-28.0,-0.024543692606170175,2.4375
-27.5,0.006135923151542322,0.8125
-27.5,-0.006135923151542322,1.625
-27.5,0.0,0.8125
-27.5,0.0,0.0
-27.5,0.0,0.8125
-28.0,0.0,1.625
-28.0,-0.018407769454627854,3.25
-27.5,0.006135923151542322,1.625
-27.5,0.0,3.25
-27.5,0.0,1.625
-28.0,-0.012271846303084644,3.25
-27.5,0.012271846303084644,0.8125
-27.5,0.00613592315154321,0.0
-27.5,-0.018407769454627854,4.875
-28.0,0.018407769454627854,0.0
-28.0,-0.012271846303085532,3.25
-27.5,0.006135923151542322,2.4375
-28.0,0.0,1.625
-28.0,0.0,0.8125
-28.0,-0.006135923151542322,2.4375
