30000000000000000000CC00,865.7,3.6815538,2.4375
30000000000000000000CC00,865.7,3.675418,4.0625
30000000000000000000CC00,865.7,3.675418,5.6875
30000000000000000000CC00,865.7,3.669282,5.6875
30000000000000000000CC00,865.7,3.663146,5.6875
30000000000000000000CC00,865.7,3.6324666,4.875
30000000000000000000CC00,865.7,3.6324666,5.6875
30000000000000000000CC00,865.7,3.6263306,6.5
30000000000000000000CC00,865.7,3.6201947,6.5
30000000000000000000CC00,865.7,3.6079228,6.5
30000000000000000000CC00,865.7,3.6263306,4.875
30000000000000000000CC00,865.7,3.6263306,2.4375
30000000000000000000CC00,865.7,3.6079228,7.3125
30000000000000000000CC00,865.7,3.6140587,6.5
30000000000000000000CC00,865.7,3.6140587,6.5
30000000000000000000CC00,865.7,3.6140587,6.5
30000000000000000000CC00,865.7,3.6140587,6.5
30000000000000000000CC00,865.7,3.6140587,4.875
30000000000000000000CC00,865.7,3.6079228,4.875
30000000000000000000CC00,865.7,3.6017869,5.6875
30000000000000000000CC00,865.7,3.6017869,6.5
30000000000000000000CC00,865.7,3.595651,6.5
30000000000000000000CC00,865.7,3.6017869,4.875
30000000000000000000CC00,865.7,3.595651,6.5
30000000000000000000CC00,865.7,3.6017869,4.875
30000000000000000000CC00,865.7,3.595651,5.6875
30000000000000000000CC00,865.7,3.577243,7.3125
30000000000000000000CC00,865.7,3.595651,2.4375
30000000000000000000CC00,865.7,3.595651,2.4375
30000000000000000000CC00,865.7,3.577243,4.875
30000000000000000000CC00,865.7,3.5649714,6.5
30000000000000000000CC00,865.7,3.5342917,8.125
30000000000000000000CC00,865.7,3.5220199,5.6875
30000000000000000000CC00,865.7,3.509748,4.0625
30000000000000000000CC00,865.7,3.4729326,6.5
30000000000000000000CC00,865.7,3.4667966,5.6875
30000000000000000000CC00,865.7,3.4545248,4.875
30000000000000000000CC00,865.7,3.429981,4.0625
30000000000000000000CC00,865.7,3.4054372,1.625
30000000000000000000CC00,865.7,3.2949908,4.0625
30000000000000000000CC00,865.7,2.6261752,1.625
30000000000000000000CC00,865.7,2.1168935,1.625
30000000000000000000CC00,865.7,1.914408,4.0625
30000000000000000000CC00,865.7,1.8898643,0.0
30000000000000000000CC00,865.7,1.8469129,6.5
30000000000000000000CC00,865.7,1.8407769,5.6875
30000000000000000000CC00,865.7,1.8530488,4.875
30000000000000000000CC00,865.7,1.8714565,4.0625
30000000000000000000CC00,865.7,1.8775924,2.4375
30000000000000000000CC00,865.7,1.8898643,4.875
30000000000000000000CC00,865.7,1.9266798,0.0
30000000000000000000CC00,865.7,1.9634954,0.0
30000000000000000000CC00,865.7,1.9450877,6.5
30000000000000000000CC00,865.7,2.0064468,0.8125
30000000000000000000CC00,865.7,2.0125828,4.0625
30000000000000000000CC00,865.7,2.0309906,4.875
30000000000000000000CC00,865.7,2.06167,0.8125
30000000000000000000CC00,865.7,2.073942,1.625
30000000000000000000CC00,865.7,2.0923498,2.4375
30000000000000000000CC00,865.7,2.1168935,4.875
30000000000000000000CC00,865.7,2.147573,2.4375
30000000000000000000CC00,865.7,2.1659808,4.0625
30000000000000000000CC00,865.7,2.2089324,0.8125
30000000000000000000CC00,865.7,2.2457478,1.625
30000000000000000000CC00,865.7,2.3009713,0.8125
30000000000000000000CC00,865.7,2.3623304,0.0
30000000000000000000CC00,865.7,2.3991458,1.625
30000000000000000000CC00,865.7,2.4605052,0.8125
30000000000000000000CC00,865.7,2.5341363,2.4375
30000000000000000000CC00,865.7,2.5893595,1.625
30000000000000000000CC00,865.7,2.6691265,4.875
30000000000000000000CC00,865.7,2.72435,4.875
30000000000000000000CC00,865.7,2.810253,2.4375
30000000000000000000CC00,865.7,2.883884,4.875
30000000000000000000CC00,865.7,2.9391072,4.875
30000000000000000000CC00,865.7,3.0556898,1.625
30000000000000000000CC00,865.7,3.0925052,4.0625
30000000000000000000CC00,865.7,3.184544,4.875
30000000000000000000CC00,865.7,3.2397673,4.875
30000000000000000000CC00,865.7,3.344078,6.5
30000000000000000000CC00,865.7,3.4115732,7.3125
30000000000000000000CC00,865.7,3.4913402,5.6875
30000000000000000000CC00,865.7,3.5649714,4.875
30000000000000000000CC00,865.7,3.6140587,6.5
30000000000000000000CC00,865.7,3.6815538,8.125
30000000000000000000CC00,865.7,3.7306414,4.0625
30000000000000000000CC00,865.7,3.8226802,1.625
30000000000000000000CC00,865.7,3.8840394,1.625
30000000000000000000CC00,865.7,3.9515345,4.0625
30000000000000000000CC00,865.7,3.9944859,2.4375
30000000000000000000CC00,865.7,4.0558453,5.6875
30000000000000000000CC00,865.7,4.1110687,1.625
30000000000000000000CC00,865.7,4.15402,4.0625
30000000000000000000CC00,865.7,4.1785636,4.875
30000000000000000000CC00,865.7,4.2092433,1.625
30000000000000000000CC00,865.7,4.221515,6.5
30000000000000000000CC00,865.7,4.246059,0.0
30000000000000000000CC00,865.7,4.258331,1.625
30000000000000000000CC00,865.7,4.246059,6.5
30000000000000000000CC00,865.7,4.264467,1.625
30000000000000000000CC00,865.7,4.2706027,1.625
30000000000000000000CC00,865.7,4.2706027,1.625
30000000000000000000CC00,865.7,4.2767386,2.4375
30000000000000000000CC00,865.7,4.2828746,-1.625
30000000000000000000CC00,865.7,4.2706027,1.625
30000000000000000000CC00,865.7,4.2828746,0.0
30000000000000000000CC00,865.7,4.2828746,0.0
30000000000000000000CC00,865.7,4.295146,-2.4375
30000000000000000000CC00,865.7,4.2706027,4.0625
30000000000000000000CC00,865.7,4.258331,4.875
30000000000000000000CC00,865.7,4.2828746,0.0
30000000000000000000CC00,865.7,4.264467,2.4375
30000000000000000000CC00,865.7,4.264467,1.625
30000000000000000000CC00,865.7,4.2828746,0.0
30000000000000000000CC00,865.7,4.258331,5.6875
30000000000000000000CC00,865.7,4.2706027,1.625
30000000000000000000CC00,865.7,4.2767386,0.0
30000000000000000000CC00,865.7,4.252195,5.6875
30000000000000000000CC00,865.7,4.258331,1.625
30000000000000000000CC00,865.7,4.246059,2.4375
30000000000000000000CC00,865.7,4.258331,-0.8125
30000000000000000000CC00,865.7,4.239923,0.8125
30000000000000000000CC00,865.7,4.227651,0.8125
30000000000000000000CC00,865.7,4.221515,2.4375
30000000000000000000CC00,865.7,4.2031074,2.4375
30000000000000000000CC00,865.7,4.1908355,0.8125
30000000000000000000CC00,865.7,4.1724277,0.0
30000000000000000000CC00,865.7,4.147884,1.625
30000000000000000000CC00,865.7,4.12334,2.4375
30000000000000000000CC00,865.7,4.092661,5.6875
30000000000000000000CC00,865.7,4.080389,0.8125
30000000000000000000CC00,865.7,4.0558453,1.625
30000000000000000000CC00,865.7,4.0128937,4.875
30000000000000000000CC00,865.7,3.9883502,1.625
30000000000000000000CC00,865.7,3.9638064,2.4375
30000000000000000000CC00,865.7,3.9269907,1.625
30000000000000000000CC00,865.7,3.8779035,4.875
30000000000000000000CC00,865.7,3.828816,4.0625
30000000000000000000CC00,865.7,3.7735927,8.9375
30000000000000000000CC00,865.7,3.742913,5.6875
30000000000000000000CC00,865.7,3.6815538,7.3125
30000000000000000000CC00,865.7,3.6386025,4.0625
30000000000000000000CC00,865.7,3.6079228,5.6875
30000000000000000000CC00,865.7,3.5281558,4.875
30000000000000000000CC00,865.7,3.4790685,4.875
30000000000000000000CC00,865.7,3.417709,4.875
30000000000000000000CC00,865.7,3.362486,2.4375
30000000000000000000CC00,865.7,3.2949908,2.4375
30000000000000000000CC00,865.7,3.2336316,4.0625
30000000000000000000CC00,865.7,3.19068,4.0625
30000000000000000000CC00,865.7,3.1415927,2.4375
30000000000000000000CC00,865.7,3.0986412,1.625
30000000000000000000CC00,865.7,3.0618258,0.0
30000000000000000000CC00,865.7,2.9759228,4.875
30000000000000000000CC00,865.7,2.9329712,5.6875
30000000000000000000CC00,865.7,2.8654761,5.6875
30000000000000000000CC00,865.7,2.7673013,12.1875
30000000000000000000CC00,865.7,2.7488935,0.8125
30000000000000000000CC00,865.7,2.6568546,6.5
30000000000000000000CC00,865.7,2.632311,4.0625
30000000000000000000CC00,865.7,2.6016314,0.0
30000000000000000000CC00,865.7,2.552544,0.8125
30000000000000000000CC00,865.7,2.5034566,1.625
30000000000000000000CC00,865.7,2.478913,-0.8125
30000000000000000000CC00,865.7,2.4420974,0.8125
30000000000000000000CC00,865.7,2.4359615,-4.875
30000000000000000000CC00,865.7,2.3807383,-0.8125
30000000000000000000CC00,865.7,2.3623304,-1.625
30000000000000000000CC00,865.7,2.3500586,-6.5
30000000000000000000CC00,865.7,2.3071072,-0.8125
30000000000000000000CC00,865.7,2.2886994,-1.625
30000000000000000000CC00,865.7,2.2641556,-2.4375
30000000000000000000CC00,865.7,2.2212043,1.625
30000000000000000000CC00,865.7,2.2212043,-4.0625
30000000000000000000CC00,865.7,2.1966605,-0.8125
30000000000000000000CC00,865.7,2.1843886,-0.8125
30000000000000000000CC00,865.7,2.1659808,0.8125
30000000000000000000CC00,865.7,2.1414373,0.0
30000000000000000000CC00,865.7,2.1168935,0.8125
30000000000000000000CC00,865.7,2.0984857,2.4375
