40000000000000000000CC00,1,1477451813764777,1477451813764777,1,4.875,13312,-41.5,865.7,2.8225245
40000000000000000000CC00,1,1477451813771699,1477451813771699,1,8.125,13312,-41.5,865.7,2.7857091
40000000000000000000CC00,1,1477451813778586,1477451813778586,1,-0.8125,13312,-41.5,865.7,2.8532043
40000000000000000000CC00,1,1477451813785262,1477451813785262,1,-3.25,13312,-41.5,865.7,2.8593402
40000000000000000000CC00,1,1477451813792214,1477451813792214,1,8.9375,13312,-42.0,865.7,2.7857091
40000000000000000000CC00,1,1477451813799175,1477451813799175,1,0.0,13312,-42.0,865.7,2.8163888
40000000000000000000CC00,1,1477451813806139,1477451813806139,1,9.75,13312,-41.5,865.7,2.7795732
40000000000000000000CC00,1,1477451813814873,1477451813814873,1,-8.9375,13312,-41.5,865.7,2.877748
40000000000000000000CC00,1,1477451813821903,1477451813821903,1,0.8125,13312,-41.5,865.7,2.8225245
40000000000000000000CC00,1,1477451813828814,1477451813828814,1,2.4375,13312,-42.0,865.7,2.804117
40000000000000000000CC00,1,1477451813835749,1477451813835749,1,14.625,13312,-41.5,865.7,2.7673013
40000000000000000000CC00,1,1477451813842763,1477451813842763,1,-5.6875,13312,-41.5,865.7,2.883884
40000000000000000000CC00,1,1477451813849682,1477451813849682,1,-6.5,13312,-41.5,865.7,2.8532043
40000000000000000000CC00,1,1477451813857931,1477451813857931,1,-8.125,13312,-41.5,865.7,2.883884
40000000000000000000CC00,1,1477451813865147,1477451813865147,1,0.8125,13312,-42.0,865.7,2.810253
40000000000000000000CC00,1,1477451813871859,1477451813871859,1,8.9375,13312,-42.0,865.7,2.7611654
40000000000000000000CC00,1,1477451813879033,1477451813879033,1,2.4375,13312,-42.0,865.7,2.8225245
40000000000000000000CC00,1,1477451813885722,1477451813885722,1,13.8125,13312,-41.5,865.7,2.7611654
40000000000000000000CC00,1,1477451813892999,1477451813892999,1,-12.1875,13312,-41.5,865.7,2.9329712
40000000000000000000CC00,1,1477451813900011,1477451813900011,1,-2.4375,13312,-41.5,865.7,2.8532043
40000000000000000000CC00,1,1477451813907037,1477451813907037,1,-8.125,13312,-41.5,865.7,2.8593402
40000000000000000000CC00,1,1477451813913733,1477451813913733,1,3.25,13312,-41.5,865.7,2.791845
40000000000000000000CC00,1,1477451813920938,1477451813920938,1,14.625,13312,-42.0,865.7,2.7366216
40000000000000000000CC00,1,1477451813927866,1477451813927866,1,-7.3125,13312,-42.0,865.7,2.8593402
40000000000000000000CC00,1,1477451813934636,1477451813934636,1,1.625,13312,-41.5,865.7,2.8286605
40000000000000000000CC00,1,1477451813941823,1477451813941823,1,0.8125,13312,-42.0,865.7,2.810253
40000000000000000000CC00,1,1477451813948708,1477451813948708,1,2.4375,13312,-42.0,865.7,2.791845
40000000000000000000CC00,1,1477451813955382,1477451813955382,1,-1.625,13312,-42.0,865.7,2.8286605
40000000000000000000CC00,1,1477451813962294,1477451813962294,1,7.3125,13312,-41.5,865.7,2.7734373
40000000000000000000CC00,1,1477451813969485,1477451813969485,1,6.5,13312,-42.0,865.7,2.7857091
40000000000000000000CC00,1,1477451813976241,1477451813976241,1,-6.5,13312,-42.0,865.7,2.8654761
40000000000000000000CC00,1,1477451813983446,1477451813983446,1,-0.8125,13312,-41.5,865.7,2.8470683
40000000000000000000CC00,1,1477451813990348,1477451813990348,1,-10.5625,13312,-41.5,865.7,2.871612
40000000000000000000CC00,1,1477451813996988,1477451813996988,1,0.0,13312,-42.0,865.7,2.797981
40000000000000000000CC00,1,1477451814003930,1477451814003930,1,5.6875,13312,-42.0,865.7,2.797981
40000000000000000000CC00,1,1477451814010854,1477451814010854,1,9.75,13312,-42.0,865.7,2.7673013
40000000000000000000CC00,1,1477451814018088,1477451814018088,1,-3.25,13312,-41.5,865.7,2.8409324
40000000000000000000CC00,1,1477451814024788,1477451814024788,1,3.25,13312,-42.0,865.7,2.7734373
40000000000000000000CC00,1,1477451814031730,1477451814031730,1,6.5,13312,-42.0,865.7,2.7734373
40000000000000000000CC00,1,1477451814039017,1477451814039017,1,8.9375,13312,-41.5,865.7,2.7673013
40000000000000000000CC00,1,1477451814045997,1477451814045997,1,2.4375,13312,-42.0,865.7,2.797981
40000000000000000000CC00,1,1477451814053062,1477451814053062,1,-2.4375,13312,-41.5,865.7,2.8532043
40000000000000000000CC00,1,1477451814059812,1477451814059812,1,10.5625,13312,-42.0,865.7,2.7427576
40000000000000000000CC00,1,1477451814066783,1477451814066783,1,-0.8125,13312,-42.0,865.7,2.8409324
40000000000000000000CC00,1,1477451814073960,1477451814073960,1,0.8125,13312,-42.0,865.7,2.8347964
40000000000000000000CC00,1,1477451814080644,1477451814080644,1,8.125,13312,-42.0,865.7,2.7673013
40000000000000000000CC00,1,1477451814087508,1477451814087508,1,5.6875,13312,-41.5,865.7,2.7795732
40000000000000000000CC00,1,1477451814094440,1477451814094440,1,6.5,13312,-42.0,865.7,2.797981
40000000000000000000CC00,1,1477451814101639,1477451814101639,1,2.4375,13312,-42.0,865.7,2.8409324
40000000000000000000CC00,1,1477451814110793,1477451814110793,1,-4.875,13312,-42.0,865.7,2.871612
40000000000000000000CC00,1,1477451814117731,1477451814117731,1,10.5625,13312,-42.0,865.7,2.7488935
40000000000000000000CC00,1,1477451814124486,1477451814124486,1,9.75,13312,-42.0,865.7,2.7366216
40000000000000000000CC00,1,1477451814131412,1477451814131412,1,-1.625,13312,-42.0,865.7,2.8654761
40000000000000000000CC00,1,1477451814138553,1477451814138553,1,1.625,13312,-42.0,865.7,2.8163888
40000000000000000000CC00,1,1477451814145536,1477451814145536,1,3.25,13312,-42.5,865.7,2.791845
40000000000000000000CC00,1,1477451814152219,1477451814152219,1,-0.8125,13312,-42.0,865.7,2.791845
40000000000000000000CC00,1,1477451814159454,1477451814159454,1,-4.875,13312,-42.0,865.7,2.8470683
40000000000000000000CC00,1,1477451814166437,1477451814166437,1,2.4375,13312,-42.0,865.7,2.7795732
40000000000000000000CC00,1,1477451814173095,1477451814173095,1,-4.875,13312,-41.5,865.7,2.8409324
40000000000000000000CC00,1,1477451814180037,1477451814180037,1,6.5,13312,-42.0,865.7,2.7857091
40000000000000000000CC00,1,1477451814187264,1477451814187264,1,5.6875,13312,-42.0,865.7,2.7734373
40000000000000000000CC00,1,1477451814194015,1477451814194015,1,-2.4375,13312,-42.0,865.7,2.8593402
40000000000000000000CC00,1,1477451814200923,1477451814200923,1,14.625,13312,-42.0,865.7,2.7366216
40000000000000000000CC00,1,1477451814208206,1477451814208206,1,15.4375,13312,-42.0,865.7,2.712078
40000000000000000000CC00,1,1477451814214902,1477451814214902,1,6.5,13312,-42.0,865.7,2.7673013
40000000000000000000CC00,1,1477451814221911,1477451814221911,1,4.875,13312,-42.0,865.7,2.7795732
40000000000000000000CC00,1,1477451814228878,1477451814228878,1,5.6875,13312,-42.0,865.7,2.7857091
40000000000000000000CC00,1,1477451814236104,1477451814236104,1,13.8125,13312,-42.0,865.7,2.72435
40000000000000000000CC00,1,1477451814242833,1477451814242833,1,-0.8125,13312,-42.0,865.7,2.8286605
40000000000000000000CC00,1,1477451814249704,1477451814249704,1,-0.8125,13312,-42.0,865.7,2.804117
40000000000000000000CC00,1,1477451814256917,1477451814256917,1,-3.25,13312,-42.0,865.7,2.8470683
40000000000000000000CC00,1,1477451814263875,1477451814263875,1,-4.875,13312,-42.0,865.7,2.8163888
40000000000000000000CC00,1,1477451814270822,1477451814270822,1,17.875,13312,-42.0,865.7,2.6998062
40000000000000000000CC00,1,1477451814277509,1477451814277509,1,5.6875,13312,-42.0,865.7,2.791845
40000000000000000000CC00,1,1477451814284775,1477451814284775,1,-1.625,13312,-42.5,865.7,2.810253
40000000000000000000CC00,1,1477451814291524,1477451814291524,1,-4.875,13312,-42.0,865.7,2.8654761
40000000000000000000CC00,1,1477451814298503,1477451814298503,1,-8.9375,13312,-42.0,865.7,2.8654761
40000000000000000000CC00,1,1477451814305702,1477451814305702,1,10.5625,13312,-42.0,865.7,2.7611654
40000000000000000000CC00,1,1477451814312656,1477451814312656,1,5.6875,13312,-42.0,865.7,2.7857091
40000000000000000000CC00,1,1477451814319422,1477451814319422,1,3.25,13312,-42.0,865.7,2.810253
40000000000000000000CC00,1,1477451814326587,1477451814326587,1,1.625,13312,-42.0,865.7,2.8286605
40000000000000000000CC00,1,1477451814333348,1477451814333348,1,-2.4375,13312,-42.5,865.7,2.8225245
40000000000000000000CC00,1,1477451814340263,1477451814340263,1,5.6875,13312,-42.5,865.7,2.804117
40000000000000000000CC00,1,1477451814347546,1477451814347546,1,-5.6875,13312,-42.0,865.7,2.8532043
40000000000000000000CC00,1,1477451814354513,1477451814354513,1,0.0,13312,-42.0,865.7,2.804117
40000000000000000000CC00,1,1477451814361409,1477451814361409,1,-8.9375,13312,-41.5,865.7,2.883884
40000000000000000000CC00,1,1477451814368378,1477451814368378,1,-1.625,13312,-42.0,865.7,2.797981
40000000000000000000CC00,1,1477451814375062,1477451814375062,1,-4.875,13312,-42.5,865.7,2.8532043
40000000000000000000CC00,1,1477451814382282,1477451814382282,1,3.25,13312,-42.0,865.7,2.7795732
40000000000000000000CC00,1,1477451814389261,1477451814389261,1,11.375,13312,-42.0,865.7,2.7550294
40000000000000000000CC00,1,1477451814396273,1477451814396273,1,6.5,13312,-42.0,865.7,2.791845
40000000000000000000CC00,1,1477451814403210,1477451814403210,1,-2.4375,13312,-42.0,865.7,2.8347964
40000000000000000000CC00,1,1477451814411845,1477451814411845,1,0.0,13312,-42.0,865.7,2.804117
40000000000000000000CC00,1,1477451814418579,1477451814418579,1,7.3125,13312,-42.0,865.7,2.7550294
40000000000000000000CC00,1,1477451814425600,1477451814425600,1,1.625,13312,-42.0,865.7,2.7795732
40000000000000000000CC00,1,1477451814432931,1477451814432931,1,-3.25,13312,-42.5,865.7,2.7857091
40000000000000000000CC00,1,1477451814439890,1477451814439890,1,10.5625,13312,-42.5,865.7,2.6813984
40000000000000000000CC00,1,1477451814446879,1477451814446879,1,-1.625,13312,-42.5,865.7,2.810253
40000000000000000000CC00,1,1477451814453587,1477451814453587,1,-7.3125,13312,-42.5,865.7,2.8163888
40000000000000000000CC00,1,1477451814460737,1477451814460737,1,7.3125,13312,-42.5,865.7,2.7059422
40000000000000000000CC00,1,1477451814467462,1477451814467462,1,-7.3125,13312,-42.5,865.7,2.804117
40000000000000000000CC00,1,1477451814474645,1477451814474645,1,-6.5,13312,-42.5,865.7,2.7795732
40000000000000000000CC00,1,1477451814481594,1477451814481594,1,9.75,13312,-42.5,865.7,2.6875343
40000000000000000000CC00,1,1477451814488564,1477451814488564,1,15.4375,13312,-42.5,865.7,2.6629906
40000000000000000000CC00,1,1477451814495500,1477451814495500,1,0.8125,13312,-43.0,865.7,2.712078
40000000000000000000CC00,1,1477451814502244,1477451814502244,1,5.6875,13312,-42.5,865.7,2.6875343
40000000000000000000CC00,1,1477451814509453,1477451814509453,1,-3.25,13312,-42.5,865.7,2.730486
40000000000000000000CC00,1,1477451814516188,1477451814516188,1,4.875,13312,-42.5,865.7,2.7059422
40000000000000000000CC00,1,1477451814523147,1477451814523147,1,12.1875,13312,-42.5,865.7,2.644583
40000000000000000000CC00,1,1477451814530194,1477451814530194,1,-4.875,13312,-42.5,865.7,2.7488935
40000000000000000000CC00,1,1477451814537321,1477451814537321,1,-3.25,13312,-42.5,865.7,2.718214
40000000000000000000CC00,1,1477451814544218,1477451814544218,1,4.875,13312,-42.5,865.7,2.6875343
40000000000000000000CC00,1,1477451814551194,1477451814551194,1,-8.125,13312,-42.5,865.7,2.7795732
40000000000000000000CC00,1,1477451814558195,1477451814558195,1,-4.875,13312,-42.0,865.7,2.7488935
40000000000000000000CC00,1,1477451814565117,1477451814565117,1,2.4375,13312,-42.0,865.7,2.730486
40000000000000000000CC00,1,1477451814572076,1477451814572076,1,4.875,13312,-42.5,865.7,2.6998062
40000000000000000000CC00,1,1477451814579024,1477451814579024,1,-9.75,13312,-42.5,865.7,2.804117
40000000000000000000CC00,1,1477451814585695,1477451814585695,1,7.3125,13312,-42.5,865.7,2.6998062
40000000000000000000CC00,1,1477451814592800,1477451814592800,1,3.25,13312,-42.5,865.7,2.712078
40000000000000000000CC00,1,1477451814599729,1477451814599729,1,4.875,13312,-42.5,865.7,2.7059422
40000000000000000000CC00,1,1477451814606653,1477451814606653,1,4.875,13312,-42.5,865.7,2.718214
40000000000000000000CC00,1,1477451814613830,1477451814613830,1,9.75,13312,-42.5,865.7,2.6752625
40000000000000000000CC00,1,1477451814620801,1477451814620801,1,-6.5,13312,-42.0,865.7,2.797981
40000000000000000000CC00,1,1477451814627474,1477451814627474,1,4.875,13312,-42.5,865.7,2.7059422
40000000000000000000CC00,1,1477451814634673,1477451814634673,1,4.875,13312,-42.0,865.7,2.72435
40000000000000000000CC00,1,1477451814641612,1477451814641612,1,-2.4375,13312,-42.5,865.7,2.7366216
40000000000000000000CC00,1,1477451814650041,1477451814650041,1,10.5625,13312,-43.0,865.7,2.6813984
40000000000000000000CC00,1,1477451814656696,1477451814656696,1,1.625,13312,-43.0,865.7,2.730486
40000000000000000000CC00,1,1477451814663685,1477451814663685,1,-15.4375,13312,-42.5,865.7,2.8409324
40000000000000000000CC00,1,1477451814670954,1477451814670954,1,-3.25,13312,-42.0,865.7,2.804117
40000000000000000000CC00,1,1477451814677918,1477451814677918,1,-3.25,13312,-42.5,865.7,2.810253
40000000000000000000CC00,1,1477451814684859,1477451814684859,1,0.8125,13312,-42.5,865.7,2.7673013
40000000000000000000CC00,1,1477451814691544,1477451814691544,1,15.4375,13312,-42.5,865.7,2.6936703
40000000000000000000CC00,1,1477451814698435,1477451814698435,1,-5.6875,13312,-42.0,865.7,2.8225245
40000000000000000000CC00,1,1477451814705387,1477451814705387,1,1.625,13312,-42.5,865.7,2.791845
40000000000000000000CC00,1,1477451814712314,1477451814712314,1,5.6875,13312,-42.5,865.7,2.730486
40000000000000000000CC00,1,1477451814719290,1477451814719290,1,-1.625,13312,-42.5,865.7,2.7611654
40000000000000000000CC00,1,1477451814726233,1477451814726233,1,0.0,13312,-42.5,865.7,2.7488935
40000000000000000000CC00,1,1477451814733506,1477451814733506,1,-17.0625,13312,-42.5,865.7,2.8654761
40000000000000000000CC00,1,1477451814740246,1477451814740246,1,-5.6875,13312,-42.0,865.7,2.8163888
40000000000000000000CC00,1,1477451814747431,1477451814747431,1,6.5,13312,-42.5,865.7,2.7366216
40000000000000000000CC00,1,1477451814754391,1477451814754391,1,0.0,13312,-42.5,865.7,2.7734373
40000000000000000000CC00,1,1477451814761375,1477451814761375,1,8.125,13312,-42.0,865.7,2.7427576
40000000000000000000CC00,1,1477451814768103,1477451814768103,1,-5.6875,13312,-43.0,865.7,2.791845
40000000000000000000CC00,1,1477451814775343,1477451814775343,1,5.6875,13312,-42.5,865.7,2.7427576
40000000000000000000CC00,1,1477451814781986,1477451814781986,1,-6.5,13312,-42.5,865.7,2.8409324
40000000000000000000CC00,1,1477451814788988,1477451814788988,1,-3.25,13312,-42.5,865.7,2.791845
40000000000000000000CC00,1,1477451814796222,1477451814796222,1,-0.8125,13312,-42.5,865.7,2.804117
40000000000000000000CC00,1,1477451814802916,1477451814802916,1,-4.875,13312,-42.5,865.7,2.8163888
40000000000000000000CC00,1,1477451814809873,1477451814809873,1,-5.6875,13312,-43.0,865.7,2.8225245
40000000000000000000CC00,1,1477451814817093,1477451814817093,1,11.375,13312,-42.5,865.7,2.7366216
40000000000000000000CC00,1,1477451814823762,1477451814823762,1,-8.125,13312,-42.5,865.7,2.8593402
40000000000000000000CC00,1,1477451814830764,1477451814830764,1,-4.875,13312,-42.5,865.7,2.797981
40000000000000000000CC00,1,1477451814838007,1477451814838007,1,-7.3125,13312,-42.5,865.7,2.8286605
40000000000000000000CC00,1,1477451814844895,1477451814844895,1,-8.125,13312,-42.5,865.7,2.871612
40000000000000000000CC00,1,1477451814851613,1477451814851613,1,-12.1875,13312,-42.5,865.7,2.89002
40000000000000000000CC00,1,1477451814858539,1477451814858539,1,-11.375,13312,-42.5,865.7,2.8286605
40000000000000000000CC00,1,1477451814865712,1477451814865712,1,3.25,13312,-42.5,865.7,2.7488935
40000000000000000000CC00,1,1477451814872694,1477451814872694,1,-7.3125,13312,-43.0,865.7,2.8470683
40000000000000000000CC00,1,1477451814879667,1477451814879667,1,10.5625,13312,-42.5,865.7,2.7550294
40000000000000000000CC00,1,1477451814886588,1477451814886588,1,13.8125,13312,-43.0,865.7,2.7366216
40000000000000000000CC00,1,1477451814893555,1477451814893555,1,4.875,13312,-42.5,865.7,2.7857091
40000000000000000000CC00,1,1477451814900221,1477451814900221,1,-5.6875,13312,-43.0,865.7,2.877748
40000000000000000000CC00,1,1477451814907387,1477451814907387,1,10.5625,13312,-43.0,865.7,2.7427576
40000000000000000000CC00,1,1477451814914370,1477451814914370,1,-9.75,13312,-42.5,865.7,2.8409324
40000000000000000000CC00,1,1477451814921044,1477451814921044,1,-6.5,13312,-42.5,865.7,2.8163888
40000000000000000000CC00,1,1477451814928263,1477451814928263,1,1.625,13312,-43.0,865.7,2.8163888
40000000000000000000CC00,1,1477451814935231,1477451814935231,1,-0.8125,13312,-42.5,865.7,2.791845
40000000000000000000CC00,1,1477451814941961,1477451814941961,1,-3.25,13312,-42.5,865.7,2.8286605
40000000000000000000CC00,1,1477451814949292,1477451814949292,1,3.25,13312,-42.0,865.7,2.7795732
40000000000000000000CC00,1,1477451814956029,1477451814956029,1,0.8125,13312,-42.5,865.7,2.8225245
40000000000000000000CC00,1,1477451814963273,1477451814963273,1,8.125,13312,-42.5,865.7,2.7488935
40000000000000000000CC00,1,1477451814969924,1477451814969924,1,10.5625,13312,-42.5,865.7,2.7795732
40000000000000000000CC00,1,1477451814977132,1477451814977132,1,-9.75,13312,-42.5,865.7,2.9206994
40000000000000000000CC00,1,1477451814984116,1477451814984116,1,2.4375,13312,-43.0,865.7,2.804117
40000000000000000000CC00,1,1477451814990828,1477451814990828,1,0.0,13312,-42.5,865.7,2.8225245
40000000000000000000CC00,1,1477451814998040,1477451814998040,1,4.875,13312,-43.0,865.7,2.8163888
40000000000000000000CC00,1,1477451815004772,1477451815004772,1,-3.25,13312,-42.5,865.7,2.8654761
40000000000000000000CC00,1,1477451815011975,1477451815011975,1,-0.8125,13312,-43.0,865.7,2.8409324
40000000000000000000CC00,1,1477451815018903,1477451815018903,1,6.5,13312,-43.0,865.7,2.804117
40000000000000000000CC00,1,1477451815025601,1477451815025601,1,3.25,13312,-42.5,865.7,2.8409324
40000000000000000000CC00,1,1477451815032860,1477451815032860,1,17.0625,13312,-43.0,865.7,2.7550294
40000000000000000000CC00,1,1477451815039760,1477451815039760,1,-1.625,13312,-42.5,865.7,2.8470683
40000000000000000000CC00,1,1477451815046701,1477451815046701,1,2.4375,13312,-42.5,865.7,2.8470683
40000000000000000000CC00,1,1477451815053610,1477451815053610,1,10.5625,13312,-43.0,865.7,2.7734373
40000000000000000000CC00,1,1477451815060338,1477451815060338,1,5.6875,13312,-42.5,865.7,2.8286605
40000000000000000000CC00,1,1477451815067273,1477451815067273,1,16.25,13312,-43.0,865.7,2.7550294
40000000000000000000CC00,1,1477451815074438,1477451815074438,1,-7.3125,13312,-42.5,865.7,2.877748
40000000000000000000CC00,1,1477451815081345,1477451815081345,1,0.8125,13312,-42.5,865.7,2.8470683
40000000000000000000CC00,1,1477451815088072,1477451815088072,1,-6.5,13312,-42.5,865.7,2.9084275
40000000000000000000CC00,1,1477451815095334,1477451815095334,1,3.25,13312,-43.0,865.7,2.8532043
40000000000000000000CC00,1,1477451815102267,1477451815102267,1,-8.125,13312,-42.5,865.7,2.8961558
40000000000000000000CC00,1,1477451815109190,1477451815109190,1,-8.9375,13312,-43.0,865.7,2.9022915
40000000000000000000CC00,1,1477451815115901,1477451815115901,1,5.6875,13312,-42.5,865.7,2.8286605
40000000000000000000CC00,1,1477451815122865,1477451815122865,1,6.5,13312,-43.0,865.7,2.8286605
40000000000000000000CC00,1,1477451815130048,1477451815130048,1,0.8125,13312,-42.5,865.7,2.8654761
40000000000000000000CC00,1,1477451815137049,1477451815137049,1,0.0,13312,-42.5,865.7,2.89002
40000000000000000000CC00,1,1477451815143980,1477451815143980,1,0.8125,13312,-43.0,865.7,2.877748
40000000000000000000CC00,1,1477451815150873,1477451815150873,1,-1.625,13312,-43.0,865.7,2.9022915
40000000000000000000CC00,1,1477451815157642,1477451815157642,1,8.125,13312,-43.0,865.7,2.8225245
40000000000000000000CC00,1,1477451815164826,1477451815164826,1,6.5,13312,-43.0,865.7,2.8532043
40000000000000000000CC00,1,1477451815171596,1477451815171596,1,1.625,13312,-43.0,865.7,2.8532043
40000000000000000000CC00,1,1477451815179662,1477451815179662,1,-2.4375,13312,-42.5,865.7,2.9268353
40000000000000000000CC00,1,1477451815186607,1477451815186607,1,-1.625,13312,-42.5,865.7,2.877748
40000000000000000000CC00,1,1477451815193602,1477451815193602,1,7.3125,13312,-43.0,865.7,2.8593402
40000000000000000000CC00,1,1477451815200782,1477451815200782,1,6.5,13312,-42.5,865.7,2.8532043
40000000000000000000CC00,1,1477451815207475,1477451815207475,1,-9.75,13312,-42.5,865.7,2.963651
40000000000000000000CC00,1,1477451815214442,1477451815214442,1,-2.4375,13312,-42.5,865.7,2.883884
40000000000000000000CC00,1,1477451815221378,1477451815221378,1,1.625,13312,-43.0,865.7,2.9022915
40000000000000000000CC00,1,1477451815228600,1477451815228600,1,3.25,13312,-43.0,865.7,2.877748
40000000000000000000CC00,1,1477451815235283,1477451815235283,1,0.8125,13312,-43.0,865.7,2.8961558
40000000000000000000CC00,1,1477451815242257,1477451815242257,1,3.25,13312,-42.5,865.7,2.8961558
40000000000000000000CC00,1,1477451815249452,1477451815249452,1,-8.125,13312,-42.5,865.7,2.969787
40000000000000000000CC00,1,1477451815256113,1477451815256113,1,-7.3125,13312,-43.0,865.7,2.9943304
40000000000000000000CC00,1,1477451815263093,1477451815263093,1,2.4375,13312,-42.5,865.7,2.89002
40000000000000000000CC00,1,1477451815270299,1477451815270299,1,6.5,13312,-42.5,865.7,2.9145634
40000000000000000000CC00,1,1477451815277040,1477451815277040,1,13.8125,13312,-43.0,865.7,2.8409324
40000000000000000000CC00,1,1477451815284020,1477451815284020,1,-3.25,13312,-43.0,865.7,2.963651
40000000000000000000CC00,1,1477451815290959,1477451815290959,1,8.125,13312,-43.0,865.7,2.8654761
40000000000000000000CC00,1,1477451815297925,1477451815297925,1,-6.5,13312,-43.0,865.7,2.9881945
40000000000000000000CC00,1,1477451815304871,1477451815304871,1,11.375,13312,-43.0,865.7,2.877748
40000000000000000000CC00,1,1477451815312058,1477451815312058,1,-5.6875,13312,-43.0,865.7,3.0066023
40000000000000000000CC00,1,1477451815318793,1477451815318793,1,2.4375,13312,-42.5,865.7,2.9759228
40000000000000000000CC00,1,1477451815325987,1477451815325987,1,5.6875,13312,-42.5,865.7,2.963651
40000000000000000000CC00,1,1477451815333055,1477451815333055,1,1.625,13312,-42.5,865.7,3.0004663
40000000000000000000CC00,1,1477451815340077,1477451815340077,1,12.1875,13312,-43.0,865.7,2.9329712
40000000000000000000CC00,1,1477451815347011,1477451815347011,1,-7.3125,13312,-43.0,865.7,3.0556898
40000000000000000000CC00,1,1477451815353684,1477451815353684,1,1.625,13312,-43.0,865.7,3.0127382
40000000000000000000CC00,1,1477451815360659,1477451815360659,1,17.0625,13312,-43.0,865.7,2.951379
40000000000000000000CC00,1,1477451815367694,1477451815367694,1,16.25,13312,-43.0,865.7,2.957515
40000000000000000000CC00,1,1477451815374840,1477451815374840,1,-0.8125,13312,-43.0,865.7,3.0556898
40000000000000000000CC00,1,1477451815381773,1477451815381773,1,8.9375,13312,-43.0,865.7,3.0188742
40000000000000000000CC00,1,1477451815388710,1477451815388710,1,0.8125,13312,-43.0,865.7,3.0802333
40000000000000000000CC00,1,1477451815395545,1477451815395545,1,14.625,13312,-43.0,865.7,3.0004663
40000000000000000000CC00,1,1477451815402687,1477451815402687,1,-4.875,13312,-42.5,865.7,3.110913
40000000000000000000CC00,1,1477451815409640,1477451815409640,1,-7.3125,13312,-42.5,865.7,3.1538644
40000000000000000000CC00,1,1477451815416839,1477451815416839,1,-4.875,13312,-43.0,865.7,3.123185
40000000000000000000CC00,1,1477451815423743,1477451815423743,1,-0.8125,13312,-43.0,865.7,3.1354568
40000000000000000000CC00,1,1477451815430503,1477451815430503,1,8.125,13312,-42.5,865.7,3.0679617
40000000000000000000CC00,1,1477451815437614,1477451815437614,1,4.875,13312,-42.5,865.7,3.0925052
40000000000000000000CC00,1,1477451815444377,1477451815444377,1,6.5,13312,-42.5,865.7,3.0618258
40000000000000000000CC00,1,1477451815451545,1477451815451545,1,5.6875,13312,-42.5,865.7,3.0925052
40000000000000000000CC00,1,1477451815458228,1477451815458228,1,-2.4375,13312,-43.5,865.7,3.117049
40000000000000000000CC00,1,1477451815465459,1477451815465459,1,20.3125,13312,-43.0,865.7,3.0066023
40000000000000000000CC00,1,1477451815472496,1477451815472496,1,-6.5,13312,-42.5,865.7,3.1600003
40000000000000000000CC00,1,1477451815479210,1477451815479210,1,7.3125,13312,-43.0,865.7,3.0863693
40000000000000000000CC00,1,1477451815486449,1477451815486449,1,0.0,13312,-43.0,865.7,3.123185
40000000000000000000CC00,1,1477451815493197,1477451815493197,1,12.1875,13312,-43.0,865.7,3.0925052
40000000000000000000CC00,1,1477451815500123,1477451815500123,1,-3.25,13312,-43.0,865.7,3.19068
40000000000000000000CC00,1,1477451815507063,1477451815507063,1,5.6875,13312,-43.0,865.7,3.110913
40000000000000000000CC00,1,1477451815514255,1477451815514255,1,8.9375,13312,-43.0,865.7,3.123185
40000000000000000000CC00,1,1477451815521232,1477451815521232,1,15.4375,13312,-43.0,865.7,3.0863693
40000000000000000000CC00,1,1477451815527928,1477451815527928,1,8.9375,13312,-43.0,865.7,3.1538644
40000000000000000000CC00,1,1477451815535113,1477451815535113,1,-6.5,13312,-42.5,865.7,3.2459033
40000000000000000000CC00,1,1477451815543569,1477451815543569,1,-2.4375,13312,-43.0,865.7,3.2520392
40000000000000000000CC00,1,1477451815550289,1477451815550289,1,-4.875,13312,-42.5,865.7,3.2581751
40000000000000000000CC00,1,1477451815557424,1477451815557424,1,-2.4375,13312,-42.0,865.7,3.264311
40000000000000000000CC00,1,1477451815564092,1477451815564092,1,9.75,13312,-42.5,865.7,3.1784081
40000000000000000000CC00,1,1477451815571363,1477451815571363,1,3.25,13312,-42.5,865.7,3.202952
40000000000000000000CC00,1,1477451815578369,1477451815578369,1,3.25,13312,-43.0,865.7,3.196816
40000000000000000000CC00,1,1477451815585309,1477451815585309,1,-1.625,13312,-42.5,865.7,3.264311
40000000000000000000CC00,1,1477451815592017,1477451815592017,1,0.0,13312,-42.5,865.7,3.2520392
40000000000000000000CC00,1,1477451815599237,1477451815599237,1,4.875,13312,-42.5,865.7,3.2152238
40000000000000000000CC00,1,1477451815606186,1477451815606186,1,0.0,13312,-42.5,865.7,3.276583
40000000000000000000CC00,1,1477451815612930,1477451815612930,1,1.625,13312,-42.5,865.7,3.2397673
40000000000000000000CC00,1,1477451815620116,1477451815620116,1,-1.625,13312,-42.5,865.7,3.270447
40000000000000000000CC00,1,1477451815627055,1477451815627055,1,1.625,13312,-42.5,865.7,3.2581751
40000000000000000000CC00,1,1477451815633956,1477451815633956,1,9.75,13312,-42.5,865.7,3.2274957
40000000000000000000CC00,1,1477451815640702,1477451815640702,1,3.25,13312,-42.0,865.7,3.264311
40000000000000000000CC00,1,1477451815647830,1477451815647830,1,0.8125,13312,-43.0,865.7,3.2520392
40000000000000000000CC00,1,1477451815654795,1477451815654795,1,3.25,13312,-42.5,865.7,3.2581751
40000000000000000000CC00,1,1477451815661491,1477451815661491,1,6.5,13312,-43.0,865.7,3.2336316
40000000000000000000CC00,1,1477451815668690,1477451815668690,1,-1.625,13312,-42.5,865.7,3.3256702
40000000000000000000CC00,1,1477451815675627,1477451815675627,1,1.625,13312,-42.5,865.7,3.2888548
40000000000000000000CC00,1,1477451815682341,1477451815682341,1,2.4375,13312,-42.5,865.7,3.3133986
40000000000000000000CC00,1,1477451815689300,1477451815689300,1,-1.625,13312,-42.5,865.7,3.3072627
40000000000000000000CC00,1,1477451815696256,1477451815696256,1,-2.4375,13312,-43.0,865.7,3.344078
40000000000000000000CC00,1,1477451815703206,1477451815703206,1,0.8125,13312,-42.5,865.7,3.3195345
40000000000000000000CC00,1,1477451815710364,1477451815710364,1,-1.625,13312,-42.5,865.7,3.344078
40000000000000000000CC00,1,1477451815717318,1477451815717318,1,0.8125,13312,-42.5,865.7,3.344078
40000000000000000000CC00,1,1477451815724029,1477451815724029,1,-0.8125,13312,-43.0,865.7,3.3256702
40000000000000000000CC00,1,1477451815730953,1477451815730953,1,0.0,13312,-42.5,865.7,3.350214
40000000000000000000CC00,1,1477451815737974,1477451815737974,1,-6.5,13312,-42.5,865.7,3.362486
40000000000000000000CC00,1,1477451815744875,1477451815744875,1,8.125,13312,-42.5,865.7,3.3072627
40000000000000000000CC00,1,1477451815753236,1477451815753236,1,2.4375,13312,-42.5,865.7,3.3379421
40000000000000000000CC00,1,1477451815760177,1477451815760177,1,-1.625,13312,-42.0,865.7,3.3993015
40000000000000000000CC00,1,1477451815766875,1477451815766875,1,0.8125,13312,-42.0,865.7,3.35635
40000000000000000000CC00,1,1477451815774017,1477451815774017,1,8.125,13312,-42.5,865.7,3.3256702
40000000000000000000CC00,1,1477451815780716,1477451815780716,1,-0.8125,13312,-42.0,865.7,3.3870296
40000000000000000000CC00,1,1477451815788015,1477451815788015,1,2.4375,13312,-42.5,865.7,3.35635
40000000000000000000CC00,1,1477451815794777,1477451815794777,1,11.375,13312,-42.5,865.7,3.35635
40000000000000000000CC00,1,1477451815801752,1477451815801752,1,3.25,13312,-42.5,865.7,3.3747578
40000000000000000000CC00,1,1477451815808692,1477451815808692,1,4.875,13312,-42.5,865.7,3.3870296
40000000000000000000CC00,1,1477451815815674,1477451815815674,1,0.0,13312,-42.5,865.7,3.4115732
40000000000000000000CC00,1,1477451815822992,1477451815822992,1,-0.8125,13312,-42.5,865.7,3.417709
40000000000000000000CC00,1,1477451815830043,1477451815830043,1,-2.4375,13312,-42.5,865.7,3.4606607
40000000000000000000CC00,1,1477451815838544,1477451815838544,1,6.5,13312,-42.0,865.7,3.417709
40000000000000000000CC00,1,1477451815845474,1477451815845474,1,8.125,13312,-42.5,865.7,3.3993015
40000000000000000000CC00,1,1477451815852161,1477451815852161,1,-3.25,13312,-42.0,865.7,3.4729326
40000000000000000000CC00,1,1477451815859416,1477451815859416,1,1.625,13312,-42.5,865.7,3.4606607
40000000000000000000CC00,1,1477451815866381,1477451815866381,1,-2.4375,13312,-42.5,865.7,3.4852045
40000000000000000000CC00,1,1477451815873351,1477451815873351,1,8.125,13312,-42.0,865.7,3.423845
40000000000000000000CC00,1,1477451815880119,1477451815880119,1,6.5,13312,-42.0,865.7,3.4545248
40000000000000000000CC00,1,1477451815887319,1477451815887319,1,-6.5,13312,-42.5,865.7,3.5342917
40000000000000000000CC00,1,1477451815894259,1477451815894259,1,8.125,13312,-42.5,865.7,3.4667966
40000000000000000000CC00,1,1477451815900969,1477451815900969,1,0.0,13312,-41.5,865.7,3.5342917
40000000000000000000CC00,1,1477451815908185,1477451815908185,1,1.625,13312,-42.0,865.7,3.515884
40000000000000000000CC00,1,1477451815914887,1477451815914887,1,6.5,13312,-42.5,865.7,3.4913402
40000000000000000000CC00,1,1477451815921813,1477451815921813,1,-2.4375,13312,-42.5,865.7,3.5649714
40000000000000000000CC00,1,1477451815929013,1477451815929013,1,-0.8125,13312,-42.0,865.7,3.5711074
40000000000000000000CC00,1,1477451815936093,1477451815936093,1,9.75,13312,-42.0,865.7,3.515884
40000000000000000000CC00,1,1477451815944368,1477451815944368,1,2.4375,13312,-42.0,865.7,3.5588355
40000000000000000000CC00,1,1477451815951521,1477451815951521,1,6.5,13312,-42.5,865.7,3.5465636
40000000000000000000CC00,1,1477451815958513,1477451815958513,1,2.4375,13312,-42.0,865.7,3.6140587
40000000000000000000CC00,1,1477451815965457,1477451815965457,1,6.5,13312,-42.5,865.7,3.5526996
40000000000000000000CC00,1,1477451815972403,1477451815972403,1,6.5,13312,-42.5,865.7,3.595651
40000000000000000000CC00,1,1477451815979269,1477451815979269,1,0.8125,13312,-42.0,865.7,3.6508744
40000000000000000000CC00,1,1477451815985961,1477451815985961,1,7.3125,13312,-42.5,865.7,3.595651
40000000000000000000CC00,1,1477451815993221,1477451815993221,1,4.875,13312,-43.0,865.7,3.6447384
40000000000000000000CC00,1,1477451816000032,1477451816000032,1,-0.8125,13312,-42.5,865.7,3.6815538
40000000000000000000CC00,1,1477451816006998,1477451816006998,1,6.5,13312,-42.5,865.7,3.669282
40000000000000000000CC00,1,1477451816013928,1477451816013928,1,5.6875,13312,-42.5,865.7,3.663146
40000000000000000000CC00,1,1477451816020858,1477451816020858,1,5.6875,13312,-43.0,865.7,3.6876898
40000000000000000000CC00,1,1477451816027788,1477451816027788,1,6.5,13312,-43.0,865.7,3.6938257
40000000000000000000CC00,1,1477451816034996,1477451816034996,1,8.9375,13312,-43.0,865.7,3.6999617
40000000000000000000CC00,1,1477451816041939,1477451816041939,1,4.875,13312,-42.5,865.7,3.7306414
40000000000000000000CC00,1,1477451816048625,1477451816048625,1,-5.6875,13312,-43.0,865.7,3.8349519
40000000000000000000CC00,1,1477451816055683,1477451816055683,1,-4.875,13312,-42.5,865.7,3.8410878
40000000000000000000CC00,1,1477451816063040,1477451816063040,1,0.8125,13312,-43.0,865.7,3.8104084
40000000000000000000CC00,1,1477451816069767,1477451816069767,1,8.125,13312,-43.0,865.7,3.7920005
40000000000000000000CC00,1,1477451816076692,1477451816076692,1,2.4375,13312,-42.5,865.7,3.8594956
40000000000000000000CC00,1,1477451816083603,1477451816083603,1,-0.8125,13312,-43.0,865.7,3.8717675
40000000000000000000CC00,1,1477451816090738,1477451816090738,1,8.125,13312,-43.0,865.7,3.828816
40000000000000000000CC00,1,1477451816097506,1477451816097506,1,-0.8125,13312,-43.5,865.7,3.9208548
40000000000000000000CC00,1,1477451816104672,1477451816104672,1,0.8125,13312,-43.5,865.7,3.9208548
40000000000000000000CC00,1,1477451816111586,1477451816111586,1,4.875,13312,-43.5,865.7,3.9208548
40000000000000000000CC00,1,1477451816118254,1477451816118254,1,2.4375,13312,-43.0,865.7,3.9392626
40000000000000000000CC00,1,1477451816125408,1477451816125408,1,4.875,13312,-43.5,865.7,3.9515345
40000000000000000000CC00,1,1477451816132125,1477451816132125,1,5.6875,13312,-43.0,865.7,3.9638064
40000000000000000000CC00,1,1477451816140567,1477451816140567,1,0.8125,13312,-43.0,865.7,3.9576705
40000000000000000000CC00,1,1477451816147494,1477451816147494,1,8.9375,13312,-43.5,865.7,3.9392626
40000000000000000000CC00,1,1477451816154674,1477451816154674,1,8.125,13312,-43.5,865.7,3.9699423
40000000000000000000CC00,1,1477451816161655,1477451816161655,1,3.25,13312,-43.0,865.7,3.9944859
40000000000000000000CC00,1,1477451816168357,1477451816168357,1,0.8125,13312,-43.5,865.7,4.0313015
40000000000000000000CC00,1,1477451816176891,1477451816176891,1,3.25,13312,-43.5,865.7,4.0067577
40000000000000000000CC00,1,1477451816184094,1477451816184094,1,-7.3125,13312,-43.5,865.7,4.074253
40000000000000000000CC00,1,1477451816190828,1477451816190828,1,-7.3125,13312,-43.5,865.7,4.086525
40000000000000000000CC00,1,1477451816197712,1477451816197712,1,0.0,13312,-43.5,865.7,4.0313015
40000000000000000000CC00,1,1477451816204964,1477451816204964,1,2.4375,13312,-43.5,865.7,4.0497093
40000000000000000000CC00,1,1477451816211665,1477451816211665,1,-3.25,13312,-43.5,865.7,4.068117
40000000000000000000CC00,1,1477451816218635,1477451816218635,1,-4.875,13312,-43.5,865.7,4.092661
40000000000000000000CC00,1,1477451816225578,1477451816225578,1,9.75,13312,-43.5,865.7,4.000622
40000000000000000000CC00,1,1477451816232909,1477451816232909,1,-8.125,13312,-43.5,865.7,4.1110687
40000000000000000000CC00,1,1477451816239615,1477451816239615,1,5.6875,13312,-43.5,865.7,4.0435734
40000000000000000000CC00,1,1477451816246765,1477451816246765,1,5.6875,13312,-43.0,865.7,4.0374374
40000000000000000000CC00,1,1477451816253708,1477451816253708,1,4.875,13312,-43.0,865.7,4.080389
40000000000000000000CC00,1,1477451816260482,1477451816260482,1,-1.625,13312,-43.5,865.7,4.080389
40000000000000000000CC00,1,1477451816267466,1477451816267466,1,10.5625,13312,-43.5,865.7,4.068117
40000000000000000000CC00,1,1477451816274444,1477451816274444,1,0.0,13312,-43.5,865.7,4.074253
40000000000000000000CC00,1,1477451816282846,1477451816282846,1,4.875,13312,-43.5,865.7,4.092661
40000000000000000000CC00,1,1477451816290059,1477451816290059,1,8.125,13312,-43.5,865.7,4.074253
40000000000000000000CC00,1,1477451816296985,1477451816296985,1,-7.3125,13312,-43.5,865.7,4.1724277
40000000000000000000CC00,1,1477451816303919,1477451816303919,1,-2.4375,13312,-43.5,865.7,4.15402
40000000000000000000CC00,1,1477451816310629,1477451816310629,1,7.3125,13312,-43.5,865.7,4.1110687
40000000000000000000CC00,1,1477451816317797,1477451816317797,1,7.3125,13312,-43.5,865.7,4.135612
40000000000000000000CC00,1,1477451816324474,1477451816324474,1,-0.8125,13312,-43.0,865.7,4.1724277
40000000000000000000CC00,1,1477451816331666,1477451816331666,1,2.4375,13312,-43.0,865.7,4.160156
40000000000000000000CC00,1,1477451816338466,1477451816338466,1,3.25,13312,-42.5,865.7,4.147884
40000000000000000000CC00,1,1477451816345356,1477451816345356,1,8.125,13312,-43.0,865.7,4.1724277
40000000000000000000CC00,1,1477451816352415,1477451816352415,1,0.0,13312,-43.0,865.7,4.221515
40000000000000000000CC00,1,1477451816359582,1477451816359582,1,2.4375,13312,-43.5,865.7,4.221515
40000000000000000000CC00,1,1477451816366282,1477451816366282,1,-1.625,13312,-43.5,865.7,4.227651
40000000000000000000CC00,1,1477451816373220,1477451816373220,1,-1.625,13312,-43.0,865.7,4.239923
40000000000000000000CC00,1,1477451816380405,1477451816380405,1,9.75,13312,-43.5,865.7,4.2092433
40000000000000000000CC00,1,1477451816388778,1477451816388778,1,3.25,13312,-43.5,865.7,4.2092433
40000000000000000000CC00,1,1477451816395657,1477451816395657,1,-6.5,13312,-43.5,865.7,4.295146
40000000000000000000CC00,1,1477451816402354,1477451816402354,1,0.0,13312,-43.5,865.7,4.2706027
40000000000000000000CC00,1,1477451816409369,1477451816409369,1,6.5,13312,-43.5,865.7,4.252195
40000000000000000000CC00,1,1477451816416547,1477451816416547,1,1.625,13312,-44.0,865.7,4.258331
40000000000000000000CC00,1,1477451816423374,1477451816423374,1,8.9375,13312,-43.0,865.7,4.227651
40000000000000000000CC00,1,1477451816430346,1477451816430346,1,-7.3125,13312,-43.5,865.7,4.3626413
40000000000000000000CC00,1,1477451816437528,1477451816437528,1,-10.5625,13312,-43.0,865.7,4.3503695
40000000000000000000CC00,1,1477451816444238,1477451816444238,1,0.8125,13312,-43.5,865.7,4.3258257
40000000000000000000CC00,1,1477451816451191,1477451816451191,1,1.625,13312,-43.0,865.7,4.301282
40000000000000000000CC00,1,1477451816458419,1477451816458419,1,6.5,13312,-43.5,865.7,4.301282
40000000000000000000CC00,1,1477451816465406,1477451816465406,1,-4.875,13312,-43.0,865.7,4.374913
40000000000000000000CC00,1,1477451816472070,1477451816472070,1,-4.875,13312,-43.5,865.7,4.3626413
40000000000000000000CC00,1,1477451816479012,1477451816479012,1,4.875,13312,-43.0,865.7,4.3319616
40000000000000000000CC00,1,1477451816486268,1477451816486268,1,7.3125,13312,-43.0,865.7,4.3442335
40000000000000000000CC00,1,1477451816492969,1477451816492969,1,0.0,13312,-44.0,865.7,4.393321
40000000000000000000CC00,1,1477451816500172,1477451816500172,1,1.625,13312,-43.0,865.7,4.3565054
40000000000000000000CC00,1,1477451816506893,1477451816506893,1,5.6875,13312,-43.5,865.7,4.3626413
40000000000000000000CC00,1,1477451816513918,1477451816513918,1,-5.6875,13312,-43.0,865.7,4.4301367
40000000000000000000CC00,1,1477451816520927,1477451816520927,1,7.3125,13312,-44.0,865.7,4.374913
40000000000000000000CC00,1,1477451816527875,1477451816527875,1,-1.625,13312,-44.0,865.7,4.4240007
40000000000000000000CC00,1,1477451816534802,1477451816534802,1,0.8125,13312,-44.0,865.7,4.4301367
40000000000000000000CC00,1,1477451816542000,1477451816542000,1,8.125,13312,-43.5,865.7,4.405593
40000000000000000000CC00,1,1477451816548715,1477451816548715,1,-12.1875,13312,-44.0,865.7,4.5283113
40000000000000000000CC00,1,1477451816555937,1477451816555937,1,8.9375,13312,-43.5,865.7,4.411729
40000000000000000000CC00,1,1477451816562729,1477451816562729,1,0.8125,13312,-44.0,865.7,4.4424086
40000000000000000000CC00,1,1477451816569652,1477451816569652,1,4.875,13312,-44.0,865.7,4.417865
40000000000000000000CC00,1,1477451816576678,1477451816576678,1,-1.625,13312,-44.5,865.7,4.4546804
40000000000000000000CC00,1,1477451816583720,1477451816583720,1,-8.125,13312,-43.5,865.7,4.4914956
40000000000000000000CC00,1,1477451816590710,1477451816590710,1,4.875,13312,-43.5,865.7,4.4362726
40000000000000000000CC00,1,1477451816597901,1477451816597901,1,-0.8125,13312,-44.0,865.7,4.473088
40000000000000000000CC00,1,1477451816604611,1477451816604611,1,-5.6875,13312,-44.5,865.7,4.546719
40000000000000000000CC00,1,1477451816611768,1477451816611768,1,3.25,13312,-44.5,865.7,4.4914956
40000000000000000000CC00,1,1477451816618441,1477451816618441,1,16.25,13312,-43.5,865.7,4.4301367
40000000000000000000CC00,1,1477451816625690,1477451816625690,1,8.125,13312,-43.5,865.7,4.4853597
40000000000000000000CC00,1,1477451816632612,1477451816632612,1,-5.6875,13312,-44.5,865.7,4.552855
40000000000000000000CC00,1,1477451816639625,1477451816639625,1,-2.4375,13312,-44.5,865.7,4.534447
40000000000000000000CC00,1,1477451816646336,1477451816646336,1,-4.875,13312,-43.5,865.7,4.546719
40000000000000000000CC00,1,1477451816653507,1477451816653507,1,13.8125,13312,-44.0,865.7,4.417865
40000000000000000000CC00,1,1477451816660219,1477451816660219,1,2.4375,13312,-44.5,865.7,4.546719
40000000000000000000CC00,1,1477451816667240,1477451816667240,1,5.6875,13312,-44.0,865.7,4.5283113
40000000000000000000CC00,1,1477451816674197,1477451816674197,1,13.8125,13312,-44.5,865.7,4.4976315
40000000000000000000CC00,1,1477451816681420,1477451816681420,1,12.1875,13312,-44.0,865.7,4.4853597
40000000000000000000CC00,1,1477451816688134,1477451816688134,1,-3.25,13312,-44.5,865.7,4.5835347
40000000000000000000CC00,1,1477451816695387,1477451816695387,1,10.5625,13312,-44.0,865.7,4.5221753
40000000000000000000CC00,1,1477451816702326,1477451816702326,1,7.3125,13312,-44.5,865.7,4.540583
40000000000000000000CC00,1,1477451816709009,1477451816709009,1,0.0,13312,-44.5,865.7,4.5835347
40000000000000000000CC00,1,1477451816715985,1477451816715985,1,8.9375,13312,-45.0,865.7,4.565127
40000000000000000000CC00,1,1477451816723134,1477451816723134,1,5.6875,13312,-45.0,865.7,4.6019425
40000000000000000000CC00,1,1477451816729881,1477451816729881,1,-1.625,13312,-44.5,865.7,4.632622
40000000000000000000CC00,1,1477451816737035,1477451816737035,1,3.25,13312,-44.0,865.7,4.5958066
40000000000000000000CC00,1,1477451816744005,1477451816744005,1,-1.625,13312,-45.0,865.7,4.632622
40000000000000000000CC00,1,1477451816750708,1477451816750708,1,0.0,13312,-45.0,865.7,4.6142144
40000000000000000000CC00,1,1477451816757658,1477451816757658,1,-0.8125,13312,-45.0,865.7,4.632622
40000000000000000000CC00,1,1477451816764608,1477451816764608,1,14.625,13312,-44.5,865.7,4.565127
40000000000000000000CC00,1,1477451816771539,1477451816771539,1,8.125,13312,-44.5,865.7,4.5896707
40000000000000000000CC00,1,1477451816778795,1477451816778795,1,-4.875,13312,-44.5,865.7,4.6633015
40000000000000000000CC00,1,1477451816785779,1477451816785779,1,9.75,13312,-44.5,865.7,4.5958066
40000000000000000000CC00,1,1477451816792825,1477451816792825,1,7.3125,13312,-44.5,865.7,4.632622
40000000000000000000CC00,1,1477451816799760,1477451816799760,1,14.625,13312,-44.5,865.7,4.565127
40000000000000000000CC00,1,1477451816806471,1477451816806471,1,-8.125,13312,-44.5,865.7,4.724661
40000000000000000000CC00,1,1477451816813386,1477451816813386,1,8.9375,13312,-45.0,865.7,4.626486
40000000000000000000CC00,1,1477451816820278,1477451816820278,1,2.4375,13312,-45.0,865.7,4.6510296
40000000000000000000CC00,1,1477451816827179,1477451816827179,1,9.75,13312,-45.0,865.7,4.6571655
40000000000000000000CC00,1,1477451816834210,1477451816834210,1,-9.75,13312,-45.0,865.7,4.792156
40000000000000000000CC00,1,1477451816841243,1477451816841243,1,14.625,13312,-45.0,865.7,4.6571655
40000000000000000000CC00,1,1477451816848222,1477451816848222,1,6.5,13312,-45.0,865.7,4.712389
40000000000000000000CC00,1,1477451816855428,1477451816855428,1,4.875,13312,-45.0,865.7,4.693981
40000000000000000000CC00,1,1477451816862368,1477451816862368,1,8.125,13312,-44.5,865.7,4.687845
40000000000000000000CC00,1,1477451816869283,1477451816869283,1,14.625,13312,-44.5,865.7,4.6510296
40000000000000000000CC00,1,1477451816876287,1477451816876287,1,19.5,13312,-44.5,865.7,4.687845
40000000000000000000CC00,1,1477451816883044,1477451816883044,1,7.3125,13312,-45.0,865.7,4.724661
40000000000000000000CC00,1,1477451816890194,1477451816890194,1,14.625,13312,-45.0,865.7,4.687845
40000000000000000000CC00,1,1477451816897163,1477451816897163,1,9.75,13312,-45.0,865.7,4.7430687
40000000000000000000CC00,1,1477451816904100,1477451816904100,1,-10.5625,13312,-44.5,865.7,4.859651
40000000000000000000CC00,1,1477451816912289,1477451816912289,1,5.6875,13312,-45.0,865.7,4.7676125
40000000000000000000CC00,1,1477451816919535,1477451816919535,1,15.4375,13312,-44.5,865.7,4.724661
40000000000000000000CC00,1,1477451816926163,1477451816926163,1,0.8125,13312,-44.5,865.7,4.8105636
40000000000000000000CC00,1,1477451816933431,1477451816933431,1,0.0,13312,-45.0,865.7,4.8351073
40000000000000000000CC00,1,1477451816940162,1477451816940162,1,8.125,13312,-45.0,865.7,4.7982917
40000000000000000000CC00,1,1477451816947378,1477451816947378,1,10.5625,13312,-44.5,865.7,4.7614765
40000000000000000000CC00,1,1477451816954294,1477451816954294,1,-6.5,13312,-45.5,865.7,4.8964667
40000000000000000000CC00,1,1477451816961115,1477451816961115,1,-6.5,13312,-45.5,865.7,4.9026027
40000000000000000000CC00,1,1477451816968268,1477451816968268,1,-3.25,13312,-45.0,865.7,4.859651
40000000000000000000CC00,1,1477451816975163,1477451816975163,1,7.3125,13312,-45.0,865.7,4.8166995
40000000000000000000CC00,1,1477451816982113,1477451816982113,1,-2.4375,13312,-45.0,865.7,4.859651
40000000000000000000CC00,1,1477451816989048,1477451816989048,1,7.3125,13312,-45.0,865.7,4.8351073
40000000000000000000CC00,1,1477451816995691,1477451816995691,1,8.125,13312,-45.5,865.7,4.792156
40000000000000000000CC00,1,1477451817002705,1477451817002705,1,1.625,13312,-45.5,865.7,4.859651
40000000000000000000CC00,1,1477451817009875,1477451817009875,1,0.8125,13312,-45.5,865.7,4.878059
40000000000000000000CC00,1,1477451817016602,1477451817016602,1,-1.625,13312,-45.0,865.7,4.865787
40000000000000000000CC00,1,1477451817023553,1477451817023553,1,19.5,13312,-45.5,865.7,4.792156
40000000000000000000CC00,1,1477451817030500,1477451817030500,1,10.5625,13312,-45.0,865.7,4.8412433
40000000000000000000CC00,1,1477451817037669,1477451817037669,1,6.5,13312,-45.0,865.7,4.884195
40000000000000000000CC00,1,1477451817044356,1477451817044356,1,18.6875,13312,-44.5,865.7,4.8105636
40000000000000000000CC00,1,1477451817051582,1477451817051582,1,4.875,13312,-45.0,865.7,4.9026027
40000000000000000000CC00,1,1477451817058362,1477451817058362,1,0.8125,13312,-45.0,865.7,4.9762335
40000000000000000000CC00,1,1477451817065367,1477451817065367,1,13.8125,13312,-44.5,865.7,4.884195
40000000000000000000CC00,1,1477451817072584,1477451817072584,1,0.8125,13312,-44.5,865.7,5.006913
40000000000000000000CC00,1,1477451817079238,1477451817079238,1,13.8125,13312,-45.0,865.7,4.9455543
40000000000000000000CC00,1,1477451817087745,1477451817087745,1,-1.625,13312,-44.5,865.7,5.019185
40000000000000000000CC00,1,1477451817095020,1477451817095020,1,9.75,13312,-44.5,865.7,5.006913
40000000000000000000CC00,1,1477451817101719,1477451817101719,1,-17.875,13312,-44.5,865.7,5.190991
40000000000000000000CC00,1,1477451817108656,1477451817108656,1,-4.875,13312,-44.5,865.7,5.0989523
40000000000000000000CC00,1,1477451817115585,1477451817115585,1,1.625,13312,-44.0,865.7,5.123496
40000000000000000000CC00,1,1477451817122865,1477451817122865,1,-5.6875,13312,-44.5,865.7,5.178719
40000000000000000000CC00,1,1477451817129571,1477451817129571,1,-8.125,13312,-44.0,865.7,5.197127
40000000000000000000CC00,1,1477451817136769,1477451817136769,1,12.1875,13312,-43.5,865.7,5.0682726
40000000000000000000CC00,1,1477451817143506,1477451817143506,1,-1.625,13312,-44.0,865.7,5.190991
40000000000000000000CC00,1,1477451817150442,1477451817150442,1,0.8125,13312,-44.0,865.7,5.160311
40000000000000000000CC00,1,1477451817157646,1477451817157646,1,12.1875,13312,-43.0,865.7,5.11736
40000000000000000000CC00,1,1477451817164360,1477451817164360,1,-17.875,13312,-43.5,865.7,5.3689327
40000000000000000000CC00,1,1477451817171557,1477451817171557,1,11.375,13312,-43.5,865.7,5.2155347
40000000000000000000CC00,1,1477451817178235,1477451817178235,1,-4.875,13312,-43.0,865.7,5.338253
40000000000000000000CC00,1,1477451817185455,1477451817185455,1,1.625,13312,-42.5,865.7,5.3137093
40000000000000000000CC00,1,1477451817192332,1477451817192332,1,2.4375,13312,-42.5,865.7,5.3812046
40000000000000000000CC00,1,1477451817199330,1477451817199330,1,9.75,13312,-42.5,865.7,5.325981
40000000000000000000CC00,1,1477451817206038,1477451817206038,1,7.3125,13312,-42.5,865.7,5.344389
40000000000000000000CC00,1,1477451817213216,1477451817213216,1,6.5,13312,-42.5,865.7,5.3812046
40000000000000000000CC00,1,1477451817219885,1477451817219885,1,2.4375,13312,-42.5,865.7,5.442564
40000000000000000000CC00,1,1477451817226866,1477451817226866,1,-15.4375,13312,-42.0,865.7,5.5530105
40000000000000000000CC00,1,1477451817234057,1477451817234057,1,-9.75,13312,-42.0,865.7,5.5468745
40000000000000000000CC00,1,1477451817241036,1477451817241036,1,-2.4375,13312,-42.0,865.7,5.485515
40000000000000000000CC00,1,1477451817247762,1477451817247762,1,4.875,13312,-42.0,865.7,5.473243
40000000000000000000CC00,1,1477451817254723,1477451817254723,1,8.9375,13312,-41.5,865.7,5.4487
40000000000000000000CC00,1,1477451817261668,1477451817261668,1,17.0625,13312,-42.0,865.7,5.3934765
40000000000000000000CC00,1,1477451817268932,1477451817268932,1,-4.875,13312,-41.5,865.7,5.5652823
40000000000000000000CC00,1,1477451817275728,1477451817275728,1,1.625,13312,-42.0,865.7,5.5284667
40000000000000000000CC00,1,1477451817283031,1477451817283031,1,4.875,13312,-41.5,865.7,5.460972
40000000000000000000CC00,1,1477451817289999,1477451817289999,1,-15.4375,13312,-41.5,865.7,5.620506
40000000000000000000CC00,1,1477451817296955,1477451817296955,1,0.0,13312,-41.5,865.7,5.5223308
40000000000000000000CC00,1,1477451817303989,1477451817303989,1,-5.6875,13312,-41.0,865.7,5.589826
40000000000000000000CC00,1,1477451817310936,1477451817310936,1,0.0,13312,-41.0,865.7,5.5346026
40000000000000000000CC00,1,1477451817317878,1477451817317878,1,2.4375,13312,-41.5,865.7,5.5223308
40000000000000000000CC00,1,1477451817324620,1477451817324620,1,4.875,13312,-41.0,865.7,5.5284667
40000000000000000000CC00,1,1477451817333417,1477451817333417,1,-7.3125,13312,-41.0,865.7,5.589826
40000000000000000000CC00,1,1477451817340374,1477451817340374,1,9.75,13312,-41.0,865.7,5.4671073
40000000000000000000CC00,1,1477451817347083,1477451817347083,1,2.4375,13312,-41.0,865.7,5.5346026
40000000000000000000CC00,1,1477451817353996,1477451817353996,1,-2.4375,13312,-41.0,865.7,5.5652823
40000000000000000000CC00,1,1477451817361188,1477451817361188,1,-0.8125,13312,-41.0,865.7,5.5407386
40000000000000000000CC00,1,1477451817368100,1477451817368100,1,-9.75,13312,-40.5,865.7,5.602098
40000000000000000000CC00,1,1477451817375041,1477451817375041,1,8.125,13312,-40.5,865.7,5.503923
40000000000000000000CC00,1,1477451817381942,1477451817381942,1,-0.8125,13312,-40.5,865.7,5.5468745
40000000000000000000CC00,1,1477451817388658,1477451817388658,1,6.5,13312,-40.5,865.7,5.510059
40000000000000000000CC00,1,1477451817395638,1477451817395638,1,-9.75,13312,-40.0,865.7,5.577554
40000000000000000000CC00,1,1477451817402694,1477451817402694,1,-6.5,13312,-40.0,865.7,5.5530105
40000000000000000000CC00,1,1477451817409913,1477451817409913,1,1.625,13312,-39.5,865.7,5.454836
40000000000000000000CC00,1,1477451817416984,1477451817416984,1,-3.25,13312,-40.0,865.7,5.4671073
40000000000000000000CC00,1,1477451817423713,1477451817423713,1,10.5625,13312,-39.5,865.7,5.3934765
40000000000000000000CC00,1,1477451817430707,1477451817430707,1,-2.4375,13312,-39.5,865.7,5.454836
40000000000000000000CC00,1,1477451817437972,1477451817437972,1,8.9375,13312,-39.0,865.7,5.344389
40000000000000000000CC00,1,1477451817444883,1477451817444883,1,3.25,13312,-39.0,865.7,5.3873405
40000000000000000000CC00,1,1477451817451883,1477451817451883,1,7.3125,13312,-38.5,865.7,5.332117
40000000000000000000CC00,1,1477451817458856,1477451817458856,1,0.8125,13312,-39.0,865.7,5.3873405
40000000000000000000CC00,1,1477451817465638,1477451817465638,1,13.8125,13312,-38.5,865.7,5.289166
40000000000000000000CC00,1,1477451817472844,1477451817472844,1,4.875,13312,-39.0,865.7,5.3750687
40000000000000000000CC00,1,1477451817480156,1477451817480156,1,10.5625,13312,-39.0,865.7,5.3014374
40000000000000000000CC00,1,1477451817486905,1477451817486905,1,7.3125,13312,-38.5,865.7,5.3137093
40000000000000000000CC00,1,1477451817494206,1477451817494206,1,5.6875,13312,-38.5,865.7,5.3689327
40000000000000000000CC00,1,1477451817501214,1477451817501214,1,8.125,13312,-38.5,865.7,5.3137093
40000000000000000000CC00,1,1477451817508047,1477451817508047,1,9.75,13312,-38.5,865.7,5.319845
40000000000000000000CC00,1,1477451817515130,1477451817515130,1,0.0,13312,-38.0,865.7,5.356661
40000000000000000000CC00,1,1477451817522393,1477451817522393,1,1.625,13312,-38.0,865.7,5.325981
40000000000000000000CC00,1,1477451817530636,1477451817530636,1,13.8125,13312,-38.0,865.7,5.276894
40000000000000000000CC00,1,1477451817537996,1477451817537996,1,8.9375,13312,-38.5,865.7,5.276894
40000000000000000000CC00,1,1477451817545046,1477451817545046,1,7.3125,13312,-38.5,865.7,5.3137093
40000000000000000000CC00,1,1477451817553684,1477451817553684,1,2.4375,13312,-38.5,865.7,5.344389
40000000000000000000CC00,1,1477451817669009,1477451817669009,1,-0.8125,13312,-36.0,865.7,4.9885054
40000000000000000000CC00,1,1477451817675746,1477451817675746,1,8.125,13312,-36.0,865.7,4.9210105
40000000000000000000CC00,1,1477451817683046,1477451817683046,1,-5.6875,13312,-36.0,865.7,5.0007772
40000000000000000000CC00,1,1477451817689788,1477451817689788,1,-2.4375,13312,-36.0,865.7,4.95169
40000000000000000000CC00,1,1477451817697074,1477451817697074,1,6.5,13312,-36.0,865.7,4.871923
40000000000000000000CC00,1,1477451817704023,1477451817704023,1,2.4375,13312,-35.5,865.7,4.8964667
40000000000000000000CC00,1,1477451817710791,1477451817710791,1,0.0,13312,-36.0,865.7,4.8964667
40000000000000000000CC00,1,1477451817717824,1477451817717824,1,7.3125,13312,-35.5,865.7,4.8412433
40000000000000000000CC00,1,1477451817724820,1477451817724820,1,7.3125,13312,-36.0,865.7,4.847379
40000000000000000000CC00,1,1477451817731799,1477451817731799,1,-2.4375,13312,-35.5,865.7,4.8964667
40000000000000000000CC00,1,1477451817738993,1477451817738993,1,5.6875,13312,-36.0,865.7,4.8351073
40000000000000000000CC00,1,1477451817745927,1477451817745927,1,-0.8125,13312,-35.5,865.7,4.865787
40000000000000000000CC00,1,1477451817752702,1477451817752702,1,8.9375,13312,-36.0,865.7,4.7860203
40000000000000000000CC00,1,1477451817759671,1477451817759671,1,7.3125,13312,-36.0,865.7,4.7982917
40000000000000000000CC00,1,1477451817766892,1477451817766892,1,0.8125,13312,-36.0,865.7,4.8412433
40000000000000000000CC00,1,1477451817773801,1477451817773801,1,6.5,13312,-36.0,865.7,4.8044276
40000000000000000000CC00,1,1477451817781040,1477451817781040,1,5.6875,13312,-35.5,865.7,4.7798843
40000000000000000000CC00,1,1477451817787708,1477451817787708,1,-1.625,13312,-35.5,865.7,4.8228354
40000000000000000000CC00,1,1477451817794669,1477451817794669,1,4.875,13312,-36.0,865.7,4.7676125
40000000000000000000CC00,1,1477451817801698,1477451817801698,1,0.8125,13312,-36.0,865.7,4.7860203
40000000000000000000CC00,1,1477451817808755,1477451817808755,1,5.6875,13312,-35.5,865.7,4.7369328
40000000000000000000CC00,1,1477451817815741,1477451817815741,1,4.875,13312,-36.0,865.7,4.718525
40000000000000000000CC00,1,1477451817822764,1477451817822764,1,-0.8125,13312,-35.5,865.7,4.7430687
40000000000000000000CC00,1,1477451817829990,1477451817829990,1,8.125,13312,-35.5,865.7,4.6755733
40000000000000000000CC00,1,1477451817836937,1477451817836937,1,0.8125,13312,-35.5,865.7,4.706253
40000000000000000000CC00,1,1477451817843665,1477451817843665,1,7.3125,13312,-36.0,865.7,4.6571655
40000000000000000000CC00,1,1477451817850604,1477451817850604,1,6.5,13312,-35.0,865.7,4.6448936
40000000000000000000CC00,1,1477451817857577,1477451817857577,1,-0.8125,13312,-35.5,865.7,4.6817093
40000000000000000000CC00,1,1477451817864478,1477451817864478,1,-0.8125,13312,-35.5,865.7,4.6633015
40000000000000000000CC00,1,1477451817871694,1477451817871694,1,0.8125,13312,-35.0,865.7,4.632622
40000000000000000000CC00,1,1477451817878474,1477451817878474,1,4.875,13312,-35.5,865.7,4.6387577
40000000000000000000CC00,1,1477451817885465,1477451817885465,1,0.8125,13312,-35.5,865.7,4.626486
40000000000000000000CC00,1,1477451817892637,1477451817892637,1,-6.5,13312,-35.5,865.7,4.6387577
40000000000000000000CC00,1,1477451817900436,1477451817900436,1,0.8125,13312,-35.0,865.7,4.5896707
40000000000000000000CC00,1,1477451817907724,1477451817907724,1,0.8125,13312,-35.0,865.7,4.552855
40000000000000000000CC00,1,1477451817914697,1477451817914697,1,-1.625,13312,-35.0,865.7,4.540583
40000000000000000000CC00,1,1477451817921390,1477451817921390,1,-0.8125,13312,-34.5,865.7,4.5160394
40000000000000000000CC00,1,1477451817928645,1477451817928645,1,-4.875,13312,-34.5,865.7,4.4792237
40000000000000000000CC00,1,1477451817935629,1477451817935629,1,8.125,13312,-34.5,865.7,4.393321
40000000000000000000CC00,1,1477451817942325,1477451817942325,1,-0.8125,13312,-34.5,865.7,4.387185
40000000000000000000CC00,1,1477451817949313,1477451817949313,1,1.625,13312,-34.5,865.7,4.307418
40000000000000000000CC00,1,1477451817956559,1477451817956559,1,8.125,13312,-34.5,865.7,4.239923
40000000000000000000CC00,1,1477451817964533,1477451817964533,1,3.25,13312,-34.5,865.7,4.227651
40000000000000000000CC00,1,1477451817971217,1477451817971217,1,4.875,13312,-34.5,865.7,4.2092433
40000000000000000000CC00,1,1477451817978122,1477451817978122,1,0.8125,13312,-34.5,865.7,4.2092433
40000000000000000000CC00,1,1477451817985172,1477451817985172,1,6.5,13312,-34.5,865.7,4.2031074
40000000000000000000CC00,1,1477451817992087,1477451817992087,1,4.875,13312,-34.0,865.7,4.2031074
40000000000000000000CC00,1,1477451817998999,1477451817998999,1,6.5,13312,-34.5,865.7,4.1662917
40000000000000000000CC00,1,1477451818005908,1477451818005908,1,1.625,13312,-34.0,865.7,4.1785636
40000000000000000000CC00,1,1477451818012834,1477451818012834,1,7.3125,13312,-34.5,865.7,4.160156
40000000000000000000CC00,1,1477451818019769,1477451818019769,1,5.6875,13312,-34.5,865.7,4.1662917
40000000000000000000CC00,1,1477451818026736,1477451818026736,1,5.6875,13312,-35.0,865.7,4.135612
40000000000000000000CC00,1,1477451818033866,1477451818033866,1,3.25,13312,-34.5,865.7,4.15402
40000000000000000000CC00,1,1477451818040621,1477451818040621,1,1.625,13312,-34.0,865.7,4.141748
40000000000000000000CC00,1,1477451818047602,1477451818047602,1,0.0,13312,-34.5,865.7,4.141748
40000000000000000000CC00,1,1477451818054569,1477451818054569,1,3.25,13312,-34.5,865.7,4.135612
40000000000000000000CC00,1,1477451818061447,1477451818061447,1,0.8125,13312,-34.5,865.7,4.141748
40000000000000000000CC00,1,1477451818068469,1477451818068469,1,-0.8125,13312,-34.5,865.7,4.135612
40000000000000000000CC00,1,1477451818075412,1477451818075412,1,2.4375,13312,-34.5,865.7,4.1172047
40000000000000000000CC00,1,1477451818082404,1477451818082404,1,-0.8125,13312,-34.5,865.7,4.104933
40000000000000000000CC00,1,1477451818089683,1477451818089683,1,5.6875,13312,-34.5,865.7,4.080389
40000000000000000000CC00,1,1477451818096599,1477451818096599,1,1.625,13312,-35.0,865.7,4.068117
40000000000000000000CC00,1,1477451818103299,1477451818103299,1,-1.625,13312,-34.5,865.7,4.098797
40000000000000000000CC00,1,1477451818110245,1477451818110245,1,5.6875,13312,-34.5,865.7,4.061981
40000000000000000000CC00,1,1477451818118669,1477451818118669,1,3.25,13312,-34.5,865.7,4.0558453
40000000000000000000CC00,1,1477451818125611,1477451818125611,1,0.8125,13312,-35.0,865.7,4.061981
40000000000000000000CC00,1,1477451818132371,1477451818132371,1,3.25,13312,-34.5,865.7,4.0251656
40000000000000000000CC00,1,1477451818139583,1477451818139583,1,-0.8125,13312,-35.0,865.7,4.0313015
40000000000000000000CC00,1,1477451818146550,1477451818146550,1,-2.4375,13312,-35.0,865.7,4.0190296
40000000000000000000CC00,1,1477451818153266,1477451818153266,1,1.625,13312,-35.0,865.7,3.9760783
40000000000000000000CC00,1,1477451818160196,1477451818160196,1,2.4375,13312,-35.5,865.7,3.9699423
40000000000000000000CC00,1,1477451818170460,1477451818170460,1,3.25,13312,-35.0,865.7,3.9392626
40000000000000000000CC00,1,1477451818177415,1477451818177415,1,4.875,13312,-35.0,865.7,3.9331267
40000000000000000000CC00,1,1477451818184409,1477451818184409,1,2.4375,13312,-35.0,865.7,3.9269907
40000000000000000000CC00,1,1477451818191100,1477451818191100,1,1.625,13312,-35.5,865.7,3.9392626
40000000000000000000CC00,1,1477451818198290,1477451818198290,1,4.875,13312,-35.5,865.7,3.9024472
40000000000000000000CC00,1,1477451818204939,1477451818204939,1,0.8125,13312,-35.5,865.7,3.9208548
40000000000000000000CC00,1,1477451818212110,1477451818212110,1,3.25,13312,-35.0,865.7,3.9024472
40000000000000000000CC00,1,1477451818219101,1477451818219101,1,3.25,13312,-35.5,865.7,3.8901753
40000000000000000000CC00,1,1477451818225782,1477451818225782,1,0.8125,13312,-35.5,865.7,3.9024472
40000000000000000000CC00,1,1477451818232756,1477451818232756,1,-0.8125,13312,-35.5,865.7,3.8901753
40000000000000000000CC00,1,1477451818239692,1477451818239692,1,-0.8125,13312,-35.5,865.7,3.8963113
40000000000000000000CC00,1,1477451818248442,1477451818248442,1,-0.8125,13312,-35.5,865.7,3.8840394
40000000000000000000CC00,1,1477451818255152,1477451818255152,1,-0.8125,13312,-35.5,865.7,3.8840394
40000000000000000000CC00,1,1477451818262166,1477451818262166,1,-2.4375,13312,-35.5,865.7,3.8656316
40000000000000000000CC00,1,1477451818269142,1477451818269142,1,4.875,13312,-35.5,865.7,3.8349519
40000000000000000000CC00,1,1477451818276326,1477451818276326,1,3.25,13312,-35.0,865.7,3.828816
40000000000000000000CC00,1,1477451818283047,1477451818283047,1,3.25,13312,-35.5,865.7,3.8226802
40000000000000000000CC00,1,1477451818290004,1477451818290004,1,8.9375,13312,-35.5,865.7,3.7735927
40000000000000000000CC00,1,1477451818297199,1477451818297199,1,0.8125,13312,-35.0,865.7,3.8104084
40000000000000000000CC00,1,1477451818303896,1477451818303896,1,5.6875,13312,-35.5,865.7,3.7797287
40000000000000000000CC00,1,1477451818311110,1477451818311110,1,0.8125,13312,-35.0,865.7,3.8165443
40000000000000000000CC00,1,1477451818317804,1477451818317804,1,6.5,13312,-35.5,865.7,3.7674568
40000000000000000000CC00,1,1477451818325108,1477451818325108,1,3.25,13312,-35.0,865.7,3.7797287
40000000000000000000CC00,1,1477451818331822,1477451818331822,1,0.0,13312,-35.0,865.7,3.7735927
40000000000000000000CC00,1,1477451818339058,1477451818339058,1,6.5,13312,-35.5,865.7,3.749049
40000000000000000000CC00,1,1477451818345988,1477451818345988,1,2.4375,13312,-35.5,865.7,3.742913
40000000000000000000CC00,1,1477451818353017,1477451818353017,1,5.6875,13312,-35.5,865.7,3.7245054
40000000000000000000CC00,1,1477451818359718,1477451818359718,1,6.5,13312,-35.0,865.7,3.742913
40000000000000000000CC00,1,1477451818366671,1477451818366671,1,3.25,13312,-35.0,865.7,3.7122335
40000000000000000000CC00,1,1477451818373856,1477451818373856,1,0.8125,13312,-35.5,865.7,3.7183695
40000000000000000000CC00,1,1477451818380860,1477451818380860,1,7.3125,13312,-35.0,865.7,3.6815538
40000000000000000000CC00,1,1477451818387789,1477451818387789,1,4.875,13312,-35.0,865.7,3.6938257
40000000000000000000CC00,1,1477451818394515,1477451818394515,1,8.9375,13312,-35.5,865.7,3.6508744
40000000000000000000CC00,1,1477451818401699,1477451818401699,1,2.4375,13312,-35.0,865.7,3.669282
40000000000000000000CC00,1,1477451818408381,1477451818408381,1,4.875,13312,-35.5,865.7,3.6386025
40000000000000000000CC00,1,1477451818416919,1477451818416919,1,8.125,13312,-35.5,865.7,3.595651
40000000000000000000CC00,1,1477451818423977,1477451818423977,1,0.8125,13312,-35.5,865.7,3.6263306
40000000000000000000CC00,1,1477451818431221,1477451818431221,1,3.25,13312,-35.5,865.7,3.595651
40000000000000000000CC00,1,1477451818437905,1477451818437905,1,0.8125,13312,-35.5,865.7,3.595651
40000000000000000000CC00,1,1477451818444877,1477451818444877,1,6.5,13312,-35.5,865.7,3.5404277
40000000000000000000CC00,1,1477451818451844,1477451818451844,1,2.4375,13312,-35.5,865.7,3.5465636
40000000000000000000CC00,1,1477451818458783,1477451818458783,1,7.3125,13312,-35.5,865.7,3.515884
40000000000000000000CC00,1,1477451818466007,1477451818466007,1,3.25,13312,-35.5,865.7,3.509748
40000000000000000000CC00,1,1477451818472732,1477451818472732,1,5.6875,13312,-35.5,865.7,3.503612
40000000000000000000CC00,1,1477451818479620,1477451818479620,1,4.875,13312,-36.0,865.7,3.4729326
40000000000000000000CC00,1,1477451818486858,1477451818486858,1,4.875,13312,-35.5,865.7,3.4790685
40000000000000000000CC00,1,1477451818493797,1477451818493797,1,3.25,13312,-36.0,865.7,3.4852045
40000000000000000000CC00,1,1477451818500738,1477451818500738,1,3.25,13312,-36.0,865.7,3.4606607
40000000000000000000CC00,1,1477451818507702,1477451818507702,1,5.6875,13312,-36.0,865.7,3.4606607
40000000000000000000CC00,1,1477451818514599,1477451818514599,1,6.5,13312,-35.5,865.7,3.4483888
40000000000000000000CC00,1,1477451818521547,1477451818521547,1,5.6875,13312,-36.0,865.7,3.4545248
40000000000000000000CC00,1,1477451818528279,1477451818528279,1,7.3125,13312,-35.5,865.7,3.4422529
40000000000000000000CC00,1,1477451818535584,1477451818535584,1,-0.8125,13312,-36.0,865.7,3.4790685
40000000000000000000CC00,1,1477451818542553,1477451818542553,1,3.25,13312,-35.5,865.7,3.4483888
40000000000000000000CC00,1,1477451818549538,1477451818549538,1,6.5,13312,-36.0,865.7,3.423845
40000000000000000000CC00,1,1477451818556465,1477451818556465,1,4.875,13312,-36.0,865.7,3.4483888
40000000000000000000CC00,1,1477451818563450,1477451818563450,1,6.5,13312,-36.0,865.7,3.436117
40000000000000000000CC00,1,1477451818570346,1477451818570346,1,6.5,13312,-35.5,865.7,3.423845
40000000000000000000CC00,1,1477451818577249,1477451818577249,1,0.8125,13312,-35.5,865.7,3.4483888
40000000000000000000CC00,1,1477451818584179,1477451818584179,1,4.875,13312,-36.0,865.7,3.429981
40000000000000000000CC00,1,1477451818590832,1477451818590832,1,2.4375,13312,-36.0,865.7,3.436117
40000000000000000000CC00,1,1477451818597745,1477451818597745,1,3.25,13312,-36.0,865.7,3.4115732
40000000000000000000CC00,1,1477451818604696,1477451818604696,1,3.25,13312,-36.0,865.7,3.4115732
40000000000000000000CC00,1,1477451818611869,1477451818611869,1,5.6875,13312,-36.0,865.7,3.4115732
40000000000000000000CC00,1,1477451818618564,1477451818618564,1,3.25,13312,-35.5,865.7,3.423845
40000000000000000000CC00,1,1477451818625821,1477451818625821,1,6.5,13312,-36.0,865.7,3.4115732
40000000000000000000CC00,1,1477451818632619,1477451818632619,1,7.3125,13312,-35.5,865.7,3.3870296
40000000000000000000CC00,1,1477451818639651,1477451818639651,1,8.125,13312,-36.0,865.7,3.4054372
40000000000000000000CC00,1,1477451818646603,1477451818646603,1,6.5,13312,-36.0,865.7,3.4054372
40000000000000000000CC00,1,1477451818653539,1477451818653539,1,5.6875,13312,-36.0,865.7,3.4054372
40000000000000000000CC00,1,1477451818660476,1477451818660476,1,3.25,13312,-35.5,865.7,3.417709
40000000000000000000CC00,1,1477451818667433,1477451818667433,1,3.25,13312,-36.0,865.7,3.417709
40000000000000000000CC00,1,1477451818674444,1477451818674444,1,1.625,13312,-35.5,865.7,3.423845
40000000000000000000CC00,1,1477451818681417,1477451818681417,1,3.25,13312,-35.5,865.7,3.417709
40000000000000000000CC00,1,1477451818688313,1477451818688313,1,6.5,13312,-35.5,865.7,3.4054372
40000000000000000000CC00,1,1477451818695508,1477451818695508,1,4.875,13312,-36.0,865.7,3.417709
40000000000000000000CC00,1,1477451818702214,1477451818702214,1,4.875,13312,-36.0,865.7,3.417709
40000000000000000000CC00,1,1477451818709381,1477451818709381,1,4.875,13312,-36.0,865.7,3.3870296
40000000000000000000CC00,1,1477451818716329,1477451818716329,1,2.4375,13312,-36.0,865.7,3.423845
40000000000000000000CC00,1,1477451818723044,1477451818723044,1,3.25,13312,-36.0,865.7,3.3870296
40000000000000000000CC00,1,1477451818730009,1477451818730009,1,6.5,13312,-36.0,865.7,3.3931656
40000000000000000000CC00,1,1477451818736890,1477451818736890,1,-2.4375,13312,-35.5,865.7,3.436117
40000000000000000000CC00,1,1477451818743883,1477451818743883,1,2.4375,13312,-35.5,865.7,3.3931656
40000000000000000000CC00,1,1477451818751053,1477451818751053,1,6.5,13312,-35.5,865.7,3.3747578
40000000000000000000CC00,1,1477451818757772,1477451818757772,1,4.875,13312,-35.5,865.7,3.3747578
40000000000000000000CC00,1,1477451818764904,1477451818764904,1,0.8125,13312,-36.0,865.7,3.3931656
40000000000000000000CC00,1,1477451818771822,1477451818771822,1,3.25,13312,-35.5,865.7,3.3931656
40000000000000000000CC00,1,1477451818778761,1477451818778761,1,4.875,13312,-36.0,865.7,3.3747578
40000000000000000000CC00,1,1477451818785452,1477451818785452,1,5.6875,13312,-35.5,865.7,3.3870296
40000000000000000000CC00,1,1477451818792673,1477451818792673,1,5.6875,13312,-36.0,865.7,3.3686218
40000000000000000000CC00,1,1477451818799641,1477451818799641,1,5.6875,13312,-36.0,865.7,3.362486
40000000000000000000CC00,1,1477451818806338,1477451818806338,1,5.6875,13312,-36.0,865.7,3.362486
40000000000000000000CC00,1,1477451818813639,1477451818813639,1,5.6875,13312,-36.0,865.7,3.3686218
40000000000000000000CC00,1,1477451818820584,1477451818820584,1,8.125,13312,-35.5,865.7,3.362486
40000000000000000000CC00,1,1477451818827285,1477451818827285,1,-1.625,13312,-36.0,865.7,3.4115732
40000000000000000000CC00,1,1477451818834464,1477451818834464,1,8.9375,13312,-36.0,865.7,3.350214
40000000000000000000CC00,1,1477451818842769,1477451818842769,1,3.25,13312,-35.5,865.7,3.3747578
40000000000000000000CC00,1,1477451818850079,1477451818850079,1,5.6875,13312,-36.0,865.7,3.362486
40000000000000000000CC00,1,1477451818857019,1477451818857019,1,5.6875,13312,-36.0,865.7,3.35635
40000000000000000000CC00,1,1477451818863915,1477451818863915,1,3.25,13312,-36.0,865.7,3.3686218
40000000000000000000CC00,1,1477451818870853,1477451818870853,1,1.625,13312,-36.0,865.7,3.3870296
40000000000000000000CC00,1,1477451818877778,1477451818877778,1,2.4375,13312,-36.0,865.7,3.3686218
40000000000000000000CC00,1,1477451818884477,1477451818884477,1,1.625,13312,-36.0,865.7,3.35635
40000000000000000000CC00,1,1477451818891413,1477451818891413,1,7.3125,13312,-36.5,865.7,3.3195345
40000000000000000000CC00,1,1477451818898606,1477451818898606,1,8.9375,13312,-36.0,865.7,3.3195345
40000000000000000000CC00,1,1477451818905331,1477451818905331,1,3.25,13312,-36.0,865.7,3.350214
40000000000000000000CC00,1,1477451818912537,1477451818912537,1,6.5,13312,-36.0,865.7,3.3318062
40000000000000000000CC00,1,1477451818919521,1477451818919521,1,4.875,13312,-36.0,865.7,3.344078
40000000000000000000CC00,1,1477451818926508,1477451818926508,1,8.125,13312,-36.0,865.7,3.3256702
40000000000000000000CC00,1,1477451818933280,1477451818933280,1,7.3125,13312,-36.5,865.7,3.3195345
40000000000000000000CC00,1,1477451818940527,1477451818940527,1,4.875,13312,-36.0,865.7,3.3379421
40000000000000000000CC00,1,1477451818947512,1477451818947512,1,0.0,13312,-36.0,865.7,3.362486
40000000000000000000CC00,1,1477451818954327,1477451818954327,1,0.8125,13312,-36.5,865.7,3.3686218
40000000000000000000CC00,1,1477451818961305,1477451818961305,1,4.875,13312,-36.0,865.7,3.350214
40000000000000000000CC00,1,1477451818968447,1477451818968447,1,4.875,13312,-36.5,865.7,3.3256702
40000000000000000000CC00,1,1477451818975152,1477451818975152,1,2.4375,13312,-35.5,865.7,3.35635
40000000000000000000CC00,1,1477451818982125,1477451818982125,1,4.875,13312,-36.0,865.7,3.3256702
40000000000000000000CC00,1,1477451818989333,1477451818989333,1,-0.8125,13312,-36.0,865.7,3.350214
40000000000000000000CC00,1,1477451818996270,1477451818996270,1,8.125,13312,-36.0,865.7,3.3256702
40000000000000000000CC00,1,1477451819002971,1477451819002971,1,3.25,13312,-36.0,865.7,3.350214
40000000000000000000CC00,1,1477451819010132,1477451819010132,1,1.625,13312,-36.0,865.7,3.3379421
40000000000000000000CC00,1,1477451819016880,1477451819016880,1,4.875,13312,-36.0,865.7,3.3318062
40000000000000000000CC00,1,1477451819024127,1477451819024127,1,5.6875,13312,-36.0,865.7,3.3195345
40000000000000000000CC00,1,1477451819030810,1477451819030810,1,5.6875,13312,-36.0,865.7,3.344078
40000000000000000000CC00,1,1477451819038048,1477451819038048,1,0.0,13312,-36.0,865.7,3.362486
40000000000000000000CC00,1,1477451819044988,1477451819044988,1,1.625,13312,-36.0,865.7,3.344078
40000000000000000000CC00,1,1477451819051922,1477451819051922,1,2.4375,13312,-36.0,865.7,3.3379421
40000000000000000000CC00,1,1477451819058618,1477451819058618,1,1.625,13312,-36.5,865.7,3.350214
40000000000000000000CC00,1,1477451819065542,1477451819065542,1,6.5,13312,-36.0,865.7,3.3195345
40000000000000000000CC00,1,1477451819072521,1477451819072521,1,4.875,13312,-36.0,865.7,3.344078
40000000000000000000CC00,1,1477451819079837,1477451819079837,1,6.5,13312,-36.0,865.7,3.344078
40000000000000000000CC00,1,1477451819086575,1477451819086575,1,7.3125,13312,-36.0,865.7,3.3379421
40000000000000000000CC00,1,1477451819093514,1477451819093514,1,2.4375,13312,-35.5,865.7,3.350214
40000000000000000000CC00,1,1477451819100673,1477451819100673,1,0.8125,13312,-35.5,865.7,3.350214
40000000000000000000CC00,1,1477451819108834,1477451819108834,1,6.5,13312,-36.0,865.7,3.3318062
40000000000000000000CC00,1,1477451819115760,1477451819115760,1,1.625,13312,-36.5,865.7,3.35635
40000000000000000000CC00,1,1477451819122831,1477451819122831,1,2.4375,13312,-36.0,865.7,3.350214
40000000000000000000CC00,1,1477451819129725,1477451819129725,1,3.25,13312,-36.0,865.7,3.3379421
40000000000000000000CC00,1,1477451819136974,1477451819136974,1,8.125,13312,-36.0,865.7,3.3318062
40000000000000000000CC00,1,1477451819143643,1477451819143643,1,9.75,13312,-36.0,865.7,3.3133986
40000000000000000000CC00,1,1477451819150585,1477451819150585,1,8.125,13312,-36.0,865.7,3.3133986
40000000000000000000CC00,1,1477451819157512,1477451819157512,1,2.4375,13312,-36.0,865.7,3.344078
40000000000000000000CC00,1,1477451819164524,1477451819164524,1,2.4375,13312,-36.0,865.7,3.344078
40000000000000000000CC00,1,1477451819171693,1477451819171693,1,3.25,13312,-36.0,865.7,3.344078
40000000000000000000CC00,1,1477451819178412,1477451819178412,1,6.5,13312,-36.0,865.7,3.3318062
40000000000000000000CC00,1,1477451819185372,1477451819185372,1,8.125,13312,-36.0,865.7,3.3256702
40000000000000000000CC00,1,1477451819192507,1477451819192507,1,7.3125,13312,-36.0,865.7,3.3256702
40000000000000000000CC00,1,1477451819199235,1477451819199235,1,4.875,13312,-36.0,865.7,3.3379421
40000000000000000000CC00,1,1477451819206475,1477451819206475,1,1.625,13312,-36.0,865.7,3.362486
40000000000000000000CC00,1,1477451819213162,1477451819213162,1,3.25,13312,-36.0,865.7,3.350214
40000000000000000000CC00,1,1477451819220090,1477451819220090,1,10.5625,13312,-36.0,865.7,3.3133986
40000000000000000000CC00,1,1477451819227267,1477451819227267,1,5.6875,13312,-35.5,865.7,3.3318062
40000000000000000000CC00,1,1477451819234001,1477451819234001,1,5.6875,13312,-36.0,865.7,3.3318062
40000000000000000000CC00,1,1477451819241167,1477451819241167,1,4.875,13312,-36.0,865.7,3.344078
40000000000000000000CC00,1,1477451819249567,1477451819249567,1,0.8125,13312,-36.0,865.7,3.35635
40000000000000000000CC00,1,1477451819256475,1477451819256475,1,1.625,13312,-36.0,865.7,3.3686218
40000000000000000000CC00,1,1477451819263234,1477451819263234,1,3.25,13312,-35.5,865.7,3.35635
40000000000000000000CC00,1,1477451819270445,1477451819270445,1,6.5,13312,-36.0,865.7,3.3256702
40000000000000000000CC00,1,1477451819277406,1477451819277406,1,-0.8125,13312,-36.0,865.7,3.3808937
40000000000000000000CC00,1,1477451819284027,1477451819284027,1,6.5,13312,-36.0,865.7,3.3379421
40000000000000000000CC00,1,1477451819291037,1477451819291037,1,2.4375,13312,-36.0,865.7,3.362486
40000000000000000000CC00,1,1477451819297999,1477451819297999,1,3.25,13312,-36.0,865.7,3.35635
40000000000000000000CC00,1,1477451819304950,1477451819304950,1,2.4375,13312,-36.0,865.7,3.3379421
40000000000000000000CC00,1,1477451819311908,1477451819311908,1,8.9375,13312,-35.5,865.7,3.3195345
40000000000000000000CC00,1,1477451819319053,1477451819319053,1,5.6875,13312,-36.0,865.7,3.344078
40000000000000000000CC00,1,1477451819327170,1477451819327170,1,8.125,13312,-36.0,865.7,3.3318062
40000000000000000000CC00,1,1477451819334307,1477451819334307,1,6.5,13312,-36.0,865.7,3.3379421
40000000000000000000CC00,1,1477451819341330,1477451819341330,1,6.5,13312,-36.0,865.7,3.3318062
40000000000000000000CC00,1,1477451819348323,1477451819348323,1,2.4375,13312,-35.5,865.7,3.362486
40000000000000000000CC00,1,1477451819355255,1477451819355255,1,0.8125,13312,-36.0,865.7,3.3747578
40000000000000000000CC00,1,1477451819363243,1477451819363243,1,5.6875,13312,-35.5,865.7,3.3256702
40000000000000000000CC00,1,1477451819371638,1477451819371638,1,2.4375,13312,-36.0,865.7,3.3686218
40000000000000000000CC00,1,1477451819378671,1477451819378671,1,8.125,13312,-35.5,865.7,3.3318062
40000000000000000000CC00,1,1477451819385361,1477451819385361,1,6.5,13312,-35.5,865.7,3.344078
40000000000000000000CC00,1,1477451819392349,1477451819392349,1,2.4375,13312,-36.0,865.7,3.3686218
40000000000000000000CC00,1,1477451819399250,1477451819399250,1,2.4375,13312,-35.5,865.7,3.350214
40000000000000000000CC00,1,1477451819406431,1477451819406431,1,6.5,13312,-36.0,865.7,3.3379421
40000000000000000000CC00,1,1477451819413371,1477451819413371,1,2.4375,13312,-36.0,865.7,3.350214
40000000000000000000CC00,1,1477451819420322,1477451819420322,1,8.9375,13312,-36.0,865.7,3.3256702
40000000000000000000CC00,1,1477451819427020,1477451819427020,1,7.3125,13312,-36.0,865.7,3.3318062
40000000000000000000CC00,1,1477451819434077,1477451819434077,1,8.125,13312,-35.5,865.7,3.344078
40000000000000000000CC00,1,1477451819441071,1477451819441071,1,6.5,13312,-35.5,865.7,3.3318062
40000000000000000000CC00,1,1477451819448001,1477451819448001,1,3.25,13312,-36.0,865.7,3.362486
40000000000000000000CC00,1,1477451819455126,1477451819455126,1,6.5,13312,-35.5,865.7,3.3318062
40000000000000000000CC00,1,1477451819461802,1477451819461802,1,1.625,13312,-35.5,865.7,3.362486
40000000000000000000CC00,1,1477451819468769,1477451819468769,1,3.25,13312,-36.0,865.7,3.344078
40000000000000000000CC00,1,1477451819475720,1477451819475720,1,3.25,13312,-36.0,865.7,3.350214
40000000000000000000CC00,1,1477451819482963,1477451819482963,1,4.875,13312,-36.0,865.7,3.35635
40000000000000000000CC00,1,1477451819489910,1477451819489910,1,8.9375,13312,-36.0,865.7,3.344078
