-41.5,2.82252464970958,4.875
-41.5,2.7857091108003242,8.125
-41.5,2.8532042654672924,-0.8125
-41.5,2.859340188618835,-3.25
-42.0,2.7857091108003242,8.9375
-42.0,2.816388726558037,0.0
-41.5,2.779573187648782,9.75
-41.5,2.8777479580734626,-8.9375
-41.5,2.82252464970958,0.8125
-42.0,2.804116880254952,2.4375
-41.5,2.767301341345697,14.625
-41.5,2.8838838812250054,-5.6875
-41.5,2.8532042654672924,-6.5
-41.5,2.8838838812250054,-8.125
-42.0,2.8102528034064944,0.8125
-42.0,2.761165418194154,8.9375
-42.0,2.82252464970958,2.4375
-41.5,2.761165418194154,13.8125
-41.5,2.9329712664373457,-12.1875
-41.5,2.8532042654672924,-2.4375
-41.5,2.859340188618835,-8.125
-41.5,2.791845033951867,3.25
-42.0,2.736621725587984,14.625
-42.0,2.859340188618835,-7.3125
-41.5,2.8286605728611223,1.625
-42.0,2.8102528034064944,0.8125
-42.0,2.791845033951867,2.4375
-42.0,2.8286605728611223,-1.625
-41.5,2.773437264497239,7.3125
-42.0,2.7857091108003242,6.5
-42.0,2.8654761117703775,-6.5
-41.5,2.84706834231575,-0.8125
-41.5,2.8716120349219203,-10.5625
-42.0,2.7979809571034093,0.0
-42.0,2.7979809571034093,5.6875
-42.0,2.767301341345697,9.75
-41.5,2.8409324191642074,-3.25
-42.0,2.773437264497239,3.25
-42.0,2.773437264497239,6.5
-41.5,2.767301341345697,8.9375
-42.0,2.7979809571034093,2.4375
-41.5,2.8532042654672924,-2.4375
-42.0,2.742757648739526,10.5625
-42.0,2.8409324191642074,-0.8125
-42.0,2.834796496012665,0.8125
-42.0,2.767301341345697,8.125
-41.5,2.779573187648782,5.6875
-42.0,2.7979809571034093,6.5
-42.0,2.8409324191642074,2.4375
-42.0,2.8716120349219203,-4.875
-42.0,2.748893571891069,10.5625
-42.0,2.736621725587984,9.75
-42.0,2.8654761117703775,-1.625
-42.0,2.816388726558037,1.625
-42.5,2.791845033951867,3.25
-42.0,2.791845033951867,-0.8125
-42.0,2.84706834231575,-4.875
-42.0,2.779573187648782,2.4375
-41.5,2.8409324191642074,-4.875
-42.0,2.7857091108003242,6.5
-42.0,2.773437264497239,5.6875
-42.0,2.859340188618835,-2.4375
-42.0,2.736621725587984,14.625
-42.0,2.7120780329818137,15.4375
-42.0,2.767301341345697,6.5
-42.0,2.779573187648782,4.875
-42.0,2.7857091108003242,5.6875
-42.0,2.724349879284899,13.8125
-42.0,2.8286605728611223,-0.8125
-42.0,2.804116880254952,-0.8125
-42.0,2.84706834231575,-3.25
-42.0,2.816388726558037,-4.875
-42.0,2.6998061866787286,17.875
-42.0,2.791845033951867,5.6875
-42.5,2.8102528034064944,-1.625
-42.0,2.8654761117703775,-4.875
-42.0,2.8654761117703775,-8.9375
-42.0,2.761165418194154,10.5625
-42.0,2.7857091108003242,5.6875
-42.0,2.8102528034064944,3.25
-42.0,2.8286605728611223,1.625
-42.5,2.82252464970958,-2.4375
-42.5,2.804116880254952,5.6875
-42.0,2.8532042654672924,-5.6875
-42.0,2.804116880254952,0.0
-41.5,2.8838838812250054,-8.9375
-42.0,2.7979809571034093,-1.625
-42.5,2.8532042654672924,-4.875
-42.0,2.779573187648782,3.25
-42.0,2.7550294950426117,11.375
-42.0,2.791845033951867,6.5
-42.0,2.834796496012665,-2.4375
-42.0,2.804116880254952,0.0
-42.0,2.7550294950426117,7.3125
-42.0,2.779573187648782,1.625
-42.5,2.7857091108003242,-3.25
-42.5,2.6813984172241008,10.5625
-42.5,2.8102528034064944,-1.625
-42.5,2.816388726558037,-7.3125
-42.5,2.705942109830271,7.3125
-42.5,2.804116880254952,-7.3125
-42.5,2.779573187648782,-6.5
-42.5,2.6875343403756435,9.75
-42.5,2.662990647769473,15.4375
-43.0,2.7120780329818137,0.8125
-42.5,2.6875343403756435,5.6875
-42.5,2.730485802436441,-3.25
-42.5,2.705942109830271,4.875
-42.5,2.6445828783148455,12.1875
-42.5,2.748893571891069,-4.875
-42.5,2.718213956133356,-3.25
-42.5,2.6875343403756435,4.875
-42.5,2.779573187648782,-8.125
-42.0,2.748893571891069,-4.875
-42.0,2.730485802436441,2.4375
-42.5,2.6998061866787286,4.875
-42.5,2.804116880254952,-9.75
-42.5,2.6998061866787286,7.3125
-42.5,2.7120780329818137,3.25
-42.5,2.705942109830271,4.875
-42.5,2.718213956133356,4.875
-42.5,2.675262494072558,9.75
-42.0,2.7979809571034093,-6.5
-42.5,2.705942109830271,4.875
-42.0,2.724349879284899,4.875
-42.5,2.736621725587984,-2.4375
-43.0,2.6813984172241008,10.5625
-43.0,2.730485802436441,1.625
-42.5,2.8409324191642074,-15.4375
-42.0,2.804116880254952,-3.25
-42.5,2.8102528034064944,-3.25
-42.5,2.767301341345697,0.8125
-42.5,2.693670263527186,15.4375
-42.0,2.82252464970958,-5.6875
-42.5,2.791845033951867,1.625
-42.5,2.730485802436441,5.6875
-42.5,2.761165418194154,-1.625
-42.5,2.748893571891069,0.0
-42.5,2.8654761117703775,-17.0625
-42.0,2.816388726558037,-5.6875
-42.5,2.736621725587984,6.5
-42.5,2.773437264497239,0.0
-42.0,2.742757648739526,8.125
-43.0,2.791845033951867,-5.6875
-42.5,2.742757648739526,5.6875
-42.5,2.8409324191642074,-6.5
-42.5,2.791845033951867,-3.25
-42.5,2.804116880254952,-0.8125
-42.5,2.816388726558037,-4.875
-43.0,2.82252464970958,-5.6875
-42.5,2.736621725587984,11.375
-42.5,2.859340188618835,-8.125
-42.5,2.7979809571034093,-4.875
-42.5,2.8286605728611223,-7.3125
-42.5,2.8716120349219203,-8.125
-42.5,2.890019804376548,-12.1875
-42.5,2.8286605728611223,-11.375
-42.5,2.748893571891069,3.25
-43.0,2.84706834231575,-7.3125
-42.5,2.7550294950426117,10.5625
-43.0,2.736621725587984,13.8125
-42.5,2.7857091108003242,4.875
-43.0,2.8777479580734626,-5.6875
-43.0,2.742757648739526,10.5625
-42.5,2.8409324191642074,-9.75
-42.5,2.816388726558037,-6.5
-43.0,2.816388726558037,1.625
-42.5,2.791845033951867,-0.8125
-42.5,2.8286605728611223,-3.25
-42.0,2.779573187648782,3.25
-42.5,2.82252464970958,0.8125
-42.5,2.748893571891069,8.125
-42.5,2.779573187648782,10.5625
-42.5,2.9206994201342606,-9.75
-43.0,2.804116880254952,2.4375
-42.5,2.82252464970958,0.0
-43.0,2.816388726558037,4.875
-42.5,2.8654761117703775,-3.25
-43.0,2.8409324191642074,-0.8125
-43.0,2.804116880254952,6.5
-42.5,2.8409324191642074,3.25
-43.0,2.7550294950426117,17.0625
-42.5,2.84706834231575,-1.625
-42.5,2.84706834231575,2.4375
-43.0,2.773437264497239,10.5625
-42.5,2.8286605728611223,5.6875
-43.0,2.7550294950426117,16.25
-42.5,2.8777479580734626,-7.3125
-42.5,2.84706834231575,0.8125
-42.5,2.9084275738311756,-6.5
-43.0,2.8532042654672924,3.25
-42.5,2.8961557275280905,-8.125
-43.0,2.9022916506796332,-8.9375
-42.5,2.8286605728611223,5.6875
-43.0,2.8286605728611223,6.5
-42.5,2.8654761117703775,0.8125
-42.5,2.890019804376548,0.0
-43.0,2.8777479580734626,0.8125
-43.0,2.9022916506796332,-1.625
-43.0,2.82252464970958,8.125
-43.0,2.8532042654672924,6.5
-43.0,2.8532042654672924,1.625
-42.5,2.9268353432858034,-2.4375
-42.5,2.8777479580734626,-1.625
-43.0,2.859340188618835,7.3125
-42.5,2.8532042654672924,6.5
-42.5,2.9636508821950587,-9.75
-42.5,2.8838838812250054,-2.4375
-43.0,2.9022916506796332,1.625
-43.0,2.8777479580734626,3.25
-43.0,2.8961557275280905,0.8125
-42.5,2.8961557275280905,3.25
-42.5,2.9697868053466014,-8.125
-43.0,2.9943304979527716,-7.3125
-42.5,2.890019804376548,2.4375
-42.5,2.9145634969827183,6.5
-43.0,2.8409324191642074,13.8125
-43.0,2.9636508821950587,-3.25
-43.0,2.8654761117703775,8.125
-43.0,2.988194574801229,-6.5
-43.0,2.8777479580734626,11.375
-43.0,3.0066023442558567,-5.6875
-42.5,2.9759227284981438,2.4375
-42.5,2.9636508821950587,5.6875
-42.5,3.000466421104314,1.625
-43.0,2.9329712664373457,12.1875
-43.0,3.055689729468197,-7.3125
-43.0,3.0127382674073995,1.625
-43.0,2.9513790358919736,17.0625
-43.0,2.9575149590435164,16.25
-43.0,3.055689729468197,-0.8125
-43.0,3.018874190558942,8.9375
-43.0,3.0802334220743677,0.8125
-43.0,3.000466421104314,14.625
-42.5,3.11091303783208,-4.875
-42.5,3.153864499892878,-7.3125
-43.0,3.1231848841351653,-4.875
-43.0,3.1354567304382504,-0.8125
-42.5,3.067961575771282,8.125
-42.5,3.0925052683774528,4.875
-42.5,3.06182565261974,6.5
-42.5,3.0925052683774528,5.6875
-43.5,3.117048960983623,-2.4375
-43.0,3.0066023442558567,20.3125
-42.5,3.160000423044421,-6.5
-43.0,3.08636934522591,7.3125
-43.0,3.1231848841351653,0.0
-43.0,3.0925052683774528,12.1875
-43.0,3.1906800388021335,-3.25
-43.0,3.11091303783208,5.6875
-43.0,3.1231848841351653,8.9375
-43.0,3.08636934522591,15.4375
-43.0,3.153864499892878,8.9375
-42.5,3.2459033471660166,-6.5
-43.0,3.2520392703175593,-2.4375
-42.5,3.2581751934691017,-4.875
-42.0,3.2643111166206444,-2.4375
-42.5,3.1784081924990484,9.75
-42.5,3.2029518851052186,3.25
-43.0,3.1968159619536762,3.25
-42.5,3.2643111166206444,-1.625
-42.5,3.2520392703175593,0.0
-42.5,3.215223731408304,4.875
-42.5,3.2765829629237295,0.0
-42.5,3.2397674240144743,1.625
-42.5,3.2704470397721868,-1.625
-42.5,3.2581751934691017,1.625
-42.5,3.227495577711389,9.75
-42.0,3.2643111166206444,3.25
-43.0,3.2520392703175593,0.8125
-42.5,3.2581751934691017,3.25
-43.0,3.2336315008629315,6.5
-42.5,3.32567034813607,-1.625
-42.5,3.2888548092268146,1.625
-42.5,3.313398501832985,2.4375
-42.5,3.3072625786814425,-1.625
-43.0,3.3440781175906977,-2.4375
-42.5,3.3195344249845276,0.8125
-42.5,3.3440781175906977,-1.625
-42.5,3.3440781175906977,0.8125
-43.0,3.32567034813607,-0.8125
-42.5,3.3502140407422405,0.0
-42.5,3.3624858870453256,-6.5
-42.5,3.3072625786814425,8.125
-42.5,3.3379421944391554,2.4375
-42.0,3.399301425954581,-1.625
-42.0,3.356349963893783,0.8125
-42.5,3.32567034813607,8.125
-42.0,3.3870295796514958,-0.8125
-42.5,3.356349963893783,2.4375
-42.5,3.356349963893783,11.375
-42.5,3.3747577333484107,3.25
-42.5,3.3870295796514958,4.875
-42.5,3.411573272257666,0.0
-42.5,3.4177091954092087,-0.8125
-42.5,3.4606606574700063,-2.4375
-42.0,3.4177091954092087,6.5
-42.5,3.399301425954581,8.125
-42.0,3.472932503773092,-3.25
-42.5,3.4606606574700063,1.625
-42.5,3.485204350076177,-2.4375
-42.0,3.423845118560751,8.125
-42.0,3.454524734318464,6.5
-42.5,3.5342917352885173,-6.5
-42.5,3.466796580621549,8.125
-41.5,3.5342917352885173,0.0
-42.0,3.5158839658338894,1.625
-42.5,3.4913402732277192,6.5
-42.5,3.56497135104623,-2.4375
-42.0,3.5711072741977725,-0.8125
-42.0,3.5158839658338894,9.75
-42.0,3.5588354278946874,2.4375
-42.5,3.5465635815916023,6.5
-42.0,3.6140587362585705,2.4375
-42.5,3.552699504743145,6.5
-42.5,3.5956509668039427,6.5
-42.0,3.650874275167826,0.8125
-42.5,3.5956509668039427,7.3125
-43.0,3.6447383520162835,4.875
-42.5,3.6815538909255388,-0.8125
-42.5,3.6692820446224537,6.5
-42.5,3.663146121470911,5.6875
-43.0,3.6876898140770815,5.6875
-43.0,3.693825737228624,6.5
-43.0,3.6999616603801666,8.9375
-42.5,3.730641276137879,4.875
-43.0,3.834951969714103,-5.6875
-42.5,3.8410878928656453,-4.875
-43.0,3.810408277107933,0.8125
-43.0,3.792000507653305,8.125
-42.5,3.859495662320273,2.4375
-43.0,3.8717675086233583,-0.8125
-43.0,3.8288160465625602,8.125
-43.5,3.9208548938356986,-0.8125
-43.5,3.9208548938356986,0.8125
-43.5,3.9208548938356986,4.875
-43.0,3.9392626632903265,2.4375
-43.5,3.9515345095934116,4.875
-43.0,3.9638063558964967,5.6875
-43.0,3.9576704327449543,0.8125
-43.5,3.9392626632903265,8.9375
-43.5,3.9699422790480394,8.125
-43.0,3.9944859716542096,3.25
-43.5,4.031301510563465,0.8125
-43.5,4.006757817957295,3.25
-43.5,4.074252972624263,-7.3125
-43.5,4.086524818927348,-7.3125
-43.5,4.031301510563465,0.0
-43.5,4.049709280018092,2.4375
-43.5,4.06811704947272,-3.25
-43.5,4.09266074207889,-4.875
-43.5,4.000621894805752,9.75
-43.5,4.111068511533518,-8.125
-43.5,4.04357335686655,5.6875
-43.0,4.037437433715008,5.6875
-43.0,4.080388895775806,4.875
-43.5,4.080388895775806,-1.625
-43.5,4.06811704947272,10.5625
-43.5,4.074252972624263,0.0
-43.5,4.09266074207889,4.875
-43.5,4.074252972624263,8.125
-43.5,4.172427743048944,-7.3125
-43.5,4.154019973594316,-2.4375
-43.5,4.111068511533518,7.3125
-43.5,4.135612204139688,7.3125
-43.0,4.172427743048944,-0.8125
-43.0,4.1601558967458585,2.4375
-42.5,4.147884050442774,3.25
-43.0,4.172427743048944,8.125
-43.0,4.221515128261284,0.0
-43.5,4.221515128261284,2.4375
-43.5,4.227651051412827,-1.625
-43.0,4.239922897715912,-1.625
-43.5,4.2092432819582,9.75
-43.5,4.2092432819582,3.25
-43.5,4.295146206079795,-6.5
-43.5,4.270602513473625,0.0
-43.5,4.252194744018997,6.5
-44.0,4.25833066717054,1.625
-43.0,4.227651051412827,8.9375
-43.5,4.362641360746763,-7.3125
-43.0,4.3503695144436785,-10.5625
-43.5,4.325825821837508,0.8125
-43.0,4.301282129231338,1.625
-43.5,4.301282129231338,6.5
-43.0,4.374913207049849,-4.875
-43.5,4.362641360746763,-4.875
-43.0,4.331961744989051,4.875
-43.0,4.344233591292136,7.3125
-44.0,4.3933209765044765,0.0
-43.0,4.356505437595221,1.625
-43.5,4.362641360746763,5.6875
-43.0,4.430136515413731,-5.6875
-44.0,4.374913207049849,7.3125
-44.0,4.424000592262189,-1.625
-44.0,4.430136515413731,0.8125
-43.5,4.405592822807561,8.125
-44.0,4.528311285838413,-12.1875
-43.5,4.411728745959104,8.9375
-44.0,4.442408361716817,0.8125
-44.0,4.417864669110647,4.875
-44.5,4.454680208019902,-1.625
-43.5,4.491495746929157,-8.125
-43.5,4.4362724385652745,4.875
-44.0,4.473087977474529,-0.8125
-44.5,4.546719055293041,-5.6875
-44.5,4.491495746929157,3.25
-43.5,4.430136515413731,16.25
-43.5,4.485359823777615,8.125
-44.5,4.552854978444583,-5.6875
-44.5,4.534447208989955,-2.4375
-43.5,4.546719055293041,-4.875
-44.0,4.417864669110647,13.8125
-44.5,4.546719055293041,2.4375
-44.0,4.528311285838413,5.6875
-44.5,4.4976316700806995,13.8125
-44.0,4.485359823777615,12.1875
-44.5,4.583534594202296,-3.25
-44.0,4.522175362686871,10.5625
-44.5,4.540583132141498,7.3125
-44.5,4.583534594202296,0.0
-45.0,4.565126824747668,8.9375
-45.0,4.601942363656923,5.6875
-44.5,4.632621979414636,-1.625
-44.0,4.595806440505381,3.25
-45.0,4.632621979414636,-1.625
-45.0,4.614214209960009,0.0
-45.0,4.632621979414636,-0.8125
-44.5,4.565126824747668,14.625
-44.5,4.589670517353839,8.125
-44.5,4.663301595172349,-4.875
-44.5,4.595806440505381,9.75
-44.5,4.632621979414636,7.3125
-44.5,4.565126824747668,14.625
-44.5,4.724660826687775,-8.125
-45.0,4.626486056263094,8.9375
-45.0,4.651029748869264,2.4375
-45.0,4.657165672020807,9.75
-45.0,4.792155981354743,-9.75
-45.0,4.657165672020807,14.625
-45.0,4.71238898038469,6.5
-45.0,4.693981210930062,4.875
-44.5,4.6878452877785195,8.125
-44.5,4.651029748869264,14.625
-44.5,4.6878452877785195,19.5
-45.0,4.724660826687775,7.3125
-45.0,4.6878452877785195,14.625
-45.0,4.743068596142402,9.75
-44.5,4.859651136021712,-10.5625
-45.0,4.767612288748572,5.6875
-44.5,4.724660826687775,15.4375
-44.5,4.81056375080937,0.8125
-45.0,4.8351074434155406,0.0
-45.0,4.798291904506286,8.125
-44.5,4.76147636559703,10.5625
-45.5,4.896466674930966,-6.5
-45.5,4.902602598082509,-6.5
-45.0,4.859651136021712,-3.25
-45.0,4.816699673960914,7.3125
-45.0,4.859651136021712,-2.4375
-45.0,4.8351074434155406,7.3125
-45.5,4.792155981354743,8.125
-45.5,4.859651136021712,1.625
-45.5,4.878058905476339,0.8125
-45.0,4.865787059173254,-1.625
-45.5,4.792155981354743,19.5
-45.0,4.841243366567084,10.5625
-45.0,4.884194828627882,6.5
-44.5,4.81056375080937,18.6875
-45.0,4.902602598082509,4.875
-45.0,4.97623367590102,0.8125
-44.5,4.884194828627882,13.8125
-44.5,5.006913291658733,0.8125
-45.0,4.945554060143307,13.8125
-44.5,5.019185137961818,-1.625
-44.5,5.006913291658733,9.75
-44.5,5.190990986205009,-17.875
-44.5,5.098952138931871,-4.875
-44.0,5.123495831538041,1.625
-44.5,5.178719139901925,-5.6875
-44.0,5.197126909356553,-8.125
-43.5,5.0682725231741586,12.1875
-44.0,5.190990986205009,-1.625
-44.0,5.160311370447297,0.8125
-43.0,5.117359908386499,12.1875
-43.5,5.368932757599744,-17.875
-43.5,5.21553467881118,11.375
-43.0,5.338253141842031,-4.875
-42.5,5.313709449235861,1.625
-42.5,5.381204603902829,2.4375
-42.5,5.325981295538946,9.75
-42.5,5.344389064993574,7.3125
-42.5,5.381204603902829,6.5
-42.5,5.442563835418255,2.4375
-42.0,5.553010452146021,-15.4375
-42.0,5.546874528994478,-9.75
-42.0,5.485515297479052,-2.4375
-42.0,5.473243451175968,4.875
-41.5,5.448699758569798,8.9375
-42.0,5.393476450205914,17.0625
-41.5,5.565282298449106,-4.875
-42.0,5.5284667595398505,1.625
-41.5,5.460971604872882,4.875
-41.5,5.620505606812989,-15.4375
-41.5,5.522330836388308,0.0
-41.0,5.589825991055276,-5.6875
-41.0,5.534602682691394,0.0
-41.5,5.522330836388308,2.4375
-41.0,5.5284667595398505,4.875
-41.0,5.589825991055276,-7.3125
-41.0,5.4671075280244255,9.75
-41.0,5.534602682691394,2.4375
-41.0,5.565282298449106,-2.4375
-41.0,5.540738605842936,-0.8125
-40.5,5.602097837358362,-9.75
-40.5,5.50392306693368,8.125
-40.5,5.546874528994478,-0.8125
-40.5,5.5100589900852235,6.5
-40.0,5.577554144752192,-9.75
-40.0,5.553010452146021,-6.5
-39.5,5.45483568172134,1.625
-40.0,5.4671075280244255,-3.25
-39.5,5.393476450205914,10.5625
-39.5,5.45483568172134,-2.4375
-39.0,5.344389064993574,8.9375
-39.0,5.387340527054372,3.25
-38.5,5.332117218690489,7.3125
-39.0,5.387340527054372,0.8125
-38.5,5.289165756629691,13.8125
-39.0,5.375068680751287,4.875
-39.0,5.301437602932776,10.5625
-38.5,5.313709449235861,7.3125
-38.5,5.368932757599744,5.6875
-38.5,5.313709449235861,8.125
-38.5,5.3198453723874035,9.75
-38.0,5.356660911296659,0.0
-38.0,5.325981295538946,1.625
-38.0,5.2768939103266055,13.8125
-38.5,5.2768939103266055,8.9375
-38.5,5.313709449235861,7.3125
-38.5,5.344389064993574,2.4375
-36.0,4.988505522204105,-0.8125
-36.0,4.921010367537137,8.125
-36.0,5.00077736850719,-5.6875
-36.0,4.95168998329485,-2.4375
-36.0,4.871922982324796,6.5
-35.5,4.896466674930966,2.4375
-36.0,4.896466674930966,0.0
-35.5,4.841243366567084,7.3125
-36.0,4.847379289718626,7.3125
-35.5,4.896466674930966,-2.4375
-36.0,4.8351074434155406,5.6875
-35.5,4.865787059173254,-0.8125
-36.0,4.7860200582032,8.9375
-36.0,4.798291904506286,7.3125
-36.0,4.841243366567084,0.8125
-36.0,4.804427827657828,6.5
-35.5,4.779884135051658,5.6875
-35.5,4.822835597112456,-1.625
-36.0,4.767612288748572,4.875
-36.0,4.7860200582032,0.8125
-35.5,4.73693267299086,5.6875
-36.0,4.718524903536232,4.875
-35.5,4.743068596142402,-0.8125
-35.5,4.675573441475434,8.125
-35.5,4.706253057233147,0.8125
-36.0,4.657165672020807,7.3125
-35.0,4.6448938257177215,6.5
-35.5,4.681709364626977,-0.8125
-35.5,4.663301595172349,-0.8125
-35.0,4.632621979414636,0.8125
-35.5,4.638757902566179,4.875
-35.5,4.626486056263094,0.8125
-35.5,4.638757902566179,-6.5
-35.0,4.589670517353839,0.8125
-35.0,4.552854978444583,0.8125
-35.0,4.540583132141498,-1.625
-34.5,4.516039439535327,-0.8125
-34.5,4.479223900626073,-4.875
-34.5,4.3933209765044765,8.125
-34.5,4.387185053352934,-0.8125
-34.5,4.3074180523828804,1.625
-34.5,4.239922897715912,8.125
-34.5,4.227651051412827,3.25
-34.5,4.2092432819582,4.875
-34.5,4.2092432819582,0.8125
-34.5,4.2031073588066565,6.5
-34.0,4.2031073588066565,4.875
-34.5,4.166291819897402,6.5
-34.0,4.178563666200486,1.625
-34.5,4.1601558967458585,7.3125
-34.5,4.166291819897402,5.6875
-35.0,4.135612204139688,5.6875
-34.5,4.154019973594316,3.25
-34.0,4.1417481272912315,1.625
-34.5,4.1417481272912315,0.0
-34.5,4.135612204139688,3.25
-34.5,4.1417481272912315,0.8125
-34.5,4.135612204139688,-0.8125
-34.5,4.1172044346850605,2.4375
-34.5,4.104932588381976,-0.8125
-34.5,4.080388895775806,5.6875
-35.0,4.06811704947272,1.625
-34.5,4.0987966652304335,-1.625
-34.5,4.061981126321178,5.6875
-34.5,4.0558452031696355,3.25
-35.0,4.061981126321178,0.8125
-34.5,4.025165587411922,3.25
-35.0,4.031301510563465,-0.8125
-35.0,4.01902966426038,-2.4375
-35.0,3.9760782021995817,1.625
-35.5,3.9699422790480394,2.4375
-35.0,3.9392626632903265,3.25
-35.0,3.933126740138784,4.875
-35.0,3.9269908169872414,2.4375
-35.5,3.9392626632903265,1.625
-35.5,3.902447124381071,4.875
-35.5,3.9208548938356986,0.8125
-35.0,3.902447124381071,3.25
-35.5,3.890175278077986,3.25
-35.5,3.902447124381071,0.8125
-35.5,3.890175278077986,-0.8125
-35.5,3.8963112012295285,-0.8125
-35.5,3.8840393549264434,-0.8125
-35.5,3.8840393549264434,-0.8125
-35.5,3.865631585471816,-2.4375
-35.5,3.834951969714103,4.875
-35.0,3.8288160465625602,3.25
-35.5,3.822680123411018,3.25
-35.5,3.773592738198677,8.9375
-35.0,3.810408277107933,0.8125
-35.5,3.77972866135022,5.6875
-35.0,3.816544200259475,0.8125
-35.5,3.767456815047135,6.5
-35.0,3.77972866135022,3.25
-35.0,3.773592738198677,0.0
-35.5,3.749049045592507,6.5
-35.5,3.7429131224409646,2.4375
-35.5,3.724505352986337,5.6875
-35.0,3.7429131224409646,6.5
-35.0,3.7122335066832517,3.25
-35.5,3.718369429834794,0.8125
-35.0,3.6815538909255388,7.3125
-35.0,3.693825737228624,4.875
-35.5,3.650874275167826,8.9375
-35.0,3.6692820446224537,2.4375
-35.5,3.6386024288647407,4.875
-35.5,3.5956509668039427,8.125
-35.5,3.6263305825616556,0.8125
-35.5,3.5956509668039427,3.25
-35.5,3.5956509668039427,0.8125
-35.5,3.54042765844006,6.5
-35.5,3.5465635815916023,2.4375
-35.5,3.5158839658338894,7.3125
-35.5,3.509748042682347,3.25
-35.5,3.5036121195308043,5.6875
-36.0,3.472932503773092,4.875
-35.5,3.479068426924634,4.875
-36.0,3.485204350076177,3.25
-36.0,3.4606606574700063,3.25
-36.0,3.4606606574700063,5.6875
-35.5,3.448388811166921,6.5
-36.0,3.454524734318464,5.6875
-35.5,3.442252888015379,7.3125
-36.0,3.479068426924634,-0.8125
-35.5,3.448388811166921,3.25
-36.0,3.423845118560751,6.5
-36.0,3.448388811166921,4.875
-36.0,3.436116964863836,6.5
-35.5,3.423845118560751,6.5
-35.5,3.448388811166921,0.8125
-36.0,3.429981041712294,4.875
-36.0,3.436116964863836,2.4375
-36.0,3.411573272257666,3.25
-36.0,3.411573272257666,3.25
-36.0,3.411573272257666,5.6875
-35.5,3.423845118560751,3.25
-36.0,3.411573272257666,6.5
-35.5,3.3870295796514958,7.3125
-36.0,3.4054373491061236,8.125
-36.0,3.4054373491061236,6.5
-36.0,3.4054373491061236,5.6875
-35.5,3.4177091954092087,3.25
-36.0,3.4177091954092087,3.25
-35.5,3.423845118560751,1.625
-35.5,3.4177091954092087,3.25
-35.5,3.4054373491061236,6.5
-36.0,3.4177091954092087,4.875
-36.0,3.4177091954092087,4.875
-36.0,3.3870295796514958,4.875
-36.0,3.423845118560751,2.4375
-36.0,3.3870295796514958,3.25
-36.0,3.393165502803038,6.5
-35.5,3.436116964863836,-2.4375
-35.5,3.393165502803038,2.4375
-35.5,3.3747577333484107,6.5
-35.5,3.3747577333484107,4.875
-36.0,3.393165502803038,0.8125
-35.5,3.393165502803038,3.25
-36.0,3.3747577333484107,4.875
-35.5,3.3870295796514958,5.6875
-36.0,3.368621810196868,5.6875
-36.0,3.3624858870453256,5.6875
-36.0,3.3624858870453256,5.6875
-36.0,3.368621810196868,5.6875
-35.5,3.3624858870453256,8.125
-36.0,3.411573272257666,-1.625
-36.0,3.3502140407422405,8.9375
-35.5,3.3747577333484107,3.25
-36.0,3.3624858870453256,5.6875
-36.0,3.356349963893783,5.6875
-36.0,3.368621810196868,3.25
-36.0,3.3870295796514958,1.625
-36.0,3.368621810196868,2.4375
-36.0,3.356349963893783,1.625
-36.5,3.3195344249845276,7.3125
-36.0,3.3195344249845276,8.9375
-36.0,3.3502140407422405,3.25
-36.0,3.3318062712876126,6.5
-36.0,3.3440781175906977,4.875
-36.0,3.32567034813607,8.125
-36.5,3.3195344249845276,7.3125
-36.0,3.3379421944391554,4.875
-36.0,3.3624858870453256,0.0
-36.5,3.368621810196868,0.8125
-36.0,3.3502140407422405,4.875
-36.5,3.32567034813607,4.875
-35.5,3.356349963893783,2.4375
-36.0,3.32567034813607,4.875
-36.0,3.3502140407422405,-0.8125
-36.0,3.32567034813607,8.125
-36.0,3.3502140407422405,3.25
-36.0,3.3379421944391554,1.625
-36.0,3.3318062712876126,4.875
-36.0,3.3195344249845276,5.6875
-36.0,3.3440781175906977,5.6875
-36.0,3.3624858870453256,0.0
-36.0,3.3440781175906977,1.625
-36.0,3.3379421944391554,2.4375
-36.5,3.3502140407422405,1.625
-36.0,3.3195344249845276,6.5
-36.0,3.3440781175906977,4.875
-36.0,3.3440781175906977,6.5
-36.0,3.3379421944391554,7.3125
-35.5,3.3502140407422405,2.4375
-35.5,3.3502140407422405,0.8125
-36.0,3.3318062712876126,6.5
-36.5,3.356349963893783,1.625
-36.0,3.3502140407422405,2.4375
-36.0,3.3379421944391554,3.25
-36.0,3.3318062712876126,8.125
-36.0,3.313398501832985,9.75
-36.0,3.313398501832985,8.125
-36.0,3.3440781175906977,2.4375
-36.0,3.3440781175906977,2.4375
-36.0,3.3440781175906977,3.25
-36.0,3.3318062712876126,6.5
-36.0,3.32567034813607,8.125
-36.0,3.32567034813607,7.3125
-36.0,3.3379421944391554,4.875
-36.0,3.3624858870453256,1.625
-36.0,3.3502140407422405,3.25
-36.0,3.313398501832985,10.5625
-35.5,3.3318062712876126,5.6875
-36.0,3.3318062712876126,5.6875
-36.0,3.3440781175906977,4.875
-36.0,3.356349963893783,0.8125
-36.0,3.368621810196868,1.625
-35.5,3.356349963893783,3.25
-36.0,3.32567034813607,6.5
-36.0,3.380893656499953,-0.8125
-36.0,3.3379421944391554,6.5
-36.0,3.3624858870453256,2.4375
-36.0,3.356349963893783,3.25
-36.0,3.3379421944391554,2.4375
-35.5,3.3195344249845276,8.9375
-36.0,3.3440781175906977,5.6875
-36.0,3.3318062712876126,8.125
-36.0,3.3379421944391554,6.5
-36.0,3.3318062712876126,6.5
-35.5,3.3624858870453256,2.4375
-36.0,3.3747577333484107,0.8125
-35.5,3.32567034813607,5.6875
-36.0,3.368621810196868,2.4375
-35.5,3.3318062712876126,8.125
-35.5,3.3440781175906977,6.5
-36.0,3.368621810196868,2.4375
-35.5,3.3502140407422405,2.4375
-36.0,3.3379421944391554,6.5
-36.0,3.3502140407422405,2.4375
-36.0,3.32567034813607,8.9375
-36.0,3.3318062712876126,7.3125
-35.5,3.3440781175906977,8.125
-35.5,3.3318062712876126,6.5
-36.0,3.3624858870453256,3.25
-35.5,3.3318062712876126,6.5
-35.5,3.3624858870453256,1.625
-36.0,3.3440781175906977,3.25
-36.0,3.3502140407422405,3.25
-36.0,3.356349963893783,4.875
-36.0,3.3440781175906977,8.9375
