-62.0,0.0,0.0
-59.0,-1.5094370952794707,-0.0625
-56.0,2.6445828783148455,0.1875
-58.5,-0.570640853093459,-0.25
-59.0,0.2638446955163305,-0.5625
-61.0,-0.5215534678811178,0.375
-62.0,0.08590292412159606,0.5625
-59.0,-0.3006602344255862,0.0
-62.5,-3.7122335066832512,-0.125
-63.0,0.0,-0.125
-60.0,0.024543692606170286,0.25
-62.0,-0.4295146206079795,-0.4375
-60.5,0.0,-0.8125
-56.0,-0.7853981633974483,-0.0625
-57.5,4.473087977474529,-0.1875
-58.5,-1.9450876390389933,0.9375
-62.5,0.294524311274043,-0.0625
-60.0,0.2577087723647882,0.5625
-60.5,0.0,0.25
-57.0,2.2457478734645786,-0.0625
-58.5,3.6815538909255388,0.25
-55.5,-0.3252039270317564,0.0
-62.0,-4.135612204139688,-0.625
-63.0,0.0,-0.25
-57.0,-0.7363107781851077,0.375
-62.5,3.2029518851052186,-0.8125
-58.5,2.1414371798883556,0.0
-57.5,-5.816855147662352,0.5
-59.5,0.4908738521234052,0.25
-61.5,0.0,0.5625
-60.5,0.24543692606170264,0.1875
-59.0,-4.6878452877785195,0.0
-58.0,5.160311370447297,1.1875
-55.5,-0.38042723539563905,0.125
-60.0,-4.295146206079796,0.5
-55.0,4.2460588208674555,0.875
-59.5,-3.5772431973493153,1.0625
-62.5,0.0,0.25
-55.0,-2.1598449493429825,0.1875
-59.5,2.5832236467994196,-0.25
-58.0,0.0,0.625
-60.0,-0.5092816215780329,0.375
-59.5,4.516039439535327,-0.125
-62.5,0.07976700097005374,0.0
-59.5,-0.24543692606170264,0.0625
-61.5,-5.289165756629691,-0.1875
-56.5,0.0,0.5625
-62.5,-0.15953400194010658,-0.625
-60.5,5.00077736850719,0.25
-60.5,0.0,0.25
-59.0,-1.6566992509164926,0.0625
-58.5,3.761320891895592,-0.5625
-59.5,0.0,0.1875
-55.5,-1.000155473701438,0.0
-63.0,1.8530487917658545,-0.1875
-57.0,2.4359614911623986,2.625
-57.5,-4.657165672020807,0.0
-59.5,5.2768939103266055,-0.0625
-60.0,-4.589670517353838,0.0
-58.5,3.6140587362585705,0.375
-62.0,-0.10431069357622391,-0.0625
-57.5,1.0246991663076086,0.25
-59.5,0.2577087723647873,0.0625
-61.5,-1.4480778637640448,-0.25
-57.5,0.44792239006260726,0.0
-57.0,0.0,0.375
-57.5,-0.5092816215780331,0.25
-61.0,0.3006602344255853,0.375
-59.0,-0.6994952392758522,-0.9375
-60.0,0.05522330836388356,0.9375
-59.5,-0.3558835427894689,-0.0625
-60.0,-2.9022916506796332,0.625
-61.5,-0.3865631585471816,-0.0625
-59.0,-0.6688156235181395,-0.25
-63.5,4.44854428486836,0.25
-55.5,0.0,0.125
-59.5,-5.0437288305679875,-0.0625
-58.0,3.742913122440964,0.1875
-58.0,1.349903093339365,-0.0625
-56.5,-0.6933593161243099,0.0625
-57.0,-5.16644729359884,0.5
-61.5,1.423534171157875,0.8125
-57.5,0.0,-0.0625
-57.5,-3.6324665057131984,-0.125
-57.0,0.018407769454627687,-0.0625
-58.0,0.8774370106705868,-0.375
-57.0,-0.32520392703175593,0.625
-66.0,-0.3742913122440965,0.75
-61.0,-0.14112623248547895,0.1875
-58.0,0.12271846303085132,0.1875
-59.0,5.154175447295755,2.5625
-63.0,0.4970097752749476,0.75
-62.0,0.0,0.8125
-59.0,-4.368777283898305,0.0625
-60.0,4.276738436625168,0.1875
-62.5,-1.2333205534600555,0.8125
-61.5,0.0,-0.1875
-59.0,-5.111223985234957,-0.5
-59.5,0.36815538909255385,0.375
-59.5,4.7921559813547425,-0.8125
-55.5,-4.767612288748573,0.1875
-61.0,-0.337475773334841,0.0625
-63.0,-0.08590292412159584,0.5625
-58.5,-0.3190680038802134,-0.1875
-61.5,5.111223985234956,0.0
-61.0,-3.5649713510462298,1.1875
-62.5,4.080388895775805,1.875
-60.0,0.0,0.1875
-51.5,-0.9817477042468097,1.0625
-57.0,0.0,-0.1875
-63.5,4.779884135051658,0.0
-57.0,-1.0001554737014384,0.9375
-60.0,0.0,0.25
-61.0,-0.18407769454627693,0.625
-54.5,0.9326603190344698,0.1875
-57.5,-0.7669903939428205,-0.1875
-64.5,0.7731263170943631,0.0625
-61.0,-0.7731263170943631,0.1875
-61.5,4.822835597112456,-0.125
-62.0,0.0,-0.375
-59.0,0.20862138715244694,0.0
-57.5,0.018407769454627854,0.375
-58.5,-5.350524988145116,0.375
-57.5,3.80427235395639,0.0625
-60.5,0.3681553890925544,0.1875
-58.0,-3.7490490455925074,0.125
-60.5,-0.760854470791278,-0.5
-64.5,5.0007773685071895,-0.625
-61.0,-1.3437671701878209,0.125
-56.5,-3.497476196379262,-0.25
-58.5,-0.4786020058203201,0.125
-57.5,5.976389149602459,-0.625
-61.0,-0.4233786974564371,0.25
-59.5,0.0,0.4375
-62.0,2.36846633649543,2.5625
-59.5,-2.0493983326152163,0.25
-60.0,3.9147189706841568,-0.5625
-61.5,-2.061670178918302,-0.4375
-62.0,-2.423689644859313,0.1875
-63.0,1.3560390164909066,0.5625
-59.5,3.3379421944391554,0.5625
-54.0,0.0,-0.0625
-56.0,4.221515128261284,-0.1875
-60.0,-5.829126993965437,0.5625
-60.5,2.0923497946760143,0.8125
-57.5,-0.7240389318820226,-1.875
-61.0,4.528311285838413,-0.5625
-61.0,-0.5092816215780331,-0.125
-59.0,-0.6504078540635119,-0.125
-63.5,0.0,-0.125
-62.5,3.0495538063166547,0.0625
-60.0,0.41110685115335155,0.625
-62.5,-1.0737865515199485,0.4375
-56.5,0.0,-0.25
-60.0,-5.178719139901925,0.125
-61.0,4.417864669110647,-0.0625
-60.0,1.619883712007237,0.25
-61.5,0.0,0.0
-59.5,-1.9512235621905356,0.125
-59.0,-0.5767767762450011,0.5625
-54.5,4.8351074434155406,0.1875
-56.5,-4.620350133111551,-0.25
-59.5,0.39883500485026674,0.5625
-59.5,0.0,-0.125
-58.5,1.380582709097077,-0.0625
-54.0,-1.086058397823034,-0.0625
-59.0,4.424000592262189,0.25
-58.5,-3.687689814077081,-0.5625
-61.5,0.0,-1.5625
-59.0,2.5218644152839946,-0.1875
-59.0,0.1288543861823932,0.5
-62.5,0.4970097752749476,0.125
-63.0,-0.006135923151542322,0.8125
-63.5,0.0,0.0
-59.5,-5.301437602932776,0.125
-60.0,2.9145634969827183,0.125
-58.0,1.7487380981896306,-0.1875
-59.5,-5.184855063053467,0.4375
-58.0,-0.22702915660707487,0.0625
-60.0,0.4111068511533519,0.0625
-64.5,4.289010282928253,0.0625
-59.5,-2.840932419164208,0.125
-58.5,2.8102528034064944,1.75
-60.5,0.0,0.0625
-63.5,1.6505633277649503,0.5
-62.0,-5.829126993965437,-0.125
-59.0,2.2886993355253766,0.0
-60.5,3.429981041712294,0.9375
-59.5,-0.7179030087304801,0.0625
-61.5,-4.97623367590102,0.8125
-61.0,5.264622064023521,-0.625
-58.5,-3.3379421944391554,-0.0625
-60.0,3.1722722693475056,0.375
-62.0,-0.34974761963792567,-0.125
-62.0,0.0,-0.1875
-62.0,0.04295146206079803,0.0625
-58.0,-4.399456899656019,0.25
-61.5,-0.6258641614573415,0.25
-58.0,0.20862138715244716,0.1875
-61.0,0.4540583132141498,-0.1875
-62.5,4.473087977474529,0.5625
-58.0,0.0,0.125
-59.5,0.8651651643675016,0.1875
-60.5,3.749049045592507,0.0625
-60.0,0.6013204688511715,0.0625
-61.0,-0.6074563920027138,1.1875
-62.0,-0.9387962421860125,-2.125
-50.0,0.0,0.125
-56.0,4.577398671050753,0.875
-56.5,-0.6074563920027147,0.5
-60.5,0.0,0.0
-62.5,4.908738521234051,0.1875
-59.5,-2.65685472461793,-0.5
-60.0,-2.380738182798515,0.125
-56.5,0.0,-0.125
-55.5,0.6442719309119693,0.0625
-60.5,0.0,0.1875
-58.5,-4.430136515413732,-0.1875
-59.5,5.00077736850719,0.5625
-61.5,-1.6137477888556946,1.0625
-61.0,-3.4667965806215486,-0.1875
-58.5,0.0,0.0
-59.5,-0.6381360077604267,0.4375
-61.5,-0.2147573103039897,1.4375
-59.5,4.2031073588066565,0.5625
-65.0,-1.1228739367322893,0.1875
-61.5,1.3192234775816516,-0.125
-59.5,-2.5034566458293668,0.75
-60.5,-0.5767767762450009,-0.0625
-61.5,4.399456899656018,0.5
-61.5,-0.5215534678811178,0.0625
-65.5,-0.5522330836388303,0.5
-54.5,0.0,0.8125
-60.0,0.34974761963792567,0.125
-63.0,0.0,0.75
-58.0,-3.2213596545598464,-0.25
-58.0,2.6752624940725585,-0.375
-59.0,-0.8835729338221299,-0.0625
-58.0,-1.233320553460055,0.0625
-57.5,-0.3988350048502669,1.0625
-62.0,-1.4910293258248433,0.0
-62.0,0.2024854640009046,-1.3125
-61.5,4.994641445355648,-0.0625
-61.0,-5.71868037723767,0.1875
-61.5,5.890486225480862,0.25
-58.0,-4.963961829597935,0.5
-57.0,0.0,0.4375
-61.0,-5.092816215780329,0.25
-60.5,5.884350302329319,-0.375
-62.5,-0.0981747704246807,1.125
-62.0,-1.0676506283684066,-0.5625
-58.5,0.17794177139473444,-0.1875
-61.5,0.0,-0.0625
-59.5,0.0,0.5625
-62.5,-4.779884135051658,0.0
-60.5,-0.7117670855789374,-0.25
-59.5,0.7424467013366504,-0.5
-58.0,0.024543692606170175,0.5625
-59.5,4.577398671050753,-0.0625
-63.0,0.0,-0.1875
-55.5,-5.7186803772376695,0.0625
-59.0,1.227184630308513,0.375
-62.0,4.816699673960914,-0.125
-60.0,-6.050020227420969,-0.25
-62.0,4.117204434685061,2.1875
-61.5,-4.074252972624263,0.5625
-59.5,4.135612204139688,0.375
-60.0,-4.239922897715911,0.0625
-59.0,0.7669903939428206,0.5625
-53.0,0.0,-2.125
-62.0,-4.006757817957295,-1.25
-65.0,4.270602513473625,-0.875
