-39.0,0.9265243958829272,4.875
-39.0,0.9572040116406401,0.0
-39.0,0.9694758579437253,-1.625
-39.5,0.9694758579437253,1.625
-39.5,0.9817477042468103,3.25
-39.5,1.0062913968529805,3.25
-38.5,1.055378782065321,2.4375
-38.0,1.043106935762236,2.4375
-38.0,1.0369710126106935,3.25
-38.0,1.043106935762236,5.6875
-38.0,1.0246991663076084,8.125
-38.0,1.043106935762236,2.4375
-38.5,1.0246991663076084,4.875
-38.5,1.055378782065321,0.8125
-38.5,1.0492428589137786,2.4375
-38.5,1.055378782065321,3.25
-38.5,1.055378782065321,1.625
-38.0,1.043106935762236,6.5
-38.5,1.055378782065321,2.4375
-38.5,1.0615147052168636,3.25
-38.5,1.0676506283684062,4.875
-39.0,1.0676506283684062,4.875
-38.5,1.0676506283684062,3.25
-38.5,1.0737865515199487,5.6875
-39.0,1.086058397823034,3.25
-39.0,1.0737865515199487,4.875
-39.0,1.0737865515199487,6.5
-39.0,1.0799224746714913,5.6875
-39.0,1.0737865515199487,6.5
-39.0,1.0676506283684062,7.3125
-39.0,1.0799224746714913,3.25
-39.0,1.0921943209745766,5.6875
-39.0,1.0983302441261191,1.625
-39.0,1.0921943209745766,4.875
-39.5,1.086058397823034,0.8125
-39.5,1.0983302441261191,0.8125
-39.0,1.0799224746714913,3.25
-39.0,1.0676506283684062,3.25
-39.0,1.0676506283684062,7.3125
-39.5,1.0737865515199487,4.875
-39.5,1.0676506283684062,7.3125
-39.5,1.0799224746714913,2.4375
-39.5,1.0799224746714913,1.625
-39.5,1.0799224746714913,5.6875
-39.5,1.0737865515199487,6.5
-39.5,1.086058397823034,3.25
-39.0,1.0737865515199487,7.3125
-39.5,1.0676506283684062,6.5
-39.5,1.0921943209745766,0.0
-39.5,1.0921943209745766,2.4375
-39.5,1.0492428589137786,9.75
-39.0,1.0799224746714913,5.6875
-39.0,1.086058397823034,1.625
-39.5,1.086058397823034,2.4375
-39.5,1.0737865515199487,3.25
-39.5,1.1106020904292042,-0.8125
-39.5,1.086058397823034,0.8125
-39.0,1.0737865515199487,5.6875
-39.5,1.0492428589137786,6.5
-39.5,1.086058397823034,1.625
-39.5,1.0615147052168636,8.125
-39.5,1.0676506283684062,6.5
-39.5,1.0676506283684062,8.125
-39.5,1.0676506283684062,7.3125
-40.0,1.0737865515199487,8.125
-40.0,1.0921943209745766,2.4375
-39.5,1.086058397823034,6.5
-40.0,1.0921943209745766,3.25
-40.0,1.1044661672776617,3.25
-40.0,1.1106020904292042,5.6875
-39.5,1.0921943209745766,6.5
-39.0,1.1106020904292042,4.875
-39.0,1.1106020904292042,3.25
-39.0,1.0983302441261191,5.6875
-39.0,1.086058397823034,0.8125
-39.5,1.043106935762236,5.6875
-39.5,1.030835089459151,2.4375
-40.0,1.000155473701438,4.875
-40.0,0.9756117810952678,0.8125
-40.0,0.9387962421860124,2.4375
-40.5,0.9265243958829272,1.625
-40.5,0.8774370106705868,2.4375
-40.5,0.8222137023067037,2.4375
-40.5,0.8160777791551611,-0.8125
-40.5,0.760854470791278,0.8125
-40.5,0.7301748550335652,0.8125
-40.0,0.7179030087304801,0.8125
-40.0,0.662679700366597,5.6875
-40.0,0.6320000846088841,6.5
-39.5,0.6442719309119693,0.8125
-39.5,0.6135923151542565,3.25
-39.5,0.6013204688511713,2.4375
-39.5,0.5829126993965437,5.6875
-39.0,0.6013204688511713,2.4375
-39.0,0.5951845456996288,3.25
-39.0,0.5890486225480862,3.25
-39.0,0.5951845456996288,5.6875
-39.0,0.607456392002714,2.4375
-39.0,0.5829126993965437,7.3125
-39.0,0.607456392002714,2.4375
-38.5,0.607456392002714,3.25
-38.5,0.619728238305799,3.25
-38.5,0.619728238305799,4.875
-38.0,0.6320000846088841,3.25
-38.5,0.6381360077604268,2.4375
-38.0,0.619728238305799,4.875
-38.0,0.619728238305799,6.5
-38.0,0.6565437772150544,-0.8125
-38.0,0.6320000846088841,5.6875
-37.5,0.6381360077604268,3.25
-37.5,0.6504078540635119,1.625
-37.5,0.6504078540635119,4.875
-38.0,0.6994952392758523,0.8125
-38.0,0.7240389318820226,1.625
-39.5,0.803805932852076,3.25
-40.0,0.8406214717613314,2.4375
-40.0,0.8897088569736719,2.4375
-40.0,0.8958447801252144,2.4375
-40.5,0.9142525495798421,1.625
-40.0,0.9019807032767571,0.8125
-40.5,0.9019807032767571,0.8125
-40.5,0.9387962421860124,0.0
-40.5,0.9203884727313847,3.25
-41.0,0.9142525495798421,2.4375
-41.0,0.8713010875190442,4.875
-41.0,0.859029241215959,3.25
-41.0,0.8467573949128739,2.4375
-41.5,0.7240389318820226,-0.8125
-42.0,0.48473792897186263,3.25
-42.0,0.5092816215780329,3.25
-41.0,0.7301748550335652,2.4375
-38.5,0.705631162427395,0.0
-37.0,0.39269908169872414,0.8125
-38.0,0.1718058482431918,0.0
-39.5,0.02454369260617026,0.0
-40.0,0.02454369260617026,4.875
-41.5,0.17794177139473438,3.25
-41.5,0.44178646691106466,3.25
-41.5,0.5276893910326605,6.5
-41.5,0.5460971604872883,5.6875
-41.5,0.6013204688511713,5.6875
-41.5,0.7117670855789375,0.8125
-41.5,0.7117670855789375,5.6875
-41.0,0.6872233929727672,4.875
-41.0,0.6933593161243098,1.625
-41.0,0.6013204688511713,4.875
-41.0,0.5767767762450011,1.625
-41.0,0.5460971604872883,3.25
-41.0,0.5154175447295755,5.6875
-40.5,0.5092816215780329,2.4375
-40.5,0.4970097752749477,3.25
-40.5,0.4908738521234052,1.625
-40.5,0.48473792897186263,3.25
-40.0,0.4724660826687775,2.4375
-40.5,0.48473792897186263,0.8125
-40.5,0.47860200582032003,0.8125
-41.0,0.4663301595172349,5.6875
-41.0,0.4479223900626072,5.6875
-41.0,0.4540583132141498,1.625
-41.0,0.4479223900626072,4.875
-41.0,0.46019423636569234,4.875
-41.0,0.46019423636569234,2.4375
-41.0,0.4356505437595221,2.4375
-41.0,0.42337869745643697,2.4375
-41.0,0.42337869745643697,3.25
-41.0,0.4356505437595221,2.4375
-41.0,0.4356505437595221,1.625
-41.0,0.4172427743048944,5.6875
-41.0,0.4172427743048944,5.6875
-41.0,0.4356505437595221,2.4375
-41.0,0.4356505437595221,1.625
-41.0,0.4540583132141498,-1.625
-41.0,0.44178646691106466,-0.8125
-41.0,0.4172427743048944,5.6875
-40.5,0.4049709280018093,3.25
-41.0,0.4295146206079795,2.4375
-40.5,0.4295146206079795,2.4375
-41.0,0.42337869745643697,4.875
-40.5,0.44178646691106466,2.4375
-40.5,0.4356505437595221,2.4375
-41.0,0.4295146206079795,3.25
-40.5,0.42337869745643697,8.125
-40.5,0.4540583132141498,0.0
-40.5,0.4479223900626072,2.4375
-41.0,0.4479223900626072,4.875
-41.0,0.4540583132141498,4.875
-41.0,0.4724660826687775,2.4375
