40000000000000000000CC00,1,1477341713253971,1477341713253971,1,0.0,13312,-30.5,865.7,5.9457097
40000000000000000000CC00,1,1477341713261132,1477341713261132,1,0.0,13312,-30.5,865.7,5.9457097
40000000000000000000CC00,1,1477341713267894,1477341713267894,1,2.4375,13312,-30.0,865.7,5.933438
40000000000000000000CC00,1,1477341713274824,1477341713274824,1,0.8125,13312,-30.5,865.7,5.9518456
40000000000000000000CC00,1,1477341713282019,1477341713282019,1,0.8125,13312,-30.0,865.7,5.9457097
40000000000000000000CC00,1,1477341713289022,1477341713289022,1,1.625,13312,-30.0,865.7,5.939574
40000000000000000000CC00,1,1477341713295739,1477341713295739,1,0.8125,13312,-30.5,865.7,5.9518456
40000000000000000000CC00,1,1477341713303049,1477341713303049,1,3.25,13312,-30.5,865.7,5.927302
40000000000000000000CC00,1,1477341713309963,1477341713309963,1,1.625,13312,-30.0,865.7,5.939574
40000000000000000000CC00,1,1477341713316715,1477341713316715,1,3.25,13312,-30.0,865.7,5.933438
40000000000000000000CC00,1,1477341713323675,1477341713323675,1,0.8125,13312,-30.0,865.7,5.9518456
40000000000000000000CC00,1,1477341713330673,1477341713330673,1,1.625,13312,-30.0,865.7,5.9457097
40000000000000000000CC00,1,1477341713337874,1477341713337874,1,4.875,13312,-30.0,865.7,5.927302
40000000000000000000CC00,1,1477341713344804,1477341713344804,1,4.875,13312,-30.0,865.7,5.939574
40000000000000000000CC00,1,1477341713351672,1477341713351672,1,2.4375,13312,-30.0,865.7,5.939574
40000000000000000000CC00,1,1477341713358364,1477341713358364,1,3.25,13312,-30.5,865.7,5.927302
40000000000000000000CC00,1,1477341713365344,1477341713365344,1,0.0,13312,-30.5,865.7,5.9518456
40000000000000000000CC00,1,1477341713372474,1477341713372474,1,2.4375,13312,-30.0,865.7,5.933438
40000000000000000000CC00,1,1477341713379431,1477341713379431,1,4.875,13312,-30.0,865.7,5.927302
40000000000000000000CC00,1,1477341713386191,1477341713386191,1,2.4375,13312,-30.0,865.7,5.933438
40000000000000000000CC00,1,1477341713393239,1477341713393239,1,1.625,13312,-30.0,865.7,5.939574
40000000000000000000CC00,1,1477341713400340,1477341713400340,1,1.625,13312,-30.0,865.7,5.933438
40000000000000000000CC00,1,1477341713407384,1477341713407384,1,3.25,13312,-30.5,865.7,5.933438
40000000000000000000CC00,1,1477341713414303,1477341713414303,1,3.25,13312,-30.0,865.7,5.939574
40000000000000000000CC00,1,1477341713421302,1477341713421302,1,2.4375,13312,-30.0,865.7,5.927302
40000000000000000000CC00,1,1477341713428542,1477341713428542,1,4.875,13312,-30.0,865.7,5.927302
40000000000000000000CC00,1,1477341713435257,1477341713435257,1,3.25,13312,-30.0,865.7,5.921166
40000000000000000000CC00,1,1477341713442412,1477341713442412,1,1.625,13312,-30.5,865.7,5.9457097
40000000000000000000CC00,1,1477341713449098,1477341713449098,1,1.625,13312,-30.5,865.7,5.933438
40000000000000000000CC00,1,1477341713456333,1477341713456333,1,1.625,13312,-30.0,865.7,5.933438
40000000000000000000CC00,1,1477341713463135,1477341713463135,1,1.625,13312,-30.5,865.7,5.9457097
40000000000000000000CC00,1,1477341713470332,1477341713470332,1,0.8125,13312,-30.5,865.7,5.939574
40000000000000000000CC00,1,1477341713477266,1477341713477266,1,1.625,13312,-30.0,865.7,5.9457097
40000000000000000000CC00,1,1477341713484170,1477341713484170,1,0.8125,13312,-30.0,865.7,5.9457097
40000000000000000000CC00,1,1477341713490877,1477341713490877,1,3.25,13312,-30.0,865.7,5.927302
40000000000000000000CC00,1,1477341713498116,1477341713498116,1,3.25,13312,-30.0,865.7,5.933438
40000000000000000000CC00,1,1477341713505085,1477341713505085,1,2.4375,13312,-30.0,865.7,5.933438
40000000000000000000CC00,1,1477341713512054,1477341713512054,1,5.6875,13312,-30.5,865.7,5.921166
40000000000000000000CC00,1,1477341713519007,1477341713519007,1,2.4375,13312,-30.5,865.7,5.933438
40000000000000000000CC00,1,1477341713525688,1477341713525688,1,4.875,13312,-30.0,865.7,5.927302
40000000000000000000CC00,1,1477341713532940,1477341713532940,1,1.625,13312,-30.0,865.7,5.939574
40000000000000000000CC00,1,1477341713539735,1477341713539735,1,0.8125,13312,-30.0,865.7,5.939574
40000000000000000000CC00,1,1477341713547002,1477341713547002,1,3.25,13312,-30.5,865.7,5.921166
40000000000000000000CC00,1,1477341713553678,1477341713553678,1,2.4375,13312,-30.0,865.7,5.939574
40000000000000000000CC00,1,1477341713560909,1477341713560909,1,3.25,13312,-30.5,865.7,5.933438
40000000000000000000CC00,1,1477341713567858,1477341713567858,1,1.625,13312,-30.5,865.7,5.939574
40000000000000000000CC00,1,1477341713574826,1477341713574826,1,2.4375,13312,-30.0,865.7,5.933438
40000000000000000000CC00,1,1477341713581539,1477341713581539,1,0.8125,13312,-30.5,865.7,5.939574
40000000000000000000CC00,1,1477341713588714,1477341713588714,1,6.5,13312,-30.0,865.7,5.91503
40000000000000000000CC00,1,1477341713595415,1477341713595415,1,1.625,13312,-30.0,865.7,5.933438
40000000000000000000CC00,1,1477341713602655,1477341713602655,1,5.6875,13312,-30.0,865.7,5.91503
40000000000000000000CC00,1,1477341713609330,1477341713609330,1,0.8125,13312,-30.5,865.7,5.9457097
40000000000000000000CC00,1,1477341713616316,1477341713616316,1,4.875,13312,-30.0,865.7,5.921166
40000000000000000000CC00,1,1477341713623479,1477341713623479,1,2.4375,13312,-30.0,865.7,5.933438
40000000000000000000CC00,1,1477341713630504,1477341713630504,1,2.4375,13312,-30.5,865.7,5.933438
40000000000000000000CC00,1,1477341713637223,1477341713637223,1,2.4375,13312,-30.0,865.7,5.927302
40000000000000000000CC00,1,1477341713644329,1477341713644329,1,0.0,13312,-30.0,865.7,5.9457097
40000000000000000000CC00,1,1477341713650978,1477341713650978,1,2.4375,13312,-30.5,865.7,5.927302
40000000000000000000CC00,1,1477341713658249,1477341713658249,1,2.4375,13312,-30.0,865.7,5.927302
40000000000000000000CC00,1,1477341713664925,1477341713664925,1,4.875,13312,-30.0,865.7,5.927302
40000000000000000000CC00,1,1477341713671940,1477341713671940,1,3.25,13312,-30.0,865.7,5.927302
40000000000000000000CC00,1,1477341713678859,1477341713678859,1,3.25,13312,-30.5,865.7,5.927302
40000000000000000000CC00,1,1477341713685797,1477341713685797,1,4.875,13312,-30.5,865.7,5.921166
40000000000000000000CC00,1,1477341713692800,1477341713692800,1,2.4375,13312,-30.0,865.7,5.933438
40000000000000000000CC00,1,1477341713699769,1477341713699769,1,1.625,13312,-30.5,865.7,5.933438
40000000000000000000CC00,1,1477341713706940,1477341713706940,1,0.0,13312,-30.0,865.7,5.9457097
40000000000000000000CC00,1,1477341713713702,1477341713713702,1,2.4375,13312,-30.0,865.7,5.927302
40000000000000000000CC00,1,1477341713720908,1477341713720908,1,2.4375,13312,-30.0,865.7,5.933438
40000000000000000000CC00,1,1477341713727628,1477341713727628,1,0.8125,13312,-30.0,865.7,5.939574
40000000000000000000CC00,1,1477341713734820,1477341713734820,1,1.625,13312,-30.0,865.7,5.9457097
40000000000000000000CC00,1,1477341713741800,1477341713741800,1,1.625,13312,-30.0,865.7,5.9457097
40000000000000000000CC00,1,1477341713748711,1477341713748711,1,1.625,13312,-30.0,865.7,5.933438
40000000000000000000CC00,1,1477341713755684,1477341713755684,1,3.25,13312,-30.0,865.7,5.933438
40000000000000000000CC00,1,1477341713762638,1477341713762638,1,0.8125,13312,-30.0,865.7,5.939574
40000000000000000000CC00,1,1477341713769357,1477341713769357,1,2.4375,13312,-30.0,865.7,5.933438
40000000000000000000CC00,1,1477341713776543,1477341713776543,1,0.8125,13312,-30.0,865.7,5.9457097
40000000000000000000CC00,1,1477341713783632,1477341713783632,1,5.6875,13312,-30.0,865.7,5.91503
40000000000000000000CC00,1,1477341713790616,1477341713790616,1,1.625,13312,-30.0,865.7,5.939574
40000000000000000000CC00,1,1477341713797316,1477341713797316,1,1.625,13312,-30.0,865.7,5.939574
40000000000000000000CC00,1,1477341713804459,1477341713804459,1,4.875,13312,-30.0,865.7,5.921166
40000000000000000000CC00,1,1477341713811410,1477341713811410,1,2.4375,13312,-30.0,865.7,5.933438
40000000000000000000CC00,1,1477341713818068,1477341713818068,1,2.4375,13312,-30.0,865.7,5.927302
40000000000000000000CC00,1,1477341713825115,1477341713825115,1,2.4375,13312,-30.0,865.7,5.933438
40000000000000000000CC00,1,1477341713832045,1477341713832045,1,0.0,13312,-30.5,865.7,5.9518456
40000000000000000000CC00,1,1477341713839290,1477341713839290,1,0.8125,13312,-30.5,865.7,5.933438
40000000000000000000CC00,1,1477341713845991,1477341713845991,1,0.0,13312,-30.0,865.7,5.939574
40000000000000000000CC00,1,1477341713853201,1477341713853201,1,2.4375,13312,-30.5,865.7,5.927302
40000000000000000000CC00,1,1477341713859855,1477341713859855,1,0.0,13312,-30.0,865.7,5.939574
40000000000000000000CC00,1,1477341713866780,1477341713866780,1,0.0,13312,-30.0,865.7,5.9457097
40000000000000000000CC00,1,1477341713874053,1477341713874053,1,2.4375,13312,-30.0,865.7,5.933438
40000000000000000000CC00,1,1477341713880737,1477341713880737,1,0.8125,13312,-30.5,865.7,5.9457097
40000000000000000000CC00,1,1477341713887931,1477341713887931,1,3.25,13312,-30.5,865.7,5.927302
40000000000000000000CC00,1,1477341713894657,1477341713894657,1,1.625,13312,-30.0,865.7,5.939574
40000000000000000000CC00,1,1477341713901891,1477341713901891,1,1.625,13312,-30.0,865.7,5.933438
40000000000000000000CC00,1,1477341713908821,1477341713908821,1,3.25,13312,-30.5,865.7,5.933438
40000000000000000000CC00,1,1477341713915531,1477341713915531,1,0.0,13312,-30.0,865.7,5.9457097
40000000000000000000CC00,1,1477341713922801,1477341713922801,1,3.25,13312,-30.5,865.7,5.927302
40000000000000000000CC00,1,1477341713929519,1477341713929519,1,0.8125,13312,-30.0,865.7,5.939574
40000000000000000000CC00,1,1477341713936543,1477341713936543,1,1.625,13312,-30.5,865.7,5.927302
40000000000000000000CC00,1,1477341713943704,1477341713943704,1,1.625,13312,-30.5,865.7,5.9457097
40000000000000000000CC00,1,1477341713950672,1477341713950672,1,1.625,13312,-30.0,865.7,5.933438
40000000000000000000CC00,1,1477341713957363,1477341713957363,1,3.25,13312,-30.5,865.7,5.933438
40000000000000000000CC00,1,1477341713964260,1477341713964260,1,1.625,13312,-30.5,865.7,5.9457097
40000000000000000000CC00,1,1477341713971194,1477341713971194,1,4.875,13312,-30.5,865.7,5.927302
40000000000000000000CC00,1,1477341713978154,1477341713978154,1,2.4375,13312,-30.0,865.7,5.933438
40000000000000000000CC00,1,1477341713985097,1477341713985097,1,1.625,13312,-30.5,865.7,5.939574
40000000000000000000CC00,1,1477341713992250,1477341713992250,1,2.4375,13312,-30.0,865.7,5.933438
40000000000000000000CC00,1,1477341713998969,1477341713998969,1,2.4375,13312,-30.0,865.7,5.933438
40000000000000000000CC00,1,1477341714006133,1477341714006133,1,3.25,13312,-30.5,865.7,5.933438
40000000000000000000CC00,1,1477341714012852,1477341714012852,1,1.625,13312,-30.5,865.7,5.921166
40000000000000000000CC00,1,1477341714020066,1477341714020066,1,4.875,13312,-30.0,865.7,5.927302
40000000000000000000CC00,1,1477341714026984,1477341714026984,1,1.625,13312,-30.0,865.7,5.927302
40000000000000000000CC00,1,1477341714033756,1477341714033756,1,1.625,13312,-30.5,865.7,5.927302
40000000000000000000CC00,1,1477341714040698,1477341714040698,1,2.4375,13312,-30.0,865.7,5.91503
40000000000000000000CC00,1,1477341714047933,1477341714047933,1,5.6875,13312,-30.5,865.7,5.908894
40000000000000000000CC00,1,1477341714054906,1477341714054906,1,1.625,13312,-30.5,865.7,5.921166
40000000000000000000CC00,1,1477341714061552,1477341714061552,1,2.4375,13312,-30.5,865.7,5.921166
40000000000000000000CC00,1,1477341714068719,1477341714068719,1,5.6875,13312,-30.5,865.7,5.896622
40000000000000000000CC00,1,1477341714075419,1477341714075419,1,0.0,13312,-30.5,865.7,5.933438
40000000000000000000CC00,1,1477341714082641,1477341714082641,1,4.875,13312,-30.5,865.7,5.908894
40000000000000000000CC00,1,1477341714089593,1477341714089593,1,6.5,13312,-30.5,865.7,5.908894
40000000000000000000CC00,1,1477341714096495,1477341714096495,1,4.875,13312,-30.5,865.7,5.908894
40000000000000000000CC00,1,1477341714103489,1477341714103489,1,1.625,13312,-31.0,865.7,5.908894
40000000000000000000CC00,1,1477341714110384,1477341714110384,1,0.8125,13312,-30.5,865.7,5.91503
40000000000000000000CC00,1,1477341714117116,1477341714117116,1,6.5,13312,-30.5,865.7,5.902758
40000000000000000000CC00,1,1477341714124343,1477341714124343,1,1.625,13312,-31.0,865.7,5.91503
40000000000000000000CC00,1,1477341714131300,1477341714131300,1,1.625,13312,-30.5,865.7,5.921166
40000000000000000000CC00,1,1477341714138331,1477341714138331,1,1.625,13312,-30.5,865.7,5.908894
40000000000000000000CC00,1,1477341714145057,1477341714145057,1,0.0,13312,-30.5,865.7,5.91503
40000000000000000000CC00,1,1477341714152034,1477341714152034,1,0.8125,13312,-30.5,865.7,5.908894
40000000000000000000CC00,1,1477341714159222,1477341714159222,1,-0.8125,13312,-30.5,865.7,5.91503
40000000000000000000CC00,1,1477341714166183,1477341714166183,1,0.0,13312,-30.5,865.7,5.908894
40000000000000000000CC00,1,1477341714172919,1477341714172919,1,1.625,13312,-30.5,865.7,5.8904862
40000000000000000000CC00,1,1477341714179863,1477341714179863,1,2.4375,13312,-30.5,865.7,5.896622
40000000000000000000CC00,1,1477341714186819,1477341714186819,1,4.875,13312,-30.5,865.7,5.8904862
40000000000000000000CC00,1,1477341714193996,1477341714193996,1,0.8125,13312,-31.0,865.7,5.902758
40000000000000000000CC00,1,1477341714200692,1477341714200692,1,-0.8125,13312,-30.5,865.7,5.908894
40000000000000000000CC00,1,1477341714207892,1477341714207892,1,0.8125,13312,-30.5,865.7,5.908894
40000000000000000000CC00,1,1477341714214576,1477341714214576,1,1.625,13312,-31.0,865.7,5.8904862
40000000000000000000CC00,1,1477341714221783,1477341714221783,1,1.625,13312,-30.5,865.7,5.902758
40000000000000000000CC00,1,1477341714228486,1477341714228486,1,0.8125,13312,-30.5,865.7,5.8904862
40000000000000000000CC00,1,1477341714235490,1477341714235490,1,0.8125,13312,-30.5,865.7,5.8904862
40000000000000000000CC00,1,1477341714242406,1477341714242406,1,2.4375,13312,-30.5,865.7,5.8782144
40000000000000000000CC00,1,1477341714249691,1477341714249691,1,0.8125,13312,-30.5,865.7,5.896622
40000000000000000000CC00,1,1477341714256367,1477341714256367,1,0.0,13312,-30.5,865.7,5.896622
40000000000000000000CC00,1,1477341714263417,1477341714263417,1,0.0,13312,-30.5,865.7,5.896622
40000000000000000000CC00,1,1477341714270593,1477341714270593,1,0.8125,13312,-31.0,865.7,5.896622
40000000000000000000CC00,1,1477341714277481,1477341714277481,1,0.8125,13312,-30.5,865.7,5.896622
40000000000000000000CC00,1,1477341714284406,1477341714284406,1,1.625,13312,-31.0,865.7,5.8782144
40000000000000000000CC00,1,1477341714291106,1477341714291106,1,2.4375,13312,-30.5,865.7,5.8782144
40000000000000000000CC00,1,1477341714298087,1477341714298087,1,1.625,13312,-30.5,865.7,5.8843503
40000000000000000000CC00,1,1477341714305078,1477341714305078,1,2.4375,13312,-31.0,865.7,5.8720784
40000000000000000000CC00,1,1477341714311992,1477341714311992,1,-0.8125,13312,-31.0,865.7,5.8904862
40000000000000000000CC00,1,1477341714318933,1477341714318933,1,-1.625,13312,-30.5,865.7,5.896622
40000000000000000000CC00,1,1477341714326115,1477341714326115,1,-0.8125,13312,-31.0,865.7,5.896622
40000000000000000000CC00,1,1477341714333100,1477341714333100,1,1.625,13312,-31.0,865.7,5.8782144
40000000000000000000CC00,1,1477341714339874,1477341714339874,1,1.625,13312,-30.5,865.7,5.8720784
40000000000000000000CC00,1,1477341714346856,1477341714346856,1,0.8125,13312,-31.0,865.7,5.8720784
40000000000000000000CC00,1,1477341714353862,1477341714353862,1,2.4375,13312,-31.0,865.7,5.8659425
40000000000000000000CC00,1,1477341714360815,1477341714360815,1,0.0,13312,-31.0,865.7,5.8782144
40000000000000000000CC00,1,1477341714367958,1477341714367958,1,-0.8125,13312,-31.0,865.7,5.8843503
40000000000000000000CC00,1,1477341714374918,1477341714374918,1,1.625,13312,-31.0,865.7,5.8720784
40000000000000000000CC00,1,1477341714381845,1477341714381845,1,5.6875,13312,-31.0,865.7,5.8536706
40000000000000000000CC00,1,1477341714388601,1477341714388601,1,0.0,13312,-31.0,865.7,5.8782144
40000000000000000000CC00,1,1477341714395811,1477341714395811,1,3.25,13312,-31.5,865.7,5.8536706
40000000000000000000CC00,1,1477341714402829,1477341714402829,1,3.25,13312,-31.0,865.7,5.8598065
40000000000000000000CC00,1,1477341714409502,1477341714409502,1,0.8125,13312,-31.0,865.7,5.8720784
40000000000000000000CC00,1,1477341714416445,1477341714416445,1,1.625,13312,-31.0,865.7,5.8720784
40000000000000000000CC00,1,1477341714423644,1477341714423644,1,2.4375,13312,-31.5,865.7,5.8598065
40000000000000000000CC00,1,1477341714430346,1477341714430346,1,0.8125,13312,-31.0,865.7,5.8782144
40000000000000000000CC00,1,1477341714437532,1477341714437532,1,1.625,13312,-31.0,865.7,5.8720784
40000000000000000000CC00,1,1477341714444463,1477341714444463,1,1.625,13312,-31.0,865.7,5.8782144
40000000000000000000CC00,1,1477341714451388,1477341714451388,1,0.8125,13312,-31.0,865.7,5.8843503
40000000000000000000CC00,1,1477341714458204,1477341714458204,1,0.8125,13312,-31.0,865.7,5.8843503
40000000000000000000CC00,1,1477341714465238,1477341714465238,1,1.625,13312,-31.0,865.7,5.8782144
40000000000000000000CC00,1,1477341714472513,1477341714472513,1,2.4375,13312,-31.0,865.7,5.8782144
40000000000000000000CC00,1,1477341714479375,1477341714479375,1,4.875,13312,-31.5,865.7,5.8720784
40000000000000000000CC00,1,1477341714486333,1477341714486333,1,-0.8125,13312,-31.0,865.7,5.896622
40000000000000000000CC00,1,1477341714493318,1477341714493318,1,0.0,13312,-31.0,865.7,5.8904862
40000000000000000000CC00,1,1477341714500486,1477341714500486,1,1.625,13312,-31.0,865.7,5.8843503
40000000000000000000CC00,1,1477341714507372,1477341714507372,1,3.25,13312,-31.0,865.7,5.8843503
40000000000000000000CC00,1,1477341714514299,1477341714514299,1,1.625,13312,-31.0,865.7,5.8904862
40000000000000000000CC00,1,1477341714521031,1477341714521031,1,0.8125,13312,-31.0,865.7,5.902758
40000000000000000000CC00,1,1477341714528259,1477341714528259,1,0.8125,13312,-31.5,865.7,5.902758
40000000000000000000CC00,1,1477341714535227,1477341714535227,1,2.4375,13312,-31.0,865.7,5.896622
40000000000000000000CC00,1,1477341714542168,1477341714542168,1,2.4375,13312,-31.0,865.7,5.8904862
40000000000000000000CC00,1,1477341714548919,1477341714548919,1,5.6875,13312,-31.0,865.7,5.8843503
40000000000000000000CC00,1,1477341714555820,1477341714555820,1,1.625,13312,-31.0,865.7,5.908894
40000000000000000000CC00,1,1477341714562805,1477341714562805,1,1.625,13312,-31.0,865.7,5.908894
40000000000000000000CC00,1,1477341714569965,1477341714569965,1,0.0,13312,-31.0,865.7,5.921166
40000000000000000000CC00,1,1477341714576640,1477341714576640,1,3.25,13312,-31.5,865.7,5.896622
40000000000000000000CC00,1,1477341714583903,1477341714583903,1,0.0,13312,-31.0,865.7,5.91503
40000000000000000000CC00,1,1477341714590883,1477341714590883,1,2.4375,13312,-31.0,865.7,5.921166
40000000000000000000CC00,1,1477341714597884,1477341714597884,1,2.4375,13312,-31.0,865.7,5.91503
40000000000000000000CC00,1,1477341714604857,1477341714604857,1,4.875,13312,-31.0,865.7,5.908894
40000000000000000000CC00,1,1477341714611787,1477341714611787,1,3.25,13312,-31.0,865.7,5.91503
40000000000000000000CC00,1,1477341714618735,1477341714618735,1,0.0,13312,-31.5,865.7,5.939574
40000000000000000000CC00,1,1477341714625690,1477341714625690,1,0.0,13312,-31.0,865.7,5.939574
40000000000000000000CC00,1,1477341714632472,1477341714632472,1,1.625,13312,-31.0,865.7,5.933438
40000000000000000000CC00,1,1477341714639329,1477341714639329,1,0.8125,13312,-31.0,865.7,5.939574
40000000000000000000CC00,1,1477341714646294,1477341714646294,1,3.25,13312,-31.0,865.7,5.927302
40000000000000000000CC00,1,1477341714653263,1477341714653263,1,0.8125,13312,-31.5,865.7,5.939574
40000000000000000000CC00,1,1477341714660250,1477341714660250,1,1.625,13312,-31.0,865.7,5.939574
40000000000000000000CC00,1,1477341714667478,1477341714667478,1,1.625,13312,-31.5,865.7,5.9457097
40000000000000000000CC00,1,1477341714674400,1477341714674400,1,2.4375,13312,-31.5,865.7,5.9518456
40000000000000000000CC00,1,1477341714681343,1477341714681343,1,1.625,13312,-31.0,865.7,5.9518456
40000000000000000000CC00,1,1477341714688295,1477341714688295,1,2.4375,13312,-31.0,865.7,5.939574
40000000000000000000CC00,1,1477341714695259,1477341714695259,1,3.25,13312,-31.0,865.7,5.939574
40000000000000000000CC00,1,1477341714702179,1477341714702179,1,0.0,13312,-31.5,865.7,5.970253
40000000000000000000CC00,1,1477341714708925,1477341714708925,1,4.875,13312,-31.5,865.7,5.939574
40000000000000000000CC00,1,1477341714716091,1477341714716091,1,-0.8125,13312,-31.0,865.7,5.970253
40000000000000000000CC00,1,1477341714723091,1477341714723091,1,0.8125,13312,-31.5,865.7,5.9579816
40000000000000000000CC00,1,1477341714729894,1477341714729894,1,2.4375,13312,-31.0,865.7,5.9579816
40000000000000000000CC00,1,1477341714737073,1477341714737073,1,0.0,13312,-31.0,865.7,5.970253
40000000000000000000CC00,1,1477341714743773,1477341714743773,1,1.625,13312,-31.0,865.7,5.970253
40000000000000000000CC00,1,1477341714751009,1477341714751009,1,4.875,13312,-31.5,865.7,5.9579816
40000000000000000000CC00,1,1477341714757696,1477341714757696,1,4.875,13312,-31.0,865.7,5.9579816
40000000000000000000CC00,1,1477341714764686,1477341714764686,1,1.625,13312,-31.5,865.7,5.982525
40000000000000000000CC00,1,1477341714771904,1477341714771904,1,3.25,13312,-31.5,865.7,5.970253
40000000000000000000CC00,1,1477341714778694,1477341714778694,1,0.8125,13312,-31.5,865.7,5.982525
40000000000000000000CC00,1,1477341714785707,1477341714785707,1,0.8125,13312,-31.5,865.7,5.982525
40000000000000000000CC00,1,1477341714792750,1477341714792750,1,3.25,13312,-31.0,865.7,5.976389
40000000000000000000CC00,1,1477341714799680,1477341714799680,1,3.25,13312,-31.0,865.7,5.976389
40000000000000000000CC00,1,1477341714806831,1477341714806831,1,0.8125,13312,-31.0,865.7,5.9947968
40000000000000000000CC00,1,1477341714813536,1477341714813536,1,4.875,13312,-31.0,865.7,5.976389
40000000000000000000CC00,1,1477341714820502,1477341714820502,1,3.25,13312,-31.0,865.7,5.988661
40000000000000000000CC00,1,1477341714827679,1477341714827679,1,0.0,13312,-31.5,865.7,6.0009327
40000000000000000000CC00,1,1477341714834416,1477341714834416,1,0.8125,13312,-31.5,865.7,6.0009327
40000000000000000000CC00,1,1477341714841377,1477341714841377,1,1.625,13312,-31.5,865.7,5.988661
40000000000000000000CC00,1,1477341714848529,1477341714848529,1,3.25,13312,-31.0,865.7,5.9947968
40000000000000000000CC00,1,1477341714855379,1477341714855379,1,3.25,13312,-31.0,865.7,5.988661
40000000000000000000CC00,1,1477341714862309,1477341714862309,1,3.25,13312,-31.0,865.7,6.0070686
40000000000000000000CC00,1,1477341714869227,1477341714869227,1,3.25,13312,-31.5,865.7,6.0009327
40000000000000000000CC00,1,1477341714876247,1477341714876247,1,1.625,13312,-31.0,865.7,6.0193405
40000000000000000000CC00,1,1477341714883005,1477341714883005,1,2.4375,13312,-31.5,865.7,6.0132046
40000000000000000000CC00,1,1477341714890164,1477341714890164,1,3.25,13312,-31.0,865.7,6.0070686
40000000000000000000CC00,1,1477341714897103,1477341714897103,1,2.4375,13312,-31.0,865.7,6.0193405
40000000000000000000CC00,1,1477341714903738,1477341714903738,1,0.0,13312,-31.0,865.7,6.0377483
40000000000000000000CC00,1,1477341714910707,1477341714910707,1,3.25,13312,-31.0,865.7,6.0193405
40000000000000000000CC00,1,1477341714917921,1477341714917921,1,0.0,13312,-31.5,865.7,6.0438843
40000000000000000000CC00,1,1477341714924622,1477341714924622,1,3.25,13312,-31.0,865.7,6.0316124
40000000000000000000CC00,1,1477341714931790,1477341714931790,1,4.875,13312,-31.0,865.7,6.0316124
40000000000000000000CC00,1,1477341714938560,1477341714938560,1,2.4375,13312,-31.0,865.7,6.0438843
40000000000000000000CC00,1,1477341714945715,1477341714945715,1,1.625,13312,-31.5,865.7,6.0377483
40000000000000000000CC00,1,1477341714952655,1477341714952655,1,6.5,13312,-31.0,865.7,6.0254765
40000000000000000000CC00,1,1477341714959331,1477341714959331,1,2.4375,13312,-31.0,865.7,6.05002
40000000000000000000CC00,1,1477341714966627,1477341714966627,1,1.625,13312,-31.0,865.7,6.056156
40000000000000000000CC00,1,1477341714973555,1477341714973555,1,1.625,13312,-31.5,865.7,6.068428
40000000000000000000CC00,1,1477341714980546,1477341714980546,1,1.625,13312,-31.5,865.7,6.068428
40000000000000000000CC00,1,1477341714987263,1477341714987263,1,4.875,13312,-31.0,865.7,6.056156
40000000000000000000CC00,1,1477341714994259,1477341714994259,1,3.25,13312,-31.0,865.7,6.062292
40000000000000000000CC00,1,1477341715001471,1477341715001471,1,2.4375,13312,-31.0,865.7,6.074564
40000000000000000000CC00,1,1477341715008202,1477341715008202,1,2.4375,13312,-31.5,865.7,6.074564
40000000000000000000CC00,1,1477341715015180,1477341715015180,1,1.625,13312,-31.5,865.7,6.086836
40000000000000000000CC00,1,1477341715022401,1477341715022401,1,3.25,13312,-31.0,865.7,6.0807
40000000000000000000CC00,1,1477341715029303,1477341715029303,1,0.8125,13312,-31.5,865.7,6.0991077
40000000000000000000CC00,1,1477341715036059,1477341715036059,1,0.8125,13312,-31.5,865.7,6.1052437
40000000000000000000CC00,1,1477341715043249,1477341715043249,1,5.6875,13312,-31.5,865.7,6.086836
40000000000000000000CC00,1,1477341715050009,1477341715050009,1,0.0,13312,-31.5,865.7,6.1175156
40000000000000000000CC00,1,1477341715056981,1477341715056981,1,1.625,13312,-31.5,865.7,6.1175156
40000000000000000000CC00,1,1477341715064069,1477341715064069,1,4.875,13312,-31.5,865.7,6.1052437
40000000000000000000CC00,1,1477341715071330,1477341715071330,1,1.625,13312,-31.5,865.7,6.1113796
40000000000000000000CC00,1,1477341715078056,1477341715078056,1,0.8125,13312,-31.5,865.7,6.1236515
40000000000000000000CC00,1,1477341715085048,1477341715085048,1,2.4375,13312,-31.5,865.7,6.1113796
40000000000000000000CC00,1,1477341715092043,1477341715092043,1,1.625,13312,-31.5,865.7,6.1113796
40000000000000000000CC00,1,1477341715099231,1477341715099231,1,4.875,13312,-31.5,865.7,6.0991077
40000000000000000000CC00,1,1477341715106179,1477341715106179,1,2.4375,13312,-31.5,865.7,6.1113796
40000000000000000000CC00,1,1477341715113139,1477341715113139,1,-1.625,13312,-31.5,865.7,6.1359234
40000000000000000000CC00,1,1477341715120090,1477341715120090,1,2.4375,13312,-31.5,865.7,6.1052437
40000000000000000000CC00,1,1477341715126989,1477341715126989,1,1.625,13312,-31.5,865.7,6.1113796
40000000000000000000CC00,1,1477341715133945,1477341715133945,1,3.25,13312,-31.5,865.7,6.1113796
40000000000000000000CC00,1,1477341715140660,1477341715140660,1,0.8125,13312,-31.5,865.7,6.1236515
40000000000000000000CC00,1,1477341715147578,1477341715147578,1,4.875,13312,-31.5,865.7,6.1052437
40000000000000000000CC00,1,1477341715154769,1477341715154769,1,4.875,13312,-31.5,865.7,6.1113796
40000000000000000000CC00,1,1477341715161485,1477341715161485,1,3.25,13312,-31.5,865.7,6.1175156
40000000000000000000CC00,1,1477341715168402,1477341715168402,1,6.5,13312,-31.5,865.7,6.1052437
40000000000000000000CC00,1,1477341715175348,1477341715175348,1,-1.625,13312,-31.5,865.7,6.1543307
40000000000000000000CC00,1,1477341715182507,1477341715182507,1,-1.625,13312,-32.0,865.7,6.1543307
40000000000000000000CC00,1,1477341715189421,1477341715189421,1,0.8125,13312,-31.5,865.7,6.148195
40000000000000000000CC00,1,1477341715196093,1477341715196093,1,2.4375,13312,-31.5,865.7,6.1359234
40000000000000000000CC00,1,1477341715203274,1477341715203274,1,-0.8125,13312,-32.0,865.7,6.1604667
40000000000000000000CC00,1,1477341715210008,1477341715210008,1,-1.625,13312,-32.0,865.7,6.1727386
40000000000000000000CC00,1,1477341715217187,1477341715217187,1,2.4375,13312,-31.5,865.7,6.1604667
40000000000000000000CC00,1,1477341715224135,1477341715224135,1,0.8125,13312,-31.5,865.7,6.1727386
40000000000000000000CC00,1,1477341715230853,1477341715230853,1,0.8125,13312,-31.5,865.7,6.1788745
40000000000000000000CC00,1,1477341715237826,1477341715237826,1,1.625,13312,-31.5,865.7,6.1788745
40000000000000000000CC00,1,1477341715244823,1477341715244823,1,1.625,13312,-32.0,865.7,6.1788745
40000000000000000000CC00,1,1477341715251963,1477341715251963,1,0.8125,13312,-32.0,865.7,6.1911464
40000000000000000000CC00,1,1477341715258665,1477341715258665,1,0.8125,13312,-31.5,865.7,6.2034183
40000000000000000000CC00,1,1477341715265847,1477341715265847,1,1.625,13312,-31.5,865.7,6.209554
40000000000000000000CC00,1,1477341715272871,1477341715272871,1,-0.8125,13312,-31.5,865.7,6.227962
40000000000000000000CC00,1,1477341715279792,1477341715279792,1,0.8125,13312,-31.5,865.7,6.227962
40000000000000000000CC00,1,1477341715286789,1477341715286789,1,0.0,13312,-31.5,865.7,6.240234
40000000000000000000CC00,1,1477341715293760,1477341715293760,1,-0.8125,13312,-32.0,865.7,6.252506
40000000000000000000CC00,1,1477341715300698,1477341715300698,1,0.0,13312,-31.5,865.7,6.2586417
40000000000000000000CC00,1,1477341715307646,1477341715307646,1,0.0,13312,-31.5,865.7,6.2647777
40000000000000000000CC00,1,1477341715314636,1477341715314636,1,1.625,13312,-32.0,865.7,6.2647777
40000000000000000000CC00,1,1477341715321505,1477341715321505,1,1.625,13312,-31.5,865.7,6.2770495
40000000000000000000CC00,1,1477341715328536,1477341715328536,1,1.625,13312,-31.5,865.7,0.012271847
40000000000000000000CC00,1,1477341715335232,1477341715335232,1,0.8125,13312,-31.5,865.7,0.024543693
40000000000000000000CC00,1,1477341715342447,1477341715342447,1,0.8125,13312,-31.5,865.7,0.03681554
40000000000000000000CC00,1,1477341715349090,1477341715349090,1,0.8125,13312,-31.5,865.7,0.049087387
40000000000000000000CC00,1,1477341715356023,1477341715356023,1,1.625,13312,-31.5,865.7,0.06749515
40000000000000000000CC00,1,1477341715363187,1477341715363187,1,0.8125,13312,-31.5,865.7,0.08590292
40000000000000000000CC00,1,1477341715369847,1477341715369847,1,1.625,13312,-31.0,865.7,0.09203885
40000000000000000000CC00,1,1477341715376789,1477341715376789,1,0.0,13312,-31.0,865.7,0.11658254
40000000000000000000CC00,1,1477341715383671,1477341715383671,1,1.625,13312,-31.0,865.7,0.12885438
40000000000000000000CC00,1,1477341715390824,1477341715390824,1,2.4375,13312,-31.0,865.7,0.15339808
40000000000000000000CC00,1,1477341715397494,1477341715397494,1,0.0,13312,-31.0,865.7,0.17794177
40000000000000000000CC00,1,1477341715404427,1477341715404427,1,2.4375,13312,-31.0,865.7,0.1840777
40000000000000000000CC00,1,1477341715411386,1477341715411386,1,0.8125,13312,-31.0,865.7,0.20862138
40000000000000000000CC00,1,1477341715418557,1477341715418557,1,1.625,13312,-30.5,865.7,0.22702916
40000000000000000000CC00,1,1477341715425545,1477341715425545,1,0.8125,13312,-30.5,865.7,0.24543692
40000000000000000000CC00,1,1477341715432490,1477341715432490,1,2.4375,13312,-30.5,865.7,0.25770876
40000000000000000000CC00,1,1477341715439263,1477341715439263,1,3.25,13312,-30.5,865.7,0.2638447
40000000000000000000CC00,1,1477341715446475,1477341715446475,1,0.8125,13312,-30.5,865.7,0.2945243
40000000000000000000CC00,1,1477341715453172,1477341715453172,1,4.875,13312,-31.0,865.7,0.30066022
40000000000000000000CC00,1,1477341715460127,1477341715460127,1,2.4375,13312,-30.5,865.7,0.33133984
40000000000000000000CC00,1,1477341715467110,1477341715467110,1,4.875,13312,-30.5,865.7,0.33133984
40000000000000000000CC00,1,1477341715474340,1477341715474340,1,3.25,13312,-30.5,865.7,0.3436117
40000000000000000000CC00,1,1477341715481303,1477341715481303,1,0.0,13312,-31.0,865.7,0.3681554
40000000000000000000CC00,1,1477341715488039,1477341715488039,1,3.25,13312,-30.5,865.7,0.36201948
40000000000000000000CC00,1,1477341715495030,1477341715495030,1,1.625,13312,-31.0,865.7,0.38042724
40000000000000000000CC00,1,1477341715501998,1477341715501998,1,3.25,13312,-31.0,865.7,0.38656315
40000000000000000000CC00,1,1477341715509022,1477341715509022,1,3.25,13312,-30.5,865.7,0.38656315
40000000000000000000CC00,1,1477341715516210,1477341715516210,1,2.4375,13312,-30.5,865.7,0.398835
40000000000000000000CC00,1,1477341715522941,1477341715522941,1,3.25,13312,-30.5,865.7,0.4049709
40000000000000000000CC00,1,1477341715529885,1477341715529885,1,2.4375,13312,-31.0,865.7,0.41110685
40000000000000000000CC00,1,1477341715536824,1477341715536824,1,2.4375,13312,-31.0,865.7,0.4233787
40000000000000000000CC00,1,1477341715543959,1477341715543959,1,4.875,13312,-31.0,865.7,0.4233787
40000000000000000000CC00,1,1477341715550944,1477341715550944,1,1.625,13312,-30.5,865.7,0.44792238
40000000000000000000CC00,1,1477341715557800,1477341715557800,1,3.25,13312,-31.0,865.7,0.43565056
40000000000000000000CC00,1,1477341715564498,1477341715564498,1,4.875,13312,-30.5,865.7,0.43565056
40000000000000000000CC00,1,1477341715571411,1477341715571411,1,4.875,13312,-30.5,865.7,0.44178647
40000000000000000000CC00,1,1477341715578667,1477341715578667,1,4.875,13312,-30.5,865.7,0.44792238
40000000000000000000CC00,1,1477341715585644,1477341715585644,1,4.875,13312,-31.0,865.7,0.46633017
40000000000000000000CC00,1,1477341715592345,1477341715592345,1,3.25,13312,-31.0,865.7,0.46633017
40000000000000000000CC00,1,1477341715599600,1477341715599600,1,5.6875,13312,-31.0,865.7,0.46633017
40000000000000000000CC00,1,1477341715606256,1477341715606256,1,1.625,13312,-31.0,865.7,0.48473793
40000000000000000000CC00,1,1477341715613455,1477341715613455,1,4.875,13312,-31.0,865.7,0.48473793
40000000000000000000CC00,1,1477341715620405,1477341715620405,1,1.625,13312,-31.0,865.7,0.49087384
40000000000000000000CC00,1,1477341715627260,1477341715627260,1,1.625,13312,-31.0,865.7,0.49700978
40000000000000000000CC00,1,1477341715633977,1477341715633977,1,3.25,13312,-31.0,865.7,0.49087384
40000000000000000000CC00,1,1477341715641228,1477341715641228,1,1.625,13312,-31.5,865.7,0.5031457
40000000000000000000CC00,1,1477341715648208,1477341715648208,1,4.875,13312,-31.5,865.7,0.49087384
40000000000000000000CC00,1,1477341715654900,1477341715654900,1,5.6875,13312,-31.0,865.7,0.49700978
40000000000000000000CC00,1,1477341715661830,1477341715661830,1,1.625,13312,-31.5,865.7,0.5276894
40000000000000000000CC00,1,1477341715668998,1477341715668998,1,3.25,13312,-31.5,865.7,0.52155346
40000000000000000000CC00,1,1477341715675971,1477341715675971,1,1.625,13312,-31.5,865.7,0.53382534
40000000000000000000CC00,1,1477341715682759,1477341715682759,1,1.625,13312,-31.5,865.7,0.54609716
40000000000000000000CC00,1,1477341715689972,1477341715689972,1,3.25,13312,-31.5,865.7,0.54609716
40000000000000000000CC00,1,1477341715696642,1477341715696642,1,5.6875,13312,-31.5,865.7,0.5522331
40000000000000000000CC00,1,1477341715703581,1477341715703581,1,4.875,13312,-31.5,865.7,0.5645049
40000000000000000000CC00,1,1477341715710738,1477341715710738,1,3.25,13312,-32.0,865.7,0.57064086
40000000000000000000CC00,1,1477341715717780,1477341715717780,1,2.4375,13312,-32.0,865.7,0.59518456
40000000000000000000CC00,1,1477341715724738,1477341715724738,1,4.875,13312,-31.5,865.7,0.59518456
40000000000000000000CC00,1,1477341715731488,1477341715731488,1,4.875,13312,-32.0,865.7,0.60132045
40000000000000000000CC00,1,1477341715738634,1477341715738634,1,4.875,13312,-32.0,865.7,0.61972827
40000000000000000000CC00,1,1477341715745739,1477341715745739,1,3.25,13312,-32.0,865.7,0.6320001
40000000000000000000CC00,1,1477341715752834,1477341715752834,1,5.6875,13312,-32.0,865.7,0.62586415
40000000000000000000CC00,1,1477341715759753,1477341715759753,1,4.875,13312,-32.0,865.7,0.65040785
40000000000000000000CC00,1,1477341715766459,1477341715766459,1,6.5,13312,-32.0,865.7,0.6442719
40000000000000000000CC00,1,1477341715773390,1477341715773390,1,0.8125,13312,-32.5,865.7,0.6872234
40000000000000000000CC00,1,1477341715780339,1477341715780339,1,2.4375,13312,-32.0,865.7,0.6872234
40000000000000000000CC00,1,1477341715787665,1477341715787665,1,2.4375,13312,-32.5,865.7,0.70563114
40000000000000000000CC00,1,1477341715794325,1477341715794325,1,1.625,13312,-32.5,865.7,0.7117671
40000000000000000000CC00,1,1477341715801540,1477341715801540,1,2.4375,13312,-32.0,865.7,0.72403896
40000000000000000000CC00,1,1477341715808242,1477341715808242,1,2.4375,13312,-32.5,865.7,0.7363108
40000000000000000000CC00,1,1477341715815173,1477341715815173,1,3.25,13312,-32.0,865.7,0.73017484
40000000000000000000CC00,1,1477341715822134,1477341715822134,1,2.4375,13312,-32.5,865.7,0.7485826
40000000000000000000CC00,1,1477341715829357,1477341715829357,1,1.625,13312,-32.5,865.7,0.7608545
40000000000000000000CC00,1,1477341715836081,1477341715836081,1,0.8125,13312,-32.5,865.7,0.77926224
40000000000000000000CC00,1,1477341715843302,1477341715843302,1,3.25,13312,-32.5,865.7,0.7669904
40000000000000000000CC00,1,1477341715850246,1477341715850246,1,1.625,13312,-32.5,865.7,0.7853982
40000000000000000000CC00,1,1477341715856947,1477341715856947,1,1.625,13312,-33.0,865.7,0.7853982
40000000000000000000CC00,1,1477341715864119,1477341715864119,1,0.8125,13312,-32.5,865.7,0.79767
40000000000000000000CC00,1,1477341715871090,1477341715871090,1,-2.4375,13312,-32.5,865.7,0.81607777
40000000000000000000CC00,1,1477341715877988,1477341715877988,1,0.8125,13312,-32.5,865.7,0.80380595
40000000000000000000CC00,1,1477341715884660,1477341715884660,1,0.8125,13312,-33.0,865.7,0.80380595
40000000000000000000CC00,1,1477341715891831,1477341715891831,1,0.8125,13312,-33.0,865.7,0.79767
40000000000000000000CC00,1,1477341715898799,1477341715898799,1,1.625,13312,-33.0,865.7,0.8099418
40000000000000000000CC00,1,1477341715905687,1477341715905687,1,2.4375,13312,-33.0,865.7,0.8222137
40000000000000000000CC00,1,1477341715912377,1477341715912377,1,4.875,13312,-33.0,865.7,0.8222137
40000000000000000000CC00,1,1477341715919549,1477341715919549,1,3.25,13312,-33.0,865.7,0.82834965
40000000000000000000CC00,1,1477341715926602,1477341715926602,1,3.25,13312,-32.5,865.7,0.8467574
40000000000000000000CC00,1,1477341715933545,1477341715933545,1,1.625,13312,-33.0,865.7,0.8713011
40000000000000000000CC00,1,1477341715940503,1477341715940503,1,2.4375,13312,-33.0,865.7,0.8651652
40000000000000000000CC00,1,1477341715947252,1477341715947252,1,2.4375,13312,-33.0,865.7,0.877437
40000000000000000000CC00,1,1477341715954137,1477341715954137,1,2.4375,13312,-32.5,865.7,0.88357294
40000000000000000000CC00,1,1477341715961337,1477341715961337,1,2.4375,13312,-33.0,865.7,0.88357294
40000000000000000000CC00,1,1477341715968310,1477341715968310,1,0.8125,13312,-33.0,865.7,0.88357294
40000000000000000000CC00,1,1477341715975248,1477341715975248,1,0.0,13312,-32.5,865.7,0.89584476
40000000000000000000CC00,1,1477341715981905,1477341715981905,1,0.0,13312,-33.0,865.7,0.8897089
40000000000000000000CC00,1,1477341715989147,1477341715989147,1,0.8125,13312,-32.5,865.7,0.8897089
40000000000000000000CC00,1,1477341715995835,1477341715995835,1,1.625,13312,-33.0,865.7,0.8897089
40000000000000000000CC00,1,1477341716002785,1477341716002785,1,1.625,13312,-33.0,865.7,0.88357294
40000000000000000000CC00,1,1477341716009742,1477341716009742,1,0.8125,13312,-33.0,865.7,0.89584476
40000000000000000000CC00,1,1477341716016944,1477341716016944,1,4.875,13312,-32.5,865.7,0.89584476
40000000000000000000CC00,1,1477341716023874,1477341716023874,1,2.4375,13312,-33.0,865.7,0.89584476
40000000000000000000CC00,1,1477341716030777,1477341716030777,1,2.4375,13312,-32.5,865.7,0.90811664
40000000000000000000CC00,1,1477341716037446,1477341716037446,1,0.8125,13312,-32.5,865.7,0.92038846
40000000000000000000CC00,1,1477341716044402,1477341716044402,1,0.8125,13312,-32.5,865.7,0.9265244
40000000000000000000CC00,1,1477341716051332,1477341716051332,1,2.4375,13312,-32.5,865.7,0.93266034
40000000000000000000CC00,1,1477341716058493,1477341716058493,1,1.625,13312,-32.5,865.7,0.957204
40000000000000000000CC00,1,1477341716065235,1477341716065235,1,5.6875,13312,-32.5,865.7,0.957204
40000000000000000000CC00,1,1477341716072432,1477341716072432,1,2.4375,13312,-32.5,865.7,0.9756118
40000000000000000000CC00,1,1477341716079177,1477341716079177,1,3.25,13312,-32.0,865.7,0.9878836
40000000000000000000CC00,1,1477341716086140,1477341716086140,1,1.625,13312,-32.0,865.7,1.0062914
40000000000000000000CC00,1,1477341716093073,1477341716093073,1,4.875,13312,-32.0,865.7,1.0062914
40000000000000000000CC00,1,1477341716100286,1477341716100286,1,3.25,13312,-32.0,865.7,1.0246992
40000000000000000000CC00,1,1477341716107156,1477341716107156,1,1.625,13312,-32.0,865.7,1.0492429
40000000000000000000CC00,1,1477341716114111,1477341716114111,1,1.625,13312,-32.0,865.7,1.0615147
40000000000000000000CC00,1,1477341716120860,1477341716120860,1,3.25,13312,-31.5,865.7,1.0799224
40000000000000000000CC00,1,1477341716128096,1477341716128096,1,1.625,13312,-31.5,865.7,1.1044662
40000000000000000000CC00,1,1477341716134854,1477341716134854,1,1.625,13312,-31.5,865.7,1.116738
40000000000000000000CC00,1,1477341716142061,1477341716142061,1,5.6875,13312,-31.5,865.7,1.116738
40000000000000000000CC00,1,1477341716148747,1477341716148747,1,1.625,13312,-31.5,865.7,1.1658254
40000000000000000000CC00,1,1477341716155639,1477341716155639,1,2.4375,13312,-31.0,865.7,1.1780972
40000000000000000000CC00,1,1477341716162999,1477341716162999,1,2.4375,13312,-31.0,865.7,1.2026409
40000000000000000000CC00,1,1477341716169690,1477341716169690,1,4.875,13312,-31.0,865.7,1.2210487
40000000000000000000CC00,1,1477341716176632,1477341716176632,1,1.625,13312,-31.0,865.7,1.2455924
40000000000000000000CC00,1,1477341716183868,1477341716183868,1,8.125,13312,-31.0,865.7,1.2578642
40000000000000000000CC00,1,1477341716190553,1477341716190553,1,0.8125,13312,-30.5,865.7,1.276272
40000000000000000000CC00,1,1477341716197721,1477341716197721,1,2.4375,13312,-30.5,865.7,1.2885438
40000000000000000000CC00,1,1477341716204642,1477341716204642,1,1.625,13312,-30.5,865.7,1.2946798
40000000000000000000CC00,1,1477341716211314,1477341716211314,1,5.6875,13312,-30.5,865.7,1.3192235
40000000000000000000CC00,1,1477341716218507,1477341716218507,1,4.875,13312,-30.5,865.7,1.3130876
40000000000000000000CC00,1,1477341716225493,1477341716225493,1,0.8125,13312,-30.5,865.7,1.3376312
40000000000000000000CC00,1,1477341716232496,1477341716232496,1,0.8125,13312,-30.5,865.7,1.3376312
40000000000000000000CC00,1,1477341716239422,1477341716239422,1,3.25,13312,-30.0,865.7,1.3314953
40000000000000000000CC00,1,1477341716246370,1477341716246370,1,0.8125,13312,-30.5,865.7,1.3499031
40000000000000000000CC00,1,1477341716253282,1477341716253282,1,2.4375,13312,-30.0,865.7,1.3437672
40000000000000000000CC00,1,1477341716260206,1477341716260206,1,1.625,13312,-30.0,865.7,1.362175
40000000000000000000CC00,1,1477341716266936,1477341716266936,1,1.625,13312,-30.5,865.7,1.362175
40000000000000000000CC00,1,1477341716274125,1477341716274125,1,1.625,13312,-30.5,865.7,1.362175
40000000000000000000CC00,1,1477341716280858,1477341716280858,1,1.625,13312,-30.0,865.7,1.3683108
40000000000000000000CC00,1,1477341716288073,1477341716288073,1,3.25,13312,-30.0,865.7,1.362175
40000000000000000000CC00,1,1477341716294764,1477341716294764,1,1.625,13312,-30.0,865.7,1.3683108
40000000000000000000CC00,1,1477341716301724,1477341716301724,1,2.4375,13312,-30.0,865.7,1.362175
40000000000000000000CC00,1,1477341716308899,1477341716308899,1,0.8125,13312,-30.0,865.7,1.3744467
40000000000000000000CC00,1,1477341716315899,1477341716315899,1,1.625,13312,-30.0,865.7,1.3805827
40000000000000000000CC00,1,1477341716322636,1477341716322636,1,0.8125,13312,-29.5,865.7,1.3867186
40000000000000000000CC00,1,1477341716329579,1477341716329579,1,1.625,13312,-30.0,865.7,1.4051265
40000000000000000000CC00,1,1477341716336617,1477341716336617,1,2.4375,13312,-29.5,865.7,1.4173982
40000000000000000000CC00,1,1477341716343599,1477341716343599,1,0.0,13312,-30.0,865.7,1.435806
40000000000000000000CC00,1,1477341716350571,1477341716350571,1,-0.8125,13312,-29.5,865.7,1.4542137
40000000000000000000CC00,1,1477341716357709,1477341716357709,1,0.0,13312,-29.5,865.7,1.4603497
40000000000000000000CC00,1,1477341716364402,1477341716364402,1,-1.625,13312,-29.5,865.7,1.4664856
40000000000000000000CC00,1,1477341716371349,1477341716371349,1,0.0,13312,-29.5,865.7,1.4726216
40000000000000000000CC00,1,1477341716378215,1477341716378215,1,0.0,13312,-29.5,865.7,1.4664856
40000000000000000000CC00,1,1477341716385450,1477341716385450,1,-0.8125,13312,-29.5,865.7,1.4603497
40000000000000000000CC00,1,1477341716392137,1477341716392137,1,-1.625,13312,-29.5,865.7,1.4664856
40000000000000000000CC00,1,1477341716399314,1477341716399314,1,1.625,13312,-29.0,865.7,1.4480779
40000000000000000000CC00,1,1477341716406245,1477341716406245,1,0.0,13312,-29.0,865.7,1.4480779
40000000000000000000CC00,1,1477341716413232,1477341716413232,1,0.8125,13312,-29.0,865.7,1.435806
40000000000000000000CC00,1,1477341716420149,1477341716420149,1,0.8125,13312,-28.5,865.7,1.4296701
40000000000000000000CC00,1,1477341716426864,1477341716426864,1,-1.625,13312,-28.5,865.7,1.435806
40000000000000000000CC00,1,1477341716433819,1477341716433819,1,3.25,13312,-28.5,865.7,1.3928546
40000000000000000000CC00,1,1477341716440983,1477341716440983,1,3.25,13312,-28.5,865.7,1.3928546
40000000000000000000CC00,1,1477341716447685,1477341716447685,1,3.25,13312,-28.5,865.7,1.3805827
40000000000000000000CC00,1,1477341716454854,1477341716454854,1,3.25,13312,-28.0,865.7,1.3805827
40000000000000000000CC00,1,1477341716461554,1477341716461554,1,3.25,13312,-28.0,865.7,1.3683108
40000000000000000000CC00,1,1477341716468792,1477341716468792,1,2.4375,13312,-28.0,865.7,1.356039
40000000000000000000CC00,1,1477341716475739,1477341716475739,1,2.4375,13312,-28.0,865.7,1.356039
40000000000000000000CC00,1,1477341716482757,1477341716482757,1,3.25,13312,-28.0,865.7,1.3376312
40000000000000000000CC00,1,1477341716489694,1477341716489694,1,2.4375,13312,-27.5,865.7,1.3314953
40000000000000000000CC00,1,1477341716496705,1477341716496705,1,3.25,13312,-27.5,865.7,1.3130876
40000000000000000000CC00,1,1477341716503645,1477341716503645,1,5.6875,13312,-27.5,865.7,1.2885438
40000000000000000000CC00,1,1477341716510361,1477341716510361,1,3.25,13312,-27.0,865.7,1.2946798
40000000000000000000CC00,1,1477341716517532,1477341716517532,1,3.25,13312,-27.0,865.7,1.276272
40000000000000000000CC00,1,1477341716524179,1477341716524179,1,5.6875,13312,-27.5,865.7,1.2578642
40000000000000000000CC00,1,1477341716531105,1477341716531105,1,2.4375,13312,-27.0,865.7,1.2578642
40000000000000000000CC00,1,1477341716538015,1477341716538015,1,2.4375,13312,-27.0,865.7,1.2455924
40000000000000000000CC00,1,1477341716545165,1477341716545165,1,4.875,13312,-27.0,865.7,1.2210487
40000000000000000000CC00,1,1477341716551823,1477341716551823,1,4.875,13312,-26.5,865.7,1.2026409
40000000000000000000CC00,1,1477341716559077,1477341716559077,1,3.25,13312,-26.5,865.7,1.1965051
40000000000000000000CC00,1,1477341716566014,1477341716566014,1,3.25,13312,-26.5,865.7,1.1903691
40000000000000000000CC00,1,1477341716572797,1477341716572797,1,5.6875,13312,-26.5,865.7,1.1658254
40000000000000000000CC00,1,1477341716579979,1477341716579979,1,1.625,13312,-26.5,865.7,1.1719613
40000000000000000000CC00,1,1477341716586956,1477341716586956,1,2.4375,13312,-26.5,865.7,1.1596894
40000000000000000000CC00,1,1477341716593956,1477341716593956,1,2.4375,13312,-26.0,865.7,1.1535536
40000000000000000000CC00,1,1477341716600915,1477341716600915,1,3.25,13312,-26.0,865.7,1.1290098
40000000000000000000CC00,1,1477341716607900,1477341716607900,1,4.875,13312,-26.0,865.7,1.116738
40000000000000000000CC00,1,1477341716614573,1477341716614573,1,3.25,13312,-26.5,865.7,1.1228739
40000000000000000000CC00,1,1477341716621753,1477341716621753,1,3.25,13312,-26.5,865.7,1.1106021
40000000000000000000CC00,1,1477341716628470,1477341716628470,1,5.6875,13312,-26.0,865.7,1.0921943
40000000000000000000CC00,1,1477341716635394,1477341716635394,1,2.4375,13312,-26.0,865.7,1.0983303
40000000000000000000CC00,1,1477341716642292,1477341716642292,1,3.25,13312,-26.0,865.7,1.0921943
40000000000000000000CC00,1,1477341716649205,1477341716649205,1,3.25,13312,-26.0,865.7,1.0737865
40000000000000000000CC00,1,1477341716656346,1477341716656346,1,3.25,13312,-26.0,865.7,1.0615147
40000000000000000000CC00,1,1477341716663289,1477341716663289,1,5.6875,13312,-26.0,865.7,1.036971
40000000000000000000CC00,1,1477341716670232,1477341716670232,1,4.875,13312,-26.0,865.7,1.036971
40000000000000000000CC00,1,1477341716676946,1477341716676946,1,3.25,13312,-26.0,865.7,1.0246992
40000000000000000000CC00,1,1477341716684074,1477341716684074,1,4.875,13312,-25.5,865.7,1.0001554
40000000000000000000CC00,1,1477341716691204,1477341716691204,1,4.875,13312,-25.5,865.7,0.99401957
40000000000000000000CC00,1,1477341716697888,1477341716697888,1,4.875,13312,-26.0,865.7,0.9756118
40000000000000000000CC00,1,1477341716704785,1477341716704785,1,6.5,13312,-25.5,865.7,0.9510681
40000000000000000000CC00,1,1477341716711707,1477341716711707,1,3.25,13312,-25.5,865.7,0.9387962
40000000000000000000CC00,1,1477341716718886,1477341716718886,1,3.25,13312,-25.5,865.7,0.90811664
40000000000000000000CC00,1,1477341716725849,1477341716725849,1,4.875,13312,-25.5,865.7,0.877437
40000000000000000000CC00,1,1477341716732851,1477341716732851,1,2.4375,13312,-25.5,865.7,0.85902923
40000000000000000000CC00,1,1477341716739526,1477341716739526,1,2.4375,13312,-26.0,865.7,0.82834965
40000000000000000000CC00,1,1477341716746543,1477341716746543,1,4.875,13312,-25.5,865.7,0.79153407
40000000000000000000CC00,1,1477341716753683,1477341716753683,1,4.875,13312,-25.5,865.7,0.7608545
40000000000000000000CC00,1,1477341716760429,1477341716760429,1,3.25,13312,-25.5,865.7,0.7363108
40000000000000000000CC00,1,1477341716767692,1477341716767692,1,2.4375,13312,-25.5,865.7,0.70563114
40000000000000000000CC00,1,1477341716774616,1477341716774616,1,2.4375,13312,-25.0,865.7,0.6810875
40000000000000000000CC00,1,1477341716781251,1477341716781251,1,5.6875,13312,-25.0,865.7,0.638136
40000000000000000000CC00,1,1477341716788275,1477341716788275,1,4.875,13312,-25.0,865.7,0.59518456
40000000000000000000CC00,1,1477341716795450,1477341716795450,1,3.25,13312,-25.0,865.7,0.57064086
40000000000000000000CC00,1,1477341716802339,1477341716802339,1,3.25,13312,-24.5,865.7,0.54609716
40000000000000000000CC00,1,1477341716809326,1477341716809326,1,1.625,13312,-24.5,865.7,0.52155346
40000000000000000000CC00,1,1477341716816021,1477341716816021,1,3.25,13312,-24.5,865.7,0.478602
40000000000000000000CC00,1,1477341716823048,1477341716823048,1,5.6875,13312,-25.0,865.7,0.43565056
40000000000000000000CC00,1,1477341716830184,1477341716830184,1,1.625,13312,-24.5,865.7,0.41110685
40000000000000000000CC00,1,1477341716837123,1477341716837123,1,2.4375,13312,-25.0,865.7,0.38042724
40000000000000000000CC00,1,1477341716844092,1477341716844092,1,2.4375,13312,-25.0,865.7,0.3436117
40000000000000000000CC00,1,1477341716850796,1477341716850796,1,2.4375,13312,-25.0,865.7,0.31293207
40000000000000000000CC00,1,1477341716857727,1477341716857727,1,1.625,13312,-25.0,865.7,0.28225246
40000000000000000000CC00,1,1477341716864710,1477341716864710,1,3.25,13312,-25.0,865.7,0.239301
40000000000000000000CC00,1,1477341716871674,1477341716871674,1,1.625,13312,-25.5,865.7,0.21475731
40000000000000000000CC00,1,1477341716878620,1477341716878620,1,4.875,13312,-25.5,865.7,0.17180584
40000000000000000000CC00,1,1477341716885815,1477341716885815,1,3.25,13312,-25.5,865.7,0.14112623
40000000000000000000CC00,1,1477341716892806,1477341716892806,1,0.8125,13312,-25.5,865.7,0.12271846
40000000000000000000CC00,1,1477341716899507,1477341716899507,1,0.8125,13312,-26.0,865.7,0.09203885
40000000000000000000CC00,1,1477341716906495,1477341716906495,1,2.4375,13312,-26.0,865.7,0.05522331
40000000000000000000CC00,1,1477341716913394,1477341716913394,1,0.8125,13312,-26.5,865.7,0.030679615
40000000000000000000CC00,1,1477341716920566,1477341716920566,1,5.6875,13312,-26.5,865.7,6.240234
40000000000000000000CC00,1,1477341716927592,1477341716927592,1,0.8125,13312,-26.5,865.7,6.240234
40000000000000000000CC00,1,1477341716934289,1477341716934289,1,0.0,13312,-26.5,865.7,6.21569
40000000000000000000CC00,1,1477341716941493,1477341716941493,1,0.8125,13312,-26.5,865.7,6.1788745
40000000000000000000CC00,1,1477341716948426,1477341716948426,1,1.625,13312,-26.5,865.7,6.1297874
40000000000000000000CC00,1,1477341716955125,1477341716955125,1,-0.8125,13312,-26.5,865.7,6.1113796
40000000000000000000CC00,1,1477341716962334,1477341716962334,1,2.4375,13312,-26.5,865.7,6.086836
40000000000000000000CC00,1,1477341716969231,1477341716969231,1,3.25,13312,-26.5,865.7,6.062292
40000000000000000000CC00,1,1477341716975991,1477341716975991,1,1.625,13312,-27.0,865.7,6.0377483
40000000000000000000CC00,1,1477341716983304,1477341716983304,1,2.4375,13312,-26.5,865.7,6.0193405
40000000000000000000CC00,1,1477341716990190,1477341716990190,1,2.4375,13312,-26.5,865.7,6.0070686
40000000000000000000CC00,1,1477341716996859,1477341716996859,1,2.4375,13312,-27.0,865.7,5.9947968
40000000000000000000CC00,1,1477341717003994,1477341717003994,1,1.625,13312,-27.0,865.7,5.976389
40000000000000000000CC00,1,1477341717010703,1477341717010703,1,1.625,13312,-27.0,865.7,5.970253
40000000000000000000CC00,1,1477341717017775,1477341717017775,1,2.4375,13312,-27.0,865.7,5.9579816
40000000000000000000CC00,1,1477341717024718,1477341717024718,1,0.0,13312,-26.5,865.7,5.9579816
40000000000000000000CC00,1,1477341717031890,1477341717031890,1,1.625,13312,-26.5,865.7,5.9579816
40000000000000000000CC00,1,1477341717038772,1477341717038772,1,1.625,13312,-26.5,865.7,5.939574
40000000000000000000CC00,1,1477341717045789,1477341717045789,1,3.25,13312,-26.5,865.7,5.91503
40000000000000000000CC00,1,1477341717160823,1477341717160823,1,0.8125,13312,-27.0,865.7,5.7923117
40000000000000000000CC00,1,1477341717167807,1477341717167807,1,0.8125,13312,-27.0,865.7,5.773904
40000000000000000000CC00,1,1477341717174691,1477341717174691,1,0.0,13312,-27.0,865.7,5.767768
40000000000000000000CC00,1,1477341717181661,1477341717181661,1,0.0,13312,-27.5,865.7,5.761632
40000000000000000000CC00,1,1477341717188973,1477341717188973,1,2.4375,13312,-27.0,865.7,5.737088
40000000000000000000CC00,1,1477341717195906,1477341717195906,1,1.625,13312,-27.0,865.7,5.737088
40000000000000000000CC00,1,1477341717202901,1477341717202901,1,1.625,13312,-27.0,865.7,5.7309523
40000000000000000000CC00,1,1477341717209827,1477341717209827,1,0.8125,13312,-27.5,865.7,5.7248163
40000000000000000000CC00,1,1477341717216859,1477341717216859,1,2.4375,13312,-27.0,865.7,5.7064085
40000000000000000000CC00,1,1477341717223906,1477341717223906,1,0.0,13312,-27.0,865.7,5.7064085
40000000000000000000CC00,1,1477341717230818,1477341717230818,1,1.625,13312,-27.5,865.7,5.6941366
40000000000000000000CC00,1,1477341717237493,1477341717237493,1,1.625,13312,-27.5,865.7,5.6941366
40000000000000000000CC00,1,1477341717244452,1477341717244452,1,0.8125,13312,-27.5,865.7,5.675729
40000000000000000000CC00,1,1477341717251364,1477341717251364,1,2.4375,13312,-27.5,865.7,5.663457
40000000000000000000CC00,1,1477341717258591,1477341717258591,1,0.8125,13312,-27.5,865.7,5.651185
40000000000000000000CC00,1,1477341717265292,1477341717265292,1,3.25,13312,-27.5,865.7,5.645049
40000000000000000000CC00,1,1477341717272270,1477341717272270,1,0.8125,13312,-27.5,865.7,5.645049
40000000000000000000CC00,1,1477341717279476,1477341717279476,1,1.625,13312,-28.0,865.7,5.638913
40000000000000000000CC00,1,1477341717286268,1477341717286268,1,2.4375,13312,-27.5,865.7,5.620506
40000000000000000000CC00,1,1477341717293200,1477341717293200,1,0.0,13312,-28.0,865.7,5.6327777
40000000000000000000CC00,1,1477341717300413,1477341717300413,1,1.625,13312,-28.0,865.7,5.61437
40000000000000000000CC00,1,1477341717307402,1477341717307402,1,0.8125,13312,-28.0,865.7,5.608234
40000000000000000000CC00,1,1477341717314382,1477341717314382,1,0.8125,13312,-28.0,865.7,5.595962
40000000000000000000CC00,1,1477341717321117,1477341717321117,1,1.625,13312,-28.0,865.7,5.58369
40000000000000000000CC00,1,1477341717328379,1477341717328379,1,2.4375,13312,-28.0,865.7,5.577554
40000000000000000000CC00,1,1477341717335128,1477341717335128,1,0.8125,13312,-28.5,865.7,5.5714183
40000000000000000000CC00,1,1477341717342212,1477341717342212,1,0.8125,13312,-28.5,865.7,5.5714183
40000000000000000000CC00,1,1477341717349171,1477341717349171,1,1.625,13312,-28.5,865.7,5.5468745
40000000000000000000CC00,1,1477341717356249,1477341717356249,1,2.4375,13312,-28.5,865.7,5.5407386
40000000000000000000CC00,1,1477341717363520,1477341717363520,1,0.0,13312,-28.5,865.7,5.5346026
40000000000000000000CC00,1,1477341717370346,1477341717370346,1,4.875,13312,-28.5,865.7,5.510059
40000000000000000000CC00,1,1477341717377605,1477341717377605,1,0.8125,13312,-29.0,865.7,5.516195
40000000000000000000CC00,1,1477341717384638,1477341717384638,1,1.625,13312,-29.0,865.7,5.497787
40000000000000000000CC00,1,1477341717391690,1477341717391690,1,0.8125,13312,-29.0,865.7,5.497787
40000000000000000000CC00,1,1477341717398509,1477341717398509,1,1.625,13312,-29.5,865.7,5.485515
40000000000000000000CC00,1,1477341717405561,1477341717405561,1,0.0,13312,-29.0,865.7,5.479379
40000000000000000000CC00,1,1477341717413023,1477341717413023,1,1.625,13312,-29.0,865.7,5.473243
40000000000000000000CC00,1,1477341717420035,1477341717420035,1,0.0,13312,-29.5,865.7,5.4671073
40000000000000000000CC00,1,1477341717426846,1477341717426846,1,1.625,13312,-29.5,865.7,5.4487
40000000000000000000CC00,1,1477341717434152,1477341717434152,1,1.625,13312,-29.5,865.7,5.436428
40000000000000000000CC00,1,1477341717440932,1477341717440932,1,1.625,13312,-29.5,865.7,5.430292
40000000000000000000CC00,1,1477341717448245,1477341717448245,1,0.0,13312,-29.5,865.7,5.430292
40000000000000000000CC00,1,1477341717455239,1477341717455239,1,0.8125,13312,-29.5,865.7,5.4180202
40000000000000000000CC00,1,1477341717462250,1477341717462250,1,4.875,13312,-29.5,865.7,5.3934765
40000000000000000000CC00,1,1477341717469034,1477341717469034,1,0.8125,13312,-29.5,865.7,5.4057484
40000000000000000000CC00,1,1477341717476279,1477341717476279,1,0.0,13312,-29.5,865.7,5.4057484
40000000000000000000CC00,1,1477341717483323,1477341717483323,1,0.0,13312,-29.5,865.7,5.4057484
40000000000000000000CC00,1,1477341717490106,1477341717490106,1,0.0,13312,-29.5,865.7,5.3934765
40000000000000000000CC00,1,1477341717497165,1477341717497165,1,0.0,13312,-29.5,865.7,5.3873405
40000000000000000000CC00,1,1477341717504429,1477341717504429,1,3.25,13312,-29.5,865.7,5.362797
40000000000000000000CC00,1,1477341717511242,1477341717511242,1,3.25,13312,-29.5,865.7,5.356661
40000000000000000000CC00,1,1477341717518275,1477341717518275,1,4.875,13312,-29.5,865.7,5.344389
40000000000000000000CC00,1,1477341717525223,1477341717525223,1,2.4375,13312,-30.0,865.7,5.344389
40000000000000000000CC00,1,1477341717532143,1477341717532143,1,1.625,13312,-30.0,865.7,5.350525
40000000000000000000CC00,1,1477341717539351,1477341717539351,1,1.625,13312,-29.5,865.7,5.350525
40000000000000000000CC00,1,1477341717546068,1477341717546068,1,2.4375,13312,-29.5,865.7,5.344389
40000000000000000000CC00,1,1477341717553042,1477341717553042,1,2.4375,13312,-30.0,865.7,5.338253
40000000000000000000CC00,1,1477341717559973,1477341717559973,1,4.875,13312,-30.0,865.7,5.338253
40000000000000000000CC00,1,1477341717567120,1477341717567120,1,2.4375,13312,-29.5,865.7,5.338253
40000000000000000000CC00,1,1477341717573819,1477341717573819,1,3.25,13312,-29.5,865.7,5.338253
40000000000000000000CC00,1,1477341717581057,1477341717581057,1,5.6875,13312,-29.5,865.7,5.319845
40000000000000000000CC00,1,1477341717588054,1477341717588054,1,3.25,13312,-30.0,865.7,5.332117
40000000000000000000CC00,1,1477341717594799,1477341717594799,1,4.875,13312,-29.5,865.7,5.325981
40000000000000000000CC00,1,1477341717601725,1477341717601725,1,3.25,13312,-29.5,865.7,5.325981
40000000000000000000CC00,1,1477341717608710,1477341717608710,1,3.25,13312,-29.5,865.7,5.325981
40000000000000000000CC00,1,1477341717615606,1477341717615606,1,2.4375,13312,-30.0,865.7,5.325981
40000000000000000000CC00,1,1477341717622668,1477341717622668,1,1.625,13312,-29.5,865.7,5.319845
40000000000000000000CC00,1,1477341717629600,1477341717629600,1,2.4375,13312,-29.5,865.7,5.3137093
40000000000000000000CC00,1,1477341717636611,1477341717636611,1,0.8125,13312,-30.0,865.7,5.325981
40000000000000000000CC00,1,1477341717643810,1477341717643810,1,3.25,13312,-30.0,865.7,5.3075733
40000000000000000000CC00,1,1477341717650811,1477341717650811,1,0.0,13312,-29.5,865.7,5.325981
40000000000000000000CC00,1,1477341717657526,1477341717657526,1,2.4375,13312,-30.0,865.7,5.3075733
40000000000000000000CC00,1,1477341717664767,1477341717664767,1,0.8125,13312,-29.5,865.7,5.3137093
40000000000000000000CC00,1,1477341717671704,1477341717671704,1,2.4375,13312,-30.0,865.7,5.3075733
40000000000000000000CC00,1,1477341717678646,1477341717678646,1,3.25,13312,-29.5,865.7,5.289166
40000000000000000000CC00,1,1477341717685539,1477341717685539,1,1.625,13312,-30.0,865.7,5.3075733
40000000000000000000CC00,1,1477341717692494,1477341717692494,1,3.25,13312,-30.0,865.7,5.295302
40000000000000000000CC00,1,1477341717699454,1477341717699454,1,2.4375,13312,-30.0,865.7,5.295302
40000000000000000000CC00,1,1477341717706153,1477341717706153,1,3.25,13312,-29.5,865.7,5.289166
40000000000000000000CC00,1,1477341717713078,1477341717713078,1,2.4375,13312,-29.5,865.7,5.289166
40000000000000000000CC00,1,1477341717720033,1477341717720033,1,3.25,13312,-30.0,865.7,5.289166
40000000000000000000CC00,1,1477341717727215,1477341717727215,1,2.4375,13312,-30.0,865.7,5.289166
40000000000000000000CC00,1,1477341717734017,1477341717734017,1,2.4375,13312,-30.0,865.7,5.28303
40000000000000000000CC00,1,1477341717741061,1477341717741061,1,4.875,13312,-30.0,865.7,5.276894
40000000000000000000CC00,1,1477341717748055,1477341717748055,1,3.25,13312,-30.0,865.7,5.276894
40000000000000000000CC00,1,1477341717754969,1477341717754969,1,0.8125,13312,-30.0,865.7,5.276894
40000000000000000000CC00,1,1477341717762158,1477341717762158,1,5.6875,13312,-30.0,865.7,5.2584863
40000000000000000000CC00,1,1477341717769072,1477341717769072,1,-0.8125,13312,-30.0,865.7,5.289166
40000000000000000000CC00,1,1477341717776038,1477341717776038,1,2.4375,13312,-30.0,865.7,5.270758
40000000000000000000CC00,1,1477341717783043,1477341717783043,1,4.875,13312,-30.0,865.7,5.264622
40000000000000000000CC00,1,1477341717790098,1477341717790098,1,3.25,13312,-30.0,865.7,5.2584863
40000000000000000000CC00,1,1477341717797007,1477341717797007,1,2.4375,13312,-30.0,865.7,5.264622
40000000000000000000CC00,1,1477341717803756,1477341717803756,1,3.25,13312,-30.0,865.7,5.264622
40000000000000000000CC00,1,1477341717810859,1477341717810859,1,3.25,13312,-30.0,865.7,5.2584863
40000000000000000000CC00,1,1477341717817671,1477341717817671,1,3.25,13312,-30.0,865.7,5.2584863
40000000000000000000CC00,1,1477341717824597,1477341717824597,1,2.4375,13312,-30.0,865.7,5.264622
40000000000000000000CC00,1,1477341717831824,1477341717831824,1,3.25,13312,-30.0,865.7,5.264622
40000000000000000000CC00,1,1477341717838478,1477341717838478,1,3.25,13312,-30.0,865.7,5.264622
40000000000000000000CC00,1,1477341717845617,1477341717845617,1,3.25,13312,-30.0,865.7,5.270758
40000000000000000000CC00,1,1477341717852487,1477341717852487,1,1.625,13312,-29.5,865.7,5.276894
40000000000000000000CC00,1,1477341717859258,1477341717859258,1,1.625,13312,-29.5,865.7,5.289166
40000000000000000000CC00,1,1477341717866472,1477341717866472,1,2.4375,13312,-29.5,865.7,5.295302
40000000000000000000CC00,1,1477341717873165,1477341717873165,1,2.4375,13312,-30.0,865.7,5.295302
40000000000000000000CC00,1,1477341717880067,1477341717880067,1,4.875,13312,-29.5,865.7,5.3014374
40000000000000000000CC00,1,1477341717887271,1477341717887271,1,2.4375,13312,-29.5,865.7,5.3075733
40000000000000000000CC00,1,1477341717893956,1477341717893956,1,0.8125,13312,-29.5,865.7,5.325981
40000000000000000000CC00,1,1477341717900938,1477341717900938,1,1.625,13312,-29.5,865.7,5.325981
40000000000000000000CC00,1,1477341717907893,1477341717907893,1,1.625,13312,-29.5,865.7,5.338253
40000000000000000000CC00,1,1477341717914868,1477341717914868,1,2.4375,13312,-29.5,865.7,5.332117
40000000000000000000CC00,1,1477341717921812,1477341717921812,1,4.875,13312,-29.5,865.7,5.332117
40000000000000000000CC00,1,1477341717928948,1477341717928948,1,3.25,13312,-29.5,865.7,5.344389
40000000000000000000CC00,1,1477341717935657,1477341717935657,1,0.8125,13312,-29.5,865.7,5.362797
40000000000000000000CC00,1,1477341717942655,1477341717942655,1,5.6875,13312,-29.5,865.7,5.350525
40000000000000000000CC00,1,1477341717949581,1477341717949581,1,0.0,13312,-29.0,865.7,5.3812046
40000000000000000000CC00,1,1477341717956535,1477341717956535,1,3.25,13312,-29.5,865.7,5.3689327
40000000000000000000CC00,1,1477341717963473,1477341717963473,1,0.0,13312,-29.0,865.7,5.3996124
40000000000000000000CC00,1,1477341717970643,1477341717970643,1,0.0,13312,-29.0,865.7,5.3996124
40000000000000000000CC00,1,1477341717977617,1477341717977617,1,1.625,13312,-29.0,865.7,5.4057484
40000000000000000000CC00,1,1477341717984257,1477341717984257,1,1.625,13312,-29.0,865.7,5.4118843
40000000000000000000CC00,1,1477341717991266,1477341717991266,1,0.8125,13312,-29.0,865.7,5.424156
40000000000000000000CC00,1,1477341717998435,1477341717998435,1,1.625,13312,-29.0,865.7,5.424156
40000000000000000000CC00,1,1477341718005160,1477341718005160,1,0.0,13312,-29.0,865.7,5.442564
40000000000000000000CC00,1,1477341718012423,1477341718012423,1,0.8125,13312,-29.0,865.7,5.442564
40000000000000000000CC00,1,1477341718019137,1477341718019137,1,0.8125,13312,-29.0,865.7,5.442564
40000000000000000000CC00,1,1477341718026417,1477341718026417,1,0.8125,13312,-29.0,865.7,5.4487
40000000000000000000CC00,1,1477341718033329,1477341718033329,1,1.625,13312,-29.0,865.7,5.4487
40000000000000000000CC00,1,1477341718040283,1477341718040283,1,3.25,13312,-29.0,865.7,5.4487
40000000000000000000CC00,1,1477341718046979,1477341718046979,1,2.4375,13312,-29.0,865.7,5.460972
40000000000000000000CC00,1,1477341718053918,1477341718053918,1,1.625,13312,-29.0,865.7,5.473243
40000000000000000000CC00,1,1477341718061135,1477341718061135,1,1.625,13312,-29.0,865.7,5.4671073
40000000000000000000CC00,1,1477341718067830,1477341718067830,1,-0.8125,13312,-29.0,865.7,5.485515
40000000000000000000CC00,1,1477341718074761,1477341718074761,1,2.4375,13312,-29.0,865.7,5.473243
40000000000000000000CC00,1,1477341718082004,1477341718082004,1,0.8125,13312,-29.0,865.7,5.479379
40000000000000000000CC00,1,1477341718088758,1477341718088758,1,0.8125,13312,-29.0,865.7,5.485515
40000000000000000000CC00,1,1477341718095698,1477341718095698,1,0.0,13312,-29.0,865.7,5.491651
40000000000000000000CC00,1,1477341718102749,1477341718102749,1,0.0,13312,-29.0,865.7,5.497787
40000000000000000000CC00,1,1477341718109678,1477341718109678,1,1.625,13312,-28.5,865.7,5.485515
40000000000000000000CC00,1,1477341718116599,1477341718116599,1,0.0,13312,-29.0,865.7,5.497787
40000000000000000000CC00,1,1477341718123800,1477341718123800,1,0.0,13312,-28.5,865.7,5.491651
40000000000000000000CC00,1,1477341718130444,1477341718130444,1,0.0,13312,-29.0,865.7,5.497787
40000000000000000000CC00,1,1477341718137587,1477341718137587,1,1.625,13312,-28.5,865.7,5.485515
40000000000000000000CC00,1,1477341718144377,1477341718144377,1,3.25,13312,-29.0,865.7,5.479379
40000000000000000000CC00,1,1477341718151630,1477341718151630,1,0.0,13312,-29.0,865.7,5.485515
40000000000000000000CC00,1,1477341718158400,1477341718158400,1,2.4375,13312,-28.5,865.7,5.473243
40000000000000000000CC00,1,1477341718165576,1477341718165576,1,1.625,13312,-29.0,865.7,5.479379
40000000000000000000CC00,1,1477341718172275,1477341718172275,1,0.8125,13312,-29.0,865.7,5.479379
40000000000000000000CC00,1,1477341718179495,1477341718179495,1,1.625,13312,-29.0,865.7,5.473243
40000000000000000000CC00,1,1477341718186403,1477341718186403,1,0.0,13312,-29.0,865.7,5.485515
40000000000000000000CC00,1,1477341718193356,1477341718193356,1,0.0,13312,-28.5,865.7,5.479379
40000000000000000000CC00,1,1477341718200279,1477341718200279,1,0.0,13312,-29.0,865.7,5.473243
40000000000000000000CC00,1,1477341718207021,1477341718207021,1,2.4375,13312,-29.0,865.7,5.460972
40000000000000000000CC00,1,1477341718213919,1477341718213919,1,2.4375,13312,-29.0,865.7,5.454836
40000000000000000000CC00,1,1477341718221151,1477341718221151,1,1.625,13312,-28.5,865.7,5.454836
40000000000000000000CC00,1,1477341718227897,1477341718227897,1,0.0,13312,-29.0,865.7,5.454836
40000000000000000000CC00,1,1477341718235182,1477341718235182,1,0.8125,13312,-29.0,865.7,5.442564
40000000000000000000CC00,1,1477341718241941,1477341718241941,1,2.4375,13312,-29.0,865.7,5.436428
40000000000000000000CC00,1,1477341718248973,1477341718248973,1,1.625,13312,-29.0,865.7,5.436428
40000000000000000000CC00,1,1477341718255879,1477341718255879,1,1.625,13312,-29.0,865.7,5.430292
40000000000000000000CC00,1,1477341718263132,1477341718263132,1,-0.8125,13312,-29.0,865.7,5.442564
40000000000000000000CC00,1,1477341718270118,1477341718270118,1,0.8125,13312,-28.5,865.7,5.424156
40000000000000000000CC00,1,1477341718276792,1477341718276792,1,0.0,13312,-29.0,865.7,5.4180202
40000000000000000000CC00,1,1477341718283754,1477341718283754,1,3.25,13312,-29.0,865.7,5.4057484
40000000000000000000CC00,1,1477341718290706,1477341718290706,1,0.8125,13312,-29.0,865.7,5.4118843
40000000000000000000CC00,1,1477341718297648,1477341718297648,1,0.8125,13312,-29.0,865.7,5.4118843
40000000000000000000CC00,1,1477341718304901,1477341718304901,1,0.8125,13312,-29.0,865.7,5.4118843
40000000000000000000CC00,1,1477341718311804,1477341718311804,1,1.625,13312,-29.0,865.7,5.4118843
40000000000000000000CC00,1,1477341718318758,1477341718318758,1,1.625,13312,-29.0,865.7,5.3996124
40000000000000000000CC00,1,1477341718325670,1477341718325670,1,0.8125,13312,-29.0,865.7,5.3996124
40000000000000000000CC00,1,1477341718332373,1477341718332373,1,0.8125,13312,-29.0,865.7,5.3996124
40000000000000000000CC00,1,1477341718339605,1477341718339605,1,0.0,13312,-29.0,865.7,5.4057484
40000000000000000000CC00,1,1477341718346345,1477341718346345,1,2.4375,13312,-29.0,865.7,5.3996124
40000000000000000000CC00,1,1477341718353301,1477341718353301,1,4.875,13312,-29.0,865.7,5.3934765
40000000000000000000CC00,1,1477341718360251,1477341718360251,1,0.8125,13312,-29.0,865.7,5.4057484
40000000000000000000CC00,1,1477341718367473,1477341718367473,1,1.625,13312,-29.0,865.7,5.3934765
40000000000000000000CC00,1,1477341718374189,1477341718374189,1,2.4375,13312,-29.0,865.7,5.3873405
40000000000000000000CC00,1,1477341718381371,1477341718381371,1,2.4375,13312,-29.0,865.7,5.3996124
40000000000000000000CC00,1,1477341718388365,1477341718388365,1,2.4375,13312,-29.0,865.7,5.3934765
40000000000000000000CC00,1,1477341718395053,1477341718395053,1,3.25,13312,-29.0,865.7,5.3934765
40000000000000000000CC00,1,1477341718402043,1477341718402043,1,0.8125,13312,-29.0,865.7,5.3996124
40000000000000000000CC00,1,1477341718408962,1477341718408962,1,1.625,13312,-29.0,865.7,5.3934765
40000000000000000000CC00,1,1477341718416154,1477341718416154,1,0.0,13312,-29.0,865.7,5.4057484
40000000000000000000CC00,1,1477341718423096,1477341718423096,1,2.4375,13312,-29.0,865.7,5.3934765
40000000000000000000CC00,1,1477341718429820,1477341718429820,1,1.625,13312,-29.0,865.7,5.3996124
40000000000000000000CC00,1,1477341718436811,1477341718436811,1,1.625,13312,-29.0,865.7,5.3996124
40000000000000000000CC00,1,1477341718443836,1477341718443836,1,0.8125,13312,-29.0,865.7,5.3996124
40000000000000000000CC00,1,1477341718450778,1477341718450778,1,0.0,13312,-29.0,865.7,5.4057484
40000000000000000000CC00,1,1477341718458021,1477341718458021,1,2.4375,13312,-29.0,865.7,5.3934765
40000000000000000000CC00,1,1477341718464718,1477341718464718,1,2.4375,13312,-29.0,865.7,5.3934765
40000000000000000000CC00,1,1477341718471667,1477341718471667,1,-0.8125,13312,-29.0,865.7,5.4057484
40000000000000000000CC00,1,1477341718478882,1477341718478882,1,1.625,13312,-29.0,865.7,5.3934765
40000000000000000000CC00,1,1477341718485797,1477341718485797,1,0.0,13312,-29.0,865.7,5.3996124
40000000000000000000CC00,1,1477341718492544,1477341718492544,1,3.25,13312,-29.0,865.7,5.3873405
40000000000000000000CC00,1,1477341718499540,1477341718499540,1,1.625,13312,-29.0,865.7,5.3934765
40000000000000000000CC00,1,1477341718506478,1477341718506478,1,1.625,13312,-29.0,865.7,5.3873405
40000000000000000000CC00,1,1477341718513543,1477341718513543,1,0.0,13312,-29.0,865.7,5.3996124
40000000000000000000CC00,1,1477341718520509,1477341718520509,1,0.8125,13312,-29.0,865.7,5.3996124
40000000000000000000CC00,1,1477341718527792,1477341718527792,1,1.625,13312,-29.0,865.7,5.3873405
40000000000000000000CC00,1,1477341718534518,1477341718534518,1,0.8125,13312,-29.0,865.7,5.3934765
40000000000000000000CC00,1,1477341718541709,1477341718541709,1,0.8125,13312,-29.0,865.7,5.3996124
40000000000000000000CC00,1,1477341718548675,1477341718548675,1,0.8125,13312,-29.0,865.7,5.3996124
40000000000000000000CC00,1,1477341718555645,1477341718555645,1,0.0,13312,-29.0,865.7,5.4057484
40000000000000000000CC00,1,1477341718562531,1477341718562531,1,0.8125,13312,-29.0,865.7,5.3934765
40000000000000000000CC00,1,1477341718569250,1477341718569250,1,0.0,13312,-29.0,865.7,5.3996124
40000000000000000000CC00,1,1477341718576241,1477341718576241,1,0.0,13312,-29.0,865.7,5.3996124
40000000000000000000CC00,1,1477341718583463,1477341718583463,1,2.4375,13312,-29.0,865.7,5.3873405
40000000000000000000CC00,1,1477341718590138,1477341718590138,1,0.8125,13312,-29.0,865.7,5.3873405
40000000000000000000CC00,1,1477341718597037,1477341718597037,1,0.0,13312,-29.0,865.7,5.3996124
40000000000000000000CC00,1,1477341718604193,1477341718604193,1,0.8125,13312,-29.0,865.7,5.3934765
40000000000000000000CC00,1,1477341718611115,1477341718611115,1,-0.8125,13312,-29.0,865.7,5.4057484
40000000000000000000CC00,1,1477341718618056,1477341718618056,1,1.625,13312,-29.0,865.7,5.3873405
40000000000000000000CC00,1,1477341718625011,1477341718625011,1,1.625,13312,-29.0,865.7,5.3934765
40000000000000000000CC00,1,1477341718631938,1477341718631938,1,2.4375,13312,-29.0,865.7,5.3873405
40000000000000000000CC00,1,1477341718638604,1477341718638604,1,0.8125,13312,-29.0,865.7,5.3934765
40000000000000000000CC00,1,1477341718645502,1477341718645502,1,1.625,13312,-29.0,865.7,5.3996124
40000000000000000000CC00,1,1477341718652630,1477341718652630,1,2.4375,13312,-29.0,865.7,5.3934765
40000000000000000000CC00,1,1477341718659868,1477341718659868,1,-0.8125,13312,-29.0,865.7,5.3996124
40000000000000000000CC00,1,1477341718666553,1477341718666553,1,2.4375,13312,-29.0,865.7,5.3873405
40000000000000000000CC00,1,1477341718673568,1477341718673568,1,2.4375,13312,-29.0,865.7,5.3812046
40000000000000000000CC00,1,1477341718680763,1477341718680763,1,3.25,13312,-29.0,865.7,5.3873405
40000000000000000000CC00,1,1477341718687519,1477341718687519,1,0.8125,13312,-29.0,865.7,5.3934765
40000000000000000000CC00,1,1477341718694664,1477341718694664,1,0.8125,13312,-29.0,865.7,5.3996124
40000000000000000000CC00,1,1477341718701608,1477341718701608,1,0.8125,13312,-29.0,865.7,5.3934765
40000000000000000000CC00,1,1477341718708604,1477341718708604,1,0.0,13312,-29.0,865.7,5.3996124
40000000000000000000CC00,1,1477341718715290,1477341718715290,1,0.8125,13312,-29.0,865.7,5.3934765
40000000000000000000CC00,1,1477341718722271,1477341718722271,1,0.0,13312,-29.0,865.7,5.3996124
40000000000000000000CC00,1,1477341718729460,1477341718729460,1,2.4375,13312,-29.0,865.7,5.3873405
40000000000000000000CC00,1,1477341718736353,1477341718736353,1,0.0,13312,-29.0,865.7,5.3996124
40000000000000000000CC00,1,1477341718743324,1477341718743324,1,4.875,13312,-29.0,865.7,5.3873405
40000000000000000000CC00,1,1477341718750221,1477341718750221,1,3.25,13312,-29.0,865.7,5.3812046
40000000000000000000CC00,1,1477341718756920,1477341718756920,1,2.4375,13312,-29.0,865.7,5.3873405
40000000000000000000CC00,1,1477341718764142,1477341718764142,1,3.25,13312,-29.0,865.7,5.3812046
40000000000000000000CC00,1,1477341718771088,1477341718771088,1,0.8125,13312,-29.0,865.7,5.3934765
40000000000000000000CC00,1,1477341718777799,1477341718777799,1,0.8125,13312,-29.0,865.7,5.3812046
40000000000000000000CC00,1,1477341718784842,1477341718784842,1,0.0,13312,-29.0,865.7,5.3934765
40000000000000000000CC00,1,1477341718791815,1477341718791815,1,2.4375,13312,-29.0,865.7,5.3873405
40000000000000000000CC00,1,1477341718798742,1477341718798742,1,3.25,13312,-29.0,865.7,5.3873405
40000000000000000000CC00,1,1477341718805963,1477341718805963,1,1.625,13312,-29.0,865.7,5.3873405
40000000000000000000CC00,1,1477341718812929,1477341718812929,1,-0.8125,13312,-29.0,865.7,5.3996124
40000000000000000000CC00,1,1477341718819616,1477341718819616,1,2.4375,13312,-29.0,865.7,5.3873405
40000000000000000000CC00,1,1477341718826783,1477341718826783,1,0.8125,13312,-29.0,865.7,5.3934765
