-30.5,0.0,-0.8125
-29.0,-4.896466674930966,0.8125
-61.0,2.8654761117703775,-8.125
-60.0,0.10431069357622391,-14.625
-29.0,-2.9820586516496865,-0.8125
-30.5,4.896466674930966,-1.625
-59.5,-2.239611950313036,36.5625
-29.5,-2.6752624940725585,1.625
-30.5,4.90260259808251,1.625
-59.0,-1.9696313316451635,-16.25
-29.0,-2.9452431127404313,1.625
-30.5,4.9394181369917645,-4.0625
-61.0,-1.9021361769781953,-9.75
-60.0,0.09817477042468115,-15.4375
-30.5,1.797825483401971,-0.8125
-29.0,-4.921010367537137,0.0
-60.0,3.104777114680538,-8.125
-61.0,-0.5338253141842033,5.6875
-30.5,2.331650797586175,4.0625
-29.0,-4.9210103675371375,2.4375
-63.0,-0.619728238305799,50.4375
-60.0,3.0925052683774528,58.5625
-60.5,0.5706408530934586,2.4375
-29.5,-3.043417883165112,3.25
-30.5,4.914874444385594,2.4375
-60.0,-2.0371264863121312,8.9375
-62.0,-0.23316507975861755,42.3125
-29.0,-2.6261751088602177,0.0
-61.5,3.2643111166206444,-65.875
-30.0,1.6382914814618652,2.4375
-58.5,-1.6260196351587801,-76.4375
-29.5,-3.3011266555298997,2.4375
-30.5,4.921010367537137,2.4375
-59.0,-1.853048791765854,-58.5625
-59.5,-0.03681553890925571,-16.25
-30.5,1.896000253826653,0.8125
-29.0,-4.914874444385594,0.8125
-61.0,2.82252464970958,-17.875
-60.5,0.49087385212340484,-29.25
-29.5,-3.313398501832985,-0.8125
-30.0,4.914874444385594,2.4375
-60.0,-2.0493983326152168,17.875
-61.0,-0.03067961575771294,32.5
-29.0,-2.8532042654672924,5.6875
-30.5,4.933282213840222,0.8125
-59.0,-2.2518837966161214,45.5625
-60.0,-0.8774370106705871,147.25
-29.5,-1.7916895602504286,1.625
-30.5,4.9210103675371375,2.4375
-60.5,-2.3500585670408025,-5.6875
-60.0,0.5338253141842029,1.625
-29.5,-3.11091303783208,2.4375
-30.5,4.9394181369917645,0.8125
-60.5,-1.6505633277649499,-48.8125
-60.5,-0.5951845456996288,15.4375
-63.5,1.0799224746714913,20.3125
-29.5,-3.7981364308048473,7.3125
-30.5,4.95168998329485,2.4375
-62.0,-1.4235341711578755,20.3125
-60.0,-0.2454369260617022,-23.5625
-63.5,2.196660488252238,-1.625
-30.5,-0.5338253141842033,0.8125
-29.5,-4.902602598082509,1.625
-58.0,2.693670263527186,34.9375
-59.5,-0.03067961575771294,0.0
-62.0,-3.2213596545598464,-39.875
-30.5,5.4671075280244255,4.875
-29.5,-4.9210103675371375,1.625
-60.0,2.6568547246179306,18.6875
-63.5,-3.2520392703175593,2.4375
-59.0,3.749049045592507,-26.0
-29.0,-3.141592653589793,0.8125
-30.5,4.921010367537137,0.0
-60.0,-1.9205439464328227,-13.8125
-60.5,0.7547185476397353,46.375
-59.5,-1.0185632431560654,-19.5
-30.0,2.165980872494525,1.625
-29.5,-4.914874444385594,3.25
-60.0,2.859340188618835,-1.625
-62.0,0.8160777791551608,8.125
-61.0,-0.6565437772150542,-16.25
-29.5,-3.0066023442558567,2.4375
-30.5,4.896466674930966,0.8125
-60.5,-1.9205439464328227,-8.125
-30.5,1.926679869584365,0.8125
-29.5,-4.884194828627881,0.0
-58.5,3.184544115650591,-0.8125
-61.0,1.0124273200045235,-20.3125
-29.5,-4.2092432819582,1.625
-30.5,4.884194828627882,2.4375
-59.5,-2.190524565100696,33.3125
-62.5,0.3190680038802136,-15.4375
-29.5,-3.0250101137104846,2.4375
-30.5,4.933282213840221,-1.625
-61.0,-2.8163887265580367,73.1875
-59.5,1.055378782065321,-36.5625
-29.5,-3.153864499892878,0.8125
-30.5,4.878058905476339,4.0625
-61.0,-2.478912953223196,76.4375
-61.0,0.7669903939428204,-17.0625
-62.5,1.0492428589137783,-17.875
-30.0,-4.227651051412827,3.25
-30.5,4.890330751779424,1.625
-60.5,-1.7548740213411738,-65.875
-60.5,-0.07363107781851053,-18.6875
-61.0,1.17196132194463,-32.5
-30.5,0.6626797003665965,1.625
-29.5,-4.884194828627882,1.625
-59.5,3.3931655028030385,-29.25
-60.5,-0.49700977527494805,19.5
-29.5,-2.890019804376548,0.8125
-30.5,4.878058905476339,0.8125
-30.5,-0.024543692606170175,4.875
-29.5,-4.853515212870168,0.0
-62.0,2.742757648739526,47.1875
-30.5,2.12916533358527,0.8125
-60.0,-1.877592484372025,2.4375
-30.0,-2.994330497952771,0.8125
-61.5,3.055689729468197,-21.125
-30.5,1.8162332528565992,0.8125
-30.0,-4.865787059173254,0.8125
-62.0,2.9575149590435164,-8.125
-60.0,0.05522330836388267,-39.875
-63.5,-3.239767424014474,-112.25
-30.0,0.22089323345553236,2.4375
-30.0,4.865787059173254,2.4375
-61.5,-2.34392264388926,79.75
-60.5,0.6258641614573417,-35.75
-62.0,-3.497476196379262,-31.6875
-30.0,0.3497476196379262,0.8125
-30.5,4.871922982324796,0.8125
-30.5,0.006135923151542322,2.4375
-30.0,-4.890330751779424,5.6875
-30.0,4.884194828627882,2.4375
-29.5,-4.871922982324796,4.875
-61.0,2.908427573831176,23.5625
-60.5,1.190369091399257,23.5625
-61.0,-1.3437671701878213,-8.9375
-29.5,-2.742757648739526,0.8125
-30.5,4.865787059173254,1.625
-60.0,-1.9634954084936207,1.625
-60.5,-0.09203884727313838,24.375
-30.0,-2.804116880254952,1.625
-30.5,4.847379289718626,2.4375
-60.0,-1.8100973297050569,-32.5
-60.5,-0.20862138715244738,-32.5
-63.0,-3.3318062712876126,4.875
-30.5,5.356660911296659,1.625
-30.0,-4.841243366567084,0.8125
-59.5,2.7550294950426117,10.5625
-60.0,1.4051264017032468,-2.4375
-59.5,-1.3008157081270233,34.125
-30.0,-2.8532042654672924,3.25
-30.5,4.841243366567084,2.4375
-59.5,-1.8714565612204823,-44.75
-60.5,-0.12885438618239364,11.375
-30.5,2.0064468705544183,0.8125
-29.5,-4.816699673960913,-0.8125
-59.0,2.742757648739526,43.9375
-61.5,-0.4049709280018092,75.625
-30.5,2.4911847995262812,0.0
-29.5,-4.804427827657828,-2.4375
-60.0,2.1230294104337273,105.75
-59.0,0.7853981633974483,-31.6875
-62.0,2.411417798556228,6.5
-30.0,-5.307573526084319,-1.625
-30.5,4.779884135051658,2.4375
-61.0,-2.1107575641306418,2.4375
-59.5,0.12271846303085132,78.0625
-30.5,2.000310947402876,0.0
-30.0,-4.81056375080937,2.4375
-62.0,2.466641106920111,26.8125
-59.5,0.5522330836388307,-29.25
-30.0,-2.988194574801229,-1.625
-30.5,4.767612288748572,4.0625
-60.5,-1.6935147898257474,-65.875
-60.5,0.04908738521234035,-86.25
-62.0,2.270291566070749,30.875
-30.0,-5.393476450205914,-2.4375
-60.5,2.8409324191642074,-20.3125
-30.5,1.9328157927359082,0.8125
-60.0,-1.8162332528565996,-16.25
-62.0,2.454369260617026,22.75
-63.5,-1.4173982480063323,43.125
-30.5,0.779262240245906,0.8125
-29.5,-4.786020058203201,0.8125
-59.5,3.0802334220743672,-19.5
-61.0,-0.06135923151542544,52.875
-61.5,-0.5522330836388307,39.875
-63.5,-3.2397674240144743,-26.0
-30.5,5.559146375297564,0.8125
-29.5,-4.779884135051658,1.625
-60.5,2.920699420134261,-19.5
-61.5,-0.14112623248547917,8.9375
-29.5,-2.7979809571034093,4.875
-30.5,4.81056375080937,-0.8125
-60.0,-1.8469128686143117,-36.5625
-60.5,0.9203884727313847,6.5
-60.0,-1.4603497100671303,26.0
-29.0,-2.3684663364954304,0.8125
-30.5,4.743068596142403,4.0625
-60.0,-1.8898643306751102,-14.625
-60.0,0.14112623248547873,-34.125
-63.0,2.288699335525377,24.375
-30.5,-0.5338253141842033,0.8125
-29.0,-4.6878452877785195,-0.8125
-61.5,-0.7485826244881929,3.25
-60.0,3.7551849687440497,3.25
-61.0,-0.12271846303085132,-71.5625
-29.5,-2.8777479580734626,0.0
-30.5,4.693981210930062,0.0
-61.5,-1.9021361769781948,-14.625
-59.5,-0.1472621556370215,48.8125
-63.0,-3.454524734318464,36.5625
-61.0,4.693981210930062,0.8125
-30.5,0.822213702306704,0.0
-29.5,-4.706253057233147,1.625
-61.0,2.693670263527186,-8.9375
-59.5,-0.116582539879309,3.25
-29.0,-2.5832236467994196,5.6875
-59.5,2.8838838812250054,-17.0625
-31.0,1.8346410223112266,-0.8125
-59.0,-1.8775924843720246,-61.8125
-62.5,-3.693825737228624,32.5
-29.0,0.8774370106705868,3.25
-31.0,4.663301595172349,2.4375
-60.0,-1.6260196351587797,-52.0625
-61.0,-0.8344855486097886,43.9375
-62.0,-3.0311460368620273,-4.875
-31.0,5.491651220630596,5.6875
-29.0,-4.638757902566179,1.625
-63.5,-0.4111068511533519,-54.5
-60.0,2.5280003384355365,70.75
-58.5,-0.15339807878856426,115.5
-31.0,2.6936702635271863,-0.8125
-29.0,-4.6448938257177215,1.625
-61.0,2.5157284921324514,75.625
-62.0,-0.17180584824319212,31.6875
-30.5,2.2886993355253766,2.4375
-29.0,-4.638757902566178,1.625
-60.0,3.0495538063166543,-54.5
-60.5,-0.7547185476397353,43.9375
-29.5,-2.3009711818284613,2.4375
-31.0,4.632621979414637,4.0625
-31.0,0.0,4.0625
-59.0,-2.0678061020698446,38.1875
-29.0,-2.5709518004963345,1.625
-61.0,3.9515345095934116,31.6875
-31.0,0.674951546669682,4.875
-29.5,-4.614214209960009,0.8125
-29.5,0.012271846303085088,0.0
-31.0,4.608078286808466,4.875
-63.0,-2.362330413343887,16.25
-61.5,0.6197282383057989,-9.75
-29.0,-2.8900198043765477,2.4375
-31.0,4.6448938257177215,0.8125
-60.0,-2.2027964114037806,-2.4375
-61.0,0.15953400194010658,24.375
-62.0,0.5767767762450013,51.25
-29.0,-3.160000423044421,0.8125
-31.0,4.614214209960008,4.875
-62.0,-2.0432624094636735,26.0
-61.0,1.129009859883832,26.0
-60.5,-1.129009859883832,0.8125
-29.0,-2.570951800496335,1.625
-31.0,4.626486056263094,0.0
-60.5,-1.7732817907958012,-26.8125
-61.5,-0.12271846303085132,-10.5625
-61.5,1.4910293258248433,-30.875
-30.5,0.3926990816987237,4.0625
-29.5,-4.626486056263094,3.25
-29.0,0.006135923151542544,2.4375
-31.0,4.632621979414637,0.0
-31.0,-0.012271846303085532,0.0
-29.5,-4.601942363656923,-0.8125
-60.0,2.9206994201342606,-41.5
-62.0,-0.2699806186678728,-11.375
-63.5,-3.0495538063166547,-60.1875
-29.5,0.39269908169872414,0.8125
-31.0,4.614214209960009,-1.625
-29.0,-4.601942363656924,0.0
-31.0,4.5835345942022965,2.4375
-29.5,-4.5835345942022965,0.8125
-31.0,4.589670517353838,1.625
-59.0,-1.5830681730979812,-45.5625
-60.5,-0.17794177139473488,-46.375
-60.0,-0.2024854640009046,48.8125
-29.5,-2.6445828783148455,3.25
-31.0,4.595806440505381,2.4375
-29.5,-4.5835345942022965,2.4375
-31.0,4.595806440505381,0.8125
-29.0,-4.583534594202296,0.0
-31.0,4.577398671050753,2.4375
-61.0,-1.9941750242513336,12.1875
-29.5,-2.595495493102505,3.25
-31.0,4.589670517353839,1.625
-61.5,-1.7855536370988863,-83.0
-59.0,-0.32520392703175593,65.875
-65.0,-3.215223731408304,-24.375
-31.0,5.325981295538947,2.4375
-59.5,-1.6812429435226628,-15.4375
-29.5,-2.908427573831176,3.25
-63.5,2.718213956133356,-17.875
-29.5,-2.693670263527186,1.625
-31.0,4.558990901596125,4.0625
-60.5,-2.0371264863121317,22.75
-62.5,0.09203884727313838,-3.25
-29.0,-2.6016314162540475,0.8125
-31.0,4.540583132141498,4.0625
-63.0,-2.0739420252213865,19.5
-61.0,-0.23930100291016032,57.75
-31.0,2.3071071049800045,4.0625
-29.5,-4.52217536268687,1.625
-60.5,2.6016314162540475,-14.625
-62.0,-0.23930100291015988,16.25
-31.0,2.172116795646068,4.0625
-29.5,-4.509903516383785,0.0
-60.0,2.448233337465483,59.375
-61.0,0.07363107781851097,11.375
-29.5,-2.509592568980909,1.625
-31.0,4.503767593232243,2.4375
-59.5,-2.0125827937059615,23.5625
-62.0,-3.4974761963792615,40.6875
-61.5,3.466796580621549,22.75
-31.0,2.0555342557667586,0.8125
-29.5,-4.4976316700806995,3.25
-59.0,2.350058567040802,61.8125
-59.5,-0.4356505437595217,104.9375
-29.0,-1.834641022311227,2.4375
-31.5,4.436272438565274,1.625
-59.5,-2.0064468705544183,8.9375
-61.5,-0.4233786974564371,36.5625
-29.0,-1.9819031779482486,4.875
-31.5,4.405592822807561,2.4375
-60.0,-1.5033011721279284,-78.875
-61.5,-0.44178646691106493,10.5625
-29.0,-2.3684663364954295,0.8125
-31.5,4.331961744989051,0.8125
-58.0,-2.0064468705544187,-19.5
-61.0,-0.6565437772150546,95.1875
-31.5,2.6691265709210157,1.625
-29.0,-4.319689898685965,3.25
-59.5,2.3930100291016,-25.1875
-61.5,-0.42337869745643664,40.6875
-29.0,-1.9144080232812803,2.4375
-32.0,4.246058820867455,4.0625
-59.5,-1.8039614065535137,-23.5625
-61.0,-0.3190680038802136,42.3125
-29.5,-2.067806102069844,5.6875
-32.0,4.196971435655113,2.4375
-60.5,-2.239611950313036,39.875
-29.5,-1.871456561220482,-1.625
-32.5,4.117204434685061,1.625
-60.5,-1.9450876390389933,-9.75
-60.5,0.337475773334841,-26.0
-63.5,2.233476027161494,141.5625
-30.0,-4.724660826687775,0.8125
-32.5,4.09266074207889,1.625
-63.5,-5.283029833478148,0.0
-62.0,3.2888548092268146,-13.8125
-59.0,0.3804272353956395,-64.25
-64.0,0.7915340865489906,28.4375
-30.0,-3.245903347166017,3.25
-63.0,-0.6933593161243099,-87.0625
-32.5,4.76147636559703,0.0
-61.0,-1.853048791765854,-33.3125
-59.5,0.09203884727313838,-17.875
-61.5,1.0185632431560654,1.625
-30.0,-3.288854809226814,0.8125
-33.0,4.01902966426038,1.625
-65.0,-5.3198453723874035,-9.75
-60.5,4.73693267299086,-7.3125
-61.0,-1.1658253987930873,-34.9375
-62.5,-0.39269908169872414,20.3125
-30.0,-1.8530487917658545,1.625
-33.0,4.000621894805752,0.0
-61.5,-1.9328157927359078,-9.75
-62.0,0.2699806186678728,-98.4375
-33.0,1.6321555583103224,4.0625
-29.5,-3.939262663290327,0.8125
-60.0,1.8346410223112268,35.75
-61.0,0.3497476196379261,-105.75
-29.5,-2.172116795646068,3.25
-33.0,3.9331267401387837,0.0
-60.5,-1.7671458676442584,-36.5625
-61.0,-0.03681553890925571,-57.75
-62.5,-2.2886993355253766,-208.3125
-29.5,0.19634954084936207,2.4375
-33.0,3.890175278077986,1.625
-61.0,-2.1537090261914402,-51.25
-58.5,0.01840776945462741,17.0625
-29.5,-1.6935147898257477,1.625
-33.5,3.810408277107933,1.625
-61.0,-1.7671458676442584,-61.8125
-60.0,-0.17180584824319212,5.6875
-29.5,-1.859184714917397,2.4375
-33.0,3.7797286613502195,2.4375
-59.5,-2.1721167956460676,46.375
-61.0,0.589048622548086,-111.4375
-60.0,1.0308350894591514,-6.5
-29.5,-3.1477285767413363,4.875
-33.5,3.6815538909255388,2.4375
-61.5,-1.9082721001297371,39.875
-60.0,1.5217089415825558,-14.625
-29.5,-3.264311116620644,5.6875
-61.5,1.5155730184310132,16.25
-33.5,2.1168934872821854,4.0625
-60.5,-1.8714565612204828,-3.25
-60.5,0.6626797003665974,21.125
-60.5,0.6626797003665965,-23.5625
-29.5,-3.055689729468197,4.875
-60.0,1.5155730184310134,20.3125
-34.0,2.0800779483729293,4.0625
-62.0,-2.0800779483729293,21.125
-29.5,-1.491029325824843,1.625
-33.5,3.583379120500858,0.8125
-61.0,-2.086213871524472,15.4375
-33.5,2.0984857178275567,-0.8125
-29.5,-3.601786889955485,4.875
-61.0,2.485048876374739,7.3125
-29.5,-2.466641106920111,2.4375
-34.0,3.5711072741977725,0.0
-60.5,-1.779417713947344,15.4375
-30.0,-1.7794177139473437,4.875
-34.0,3.5342917352885177,2.4375
-62.0,-1.540116711037184,-54.5
-60.0,-0.19021361769781953,-16.25
-29.5,-1.7732817907958012,4.875
-33.5,3.509748042682347,2.4375
-59.5,-1.497165248976386,-49.625
-34.0,1.5155730184310139,-1.625
-29.5,-3.5342917352885177,3.25
-58.5,1.8407769454627696,-4.875
-60.0,0.8774370106705862,43.125
-34.0,0.8099418560036193,-1.625
-29.5,-3.51588396583389,3.25
-63.5,1.2026409377023428,99.25
-60.5,0.5460971604872884,14.625
-60.0,0.4908738521234053,15.4375
-33.5,1.2455923997631402,5.6875
-29.5,-3.454524734318464,0.8125
-62.0,1.423534171157875,16.25
-60.5,0.32520392703175593,17.0625
-30.0,-1.7426021750380882,3.25
-34.0,3.466796580621549,0.8125
-62.0,-0.5583690067903735,-35.75
-58.5,-1.2885438618239387,28.4375
-34.0,1.8346410223112266,-0.8125
-30.0,-3.4361169648638357,2.4375
-58.0,1.91440802328128,-36.5625
-60.5,0.95720401164064,-10.5625
-30.0,-2.8654761117703775,6.5
-34.0,3.448388811166921,0.0
-61.5,-1.883728407523567,-33.3125
-59.5,-0.17180584824319212,30.875
-61.5,-3.11091303783208,-0.8125
-29.5,1.7119225592803757,3.25
-34.0,3.448388811166921,1.625
-61.0,-1.8223691760081415,32.5
-63.5,0.7240389318820224,-3.25
-61.0,-0.7853981633974483,-41.5
-34.0,1.8898643306751097,0.0
-30.0,-3.436116964863836,2.4375
-58.5,1.6198837120072374,-25.1875
-61.5,-0.41724277430489476,15.4375
-30.0,-1.2149127840054277,4.875
-34.0,3.442252888015379,4.0625
-60.0,-4.473087977474529,-50.4375
-61.0,2.4973207226778236,8.125
-34.0,1.9757672547967058,2.4375
-30.0,-3.4177091954092087,2.4375
-60.5,1.791689560250429,-43.125
-61.5,-3.3870295796514958,4.875
-30.0,1.6137477888556946,4.875
-34.0,3.4115732722576664,-1.625
-58.5,-1.877592484372025,-21.125
-61.5,-0.2761165418194156,28.4375
-30.0,-1.2026409377023426,3.25
-34.0,3.3133985018329852,4.875
-58.0,-1.853048791765855,4.875
-61.0,0.0674951546669682,-13.8125
-30.0,-1.4726215563702154,2.4375
-34.0,3.258175193469102,4.0625
-58.0,-1.497165248976386,-36.5625
-60.5,0.024543692606170175,-122.0625
-30.5,-1.736466251886546,1.625
-34.5,3.2029518851052186,0.8125
-59.5,-1.896000253826652,33.3125
-59.5,0.09203884727313838,-27.625
-30.5,-1.337631247036279,1.625
-34.5,3.129320807286708,0.0
-61.5,-2.141437179888355,13.8125
-59.0,0.6381360077604268,-39.875
-62.5,-3.767456815047135,36.5625
-34.5,5.258486140871978,1.625
-30.5,-3.0740974989228245,1.625
-60.0,1.1719613219446297,36.5625
-61.0,1.3744467859455347,35.75
-63.5,-1.3499030933393645,-8.125
-30.0,-1.1351457830353744,4.875
-34.5,2.9391071895888885,8.125
-60.5,-1.5033011721279284,-27.625
-62.5,-0.95720401164064,56.9375
-30.0,-0.39269908169872414,-1.625
-35.0,2.84706834231575,4.875
-60.0,-1.8162332528565992,47.1875
-60.5,0.7056311624273945,26.8125
-60.5,-0.9817477042468101,43.9375
-30.0,-0.6872233929727671,2.4375
-34.5,2.7550294950426117,4.0625
-61.0,-0.9694758579437259,34.125
-60.0,-0.6504078540635114,-17.0625
-34.5,1.5830681730979816,4.0625
-30.0,-2.650718801466388,2.4375
-59.0,0.9878836273983529,6.5
-60.5,0.30066023442558576,43.9375
-30.0,-1.2701360923693112,4.875
-34.5,2.620039185708675,1.625
-61.5,-0.41110685115335155,-25.1875
-61.5,-1.1842331682477147,-16.25
-61.0,0.012271846303085088,0.0
-61.0,0.674951546669682,-17.0625
-35.0,0.8590292412159588,6.5
-30.0,-2.5034566458293663,2.4375
-61.5,0.6872233929727676,4.875
-59.0,0.4049709280018092,-44.75
-30.0,-1.055378782065321,7.3125
-34.5,2.429825568010856,4.0625
-60.0,-1.5646604036433542,-7.3125
-58.5,-0.2024854640009046,17.875
-34.5,1.7610099444927156,1.625
-30.0,-2.4114177985562275,6.5
-61.0,0.7608544707912781,-24.375
-57.5,0.15339807878856382,-5.6875
-35.0,1.4603497100671308,4.875
-30.5,-2.3132430281315473,1.625
-60.5,0.5829126993965437,90.3125
-60.5,0.0,-7.3125
-34.5,1.736466251886546,2.4375
-30.0,-2.313243028131547,4.875
-59.5,0.8528933180644165,0.8125
-62.5,-0.03681553890925571,-19.5
-30.5,-0.7853981633974483,1.625
-35.0,2.251883796616122,5.6875
-35.0,-0.00613592315154321,4.875
-30.5,-2.276427489222291,6.5
-59.5,1.1965050145507998,81.375
-63.5,-3.6570101983193686,-29.25
-30.5,2.485048876374739,3.25
-34.5,2.258019719767664,4.0625
-60.5,-1.86532063806894,31.6875
-60.5,0.012271846303085088,28.4375
-30.5,-0.4049709280018092,3.25
-35.0,2.258019719767664,2.4375
-61.0,-1.8285050991596847,69.125
-57.5,0.2147573103039897,28.4375
-30.5,-0.6135923151542562,2.4375
-35.0,2.2089323345553233,4.0625
-60.0,-1.4726215563702159,-13.8125
-62.0,0.09817477042468115,-7.3125
-34.5,1.3683108627939924,4.0625
-31.0,-2.208932334555324,4.875
-58.5,0.7669903939428204,19.5
-61.0,-0.2883883881225002,12.1875
-61.5,1.2701360923693108,40.6875
-62.0,-0.9142525495798424,-63.4375
-31.0,-0.8099418560036185,5.6875
-34.5,2.1659808724945258,4.0625
-61.0,-1.4480778637640457,26.0
-34.5,1.4419419406125025,1.625
-31.5,-2.0739420252213865,0.0
-61.0,0.5338253141842033,14.625
-61.0,-0.4908738521234053,68.3125
-34.5,2.0493983326152163,0.0
-31.5,-2.1291653335852696,6.5
-60.5,0.6933593161243095,-56.9375
-59.0,0.20862138715244738,-4.875
-63.0,2.3193789512830896,43.125
-34.5,-1.1412817061869172,5.6875
-31.5,-1.9819031779482486,-2.4375
-61.5,0.3313398501832987,52.0625
-59.0,0.39269908169872414,-0.8125
-34.5,1.2762720155208536,0.8125
-32.0,-2.0125827937059615,1.625
-60.0,0.5706408530934586,23.5625
-61.0,-0.1349903093339364,8.125
-32.0,-0.41110685115335155,-2.4375
-34.5,1.9573594853420775,4.875
-60.5,-1.3867186322486194,-1.625
-34.5,1.3867186322486194,5.6875
-32.0,-1.9573594853420775,0.8125
-32.0,-0.012271846303085532,5.6875
-34.5,1.9819031779482486,4.0625
-32.0,-1.957359485342078,3.25
-34.5,1.9450876390389924,4.0625
-59.0,-1.0676506283684057,-42.3125
-61.5,-0.12271846303085132,-48.8125
-32.0,-0.7240389318820228,0.0
-61.5,0.8406214717613314,-57.75
-34.5,1.0676506283684062,2.4375
-32.5,-1.8960002538266525,2.4375
-59.5,0.6749515466696825,-16.25
-34.5,1.22104870715697,2.4375
-61.5,-0.5829126993965437,-33.3125
-32.5,-1.3130875544301088,5.6875
-34.5,1.9021361769781948,4.875
-63.0,-1.589204096249524,45.5625
-60.5,0.2822524649709579,-26.0
-35.0,1.306951631278566,4.0625
-32.5,-1.853048791765854,2.4375
-61.0,0.6442719309119691,-63.4375
-59.5,-0.1472621556370215,-0.8125
-32.5,-0.4786020058203202,1.625
-35.0,1.8469128686143121,0.0
-58.5,-1.0615147052168639,-40.6875
-32.5,-0.7853981633974483,4.875
-34.5,1.8285050991596843,4.875
-56.5,-1.0799224746714913,-35.75
-33.0,-0.705631162427395,2.4375
-35.0,1.779417713947344,4.0625
-58.5,-1.1474176293384595,-24.375
-62.0,-0.3436116964863838,-29.25
-32.5,-0.24543692606170264,2.4375
-35.0,1.7426021750380882,2.4375
-33.0,-1.7119225592803753,1.625
-35.0,1.7241944055834608,4.0625
-35.0,0.006135923151542322,4.0625
-33.0,-1.6689710972195777,-1.625
-61.5,0.22089323345553247,-57.75
-59.0,0.1472621556370215,-10.5625
-35.0,1.2946797849754814,4.0625
-33.0,-1.6382914814618648,0.8125
-60.0,0.3497476196379261,3.25
-33.0,-0.3497476196379261,2.4375
-35.0,1.6566992509164926,0.8125
-59.0,-1.3008157081270242,-14.625
-33.0,-0.337475773334841,3.25
-35.0,1.6137477888556941,5.6875
-64.5,-5.02532106111336,-26.8125
-60.5,3.497476196379262,-6.5
-60.0,0.25157284921324496,-34.9375
-33.0,-0.2822524649709579,0.0
-61.0,0.03067961575771294,5.6875
-35.0,1.5401167110371836,5.6875
-59.5,-1.0799224746714913,-20.3125
-35.0,1.0921943209745768,2.4375
-33.0,-1.5523885573402691,0.0
-62.5,-0.024543692606170175,41.5
-59.5,0.08590292412159561,28.4375
-33.0,-0.04908738521234035,0.8125
-35.0,1.5462526341887264,2.4375
-60.0,-1.7241944055834608,65.875
-63.0,0.5951845456996288,5.6875
-61.5,1.0553787820653215,-6.5
-33.5,-1.4480778637640457,0.8125
-35.5,1.5217089415825562,2.4375
-62.5,-0.14726215563702194,7.3125
-60.5,-1.3130875544301084,37.375
-60.5,-0.23930100291016032,22.75
-60.5,0.8099418560036185,8.125
-33.5,-0.3742913122440963,7.3125
-35.5,1.294679784975481,6.5
-63.0,-1.8530487917658545,54.5
-34.0,0.6872233929727676,2.4375
-35.5,1.1965050145508003,2.4375
-61.0,-1.6628351740680354,44.75
-33.5,0.5154175447295755,1.625
-36.0,1.1658253987930869,1.625
-33.5,-1.1106020904292038,2.4375
-35.5,1.0921943209745768,5.6875
-35.5,0.012271846303084644,7.3125
-33.5,-1.0676506283684057,2.4375
-60.0,-0.5460971604872888,22.75
-60.0,-0.2331650797586171,31.6875
-61.5,1.8223691760081415,-28.4375
-33.5,-0.969475857943725,0.8125
-35.5,1.030835089459151,1.625
-60.0,-1.4173982480063327,30.875
-33.0,0.45405831321415,-1.625
-35.5,0.9633399347921827,0.8125
-62.0,-5.037592907416446,62.625
-60.5,3.650874275167826,-37.375
-33.0,0.4295146206079794,1.625
-36.0,0.9510680884890981,1.625
-60.5,-0.4295146206079803,7.3125
-60.0,-1.4971652489763856,71.5625
-33.0,1.000155473701438,2.4375
-35.5,0.9265243958829279,2.4375
-60.5,-1.6198837120072374,52.875
-33.0,0.7179030087304796,4.875
-61.5,-0.7853981633974478,26.0
-35.5,1.6812429435226623,1.625
-58.5,-1.6689710972195773,41.5
-33.0,0.8099418560036185,3.25
-35.5,0.865165164367502,2.4375
-61.0,-1.245592399763141,-28.4375
-33.0,0.4601942363656928,0.0
-35.5,0.7731263170943627,4.875
-60.0,-1.5094370952794711,22.75
-60.5,0.20862138715244738,-9.75
-32.5,0.5092816215780331,3.25
-35.5,0.8038059328520761,2.4375
-32.5,-0.7669903939428213,3.25
-35.5,0.7608544707912781,4.0625
-60.0,-1.3621749396424492,7.3125
-32.5,0.6013204688511711,3.25
-36.0,0.7608544707912781,4.0625
-59.5,-1.1596894756415441,-21.125
-60.5,0.8344855486097886,-1.625
-35.5,0.337475773334841,4.875
-32.0,-0.7301748550335656,1.625
-61.0,-4.417864669110647,23.5625
-59.0,3.785864584501762,-58.5625
-62.0,1.1290098598838316,-1.625
-35.5,0.233165079758618,2.4375
-32.0,-0.7240389318820224,0.0
-62.5,1.5953400194010667,78.0625
-35.5,-0.8528933180644165,0.0
-32.0,-0.7301748550335656,0.0
-61.0,-0.8038059328520761,6.5
-62.0,-3.337942194439155,-37.375
-32.0,4.135612204139688,3.25
-35.5,0.7240389318820224,0.0
-60.0,-1.368310862793992,24.375
-61.0,0.294524311274043,-87.875
-61.5,0.17794177139473444,-1.625
-64.5,-3.9208548938356986,-13.8125
-31.5,4.111068511533519,-0.8125
-36.0,0.7117670855789369,5.6875
-61.0,-1.6566992509164922,27.625
-62.0,-3.098641191528995,-10.5625
-36.0,4.786020058203201,0.8125
-31.0,-0.7608544707912781,-1.625
-62.5,0.5276893910326601,3.25
-60.0,-1.2394564766115979,-26.0
-31.0,0.6810874698212244,1.625
-36.0,0.7915340865489915,1.625
-60.5,-1.6566992509164926,0.8125
-36.5,1.6812429435226628,0.8125
-30.5,-0.8283496254582463,0.0
-62.0,-4.338097668140593,46.375
-60.0,3.6815538909255388,17.875
-30.5,0.6442719309119691,-0.8125
-58.5,-0.969475857943725,37.375
-36.0,1.834641022311227,0.0
-62.5,-4.816699673960914,-0.8125
-36.5,4.841243366567084,0.8125
-30.0,-0.9203884727313847,0.0
-59.5,-1.0062913968529807,45.5625
-29.5,0.9756117810952682,1.625
-36.5,0.9449321653375549,5.6875
-59.5,-1.4173982480063327,-35.75
-29.0,0.45405831321415,-0.8125
-36.5,1.012427320004523,1.625
-60.0,-2.12916533358527,98.4375
-29.0,1.0983302441261191,-1.625
-36.5,1.0185632431560654,5.6875
-59.5,-1.3437671701878213,-61.0
-28.5,0.3067961575771281,-2.4375
-36.5,1.0860583978230345,1.625
-58.5,-1.6198837120072374,-8.125
-28.5,0.515417544729575,-0.8125
-36.5,1.0676506283684066,7.3125
-59.5,-1.5278448647340985,-5.6875
-28.0,0.44792239006260726,-2.4375
-37.0,1.092194320974576,4.0625
-28.0,-1.1106020904292038,0.0
-36.5,1.1228739367322893,2.4375
-36.5,-0.012271846303085532,5.6875
-27.5,-1.1044661672776614,-1.625
-65.0,-3.6140587362585705,-56.9375
-59.5,3.429981041712294,-20.3125
-36.5,1.3008157081270237,4.875
-27.5,-1.1290098598838316,-1.625
-63.0,-0.42951462060797985,-35.75
-59.0,0.1288543861823941,-14.625
-61.5,2.2580197197676637,60.1875
-36.5,-0.8160777791551608,1.625
-27.5,-1.1535535524900027,-1.625
-60.5,-0.6258641614573417,38.1875
-37.0,1.7671458676442588,4.875
-27.5,-1.159689475641545,0.8125
-61.5,0.8958447801252145,-21.125
-59.5,-1.8162332528565988,59.375
-27.5,0.9265243958829275,-2.4375
-36.5,1.2026409377023421,-1.625
-59.0,-0.4847379289718621,-6.5
-62.0,-4.638757902566179,-14.625
-59.5,3.6140587362585705,-8.125
-62.0,0.10431069357622391,-59.375
-27.5,0.19021361769781908,0.0
-36.5,1.1658253987930873,8.125
-59.0,-1.8100973297050564,48.8125
-63.5,-3.479068426924634,96.8125
-61.0,3.5833791205008576,13.8125
-27.0,0.5215534678811178,-0.8125
-37.0,1.2517283229146834,-0.8125
-59.0,-1.5462526341887264,5.6875
-36.5,1.5339807878856409,2.4375
-27.0,-1.2824079386723959,2.4375
-62.5,0.5890486225480869,43.125
-60.5,-1.0308350894591514,-19.5
-61.0,0.4417864669110645,56.9375
-27.0,0.0,0.8125
-36.5,1.2946797849754814,2.4375
-61.0,-1.325359400733194,-47.1875
-61.0,0.3313398501832987,23.5625
-62.0,0.44178646691106405,52.0625
-36.5,0.5951845456996292,-4.0625
-27.0,-1.3621749396424496,0.8125
-61.0,0.34361169648638423,-21.125
-61.5,-0.8467573949128742,2.4375
-36.5,1.853048791765854,1.625
-26.5,-1.3621749396424487,0.0
-59.0,-0.22089323345553247,-33.3125
-61.5,2.356194490192345,65.875
-62.5,0.024543692606170175,36.5625
-27.0,-2.1782527187976104,-2.4375
-36.5,1.3867186322486198,6.5
-61.5,-0.1288543861823941,-44.75
-59.0,-1.380582709097077,-81.375
-36.5,1.5523885573402691,-1.625
-26.5,-1.454213786915588,0.8125
-60.0,-0.09817477042468115,-20.3125
-36.5,1.5401167110371836,4.875
-26.5,-1.4726215563702159,-0.8125
-60.5,-0.3252039270317555,21.125
-26.5,0.31906800388021317,0.0
-36.5,1.497165248976386,4.875
-62.5,-5.497787143782138,17.875
-60.0,3.8349519697141026,-8.125
-63.0,1.4971652489763856,148.875
-26.5,-1.3867186322486194,0.0
-36.5,1.570796326794897,6.5
-61.0,-2.227340104009951,81.375
-26.5,0.6565437772150542,-3.25
-36.5,1.589204096249524,4.0625
-58.5,-1.8346410223112266,-29.25
-64.0,-0.32520392703175593,78.0625
-60.5,1.5155730184310139,-8.125
-59.5,-1.6873788666742056,63.4375
-26.5,0.6933593161243099,-0.8125
-36.5,1.6566992509164922,4.0625
-61.0,-0.7792622402459051,0.8125
-26.5,-0.9265243958829275,0.0
-36.0,1.7548740213411729,0.0
-61.0,-1.3192234775816507,7.3125
-60.0,-0.40497092800180967,-26.8125
-62.5,-3.5465635815916023,17.0625
-36.0,5.301437602932776,1.625
-26.0,-1.86532063806894,1.625
-60.0,0.4417864669110645,7.3125
-59.0,-0.31906800388021317,2.4375
-36.0,1.7978254834019713,-0.8125
-25.5,-1.969631331645163,0.0
-60.0,-0.25157284921324496,49.625
-25.5,0.22089323345553202,1.625
-35.5,2.0125827937059615,0.8125
-59.5,-1.822369176008142,-6.5
-62.5,2.331650797586175,53.6875
-25.5,-2.55867995419325,2.4375
-59.0,0.3497476196379261,-56.9375
-35.5,1.6935147898257483,4.0625
-25.5,-2.135301256736813,0.0
-35.0,2.1659808724945253,5.6875
-61.5,-2.552544031041707,51.25
-59.0,0.48473792897186296,-3.25
-25.5,-0.15953400194010703,0.8125
-35.0,2.264155642919207,5.6875
-59.5,-1.705786636128833,-17.0625
-62.0,0.7117670855789369,8.125
-61.0,-0.3620194659410112,9.75
-34.5,1.3867186322486198,5.6875
-26.0,-2.423689644859313,2.4375
-61.0,0.36815538909255396,1.625
-25.5,-0.4233786974564371,4.875
-34.5,2.4666411069201106,6.5
-62.0,-5.399612373357456,-97.625
-61.0,3.4606606574700063,-18.6875
-60.0,-0.8099418560036185,91.9375
-34.5,2.7734372644972387,5.6875
-26.0,-2.534136261587079,1.625
-62.0,0.28838838812250067,-3.25
-59.0,-0.11044661672776623,31.6875
-26.0,-0.23930100291015988,0.0
-34.0,2.5954954931025043,7.3125
-59.0,-1.9512235621905352,-33.3125
-62.0,-0.15339807878856426,20.3125
-34.0,2.1107575641306426,4.875
-26.5,-2.626175108860218,0.0
-59.5,0.5951845456996292,-23.5625
-60.5,-0.26998061866787326,0.8125
-26.5,-0.3620194659410112,-0.8125
-34.0,2.681398417224101,2.4375
-60.5,0.2331650797586171,75.625
-61.0,-2.423689644859313,-31.6875
-26.5,-0.4908738521234053,-1.625
-34.0,2.681398417224101,0.0
-63.5,-5.565282298449106,8.9375
-60.5,3.4606606574700067,-55.3125
-60.5,-0.02454369260617062,-1.625
-34.5,2.135301256736813,-0.8125
-26.5,-2.7120780329818137,0.8125
-62.0,0.2024854640009046,52.875
-60.0,0.1472621556370215,43.9375
-26.5,-0.36815538909255396,0.8125
-34.0,2.7304858024364416,1.625
-60.0,-2.6139032625571326,39.875
-59.0,0.5092816215780327,-54.5
-61.5,-3.650874275167826,28.4375
-26.5,3.037281960013569,0.0
-34.0,2.724349879284899,0.8125
-60.5,-2.018718716857504,-1.625
-60.0,0.012271846303085088,-67.5
-60.5,2.202796411403781,78.875
-27.0,-2.9452431127404313,2.4375
-34.0,2.7182139561333565,4.875
-61.0,-0.8467573949128742,-11.375
-59.5,-1.2885438618239387,12.1875
-61.5,0.04295146206079803,-47.1875
-62.5,-3.6201946594101133,-2.4375
-33.5,5.749359992995383,0.0
-26.5,-2.7673013413456964,-2.4375
-60.5,0.2822524649709579,29.25
-59.5,0.49700977527494805,-69.9375
-61.5,-3.7306412761378795,11.375
-33.5,5.706408530934585,4.0625
-26.5,-2.908427573831176,3.25
-61.0,1.1106020904292047,-54.5
-26.5,-1.1228739367322897,0.8125
-33.5,2.9329712664373457,0.8125
-60.5,-2.362330413343887,81.375
-26.5,-0.6074563920027138,1.625
-33.5,2.975922728498144,0.0
-60.5,-1.9696313316451635,-19.5
-63.0,-3.4606606574700067,-81.375
-61.5,3.632466505713199,-69.125
-26.5,-1.202640937702343,3.25
-33.5,3.012738267407399,-1.625
-62.5,-5.681864838328415,-3.25
-60.5,3.3072625786814425,-23.5625
-60.5,0.9265243958829275,-8.9375
-59.5,-0.9572040116406404,26.8125
-27.0,-0.5951845456996288,0.8125
-33.5,2.963650882195059,2.4375
-59.0,-2.0800779483729297,-32.5
-63.0,-3.6999616603801666,25.1875
-33.5,5.767767762450011,2.4375
-27.0,-2.9575149590435164,0.8125
-59.5,0.20862138715244738,110.625
-26.5,-0.2270291566070748,1.625
-33.5,2.9759227284981438,2.4375
-59.5,-1.9144080232812803,-26.0
-61.5,-0.41110685115335155,43.9375
-63.0,-3.4913402732277192,44.75
-26.5,2.8532042654672924,0.8125
-33.5,2.969786805346601,2.4375
-60.0,-2.3439226438892593,18.6875
-61.0,-3.147728576741336,13.8125
-59.0,3.51588396583389,-19.5
-62.5,0.705631162427395,51.25
-34.0,1.2333205534600555,1.625
-27.0,-2.920699420134261,0.0
-57.5,0.8651651643675016,-0.8125
-27.0,-0.8651651643675016,1.625
-33.5,2.920699420134261,2.4375
-58.5,-2.172116795646068,-5.6875
-27.0,-0.7424467013366502,0.8125
-33.5,2.902291650679633,4.875
-63.5,-5.387340527054372,-26.0
-59.5,3.466796580621549,-5.6875
-34.0,1.9205439464328227,4.0625
-27.0,-2.9145634969827183,0.8125
-58.5,0.42951462060797985,43.9375
-27.0,-0.43565054375952217,0.0
-34.0,2.9391071895888885,0.8125
-63.5,-2.067806102069844,-26.0
-59.0,-0.12271846303085132,16.25
-26.5,-0.7731263170943632,1.625
-60.5,0.662679700366597,6.5
-33.5,2.264155642919206,5.6875
-62.0,-5.190990986205009,-70.75
-26.5,2.2396119503130363,2.4375
-33.5,2.9820586516496865,0.8125
-60.0,-2.4359614911623986,77.25
-27.0,-0.546097160487288,0.8125
-34.0,2.9636508821950587,2.4375
-60.5,-2.018718716857504,-4.875
-61.0,-0.2147573103039897,-19.5
-27.0,-0.748582624488193,2.4375
-33.5,2.988194574801229,2.4375
-61.0,-2.1598449493429825,17.875
-63.0,-3.6263305825616556,44.75
-27.0,2.7979809571034093,0.0
-33.5,2.988194574801229,2.4375
-61.0,-1.9880391010997909,-32.5
-61.5,-3.1784081924990484,-75.625
-27.0,2.1721167956460676,0.8125
-33.5,2.9881945748012293,4.0625
-61.5,-5.6941366846315,15.4375
-60.0,3.227495577711389,34.125
-27.0,-0.5399612373357456,0.8125
-33.5,3.0250101137104846,0.8125
-61.0,-2.1414371798883556,4.875
-62.5,-3.479068426924634,-4.875
-59.5,4.252194744018998,-14.625
-33.5,1.3437671701878218,5.6875
-27.0,-3.0127382674073995,0.0
-60.5,0.7179030087304801,51.25
-62.0,-0.2761165418194156,64.25
-64.0,-2.9391071895888885,4.875
-27.0,2.466641106920111,1.625
-61.5,0.7976700097005334,26.8125
-33.5,2.227340104009951,6.5
-59.5,-1.9144080232812803,-6.5
-33.5,1.9389517158874505,2.4375
-27.0,-3.074097498922825,-0.8125
-59.5,0.9817477042468101,5.6875
-60.0,-0.06135923151542544,-22.75
-60.5,0.674951546669682,1.625
-27.5,-1.6014759425526095,-0.8125
-33.0,3.0986411915289955,2.4375
-60.0,-2.466641106920111,47.1875
-27.5,-0.6872233929727676,-0.8125
-33.0,3.117048960983623,7.3125
-59.5,-2.1353012567368124,7.3125
-62.5,1.2578642460662257,9.75
-27.5,-2.2764274892222915,0.8125
-33.0,3.1968159619536762,0.0
-62.5,-2.270291566070749,63.4375
-62.0,-3.528155812136975,20.3125
-33.0,5.792311455056181,0.8125
-27.5,-3.202951885105219,-2.4375
-60.0,0.4970097752749476,14.625
-62.0,-2.9329712664373457,17.875
-27.5,2.399145952253143,-0.8125
-33.0,3.2029518851052186,6.5
-63.0,-5.608233760509904,6.5
-60.5,3.436116964863836,41.5
-61.0,-0.3681553890925535,19.5
-28.0,-0.7301748550335652,0.8125
-32.5,3.3072625786814425,1.625
-59.0,-1.8837284075235678,-72.375
-62.5,2.221204180858409,28.4375
-62.5,-2.5034566458293668,-30.875
-28.0,-1.1412817061869167,-0.8125
-32.5,3.3011266555298993,1.625
-59.5,-2.1291653335852696,-4.875
-28.0,-1.2026409377023426,2.4375
-32.5,3.331806271287612,4.875
-61.0,-2.1168934872821845,2.4375
-32.5,2.12916533358527,2.4375
-28.0,-3.3256703481360703,0.0
-62.0,2.055534255766759,58.5625
-59.5,-0.7853981633974478,27.625
-62.5,-3.583379120500858,-4.875
-32.5,5.626641529964531,1.625
-28.0,-3.331806271287612,1.625
-61.0,1.4726215563702154,-40.6875
-63.0,2.2334760271614935,53.6875
-28.0,-3.706097583531709,0.8125
-32.5,3.331806271287612,4.0625
-62.0,-5.460971604872882,-19.5
-61.0,3.650874275167826,-33.3125
-28.5,-1.5278448647340985,-0.8125
-59.5,0.6810874698212248,89.5
-32.5,2.6813984172241003,-0.8125
-61.0,0.233165079758618,88.6875
-32.5,-0.23930100291016032,-0.8125
-28.5,-3.368621810196868,-1.625
-61.5,1.4296700943094178,-46.375
-28.5,-1.454213786915588,-1.625
-32.0,3.3808936564999534,2.4375
-61.0,-2.4789129532231966,52.875
-59.5,0.25770877236478773,-28.4375
-28.5,-1.1903690913992575,0.0
-32.0,3.380893656499953,8.125
-59.5,-2.1782527187976104,14.625
-62.0,0.23316507975861755,-54.5
-60.0,2.3009711818284617,28.4375
-28.5,-3.7674568150471344,0.0
-32.5,3.4361169648638357,0.8125
-59.0,-2.503456645829366,61.8125
-29.0,-0.9572040116406404,-0.8125
-60.0,3.816544200259475,63.4375
-32.0,-0.34361169648638334,0.0
-60.0,-1.9819031779482486,-22.75
-29.0,-1.5155730184310134,-1.625
-32.0,3.4606606574700063,5.6875
-61.5,-5.6573211457222445,2.4375
-61.5,3.7429131224409646,-23.5625
-61.5,-0.18407769454627676,11.375
-32.5,2.123029410433727,4.0625
-29.0,-3.5097480426823466,0.8125
-63.0,0.748582624488193,89.5
-61.0,0.7301748550335652,-1.625
-62.0,-3.4606606574700067,-8.125
-29.0,1.988039101099791,1.625
-32.0,3.5342917352885173,-0.8125
-59.0,-1.9573594853420784,-36.5625
-62.0,-3.7981364308048473,-43.9375
-29.0,2.2273401040099507,-0.8125
-32.5,3.485204350076177,4.0625
-61.5,0.3252039270317555,61.8125
-29.0,-3.8165442002594747,0.0
-32.5,3.509748042682347,1.625
-62.0,0.4233786974564371,34.9375
-59.5,-2.8470683423157506,4.875
-32.5,2.4420974143139405,-0.8125
-29.0,-3.5404276584400596,0.8125
-60.0,1.4910293258248433,-11.375
-29.0,-1.4910293258248433,0.0
-32.0,3.5220198889854326,0.0
-60.5,-2.0800779483729297,-16.25
-61.5,-3.1906800388021335,0.8125
-29.0,1.7548740213411735,0.0
-32.5,3.5281558121369745,0.0
-60.5,-5.767767762450011,13.8125
-62.5,0.1902136176978195,21.125
-29.0,2.0248546400090466,2.4375
-32.0,3.534291735288517,2.4375
-29.0,-3.5220198889854317,0.8125
-32.0,3.509748042682347,4.0625
-59.0,-1.8837284075235674,-8.9375
-29.0,-1.6198837120072374,0.0
-32.0,3.5158839658338894,0.8125
-60.5,-2.0800779483729293,-19.5
-29.0,-1.4296700943094174,-2.4375
-32.0,3.4913402732277197,4.0625
-62.5,-5.2155346788111805,-49.625
-61.0,3.2765829629237295,-63.4375
-60.0,-0.4172427743048943,45.5625
-29.0,-1.2149127840054277,2.4375
-32.5,3.5772431973493153,1.625
-62.0,-5.540738605842936,5.6875
-63.0,3.3318062712876126,0.0
-59.5,0.2147573103039897,-24.375
-32.0,1.9880391010997913,4.0625
-29.0,-3.6079228131070282,2.4375
-32.0,3.6079228131070282,2.4375
-29.0,-3.632466505713199,3.25
-60.5,3.000466421104314,-19.5
-29.0,-3.000466421104314,2.4375
-32.0,3.650874275167826,0.8125
-61.5,-2.1414371798883547,-89.5
-61.5,-0.05522330836388312,-0.8125
-61.5,-3.5588354278946874,38.1875
-29.0,2.110757564130642,1.625
-32.0,3.601786889955485,6.5
-59.5,-2.221204180858408,23.5625
-61.5,0.3988350048502669,-57.75
-61.5,-3.6508742751678263,73.1875
-31.5,5.510058990085223,0.8125
-64.0,-2.313243028131547,42.3125
-29.5,-1.3314953238847367,2.4375
-60.0,1.6873788666742056,-39.875
-59.5,2.165980872494525,52.875
-29.0,-3.871767508623358,1.625
-32.0,3.6508742751678263,1.625
-60.5,-2.264155642919207,17.0625
-60.5,-0.31906800388021317,62.625
-59.5,-3.098641191528995,35.75
-29.0,2.0064468705544187,2.4375
-32.0,3.687689814077081,0.8125
-64.0,-5.2339424482658075,-61.0
-58.5,3.3870295796514958,-99.25
-29.0,-1.8407769454627694,0.0
-32.0,3.669282044622453,1.625
-61.0,-2.0493983326152163,-18.6875
-59.5,2.300971181828462,54.5
-29.0,-3.9331267401387846,1.625
-31.5,3.687689814077082,1.625
-60.5,-2.3991459522531433,40.6875
-58.5,0.337475773334841,-11.375
-62.5,-3.307262578681442,-27.625
-29.0,1.6689710972195775,0.8125
-31.5,3.699961660380167,0.8125
-29.0,-3.7060975835317094,0.8125
-32.0,3.736777199289422,-4.875
-32.0,-0.03681553890925571,2.4375
-29.5,-3.718369429834794,3.25
-61.5,1.705786636128833,-21.125
-59.5,0.2454369260617031,-73.1875
-63.0,-3.7367771992894223,-46.375
-29.0,1.7732817907958012,4.875
-32.0,3.724505352986337,1.625
-31.5,-0.006135923151542322,4.0625
-29.0,-3.6938257372286243,-1.625
-61.0,3.9944859716542096,45.5625
-29.5,-4.025165587411922,1.625
-31.5,3.749049045592507,1.625
-60.5,-5.264622064023521,-47.1875
-61.0,1.509437095279471,-254.6875
-31.5,3.761320891895592,0.0
-29.0,-3.761320891895592,0.8125
-61.0,4.196971435655115,56.9375
-60.0,-2.4973207226778245,-85.4375
-60.5,0.02454369260617062,-38.1875
-29.0,-1.7303303287350036,1.625
-31.5,3.749049045592507,2.4375
-60.0,0.07976700097005374,97.625
-61.0,-2.2702915660707492,-1.625
-60.5,0.3988350048502669,-43.9375
-29.5,-1.9634954084936207,0.8125
-31.5,3.7613208918955925,2.4375
-63.5,-5.411884219660543,-26.0
-61.5,3.1784081924990484,14.625
-61.5,0.1288543861823941,-42.3125
-29.5,-1.6873788666742056,5.6875
-31.5,3.7981364308048478,1.625
-61.0,-1.8162332528565992,-58.5625
-61.5,-0.7547185476397353,56.9375
-29.5,-1.2394564766115983,2.4375
-31.5,3.810408277107933,1.625
-29.5,-3.810408277107933,1.625
-31.5,3.816544200259475,0.8125
-60.5,-5.442563835418254,-19.5
-60.5,5.258486140871978,-123.6875
-29.5,-3.6447383520162835,1.625
-31.5,3.847223816017188,-1.625
-60.5,-2.2641556429192065,26.8125
-61.5,-2.9943304979527716,-44.75
-61.5,2.8716120349219203,-4.875
-29.5,-1.478757479521758,0.8125
-31.5,3.8410878928656453,1.625
-60.5,0.4908738521234053,36.5625
-61.5,-2.528000338435537,-41.5
-62.0,0.2638446955163305,-49.625
-31.5,1.7855536370988858,0.0
-29.5,-3.8779034317749006,1.625
-59.5,1.4358060174609601,52.0625
-62.0,-3.117048960983623,-11.375
-60.0,3.6508742751678263,-95.1875
-31.5,1.8960002538266525,1.625
-29.5,-3.859495662320273,0.8125
-61.5,-1.7119225592803755,26.0
-62.0,3.4054373491061236,18.6875
-61.0,0.19021361769781953,-33.3125
-29.5,-1.8898643306751102,3.25
-31.5,3.8717675086233583,0.0
-63.0,-5.71868037723767,15.4375
-29.5,1.846912868614312,0.8125
-31.5,3.8779034317749006,0.0
-60.5,0.22702915660707568,60.1875
-31.5,-0.22089323345553247,-0.8125
-29.5,-3.908583047532614,6.5
-62.0,-1.88986433067511,43.9375
-59.0,3.436116964863836,40.6875
-31.5,2.3377867207377174,4.875
-29.5,-3.8717675086233587,-0.8125
-30.0,-0.012271846303085088,1.625
-32.0,3.890175278077986,4.0625
-62.5,-2.1659808724945253,-41.5
-30.0,-1.736466251886546,1.625
-31.5,3.902447124381071,4.0625
-60.5,-1.9819031779482486,-6.5
-62.5,-3.7981364308048473,48.8125
-30.0,1.859184714917397,0.0
-32.0,3.9331267401387837,0.8125
-62.0,0.47246608266877743,32.5
-60.5,-2.675262494072558,25.1875
-29.5,-1.7426021750380882,0.0
-31.5,3.926990816987242,4.0625
-60.0,-2.1168934872821854,-8.125
-62.0,-3.4422528880153784,26.0
-62.5,3.2643111166206444,17.875
-31.5,2.3132430281315464,1.625
-30.0,-3.963806355896496,2.4375
-30.0,0.0,2.4375
-31.5,3.9760782021995817,0.8125
-30.0,-3.9760782021995817,1.625
-31.5,3.963806355896496,1.625
-60.5,-2.5954954931025047,35.75
-63.5,-2.699806186678728,-42.3125
-60.5,3.337942194439155,-52.0625
-29.5,-2.018718716857504,2.4375
-31.5,3.9883500485026673,0.0
-60.0,-2.172116795646068,14.625
-60.0,-0.632000084608884,83.0
-30.0,-1.1780972450961724,0.8125
-31.5,3.9822141253511245,0.0
-59.5,-2.086213871524472,-31.6875
-30.0,-1.9205439464328227,3.25
-31.5,4.012893741108837,0.8125
-31.5,0.006135923151542322,-1.625
-29.5,-4.012893741108837,-0.8125
-62.5,2.8163887265580367,44.75
-62.5,-0.4601942363656919,-145.625
-29.5,-2.356194490192345,0.0
-61.0,-1.2578642460662257,-15.4375
-31.5,5.258486140871978,0.8125
-60.0,-1.9880391010997909,-34.9375
-62.0,-0.42951462060797985,53.6875
-29.5,-1.6014759425526093,2.4375
-31.5,4.01902966426038,2.4375
-61.5,-2.2089323345553233,5.6875
-59.5,-0.006135923151542766,-19.5
-29.5,-1.816233252856599,3.25
-62.0,1.214912784005428,23.5625
-31.5,2.816388726558037,1.625
-59.5,-1.9450876390389928,-14.625
-31.5,1.9512235621905352,1.625
-29.5,-4.01902966426038,-0.8125
-59.0,-1.043106935762236,-58.5625
-62.5,2.859340188618835,-19.5
-61.5,0.11658253987930856,-40.6875
-30.0,-1.957359485342078,0.8125
-31.5,4.049709280018092,0.0
-60.5,-5.74322406984384,47.1875
-59.5,3.80427235395639,-29.25
-62.5,-0.30066023442558576,117.9375
-31.5,2.239611950313036,1.625
-30.0,-4.055845203169635,1.625
-60.5,-0.9019807032767571,-96.0
-60.5,2.810252803406495,9.75
-31.5,2.1414371798883547,2.4375
-29.5,-4.04357335686655,0.0
-60.0,2.2027964114037806,-53.6875
-62.5,2.208932334555324,100.875
-31.5,-0.3313398501832987,-1.625
-29.5,-4.074252972624263,0.0
-61.5,2.0800779483729297,-25.1875
-59.5,2.208932334555323,43.125
-29.5,-4.276738436625167,-1.625
-31.5,4.04357335686655,1.625
-60.0,-5.448699758569798,-6.5
-60.0,3.1906800388021335,15.4375
-29.5,-1.7978254834019716,1.625
-31.5,4.049709280018093,2.4375
-62.5,0.4295146206079794,49.625
-61.5,-2.9084275738311756,33.3125
-60.0,0.3742913122440963,-50.4375
-31.5,2.12916533358527,-0.8125
-29.5,-4.049709280018092,0.8125
-61.5,-1.4358060174609601,-33.3125
-29.0,1.441941940612503,0.0
-31.5,4.0742529726242624,1.625
-61.5,-5.24007837141735,-74.8125
-29.5,1.1658253987930873,2.4375
-31.5,4.06811704947272,0.8125
-61.0,0.28838838812250067,48.8125
-62.0,-3.0004664211043144,81.375
-61.0,0.6994952392758527,-11.375
-29.0,-2.0248546400090466,1.625
-31.5,4.061981126321178,0.0
-61.0,-5.7616318392984684,-11.375
-60.0,3.0066023442558567,83.0
-59.5,0.4479223900626068,40.6875
-29.0,-1.7303303287350031,1.625
-31.5,4.025165587411922,1.625
-60.5,-2.6813984172241003,24.375
-62.0,-2.6139032625571326,-61.8125
-59.0,2.9943304979527716,12.1875
-31.5,2.319378951283089,1.625
-29.0,-4.000621894805752,0.0
-60.0,4.289010282928253,49.625
-61.5,-2.7550294950426113,20.3125
-61.5,0.22089323345553202,-25.1875
-31.5,2.251883796616122,1.625
-28.5,-3.99448597165421,2.4375
-59.5,1.7732817907958012,-3.25
-60.5,2.3991459522531433,83.0
-61.5,-2.4175537217077707,-43.9375
-28.5,-1.6751070203711205,-1.625
-32.0,3.920854893835699,4.0625
-59.0,-2.141437179888355,-30.875
-60.5,-0.1840776945462772,11.375
-61.0,-3.32567034813607,6.5
-28.5,1.8162332528565992,0.8125
-32.0,3.877903431774901,-0.8125
-62.0,-5.767767762450011,0.0
-60.5,3.6324665057131984,-5.6875
-60.5,-0.3742913122440963,-21.125
-32.5,2.5034566458293668,4.0625
-28.0,-3.8165442002594756,2.4375
-58.5,1.4173982480063323,18.6875
-62.0,0.2024854640009046,-50.4375
-61.0,-3.5404276584400596,-43.9375
-27.5,2.043262409463674,0.0
-32.5,3.706097583531709,4.0625
-60.5,-5.393476450205914,-2.4375
-60.5,3.1109130378320806,20.3125
-62.5,-0.2515728492132454,15.4375
-27.0,-0.9633399347921827,0.0
-33.0,3.54042765844006,2.4375
-60.0,-2.5402721847386216,45.5625
-59.5,-0.14726215563702194,22.75
-60.0,2.6016314162540475,96.8125
-33.5,0.05522330836388356,5.6875
-26.5,-3.2827188860752723,4.875
-62.5,-2.202796411403781,-43.9375
-58.0,3.3440781175906977,-26.0
-61.0,1.0062913968529807,-13.8125
-61.0,-0.9081166264282996,-84.625
-26.5,-0.9019807032767568,0.8125
-34.5,2.8900198043765477,4.875
-62.0,-2.2027964114037806,0.8125
-60.5,-0.07363107781851097,-31.6875
-62.5,-3.607922813107028,21.125
-34.5,5.902758071783947,-0.8125
-26.0,-2.810252803406495,0.8125
-60.0,2.877747958073463,71.5625
-59.5,-1.981903177948248,-40.6875
-61.0,-0.7301748550335656,32.5
-25.5,-0.012271846303085088,0.0
-35.0,2.534136261587079,9.75
-60.0,-2.239611950313036,33.3125
-61.5,2.245747873464579,109.0
-61.0,-2.626175108860218,61.0
-26.0,0.049087385212340795,2.4375
-35.0,2.6261751088602177,4.0625
-60.5,0.3006602344255853,32.5
-63.0,-2.4727770300716534,-31.6875
-59.5,0.116582539879309,-14.625
-26.0,-1.0124273200045235,0.0
-34.5,3.202951885105219,4.0625
-60.5,0.2577087723647873,66.6875
-60.5,-2.2396119503130354,-8.9375
-62.0,-0.42951462060797985,-6.5
-26.5,-0.95720401164064,0.0
-33.5,3.3624858870453256,4.0625
-60.5,-2.0678061020698446,-45.5625
-61.0,-0.7669903939428204,72.375
-61.5,-2.834796496012665,-27.625
-26.5,2.509592568980909,4.875
-34.5,3.1109130378320806,6.5
-62.0,-0.9940195505498961,-13.8125
-59.5,-1.5769322499464389,53.6875
-61.0,-3.184544115650591,38.1875
-27.0,2.9145634969827183,1.625
-35.0,2.804116880254952,0.8125
-61.0,-5.338253141842031,-55.3125
-62.0,3.153864499892878,-5.6875
-60.0,-0.11044661672776623,-31.6875
-26.0,-0.17794177139473444,1.625
-35.0,2.3009711818284617,2.4375
-61.0,-1.9941750242513332,25.1875
-60.0,-3.7122335066832517,34.9375
-27.5,3.80427235395639,-0.8125
-35.5,1.7057866361288325,0.8125
-59.5,-1.7794177139473435,-18.6875
-59.0,2.356194490192345,43.9375
-36.0,-0.7056311624273945,1.625
-29.0,-1.3376312470362794,-1.625
-60.0,-4.086524818927348,8.125
-59.0,3.9760782021995817,-53.6875
-30.0,0.25157284921324496,-2.4375
-35.0,1.0676506283684066,6.5
-61.0,-4.90260259808251,-30.875
-60.5,4.2460588208674555,35.75
-32.0,-0.233165079758618,-1.625
-34.5,0.8283496254582463,2.4375
-60.5,1.0246991663076086,20.3125
-32.5,-1.8162332528565992,1.625
-34.5,0.7853981633974483,1.625
-60.0,-4.7307967498393175,-43.125
-59.5,3.184544115650591,22.75
-34.0,0.8406214717613318,-2.4375
-34.5,0.6810874698212244,4.0625
-60.0,-5.1725832167503825,66.6875
-34.0,4.4976316700807,0.8125
-34.5,0.674951546669682,4.875
-60.5,-5.178719139901925,2.4375
-34.0,5.197126909356553,1.625
-34.5,-0.6994952392758522,3.25
-60.0,-4.061981126321179,-14.625
-61.0,3.890175278077986,-79.75
