-61.0,4.908738521234052,-20.3125
-62.5,4.921010367537137,-17.875
-61.0,4.92714629068868,-32.5
-60.5,4.81056375080937,23.5625
-60.0,4.902602598082509,-2.4375
-63.5,4.822835597112456,43.125
-60.5,4.6878452877785195,6.5
-61.0,4.81056375080937,0.8125
-61.0,4.914874444385594,31.6875
-61.0,4.681709364626977,26.0
-61.5,5.203262832508095,-30.875
-64.0,4.798291904506286,28.4375
-61.5,4.878058905476339,1.625
-60.5,5.0253210611133605,-7.3125
-60.0,4.994641445355648,-6.5
-60.0,5.141903600992669,-14.625
-60.5,4.963961829597935,-23.5625
-60.0,4.700117134081604,43.125
-62.0,4.9394181369917645,-35.75
-60.5,4.921010367537137,-10.5625
-61.0,4.908738521234052,35.75
-61.5,4.871922982324796,-25.1875
-61.5,4.6448938257177215,40.6875
-61.5,4.994641445355648,-6.5
-62.5,4.921010367537137,7.3125
-61.5,5.117359908386499,-28.4375
-60.5,4.743068596142402,7.3125
-60.5,4.841243366567084,-1.625
-62.0,4.945554060143307,-1.625
-62.5,4.988505522204105,3.25
-61.5,5.098952138931871,-21.125
-59.0,4.92714629068868,-6.5
-62.5,4.724660826687775,43.125
-62.0,4.878058905476339,52.0625
-61.5,5.338253141842031,-44.75
-60.5,4.908738521234052,-8.125
-61.0,4.792155981354743,0.8125
-62.0,4.7860200582032,8.125
-61.0,4.9823695990525625,-11.375
-62.5,4.571262747899211,51.25
-62.5,4.890330751779424,9.75
-62.0,4.540583132141498,58.5625
-60.5,5.148039524144211,-19.5
-60.5,5.608233760509904,-123.6875
-62.5,4.626486056263094,44.75
-61.0,4.847379289718626,-13.8125
-62.0,4.963961829597935,-13.8125
-60.5,4.638757902566179,35.75
