-46.0,5.0682725231741586,0.8125
-46.0,5.086680292628786,-1.625
-46.0,5.086680292628786,-0.8125
-46.0,5.062136600022616,1.625
-46.0,5.074408446325701,4.0625
-46.0,5.080544369477243,1.625
-46.0,5.062136600022616,1.625
-46.0,5.105088062083414,0.0
-46.0,5.105088062083414,-2.4375
-46.0,5.074408446325701,4.875
-46.0,5.0682725231741586,4.0625
-46.0,5.129631754689584,-4.0625
-46.0,5.092816215780329,1.625
-46.0,5.105088062083414,-0.8125
-46.0,5.074408446325701,4.0625
-46.0,5.086680292628786,0.8125
-46.0,5.086680292628786,4.0625
-46.0,5.123495831538041,-4.875
-46.0,5.092816215780329,1.625
-46.0,5.123495831538041,-0.8125
-46.0,5.117359908386499,-4.875
-46.0,5.105088062083414,1.625
-46.0,5.148039524144211,-4.875
-46.0,5.154175447295755,-6.5
-46.0,5.092816215780329,4.0625
-46.0,5.135767677841127,-4.0625
-46.5,5.160311370447297,-7.3125
-46.0,5.117359908386499,0.0
-46.0,5.129631754689584,0.0
-46.0,5.154175447295755,-4.0625
-46.5,5.123495831538041,0.0
-46.5,5.111223985234957,-0.8125
-46.5,5.135767677841127,-4.0625
-46.0,5.123495831538041,0.0
-46.5,5.105088062083414,5.6875
-46.5,5.123495831538041,-1.625
-46.0,5.129631754689584,0.8125
-46.0,5.1725832167503825,-6.5
-46.5,5.166447293598839,-4.875
-46.5,5.154175447295755,-4.0625
-46.5,5.129631754689584,2.4375
-46.0,5.148039524144211,-2.4375
-46.5,5.190990986205009,-8.125
-46.5,5.117359908386499,4.0625
-46.0,5.141903600992669,-1.625
-46.5,5.166447293598839,-4.875
-46.5,5.141903600992669,1.625
-46.5,5.141903600992669,2.4375
-46.0,5.166447293598839,-4.0625
-46.5,5.123495831538041,2.4375
-46.5,5.135767677841127,1.625
-46.5,5.148039524144211,-2.4375
-46.5,5.141903600992669,1.625
-46.5,5.166447293598839,-0.8125
-46.5,5.154175447295755,-1.625
-46.5,5.166447293598839,-2.4375
-46.5,5.178719139901925,-5.6875
-46.5,5.129631754689584,2.4375
-46.5,5.166447293598839,-2.4375
-46.5,5.141903600992669,0.8125
-46.5,5.148039524144211,-4.0625
-46.0,5.154175447295755,-0.8125
-46.5,5.117359908386499,4.875
-46.0,5.098952138931871,6.5
-46.5,5.178719139901925,-6.5
-46.5,5.092816215780329,8.125
-46.5,5.160311370447297,-1.625
-46.5,5.178719139901925,-5.6875
-46.5,5.148039524144211,0.8125
-46.5,5.154175447295755,-4.0625
-46.5,5.1725832167503825,-5.6875
-46.5,5.123495831538041,2.4375
-46.5,5.123495831538041,4.0625
-46.0,5.166447293598839,-4.875
-46.5,5.178719139901925,-5.6875
-46.0,5.129631754689584,4.875
-46.0,5.135767677841127,-0.8125
-46.5,5.1725832167503825,-5.6875
-46.5,5.148039524144211,0.0
-46.5,5.129631754689584,1.625
-46.5,5.160311370447297,-0.8125
-46.5,5.178719139901925,-4.875
-46.5,5.141903600992669,0.0
-46.5,5.141903600992669,-0.8125
-46.5,5.111223985234957,5.6875
-46.5,5.154175447295755,-4.0625
-46.5,5.135767677841127,-4.0625
-46.5,5.154175447295755,-2.4375
-46.5,5.166447293598839,-4.0625
-46.5,5.148039524144211,-0.8125
-46.5,5.1725832167503825,-4.0625
-46.5,5.154175447295755,-0.8125
-46.5,5.141903600992669,0.8125
-46.5,5.141903600992669,0.8125
-46.5,5.141903600992669,0.8125
-46.5,5.148039524144211,-2.4375
-46.5,5.160311370447297,-4.0625
-46.5,5.111223985234957,4.0625
-46.5,5.080544369477243,8.125
-46.5,5.135767677841127,0.0
-46.5,5.123495831538041,-0.8125
-46.5,5.098952138931871,4.0625
-46.0,5.129631754689584,0.0
-46.5,5.141903600992669,-0.8125
-46.5,5.154175447295755,-4.875
-46.5,5.154175447295755,-4.875
-46.5,5.141903600992669,-1.625
-46.5,5.141903600992669,0.0
-46.0,5.190990986205009,-13.0
-46.5,5.123495831538041,4.0625
-46.5,5.117359908386499,0.0
-46.5,5.141903600992669,-1.625
-46.5,5.129631754689584,0.0
-46.5,5.105088062083414,2.4375
-46.5,5.111223985234957,-2.4375
-46.5,5.1725832167503825,-8.9375
-46.5,5.105088062083414,2.4375
-46.5,5.154175447295755,-4.0625
-46.5,5.111223985234957,4.0625
-46.5,5.117359908386499,2.4375
-46.5,5.117359908386499,1.625
-46.5,5.135767677841127,-2.4375
-46.5,5.190990986205009,-8.9375
-46.5,5.123495831538041,0.0
-46.0,5.148039524144211,-1.625
-46.5,5.135767677841127,-1.625
-46.5,5.117359908386499,0.0
-46.5,5.117359908386499,0.8125
-46.5,5.141903600992669,-1.625
-46.5,5.123495831538041,1.625
-46.5,5.129631754689584,-4.0625
-46.5,5.105088062083414,4.875
-46.5,5.166447293598839,-8.125
-46.5,5.154175447295755,-6.5
-46.5,5.178719139901925,-8.125
-46.5,5.166447293598839,-7.3125
-46.5,5.154175447295755,-3.25
-46.5,5.135767677841127,-0.8125
-46.5,5.148039524144211,-4.0625
-46.5,5.129631754689584,-0.8125
-47.0,5.135767677841127,-4.875
-46.5,5.154175447295755,-4.875
-46.5,5.148039524144211,-1.625
-47.0,5.135767677841127,0.0
-46.5,5.154175447295755,-1.625
-46.5,5.148039524144211,-4.0625
-46.5,5.135767677841127,-1.625
-46.5,5.148039524144211,-1.625
-46.5,5.111223985234957,4.0625
-46.5,5.129631754689584,1.625
-47.0,5.154175447295755,-6.5
-46.5,5.135767677841127,-2.4375
-47.0,5.111223985234957,4.0625
-47.0,5.129631754689584,-0.8125
-46.5,5.221670601962723,-13.8125
-47.0,5.141903600992669,-2.4375
-46.5,5.148039524144211,-1.625
-46.5,5.105088062083414,4.875
-47.0,5.166447293598839,-5.6875
-46.5,5.160311370447297,-5.6875
-46.5,5.141903600992669,1.625
-46.5,5.129631754689584,1.625
-47.0,5.141903600992669,-2.4375
-47.0,5.135767677841127,0.0
-47.0,5.111223985234957,4.875
-46.5,5.154175447295755,-4.875
-46.5,5.123495831538041,2.4375
-46.5,5.123495831538041,2.4375
-46.5,5.123495831538041,2.4375
-46.5,5.154175447295755,-1.625
-46.5,5.135767677841127,0.0
-47.0,5.178719139901925,-7.3125
-47.0,5.166447293598839,-5.6875
-47.0,5.190990986205009,-7.3125
-46.5,5.129631754689584,-1.625
-46.5,5.141903600992669,-0.8125
-46.5,5.148039524144211,-5.6875
-47.0,5.154175447295755,-0.8125
-47.0,5.148039524144211,-4.0625
-46.5,5.135767677841127,-1.625
-46.5,5.154175447295755,-2.4375
-47.0,5.1725832167503825,-8.125
-47.0,5.148039524144211,-2.4375
-46.5,5.129631754689584,1.625
-46.5,5.086680292628786,8.9375
-46.5,5.129631754689584,0.8125
-46.5,5.074408446325701,7.3125
-46.5,5.129631754689584,-1.625
-47.0,5.105088062083414,2.4375
-46.5,5.166447293598839,-5.6875
-46.5,5.184855063053467,-7.3125
-46.5,5.154175447295755,-4.0625
-47.0,5.203262832508095,-9.75
-47.0,5.135767677841127,-2.4375
-46.5,5.105088062083414,8.125
-46.5,5.129631754689584,0.0
-46.5,5.105088062083414,5.6875
-47.0,5.166447293598839,-4.875
-46.5,5.129631754689584,0.8125
-46.5,5.141903600992669,-2.4375
-47.0,5.1725832167503825,-4.875
-46.5,5.135767677841127,-2.4375
-46.5,5.123495831538041,1.625
-47.0,5.1725832167503825,-8.9375
-47.0,5.148039524144211,-1.625
-47.0,5.129631754689584,4.875
-47.0,5.117359908386499,0.8125
-46.5,5.160311370447297,-5.6875
-47.0,5.129631754689584,0.0
-46.5,5.166447293598839,-5.6875
-46.5,5.160311370447297,-4.0625
-47.0,5.111223985234957,1.625
-47.0,5.148039524144211,-1.625
-47.0,5.123495831538041,0.0
-47.0,5.123495831538041,0.8125
-47.0,5.117359908386499,2.4375
-47.0,5.178719139901925,-5.6875
-46.5,5.148039524144211,-2.4375
-47.0,5.141903600992669,-4.875
-47.0,5.166447293598839,-5.6875
-47.0,5.129631754689584,1.625
-47.0,5.123495831538041,1.625
-46.5,5.148039524144211,-2.4375
-47.0,5.086680292628786,9.75
-46.5,5.105088062083414,4.0625
-47.0,5.135767677841127,0.0
-47.0,5.141903600992669,-4.0625
-47.0,5.123495831538041,0.0
-47.0,5.111223985234957,-0.8125
-47.0,5.117359908386499,1.625
-47.0,5.123495831538041,2.4375
-47.0,5.129631754689584,1.625
-46.5,5.154175447295755,-1.625
-47.0,5.148039524144211,-4.0625
-47.0,5.111223985234957,-1.625
-46.5,5.154175447295755,-2.4375
-47.0,5.148039524144211,-4.875
-46.5,5.135767677841127,-4.0625
-47.0,5.135767677841127,-0.8125
-47.0,5.178719139901925,-6.5
-46.5,5.129631754689584,0.8125
-46.5,5.160311370447297,-4.0625
-47.0,5.160311370447297,-4.0625
-46.5,5.135767677841127,-1.625
-47.0,5.154175447295755,-2.4375
-47.0,5.1725832167503825,-5.6875
-47.0,5.123495831538041,2.4375
-47.0,5.129631754689584,0.0
-47.0,5.203262832508095,-10.5625
-47.0,5.129631754689584,0.8125
-47.0,5.148039524144211,1.625
-47.0,5.111223985234957,4.0625
-47.0,5.148039524144211,-0.8125
-47.0,5.111223985234957,6.5
-47.0,5.190990986205009,-8.125
-47.0,5.141903600992669,0.8125
-47.0,5.148039524144211,0.0
-47.0,5.1725832167503825,-6.5
-47.0,5.129631754689584,-0.8125
-47.5,5.123495831538041,0.0
-47.5,5.135767677841127,0.0
-47.0,5.129631754689584,-0.8125
-47.0,5.111223985234957,5.6875
-47.5,5.111223985234957,-0.8125
-47.5,5.105088062083414,-2.4375
-47.0,5.129631754689584,-5.6875
-47.5,5.080544369477243,-0.8125
-47.5,5.0682725231741586,4.875
-47.5,5.166447293598839,-9.75
-47.5,5.123495831538041,-5.6875
-47.5,5.098952138931871,-0.8125
-47.5,5.056000676871073,0.8125
-47.5,5.092816215780329,0.8125
-47.5,5.098952138931871,-2.4375
-47.5,5.080544369477243,-0.8125
-47.0,5.080544369477243,1.625
-47.5,5.123495831538041,-6.5
-47.5,5.074408446325701,0.8125
-47.0,5.111223985234957,-4.875
-47.5,5.086680292628786,0.0
-47.5,5.0682725231741586,0.8125
-47.5,5.105088062083414,-4.875
-47.5,5.111223985234957,-5.6875
-47.5,5.105088062083414,0.0
-47.5,5.105088062083414,-1.625
-47.5,5.092816215780329,-1.625
-47.5,5.098952138931871,-0.8125
-47.5,5.056000676871073,6.5
-47.5,5.141903600992669,-8.9375
-47.5,5.105088062083414,0.0
-47.5,5.0682725231741586,4.875
-47.5,5.092816215780329,0.0
-47.5,5.141903600992669,-4.875
-47.5,5.098952138931871,-1.625
-47.5,5.086680292628786,0.8125
-47.5,5.092816215780329,0.0
-47.5,5.098952138931871,0.0
-47.5,5.062136600022616,6.5
-47.5,5.074408446325701,6.5
-47.5,5.080544369477243,4.875
-47.5,5.098952138931871,0.8125
-47.5,5.080544369477243,4.0625
-47.5,5.105088062083414,-2.4375
-47.5,5.111223985234957,0.0
-47.5,5.080544369477243,1.625
-48.0,5.086680292628786,0.8125
-47.5,5.111223985234957,-6.5
-47.5,5.092816215780329,2.4375
-47.5,5.105088062083414,-2.4375
-47.5,5.098952138931871,0.0
-48.0,5.092816215780329,-0.8125
-47.5,5.092816215780329,0.8125
-47.5,5.098952138931871,-6.5
-48.0,5.105088062083414,-2.4375
-48.0,5.062136600022616,8.125
-48.0,5.098952138931871,-1.625
-48.0,5.074408446325701,1.625
-48.0,5.117359908386499,-6.5
-48.0,5.092816215780329,-1.625
-48.0,5.098952138931871,-1.625
-48.0,5.080544369477243,0.0
-48.0,5.092816215780329,-2.4375
-48.0,5.037592907416445,6.5
-48.0,5.148039524144211,-10.5625
-48.0,5.098952138931871,-4.0625
-48.0,5.129631754689584,-4.875
-48.0,5.080544369477243,4.0625
-48.0,5.074408446325701,0.8125
-48.0,5.086680292628786,-1.625
-48.0,5.117359908386499,-4.875
-48.0,5.098952138931871,-4.0625
-48.0,5.092816215780329,-0.8125
-48.0,5.074408446325701,0.8125
-48.0,5.098952138931871,-1.625
-48.0,5.111223985234957,-5.6875
-48.0,5.037592907416445,6.5
-48.0,5.098952138931871,-1.625
-48.0,5.105088062083414,-4.875
-48.0,5.105088062083414,0.8125
-47.5,5.135767677841127,-6.5
-48.0,5.111223985234957,-2.4375
-48.0,5.080544369477243,5.6875
-47.5,5.105088062083414,-1.625
-47.5,5.098952138931871,0.0
-48.0,5.148039524144211,-8.125
-48.0,5.098952138931871,-0.8125
-47.5,5.092816215780329,0.8125
-47.5,5.105088062083414,-0.8125
-48.0,5.154175447295755,-6.5
-48.0,5.129631754689584,-7.3125
-48.0,5.080544369477243,1.625
-48.0,5.123495831538041,-4.0625
-48.0,5.123495831538041,-1.625
-47.5,5.074408446325701,2.4375
-48.0,5.086680292628786,1.625
-47.5,5.105088062083414,-0.8125
-48.0,5.129631754689584,-4.0625
-47.5,5.111223985234957,-0.8125
-48.0,5.098952138931871,-0.8125
-48.0,5.105088062083414,4.875
-47.5,5.129631754689584,-4.0625
-47.5,5.135767677841127,-5.6875
-47.5,5.098952138931871,2.4375
-47.5,5.086680292628786,4.0625
-47.5,5.141903600992669,-2.4375
-47.5,5.111223985234957,2.4375
-47.5,5.086680292628786,6.5
-47.0,5.141903600992669,0.0
-47.0,5.135767677841127,0.0
-47.0,5.141903600992669,-4.0625
-47.5,5.117359908386499,0.8125
-47.0,5.141903600992669,-2.4375
-47.0,5.135767677841127,-0.8125
-47.0,5.135767677841127,2.4375
-47.0,5.1725832167503825,-7.3125
-47.0,5.154175447295755,-1.625
-47.0,5.160311370447297,-4.0625
-47.0,5.074408446325701,9.75
-47.0,5.154175447295755,0.0
-47.0,5.141903600992669,-2.4375
-46.5,5.148039524144211,-2.4375
-46.5,5.154175447295755,0.0
-47.0,5.141903600992669,0.0
-47.0,5.135767677841127,-1.625
-46.5,5.123495831538041,4.0625
-46.5,5.123495831538041,4.0625
-46.5,5.123495831538041,4.0625
-46.5,5.178719139901925,-4.0625
-46.0,5.154175447295755,0.8125
-46.0,5.148039524144211,2.4375
-45.5,5.203262832508095,-4.875
-45.5,5.1725832167503825,-2.4375
-45.5,5.184855063053467,-2.4375
-45.5,5.148039524144211,2.4375
-45.5,5.135767677841127,4.875
-45.5,5.135767677841127,4.875
-45.5,5.160311370447297,-0.8125
-45.5,5.160311370447297,0.8125
-45.5,5.154175447295755,2.4375
-45.0,5.148039524144211,1.625
-45.0,5.197126909356553,-5.6875
-45.0,5.166447293598839,0.8125
-45.0,5.166447293598839,-0.8125
-45.0,5.154175447295755,0.0
-45.0,5.141903600992669,4.0625
-45.0,5.184855063053467,-5.6875
-45.0,5.129631754689584,4.0625
-45.0,5.178719139901925,-2.4375
-45.0,5.148039524144211,0.0
-45.0,5.166447293598839,0.8125
-45.0,5.141903600992669,2.4375
-45.0,5.1725832167503825,-0.8125
-45.0,5.1725832167503825,-4.875
-45.0,5.135767677841127,4.0625
-44.5,5.166447293598839,-2.4375
-44.5,5.129631754689584,2.4375
-45.0,5.117359908386499,5.6875
-45.0,5.148039524144211,-0.8125
-45.0,5.154175447295755,-4.0625
-44.5,5.141903600992669,0.0
-45.0,5.135767677841127,0.8125
-45.0,5.135767677841127,4.0625
-44.5,5.123495831538041,2.4375
-44.5,5.117359908386499,2.4375
-44.5,5.123495831538041,1.625
-44.5,5.117359908386499,4.0625
-44.5,5.141903600992669,-2.4375
-44.5,5.123495831538041,0.0
-45.0,5.105088062083414,5.6875
-44.5,5.123495831538041,1.625
-44.5,5.154175447295755,-6.5
-44.5,5.148039524144211,-3.25
-44.5,5.111223985234957,0.8125
-45.0,5.129631754689584,0.8125
-45.0,5.117359908386499,0.0
-44.5,5.105088062083414,-0.8125
-44.5,5.092816215780329,2.4375
-44.5,5.111223985234957,-1.625
-44.5,5.098952138931871,0.0
-44.5,5.105088062083414,0.0
-44.5,5.080544369477243,4.0625
-44.5,5.135767677841127,-4.0625
-44.5,5.098952138931871,0.8125
-44.5,5.092816215780329,2.4375
-44.5,5.092816215780329,4.0625
-44.5,5.105088062083414,-2.4375
-44.5,5.086680292628786,-0.8125
-44.5,5.098952138931871,0.8125
-44.5,5.092816215780329,-0.8125
-44.5,5.074408446325701,1.625
-44.5,5.062136600022616,4.875
-44.5,5.098952138931871,-2.4375
-44.5,5.092816215780329,-0.8125
-44.5,5.049864753719531,5.6875
-44.5,5.049864753719531,2.4375
-44.5,5.037592907416445,5.6875
-44.5,5.086680292628786,0.0
-44.5,5.062136600022616,4.0625
-44.5,5.092816215780329,-4.875
-44.5,5.129631754689584,-8.125
-44.5,5.098952138931871,-0.8125
-44.0,5.062136600022616,1.625
-44.5,5.098952138931871,-0.8125
-44.0,5.080544369477243,0.0
-44.5,5.111223985234957,-1.625
-44.0,5.0682725231741586,4.0625
-44.0,5.037592907416445,8.9375
-44.0,5.062136600022616,4.875
-44.0,5.086680292628786,2.4375
-44.0,5.141903600992669,-4.875
-44.0,5.111223985234957,0.8125
-43.5,5.117359908386499,0.0
-44.0,5.111223985234957,0.0
-43.5,5.117359908386499,0.8125
-43.5,5.148039524144211,-3.25
-43.0,5.117359908386499,2.4375
-43.5,5.135767677841127,0.0
-43.5,5.148039524144211,-2.4375
-43.5,5.141903600992669,0.8125
-43.0,5.141903600992669,4.0625
-43.0,5.148039524144211,0.0
-43.0,5.154175447295755,0.0
-43.0,5.123495831538041,5.6875
-43.0,5.178719139901925,-4.0625
-43.0,5.160311370447297,0.0
-42.5,5.148039524144211,4.0625
-43.0,5.154175447295755,1.625
-43.0,5.166447293598839,0.0
-42.5,5.154175447295755,1.625
-42.5,5.148039524144211,4.0625
-42.5,5.190990986205009,-0.8125
-42.5,5.1725832167503825,4.0625
-42.5,5.197126909356553,-1.625
-42.5,5.184855063053467,4.875
-42.0,5.184855063053467,1.625
-42.0,5.190990986205009,0.8125
-42.0,5.190990986205009,2.4375
-42.0,5.190990986205009,4.0625
-42.0,5.184855063053467,4.875
-41.5,5.21553467881118,-1.625
-41.5,5.209398755659637,0.0
-41.5,5.209398755659637,0.0
-41.5,5.227806525114265,0.0
-41.5,5.227806525114265,1.625
-41.0,5.2339424482658075,0.8125
-41.0,5.21553467881118,8.125
-41.0,5.2339424482658075,5.6875
-40.5,5.240078371417351,6.5
-40.0,5.295301679781233,-0.8125
-40.0,5.295301679781233,0.8125
-40.0,5.307573526084319,1.625
-40.0,5.295301679781233,4.0625
-39.5,5.338253141842031,-1.625
-39.5,5.350524988145116,-1.625
-39.5,5.3198453723874035,1.625
-39.5,5.338253141842031,0.8125
-39.5,5.338253141842031,1.625
-39.5,5.338253141842031,0.8125
-39.5,5.332117218690489,4.875
-39.0,5.344389064993574,2.4375
-39.0,5.325981295538946,5.6875
-39.0,5.344389064993574,2.4375
-39.0,5.350524988145116,0.8125
-39.0,5.344389064993574,1.625
-39.0,5.344389064993574,4.0625
-39.0,5.338253141842031,4.0625
-39.0,5.375068680751287,0.8125
-38.5,5.399612373357457,-2.4375
-39.0,5.338253141842031,6.5
-38.5,5.350524988145116,2.4375
-38.5,5.393476450205914,-4.0625
-38.5,5.368932757599744,0.8125
-38.5,5.356660911296659,2.4375
-38.5,5.338253141842031,4.0625
-38.5,5.3627968344482015,0.8125
-38.5,5.375068680751287,0.0
-38.5,5.350524988145116,1.625
-38.5,5.344389064993574,4.875
-38.5,5.350524988145116,4.0625
-37.5,5.313709449235861,4.0625
-38.0,5.325981295538946,1.625
-37.5,5.313709449235861,2.4375
-38.0,5.332117218690489,0.0
-37.5,5.356660911296659,-2.4375
-38.0,5.313709449235861,1.625
-37.5,5.332117218690489,0.8125
-37.5,5.307573526084319,4.875
-37.5,5.338253141842031,-1.625
-37.5,5.313709449235861,1.625
-37.5,5.301437602932776,4.875
-37.5,5.307573526084319,0.8125
-37.5,5.307573526084319,0.8125
-37.5,5.301437602932776,1.625
-37.5,5.301437602932776,2.4375
-37.5,5.301437602932776,2.4375
-38.0,5.289165756629691,4.0625
-37.5,5.325981295538946,-4.0625
-38.0,5.2768939103266055,4.0625
-38.0,5.289165756629691,1.625
-38.0,5.283029833478148,4.0625
-38.0,5.283029833478148,1.625
-38.0,5.295301679781233,-0.8125
-38.0,5.301437602932776,-0.8125
-38.0,5.295301679781233,-0.8125
-38.0,5.3198453723874035,-2.4375
-38.0,5.295301679781233,0.8125
-38.5,5.301437602932776,1.625
-38.5,5.289165756629691,1.625
-38.5,5.295301679781233,0.0
-38.5,5.301437602932776,0.8125
-38.5,5.2768939103266055,4.875
-38.5,5.283029833478148,2.4375
-38.5,5.2768939103266055,4.0625
-38.5,5.295301679781233,0.8125
-38.5,5.2768939103266055,5.6875
-38.5,5.301437602932776,0.0
-38.5,5.295301679781233,2.4375
-38.0,5.3198453723874035,-0.8125
-38.5,5.307573526084319,0.8125
-38.0,5.332117218690489,-2.4375
-38.0,5.313709449235861,1.625
-38.0,5.325981295538946,0.0
-38.0,5.301437602932776,4.875
-38.0,5.313709449235861,1.625
-37.5,5.301437602932776,2.4375
-37.5,5.3198453723874035,2.4375
-37.5,5.3198453723874035,0.8125
-37.5,5.313709449235861,4.0625
-37.0,5.325981295538946,0.8125
-37.0,5.332117218690489,2.4375
-37.0,5.332117218690489,0.8125
-37.0,5.325981295538946,1.625
-36.5,5.325981295538946,0.8125
-36.5,5.338253141842031,1.625
-36.5,5.338253141842031,2.4375
-36.5,5.325981295538946,4.0625
-36.0,5.338253141842031,1.625
-36.0,5.338253141842031,1.625
-36.0,5.368932757599744,-1.625
-36.0,5.344389064993574,0.8125
-36.0,5.338253141842031,4.0625
-36.0,5.368932757599744,-0.8125
-35.5,5.350524988145116,0.0
-35.5,5.338253141842031,4.0625
-35.5,5.338253141842031,2.4375
-35.0,5.356660911296659,1.625
-35.0,5.350524988145116,2.4375
-35.0,5.344389064993574,4.875
-34.5,5.3627968344482015,1.625
-34.5,5.350524988145116,4.0625
-34.5,5.393476450205914,-2.4375
-34.0,5.3627968344482015,1.625
-34.0,5.387340527054372,0.0
-33.5,5.411884219660542,-0.8125
-33.5,5.418020142812084,0.0
-33.0,5.43029198911517,-1.625
-33.0,5.448699758569798,-2.4375
-33.0,5.436427912266712,0.0
-32.5,5.436427912266712,-0.8125
-32.5,5.45483568172134,-4.0625
-32.5,5.442563835418255,-4.0625
-32.5,5.43029198911517,-2.4375
-32.5,5.411884219660542,-0.8125
-32.5,5.399612373357457,-1.625
-32.5,5.387340527054372,0.0
-32.0,5.368932757599744,0.0
-32.0,5.356660911296659,0.8125
-32.0,5.350524988145116,0.0
-32.0,5.338253141842031,2.4375
-32.0,5.356660911296659,0.0
-32.0,5.344389064993574,0.8125
-32.0,5.338253141842031,4.0625
-32.0,5.338253141842031,2.4375
-32.0,5.356660911296659,0.8125
-32.0,5.338253141842031,2.4375
-31.5,5.3627968344482015,-0.8125
-32.0,5.344389064993574,2.4375
-31.5,5.344389064993574,1.625
-31.5,5.350524988145116,1.625
-31.5,5.350524988145116,0.8125
-31.5,5.356660911296659,2.4375
-31.5,5.3627968344482015,0.8125
-31.5,5.393476450205914,-2.4375
-31.5,5.381204603902829,-0.8125
-31.5,5.393476450205914,-1.625
-32.0,5.375068680751287,1.625
-32.0,5.393476450205914,-0.8125
-32.0,5.405748296509,-1.625
-32.0,5.411884219660542,-2.4375
-32.0,5.405748296509,0.0
-32.0,5.411884219660542,-0.8125
-32.5,5.411884219660542,0.8125
-32.5,5.436427912266712,-1.625
-32.0,5.45483568172134,-1.625
-32.5,5.460971604872882,-0.8125
-32.5,5.473243451175968,-0.8125
-32.5,5.47937937432751,0.0
-32.5,5.491651220630596,-0.8125
-32.5,5.516194913236766,-4.0625
-32.5,5.5100589900852235,0.0
-32.5,5.534602682691394,-0.8125
-32.5,5.546874528994478,-1.625
-32.0,5.565282298449106,-0.8125
-32.5,5.589825991055276,-2.4375
-32.5,5.602097837358362,-1.625
-32.5,5.602097837358362,-0.8125
-32.5,5.632777453116074,-2.4375
-32.5,5.632777453116074,-1.625
-32.5,5.6573211457222445,-4.0625
-32.5,5.651185222570702,0.8125
-32.5,5.66959299202533,-0.8125
-32.0,5.675728915176872,0.0
-32.5,5.706408530934585,-2.4375
-32.5,5.700272607783043,0.8125
-32.5,5.712544454086128,2.4375
-32.5,5.737088146692298,-0.8125
-32.5,5.755495916146925,0.8125
-32.5,5.773903685601553,-2.4375
-33.0,5.798447378207723,-1.625
-33.0,5.829126993965437,0.0
-33.0,5.872078456026235,-0.8125
-33.0,5.915029918087033,0.0
-33.5,5.964117303299373,-0.8125
-33.5,6.000932842208628,0.0
-33.5,6.031612457966341,0.0
-34.0,6.056156150572511,-4.0625
-34.0,6.074563920027139,-0.8125
-34.0,6.086835766330224,-0.8125
-34.5,6.080699843178682,0.8125
-34.0,6.080699843178682,2.4375
-34.5,6.092971689481767,0.8125
-34.5,6.105243535784852,0.8125
-34.5,6.117515382087937,-4.0625
-35.0,6.105243535784852,-0.8125
-34.5,6.080699843178682,2.4375
-35.0,6.0991076126333095,0.8125
-35.0,6.092971689481767,0.0
-35.0,6.086835766330224,-1.625
-35.0,6.068427996875596,0.8125
-35.5,6.092971689481767,-4.0625
-35.5,6.062292073724054,1.625
-35.5,6.068427996875596,-0.8125
-35.5,6.068427996875596,0.8125
-35.5,6.050020227420969,4.0625
-35.5,6.050020227420969,0.8125
-36.0,6.056156150572511,-2.4375
-36.0,6.043884304269426,0.8125
-35.5,6.037748381117884,1.625
-36.0,6.037748381117884,0.0
-36.0,6.037748381117884,-0.8125
-36.0,6.037748381117884,0.8125
-36.0,6.031612457966341,0.0
-36.0,6.031612457966341,0.0
-36.0,6.031612457966341,0.0
-36.0,6.037748381117884,0.0
-36.0,6.013204688511713,4.0625
-36.0,6.025476534814799,0.8125
-36.5,6.025476534814799,0.8125
-36.0,6.031612457966341,0.0
-36.5,6.019340611663256,2.4375
-36.5,6.050020227420969,-4.0625
-36.5,6.025476534814799,0.8125
-36.5,6.025476534814799,0.8125
-37.0,6.025476534814799,0.8125
-36.5,6.013204688511713,0.8125
-37.0,6.013204688511713,0.0
-36.5,6.019340611663256,-2.4375
-36.5,6.013204688511713,0.0
-37.0,6.000932842208628,2.4375
-37.0,5.988660995905543,2.4375
-36.5,6.000932842208628,-1.625
-36.5,6.000932842208628,-2.4375
-36.5,6.000932842208628,-4.875
-36.5,5.957981380147831,0.8125
-36.5,5.964117303299373,-0.8125
-36.5,5.93343768754166,2.4375
-36.0,5.945709533844745,-0.8125
-36.5,5.9518454569962875,-2.4375
-36.5,5.927301764390117,-0.8125
-36.0,5.915029918087033,0.8125
-36.5,5.890486225480862,4.0625
-36.5,5.9088939949354895,-0.8125
-36.0,5.884350302329319,2.4375
-36.5,5.896622148632405,0.0
-36.5,5.890486225480862,0.0
-36.5,5.878214379177777,1.625
-36.5,5.878214379177777,-0.8125
-36.5,5.853670686571607,1.625
-36.5,5.8659425328746915,0.0
-36.5,5.8659425328746915,-4.0625
-36.5,5.829126993965437,1.625
-36.0,5.829126993965437,0.8125
-36.5,5.829126993965437,0.0
-36.5,5.822991070813893,-0.8125
-36.0,5.798447378207723,0.0
-36.0,5.786175531904639,-0.8125
-36.0,5.786175531904639,0.0
-35.5,5.767767762450011,-0.8125
-35.5,5.755495916146925,-0.8125
-35.5,5.755495916146925,-1.625
-35.0,5.712544454086128,2.4375
-35.0,5.706408530934585,0.8125
-34.5,5.700272607783043,-0.8125
-34.5,5.6941366846315,0.8125
-34.5,5.6941366846315,-0.8125
-34.0,5.700272607783043,-1.625
-34.0,5.6941366846315,-1.625
-34.0,5.688000761479957,-0.8125
-34.0,5.6941366846315,0.0
-34.0,5.688000761479957,0.0
-34.0,5.712544454086128,-4.875
-34.0,5.688000761479957,0.0
-34.0,5.681864838328415,-0.8125
-34.0,5.700272607783043,-1.625
-34.0,5.675728915176872,0.0
-34.0,5.706408530934585,-4.875
-33.5,5.700272607783043,-4.875
-33.5,5.6941366846315,-2.4375
-33.5,5.688000761479957,-1.625
-34.0,5.688000761479957,-2.4375
-34.0,5.681864838328415,-1.625
-33.5,5.681864838328415,-0.8125
-34.0,5.681864838328415,-0.8125
-34.0,5.688000761479957,-2.4375
-34.0,5.66959299202533,-0.8125
-33.5,5.681864838328415,-2.4375
-34.0,5.675728915176872,-1.625
-34.0,5.663457068873787,-0.8125
-34.0,5.6573211457222445,0.0
-34.0,5.663457068873787,-1.625
-34.0,5.663457068873787,-1.625
-34.0,5.651185222570702,-1.625
-34.0,5.6573211457222445,-0.8125
-34.0,5.638913376267617,1.625
-34.0,5.6573211457222445,-1.625
-34.0,5.6573211457222445,-1.625
-34.0,5.638913376267617,0.0
-34.0,5.64504929941916,0.8125
-34.0,5.64504929941916,0.0
-34.0,5.638913376267617,-0.8125
-34.0,5.64504929941916,-1.625
-34.0,5.632777453116074,-0.8125
-34.0,5.626641529964532,0.0
-34.5,5.626641529964532,-0.8125
-34.5,5.620505606812989,-0.8125
-34.5,5.632777453116074,-4.0625
-34.0,5.608233760509904,0.0
-34.5,5.608233760509904,0.0
-34.5,5.608233760509904,-0.8125
-34.5,5.608233760509904,-0.8125
-34.5,5.6143696836614465,-2.4375
-34.5,5.602097837358362,0.0
-34.5,5.589825991055276,0.0
-35.0,5.595961914206819,-2.4375
-35.0,5.595961914206819,-4.0625
-35.0,5.577554144752192,-4.0625
-35.0,5.565282298449106,-0.8125
-35.0,5.553010452146021,0.0
-35.5,5.540738605842936,-0.8125
-35.5,5.546874528994478,-4.0625
-35.5,5.534602682691394,-4.0625
-35.5,5.5100589900852235,-2.4375
-36.0,5.497787143782138,-2.4375
-36.0,5.4671075280244255,0.0
-36.5,5.45483568172134,0.0
-36.5,5.45483568172134,-2.4375
-36.5,5.442563835418255,-2.4375
-37.0,5.411884219660542,0.8125
-37.0,5.411884219660542,-0.8125
-37.0,5.405748296509,-0.8125
-37.5,5.405748296509,-1.625
-37.5,5.387340527054372,-0.8125
-37.5,5.405748296509,-1.625
-38.0,5.393476450205914,0.0
-37.5,5.387340527054372,0.0
-37.5,5.3627968344482015,4.0625
-38.0,5.375068680751287,0.8125
-38.0,5.399612373357457,-1.625
-38.0,5.424156065963627,-6.5
-38.0,5.375068680751287,0.8125
-38.0,5.3627968344482015,5.6875
-38.0,5.368932757599744,0.8125
-38.0,5.405748296509,-4.0625
-38.0,5.387340527054372,-0.8125
-38.0,5.375068680751287,1.625
-38.0,5.356660911296659,4.0625
-38.0,5.387340527054372,-0.8125
-38.0,5.381204603902829,0.0
-38.0,5.381204603902829,0.0
-38.0,5.381204603902829,-0.8125
-38.0,5.399612373357457,-2.4375
-38.0,5.381204603902829,0.0
-38.5,5.393476450205914,-2.4375
-38.0,5.356660911296659,1.625
-38.5,5.344389064993574,4.0625
-38.0,5.356660911296659,2.4375
-38.0,5.368932757599744,0.0
-38.5,5.375068680751287,0.0
-38.0,5.350524988145116,2.4375
-38.5,5.3627968344482015,0.8125
-38.5,5.368932757599744,0.8125
-38.0,5.356660911296659,1.625
-38.5,5.338253141842031,5.6875
-38.5,5.344389064993574,1.625
-38.5,5.356660911296659,0.0
-38.5,5.356660911296659,0.0
-38.5,5.387340527054372,-5.6875
-38.5,5.332117218690489,2.4375
-38.5,5.356660911296659,-1.625
-38.5,5.338253141842031,1.625
-38.5,5.332117218690489,2.4375
-39.0,5.332117218690489,4.875
-39.0,5.313709449235861,4.875
-39.0,5.325981295538946,1.625
-39.0,5.307573526084319,5.6875
-38.5,5.325981295538946,1.625
-39.0,5.325981295538946,2.4375
-39.0,5.313709449235861,4.875
-39.0,5.3198453723874035,0.8125
-39.0,5.338253141842031,0.0
-39.0,5.332117218690489,0.8125
-39.0,5.313709449235861,4.0625
-39.0,5.3198453723874035,4.0625
-39.0,5.3198453723874035,2.4375
-39.0,5.313709449235861,2.4375
-39.0,5.307573526084319,5.6875
-39.0,5.313709449235861,4.0625
-39.0,5.307573526084319,4.0625
-39.0,5.313709449235861,2.4375
-39.0,5.295301679781233,4.875
-39.0,5.332117218690489,-0.8125
-39.0,5.295301679781233,4.0625
-39.0,5.295301679781233,4.0625
-39.0,5.301437602932776,4.0625
-39.0,5.301437602932776,4.875
-39.0,5.301437602932776,0.8125
-39.0,5.289165756629691,5.6875
-39.0,5.295301679781233,2.4375
-39.0,5.283029833478148,4.875
-39.0,5.289165756629691,4.0625
-39.0,5.289165756629691,1.625
-39.0,5.295301679781233,2.4375
-39.0,5.295301679781233,4.0625
-39.0,5.289165756629691,1.625
-39.0,5.295301679781233,0.8125
-39.0,5.307573526084319,0.8125
-39.0,5.295301679781233,0.8125
-39.0,5.270757987175063,4.0625
-39.0,5.295301679781233,0.8125
-39.0,5.2768939103266055,2.4375
-39.0,5.301437602932776,0.0
-39.0,5.295301679781233,0.8125
-39.0,5.289165756629691,2.4375
-39.0,5.270757987175063,2.4375
-39.0,5.2768939103266055,4.875
-39.0,5.289165756629691,0.0
-39.0,5.2768939103266055,2.4375
-39.0,5.283029833478148,1.625
-39.0,5.270757987175063,4.875
-39.5,5.270757987175063,2.4375
-39.0,5.270757987175063,1.625
-39.0,5.258486140871978,4.875
-39.5,5.270757987175063,1.625
-39.0,5.258486140871978,4.0625
-39.5,5.270757987175063,2.4375
-39.5,5.289165756629691,-2.4375
-39.0,5.258486140871978,1.625
-39.0,5.252350217720435,1.625
-39.0,5.252350217720435,2.4375
-39.5,5.301437602932776,-4.875
-39.0,5.283029833478148,-2.4375
-39.5,5.246214294568893,4.875
-39.5,5.246214294568893,1.625
-39.0,5.240078371417351,4.0625
-39.0,5.246214294568893,4.0625
-39.0,5.240078371417351,4.875
-39.5,5.258486140871978,1.625
-39.5,5.264622064023521,1.625
-39.0,5.283029833478148,-4.0625
-39.0,5.246214294568893,2.4375
-39.5,5.240078371417351,4.0625
-39.5,5.258486140871978,0.8125
-39.5,5.240078371417351,0.8125
-39.5,5.264622064023521,-1.625
-39.5,5.221670601962723,4.875
-39.5,5.227806525114265,2.4375
-39.5,5.227806525114265,1.625
-39.5,5.221670601962723,4.0625
-39.5,5.227806525114265,4.0625
-39.5,5.227806525114265,0.0
-39.5,5.21553467881118,4.875
-39.5,5.221670601962723,1.625
-39.5,5.21553467881118,0.0
-39.5,5.21553467881118,1.625
-39.5,5.197126909356553,4.875
-40.0,5.221670601962723,-1.625
-40.0,5.190990986205009,1.625
-40.0,5.197126909356553,2.4375
-40.5,5.203262832508095,0.0
-40.5,5.197126909356553,2.4375
-40.5,5.203262832508095,0.0
-41.0,5.184855063053467,1.625
-41.0,5.203262832508095,0.0
-41.0,5.190990986205009,0.8125
-41.5,5.184855063053467,2.4375
-41.5,5.184855063053467,4.875
-42.0,5.197126909356553,0.0
-42.0,5.178719139901925,2.4375
-42.0,5.197126909356553,1.625
-42.5,5.166447293598839,5.6875
-42.5,5.178719139901925,0.8125
-42.5,5.184855063053467,0.8125
-42.0,5.1725832167503825,5.6875
-42.5,5.184855063053467,-0.8125
-42.5,5.21553467881118,-1.625
-42.5,5.1725832167503825,2.4375
-42.5,5.184855063053467,1.625
-42.0,5.203262832508095,1.625
-42.5,5.209398755659637,0.0
-42.5,5.190990986205009,1.625
-42.5,5.190990986205009,1.625
-42.5,5.221670601962723,-4.875
-42.0,5.1725832167503825,6.5
-42.5,5.184855063053467,4.0625
-42.5,5.184855063053467,0.0
-42.5,5.197126909356553,-1.625
-42.5,5.190990986205009,4.875
-42.5,5.227806525114265,-7.3125
-42.5,5.197126909356553,0.8125
-42.5,5.184855063053467,4.0625
-42.5,5.184855063053467,2.4375
-42.5,5.1725832167503825,4.0625
-42.5,5.184855063053467,0.0
-42.5,5.203262832508095,0.0
-42.5,5.166447293598839,4.875
-42.5,5.166447293598839,5.6875
-42.5,5.190990986205009,0.8125
-42.5,5.1725832167503825,4.0625
-42.5,5.184855063053467,1.625
-42.5,5.209398755659637,-0.8125
-42.5,5.184855063053467,0.8125
-42.5,5.190990986205009,-2.4375
-42.5,5.178719139901925,2.4375
-42.5,5.184855063053467,2.4375
-42.5,5.184855063053467,0.0
-42.5,5.178719139901925,1.625
-42.5,5.154175447295755,8.125
-42.5,5.21553467881118,-1.625
-42.5,5.197126909356553,-2.4375
-42.5,5.166447293598839,4.0625
-42.5,5.160311370447297,4.875
-42.5,5.178719139901925,1.625
-42.0,5.178719139901925,1.625
-42.5,5.184855063053467,-0.8125
-42.5,5.184855063053467,1.625
-42.5,5.166447293598839,4.0625
-42.0,5.178719139901925,2.4375
-42.0,5.184855063053467,-0.8125
-42.5,5.166447293598839,1.625
-42.0,5.160311370447297,4.0625
-42.5,5.178719139901925,0.0
-42.5,5.190990986205009,-2.4375
-42.5,5.154175447295755,5.6875
-42.5,5.160311370447297,5.6875
-42.5,5.178719139901925,-0.8125
-42.5,5.160311370447297,5.6875
-42.5,5.190990986205009,-0.8125
-42.5,5.184855063053467,1.625
-42.5,5.197126909356553,-4.0625
-42.5,5.166447293598839,4.0625
-42.0,5.166447293598839,2.4375
-42.5,5.148039524144211,4.875
-42.5,5.1725832167503825,0.8125
-42.5,5.184855063053467,-0.8125
-42.5,5.166447293598839,1.625
-42.5,5.148039524144211,6.5
-42.5,5.184855063053467,-0.8125
-42.5,5.160311370447297,2.4375
-42.5,5.135767677841127,4.875
-42.5,5.1725832167503825,-0.8125
-42.0,5.178719139901925,2.4375
-42.5,5.148039524144211,6.5
-42.5,5.166447293598839,4.0625
-42.5,5.166447293598839,2.4375
-42.0,5.160311370447297,2.4375
-42.5,5.154175447295755,4.0625
-42.5,5.178719139901925,0.8125
-42.5,5.190990986205009,-2.4375
-42.5,5.160311370447297,2.4375
-42.5,5.160311370447297,2.4375
-42.5,5.154175447295755,2.4375
-42.5,5.166447293598839,1.625
-42.5,5.154175447295755,6.5
-42.5,5.178719139901925,0.0
-42.5,5.160311370447297,2.4375
-42.5,5.190990986205009,-1.625
-42.5,5.160311370447297,4.875
-42.5,5.154175447295755,5.6875
-42.5,5.190990986205009,-2.4375
-42.5,5.184855063053467,0.0
-42.5,5.154175447295755,5.6875
-42.5,5.141903600992669,4.875
-42.5,5.1725832167503825,4.875
-42.5,5.178719139901925,0.0
-42.5,5.166447293598839,4.875
-42.5,5.148039524144211,2.4375
-42.5,5.135767677841127,5.6875
-42.5,5.1725832167503825,-0.8125
-42.5,5.184855063053467,-4.875
-42.5,5.160311370447297,2.4375
-42.0,5.166447293598839,-0.8125
-42.0,5.178719139901925,0.8125
-42.5,5.1725832167503825,-0.8125
-42.5,5.154175447295755,4.875
-42.5,5.160311370447297,0.8125
-42.5,5.160311370447297,1.625
-42.5,5.190990986205009,-4.875
-42.0,5.166447293598839,1.625
-42.5,5.154175447295755,0.0
-42.5,5.197126909356553,-4.875
-42.5,5.154175447295755,1.625
-42.5,5.135767677841127,6.5
-42.5,5.141903600992669,1.625
-42.5,5.148039524144211,1.625
-42.5,5.141903600992669,4.875
-42.5,5.148039524144211,2.4375
-42.5,5.148039524144211,1.625
-42.0,5.166447293598839,4.0625
-42.5,5.123495831538041,8.9375
-42.0,5.141903600992669,2.4375
-42.5,5.166447293598839,1.625
-42.5,5.148039524144211,1.625
-42.5,5.141903600992669,4.875
-42.5,5.141903600992669,2.4375
-42.5,5.148039524144211,1.625
-42.5,5.166447293598839,-0.8125
-42.5,5.154175447295755,4.0625
-42.0,5.166447293598839,-0.8125
-42.5,5.160311370447297,2.4375
-42.5,5.184855063053467,-0.8125
-42.5,5.154175447295755,1.625
-42.5,5.1725832167503825,-1.625
-42.5,5.160311370447297,0.8125
-42.5,5.129631754689584,5.6875
-42.5,5.178719139901925,0.8125
-42.5,5.154175447295755,1.625
-42.5,5.178719139901925,-1.625
-42.5,5.166447293598839,0.8125
-42.5,5.141903600992669,1.625
-42.5,5.160311370447297,0.0
-42.5,5.154175447295755,1.625
-42.5,5.148039524144211,4.0625
-42.5,5.148039524144211,4.0625
-42.5,5.148039524144211,2.4375
-42.5,5.141903600992669,4.875
-42.5,5.148039524144211,1.625
-42.5,5.154175447295755,0.8125
-42.5,5.160311370447297,0.8125
-42.5,5.148039524144211,0.8125
-42.5,5.160311370447297,1.625
-42.5,5.154175447295755,1.625
-42.5,5.160311370447297,0.0
-42.5,5.148039524144211,2.4375
-42.5,5.148039524144211,4.875
-42.5,5.1725832167503825,-0.8125
-42.5,5.1725832167503825,-2.4375
-42.5,5.160311370447297,0.0
-42.5,5.154175447295755,1.625
-42.5,5.160311370447297,0.0
-42.5,5.135767677841127,2.4375
-42.5,5.160311370447297,0.0
-42.0,5.160311370447297,0.0
-42.5,5.154175447295755,2.4375
-42.5,5.1725832167503825,0.0
-42.5,5.141903600992669,1.625
-42.5,5.148039524144211,0.0
-42.5,5.135767677841127,2.4375
-42.5,5.154175447295755,0.8125
-42.5,5.154175447295755,0.0
-42.5,5.166447293598839,-2.4375
-42.5,5.154175447295755,2.4375
-42.5,5.141903600992669,1.625
-42.5,5.148039524144211,1.625
-42.5,5.1725832167503825,-4.0625
-42.5,5.178719139901925,-1.625
-42.5,5.141903600992669,2.4375
-42.5,5.129631754689584,2.4375
-42.5,5.135767677841127,4.0625
-42.5,5.141903600992669,2.4375
-42.5,5.148039524144211,1.625
-42.5,5.178719139901925,-6.5
-42.5,5.154175447295755,2.4375
-42.5,5.123495831538041,4.875
-42.5,5.148039524144211,0.0
-42.5,5.148039524144211,0.0
-42.5,5.129631754689584,4.0625
-42.5,5.166447293598839,-0.8125
-42.5,5.123495831538041,2.4375
-42.5,5.148039524144211,0.8125
-42.5,5.154175447295755,0.0
-42.5,5.178719139901925,-4.875
-42.5,5.148039524144211,1.625
-42.5,5.123495831538041,4.875
-42.5,5.1725832167503825,-2.4375
-42.5,5.135767677841127,1.625
-42.5,5.135767677841127,0.8125
-42.5,5.166447293598839,-1.625
-42.5,5.141903600992669,0.8125
-42.5,5.141903600992669,1.625
-42.5,5.111223985234957,7.3125
-42.5,5.148039524144211,1.625
-42.5,5.160311370447297,-1.625
-42.5,5.148039524144211,1.625
-42.5,5.141903600992669,2.4375
-42.5,5.1725832167503825,-4.0625
-42.5,5.148039524144211,0.0
-42.5,5.160311370447297,-4.0625
-42.5,5.141903600992669,2.4375
-42.5,5.129631754689584,4.0625
-42.5,5.123495831538041,4.875
-42.5,5.148039524144211,0.0
-42.5,5.154175447295755,-1.625
-42.5,5.154175447295755,-0.8125
-42.5,5.141903600992669,0.8125
-42.0,5.129631754689584,4.0625
-42.0,5.135767677841127,2.4375
-42.5,5.129631754689584,2.4375
-42.5,5.135767677841127,4.0625
-42.5,5.123495831538041,1.625
-42.0,5.166447293598839,-1.625
-42.5,5.166447293598839,0.0
-42.5,5.135767677841127,2.4375
-42.0,5.129631754689584,5.6875
-42.5,5.148039524144211,-0.8125
-42.5,5.135767677841127,0.8125
-42.5,5.117359908386499,4.875
-42.0,5.166447293598839,-2.4375
-42.0,5.148039524144211,1.625
-42.5,5.129631754689584,4.0625
-42.5,5.129631754689584,2.4375
-42.0,5.135767677841127,2.4375
-42.5,5.148039524144211,-0.8125
-42.0,5.141903600992669,0.0
-42.5,5.148039524144211,0.0
-42.5,5.129631754689584,1.625
-42.5,5.129631754689584,2.4375
-42.5,5.141903600992669,0.8125
-42.5,5.154175447295755,0.0
-42.5,5.148039524144211,-0.8125
-42.5,5.135767677841127,0.8125
-42.5,5.166447293598839,-2.4375
-42.5,5.129631754689584,0.0
-42.0,5.135767677841127,1.625
-42.0,5.135767677841127,0.8125
-42.5,5.135767677841127,1.625
-42.5,5.141903600992669,0.8125
-42.5,5.141903600992669,1.625
-42.5,5.160311370447297,-1.625
-42.0,5.148039524144211,0.0
-42.0,5.160311370447297,-2.4375
-42.5,5.129631754689584,4.0625
-42.5,5.141903600992669,0.8125
-42.5,5.129631754689584,1.625
-42.0,5.135767677841127,2.4375
-42.5,5.123495831538041,2.4375
-42.0,5.141903600992669,4.0625
-42.5,5.123495831538041,2.4375
-42.0,5.129631754689584,4.875
-42.5,5.135767677841127,0.0
-42.5,5.135767677841127,2.4375
-42.5,5.154175447295755,0.0
-42.0,5.148039524144211,0.8125
-42.0,5.129631754689584,4.0625
-42.0,5.123495831538041,4.0625
-42.0,5.148039524144211,-1.625
-42.5,5.160311370447297,-1.625
-42.5,5.141903600992669,-0.8125
-42.5,5.111223985234957,6.5
-42.0,5.117359908386499,2.4375
-42.0,5.141903600992669,0.8125
-42.0,5.154175447295755,1.625
-42.0,5.129631754689584,1.625
-42.0,5.160311370447297,-1.625
-42.0,5.123495831538041,7.3125
-42.0,5.123495831538041,1.625
-42.0,5.129631754689584,2.4375
-42.0,5.135767677841127,2.4375
-42.0,5.123495831538041,5.6875
-42.0,5.129631754689584,2.4375
-42.0,5.129631754689584,5.6875
-42.0,5.111223985234957,6.5
-42.0,5.148039524144211,0.8125
-42.0,5.117359908386499,6.5
-42.0,5.148039524144211,-0.8125
-42.0,5.184855063053467,-6.5
-42.0,5.117359908386499,5.6875
-42.5,5.135767677841127,1.625
-42.0,5.160311370447297,-2.4375
-42.0,5.141903600992669,0.0
-42.0,5.160311370447297,0.0
-42.0,5.166447293598839,-2.4375
-42.0,5.141903600992669,1.625
-42.0,5.135767677841127,0.8125
-42.0,5.1725832167503825,-4.875
-42.0,5.123495831538041,2.4375
-42.0,5.135767677841127,4.0625
-42.0,5.141903600992669,1.625
-42.0,5.160311370447297,0.0
-42.5,5.160311370447297,-1.625
-42.0,5.135767677841127,1.625
-42.0,5.135767677841127,0.8125
-42.0,5.123495831538041,4.875
-42.0,5.135767677841127,0.8125
-42.0,5.135767677841127,0.8125
-42.0,5.117359908386499,5.6875
-42.0,5.141903600992669,0.8125
-42.0,5.123495831538041,2.4375
-42.0,5.148039524144211,0.8125
-42.0,5.129631754689584,0.8125
-42.0,5.123495831538041,0.8125
-42.0,5.148039524144211,-0.8125
-42.0,5.129631754689584,0.8125
-42.0,5.123495831538041,2.4375
-42.0,5.141903600992669,0.8125
-42.0,5.148039524144211,-0.8125
-42.0,5.141903600992669,0.8125
-42.0,5.148039524144211,-0.8125
-42.0,5.123495831538041,4.0625
-42.0,5.148039524144211,0.0
-42.0,5.166447293598839,-4.875
-42.0,5.123495831538041,4.875
-42.0,5.141903600992669,0.0
-42.0,5.135767677841127,0.8125
-42.0,5.123495831538041,4.875
-42.0,5.141903600992669,0.8125
-42.0,5.129631754689584,2.4375
-42.0,5.129631754689584,5.6875
-42.0,5.111223985234957,4.875
-42.0,5.141903600992669,0.0
-42.0,5.141903600992669,4.0625
-42.0,5.148039524144211,-0.8125
-42.0,5.141903600992669,0.0
-42.0,5.117359908386499,5.6875
-42.0,5.123495831538041,4.875
-42.0,5.148039524144211,1.625
-42.0,5.129631754689584,0.8125
-42.0,5.129631754689584,1.625
-42.0,5.135767677841127,1.625
-42.0,5.123495831538041,2.4375
-42.0,5.105088062083414,7.3125
-42.0,5.141903600992669,0.0
-42.0,5.135767677841127,1.625
-42.0,5.135767677841127,1.625
-42.0,5.166447293598839,-1.625
-41.5,5.111223985234957,7.3125
-42.0,5.135767677841127,2.4375
-41.5,5.148039524144211,0.0
-41.5,5.141903600992669,0.8125
-41.5,5.154175447295755,0.8125
-41.0,5.148039524144211,-0.8125
-41.0,5.166447293598839,0.8125
-41.0,5.135767677841127,4.875
-40.5,5.154175447295755,4.875
-41.0,5.160311370447297,2.4375
-40.5,5.160311370447297,4.0625
-40.5,5.148039524144211,5.6875
-40.5,5.148039524144211,4.875
-41.0,5.148039524144211,1.625
-41.0,5.135767677841127,7.3125
-41.0,5.166447293598839,0.0
-41.0,5.154175447295755,2.4375
-41.0,5.148039524144211,2.4375
-41.0,5.160311370447297,0.8125
-41.0,5.135767677841127,2.4375
-41.0,5.154175447295755,2.4375
-41.0,5.178719139901925,0.0
-41.0,5.166447293598839,0.8125
-41.0,5.1725832167503825,-0.8125
-41.0,5.141903600992669,4.0625
-41.0,5.148039524144211,4.875
-41.0,5.141903600992669,1.625
-41.0,5.148039524144211,2.4375
-41.0,5.141903600992669,6.5
-41.0,5.1725832167503825,-2.4375
-41.0,5.135767677841127,2.4375
-41.0,5.160311370447297,1.625
-41.0,5.148039524144211,1.625
-41.0,5.154175447295755,-0.8125
-41.0,5.141903600992669,4.0625
-41.0,5.178719139901925,-1.625
-41.0,5.148039524144211,5.6875
-41.0,5.166447293598839,0.8125
-41.0,5.148039524144211,1.625
-41.0,5.154175447295755,0.8125
-41.0,5.148039524144211,1.625
-41.0,5.148039524144211,4.0625
-41.0,5.154175447295755,0.8125
-41.0,5.1725832167503825,-4.0625
-41.0,5.154175447295755,1.625
-41.0,5.141903600992669,1.625
-41.0,5.160311370447297,0.0
-41.0,5.148039524144211,0.8125
-41.0,5.141903600992669,0.8125
-41.0,5.160311370447297,2.4375
-41.0,5.178719139901925,-2.4375
-41.0,5.129631754689584,5.6875
-41.0,5.160311370447297,1.625
-41.0,5.148039524144211,4.0625
-41.0,5.141903600992669,6.5
-41.0,5.166447293598839,0.0
-41.0,5.141903600992669,4.0625
-41.0,5.141903600992669,4.0625
-41.0,5.148039524144211,0.8125
-41.0,5.141903600992669,1.625
-41.0,5.141903600992669,2.4375
-41.0,5.160311370447297,0.0
-41.0,5.141903600992669,4.875
-41.0,5.160311370447297,-0.8125
-41.0,5.141903600992669,2.4375
-41.0,5.129631754689584,4.875
-41.0,5.135767677841127,6.5
-41.0,5.148039524144211,4.0625
-41.0,5.148039524144211,4.0625
-41.0,5.141903600992669,2.4375
-41.0,5.160311370447297,-1.625
-41.0,5.148039524144211,1.625
-41.0,5.160311370447297,0.0
-41.0,5.148039524144211,1.625
-41.0,5.135767677841127,1.625
-41.0,5.135767677841127,4.875
-41.0,5.1725832167503825,0.0
-41.0,5.148039524144211,2.4375
