-50.0,2.356194490192345,6.5
-50.0,2.1598449493429825,9.75
-50.5,2.1046216409791,9.75
-50.5,2.086213871524472,6.5
-50.5,2.1659808724945253,3.25
-50.5,2.1353012567368124,7.3125
-50.5,2.141437179888355,8.125
-50.5,2.141437179888355,5.6875
-50.5,2.0800779483729293,9.75
-50.0,2.055534255766759,9.75
-51.0,1.88986433067511,5.6875
-51.0,1.9266798695843652,1.625
-50.5,1.9144080232812801,8.125
-50.5,1.9266798695843652,6.5
-50.5,1.88986433067511,9.75
-51.0,1.8775924843720249,11.375
-51.0,1.8530487917658545,13.8125
-51.0,1.9082721001297376,6.5
-50.5,1.9266798695843652,-0.8125
-51.0,1.9266798695843652,0.0
-51.0,1.9205439464328227,-1.625
-51.0,1.8407769454627694,6.5
-51.0,1.846912868614312,5.6875
-51.5,1.8775924843720249,3.25
-51.5,1.8407769454627694,5.6875
-52.0,1.846912868614312,7.3125
-51.5,1.859184714917397,-1.625
-51.5,1.7978254834019713,5.6875
-51.5,1.7916895602504288,5.6875
-51.5,1.7794177139473437,7.3125
-51.5,1.748738098189631,10.5625
-51.0,1.7978254834019713,-0.8125
-51.5,1.8100973297050567,-1.625
-51.5,1.6382914814618648,14.625
-51.0,1.564660403643354,4.875
-50.5,1.4358060174609601,7.3125
-49.5,1.282407938672396,3.25
-49.5,0.9756117810952678,0.8125
-50.0,0.859029241215959,5.6875
-50.0,0.8222137023067037,2.4375
-49.5,0.7792622402459057,-4.0625
-49.0,0.7424467013366504,4.0625
-49.0,0.7853981633974483,2.4375
-47.5,0.9081166264282996,0.0
-47.0,0.9510680884890975,7.3125
-47.0,1.0921943209745766,6.5
-47.5,1.1719613219446299,7.3125
-48.0,1.4051264017032472,3.25
-48.0,1.3928545554001621,9.75
-48.0,1.4480778637640452,2.4375
-48.0,1.4480778637640452,3.25
-48.0,1.4480778637640452,6.5
-48.0,1.4173982480063325,8.9375
-47.5,1.4726215563702154,2.4375
-48.0,1.4726215563702154,0.8125
-47.5,1.4603497100671303,6.5
-47.0,1.4358060174609601,8.125
-46.5,1.4173982480063325,3.25
-46.5,1.4542137869155878,5.6875
-46.0,1.5155730184310134,11.375
