-25.0,2.227340104009951,-0.8125
-25.0,2.227340104009951,-0.8125
-25.0,2.2212041808584084,0.8125
-25.0,2.2212041808584084,0.0
-25.0,2.2150682577068657,5.6875
-25.0,2.2027964114037806,7.3125
-25.0,2.2089323345553233,-0.8125
-25.0,2.1905245651006955,1.625
-25.0,2.1966604882522383,-0.8125
-25.0,2.184388641949153,0.0
-25.0,2.172116795646068,0.0
-25.0,2.1659808724945253,5.6875
-25.0,2.1782527187976104,-2.4375
-25.0,2.1659808724945253,5.6875
-25.0,2.1659808724945253,4.875
-25.0,2.1537090261914402,1.625
-25.0,2.1537090261914402,0.8125
-25.0,2.1598449493429825,4.875
-25.0,2.1659808724945253,0.0
-25.0,2.1659808724945253,4.875
-25.0,2.1537090261914402,1.625
-25.0,2.1537090261914402,5.6875
-25.0,2.1659808724945253,-0.8125
-25.0,2.1537090261914402,0.0
-25.0,2.1598449493429825,4.875
-25.0,2.1537090261914402,6.5
-25.0,2.1659808724945253,3.25
-25.0,2.1537090261914402,5.6875
-25.0,2.1537090261914402,0.8125
-25.0,2.1537090261914402,5.6875
-25.0,2.172116795646068,2.4375
-25.0,2.1598449493429825,0.0
-25.0,2.1537090261914402,6.5
-25.0,2.1537090261914402,1.625
-25.0,2.1598449493429825,5.6875
-25.0,2.1659808724945253,3.25
-25.0,2.1537090261914402,0.0
-25.0,2.1598449493429825,4.875
-25.0,2.1537090261914402,5.6875
-25.0,2.1475731030398975,0.8125
-25.0,2.1537090261914402,0.0
-25.0,2.141437179888355,0.8125
-25.0,2.1475731030398975,5.6875
-25.0,2.1475731030398975,0.0
-25.0,2.141437179888355,6.5
-25.0,2.1475731030398975,5.6875
-25.0,2.1475731030398975,4.875
-25.0,2.1475731030398975,0.8125
-25.0,2.1475731030398975,5.6875
-25.0,2.1475731030398975,4.875
-25.0,2.1475731030398975,4.875
-25.0,2.1475731030398975,5.6875
-25.0,2.1598449493429825,2.4375
-25.0,2.1537090261914402,4.875
-25.0,2.1475731030398975,5.6875
-25.0,2.1537090261914402,4.875
-25.0,2.1475731030398975,4.875
-25.0,2.1475731030398975,4.875
-25.0,2.1475731030398975,0.8125
-25.0,2.141437179888355,0.8125
-25.0,2.1475731030398975,0.8125
-25.0,2.141437179888355,2.4375
-25.5,2.1475731030398975,4.875
-25.0,2.1475731030398975,5.6875
-25.0,2.1475731030398975,4.875
-25.0,2.141437179888355,5.6875
-25.0,2.1475731030398975,4.875
-25.0,2.1537090261914402,0.0
-25.0,2.1475731030398975,0.8125
-25.0,2.1475731030398975,5.6875
-25.0,2.1537090261914402,-0.8125
-25.0,2.1537090261914402,0.0
-25.0,2.1475731030398975,4.875
-25.0,2.141437179888355,5.6875
-25.0,2.1353012567368124,0.8125
-25.0,2.12916533358527,0.8125
-25.0,2.12916533358527,4.875
-25.0,2.1230294104337273,4.875
-25.0,2.116893487282185,5.6875
-25.5,2.110757564130642,1.625
-25.0,2.110757564130642,6.5
-25.0,2.1046216409791,7.3125
-25.0,2.1046216409791,1.625
-25.0,2.1046216409791,4.875
-25.0,2.1046216409791,1.625
-25.0,2.1046216409791,5.6875
-25.0,2.098485717827557,0.8125
-25.0,2.098485717827557,6.5
-25.0,2.0923497946760143,1.625
-25.0,2.098485717827557,4.875
-25.0,2.0923497946760143,7.3125
-25.0,2.0923497946760143,0.8125
-25.0,2.098485717827557,0.8125
-25.0,2.098485717827557,5.6875
-25.0,2.1046216409791,0.0
-25.0,2.0923497946760143,6.5
-25.5,2.0923497946760143,5.6875
-25.0,2.086213871524472,1.625
-25.5,2.0923497946760143,4.875
-25.0,2.0923497946760143,0.8125
-25.0,2.086213871524472,1.625
-25.0,2.086213871524472,1.625
-25.0,2.0923497946760143,0.8125
-25.0,2.0923497946760143,6.5
-25.0,2.086213871524472,5.6875
-25.0,2.0923497946760143,6.5
-25.0,2.098485717827557,0.0
-25.5,2.098485717827557,0.0
-25.5,2.086213871524472,1.625
-25.0,2.0923497946760143,0.8125
-25.0,2.098485717827557,0.0
-25.0,2.098485717827557,0.0
-25.0,2.098485717827557,0.0
-25.0,2.086213871524472,2.4375
-25.0,2.098485717827557,6.5
-25.0,2.098485717827557,4.875
-25.0,2.1046216409791,4.875
-25.5,2.098485717827557,0.8125
-25.5,2.098485717827557,0.8125
-25.5,2.1046216409791,2.4375
-25.0,2.1046216409791,5.6875
-25.0,2.1046216409791,6.5
-25.5,2.116893487282185,0.8125
-25.0,2.116893487282185,0.0
-25.0,2.116893487282185,6.5
-25.5,2.116893487282185,0.8125
-25.0,2.12916533358527,5.6875
-25.0,2.1230294104337273,5.6875
-25.5,2.12916533358527,0.0
-25.5,2.12916533358527,6.5
-25.0,2.1353012567368124,6.5
-25.0,2.1475731030398975,-0.8125
-25.5,2.1537090261914402,-1.625
-25.0,2.1475731030398975,6.5
-25.5,2.1537090261914402,3.25
-25.5,2.1598449493429825,8.125
-25.5,2.172116795646068,0.0
-25.5,2.1782527187976104,0.8125
-25.5,2.1905245651006955,0.0
-25.5,2.1966604882522383,0.8125
-26.0,2.2089323345553233,0.0
-25.5,2.2150682577068657,0.0
-25.5,2.227340104009951,0.0
-25.5,2.227340104009951,0.8125
-25.5,2.2580197197676637,-0.8125
-25.5,2.2580197197676637,-0.8125
-25.5,2.270291566070749,-0.8125
-26.0,2.2886993355253766,-2.4375
-25.5,2.2948352586769194,-1.625
-25.5,2.313243028131547,-5.6875
-25.5,2.3193789512830896,-4.875
-25.5,2.313243028131547,-1.625
-26.0,2.313243028131547,-1.625
-25.5,2.3193789512830896,-0.8125
-25.5,2.3316507975861747,-1.625
-25.5,2.337786720737717,-1.625
-25.5,2.3439226438892597,-3.25
-25.5,2.350058567040802,-2.4375
-25.5,2.356194490192345,-2.4375
-25.5,2.356194490192345,-1.625
-25.5,2.356194490192345,-0.8125
-25.5,2.3623304133438876,-1.625
-25.5,2.36846633649543,-1.625
-25.5,2.3746022596469727,-0.8125
-25.5,2.386874105950058,-1.625
-25.5,2.380738182798515,0.0
-25.5,2.3930100291016,0.0
-25.5,2.405281875404685,-1.625
-25.5,2.399145952253143,0.0
-25.5,2.411417798556228,-0.8125
-25.5,2.405281875404685,0.8125
-25.0,2.423689644859313,-0.8125
-25.5,2.423689644859313,0.0
-25.5,2.429825568010856,0.0
-25.0,2.435961491162398,0.8125
-25.0,2.442097414313941,-0.8125
-25.0,2.466641106920111,-2.4375
-25.0,2.454369260617026,0.0
-25.0,2.466641106920111,0.0
-25.0,2.4727770300716534,0.0
-25.0,2.478912953223196,0.0
-25.0,2.4911847995262812,-1.625
-25.0,2.4850488763747385,1.625
-25.0,2.497320722677824,-0.8125
-25.0,2.509592568980909,-0.8125
-25.0,2.497320722677824,6.5
-25.0,2.509592568980909,0.0
-25.0,2.5157284921324514,0.0
-25.0,2.521864415283994,0.0
-25.0,2.521864415283994,0.0
-25.0,2.5341362615870793,0.0
-25.0,2.5402721847386216,-0.8125
-25.0,2.5464081078901644,0.0
-25.0,2.5586799541932495,-0.8125
-25.0,2.5709518004963345,-0.8125
-25.0,2.5770877236478773,0.0
-25.0,2.5832236467994196,0.0
-25.0,2.5893595699509624,6.5
-25.0,2.60776733940559,-0.8125
-24.5,2.6139032625571326,0.8125
-25.0,2.6261751088602177,0.0
-25.0,2.6384469551633027,5.6875
-25.0,2.650718801466388,0.0
-24.5,2.6568547246179306,0.8125
-24.5,2.675262494072558,0.0
-24.5,2.6813984172241008,0.8125
-25.0,2.705942109830271,4.875
-24.5,2.705942109830271,6.5
-24.5,2.730485802436441,0.8125
-24.5,2.742757648739526,1.625
-24.5,2.7550294950426117,5.6875
-24.5,2.767301341345697,1.625
-24.5,2.791845033951867,-0.8125
-25.0,2.804116880254952,-0.8125
-24.5,2.804116880254952,1.625
-24.5,2.82252464970958,0.8125
-24.5,2.8409324191642074,0.0
-24.5,2.84706834231575,0.8125
-24.5,2.8532042654672924,0.8125
-25.0,2.8716120349219203,0.0
-24.5,2.8777479580734626,0.8125
-24.5,2.890019804376548,0.8125
-25.0,2.8961557275280905,6.5
-24.5,2.9084275738311756,1.625
-24.5,2.9145634969827183,3.25
-24.5,2.9329712664373457,1.625
-24.5,2.945243112740431,0.8125
-24.5,2.9636508821950587,0.0
-24.5,2.9697868053466014,0.8125
-24.5,2.9697868053466014,2.4375
-24.5,2.9820586516496865,1.625
-24.5,3.000466421104314,0.8125
-24.5,3.018874190558942,0.0
-25.0,3.031146036862027,0.0
-25.0,3.0495538063166547,-1.625
-24.5,3.055689729468197,-0.8125
-25.0,3.0802334220743677,-1.625
-25.0,3.08636934522591,-1.625
-25.0,3.08636934522591,-0.8125
-25.0,3.104777114680538,-1.625
-25.0,3.117048960983623,-2.4375
-25.0,3.104777114680538,0.0
-25.0,3.098641191528995,7.3125
-25.0,3.11091303783208,6.5
-25.0,3.1231848841351653,7.3125
-24.5,3.141592653589793,0.8125
-25.0,3.153864499892878,4.875
-24.5,3.1784081924990484,-1.625
-24.5,3.1784081924990484,0.0
-24.5,3.2029518851052186,-0.8125
-24.5,3.1968159619536762,0.8125
-24.5,3.215223731408304,0.0
-24.5,3.227495577711389,0.0
-24.5,3.2397674240144743,-0.8125
-24.5,3.2397674240144743,0.0
-24.5,3.2581751934691017,0.0
-24.5,3.2581751934691017,0.0
-24.5,3.2827188860752723,-1.625
-24.5,3.2765829629237295,0.8125
-24.5,3.2949907323783574,0.0
-24.5,3.3011266555298997,0.0
-24.5,3.313398501832985,0.8125
-24.5,3.3195344249845276,0.8125
-24.0,3.3440781175906977,0.0
-24.0,3.356349963893783,0.0
-24.0,3.3624858870453256,0.8125
-24.0,3.3870295796514958,0.0
-24.0,3.393165502803038,1.625
-24.0,3.4177091954092087,-0.8125
-24.0,3.436116964863836,0.8125
-24.0,3.4606606574700063,0.8125
-24.0,3.485204350076177,0.8125
-24.0,3.5158839658338894,0.0
-24.0,3.54042765844006,0.0
-24.0,3.5588354278946874,0.8125
-24.0,3.5956509668039427,0.0
-24.0,3.6201946594101133,0.0
-24.0,3.650874275167826,-0.8125
-24.5,3.6754179677739964,0.0
-24.5,3.6999616603801666,-0.8125
-24.5,3.730641276137879,-0.8125
-24.5,3.736777199289422,1.625
-24.5,3.767456815047135,0.0
-24.5,3.785864584501762,-0.8125
-24.5,3.7981364308048478,1.625
-24.5,3.8288160465625602,-0.8125
-24.5,3.847223816017188,-0.8125
-25.0,3.865631585471816,-2.4375
-25.0,3.8840393549264434,-2.4375
-25.0,3.8963112012295285,-2.4375
-25.0,3.9147189706841563,-2.4375
-25.0,3.9269908169872414,-2.4375
-25.0,3.9453985864418692,-1.625
-25.0,3.9576704327449543,-0.8125
-25.0,3.9760782021995817,-0.8125
-25.0,3.9576704327449543,4.875
-25.0,3.9944859716542096,2.4375
-25.0,4.037437433715008,-0.8125
-25.0,3.9515345095934116,14.625
-25.0,3.9944859716542096,10.5625
-25.0,4.06811704947272,2.4375
-25.0,4.09266074207889,0.0
-25.0,4.0987966652304335,2.4375
-25.0,4.0987966652304335,2.4375
-25.5,4.037437433715008,14.625
-25.0,4.1601558967458585,-1.625
-25.0,4.111068511533518,5.6875
-25.0,4.172427743048944,-1.625
-25.0,4.135612204139688,5.6875
-25.0,4.190835512503572,-1.625
-25.5,4.190835512503572,-1.625
-25.0,4.196971435655114,0.0
-25.5,4.190835512503572,2.4375
-25.5,4.2092432819582,0.8125
-25.5,4.221515128261284,-0.8125
-25.5,4.215379205109742,1.625
-25.5,4.227651051412827,0.8125
-25.5,4.246058820867455,0.8125
-25.5,4.227651051412827,3.25
-25.5,4.270602513473625,-0.8125
-25.5,4.276738436625168,0.0
-25.5,4.28287435977671,1.625
-25.5,4.301282129231338,0.0
-25.5,4.313553975534423,0.8125
-25.5,4.3074180523828804,2.4375
-25.5,4.227651051412827,16.25
-25.5,4.325825821837508,4.875
-26.0,4.221515128261284,19.5
-26.0,4.381049130201391,-0.8125
-26.0,4.3074180523828804,11.375
-26.0,4.3933209765044765,0.8125
-26.0,4.338097668140593,9.75
-26.5,4.417864669110647,0.0
-26.0,4.424000592262189,0.8125
-26.5,4.430136515413731,0.8125
-26.0,4.399456899656019,6.5
-26.5,4.448544284868359,0.0
-26.5,4.405592822807561,8.9375
-26.5,4.466952054322987,0.0
-27.0,4.215379205109742,37.375
-26.5,4.479223900626073,0.8125
-26.5,4.460816131171445,4.875
-26.5,4.4976316700806995,0.0
-26.5,4.503767593232243,0.0
-26.5,4.509903516383785,0.0
-26.5,4.473087977474529,6.5
-27.0,4.522175362686871,-0.8125
-27.0,4.528311285838413,-1.625
-27.0,4.528311285838413,-1.625
-27.0,4.534447208989955,-0.8125
-27.0,4.528311285838413,-0.8125
-27.0,4.528311285838413,0.8125
-27.0,4.534447208989955,0.0
-27.5,4.522175362686871,3.25
-27.0,4.534447208989955,2.4375
-27.0,4.546719055293041,0.8125
-27.0,4.546719055293041,0.8125
-27.5,4.558990901596125,-0.8125
-27.5,4.565126824747668,0.0
-27.5,4.583534594202296,-2.4375
-27.5,4.571262747899211,0.0
-27.5,4.589670517353839,-0.8125
-27.5,4.589670517353839,-1.625
-27.5,4.601942363656923,-2.4375
-27.5,4.608078286808466,-4.875
-28.0,4.601942363656923,-3.25
-28.0,4.552854978444583,6.5
-28.0,4.595806440505381,-0.8125
-28.0,4.620350133111551,-5.6875
-28.0,4.608078286808466,-0.8125
-28.0,4.540583132141498,8.125
-28.0,4.608078286808466,-1.625
-28.0,4.626486056263094,-3.25
-28.0,4.614214209960009,-2.4375
-28.0,4.614214209960009,-2.4375
-28.0,4.595806440505381,-0.8125
-28.0,4.601942363656923,0.0
-28.5,4.522175362686871,9.75
-28.5,4.601942363656923,-2.4375
-28.0,4.571262747899211,3.25
-28.5,4.601942363656923,-1.625
-28.5,4.595806440505381,-2.4375
-28.5,4.601942363656923,-4.875
-28.5,4.589670517353839,-1.625
-28.0,4.546719055293041,3.25
-28.5,4.595806440505381,-2.4375
-28.5,4.577398671050753,0.0
-28.5,4.571262747899211,-0.8125
-28.5,4.571262747899211,-1.625
-28.5,4.583534594202296,-3.25
-28.5,4.571262747899211,-1.625
-28.5,4.552854978444583,-0.8125
-28.5,4.571262747899211,-3.25
-28.5,4.571262747899211,-2.4375
-28.5,4.558990901596125,-1.625
-28.5,4.540583132141498,0.8125
-28.5,4.528311285838413,1.625
-28.5,4.552854978444583,-0.8125
-28.5,4.516039439535327,2.4375
-28.5,4.534447208989955,1.625
-29.0,4.528311285838413,0.0
-28.5,4.534447208989955,0.0
-28.5,4.534447208989955,-0.8125
-28.5,4.546719055293041,-2.4375
-28.5,4.540583132141498,-1.625
-28.5,4.534447208989955,-1.625
-28.5,4.528311285838413,-0.8125
-29.0,4.528311285838413,-0.8125
-28.5,4.522175362686871,0.0
-28.5,4.528311285838413,-1.625
-29.0,4.534447208989955,-1.625
-28.5,4.528311285838413,-1.625
-29.0,4.516039439535327,0.0
-28.5,4.516039439535327,-0.8125
-29.0,4.509903516383785,-0.8125
-29.0,4.491495746929157,1.625
-28.5,4.516039439535327,-0.8125
-29.0,4.4976316700806995,-0.8125
-29.0,4.503767593232243,-2.4375
-28.5,4.4976316700806995,-1.625
-28.5,4.466952054322987,0.8125
-29.0,4.485359823777615,0.0
-29.0,4.466952054322987,0.0
-29.0,4.473087977474529,-0.8125
-29.0,4.454680208019902,0.0
-29.0,4.454680208019902,0.0
-29.0,4.454680208019902,-1.625
-29.0,4.4362724385652745,-0.8125
-29.0,4.417864669110647,0.0
-29.0,4.424000592262189,-1.625
-29.0,4.381049130201391,4.875
-29.0,4.411728745959104,-1.625
-29.0,4.3933209765044765,-0.8125
-29.0,4.368777283898306,0.8125
-29.0,4.362641360746763,-0.8125
-29.0,4.368777283898306,-2.4375
-29.0,4.344233591292136,0.0
-29.0,4.331961744989051,0.0
-29.0,4.344233591292136,-1.625
-29.0,4.344233591292136,-3.25
-29.0,4.331961744989051,-1.625
-29.0,4.325825821837508,-2.4375
-29.0,4.3074180523828804,-0.8125
-29.0,4.301282129231338,-0.8125
-29.0,4.289010282928253,0.8125
-29.0,4.289010282928253,-1.625
-29.0,4.289010282928253,-2.4375
-29.0,4.295146206079795,-5.6875
-29.0,4.270602513473625,-2.4375
-29.0,4.25833066717054,-2.4375
-29.0,4.246058820867455,-1.625
-29.0,4.246058820867455,-3.25
-29.0,4.239922897715912,-1.625
-29.0,4.221515128261284,-1.625
-29.0,4.215379205109742,-1.625
-29.0,4.215379205109742,-3.25
-29.0,4.196971435655114,-3.25
-29.0,4.196971435655114,-6.5
-29.0,4.166291819897402,-0.8125
-29.0,4.166291819897402,-2.4375
-29.0,4.154019973594316,-1.625
-29.0,4.166291819897402,-3.25
-29.0,4.154019973594316,-2.4375
-29.0,4.154019973594316,-3.25
-29.0,4.1417481272912315,-2.4375
-29.0,4.135612204139688,-0.8125
-29.0,4.135612204139688,-2.4375
-29.0,4.129476280988146,-0.8125
-29.5,4.1172044346850605,-4.875
-29.0,4.104932588381976,-2.4375
-29.0,4.086524818927348,-0.8125
-29.0,4.086524818927348,-2.4375
-29.5,4.06811704947272,-2.4375
-29.5,4.04357335686655,-2.4375
-29.5,4.037437433715008,-2.4375
-29.5,4.037437433715008,-5.6875
-29.5,4.01902966426038,-4.875
-29.5,4.000621894805752,-3.25
-29.5,3.9944859716542096,-4.875
-29.5,3.9760782021995817,-3.25
-29.5,3.9638063558964967,-4.875
-29.5,3.9453985864418692,-1.625
-29.5,3.933126740138784,-2.4375
-29.5,3.9392626632903265,-3.25
-29.5,3.9208548938356986,-2.4375
-29.5,3.9147189706841563,-2.4375
-29.5,3.902447124381071,-3.25
-29.5,3.8717675086233583,-1.625
-29.5,3.8533597391687304,0.0
-29.5,3.8533597391687304,-3.25
-29.5,3.8410878928656453,-2.4375
-29.5,3.8288160465625602,-2.4375
-29.5,3.816544200259475,-1.625
-29.0,3.810408277107933,0.0
-29.0,3.80427235395639,0.0
-29.0,3.773592738198677,2.4375
-29.0,3.792000507653305,-2.4375
-29.5,3.767456815047135,0.0
-29.0,3.7551849687440497,0.8125
-29.0,3.749049045592507,-1.625
-29.0,3.7429131224409646,-1.625
-29.0,3.730641276137879,0.0
-29.0,3.724505352986337,-2.4375
-29.0,3.706097583531709,-2.4375
-29.0,3.6815538909255388,-1.625
-29.0,3.650874275167826,1.625
-29.0,3.6447383520162835,-0.8125
-29.0,3.6324665057131984,-1.625
-29.0,3.6201946594101133,-1.625
-29.0,3.6017868899554855,0.0
-29.0,3.5895150436524004,-0.8125
-29.0,3.56497135104623,0.0
-29.0,3.5588354278946874,-0.8125
-29.0,3.5465635815916023,0.0
-29.0,3.5342917352885173,-1.625
-29.0,3.509748042682347,0.8125
-29.0,3.509748042682347,-1.625
-29.5,3.485204350076177,0.8125
-29.5,3.479068426924634,-2.4375
-29.5,3.454524734318464,-0.8125
-29.5,3.442252888015379,0.0
-29.5,3.429981041712294,0.0
-29.5,3.4177091954092087,0.8125
-29.5,3.411573272257666,-0.8125
-29.5,3.4054373491061236,-1.625
-29.5,3.3870295796514958,0.0
-29.5,3.3747577333484107,-0.8125
-29.5,3.356349963893783,0.8125
-30.0,3.3502140407422405,0.0
-29.5,3.3379421944391554,-0.8125
-29.5,3.3318062712876126,-1.625
-30.0,3.3195344249845276,-0.8125
-30.0,3.3072625786814425,-1.625
-30.0,3.2888548092268146,-0.8125
-30.0,3.2704470397721868,0.8125
-30.0,3.2520392703175593,0.8125
-30.0,3.2643111166206444,-4.875
-30.0,3.2213596545598464,0.8125
-30.5,3.215223731408304,-1.625
-30.5,3.1906800388021335,0.8125
-30.5,3.1906800388021335,-2.4375
-31.0,3.1661363461959633,2.4375
-30.5,3.153864499892878,-0.8125
-30.5,3.1231848841351653,0.0
-30.5,3.104777114680538,0.8125
-30.5,3.11091303783208,1.625
-30.5,2.9145634969827183,2.4375
-30.5,2.9206994201342606,1.625
-30.5,2.9145634969827183,1.625
-30.5,2.9084275738311756,1.625
-30.5,2.8961557275280905,2.4375
-30.5,2.9022916506796332,0.8125
-30.5,2.9022916506796332,5.6875
-30.5,2.8777479580734626,3.25
-30.5,2.890019804376548,0.8125
-31.0,2.8838838812250054,1.625
-30.5,2.8716120349219203,3.25
-30.5,2.8716120349219203,2.4375
-30.5,2.859340188618835,3.25
-31.0,2.8777479580734626,2.4375
-31.0,2.8654761117703775,5.6875
-30.5,2.8409324191642074,4.875
-30.5,2.834796496012665,4.875
-30.5,2.8409324191642074,6.5
-30.5,2.8409324191642074,1.625
-31.0,2.8286605728611223,2.4375
-30.5,2.8286605728611223,2.4375
-30.5,2.816388726558037,3.25
-30.5,2.82252464970958,1.625
-30.5,2.82252464970958,2.4375
-30.5,2.8102528034064944,3.25
-31.0,2.804116880254952,6.5
-30.5,2.804116880254952,3.25
-30.5,2.816388726558037,0.8125
-30.5,2.804116880254952,2.4375
-30.5,2.8102528034064944,0.8125
-30.5,2.804116880254952,6.5
-31.0,2.7979809571034093,6.5
-30.5,2.7979809571034093,1.625
-30.5,2.791845033951867,2.4375
-30.5,2.791845033951867,6.5
-30.5,2.7857091108003242,1.625
-30.5,2.773437264497239,3.25
-30.5,2.791845033951867,0.8125
-30.5,2.773437264497239,2.4375
-31.0,2.773437264497239,2.4375
-30.5,2.773437264497239,1.625
-30.5,2.773437264497239,3.25
-30.5,2.767301341345697,1.625
-31.0,2.761165418194154,4.875
-31.0,2.7550294950426117,5.6875
-31.0,2.748893571891069,7.3125
-30.5,2.748893571891069,2.4375
-31.0,2.748893571891069,5.6875
-30.5,2.748893571891069,1.625
-31.0,2.742757648739526,6.5
-30.5,2.736621725587984,7.3125
-31.0,2.730485802436441,6.5
-30.5,2.730485802436441,0.8125
-31.0,2.724349879284899,1.625
-31.0,2.718213956133356,1.625
-31.0,2.724349879284899,1.625
-31.0,2.7120780329818137,5.6875
-31.0,2.7120780329818137,2.4375
-31.0,2.6998061866787286,6.5
-31.0,2.6998061866787286,2.4375
-31.0,2.6998061866787286,0.0
-31.0,2.6998061866787286,5.6875
-31.0,2.693670263527186,1.625
-31.0,2.6875343403756435,7.3125
-31.0,2.6875343403756435,6.5
-31.0,2.6813984172241008,6.5
-31.0,2.6813984172241008,7.3125
-31.0,2.675262494072558,7.3125
-31.0,2.693670263527186,3.25
-31.0,2.675262494072558,7.3125
-31.0,2.6813984172241008,1.625
-31.0,2.6691265709210157,6.5
-31.0,2.675262494072558,5.6875
-31.5,2.662990647769473,7.3125
-31.0,2.662990647769473,6.5
-31.0,2.6691265709210157,0.0
-31.0,2.6568547246179306,6.5
-31.0,2.650718801466388,7.3125
-31.0,2.6384469551633027,1.625
-31.0,2.6384469551633027,3.25
-31.0,2.6261751088602177,0.0
-31.0,2.6323110320117604,0.8125
-31.0,2.60776733940559,0.8125
-31.5,2.6139032625571326,-0.8125
-31.5,2.5893595699509624,0.8125
-31.5,2.5770877236478773,1.625
-31.5,2.5709518004963345,0.8125
-31.5,2.564815877344792,0.0
-31.5,2.5586799541932495,0.0
-31.5,2.5464081078901644,0.8125
-31.5,2.5402721847386216,0.0
-31.5,2.5341362615870793,0.0
-31.5,2.521864415283994,0.0
-31.5,2.5157284921324514,0.8125
-31.5,2.509592568980909,1.625
-31.5,2.4850488763747385,3.25
-31.5,2.5034566458293663,-0.8125
-32.0,2.4911847995262812,1.625
-31.5,2.478912953223196,0.8125
-31.5,2.497320722677824,0.0
-32.0,2.4911847995262812,-0.8125
-32.0,2.4850488763747385,0.0
-32.0,2.478912953223196,0.0
-32.0,2.478912953223196,-0.8125
-32.0,2.478912953223196,-0.8125
-32.0,2.4727770300716534,1.625
-32.0,2.4727770300716534,0.0
-32.0,2.4727770300716534,4.875
-32.0,2.466641106920111,0.0
-32.0,2.4727770300716534,-0.8125
-32.0,2.466641106920111,0.8125
-32.0,2.466641106920111,1.625
-32.0,2.478912953223196,-2.4375
-32.5,2.466641106920111,0.0
-32.0,2.4727770300716534,-0.8125
-32.0,2.466641106920111,0.0
-32.0,2.466641106920111,3.25
-32.5,2.466641106920111,4.875
-32.0,2.4727770300716534,-0.8125
-32.0,2.466641106920111,4.875
-32.0,2.4605051837685683,0.8125
-32.0,2.466641106920111,2.4375
-32.0,2.466641106920111,0.8125
-32.0,2.466641106920111,0.8125
-32.0,2.442097414313941,4.875
-32.0,2.466641106920111,0.8125
-32.0,2.4605051837685683,-0.8125
-32.0,2.448233337465483,1.625
-32.0,2.4727770300716534,-1.625
-32.0,2.4605051837685683,3.25
-32.0,2.454369260617026,-0.8125
-32.0,2.454369260617026,0.0
-32.5,2.454369260617026,0.8125
-32.0,2.4605051837685683,-1.625
-32.0,2.4605051837685683,3.25
-32.0,2.466641106920111,0.0
-32.0,2.454369260617026,2.4375
-32.5,2.4605051837685683,-1.625
-32.0,2.442097414313941,4.875
-32.0,2.448233337465483,3.25
-32.0,2.454369260617026,3.25
-32.0,2.442097414313941,5.6875
-32.0,2.435961491162398,6.5
-32.0,2.442097414313941,4.875
-32.0,2.435961491162398,5.6875
-32.0,2.448233337465483,-0.8125
-32.0,2.448233337465483,4.875
-32.5,2.435961491162398,4.875
-32.0,2.442097414313941,-0.8125
-32.0,2.435961491162398,-0.8125
-32.0,2.435961491162398,0.0
-32.0,2.429825568010856,4.875
-32.0,2.423689644859313,3.25
-32.0,2.429825568010856,-0.8125
-32.5,2.429825568010856,-1.625
-32.0,2.423689644859313,0.0
-32.0,2.4175537217077703,5.6875
-32.0,2.423689644859313,3.25
-32.0,2.4175537217077703,-0.8125
-32.5,2.4175537217077703,-0.8125
-32.0,2.405281875404685,7.3125
-32.5,2.4175537217077703,1.625
-32.0,2.405281875404685,5.6875
-32.0,2.411417798556228,-0.8125
-32.0,2.411417798556228,-1.625
-32.0,2.4175537217077703,-2.4375
-32.0,2.411417798556228,3.25
-32.0,2.405281875404685,-0.8125
-32.5,2.411417798556228,-2.4375
-32.5,2.411417798556228,-0.8125
-32.0,2.411417798556228,-0.8125
-32.5,2.405281875404685,-2.4375
-32.5,2.3930100291016,0.0
-32.0,2.399145952253143,-1.625
-32.5,2.386874105950058,-0.8125
-32.5,2.399145952253143,-1.625
-32.5,2.3930100291016,-1.625
-32.5,2.386874105950058,3.25
-32.5,2.380738182798515,2.4375
-32.5,2.386874105950058,2.4375
-32.5,2.386874105950058,-0.8125
-32.5,2.380738182798515,-1.625
-32.5,2.386874105950058,-1.625
-32.5,2.380738182798515,-1.625
-32.5,2.380738182798515,-1.625
-32.0,2.3746022596469727,0.0
-32.5,2.36846633649543,3.25
-32.5,2.380738182798515,-1.625
-32.5,2.3746022596469727,3.25
-32.5,2.36846633649543,-0.8125
-32.5,2.3746022596469727,-1.625
-32.5,2.3623304133438876,-0.8125
-32.5,2.3746022596469727,-2.4375
-32.5,2.3623304133438876,4.875
-32.5,2.356194490192345,0.8125
-32.5,2.36846633649543,-0.8125
-32.5,2.3623304133438876,0.0
-32.0,2.36846633649543,2.4375
-32.5,2.380738182798515,-3.25
-32.5,2.36846633649543,4.875
-32.5,2.380738182798515,-3.25
-32.0,2.3623304133438876,4.875
-32.5,2.3623304133438876,-0.8125
-32.5,2.380738182798515,-3.25
-32.0,2.3623304133438876,-0.8125
-32.0,2.3623304133438876,1.625
-32.5,2.36846633649543,-1.625
-32.5,2.3623304133438876,2.4375
-32.0,2.3623304133438876,-1.625
-32.5,2.3746022596469727,-2.4375
-32.0,2.350058567040802,5.6875
-32.5,2.36846633649543,-2.4375
-32.5,2.3623304133438876,-1.625
-32.5,2.36846633649543,2.4375
-32.5,2.36846633649543,-3.25
-32.0,2.3623304133438876,-1.625
-32.5,2.36846633649543,-2.4375
-32.5,2.36846633649543,-3.25
-32.5,2.3623304133438876,-2.4375
-32.5,2.356194490192345,-2.4375
-32.5,2.3623304133438876,-1.625
-32.5,2.3623304133438876,-4.875
-32.5,2.36846633649543,-4.875
-32.5,2.3623304133438876,-3.25
-32.5,2.350058567040802,-2.4375
-32.5,2.3623304133438876,0.0
-32.5,2.350058567040802,0.0
-32.5,2.3623304133438876,-4.875
-32.5,2.350058567040802,3.25
-32.5,2.350058567040802,-2.4375
-32.5,2.356194490192345,-3.25
-32.5,2.350058567040802,-2.4375
-32.5,2.337786720737717,-1.625
-32.5,2.350058567040802,-3.25
-32.5,2.3439226438892597,1.625
-32.5,2.337786720737717,-1.625
-32.5,2.3439226438892597,-2.4375
-32.5,2.350058567040802,-3.25
-32.5,2.3439226438892597,-2.4375
-32.5,2.350058567040802,-4.875
-32.5,2.350058567040802,-3.25
-32.5,2.3439226438892597,-3.25
-32.5,2.3439226438892597,-2.4375
-32.5,2.3439226438892597,-2.4375
-32.5,2.3439226438892597,-2.4375
-32.5,2.350058567040802,-3.25
-32.5,2.325514874434632,0.0
-32.5,2.356194490192345,-5.6875
-32.5,2.3316507975861747,-1.625
-32.5,2.337786720737717,-2.4375
-32.5,2.350058567040802,-3.25
-32.5,2.3439226438892597,-4.875
-32.5,2.350058567040802,-0.8125
-32.5,2.337786720737717,1.625
-32.5,2.3316507975861747,-1.625
-32.5,2.350058567040802,-3.25
-32.5,2.3439226438892597,-3.25
-32.5,2.3439226438892597,-2.4375
-32.5,2.3193789512830896,0.0
-32.5,2.325514874434632,3.25
-32.5,2.350058567040802,-4.875
-32.5,2.337786720737717,-2.4375
-32.5,2.350058567040802,-4.875
-32.5,2.3439226438892597,-2.4375
-32.5,2.337786720737717,-1.625
-32.5,2.3439226438892597,-3.25
-32.0,2.3316507975861747,-0.8125
-32.5,2.337786720737717,2.4375
-32.5,2.350058567040802,-3.25
-32.5,2.350058567040802,-3.25
-32.5,2.337786720737717,1.625
-32.5,2.337786720737717,-1.625
-32.0,2.356194490192345,-4.875
-32.0,2.3439226438892597,-2.4375
-32.5,2.350058567040802,-4.875
-32.0,2.350058567040802,-2.4375
-32.0,2.350058567040802,1.625
-32.5,2.350058567040802,-1.625
-32.0,2.356194490192345,-2.4375
-32.5,2.36846633649543,-3.25
-32.5,2.356194490192345,-3.25
-32.0,2.356194490192345,2.4375
-32.5,2.356194490192345,-1.625
-32.5,2.356194490192345,-3.25
-32.0,2.350058567040802,-2.4375
-32.0,2.356194490192345,0.0
-32.0,2.356194490192345,1.625
-32.0,2.356194490192345,2.4375
-32.5,2.356194490192345,-1.625
-32.0,2.356194490192345,-1.625
-32.0,2.356194490192345,-1.625
-32.0,2.36846633649543,1.625
-32.0,2.3746022596469727,-3.25
-32.0,2.36846633649543,-0.8125
-32.0,2.3746022596469727,-0.8125
-32.0,2.386874105950058,-2.4375
-32.0,2.386874105950058,2.4375
-31.5,2.380738182798515,-1.625
-32.0,2.3930100291016,0.8125
-32.0,2.3746022596469727,1.625
-31.5,2.405281875404685,-1.625
-31.5,2.405281875404685,-1.625
-31.5,2.411417798556228,-1.625
-32.0,2.4175537217077703,2.4375
-31.5,2.411417798556228,0.8125
-31.5,2.429825568010856,3.25
-31.5,2.423689644859313,5.6875
-31.0,2.435961491162398,2.4375
-31.5,2.435961491162398,5.6875
-31.0,2.442097414313941,3.25
-31.5,2.442097414313941,-1.625
-31.0,2.454369260617026,-1.625
-31.5,2.454369260617026,-2.4375
-31.0,2.454369260617026,-3.25
-31.0,2.435961491162398,5.6875
-31.5,2.448233337465483,3.25
-31.5,2.448233337465483,2.4375
-31.5,2.4605051837685683,2.4375
-31.0,2.466641106920111,-1.625
-31.5,2.454369260617026,4.875
-31.0,2.466641106920111,2.4375
-31.0,2.466641106920111,0.8125
-31.0,2.466641106920111,5.6875
-31.0,2.466641106920111,4.875
-31.0,2.4727770300716534,0.8125
-31.0,2.4911847995262812,3.25
-31.0,2.5157284921324514,0.0
-31.0,2.5034566458293663,-0.8125
-30.5,2.509592568980909,0.8125
-30.5,2.521864415283994,0.0
-30.5,2.521864415283994,1.625
-31.0,2.5341362615870793,0.8125
-30.5,2.5402721847386216,1.625
-30.5,2.564815877344792,0.0
-30.5,2.5770877236478773,0.0
-30.5,2.5832236467994196,-0.8125
-30.0,2.5832236467994196,0.8125
-30.0,2.6016314162540475,0.8125
-30.0,2.6139032625571326,0.8125
-30.0,2.6261751088602177,-0.8125
-30.0,2.6445828783148455,0.0
-30.0,2.6568547246179306,0.0
-30.0,2.662990647769473,0.8125
-30.0,2.675262494072558,0.0
-30.0,2.6875343403756435,-0.8125
-29.5,2.693670263527186,-0.8125
-30.0,2.705942109830271,0.0
-30.0,2.6998061866787286,0.8125
-30.0,2.7120780329818137,0.0
-29.5,2.730485802436441,-0.8125
-30.0,2.730485802436441,-0.8125
-29.5,2.736621725587984,0.0
-29.5,2.742757648739526,0.8125
-29.5,2.742757648739526,0.0
-29.5,2.748893571891069,-0.8125
-29.5,2.748893571891069,-0.8125
-29.5,2.748893571891069,0.0
-29.5,2.748893571891069,-0.8125
-29.5,2.742757648739526,1.625
-29.5,2.748893571891069,0.0
-29.5,2.742757648739526,0.8125
-30.0,2.742757648739526,0.0
-30.0,2.748893571891069,0.0
-29.5,2.736621725587984,1.625
-29.5,2.7550294950426117,-0.8125
-29.5,2.773437264497239,0.0
-29.5,2.7979809571034093,2.4375
-29.5,2.8102528034064944,0.0
-29.5,2.82252464970958,1.625
-29.5,2.84706834231575,7.3125
-29.5,2.8716120349219203,6.5
-29.0,2.9145634969827183,2.4375
-29.0,3.000466421104314,0.8125
-29.5,3.0802334220743677,2.4375
-29.0,3.1661363461959633,-0.8125
-28.5,3.2336315008629315,3.25
-28.5,3.3072625786814425,2.4375
-28.0,3.368621810196868,1.625
-28.0,3.393165502803038,5.6875
-28.0,3.436116964863836,3.25
-28.0,3.4606606574700063,1.625
-28.0,3.485204350076177,1.625
-28.0,3.509748042682347,0.8125
-28.0,3.5036121195308043,5.6875
-28.0,3.5281558121369745,2.4375
-28.0,3.54042765844006,1.625
-28.0,3.5281558121369745,4.875
-28.0,3.54042765844006,2.4375
-28.0,3.5465635815916023,3.25
-28.0,3.552699504743145,2.4375
-28.0,3.5588354278946874,1.625
-28.0,3.5465635815916023,4.875
-28.0,3.56497135104623,0.0
-28.0,3.5588354278946874,1.625
-28.0,3.54042765844006,3.25
-28.0,3.54042765844006,3.25
-28.0,3.54042765844006,3.25
-28.0,3.5465635815916023,1.625
-28.0,3.54042765844006,2.4375
-28.0,3.5465635815916023,1.625
-28.0,3.54042765844006,2.4375
-28.0,3.5342917352885173,1.625
-28.0,3.54042765844006,1.625
-28.0,3.522019888985432,5.6875
-28.0,3.522019888985432,4.875
-28.0,3.5281558121369745,1.625
-28.0,3.5158839658338894,3.25
-28.0,3.522019888985432,2.4375
-28.0,3.509748042682347,3.25
-28.0,3.497476196379262,3.25
-28.0,3.497476196379262,3.25
-28.0,3.485204350076177,3.25
-28.0,3.485204350076177,3.25
-28.0,3.485204350076177,1.625
-28.0,3.479068426924634,1.625
-28.0,3.479068426924634,1.625
-28.0,3.472932503773092,1.625
-28.0,3.472932503773092,1.625
-28.0,3.4606606574700063,3.25
-28.0,3.4606606574700063,3.25
-28.5,3.472932503773092,2.4375
-28.0,3.472932503773092,3.25
-28.0,3.479068426924634,2.4375
-28.0,3.479068426924634,2.4375
-28.0,3.485204350076177,2.4375
-28.0,3.472932503773092,4.875
-28.0,3.479068426924634,2.4375
-28.0,3.472932503773092,2.4375
-28.0,3.466796580621549,3.25
-28.0,3.466796580621549,3.25
-28.0,3.454524734318464,5.6875
-28.0,3.472932503773092,3.25
-28.0,3.472932503773092,2.4375
-28.0,3.4606606574700063,2.4375
-28.0,3.4606606574700063,2.4375
-28.0,3.4606606574700063,0.8125
-28.0,3.429981041712294,5.6875
-28.0,3.442252888015379,2.4375
-28.0,3.436116964863836,3.25
-28.0,3.429981041712294,3.25
-28.0,3.436116964863836,2.4375
-28.0,3.436116964863836,3.25
-28.0,3.442252888015379,2.4375
-28.0,3.448388811166921,1.625
-28.5,3.454524734318464,0.8125
