-45.0,2.2027964114037806,3.25
-44.5,2.2089323345553233,3.25
-44.5,2.2027964114037806,5.6875
-44.5,2.1966604882522383,6.5
-45.0,2.2089323345553233,7.3125
-45.0,2.1966604882522383,8.125
-45.0,2.2089323345553233,8.9375
-45.0,2.2457478734645786,2.4375
-45.0,2.270291566070749,-4.875
-45.0,2.2580197197676637,3.25
-45.0,2.2089323345553233,6.5
-45.0,2.2641556429192065,0.8125
-45.0,2.2212041808584084,6.5
-45.0,2.1966604882522383,10.5625
-45.0,2.2641556429192065,0.0
-45.0,2.2764274892222915,1.625
-45.0,2.2580197197676637,5.6875
-45.0,2.227340104009951,6.5
-45.0,2.2150682577068657,10.5625
-45.0,2.2396119503130363,8.9375
-45.0,2.2396119503130363,6.5
-45.0,2.3009711818284617,-4.875
-45.0,2.282563412373834,0.8125
-45.0,2.227340104009951,7.3125
-45.0,2.2641556429192065,2.4375
-45.0,2.2212041808584084,9.75
-45.0,2.2027964114037806,14.625
-45.5,2.2518837966161214,4.875
-45.5,2.2518837966161214,4.875
-45.0,2.2580197197676637,4.875
-45.0,2.2457478734645786,4.875
-45.0,2.2764274892222915,0.8125
-45.0,2.282563412373834,0.0
-45.0,2.2641556429192065,0.8125
-45.0,2.2641556429192065,3.25
-45.0,2.2641556429192065,4.875
-45.5,2.2764274892222915,0.0
-45.0,2.3009711818284617,-0.8125
-45.0,2.2396119503130363,10.5625
-45.0,2.282563412373834,0.0
-45.0,2.2764274892222915,3.25
-45.0,2.2886993355253766,0.0
-45.5,2.2580197197676637,3.25
-45.0,2.2396119503130363,8.125
-45.0,2.2580197197676637,5.6875
-45.0,2.2027964114037806,12.1875
-45.0,2.227340104009951,11.375
-45.0,2.2396119503130363,9.75
-45.0,2.282563412373834,1.625
-45.5,2.2948352586769194,1.625
-45.0,2.2948352586769194,0.0
-45.0,2.2641556429192065,6.5
-45.0,2.282563412373834,5.6875
-45.5,2.2886993355253766,2.4375
-45.0,2.270291566070749,6.5
-45.0,2.2334760271614935,8.9375
-45.0,2.2764274892222915,4.875
-45.0,2.313243028131547,-0.8125
-45.0,2.325514874434632,-5.6875
-45.0,2.2764274892222915,4.875
-45.0,2.2518837966161214,8.9375
-45.0,2.270291566070749,3.25
-45.0,2.2580197197676637,6.5
-45.5,2.2457478734645786,4.875
-45.0,2.2886993355253766,1.625
-45.0,2.2457478734645786,8.125
-45.0,2.3009711818284617,-4.875
-45.0,2.282563412373834,2.4375
-45.0,2.2150682577068657,10.5625
-45.0,2.270291566070749,2.4375
-45.0,2.2886993355253766,0.0
-45.5,2.2764274892222915,2.4375
-45.0,2.2457478734645786,8.9375
-45.0,2.2641556429192065,1.625
-45.0,2.2334760271614935,8.9375
-45.0,2.2886993355253766,0.8125
-45.0,2.2886993355253766,-1.625
-45.0,2.2886993355253766,0.0
-45.5,2.270291566070749,4.875
-45.0,2.2641556429192065,3.25
-45.0,2.270291566070749,4.875
-45.0,2.313243028131547,-2.4375
-45.0,2.282563412373834,4.875
-45.0,2.2641556429192065,6.5
-45.0,2.2580197197676637,3.25
-45.0,2.2641556429192065,3.25
-45.0,2.2212041808584084,11.375
-45.0,2.2948352586769194,-0.8125
-45.0,2.2212041808584084,10.5625
-45.0,2.282563412373834,0.8125
-45.5,2.2764274892222915,1.625
-45.0,2.2641556429192065,4.875
-45.5,2.2886993355253766,0.8125
-45.0,2.2886993355253766,0.0
-45.0,2.2580197197676637,4.875
-45.5,2.2886993355253766,1.625
-45.0,2.2518837966161214,6.5
-45.0,2.2641556429192065,3.25
-45.5,2.2641556429192065,4.875
-45.0,2.2948352586769194,0.0
-45.0,2.282563412373834,0.8125
-45.0,2.2457478734645786,6.5
-45.0,2.2948352586769194,-0.8125
-45.0,2.282563412373834,-2.4375
-45.0,2.2580197197676637,5.6875
-45.0,2.270291566070749,1.625
-45.5,2.2027964114037806,10.5625
-45.5,2.2457478734645786,6.5
-45.0,2.3009711818284617,-1.625
-45.5,2.2334760271614935,9.75
-45.0,2.2334760271614935,8.125
-45.0,2.2457478734645786,4.875
-45.0,2.2212041808584084,9.75
-45.0,2.2334760271614935,9.75
-45.0,2.2948352586769194,-2.4375
-45.0,2.2886993355253766,-0.8125
-45.0,2.2150682577068657,10.5625
-45.0,2.282563412373834,0.0
-45.0,2.2764274892222915,0.0
-45.0,2.2886993355253766,0.8125
-45.0,2.2396119503130363,6.5
-45.0,2.3009711818284617,-2.4375
-45.5,2.2396119503130363,5.6875
-45.0,2.2396119503130363,8.125
-45.0,2.2886993355253766,0.0
-45.0,2.270291566070749,3.25
-45.5,2.2457478734645786,5.6875
-45.0,2.2457478734645786,8.125
-45.0,2.2334760271614935,7.3125
-45.0,2.270291566070749,0.8125
-45.0,2.2580197197676637,2.4375
-45.5,2.2334760271614935,7.3125
-45.0,2.270291566070749,2.4375
-45.0,2.2212041808584084,8.9375
-45.0,2.2518837966161214,4.875
-45.0,2.2580197197676637,4.875
-45.0,2.270291566070749,1.625
-45.0,2.2580197197676637,5.6875
-45.5,2.2334760271614935,6.5
-45.0,2.227340104009951,9.75
-45.0,2.2457478734645786,6.5
-45.0,2.2334760271614935,8.125
-45.5,2.2334760271614935,6.5
-45.5,2.2641556429192065,3.25
-45.0,2.2089323345553233,8.9375
-45.5,2.3071071049800045,-1.625
-45.0,2.2334760271614935,7.3125
-45.0,2.2518837966161214,3.25
-45.0,2.2764274892222915,1.625
-45.0,2.2764274892222915,0.8125
-45.5,2.313243028131547,-5.6875
-45.0,2.270291566070749,2.4375
-45.0,2.227340104009951,9.75
-45.0,2.282563412373834,-2.4375
-45.0,2.2150682577068657,12.1875
-45.0,2.2457478734645786,6.5
-45.5,2.3009711818284617,-4.875
-45.5,2.2150682577068657,10.5625
-45.0,2.2641556429192065,1.625
-45.0,2.2212041808584084,7.3125
-45.5,2.1905245651006955,8.9375
-45.5,2.1966604882522383,9.75
-44.5,2.2150682577068657,5.6875
-45.5,2.1966604882522383,5.6875
-45.0,2.2027964114037806,8.125
-45.0,2.1598449493429825,12.1875
-45.0,2.2089323345553233,5.6875
-44.5,2.2089323345553233,3.25
-45.0,2.2027964114037806,8.9375
-44.5,2.227340104009951,3.25
-44.5,2.2089323345553233,6.5
-44.5,2.2580197197676637,0.8125
-44.5,2.2027964114037806,9.75
-44.5,2.227340104009951,5.6875
-44.5,2.1966604882522383,8.9375
-45.0,2.2518837966161214,3.25
-44.5,2.1966604882522383,12.1875
-44.5,2.2396119503130363,3.25
-44.5,2.2580197197676637,4.875
-45.0,2.270291566070749,2.4375
-45.0,2.2641556429192065,5.6875
-45.0,2.2886993355253766,0.8125
-45.0,2.282563412373834,1.625
-45.0,2.2948352586769194,-1.625
-45.0,2.2764274892222915,3.25
-45.0,2.2641556429192065,3.25
-45.0,2.2641556429192065,-0.8125
-45.5,2.2518837966161214,1.625
-45.5,2.2580197197676637,5.6875
-45.5,2.2334760271614935,8.9375
-45.0,2.2334760271614935,8.9375
-45.0,2.2886993355253766,7.3125
-45.5,2.313243028131547,6.5
-45.5,2.3009711818284617,8.125
-45.5,2.356194490192345,2.4375
-45.5,2.36846633649543,-0.8125
-45.5,2.3439226438892597,0.8125
-46.0,2.3746022596469727,0.0
-46.0,2.411417798556228,-0.8125
-46.0,2.411417798556228,4.875
-46.5,2.435961491162398,2.4375
-47.5,2.5034566458293663,1.625
-48.0,2.4911847995262812,7.3125
-48.0,2.509592568980909,3.25
-48.0,2.509592568980909,1.625
-48.0,2.454369260617026,11.375
-48.0,2.4727770300716534,1.625
-48.0,2.509592568980909,-3.25
-48.0,2.497320722677824,1.625
-48.5,2.4911847995262812,2.4375
-48.0,2.521864415283994,-3.25
-48.5,2.478912953223196,2.4375
-48.5,2.411417798556228,8.9375
-48.5,2.478912953223196,-0.8125
-49.0,2.4605051837685683,-0.8125
-48.5,2.429825568010856,7.3125
-49.0,2.429825568010856,8.125
-48.5,2.380738182798515,15.4375
-49.0,2.4727770300716534,1.625
-49.0,2.429825568010856,6.5
-49.5,2.4605051837685683,-2.4375
-49.0,2.435961491162398,3.25
-49.0,2.411417798556228,9.75
-49.5,2.423689644859313,5.6875
-48.5,2.423689644859313,3.25
-49.0,2.386874105950058,6.5
-48.5,2.3746022596469727,10.5625
-48.5,2.429825568010856,0.8125
-48.5,2.3930100291016,7.3125
-48.0,2.405281875404685,1.625
-48.5,2.380738182798515,5.6875
-48.0,2.399145952253143,5.6875
-48.0,2.386874105950058,7.3125
-47.5,2.4175537217077703,4.875
-47.0,2.411417798556228,3.25
-47.5,2.3439226438892597,11.375
-47.0,2.405281875404685,2.4375
-47.5,2.411417798556228,0.8125
-47.5,2.380738182798515,2.4375
-47.0,2.3930100291016,0.8125
-47.5,2.380738182798515,2.4375
-47.5,2.4175537217077703,-4.875
-47.5,2.405281875404685,-1.625
-47.0,2.3623304133438876,4.875
-47.5,2.386874105950058,-1.625
-47.5,2.3930100291016,1.625
-47.5,2.399145952253143,0.0
-47.5,2.411417798556228,-4.875
-47.5,2.386874105950058,-1.625
-48.0,2.429825568010856,-2.4375
-47.5,2.36846633649543,4.875
-47.5,2.3746022596469727,5.6875
-47.0,2.356194490192345,7.3125
-47.5,2.3623304133438876,8.125
-47.5,2.3930100291016,0.8125
-47.5,2.380738182798515,3.25
-47.5,2.386874105950058,3.25
-47.5,2.429825568010856,-1.625
-47.5,2.380738182798515,3.25
-47.5,2.3439226438892597,9.75
-47.5,2.4175537217077703,-1.625
-47.5,2.399145952253143,3.25
-47.5,2.399145952253143,2.4375
-47.5,2.3930100291016,2.4375
-47.5,2.429825568010856,-1.625
-48.0,2.386874105950058,6.5
-47.5,2.405281875404685,0.8125
-47.5,2.356194490192345,8.125
-47.5,2.3930100291016,0.8125
-47.5,2.380738182798515,4.875
-48.0,2.423689644859313,0.0
-47.0,2.435961491162398,-2.4375
-47.5,2.380738182798515,4.875
-47.5,2.423689644859313,-2.4375
-47.5,2.405281875404685,2.4375
-47.5,2.3623304133438876,7.3125
-47.5,2.356194490192345,9.75
-47.5,2.399145952253143,-1.625
-47.5,2.399145952253143,0.0
-48.0,2.3930100291016,0.0
-47.5,2.3623304133438876,5.6875
-47.5,2.405281875404685,1.625
-47.5,2.3439226438892597,8.9375
-47.5,2.411417798556228,0.0
-47.5,2.3316507975861747,15.4375
-48.0,2.435961491162398,-3.25
-47.5,2.3930100291016,1.625
-47.5,2.3746022596469727,7.3125
-47.5,2.380738182798515,1.625
-47.5,2.3930100291016,1.625
-48.0,2.4175537217077703,-3.25
-48.0,2.3930100291016,0.8125
-47.5,2.399145952253143,0.0
-47.5,2.405281875404685,0.0
-47.5,2.423689644859313,-1.625
-48.0,2.386874105950058,1.625
-47.0,2.337786720737717,11.375
-47.5,2.399145952253143,-0.8125
-47.5,2.36846633649543,5.6875
-47.5,2.399145952253143,0.0
-47.5,2.3930100291016,1.625
-47.5,2.380738182798515,3.25
-47.0,2.337786720737717,10.5625
-48.0,2.3930100291016,3.25
-47.5,2.380738182798515,4.875
-47.5,2.380738182798515,5.6875
-47.5,2.405281875404685,0.0
-48.0,2.36846633649543,7.3125
-47.5,2.3623304133438876,4.875
-47.5,2.405281875404685,0.8125
-47.5,2.411417798556228,0.8125
-47.5,2.350058567040802,8.125
-47.5,2.386874105950058,0.8125
-47.5,2.337786720737717,10.5625
-47.5,2.337786720737717,11.375
-48.0,2.380738182798515,2.4375
-47.5,2.3746022596469727,1.625
-47.5,2.356194490192345,6.5
-47.5,2.3930100291016,1.625
-47.5,2.356194490192345,6.5
-47.5,2.3746022596469727,6.5
-47.5,2.3623304133438876,5.6875
-47.5,2.356194490192345,7.3125
-48.0,2.429825568010856,-0.8125
-47.5,2.3623304133438876,6.5
-47.5,2.386874105950058,3.25
-48.0,2.380738182798515,7.3125
-47.5,2.411417798556228,-0.8125
-48.0,2.36846633649543,3.25
-47.5,2.350058567040802,8.125
-47.5,2.386874105950058,4.875
-47.5,2.399145952253143,-1.625
-47.5,2.36846633649543,4.875
-47.5,2.36846633649543,6.5
-47.5,2.3623304133438876,4.875
-47.5,2.411417798556228,-0.8125
-47.5,2.350058567040802,6.5
-48.0,2.36846633649543,3.25
-48.0,2.386874105950058,1.625
-47.5,2.36846633649543,0.8125
-47.5,2.356194490192345,9.75
-47.5,2.380738182798515,4.875
-48.0,2.429825568010856,-1.625
-47.5,2.386874105950058,4.875
-47.5,2.36846633649543,6.5
-48.0,2.36846633649543,8.9375
-48.0,2.399145952253143,4.875
-48.0,2.399145952253143,1.625
-48.0,2.4175537217077703,-0.8125
-47.5,2.356194490192345,8.125
-48.0,2.356194490192345,6.5
-47.5,2.386874105950058,0.0
-47.5,2.429825568010856,-0.8125
-47.5,2.3746022596469727,2.4375
-47.5,2.356194490192345,8.9375
-47.5,2.386874105950058,0.8125
-47.5,2.411417798556228,4.875
-47.5,2.356194490192345,8.125
-47.5,2.3930100291016,2.4375
-47.5,2.423689644859313,0.0
-47.5,2.3746022596469727,3.25
-47.5,2.3930100291016,2.4375
-48.0,2.386874105950058,4.875
-47.5,2.3746022596469727,6.5
-47.5,2.3930100291016,6.5
-47.5,2.4175537217077703,0.0
-47.5,2.405281875404685,0.0
-48.0,2.405281875404685,5.6875
-47.5,2.380738182798515,6.5
-47.5,2.405281875404685,1.625
-47.5,2.4727770300716534,-10.5625
-48.0,2.386874105950058,5.6875
-47.5,2.399145952253143,3.25
-48.0,2.411417798556228,0.8125
-48.0,2.4175537217077703,0.0
-47.5,2.405281875404685,1.625
-48.0,2.3930100291016,6.5
-48.0,2.405281875404685,2.4375
-48.0,2.3930100291016,3.25
-48.0,2.4175537217077703,2.4375
-48.0,2.386874105950058,5.6875
-48.0,2.429825568010856,0.8125
-48.0,2.3746022596469727,7.3125
-48.0,2.448233337465483,-4.875
-47.5,2.3930100291016,4.875
-48.0,2.4605051837685683,-7.3125
-48.0,2.399145952253143,2.4375
-48.0,2.399145952253143,-1.625
-48.0,2.313243028131547,8.9375
-48.0,2.356194490192345,6.5
-48.0,2.3746022596469727,-4.875
-47.5,2.3193789512830896,3.25
-48.0,2.3009711818284617,8.9375
-48.0,2.3071071049800045,5.6875
-48.0,2.3071071049800045,0.8125
-48.0,2.3009711818284617,3.25
-48.0,2.3009711818284617,1.625
-48.0,2.2948352586769194,1.625
-48.0,2.2641556429192065,7.3125
-47.5,2.2641556429192065,6.5
-48.0,2.2641556429192065,2.4375
-47.5,2.2396119503130363,6.5
-47.0,2.172116795646068,9.75
-48.0,2.2641556429192065,-3.25
-47.5,2.1537090261914402,13.8125
-47.5,2.2027964114037806,8.125
-47.5,2.1598449493429825,11.375
-48.0,2.1659808724945253,5.6875
-47.5,2.110757564130642,2.4375
-48.0,2.0493983326152168,3.25
-48.5,1.9205439464328227,14.625
-49.5,1.88986433067511,6.5
-50.0,1.8407769454627694,-3.25
-51.0,1.6382914814618648,6.5
-51.0,1.4480778637640452,-9.75
-50.5,0.9572040116406401,-2.4375
-48.0,0.1227184630308513,5.6875
-50.5,5.197126909356553,-19.5
-52.5,3.9944859716542096,-8.125
-53.5,3.8288160465625602,6.5
-53.5,4.006757817957295,-2.4375
-54.0,4.154019973594316,6.5
-54.0,4.362641360746763,1.625
-54.0,4.3933209765044765,7.3125
-54.5,4.442408361716817,7.3125
-54.0,4.4362724385652745,-7.3125
-54.0,4.417864669110647,0.0
-54.0,4.399456899656019,1.625
-53.5,4.374913207049849,-5.6875
-53.5,4.252194744018997,15.4375
-54.0,4.2092432819582,5.6875
-54.0,4.221515128261284,-5.6875
-54.0,4.031301510563465,8.9375
-54.0,3.9944859716542096,-7.3125
-54.5,3.847223816017188,8.125
-54.0,3.8288160465625602,-7.3125
-54.5,3.6447383520162835,-2.4375
-55.0,3.5833791205008576,2.4375
-54.5,3.56497135104623,-1.625
-55.0,3.5465635815916023,-3.25
-55.5,3.436116964863836,5.6875
-55.0,3.4606606574700063,7.3125
-55.0,3.436116964863836,6.5
-55.5,3.4177091954092087,8.9375
-55.0,3.3379421944391554,15.4375
-55.5,3.466796580621549,-2.4375
-55.5,3.411573272257666,14.625
-56.0,3.3870295796514958,14.625
-55.5,3.5711072741977725,-15.4375
-55.5,3.393165502803038,12.1875
-55.5,3.356349963893783,11.375
-55.5,3.3318062712876126,13.8125
-55.5,3.368621810196868,2.4375
-55.0,3.380893656499953,-9.75
-55.5,3.393165502803038,-9.75
-55.0,3.3379421944391554,5.6875
-55.0,3.3379421944391554,-0.8125
-55.0,3.2888548092268146,11.375
-55.0,3.2888548092268146,7.3125
-54.5,3.368621810196868,-2.4375
-54.5,3.1661363461959633,24.375
-54.5,3.2765829629237295,1.625
-54.5,3.3011266555298997,-6.5
-54.5,3.227495577711389,8.125
-55.0,3.172272269347506,13.8125
-54.5,3.184544115650591,14.625
-55.0,3.2397674240144743,-0.8125
-55.0,3.160000423044421,4.875
-54.5,3.031146036862027,13.8125
-55.0,3.1354567304382504,-1.625
-54.5,3.129320807286708,2.4375
-54.0,3.018874190558942,10.5625
-55.0,3.067961575771282,-2.4375
-55.0,3.043417883165112,-0.8125
-55.0,3.0066023442558567,4.875
-55.0,3.0127382674073995,1.625
-54.0,2.945243112740431,3.25
-54.5,2.9575149590435164,0.0
-54.0,2.84706834231575,10.5625
-54.0,2.9391071895888885,-11.375
-54.0,2.8716120349219203,-1.625
-54.5,2.84706834231575,5.6875
-54.5,2.890019804376548,-0.8125
-55.0,2.859340188618835,2.4375
-55.0,2.8409324191642074,3.25
-54.5,2.8838838812250054,0.8125
-55.5,2.9022916506796332,4.875
-55.5,2.8286605728611223,8.9375
-55.5,2.834796496012665,1.625
-56.0,2.859340188618835,-4.875
-56.0,2.730485802436441,13.8125
-56.0,2.804116880254952,-3.25
-55.0,2.7979809571034093,-7.3125
-55.0,2.6691265709210157,7.3125
-55.0,2.6875343403756435,5.6875
-55.0,2.6261751088602177,7.3125
-55.5,2.6445828783148455,1.625
-55.5,2.454369260617026,6.5
-55.5,2.5157284921324514,13.8125
-56.0,2.5464081078901644,-17.875
-55.0,2.5464081078901644,-6.5
-55.0,2.4727770300716534,-1.625
-55.5,2.4850488763747385,-1.625
-55.5,2.448233337465483,-6.5
-56.0,2.4175537217077703,-5.6875
-55.5,2.3930100291016,-2.4375
-56.0,2.3623304133438876,-10.5625
-56.0,2.3009711818284617,0.0
-55.5,2.2886993355253766,5.6875
-56.0,2.2580197197676637,4.875
-56.0,2.3439226438892597,-4.875
-56.0,2.337786720737717,-3.25
-55.5,2.3746022596469727,-4.875
-56.0,2.2764274892222915,3.25
-55.5,2.3316507975861747,0.8125
-56.5,2.337786720737717,-4.875
-55.5,2.2396119503130363,4.875
-56.0,2.1659808724945253,19.5
-55.5,2.2457478734645786,3.25
-56.0,2.1475731030398975,17.0625
-55.5,2.110757564130642,16.25
-56.5,2.1782527187976104,5.6875
-56.5,2.1230294104337273,6.5
-55.5,2.1046216409791,15.4375
-56.5,2.12916533358527,4.875
-57.5,2.2212041808584084,-6.5
-57.0,2.1598449493429825,8.125
-57.5,2.2948352586769194,-12.1875
-56.5,2.2334760271614935,6.5
-57.0,2.3316507975861747,-17.875
-57.5,2.2518837966161214,2.4375
-57.0,2.2212041808584084,-8.9375
-57.5,2.172116795646068,-14.625
-56.5,2.1230294104337273,17.0625
-57.5,2.1782527187976104,-9.75
-57.0,2.061670178918302,2.4375
-56.0,1.9757672547967058,17.0625
-57.0,1.9757672547967058,21.125
-56.5,2.0371264863121317,2.4375
-56.5,1.9573594853420782,10.5625
-56.5,2.018718716857504,1.625
-56.0,1.9266798695843652,8.125
-56.0,1.9819031779482483,-1.625
-56.0,1.9696313316451632,-4.875
-56.5,1.8775924843720249,0.0
-57.0,1.8837284075235674,-2.4375
-57.0,1.9696313316451632,-17.875
-56.0,1.7119225592803755,6.5
-57.0,1.6382914814618648,19.5
-57.0,1.718058482431918,0.0
-57.0,1.6689710972195777,5.6875
-56.5,1.6812429435226628,0.0
-56.5,1.662835174068035,7.3125
-57.0,1.7671458676442586,-17.875
-56.5,1.6014759425526093,18.6875
-56.5,1.705786636128833,-6.5
-56.5,1.6935147898257479,14.625
-57.5,1.761009944492716,-6.5
-57.0,1.6873788666742053,1.625
-57.0,1.5892040962495242,14.625
-58.0,1.7241944055834606,-8.125
-57.0,1.6689710972195777,-4.875
-57.5,1.7303303287350031,-17.0625
-58.0,1.521708941582556,-0.8125
-57.5,1.576932249946439,-0.8125
-58.0,1.552388557340269,-21.125
-57.5,1.4542137869155878,-0.8125
-57.0,1.423534171157875,8.125
-57.5,1.5585244804918115,-19.5
-57.5,1.5155730184310134,-17.0625
-58.0,1.3192234775816514,-3.25
-58.5,1.3744467859455345,-11.375
-58.5,1.2885438618239387,-9.75
-58.5,1.337631247036279,-23.5625
-59.0,1.325359400733194,-11.375
-59.0,1.1658253987930873,1.625
-60.0,1.1106020904292042,-12.1875
-59.0,1.0062913968529805,9.75
-59.5,1.0676506283684062,-13.8125
-59.5,1.086058397823034,-17.0625
-60.0,1.1228739367322893,-29.25
-61.0,0.9081166264282996,-14.625
-60.5,1.043106935762236,-27.625
-61.0,0.8099418560036186,2.4375
-61.5,0.6381360077604268,6.5
-61.0,0.760854470791278,-8.125
-62.0,0.662679700366597,-8.9375
-62.5,0.48473792897186263,4.875
-61.5,0.48473792897186263,-12.1875
-63.0,0.36815538909255385,-17.875
-63.0,0.2454369260617026,3.25
-63.5,0.5951845456996288,-34.125
-65.0,0.39269908169872414,-9.75
-63.5,0.04908738521234052,11.375
-63.5,0.16566992509164924,-26.8125
-63.0,0.25770877236478773,-32.5
-64.0,0.05522330836388308,28.4375
-64.0,0.11658253987930872,-8.9375
-63.5,6.191146459906448,-6.5
-64.5,0.03681553890925539,-33.3125
-63.5,5.706408530934585,32.5
-64.0,5.798447378207723,2.4375
-65.5,5.884350302329319,0.8125
-64.5,5.675728915176872,44.75
-65.0,5.6573211457222445,11.375
-65.5,6.056156150572511,-78.0625
-64.0,5.45483568172134,31.6875
-63.0,5.786175531904639,9.75
-63.5,5.47937937432751,43.9375
-64.5,5.47937937432751,38.1875
-63.0,5.3627968344482015,18.6875
-63.0,5.516194913236766,-9.75
-62.5,5.344389064993574,-9.75
-62.5,5.21553467881118,17.875
-62.5,4.994641445355648,16.25
-62.0,4.743068596142402,52.875
-61.0,5.019185137961818,-3.25
-59.5,4.859651136021712,8.125
-59.5,4.841243366567084,8.125
-59.0,4.577398671050753,29.25
-59.0,4.387185053352934,37.375
-58.0,4.571262747899211,-13.8125
-58.0,4.4362724385652745,17.0625
-57.5,4.3933209765044765,16.25
-57.0,4.301282129231338,21.125
-57.0,4.387185053352934,10.5625
-56.0,4.331961744989051,9.75
-56.0,4.319689898685965,17.875
-55.5,4.276738436625168,8.9375
-55.0,4.23378697456437,11.375
-55.5,4.184699589352029,4.875
-55.0,4.178563666200486,7.3125
-55.0,4.025165587411922,16.25
-54.0,4.09266074207889,4.875
-54.0,3.9576704327449543,17.875
-54.5,3.988350048502667,9.75
-53.5,4.06811704947272,-8.9375
-53.5,3.9208548938356986,5.6875
-53.5,3.9392626632903265,0.0
-52.5,3.9085830475326135,-10.5625
-52.5,3.810408277107933,0.8125
-52.5,3.693825737228624,16.25
-52.0,3.5833791205008576,22.75
-52.0,3.650874275167826,11.375
-51.5,3.6017868899554855,8.9375
-51.5,3.497476196379262,10.5625
-51.0,3.466796580621549,13.8125
-51.0,3.411573272257666,16.25
-50.5,3.368621810196868,10.5625
-50.5,3.3870295796514958,-1.625
-50.5,3.2704470397721868,8.9375
-50.0,3.2459033471660166,8.125
-49.5,3.160000423044421,15.4375
-50.0,3.1661363461959633,10.5625
-49.5,3.160000423044421,4.875
-49.0,3.141592653589793,0.8125
-49.0,3.0802334220743677,3.25
-49.0,3.043417883165112,9.75
-49.0,3.0127382674073995,10.5625
-48.5,2.9636508821950587,11.375
-48.0,2.9636508821950587,8.9375
-47.5,3.0127382674073995,2.4375
-48.0,2.9268353432858034,6.5
-47.0,2.8961557275280905,8.9375
-47.0,2.9084275738311756,4.875
-46.5,2.834796496012665,9.75
-46.5,2.773437264497239,6.5
-45.5,2.736621725587984,8.125
-46.0,2.693670263527186,8.125
-45.5,2.6445828783148455,8.9375
-45.0,2.5954954931025047,8.9375
-45.0,2.5464081078901644,3.25
-45.0,2.509592568980909,6.5
-44.5,2.4850488763747385,8.125
-44.5,2.478912953223196,4.875
-44.0,2.454369260617026,1.625
-44.0,2.411417798556228,1.625
-44.0,2.3930100291016,3.25
-44.0,2.350058567040802,4.875
-43.5,2.325514874434632,7.3125
-43.5,2.3071071049800045,6.5
-43.5,2.2948352586769194,5.6875
-42.5,2.1905245651006955,13.8125
-42.5,2.2089323345553233,5.6875
-42.0,2.1598449493429825,2.4375
-41.5,2.110757564130642,5.6875
-41.0,2.043262409463674,5.6875
-40.5,2.0064468705544187,0.8125
-40.5,1.9266798695843652,4.875
-40.0,1.8837284075235674,2.4375
-39.5,1.7855536370988863,5.6875
-39.0,1.7241944055834606,3.25
-38.5,1.662835174068035,3.25
-38.5,1.6014759425526093,4.875
-38.5,1.5155730184310134,5.6875
-37.5,1.4726215563702154,2.4375
-37.0,1.4051264017032472,5.6875
-36.5,1.3744467859455345,2.4375
-36.5,1.2946797849754812,8.125
-35.5,1.2455923997631406,4.875
-35.0,1.2026409377023426,5.6875
-35.0,1.141281706186917,6.5
-34.5,1.0983302441261191,6.5
-34.5,1.0921943209745766,1.625
-34.0,1.055378782065321,2.4375
-34.0,0.9878836273983529,5.6875
-34.0,0.9510680884890975,4.875
-33.5,0.9265243958829272,2.4375
-33.5,0.8835729338221293,1.625
-33.5,0.8406214717613314,5.6875
-33.5,0.803805932852076,1.625
-33.5,0.7792622402459057,2.4375
-33.0,0.7485826244881929,-0.8125
-32.5,0.6994952392758523,0.0
-32.5,0.619728238305799,6.5
-32.5,0.5951845456996288,2.4375
-32.0,0.5522330836388308,2.4375
-31.5,0.5092816215780329,1.625
-31.5,0.44178646691106466,0.8125
-31.5,0.3865631585471816,0.8125
-31.5,0.32520392703175593,1.625
-31.5,0.30066023442558565,0.0
-31.5,0.2454369260617026,0.8125
-31.0,0.19634954084936207,0.8125
-31.5,0.16566992509164924,0.8125
-31.0,0.14112623248547898,0.0
-31.0,0.09817477042468103,1.625
-31.0,0.07976700097005335,0.0
-31.5,0.04295146206079795,-1.625
-31.5,0.01227184630308513,-2.4375
-31.5,6.264777537724958,-3.25
-31.5,6.240233845118788,-0.8125
-31.0,6.19728238305799,-3.25
-31.5,6.1420590746941075,-3.25
-31.0,6.062292073724054,-0.8125
-31.0,6.050020227420969,-2.4375
-30.5,6.000932842208628,-3.25
-30.5,5.9518454569962875,-3.25
-31.0,5.902758071783947,-2.4375
-30.5,5.8659425328746915,-1.625
-30.5,5.835262917116979,-0.8125
-31.0,5.798447378207723,0.0
-31.0,5.780039608753096,-1.625
-30.5,5.737088146692298,0.0
-30.5,5.71868037723767,0.0
-30.5,5.71868037723767,-2.4375
-31.0,5.681864838328415,0.8125
-31.0,5.6573211457222445,0.0
-31.0,5.64504929941916,-2.4375
-31.0,5.595961914206819,0.0
-31.0,5.5714182216006485,0.0
-31.5,5.546874528994478,-1.625
-31.5,5.50392306693368,0.8125
-31.5,5.47937937432751,-0.8125
-31.5,5.436427912266712,0.8125
-31.5,5.405748296509,0.0
-31.5,5.356660911296659,3.25
-31.5,5.313709449235861,0.8125
-31.5,5.258486140871978,-0.8125
-31.5,5.227806525114265,-2.4375
-31.5,5.154175447295755,0.0
-31.5,5.098952138931871,0.0
-31.5,5.019185137961818,0.8125
-32.0,5.00077736850719,0.0
-32.0,4.963961829597935,0.0
-32.5,4.902602598082509,-0.8125
-32.5,4.859651136021712,1.625
-32.5,4.828971520263998,-0.8125
-32.5,4.804427827657828,1.625
-32.5,4.773748211900116,1.625
-33.0,4.743068596142402,0.0
-33.0,4.73693267299086,-1.625
-33.0,4.706253057233147,0.0
-33.0,4.693981210930062,1.625
-33.0,4.700117134081604,-1.625
-33.0,4.651029748869264,2.4375
-33.0,4.663301595172349,-1.625
-33.0,4.651029748869264,-1.625
-33.0,4.6448938257177215,-1.625
-33.0,4.638757902566179,-1.625
-33.0,4.601942363656923,0.0
-33.0,4.601942363656923,-1.625
-33.0,4.583534594202296,-0.8125
-33.0,4.558990901596125,0.8125
-33.0,4.571262747899211,-2.4375
-33.0,4.565126824747668,-3.25
-33.0,4.528311285838413,-1.625
-33.0,4.509903516383785,1.625
-33.0,4.516039439535327,0.8125
-32.5,4.522175362686871,-1.625
-33.0,4.534447208989955,-0.8125
-33.0,4.516039439535327,0.8125
-33.0,4.528311285838413,0.0
-33.0,4.516039439535327,-0.8125
-33.0,4.509903516383785,1.625
-33.0,4.522175362686871,0.0
-32.5,4.4976316700806995,0.0
-33.0,4.491495746929157,1.625
-32.5,4.491495746929157,0.8125
-33.0,4.485359823777615,0.0
-33.0,4.466952054322987,3.25
-33.0,4.473087977474529,2.4375
-32.5,4.473087977474529,1.625
-32.5,4.473087977474529,0.0
-32.5,4.448544284868359,0.8125
-33.0,4.448544284868359,1.625
-32.5,4.473087977474529,-0.8125
-32.5,4.454680208019902,2.4375
-32.5,4.473087977474529,-0.8125
-32.5,4.460816131171445,0.8125
-32.5,4.466952054322987,0.0
-32.5,4.454680208019902,2.4375
-32.5,4.491495746929157,-1.625
-32.5,4.491495746929157,0.8125
-32.5,4.509903516383785,0.8125
-32.5,4.516039439535327,0.0
-32.5,4.522175362686871,0.0
-32.5,4.522175362686871,2.4375
-32.5,4.534447208989955,1.625
-32.5,4.546719055293041,0.0
-32.5,4.540583132141498,-0.8125
-32.5,4.540583132141498,0.0
-32.5,4.540583132141498,0.0
-32.5,4.540583132141498,2.4375
-32.0,4.546719055293041,-0.8125
-32.5,4.540583132141498,0.8125
-32.0,4.528311285838413,2.4375
-32.5,4.528311285838413,3.25
-32.0,4.546719055293041,2.4375
-32.5,4.540583132141498,1.625
-32.5,4.540583132141498,1.625
-32.5,4.534447208989955,0.0
-32.5,4.546719055293041,0.0
-32.5,4.540583132141498,-0.8125
-32.5,4.528311285838413,3.25
-32.0,4.552854978444583,0.0
-32.5,4.558990901596125,-0.8125
-32.5,4.558990901596125,0.0
-32.5,4.577398671050753,-2.4375
-32.5,4.565126824747668,-0.8125
-32.5,4.571262747899211,-1.625
-32.5,4.552854978444583,1.625
-32.5,4.552854978444583,1.625
-32.5,4.565126824747668,0.8125
-32.5,4.571262747899211,-0.8125
-32.5,4.583534594202296,-2.4375
-32.5,4.589670517353839,-3.25
-32.5,4.583534594202296,-2.4375
-32.5,4.589670517353839,-3.25
-32.5,4.595806440505381,-0.8125
-32.5,4.583534594202296,1.625
-32.0,4.638757902566179,-2.4375
-32.0,4.675573441475434,-1.625
-32.0,4.718524903536232,3.25
-31.5,4.8351074434155406,0.0
-30.5,4.95168998329485,-0.8125
-30.5,5.0253210611133605,0.8125
-30.5,5.135767677841127,0.0
-30.0,5.2339424482658075,2.4375
-30.0,5.411884219660542,0.0
-30.0,5.534602682691394,-0.8125
-30.0,5.565282298449106,-0.8125
-29.5,5.595961914206819,-2.4375
-29.5,5.595961914206819,0.0
-29.5,5.602097837358362,-2.4375
-30.0,5.583690067903734,0.0
-30.0,5.5714182216006485,-0.8125
-30.0,5.5714182216006485,-0.8125
-29.5,5.6143696836614465,-1.625
-29.5,5.66959299202533,-0.8125
-29.5,5.724816300389213,0.8125
-29.0,5.730952223540755,0.0
-29.0,5.730952223540755,0.8125
-29.5,5.749359992995383,-0.8125
-29.5,5.755495916146925,-0.8125
-29.5,5.743224069843841,-2.4375
-29.5,5.638913376267617,1.625
-30.0,5.473243451175968,-2.4375
-30.5,5.2339424482658075,0.8125
-30.0,5.141903600992669,0.8125
-30.5,5.086680292628786,1.625
-30.5,5.031456984264903,0.8125
-31.0,5.019185137961818,0.8125
-31.0,4.97623367590102,-2.4375
-31.5,4.902602598082509,-0.8125
-31.0,4.853515212870168,-0.8125
-31.0,4.8351074434155406,1.625
-31.5,4.8351074434155406,1.625
-31.5,4.8351074434155406,-1.625
-31.5,4.822835597112456,-0.8125
-31.5,4.81056375080937,-0.8125
-31.5,4.804427827657828,0.8125
-31.5,4.798291904506286,-0.8125
-31.5,4.81056375080937,-1.625
-32.0,4.798291904506286,2.4375
-32.0,4.798291904506286,2.4375
-32.0,4.81056375080937,-0.8125
-32.0,4.798291904506286,-2.4375
-32.0,4.7860200582032,-2.4375
-32.0,4.749204519293945,-0.8125
-32.0,4.73693267299086,0.0
-32.0,4.73693267299086,0.0
-32.0,4.718524903536232,1.625
-32.0,4.718524903536232,-1.625
-32.0,4.706253057233147,0.8125
-32.0,4.693981210930062,-0.8125
-32.5,4.675573441475434,2.4375
-32.0,4.669437518323892,0.8125
-32.0,4.669437518323892,1.625
-32.0,4.681709364626977,-0.8125
-32.5,4.681709364626977,0.0
-32.0,4.6878452877785195,0.0
-32.0,4.6878452877785195,0.0
-32.0,4.6878452877785195,0.8125
-32.5,4.693981210930062,0.0
-32.0,4.669437518323892,3.25
-32.5,4.700117134081604,-0.8125
-32.0,4.706253057233147,-2.4375
-32.5,4.693981210930062,-1.625
-32.0,4.669437518323892,0.8125
-32.0,4.657165672020807,2.4375
-32.5,4.693981210930062,-2.4375
-32.5,4.657165672020807,1.625
-32.0,4.663301595172349,0.0
-32.5,4.675573441475434,-0.8125
-32.5,4.675573441475434,0.0
-32.0,4.663301595172349,2.4375
-32.0,4.693981210930062,0.0
-32.5,4.718524903536232,-1.625
-32.5,4.700117134081604,-0.8125
-32.0,4.706253057233147,0.8125
-32.0,4.724660826687775,1.625
-32.0,4.743068596142402,0.8125
-31.5,4.773748211900116,0.0
-31.5,4.804427827657828,-0.8125
-31.5,4.81056375080937,0.8125
-31.5,4.841243366567084,-0.8125
-31.5,4.878058905476339,-1.625
-31.5,4.914874444385594,0.8125
-31.0,4.963961829597935,0.0
-30.5,5.006913291658733,-3.25
-31.0,4.994641445355648,0.0
-31.0,5.00077736850719,0.0
-31.0,5.031456984264903,-3.25
-30.5,5.0253210611133605,1.625
-30.5,5.0253210611133605,2.4375
-31.0,5.031456984264903,0.0
-30.5,5.00077736850719,4.875
-30.5,5.019185137961818,1.625
-31.0,5.043728830567988,0.0
-30.5,5.056000676871073,0.0
-30.5,5.080544369477243,0.0
-30.5,5.105088062083414,2.4375
-30.0,5.184855063053467,-2.4375
-30.5,5.209398755659637,1.625
-30.5,5.258486140871978,1.625
-30.5,5.313709449235861,-0.8125
-30.0,5.405748296509,-1.625
-30.0,5.522330836388308,-1.625
-29.5,5.700272607783043,0.0
-29.5,5.9088939949354895,0.0
-30.0,6.160466844148735,0.0
-29.5,0.18407769454627693,1.625
-29.5,0.3190680038802134,3.25
-30.5,0.5767767762450011,5.6875
-32.0,0.7853981633974483,2.4375
-32.5,0.9203884727313847,4.875
-33.0,1.086058397823034,0.0
-33.5,1.1474176293384597,0.8125
-34.0,1.2026409377023426,3.25
-34.5,1.2701360923693108,1.625
-35.0,1.2946797849754812,2.4375
-35.5,1.3437671701878218,0.8125
-35.5,1.3560390164909069,5.6875
-36.5,1.4603497100671303,3.25
-37.0,1.4910293258248433,3.25
-37.5,1.576932249946439,1.625
-38.0,1.6444274046134073,6.5
-38.0,1.7426021750380885,3.25
-38.5,1.8407769454627694,1.625
-39.0,1.9082721001297376,3.25
-39.5,1.9941750242513334,2.4375
-41.0,2.073942025221387,0.8125
-41.0,2.12916533358527,3.25
-41.5,2.1659808724945253,6.5
-41.5,2.2641556429192065,-1.625
-42.0,2.2580197197676637,4.875
-42.0,2.3071071049800045,4.875
-42.5,2.3439226438892597,0.8125
-42.5,2.337786720737717,6.5
-42.5,2.36846633649543,4.875
-42.5,2.405281875404685,3.25
-42.5,2.411417798556228,4.875
-42.5,2.442097414313941,2.4375
-42.5,2.448233337465483,5.6875
-42.0,2.442097414313941,8.125
-42.5,2.454369260617026,8.125
-42.5,2.4605051837685683,4.875
-42.0,2.4727770300716534,4.875
-42.5,2.478912953223196,0.8125
-42.5,2.478912953223196,0.8125
-42.5,2.497320722677824,0.8125
-42.0,2.466641106920111,2.4375
-42.5,2.4605051837685683,6.5
-42.5,2.478912953223196,5.6875
-42.5,2.4727770300716534,5.6875
-42.0,2.4605051837685683,8.125
-42.0,2.4911847995262812,0.8125
-42.0,2.4727770300716534,2.4375
-42.0,2.454369260617026,8.125
-42.0,2.466641106920111,3.25
-42.0,2.435961491162398,7.3125
-42.0,2.4911847995262812,0.8125
-42.0,2.4727770300716534,3.25
-42.0,2.448233337465483,5.6875
-42.0,2.442097414313941,6.5
-42.0,2.435961491162398,7.3125
-42.0,2.4605051837685683,2.4375
-41.5,2.435961491162398,3.25
-42.0,2.429825568010856,8.125
-41.5,2.429825568010856,7.3125
-42.0,2.435961491162398,3.25
-42.0,2.442097414313941,5.6875
-42.0,2.429825568010856,3.25
-41.5,2.429825568010856,8.125
-42.0,2.423689644859313,7.3125
-42.0,2.435961491162398,7.3125
-41.5,2.423689644859313,8.9375
-42.0,2.423689644859313,7.3125
-42.0,2.423689644859313,8.125
-42.0,2.435961491162398,2.4375
-41.5,2.442097414313941,1.625
-42.0,2.423689644859313,8.125
-42.0,2.423689644859313,5.6875
-41.5,2.429825568010856,4.875
-42.0,2.4175537217077703,6.5
-42.0,2.411417798556228,6.5
-42.0,2.411417798556228,3.25
-42.0,2.411417798556228,3.25
-42.0,2.399145952253143,7.3125
-42.0,2.429825568010856,0.8125
-41.5,2.380738182798515,7.3125
-42.0,2.405281875404685,4.875
-42.0,2.399145952253143,4.875
-42.0,2.399145952253143,4.875
-42.0,2.386874105950058,4.875
-42.0,2.399145952253143,4.875
-42.0,2.3623304133438876,10.5625
-42.0,2.386874105950058,5.6875
-42.0,2.3930100291016,1.625
-42.0,2.386874105950058,5.6875
-42.0,2.386874105950058,2.4375
-42.0,2.3623304133438876,9.75
-42.0,2.399145952253143,2.4375
-42.0,2.380738182798515,5.6875
-42.0,2.405281875404685,2.4375
-42.5,2.399145952253143,0.8125
-42.0,2.380738182798515,3.25
-42.0,2.380738182798515,1.625
-42.5,2.36846633649543,2.4375
-42.0,2.356194490192345,1.625
-42.5,2.337786720737717,3.25
-42.5,2.313243028131547,1.625
-42.5,2.2764274892222915,5.6875
-42.5,2.227340104009951,10.5625
-42.5,2.2150682577068657,9.75
-42.5,2.2027964114037806,8.9375
-42.0,2.2150682577068657,7.3125
-42.5,2.184388641949153,6.5
-42.5,2.141437179888355,10.5625
-42.5,2.12916533358527,9.75
-42.0,2.098485717827557,8.9375
-42.5,2.043262409463674,9.75
-42.5,2.030990563160589,9.75
-43.0,2.0064468705544187,6.5
-43.0,1.945087639038993,8.125
-44.0,1.8960002538266525,9.75
-44.0,1.8960002538266525,6.5
-45.5,1.9266798695843652,6.5
-45.5,2.0064468705544187,1.625
-47.0,2.055534255766759,8.9375
-47.0,2.2580197197676637,1.625
-47.0,2.3439226438892597,-4.875
-46.5,2.564815877344792,-14.625
-46.0,2.4727770300716534,1.625
-45.0,2.454369260617026,7.3125
-44.5,2.399145952253143,1.625
-44.5,2.386874105950058,-3.25
-44.0,2.270291566070749,2.4375
-44.0,2.1966604882522383,4.875
-44.5,2.1966604882522383,-1.625
-45.0,2.172116795646068,7.3125
-44.0,2.172116795646068,12.1875
-44.5,2.184388641949153,8.125
-44.5,2.1659808724945253,7.3125
-44.5,2.1598449493429825,6.5
-45.0,2.1659808724945253,9.75
-44.5,2.1537090261914402,8.9375
-44.5,2.1905245651006955,-0.8125
-44.5,2.1046216409791,13.8125
-44.5,2.1230294104337273,11.375
-45.0,2.141437179888355,8.9375
-44.5,2.141437179888355,6.5
-45.0,2.141437179888355,9.75
-45.0,2.1659808724945253,3.25
-44.5,2.1537090261914402,6.5
-44.5,2.184388641949153,5.6875
-44.5,2.1598449493429825,7.3125
-44.5,2.1966604882522383,1.625
-45.0,2.1966604882522383,2.4375
-45.0,2.1659808724945253,7.3125
-44.5,2.1966604882522383,4.875
-44.5,2.2089323345553233,0.8125
-44.5,2.1782527187976104,8.9375
