-48.5,0.0,8.9375
-49.0,0.05522330836388356,-10.5625
-48.0,0.04908738521234035,-4.0625
-48.5,-0.08590292412159606,2.4375
-49.0,-0.09203884727313838,17.875
-48.5,0.08590292412159606,7.3125
-49.0,-0.04908738521234035,12.1875
-49.0,0.012271846303084644,0.0
-49.0,0.06135923151542588,-21.125
-49.0,0.08590292412159606,-10.5625
-48.5,-0.05522330836388356,-1.625
-49.0,-0.09203884727313838,8.125
-48.5,0.12271846303085177,-17.875
-48.5,-0.0674951546669682,-1.625
-49.0,-0.06135923151542588,13.0
-48.5,0.12271846303085088,-17.0625
-48.0,-0.1349903093339364,6.5
-48.5,0.1288543861823941,0.0
-49.0,-0.07976700097005285,-10.5625
-49.0,0.19021361769781908,-29.25
-49.0,-0.20862138715244694,0.8125
-49.0,-0.12271846303085177,21.9375
-48.0,0.07363107781851141,8.9375
-48.5,0.19021361769781908,-12.1875
-48.5,-0.09203884727313838,-12.1875
-49.0,0.1656699250916489,-25.1875
-49.0,-0.08590292412159517,-5.6875
-49.0,-0.18407769454627765,13.0
-49.0,0.14726215563702194,-13.0
-49.0,-0.2270291566070748,23.5625
-48.5,0.31906800388021317,-22.75
-48.5,-0.0674951546669682,-21.125
-49.0,-0.07363107781851053,-4.875
-49.0,0.024543692606170175,2.4375
-48.5,0.03681553890925482,-8.9375
-49.0,0.07363107781851141,-22.75
-49.0,-0.3865631585471818,41.5
-48.5,0.14112623248547917,16.25
-49.0,0.14726215563702105,10.5625
-49.0,-0.20862138715244694,15.4375
-48.5,0.1349903093339364,4.875
-49.0,-0.06135923151542588,10.5625
-48.5,0.05522330836388356,-8.9375
-49.0,0.0674951546669682,0.0
-48.5,-0.018407769454627854,-4.0625
-49.0,-0.1656699250916489,22.75
-49.0,-0.018407769454627854,25.1875
-49.0,0.3313398501832987,-28.4375
-48.5,-0.1656699250916498,-14.625
-48.5,-0.11044661672776623,1.625
-49.5,0.21475731030399015,-0.8125
-48.5,-0.08590292412159606,-7.3125
-49.0,0.07976700097005374,-13.8125
-48.0,-0.03681553890925571,-13.0
-48.5,-0.3497476196379261,42.3125
-49.0,0.32520392703175593,-4.875
-48.5,-0.030679615757713385,-1.625
-49.5,0.06135923151542588,-8.125
-48.5,-0.006135923151542322,-10.5625
-49.0,-0.14112623248547873,9.75
-49.0,0.024543692606170175,-1.625
-49.0,-0.03681553890925571,13.8125
-49.0,0.012271846303085532,12.1875
-48.0,-0.08590292412159606,17.0625
-49.0,0.07363107781851053,6.5
-49.0,0.04295146206079803,-0.8125
-49.0,-0.09203884727313838,12.1875
-49.0,0.14726215563702105,2.4375
-49.0,-0.04295146206079714,2.4375
-49.0,0.10431069357622302,-10.5625
-48.5,-0.15339807878856426,1.625
-49.0,0.018407769454627854,9.75
-48.5,0.20862138715244694,-10.5625
-49.0,-0.2638446955163296,13.8125
-49.0,-0.07363107781851097,23.5625
-48.5,0.12271846303085132,9.75
-48.5,0.04295146206079803,2.4375
-48.5,0.018407769454627854,1.625
-49.5,-0.06135923151542588,7.3125
-49.5,-0.1840776945462772,36.5625
-48.5,0.2208932334555329,-7.3125
-49.0,-0.04908738521234124,13.8125
-49.0,0.11044661672776623,-1.625
-49.0,-0.1349903093339364,8.9375
-49.0,0.21475731030399015,-17.875
-49.5,-0.233165079758618,10.5625
-49.5,0.22089323345553247,-23.5625
-49.5,0.00613592315154321,-23.5625
-49.5,-0.27611654181941603,22.75
-49.5,-0.006135923151542322,15.4375
-49.0,0.15339807878856426,2.4375
-49.5,-0.11658253987930856,-1.625
-49.0,0.0981747704246807,-13.0
-49.5,-0.14112623248547917,12.1875
-50.0,0.049087385212340795,8.9375
-49.5,0.05522330836388267,-5.6875
-49.0,0.05522330836388356,-4.0625
-49.0,-0.3313398501832987,39.0
-49.5,0.10431069357622347,21.125
-49.0,0.1840776945462772,-6.5
-49.0,-0.05522330836388356,-4.0625
-49.5,-0.12885438618239364,20.3125
-49.0,-0.07976700097005329,25.1875
-49.0,-0.11044661672776623,39.0
-49.5,0.1288543861823941,22.75
-49.0,0.10431069357622347,12.1875
-49.5,0.11044661672776668,-17.875
-48.5,-0.012271846303085532,-9.75
-49.5,-0.16566992509164935,16.25
-49.0,0.012271846303085088,17.875
-49.0,0.006135923151542766,7.3125
-49.0,0.12271846303085132,-7.3125
-49.0,0.04908738521234035,-16.25
-49.5,-0.03681553890925571,-22.75
-49.0,-0.14112623248547873,0.0
-49.0,0.05522330836388312,7.3125
-49.5,0.12885438618239364,-14.625
-49.0,-0.34361169648638334,30.875
-48.5,0.018407769454627854,25.1875
-49.5,0.2147573103039897,-1.625
-49.0,-0.05522330836388312,1.625
-49.0,0.14112623248547873,-26.8125
-48.5,-0.2331650797586171,5.6875
-49.5,0.1472621556370215,-9.75
-49.0,-0.2024854640009046,20.3125
-48.5,-0.03067961575771294,27.625
-48.5,0.4295146206079794,-45.5625
-49.0,-0.4172427743048943,21.9375
-49.5,0.08590292412159606,10.5625
-48.5,0.0674951546669682,0.0
-49.0,-0.07363107781851097,15.4375
-49.0,-0.2147573103039897,31.6875
-49.0,0.294524311274043,4.0625
-48.5,0.0,4.875
-49.0,-0.01840776945462741,1.625
-49.0,-0.07363107781851097,0.0
-48.5,0.17794177139473488,-17.875
-48.5,-0.07363107781851097,-6.5
-49.0,0.006135923151542322,-16.25
-49.0,0.116582539879309,-20.3125
-48.0,-0.116582539879309,-8.125
-48.5,-0.024543692606170175,-9.75
-48.5,-0.04295146206079803,0.8125
-49.0,0.03067961575771294,-9.75
-49.0,-0.19021361769781953,21.9375
-48.5,0.0,21.125
-48.0,0.3129320807286704,-21.125
-48.5,-0.006135923151542322,-16.25
-49.0,-0.12271846303085132,-4.0625
-49.0,0.03067961575771294,-2.4375
-49.0,-0.2761165418194156,34.125
-48.5,0.23930100291016032,0.8125
-49.5,-0.11044661672776623,9.75
-48.0,0.09203884727313838,-7.3125
-49.0,0.03681553890925526,-1.625
-48.5,-0.12885438618239364,9.75
-48.5,0.12885438618239364,-8.9375
-49.0,0.018407769454627854,-13.0
-49.5,-0.18407769454627676,15.4375
-48.5,0.12885438618239364,-4.0625
-48.5,-0.2147573103039897,28.4375
-48.5,0.04908738521234035,25.1875
-49.0,0.10431069357622391,2.4375
-48.5,0.042951462060797585,-6.5
-48.5,-0.14112623248547873,21.9375
-48.5,0.26384469551633005,-27.625
-48.0,-0.2270291566070748,20.3125
-48.5,0.11044661672776623,1.625
-48.0,-0.04295146206079803,10.5625
-49.0,0.006135923151542766,5.6875
-48.5,0.08590292412159561,-12.1875
-48.0,-0.19634954084936185,16.25
-48.5,0.1349903093339364,-5.6875
-48.5,-0.24543692606170264,25.1875
-48.5,0.31906800388021317,-12.1875
-48.0,-0.294524311274043,31.6875
-48.5,0.1288543861823941,7.3125
-48.5,0.0981747704246807,-10.5625
-49.0,-0.15339807878856382,22.75
-48.0,0.07363107781851053,8.125
-48.5,-0.0981747704246807,23.5625
-49.0,0.012271846303085088,21.125
-49.0,0.05522330836388312,1.625
-48.5,0.030679615757712497,17.875
-48.5,-0.3006602344255853,52.875
-48.5,0.2454369260617022,10.5625
-48.5,-0.12885438618239364,32.5
-48.0,0.30066023442558576,-13.8125
-48.5,-0.1840776945462772,8.125
-48.5,0.006135923151542766,17.875
-48.5,-0.09203884727313838,21.125
-48.5,0.11044661672776579,9.75
-48.5,-0.04908738521234035,13.0
-48.5,0.03067961575771294,17.875
-48.5,0.07363107781851053,-10.5625
-48.0,0.10431069357622391,-17.0625
-48.5,-0.03067961575771294,-4.875
-48.5,-0.16566992509164935,8.125
-48.0,-0.04295146206079803,13.8125
-48.5,0.21475731030399015,-15.4375
-48.0,-0.22702915660707523,16.25
-48.0,-0.006135923151542322,20.3125
-48.5,0.006135923151542322,10.5625
-48.5,0.04295146206079803,8.9375
-48.0,-0.024543692606170175,14.625
-48.0,0.06135923151542544,-2.4375
-47.5,0.09203884727313882,-13.0
-48.0,-0.03681553890925571,-9.75
-48.0,-0.11044661672776623,2.4375
-48.5,0.09817477042468115,-16.25
-48.5,-0.05522330836388312,2.4375
-47.5,-0.17180584824319167,14.625
-48.5,0.12271846303085132,12.1875
-48.0,0.2147573103039897,-30.875
-48.0,-0.25157284921324496,9.75
-47.5,-0.049087385212340795,13.8125
-48.0,0.006135923151542766,14.625
-47.5,0.11044661672776623,-0.8125
-47.5,-0.018407769454627854,-8.9375
-47.5,-0.09817477042468115,8.9375
-47.5,0.03681553890925571,28.4375
-48.0,0.012271846303085088,13.8125
-48.0,0.012271846303085088,8.9375
-47.5,0.0674951546669682,-4.0625
-47.5,-0.15339807878856426,13.0
-47.5,0.14112623248547917,-13.0
-47.5,-0.1472621556370215,17.875
-47.0,0.07976700097005329,0.0
-47.5,-0.10431069357622391,12.1875
-47.5,-0.024543692606170175,14.625
-47.0,-0.006135923151542322,12.1875
-47.5,0.07976700097005329,1.625
-47.5,-0.12271846303085132,16.25
-47.5,0.024543692606170175,17.0625
-46.5,0.006135923151542766,16.25
-47.0,0.024543692606170175,14.625
-47.0,0.0674951546669682,-0.8125
-47.0,0.15953400194010658,-24.375
-47.0,-0.32520392703175593,21.9375
-47.0,0.15339807878856426,7.3125
-47.0,-0.08590292412159606,17.875
-46.5,0.12885438618239364,-0.8125
-47.0,-0.2454369260617022,24.375
-47.0,0.19634954084936185,8.125
-47.0,0.03681553890925526,-5.6875
-47.0,-0.03681553890925526,2.4375
-47.0,-0.15339807878856426,25.1875
-47.0,0.29452431127404344,-25.1875
-47.0,-0.20862138715244738,13.8125
-47.0,0.12271846303085132,-17.0625
-47.0,-0.07363107781851097,-6.5
-46.5,-0.12885438618239364,8.125
-46.5,0.03067961575771294,8.9375
-47.0,0.0,-2.4375
-46.5,0.030679615757712497,6.5
-46.5,0.03067961575771294,0.0
-46.5,-0.05522330836388312,5.6875
-46.5,-0.11658253987930856,20.3125
-46.0,0.1472621556370215,0.8125
-46.5,-0.05522330836388312,9.75
-46.0,-0.06135923151542544,17.875
-46.0,0.0981747704246807,9.75
-47.0,-0.030679615757712497,8.9375
-46.0,0.06135923151542544,-0.8125
-46.0,0.03681553890925526,-5.6875
-46.0,-0.2331650797586171,25.1875
-46.5,0.12271846303085132,8.125
-47.0,0.06135923151542544,1.625
-46.0,-0.018407769454627854,-4.0625
-46.5,-0.01840776945462741,4.875
-46.5,-0.018407769454627854,10.5625
-46.5,0.10431069357622347,-0.8125
-46.5,-0.08590292412159561,6.5
-46.0,-0.07363107781851097,4.0625
-46.0,-0.03067961575771294,13.0
-46.5,0.03067961575771294,8.125
-46.0,0.024543692606170175,10.5625
-46.0,0.07976700097005329,-6.5
-46.5,0.10431069357622391,-16.25
-46.5,-0.15953400194010658,4.875
-46.0,-0.03067961575771294,8.9375
-46.0,-0.006135923151542766,13.0
-46.0,-0.08590292412159561,14.625
-46.0,0.12885438618239364,0.0
-46.5,-0.012271846303085088,-1.625
-46.0,-0.17794177139473444,21.9375
-45.5,0.1840776945462772,-13.0
-46.0,-0.07976700097005374,0.8125
-46.0,-0.006135923151542322,5.6875
-46.0,0.03681553890925526,4.875
-46.0,0.09817477042468115,-21.9375
-45.5,-0.17794177139473444,6.5
-46.0,0.018407769454627854,8.9375
-45.5,0.024543692606170175,0.0
-45.5,-0.04295146206079803,4.875
-45.5,-0.024543692606170175,5.6875
-46.0,-0.012271846303085088,-0.8125
-46.0,-0.116582539879309,15.4375
-45.5,0.03681553890925571,8.9375
-45.5,-0.08590292412159606,17.875
-45.5,0.11658253987930856,0.8125
-45.0,0.0,0.0
-45.5,0.02454369260617062,-1.625
-45.5,-0.09203884727313882,8.125
-45.0,0.02454369260617062,0.8125
-45.0,-0.03681553890925571,9.75
-45.0,0.0,-0.8125
-45.0,-0.024543692606170175,4.0625
-44.5,0.024543692606170175,-2.4375
-44.5,-0.012271846303085088,1.625
-44.5,-0.04908738521234035,0.8125
-45.0,-0.05522330836388312,10.5625
-44.5,-0.0674951546669682,16.25
-44.0,0.06135923151542544,8.9375
-44.0,0.06135923151542588,-8.125
-44.0,-0.06135923151542588,1.625
-44.0,-0.01840776945462741,4.875
-44.5,-0.049087385212340795,10.5625
-44.0,-0.006135923151542322,8.9375
-44.0,-0.03067961575771294,13.8125
-43.5,0.03067961575771294,13.0
-43.5,0.04295146206079803,-4.875
-44.0,0.042951462060797585,-8.9375
-43.5,-0.17180584824319167,12.1875
-43.0,0.04908738521234035,0.8125
-43.5,-0.06135923151542544,4.875
-43.0,0.0674951546669682,-10.5625
-43.0,-0.05522330836388312,0.8125
-43.0,-0.04908738521234035,10.5625
-42.5,0.006135923151542322,2.4375
-43.0,0.018407769454627854,-4.0625
-42.5,0.0,-1.625
-42.5,-0.04295146206079803,0.0
-42.5,0.012271846303085088,-5.6875
-43.0,-0.11044661672776623,2.4375
-42.5,-0.03681553890925526,5.6875
-42.0,-0.04908738521234035,7.3125
-41.5,0.04908738521234035,-13.0
-42.0,-0.15953400194010658,0.0
-41.5,-0.15953400194010658,6.5
-41.5,-0.12271846303085132,6.5
-41.5,-0.17794177139473444,2.4375
-41.0,-0.16566992509164935,2.4375
-41.5,-0.22089323345553225,4.875
-41.5,-0.1718058482431919,6.5
-41.5,-0.07363107781851075,8.125
-41.5,-0.03067961575771272,7.3125
-41.5,-0.0674951546669682,8.9375
-41.0,0.09817477042468092,-5.6875
-42.0,-0.07976700097005329,2.4375
-41.0,-0.03067961575771294,0.0
-41.0,0.036815538909255485,0.8125
-41.5,-0.07363107781851075,8.9375
-41.5,0.0674951546669682,-4.0625
-41.0,-0.024543692606170397,-0.8125
-41.0,-0.06135923151542566,0.8125
-41.5,0.018407769454627854,1.625
-41.5,-0.08590292412159606,13.8125
-41.0,0.11658253987930878,-1.625
-41.5,-0.006135923151542544,-1.625
-41.0,0.006135923151542544,0.0
-41.0,-0.03067961575771272,0.8125
-41.5,-0.012271846303085088,1.625
-41.5,0.024543692606170175,-0.8125
-41.0,0.006135923151542544,1.625
-41.0,0.03067961575771294,0.0
-41.0,-0.08590292412159606,8.125
-41.5,0.01840776945462763,8.9375
-41.5,0.05522330836388312,0.8125
-41.0,-0.04295146206079781,7.3125
-41.5,0.03681553890925526,2.4375
-41.0,0.018407769454627854,0.0
-41.0,-0.024543692606170397,4.0625
-41.0,0.0674951546669682,-4.875
-41.0,-0.05522330836388312,4.875
-41.5,-0.03067961575771272,9.75
-41.0,0.0674951546669682,2.4375
-41.0,-0.07976700097005329,10.5625
-41.0,0.12885438618239387,-6.5
-41.0,-0.018407769454627854,-4.0625
-41.0,0.03067961575771294,-1.625
-41.5,-0.006135923151542544,-4.0625
-41.5,0.03067961575771272,-2.4375
-41.5,0.006135923151542544,-2.4375
-41.0,-0.05522330836388312,8.9375
-41.0,0.07363107781851097,-0.8125
-41.0,-0.006135923151542766,-1.625
-41.0,-0.09817477042468092,16.25
-41.0,0.11044661672776623,-0.8125
-41.5,0.06135923151542566,-4.0625
-41.0,-0.07363107781851097,5.6875
-41.5,0.024543692606170397,4.875
-41.0,0.11658253987930878,-8.9375
-41.5,-0.09817477042468115,8.125
-41.5,0.04295146206079803,0.8125
-41.0,0.0,0.8125
-41.0,-0.018407769454627854,8.125
-41.0,0.04908738521234057,1.625
-41.0,0.03067961575771294,0.8125
-41.0,0.012271846303085088,0.0
-41.0,-0.024543692606170175,6.5
-41.0,0.09817477042468092,-6.5
-41.0,-0.05522330836388312,2.4375
-40.5,0.05522330836388312,4.0625
-40.5,0.012271846303085088,2.4375
-41.0,0.012271846303085088,2.4375
-40.5,0.018407769454627854,4.875
-41.0,0.006135923151542544,5.6875
-40.5,-0.01840776945462763,8.9375
-40.5,0.0674951546669682,0.8125
-40.5,0.006135923151542544,4.875
-40.5,0.01840776945462763,5.6875
-40.5,0.01840776945462763,4.0625
-40.5,0.036815538909255485,0.8125
-40.5,0.006135923151542544,6.5
-40.0,-0.024543692606170397,8.9375
-40.5,0.04295146206079803,0.8125
-40.0,0.03067961575771294,-2.4375
-40.0,0.006135923151542544,4.0625
-40.0,-0.006135923151542544,4.875
-40.0,0.03681553890925526,0.8125
-40.0,0.006135923151542544,4.0625
-39.5,0.04295146206079803,4.0625
-39.5,0.006135923151542544,1.625
-40.0,0.012271846303085088,2.4375
-40.0,-0.01840776945462763,6.5
-40.0,0.07976700097005351,0.0
-40.0,-0.018407769454627854,4.0625
-39.5,0.018407769454627854,2.4375
-39.5,-0.006135923151542766,4.0625
-40.0,0.006135923151542766,6.5
-40.0,0.01840776945462741,8.125
-40.5,0.012271846303085088,8.125
-39.5,0.04295146206079803,5.6875
-40.0,0.006135923151542766,1.625
-40.0,0.012271846303085088,4.0625
-39.5,0.0,4.0625
-39.5,0.0674951546669682,0.0
-40.0,-0.04295146206079803,5.6875
-40.0,0.03681553890925526,4.0625
-40.0,0.0674951546669682,-2.4375
-40.5,-0.06135923151542544,8.9375
-39.5,0.07363107781851053,2.4375
-40.5,0.03067961575771294,0.8125
-40.0,0.012271846303085088,-0.8125
-40.0,-0.006135923151542322,4.0625
-40.0,0.012271846303085088,7.3125
-40.0,0.04908738521234035,4.875
-39.5,0.06135923151542588,-4.0625
-39.5,-0.018407769454627854,4.0625
-39.5,0.06135923151542544,-2.4375
-39.5,0.02454369260617062,-1.625
-39.5,-0.03681553890925571,7.3125
-40.0,0.0674951546669682,2.4375
-39.0,-0.01840776945462741,4.0625
-39.0,0.07976700097005329,-1.625
-39.0,0.0,4.875
-39.0,0.03067961575771294,4.875
-39.0,0.05522330836388267,-1.625
-39.5,0.0,4.0625
-39.0,0.08590292412159606,1.625
-39.5,-0.006135923151542322,-0.8125
-39.5,0.01840776945462741,1.625
-39.0,0.006135923151542766,6.5
-39.5,0.01840776945462741,5.6875
-39.5,0.09817477042468115,-2.4375
-39.5,-0.024543692606170175,2.4375
-39.5,0.07976700097005329,-2.4375
-39.5,-0.03681553890925526,8.125
-40.0,0.09817477042468115,-1.625
-40.0,-0.018407769454627854,4.0625
-39.5,0.024543692606170175,7.3125
-39.5,0.09817477042468115,-4.875
-40.0,-0.018407769454627854,4.875
-40.0,0.08590292412159606,-4.0625
-40.5,0.01840776945462741,0.0
-40.0,0.012271846303085532,5.6875
-40.0,0.07976700097005329,0.0
-40.0,0.030679615757712497,-1.625
-40.0,0.012271846303085532,5.6875
-40.0,0.024543692606170175,9.75
-40.0,0.07363107781851053,-1.625
-40.0,0.0674951546669682,-0.8125
-40.0,0.049087385212340795,-0.8125
-40.0,0.012271846303085088,1.625
-40.5,0.09203884727313838,-9.75
-40.5,-0.05522330836388312,9.75
-40.5,0.04295146206079803,6.5
-40.5,0.09817477042468115,0.0
-41.0,0.10431069357622347,-13.8125
-41.0,-0.09817477042468115,-1.625
-41.0,0.006135923151542766,1.625
-41.0,-0.03067961575771294,10.5625
-41.5,0.03681553890925526,5.6875
-41.5,0.116582539879309,-4.875
-41.0,0.03681553890925526,-12.1875
-41.0,-0.012271846303085088,-4.0625
-41.0,-0.012271846303085088,6.5
-41.5,-0.024543692606170175,2.4375
-41.5,0.11044661672776579,-9.75
-42.0,0.018407769454627854,-5.6875
-41.5,-0.0674951546669682,5.6875
-41.5,0.09203884727313838,-4.875
-41.5,0.012271846303085532,-7.3125
-42.0,0.061359231515424995,-8.125
-41.5,-0.030679615757712497,-5.6875
-42.0,0.024543692606170175,-1.625
-41.5,0.0,-8.9375
-42.0,-0.04295146206079803,4.0625
-42.0,0.006135923151542322,1.625
-42.0,0.09203884727313927,-6.5
-42.0,-0.024543692606171064,-17.875
-42.0,0.030679615757713385,-13.0
-42.5,0.0,-8.9375
-42.5,-0.030679615757713385,-6.5
-43.0,-0.04908738521234035,1.625
-43.0,-0.018407769454627854,4.0625
-43.0,0.07976700097005374,-5.6875
-43.5,-0.05522330836388267,-5.6875
-44.0,-0.09203884727313882,4.0625
-44.5,0.116582539879309,-7.3125
-44.5,-0.116582539879309,7.3125
-45.5,-0.006135923151542766,8.125
-46.0,0.09203884727313838,-9.75
-46.5,-0.030679615757712497,-7.3125
-47.0,0.04908738521234035,-8.125
-47.5,-0.11044661672776623,0.8125
-53.0,-0.5092816215780327,8.125
-52.5,-0.09203884727313838,28.4375
-52.5,-0.07976700097005329,27.625
-53.0,0.030679615757712497,14.625
-53.0,0.1349903093339364,-9.75
-54.0,-0.11044661672776579,-9.75
-53.5,0.03681553890925526,-20.3125
-54.5,-0.2822524649709579,13.0
-53.5,-0.1840776945462772,16.25
-53.5,0.22702915660707523,-34.125
-53.0,-0.17794177139473444,-1.625
-53.0,0.03681553890925526,-0.8125
-54.0,-0.1472621556370215,21.125
-54.5,-0.2699806186678728,27.625
-54.0,0.16566992509164935,-6.5
-55.5,-0.36201946594101164,29.25
-55.0,-0.22089323345553202,41.5
-53.5,0.177941771394734,4.875
-54.5,-0.23930100291015988,7.3125
-55.0,-0.006135923151542322,-13.0
-55.0,-0.0674951546669682,-17.0625
-55.5,-0.2945243112740432,14.625
-53.5,-0.17794177139473444,28.4375
-55.5,0.05522330836388312,9.75
-55.0,0.10431069357622347,-0.8125
-53.5,-0.03681553890925526,-13.0
-55.0,-0.23316507975861755,-2.4375
-54.0,0.012271846303085088,-17.875
-55.5,-0.39269908169872414,19.5
-54.5,0.2638446955163303,-7.3125
-56.0,-0.006135923151542544,-4.0625
-55.0,-0.20862138715244716,-10.5625
-54.0,-0.03681553890925526,-6.5
-54.5,-0.23316507975861755,-0.8125
-54.5,0.05522330836388312,-16.25
-54.5,-0.012271846303085199,-30.875
-54.5,-0.0674951546669682,25.1875
-54.5,-0.12271846303085121,4.0625
-55.0,-0.3006602344255857,50.4375
-53.5,-0.11044661672776618,56.9375
-54.5,0.6442719309119693,-27.625
-55.0,-0.3742913122440965,17.875
-55.0,-0.04908738521234046,61.8125
-55.0,0.16566992509164924,21.9375
-54.5,0.08590292412159584,-2.4375
-55.0,-0.22089323345553225,-6.5
-53.5,0.11658253987930867,-15.4375
-55.0,0.006135923151542544,-20.3125
-53.5,-0.055223308363883006,4.0625
-54.5,0.06135923151542566,6.5
-54.5,-0.3067961575771283,29.25
-55.0,0.1349903093339364,-7.3125
-55.0,-0.1288543861823938,39.875
-55.0,-0.08590292412159589,39.875
-56.0,0.012271846303085088,21.9375
-54.5,0.24543692606170264,-32.5
-55.5,-0.20248546400090467,34.125
-54.5,0.03067961575771283,21.125
-55.0,-0.07976700097005335,28.4375
-54.0,-0.006135923151542544,19.5
-54.0,-0.018407769454627743,25.1875
-54.5,0.0,7.3125
-54.5,-0.1349903093339364,41.5
-53.5,0.20248546400090467,15.4375
-55.5,-0.006135923151542599,-4.875
-54.0,-0.1349903093339364,17.875
-55.0,0.3190680038802134,-34.9375
-54.0,-0.42337869745643697,44.75
-54.0,0.11658253987930875,-4.0625
-55.0,0.2577087723647877,-26.8125
-54.0,-0.38656315854718154,13.0
-53.5,0.2024854640009046,-26.8125
-55.5,-0.04908738521234052,-28.4375
-54.0,-0.17180584824319178,14.625
-54.5,0.07363107781851076,15.4375
-54.0,0.012271846303085143,-9.75
-54.0,-0.14112623248547898,19.5
-54.0,0.1718058482431918,-15.4375
-54.5,5.945709533844745,37.375
-55.0,-6.111379458936394,0.8125
-53.0,0.11044661672776616,-17.0625
-54.0,5.982525072754001,21.9375
-54.0,-5.829126993965437,-26.8125
-53.0,-0.19634954084936207,0.0
-54.0,0.2024854640009046,-26.8125
-54.0,5.976389149602458,24.375
-54.0,-0.11658253987930856,47.1875
-55.5,-0.00613592315154321,10.5625
-53.5,-6.129787228391022,-24.375
-54.5,0.006135923151542565,-6.5
-55.0,6.154330920997192,5.6875
-54.5,0.04295146206079803,-13.0
-54.5,-0.030679615757713385,-4.875
-54.5,-0.04908738521234035,-14.625
-52.5,-0.030679615757712497,17.0625
-52.5,0.0981747704246807,-15.4375
-54.5,-0.15953400194010658,14.625
-54.5,0.14112623248547873,-6.5
-54.0,-0.2577087723647873,0.8125
-55.0,0.1349903093339364,-1.625
-53.5,-0.024543692606170175,8.9375
-53.5,-0.018407769454627854,16.25
-53.0,0.030679615757712497,9.75
-53.5,-0.14726215563702105,32.5
-54.0,0.030679615757712497,12.1875
-54.0,-0.024543692606170175,21.9375
-53.5,0.14112623248547873,-1.625
-54.5,-0.061359231515424995,-6.5
-54.0,0.030679615757712497,7.3125
-53.5,-0.07976700097005374,43.125
-54.0,-0.04295146206079803,22.75
-54.5,0.22702915660707568,-16.25
-53.5,-0.14112623248547962,-0.8125
-54.0,-0.15953400194010658,21.125
-52.5,0.28225246497095835,-30.0625
-54.0,0.09203884727313838,-39.0
-52.5,-0.06135923151542588,-4.875
-52.0,-0.15953400194010658,-8.9375
-54.5,-0.12271846303085088,0.8125
-53.5,0.07363107781851053,-15.4375
-54.0,-0.0674951546669682,-9.75
-54.0,-0.11658253987930856,21.9375
-53.5,0.1349903093339364,29.25
-54.5,0.18407769454627676,-13.8125
-54.0,-0.2024854640009046,13.0
-53.0,0.018407769454627854,21.125
-55.0,0.1349903093339364,4.0625
-54.5,0.1656699250916489,-26.8125
-54.0,-0.0674951546669682,-21.9375
-53.5,-0.27611654181941514,21.9375
-54.0,0.0981747704246807,-4.0625
-53.5,0.10431069357622391,-2.4375
-52.5,0.018407769454627854,14.625
-53.5,-0.018407769454627854,10.5625
-54.0,0.14112623248547873,-16.25
-55.5,-0.030679615757712497,-13.0
-55.0,-0.09817477042468159,-12.1875
-55.0,-0.15339807878856426,25.1875
-53.5,0.2699806186678737,-10.5625
-53.5,0.030679615757712497,-12.1875
-54.0,-0.41110685115335155,46.375
-55.0,0.3620194659410112,-14.625
-54.5,-0.09203884727313838,10.5625
-56.0,0.14112623248547873,-17.0625
-53.0,0.04295146206079803,-9.75
-53.0,-0.233165079758618,26.8125
-53.0,-6.000932842208628,-8.9375
-54.5,6.154330920997192,-15.4375
-54.0,-0.10431069357622302,21.125
-54.0,-0.018407769454627854,26.8125
-54.0,0.24543692606170264,-10.5625
-53.5,-0.15339807878856426,15.4375
-55.5,0.14726215563702105,-1.625
-55.0,-0.3252039270317555,22.75
-54.0,0.10431069357622391,29.25
-54.5,-5.724816300389213,-43.125
-55.0,-0.05522330836388312,-52.875
-54.0,5.93343768754166,24.375
-54.5,-0.012271846303084644,21.9375
-53.5,-6.1420590746941075,-13.8125
-53.0,0.02454369260617026,-2.4375
-54.0,0.11658253987930872,4.875
-56.0,6.050020227420969,24.375
-53.0,-6.074563920027139,17.875
-54.5,0.23316507975861744,-5.6875
-54.0,-0.036815538909255374,-13.0
-54.5,0.0,7.3125
-54.0,0.22089323345553236,-21.125
-53.5,-0.141126232485479,6.5
-55.5,0.17794177139473438,19.5
-54.0,0.24543692606170253,-20.3125
-53.0,0.17794177139473444,-16.25
-52.5,-0.012271846303085088,19.5
-52.5,0.4172427743048943,-7.3125
-53.0,0.18407769454627698,17.875
-53.0,0.521553467881118,-10.5625
-52.0,0.15339807878856426,7.3125
-53.5,0.07976700097005329,17.0625
-53.5,0.19634954084936185,4.875
-52.0,0.10431069357622391,2.4375
-54.0,-0.03067961575771294,15.4375
-53.0,0.39883500485026646,-23.5625
-53.5,0.006135923151542766,-7.3125
-54.0,0.03067961575771294,-2.4375
-54.0,-0.03681553890925571,10.5625
-53.5,0.07363107781851097,0.8125
-54.0,-0.012271846303085088,20.3125
-53.5,0.17794177139473444,-0.8125
-54.5,-0.02454369260617062,12.1875
-54.5,0.12271846303085132,5.6875
-53.0,0.10431069357622391,-4.875
-54.0,-0.15953400194010658,20.3125
-54.0,0.4049709280018092,-30.0625
-54.5,-0.11044661672776623,9.75
-54.5,0.08590292412159561,-19.5
-53.5,0.0,-26.8125
-55.0,0.14726215563702194,-52.0625
-54.0,-0.3313398501832987,21.9375
-54.5,0.06135923151542544,6.5
-54.0,0.10431069357622391,15.4375
-53.5,-0.10431069357622391,25.1875
-54.0,0.09817477042468115,17.875
-55.0,-0.11044661672776623,52.875
-54.0,0.46633015951723467,-42.3125
-54.5,-0.018407769454626965,-45.5625
-53.5,-0.36201946594101164,21.125
-54.0,0.03067961575771294,1.625
-55.0,-0.09817477042468115,43.9375
-54.5,0.11658253987930856,22.75
-54.5,0.012271846303085088,25.1875
-55.0,0.049087385212340795,54.5
-54.5,0.03681553890925526,31.6875
-54.5,0.337475773334841,2.4375
-54.0,0.0674951546669682,-6.5
-55.0,-0.006135923151542322,36.5625
-54.5,0.17794177139473444,4.875
-54.0,0.07363107781851053,21.125
-54.0,-0.10431069357622391,31.6875
-54.5,0.1349903093339364,9.75
-54.0,0.09817477042468159,-5.6875
-53.0,0.28838838812250067,-45.5625
-54.0,0.10431069357622302,-30.0625
-53.0,-0.17794177139473444,8.125
-53.0,0.34361169648638423,-25.1875
-52.0,0.006135923151542322,-24.375
-51.0,0.024543692606170175,-12.1875
-51.0,-0.14112623248547873,9.75
-50.5,-0.10431069357622391,25.1875
-50.5,0.1963495408493623,-4.875
-49.0,0.07976700097005285,-4.0625
-49.0,-0.07363107781851053,13.8125
-48.5,-0.04908738521234035,8.125
-47.5,-0.04295146206079803,8.9375
-47.0,0.15953400194010658,-14.625
-46.5,-0.23930100291016032,21.125
-46.0,0.12271846303085177,-7.3125
-45.5,-0.10431069357622391,4.875
-45.0,0.012271846303085532,-5.6875
-45.0,-0.012271846303085532,-8.9375
-44.5,-0.07363107781851053,-1.625
-44.5,-0.09203884727313838,1.625
-44.0,-0.03681553890925571,-5.6875
-44.5,-0.14726215563702105,7.3125
-44.0,-0.04295146206079803,0.0
-44.0,-0.07976700097005374,0.8125
-44.0,-0.04908738521234035,0.0
-44.0,-0.03681553890925571,6.5
-43.5,-0.08590292412159517,4.0625
-44.0,0.0,-4.875
-44.5,-0.18407769454627765,4.875
-44.5,0.030679615757713385,-1.625
-45.0,0.05522330836388267,-10.5625
-45.5,-0.0981747704246807,0.8125
-46.0,0.030679615757712497,-4.0625
-46.5,-0.09203884727313838,-1.625
-47.0,-0.15339807878856382,22.75
-46.5,0.2515728492132445,-8.9375
-47.0,-0.07363107781851053,7.3125
-47.5,0.018407769454627854,13.0
-48.0,-0.018407769454627854,14.625
-47.5,0.11658253987930856,1.625
-48.0,0.08590292412159606,-13.8125
-47.5,-0.10431069357622302,21.9375
-47.5,0.1963495408493614,-4.875
-47.0,-0.030679615757712497,0.0
-47.0,-0.0674951546669682,6.5
-46.5,0.17794177139473444,-21.9375
-47.0,-0.2270291566070748,17.875
-46.5,0.03681553890925482,8.125
-46.5,-0.018407769454626965,7.3125
-46.5,0.0674951546669682,0.8125
-46.0,-0.05522330836388356,1.625
-46.5,0.018407769454627854,0.8125
-46.0,-0.05522330836388356,6.5
-46.5,0.11658253987930944,-13.8125
-46.0,-0.04908738521234124,-4.0625
-46.5,-0.04295146206079714,8.9375
-46.5,-0.024543692606171064,-2.4375
-46.5,0.06135923151542588,-1.625
-47.0,-0.14112623248547873,17.0625
-46.5,0.15953400194010658,-5.6875
-47.0,-0.04908738521234035,4.875
-46.5,0.04295146206079803,0.0
-46.5,-0.0674951546669682,1.625
-46.5,0.03681553890925482,0.8125
-46.5,-0.04908738521234035,4.0625
-46.5,0.11658253987930856,-7.3125
-46.5,-0.15339807878856337,9.75
-46.5,0.10431069357622302,-2.4375
-47.0,-0.15953400194010658,14.625
-46.0,0.09203884727313838,4.875
-46.5,-0.018407769454627854,7.3125
-47.0,0.07976700097005374,-2.4375
-46.5,-0.12271846303085177,12.1875
-46.5,-0.04908738521234035,21.9375
-47.0,0.06135923151542588,7.3125
-47.0,0.17180584824319212,-23.5625
-46.5,-0.20862138715244782,10.5625
-46.5,0.17794177139473444,-13.0
-47.0,-0.11658253987930856,0.0
-46.5,0.06135923151542588,-13.8125
-46.5,-0.1349903093339364,5.6875
-47.0,0.06135923151542588,0.8125
-46.5,0.018407769454626965,-1.625
-47.5,0.012271846303085532,-14.625
-47.0,0.05522330836388267,-8.9375
-47.0,-0.07976700097005285,6.5
-47.0,-0.10431069357622391,16.25
-47.0,0.05522330836388356,-1.625
-47.5,-0.030679615757713385,1.625
-47.0,0.012271846303085532,12.1875
-48.0,0.1656699250916489,-20.3125
-47.5,-0.15339807878856426,5.6875
-47.5,0.024543692606170175,5.6875
-47.5,-0.018407769454626965,4.875
-48.0,0.018407769454626965,1.625
-48.0,-0.11658253987930856,30.0625
-48.5,0.14726215563702194,7.3125
-48.0,-0.07976700097005374,10.5625
-48.0,-0.03681553890925482,21.125
-48.0,-0.03681553890925571,26.8125
-48.0,0.14112623248547873,12.1875
-48.5,-0.006135923151542322,14.625
-48.0,-0.018407769454627854,4.875
-48.0,-0.024543692606170175,21.125
-48.5,0.06135923151542588,2.4375
-48.5,-0.012271846303085532,2.4375
-49.0,-0.07976700097005285,16.25
-48.5,0.012271846303084644,21.125
-48.5,0.03681553890925571,17.0625
-48.5,0.0,30.875
-49.0,0.14112623248547873,7.3125
-49.0,-0.024543692606170175,6.5
-49.0,0.006135923151542322,6.5
-49.0,0.00613592315154321,-0.8125
-49.0,-0.11658253987930944,26.8125
-48.5,0.233165079758618,-7.3125
-49.0,-0.31293208072867085,39.0
-48.0,0.2577087723647873,-1.625
-48.0,0.1288543861823941,-9.75
-49.0,-0.3006602344255853,26.8125
-48.5,0.17794177139473444,14.625
-48.5,-0.04908738521234124,-1.625
-48.5,0.0,10.5625
-49.0,0.06749515466696909,5.6875
-48.5,-0.07976700097005374,22.75
-48.5,0.15953400194010658,1.625
-48.5,0.05522330836388356,0.8125
-49.0,-0.09817477042468159,15.4375
-48.5,0.08590292412159606,-4.0625
-48.5,-0.06135923151542588,-9.75
-48.5,0.11044661672776623,-2.4375
-48.5,-0.21475731030398926,5.6875
-48.0,0.17794177139473444,5.6875
-49.0,-0.3067961575771285,38.1875
-49.0,0.27611654181941514,0.0
-49.5,-0.15339807878856426,14.625
-49.0,0.0,21.9375
-48.5,0.11658253987930944,12.1875
-48.0,0.012271846303084644,13.0
-49.0,-0.1288543861823941,13.8125
-49.0,0.2270291566070748,0.8125
-49.0,-0.1349903093339364,-2.4375
-49.0,0.06135923151542588,7.3125
-49.0,0.11044661672776623,-6.5
-48.0,0.012271846303085532,-5.6875
-49.0,-0.04908738521234124,4.0625
-48.5,-0.05522330836388267,0.0
-49.0,-0.024543692606170175,2.4375
-49.0,0.0674951546669682,1.625
-49.0,-0.07976700097005374,8.9375
-48.0,0.09817477042468159,4.0625
-48.5,-0.1656699250916498,19.5
-48.5,0.15339807878856426,7.3125
-49.0,-0.11044661672776623,0.8125
-49.0,-0.15339807878856426,30.875
-49.0,0.11658253987930944,28.4375
-48.0,0.024543692606170175,19.5
-48.5,0.07363107781851053,-2.4375
-49.0,0.0981747704246807,2.4375
-48.5,-0.061359231515424995,-8.9375
-48.5,0.024543692606170175,-4.0625
-49.0,0.018407769454627854,14.625
-49.0,-0.00613592315154321,1.625
-48.5,-0.012271846303084644,-4.875
-48.5,0.07976700097005285,-7.3125
-48.0,-0.018407769454627854,4.0625
-48.5,-0.11658253987930856,19.5
-49.0,0.1656699250916498,-10.5625
-49.0,-0.12271846303085177,7.3125
-49.0,-0.14112623248547873,22.75
-48.5,0.2331650797586171,0.8125
-48.5,0.00613592315154321,-2.4375
-47.5,-0.14112623248547962,8.9375
-49.5,-0.018407769454627854,21.125
-49.0,0.018407769454627854,21.125
-49.0,0.0674951546669682,13.0
-47.5,0.07363107781851141,0.0
-49.0,0.17180584824319123,-21.9375
-48.0,-0.05522330836388267,0.8125
-48.5,-0.11658253987930856,10.5625
-48.0,0.05522330836388267,4.0625
-48.5,-0.07976700097005374,8.125
-48.0,0.07976700097005374,1.625
-48.5,-0.09203884727313838,13.8125
-48.5,0.0981747704246807,2.4375
-47.5,-0.006135923151542322,0.0
-48.5,0.15953400194010658,-15.4375
