80000000000000000000CC00,865.7,3.4606607,7.3125
80000000000000000000CC00,865.7,3.4054372,13.0
80000000000000000000CC00,865.7,3.3931656,14.625
80000000000000000000CC00,865.7,3.4054372,12.1875
80000000000000000000CC00,865.7,3.4545248,4.0625
80000000000000000000CC00,865.7,3.417709,12.1875
80000000000000000000CC00,865.7,3.497476,2.4375
80000000000000000000CC00,865.7,3.5220199,-4.875
80000000000000000000CC00,865.7,3.4115732,13.8125
80000000000000000000CC00,865.7,3.3870296,7.3125
80000000000000000000CC00,865.7,3.429981,9.75
80000000000000000000CC00,865.7,3.423845,12.1875
80000000000000000000CC00,865.7,3.4606607,7.3125
80000000000000000000CC00,865.7,3.5404277,-4.875
80000000000000000000CC00,865.7,3.3808937,16.25
80000000000000000000CC00,865.7,3.429981,8.9375
80000000000000000000CC00,865.7,3.515884,-2.4375
80000000000000000000CC00,865.7,3.5404277,-8.9375
80000000000000000000CC00,865.7,3.5342917,-13.8125
80000000000000000000CC00,865.7,3.3993015,9.75
80000000000000000000CC00,865.7,3.423845,8.9375
80000000000000000000CC00,865.7,3.4852045,0.0
80000000000000000000CC00,865.7,3.509748,-0.8125
80000000000000000000CC00,865.7,3.4606607,8.125
80000000000000000000CC00,865.7,3.4790685,0.8125
80000000000000000000CC00,865.7,3.417709,13.0
80000000000000000000CC00,865.7,3.4606607,4.875
80000000000000000000CC00,865.7,3.509748,-2.4375
80000000000000000000CC00,865.7,3.4729326,4.0625
80000000000000000000CC00,865.7,3.4790685,0.8125
80000000000000000000CC00,865.7,3.503612,2.4375
80000000000000000000CC00,865.7,3.503612,4.0625
80000000000000000000CC00,865.7,3.5465636,-10.5625
80000000000000000000CC00,865.7,3.4790685,4.0625
80000000000000000000CC00,865.7,3.503612,-1.625
80000000000000000000CC00,865.7,3.4913402,1.625
80000000000000000000CC00,865.7,3.436117,13.0
80000000000000000000CC00,865.7,3.4913402,2.4375
80000000000000000000CC00,865.7,3.5220199,-4.0625
80000000000000000000CC00,865.7,3.4667966,4.875
80000000000000000000CC00,865.7,3.4790685,7.3125
80000000000000000000CC00,865.7,3.497476,-0.8125
80000000000000000000CC00,865.7,3.515884,-2.4375
80000000000000000000CC00,865.7,3.515884,8.9375
80000000000000000000CC00,865.7,3.423845,9.75
80000000000000000000CC00,865.7,3.3931656,9.75
80000000000000000000CC00,865.7,3.497476,0.8125
80000000000000000000CC00,865.7,3.429981,10.5625
80000000000000000000CC00,865.7,3.4729326,0.0
80000000000000000000CC00,865.7,3.5404277,-5.6875
80000000000000000000CC00,865.7,3.4115732,8.125
80000000000000000000CC00,865.7,3.423845,14.625
80000000000000000000CC00,865.7,3.4790685,1.625
80000000000000000000CC00,865.7,3.4852045,6.5
80000000000000000000CC00,865.7,3.4422529,6.5
80000000000000000000CC00,865.7,3.4545248,4.875
80000000000000000000CC00,865.7,3.4729326,-0.8125
80000000000000000000CC00,865.7,3.5281558,-7.3125
80000000000000000000CC00,865.7,3.4667966,8.125
80000000000000000000CC00,865.7,3.5404277,-8.9375
80000000000000000000CC00,865.7,3.4667966,4.875
80000000000000000000CC00,865.7,3.436117,13.8125
80000000000000000000CC00,865.7,3.436117,8.125
80000000000000000000CC00,865.7,3.4913402,0.8125
80000000000000000000CC00,865.7,3.497476,-4.0625
80000000000000000000CC00,865.7,3.4667966,2.4375
80000000000000000000CC00,865.7,3.4729326,-0.8125
80000000000000000000CC00,865.7,3.423845,15.4375
80000000000000000000CC00,865.7,3.503612,-7.3125
80000000000000000000CC00,865.7,3.4545248,4.0625
80000000000000000000CC00,865.7,3.423845,4.0625
80000000000000000000CC00,865.7,3.5526996,-15.4375
80000000000000000000CC00,865.7,3.429981,12.1875
80000000000000000000CC00,865.7,3.4852045,-2.4375
80000000000000000000CC00,865.7,3.4115732,10.5625
80000000000000000000CC00,865.7,3.3931656,9.75
80000000000000000000CC00,865.7,3.4054372,14.625
80000000000000000000CC00,865.7,3.5465636,-13.8125
80000000000000000000CC00,865.7,3.497476,-2.4375
80000000000000000000CC00,865.7,3.3993015,13.0
80000000000000000000CC00,865.7,3.4667966,5.6875
80000000000000000000CC00,865.7,3.423845,4.875
80000000000000000000CC00,865.7,3.4790685,-4.875
80000000000000000000CC00,865.7,3.4667966,8.125
80000000000000000000CC00,865.7,3.4422529,1.625
80000000000000000000CC00,865.7,3.4606607,0.8125
80000000000000000000CC00,865.7,3.436117,-2.4375
80000000000000000000CC00,865.7,3.4054372,6.5
80000000000000000000CC00,865.7,3.4667966,-0.8125
80000000000000000000CC00,865.7,3.4667966,0.8125
80000000000000000000CC00,865.7,3.4115732,12.1875
80000000000000000000CC00,865.7,3.3931656,9.75
80000000000000000000CC00,865.7,3.4729326,-0.8125
80000000000000000000CC00,865.7,3.4483888,4.0625
80000000000000000000CC00,865.7,3.5404277,-15.4375
80000000000000000000CC00,865.7,3.4483888,5.6875
80000000000000000000CC00,865.7,3.3931656,0.8125
80000000000000000000CC00,865.7,3.4483888,-2.4375
80000000000000000000CC00,865.7,3.417709,9.75
80000000000000000000CC00,865.7,3.417709,5.6875
80000000000000000000CC00,865.7,3.3808937,4.875
80000000000000000000CC00,865.7,3.4667966,-4.0625
80000000000000000000CC00,865.7,3.503612,-13.0
80000000000000000000CC00,865.7,3.350214,13.0
80000000000000000000CC00,865.7,3.4545248,-7.3125
80000000000000000000CC00,865.7,3.3747578,6.5
80000000000000000000CC00,865.7,3.4115732,4.0625
80000000000000000000CC00,865.7,3.4913402,-8.9375
80000000000000000000CC00,865.7,3.3870296,0.8125
80000000000000000000CC00,865.7,3.4422529,-13.8125
80000000000000000000CC00,865.7,3.423845,-7.3125
80000000000000000000CC00,865.7,3.3931656,2.4375
80000000000000000000CC00,865.7,3.3133986,16.25
80000000000000000000CC00,865.7,3.3870296,5.6875
80000000000000000000CC00,865.7,3.4422529,-8.125
80000000000000000000CC00,865.7,3.35635,4.875
80000000000000000000CC00,865.7,3.282719,12.1875
80000000000000000000CC00,865.7,3.362486,5.6875
80000000000000000000CC00,865.7,3.344078,4.0625
80000000000000000000CC00,865.7,3.270447,16.25
80000000000000000000CC00,865.7,3.3931656,-5.6875
80000000000000000000CC00,865.7,3.2949908,10.5625
80000000000000000000CC00,865.7,3.4422529,-9.75
80000000000000000000CC00,865.7,3.3870296,-2.4375
80000000000000000000CC00,865.7,3.362486,4.0625
80000000000000000000CC00,865.7,3.3686218,0.0
80000000000000000000CC00,865.7,3.350214,4.0625
80000000000000000000CC00,865.7,3.3686218,2.4375
80000000000000000000CC00,865.7,3.3686218,-4.0625
80000000000000000000CC00,865.7,3.350214,-0.8125
80000000000000000000CC00,865.7,3.3072627,6.5
80000000000000000000CC00,865.7,3.3318062,4.875
80000000000000000000CC00,865.7,3.3011267,8.125
80000000000000000000CC00,865.7,3.2888548,13.0
80000000000000000000CC00,865.7,3.3993015,-16.25
80000000000000000000CC00,865.7,3.3318062,0.8125
80000000000000000000CC00,865.7,3.3318062,0.0
80000000000000000000CC00,865.7,3.3072627,8.125
80000000000000000000CC00,865.7,3.264311,10.5625
80000000000000000000CC00,865.7,3.3072627,0.8125
80000000000000000000CC00,865.7,3.344078,-0.8125
80000000000000000000CC00,865.7,3.3256702,-1.625
80000000000000000000CC00,865.7,3.2274957,16.25
80000000000000000000CC00,865.7,3.2949908,-1.625
80000000000000000000CC00,865.7,3.3011267,-5.6875
80000000000000000000CC00,865.7,3.264311,12.1875
80000000000000000000CC00,865.7,3.3072627,4.0625
80000000000000000000CC00,865.7,3.2274957,12.1875
80000000000000000000CC00,865.7,3.264311,0.0
80000000000000000000CC00,865.7,3.35635,-12.1875
80000000000000000000CC00,865.7,3.2336316,5.6875
80000000000000000000CC00,865.7,3.3072627,0.8125
80000000000000000000CC00,865.7,3.2397673,8.125
80000000000000000000CC00,865.7,3.3318062,-13.0
80000000000000000000CC00,865.7,3.3256702,-6.5
80000000000000000000CC00,865.7,3.2090878,14.625
80000000000000000000CC00,865.7,3.350214,-8.9375
80000000000000000000CC00,865.7,3.270447,0.8125
80000000000000000000CC00,865.7,3.3011267,-10.5625
80000000000000000000CC00,865.7,3.202952,10.5625
80000000000000000000CC00,865.7,3.2336316,1.625
80000000000000000000CC00,865.7,3.270447,-9.75
80000000000000000000CC00,865.7,3.202952,12.1875
80000000000000000000CC00,865.7,3.123185,7.3125
80000000000000000000CC00,865.7,3.1415927,12.1875
80000000000000000000CC00,865.7,3.1661363,1.625
80000000000000000000CC00,865.7,3.184544,0.8125
80000000000000000000CC00,865.7,3.0863693,14.625
80000000000000000000CC00,865.7,3.2152238,-6.5
80000000000000000000CC00,865.7,3.2274957,-8.9375
80000000000000000000CC00,865.7,3.1538644,0.8125
80000000000000000000CC00,865.7,3.0618258,15.4375
80000000000000000000CC00,865.7,3.1415927,0.8125
80000000000000000000CC00,865.7,3.0802333,8.125
80000000000000000000CC00,865.7,3.1538644,-4.0625
80000000000000000000CC00,865.7,3.184544,-4.0625
80000000000000000000CC00,865.7,3.1415927,-1.625
80000000000000000000CC00,865.7,3.0740974,12.1875
80000000000000000000CC00,865.7,3.1354568,0.0
80000000000000000000CC00,865.7,3.104777,2.4375
80000000000000000000CC00,865.7,3.0618258,14.625
80000000000000000000CC00,865.7,3.104777,4.875
80000000000000000000CC00,865.7,3.0802333,5.6875
80000000000000000000CC00,865.7,3.0556898,10.5625
80000000000000000000CC00,865.7,3.1661363,-14.625
80000000000000000000CC00,865.7,3.0127382,16.25
80000000000000000000CC00,865.7,3.1600003,-13.0
80000000000000000000CC00,865.7,3.0679617,2.4375
80000000000000000000CC00,865.7,2.9943304,8.9375
80000000000000000000CC00,865.7,3.0556898,4.0625
80000000000000000000CC00,865.7,3.037282,8.9375
80000000000000000000CC00,865.7,3.0004663,14.625
80000000000000000000CC00,865.7,3.0618258,0.8125
80000000000000000000CC00,865.7,3.0004663,13.8125
80000000000000000000CC00,865.7,3.0740974,-4.0625
80000000000000000000CC00,865.7,3.043418,4.875
80000000000000000000CC00,865.7,3.037282,8.125
80000000000000000000CC00,865.7,3.0495539,6.5
80000000000000000000CC00,865.7,2.9820588,9.75
80000000000000000000CC00,865.7,3.031146,8.9375
80000000000000000000CC00,865.7,2.9943304,12.1875
80000000000000000000CC00,865.7,3.0127382,8.125
80000000000000000000CC00,865.7,3.0925052,-4.875
80000000000000000000CC00,865.7,3.123185,-8.9375
80000000000000000000CC00,865.7,3.0495539,-1.625
80000000000000000000CC00,865.7,2.9820588,6.5
80000000000000000000CC00,865.7,3.0495539,-2.4375
80000000000000000000CC00,865.7,2.963651,17.0625
80000000000000000000CC00,865.7,2.9759228,2.4375
80000000000000000000CC00,865.7,2.9268353,14.625
80000000000000000000CC00,865.7,2.951379,13.8125
80000000000000000000CC00,865.7,2.963651,13.0
80000000000000000000CC00,865.7,3.0679617,-8.9375
80000000000000000000CC00,865.7,3.0740974,-6.5
80000000000000000000CC00,865.7,2.9268353,12.1875
80000000000000000000CC00,865.7,3.0188742,-0.8125
80000000000000000000CC00,865.7,3.02501,-4.0625
80000000000000000000CC00,865.7,2.9943304,0.8125
80000000000000000000CC00,865.7,2.951379,13.0
80000000000000000000CC00,865.7,2.9329712,13.0
80000000000000000000CC00,865.7,3.043418,-2.4375
80000000000000000000CC00,865.7,2.963651,4.0625
80000000000000000000CC00,865.7,2.9329712,8.125
80000000000000000000CC00,865.7,2.9391072,12.1875
80000000000000000000CC00,865.7,2.9391072,7.3125
80000000000000000000CC00,865.7,3.02501,-4.0625
80000000000000000000CC00,865.7,2.9391072,14.625
80000000000000000000CC00,865.7,2.9881945,1.625
80000000000000000000CC00,865.7,2.9145634,13.8125
80000000000000000000CC00,865.7,2.969787,2.4375
80000000000000000000CC00,865.7,2.969787,4.0625
80000000000000000000CC00,865.7,3.0066023,-0.8125
80000000000000000000CC00,865.7,2.9329712,13.0
80000000000000000000CC00,865.7,3.0127382,0.0
80000000000000000000CC00,865.7,2.9881945,-1.625
80000000000000000000CC00,865.7,3.0802333,-13.8125
80000000000000000000CC00,865.7,2.9820588,4.0625
80000000000000000000CC00,865.7,3.0556898,-6.5
80000000000000000000CC00,865.7,3.0679617,-9.75
80000000000000000000CC00,865.7,3.110913,-16.25
80000000000000000000CC00,865.7,2.9452431,0.8125
80000000000000000000CC00,865.7,2.969787,7.3125
80000000000000000000CC00,865.7,2.9759228,4.875
80000000000000000000CC00,865.7,2.9759228,6.5
80000000000000000000CC00,865.7,2.9881945,9.75
80000000000000000000CC00,865.7,2.9329712,15.4375
80000000000000000000CC00,865.7,2.9452431,6.5
80000000000000000000CC00,865.7,2.951379,8.9375
80000000000000000000CC00,865.7,2.9145634,4.0625
80000000000000000000CC00,865.7,2.957515,-4.0625
80000000000000000000CC00,865.7,2.89002,4.875
80000000000000000000CC00,865.7,2.8532043,8.125
80000000000000000000CC00,865.7,2.8286605,8.9375
80000000000000000000CC00,865.7,2.89002,-4.875
80000000000000000000CC00,865.7,2.8532043,-4.0625
80000000000000000000CC00,865.7,2.797981,2.4375
80000000000000000000CC00,865.7,2.7734373,4.0625
80000000000000000000CC00,865.7,2.718214,13.0
80000000000000000000CC00,865.7,2.730486,8.125
80000000000000000000CC00,865.7,2.8409324,-9.75
80000000000000000000CC00,865.7,2.7734373,1.625
80000000000000000000CC00,865.7,2.804117,-6.5
80000000000000000000CC00,865.7,2.797981,-4.875
80000000000000000000CC00,865.7,2.7673013,4.0625
80000000000000000000CC00,865.7,2.810253,-4.0625
80000000000000000000CC00,865.7,2.730486,5.6875
80000000000000000000CC00,865.7,2.7427576,1.625
80000000000000000000CC00,865.7,2.6629906,12.1875
80000000000000000000CC00,865.7,2.730486,1.625
80000000000000000000CC00,865.7,2.6629906,10.5625
80000000000000000000CC00,865.7,2.6875343,4.875
80000000000000000000CC00,865.7,2.730486,1.625
80000000000000000000CC00,865.7,2.7059422,2.4375
80000000000000000000CC00,865.7,2.7427576,-5.6875
80000000000000000000CC00,865.7,2.6568546,4.875
80000000000000000000CC00,865.7,2.6691265,0.8125
80000000000000000000CC00,865.7,2.6139033,12.1875
80000000000000000000CC00,865.7,2.6752625,6.5
80000000000000000000CC00,865.7,2.6568546,1.625
80000000000000000000CC00,865.7,2.6691265,-2.4375
80000000000000000000CC00,865.7,2.5709517,13.0
80000000000000000000CC00,865.7,2.632311,-2.4375
80000000000000000000CC00,865.7,2.6200392,-2.4375
80000000000000000000CC00,865.7,2.5709517,5.6875
80000000000000000000CC00,865.7,2.5709517,9.75
80000000000000000000CC00,865.7,2.6139033,-0.8125
80000000000000000000CC00,865.7,2.5832236,0.8125
80000000000000000000CC00,865.7,2.6261752,-6.5
80000000000000000000CC00,865.7,2.552544,4.0625
80000000000000000000CC00,865.7,2.5402722,8.125
80000000000000000000CC00,865.7,2.5770876,0.0
80000000000000000000CC00,865.7,2.5709517,-0.8125
80000000000000000000CC00,865.7,2.5341363,5.6875
80000000000000000000CC00,865.7,2.5218644,0.8125
80000000000000000000CC00,865.7,2.4911847,5.6875
80000000000000000000CC00,865.7,2.4911847,4.0625
80000000000000000000CC00,865.7,2.5095925,0.0
80000000000000000000CC00,865.7,2.4543693,8.9375
80000000000000000000CC00,865.7,2.4973207,-1.625
80000000000000000000CC00,865.7,2.4543693,1.625
80000000000000000000CC00,865.7,2.4359615,4.0625
80000000000000000000CC00,865.7,2.4605052,-0.8125
80000000000000000000CC00,865.7,2.4911847,-4.875
80000000000000000000CC00,865.7,2.4175537,4.0625
80000000000000000000CC00,865.7,2.4236896,2.4375
80000000000000000000CC00,865.7,2.4298255,-4.0625
80000000000000000000CC00,865.7,2.3991458,1.625
80000000000000000000CC00,865.7,2.3991458,1.625
80000000000000000000CC00,865.7,2.3684664,2.4375
80000000000000000000CC00,865.7,2.3623304,2.4375
80000000000000000000CC00,865.7,2.3930101,-1.625
80000000000000000000CC00,865.7,2.3255148,5.6875
80000000000000000000CC00,865.7,2.3071072,4.875
80000000000000000000CC00,865.7,2.3255148,-0.8125
80000000000000000000CC00,865.7,2.3009713,2.4375
80000000000000000000CC00,865.7,2.2886994,4.0625
80000000000000000000CC00,865.7,2.3316507,-5.6875
80000000000000000000CC00,865.7,2.2027965,8.9375
80000000000000000000CC00,865.7,2.2396119,2.4375
80000000000000000000CC00,865.7,2.1905246,6.5
80000000000000000000CC00,865.7,2.2150683,0.0
80000000000000000000CC00,865.7,2.1659808,8.9375
80000000000000000000CC00,865.7,2.1598449,4.875
80000000000000000000CC00,865.7,2.1414373,5.6875
80000000000000000000CC00,865.7,2.153709,5.6875
80000000000000000000CC00,865.7,2.1414373,0.8125
80000000000000000000CC00,865.7,2.080078,6.5
80000000000000000000CC00,865.7,2.073942,1.625
80000000000000000000CC00,865.7,2.0187187,7.3125
80000000000000000000CC00,865.7,2.0309906,1.625
80000000000000000000CC00,865.7,1.9880391,5.6875
80000000000000000000CC00,865.7,1.9941751,0.8125
80000000000000000000CC00,865.7,1.9266798,6.5
80000000000000000000CC00,865.7,1.9450877,-1.625
80000000000000000000CC00,865.7,1.8898643,4.875
80000000000000000000CC00,865.7,1.8653207,0.0
80000000000000000000CC00,865.7,1.7364663,4.875
80000000000000000000CC00,865.7,1.5892041,1.625
80000000000000000000CC00,865.7,1.3989905,7.3125
80000000000000000000CC00,865.7,1.2026409,1.625
80000000000000000000CC00,865.7,0.9387962,5.6875
80000000000000000000CC00,865.7,0.77926224,0.0
80000000000000000000CC00,865.7,0.6688156,4.0625
80000000000000000000CC00,865.7,0.65040785,6.5
80000000000000000000CC00,865.7,0.6135923,12.1875
80000000000000000000CC00,865.7,0.6442719,7.3125
80000000000000000000CC00,865.7,0.6688156,4.0625
80000000000000000000CC00,865.7,0.6810875,4.0625
80000000000000000000CC00,865.7,0.72403896,-1.625
80000000000000000000CC00,865.7,0.70563114,0.8125
80000000000000000000CC00,865.7,0.67495155,6.5
80000000000000000000CC00,865.7,0.6565438,7.3125
80000000000000000000CC00,865.7,0.7117671,-1.625
80000000000000000000CC00,865.7,0.6933593,1.625
80000000000000000000CC00,865.7,0.69949526,0.0
80000000000000000000CC00,865.7,0.6872234,6.5
80000000000000000000CC00,865.7,0.62586415,13.8125
80000000000000000000CC00,865.7,0.65040785,8.125
80000000000000000000CC00,865.7,0.7424467,-4.0625
80000000000000000000CC00,865.7,0.67495155,5.6875
80000000000000000000CC00,865.7,0.7117671,0.0
80000000000000000000CC00,865.7,0.73017484,0.8125
80000000000000000000CC00,865.7,0.6933593,6.5
80000000000000000000CC00,865.7,0.6933593,8.125
80000000000000000000CC00,865.7,0.69949526,4.0625
80000000000000000000CC00,865.7,0.7485826,-4.875
80000000000000000000CC00,865.7,0.7363108,0.0
80000000000000000000CC00,865.7,0.72403896,2.4375
80000000000000000000CC00,865.7,0.70563114,6.5
80000000000000000000CC00,865.7,0.717903,5.6875
80000000000000000000CC00,865.7,0.7669904,2.4375
80000000000000000000CC00,865.7,0.7731263,0.8125
80000000000000000000CC00,865.7,0.80380595,-4.875
80000000000000000000CC00,865.7,0.80380595,-2.4375
80000000000000000000CC00,865.7,0.7608545,7.3125
80000000000000000000CC00,865.7,0.79153407,6.5
80000000000000000000CC00,865.7,0.81607777,-0.8125
80000000000000000000CC00,865.7,0.83448553,-2.4375
80000000000000000000CC00,865.7,0.80380595,4.0625
80000000000000000000CC00,865.7,0.81607777,2.4375
80000000000000000000CC00,865.7,0.79767,8.125
80000000000000000000CC00,865.7,0.8467574,1.625
80000000000000000000CC00,865.7,0.8467574,1.625
80000000000000000000CC00,865.7,0.88357294,0.0
80000000000000000000CC00,865.7,0.8897089,-2.4375
80000000000000000000CC00,865.7,0.8651652,4.0625
80000000000000000000CC00,865.7,0.9019807,-0.8125
80000000000000000000CC00,865.7,0.9387962,-4.875
80000000000000000000CC00,865.7,0.8897089,4.875
80000000000000000000CC00,865.7,0.90811664,0.8125
80000000000000000000CC00,865.7,0.92038846,0.8125
80000000000000000000CC00,865.7,0.9265244,2.4375
80000000000000000000CC00,865.7,0.92038846,1.625
80000000000000000000CC00,865.7,0.92038846,4.0625
80000000000000000000CC00,865.7,0.94493216,0.0
80000000000000000000CC00,865.7,0.96947587,0.0
80000000000000000000CC00,865.7,0.9633399,2.4375
80000000000000000000CC00,865.7,0.9633399,4.0625
80000000000000000000CC00,865.7,0.9756118,1.625
80000000000000000000CC00,865.7,0.96947587,4.875
80000000000000000000CC00,865.7,0.9878836,4.0625
80000000000000000000CC00,865.7,0.9756118,7.3125
80000000000000000000CC00,865.7,0.9817477,7.3125
80000000000000000000CC00,865.7,1.0124273,0.8125
80000000000000000000CC00,865.7,0.9756118,8.9375
80000000000000000000CC00,865.7,0.9817477,7.3125
80000000000000000000CC00,865.7,1.0246992,1.625
80000000000000000000CC00,865.7,1.0860584,-6.5
80000000000000000000CC00,865.7,1.0492429,0.8125
80000000000000000000CC00,865.7,1.0246992,8.9375
80000000000000000000CC00,865.7,1.036971,8.125
80000000000000000000CC00,865.7,1.0676507,4.875
80000000000000000000CC00,865.7,1.0921943,1.625
80000000000000000000CC00,865.7,1.0983303,-0.8125
80000000000000000000CC00,865.7,1.0860584,4.0625
80000000000000000000CC00,865.7,1.0921943,4.0625
80000000000000000000CC00,865.7,1.0799224,8.125
80000000000000000000CC00,865.7,1.1106021,4.875
80000000000000000000CC00,865.7,1.1106021,4.0625
80000000000000000000CC00,865.7,1.1474177,-0.8125
80000000000000000000CC00,865.7,1.1596894,0.0
80000000000000000000CC00,865.7,1.1351458,1.625
80000000000000000000CC00,865.7,1.1351458,4.875
80000000000000000000CC00,865.7,1.1290098,8.125
80000000000000000000CC00,865.7,1.1658254,5.6875
80000000000000000000CC00,865.7,1.1658254,2.4375
80000000000000000000CC00,865.7,1.1474177,6.5
80000000000000000000CC00,865.7,1.1965051,0.0
80000000000000000000CC00,865.7,1.1965051,0.8125
80000000000000000000CC00,865.7,1.1658254,5.6875
80000000000000000000CC00,865.7,1.2087768,0.8125
80000000000000000000CC00,865.7,1.1965051,0.8125
80000000000000000000CC00,865.7,1.1965051,6.5
80000000000000000000CC00,865.7,1.1903691,4.0625
80000000000000000000CC00,865.7,1.1965051,4.875
80000000000000000000CC00,865.7,1.2087768,4.0625
80000000000000000000CC00,865.7,1.1535536,8.9375
80000000000000000000CC00,865.7,1.2333206,-1.625
80000000000000000000CC00,865.7,1.2640002,-4.0625
80000000000000000000CC00,865.7,1.2210487,4.875
80000000000000000000CC00,865.7,1.2455924,0.0
80000000000000000000CC00,865.7,1.2087768,5.6875
80000000000000000000CC00,865.7,1.2210487,4.0625
80000000000000000000CC00,865.7,1.2517283,0.0
80000000000000000000CC00,865.7,1.2394565,0.0
80000000000000000000CC00,865.7,1.2087768,6.5
80000000000000000000CC00,865.7,1.2333206,4.875
80000000000000000000CC00,865.7,1.2455924,1.625
80000000000000000000CC00,865.7,1.2640002,-0.8125
80000000000000000000CC00,865.7,1.276272,-1.625
80000000000000000000CC00,865.7,1.2026409,8.9375
80000000000000000000CC00,865.7,1.2394565,7.3125
80000000000000000000CC00,865.7,1.3130876,-2.4375
80000000000000000000CC00,865.7,1.2517283,4.875
80000000000000000000CC00,865.7,1.276272,1.625
80000000000000000000CC00,865.7,1.2824079,0.8125
80000000000000000000CC00,865.7,1.2701361,6.5
80000000000000000000CC00,865.7,1.2885438,0.8125
80000000000000000000CC00,865.7,1.3130876,0.0
80000000000000000000CC00,865.7,1.2946798,5.6875
80000000000000000000CC00,865.7,1.2824079,6.5
80000000000000000000CC00,865.7,1.3008157,1.625
80000000000000000000CC00,865.7,1.3314953,1.625
80000000000000000000CC00,865.7,1.362175,-1.625
80000000000000000000CC00,865.7,1.3130876,8.125
80000000000000000000CC00,865.7,1.3376312,7.3125
80000000000000000000CC00,865.7,1.3683108,2.4375
80000000000000000000CC00,865.7,1.3683108,4.875
80000000000000000000CC00,865.7,1.4112623,1.625
80000000000000000000CC00,865.7,1.3928546,5.6875
80000000000000000000CC00,865.7,1.4726216,1.625
80000000000000000000CC00,865.7,1.441942,4.875
80000000000000000000CC00,865.7,1.4726216,5.6875
80000000000000000000CC00,865.7,1.4971652,-0.8125
80000000000000000000CC00,865.7,1.5033011,4.0625
80000000000000000000CC00,865.7,1.5401167,0.0
80000000000000000000CC00,865.7,1.521709,1.625
80000000000000000000CC00,865.7,1.5094371,6.5
80000000000000000000CC00,865.7,1.5401167,1.625
80000000000000000000CC00,865.7,1.5523885,4.0625
80000000000000000000CC00,865.7,1.5585245,4.875
80000000000000000000CC00,865.7,1.601476,0.0
80000000000000000000CC00,865.7,1.6382915,-4.0625
80000000000000000000CC00,865.7,1.6137478,2.4375
80000000000000000000CC00,865.7,1.6382915,0.8125
80000000000000000000CC00,865.7,1.6505634,1.625
80000000000000000000CC00,865.7,1.681243,0.0
80000000000000000000CC00,865.7,1.6996508,-1.625
80000000000000000000CC00,865.7,1.7057866,-2.4375
80000000000000000000CC00,865.7,1.7180585,4.0625
80000000000000000000CC00,865.7,1.6689711,9.75
80000000000000000000CC00,865.7,1.7241944,0.8125
80000000000000000000CC00,865.7,1.7241944,6.5
80000000000000000000CC00,865.7,1.7364663,6.5
80000000000000000000CC00,865.7,1.7855537,0.8125
80000000000000000000CC00,865.7,1.748738,8.125
80000000000000000000CC00,865.7,1.7855537,5.6875
80000000000000000000CC00,865.7,1.834641,1.625
80000000000000000000CC00,865.7,1.7978255,10.5625
80000000000000000000CC00,865.7,1.8530488,6.5
80000000000000000000CC00,865.7,1.9021362,0.8125
80000000000000000000CC00,865.7,1.9205439,5.6875
80000000000000000000CC00,865.7,1.9757673,5.6875
80000000000000000000CC00,865.7,2.0125828,5.6875
80000000000000000000CC00,865.7,2.0555344,2.4375
80000000000000000000CC00,865.7,2.073942,5.6875
80000000000000000000CC00,865.7,2.0862138,5.6875
80000000000000000000CC00,865.7,2.1414373,0.8125
80000000000000000000CC00,865.7,2.1782527,-0.8125
80000000000000000000CC00,865.7,2.1782527,2.4375
80000000000000000000CC00,865.7,2.1659808,7.3125
80000000000000000000CC00,865.7,2.1905246,7.3125
80000000000000000000CC00,865.7,2.2212043,5.6875
80000000000000000000CC00,865.7,2.2948353,-1.625
80000000000000000000CC00,865.7,2.3193789,0.8125
80000000000000000000CC00,865.7,2.3500586,8.125
80000000000000000000CC00,865.7,2.4114177,4.875
80000000000000000000CC00,865.7,2.8961558,-0.8125
80000000000000000000CC00,865.7,2.883884,6.5
80000000000000000000CC00,865.7,2.9452431,0.0
80000000000000000000CC00,865.7,2.951379,4.0625
80000000000000000000CC00,865.7,3.0066023,-1.625
80000000000000000000CC00,865.7,2.9881945,4.0625
80000000000000000000CC00,865.7,3.0740974,-5.6875
80000000000000000000CC00,865.7,3.037282,5.6875
80000000000000000000CC00,865.7,3.037282,4.0625
80000000000000000000CC00,865.7,3.0740974,2.4375
80000000000000000000CC00,865.7,3.1600003,-7.3125
80000000000000000000CC00,865.7,3.1293209,1.625
80000000000000000000CC00,865.7,3.123185,5.6875
80000000000000000000CC00,865.7,3.1477287,5.6875
80000000000000000000CC00,865.7,3.1722722,7.3125
80000000000000000000CC00,865.7,3.202952,4.0625
80000000000000000000CC00,865.7,3.2397673,-0.8125
80000000000000000000CC00,865.7,3.2336316,5.6875
80000000000000000000CC00,865.7,3.2949908,-0.8125
80000000000000000000CC00,865.7,3.282719,4.875
80000000000000000000CC00,865.7,3.276583,7.3125
80000000000000000000CC00,865.7,3.350214,0.8125
80000000000000000000CC00,865.7,3.4054372,-5.6875
80000000000000000000CC00,865.7,3.35635,4.0625
80000000000000000000CC00,865.7,3.3931656,1.625
80000000000000000000CC00,865.7,3.423845,2.4375
80000000000000000000CC00,865.7,3.3993015,9.75
80000000000000000000CC00,865.7,3.4115732,7.3125
80000000000000000000CC00,865.7,3.4606607,1.625
80000000000000000000CC00,865.7,3.497476,-2.4375
80000000000000000000CC00,865.7,3.4606607,2.4375
80000000000000000000CC00,865.7,3.4729326,7.3125
80000000000000000000CC00,865.7,3.4790685,4.875
80000000000000000000CC00,865.7,3.4913402,5.6875
80000000000000000000CC00,865.7,3.4913402,4.875
80000000000000000000CC00,865.7,3.5465636,-4.0625
80000000000000000000CC00,865.7,3.4606607,10.5625
80000000000000000000CC00,865.7,3.4545248,8.9375
80000000000000000000CC00,865.7,3.497476,4.875
80000000000000000000CC00,865.7,3.497476,2.4375
80000000000000000000CC00,865.7,3.577243,-9.75
80000000000000000000CC00,865.7,3.5465636,-8.125
80000000000000000000CC00,865.7,3.4790685,6.5
80000000000000000000CC00,865.7,3.5711074,-6.5
80000000000000000000CC00,865.7,3.4483888,13.8125
80000000000000000000CC00,865.7,3.5649714,-4.875
80000000000000000000CC00,865.7,3.4545248,2.4375
80000000000000000000CC00,865.7,3.4422529,6.5
80000000000000000000CC00,865.7,3.503612,2.4375
80000000000000000000CC00,865.7,3.503612,-4.875
80000000000000000000CC00,865.7,3.3686218,12.1875
80000000000000000000CC00,865.7,3.3747578,5.6875
80000000000000000000CC00,865.7,3.4115732,-5.6875
80000000000000000000CC00,865.7,3.3318062,7.3125
80000000000000000000CC00,865.7,3.3195345,4.875
80000000000000000000CC00,865.7,3.3318062,-1.625
80000000000000000000CC00,865.7,3.3256702,-4.0625
80000000000000000000CC00,865.7,3.3808937,-9.75
80000000000000000000CC00,865.7,3.2274957,14.625
80000000000000000000CC00,865.7,3.1784081,17.875
80000000000000000000CC00,865.7,3.3256702,-8.125
80000000000000000000CC00,865.7,3.2213597,2.4375
80000000000000000000CC00,865.7,3.2336316,7.3125
80000000000000000000CC00,865.7,3.2336316,9.75
80000000000000000000CC00,865.7,3.196816,14.625
80000000000000000000CC00,865.7,3.2581751,0.8125
80000000000000000000CC00,865.7,3.1784081,4.0625
80000000000000000000CC00,865.7,3.3379421,-25.1875
80000000000000000000CC00,865.7,3.3072627,-8.9375
80000000000000000000CC00,865.7,3.202952,-1.625
80000000000000000000CC00,865.7,3.1415927,6.5
80000000000000000000CC00,865.7,3.19068,-4.875
80000000000000000000CC00,865.7,3.1293209,1.625
80000000000000000000CC00,865.7,2.9881945,10.5625
80000000000000000000CC00,865.7,2.9206994,17.875
80000000000000000000CC00,865.7,3.0127382,0.0
80000000000000000000CC00,865.7,2.9329712,0.8125
80000000000000000000CC00,865.7,2.7795732,8.9375
80000000000000000000CC00,865.7,2.9329712,-5.6875
80000000000000000000CC00,865.7,2.7550294,-8.9375
80000000000000000000CC00,865.7,2.8470683,-19.5
80000000000000000000CC00,865.7,2.7059422,13.0
80000000000000000000CC00,865.7,2.5954955,7.3125
80000000000000000000CC00,865.7,2.6568546,-4.875
80000000000000000000CC00,865.7,2.7366216,-28.4375
80000000000000000000CC00,865.7,2.7059422,-14.625
80000000000000000000CC00,865.7,2.4543693,8.125
80000000000000000000CC00,865.7,2.638447,-15.4375
80000000000000000000CC00,865.7,2.3991458,34.9375
80000000000000000000CC00,865.7,2.4543693,5.6875
80000000000000000000CC00,865.7,2.4236896,6.5
80000000000000000000CC00,865.7,2.4359615,14.625
80000000000000000000CC00,865.7,2.4175537,4.0625
80000000000000000000CC00,865.7,2.3193789,13.8125
80000000000000000000CC00,865.7,2.5893595,-28.4375
80000000000000000000CC00,865.7,2.2027965,22.75
80000000000000000000CC00,865.7,2.3623304,4.0625
80000000000000000000CC00,865.7,2.4236896,-19.5
80000000000000000000CC00,865.7,2.2641556,9.75
80000000000000000000CC00,865.7,2.233476,7.3125
80000000000000000000CC00,865.7,2.1598449,23.5625
80000000000000000000CC00,865.7,2.2764275,-1.625
80000000000000000000CC00,865.7,2.4298255,-34.125
80000000000000000000CC00,865.7,2.0555344,17.875
80000000000000000000CC00,865.7,2.1721168,-0.8125
80000000000000000000CC00,865.7,2.0555344,0.0
80000000000000000000CC00,865.7,2.0309906,9.75
80000000000000000000CC00,865.7,2.1782527,-15.4375
80000000000000000000CC00,865.7,1.8960003,16.25
80000000000000000000CC00,865.7,2.0371265,-14.625
80000000000000000000CC00,865.7,1.8039614,13.0
80000000000000000000CC00,865.7,1.748738,35.75
80000000000000000000CC00,865.7,1.7671459,-0.8125
80000000000000000000CC00,865.7,1.7610099,4.875
80000000000000000000CC00,865.7,1.8775924,-6.5
80000000000000000000CC00,865.7,1.4235342,45.5625
80000000000000000000CC00,865.7,1.6873789,0.0
80000000000000000000CC00,865.7,1.5585245,0.8125
80000000000000000000CC00,865.7,1.5033011,0.0
80000000000000000000CC00,865.7,1.3867186,7.3125
80000000000000000000CC00,865.7,1.601476,-13.0
80000000000000000000CC00,865.7,1.4235342,-13.8125
80000000000000000000CC00,865.7,1.2701361,19.5
80000000000000000000CC00,865.7,0.94493216,25.1875
80000000000000000000CC00,865.7,0.89584476,26.8125
80000000000000000000CC00,865.7,0.8713011,21.9375
80000000000000000000CC00,865.7,1.0246992,-10.5625
80000000000000000000CC00,865.7,0.79767,4.875
80000000000000000000CC00,865.7,0.6626797,13.8125
80000000000000000000CC00,865.7,0.5522331,13.8125
80000000000000000000CC00,865.7,0.54609716,0.8125
80000000000000000000CC00,865.7,0.2699806,30.875
80000000000000000000CC00,865.7,6.2647777,65.0625
80000000000000000000CC00,865.7,0.47246608,-22.75
80000000000000000000CC00,865.7,0.030679615,34.9375
80000000000000000000CC00,865.7,0.159534,9.75
80000000000000000000CC00,865.7,6.2770495,22.75
80000000000000000000CC00,865.7,0.05522331,0.8125
80000000000000000000CC00,865.7,0.05522331,0.8125
80000000000000000000CC00,865.7,0.012271847,-2.4375
80000000000000000000CC00,865.7,5.8720784,58.5625
80000000000000000000CC00,865.7,6.0807,-2.4375
80000000000000000000CC00,865.7,6.1543307,-4.875
80000000000000000000CC00,865.7,6.1359234,-8.9375
80000000000000000000CC00,865.7,5.902758,14.625
80000000000000000000CC00,865.7,5.8475347,17.875
80000000000000000000CC00,865.7,5.908894,7.3125
80000000000000000000CC00,865.7,5.988661,0.0
80000000000000000000CC00,865.7,5.896622,-7.3125
80000000000000000000CC00,865.7,5.8413987,-13.0
80000000000000000000CC00,865.7,5.761632,-9.75
80000000000000000000CC00,865.7,5.510059,34.125
80000000000000000000CC00,865.7,5.5284667,5.6875
80000000000000000000CC00,865.7,5.3750687,17.875
80000000000000000000CC00,865.7,5.6941366,-30.875
80000000000000000000CC00,865.7,5.608234,-16.25
80000000000000000000CC00,865.7,5.460972,-0.8125
80000000000000000000CC00,865.7,5.350525,-5.6875
80000000000000000000CC00,865.7,5.270758,24.375
80000000000000000000CC00,865.7,5.460972,-22.75
80000000000000000000CC00,865.7,5.2339425,-2.4375
80000000000000000000CC00,865.7,5.043729,22.75
80000000000000000000CC00,865.7,4.890331,44.75
80000000000000000000CC00,865.7,4.9946413,21.125
80000000000000000000CC00,865.7,5.025321,4.0625
80000000000000000000CC00,865.7,4.9148746,13.0
80000000000000000000CC00,865.7,5.025321,-4.875
80000000000000000000CC00,865.7,5.0560007,-7.3125
80000000000000000000CC00,865.7,4.9332824,4.0625
80000000000000000000CC00,865.7,4.9946413,-5.6875
80000000000000000000CC00,865.7,4.9148746,4.0625
80000000000000000000CC00,865.7,4.8964667,-2.4375
80000000000000000000CC00,865.7,4.8351073,2.4375
80000000000000000000CC00,865.7,4.8105636,0.0
80000000000000000000CC00,865.7,4.724661,8.125
80000000000000000000CC00,865.7,4.95169,-17.875
80000000000000000000CC00,865.7,4.8351073,-5.6875
80000000000000000000CC00,865.7,4.7553406,6.5
80000000000000000000CC00,865.7,4.8166995,-8.9375
80000000000000000000CC00,865.7,4.6817093,9.75
80000000000000000000CC00,865.7,4.7737484,-4.0625
80000000000000000000CC00,865.7,4.693981,-1.625
80000000000000000000CC00,865.7,4.8166995,-6.5
80000000000000000000CC00,865.7,4.693981,0.0
80000000000000000000CC00,865.7,4.6080785,5.6875
80000000000000000000CC00,865.7,4.6571655,-10.5625
80000000000000000000CC00,865.7,4.6387577,-6.5
80000000000000000000CC00,865.7,4.6755733,-4.0625
80000000000000000000CC00,865.7,4.687845,-17.875
80000000000000000000CC00,865.7,4.473088,19.5
80000000000000000000CC00,865.7,4.565127,-2.4375
80000000000000000000CC00,865.7,4.4914956,-2.4375
80000000000000000000CC00,865.7,4.565127,-10.5625
80000000000000000000CC00,865.7,4.4362726,7.3125
80000000000000000000CC00,865.7,4.466952,17.0625
80000000000000000000CC00,865.7,4.4853597,-1.625
80000000000000000000CC00,865.7,4.5283113,-0.8125
80000000000000000000CC00,865.7,4.381049,9.75
80000000000000000000CC00,865.7,4.4546804,-2.4375
80000000000000000000CC00,865.7,4.4362726,-2.4375
80000000000000000000CC00,865.7,4.4240007,1.625
80000000000000000000CC00,865.7,4.466952,-6.5
80000000000000000000CC00,865.7,4.411729,0.8125
80000000000000000000CC00,865.7,4.3565054,6.5
80000000000000000000CC00,865.7,4.387185,0.8125
80000000000000000000CC00,865.7,4.301282,10.5625
80000000000000000000CC00,865.7,4.466952,-8.9375
80000000000000000000CC00,865.7,4.3503695,8.125
80000000000000000000CC00,865.7,4.4792237,-21.9375
80000000000000000000CC00,865.7,4.5037675,-26.8125
80000000000000000000CC00,865.7,4.4301367,-10.5625
80000000000000000000CC00,865.7,4.417865,-10.5625
80000000000000000000CC00,865.7,4.387185,-14.625
80000000000000000000CC00,865.7,4.3503695,-4.875
80000000000000000000CC00,865.7,4.3565054,0.0
80000000000000000000CC00,865.7,4.387185,-8.125
80000000000000000000CC00,865.7,4.411729,-16.25
80000000000000000000CC00,865.7,4.3565054,-4.0625
80000000000000000000CC00,865.7,4.1969714,8.9375
80000000000000000000CC00,865.7,4.307418,-0.8125
80000000000000000000CC00,865.7,4.2767386,5.6875
80000000000000000000CC00,865.7,4.2767386,-2.4375
80000000000000000000CC00,865.7,4.3626413,-17.0625
80000000000000000000CC00,865.7,4.301282,-7.3125
80000000000000000000CC00,865.7,4.307418,-7.3125
80000000000000000000CC00,865.7,4.3565054,-10.5625
80000000000000000000CC00,865.7,4.3442335,-13.0
80000000000000000000CC00,865.7,4.227651,6.5
80000000000000000000CC00,865.7,4.264467,-7.3125
80000000000000000000CC00,865.7,4.3565054,-16.25
80000000000000000000CC00,865.7,4.3565054,-12.1875
80000000000000000000CC00,865.7,4.233787,4.875
80000000000000000000CC00,865.7,4.264467,-4.875
80000000000000000000CC00,865.7,4.313554,8.125
80000000000000000000CC00,865.7,4.3687773,-16.25
80000000000000000000CC00,865.7,4.3258257,0.0
80000000000000000000CC00,865.7,4.2031074,6.5
80000000000000000000CC00,865.7,4.2092433,-4.875
80000000000000000000CC00,865.7,4.3258257,-7.3125
80000000000000000000CC00,865.7,4.307418,-5.6875
80000000000000000000CC00,865.7,4.295146,-7.3125
80000000000000000000CC00,865.7,4.221515,2.4375
80000000000000000000CC00,865.7,4.135612,9.75
80000000000000000000CC00,865.7,4.3196898,-0.8125
80000000000000000000CC00,865.7,4.405593,-15.4375
80000000000000000000CC00,865.7,4.387185,-10.5625
80000000000000000000CC00,865.7,4.1908355,15.4375
80000000000000000000CC00,865.7,4.295146,2.4375
80000000000000000000CC00,865.7,4.5958066,-34.9375
80000000000000000000CC00,865.7,4.473088,-1.625
80000000000000000000CC00,865.7,4.4485445,-1.625
80000000000000000000CC00,865.7,4.6080785,-10.5625
80000000000000000000CC00,865.7,4.6019425,-6.5
80000000000000000000CC00,865.7,4.626486,1.625
80000000000000000000CC00,865.7,4.6817093,2.4375
80000000000000000000CC00,865.7,4.8228354,-2.4375
80000000000000000000CC00,865.7,4.8044276,21.125
80000000000000000000CC00,865.7,5.2523503,-6.5
80000000000000000000CC00,865.7,5.344389,17.0625
80000000000000000000CC00,865.7,5.761632,17.875
80000000000000000000CC00,865.7,5.9518456,48.8125
80000000000000000000CC00,865.7,0.25157285,-5.6875
80000000000000000000CC00,865.7,0.049087387,75.625
80000000000000000000CC00,865.7,0.61972827,4.875
80000000000000000000CC00,865.7,0.7117671,1.625
80000000000000000000CC00,865.7,0.92038846,-2.4375
80000000000000000000CC00,865.7,0.54609716,45.5625
80000000000000000000CC00,865.7,1.1474177,-27.625
80000000000000000000CC00,865.7,1.1780972,-12.1875
80000000000000000000CC00,865.7,0.6626797,52.0625
80000000000000000000CC00,865.7,1.0737865,22.75
80000000000000000000CC00,865.7,1.1044662,1.625
80000000000000000000CC00,865.7,1.0492429,31.6875
80000000000000000000CC00,865.7,0.957204,53.6875
80000000000000000000CC00,865.7,0.9878836,52.875
80000000000000000000CC00,865.7,1.3253593,27.625
80000000000000000000CC00,865.7,1.1535536,67.5
80000000000000000000CC00,865.7,1.5523885,-1.625
80000000000000000000CC00,865.7,1.8653207,-24.375
80000000000000000000CC00,865.7,1.8162333,24.375
80000000000000000000CC00,865.7,2.080078,-4.0625
80000000000000000000CC00,865.7,2.478913,-67.5
80000000000000000000CC00,865.7,2.073942,-1.625
80000000000000000000CC00,865.7,1.8100973,65.0625
80000000000000000000CC00,865.7,2.1291654,7.3125
80000000000000000000CC00,865.7,2.1168935,13.0
80000000000000000000CC00,865.7,2.2273402,-2.4375
80000000000000000000CC00,865.7,2.3439226,-25.1875
80000000000000000000CC00,865.7,2.0125828,21.125
80000000000000000000CC00,865.7,2.0309906,14.625
80000000000000000000CC00,865.7,1.8039614,62.625
80000000000000000000CC00,865.7,2.4236896,-12.1875
80000000000000000000CC00,865.7,2.3009713,-5.6875
80000000000000000000CC00,865.7,1.9573594,65.0625
80000000000000000000CC00,865.7,2.4482334,-7.3125
80000000000000000000CC00,865.7,2.313243,39.0
80000000000000000000CC00,865.7,2.7795732,-28.4375
80000000000000000000CC00,865.7,2.2580197,31.6875
80000000000000000000CC00,865.7,2.7550294,-21.125
80000000000000000000CC00,865.7,2.2764275,65.0625
80000000000000000000CC00,865.7,3.0618258,-45.5625
80000000000000000000CC00,865.7,2.5954955,24.375
80000000000000000000CC00,865.7,2.4727771,51.25
80000000000000000000CC00,865.7,2.6629906,14.625
80000000000000000000CC00,865.7,2.7611654,21.9375
80000000000000000000CC00,865.7,2.6998062,23.5625
80000000000000000000CC00,865.7,2.871612,12.1875
80000000000000000000CC00,865.7,3.3379421,-61.8125
80000000000000000000CC00,865.7,2.5402722,65.0625
80000000000000000000CC00,865.7,2.5954955,57.75
80000000000000000000CC00,865.7,2.8347964,28.4375
80000000000000000000CC00,865.7,3.1477287,-22.75
80000000000000000000CC00,865.7,3.2520392,-41.5
80000000000000000000CC00,865.7,3.3011267,-39.875
80000000000000000000CC00,865.7,2.797981,52.0625
80000000000000000000CC00,865.7,3.1293209,-0.8125
80000000000000000000CC00,865.7,3.3072627,-27.625
80000000000000000000CC00,865.7,3.1415927,32.5
80000000000000000000CC00,865.7,3.1477287,20.3125
80000000000000000000CC00,865.7,2.9145634,42.3125
80000000000000000000CC00,865.7,3.2274957,-1.625
80000000000000000000CC00,865.7,3.344078,-49.625
80000000000000000000CC00,865.7,3.1477287,-2.4375
80000000000000000000CC00,865.7,2.8409324,57.75
80000000000000000000CC00,865.7,2.8961558,56.9375
80000000000000000000CC00,865.7,3.0188742,41.5
80000000000000000000CC00,865.7,3.4667966,-37.375
80000000000000000000CC00,865.7,3.1477287,9.75
80000000000000000000CC00,865.7,3.3931656,-25.1875
80000000000000000000CC00,865.7,3.3870296,-8.125
80000000000000000000CC00,865.7,3.350214,-21.125
80000000000000000000CC00,865.7,3.6263306,-30.0625
80000000000000000000CC00,865.7,3.3195345,-5.6875
80000000000000000000CC00,865.7,3.123185,30.0625
80000000000000000000CC00,865.7,3.4729326,-23.5625
80000000000000000000CC00,865.7,3.19068,16.25
80000000000000000000CC00,865.7,3.3379421,0.0
80000000000000000000CC00,865.7,3.6815538,-34.125
80000000000000000000CC00,865.7,3.3931656,-34.125
80000000000000000000CC00,865.7,3.4545248,-7.3125
80000000000000000000CC00,865.7,3.417709,-27.625
80000000000000000000CC00,865.7,3.5220199,-22.75
80000000000000000000CC00,865.7,3.6508744,-35.75
80000000000000000000CC00,865.7,3.503612,-9.75
80000000000000000000CC00,865.7,3.3993015,10.5625
80000000000000000000CC00,865.7,3.350214,16.25
80000000000000000000CC00,865.7,3.577243,-13.0
80000000000000000000CC00,865.7,3.6876898,-30.0625
80000000000000000000CC00,865.7,3.4422529,20.3125
80000000000000000000CC00,865.7,3.6140587,-32.5
80000000000000000000CC00,865.7,3.509748,9.75
80000000000000000000CC00,865.7,3.7183695,-13.0
80000000000000000000CC00,865.7,3.7060976,-15.4375
80000000000000000000CC00,865.7,3.577243,5.6875
80000000000000000000CC00,865.7,3.6263306,-6.5
80000000000000000000CC00,865.7,3.7613208,-25.1875
80000000000000000000CC00,865.7,3.9515345,-53.6875
80000000000000000000CC00,865.7,3.9208548,-43.125
80000000000000000000CC00,865.7,3.8717675,-41.5
80000000000000000000CC00,865.7,3.828816,-9.75
80000000000000000000CC00,865.7,3.8165443,-16.25
80000000000000000000CC00,865.7,3.9576705,-21.125
80000000000000000000CC00,865.7,3.9147189,-12.1875
80000000000000000000CC00,865.7,4.074253,-38.1875
80000000000000000000CC00,865.7,4.000622,-27.625
80000000000000000000CC00,865.7,4.0558453,-16.25
80000000000000000000CC00,865.7,4.12334,-21.9375
80000000000000000000CC00,865.7,4.0374374,4.0625
80000000000000000000CC00,865.7,4.160156,-24.375
80000000000000000000CC00,865.7,4.147884,-8.125
80000000000000000000CC00,865.7,4.12334,-1.625
80000000000000000000CC00,865.7,4.147884,-7.3125
80000000000000000000CC00,865.7,4.129476,1.625
80000000000000000000CC00,865.7,4.147884,-9.75
80000000000000000000CC00,865.7,4.160156,-6.5
80000000000000000000CC00,865.7,4.068117,6.5
80000000000000000000CC00,865.7,4.1908355,-20.3125
80000000000000000000CC00,865.7,4.1846995,-17.875
80000000000000000000CC00,865.7,4.0374374,7.3125
80000000000000000000CC00,865.7,4.1724277,-14.625
80000000000000000000CC00,865.7,4.104933,-8.9375
80000000000000000000CC00,865.7,4.080389,-8.125
80000000000000000000CC00,865.7,4.074253,-8.125
80000000000000000000CC00,865.7,4.074253,-14.625
80000000000000000000CC00,865.7,3.9331267,-0.8125
80000000000000000000CC00,865.7,3.8840394,0.0
80000000000000000000CC00,865.7,3.8840394,-7.3125
80000000000000000000CC00,865.7,3.7797287,2.4375
80000000000000000000CC00,865.7,3.7367773,1.625
80000000000000000000CC00,865.7,3.6386025,9.75
80000000000000000000CC00,865.7,3.7122335,-13.8125
80000000000000000000CC00,865.7,3.6201947,-5.6875
80000000000000000000CC00,865.7,3.515884,4.875
80000000000000000000CC00,865.7,3.4729326,1.625
80000000000000000000CC00,865.7,3.350214,13.0
80000000000000000000CC00,865.7,3.3808937,4.875
80000000000000000000CC00,865.7,3.423845,-12.1875
80000000000000000000CC00,865.7,3.2888548,10.5625
80000000000000000000CC00,865.7,3.3747578,-4.0625
80000000000000000000CC00,865.7,3.2459033,14.625
80000000000000000000CC00,865.7,3.282719,10.5625
80000000000000000000CC00,865.7,3.3256702,8.125
80000000000000000000CC00,865.7,3.344078,6.5
80000000000000000000CC00,865.7,3.2949908,13.8125
80000000000000000000CC00,865.7,3.3808937,8.125
80000000000000000000CC00,865.7,3.4667966,0.0
80000000000000000000CC00,865.7,3.4115732,9.75
80000000000000000000CC00,865.7,3.4483888,8.125
80000000000000000000CC00,865.7,3.4729326,6.5
80000000000000000000CC00,865.7,3.5404277,1.625
80000000000000000000CC00,865.7,3.5588355,0.8125
80000000000000000000CC00,865.7,3.5649714,0.0
80000000000000000000CC00,865.7,3.6201947,-0.8125
80000000000000000000CC00,865.7,3.6324666,-1.625
80000000000000000000CC00,865.7,3.6386025,-1.625
80000000000000000000CC00,865.7,3.6263306,2.4375
80000000000000000000CC00,865.7,3.6017869,4.0625
80000000000000000000CC00,865.7,3.6447384,0.0
80000000000000000000CC00,865.7,3.595651,8.125
80000000000000000000CC00,865.7,3.6263306,1.625
80000000000000000000CC00,865.7,3.6386025,0.8125
80000000000000000000CC00,865.7,3.6263306,4.875
80000000000000000000CC00,865.7,3.6263306,0.0
80000000000000000000CC00,865.7,3.6017869,5.6875
80000000000000000000CC00,865.7,3.6324666,-2.4375
80000000000000000000CC00,865.7,3.595651,0.8125
80000000000000000000CC00,865.7,3.6324666,0.0
80000000000000000000CC00,865.7,3.6447384,-6.5
80000000000000000000CC00,865.7,3.595651,0.0
80000000000000000000CC00,865.7,3.6386025,-1.625
80000000000000000000CC00,865.7,3.6201947,0.0
80000000000000000000CC00,865.7,3.6140587,8.9375
80000000000000000000CC00,865.7,3.6324666,4.0625
80000000000000000000CC00,865.7,3.6999617,-4.875
80000000000000000000CC00,865.7,3.6570103,1.625
80000000000000000000CC00,865.7,3.6508744,8.125
80000000000000000000CC00,865.7,3.669282,1.625
80000000000000000000CC00,865.7,3.675418,2.4375
80000000000000000000CC00,865.7,3.7245054,-4.0625
80000000000000000000CC00,865.7,3.675418,9.75
80000000000000000000CC00,865.7,3.6999617,8.9375
80000000000000000000CC00,865.7,3.6999617,7.3125
80000000000000000000CC00,865.7,3.6999617,6.5
80000000000000000000CC00,865.7,3.7183695,9.75
80000000000000000000CC00,865.7,3.6999617,5.6875
80000000000000000000CC00,865.7,3.7060976,4.875
80000000000000000000CC00,865.7,3.8472238,-12.1875
80000000000000000000CC00,865.7,3.7122335,4.875
80000000000000000000CC00,865.7,3.755185,2.4375
80000000000000000000CC00,865.7,3.7060976,8.9375
80000000000000000000CC00,865.7,3.742913,7.3125
80000000000000000000CC00,865.7,3.7183695,4.875
80000000000000000000CC00,865.7,3.6876898,12.1875
80000000000000000000CC00,865.7,3.7797287,1.625
80000000000000000000CC00,865.7,3.8779035,-17.0625
80000000000000000000CC00,865.7,3.749049,6.5
80000000000000000000CC00,865.7,3.7306414,14.625
80000000000000000000CC00,865.7,3.755185,0.0
80000000000000000000CC00,865.7,3.742913,1.625
80000000000000000000CC00,865.7,3.7674568,0.0
80000000000000000000CC00,865.7,3.742913,4.0625
80000000000000000000CC00,865.7,3.6815538,16.25
80000000000000000000CC00,865.7,3.7613208,2.4375
80000000000000000000CC00,865.7,3.7367773,2.4375
80000000000000000000CC00,865.7,3.755185,5.6875
80000000000000000000CC00,865.7,3.749049,0.8125
80000000000000000000CC00,865.7,3.7245054,-1.625
80000000000000000000CC00,865.7,3.8042724,-4.0625
80000000000000000000CC00,865.7,3.6938257,6.5
80000000000000000000CC00,865.7,3.7122335,7.3125
80000000000000000000CC00,865.7,3.7306414,2.4375
80000000000000000000CC00,865.7,3.742913,0.8125
80000000000000000000CC00,865.7,3.6570103,13.8125
80000000000000000000CC00,865.7,3.742913,4.0625
80000000000000000000CC00,865.7,3.7367773,0.8125
80000000000000000000CC00,865.7,3.7245054,4.0625
80000000000000000000CC00,865.7,3.6570103,8.9375
80000000000000000000CC00,865.7,3.6508744,14.625
80000000000000000000CC00,865.7,3.7060976,4.0625
80000000000000000000CC00,865.7,3.6876898,17.875
80000000000000000000CC00,865.7,3.7367773,-0.8125
80000000000000000000CC00,865.7,3.6938257,4.875
80000000000000000000CC00,865.7,3.7122335,4.0625
80000000000000000000CC00,865.7,3.6508744,15.4375
80000000000000000000CC00,865.7,3.7367773,-1.625
80000000000000000000CC00,865.7,3.7306414,1.625
80000000000000000000CC00,865.7,3.6876898,8.9375
80000000000000000000CC00,865.7,3.7306414,-0.8125
80000000000000000000CC00,865.7,3.7060976,0.0
80000000000000000000CC00,865.7,3.8165443,-9.75
80000000000000000000CC00,865.7,3.7674568,-6.5
80000000000000000000CC00,865.7,3.6938257,2.4375
80000000000000000000CC00,865.7,3.7122335,2.4375
80000000000000000000CC00,865.7,3.675418,9.75
80000000000000000000CC00,865.7,3.7367773,-2.4375
80000000000000000000CC00,865.7,3.6201947,19.5
80000000000000000000CC00,865.7,3.7060976,5.6875
80000000000000000000CC00,865.7,3.675418,8.125
80000000000000000000CC00,865.7,3.7060976,4.0625
80000000000000000000CC00,865.7,3.6815538,8.9375
80000000000000000000CC00,865.7,3.7060976,0.8125
80000000000000000000CC00,865.7,3.6815538,5.6875
80000000000000000000CC00,865.7,3.663146,4.875
