-46.5,3.56497135104623,-2.4375
-47.0,3.6017868899554855,-13.0
-46.5,3.6692820446224537,-15.4375
-47.0,3.5833791205008576,-5.6875
-47.0,3.552699504743145,1.625
-46.5,3.5588354278946874,-4.875
-46.5,3.5588354278946874,-6.5
-46.5,3.411573272257666,20.3125
-46.5,3.466796580621549,8.125
-46.5,3.509748042682347,1.625
-46.5,3.509748042682347,-0.8125
-46.5,3.4913402732277192,-4.875
-46.5,3.393165502803038,13.0
-46.0,3.509748042682347,-10.5625
-46.0,3.485204350076177,-1.625
-46.0,3.5281558121369745,-9.75
-46.5,3.3624858870453256,16.25
-46.5,3.436116964863836,-1.625
-46.0,3.448388811166921,-10.5625
-46.5,3.472932503773092,-7.3125
-46.0,3.4177091954092087,-6.5
-46.0,3.442252888015379,-8.9375
-45.5,3.399301425954581,-0.8125
-45.5,3.393165502803038,-9.75
-45.5,3.2949907323783574,1.625
-45.5,3.2581751934691017,8.9375
-45.5,3.2888548092268146,6.5
-45.5,3.32567034813607,-2.4375
-45.5,3.2704470397721868,4.875
-45.5,3.1906800388021335,16.25
-45.5,3.2949907323783574,8.125
-45.5,3.2888548092268146,0.0
-45.5,3.3195344249845276,4.875
-45.5,3.2765829629237295,0.8125
-45.0,3.3072625786814425,0.0
-45.0,3.2397674240144743,12.1875
-45.5,3.3072625786814425,-4.0625
-45.0,3.215223731408304,8.125
-45.5,3.227495577711389,6.5
-45.0,3.227495577711389,8.9375
-45.0,3.368621810196868,-16.25
-45.5,3.3195344249845276,-6.5
-45.5,3.1968159619536762,15.4375
-45.5,3.2090878082567613,13.0
-45.5,3.2397674240144743,7.3125
-45.0,3.2029518851052186,7.3125
-45.5,3.2888548092268146,-4.0625
-45.5,3.2765829629237295,0.0
-45.5,3.2949907323783574,-0.8125
-45.5,3.2949907323783574,-0.8125
-45.5,3.2827188860752723,4.875
-45.5,3.2704470397721868,12.1875
-45.5,3.313398501832985,5.6875
-45.5,3.32567034813607,-2.4375
-45.5,3.2827188860752723,10.5625
-45.5,3.32567034813607,5.6875
-46.0,3.3195344249845276,5.6875
-46.0,3.3318062712876126,10.5625
-45.5,3.2827188860752723,8.9375
-46.0,3.411573272257666,-9.75
-45.5,3.3747577333484107,-6.5
-45.5,3.32567034813607,1.625
-46.0,3.2213596545598464,15.4375
-46.0,3.3195344249845276,1.625
-46.0,3.3011266555298997,4.0625
-45.5,3.3011266555298997,2.4375
-45.5,3.3318062712876126,-4.875
-45.0,3.2459033471660166,4.0625
-45.0,3.1661363461959633,13.8125
-45.0,3.1906800388021335,9.75
-45.0,3.1661363461959633,9.75
-45.0,3.1906800388021335,-0.8125
-44.5,3.0495538063166547,12.1875
-45.0,3.1354567304382504,-8.125
-44.0,3.000466421104314,4.875
-44.0,2.9636508821950587,4.875
-43.0,2.8838838812250054,4.875
-43.0,2.834796496012665,7.3125
-43.0,2.791845033951867,8.125
-42.5,2.7857091108003242,-4.0625
-42.5,2.705942109830271,-0.8125
-42.0,2.5954954931025047,7.3125
-42.0,2.5893595699509624,-0.8125
-41.5,2.509592568980909,2.4375
-41.5,2.4605051837685683,-4.0625
-41.5,2.3930100291016,-0.8125
-42.0,2.313243028131547,4.0625
-42.0,2.2948352586769194,4.875
-41.5,2.313243028131547,-0.8125
-41.0,2.3193789512830896,0.0
-41.5,2.2641556429192065,8.125
-41.0,2.350058567040802,-4.875
-41.5,2.337786720737717,-0.8125
-41.0,2.313243028131547,2.4375
-41.0,2.337786720737717,-4.0625
-41.0,2.282563412373834,4.0625
-41.0,2.2027964114037806,12.1875
-41.0,2.2580197197676637,1.625
-41.0,2.1966604882522383,2.4375
-40.5,2.227340104009951,-1.625
-40.5,2.1598449493429825,2.4375
-41.0,2.116893487282185,2.4375
-40.5,2.116893487282185,4.875
-40.5,2.1230294104337273,1.625
-40.0,2.110757564130642,-0.8125
-40.0,2.073942025221387,0.0
-40.5,2.0800779483729293,-2.4375
-40.0,2.0493983326152168,2.4375
-40.5,2.030990563160589,7.3125
-40.5,2.055534255766759,2.4375
-40.5,2.024854640009046,6.5
-40.5,2.067806102069844,0.8125
-40.0,2.0923497946760143,-2.4375
-40.0,2.098485717827557,-4.0625
-40.0,2.043262409463674,5.6875
-40.0,2.000310947402876,4.875
-40.0,2.000310947402876,2.4375
-40.0,1.9573594853420782,5.6875
-40.0,1.9266798695843652,6.5
-39.5,1.9266798695843652,0.8125
-39.5,1.8837284075235674,8.125
-40.0,1.88986433067511,1.625
-40.0,1.8285050991596843,6.5
-39.5,1.8039614065535141,4.875
-39.5,1.748738098189631,10.5625
-39.5,1.7855536370988863,0.8125
-39.5,1.736466251886546,2.4375
-40.0,1.6935147898257479,4.875
-39.5,1.6505633277649499,7.3125
-39.5,1.6751070203711202,1.625
-40.0,1.6321555583103222,4.0625
-40.0,1.5892040962495242,4.0625
-40.0,1.5830681730979816,1.625
-39.5,1.564660403643354,0.0
-40.5,1.5585244804918115,-1.625
-39.5,1.5585244804918115,0.0
-39.5,1.509437095279471,1.625
-40.0,1.4726215563702154,0.0
-40.0,1.3989904785517047,1.625
-39.5,1.3314953238847365,7.3125
-39.5,1.3008157081270237,4.0625
-39.5,1.3499030933393643,-9.75
-39.5,1.214912784005428,4.0625
-40.0,1.1903690913992575,0.8125
-39.5,1.1658253987930873,-1.625
-39.5,1.1044661672776617,4.0625
-39.5,1.1228739367322893,-4.0625
-39.5,1.0737865515199487,1.625
-39.5,1.0369710126106935,6.5
-39.5,1.043106935762236,1.625
-39.5,1.0246991663076084,5.6875
-39.5,1.030835089459151,9.75
-39.5,1.0369710126106935,-0.8125
-39.5,1.0062913968529805,4.0625
-39.5,1.012427320004523,6.5
-39.5,1.043106935762236,0.8125
-39.5,1.012427320004523,7.3125
-39.5,1.0737865515199487,0.8125
-39.5,1.086058397823034,-4.0625
-39.5,1.0369710126106935,-0.8125
-39.0,1.012427320004523,6.5
-39.0,1.043106935762236,4.875
-39.0,1.0983302441261191,-4.875
-39.5,1.0246991663076084,7.3125
-39.5,1.0615147052168636,4.0625
-39.0,1.1106020904292042,-0.8125
-39.5,1.0983302441261191,0.8125
-39.0,1.055378782065321,8.9375
-39.5,1.086058397823034,4.875
-39.5,1.0983302441261191,0.8125
-39.0,1.0369710126106935,13.0
-39.5,1.141281706186917,-1.625
-38.5,1.0921943209745766,6.5
-39.0,1.1351457830353744,4.0625
-39.0,1.141281706186917,4.0625
-39.0,1.1719613219446299,-2.4375
-39.0,1.1780972450961724,1.625
-39.0,1.1780972450961724,1.625
-39.0,1.184233168247715,4.0625
-38.5,1.239456476611598,-4.0625
-38.5,1.2210487071569704,4.875
-39.0,1.1903690913992575,9.75
-39.0,1.2517283229146832,4.875
-39.0,1.2578642460662257,2.4375
-39.0,1.2885438618239387,6.5
-39.0,1.2885438618239387,4.0625
-39.0,1.2762720155208536,5.6875
-39.0,1.3192234775816514,-0.8125
-39.5,1.2885438618239387,9.75
-39.0,1.325359400733194,5.6875
-39.0,1.337631247036279,4.875
-38.5,1.368310862793992,-0.8125
-38.5,1.3928545554001621,0.0
-39.0,1.368310862793992,6.5
-39.0,1.3744467859455345,4.0625
-38.5,1.423534171157875,0.0
-39.0,1.4542137869155878,-1.625
-39.0,1.41126232485479,2.4375
-39.0,1.4051264017032472,8.125
-38.5,1.4542137869155878,2.4375
-38.5,1.4910293258248433,0.0
-39.0,1.4664856332186729,0.8125
-39.5,1.4726215563702154,2.4375
-39.0,1.4848934026733007,4.875
-39.0,1.509437095279471,0.8125
-39.0,1.5278448647340985,-0.8125
-39.0,1.5278448647340985,0.8125
-39.5,1.4726215563702154,8.9375
-39.0,1.5278448647340985,4.875
-39.0,1.533980787885641,7.3125
-39.0,1.5401167110371838,5.6875
-39.0,1.564660403643354,1.625
-39.0,1.5462526341887264,6.5
-39.0,1.521708941582556,9.75
-39.0,1.5707963267948966,6.5
-39.0,1.5953400194010667,2.4375
-39.0,1.5585244804918115,9.75
-39.0,1.607611865704152,0.8125
-39.0,1.6505633277649499,-4.0625
-39.0,1.6444274046134073,0.0
-39.5,1.6014759425526093,8.125
-39.5,1.6689710972195777,-1.625
-39.0,1.6566992509164924,2.4375
-39.5,1.6260196351587797,8.125
-39.5,1.6873788666742053,-4.0625
-39.5,1.6566992509164924,2.4375
-40.0,1.6321555583103222,5.6875
-40.0,1.6382914814618648,5.6875
-40.0,1.6382914814618648,8.9375
-40.0,1.662835174068035,2.4375
-40.0,1.6812429435226628,5.6875
-40.0,1.718058482431918,1.625
-40.5,1.662835174068035,12.1875
-40.0,1.7119225592803755,4.0625
-40.0,1.7426021750380885,8.9375
-40.0,1.7794177139473437,-1.625
-40.0,1.7241944055834606,10.5625
-40.0,1.7855536370988863,2.4375
-40.5,1.7303303287350031,10.5625
-41.0,1.7916895602504288,4.0625
-40.5,1.8775924843720249,-0.8125
-40.5,1.846912868614312,4.0625
-40.0,1.8285050991596843,6.5
-40.0,1.859184714917397,4.875
-40.0,1.8775924843720249,6.5
-40.0,1.8714565612204823,7.3125
-40.5,1.902136176978195,4.875
-40.5,1.9634954084936207,0.8125
-40.0,1.9389517158874505,5.6875
-39.5,1.9819031779482483,8.125
-40.0,1.9573594853420782,8.125
-40.0,2.018718716857504,4.0625
-39.5,2.0371264863121317,8.125
-39.5,2.067806102069844,4.875
-39.0,2.12916533358527,-0.8125
-39.5,2.1598449493429825,2.4375
-39.5,2.172116795646068,5.6875
-39.5,2.1782527187976104,9.75
-39.0,2.2212041808584084,6.5
-39.0,2.2886993355253766,5.6875
-39.0,2.3439226438892597,0.8125
-39.0,2.380738182798515,4.875
-38.5,2.435961491162398,2.4375
-38.5,2.521864415283994,-0.8125
-38.0,2.5954954931025047,-4.875
-37.5,2.5893595699509624,4.875
-37.5,2.6445828783148455,4.875
-38.0,2.6813984172241008,6.5
-37.5,2.773437264497239,0.8125
-38.0,2.8286605728611223,4.875
-37.5,2.859340188618835,7.3125
-38.0,2.9145634969827183,9.75
-38.5,3.0250101137104846,0.8125
-38.5,3.104777114680538,-4.875
-38.5,3.11091303783208,4.875
-38.5,3.129320807286708,4.875
-38.5,3.1784081924990484,5.6875
-39.0,3.1968159619536762,2.4375
-39.0,3.227495577711389,0.8125
-39.0,3.2581751934691017,-2.4375
-38.5,3.2704470397721868,-0.8125
-38.5,3.3011266555298997,-0.8125
-38.5,3.2949907323783574,1.625
-38.5,3.32567034813607,-1.625
-38.5,3.3379421944391554,0.8125
-38.5,3.380893656499953,1.625
-39.0,3.393165502803038,0.8125
-38.5,3.423845118560751,4.0625
-38.5,3.4606606574700063,2.4375
-39.0,3.4913402732277192,2.4375
-39.0,3.5711072741977725,-5.6875
-39.5,3.6079228131070282,-2.4375
-39.0,3.6570101983193686,-2.4375
-39.0,3.6876898140770815,-4.0625
-39.5,3.663146121470911,5.6875
-39.5,3.693825737228624,8.9375
-40.0,3.767456815047135,-0.8125
-40.0,3.7981364308048478,7.3125
-40.0,3.80427235395639,5.6875
-40.0,3.9085830475326135,-8.9375
-40.5,3.933126740138784,-7.3125
-40.5,3.8288160465625602,8.9375
-40.0,3.8717675086233583,1.625
-40.5,3.9638063558964967,-12.1875
-40.5,3.8963112012295285,-4.875
-41.0,3.8963112012295285,0.0
-40.5,3.8840393549264434,-0.8125
-41.0,3.8840393549264434,1.625
-41.0,3.9515345095934116,-9.75
-41.0,3.9453985864418692,-8.125
-41.0,3.859495662320273,4.875
-41.5,3.9515345095934116,-9.75
-42.0,3.9269908169872414,-10.5625
-42.0,3.9085830475326135,-4.0625
-42.0,3.9147189706841563,-4.0625
-42.0,3.8840393549264434,-4.875
-42.5,3.8717675086233583,-2.4375
-43.0,3.822680123411018,1.625
-43.0,3.834951969714103,-2.4375
-43.0,3.8533597391687304,-5.6875
-44.0,3.859495662320273,-4.875
-44.0,3.8533597391687304,-10.5625
-43.5,3.77972866135022,4.0625
-44.0,3.834951969714103,-6.5
-44.5,3.8410878928656453,-14.625
-45.0,3.773592738198677,0.8125
-45.0,3.877903431774901,-15.4375
-45.5,3.8533597391687304,-16.25
-46.0,3.902447124381071,-16.25
-46.5,3.847223816017188,-8.9375
-46.5,3.822680123411018,-7.3125
-46.0,3.730641276137879,-0.8125
-46.5,3.718369429834794,1.625
-46.5,3.80427235395639,-12.1875
-47.0,3.785864584501762,-10.5625
-47.0,3.663146121470911,8.9375
-47.5,3.693825737228624,13.0
-47.5,3.693825737228624,0.8125
-48.5,3.6263305825616556,7.3125
-48.0,3.5711072741977725,19.5
-48.5,3.693825737228624,4.0625
-49.0,3.6140587362585705,12.1875
-49.0,3.5772431973493153,21.9375
-50.5,3.706097583531709,-23.5625
-51.0,3.6140587362585705,-8.9375
-51.5,3.442252888015379,-2.4375
-52.5,3.313398501832985,13.8125
-53.0,3.56497135104623,-37.375
-53.5,3.5772431973493153,-60.1875
-54.0,3.2888548092268146,-30.0625
-54.5,3.1354567304382504,-5.6875
-55.0,3.32567034813607,-69.125
-55.0,2.761165418194154,16.25
-55.0,2.804116880254952,-21.125
-54.5,2.890019804376548,-16.25
-54.0,2.761165418194154,26.8125
-55.0,2.779573187648782,7.3125
-56.0,2.7857091108003242,17.0625
-54.5,2.9943304979527716,-17.875
-54.0,2.804116880254952,17.875
-53.0,2.890019804376548,-6.5
-53.5,3.153864499892878,-35.75
-54.0,3.000466421104314,-17.875
-53.5,2.9697868053466014,-9.75
-53.0,3.129320807286708,-23.5625
-54.0,3.0372819600135696,-9.75
-53.5,3.2090878082567613,-43.125
-54.0,3.098641191528995,-31.6875
-53.5,2.84706834231575,-7.3125
-54.5,2.5709518004963345,39.0
-54.0,2.8777479580734626,-21.125
-52.5,2.9022916506796332,0.0
-53.0,2.9022916506796332,-8.125
-53.5,2.9329712664373457,-13.8125
-53.5,2.7550294950426117,0.8125
-53.5,2.804116880254952,-4.875
-53.5,2.748893571891069,0.0
-52.5,2.509592568980909,31.6875
-53.0,2.6691265709210157,10.5625
-52.5,2.6875343403756435,5.6875
-53.0,2.7120780329818137,-7.3125
-53.5,2.718213956133356,-21.125
-54.5,2.3746022596469727,19.5
-54.0,2.1353012567368124,46.375
-54.0,1.9819031779482483,47.1875
-54.0,1.9389517158874505,19.5
-54.5,2.141437179888355,-4.0625
-54.5,2.1966604882522383,-22.75
-53.5,1.6935147898257479,16.25
-53.5,1.7855536370988863,-36.5625
-53.5,1.6996507129772904,-5.6875
-55.0,1.521708941582556,-7.3125
-55.0,1.5830681730979816,-44.75
-55.5,1.0615147052168636,21.125
-54.0,1.0369710126106935,8.125
-56.0,0.9633399347921826,5.6875
-55.0,0.9633399347921826,-10.5625
-55.0,0.6872233929727672,7.3125
-54.5,0.3865631585471816,42.3125
-57.5,0.39269908169872414,4.0625
-57.5,0.2945243112740431,-5.6875
-57.5,0.30066023442558565,2.4375
-58.5,6.2463697682703305,17.0625
-59.5,6.22182607566416,-41.5
-57.5,5.767767762450011,-1.625
-58.0,5.651185222570702,30.0625
-57.5,5.190990986205009,52.875
-56.5,5.203262832508095,45.5625
-57.0,5.301437602932776,5.6875
-57.0,5.3198453723874035,25.1875
-57.0,5.399612373357457,-17.0625
-55.5,5.074408446325701,1.625
-56.5,5.2339424482658075,-0.8125
-56.0,5.43029198911517,4.0625
-56.0,5.295301679781233,6.5
-55.5,5.21553467881118,1.625
-55.0,5.092816215780329,37.375
-55.5,5.393476450205914,13.8125
-56.0,5.135767677841127,23.5625
-55.5,5.049864753719531,49.625
-55.0,5.209398755659637,8.9375
-54.5,4.957825906446392,68.3125
-54.0,5.338253141842031,-2.4375
-55.0,5.166447293598839,53.6875
-55.5,5.411884219660542,16.25
-55.5,5.240078371417351,28.4375
-54.0,5.405748296509,8.125
-56.0,5.418020142812084,7.3125
-54.5,5.522330836388308,13.0
-54.0,5.546874528994478,-4.0625
-54.0,5.43029198911517,22.75
-54.0,5.688000761479957,-24.375
-54.0,5.47937937432751,0.0
-55.5,5.64504929941916,-5.6875
-54.0,5.424156065963627,20.3125
-54.5,5.50392306693368,20.3125
-53.0,5.583690067903734,-6.5
-53.5,5.45483568172134,8.9375
-53.5,5.325981295538946,49.625
-53.5,5.559146375297564,-2.4375
-53.5,5.448699758569798,9.75
-54.0,5.583690067903734,-20.3125
-53.5,5.534602682691394,1.625
-53.0,5.497787143782138,9.75
-54.0,5.381204603902829,34.9375
-54.0,5.516194913236766,0.8125
-53.0,5.424156065963627,23.5625
-53.5,5.393476450205914,14.625
-52.5,5.473243451175968,20.3125
-53.5,5.595961914206819,6.5
-53.5,5.47937937432751,16.25
-53.5,5.50392306693368,13.0
-54.0,5.706408530934585,-29.25
-54.5,5.620505606812989,0.0
-53.0,5.559146375297564,-0.8125
-52.0,5.589825991055276,13.0
-54.5,5.749359992995383,-9.75
-52.5,5.71868037723767,10.5625
-53.0,5.491651220630596,21.9375
-52.5,5.853670686571607,-28.4375
-53.0,5.491651220630596,22.75
-52.0,5.577554144752192,8.125
-52.5,5.6143696836614465,8.125
-53.0,5.6941366846315,-4.875
-54.0,5.7616318392984684,-8.125
-53.5,5.706408530934585,0.0
-53.0,5.688000761479957,34.9375
-53.0,5.651185222570702,13.8125
-52.5,5.773903685601553,-10.5625
-53.0,5.595961914206819,13.8125
-53.5,5.7616318392984684,-21.9375
-53.5,5.675728915176872,16.25
-53.5,5.638913376267617,4.0625
-54.0,5.675728915176872,9.75
-53.5,5.602097837358362,27.625
-53.5,5.921165841238575,-6.5
-54.0,5.816855147662351,-8.125
-53.5,5.822991070813893,4.0625
-53.5,5.773903685601553,12.1875
-53.0,6.013204688511713,-16.25
-52.5,5.8045833013592665,-1.625
-53.5,5.970253226450915,0.0
-53.5,6.031612457966341,-17.875
-52.5,5.872078456026235,16.25
-54.5,5.798447378207723,13.8125
-54.0,5.71868037723767,32.5
-55.0,6.080699843178682,-16.25
-53.5,6.154330920997192,-25.1875
-53.5,5.9518454569962875,2.4375
-53.0,6.019340611663256,2.4375
-54.0,5.9518454569962875,10.5625
-54.5,6.074563920027139,-1.625
-54.5,6.086835766330224,-2.4375
-55.0,6.129787228391022,9.75
-54.0,5.927301764390117,39.0
-53.0,6.22182607566416,6.5
-54.0,6.2034183062095325,13.0
-54.0,6.22182607566416,2.4375
-53.5,0.15339807878856412,-23.5625
-54.0,6.264777537724958,26.8125
-53.0,0.05522330836388308,34.9375
-53.5,0.01227184630308513,20.3125
-54.0,0.12885438618239387,12.1875
-53.5,0.22089323345553233,6.5
-53.5,0.32520392703175593,10.5625
-53.5,0.44178646691106466,26.8125
-52.5,0.39269908169872414,16.25
-53.5,0.5092816215780329,26.8125
-52.5,0.5706408530934585,13.0
-52.0,0.8344855486097889,-15.4375
-53.5,0.5092816215780329,46.375
-52.5,0.9756117810952678,-8.125
-52.0,1.0369710126106935,-13.8125
-52.0,1.1965050145508,-6.5
-52.5,1.2578642460662257,15.4375
-53.5,1.3744467859455345,4.875
-52.5,1.564660403643354,-9.75
-54.0,2.442097414313941,24.375
-55.5,2.779573187648782,-25.1875
-54.5,2.8409324191642074,-4.875
-55.0,2.5954954931025047,24.375
-54.0,2.761165418194154,4.875
-54.0,2.662990647769473,34.125
-55.5,2.650718801466388,10.5625
-55.5,2.791845033951867,6.5
-55.0,2.834796496012665,15.4375
-55.5,2.6998061866787286,39.0
-55.5,2.779573187648782,38.1875
-54.5,3.184544115650591,-15.4375
-55.5,3.129320807286708,10.5625
-56.5,3.2827188860752723,-13.0
-56.0,3.06182565261974,34.125
-55.5,3.3747577333484107,8.125
-55.0,3.3011266555298997,43.125
-54.0,3.423845118560751,39.0
-54.5,3.718369429834794,1.625
-55.5,3.8717675086233583,-29.25
-55.0,4.000621894805752,-13.0
-55.5,4.239922897715912,-14.625
-54.0,4.246058820867455,8.125
-55.0,4.037437433715008,35.75
-55.5,4.104932588381976,32.5
-54.0,4.227651051412827,17.0625
-54.0,4.3074180523828804,32.5
-54.0,4.651029748869264,-16.25
-53.5,4.7860200582032,0.0
-52.0,4.822835597112456,15.4375
-52.5,4.7307967498393175,23.5625
-52.0,4.847379289718626,22.75
-51.5,5.135767677841127,-19.5
-51.0,5.166447293598839,1.625
-50.0,5.190990986205009,-0.8125
-49.5,5.160311370447297,-6.5
-49.0,5.141903600992669,0.8125
-48.5,5.111223985234957,14.625
-48.5,5.123495831538041,4.875
-47.5,5.190990986205009,-4.0625
-47.0,5.154175447295755,-1.625
-46.5,5.013049214810275,17.875
-46.0,5.160311370447297,-8.9375
-45.5,5.098952138931871,-4.0625
-45.5,4.884194828627882,17.0625
-45.0,4.92714629068868,4.875
-44.5,4.878058905476339,4.875
-44.5,4.828971520263998,5.6875
-44.5,4.779884135051658,4.0625
-44.5,4.792155981354743,-8.125
-44.0,4.620350133111551,5.6875
-44.0,4.522175362686871,8.9375
-44.0,4.534447208989955,2.4375
-44.0,4.491495746929157,0.0
-43.5,4.460816131171445,-7.3125
-44.0,4.325825821837508,-5.6875
-44.5,4.25833066717054,-4.0625
-45.0,4.264466590322082,1.625
-45.5,4.09266074207889,8.9375
-46.0,4.196971435655114,2.4375
-46.0,4.1601558967458585,2.4375
-47.0,4.184699589352029,8.9375
-47.5,4.25833066717054,-1.625
-47.5,4.264466590322082,-2.4375
-47.5,4.227651051412827,4.875
-48.0,4.215379205109742,14.625
-48.0,4.356505437595221,-7.3125
-48.5,4.4362724385652745,-5.6875
-48.0,4.405592822807561,5.6875
-48.0,4.454680208019902,-2.4375
-47.5,4.466952054322987,-9.75
-47.5,4.424000592262189,1.625
-47.0,4.424000592262189,2.4375
-47.5,4.485359823777615,-4.0625
-47.0,4.368777283898306,2.4375
-47.0,4.338097668140593,17.0625
-46.5,4.344233591292136,15.4375
-46.5,4.374913207049849,10.5625
-47.0,4.424000592262189,8.125
-46.5,4.368777283898306,5.6875
-47.0,4.509903516383785,-14.625
-46.5,4.473087977474529,-12.1875
-46.5,4.331961744989051,12.1875
-46.5,4.473087977474529,-8.125
-46.5,4.3933209765044765,4.875
-46.0,4.3503695144436785,10.5625
-46.5,4.28287435977671,26.8125
-46.5,4.356505437595221,8.9375
-46.0,4.362641360746763,8.9375
-46.5,4.424000592262189,1.625
-46.5,4.479223900626073,-8.125
-46.0,4.4362724385652745,-8.9375
-46.0,4.448544284868359,1.625
-46.0,4.289010282928253,21.125
-45.5,4.3933209765044765,2.4375
-46.0,4.3933209765044765,12.1875
-46.0,4.417864669110647,5.6875
-45.5,4.3933209765044765,2.4375
-46.0,4.491495746929157,-13.0
-45.5,4.491495746929157,-19.5
-45.5,4.295146206079795,13.0
-45.5,4.3503695144436785,0.8125
-45.5,4.28287435977671,7.3125
-45.5,4.362641360746763,-4.875
-45.0,4.338097668140593,-8.125
-45.5,4.239922897715912,4.0625
-45.5,4.270602513473625,0.0
-45.0,4.2031073588066565,13.0
-45.5,4.2031073588066565,9.75
-45.5,4.0987966652304335,21.125
-45.0,4.184699589352029,9.75
-45.0,4.23378697456437,0.0
-45.5,4.239922897715912,-4.0625
-45.0,4.23378697456437,-2.4375
-45.5,4.2031073588066565,-0.8125
-45.0,4.147884050442774,13.0
-45.5,4.23378697456437,0.8125
-45.0,4.215379205109742,-5.6875
-45.0,4.184699589352029,1.625
-45.5,4.215379205109742,0.0
-45.5,4.123340357836604,7.3125
-45.0,4.147884050442774,-0.8125
-46.0,4.086524818927348,7.3125
-45.5,4.0987966652304335,6.5
-45.5,4.166291819897402,-8.125
-46.0,4.04357335686655,9.75
-45.5,4.178563666200486,-5.6875
-46.0,4.0128937411088375,19.5
-46.0,4.061981126321178,8.125
-46.0,4.086524818927348,6.5
-46.0,4.1601558967458585,-2.4375
-46.5,4.129476280988146,0.0
-46.0,4.104932588381976,-0.8125
-46.5,4.1601558967458585,-4.0625
-46.5,4.061981126321178,7.3125
-46.0,4.147884050442774,0.8125
-46.0,4.0987966652304335,4.0625
-46.5,4.09266074207889,1.625
-46.0,3.9760782021995817,25.1875
-46.0,4.1172044346850605,-4.875
-46.5,4.080388895775806,8.125
-46.0,4.178563666200486,0.0
-46.0,4.172427743048944,-4.0625
-46.5,4.111068511533518,2.4375
-46.5,4.000621894805752,28.4375
-46.5,4.154019973594316,-5.6875
-47.0,4.178563666200486,0.8125
-46.5,4.104932588381976,-2.4375
-46.5,4.09266074207889,7.3125
-46.5,4.196971435655114,-5.6875
-47.0,4.1417481272912315,4.0625
-46.5,4.025165587411922,21.9375
-46.5,4.172427743048944,5.6875
-46.5,4.184699589352029,-7.3125
-46.5,4.246058820867455,-8.125
-47.0,4.239922897715912,-8.9375
-46.5,4.049709280018092,10.5625
-46.5,4.135612204139688,4.875
-46.5,4.178563666200486,2.4375
-47.0,4.111068511533518,7.3125
-47.0,4.172427743048944,6.5
-46.5,4.123340357836604,8.125
-47.0,4.190835512503572,10.5625
-46.5,4.147884050442774,12.1875
-47.0,4.1601558967458585,9.75
-46.5,4.1601558967458585,2.4375
-46.5,4.1601558967458585,8.9375
-47.0,4.246058820867455,4.0625
-47.0,4.246058820867455,-8.9375
-47.0,4.264466590322082,-21.125
-47.0,4.154019973594316,0.8125
-47.0,4.147884050442774,8.9375
-47.5,4.196971435655114,1.625
-46.5,4.166291819897402,4.875
-47.0,3.933126740138784,43.125
-46.5,4.25833066717054,-7.3125
-47.5,4.319689898685965,-5.6875
-46.5,4.166291819897402,6.5
-47.5,4.166291819897402,12.1875
-47.0,4.325825821837508,-8.9375
-47.5,4.166291819897402,8.9375
-47.5,4.123340357836604,15.4375
-47.0,4.1172044346850605,22.75
-47.0,4.074252972624263,15.4375
-47.0,4.123340357836604,15.4375
-47.0,4.086524818927348,27.625
-47.5,4.196971435655114,12.1875
-47.0,4.123340357836604,21.9375
-47.0,4.276738436625168,-7.3125
-47.0,4.221515128261284,13.0
-47.5,4.031301510563465,36.5625
