-44.5,3.54042765844006,14.625
-44.5,3.6201946594101133,0.0
-44.5,3.5895150436524004,2.4375
-45.0,3.6263305825616556,5.6875
-45.0,3.6140587362585705,13.0
-44.5,3.5772431973493153,5.6875
-44.5,3.6324665057131984,-2.4375
-44.5,3.6140587362585705,2.4375
-45.0,3.693825737228624,-15.4375
-45.0,3.650874275167826,-6.5
-44.5,3.5711072741977725,4.875
-45.0,3.650874275167826,-12.1875
-44.5,3.6570101983193686,-4.875
-44.5,3.5711072741977725,7.3125
-44.5,3.6201946594101133,0.8125
-45.0,3.5833791205008576,2.4375
-45.0,3.6079228131070282,-0.8125
-45.0,3.6692820446224537,-5.6875
-45.0,3.5281558121369745,10.5625
-45.0,3.6876898140770815,-12.1875
-45.0,3.552699504743145,8.125
-45.0,3.6079228131070282,2.4375
-44.5,3.5342917352885173,12.1875
-45.0,3.54042765844006,13.8125
-45.0,3.5895150436524004,2.4375
-45.0,3.663146121470911,-6.5
-45.0,3.6079228131070282,1.625
-45.0,3.663146121470911,-4.0625
-45.0,3.5956509668039427,-0.8125
-44.5,3.6324665057131984,-4.0625
-45.5,3.6999616603801666,-7.3125
-45.0,3.5588354278946874,8.9375
-45.0,3.6324665057131984,0.0
-45.5,3.6140587362585705,4.875
-44.5,3.6324665057131984,-2.4375
-44.5,3.5036121195308043,13.0
-44.5,3.5956509668039427,9.75
-45.0,3.5956509668039427,-4.0625
-45.0,3.509748042682347,13.0
-44.5,3.6079228131070282,-0.8125
-45.0,3.5281558121369745,8.9375
-45.0,3.5465635815916023,4.875
-45.0,3.6999616603801666,-12.1875
-45.0,3.5588354278946874,8.9375
-45.0,3.6079228131070282,4.0625
-45.0,3.6140587362585705,1.625
-45.0,3.6201946594101133,-1.625
-45.0,3.5956509668039427,0.0
-45.0,3.5588354278946874,13.0
-44.5,3.6263305825616556,-2.4375
-45.0,3.5158839658338894,12.1875
-45.0,3.56497135104623,6.5
-45.0,3.5465635815916023,13.8125
-45.0,3.5036121195308043,12.1875
-45.0,3.5281558121369745,14.625
-45.0,3.5772431973493153,1.625
-45.0,3.5895150436524004,10.5625
-44.5,3.56497135104623,2.4375
-45.0,3.5588354278946874,4.875
-44.5,3.5895150436524004,5.6875
-45.0,3.5956509668039427,2.4375
-45.0,3.6324665057131984,-4.0625
-44.5,3.5772431973493153,1.625
-44.0,3.6079228131070282,-0.8125
-45.0,3.6079228131070282,0.8125
-45.0,3.54042765844006,6.5
-44.5,3.5711072741977725,4.875
-45.0,3.5772431973493153,-0.8125
-45.0,3.5342917352885173,10.5625
-45.0,3.5772431973493153,7.3125
-44.5,3.6017868899554855,1.625
-45.0,3.6447383520162835,-5.6875
-45.0,3.6263305825616556,-6.5
-45.0,3.6815538909255388,-16.25
-44.5,3.509748042682347,6.5
-45.0,3.5158839658338894,10.5625
-45.0,3.54042765844006,4.0625
-44.5,3.485204350076177,17.875
-44.5,3.5465635815916023,4.0625
-44.5,3.5588354278946874,-1.625
-45.0,3.6263305825616556,-0.8125
-45.0,3.6201946594101133,-8.125
-44.5,3.5772431973493153,-1.625
-44.5,3.5588354278946874,4.0625
-44.5,3.522019888985432,1.625
-45.0,3.5465635815916023,4.875
-44.5,3.5588354278946874,-4.875
-45.0,3.56497135104623,-7.3125
-45.0,3.448388811166921,17.875
-45.0,3.5588354278946874,0.0
-44.5,3.5465635815916023,-0.8125
-45.0,3.485204350076177,7.3125
-45.0,3.411573272257666,17.875
-44.5,3.497476196379262,7.3125
-44.5,3.6201946594101133,-8.9375
-44.5,3.6140587362585705,-14.625
-44.5,3.485204350076177,15.4375
-44.5,3.497476196379262,5.6875
-44.5,3.54042765844006,-0.8125
-44.5,3.4913402732277192,8.9375
-44.5,3.429981041712294,17.875
-44.5,3.4913402732277192,5.6875
-44.5,3.56497135104623,-4.0625
-44.5,3.466796580621549,8.9375
-44.0,3.509748042682347,2.4375
-44.5,3.5158839658338894,-0.8125
-44.5,3.5281558121369745,6.5
-44.5,3.429981041712294,10.5625
-44.5,3.479068426924634,4.0625
-44.0,3.4913402732277192,0.8125
-44.5,3.5833791205008576,-14.625
-45.0,3.485204350076177,7.3125
-44.5,3.4177091954092087,8.125
-44.0,3.472932503773092,10.5625
-44.5,3.4913402732277192,5.6875
-44.5,3.411573272257666,12.1875
-44.5,3.448388811166921,2.4375
-44.5,3.5833791205008576,-10.5625
-44.5,3.442252888015379,13.0
-44.5,3.479068426924634,0.0
-44.5,3.5281558121369745,-4.0625
-44.5,3.3502140407422405,16.25
-44.0,3.5711072741977725,-10.5625
-44.5,3.466796580621549,6.5
-44.5,3.5465635815916023,-6.5
-44.5,3.442252888015379,8.125
-44.0,3.5036121195308043,-4.875
-44.0,3.485204350076177,2.4375
-44.0,3.423845118560751,8.125
-44.0,3.4606606574700063,0.0
-44.5,3.4054373491061236,12.1875
-44.0,3.436116964863836,6.5
-44.0,3.393165502803038,8.9375
-44.0,3.3624858870453256,14.625
-44.0,3.454524734318464,-1.625
-44.5,3.454524734318464,4.0625
-44.0,3.442252888015379,8.125
-44.0,3.466796580621549,1.625
-43.5,3.3624858870453256,15.4375
-44.5,3.4177091954092087,9.75
-44.0,3.485204350076177,-7.3125
-44.0,3.479068426924634,-4.875
-44.0,3.466796580621549,-0.8125
-44.0,3.436116964863836,1.625
-44.0,3.509748042682347,-8.9375
-44.0,3.442252888015379,0.8125
-44.0,3.4054373491061236,4.0625
-43.5,3.448388811166921,-0.8125
-44.0,3.472932503773092,0.0
-44.0,3.3870295796514958,12.1875
-44.0,3.485204350076177,-1.625
-44.0,3.411573272257666,12.1875
-44.0,3.423845118560751,-4.0625
-43.5,3.4054373491061236,0.8125
-44.0,3.4054373491061236,7.3125
-44.0,3.423845118560751,1.625
-44.0,3.3440781175906977,20.3125
-44.0,3.399301425954581,8.9375
-44.0,3.3747577333484107,13.0
-43.5,3.3318062712876126,17.875
-44.0,3.380893656499953,7.3125
-43.5,3.423845118560751,0.0
-44.0,3.3747577333484107,5.6875
-44.0,3.4606606574700063,-12.1875
-43.5,3.32567034813607,9.75
-44.0,3.3440781175906977,10.5625
-43.5,3.3624858870453256,9.75
-43.5,3.380893656499953,4.0625
-43.5,3.448388811166921,-5.6875
-43.5,3.4054373491061236,-0.8125
-43.5,3.3379421944391554,13.0
-43.5,3.368621810196868,-0.8125
-43.5,3.399301425954581,-6.5
-43.5,3.3011266555298997,13.8125
-43.0,3.2459033471660166,17.0625
-43.5,3.411573272257666,-8.125
-43.5,3.3440781175906977,4.875
-43.5,3.2581751934691017,13.0
-43.5,3.3747577333484107,0.0
-43.0,3.3502140407422405,0.0
-43.5,3.4054373491061236,-9.75
-43.5,3.2765829629237295,9.75
-43.5,3.3440781175906977,4.875
-43.0,3.3379421944391554,0.8125
-43.0,3.32567034813607,-2.4375
-43.0,3.2765829629237295,4.875
-43.0,3.2459033471660166,12.1875
-43.0,3.2459033471660166,4.875
-43.0,3.2704470397721868,-1.625
-43.5,3.2949907323783574,-0.8125
-43.0,3.2643111166206444,0.8125
-43.0,3.2459033471660166,0.0
-43.0,3.215223731408304,7.3125
-43.0,3.2459033471660166,5.6875
-43.0,3.2520392703175593,0.0
-43.0,3.1784081924990484,8.9375
-43.0,3.215223731408304,0.8125
-42.5,3.2029518851052186,2.4375
-42.5,3.184544115650591,1.625
-42.5,3.184544115650591,-2.4375
-42.5,3.129320807286708,6.5
-42.5,3.141592653589793,-0.8125
-42.0,3.104777114680538,0.8125
-42.0,3.08636934522591,4.875
-42.0,3.160000423044421,-12.1875
-41.5,3.067961575771282,-0.8125
-41.5,3.055689729468197,-1.625
-42.0,3.0372819600135696,5.6875
-42.0,3.0127382674073995,4.875
-41.5,2.9820586516496865,9.75
-41.5,2.988194574801229,6.5
-41.5,2.9513790358919736,8.9375
-41.0,2.9513790358919736,7.3125
-41.0,2.9820586516496865,0.0
-41.0,3.0066023442558567,-5.6875
-41.5,2.9636508821950587,1.625
-41.0,2.9268353432858034,7.3125
-41.0,2.945243112740431,4.0625
-41.0,2.9084275738311756,7.3125
-41.0,2.9022916506796332,5.6875
-40.5,2.8961557275280905,1.625
-41.0,2.9206994201342606,0.8125
-40.5,2.8838838812250054,4.0625
-40.5,2.84706834231575,5.6875
-41.0,2.804116880254952,10.5625
-40.0,2.8286605728611223,5.6875
-40.5,2.7979809571034093,7.3125
-40.0,2.791845033951867,7.3125
-40.0,2.8102528034064944,-2.4375
-40.0,2.779573187648782,-2.4375
-40.0,2.662990647769473,12.1875
-39.5,2.6875343403756435,2.4375
-40.0,2.705942109830271,-2.4375
-40.0,2.6323110320117604,4.875
-39.5,2.5832236467994196,8.9375
-39.5,2.5709518004963345,6.5
-39.5,2.5832236467994196,-4.0625
-39.5,2.466641106920111,0.8125
-39.5,2.423689644859313,5.6875
-39.5,2.350058567040802,4.0625
-39.0,2.3009711818284617,0.0
-38.5,2.227340104009951,-1.625
-38.5,2.1230294104337273,1.625
-39.0,2.024854640009046,5.6875
-38.5,1.9634954084936207,2.4375
-38.5,1.8223691760081417,7.3125
-38.5,1.761009944492716,6.5
-39.0,1.7426021750380885,4.0625
-39.0,1.7119225592803755,2.4375
-39.0,1.6996507129772904,-0.8125
-39.0,1.6566992509164924,1.625
-39.0,1.6812429435226628,-2.4375
-39.0,1.607611865704152,5.6875
-39.0,1.6137477888556946,6.5
-39.5,1.5830681730979816,6.5
-39.5,1.5707963267948966,7.3125
-39.5,1.5401167110371838,10.5625
-39.5,1.5707963267948966,4.0625
-39.5,1.5462526341887264,5.6875
-39.5,1.4971652489763858,4.0625
-39.0,1.4419419406125027,8.125
-39.0,1.4480778637640452,4.0625
-39.5,1.380582709097077,10.5625
-39.0,1.380582709097077,10.5625
-39.5,1.3867186322486196,4.875
-39.0,1.3928545554001621,-0.8125
-39.0,1.3560390164909069,2.4375
-39.0,1.3314953238847365,7.3125
-39.0,1.3069516312785663,7.3125
-39.0,1.3437671701878218,0.0
-39.0,1.325359400733194,0.8125
-39.0,1.2946797849754812,5.6875
-39.0,1.3008157081270237,2.4375
-39.5,1.2885438618239387,4.875
-39.0,1.2701360923693108,4.875
-39.0,1.325359400733194,-4.875
-39.0,1.214912784005428,7.3125
-39.0,1.2210487071569704,5.6875
-39.5,1.2640001692177683,0.8125
-39.5,1.3008157081270237,-4.875
-39.0,1.2210487071569704,5.6875
-39.0,1.1780972450961724,8.9375
-39.0,1.2333205534600555,2.4375
-39.0,1.1658253987930873,9.75
-39.5,1.214912784005428,4.0625
-39.0,1.2087768608538851,0.8125
-39.5,1.1596894756415448,8.9375
-39.0,1.141281706186917,10.5625
-39.0,1.2026409377023426,1.625
-39.0,1.1719613219446299,5.6875
-39.0,1.1965050145508,-0.8125
-39.0,1.141281706186917,6.5
-39.0,1.1658253987930873,4.875
-39.0,1.1780972450961724,4.0625
-39.0,1.1596894756415448,5.6875
-39.0,1.1780972450961724,0.8125
-39.0,1.2087768608538851,-0.8125
-39.0,1.1596894756415448,2.4375
-39.0,1.1474176293384597,4.0625
-39.0,1.1780972450961724,1.625
-39.0,1.2026409377023426,0.8125
-39.0,1.2210487071569704,-1.625
-39.0,1.1474176293384597,8.125
-39.0,1.1535535524900022,9.75
-39.0,1.1658253987930873,6.5
-39.0,1.1780972450961724,0.8125
-39.0,1.1535535524900022,4.0625
-39.0,1.1474176293384597,7.3125
-39.0,1.2087768608538851,4.875
-39.0,1.214912784005428,0.0
-39.0,1.227184630308513,0.8125
-38.5,1.1903690913992575,4.875
-38.5,1.1780972450961724,8.125
-38.5,1.214912784005428,4.875
-38.5,1.1965050145508,5.6875
-39.0,1.2640001692177683,-1.625
-39.0,1.2087768608538851,8.125
-39.0,1.2087768608538851,7.3125
-39.0,1.239456476611598,4.0625
-39.0,1.2333205534600555,4.0625
-39.0,1.325359400733194,-6.5
-39.0,1.2701360923693108,2.4375
-39.0,1.282407938672396,4.875
-39.0,1.3008157081270237,4.0625
-39.0,1.2640001692177683,8.125
-39.5,1.3192234775816514,2.4375
-39.0,1.3130875544301088,4.875
-39.0,1.337631247036279,2.4375
-39.0,1.337631247036279,2.4375
-39.0,1.325359400733194,7.3125
-39.0,1.3314953238847365,7.3125
-39.0,1.3130875544301088,8.125
-39.0,1.3130875544301088,10.5625
-39.5,1.3314953238847365,8.9375
-39.0,1.3744467859455345,4.0625
-39.0,1.4173982480063325,4.0625
-39.0,1.3928545554001621,6.5
-39.0,1.4480778637640452,0.8125
-39.0,1.4419419406125027,0.0
-39.0,1.4542137869155878,1.625
-39.0,1.4787574795217582,2.4375
-39.0,1.4664856332186729,4.0625
-39.0,1.5155730184310134,-2.4375
-39.0,1.4910293258248433,0.0
-39.0,1.4910293258248433,2.4375
-39.0,1.509437095279471,4.0625
-39.0,1.5462526341887264,-1.625
-39.0,1.5278448647340985,6.5
-39.5,1.533980787885641,4.875
-39.0,1.5401167110371838,5.6875
-39.0,1.564660403643354,4.0625
-39.0,1.5401167110371838,8.125
-39.0,1.5707963267948966,5.6875
-39.0,1.5707963267948966,6.5
-39.0,1.5892040962495242,4.0625
-39.5,1.6014759425526093,6.5
-39.0,1.6505633277649499,-2.4375
-38.5,1.662835174068035,-0.8125
-39.0,1.662835174068035,0.0
-38.5,1.6505633277649499,4.875
-39.5,1.6382914814618648,6.5
-39.0,1.6873788666742053,5.6875
-39.0,1.6812429435226628,5.6875
-38.5,1.7241944055834606,-2.4375
-39.0,1.7303303287350031,0.0
-38.5,1.6873788666742053,8.125
-38.5,1.736466251886546,1.625
-38.5,1.6873788666742053,9.75
-38.5,1.7303303287350031,6.5
-39.0,1.7794177139473437,0.0
-38.5,1.7548740213411735,8.9375
-38.5,1.7855536370988863,1.625
-38.5,1.7916895602504288,4.875
-39.0,1.7978254834019713,4.875
-38.5,1.8223691760081417,2.4375
-38.5,1.846912868614312,2.4375
-38.5,1.8775924843720249,-1.625
-38.5,1.8407769454627694,9.75
-38.5,1.8960002538266525,0.0
-39.0,1.8714565612204823,6.5
-38.5,1.902136176978195,0.0
-38.5,1.902136176978195,6.5
-38.5,1.8653206380689396,13.8125
-38.5,1.8653206380689396,15.4375
-38.5,1.9205439464328227,4.875
-38.5,1.9573594853420782,4.0625
-38.5,1.9696313316451632,2.4375
-38.5,1.9389517158874505,9.75
-38.5,1.9757672547967058,5.6875
-38.5,1.9757672547967058,8.125
-38.5,2.024854640009046,6.5
-38.5,2.024854640009046,5.6875
-38.5,2.043262409463674,5.6875
-38.5,2.067806102069844,4.875
-38.5,2.0493983326152168,6.5
-39.0,2.073942025221387,7.3125
-38.5,2.1046216409791,4.0625
-38.5,2.110757564130642,5.6875
-38.5,2.1046216409791,8.125
-38.5,2.1598449493429825,0.8125
-38.5,2.116893487282185,8.9375
-38.5,2.184388641949153,0.8125
-39.0,2.1475731030398975,13.0
-38.5,2.184388641949153,7.3125
-39.0,2.184388641949153,8.9375
-39.0,2.2212041808584084,7.3125
-38.5,2.2518837966161214,8.125
-39.0,2.282563412373834,2.4375
-39.0,2.2457478734645786,9.75
-39.0,2.325514874434632,0.8125
-39.0,2.337786720737717,4.0625
-39.0,2.356194490192345,5.6875
-39.0,2.380738182798515,4.875
-39.0,2.399145952253143,2.4375
-39.0,2.435961491162398,1.625
-38.5,2.4605051837685683,1.625
-38.5,2.454369260617026,4.0625
-39.0,2.448233337465483,8.9375
-39.0,2.5034566458293663,1.625
-39.0,2.5157284921324514,5.6875
-39.5,2.5402721847386216,6.5
-39.0,2.5770877236478773,1.625
-39.0,2.5893595699509624,6.5
-38.5,2.662990647769473,-1.625
-38.5,2.6568547246179306,4.875
-39.0,2.6813984172241008,4.875
-39.0,2.693670263527186,7.3125
-39.0,2.748893571891069,1.625
-39.5,2.7550294950426117,9.75
-39.5,2.8102528034064944,4.0625
-39.5,2.8654761117703775,4.875
-39.5,2.945243112740431,-4.0625
-39.5,2.9513790358919736,0.0
-39.5,2.9513790358919736,6.5
-40.0,3.0372819600135696,-0.8125
-40.0,3.018874190558942,6.5
-40.5,3.074097498922825,4.0625
-40.5,3.08636934522591,5.6875
-40.5,3.129320807286708,4.0625
-40.5,3.153864499892878,4.875
-40.5,3.215223731408304,-0.8125
-40.5,3.2029518851052186,7.3125
-40.0,3.2643111166206444,-0.8125
-40.5,3.2704470397721868,6.5
-40.5,3.2949907323783574,2.4375
-40.5,3.356349963893783,0.0
-40.5,3.3440781175906977,8.125
-40.5,3.423845118560751,-2.4375
-40.5,3.429981041712294,4.0625
-41.0,3.522019888985432,-7.3125
-41.0,3.448388811166921,1.625
-41.0,3.485204350076177,9.75
-41.0,3.5588354278946874,-4.0625
-41.0,3.552699504743145,1.625
-41.5,3.5956509668039427,0.0
-41.5,3.6876898140770815,-9.75
-41.5,3.5711072741977725,8.125
-41.5,3.6263305825616556,4.0625
-42.0,3.6876898140770815,-4.0625
-42.0,3.6570101983193686,2.4375
-42.0,3.6876898140770815,1.625
-42.5,3.730641276137879,-4.0625
-42.5,3.736777199289422,-7.3125
-43.0,3.724505352986337,-1.625
-43.0,3.736777199289422,1.625
-43.0,3.7429131224409646,0.0
-43.5,3.80427235395639,-6.5
-43.0,3.773592738198677,-4.0625
-43.5,3.773592738198677,-2.4375
-43.5,3.810408277107933,1.625
-44.0,3.736777199289422,5.6875
-44.0,3.8410878928656453,-8.125
-44.0,3.865631585471816,-13.0
-44.5,3.706097583531709,10.5625
-44.0,3.773592738198677,0.0
-44.5,3.730641276137879,8.9375
-45.0,3.859495662320273,-8.9375
-45.0,3.8533597391687304,-13.0
-45.0,3.877903431774901,-16.25
-45.5,3.8840393549264434,-20.3125
-45.5,3.785864584501762,-0.8125
-45.5,3.7981364308048478,-7.3125
-45.5,3.736777199289422,0.8125
-45.5,3.7122335066832517,0.8125
-45.5,3.761320891895592,-1.625
-45.5,3.767456815047135,-10.5625
-46.5,3.724505352986337,1.625
-45.5,3.7429131224409646,-4.875
-46.0,3.706097583531709,-7.3125
-46.5,3.5895150436524004,14.625
-46.5,3.6324665057131984,-4.0625
-46.5,3.7429131224409646,-22.75
-46.5,3.663146121470911,-2.4375
-47.0,3.6386024288647407,-5.6875
-46.5,3.552699504743145,4.0625
-47.0,3.5281558121369745,7.3125
-47.0,3.6815538909255388,-17.875
-47.5,3.5465635815916023,-1.625
-47.0,3.5342917352885173,13.0
-47.5,3.54042765844006,1.625
-47.5,3.4606606574700063,4.875
-47.5,3.448388811166921,4.875
-47.5,3.4913402732277192,-4.0625
-47.5,3.749049045592507,-51.25
-47.5,3.411573272257666,0.8125
-48.0,3.313398501832985,17.0625
-47.5,3.436116964863836,-8.9375
-48.0,3.3870295796514958,-1.625
-48.0,3.380893656499953,-4.0625
-48.0,3.227495577711389,14.625
-48.0,3.2213596545598464,22.75
-48.0,3.2520392703175593,12.1875
-48.5,3.3011266555298997,-5.6875
-48.5,3.215223731408304,8.125
-48.5,3.2213596545598464,0.8125
-48.5,3.172272269347506,1.625
-49.0,3.117048960983623,7.3125
-48.5,3.055689729468197,15.4375
-49.0,3.153864499892878,-8.125
-48.5,3.0372819600135696,13.8125
-49.0,3.067961575771282,0.8125
-48.5,2.945243112740431,12.1875
-49.0,3.043417883165112,-4.0625
-49.0,3.031146036862027,4.0625
-49.0,2.9820586516496865,-2.4375
-49.0,2.988194574801229,-13.0
-48.5,2.791845033951867,14.625
-49.5,1.9634954084936207,7.3125
-50.0,2.0371264863121317,-13.8125
-50.0,1.761009944492716,17.875
-50.0,1.9573594853420782,-8.9375
-50.0,1.8775924843720249,-13.0
-50.5,1.7978254834019713,-10.5625
-50.5,1.552388557340269,0.8125
-50.5,1.6137477888556946,-0.8125
-50.5,1.5462526341887264,4.875
-50.0,1.4051264017032472,9.75
-50.5,1.3314953238847365,7.3125
-51.0,1.4971652489763858,-27.625
-51.0,1.380582709097077,-22.75
-51.0,1.227184630308513,7.3125
-51.5,1.325359400733194,-16.25
-50.5,1.2762720155208536,-27.625
-51.0,1.0369710126106935,1.625
-51.0,0.7669903939428205,34.9375
-51.5,0.9633399347921826,4.875
-50.5,0.859029241215959,13.8125
-51.0,0.8713010875190442,7.3125
-50.5,0.7853981633974483,9.75
-51.5,0.7853981633974483,4.875
-51.0,0.6688156235181395,14.625
-52.0,0.7301748550335652,24.375
-50.5,0.7363107781851077,4.0625
-51.0,0.6994952392758523,4.875
-51.0,0.7976700097005334,-9.75
-51.0,0.7240389318820226,-22.75
-51.5,0.662679700366597,-13.0
-51.0,0.5767767762450011,8.9375
-51.0,0.6504078540635119,-10.5625
-50.5,0.36815538909255385,26.8125
-51.0,0.5031456984264903,5.6875
-51.5,0.4172427743048944,23.5625
-50.5,0.42337869745643697,5.6875
-51.5,0.37429131224409645,13.8125
-52.0,0.11044661672776616,54.5
-51.0,0.3436116964863836,8.125
-50.5,0.34974761963792617,-0.8125
-50.5,0.4663301595172349,-4.875
-51.0,0.20248546400090464,21.125
-50.5,0.4049709280018093,-7.3125
-51.0,0.34974761963792617,-0.8125
-51.0,0.2761165418194154,-5.6875
-51.5,0.2761165418194154,-10.5625
-51.0,0.21475731030398976,7.3125
-50.5,0.16566992509164924,5.6875
-51.5,0.2270291566070749,-6.5
-51.0,0.07976700097005335,13.8125
-51.5,0.2638446955163303,-8.9375
-51.0,0.07976700097005335,21.125
-50.5,0.1043106935762236,10.5625
-50.5,0.1043106935762236,-0.8125
-50.5,0.030679615757712823,23.5625
-51.0,6.264777537724958,15.4375
-50.0,0.06135923151542565,4.875
-51.5,6.270913460876501,6.5
-51.0,0.018407769454627694,7.3125
-50.5,6.240233845118788,12.1875
-51.5,6.258641614573416,-0.8125
-51.0,0.0674951546669682,-8.9375
-51.5,6.2034183062095325,8.9375
-51.5,6.14819499784565,16.25
-50.5,6.270913460876501,-2.4375
-50.0,6.17273869045182,13.8125
-51.0,0.030679615757712823,-12.1875
-50.5,6.191146459906448,-0.8125
-50.0,6.22182607566416,4.0625
-51.5,6.209554229361076,-5.6875
-51.5,6.209554229361076,-8.9375
-50.5,6.12365130523948,6.5
-51.0,6.019340611663256,13.0
-51.5,6.0991076126333095,-19.5
-51.5,6.050020227420969,1.625
-50.5,6.129787228391022,-7.3125
-51.0,5.976389149602458,13.8125
-51.5,6.080699843178682,-12.1875
-49.5,5.945709533844745,19.5
-51.5,6.056156150572511,-12.1875
-50.0,6.068427996875596,-5.6875
-51.0,5.853670686571607,21.9375
-51.0,6.037748381117884,-13.0
-51.0,5.9518454569962875,-1.625
-50.0,5.93343768754166,8.9375
-50.0,5.939573610693203,6.5
-50.5,5.921165841238575,8.9375
-50.0,5.9088939949354895,8.9375
-50.5,5.970253226450915,-4.0625
-50.5,5.8659425328746915,8.9375
-50.5,5.93343768754166,-2.4375
-50.5,5.792311455056181,23.5625
-51.0,6.0991076126333095,-28.4375
-50.0,5.773903685601553,21.9375
-51.5,5.829126993965437,8.9375
-50.5,5.872078456026235,10.5625
-50.0,5.822991070813893,13.8125
-49.5,5.921165841238575,1.625
-50.5,5.792311455056181,15.4375
-49.5,5.841398840268521,10.5625
-50.0,5.872078456026235,5.6875
-50.0,5.890486225480862,-4.0625
-51.0,5.816855147662351,5.6875
-50.5,5.878214379177777,-0.8125
-50.0,5.890486225480862,23.5625
-51.0,6.092971689481767,-35.75
-49.5,5.915029918087033,0.8125
-50.5,5.8045833013592665,23.5625
-50.5,5.921165841238575,1.625
-50.5,5.878214379177777,12.1875
-50.0,5.927301764390117,6.5
-50.0,6.025476534814799,-8.9375
-51.0,5.872078456026235,4.0625
-51.5,5.988660995905543,-13.0
-50.0,6.037748381117884,-7.3125
-51.0,5.9088939949354895,0.0
-50.0,5.915029918087033,13.0
-50.0,5.988660995905543,-7.3125
-50.0,5.970253226450915,4.0625
-49.5,6.062292073724054,-12.1875
-51.0,6.209554229361076,-43.125
-51.0,5.939573610693203,8.125
-50.0,6.068427996875596,4.875
-51.0,5.982525072754001,8.9375
-50.0,6.050020227420969,6.5
-50.5,5.994796919057086,13.8125
-50.0,6.105243535784852,21.125
-50.5,0.05522330836388308,-22.75
-50.5,6.1850105367549055,9.75
-50.5,6.270913460876501,-0.8125
-49.5,0.02454369260617026,4.0625
-50.0,0.04295146206079795,-9.75
-50.0,0.12885438618239387,-5.6875
-50.0,0.0,25.1875
-49.5,0.1227184630308513,20.3125
-49.0,0.16566992509164924,7.3125
-49.5,0.22089323345553233,8.125
-49.5,0.34974761963792617,-2.4375
-49.0,0.4724660826687775,-6.5
-49.0,0.521553467881118,12.1875
-48.5,0.8344855486097889,-13.8125
-49.0,0.6994952392758523,31.6875
-48.0,0.944932165337555,16.25
-48.0,1.1228739367322893,20.3125
-48.5,1.41126232485479,14.625
-48.5,1.7732817907958012,-4.875
-48.5,1.7548740213411735,16.25
-49.0,1.8223691760081417,31.6875
-49.0,2.184388641949153,-1.625
-49.5,2.2641556429192065,5.6875
-49.0,2.478912953223196,6.5
-50.0,2.3930100291016,16.25
-50.0,2.509592568980909,9.75
-49.5,2.5770877236478773,9.75
-49.5,2.724349879284899,8.125
-49.0,2.890019804376548,-1.625
-50.0,2.779573187648782,5.6875
-50.0,2.779573187648782,19.5
-50.0,2.9697868053466014,-13.8125
-51.5,2.9206994201342606,13.0
-51.0,2.9697868053466014,9.75
-52.0,3.215223731408304,-22.75
-50.5,3.1354567304382504,6.5
-50.0,3.2397674240144743,-6.5
-51.0,3.172272269347506,6.5
-51.0,3.2213596545598464,20.3125
-50.5,3.356349963893783,4.0625
-51.0,3.2090878082567613,13.0
-50.5,3.227495577711389,22.75
-50.5,3.2397674240144743,12.1875
-51.5,3.3195344249845276,20.3125
-51.0,3.2888548092268146,21.9375
-50.5,3.466796580621549,-0.8125
-51.5,3.3379421944391554,10.5625
-51.0,3.4054373491061236,-9.75
-51.5,3.399301425954581,13.8125
-50.5,3.2704470397721868,21.125
-51.0,3.399301425954581,4.0625
-51.0,3.436116964863836,-16.25
-51.0,3.393165502803038,22.75
-51.5,3.448388811166921,2.4375
-51.5,3.448388811166921,-2.4375
-50.5,3.6692820446224537,-39.0
-52.0,3.454524734318464,20.3125
-51.0,3.5772431973493153,6.5
-51.5,3.509748042682347,21.125
-52.0,3.761320891895592,-23.5625
-51.5,3.6999616603801666,-7.3125
-51.0,3.6570101983193686,4.875
-51.0,3.5342917352885173,9.75
-50.5,3.552699504743145,23.5625
-50.5,3.6447383520162835,4.0625
-51.0,3.552699504743145,22.75
-50.5,3.663146121470911,4.875
-51.0,3.6999616603801666,-4.0625
-52.0,3.5833791205008576,30.0625
-51.5,3.730641276137879,7.3125
-51.0,3.6754179677739964,14.625
-51.5,3.834951969714103,-2.4375
-51.5,4.0558452031696355,-26.8125
-51.5,3.9822141253511245,-13.8125
-50.5,3.822680123411018,5.6875
-51.0,3.8717675086233583,20.3125
-50.0,3.77972866135022,17.0625
-50.5,3.8533597391687304,20.3125
-50.0,4.01902966426038,7.3125
-50.5,4.04357335686655,13.0
-50.5,3.8717675086233583,31.6875
-50.5,4.111068511533518,7.3125
-50.0,4.178563666200486,-8.125
-50.0,4.154019973594316,-9.75
-49.0,4.172427743048944,-17.0625
-49.5,4.2092432819582,5.6875
-49.0,4.239922897715912,-4.0625
-49.0,4.252194744018997,-1.625
-48.5,4.295146206079795,0.0
-48.0,4.252194744018997,10.5625
-47.5,4.331961744989051,1.625
-47.5,4.313553975534423,2.4375
-47.5,4.399456899656019,-7.3125
-47.0,4.424000592262189,-4.0625
-46.5,4.313553975534423,10.5625
-46.0,4.411728745959104,-7.3125
-46.0,4.3503695144436785,0.8125
-45.5,4.344233591292136,5.6875
-45.0,4.344233591292136,-0.8125
-45.0,4.319689898685965,4.0625
-44.5,4.313553975534423,-9.75
-44.0,4.252194744018997,0.8125
-44.0,4.276738436625168,-2.4375
-43.5,4.28287435977671,-9.75
-43.0,4.221515128261284,-1.625
-43.0,4.196971435655114,-8.125
-43.0,4.178563666200486,-10.5625
-43.0,4.1172044346850605,-7.3125
-43.0,4.025165587411922,2.4375
-43.0,4.0558452031696355,-13.0
-43.0,3.902447124381071,5.6875
-43.0,3.77972866135022,19.5
-43.0,3.816544200259475,4.875
-43.0,3.834951969714103,1.625
-43.5,3.7551849687440497,6.5
-43.0,3.693825737228624,12.1875
-43.0,3.6570101983193686,5.6875
-43.5,3.6815538909255388,2.4375
-44.0,3.718369429834794,-7.3125
-44.0,3.6754179677739964,2.4375
-44.5,3.663146121470911,8.9375
-44.5,3.7429131224409646,-8.125
-45.0,3.6692820446224537,8.9375
-44.5,3.724505352986337,2.4375
-45.5,3.730641276137879,13.8125
-46.0,3.6999616603801666,14.625
-45.5,3.834951969714103,7.3125
-45.5,3.9638063558964967,-10.5625
-46.0,3.8963112012295285,4.0625
-45.5,3.9269908169872414,0.8125
-45.0,3.9760782021995817,-2.4375
-44.5,3.9699422790480394,-5.6875
-45.0,3.9515345095934116,-0.8125
-45.0,3.9392626632903265,2.4375
-44.0,3.9576704327449543,1.625
-44.5,3.9453985864418692,-4.0625
-44.0,3.933126740138784,-6.5
-43.5,3.8288160465625602,8.125
-44.0,3.816544200259475,0.8125
-44.0,3.8288160465625602,-1.625
-44.0,3.736777199289422,9.75
-44.0,3.761320891895592,4.0625
-43.5,3.730641276137879,5.6875
-43.5,3.724505352986337,6.5
-44.0,3.724505352986337,8.125
-44.0,3.663146121470911,15.4375
-44.0,3.663146121470911,14.625
-44.5,3.724505352986337,6.5
-44.0,3.785864584501762,1.625
-44.0,3.730641276137879,4.875
-44.5,3.7122335066832517,9.75
-44.5,3.718369429834794,9.75
-44.5,3.730641276137879,8.125
-44.0,3.706097583531709,17.875
-44.0,3.749049045592507,6.5
-44.0,3.724505352986337,6.5
-44.5,3.773592738198677,4.0625
-44.0,3.7981364308048478,-1.625
-44.0,3.730641276137879,6.5
-44.5,3.6876898140770815,14.625
-44.0,3.767456815047135,-5.6875
-44.0,3.724505352986337,4.0625
-44.0,3.730641276137879,9.75
-44.0,3.736777199289422,6.5
-44.0,3.718369429834794,4.0625
-44.0,3.7122335066832517,5.6875
-44.0,3.6692820446224537,10.5625
-44.5,3.6079228131070282,17.875
-44.0,3.706097583531709,5.6875
-44.5,3.693825737228624,6.5
-44.5,3.5711072741977725,16.25
-44.0,3.5833791205008576,13.8125
-44.5,3.6140587362585705,7.3125
-45.0,3.693825737228624,0.0
-44.5,3.6386024288647407,15.4375
-44.5,3.6324665057131984,10.5625
-44.5,3.56497135104623,14.625
-44.5,3.6754179677739964,-4.0625
-45.0,3.6079228131070282,19.5
-45.0,3.5772431973493153,13.8125
-45.0,3.522019888985432,21.125
-45.0,3.650874275167826,0.0
-44.5,3.5895150436524004,13.8125
-44.5,3.6017868899554855,8.125
-45.0,3.6447383520162835,8.125
-45.5,3.5036121195308043,29.25
-45.5,3.552699504743145,22.75
-45.5,3.56497135104623,27.625
-45.5,3.7429131224409646,-6.5
-45.5,3.5158839658338894,34.9375
-45.0,3.6447383520162835,14.625
-46.0,3.650874275167826,16.25
-45.5,3.6263305825616556,29.25
-45.5,3.718369429834794,5.6875
-46.0,3.6570101983193686,13.0
-46.0,3.706097583531709,0.8125
-46.0,3.6263305825616556,23.5625
-46.0,3.724505352986337,12.1875
-46.0,3.650874275167826,34.9375
-46.5,3.5281558121369745,50.4375
-45.5,3.7122335066832517,19.5
-46.0,3.730641276137879,20.3125
-46.0,3.8533597391687304,8.9375
-46.0,3.77972866135022,13.0
-45.5,3.6876898140770815,23.5625
-46.0,3.834951969714103,8.9375
-46.0,3.859495662320273,6.5
-46.5,3.761320891895592,21.9375
-46.5,3.810408277107933,25.1875
-46.0,3.859495662320273,21.9375
-46.5,3.890175278077986,14.625
-46.5,3.8840393549264434,24.375
-46.5,3.859495662320273,23.5625
-47.0,3.847223816017188,34.125
-46.0,4.01902966426038,7.3125
-46.0,3.988350048502667,10.5625
-46.0,4.0128937411088375,0.8125
-46.0,4.006757817957295,15.4375
-45.5,4.0128937411088375,10.5625
-45.5,3.9760782021995817,22.75
-45.5,4.037437433715008,1.625
-45.5,4.104932588381976,0.0
-45.5,4.025165587411922,8.9375
-45.5,4.0558452031696355,8.125
-46.0,3.9576704327449543,20.3125
-45.0,4.031301510563465,9.75
-45.5,4.006757817957295,8.9375
-45.5,3.9638063558964967,21.9375
-45.5,4.04357335686655,6.5
-45.5,4.04357335686655,8.125
-45.5,4.086524818927348,4.875
-45.0,4.01902966426038,16.25
-45.5,4.031301510563465,15.4375
-45.0,4.049709280018092,7.3125
-45.0,4.049709280018092,-0.8125
-45.5,4.01902966426038,9.75
-45.0,3.9944859716542096,14.625
-45.0,4.0128937411088375,8.9375
-45.0,3.9515345095934116,17.875
-45.0,3.988350048502667,13.8125
-45.0,3.9453985864418692,17.875
-45.0,3.988350048502667,13.0
-45.0,4.01902966426038,12.1875
-44.5,4.06811704947272,2.4375
-45.0,3.9760782021995817,13.0
-45.0,3.9699422790480394,13.8125
-45.0,4.037437433715008,2.4375
-45.0,3.9453985864418692,17.875
-45.5,3.9576704327449543,12.1875
-45.0,3.9944859716542096,8.9375
-44.5,3.9576704327449543,14.625
-44.5,4.074252972624263,-4.0625
-45.0,4.086524818927348,-5.6875
-44.5,3.9944859716542096,8.9375
-45.0,4.006757817957295,7.3125
-45.0,3.9944859716542096,9.75
-45.0,4.01902966426038,1.625
-45.0,4.080388895775806,0.0
-44.5,4.0558452031696355,-0.8125
-44.5,4.006757817957295,8.125
-44.5,4.01902966426038,-2.4375
-44.5,3.9822141253511245,13.0
-44.5,4.031301510563465,0.0
-44.5,3.9392626632903265,14.625
-44.5,3.9822141253511245,5.6875
-44.5,3.9699422790480394,10.5625
-44.5,4.086524818927348,-2.4375
-44.5,3.933126740138784,17.0625
-44.5,4.037437433715008,1.625
-44.5,4.031301510563465,4.875
-44.0,3.9392626632903265,10.5625
-44.5,4.025165587411922,4.875
-44.5,4.061981126321178,0.8125
-44.5,3.9147189706841563,16.25
