-25.5,2.423689644859313,-2.4375
-25.0,2.423689644859313,-0.8125
-25.5,2.4175537217077703,0.0
-25.5,2.435961491162398,-1.625
-25.0,2.429825568010856,-1.625
-25.5,2.429825568010856,-1.625
-25.5,2.429825568010856,-0.8125
-25.0,2.435961491162398,-1.625
-25.0,2.429825568010856,-1.625
-25.0,2.423689644859313,0.8125
-25.5,2.411417798556228,2.4375
-25.5,2.423689644859313,0.0
-25.5,2.435961491162398,-0.8125
-25.0,2.454369260617026,-4.875
-25.5,2.4175537217077703,1.625
-25.5,2.435961491162398,-0.8125
-25.5,2.411417798556228,4.875
-25.5,2.429825568010856,0.8125
-25.5,2.448233337465483,-1.625
-25.5,2.454369260617026,-4.0625
-25.5,2.429825568010856,1.625
-25.5,2.435961491162398,-0.8125
-25.5,2.429825568010856,0.8125
-25.5,2.448233337465483,-0.8125
-25.5,2.429825568010856,0.8125
-25.0,2.442097414313941,-2.4375
-25.5,2.442097414313941,-0.8125
-25.0,2.448233337465483,-0.8125
-25.5,2.448233337465483,-0.8125
-25.5,2.435961491162398,0.8125
-25.5,2.448233337465483,-1.625
-25.5,2.442097414313941,0.0
-25.0,2.4605051837685683,-2.4375
-25.0,2.442097414313941,0.8125
-25.0,2.448233337465483,0.8125
-25.0,2.4605051837685683,-4.0625
-25.5,2.4605051837685683,-0.8125
-25.0,2.448233337465483,1.625
-25.5,2.442097414313941,1.625
-25.0,2.4605051837685683,-0.8125
-25.0,2.466641106920111,-0.8125
-25.0,2.4605051837685683,0.0
-25.0,2.454369260617026,2.4375
-25.0,2.4727770300716534,-0.8125
-25.0,2.478912953223196,-1.625
-25.0,2.4605051837685683,-0.8125
-25.0,2.4605051837685683,1.625
-25.0,2.478912953223196,-2.4375
-25.0,2.4727770300716534,0.8125
-25.0,2.4727770300716534,-1.625
-25.0,2.466641106920111,-0.8125
-25.0,2.478912953223196,-2.4375
-25.0,2.466641106920111,0.0
-25.5,2.466641106920111,-0.8125
-25.0,2.466641106920111,-0.8125
-25.5,2.442097414313941,1.625
-25.0,2.4850488763747385,-4.875
-25.0,2.4605051837685683,0.0
-25.0,2.4727770300716534,-2.4375
-25.5,2.478912953223196,-4.0625
-25.0,2.466641106920111,-2.4375
-25.0,2.466641106920111,-2.4375
-25.0,2.466641106920111,-1.625
-25.0,2.448233337465483,0.8125
-25.5,2.442097414313941,1.625
-25.0,2.4605051837685683,-1.625
-25.0,2.454369260617026,0.0
-25.0,2.448233337465483,0.8125
-25.5,2.448233337465483,-0.8125
-25.0,2.454369260617026,-2.4375
-25.0,2.454369260617026,0.0
-25.5,2.4605051837685683,-2.4375
-25.0,2.429825568010856,1.625
-25.5,2.454369260617026,-0.8125
-25.0,2.454369260617026,0.0
-25.0,2.448233337465483,0.8125
-25.5,2.4605051837685683,-1.625
-25.0,2.448233337465483,0.0
-25.0,2.4605051837685683,-2.4375
-25.5,2.466641106920111,-2.4375
-25.0,2.454369260617026,0.0
-25.0,2.466641106920111,-1.625
-25.5,2.454369260617026,0.0
-25.5,2.466641106920111,-1.625
-25.5,2.466641106920111,-1.625
-25.5,2.466641106920111,-1.625
-25.5,2.478912953223196,-2.4375
-25.0,2.466641106920111,-0.8125
-25.5,2.466641106920111,0.0
-25.5,2.4727770300716534,-0.8125
-25.0,2.4727770300716534,-1.625
-25.0,2.4911847995262812,-4.0625
-25.5,2.4850488763747385,-1.625
-25.0,2.4727770300716534,0.0
-25.0,2.509592568980909,0.0
-25.0,2.5157284921324514,1.625
-25.0,2.509592568980909,4.875
-25.0,2.552544031041707,0.0
-25.0,2.5770877236478773,-1.625
-24.5,2.5770877236478773,0.8125
-25.0,2.5893595699509624,1.625
-24.5,2.6323110320117604,-1.625
-24.5,2.6568547246179306,0.0
-24.5,2.662990647769473,2.4375
-24.5,2.7120780329818137,0.0
-24.5,2.736621725587984,-0.8125
-24.5,2.767301341345697,0.0
-24.5,2.8102528034064944,-1.625
-24.5,2.8102528034064944,6.5
-24.5,2.8777479580734626,0.8125
-24.5,2.9022916506796332,1.625
-24.5,2.9575149590435164,0.8125
-24.5,3.018874190558942,0.0
-25.0,3.08636934522591,-0.8125
-25.0,3.129320807286708,-0.8125
-24.5,3.153864499892878,4.0625
-24.5,3.2336315008629315,1.625
-24.5,3.2704470397721868,4.875
-24.5,3.3379421944391554,2.4375
-24.5,3.380893656499953,1.625
-24.5,3.442252888015379,0.8125
-24.5,3.4913402732277192,1.625
-24.5,3.5465635815916023,0.8125
-24.5,3.5833791205008576,2.4375
-24.5,3.6386024288647407,-0.8125
-24.5,3.663146121470911,2.4375
-24.5,3.706097583531709,1.625
-25.0,3.7429131224409646,0.8125
-25.0,3.77972866135022,2.4375
-25.0,3.834951969714103,0.0
-25.5,3.8840393549264434,-2.4375
-25.5,3.9147189706841563,-2.4375
-25.5,3.9576704327449543,-4.875
-25.5,3.9760782021995817,-1.625
-25.5,4.000621894805752,-1.625
-25.5,4.031301510563465,-4.0625
-25.5,4.037437433715008,-0.8125
-26.0,4.061981126321178,-0.8125
-25.5,4.09266074207889,-2.4375
-25.5,4.1172044346850605,-4.875
-25.5,4.129476280988146,-1.625
-25.5,4.135612204139688,-2.4375
-25.5,4.154019973594316,-1.625
-25.5,4.172427743048944,-0.8125
-26.0,4.178563666200486,0.0
-26.0,4.196971435655114,-1.625
-26.0,4.221515128261284,-2.4375
-26.0,4.246058820867455,-5.6875
-25.5,4.252194744018997,-2.4375
-26.0,4.252194744018997,-0.8125
-26.0,4.276738436625168,-0.8125
-26.0,4.295146206079795,-4.0625
-26.0,4.301282129231338,-2.4375
-26.0,4.289010282928253,1.625
-26.0,4.338097668140593,-4.875
-26.0,4.319689898685965,0.8125
-26.5,4.344233591292136,0.0
-26.0,4.368777283898306,-2.4375
-26.5,4.362641360746763,0.8125
-26.5,4.381049130201391,0.0
-26.5,4.405592822807561,0.0
-26.5,4.417864669110647,0.0
-27.0,4.4362724385652745,-1.625
-27.0,4.448544284868359,-0.8125
-27.0,4.460816131171445,0.8125
-27.0,4.491495746929157,-2.4375
-27.0,4.4976316700806995,-2.4375
-27.0,4.509903516383785,-1.625
-27.5,4.540583132141498,-4.875
-27.5,4.534447208989955,-1.625
-27.5,4.546719055293041,-4.875
-27.5,4.534447208989955,0.8125
-27.5,4.571262747899211,-4.0625
-27.5,4.558990901596125,0.8125
-28.0,4.583534594202296,-1.625
-28.0,4.620350133111551,-7.3125
-28.0,4.608078286808466,-4.0625
-28.0,4.601942363656923,0.0
-28.0,4.626486056263094,-4.0625
-28.0,4.6448938257177215,-4.0625
-28.5,4.626486056263094,0.0
-28.5,4.657165672020807,-1.625
-28.5,4.657165672020807,-1.625
-28.5,4.663301595172349,-1.625
-28.5,4.669437518323892,-1.625
-28.5,4.651029748869264,0.0
-29.0,4.675573441475434,-4.0625
-29.0,4.675573441475434,0.0
-29.0,4.693981210930062,-0.8125
-29.0,4.6878452877785195,0.8125
-29.0,4.700117134081604,-4.0625
-29.0,4.706253057233147,-1.625
-29.0,4.706253057233147,0.8125
-29.0,4.700117134081604,2.4375
-29.0,4.706253057233147,4.0625
-29.0,4.7307967498393175,0.8125
-29.0,4.724660826687775,0.8125
-29.0,4.749204519293945,0.0
-29.0,4.755340442445488,0.0
-29.5,4.749204519293945,2.4375
-29.5,4.76147636559703,2.4375
-29.5,4.779884135051658,-0.8125
-29.5,4.773748211900116,4.0625
-29.5,4.798291904506286,0.0
-29.5,4.822835597112456,-4.0625
-30.0,4.828971520263998,-2.4375
-29.5,4.798291904506286,5.6875
-30.0,4.859651136021712,-6.5
-29.5,4.847379289718626,-4.0625
-30.0,4.8351074434155406,-1.625
-30.0,4.822835597112456,1.625
-30.0,4.859651136021712,-2.4375
-30.0,4.878058905476339,-6.5
-30.0,4.884194828627882,-4.0625
-30.0,4.841243366567084,4.0625
-30.0,4.890330751779424,-4.0625
-30.0,4.871922982324796,1.625
-30.0,4.871922982324796,0.0
-30.5,4.914874444385594,-5.6875
-30.5,4.908738521234052,-4.0625
-30.5,4.890330751779424,4.0625
-30.5,4.884194828627882,4.0625
-30.5,4.890330751779424,2.4375
-30.5,4.914874444385594,0.8125
-30.5,4.902602598082509,6.5
-30.5,4.902602598082509,4.0625
-30.5,4.914874444385594,4.875
-31.0,4.921010367537137,4.0625
-30.5,4.9394181369917645,0.8125
-31.0,4.933282213840222,5.6875
-31.0,4.9823695990525625,-5.6875
-31.0,4.97623367590102,-1.625
-31.0,4.957825906446392,1.625
-31.0,4.95168998329485,4.875
-31.0,4.963961829597935,2.4375
-31.0,4.994641445355648,-2.4375
-31.0,4.9823695990525625,0.0
-31.0,4.963961829597935,4.0625
-31.0,4.970097752749477,4.875
-31.5,4.988505522204105,2.4375
-31.5,5.006913291658733,1.625
-31.5,5.031456984264903,-1.625
-31.5,5.006913291658733,1.625
-31.5,5.006913291658733,8.125
-31.5,5.043728830567988,2.4375
-31.5,5.037592907416445,4.0625
-32.0,5.037592907416445,6.5
-32.0,5.0682725231741586,0.8125
-32.0,5.080544369477243,2.4375
-32.0,5.080544369477243,4.0625
-32.5,5.098952138931871,4.0625
-32.5,5.135767677841127,1.625
-32.5,5.160311370447297,-1.625
-32.5,5.141903600992669,4.0625
-33.0,5.154175447295755,5.6875
-33.0,5.240078371417351,-2.4375
-33.0,5.190990986205009,7.3125
-33.5,5.258486140871978,1.625
-33.5,5.246214294568893,8.125
-33.5,5.307573526084319,0.0
-34.0,5.3198453723874035,0.0
-34.0,5.325981295538946,9.75
-34.5,5.325981295538946,8.125
-34.5,5.442563835418255,-5.6875
-35.0,5.393476450205914,9.75
-35.0,5.485515297479052,-2.4375
-35.5,5.50392306693368,0.0
-35.5,5.5284667595398505,0.0
-36.0,5.620505606812989,-10.5625
-36.5,5.553010452146021,4.875
-36.5,5.6143696836614465,0.0
-37.0,5.620505606812989,7.3125
-37.0,5.651185222570702,4.875
-37.5,5.66959299202533,4.0625
-37.5,5.663457068873787,9.75
-38.0,5.6941366846315,8.125
-38.0,5.724816300389213,4.0625
-38.5,5.743224069843841,2.4375
-38.5,5.798447378207723,0.8125
-38.5,5.8475347634200645,-8.125
-39.0,5.853670686571607,-7.3125
-39.5,5.822991070813893,-0.8125
-39.0,5.8475347634200645,0.0
-39.5,5.798447378207723,5.6875
-40.0,5.798447378207723,12.1875
-39.5,5.859806609723149,0.8125
-40.0,5.8659425328746915,0.0
-40.5,5.8475347634200645,8.9375
-40.5,5.822991070813893,10.5625
-40.5,5.816855147662351,14.625
-40.5,5.878214379177777,0.8125
-41.0,5.835262917116979,8.9375
-40.5,5.884350302329319,0.0
-40.5,5.896622148632405,-0.8125
-41.0,5.884350302329319,0.8125
-41.5,5.884350302329319,-0.8125
-41.5,5.884350302329319,5.6875
-42.0,5.902758071783947,-2.4375
-41.5,5.822991070813893,7.3125
-41.5,5.872078456026235,6.5
-41.5,5.780039608753096,13.8125
-41.0,5.835262917116979,1.625
-41.0,5.767767762450011,17.0625
-41.5,5.915029918087033,-8.125
-41.5,5.970253226450915,-10.5625
-41.5,5.859806609723149,8.9375
-41.5,5.8475347634200645,4.0625
-41.0,5.8045833013592665,14.625
-41.0,5.970253226450915,-16.25
-41.0,5.878214379177777,-0.8125
-41.5,5.853670686571607,4.875
-41.0,5.878214379177777,-0.8125
-41.0,5.853670686571607,4.0625
-41.0,5.816855147662351,10.5625
-41.0,5.945709533844745,-17.0625
-41.0,5.915029918087033,-8.125
-41.0,5.8475347634200645,4.875
-41.0,5.841398840268521,7.3125
-40.5,5.884350302329319,0.0
-40.5,5.829126993965437,5.6875
-41.0,5.829126993965437,9.75
-40.5,5.890486225480862,-2.4375
-40.5,5.835262917116979,10.5625
-40.5,5.8475347634200645,2.4375
-40.5,5.927301764390117,-9.75
-40.0,5.8659425328746915,1.625
-40.0,5.810719224510809,10.5625
-40.0,5.927301764390117,-10.5625
-39.5,5.884350302329319,-2.4375
-40.0,5.810719224510809,12.1875
-39.5,5.786175531904639,16.25
-39.5,5.884350302329319,-8.9375
-39.0,5.8475347634200645,0.8125
-39.0,5.810719224510809,8.9375
-39.0,5.822991070813893,4.875
-38.5,5.8659425328746915,-5.6875
-38.5,5.8045833013592665,8.125
-38.5,5.798447378207723,8.125
-38.0,5.878214379177777,-9.75
-38.0,5.810719224510809,1.625
-38.0,5.798447378207723,8.9375
-37.5,5.767767762450011,8.9375
-37.5,5.8045833013592665,-0.8125
-37.0,5.773903685601553,4.875
-37.0,5.7616318392984684,5.6875
-36.5,5.743224069843841,5.6875
-36.5,5.724816300389213,5.6875
-36.5,5.755495916146925,0.0
-36.0,5.786175531904639,-2.4375
-35.5,5.7616318392984684,-4.875
-35.5,5.7616318392984684,-5.6875
-35.5,5.6941366846315,1.625
-35.0,5.706408530934585,-2.4375
-35.0,5.724816300389213,-7.3125
-34.5,5.700272607783043,-4.875
-34.5,5.632777453116074,1.625
-34.5,5.626641529964532,2.4375
-34.0,5.620505606812989,1.625
-34.0,5.589825991055276,1.625
-33.5,5.565282298449106,6.5
-33.5,5.577554144752192,-2.4375
-33.5,5.583690067903734,0.0
-33.0,5.589825991055276,-2.4375
-33.5,5.565282298449106,-4.875
-33.0,5.50392306693368,4.0625
-33.0,5.485515297479052,4.875
-32.5,5.50392306693368,-0.8125
-32.5,5.50392306693368,-2.4375
-32.5,5.45483568172134,2.4375
-32.0,5.43029198911517,4.875
-32.0,5.43029198911517,0.8125
-32.0,5.393476450205914,8.125
-32.0,5.418020142812084,-0.8125
-32.0,5.405748296509,1.625
-31.5,5.338253141842031,12.1875
-31.5,5.356660911296659,6.5
-31.5,5.387340527054372,-0.8125
-31.5,5.332117218690489,8.125
-31.5,5.325981295538946,8.125
-31.5,5.375068680751287,-4.0625
-31.0,5.313709449235861,6.5
-31.0,5.289165756629691,8.125
-31.0,5.325981295538946,4.875
-31.0,5.283029833478148,6.5
-31.0,5.301437602932776,4.875
-30.5,5.2768939103266055,7.3125
-30.5,5.2768939103266055,5.6875
-30.0,5.313709449235861,-4.0625
-30.5,5.295301679781233,0.0
-30.0,5.264622064023521,6.5
-30.0,5.258486140871978,5.6875
-30.0,5.2768939103266055,1.625
-29.5,5.258486140871978,1.625
-29.5,5.252350217720435,0.8125
-29.5,5.2339424482658075,1.625
-29.5,5.21553467881118,6.5
-29.0,5.227806525114265,1.625
-29.0,5.184855063053467,6.5
-29.0,5.184855063053467,4.875
-28.5,5.154175447295755,7.3125
-28.5,5.148039524144211,8.9375
-28.0,5.148039524144211,4.875
-28.0,5.129631754689584,6.5
-28.0,5.117359908386499,5.6875
-28.0,5.148039524144211,0.8125
-27.5,5.111223985234957,7.3125
-27.5,5.117359908386499,2.4375
-27.5,5.092816215780329,6.5
-27.5,5.098952138931871,4.875
-27.5,5.080544369477243,5.6875
-27.0,5.086680292628786,4.875
-27.5,5.080544369477243,4.875
-27.5,5.086680292628786,2.4375
-27.0,5.086680292628786,2.4375
-27.0,5.062136600022616,5.6875
-27.0,5.056000676871073,6.5
-27.0,5.037592907416445,9.75
-26.5,5.049864753719531,7.3125
-26.5,5.062136600022616,4.0625
-26.5,5.049864753719531,4.0625
-26.5,5.019185137961818,8.125
-26.5,5.037592907416445,-4.875
-26.5,5.0682725231741586,-0.8125
-26.5,5.031456984264903,4.875
-26.5,5.0253210611133605,4.0625
-26.5,5.037592907416445,0.0
-26.5,5.013049214810275,4.0625
-26.5,5.006913291658733,7.3125
-26.5,5.013049214810275,4.875
-26.5,5.0253210611133605,1.625
-26.5,5.013049214810275,4.875
-26.5,5.019185137961818,1.625
-26.0,4.988505522204105,4.875
-26.0,4.988505522204105,6.5
-26.0,4.988505522204105,5.6875
-26.0,4.988505522204105,1.625
-26.0,4.970097752749477,4.875
-26.0,4.9823695990525625,2.4375
-26.0,4.95168998329485,6.5
-26.0,4.957825906446392,5.6875
-25.5,4.95168998329485,5.6875
-25.5,4.945554060143307,2.4375
-25.5,4.9394181369917645,4.875
-25.5,4.957825906446392,0.0
-25.5,4.92714629068868,4.0625
-25.5,4.92714629068868,1.625
-25.5,4.921010367537137,4.0625
-25.5,4.95168998329485,-4.0625
-25.5,4.896466674930966,4.875
-25.5,4.933282213840222,-0.8125
-25.5,4.896466674930966,2.4375
-25.0,4.884194828627882,4.0625
-25.0,4.896466674930966,0.8125
-25.0,4.890330751779424,0.8125
-25.0,4.865787059173254,4.0625
-25.0,4.865787059173254,2.4375
-25.0,4.871922982324796,1.625
-25.0,4.859651136021712,2.4375
-25.0,4.853515212870168,2.4375
-25.0,4.865787059173254,4.0625
-25.0,4.859651136021712,4.0625
-25.0,4.859651136021712,0.0
-24.5,4.828971520263998,4.0625
-24.5,4.859651136021712,-2.4375
-25.0,4.822835597112456,2.4375
-24.5,4.81056375080937,2.4375
-24.5,4.816699673960914,2.4375
-24.5,4.798291904506286,4.0625
-24.5,4.804427827657828,4.0625
-24.5,4.798291904506286,0.0
-24.5,4.7860200582032,0.0
-24.5,4.767612288748572,1.625
-24.5,4.76147636559703,1.625
-24.5,4.749204519293945,0.8125
-24.5,4.724660826687775,4.0625
-24.5,4.718524903536232,0.8125
-24.5,4.700117134081604,0.0
-24.0,4.693981210930062,-0.8125
-24.0,4.681709364626977,0.0
-24.0,4.657165672020807,2.4375
-23.5,4.681709364626977,-4.875
-23.5,4.6448938257177215,-0.8125
-23.5,4.651029748869264,-4.0625
-23.5,4.626486056263094,-2.4375
-23.5,4.577398671050753,2.4375
-23.5,4.552854978444583,4.0625
-23.5,4.528311285838413,6.5
-23.0,4.534447208989955,1.625
-22.5,4.503767593232243,4.875
-23.0,4.473087977474529,5.6875
-22.5,4.466952054322987,5.6875
-22.5,4.454680208019902,4.0625
-22.5,4.399456899656019,8.125
-22.5,4.424000592262189,2.4375
-23.5,4.2092432819582,28.4375
-22.0,4.368777283898306,7.3125
-22.5,4.362641360746763,6.5
-22.0,4.338097668140593,8.9375
-22.5,4.295146206079795,13.0
-22.0,4.344233591292136,5.6875
-22.0,4.325825821837508,7.3125
-22.0,4.356505437595221,0.0
-22.0,4.28287435977671,10.5625
-22.5,4.172427743048944,25.1875
-22.0,4.319689898685965,4.875
-22.0,4.215379205109742,17.0625
-21.5,4.289010282928253,6.5
-21.5,4.264466590322082,8.125
-22.0,4.252194744018997,8.125
-22.5,4.086524818927348,30.0625
-21.5,4.2092432819582,10.5625
-22.0,4.147884050442774,17.0625
-22.5,4.031301510563465,34.125
-21.5,4.2092432819582,5.6875
-22.0,4.074252972624263,24.375
-22.0,4.0987966652304335,19.5
-22.0,4.1172044346850605,14.625
-21.5,4.0987966652304335,14.625
-21.5,4.184699589352029,0.8125
-22.5,3.9208548938356986,37.375
-21.5,4.025165587411922,19.5
-21.5,4.0128937411088375,19.5
-22.5,3.792000507653305,47.1875
-21.5,4.104932588381976,-0.8125
-21.5,3.9699422790480394,17.0625
-21.5,4.006757817957295,8.9375
-22.0,3.7981364308048478,36.5625
-21.5,3.9638063558964967,8.125
-21.5,3.9269908169872414,13.0
-21.5,3.9699422790480394,4.0625
-21.5,3.988350048502667,-2.4375
-21.5,3.9085830475326135,6.5
-22.0,3.9392626632903265,0.8125
-21.5,3.9515345095934116,-4.0625
-21.5,3.7429131224409646,26.8125
-21.5,3.877903431774901,6.5
-22.0,3.9208548938356986,-2.4375
-21.5,3.865631585471816,4.0625
-21.5,3.7551849687440497,19.5
-21.5,3.7551849687440497,16.25
-21.5,3.80427235395639,8.125
-21.5,3.8410878928656453,1.625
-21.0,3.6201946594101133,2.4375
-20.5,3.6140587362585705,2.4375
-20.5,3.5833791205008576,4.875
-20.5,3.56497135104623,2.4375
-20.5,3.54042765844006,4.0625
-20.5,3.5342917352885173,1.625
-21.0,3.509748042682347,1.625
-20.5,3.497476196379262,0.8125
-20.5,3.466796580621549,2.4375
-20.5,3.429981041712294,5.6875
-20.5,3.429981041712294,2.4375
-20.5,3.429981041712294,0.8125
-20.5,3.399301425954581,4.0625
-20.5,3.393165502803038,1.625
-21.0,3.3624858870453256,4.875
-20.5,3.3440781175906977,4.875
-21.0,3.3502140407422405,1.625
-21.0,3.3440781175906977,0.0
-21.0,3.313398501832985,4.0625
-21.0,3.313398501832985,0.8125
-21.0,3.313398501832985,0.8125
-21.0,3.2949907323783574,1.625
-20.5,3.2949907323783574,1.625
-21.0,3.2827188860752723,1.625
-21.0,3.2949907323783574,-0.8125
-21.0,3.2827188860752723,0.0
-20.5,3.2949907323783574,0.0
-21.0,3.2765829629237295,0.8125
-21.0,3.2765829629237295,1.625
-21.0,3.2949907323783574,-0.8125
-21.0,3.2827188860752723,0.8125
-21.0,3.2888548092268146,0.0
-20.5,3.2888548092268146,0.8125
-21.0,3.2827188860752723,0.8125
-20.5,3.2765829629237295,1.625
-21.0,3.2888548092268146,0.0
-21.0,3.2765829629237295,2.4375
-21.0,3.2827188860752723,0.8125
-21.0,3.2704470397721868,2.4375
-21.0,3.2827188860752723,1.625
-21.0,3.2888548092268146,0.8125
-21.0,3.2827188860752723,1.625
-21.0,3.2765829629237295,2.4375
-21.0,3.2888548092268146,0.8125
-20.5,3.2827188860752723,1.625
-21.0,3.2827188860752723,1.625
-21.0,3.2888548092268146,0.0
-21.0,3.2765829629237295,4.0625
-21.0,3.2888548092268146,0.8125
-21.0,3.2888548092268146,1.625
-21.0,3.2888548092268146,0.8125
-21.0,3.2765829629237295,2.4375
-21.0,3.2827188860752723,1.625
-21.0,3.2765829629237295,2.4375
-21.0,3.2888548092268146,0.8125
-21.0,3.2765829629237295,2.4375
-21.0,3.2765829629237295,2.4375
-21.0,3.2888548092268146,0.0
-21.0,3.2949907323783574,0.0
-21.0,3.2827188860752723,1.625
-21.0,3.2643111166206444,4.0625
-21.0,3.2949907323783574,-1.625
-21.0,3.2888548092268146,0.0
-21.0,3.2827188860752723,1.625
-21.0,3.2765829629237295,2.4375
-21.0,3.2704470397721868,4.0625
-21.0,3.2888548092268146,0.0
-21.0,3.2704470397721868,2.4375
-21.0,3.2888548092268146,0.8125
-21.0,3.2765829629237295,1.625
-21.0,3.2888548092268146,0.0
-21.0,3.2643111166206444,4.875
-21.0,3.2827188860752723,1.625
-21.0,3.2888548092268146,0.8125
-20.5,3.2765829629237295,2.4375
-21.0,3.2949907323783574,0.0
-21.0,3.2827188860752723,1.625
-21.0,3.2888548092268146,0.8125
-20.5,3.2827188860752723,1.625
-20.5,3.2704470397721868,2.4375
-20.5,3.2888548092268146,0.8125
-21.0,3.2888548092268146,0.8125
-21.0,3.2888548092268146,0.8125
-21.0,3.2888548092268146,0.8125
-21.0,3.2888548092268146,0.0
-21.0,3.2765829629237295,2.4375
-21.0,3.2888548092268146,0.8125
-21.0,3.2888548092268146,0.0
-21.0,3.2704470397721868,2.4375
-21.0,3.2888548092268146,0.8125
-21.0,3.3072625786814425,-1.625
-20.5,3.2765829629237295,2.4375
-21.0,3.2704470397721868,2.4375
-21.0,3.2827188860752723,0.8125
-21.0,3.2827188860752723,1.625
-21.0,3.2888548092268146,0.8125
-21.0,3.2827188860752723,1.625
-20.5,3.2827188860752723,0.8125
-21.0,3.2765829629237295,2.4375
-21.0,3.2949907323783574,0.0
-21.0,3.2827188860752723,1.625
-21.0,3.2643111166206444,4.875
-21.0,3.2888548092268146,0.8125
-21.0,3.2827188860752723,0.8125
-20.5,3.2888548092268146,-0.8125
-21.0,3.2704470397721868,2.4375
-21.0,3.2704470397721868,2.4375
-21.0,3.2827188860752723,0.8125
-21.0,3.2704470397721868,2.4375
-21.0,3.2827188860752723,0.8125
-21.0,3.2827188860752723,1.625
-21.0,3.2949907323783574,0.0
-21.0,3.3072625786814425,-2.4375
-21.0,3.2765829629237295,2.4375
-21.0,3.2827188860752723,1.625
-21.0,3.2949907323783574,0.8125
-21.0,3.2765829629237295,4.0625
-20.5,3.2888548092268146,1.625
-21.0,3.2949907323783574,0.0
-21.0,3.2949907323783574,0.8125
-21.0,3.2949907323783574,0.8125
