%!PS-Adobe-2.0 EPSF-2.0
%%Title: phase-dist.eps
%%Creator: gnuplot 4.6 patchlevel 4
%%CreationDate: Thu Jun 30 20:59:14 2016
%%DocumentFonts: (atend)
%%BoundingBox: 50 50 482 374
%%EndComments
%%BeginProlog
/gnudict 256 dict def
gnudict begin
%
% The following true/false flags may be edited by hand if desired.
% The unit line width and grayscale image gamma correction may also be changed.
%
/Color true def
/Blacktext false def
/Solid false def
/Dashlength 1 def
/Landscape false def
/Level1 false def
/Rounded false def
/ClipToBoundingBox false def
/SuppressPDFMark false def
/TransparentPatterns false def
/gnulinewidth 5.000 def
/userlinewidth gnulinewidth def
/Gamma 1.0 def
/BackgroundColor {-1.000 -1.000 -1.000} def
%
/vshift -93 def
/dl1 {
  10.0 Dashlength mul mul
  Rounded { currentlinewidth 0.75 mul sub dup 0 le { pop 0.01 } if } if
} def
/dl2 {
  10.0 Dashlength mul mul
  Rounded { currentlinewidth 0.75 mul add } if
} def
/hpt_ 31.5 def
/vpt_ 31.5 def
/hpt hpt_ def
/vpt vpt_ def
/doclip {
  ClipToBoundingBox {
    newpath 50 50 moveto 482 50 lineto 482 374 lineto 50 374 lineto closepath
    clip
  } if
} def
%
% Gnuplot Prolog Version 4.6 (September 2012)
%
%/SuppressPDFMark true def
%
/M {moveto} bind def
/L {lineto} bind def
/R {rmoveto} bind def
/V {rlineto} bind def
/N {newpath moveto} bind def
/Z {closepath} bind def
/C {setrgbcolor} bind def
/f {rlineto fill} bind def
/g {setgray} bind def
/Gshow {show} def   % May be redefined later in the file to support UTF-8
/vpt2 vpt 2 mul def
/hpt2 hpt 2 mul def
/Lshow {currentpoint stroke M 0 vshift R 
	Blacktext {gsave 0 setgray show grestore} {show} ifelse} def
/Rshow {currentpoint stroke M dup stringwidth pop neg vshift R
	Blacktext {gsave 0 setgray show grestore} {show} ifelse} def
/Cshow {currentpoint stroke M dup stringwidth pop -2 div vshift R 
	Blacktext {gsave 0 setgray show grestore} {show} ifelse} def
/UP {dup vpt_ mul /vpt exch def hpt_ mul /hpt exch def
  /hpt2 hpt 2 mul def /vpt2 vpt 2 mul def} def
/DL {Color {setrgbcolor Solid {pop []} if 0 setdash}
 {pop pop pop 0 setgray Solid {pop []} if 0 setdash} ifelse} def
/BL {stroke userlinewidth 2 mul setlinewidth
	Rounded {1 setlinejoin 1 setlinecap} if} def
/AL {stroke userlinewidth 2 div setlinewidth
	Rounded {1 setlinejoin 1 setlinecap} if} def
/UL {dup gnulinewidth mul /userlinewidth exch def
	dup 1 lt {pop 1} if 10 mul /udl exch def} def
/PL {stroke userlinewidth setlinewidth
	Rounded {1 setlinejoin 1 setlinecap} if} def
3.8 setmiterlimit
% Default Line colors
/LCw {1 1 1} def
/LCb {0 0 0} def
/LCa {0 0 0} def
/LC0 {1 0 0} def
/LC1 {0 1 0} def
/LC2 {0 0 1} def
/LC3 {1 0 1} def
/LC4 {0 1 1} def
/LC5 {1 1 0} def
/LC6 {0 0 0} def
/LC7 {1 0.3 0} def
/LC8 {0.5 0.5 0.5} def
% Default Line Types
/LTw {PL [] 1 setgray} def
/LTb {BL [] LCb DL} def
/LTa {AL [1 udl mul 2 udl mul] 0 setdash LCa setrgbcolor} def
/LT0 {PL [] LC0 DL} def
/LT1 {PL [4 dl1 2 dl2] LC1 DL} def
/LT2 {PL [2 dl1 3 dl2] LC2 DL} def
/LT3 {PL [1 dl1 1.5 dl2] LC3 DL} def
/LT4 {PL [6 dl1 2 dl2 1 dl1 2 dl2] LC4 DL} def
/LT5 {PL [3 dl1 3 dl2 1 dl1 3 dl2] LC5 DL} def
/LT6 {PL [2 dl1 2 dl2 2 dl1 6 dl2] LC6 DL} def
/LT7 {PL [1 dl1 2 dl2 6 dl1 2 dl2 1 dl1 2 dl2] LC7 DL} def
/LT8 {PL [2 dl1 2 dl2 2 dl1 2 dl2 2 dl1 2 dl2 2 dl1 4 dl2] LC8 DL} def
/Pnt {stroke [] 0 setdash gsave 1 setlinecap M 0 0 V stroke grestore} def
/Dia {stroke [] 0 setdash 2 copy vpt add M
  hpt neg vpt neg V hpt vpt neg V
  hpt vpt V hpt neg vpt V closepath stroke
  Pnt} def
/Pls {stroke [] 0 setdash vpt sub M 0 vpt2 V
  currentpoint stroke M
  hpt neg vpt neg R hpt2 0 V stroke
 } def
/Box {stroke [] 0 setdash 2 copy exch hpt sub exch vpt add M
  0 vpt2 neg V hpt2 0 V 0 vpt2 V
  hpt2 neg 0 V closepath stroke
  Pnt} def
/Crs {stroke [] 0 setdash exch hpt sub exch vpt add M
  hpt2 vpt2 neg V currentpoint stroke M
  hpt2 neg 0 R hpt2 vpt2 V stroke} def
/TriU {stroke [] 0 setdash 2 copy vpt 1.12 mul add M
  hpt neg vpt -1.62 mul V
  hpt 2 mul 0 V
  hpt neg vpt 1.62 mul V closepath stroke
  Pnt} def
/Star {2 copy Pls Crs} def
/BoxF {stroke [] 0 setdash exch hpt sub exch vpt add M
  0 vpt2 neg V hpt2 0 V 0 vpt2 V
  hpt2 neg 0 V closepath fill} def
/TriUF {stroke [] 0 setdash vpt 1.12 mul add M
  hpt neg vpt -1.62 mul V
  hpt 2 mul 0 V
  hpt neg vpt 1.62 mul V closepath fill} def
/TriD {stroke [] 0 setdash 2 copy vpt 1.12 mul sub M
  hpt neg vpt 1.62 mul V
  hpt 2 mul 0 V
  hpt neg vpt -1.62 mul V closepath stroke
  Pnt} def
/TriDF {stroke [] 0 setdash vpt 1.12 mul sub M
  hpt neg vpt 1.62 mul V
  hpt 2 mul 0 V
  hpt neg vpt -1.62 mul V closepath fill} def
/DiaF {stroke [] 0 setdash vpt add M
  hpt neg vpt neg V hpt vpt neg V
  hpt vpt V hpt neg vpt V closepath fill} def
/Pent {stroke [] 0 setdash 2 copy gsave
  translate 0 hpt M 4 {72 rotate 0 hpt L} repeat
  closepath stroke grestore Pnt} def
/PentF {stroke [] 0 setdash gsave
  translate 0 hpt M 4 {72 rotate 0 hpt L} repeat
  closepath fill grestore} def
/Circle {stroke [] 0 setdash 2 copy
  hpt 0 360 arc stroke Pnt} def
/CircleF {stroke [] 0 setdash hpt 0 360 arc fill} def
/C0 {BL [] 0 setdash 2 copy moveto vpt 90 450 arc} bind def
/C1 {BL [] 0 setdash 2 copy moveto
	2 copy vpt 0 90 arc closepath fill
	vpt 0 360 arc closepath} bind def
/C2 {BL [] 0 setdash 2 copy moveto
	2 copy vpt 90 180 arc closepath fill
	vpt 0 360 arc closepath} bind def
/C3 {BL [] 0 setdash 2 copy moveto
	2 copy vpt 0 180 arc closepath fill
	vpt 0 360 arc closepath} bind def
/C4 {BL [] 0 setdash 2 copy moveto
	2 copy vpt 180 270 arc closepath fill
	vpt 0 360 arc closepath} bind def
/C5 {BL [] 0 setdash 2 copy moveto
	2 copy vpt 0 90 arc
	2 copy moveto
	2 copy vpt 180 270 arc closepath fill
	vpt 0 360 arc} bind def
/C6 {BL [] 0 setdash 2 copy moveto
	2 copy vpt 90 270 arc closepath fill
	vpt 0 360 arc closepath} bind def
/C7 {BL [] 0 setdash 2 copy moveto
	2 copy vpt 0 270 arc closepath fill
	vpt 0 360 arc closepath} bind def
/C8 {BL [] 0 setdash 2 copy moveto
	2 copy vpt 270 360 arc closepath fill
	vpt 0 360 arc closepath} bind def
/C9 {BL [] 0 setdash 2 copy moveto
	2 copy vpt 270 450 arc closepath fill
	vpt 0 360 arc closepath} bind def
/C10 {BL [] 0 setdash 2 copy 2 copy moveto vpt 270 360 arc closepath fill
	2 copy moveto
	2 copy vpt 90 180 arc closepath fill
	vpt 0 360 arc closepath} bind def
/C11 {BL [] 0 setdash 2 copy moveto
	2 copy vpt 0 180 arc closepath fill
	2 copy moveto
	2 copy vpt 270 360 arc closepath fill
	vpt 0 360 arc closepath} bind def
/C12 {BL [] 0 setdash 2 copy moveto
	2 copy vpt 180 360 arc closepath fill
	vpt 0 360 arc closepath} bind def
/C13 {BL [] 0 setdash 2 copy moveto
	2 copy vpt 0 90 arc closepath fill
	2 copy moveto
	2 copy vpt 180 360 arc closepath fill
	vpt 0 360 arc closepath} bind def
/C14 {BL [] 0 setdash 2 copy moveto
	2 copy vpt 90 360 arc closepath fill
	vpt 0 360 arc} bind def
/C15 {BL [] 0 setdash 2 copy vpt 0 360 arc closepath fill
	vpt 0 360 arc closepath} bind def
/Rec {newpath 4 2 roll moveto 1 index 0 rlineto 0 exch rlineto
	neg 0 rlineto closepath} bind def
/Square {dup Rec} bind def
/Bsquare {vpt sub exch vpt sub exch vpt2 Square} bind def
/S0 {BL [] 0 setdash 2 copy moveto 0 vpt rlineto BL Bsquare} bind def
/S1 {BL [] 0 setdash 2 copy vpt Square fill Bsquare} bind def
/S2 {BL [] 0 setdash 2 copy exch vpt sub exch vpt Square fill Bsquare} bind def
/S3 {BL [] 0 setdash 2 copy exch vpt sub exch vpt2 vpt Rec fill Bsquare} bind def
/S4 {BL [] 0 setdash 2 copy exch vpt sub exch vpt sub vpt Square fill Bsquare} bind def
/S5 {BL [] 0 setdash 2 copy 2 copy vpt Square fill
	exch vpt sub exch vpt sub vpt Square fill Bsquare} bind def
/S6 {BL [] 0 setdash 2 copy exch vpt sub exch vpt sub vpt vpt2 Rec fill Bsquare} bind def
/S7 {BL [] 0 setdash 2 copy exch vpt sub exch vpt sub vpt vpt2 Rec fill
	2 copy vpt Square fill Bsquare} bind def
/S8 {BL [] 0 setdash 2 copy vpt sub vpt Square fill Bsquare} bind def
/S9 {BL [] 0 setdash 2 copy vpt sub vpt vpt2 Rec fill Bsquare} bind def
/S10 {BL [] 0 setdash 2 copy vpt sub vpt Square fill 2 copy exch vpt sub exch vpt Square fill
	Bsquare} bind def
/S11 {BL [] 0 setdash 2 copy vpt sub vpt Square fill 2 copy exch vpt sub exch vpt2 vpt Rec fill
	Bsquare} bind def
/S12 {BL [] 0 setdash 2 copy exch vpt sub exch vpt sub vpt2 vpt Rec fill Bsquare} bind def
/S13 {BL [] 0 setdash 2 copy exch vpt sub exch vpt sub vpt2 vpt Rec fill
	2 copy vpt Square fill Bsquare} bind def
/S14 {BL [] 0 setdash 2 copy exch vpt sub exch vpt sub vpt2 vpt Rec fill
	2 copy exch vpt sub exch vpt Square fill Bsquare} bind def
/S15 {BL [] 0 setdash 2 copy Bsquare fill Bsquare} bind def
/D0 {gsave translate 45 rotate 0 0 S0 stroke grestore} bind def
/D1 {gsave translate 45 rotate 0 0 S1 stroke grestore} bind def
/D2 {gsave translate 45 rotate 0 0 S2 stroke grestore} bind def
/D3 {gsave translate 45 rotate 0 0 S3 stroke grestore} bind def
/D4 {gsave translate 45 rotate 0 0 S4 stroke grestore} bind def
/D5 {gsave translate 45 rotate 0 0 S5 stroke grestore} bind def
/D6 {gsave translate 45 rotate 0 0 S6 stroke grestore} bind def
/D7 {gsave translate 45 rotate 0 0 S7 stroke grestore} bind def
/D8 {gsave translate 45 rotate 0 0 S8 stroke grestore} bind def
/D9 {gsave translate 45 rotate 0 0 S9 stroke grestore} bind def
/D10 {gsave translate 45 rotate 0 0 S10 stroke grestore} bind def
/D11 {gsave translate 45 rotate 0 0 S11 stroke grestore} bind def
/D12 {gsave translate 45 rotate 0 0 S12 stroke grestore} bind def
/D13 {gsave translate 45 rotate 0 0 S13 stroke grestore} bind def
/D14 {gsave translate 45 rotate 0 0 S14 stroke grestore} bind def
/D15 {gsave translate 45 rotate 0 0 S15 stroke grestore} bind def
/DiaE {stroke [] 0 setdash vpt add M
  hpt neg vpt neg V hpt vpt neg V
  hpt vpt V hpt neg vpt V closepath stroke} def
/BoxE {stroke [] 0 setdash exch hpt sub exch vpt add M
  0 vpt2 neg V hpt2 0 V 0 vpt2 V
  hpt2 neg 0 V closepath stroke} def
/TriUE {stroke [] 0 setdash vpt 1.12 mul add M
  hpt neg vpt -1.62 mul V
  hpt 2 mul 0 V
  hpt neg vpt 1.62 mul V closepath stroke} def
/TriDE {stroke [] 0 setdash vpt 1.12 mul sub M
  hpt neg vpt 1.62 mul V
  hpt 2 mul 0 V
  hpt neg vpt -1.62 mul V closepath stroke} def
/PentE {stroke [] 0 setdash gsave
  translate 0 hpt M 4 {72 rotate 0 hpt L} repeat
  closepath stroke grestore} def
/CircE {stroke [] 0 setdash 
  hpt 0 360 arc stroke} def
/Opaque {gsave closepath 1 setgray fill grestore 0 setgray closepath} def
/DiaW {stroke [] 0 setdash vpt add M
  hpt neg vpt neg V hpt vpt neg V
  hpt vpt V hpt neg vpt V Opaque stroke} def
/BoxW {stroke [] 0 setdash exch hpt sub exch vpt add M
  0 vpt2 neg V hpt2 0 V 0 vpt2 V
  hpt2 neg 0 V Opaque stroke} def
/TriUW {stroke [] 0 setdash vpt 1.12 mul add M
  hpt neg vpt -1.62 mul V
  hpt 2 mul 0 V
  hpt neg vpt 1.62 mul V Opaque stroke} def
/TriDW {stroke [] 0 setdash vpt 1.12 mul sub M
  hpt neg vpt 1.62 mul V
  hpt 2 mul 0 V
  hpt neg vpt -1.62 mul V Opaque stroke} def
/PentW {stroke [] 0 setdash gsave
  translate 0 hpt M 4 {72 rotate 0 hpt L} repeat
  Opaque stroke grestore} def
/CircW {stroke [] 0 setdash 
  hpt 0 360 arc Opaque stroke} def
/BoxFill {gsave Rec 1 setgray fill grestore} def
/Density {
  /Fillden exch def
  currentrgbcolor
  /ColB exch def /ColG exch def /ColR exch def
  /ColR ColR Fillden mul Fillden sub 1 add def
  /ColG ColG Fillden mul Fillden sub 1 add def
  /ColB ColB Fillden mul Fillden sub 1 add def
  ColR ColG ColB setrgbcolor} def
/BoxColFill {gsave Rec PolyFill} def
/PolyFill {gsave Density fill grestore grestore} def
/h {rlineto rlineto rlineto gsave closepath fill grestore} bind def
%
% PostScript Level 1 Pattern Fill routine for rectangles
% Usage: x y w h s a XX PatternFill
%	x,y = lower left corner of box to be filled
%	w,h = width and height of box
%	  a = angle in degrees between lines and x-axis
%	 XX = 0/1 for no/yes cross-hatch
%
/PatternFill {gsave /PFa [ 9 2 roll ] def
  PFa 0 get PFa 2 get 2 div add PFa 1 get PFa 3 get 2 div add translate
  PFa 2 get -2 div PFa 3 get -2 div PFa 2 get PFa 3 get Rec
  TransparentPatterns {} {gsave 1 setgray fill grestore} ifelse
  clip
  currentlinewidth 0.5 mul setlinewidth
  /PFs PFa 2 get dup mul PFa 3 get dup mul add sqrt def
  0 0 M PFa 5 get rotate PFs -2 div dup translate
  0 1 PFs PFa 4 get div 1 add floor cvi
	{PFa 4 get mul 0 M 0 PFs V} for
  0 PFa 6 get ne {
	0 1 PFs PFa 4 get div 1 add floor cvi
	{PFa 4 get mul 0 2 1 roll M PFs 0 V} for
 } if
  stroke grestore} def
%
/languagelevel where
 {pop languagelevel} {1} ifelse
 2 lt
	{/InterpretLevel1 true def}
	{/InterpretLevel1 Level1 def}
 ifelse
%
% PostScript level 2 pattern fill definitions
%
/Level2PatternFill {
/Tile8x8 {/PaintType 2 /PatternType 1 /TilingType 1 /BBox [0 0 8 8] /XStep 8 /YStep 8}
	bind def
/KeepColor {currentrgbcolor [/Pattern /DeviceRGB] setcolorspace} bind def
<< Tile8x8
 /PaintProc {0.5 setlinewidth pop 0 0 M 8 8 L 0 8 M 8 0 L stroke} 
>> matrix makepattern
/Pat1 exch def
<< Tile8x8
 /PaintProc {0.5 setlinewidth pop 0 0 M 8 8 L 0 8 M 8 0 L stroke
	0 4 M 4 8 L 8 4 L 4 0 L 0 4 L stroke}
>> matrix makepattern
/Pat2 exch def
<< Tile8x8
 /PaintProc {0.5 setlinewidth pop 0 0 M 0 8 L
	8 8 L 8 0 L 0 0 L fill}
>> matrix makepattern
/Pat3 exch def
<< Tile8x8
 /PaintProc {0.5 setlinewidth pop -4 8 M 8 -4 L
	0 12 M 12 0 L stroke}
>> matrix makepattern
/Pat4 exch def
<< Tile8x8
 /PaintProc {0.5 setlinewidth pop -4 0 M 8 12 L
	0 -4 M 12 8 L stroke}
>> matrix makepattern
/Pat5 exch def
<< Tile8x8
 /PaintProc {0.5 setlinewidth pop -2 8 M 4 -4 L
	0 12 M 8 -4 L 4 12 M 10 0 L stroke}
>> matrix makepattern
/Pat6 exch def
<< Tile8x8
 /PaintProc {0.5 setlinewidth pop -2 0 M 4 12 L
	0 -4 M 8 12 L 4 -4 M 10 8 L stroke}
>> matrix makepattern
/Pat7 exch def
<< Tile8x8
 /PaintProc {0.5 setlinewidth pop 8 -2 M -4 4 L
	12 0 M -4 8 L 12 4 M 0 10 L stroke}
>> matrix makepattern
/Pat8 exch def
<< Tile8x8
 /PaintProc {0.5 setlinewidth pop 0 -2 M 12 4 L
	-4 0 M 12 8 L -4 4 M 8 10 L stroke}
>> matrix makepattern
/Pat9 exch def
/Pattern1 {PatternBgnd KeepColor Pat1 setpattern} bind def
/Pattern2 {PatternBgnd KeepColor Pat2 setpattern} bind def
/Pattern3 {PatternBgnd KeepColor Pat3 setpattern} bind def
/Pattern4 {PatternBgnd KeepColor Landscape {Pat5} {Pat4} ifelse setpattern} bind def
/Pattern5 {PatternBgnd KeepColor Landscape {Pat4} {Pat5} ifelse setpattern} bind def
/Pattern6 {PatternBgnd KeepColor Landscape {Pat9} {Pat6} ifelse setpattern} bind def
/Pattern7 {PatternBgnd KeepColor Landscape {Pat8} {Pat7} ifelse setpattern} bind def
} def
%
%
%End of PostScript Level 2 code
%
/PatternBgnd {
  TransparentPatterns {} {gsave 1 setgray fill grestore} ifelse
} def
%
% Substitute for Level 2 pattern fill codes with
% grayscale if Level 2 support is not selected.
%
/Level1PatternFill {
/Pattern1 {0.250 Density} bind def
/Pattern2 {0.500 Density} bind def
/Pattern3 {0.750 Density} bind def
/Pattern4 {0.125 Density} bind def
/Pattern5 {0.375 Density} bind def
/Pattern6 {0.625 Density} bind def
/Pattern7 {0.875 Density} bind def
} def
%
% Now test for support of Level 2 code
%
Level1 {Level1PatternFill} {Level2PatternFill} ifelse
%
/Symbol-Oblique /Symbol findfont [1 0 .167 1 0 0] makefont
dup length dict begin {1 index /FID eq {pop pop} {def} ifelse} forall
currentdict end definefont pop
Level1 SuppressPDFMark or 
{} {
/SDict 10 dict def
systemdict /pdfmark known not {
  userdict /pdfmark systemdict /cleartomark get put
} if
SDict begin [
  /Title (phase-dist.eps)
  /Subject (gnuplot plot)
  /Creator (gnuplot 4.6 patchlevel 4)
  /Author (spradhan)
%  /Producer (gnuplot)
%  /Keywords ()
  /CreationDate (Thu Jun 30 20:59:14 2016)
  /DOCINFO pdfmark
end
} ifelse
end
%%EndProlog
%%Page: 1 1
gnudict begin
gsave
doclip
50 50 translate
0.050 0.050 scale
0 setgray
newpath
(Helvetica) findfont 280 scalefont setfont
BackgroundColor 0 lt 3 1 roll 0 lt exch 0 lt or or not {BackgroundColor C 1.000 0 0 8640.00 6480.00 BoxColFill} if
1.000 UL
LTb
LCb setrgbcolor
1260 896 M
63 0 V
6812 0 R
-63 0 V
-6980 0 R
( 0) Rshow
1.000 UL
LTb
LCb setrgbcolor
1260 1646 M
63 0 V
6812 0 R
-63 0 V
-6980 0 R
( 500) Rshow
1.000 UL
LTb
LCb setrgbcolor
1260 2395 M
63 0 V
6812 0 R
-63 0 V
-6980 0 R
( 1000) Rshow
1.000 UL
LTb
LCb setrgbcolor
1260 3145 M
63 0 V
6812 0 R
-63 0 V
-6980 0 R
( 1500) Rshow
1.000 UL
LTb
LCb setrgbcolor
1260 3894 M
63 0 V
6812 0 R
-63 0 V
-6980 0 R
( 2000) Rshow
1.000 UL
LTb
LCb setrgbcolor
1260 4644 M
63 0 V
6812 0 R
-63 0 V
-6980 0 R
( 2500) Rshow
1.000 UL
LTb
LCb setrgbcolor
1260 5393 M
63 0 V
6812 0 R
-63 0 V
-6980 0 R
( 3000) Rshow
1.000 UL
LTb
LCb setrgbcolor
1260 6143 M
63 0 V
6812 0 R
-63 0 V
-6980 0 R
( 3500) Rshow
1.000 UL
LTb
LCb setrgbcolor
1604 896 M
0 63 V
0 5184 R
0 -63 V
0 -5464 R
(-2) Cshow
1.000 UL
LTb
LCb setrgbcolor
2979 896 M
0 63 V
0 5184 R
0 -63 V
0 -5464 R
( 0) Cshow
1.000 UL
LTb
LCb setrgbcolor
4354 896 M
0 63 V
0 5184 R
0 -63 V
0 -5464 R
( 2) Cshow
1.000 UL
LTb
LCb setrgbcolor
5729 896 M
0 63 V
0 5184 R
0 -63 V
0 -5464 R
( 4) Cshow
1.000 UL
LTb
LCb setrgbcolor
7104 896 M
0 63 V
0 5184 R
0 -63 V
0 -5464 R
( 6) Cshow
1.000 UL
LTb
LCb setrgbcolor
1.000 UL
LTb
LCb setrgbcolor
1260 6143 M
0 -5247 V
6875 0 V
0 5247 R
-6875 0 R
stroke
LCb setrgbcolor
/Helvetica findfont 280 scalefont setfont
/vshift -93 def
280 3519 M
currentpoint gsave translate -270 rotate 0 0 M
(Frequency) Cshow
grestore
/Helvetica findfont 280 scalefont setfont
LTb
LCb setrgbcolor
/Helvetica findfont 280 scalefont setfont
5033 196 M
(Phase \(in Radian\)) Cshow
/Helvetica findfont 280 scalefont setfont
LTb
1.000 UP
1.000 UL
LTb
LCb setrgbcolor
% Begin plot #1
1.000 UL
LT0
LC0 setrgbcolor
/Helvetica findfont 280 scalefont setfont
1.000 4692 896 36 2 BoxColFill
1.000 4696 896 36 17 BoxColFill
1.000 4701 896 35 40 BoxColFill
1.000 4703 896 35 16 BoxColFill
1.000 4703 896 36 10 BoxColFill
1.000 4705 896 35 143 BoxColFill
1.000 4707 896 35 17 BoxColFill
1.000 4707 896 36 34 BoxColFill
1.000 4709 896 35 62 BoxColFill
1.000 4710 896 35 46 BoxColFill
1.000 4710 896 36 4 BoxColFill
1.000 4712 896 35 104 BoxColFill
1.000 4712 896 36 2 BoxColFill
1.000 4713 896 35 235 BoxColFill
1.000 4714 896 35 85 BoxColFill
1.000 4714 896 36 22 BoxColFill
1.000 4715 896 35 25 BoxColFill
1.000 4716 896 35 227 BoxColFill
1.000 4717 896 35 604 BoxColFill
1.000 4718 896 35 251 BoxColFill
1.000 4718 896 36 119 BoxColFill
1.000 4719 896 36 85 BoxColFill
1.000 4720 896 35 562 BoxColFill
1.000 4721 896 36 673 BoxColFill
1.000 4722 896 35 995 BoxColFill
1.000 4723 896 35 257 BoxColFill
1.000 4723 896 36 70 BoxColFill
1.000 4724 896 35 2074 BoxColFill
1.000 4725 896 36 121 BoxColFill
1.000 4726 896 35 3032 BoxColFill
1.000 4727 896 35 391 BoxColFill
1.000 4727 896 36 250 BoxColFill
1.000 4728 896 35 3487 BoxColFill
1.000 4729 896 36 221 BoxColFill
1.000 4730 896 36 2083 BoxColFill
1.000 4731 896 35 1265 BoxColFill
1.000 4732 896 35 13 BoxColFill
1.000 4732 896 36 4359 BoxColFill
1.000 4733 896 35 28 BoxColFill
1.000 4734 896 35 310 BoxColFill
1.000 4734 896 36 1963 BoxColFill
1.000 4735 896 35 443 BoxColFill
1.000 4736 896 35 449 BoxColFill
1.000 4736 896 36 2146 BoxColFill
1.000 4737 896 35 1960 BoxColFill
1.000 4738 896 35 380 BoxColFill
1.000 4738 896 36 1701 BoxColFill
1.000 4739 896 35 388 BoxColFill
1.000 4740 896 35 683 BoxColFill
1.000 4740 896 36 1497 BoxColFill
1.000 4741 896 36 2431 BoxColFill
1.000 4742 896 35 487 BoxColFill
1.000 4743 896 35 962 BoxColFill
1.000 4743 896 36 1287 BoxColFill
1.000 4744 896 35 1151 BoxColFill
1.000 4745 896 35 1310 BoxColFill
1.000 4745 896 36 3182 BoxColFill
1.000 4746 896 35 20 BoxColFill
1.000 4747 896 35 1532 BoxColFill
1.000 4747 896 36 1164 BoxColFill
1.000 4748 896 35 1515 BoxColFill
1.000 4749 896 35 1332 BoxColFill
1.000 4749 896 36 3590 BoxColFill
1.000 4750 896 35 55 BoxColFill
1.000 4751 896 35 885 BoxColFill
1.000 4751 896 36 1458 BoxColFill
1.000 4752 896 36 1629 BoxColFill
1.000 4753 896 35 1043 BoxColFill
1.000 4754 896 35 4954 BoxColFill
1.000 4754 896 36 101 BoxColFill
1.000 4755 896 35 999 BoxColFill
1.000 4756 896 35 1146 BoxColFill
1.000 4756 896 36 842 BoxColFill
1.000 4757 896 35 1806 BoxColFill
1.000 4758 896 35 5148 BoxColFill
1.000 4758 896 36 121 BoxColFill
1.000 4759 896 35 850 BoxColFill
1.000 4760 896 35 1104 BoxColFill
1.000 4760 896 36 769 BoxColFill
1.000 4761 896 35 1469 BoxColFill
1.000 4762 896 35 4170 BoxColFill
1.000 4762 896 36 1377 BoxColFill
1.000 4763 896 36 730 BoxColFill
1.000 4764 896 35 845 BoxColFill
1.000 4765 896 35 553 BoxColFill
1.000 4765 896 36 1058 BoxColFill
1.000 4766 896 35 3040 BoxColFill
1.000 4767 896 35 2182 BoxColFill
1.000 4767 896 36 803 BoxColFill
1.000 4768 896 35 844 BoxColFill
1.000 4769 896 35 601 BoxColFill
1.000 4769 896 36 905 BoxColFill
1.000 4770 896 35 2650 BoxColFill
1.000 4771 896 35 2248 BoxColFill
1.000 4771 896 36 736 BoxColFill
1.000 4772 896 35 70 BoxColFill
1.000 4773 896 35 1445 BoxColFill
1.000 4773 896 36 1116 BoxColFill
1.000 4774 896 36 2107 BoxColFill
1.000 4775 896 35 2629 BoxColFill
1.000 4776 896 35 181 BoxColFill
1.000 4776 896 36 995 BoxColFill
1.000 4777 896 35 2663 BoxColFill
1.000 4778 896 35 990 BoxColFill
1.000 4778 896 36 2049 BoxColFill
1.000 4779 896 35 2526 BoxColFill
1.000 4780 896 35 794 BoxColFill
1.000 4780 896 36 957 BoxColFill
1.000 4781 896 35 1824 BoxColFill
1.000 4782 896 35 1798 BoxColFill
1.000 4782 896 36 1581 BoxColFill
1.000 4783 896 35 1854 BoxColFill
1.000 4784 896 35 1878 BoxColFill
1.000 4784 896 36 881 BoxColFill
1.000 4785 896 36 652 BoxColFill
1.000 4786 896 35 2049 BoxColFill
1.000 4787 896 35 1915 BoxColFill
1.000 4787 896 36 1436 BoxColFill
1.000 4788 896 35 2394 BoxColFill
1.000 4789 896 35 266 BoxColFill
1.000 4789 896 36 653 BoxColFill
1.000 4790 896 35 2208 BoxColFill
1.000 4791 896 35 2768 BoxColFill
1.000 4791 896 36 1364 BoxColFill
1.000 4792 896 35 2499 BoxColFill
1.000 4793 896 35 313 BoxColFill
1.000 4793 896 36 452 BoxColFill
1.000 4794 896 35 2281 BoxColFill
1.000 4795 896 35 2532 BoxColFill
1.000 4795 896 36 1172 BoxColFill
1.000 4796 896 36 1596 BoxColFill
1.000 4797 896 35 1257 BoxColFill
1.000 4798 896 35 454 BoxColFill
1.000 4798 896 36 1673 BoxColFill
1.000 4799 896 35 2968 BoxColFill
1.000 4800 896 35 1311 BoxColFill
1.000 4800 896 36 1936 BoxColFill
1.000 4801 896 35 1209 BoxColFill
1.000 4802 896 35 634 BoxColFill
1.000 4802 896 36 1070 BoxColFill
1.000 4803 896 35 3106 BoxColFill
1.000 4804 896 35 1628 BoxColFill
1.000 4804 896 36 2032 BoxColFill
1.000 4805 896 35 1298 BoxColFill
1.000 4806 896 35 640 BoxColFill
1.000 4806 896 36 1188 BoxColFill
1.000 4807 896 36 1721 BoxColFill
1.000 4808 896 35 2271 BoxColFill
1.000 4809 896 35 1962 BoxColFill
1.000 4809 896 36 1867 BoxColFill
1.000 4810 896 35 791 BoxColFill
1.000 4811 896 35 829 BoxColFill
1.000 4811 896 36 1673 BoxColFill
1.000 4812 896 35 1936 BoxColFill
1.000 4813 896 35 763 BoxColFill
1.000 4813 896 36 2526 BoxColFill
1.000 4814 896 35 1343 BoxColFill
1.000 4815 896 35 523 BoxColFill
1.000 4815 896 36 879 BoxColFill
1.000 4816 896 35 2020 BoxColFill
1.000 4817 896 35 796 BoxColFill
1.000 4817 896 36 2278 BoxColFill
1.000 4818 896 36 2212 BoxColFill
1.000 4819 896 35 265 BoxColFill
1.000 4820 896 35 230 BoxColFill
1.000 4820 896 36 2301 BoxColFill
1.000 4821 896 35 124 BoxColFill
1.000 4822 896 35 3188 BoxColFill
1.000 4822 896 36 2334 BoxColFill
1.000 4823 896 35 698 BoxColFill
1.000 4824 896 35 170 BoxColFill
1.000 4824 896 36 1843 BoxColFill
1.000 4825 896 35 83 BoxColFill
1.000 4826 896 35 2272 BoxColFill
1.000 4826 896 36 1854 BoxColFill
1.000 4827 896 35 130 BoxColFill
1.000 4828 896 35 463 BoxColFill
1.000 4828 896 36 1263 BoxColFill
1.000 4829 896 36 101 BoxColFill
1.000 4830 896 35 1815 BoxColFill
1.000 4831 896 35 1313 BoxColFill
1.000 4831 896 36 32 BoxColFill
1.000 4832 896 35 424 BoxColFill
1.000 4833 896 35 1353 BoxColFill
1.000 4833 896 36 100 BoxColFill
1.000 4834 896 35 769 BoxColFill
1.000 4835 896 35 721 BoxColFill
1.000 4835 896 36 475 BoxColFill
1.000 4836 896 35 424 BoxColFill
1.000 4837 896 35 478 BoxColFill
1.000 4837 896 36 10 BoxColFill
1.000 4838 896 35 427 BoxColFill
1.000 4839 896 35 460 BoxColFill
1.000 4839 896 36 365 BoxColFill
1.000 4840 896 36 380 BoxColFill
1.000 4841 896 35 326 BoxColFill
1.000 4842 896 35 2 BoxColFill
1.000 4842 896 36 73 BoxColFill
1.000 4843 896 35 842 BoxColFill
1.000 4844 896 35 121 BoxColFill
1.000 4844 896 36 445 BoxColFill
1.000 4845 896 35 8 BoxColFill
1.000 4846 896 35 65 BoxColFill
1.000 4846 896 36 34 BoxColFill
1.000 4847 896 35 511 BoxColFill
1.000 4848 896 35 149 BoxColFill
1.000 4848 896 36 442 BoxColFill
1.000 4849 896 35 2 BoxColFill
1.000 4850 896 35 13 BoxColFill
1.000 4851 896 36 341 BoxColFill
1.000 4852 896 35 50 BoxColFill
1.000 4853 896 35 374 BoxColFill
1.000 4855 896 36 167 BoxColFill
1.000 4856 896 35 7 BoxColFill
1.000 4857 896 36 328 BoxColFill
1.000 4859 896 36 113 BoxColFill
1.000 4861 896 36 161 BoxColFill
1.000 4864 896 35 73 BoxColFill
1.000 4864 896 36 43 BoxColFill
1.000 4866 896 35 86 BoxColFill
1.000 4868 896 35 41 BoxColFill
1.000 4868 896 36 29 BoxColFill
1.000 4870 896 35 22 BoxColFill
1.000 4872 896 36 83 BoxColFill
1.000 4874 896 35 4 BoxColFill
1.000 4877 896 35 32 BoxColFill
1.000 4881 896 35 16 BoxColFill
1.000 4885 896 35 2 BoxColFill
% End plot #1
1.000 UL
LTb
LCb setrgbcolor
1260 6143 M
0 -5247 V
6875 0 V
0 5247 R
-6875 0 R
1.000 UP
stroke
LTb
LCb setrgbcolor
stroke
grestore
end
showpage
%%Trailer
%%DocumentFonts: Helvetica
