100000000000000000006600,865.7,0.24543692,-0.8125
100000000000000000006600,865.7,0.24543692,1.625
100000000000000000006600,865.7,0.23316509,2.4375
100000000000000000006600,865.7,0.25770876,-1.625
100000000000000000006600,865.7,0.239301,1.625
100000000000000000006600,865.7,0.25157285,0.8125
100000000000000000006600,865.7,0.22702916,3.25
100000000000000000006600,865.7,0.24543692,2.4375
100000000000000000006600,865.7,0.25157285,1.625
100000000000000000006600,865.7,0.24543692,3.25
100000000000000000006600,865.7,0.25157285,1.625
100000000000000000006600,865.7,0.25157285,0.8125
100000000000000000006600,865.7,0.25157285,1.625
100000000000000000006600,865.7,0.25157285,1.625
100000000000000000006600,865.7,0.24543692,5.6875
100000000000000000006600,865.7,0.25770876,0.8125
100000000000000000006600,865.7,0.2638447,-0.8125
100000000000000000006600,865.7,0.2638447,0.8125
100000000000000000006600,865.7,0.25157285,2.4375
100000000000000000006600,865.7,0.2638447,0.0
100000000000000000006600,865.7,0.2638447,0.0
100000000000000000006600,865.7,0.25770876,3.25
100000000000000000006600,865.7,0.2638447,0.8125
100000000000000000006600,865.7,0.2638447,0.8125
100000000000000000006600,865.7,0.2638447,0.8125
100000000000000000006600,865.7,0.2638447,0.8125
100000000000000000006600,865.7,0.2638447,0.0
100000000000000000006600,865.7,0.25770876,1.625
100000000000000000006600,865.7,0.2699806,1.625
100000000000000000006600,865.7,0.2638447,0.8125
100000000000000000006600,865.7,0.24543692,2.4375
100000000000000000006600,865.7,0.25770876,2.4375
100000000000000000006600,865.7,0.2638447,1.625
100000000000000000006600,865.7,0.2638447,2.4375
100000000000000000006600,865.7,0.25770876,2.4375
100000000000000000006600,865.7,0.28225246,-0.8125
100000000000000000006600,865.7,0.2638447,0.8125
100000000000000000006600,865.7,0.2638447,1.625
100000000000000000006600,865.7,0.24543692,5.6875
100000000000000000006600,865.7,0.2699806,0.8125
100000000000000000006600,865.7,0.25770876,0.8125
100000000000000000006600,865.7,0.2638447,0.8125
100000000000000000006600,865.7,0.2699806,0.0
100000000000000000006600,865.7,0.2638447,1.625
100000000000000000006600,865.7,0.2638447,1.625
100000000000000000006600,865.7,0.2638447,2.4375
100000000000000000006600,865.7,0.2699806,1.625
100000000000000000006600,865.7,0.2699806,0.8125
100000000000000000006600,865.7,0.2699806,0.0
100000000000000000006600,865.7,0.2638447,3.25
100000000000000000006600,865.7,0.27611655,0.0
100000000000000000006600,865.7,0.25770876,2.4375
100000000000000000006600,865.7,0.2638447,2.4375
100000000000000000006600,865.7,0.2699806,0.8125
100000000000000000006600,865.7,0.2883884,0.0
100000000000000000006600,865.7,0.2699806,1.625
100000000000000000006600,865.7,0.27611655,0.8125
100000000000000000006600,865.7,0.25770876,2.4375
100000000000000000006600,865.7,0.2883884,-2.4375
100000000000000000006600,865.7,0.2699806,0.0
100000000000000000006600,865.7,0.2638447,2.4375
100000000000000000006600,865.7,0.27611655,-0.8125
100000000000000000006600,865.7,0.2699806,0.8125
100000000000000000006600,865.7,0.2699806,0.8125
100000000000000000006600,865.7,0.2699806,2.4375
100000000000000000006600,865.7,0.28225246,0.0
100000000000000000006600,865.7,0.27611655,1.625
100000000000000000006600,865.7,0.2699806,1.625
100000000000000000006600,865.7,0.27611655,0.0
100000000000000000006600,865.7,0.2638447,2.4375
100000000000000000006600,865.7,0.2638447,1.625
100000000000000000006600,865.7,0.25157285,4.875
100000000000000000006600,865.7,0.2699806,0.8125
100000000000000000006600,865.7,0.25770876,2.4375
100000000000000000006600,865.7,0.2699806,1.625
100000000000000000006600,865.7,0.25770876,2.4375
100000000000000000006600,865.7,0.2638447,2.4375
100000000000000000006600,865.7,0.25770876,2.4375
100000000000000000006600,865.7,0.2638447,1.625
100000000000000000006600,865.7,0.2699806,1.625
100000000000000000006600,865.7,0.2699806,0.0
100000000000000000006600,865.7,0.27611655,-0.8125
100000000000000000006600,865.7,0.2699806,1.625
100000000000000000006600,865.7,0.27611655,-1.625
100000000000000000006600,865.7,0.25157285,3.25
100000000000000000006600,865.7,0.25770876,4.875
100000000000000000006600,865.7,0.2638447,3.25
100000000000000000006600,865.7,0.27611655,0.8125
100000000000000000006600,865.7,0.25770876,1.625
100000000000000000006600,865.7,0.25157285,3.25
100000000000000000006600,865.7,0.2638447,3.25
100000000000000000006600,865.7,0.25770876,1.625
100000000000000000006600,865.7,0.2638447,0.8125
100000000000000000006600,865.7,0.25157285,3.25
100000000000000000006600,865.7,0.24543692,2.4375
100000000000000000006600,865.7,0.25770876,1.625
100000000000000000006600,865.7,0.25770876,1.625
100000000000000000006600,865.7,0.25770876,2.4375
100000000000000000006600,865.7,0.24543692,2.4375
100000000000000000006600,865.7,0.2699806,-0.8125
100000000000000000006600,865.7,0.25157285,2.4375
100000000000000000006600,865.7,0.2638447,-0.8125
100000000000000000006600,865.7,0.25157285,1.625
100000000000000000006600,865.7,0.2638447,0.8125
100000000000000000006600,865.7,0.25770876,0.0
100000000000000000006600,865.7,0.25770876,0.0
100000000000000000006600,865.7,0.2638447,0.8125
100000000000000000006600,865.7,0.25770876,1.625
100000000000000000006600,865.7,0.24543692,3.25
100000000000000000006600,865.7,0.2638447,0.0
100000000000000000006600,865.7,0.25157285,1.625
100000000000000000006600,865.7,0.25770876,0.8125
100000000000000000006600,865.7,0.25157285,0.8125
100000000000000000006600,865.7,0.25157285,0.8125
100000000000000000006600,865.7,0.24543692,1.625
100000000000000000006600,865.7,0.239301,2.4375
100000000000000000006600,865.7,0.25157285,0.8125
100000000000000000006600,865.7,0.22702916,6.5
100000000000000000006600,865.7,0.25770876,0.0
100000000000000000006600,865.7,0.25157285,2.4375
100000000000000000006600,865.7,0.25770876,-0.8125
100000000000000000006600,865.7,0.25770876,0.0
100000000000000000006600,865.7,0.24543692,1.625
100000000000000000006600,865.7,0.25770876,0.0
100000000000000000006600,865.7,0.239301,0.8125
100000000000000000006600,865.7,0.24543692,0.8125
100000000000000000006600,865.7,0.25157285,0.0
100000000000000000006600,865.7,0.24543692,0.8125
100000000000000000006600,865.7,0.23316509,1.625
100000000000000000006600,865.7,0.20862138,6.5
100000000000000000006600,865.7,0.22702916,2.4375
100000000000000000006600,865.7,0.23316509,2.4375
100000000000000000006600,865.7,0.22702916,2.4375
100000000000000000006600,865.7,0.22702916,2.4375
100000000000000000006600,865.7,0.20862138,4.875
100000000000000000006600,865.7,0.22702916,0.8125
100000000000000000006600,865.7,0.22089323,1.625
100000000000000000006600,865.7,0.22702916,2.4375
100000000000000000006600,865.7,0.20862138,4.875
100000000000000000006600,865.7,0.20248546,4.875
100000000000000000006600,865.7,0.23316509,0.8125
100000000000000000006600,865.7,0.20248546,4.875
100000000000000000006600,865.7,0.20862138,4.875
100000000000000000006600,865.7,0.21475731,0.8125
100000000000000000006600,865.7,0.20862138,1.625
100000000000000000006600,865.7,0.22089323,0.8125
100000000000000000006600,865.7,0.20862138,0.8125
100000000000000000006600,865.7,0.20862138,0.8125
100000000000000000006600,865.7,0.19634955,3.25
100000000000000000006600,865.7,0.19634955,3.25
100000000000000000006600,865.7,0.19634955,2.4375
100000000000000000006600,865.7,0.19021362,4.875
100000000000000000006600,865.7,0.1840777,4.875
100000000000000000006600,865.7,0.20248546,0.8125
100000000000000000006600,865.7,0.20248546,0.0
100000000000000000006600,865.7,0.17794177,6.5
100000000000000000006600,865.7,0.19634955,1.625
100000000000000000006600,865.7,0.20862138,-0.8125
100000000000000000006600,865.7,0.1840777,2.4375
100000000000000000006600,865.7,0.1840777,3.25
100000000000000000006600,865.7,0.19634955,0.0
100000000000000000006600,865.7,0.19021362,0.0
100000000000000000006600,865.7,0.20248546,-0.8125
100000000000000000006600,865.7,0.17794177,4.875
100000000000000000006600,865.7,0.17794177,1.625
100000000000000000006600,865.7,0.16566992,4.875
100000000000000000006600,865.7,0.17180584,4.875
100000000000000000006600,865.7,0.16566992,4.875
100000000000000000006600,865.7,0.17794177,2.4375
100000000000000000006600,865.7,0.17180584,5.6875
100000000000000000006600,865.7,0.19021362,0.0
100000000000000000006600,865.7,0.19021362,-0.8125
100000000000000000006600,865.7,0.19021362,-0.8125
100000000000000000006600,865.7,0.16566992,1.625
100000000000000000006600,865.7,0.1840777,0.0
100000000000000000006600,865.7,0.16566992,2.4375
100000000000000000006600,865.7,0.17180584,0.0
100000000000000000006600,865.7,0.16566992,1.625
100000000000000000006600,865.7,0.17180584,0.0
100000000000000000006600,865.7,0.159534,2.4375
100000000000000000006600,865.7,0.15339808,2.4375
100000000000000000006600,865.7,0.17794177,-1.625
100000000000000000006600,865.7,0.17180584,-0.8125
100000000000000000006600,865.7,0.14726216,2.4375
100000000000000000006600,865.7,0.14726216,3.25
100000000000000000006600,865.7,0.159534,0.8125
100000000000000000006600,865.7,0.14112623,4.875
100000000000000000006600,865.7,0.14726216,3.25
100000000000000000006600,865.7,0.15339808,2.4375
100000000000000000006600,865.7,0.1349903,3.25
100000000000000000006600,865.7,0.14726216,1.625
100000000000000000006600,865.7,0.15339808,0.0
100000000000000000006600,865.7,0.12885438,4.875
100000000000000000006600,865.7,0.12885438,4.875
100000000000000000006600,865.7,0.14726216,0.8125
100000000000000000006600,865.7,0.15339808,0.0
100000000000000000006600,865.7,0.14112623,0.0
100000000000000000006600,865.7,0.14112623,1.625
100000000000000000006600,865.7,0.1349903,2.4375
100000000000000000006600,865.7,0.12885438,3.25
100000000000000000006600,865.7,0.14112623,0.8125
100000000000000000006600,865.7,0.14112623,3.25
100000000000000000006600,865.7,0.1349903,0.8125
100000000000000000006600,865.7,0.15339808,0.0
100000000000000000006600,865.7,0.14112623,0.8125
100000000000000000006600,865.7,0.14112623,0.8125
100000000000000000006600,865.7,0.11658254,4.875
100000000000000000006600,865.7,0.12271846,1.625
100000000000000000006600,865.7,0.12885438,3.25
100000000000000000006600,865.7,0.12885438,3.25
100000000000000000006600,865.7,0.12271846,0.8125
100000000000000000006600,865.7,0.11658254,3.25
100000000000000000006600,865.7,0.12885438,0.0
100000000000000000006600,865.7,0.11658254,3.25
100000000000000000006600,865.7,0.14112623,0.0
100000000000000000006600,865.7,0.09817477,4.875
100000000000000000006600,865.7,0.11044662,4.875
100000000000000000006600,865.7,0.11044662,3.25
100000000000000000006600,865.7,0.11044662,3.25
100000000000000000006600,865.7,0.1349903,-1.625
100000000000000000006600,865.7,0.1349903,0.0
100000000000000000006600,865.7,0.09817477,5.6875
100000000000000000006600,865.7,0.12271846,1.625
100000000000000000006600,865.7,0.11658254,1.625
100000000000000000006600,865.7,0.12271846,0.8125
100000000000000000006600,865.7,0.10431069,3.25
100000000000000000006600,865.7,0.10431069,2.4375
100000000000000000006600,865.7,0.12271846,0.0
100000000000000000006600,865.7,0.11658254,0.8125
100000000000000000006600,865.7,0.11044662,1.625
100000000000000000006600,865.7,0.09817477,1.625
100000000000000000006600,865.7,0.11044662,0.8125
100000000000000000006600,865.7,0.08590292,4.875
100000000000000000006600,865.7,0.08590292,3.25
100000000000000000006600,865.7,0.09203885,2.4375
100000000000000000006600,865.7,0.09817477,0.0
100000000000000000006600,865.7,0.08590292,1.625
100000000000000000006600,865.7,0.08590292,0.0
100000000000000000006600,865.7,0.08590292,1.625
100000000000000000006600,865.7,0.06749515,4.875
100000000000000000006600,865.7,0.06749515,4.875
100000000000000000006600,865.7,0.09203885,0.0
100000000000000000006600,865.7,0.079767,1.625
100000000000000000006600,865.7,0.06135923,1.625
100000000000000000006600,865.7,0.06749515,1.625
100000000000000000006600,865.7,0.06135923,2.4375
100000000000000000006600,865.7,0.049087387,4.875
100000000000000000006600,865.7,0.06135923,2.4375
100000000000000000006600,865.7,0.05522331,3.25
100000000000000000006600,865.7,0.06135923,1.625
100000000000000000006600,865.7,0.049087387,4.875
100000000000000000006600,865.7,0.05522331,2.4375
100000000000000000006600,865.7,0.06135923,0.8125
100000000000000000006600,865.7,0.03681554,4.875
100000000000000000006600,865.7,0.04295146,3.25
100000000000000000006600,865.7,0.049087387,1.625
100000000000000000006600,865.7,0.04295146,2.4375
100000000000000000006600,865.7,0.05522331,1.625
100000000000000000006600,865.7,0.049087387,0.8125
100000000000000000006600,865.7,0.049087387,0.8125
100000000000000000006600,865.7,0.04295146,0.0
100000000000000000006600,865.7,0.049087387,1.625
100000000000000000006600,865.7,0.024543693,4.875
100000000000000000006600,865.7,0.03681554,0.8125
100000000000000000006600,865.7,0.049087387,-0.8125
100000000000000000006600,865.7,0.030679615,4.875
100000000000000000006600,865.7,0.03681554,1.625
100000000000000000006600,865.7,0.030679615,1.625
100000000000000000006600,865.7,0.030679615,3.25
100000000000000000006600,865.7,0.03681554,3.25
100000000000000000006600,865.7,0.04295146,0.0
100000000000000000006600,865.7,0.049087387,0.8125
100000000000000000006600,865.7,0.049087387,1.625
100000000000000000006600,865.7,0.04295146,1.625
100000000000000000006600,865.7,0.03681554,1.625
100000000000000000006600,865.7,0.03681554,3.25
100000000000000000006600,865.7,0.030679615,3.25
100000000000000000006600,865.7,0.04295146,1.625
100000000000000000006600,865.7,0.04295146,5.6875
100000000000000000006600,865.7,0.06135923,0.8125
100000000000000000006600,865.7,0.05522331,2.4375
100000000000000000006600,865.7,0.05522331,3.25
100000000000000000006600,865.7,0.05522331,4.875
100000000000000000006600,865.7,0.079767,2.4375
100000000000000000006600,865.7,0.079767,3.25
100000000000000000006600,865.7,0.09203885,0.8125
100000000000000000006600,865.7,0.09203885,3.25
100000000000000000006600,865.7,0.09817477,3.25
100000000000000000006600,865.7,0.11044662,2.4375
100000000000000000006600,865.7,0.14112623,0.0
100000000000000000006600,865.7,0.15339808,0.0
100000000000000000006600,865.7,0.14726216,2.4375
100000000000000000006600,865.7,0.14112623,5.6875
100000000000000000006600,865.7,0.17180584,2.4375
100000000000000000006600,865.7,0.19021362,3.25
100000000000000000006600,865.7,0.19634955,1.625
100000000000000000006600,865.7,0.20862138,3.25
100000000000000000006600,865.7,0.22702916,4.875
100000000000000000006600,865.7,0.25770876,0.8125
100000000000000000006600,865.7,0.2699806,-0.8125
100000000000000000006600,865.7,0.27611655,2.4375
100000000000000000006600,865.7,0.2945243,0.0
100000000000000000006600,865.7,0.2945243,4.875
100000000000000000006600,865.7,0.32520393,2.4375
100000000000000000006600,865.7,0.33133984,0.8125
100000000000000000006600,865.7,0.3436117,2.4375
100000000000000000006600,865.7,0.34974763,2.4375
100000000000000000006600,865.7,0.3681554,0.8125
100000000000000000006600,865.7,0.38042724,1.625
100000000000000000006600,865.7,0.3681554,6.5
100000000000000000006600,865.7,0.38656315,1.625
100000000000000000006600,865.7,0.398835,5.6875
100000000000000000006600,865.7,0.41110685,2.4375
100000000000000000006600,865.7,0.398835,4.875
100000000000000000006600,865.7,0.4233787,0.0
100000000000000000006600,865.7,0.4049709,3.25
100000000000000000006600,865.7,0.41724277,0.0
100000000000000000006600,865.7,0.4049709,1.625
100000000000000000006600,865.7,0.3926991,2.4375
100000000000000000006600,865.7,0.3742913,3.25
100000000000000000006600,865.7,0.3681554,1.625
100000000000000000006600,865.7,0.32520393,5.6875
100000000000000000006600,865.7,0.319068,3.25
100000000000000000006600,865.7,0.2945243,4.875
100000000000000000006600,865.7,0.2883884,0.8125
100000000000000000006600,865.7,0.24543692,0.8125
100000000000000000006600,865.7,0.22702916,0.8125
100000000000000000006600,865.7,0.19021362,0.8125
100000000000000000006600,865.7,0.16566992,1.625
100000000000000000006600,865.7,0.14112623,0.0
100000000000000000006600,865.7,0.09817477,3.25
100000000000000000006600,865.7,0.05522331,4.875
100000000000000000006600,865.7,0.05522331,0.8125
100000000000000000006600,865.7,0.04295146,0.8125
100000000000000000006600,865.7,0.0061359233,1.625
100000000000000000006600,865.7,6.2770495,1.625
100000000000000000006600,865.7,6.24637,2.4375
100000000000000000006600,865.7,6.252506,0.8125
100000000000000000006600,865.7,6.2586417,-0.8125
100000000000000000006600,865.7,6.252506,0.0
100000000000000000006600,865.7,6.24637,0.0
100000000000000000006600,865.7,6.252506,0.0
100000000000000000006600,865.7,6.2709136,-1.625
100000000000000000006600,865.7,6.2647777,-0.8125
100000000000000000006600,865.7,6.2770495,2.4375
100000000000000000006600,865.7,0.0061359233,0.8125
100000000000000000006600,865.7,0.030679615,1.625
100000000000000000006600,865.7,0.05522331,0.8125
100000000000000000006600,865.7,0.06749515,1.625
100000000000000000006600,865.7,0.079767,0.8125
100000000000000000006600,865.7,0.09203885,1.625
100000000000000000006600,865.7,0.09817477,0.0
100000000000000000006600,865.7,0.10431069,0.0
100000000000000000006600,865.7,0.11658254,-0.8125
100000000000000000006600,865.7,0.11658254,-1.625
100000000000000000006600,865.7,0.11658254,-0.8125
100000000000000000006600,865.7,0.11044662,0.8125
100000000000000000006600,865.7,0.12271846,-0.8125
100000000000000000006600,865.7,0.12271846,-0.8125
100000000000000000006600,865.7,0.11044662,0.0
100000000000000000006600,865.7,0.11658254,0.8125
100000000000000000006600,865.7,0.12271846,-0.8125
100000000000000000006600,865.7,0.12271846,-0.8125
100000000000000000006600,865.7,0.11044662,0.8125
100000000000000000006600,865.7,0.11658254,-1.625
100000000000000000006600,865.7,0.11658254,-1.625
100000000000000000006600,865.7,0.11658254,-0.8125
100000000000000000006600,865.7,0.11044662,0.0
100000000000000000006600,865.7,0.10431069,0.0
100000000000000000006600,865.7,0.11044662,0.0
100000000000000000006600,865.7,0.11658254,0.0
100000000000000000006600,865.7,0.12271846,-2.4375
100000000000000000006600,865.7,0.11658254,-0.8125
100000000000000000006600,865.7,0.11658254,-0.8125
100000000000000000006600,865.7,0.12271846,0.0
100000000000000000006600,865.7,0.12271846,0.0
100000000000000000006600,865.7,0.11658254,0.0
100000000000000000006600,865.7,0.11658254,1.625
100000000000000000006600,865.7,0.12885438,-0.8125
100000000000000000006600,865.7,0.12271846,0.8125
100000000000000000006600,865.7,0.12885438,0.0
100000000000000000006600,865.7,0.12271846,1.625
100000000000000000006600,865.7,0.11658254,3.25
100000000000000000006600,865.7,0.1349903,0.8125
100000000000000000006600,865.7,0.1349903,0.0
100000000000000000006600,865.7,0.12885438,0.8125
100000000000000000006600,865.7,0.14726216,-0.8125
100000000000000000006600,865.7,0.14112623,0.0
100000000000000000006600,865.7,0.14726216,-0.8125
100000000000000000006600,865.7,0.14112623,-0.8125
100000000000000000006600,865.7,0.14726216,-0.8125
100000000000000000006600,865.7,0.14726216,1.625
100000000000000000006600,865.7,0.15339808,0.0
100000000000000000006600,865.7,0.15339808,0.8125
100000000000000000006600,865.7,0.15339808,0.0
100000000000000000006600,865.7,0.16566992,0.0
100000000000000000006600,865.7,0.159534,1.625
100000000000000000006600,865.7,0.1840777,-1.625
100000000000000000006600,865.7,0.17794177,0.8125
100000000000000000006600,865.7,0.17794177,-0.8125
100000000000000000006600,865.7,0.16566992,1.625
100000000000000000006600,865.7,0.17180584,0.8125
100000000000000000006600,865.7,0.17180584,-1.625
100000000000000000006600,865.7,0.16566992,-0.8125
100000000000000000006600,865.7,0.159534,-0.8125
100000000000000000006600,865.7,0.15339808,0.0
100000000000000000006600,865.7,0.14726216,-0.8125
100000000000000000006600,865.7,0.14112623,0.0
100000000000000000006600,865.7,0.12271846,1.625
100000000000000000006600,865.7,0.12271846,0.0
100000000000000000006600,865.7,0.11044662,0.0
100000000000000000006600,865.7,0.10431069,0.0
100000000000000000006600,865.7,0.09817477,0.8125
100000000000000000006600,865.7,0.11044662,-2.4375
100000000000000000006600,865.7,0.09203885,0.0
100000000000000000006600,865.7,0.09817477,-0.8125
100000000000000000006600,865.7,0.09203885,0.0
100000000000000000006600,865.7,0.09203885,-0.8125
100000000000000000006600,865.7,0.08590292,0.0
100000000000000000006600,865.7,0.09203885,0.0
100000000000000000006600,865.7,0.08590292,1.625
100000000000000000006600,865.7,0.07363108,0.0
100000000000000000006600,865.7,0.08590292,-2.4375
100000000000000000006600,865.7,0.06749515,-0.8125
100000000000000000006600,865.7,0.05522331,-1.625
100000000000000000006600,865.7,0.03681554,-0.8125
100000000000000000006600,865.7,0.012271847,1.625
100000000000000000006600,865.7,0.0,0.8125
100000000000000000006600,865.7,6.252506,1.625
100000000000000000006600,865.7,6.252506,0.8125
100000000000000000006600,865.7,6.24637,0.8125
100000000000000000006600,865.7,6.2586417,-1.625
100000000000000000006600,865.7,6.252506,-0.8125
100000000000000000006600,865.7,6.240234,-0.8125
100000000000000000006600,865.7,6.24637,-0.8125
100000000000000000006600,865.7,6.24637,-0.8125
100000000000000000006600,865.7,6.252506,-2.4375
100000000000000000006600,865.7,6.2586417,-3.25
100000000000000000006600,865.7,6.252506,-1.625
100000000000000000006600,865.7,6.2586417,-3.25
100000000000000000006600,865.7,6.240234,-0.8125
100000000000000000006600,865.7,6.234098,0.8125
100000000000000000006600,865.7,6.234098,1.625
100000000000000000006600,865.7,6.252506,0.0
100000000000000000006600,865.7,6.240234,0.8125
100000000000000000006600,865.7,6.252506,0.8125
100000000000000000006600,865.7,6.252506,0.8125
100000000000000000006600,865.7,6.2647777,0.0
100000000000000000006600,865.7,6.2709136,-0.8125
100000000000000000006600,865.7,6.2647777,2.4375
100000000000000000006600,865.7,6.252506,3.25
100000000000000000006600,865.7,0.0,-0.8125
100000000000000000006600,865.7,0.01840777,-1.625
100000000000000000006600,865.7,0.01840777,0.0
100000000000000000006600,865.7,0.03681554,0.8125
100000000000000000006600,865.7,0.07363108,-1.625
100000000000000000006600,865.7,0.09203885,0.0
100000000000000000006600,865.7,0.11044662,0.8125
100000000000000000006600,865.7,0.12885438,0.8125
100000000000000000006600,865.7,0.14112623,0.8125
100000000000000000006600,865.7,0.15339808,0.0
100000000000000000006600,865.7,0.14726216,0.8125
100000000000000000006600,865.7,0.15339808,0.0
100000000000000000006600,865.7,0.159534,0.0
100000000000000000006600,865.7,0.159534,-0.8125
100000000000000000006600,865.7,0.159534,0.8125
100000000000000000006600,865.7,0.17794177,-2.4375
100000000000000000006600,865.7,0.16566992,0.8125
100000000000000000006600,865.7,0.16566992,1.625
100000000000000000006600,865.7,0.1840777,-1.625
100000000000000000006600,865.7,0.17794177,0.0
100000000000000000006600,865.7,0.17794177,0.8125
100000000000000000006600,865.7,0.17794177,1.625
100000000000000000006600,865.7,0.19021362,-0.8125
100000000000000000006600,865.7,0.19021362,1.625
100000000000000000006600,865.7,0.19634955,1.625
100000000000000000006600,865.7,0.20862138,0.0
100000000000000000006600,865.7,0.19021362,2.4375
100000000000000000006600,865.7,0.20862138,0.0
100000000000000000006600,865.7,0.20862138,-0.8125
100000000000000000006600,865.7,0.20248546,0.0
100000000000000000006600,865.7,0.21475731,-0.8125
100000000000000000006600,865.7,0.21475731,-1.625
100000000000000000006600,865.7,0.19634955,1.625
100000000000000000006600,865.7,0.19021362,0.8125
100000000000000000006600,865.7,0.19021362,0.0
100000000000000000006600,865.7,0.19634955,-0.8125
100000000000000000006600,865.7,0.19021362,0.0
100000000000000000006600,865.7,0.17794177,2.4375
100000000000000000006600,865.7,0.1840777,0.0
100000000000000000006600,865.7,0.1840777,1.625
100000000000000000006600,865.7,0.1840777,0.8125
100000000000000000006600,865.7,0.19021362,-0.8125
100000000000000000006600,865.7,0.17794177,0.0
100000000000000000006600,865.7,0.17180584,2.4375
100000000000000000006600,865.7,0.17794177,1.625
100000000000000000006600,865.7,0.19021362,-1.625
100000000000000000006600,865.7,0.17794177,1.625
100000000000000000006600,865.7,0.19021362,-2.4375
100000000000000000006600,865.7,0.17794177,2.4375
100000000000000000006600,865.7,0.19021362,0.0
100000000000000000006600,865.7,0.17794177,2.4375
100000000000000000006600,865.7,0.17180584,0.8125
100000000000000000006600,865.7,0.17794177,0.0
100000000000000000006600,865.7,0.1840777,0.0
100000000000000000006600,865.7,0.17794177,0.0
100000000000000000006600,865.7,0.19021362,-1.625
100000000000000000006600,865.7,0.1840777,-0.8125
100000000000000000006600,865.7,0.17180584,3.25
100000000000000000006600,865.7,0.17794177,0.8125
100000000000000000006600,865.7,0.16566992,1.625
100000000000000000006600,865.7,0.17794177,0.0
100000000000000000006600,865.7,0.1840777,-0.8125
100000000000000000006600,865.7,0.17180584,1.625
100000000000000000006600,865.7,0.17794177,0.0
100000000000000000006600,865.7,0.17794177,1.625
100000000000000000006600,865.7,0.17794177,0.8125
100000000000000000006600,865.7,0.17794177,0.8125
100000000000000000006600,865.7,0.20862138,-3.25
100000000000000000006600,865.7,0.20862138,-0.8125
100000000000000000006600,865.7,0.19634955,-0.8125
100000000000000000006600,865.7,0.19634955,1.625
100000000000000000006600,865.7,0.20248546,0.0
100000000000000000006600,865.7,0.20248546,-0.8125
100000000000000000006600,865.7,0.20248546,0.8125
100000000000000000006600,865.7,0.19634955,-0.8125
100000000000000000006600,865.7,0.19634955,0.0
100000000000000000006600,865.7,0.19021362,1.625
100000000000000000006600,865.7,0.19021362,0.0
100000000000000000006600,865.7,0.1840777,0.8125
100000000000000000006600,865.7,0.19634955,-2.4375
100000000000000000006600,865.7,0.17180584,0.8125
100000000000000000006600,865.7,0.17180584,-0.8125
100000000000000000006600,865.7,0.16566992,-0.8125
100000000000000000006600,865.7,0.15339808,0.0
100000000000000000006600,865.7,0.14112623,0.0
100000000000000000006600,865.7,0.1349903,-1.625
100000000000000000006600,865.7,0.11044662,0.0
100000000000000000006600,865.7,0.11044662,-0.8125
100000000000000000006600,865.7,0.31293207,3.25
100000000000000000006600,865.7,0.35588354,1.625
100000000000000000006600,865.7,0.38042724,2.4375
100000000000000000006600,865.7,0.398835,3.25
100000000000000000006600,865.7,0.4233787,1.625
100000000000000000006600,865.7,0.44792238,1.625
100000000000000000006600,865.7,0.44792238,2.4375
100000000000000000006600,865.7,0.478602,2.4375
100000000000000000006600,865.7,0.48473793,3.25
100000000000000000006600,865.7,0.49087384,2.4375
100000000000000000006600,865.7,0.5031457,3.25
100000000000000000006600,865.7,0.52155346,2.4375
100000000000000000006600,865.7,0.5399612,0.8125
100000000000000000006600,865.7,0.5276894,3.25
100000000000000000006600,865.7,0.53382534,2.4375
100000000000000000006600,865.7,0.5276894,4.875
100000000000000000006600,865.7,0.5522331,-0.8125
100000000000000000006600,865.7,0.53382534,1.625
100000000000000000006600,865.7,0.54609716,0.8125
100000000000000000006600,865.7,0.5154175,3.25
100000000000000000006600,865.7,0.50928164,7.3125
100000000000000000006600,865.7,0.52155346,1.625
100000000000000000006600,865.7,0.52155346,1.625
100000000000000000006600,865.7,0.52155346,1.625
100000000000000000006600,865.7,0.5031457,1.625
100000000000000000006600,865.7,0.48473793,3.25
100000000000000000006600,865.7,0.478602,4.875
100000000000000000006600,865.7,0.47246608,1.625
100000000000000000006600,865.7,0.46019423,3.25
100000000000000000006600,865.7,0.44178647,3.25
100000000000000000006600,865.7,0.44178647,0.8125
100000000000000000006600,865.7,0.43565056,0.8125
100000000000000000006600,865.7,0.4233787,0.8125
100000000000000000006600,865.7,0.3926991,3.25
100000000000000000006600,865.7,0.3926991,3.25
100000000000000000006600,865.7,0.3926991,0.8125
100000000000000000006600,865.7,0.3742913,0.0
100000000000000000006600,865.7,0.34974763,1.625
100000000000000000006600,865.7,0.3436117,0.8125
100000000000000000006600,865.7,0.32520393,2.4375
100000000000000000006600,865.7,0.30679616,4.875
100000000000000000006600,865.7,0.31293207,1.625
100000000000000000006600,865.7,0.2945243,2.4375
100000000000000000006600,865.7,0.2883884,1.625
100000000000000000006600,865.7,0.2699806,4.875
100000000000000000006600,865.7,0.2638447,2.4375
100000000000000000006600,865.7,0.2699806,0.8125
100000000000000000006600,865.7,0.25157285,1.625
100000000000000000006600,865.7,0.25157285,0.8125
100000000000000000006600,865.7,0.25157285,0.8125
100000000000000000006600,865.7,0.23316509,1.625
100000000000000000006600,865.7,0.22089323,3.25
100000000000000000006600,865.7,0.239301,-0.8125
100000000000000000006600,865.7,0.22702916,-0.8125
100000000000000000006600,865.7,0.21475731,1.625
100000000000000000006600,865.7,0.21475731,2.4375
100000000000000000006600,865.7,0.19634955,2.4375
100000000000000000006600,865.7,0.20248546,1.625
100000000000000000006600,865.7,0.20862138,0.8125
100000000000000000006600,865.7,0.20862138,-0.8125
100000000000000000006600,865.7,0.19021362,1.625
100000000000000000006600,865.7,0.19021362,2.4375
100000000000000000006600,865.7,0.19021362,0.0
100000000000000000006600,865.7,0.1840777,1.625
100000000000000000006600,865.7,0.1840777,1.625
100000000000000000006600,865.7,0.17794177,0.8125
100000000000000000006600,865.7,0.17180584,3.25
100000000000000000006600,865.7,0.17180584,2.4375
100000000000000000006600,865.7,0.17180584,2.4375
100000000000000000006600,865.7,0.17794177,1.625
100000000000000000006600,865.7,0.17180584,1.625
100000000000000000006600,865.7,0.17180584,1.625
100000000000000000006600,865.7,0.17180584,0.8125
100000000000000000006600,865.7,0.16566992,3.25
100000000000000000006600,865.7,3.509748,7.3125
100000000000000000006600,865.7,0.17180584,0.8125
100000000000000000006600,865.7,0.16566992,0.8125
100000000000000000006600,865.7,0.16566992,1.625
100000000000000000006600,865.7,0.16566992,0.8125
100000000000000000006600,865.7,0.17180584,0.0
100000000000000000006600,865.7,0.14726216,4.875
100000000000000000006600,865.7,0.159534,0.8125
100000000000000000006600,865.7,3.5588355,14.625
100000000000000000006600,865.7,0.17180584,0.0
100000000000000000006600,865.7,0.14112623,3.25
100000000000000000006600,865.7,0.15339808,1.625
100000000000000000006600,865.7,0.15339808,1.625
100000000000000000006600,865.7,0.14726216,3.25
100000000000000000006600,865.7,3.6140587,-0.8125
100000000000000000006600,865.7,0.159534,1.625
100000000000000000006600,865.7,3.6263306,-6.5
100000000000000000006600,865.7,0.15339808,0.8125
100000000000000000006600,865.7,3.595651,-8.9375
100000000000000000006600,865.7,3.595651,-8.9375
100000000000000000006600,865.7,0.15339808,1.625
100000000000000000006600,865.7,3.5588355,-14.625
100000000000000000006600,865.7,0.14726216,0.0
100000000000000000006600,865.7,0.159534,0.0
100000000000000000006600,865.7,3.5711074,1.625
100000000000000000006600,865.7,0.14112623,2.4375
100000000000000000006600,865.7,3.5281558,17.0625
100000000000000000006600,865.7,0.15339808,0.8125
100000000000000000006600,865.7,3.4422529,13.8125
100000000000000000006600,865.7,0.15339808,0.8125
100000000000000000006600,865.7,3.4729326,11.375
100000000000000000006600,865.7,0.14726216,1.625
100000000000000000006600,865.7,3.4483888,26.8125
100000000000000000006600,865.7,0.14726216,0.8125
100000000000000000006600,865.7,3.503612,13.0
100000000000000000006600,865.7,0.14726216,0.8125
100000000000000000006600,865.7,3.595651,-7.3125
100000000000000000006600,865.7,0.15339808,0.0
100000000000000000006600,865.7,3.429981,30.875
100000000000000000006600,865.7,0.14726216,0.8125
100000000000000000006600,865.7,3.583379,-3.25
100000000000000000006600,865.7,0.14726216,0.8125
100000000000000000006600,865.7,3.497476,18.6875
100000000000000000006600,865.7,0.14726216,0.0
100000000000000000006600,865.7,3.5404277,6.5
100000000000000000006600,865.7,3.417709,20.3125
100000000000000000006600,865.7,0.12885438,3.25
100000000000000000006600,865.7,0.1349903,1.625
100000000000000000006600,865.7,3.595651,-5.6875
100000000000000000006600,865.7,3.6017869,-6.5
100000000000000000006600,865.7,0.12885438,2.4375
100000000000000000006600,865.7,0.11658254,4.875
100000000000000000006600,865.7,3.5220199,14.625
100000000000000000006600,865.7,3.5649714,-8.9375
100000000000000000006600,865.7,0.12271846,1.625
100000000000000000006600,865.7,3.5404277,0.8125
100000000000000000006600,865.7,0.1349903,0.8125
100000000000000000006600,865.7,3.6386025,-14.625
100000000000000000006600,865.7,0.1349903,-0.8125
100000000000000000006600,865.7,3.6386025,-14.625
100000000000000000006600,865.7,0.1349903,0.8125
100000000000000000006600,865.7,3.503612,15.4375
100000000000000000006600,865.7,0.12885438,0.0
100000000000000000006600,865.7,3.6447384,-8.9375
100000000000000000006600,865.7,0.12885438,-0.8125
100000000000000000006600,865.7,0.12885438,0.0
100000000000000000006600,865.7,3.5711074,2.4375
100000000000000000006600,865.7,0.12271846,1.625
100000000000000000006600,865.7,3.589515,-16.25
100000000000000000006600,865.7,3.6570103,-17.0625
100000000000000000006600,865.7,0.11658254,2.4375
100000000000000000006600,865.7,0.11044662,1.625
100000000000000000006600,865.7,3.4483888,27.625
100000000000000000006600,865.7,0.11658254,0.8125
100000000000000000006600,865.7,3.4054372,26.8125
100000000000000000006600,865.7,0.12885438,-0.8125
100000000000000000006600,865.7,3.6263306,3.25
100000000000000000006600,865.7,0.12271846,0.8125
100000000000000000006600,865.7,3.589515,4.0625
100000000000000000006600,865.7,3.5404277,0.0
100000000000000000006600,865.7,0.11658254,0.8125
100000000000000000006600,865.7,0.11658254,0.8125
100000000000000000006600,865.7,3.5711074,-0.8125
100000000000000000006600,865.7,0.10431069,1.625
100000000000000000006600,865.7,3.515884,13.8125
100000000000000000006600,865.7,0.11044662,1.625
100000000000000000006600,865.7,3.4790685,17.0625
100000000000000000006600,865.7,0.10431069,2.4375
100000000000000000006600,865.7,3.4913402,14.625
100000000000000000006600,865.7,0.11044662,0.8125
100000000000000000006600,865.7,3.5220199,16.25
100000000000000000006600,865.7,0.10431069,0.8125
100000000000000000006600,865.7,3.5220199,5.6875
100000000000000000006600,865.7,0.10431069,0.8125
100000000000000000006600,865.7,3.4790685,9.75
100000000000000000006600,865.7,0.12271846,-1.625
100000000000000000006600,865.7,3.6201947,-8.9375
100000000000000000006600,865.7,0.09817477,3.25
100000000000000000006600,865.7,3.503612,-0.8125
100000000000000000006600,865.7,0.09203885,2.4375
100000000000000000006600,865.7,3.4913402,6.5
100000000000000000006600,865.7,3.497476,11.375
100000000000000000006600,865.7,0.09817477,0.8125
100000000000000000006600,865.7,0.09817477,1.625
100000000000000000006600,865.7,3.3808937,30.875
100000000000000000006600,865.7,3.5281558,2.4375
100000000000000000006600,865.7,0.09203885,0.8125
100000000000000000006600,865.7,0.08590292,1.625
100000000000000000006600,865.7,3.5220199,8.9375
100000000000000000006600,865.7,0.08590292,1.625
100000000000000000006600,865.7,3.4667966,2.4375
100000000000000000006600,865.7,0.10431069,-0.8125
100000000000000000006600,865.7,3.5588355,-5.6875
100000000000000000006600,865.7,0.08590292,0.8125
100000000000000000006600,865.7,3.5649714,4.875
100000000000000000006600,865.7,3.4483888,21.125
100000000000000000006600,865.7,0.08590292,1.625
100000000000000000006600,865.7,3.6938257,-20.3125
100000000000000000006600,865.7,0.08590292,0.0
100000000000000000006600,865.7,0.09817477,-0.8125
100000000000000000006600,865.7,3.4667966,17.0625
100000000000000000006600,865.7,0.09203885,-0.8125
100000000000000000006600,865.7,3.3993015,31.6875
100000000000000000006600,865.7,3.4606607,13.0
100000000000000000006600,865.7,0.08590292,0.0
100000000000000000006600,865.7,3.583379,-2.4375
100000000000000000006600,865.7,0.06749515,0.8125
100000000000000000006600,865.7,0.079767,0.8125
100000000000000000006600,865.7,3.663146,-16.25
100000000000000000006600,865.7,0.079767,0.0
100000000000000000006600,865.7,3.497476,12.1875
100000000000000000006600,865.7,0.08590292,0.0
100000000000000000006600,865.7,3.5220199,10.5625
100000000000000000006600,865.7,0.05522331,2.4375
100000000000000000006600,865.7,3.5526996,5.6875
100000000000000000006600,865.7,0.07363108,0.8125
100000000000000000006600,865.7,3.4729326,11.375
100000000000000000006600,865.7,0.07363108,0.8125
100000000000000000006600,865.7,3.6201947,-12.1875
100000000000000000006600,865.7,0.06749515,1.625
100000000000000000006600,865.7,3.1784081,48.8125
100000000000000000006600,865.7,3.577243,-8.9375
100000000000000000006600,865.7,0.06749515,0.8125
100000000000000000006600,865.7,0.06749515,0.8125
100000000000000000006600,865.7,3.5404277,8.125
100000000000000000006600,865.7,0.079767,-0.8125
100000000000000000006600,865.7,3.5526996,4.875
100000000000000000006600,865.7,0.07363108,0.0
100000000000000000006600,865.7,3.5342917,7.3125
100000000000000000006600,865.7,3.6815538,-13.8125
100000000000000000006600,865.7,0.05522331,1.625
100000000000000000006600,865.7,3.3747578,27.625
100000000000000000006600,865.7,0.05522331,1.625
100000000000000000006600,865.7,0.06749515,0.0
100000000000000000006600,865.7,3.6201947,-5.6875
100000000000000000006600,865.7,3.6140587,-10.5625
100000000000000000006600,865.7,0.06135923,0.8125
100000000000000000006600,865.7,0.05522331,2.4375
100000000000000000006600,865.7,3.8104084,-31.6875
100000000000000000006600,865.7,0.05522331,1.625
100000000000000000006600,865.7,3.5465636,0.8125
100000000000000000006600,865.7,0.06135923,0.8125
100000000000000000006600,865.7,3.5465636,-3.25
100000000000000000006600,865.7,0.05522331,0.0
100000000000000000006600,865.7,3.5220199,5.6875
100000000000000000006600,865.7,0.05522331,2.4375
100000000000000000006600,865.7,3.515884,9.75
100000000000000000006600,865.7,0.049087387,3.25
100000000000000000006600,865.7,3.5220199,9.75
100000000000000000006600,865.7,3.4729326,12.1875
100000000000000000006600,865.7,0.07363108,-1.625
100000000000000000006600,865.7,3.4483888,18.6875
100000000000000000006600,865.7,0.05522331,0.8125
100000000000000000006600,865.7,3.4667966,19.5
100000000000000000006600,865.7,0.049087387,0.8125
100000000000000000006600,865.7,0.049087387,0.8125
100000000000000000006600,865.7,3.583379,-0.8125
100000000000000000006600,865.7,0.05522331,0.0
100000000000000000006600,865.7,3.4483888,22.75
100000000000000000006600,865.7,0.04295146,2.4375
100000000000000000006600,865.7,3.5526996,7.3125
100000000000000000006600,865.7,0.049087387,0.8125
100000000000000000006600,865.7,3.6263306,0.0
100000000000000000006600,865.7,0.06135923,-1.625
100000000000000000006600,865.7,3.595651,-2.4375
100000000000000000006600,865.7,0.049087387,1.625
100000000000000000006600,865.7,3.583379,-8.9375
100000000000000000006600,865.7,0.04295146,3.25
100000000000000000006600,865.7,3.577243,6.5
100000000000000000006600,865.7,0.05522331,0.0
100000000000000000006600,865.7,3.5465636,0.0
100000000000000000006600,865.7,0.049087387,2.4375
100000000000000000006600,865.7,3.3931656,14.625
100000000000000000006600,865.7,0.05522331,0.8125
100000000000000000006600,865.7,3.5404277,4.875
100000000000000000006600,865.7,0.04295146,0.8125
100000000000000000006600,865.7,3.3808937,23.5625
100000000000000000006600,865.7,3.509748,13.8125
100000000000000000006600,865.7,0.03681554,3.25
100000000000000000006600,865.7,0.06135923,0.0
100000000000000000006600,865.7,3.6938257,-28.4375
100000000000000000006600,865.7,0.04295146,2.4375
100000000000000000006600,865.7,3.3931656,18.6875
100000000000000000006600,865.7,0.04295146,2.4375
100000000000000000006600,865.7,3.6324666,-12.1875
100000000000000000006600,865.7,0.06135923,0.0
100000000000000000006600,865.7,3.5342917,-1.625
100000000000000000006600,865.7,0.049087387,0.8125
100000000000000000006600,865.7,3.6815538,-12.1875
100000000000000000006600,865.7,3.417709,18.6875
100000000000000000006600,865.7,0.05522331,0.8125
100000000000000000006600,865.7,0.04295146,1.625
100000000000000000006600,865.7,3.4913402,6.5
100000000000000000006600,865.7,3.3993015,26.0
100000000000000000006600,865.7,0.05522331,0.0
100000000000000000006600,865.7,0.049087387,0.8125
100000000000000000006600,865.7,3.5465636,-10.5625
100000000000000000006600,865.7,3.595651,-8.125
100000000000000000006600,865.7,0.06749515,0.0
100000000000000000006600,865.7,0.05522331,0.0
100000000000000000006600,865.7,3.4913402,14.625
100000000000000000006600,865.7,0.06749515,-1.625
100000000000000000006600,865.7,3.663146,-20.3125
100000000000000000006600,865.7,0.06749515,-0.8125
100000000000000000006600,865.7,3.6508744,-17.0625
100000000000000000006600,865.7,0.05522331,0.8125
100000000000000000006600,865.7,3.3993015,13.8125
100000000000000000006600,865.7,0.06135923,1.625
100000000000000000006600,865.7,3.4115732,26.0
100000000000000000006600,865.7,0.06749515,0.0
100000000000000000006600,865.7,3.595651,-6.5
100000000000000000006600,865.7,3.5711074,-5.6875
100000000000000000006600,865.7,0.06135923,1.625
100000000000000000006600,865.7,0.06135923,1.625
100000000000000000006600,865.7,3.4790685,14.625
100000000000000000006600,865.7,0.079767,0.0
100000000000000000006600,865.7,3.589515,-6.5
100000000000000000006600,865.7,0.09203885,-2.4375
100000000000000000006600,865.7,3.6079228,-11.375
100000000000000000006600,865.7,0.08590292,-0.8125
100000000000000000006600,865.7,3.577243,-6.5
100000000000000000006600,865.7,0.10431069,-0.8125
100000000000000000006600,865.7,3.4913402,15.4375
100000000000000000006600,865.7,0.09203885,1.625
100000000000000000006600,865.7,3.5220199,-3.25
100000000000000000006600,865.7,0.11044662,0.0
100000000000000000006600,865.7,3.6263306,-6.5
100000000000000000006600,865.7,3.6447384,-10.5625
100000000000000000006600,865.7,0.12885438,0.8125
100000000000000000006600,865.7,0.14726216,-0.8125
100000000000000000006600,865.7,3.4790685,16.25
100000000000000000006600,865.7,3.6570103,-11.375
100000000000000000006600,865.7,0.15339808,0.0
100000000000000000006600,865.7,0.16566992,0.0
100000000000000000006600,865.7,3.583379,-6.5
100000000000000000006600,865.7,0.17794177,-0.8125
100000000000000000006600,865.7,3.5220199,-1.625
100000000000000000006600,865.7,3.4852045,6.5
100000000000000000006600,865.7,0.17794177,1.625
100000000000000000006600,865.7,0.19634955,0.0
100000000000000000006600,865.7,3.503612,8.125
100000000000000000006600,865.7,0.20248546,-0.8125
100000000000000000006600,865.7,3.5711074,6.5
100000000000000000006600,865.7,0.20248546,0.0
100000000000000000006600,865.7,3.577243,6.5
100000000000000000006600,865.7,0.21475731,0.8125
100000000000000000006600,865.7,3.3870296,17.875
100000000000000000006600,865.7,0.239301,-2.4375
100000000000000000006600,865.7,3.515884,24.375
100000000000000000006600,865.7,3.3993015,16.25
100000000000000000006600,865.7,0.22089323,0.0
100000000000000000006600,865.7,0.23316509,0.8125
100000000000000000006600,865.7,3.4729326,10.5625
100000000000000000006600,865.7,3.5649714,1.625
100000000000000000006600,865.7,0.23316509,0.0
100000000000000000006600,865.7,0.239301,0.8125
100000000000000000006600,865.7,3.5281558,-10.5625
100000000000000000006600,865.7,0.2638447,-1.625
100000000000000000006600,865.7,3.5342917,-38.1875
100000000000000000006600,865.7,3.4790685,15.4375
100000000000000000006600,865.7,0.25157285,0.8125
100000000000000000006600,865.7,0.2699806,0.8125
100000000000000000006600,865.7,3.5526996,12.1875
100000000000000000006600,865.7,0.2699806,0.8125
100000000000000000006600,865.7,3.4545248,16.25
100000000000000000006600,865.7,0.2699806,0.8125
100000000000000000006600,865.7,3.5281558,8.9375
100000000000000000006600,865.7,0.28225246,-1.625
100000000000000000006600,865.7,3.35635,28.4375
100000000000000000006600,865.7,0.27611655,1.625
100000000000000000006600,865.7,3.497476,8.125
100000000000000000006600,865.7,0.28225246,0.8125
100000000000000000006600,865.7,3.6386025,-21.9375
100000000000000000006600,865.7,3.5465636,6.5
100000000000000000006600,865.7,0.2945243,-0.8125
100000000000000000006600,865.7,0.2945243,1.625
100000000000000000006600,865.7,3.589515,3.25
100000000000000000006600,865.7,0.30066022,0.8125
100000000000000000006600,865.7,3.4545248,13.8125
100000000000000000006600,865.7,0.31293207,0.0
100000000000000000006600,865.7,3.509748,7.3125
100000000000000000006600,865.7,0.319068,0.0
100000000000000000006600,865.7,3.4545248,31.6875
100000000000000000006600,865.7,0.32520393,-0.8125
100000000000000000006600,865.7,3.583379,6.5
100000000000000000006600,865.7,0.32520393,0.8125
100000000000000000006600,865.7,3.5281558,-0.8125
100000000000000000006600,865.7,3.497476,6.5
100000000000000000006600,865.7,0.33133984,0.8125
100000000000000000006600,865.7,3.4729326,10.5625
100000000000000000006600,865.7,0.33133984,0.8125
100000000000000000006600,865.7,0.33133984,0.8125
100000000000000000006600,865.7,3.5220199,-2.4375
100000000000000000006600,865.7,0.33133984,1.625
100000000000000000006600,865.7,3.4483888,16.25
100000000000000000006600,865.7,0.33133984,0.0
100000000000000000006600,865.7,3.663146,-13.8125
100000000000000000006600,865.7,0.33747578,0.8125
100000000000000000006600,865.7,3.5526996,8.125
100000000000000000006600,865.7,0.33747578,0.0
100000000000000000006600,865.7,0.33747578,0.8125
100000000000000000006600,865.7,0.33133984,1.625
100000000000000000006600,865.7,3.577243,2.4375
100000000000000000006600,865.7,0.3436117,-0.8125
100000000000000000006600,865.7,3.583379,-1.625
100000000000000000006600,865.7,0.33133984,0.8125
100000000000000000006600,865.7,3.6201947,-37.375
100000000000000000006600,865.7,0.33133984,0.8125
100000000000000000006600,865.7,3.417709,29.25
100000000000000000006600,865.7,0.32520393,2.4375
100000000000000000006600,865.7,3.5526996,-1.625
100000000000000000006600,865.7,0.33747578,0.8125
100000000000000000006600,865.7,3.5342917,0.0
100000000000000000006600,865.7,3.5281558,4.875
100000000000000000006600,865.7,0.32520393,1.625
100000000000000000006600,865.7,0.33133984,1.625
100000000000000000006600,865.7,3.503612,12.1875
100000000000000000006600,865.7,0.33133984,1.625
100000000000000000006600,865.7,3.423845,20.3125
100000000000000000006600,865.7,0.33747578,0.0
100000000000000000006600,865.7,3.6263306,-5.6875
100000000000000000006600,865.7,0.33133984,1.625
100000000000000000006600,865.7,3.4852045,11.375
100000000000000000006600,865.7,0.33747578,0.0
100000000000000000006600,865.7,3.503612,16.25
100000000000000000006600,865.7,3.4790685,16.25
100000000000000000006600,865.7,0.33133984,1.625
100000000000000000006600,865.7,0.33133984,0.8125
100000000000000000006600,865.7,3.4729326,7.3125
100000000000000000006600,865.7,0.33133984,0.8125
100000000000000000006600,865.7,3.4913402,20.3125
100000000000000000006600,865.7,3.4852045,7.3125
100000000000000000006600,865.7,0.33133984,0.8125
100000000000000000006600,865.7,3.436117,21.125
100000000000000000006600,865.7,0.32520393,0.8125
100000000000000000006600,865.7,0.33747578,0.0
100000000000000000006600,865.7,3.675418,-17.0625
100000000000000000006600,865.7,0.32520393,0.0
100000000000000000006600,865.7,3.4852045,1.625
100000000000000000006600,865.7,0.33133984,0.8125
100000000000000000006600,865.7,3.4790685,14.625
100000000000000000006600,865.7,0.33747578,-0.8125
100000000000000000006600,865.7,3.5404277,5.6875
100000000000000000006600,865.7,0.32520393,0.8125
100000000000000000006600,865.7,3.436117,17.0625
100000000000000000006600,865.7,0.33133984,0.0
100000000000000000006600,865.7,3.4913402,11.375
100000000000000000006600,865.7,3.4115732,19.5
100000000000000000006600,865.7,0.32520393,1.625
100000000000000000006600,865.7,3.497476,11.375
100000000000000000006600,865.7,0.32520393,1.625
100000000000000000006600,865.7,0.33133984,0.0
100000000000000000006600,865.7,3.5342917,1.625
100000000000000000006600,865.7,0.32520393,0.8125
100000000000000000006600,865.7,3.436117,20.3125
100000000000000000006600,865.7,0.33747578,-0.8125
100000000000000000006600,865.7,3.4913402,3.25
100000000000000000006600,865.7,3.5465636,0.0
100000000000000000006600,865.7,0.32520393,1.625
100000000000000000006600,865.7,0.33133984,0.8125
100000000000000000006600,865.7,3.436117,6.5
100000000000000000006600,865.7,0.3436117,-1.625
100000000000000000006600,865.7,3.583379,-0.8125
100000000000000000006600,865.7,0.33747578,0.0
100000000000000000006600,865.7,3.4790685,9.75
100000000000000000006600,865.7,0.33133984,0.8125
100000000000000000006600,865.7,3.4913402,15.4375
100000000000000000006600,865.7,0.32520393,1.625
100000000000000000006600,865.7,3.6324666,-11.375
100000000000000000006600,865.7,0.33133984,0.0
100000000000000000006600,865.7,3.3747578,30.875
100000000000000000006600,865.7,0.32520393,0.0
100000000000000000006600,865.7,3.4545248,5.6875
100000000000000000006600,865.7,0.32520393,0.8125
100000000000000000006600,865.7,3.4913402,10.5625
100000000000000000006600,865.7,0.33133984,-0.8125
100000000000000000006600,865.7,3.4054372,30.0625
100000000000000000006600,865.7,0.33747578,0.0
100000000000000000006600,865.7,3.6079228,-0.8125
100000000000000000006600,865.7,0.33747578,-0.8125
100000000000000000006600,865.7,3.5404277,10.5625
100000000000000000006600,865.7,0.33133984,0.8125
100000000000000000006600,865.7,3.6570103,-12.1875
100000000000000000006600,865.7,0.32520393,1.625
