-40.5,0.0,0.0
-40.0,0.41110685115335155,0.5625
-34.0,0.04908738521234124,0.1875
-34.5,-0.4970097752749485,0.25
-32.0,-2.6936702635271854,0.25
-52.5,3.06182565261974,0.125
-42.0,0.7117670855789378,0.0625
-35.0,-0.07976700097005374,0.375
-43.5,-3.5036121195308043,0.5
-43.5,0.15339807878856382,0.125
-58.0,-2.3868741059500573,-0.0625
-27.0,0.4479223900626072,0.8125
-30.0,0.11044661672776618,0.75
-32.5,0.0,0.375
-32.0,4.319689898685966,0.5625
-34.5,-4.76147636559703,0.125
-34.5,0.9203884727313847,0.5625
-34.5,2.816388726558037,0.4375
-49.0,-0.8467573949128742,0.1875
-39.5,1.9205439464328231,0.1875
-41.0,-4.681709364626977,0.25
-42.0,0.7915340865489908,0.125
-41.0,-0.9878836273983529,0.5
-42.0,3.969942279048039,0.375
-43.0,-0.398835004850266,0.1875
-47.5,-3.583379120500858,0.0625
-42.0,1.1658253987930876,0.125
-44.5,0.0,-0.0625
-40.0,-0.2761165418194155,0.25
-38.5,-0.1595340019401067,0.25
-49.5,0.3497476196379261,0.0625
-58.0,4.006757817957295,0.0625
-32.0,0.9019807032767568,0.375
-39.5,-0.7608544707912781,0.125
-45.5,-0.2024854640009046,0.125
-44.5,-4.000621894805752,0.25
-39.5,4.104932588381976,0.25
-52.5,-4.123340357836604,-0.375
-40.0,0.0,0.4375
-56.5,0.7117670855789375,-0.1875
-45.0,0.7853981633974483,0.5625
-55.0,-2.478912953223196,-0.0625
-49.5,-0.8651651643675017,0.625
-42.0,1.662835174068035,0.125
-46.0,-1.4542137869155878,0.25
-49.5,-0.05522330836388306,0.1875
-53.5,0.0,0.1875
-54.5,-2.5218644152839937,0.125
-56.5,2.294835258676919,0.25
-48.0,0.0,0.125
-55.5,0.0,0.9375
-33.0,-5.712544454086127,0.375
-42.5,1.4419419406125027,0.0
-37.0,0.39269908169872414,-0.0625
-59.5,4.104932588381976,1.125
-46.0,-3.650874275167826,-0.125
-43.0,-0.5154175447295755,0.1875
-40.5,0.8897088569736717,0.5625
-45.5,0.0,0.125
-52.0,2.098485717827557,0.625
-54.0,4.086524818927348,-0.125
-46.0,-0.024543692606170175,0.25
-57.0,0.030679615757712497,-0.1875
-52.0,-4.95168998329485,0.125
-50.5,-1.1106020904292042,-0.5
-52.5,0.39269908169872414,-0.0625
-51.5,0.0,0.0625
-27.5,-2.528000338435536,0.25
-30.5,-3.0004664211043144,0.1875
-32.0,1.4542137869155878,0.375
-34.5,3.82881604656256,-0.0625
-41.0,-4.3074180523828804,0.0625
-32.5,4.7921559813547425,0.375
-37.5,0.0,0.0
-40.0,-4.95168998329485,0.25
-45.0,0.3067961575771282,0.625
-33.0,0.07976700097005335,0.4375
-35.0,5.737088146692297,0.4375
-42.5,-5.227806525114265,0.25
-39.5,5.056000676871074,0.0
-49.0,-1.791689560250429,0.4375
-39.5,1.8162332528565992,0.5
-50.0,-5.988660995905543,0.4375
-45.0,0.6381360077604267,0.0
-47.5,-0.6074563920027138,-0.0625
-56.0,1.1658253987930873,0.0625
-43.5,-0.10431069357622347,0.1875
-44.0,0.0,0.1875
-27.0,-5.209398755659637,0.75
-46.0,-0.8406214717613314,0.5
-31.5,5.577554144752192,0.1875
-32.0,0.0,0.5625
-39.0,-0.07976700097005335,0.0625
-35.0,4.485359823777615,0.0625
-39.5,0.5092816215780331,0.125
-45.5,-3.54042765844006,0.8125
-41.5,3.8656315854718155,0.25
-40.5,-0.7240389318820224,0.1875
-30.5,-4.23378697456437,0.125
-35.0,5.2768939103266055,0.625
-41.0,-4.350369514443678,0.5
-40.5,2.9697868053466014,0.1875
-52.0,0.8099418560036185,0.625
-33.5,0.05522330836388267,0.0625
-44.0,0.0,0.375
-42.0,-0.0674951546669682,0.25
-45.5,-0.39269908169872414,0.125
-50.0,5.559146375297563,0.5
-59.0,-0.969475857943725,-0.0625
-33.5,0.9019807032767568,0.0625
-48.0,0.3926990816987246,-0.125
-36.5,-5.301437602932776,0.125
-45.5,-0.7731263170943632,-0.125
-39.5,1.41126232485479,0.125
-45.5,-0.5706408530934586,0.125
-41.5,-0.6320000846088842,0.375
-50.5,0.0,0.125
-56.0,2.975922728498144,0.4375
-47.5,-0.7853981633974487,0.4375
-49.5,-2.3500585670408025,0.0625
-40.5,-0.11044661672776601,0.25
-45.0,0.9387962421860121,0.125
-52.5,-1.3621749396424492,0.0
-58.0,-0.8713010875190441,0.1875
-55.5,2.454369260617026,-0.1875
-50.0,-2.466641106920111,0.1875
-57.0,4.767612288748572,0.0
-34.0,0.0,0.5625
-36.0,1.6935147898257479,-0.0625
-45.0,0.0,0.25
-43.5,3.362485887045325,-0.0625
-40.5,1.1228739367322893,0.1875
-40.5,-0.4601942363656919,0.4375
-45.5,1.4664856332186726,-0.125
-56.0,-5.945709533844745,0.0625
-51.5,0.35588354278946877,0.0625
-48.5,5.540738605842936,0.0625
-45.5,-1.5033011721279284,0.1875
-48.5,-2.2948352586769194,-0.125
-32.5,0.0,0.1875
-30.5,1.4542137869155878,0.4375
-38.5,4.06811704947272,0.1875
-26.5,-0.9449321653375549,0.375
-42.0,-4.221515128261284,0.1875
-39.5,5.405748296509,0.25
-34.0,0.0674951546669682,0.1875
-40.0,0.31293208072867085,0.375
-45.0,-6.135923151542565,-0.0625
-37.5,1.2762720155208533,0.125
-56.0,-0.5460971604872882,0.0
-42.0,-0.12271846303085132,0.75
-50.5,4.994641445355648,0.125
-45.0,-5.344389064993574,0.25
-44.0,-0.08590292412159592,0.125
-32.5,0.0,0.375
-30.5,0.42337869745643686,0.0625
-26.5,-0.0674951546669682,0.125
-35.0,4.295146206079795,0.1875
-39.5,-0.018407769454626965,0.0625
-39.0,-0.28838838812250067,0.375
-40.5,0.0,0.1875
-45.0,0.16566992509164924,0.125
-31.5,4.111068511533518,0.25
-43.5,-3.4606606574700063,0.1875
-46.0,5.2339424482658075,0.5
-40.5,-0.21475731030399015,0.5
-37.5,-2.613903262557132,0.4375
-40.0,0.9081166264282992,0.4375
-44.0,-3.4729325037730914,0.0625
-59.0,0.6504078540635118,0.375
-48.0,4.080388895775805,0.0
-57.0,-5.111223985234956,0.1875
-34.0,5.049864753719531,0.1875
-43.5,-4.006757817957295,0.0625
-41.5,-1.3069516312785663,0.5625
-36.5,0.0,0.125
-48.0,0.39269908169872414,0.25
-47.5,1.963495408493621,0.25
-43.5,-2.2396119503130363,0.25
-40.5,0.39269908169872414,0.1875
-53.0,4.178563666200486,0.25
-44.0,1.2578642460662257,0.375
-44.5,-1.3989904785517044,0.0
-48.5,0.674951546669682,0.0625
-51.0,0.5276893910326601,0.5625
-52.5,-4.927146290688679,-0.125
-64.5,4.0987966652304335,0.5625
-58.5,-4.2092432819582,-0.125
-61.0,0.0,-0.25
-60.0,-2.9268353432858034,-0.125
-60.0,0.0,-0.625
-34.0,-0.7179030087304801,0.5625
-43.5,4.749204519293945,0.4375
-45.0,-0.8528933180644165,0.25
-48.5,-1.497165248976386,0.0625
-36.0,-0.6994952392758522,0.125
-57.0,4.387185053352933,0.1875
-44.5,0.0,0.125
-40.5,-1.0676506283684057,0.0
-45.5,-4.264466590322083,0.1875
-40.0,0.6933593161243099,0.125
-49.5,-0.9203884727313848,0.0
-50.5,-0.030679615757712775,0.0
-58.0,5.47937937432751,0.0
-48.5,-0.6810874698212244,0.0625
-54.5,-0.41110685115335155,-0.125
-57.5,0.0,-0.1875
-61.0,0.8344855486097886,0.625
-27.5,0.1656699250916498,0.5
-34.0,-4.589670517353839,0.5
-31.5,3.031146036862027,0.25
-51.5,-3.8104082771079324,-0.125
-40.0,0.5276893910326607,0.1875
-43.5,0.0,0.375
-33.5,1.2455923997631402,0.125
-35.5,-4.921010367537137,0.625
-39.0,5.442563835418255,0.25
-46.0,-4.5405831321414984,0.375
-30.5,4.399456899656019,0.0625
-44.5,-4.209243281958199,0.1875
-35.5,-0.06135923151542566,0.1875
-40.5,-0.8835729338221293,0.625
-47.0,0.24543692606170253,0.1875
-41.5,-0.28838838812250045,0.1875
-41.0,4.1601558967458585,0.5625
-42.0,-0.6565437772150542,0.1875
-52.5,0.9449321653375549,-0.125
-57.0,-2.9820586516496865,-0.0625
-34.0,0.0,0.0625
-29.5,4.6448938257177215,0.25
-31.5,-0.24543692606170264,0.125
-31.5,-3.2397674240144743,0.125
-45.5,-1.3130875544301088,0.125
-43.5,0.2699806186678728,0.125
-38.0,-0.04295146206079792,0.125
-39.0,0.6933593161243099,0.375
-40.5,5.056000676871073,0.5
-43.0,0.11658253987930856,0.0625
-37.0,-0.355883542789468,0.0
-48.5,-1.1658253987930873,-0.125
-44.0,-3.7367771992894223,0.1875
-48.5,0.0,-0.0625
-40.0,0.4970097752749476,0.0625
-39.5,1.3437671701878218,0.25
-42.5,-2.067806102069844,0.1875
-58.0,1.7794177139473435,0.0
-46.0,-5.24007837141735,0.4375
-43.5,4.73693267299086,0.0
-33.5,-4.90260259808251,0.1875
-36.0,4.8780589054763395,0.5
-42.5,0.024543692606170175,0.4375
-45.5,-4.01902966426038,0.375
-48.5,4.239922897715912,0.75
-40.5,-3.5220198889854326,0.4375
-49.0,0.0,0.1875
-52.0,-2.024854640009046,-1.5
-39.5,0.36815538909255374,0.25
-41.0,-1.2333205534600553,0.25
-44.0,1.3253594007331941,0.0625
-52.5,1.3560390164909069,-0.1875
-55.5,-1.8837284075235676,0.25
-57.0,-0.7853981633974482,0.1875
-44.0,0.0,0.0625
-50.0,0.7915340865489906,0.25
-52.5,-0.2024854640009046,0.0
-64.0,-0.7301748550335647,0.25
-31.5,0.0,0.0625
-41.0,-0.5829126993965437,0.125
-37.5,-0.3006602344255853,0.0
-39.5,-3.227495577711389,0.0
-51.0,5.424156065963627,0.125
-43.5,-5.994796919057086,0.125
-53.0,0.8467573949128739,0.125
-48.0,1.4051264017032474,0.125
-54.5,0.0,0.125
-51.5,0.7485826244881928,0.0
-41.5,-0.47246608266877743,0.0
-45.5,3.6570101983193686,0.125
-45.0,-3.8840393549264434,0.5
-57.0,0.5706408530934586,0.4375
-55.5,3.816544200259475,0.0625
-55.0,-3.1293208072867076,-0.0625
-28.0,0.0,0.375
-30.5,-0.030679615757712497,0.25
-37.0,-0.9081166264282992,0.5625
-33.0,-3.6754179677739964,0.1875
-41.5,0.28225246497095813,0.125
-32.5,4.0558452031696355,0.1875
-35.5,-1.055378782065321,0.0625
-50.0,1.8100973297050569,0.4375
-41.0,-0.6994952392758522,0.125
-42.0,-0.7853981633974483,0.25
-35.5,-0.8590292412159592,0.625
-52.0,1.4480778637640452,0.1875
-43.0,-4.638757902566179,0.375
-43.5,0.0,0.25
-44.0,0.926524395882927,0.0
-44.5,-3.61405873625857,0.5625
-40.5,-0.1595340019401068,0.25
-44.5,0.9756117810952678,0.375
-51.0,4.374913207049849,0.0
-58.5,-0.8713010875190443,0.0625
-28.5,0.0,0.25
-41.5,-4.424000592262189,0.1875
-51.5,4.970097752749478,-0.125
-40.5,-0.779262240245906,0.1875
-32.5,-0.018407769454627854,0.125
-30.5,0.14726215563702194,0.1875
-35.5,-5.043728830567988,0.1875
-42.5,0.8099418560036186,0.125
-43.5,-0.6258641614573417,0.625
-45.0,0.7976700097005336,0.0625
-43.0,2.1782527187976104,0.0
-38.5,-2.0064468705544187,0.1875
-36.5,-0.5951845456996288,0.4375
-59.0,4.276738436625168,0.5
-40.5,-4.638757902566179,0.5
-33.0,0.32520392703175593,0.25
-47.0,0.0,0.5
-45.5,-5.945709533844745,0.1875
-48.5,5.663457068873787,0.0625
-44.5,-5.792311455056181,0.1875
-31.5,4.620350133111551,0.0625
-39.0,-4.295146206079795,0.0
-43.5,-0.36815538909255385,0.125
-37.0,3.718369429834794,0.25
-45.0,-3.1477285767413354,0.25
-41.0,3.4852043500761765,0.4375
-51.5,-3.522019888985432,0.0
-45.0,0.0,0.125
-49.5,-5.246214294568893,0.1875
-45.0,-0.17180584824319178,0.1875
-48.5,5.387340527054372,0.125
-49.5,-3.712233506683252,0.25
-58.5,0.6933593161243099,0.25
-51.5,-2.5402721847386216,-0.0625
-56.0,0.0,0.125
-31.5,0.6810874698212244,0.125
-43.5,-1.5278448647340985,0.125
-40.0,-2.528000338435537,0.4375
-45.5,-0.7731263170943632,0.0625
-45.0,0.7240389318820226,0.25
-41.0,0.0,0.25
-49.5,1.8898643306751102,-0.25
-37.0,-2.3132430281315473,0.0625
-44.0,1.4358060174609597,0.25
-50.0,1.288543861823939,0.0625
-48.5,-3.6631461214709113,0.375
-52.5,2.687534340375643,0.0625
-48.0,-4.196971435655114,0.0625
-57.0,-0.1349903093339364,0.125
-53.5,0.0,0.1875
-28.5,0.8099418560036193,0.25
-33.5,-4.6448938257177215,0.0
-31.0,4.4546802080199015,0.25
-32.0,-3.2581751934691017,0.4375
-37.0,2.000310947402876,0.125
-41.5,-3.0495538063166547,0.375
-39.5,0.6381360077604267,0.0
-42.5,-1.0860583978230338,0.25
-39.5,4.626486056263094,0.5
-40.5,-4.3074180523828804,0.125
-59.5,4.356505437595222,0.125
-37.5,0.0,0.1875
-44.5,-5.510058990085223,0.0625
-43.0,0.6933593161243098,0.75
-40.0,1.8960002538266523,0.5625
-47.0,1.7671458676442588,-0.0625
-44.0,-3.7429131224409646,0.5
-48.0,4.9394181369917645,0.1875
-44.0,-3.362485887045325,0.125
-45.5,3.8963112012295285,0.125
-29.5,-4.6448938257177215,0.5
-35.5,0.0,0.125
-35.0,-0.9817477042468103,0.4375
-33.5,0.5829126993965437,0.5
-47.0,-0.35588354278946877,0.125
-31.0,3.356349963893783,0.625
-44.0,-2.595495493102505,0.125
-30.5,4.190835512503572,0.25
-33.0,-3.5342917352885177,0.625
-38.0,3.663146121470911,0.25
-39.0,-5.062136600022615,0.125
-45.0,0.6074563920027138,0.375
-41.5,-0.44792239006260726,0.125
-40.5,-0.2270291566070748,0.0625
-41.5,4.04357335686655,0.0
-44.0,-0.5522330836388312,0.125
-41.5,-3.5158839658338894,0.125
-44.0,3.546563581591603,0.125
-48.0,0.0,0.5625
-57.0,4.755340442445487,0.25
-33.5,-2.276427489222291,0.625
-47.0,0.3067961575771285,0.1875
-46.0,-2.3807381827985155,0.5
-43.5,3.994485971654209,0.4375
-36.0,-3.1415926535897927,0.0625
-59.0,-1.748738098189631,-0.25
-52.0,5.528466759539851,-0.125
-50.5,0.0,0.125
-43.0,3.405437349106123,0.0625
-39.5,-2.4911847995262812,0.0
-50.0,3.7183694298347936,0.4375
-45.5,-4.350369514443678,0.0625
-51.0,-0.4049709280018092,-0.25
-40.5,4.571262747899211,-0.125
-54.0,-3.5895150436524004,0.125
-60.0,0.0,0.0625
-59.0,-0.4233786974564369,0.25
-40.0,-0.07976700097005335,0.0
-44.5,4.080388895775806,0.4375
-32.5,-3.522019888985432,0.625
-48.0,-0.6013204688511713,0.0625
-39.0,5.473243451175968,0.0625
-56.0,0.0,0.0
-48.5,-4.0558452031696355,0.375
-38.5,5.098952138931872,0.0
-44.0,-0.9265243958829279,0.25
-44.5,0.6381360077604272,0.125
-44.5,-3.896311201229529,0.25
-50.5,-0.2638446955163303,-0.125
-49.0,0.3436116964863837,0.1875
-63.0,1.6996507129772904,-0.5
-51.0,0.0,0.1875
-52.5,-1.1719613219446297,0.125
-59.0,-0.8835729338221294,0.125
-27.0,-3.902447124381071,0.1875
-35.0,4.442408361716817,0.1875
-34.5,0.3926990816987237,0.1875
-47.5,-0.7853981633974483,0.125
-40.5,2.061670178918302,0.1875
-32.5,-0.07363107781851053,0.5
-43.0,0.0,0.125
-31.5,-0.4417864669110645,0.0
-41.0,3.77972866135022,0.0625
-35.5,-0.03681553890925571,0.125
-30.5,-5.313709449235861,0.4375
-45.5,0.9203884727313847,0.25
-40.0,3.7920005076533045,0.125
-43.0,-2.957514959043516,0.5
-53.0,3.319534424984528,0.125
-40.5,-0.7915340865489915,0.125
-57.5,1.3437671701878218,-0.25
-42.5,-0.6504078540635119,0.375
-43.0,-3.1170489609836225,0.0625
-42.0,-0.8774370106705869,-0.0625
-38.5,0.0,0.125
-26.5,-4.1172044346850605,0.375
-30.0,-0.006135923151542544,0.5625
-32.5,-1.380582709097077,0.625
-33.0,1.055378782065321,0.0625
-35.0,4.718524903536232,0.125
-49.5,0.012271846303085532,-0.0625
-43.5,-5.387340527054372,0.25
-38.5,5.086680292628786,0.375
-40.0,0.0,0.5
-39.5,0.04295146206079803,0.125
-31.5,0.337475773334841,0.25
-38.0,-4.81056375080937,0.25
-35.5,-0.8283496254582462,0.1875
-42.5,0.24543692606170264,0.375
-45.0,-0.5706408530934586,0.25
-48.5,5.749359992995383,0.125
-44.0,-5.957981380147831,0.1875
-41.0,6.135923151542565,0.125
-45.0,-2.859340188618835,0.375
-45.5,-3.0679615757712826,0.4375
-56.0,0.6135923151542564,0.375
-36.0,0.0,0.1875
-33.5,5.00077736850719,0.0
-44.5,0.5706408530934581,0.1875
-45.0,-3.0925052683774523,0.375
-43.0,-2.945243112740431,0.0
-40.5,1.0921943209745764,0.4375
-41.0,-0.7301748550335652,0.125
-52.5,2.1230294104337273,-0.0625
-44.0,-1.0860583978230338,0.125
-51.0,-1.0369710126106935,-0.5
-47.0,3.614058736258571,0.0625
-49.5,0.0,0.0625
-56.5,-5.755495916146926,0.1875
-52.0,4.853515212870169,0.25
-61.0,0.9633399347921827,-0.5
-61.5,-1.5094370952794716,0.125
-58.5,-4.111068511533518,-0.125
-61.0,0.0,0.0625
-34.0,-1.073786551519949,0.25
-41.0,4.706253057233147,0.375
-36.0,-2.932971266437346,0.1875
-41.0,0.0,0.4375
-46.0,-5.387340527054372,0.125
-49.0,-0.07976700097005335,-0.125
-40.0,1.8469128686143121,0.4375
-45.5,3.1170489609836225,0.25
-44.5,-0.7301748550335647,0.375
-57.0,0.2331650797586171,0.4375
-49.5,1.0001554737014384,0.4375
-49.5,-1.5523885573402687,0.0
-58.5,-2.147573103039898,-0.5625
-57.5,0.0,0.5
-49.5,-1.552388557340269,0.4375
-56.0,5.141903600992669,0.0625
-49.5,-4.313553975534424,0.125
-54.5,-0.9081166264282996,0.0625
-37.5,0.0,0.375
-28.0,0.8835729338221299,0.25
-30.5,-0.030679615757713385,0.0625
-41.0,-0.07363107781851053,0.25
-33.0,-0.09203884727313838,0.375
-58.5,-0.08590292412159606,0.1875
-43.5,-4.693981210930062,0.125
-41.5,0.6565437772150544,0.125
-33.0,-0.2761165418194155,0.25
-44.0,3.6079228131070282,0.375
-43.5,0.0,0.25
-40.5,-0.926524395882927,0.1875
-32.5,0.5092816215780331,0.0625
-41.5,-5.565282298449106,0.25
-40.0,4.608078286808466,0.375
-44.0,1.1106020904292047,0.1875
-40.0,-0.3006602344255862,0.1875
-50.5,-0.17180584824319123,0.0625
-34.5,-0.17180584824319212,0.4375
-45.0,-2.9697868053466014,0.4375
-48.0,3.129320807286708,0.125
-41.0,0.0,0.25
-27.5,0.11044661672776623,0.5625
-30.0,-0.012271846303084644,0.5625
-35.0,-1.3560390164909073,0.125
-32.5,-3.2336315008629315,0.5
-36.0,3.6999616603801666,0.5
-32.5,0.7301748550335656,0.0625
-36.0,0.0,0.0
-43.5,-1.7855536370988858,0.25
-40.5,-3.773592738198677,0.1875
-43.5,0.16566992509164924,0.0625
-43.0,5.436427912266712,0.375
-40.0,0.20862138715244782,0.5
-49.0,-1.4051264017032477,0.375
-46.0,-4.516039439535327,-0.0625
-41.5,0.2945243112740431,0.125
-43.5,-0.46633015951723494,0.1875
-44.0,1.1228739367322893,0.125
-48.5,4.503767593232243,0.0
-59.0,-4.129476280988146,0.5
-45.5,0.0,0.1875
-33.5,-0.5338253141842031,0.5625
-42.5,5.086680292628786,0.1875
-42.0,-0.23930100291016032,0.625
-36.0,0.20862138715244694,0.25
-41.0,0.6872233929727676,0.25
-40.5,-1.0185632431560654,0.1875
-44.5,-3.558835427894688,0.125
-50.0,4.0987966652304335,-0.625
-50.5,0.0,-0.0625
-44.0,5.5284667595398505,0.125
-50.0,-5.620505606812989,0.125
-43.0,0.37429131224409645,0.375
-57.0,0.42337869745643697,-0.0625
-57.0,1.7732817907958012,0.1875
-54.0,-1.4971652489763858,0.0625
-32.0,0.0,0.25
-40.5,2.6323110320117604,0.1875
-44.0,2.1414371798883547,0.0625
-43.0,0.0,0.1875
-36.0,-3.1600004230444205,0.0625
-45.5,2.4420974143139405,-0.0625
-45.5,-1.012427320004523,-0.0625
-39.5,1.245592399763141,0.5625
-43.5,0.17794177139473444,0.1875
-48.0,0.4601942363656919,0.25
-49.0,-1.2701360923693104,0.0625
-52.0,0.5031456984264899,0.0625
-60.5,-4.657165672020806,-0.125
-56.5,-0.6320000846088842,0.25
-32.0,0.0,0.0625
-43.0,-4.7062530572331465,0.5625
-31.0,4.779884135051658,0.25
-28.5,0.12271846303085177,0.5
-35.0,1.0615147052168634,0.25
-38.5,-4.976233675901019,0.125
-44.0,-0.05522330836388312,0.1875
-39.5,3.792000507653305,0.0
-35.5,0.0,0.25
-33.0,-3.239767424014474,0.25
-40.5,-0.31293208072867074,0.1875
-41.5,0.6381360077604267,0.25
-42.5,3.3072625786814425,0.125
-44.5,-2.865476111770378,-0.0625
-43.5,1.8407769454627696,0.0625
-51.0,1.6382914814618643,-0.0625
-45.0,-4.319689898685965,0.1875
-49.0,-0.7792622402459057,0.0
-51.5,5.773903685601553,0.1875
-58.5,-0.6381360077604263,0.5
-41.0,0.0,0.25
-27.0,-1.761009944492716,0.375
-30.0,3.1968159619536762,0.0
-44.5,-1.030835089459151,0.125
-40.5,-0.779262240245906,0.0625
-48.0,-0.42337869745643664,0.125
-39.5,0.0,0.125
-45.0,3.442252888015379,0.0625
-33.5,-2.9820586516496865,0.5625
-42.0,3.51588396583389,0.1875
-38.5,1.1044661672776614,0.125
-36.0,-5.350524988145117,0.1875
-35.0,4.154019973594316,0.125
-47.0,-3.926990816987241,0.0625
-33.5,1.4787574795217582,0.0625
-56.0,-0.28838838812250067,0.125
-31.5,2.221204180858408,0.5625
-46.0,0.22702915660707568,0.375
-41.0,-3.7735927381986776,0.5
-41.5,3.466796580621549,0.25
-46.0,0.0,0.25
-43.0,0.4970097752749478,0.25
-31.5,4.227651051412827,0.125
-45.0,-4.577398671050753,0.75
-39.0,0.3190680038802134,0.1875
-43.0,-0.4356505437595221,0.5625
-45.5,0.6320000846088841,0.4375
-43.5,4.601942363656923,0.4375
-40.5,-1.012427320004523,0.125
-37.5,-3.5711072741977725,0.375
-49.5,0.5276893910326605,0.125
-49.0,0.0,0.0
-52.0,-0.19021361769781997,0.25
-61.0,-4.06811704947272,0.0
-49.0,4.289010282928253,0.0
-53.0,0.0,0.5
-49.5,1.8223691760081415,0.1875
-56.5,2.215068257706866,0.125
-56.0,1.368310862793992,0.0
-52.0,-5.289165756629691,0.625
-59.5,0.5399612373357456,-0.0625
-32.5,0.0,0.5625
-36.5,5.252350217720435,0.1875
-49.0,-6.092971689481766,0.125
-39.0,5.663457068873787,0.1875
-43.5,-5.749359992995383,0.1875
-40.5,0.0,0.4375
-48.5,1.5462526341887264,0.0
-51.0,0.3926990816987237,-0.0625
-52.0,-4.890330751779424,-0.125
-44.0,5.344389064993574,0.125
-45.0,-3.276582962923729,0.1875
-45.0,1.8039614065535141,0.125
-46.5,1.055378782065321,0.1875
-57.5,-5.325981295538946,0.5
-57.5,0.0,0.125
-51.5,1.4910293258248428,0.1875
-60.5,-4.006757817957294,0.125
-53.5,1.4358060174609604,-0.0625
-30.0,3.8042723539563896,0.4375
-27.5,-0.012271846303084644,0.5
-40.0,0.0,0.375
-33.0,0.42337869745643697,0.75
-33.0,1.030835089459151,0.1875
-35.0,-0.7301748550335652,0.1875
-56.0,3.583379120500857,0.0
-43.5,-4.080388895775805,0.5
-31.5,-0.05522330836388306,0.8125
-40.5,-0.28838838812250056,0.0625
-47.5,0.012271846303085143,0.375
-42.5,0.9756117810952678,0.1875
-45.0,-0.3620194659410113,0.25
-38.5,-0.7117670855789375,0.0625
-37.5,2.024854640009046,0.375
-44.0,-1.0369710126106932,0.0625
-50.5,-0.7976700097005335,0.1875
-41.0,-0.024543692606170286,0.125
-35.5,-0.17794177139473438,0.5
-53.5,0.0,-0.0625
-45.0,-1.2271846303085132,0.1875
-31.0,1.7241944055834608,0.0
-34.5,-3.6570101983193686,0.125
-42.0,-1.257864246066226,0.125
-28.0,4.865787059173254,0.0
-39.5,0.0,0.1875
-43.0,-1.7732817907958012,0.5
-41.0,-3.436116964863836,0.25
-40.5,0.17180584824319178,0.1875
-45.0,3.380893656499953,0.0
-42.0,0.4908738521234053,0.125
-34.0,-3.399301425954581,0.75
-35.5,0.23316507975861733,0.25
-56.5,0.42337869745643686,0.5625
-36.0,-1.4542137869155876,0.5
-44.5,1.1044661672776614,0.0625
-46.0,2.890019804376548,0.25
-31.5,-0.28838838812250067,0.125
-40.5,-3.5588354278946874,0.1875
-47.0,0.1349903093339364,0.125
-48.0,0.0,0.25
-58.5,-1.9266798695843654,0.25
-49.5,1.7119225592803757,0.0
-34.0,3.3747577333484107,0.375
-44.0,-4.01902966426038,0.0625
-45.0,4.540583132141498,0.0625
-43.0,-6.000932842208628,0.1875
-55.5,0.06135923151542563,-0.0625
-41.0,1.043106935762236,0.125
-36.0,-0.6320000846088841,0.0625
-41.5,-0.2945243112740431,0.4375
-56.5,4.178563666200487,-0.0625
-42.5,0.0,0.5625
-50.0,-4.1172044346850605,0.375
-53.0,4.405592822807561,0.0625
-49.0,-1.791689560250429,0.0
-49.0,1.7426021750380887,0.625
-56.5,-5.0682725231741586,0.125
-52.5,5.681864838328415,0.0625
-55.0,0.0,0.375
-41.0,0.0,0.4375
-32.0,0.5645049299419158,0.0
-36.5,-4.135612204139688,0.25
-52.5,-0.21475731030398976,0.0625
-44.0,4.816699673960914,0.1875
-44.0,-1.9819031779482486,0.125
-38.5,-2.742757648739526,0.125
-45.0,-0.2454369260617026,0.5
-44.5,0.4724660826687775,0.125
-48.0,5.105088062083413,0.0
-57.0,-4.534447208989955,0.0625
-50.0,4.890330751779424,-0.25
-47.5,-1.7855536370988867,0.0
-56.5,0.0,0.375
-26.5,4.2092432819582,0.125
-32.5,-4.577398671050753,0.8125
-30.5,1.4480778637640452,0.4375
-33.0,-0.3865631585471814,0.4375
-38.0,4.52217536268687,0.375
-37.5,0.0,0.1875
-35.5,4.988505522204106,0.5625
-40.0,-1.221048707156971,0.1875
-40.0,-4.289010282928253,0.0
-49.5,5.178719139901925,0.4375
-59.0,-0.9142525495798424,-0.125
-43.0,-4.6448938257177215,0.5
-41.5,0.43565054375952217,0.5
-43.0,-0.08590292412159595,0.0
-44.0,0.7669903939428206,0.125
-44.0,-0.25770877236478773,0.0
-45.0,-0.7117670855789375,0.5
-33.0,0.0,0.1875
-39.5,2.82252464970958,0.125
-51.5,2.0923497946760143,0.0
-51.5,-0.7363107781851079,0.1875
-31.0,0.3558835427894689,0.125
-27.5,0.012271846303085532,0.25
-33.0,-4.546719055293041,0.25
-39.5,-0.34361169648638357,0.4375
-35.0,3.6140587362585705,-0.0625
-40.5,0.0,0.1875
-36.0,-3.7858645845017618,0.1875
-32.0,3.687689814077081,0.125
-45.0,-3.6447383520162835,0.1875
-43.0,-1.086058397823034,0.125
-53.0,4.589670517353839,-0.0625
-36.0,-4.558990901596125,0.0
-44.0,0.30066023442558576,0.375
-58.0,4.276738436625168,-0.125
-50.5,-5.074408446325702,0.25
-48.0,5.945709533844745,0.1875
-43.0,-2.6384469551633023,0.125
-42.0,-2.061670178918302,0.125
-44.0,0.0,0.0625
-40.5,-0.33747577333484147,0.375
-43.5,-2.7673013413456964,0.0
-33.5,4.841243366567084,0.375
-35.5,-4.743068596142402,0.1875
-58.0,-0.705631162427395,-0.625
-41.5,3.264311116620644,0.375
-45.5,0.4724660826687779,0.25
-46.0,-3.841087892865646,0.0625
-40.5,1.4910293258248433,0.4375
-45.0,0.17794177139473444,-0.0625
-51.0,4.037437433715008,0.25
-51.5,-5.994796919057086,0.5
-43.5,0.0,0.4375
-38.0,-4.798291904506286,0.1875
-47.0,0.7731263170943631,0.0625
-52.0,4.160155896745859,0.25
-56.5,-1.0860583978230336,0.1875
-53.0,-3.853359739168731,0.4375
-65.0,0.0,-0.75
-31.5,-0.5092816215780331,0.0625
-43.0,-1.4542137869155871,0.1875
-39.5,0.5706408530934581,0.1875
-44.5,-3.8656315854718155,0.1875
-38.5,3.920854893835699,0.0625
-51.5,-3.5956509668039436,0.25
-43.5,0.31293208072867085,0.4375
-40.0,3.51588396583389,0.4375
-48.0,-4.374913207049849,0.25
-44.0,0.0,0.25
-47.0,-0.018407769454627854,0.125
-47.0,-3.706097583531709,0.4375
-56.5,-0.9633399347921827,-0.0625
-55.0,0.3988350048502667,1.3125
-65.0,4.4362724385652745,0.0625
-57.5,0.0,-0.125
-31.5,4.841243366567084,-0.125
-27.0,-1.60147594255261,0.125
-32.0,-3.3747577333484102,0.625
-31.5,0.3497476196379261,0.125
-34.5,-0.8713010875190441,0.5
-33.0,5.645049299419159,0.125
-50.5,0.0,0.0625
-43.5,-0.7117670855789378,0.1875
-40.5,0.6013204688511715,0.1875
-43.0,-1.779417713947344,0.375
-35.5,3.0925052683774523,0.1875
-47.0,-0.3067961575771285,0.4375
-43.0,-5.645049299419159,0.5625
-41.5,0.4356505437595221,0.25
-41.5,0.03067961575771283,0.1875
-42.5,0.3988350048502667,0.125
-45.0,-0.6442719309119693,0.125
-59.5,1.4358060174609601,0.125
-43.5,-1.055378782065321,0.1875
-40.0,0.0,0.5625
-54.5,-4.828971520263998,0.4375
-34.5,-0.859029241215959,0.25
-32.5,4.356505437595221,0.25
-29.5,-2.853204265467293,0.0625
-32.0,2.7427576487395267,0.375
-37.5,-3.9699422790480394,0.1875
-43.0,5.50392306693368,0.0625
-37.0,-5.031456984264903,0.625
-37.5,4.614214209960009,0.0
-41.0,-1.3437671701878218,0.125
-43.5,-3.3133985018329852,0.0
-45.0,0.0,0.1875
-38.0,-3.6508742751678263,0.5
-44.0,0.5399612373357457,0.125
-47.0,-0.5583690067903734,0.125
-42.0,0.7792622402459056,0.375
-40.5,-0.8713010875190441,0.0
-44.0,3.5036121195308043,0.125
-41.0,-3.5036121195308043,0.4375
-52.0,0.07363107781851075,0.125
-50.0,4.417864669110646,0.1875
-56.5,-3.1415926535897927,-0.0625
-31.5,3.841087892865646,0.25
-39.5,-0.5951845456996292,0.5625
-49.0,0.0,0.9375
-42.0,-3.2274955777113896,0.375
-35.5,2.9943304979527716,0.5625
-50.5,0.28838838812250067,-0.0625
-56.0,-0.1288543861823941,-0.125
-40.0,-0.4908738521234053,0.4375
-44.0,-0.8283496254582463,0.5625
-49.0,0.2699806186678728,0.0625
-45.5,-3.4974761963792615,0.25
-46.5,0.0,0.0625
-50.5,-1.0615147052168639,0.0
-64.5,1.1474176293384597,0.4375
-44.5,-1.227184630308513,0.1875
-52.5,0.5706408530934586,0.25
-57.5,0.0,0.5
-33.0,-1.662835174068035,0.125
-38.0,-4.301282129231338,0.25
-38.0,5.7616318392984684,0.5625
-45.5,-0.8528933180644165,0.1875
-41.5,-4.411728745959104,0.0
-51.5,-0.17794177139473444,0.25
-44.5,5.442563835418255,0.5
-49.5,0.0,0.0
-53.0,-2.1046216409790994,0.125
-50.0,-2.9329712664373457,0.125
-48.0,3.8840393549264434,0.125
-46.0,0.17794177139473444,0.0
-48.0,-4.81056375080937,0.0625
-52.0,4.0742529726242624,0.375
-52.5,1.1965050145508007,0.1875
-55.5,0.0,0.875
-53.5,-0.4601942363656919,0.1875
-27.5,-5.270757987175063,0.5
-31.0,0.12885438618239387,0.0
-43.0,4.540583132141498,0.375
-42.0,-0.5215534678811178,0.0625
-35.0,1.2333205534600555,0.25
-34.0,-0.632000084608884,0.25
-40.5,1.2087768608538845,0.0625
-42.5,-0.9142525495798415,0.125
-35.5,-0.7547185476397358,0.1875
-52.5,0.0,0.125
-42.5,0.1349903093339364,0.625
-32.0,-3.454524734318464,0.1875
-42.5,3.497476196379262,0.625
-40.5,-0.37429131224409673,0.1875
-31.5,-5.019185137961817,0.25
-40.5,4.693981210930062,0.0625
-47.5,-3.3133985018329852,0.125
-41.5,4.338097668140593,0.1875
-49.5,-0.9019807032767568,0.125
-40.5,-3.749049045592507,0.25
-57.0,0.0,0.5625
-31.5,0.3620194659410114,0.125
-27.0,3.4483888111669216,0.25
-41.0,1.1842331682477143,0.1875
-40.5,-0.05522330836388267,0.0
-35.0,0.0674951546669682,0.125
-37.5,0.0,0.0
-31.5,-4.23378697456437,0.5
-44.0,1.7610099444927163,0.75
-32.5,-3.1109130378320806,0.5625
-31.5,-0.1902136176978195,0.0
-39.5,5.497787143782138,0.5
-35.5,-4.871922982324797,0.125
-46.5,5.436427912266712,0.0625
-42.5,-5.344389064993574,0.0625
-38.0,0.6565437772150545,0.125
-45.5,-1.1044661672776617,0.0625
-43.5,-0.1595340019401067,0.1875
-48.5,5.970253226450915,0.0625
-45.5,-5.209398755659638,0.1875
-57.5,0.09817477042468092,-0.125
-51.0,4.23378697456437,0.1875
-40.5,0.0,-0.125
-38.5,1.2701360923693108,0.25
-44.0,4.491495746929157,0.0
-48.5,-5.755495916146925,0.0
-48.5,3.742913122440964,0.5625
-53.0,-3.8717675086233583,-0.1875
-36.0,0.7179030087304801,0.0625
-32.5,4.835107443415541,0.375
-54.0,-3.56497135104623,0.0
-44.5,4.1601558967458585,0.125
-44.5,0.0,0.25
-47.5,-0.5706408530934581,0.125
-46.0,0.9510680884890972,0.625
-49.5,-1.4419419406125025,0.625
-60.5,-3.227495577711389,-0.0625
-40.5,4.06811704947272,0.125
-52.5,0.0,0.5
-48.5,0.0,-0.125
-55.5,3.1231848841351653,-0.0625
-32.5,1.7610099444927165,0.25
-44.5,-1.073786551519949,-0.125
-39.0,-2.951379035891974,-0.0625
-39.5,3.307262578681443,0.5
-44.5,-0.8958447801252145,0.25
-40.5,1.073786551519948,0.0
-44.0,0.0,0.25
-41.5,0.5951845456996289,0.5
-48.5,-0.33133985018329853,0.125
-46.5,0.2577087723647877,0.1875
-47.0,-0.4295146206079795,-0.125
-49.0,1.1658253987930873,0.1875
-53.0,-1.086058397823034,0.0625
-58.5,2.5157284921324514,0.125
-59.5,-1.2640001692177683,0.1875
-53.5,-0.16566992509164913,0.125
-53.5,0.0,0.5
-30.5,0.0,0.1875
-33.0,4.7307967498393175,0.1875
-26.5,-1.6812429435226628,0.375
-32.0,-1.5830681730979812,0.375
-35.0,-2.3746022596469727,0.0625
-41.0,-0.042951462060797946,0.125
-49.0,5.405748296509,0.0
-34.0,-0.0981747704246807,0.4375
-41.5,0.8038059328520752,0.0
-41.0,0.0,0.125
-32.5,4.786020058203201,0.1875
-43.5,-3.6999616603801666,0.1875
-39.0,3.644738352016283,0.25
-41.5,-5.031456984264903,0.5
-44.0,0.5951845456996288,0.1875
-51.0,-0.760854470791278,0.25
-43.0,1.2701360923693108,0.125
-42.5,-1.2517283229146832,0.375
-50.0,4.749204519293945,0.0625
-58.5,0.3313398501832987,0.375
-43.5,0.0,0.1875
-36.0,-0.036815538909255374,0.1875
-37.0,0.3067961575771282,0.25
-44.5,0.23930100291016,-0.125
-41.0,5.062136600022615,0.0625
-42.0,0.09817477042468159,0.0625
-36.0,-3.3870295796514958,0.1875
-33.5,-2.6016314162540475,0.375
-39.5,4.325825821837508,0.0
-48.5,1.2885438618239382,0.0
-32.5,-1.1412817061869172,0.25
-32.0,-3.0863693452259096,0.1875
-29.5,3.3747577333484102,0.25
-43.0,0.0,0.375
-42.0,2.276427489222292,-0.0625
-42.5,-1.9144080232812803,0.1875
-41.5,2.4605051837685683,0.0
-41.0,0.6688156235181397,0.25
-43.5,-3.6570101983193686,0.375
-57.5,4.049709280018092,0.5625
-46.5,-4.6448938257177215,0.1875
-53.5,4.289010282928253,0.125
-32.5,-5.031456984264903,0.5625
-40.5,-0.34361169648638357,0.0625
-38.5,0.0,0.5
-48.5,0.6872233929727676,-0.125
-42.5,0.8160777791551608,0.25
-39.5,-4.798291904506286,0.125
-51.5,5.111223985234956,0.25
-42.0,-2.4911847995262812,0.125
-53.5,0.8774370106705867,0.25
-48.5,1.4235341711578755,0.0
-46.0,-5.0069132916587336,0.0625
-46.0,-0.30066023442558565,0.375
-51.0,-0.06135923151542555,0.125
-59.0,0.0,0.0625
-56.5,-0.6994952392758524,0.1875
-52.5,0.674951546669682,-0.25
-59.0,3.8410878928656462,0.25
-62.0,0.674951546669682,0.5
-62.0,0.0,0.375
-32.0,-1.41126232485479,0.25
-50.0,-3.8042723539563896,0.125
-41.0,3.4729325037730914,0.8125
-44.0,2.55867995419325,0.625
-42.0,-0.38656315854718226,0.1875
-42.0,-1.3560390164909064,0.4375
-37.0,1.5523885573402687,0.625
-48.5,0.0,0.125
-56.5,-5.160311370447296,-0.0625
-41.5,0.2699806186678728,0.9375
-52.0,4.822835597112455,0.5625
-42.0,-5.663457068873787,0.4375
-46.0,-0.20248546400090464,0.0
-52.0,5.755495916146926,0.0
-56.0,-0.6504078540635119,0.0
-53.5,-4.374913207049849,1.625
-57.0,4.9823695990525625,0.5625
-57.5,0.0,0.25
-32.5,0.0,0.25
-28.0,0.38656315854718226,0.625
-35.0,-1.159689475641545,0.1875
-30.5,1.0983302441261191,0.25
-35.0,-1.7303303287350031,0.625
-40.5,-0.02454369260617062,0.25
-39.5,0.0,0.5
-41.5,-0.41724277430489476,0.1875
-32.5,-3.6815538909255388,0.5
-43.5,3.6140587362585705,0.0
-42.0,-3.264311116620644,0.0
-34.5,3.35021404074224,0.1875
-41.0,-4.227651051412827,0.5
-52.5,4.669437518323892,0.0625
-42.5,-1.8285050991596843,0.0
-49.0,0.04908738521234035,0.0
-41.0,-2.5586799541932495,0.1875
-48.0,-0.95720401164064,0.125
-43.5,0.9142525495798421,0.1875
-44.5,0.0,0.125
-57.5,0.3497476196379261,0.0
-31.0,3.7797286613502195,0.125
-27.0,-0.018407769454627854,0.5
-42.0,0.0,0.25
-39.5,5.080544369477243,0.25
-31.5,0.4049709280018092,0.375
-33.5,-6.092971689481766,0.0625
-34.5,0.5829126993965437,0.125
-36.0,5.344389064993574,0.5625
-32.0,-4.884194828627882,0.375
-44.0,2.2764274892222915,0.0625
-44.0,-3.2949907323783574,0.125
-46.5,5.9518454569962875,0.0
-56.5,-5.148039524144211,-0.1875
-40.0,4.755340442445488,0.0
-42.5,-5.166447293598839,0.125
-50.0,5.098952138931871,0.25
-44.5,-5.5100589900852235,0.1875
-37.5,1.141281706186917,0.0625
-39.5,0.0,0.125
-50.0,0.6688156235181397,-0.0625
-40.0,-0.24543692606170264,0.125
-31.0,-0.9203884727313847,0.0625
-41.5,-0.5338253141842033,0.1875
-46.0,-3.8717675086233583,0.1875
-39.5,-0.34974761963792617,0.0
-35.5,0.0,0.375
-52.0,5.178719139901925,0.0625
-56.0,-3.362485887045325,-0.125
-42.5,-1.6996507129772906,-0.5625
-45.5,5.559146375297564,0.25
-55.0,-1.3744467859455343,0.625
-43.0,1.0615147052168634,0.4375
-44.5,0.41724277430489476,0.5
-51.0,-2.2396119503130363,-0.625
-48.0,1.4787574795217582,0.125
-52.0,0.0,0.1875
-46.5,3.288854809226815,0.4375
-61.0,0.6810874698212248,-0.4375
-53.0,0.3681553890925535,0.0625
-60.5,-4.221515128261284,-0.0625
-32.0,0.0,0.5
-43.5,1.938951715887451,0.1875
-35.5,0.14726215563702105,0.25
-42.0,0.0,0.125
-48.5,-0.6872233929727674,0.25
-52.0,0.6074563920027141,-0.125
-39.0,-0.48473792897186274,0.25
-40.0,1.3253594007331941,0.25
-47.0,-0.5460971604872884,0.1875
-46.0,-1.2578642460662257,0.5
-48.0,-0.44792239006260726,0.0625
-55.0,5.074408446325702,0.25
-51.5,-0.570640853093459,0.125
-50.5,0.4601942363656928,-0.0625
-59.0,0.0,-0.4375
-65.5,-2.693670263527186,-0.875
-52.5,-1.2333205534600553,-0.25
-44.5,0.0,0.1875
-27.5,4.3503695144436785,-0.1875
-33.5,-3.6938257372286243,0.625
-40.0,3.749049045592507,0.0
-41.0,-4.988505522204105,0.25
-42.0,3.9269908169872414,0.1875
-32.0,-0.5215534678811187,0.1875
-31.0,1.5462526341887264,0.1875
-34.0,-4.657165672020806,0.875
-35.5,-0.7301748550335652,0.5
-51.5,4.4976316700807,0.0625
-37.0,-0.17180584824319212,0.25
-44.5,-0.6810874698212244,0.125
-43.5,0.14112623248547873,0.1875
-40.5,-3.56497135104623,0.375
-45.0,0.0,0.0625
-48.0,-0.5399612373357456,0.1875
-42.0,0.18407769454627698,0.375
-39.5,-0.33747577333484113,0.0625
-49.5,-0.24543692606170253,0.4375
-56.5,4.620350133111551,-0.1875
-37.0,0.0,0.4375
-29.5,4.503767593232243,0.5625
-37.5,1.0001554737014375,0.25
-32.5,-1.2517283229146825,0.4375
-41.5,-4.44854428486836,0.5
-40.0,4.086524818927348,0.5
-41.0,1.7978254834019722,0.125
-32.0,-1.4910293258248437,0.1875
-42.5,1.5278448647340985,0.625
-34.5,-5.872078456026234,0.0625
-48.0,2.092349794676015,0.0
-41.5,-1.8837284075235674,0.375
-38.5,0.4049709280018092,0.375
-45.5,-0.4601942363656923,0.1875
-45.0,5.810719224510809,0.375
-46.0,0.0,0.125
-43.0,1.294679784975481,0.1875
-41.5,2.0064468705544187,0.0625
-57.5,1.7548740213411733,0.625
-43.0,-0.8160777791551608,0.25
-53.5,0.5092816215780331,0.75
-33.5,-5.111223985234957,0.125
-35.5,1.7794177139473437,0.0
-42.0,3.074097498922825,0.5
-42.0,0.9940195505498952,0.1875
-52.0,-0.6258641614573417,0.0625
-44.5,-4.252194744018997,0.1875
-44.5,4.123340357836604,0.125
-50.5,-0.822213702306704,0.125
-47.0,-3.9638063558964967,0.0625
-52.0,0.0,-0.125
-43.5,0.28225246497095813,0.375
-41.0,-0.7608544707912781,0.25
-53.5,-0.7853981633974483,0.0
-48.5,0.006135923151542544,0.0
-56.0,3.982214125351124,0.1875
-57.0,0.0,0.0625
-53.0,-5.190990986205009,0.0
-53.0,5.694136684631499,0.125
-32.0,0.0,0.0625
-42.5,-4.675573441475435,0.8125
-42.0,3.1661363461959633,0.0625
-41.0,0.9326603190344698,0.0625
-43.0,1.1290098598838316,0.1875
-47.0,-4.963961829597935,0.1875
-58.5,0.0,0.8125
-44.5,-0.47246608266877754,0.25
-45.0,0.24543692606170261,0.375
-36.0,0.6013204688511713,0.5
-51.0,-0.7547185476397354,0.1875
-41.0,0.5154175447295755,0.5625
-51.0,0.30066023442558565,0.25
-60.0,1.4848934026733007,-0.5625
-54.5,-0.9081166264282996,0.0625
-49.0,0.0,0.0625
-59.0,-0.2699806186678728,0.4375
-30.5,4.270602513473626,0.0
-27.5,0.0,0.5
-35.0,-5.043728830567988,0.5
-32.5,4.865787059173254,0.0625
-48.5,-5.2155346788111805,0.0
-41.0,3.399301425954581,0.125
-34.5,0.969475857943725,0.375
-42.0,-3.1968159619536762,0.0
-34.5,-0.17794177139473444,0.1875
-32.5,-0.23316507975861733,0.1875
-40.0,4.466952054322987,0.1875
-44.0,-3.982214125351124,0.375
-43.5,-1.2149127840054277,0.25
-43.0,4.1601558967458585,0.5625
-43.5,-3.5036121195308043,0.375
-51.0,4.319689898685965,-0.0625
-48.5,-5.221670601962722,0.5625
-43.5,0.0,-0.125
-44.0,-0.8835729338221293,0.375
-59.0,4.939418136991765,0.0625
-32.0,0.0674951546669682,0.375
-33.5,-4.589670517353839,0.125
-36.0,0.5460971604872882,0.5625
-57.0,0.0,0.125
-42.5,-0.4908738521234052,0.375
-38.5,1.0246991663076082,0.125
-31.0,0.07363107781851075,0.1875
-39.5,4.331961744989051,0.0625
-27.0,-1.2333205534600555,0.625
-47.5,-1.159689475641545,0.625
-41.5,-2.945243112740431,0.375
-43.5,2.9329712664373457,0.0625
-39.5,2.3623304133438876,0.0625
-39.5,-0.14112623248547873,0.125
-51.5,0.14112623248547873,0.0625
-33.0,-5.737088146692298,0.0
-33.5,5.780039608753096,0.25
-47.5,-0.2699806186678728,0.0625
-45.0,0.0,0.25
-43.5,0.055223308363883006,0.1875
-31.5,4.638757902566178,0.1875
-38.5,-0.674951546669682,0.1875
-39.5,0.11658253987930856,0.0625
-53.5,-2.7366217255879834,0.0
-38.5,-0.8958447801252145,0.1875
-43.5,0.0,0.0
-46.0,-0.8283496254582461,0.5
-55.5,1.4664856332186729,0.0
-42.5,0.0,0.125
-50.5,-1.306951631278566,0.1875
-58.5,1.4603497100671303,0.125
-51.5,-3.32567034813607,0.5
-43.5,5.289165756629691,-0.125
-52.0,-0.5951845456996292,0.125
-58.5,0.04295146206079803,0.5
-59.5,0.0,0.4375
-32.0,0.9203884727313847,0.8125
-41.5,-1.0185632431560656,0.4375
-41.0,0.0,0.125
-41.0,0.14726215563702155,0.5625
-44.5,5.95798138014783,0.125
-38.0,-4.828971520263998,0.0625
-35.5,-0.5951845456996288,0.25
-54.0,3.2336315008629315,0.0625
-42.5,-2.5832236467994196,0.0625
-48.5,-0.7976700097005335,0.0625
-46.5,-0.5460971604872882,0.1875
-49.0,0.07363107781851078,0.375
-46.5,0.07976700097005335,0.375
-54.0,2.110757564130642,0.0625
-60.0,3.1170489609836234,0.0625
