40000000000000000000CC00,1,1477436993969958,1477436993969958,1,3.25,13312,-35.0,865.7,0.8651652
40000000000000000000CC00,1,1477436993977076,1477436993977076,1,6.5,13312,-35.0,865.7,0.85902923
40000000000000000000CC00,1,1477436993984090,1477436993984090,1,6.5,13312,-35.0,865.7,0.88357294
40000000000000000000CC00,1,1477436993990824,1477436993990824,1,3.25,13312,-35.0,865.7,0.90811664
40000000000000000000CC00,1,1477436993998083,1477436993998083,1,8.125,13312,-35.0,865.7,0.92038846
40000000000000000000CC00,1,1477436994005071,1477436994005071,1,1.625,13312,-35.0,865.7,0.9510681
40000000000000000000CC00,1,1477436994012036,1477436994012036,1,6.5,13312,-35.0,865.7,0.9510681
40000000000000000000CC00,1,1477436994018829,1477436994018829,1,8.125,13312,-35.5,865.7,0.9510681
40000000000000000000CC00,1,1477436994025750,1477436994025750,1,5.6875,13312,-35.5,865.7,0.9817477
40000000000000000000CC00,1,1477436994032828,1477436994032828,1,8.9375,13312,-35.0,865.7,0.96947587
40000000000000000000CC00,1,1477436994040042,1477436994040042,1,6.5,13312,-35.5,865.7,0.99401957
40000000000000000000CC00,1,1477436994046969,1477436994046969,1,3.25,13312,-35.5,865.7,1.0431069
40000000000000000000CC00,1,1477436994053970,1477436994053970,1,1.625,13312,-35.5,865.7,1.0676507
40000000000000000000CC00,1,1477436994060619,1477436994060619,1,5.6875,13312,-35.5,865.7,1.030835
40000000000000000000CC00,1,1477436994067840,1477436994067840,1,3.25,13312,-35.5,865.7,1.0431069
40000000000000000000CC00,1,1477436994074502,1477436994074502,1,8.9375,13312,-36.0,865.7,1.0062914
40000000000000000000CC00,1,1477436994081719,1477436994081719,1,8.125,13312,-35.5,865.7,1.0124273
40000000000000000000CC00,1,1477436994088651,1477436994088651,1,6.5,13312,-35.5,865.7,1.0124273
40000000000000000000CC00,1,1477436994095682,1477436994095682,1,8.125,13312,-36.0,865.7,1.0062914
40000000000000000000CC00,1,1477436994102396,1477436994102396,1,12.1875,13312,-35.5,865.7,0.9633399
40000000000000000000CC00,1,1477436994109482,1477436994109482,1,5.6875,13312,-35.5,865.7,1.0062914
40000000000000000000CC00,1,1477436994116702,1477436994116702,1,4.875,13312,-36.0,865.7,1.0124273
40000000000000000000CC00,1,1477436994123712,1477436994123712,1,4.875,13312,-36.0,865.7,1.0246992
40000000000000000000CC00,1,1477436994130387,1477436994130387,1,0.8125,13312,-36.0,865.7,1.0676507
40000000000000000000CC00,1,1477436994137338,1477436994137338,1,5.6875,13312,-36.0,865.7,1.0553788
40000000000000000000CC00,1,1477436994144270,1477436994144270,1,6.5,13312,-36.0,865.7,1.0615147
40000000000000000000CC00,1,1477436994151204,1477436994151204,1,5.6875,13312,-36.0,865.7,1.0737865
40000000000000000000CC00,1,1477436994158208,1477436994158208,1,3.25,13312,-36.0,865.7,1.0737865
40000000000000000000CC00,1,1477436994165408,1477436994165408,1,4.875,13312,-36.0,865.7,1.0860584
40000000000000000000CC00,1,1477436994172133,1477436994172133,1,10.5625,13312,-36.0,865.7,1.0553788
40000000000000000000CC00,1,1477436994179178,1477436994179178,1,7.3125,13312,-36.0,865.7,1.0799224
40000000000000000000CC00,1,1477436994186155,1477436994186155,1,0.8125,13312,-36.0,865.7,1.116738
40000000000000000000CC00,1,1477436994193345,1477436994193345,1,5.6875,13312,-36.0,865.7,1.0921943
40000000000000000000CC00,1,1477436994200026,1477436994200026,1,2.4375,13312,-36.0,865.7,1.1044662
40000000000000000000CC00,1,1477436994207309,1477436994207309,1,6.5,13312,-36.0,865.7,1.0676507
40000000000000000000CC00,1,1477436994214284,1477436994214284,1,6.5,13312,-36.0,865.7,1.0799224
40000000000000000000CC00,1,1477436994220978,1477436994220978,1,5.6875,13312,-36.0,865.7,1.0737865
40000000000000000000CC00,1,1477436994227945,1477436994227945,1,4.875,13312,-36.0,865.7,1.0799224
40000000000000000000CC00,1,1477436994235188,1477436994235188,1,10.5625,13312,-36.0,865.7,1.036971
40000000000000000000CC00,1,1477436994242106,1477436994242106,1,1.625,13312,-36.0,865.7,1.0799224
40000000000000000000CC00,1,1477436994248810,1477436994248810,1,8.125,13312,-36.0,865.7,1.036971
40000000000000000000CC00,1,1477436994256014,1477436994256014,1,7.3125,13312,-36.0,865.7,1.0615147
40000000000000000000CC00,1,1477436994262765,1477436994262765,1,6.5,13312,-36.0,865.7,1.0492429
40000000000000000000CC00,1,1477436994269974,1477436994269974,1,8.9375,13312,-36.0,865.7,1.036971
40000000000000000000CC00,1,1477436994276942,1477436994276942,1,5.6875,13312,-36.0,865.7,1.0492429
40000000000000000000CC00,1,1477436994283691,1477436994283691,1,8.125,13312,-36.0,865.7,1.0431069
40000000000000000000CC00,1,1477436994290647,1477436994290647,1,10.5625,13312,-35.5,865.7,1.0062914
40000000000000000000CC00,1,1477436994297939,1477436994297939,1,4.875,13312,-35.5,865.7,1.0431069
40000000000000000000CC00,1,1477436994304891,1477436994304891,1,5.6875,13312,-36.0,865.7,1.0246992
40000000000000000000CC00,1,1477436994311811,1477436994311811,1,11.375,13312,-35.5,865.7,0.9817477
40000000000000000000CC00,1,1477436994318541,1477436994318541,1,8.125,13312,-35.5,865.7,0.9878836
40000000000000000000CC00,1,1477436994325724,1477436994325724,1,6.5,13312,-35.5,865.7,0.9756118
40000000000000000000CC00,1,1477436994332503,1477436994332503,1,9.75,13312,-35.5,865.7,0.9387962
40000000000000000000CC00,1,1477436994339724,1477436994339724,1,5.6875,13312,-35.5,865.7,0.9633399
40000000000000000000CC00,1,1477436994346653,1477436994346653,1,1.625,13312,-35.5,865.7,0.96947587
40000000000000000000CC00,1,1477436994353300,1477436994353300,1,5.6875,13312,-35.5,865.7,0.9510681
40000000000000000000CC00,1,1477436994360318,1477436994360318,1,6.5,13312,-35.5,865.7,0.9387962
40000000000000000000CC00,1,1477436994367574,1477436994367574,1,2.4375,13312,-35.5,865.7,0.94493216
40000000000000000000CC00,1,1477436994374547,1477436994374547,1,7.3125,13312,-35.0,865.7,0.92038846
40000000000000000000CC00,1,1477436994381233,1477436994381233,1,7.3125,13312,-35.5,865.7,0.90811664
40000000000000000000CC00,1,1477436994388576,1477436994388576,1,4.875,13312,-35.5,865.7,0.92038846
40000000000000000000CC00,1,1477436994395292,1477436994395292,1,8.125,13312,-35.0,865.7,0.89584476
40000000000000000000CC00,1,1477436994402255,1477436994402255,1,6.5,13312,-35.5,865.7,0.8897089
40000000000000000000CC00,1,1477436994409457,1477436994409457,1,-1.625,13312,-35.0,865.7,0.9142526
40000000000000000000CC00,1,1477436994416228,1477436994416228,1,0.8125,13312,-35.0,865.7,0.90811664
40000000000000000000CC00,1,1477436994423152,1477436994423152,1,7.3125,13312,-35.0,865.7,0.8897089
40000000000000000000CC00,1,1477436994430357,1477436994430357,1,3.25,13312,-35.5,865.7,0.88357294
40000000000000000000CC00,1,1477436994437359,1477436994437359,1,4.875,13312,-35.0,865.7,0.89584476
40000000000000000000CC00,1,1477436994444136,1477436994444136,1,5.6875,13312,-35.0,865.7,0.8897089
40000000000000000000CC00,1,1477436994451094,1477436994451094,1,5.6875,13312,-35.0,865.7,0.88357294
40000000000000000000CC00,1,1477436994458113,1477436994458113,1,3.25,13312,-35.0,865.7,0.89584476
40000000000000000000CC00,1,1477436994465324,1477436994465324,1,5.6875,13312,-35.0,865.7,0.8651652
40000000000000000000CC00,1,1477436994472053,1477436994472053,1,5.6875,13312,-35.0,865.7,0.877437
40000000000000000000CC00,1,1477436994479259,1477436994479259,1,4.875,13312,-35.0,865.7,0.8713011
40000000000000000000CC00,1,1477436994485938,1477436994485938,1,1.625,13312,-35.0,865.7,0.88357294
40000000000000000000CC00,1,1477436994492871,1477436994492871,1,4.875,13312,-35.0,865.7,0.8651652
40000000000000000000CC00,1,1477436994499812,1477436994499812,1,4.875,13312,-35.0,865.7,0.85902923
40000000000000000000CC00,1,1477436994506986,1477436994506986,1,7.3125,13312,-35.0,865.7,0.8467574
40000000000000000000CC00,1,1477436994513817,1477436994513817,1,5.6875,13312,-35.0,865.7,0.8467574
40000000000000000000CC00,1,1477436994520794,1477436994520794,1,5.6875,13312,-35.0,865.7,0.83448553
40000000000000000000CC00,1,1477436994527833,1477436994527833,1,2.4375,13312,-35.0,865.7,0.85902923
40000000000000000000CC00,1,1477436994534813,1477436994534813,1,3.25,13312,-35.5,865.7,0.82834965
40000000000000000000CC00,1,1477436994541840,1477436994541840,1,0.8125,13312,-35.0,865.7,0.85902923
40000000000000000000CC00,1,1477436994549025,1477436994549025,1,1.625,13312,-35.0,865.7,0.8467574
40000000000000000000CC00,1,1477436994555994,1477436994555994,1,4.875,13312,-35.0,865.7,0.82834965
40000000000000000000CC00,1,1477436994562979,1477436994562979,1,4.875,13312,-35.5,865.7,0.8099418
40000000000000000000CC00,1,1477436994569962,1477436994569962,1,-0.8125,13312,-35.0,865.7,0.82834965
40000000000000000000CC00,1,1477436994576933,1477436994576933,1,4.875,13312,-35.0,865.7,0.80380595
40000000000000000000CC00,1,1477436994583648,1477436994583648,1,2.4375,13312,-35.0,865.7,0.7853982
40000000000000000000CC00,1,1477436994590612,1477436994590612,1,2.4375,13312,-35.0,865.7,0.77926224
40000000000000000000CC00,1,1477436994597826,1477436994597826,1,8.125,13312,-35.0,865.7,0.7485826
40000000000000000000CC00,1,1477436994604529,1477436994604529,1,4.875,13312,-35.0,865.7,0.7485826
40000000000000000000CC00,1,1477436994611677,1477436994611677,1,3.25,13312,-34.5,865.7,0.7363108
40000000000000000000CC00,1,1477436994618629,1477436994618629,1,3.25,13312,-35.0,865.7,0.73017484
40000000000000000000CC00,1,1477436994625355,1477436994625355,1,0.8125,13312,-34.5,865.7,0.72403896
40000000000000000000CC00,1,1477436994632547,1477436994632547,1,7.3125,13312,-34.5,865.7,0.6810875
40000000000000000000CC00,1,1477436994639492,1477436994639492,1,9.75,13312,-34.5,865.7,0.65040785
40000000000000000000CC00,1,1477436994646251,1477436994646251,1,1.625,13312,-34.5,865.7,0.6872234
40000000000000000000CC00,1,1477436994653209,1477436994653209,1,1.625,13312,-34.5,865.7,0.65040785
40000000000000000000CC00,1,1477436994660156,1477436994660156,1,0.8125,13312,-34.0,865.7,0.6442719
40000000000000000000CC00,1,1477436994667112,1477436994667112,1,7.3125,13312,-34.5,865.7,0.6074564
40000000000000000000CC00,1,1477436994674319,1477436994674319,1,1.625,13312,-34.0,865.7,0.62586415
40000000000000000000CC00,1,1477436994681022,1477436994681022,1,3.25,13312,-34.0,865.7,0.6074564
40000000000000000000CC00,1,1477436994687978,1477436994687978,1,5.6875,13312,-34.0,865.7,0.57064086
40000000000000000000CC00,1,1477436994695153,1477436994695153,1,8.125,13312,-34.0,865.7,0.5645049
40000000000000000000CC00,1,1477436994702063,1477436994702063,1,11.375,13312,-34.0,865.7,0.53382534
40000000000000000000CC00,1,1477436994709065,1477436994709065,1,2.4375,13312,-34.0,865.7,0.5829127
40000000000000000000CC00,1,1477436994715787,1477436994715787,1,4.875,13312,-34.0,865.7,0.558369
40000000000000000000CC00,1,1477436994722854,1477436994722854,1,4.875,13312,-34.0,865.7,0.5399612
40000000000000000000CC00,1,1477436994730047,1477436994730047,1,8.125,13312,-34.0,865.7,0.50928164
40000000000000000000CC00,1,1477436994737031,1477436994737031,1,6.5,13312,-33.5,865.7,0.5154175
40000000000000000000CC00,1,1477436994744041,1477436994744041,1,8.9375,13312,-34.0,865.7,0.49700978
40000000000000000000CC00,1,1477436994751064,1477436994751064,1,9.75,13312,-33.5,865.7,0.47246608
40000000000000000000CC00,1,1477436994758021,1477436994758021,1,3.25,13312,-34.0,865.7,0.47246608
40000000000000000000CC00,1,1477436994764955,1477436994764955,1,7.3125,13312,-34.0,865.7,0.43565056
40000000000000000000CC00,1,1477436994771901,1477436994771901,1,3.25,13312,-33.5,865.7,0.44178647
40000000000000000000CC00,1,1477436994778618,1477436994778618,1,4.875,13312,-33.5,865.7,0.41724277
40000000000000000000CC00,1,1477436994785575,1477436994785575,1,8.125,13312,-33.5,865.7,0.38656315
40000000000000000000CC00,1,1477436994792560,1477436994792560,1,1.625,13312,-33.5,865.7,0.398835
40000000000000000000CC00,1,1477436994799511,1477436994799511,1,6.5,13312,-33.5,865.7,0.34974763
40000000000000000000CC00,1,1477436994806765,1477436994806765,1,2.4375,13312,-33.5,865.7,0.319068
40000000000000000000CC00,1,1477436994813652,1477436994813652,1,3.25,13312,-33.5,865.7,0.27611655
40000000000000000000CC00,1,1477436994820625,1477436994820625,1,4.875,13312,-33.5,865.7,0.239301
40000000000000000000CC00,1,1477436994827570,1477436994827570,1,6.5,13312,-34.0,865.7,0.17180584
40000000000000000000CC00,1,1477436994834517,1477436994834517,1,3.25,13312,-34.0,865.7,0.1349903
40000000000000000000CC00,1,1477436994841492,1477436994841492,1,3.25,13312,-34.0,865.7,0.09203885
40000000000000000000CC00,1,1477436994848439,1477436994848439,1,2.4375,13312,-34.0,865.7,0.03681554
40000000000000000000CC00,1,1477436994855475,1477436994855475,1,3.25,13312,-34.5,865.7,0.0
40000000000000000000CC00,1,1477436994862237,1477436994862237,1,8.125,13312,-34.5,865.7,6.221826
40000000000000000000CC00,1,1477436994869161,1477436994869161,1,3.25,13312,-34.5,865.7,6.227962
40000000000000000000CC00,1,1477436994876133,1477436994876133,1,0.8125,13312,-34.0,865.7,6.2034183
40000000000000000000CC00,1,1477436994883111,1477436994883111,1,-0.8125,13312,-34.5,865.7,6.1911464
40000000000000000000CC00,1,1477436994890046,1477436994890046,1,0.8125,13312,-34.5,865.7,6.1543307
40000000000000000000CC00,1,1477436994897285,1477436994897285,1,0.0,13312,-34.0,865.7,6.142059
40000000000000000000CC00,1,1477436994904220,1477436994904220,1,4.875,13312,-34.5,865.7,6.092972
40000000000000000000CC00,1,1477436994910892,1477436994910892,1,2.4375,13312,-34.0,865.7,6.0991077
40000000000000000000CC00,1,1477436994917851,1477436994917851,1,5.6875,13312,-34.5,865.7,6.062292
40000000000000000000CC00,1,1477436994924766,1477436994924766,1,6.5,13312,-34.5,865.7,6.0377483
40000000000000000000CC00,1,1477436994931953,1477436994931953,1,0.8125,13312,-34.5,865.7,6.056156
40000000000000000000CC00,1,1477436994938682,1477436994938682,1,5.6875,13312,-34.5,865.7,6.0254765
40000000000000000000CC00,1,1477436994945686,1477436994945686,1,2.4375,13312,-34.0,865.7,6.0316124
40000000000000000000CC00,1,1477436994952700,1477436994952700,1,4.875,13312,-34.0,865.7,6.0193405
40000000000000000000CC00,1,1477436994959653,1477436994959653,1,5.6875,13312,-34.5,865.7,5.9947968
40000000000000000000CC00,1,1477436994966838,1477436994966838,1,3.25,13312,-34.5,865.7,6.0009327
40000000000000000000CC00,1,1477436994973856,1477436994973856,1,6.5,13312,-34.5,865.7,5.988661
40000000000000000000CC00,1,1477436994980764,1477436994980764,1,7.3125,13312,-34.5,865.7,5.988661
40000000000000000000CC00,1,1477436994987740,1477436994987740,1,5.6875,13312,-34.5,865.7,6.0009327
40000000000000000000CC00,1,1477436994994795,1477436994994795,1,5.6875,13312,-34.5,865.7,6.0070686
40000000000000000000CC00,1,1477436995001506,1477436995001506,1,6.5,13312,-34.5,865.7,5.988661
40000000000000000000CC00,1,1477436995008697,1477436995008697,1,6.5,13312,-34.5,865.7,5.9947968
40000000000000000000CC00,1,1477436995015389,1477436995015389,1,3.25,13312,-35.0,865.7,6.0132046
40000000000000000000CC00,1,1477436995022573,1477436995022573,1,4.875,13312,-34.5,865.7,6.0132046
40000000000000000000CC00,1,1477436995029542,1477436995029542,1,4.875,13312,-34.5,865.7,6.0193405
40000000000000000000CC00,1,1477436995036514,1477436995036514,1,4.875,13312,-35.0,865.7,6.0132046
40000000000000000000CC00,1,1477436995043488,1477436995043488,1,2.4375,13312,-35.0,865.7,6.05002
40000000000000000000CC00,1,1477436995050165,1477436995050165,1,1.625,13312,-34.5,865.7,6.0377483
40000000000000000000CC00,1,1477436995057325,1477436995057325,1,5.6875,13312,-35.0,865.7,6.0377483
40000000000000000000CC00,1,1477436995064315,1477436995064315,1,6.5,13312,-35.0,865.7,6.0316124
40000000000000000000CC00,1,1477436995071283,1477436995071283,1,5.6875,13312,-34.5,865.7,6.05002
40000000000000000000CC00,1,1477436995078253,1477436995078253,1,5.6875,13312,-35.0,865.7,6.056156
40000000000000000000CC00,1,1477436995084965,1477436995084965,1,2.4375,13312,-35.0,865.7,6.068428
40000000000000000000CC00,1,1477436995092065,1477436995092065,1,4.875,13312,-35.0,865.7,6.068428
40000000000000000000CC00,1,1477436995099082,1477436995099082,1,2.4375,13312,-35.0,865.7,6.092972
40000000000000000000CC00,1,1477436995105747,1477436995105747,1,6.5,13312,-35.0,865.7,6.068428
40000000000000000000CC00,1,1477436995112778,1477436995112778,1,6.5,13312,-35.0,865.7,6.0807
40000000000000000000CC00,1,1477436995119743,1477436995119743,1,0.8125,13312,-35.0,865.7,6.1236515
40000000000000000000CC00,1,1477436995126711,1477436995126711,1,3.25,13312,-35.0,865.7,6.1052437
40000000000000000000CC00,1,1477436995134001,1477436995134001,1,4.875,13312,-35.0,865.7,6.1359234
40000000000000000000CC00,1,1477436995141079,1477436995141079,1,2.4375,13312,-35.0,865.7,6.1359234
40000000000000000000CC00,1,1477436995147754,1477436995147754,1,3.25,13312,-34.5,865.7,6.148195
40000000000000000000CC00,1,1477436995154728,1477436995154728,1,6.5,13312,-35.0,865.7,6.1359234
40000000000000000000CC00,1,1477436995161673,1477436995161673,1,4.875,13312,-35.0,865.7,6.1604667
40000000000000000000CC00,1,1477436995168861,1477436995168861,1,4.875,13312,-35.0,865.7,6.1727386
40000000000000000000CC00,1,1477436995175519,1477436995175519,1,0.8125,13312,-35.0,865.7,6.1911464
40000000000000000000CC00,1,1477436995182845,1477436995182845,1,5.6875,13312,-35.0,865.7,6.1850104
40000000000000000000CC00,1,1477436995189783,1477436995189783,1,1.625,13312,-35.0,865.7,6.21569
40000000000000000000CC00,1,1477436995196501,1477436995196501,1,5.6875,13312,-35.0,865.7,6.1850104
40000000000000000000CC00,1,1477436995203519,1477436995203519,1,0.8125,13312,-35.0,865.7,6.240234
40000000000000000000CC00,1,1477436995210714,1477436995210714,1,0.8125,13312,-35.0,865.7,6.234098
40000000000000000000CC00,1,1477436995217647,1477436995217647,1,4.875,13312,-35.0,865.7,6.234098
40000000000000000000CC00,1,1477436995224708,1477436995224708,1,0.8125,13312,-35.0,865.7,6.2647777
40000000000000000000CC00,1,1477436995231677,1477436995231677,1,1.625,13312,-35.0,865.7,6.2647777
40000000000000000000CC00,1,1477436995238417,1477436995238417,1,3.25,13312,-35.0,865.7,6.240234
40000000000000000000CC00,1,1477436995245447,1477436995245447,1,7.3125,13312,-35.5,865.7,6.252506
40000000000000000000CC00,1,1477436995252347,1477436995252347,1,8.125,13312,-35.5,865.7,6.252506
40000000000000000000CC00,1,1477436995259271,1477436995259271,1,7.3125,13312,-35.0,865.7,6.2709136
40000000000000000000CC00,1,1477436995266213,1477436995266213,1,5.6875,13312,-35.5,865.7,6.2770495
40000000000000000000CC00,1,1477436995273531,1477436995273531,1,5.6875,13312,-35.5,865.7,0.0061359233
40000000000000000000CC00,1,1477436995280230,1477436995280230,1,4.875,13312,-35.0,865.7,0.0061359233
40000000000000000000CC00,1,1477436995287454,1477436995287454,1,6.5,13312,-35.0,865.7,0.0061359233
40000000000000000000CC00,1,1477436995294450,1477436995294450,1,6.5,13312,-35.0,865.7,0.01840777
40000000000000000000CC00,1,1477436995301115,1477436995301115,1,4.875,13312,-35.0,865.7,0.04295146
40000000000000000000CC00,1,1477436995308133,1477436995308133,1,3.25,13312,-35.0,865.7,0.049087387
40000000000000000000CC00,1,1477436995315311,1477436995315311,1,6.5,13312,-35.0,865.7,0.049087387
40000000000000000000CC00,1,1477436995322018,1477436995322018,1,3.25,13312,-35.0,865.7,0.07363108
40000000000000000000CC00,1,1477436995328985,1477436995328985,1,7.3125,13312,-35.0,865.7,0.07363108
40000000000000000000CC00,1,1477436995336169,1477436995336169,1,7.3125,13312,-35.0,865.7,0.07363108
40000000000000000000CC00,1,1477436995343044,1477436995343044,1,6.5,13312,-35.0,865.7,0.09817477
40000000000000000000CC00,1,1477436995349999,1477436995349999,1,6.5,13312,-34.5,865.7,0.09203885
40000000000000000000CC00,1,1477436995356707,1477436995356707,1,3.25,13312,-34.5,865.7,0.11658254
40000000000000000000CC00,1,1477436995363664,1477436995363664,1,4.875,13312,-35.0,865.7,0.11658254
40000000000000000000CC00,1,1477436995370869,1477436995370869,1,4.875,13312,-34.5,865.7,0.1349903
40000000000000000000CC00,1,1477436995377575,1477436995377575,1,5.6875,13312,-35.0,865.7,0.1349903
40000000000000000000CC00,1,1477436995384464,1477436995384464,1,2.4375,13312,-35.0,865.7,0.15339808
40000000000000000000CC00,1,1477436995391428,1477436995391428,1,6.5,13312,-35.0,865.7,0.12885438
40000000000000000000CC00,1,1477436995398372,1477436995398372,1,5.6875,13312,-35.0,865.7,0.14726216
40000000000000000000CC00,1,1477436995405642,1477436995405642,1,0.8125,13312,-34.5,865.7,0.17180584
40000000000000000000CC00,1,1477436995412330,1477436995412330,1,5.6875,13312,-35.0,865.7,0.15339808
40000000000000000000CC00,1,1477436995419288,1477436995419288,1,4.875,13312,-35.0,865.7,0.15339808
40000000000000000000CC00,1,1477436995426488,1477436995426488,1,7.3125,13312,-34.5,865.7,0.14726216
40000000000000000000CC00,1,1477436995433229,1477436995433229,1,8.9375,13312,-34.5,865.7,0.15339808
40000000000000000000CC00,1,1477436995440178,1477436995440178,1,5.6875,13312,-34.5,865.7,0.159534
40000000000000000000CC00,1,1477436995447352,1477436995447352,1,4.875,13312,-34.5,865.7,0.1840777
40000000000000000000CC00,1,1477436995454076,1477436995454076,1,4.875,13312,-34.5,865.7,0.17794177
40000000000000000000CC00,1,1477436995461085,1477436995461085,1,4.875,13312,-34.5,865.7,0.20248546
40000000000000000000CC00,1,1477436995468334,1477436995468334,1,8.125,13312,-34.5,865.7,0.19021362
40000000000000000000CC00,1,1477436995475246,1477436995475246,1,3.25,13312,-34.5,865.7,0.20862138
40000000000000000000CC00,1,1477436995481973,1477436995481973,1,6.5,13312,-34.5,865.7,0.21475731
40000000000000000000CC00,1,1477436995489037,1477436995489037,1,1.625,13312,-34.0,865.7,0.239301
40000000000000000000CC00,1,1477436995496023,1477436995496023,1,4.875,13312,-34.5,865.7,0.239301
40000000000000000000CC00,1,1477436995503227,1477436995503227,1,4.875,13312,-34.5,865.7,0.25157285
40000000000000000000CC00,1,1477436995509930,1477436995509930,1,3.25,13312,-34.0,865.7,0.2638447
40000000000000000000CC00,1,1477436995516982,1477436995516982,1,7.3125,13312,-34.5,865.7,0.25770876
40000000000000000000CC00,1,1477436995524246,1477436995524246,1,3.25,13312,-34.5,865.7,0.28225246
40000000000000000000CC00,1,1477436995531021,1477436995531021,1,5.6875,13312,-34.5,865.7,0.2945243
40000000000000000000CC00,1,1477436995537967,1477436995537967,1,5.6875,13312,-34.5,865.7,0.30066022
40000000000000000000CC00,1,1477436995545180,1477436995545180,1,4.875,13312,-34.5,865.7,0.33747578
40000000000000000000CC00,1,1477436995552145,1477436995552145,1,5.6875,13312,-34.5,865.7,0.33747578
40000000000000000000CC00,1,1477436995558908,1477436995558908,1,6.5,13312,-34.0,865.7,0.34974763
40000000000000000000CC00,1,1477436995565829,1477436995565829,1,4.875,13312,-34.0,865.7,0.38042724
40000000000000000000CC00,1,1477436995573111,1477436995573111,1,-0.8125,13312,-34.0,865.7,0.42951462
40000000000000000000CC00,1,1477436995580125,1477436995580125,1,1.625,13312,-34.0,865.7,0.44178647
40000000000000000000CC00,1,1477436995587129,1477436995587129,1,8.125,13312,-34.0,865.7,0.43565056
40000000000000000000CC00,1,1477436995593800,1477436995593800,1,-0.8125,13312,-34.0,865.7,0.49087384
40000000000000000000CC00,1,1477436995601007,1477436995601007,1,8.125,13312,-34.0,865.7,0.478602
40000000000000000000CC00,1,1477436995607941,1477436995607941,1,6.5,13312,-34.0,865.7,0.5031457
40000000000000000000CC00,1,1477436995614663,1477436995614663,1,5.6875,13312,-34.0,865.7,0.5399612
40000000000000000000CC00,1,1477436995621613,1477436995621613,1,5.6875,13312,-34.0,865.7,0.5522331
40000000000000000000CC00,1,1477436995628889,1477436995628889,1,6.5,13312,-34.5,865.7,0.5645049
40000000000000000000CC00,1,1477436995635627,1477436995635627,1,8.9375,13312,-34.5,865.7,0.5645049
40000000000000000000CC00,1,1477436995642661,1477436995642661,1,3.25,13312,-34.0,865.7,0.6135923
40000000000000000000CC00,1,1477436995649593,1477436995649593,1,4.875,13312,-34.5,865.7,0.62586415
40000000000000000000CC00,1,1477436995656777,1477436995656777,1,4.875,13312,-34.0,865.7,0.62586415
40000000000000000000CC00,1,1477436995663746,1477436995663746,1,10.5625,13312,-34.5,865.7,0.6135923
40000000000000000000CC00,1,1477436995670420,1477436995670420,1,8.125,13312,-34.5,865.7,0.6442719
40000000000000000000CC00,1,1477436995677343,1477436995677343,1,2.4375,13312,-34.0,865.7,0.6933593
40000000000000000000CC00,1,1477436995684569,1477436995684569,1,1.625,13312,-34.5,865.7,0.6872234
40000000000000000000CC00,1,1477436995691540,1477436995691540,1,3.25,13312,-34.5,865.7,0.717903
40000000000000000000CC00,1,1477436995698300,1477436995698300,1,2.4375,13312,-34.5,865.7,0.72403896
40000000000000000000CC00,1,1477436995705221,1477436995705221,1,3.25,13312,-34.5,865.7,0.73017484
40000000000000000000CC00,1,1477436995712139,1477436995712139,1,0.8125,13312,-34.5,865.7,0.75471854
40000000000000000000CC00,1,1477436995719320,1477436995719320,1,6.5,13312,-34.5,865.7,0.7363108
40000000000000000000CC00,1,1477436995726125,1477436995726125,1,3.25,13312,-34.5,865.7,0.7731263
40000000000000000000CC00,1,1477436995733045,1477436995733045,1,0.8125,13312,-34.5,865.7,0.79767
40000000000000000000CC00,1,1477436995740317,1477436995740317,1,3.25,13312,-34.5,865.7,0.77926224
40000000000000000000CC00,1,1477436995747064,1477436995747064,1,5.6875,13312,-34.5,865.7,0.79153407
40000000000000000000CC00,1,1477436995754302,1477436995754302,1,2.4375,13312,-34.5,865.7,0.82834965
40000000000000000000CC00,1,1477436995760997,1477436995760997,1,4.875,13312,-34.0,865.7,0.8222137
40000000000000000000CC00,1,1477436995768250,1477436995768250,1,3.25,13312,-34.5,865.7,0.82834965
40000000000000000000CC00,1,1477436995775198,1477436995775198,1,4.875,13312,-34.5,865.7,0.82834965
40000000000000000000CC00,1,1477436995781891,1477436995781891,1,4.875,13312,-34.5,865.7,0.83448553
40000000000000000000CC00,1,1477436995789081,1477436995789081,1,6.5,13312,-34.0,865.7,0.85902923
40000000000000000000CC00,1,1477436995796062,1477436995796062,1,3.25,13312,-34.5,865.7,0.85902923
40000000000000000000CC00,1,1477436995803111,1477436995803111,1,4.875,13312,-34.5,865.7,0.8651652
40000000000000000000CC00,1,1477436995810045,1477436995810045,1,4.875,13312,-34.0,865.7,0.877437
40000000000000000000CC00,1,1477436995816916,1477436995816916,1,3.25,13312,-34.5,865.7,0.88357294
40000000000000000000CC00,1,1477436995823571,1477436995823571,1,8.9375,13312,-34.5,865.7,0.8467574
40000000000000000000CC00,1,1477436995830492,1477436995830492,1,8.125,13312,-34.0,865.7,0.8713011
40000000000000000000CC00,1,1477436995837697,1477436995837697,1,6.5,13312,-34.5,865.7,0.877437
40000000000000000000CC00,1,1477436995844683,1477436995844683,1,2.4375,13312,-34.5,865.7,0.9019807
40000000000000000000CC00,1,1477436995851317,1477436995851317,1,5.6875,13312,-34.0,865.7,0.89584476
40000000000000000000CC00,1,1477436995858534,1477436995858534,1,3.25,13312,-34.0,865.7,0.9142526
40000000000000000000CC00,1,1477436995865272,1477436995865272,1,4.875,13312,-34.0,865.7,0.89584476
40000000000000000000CC00,1,1477436995872490,1477436995872490,1,8.125,13312,-34.0,865.7,0.89584476
40000000000000000000CC00,1,1477436995879231,1477436995879231,1,2.4375,13312,-34.5,865.7,0.9265244
40000000000000000000CC00,1,1477436995886402,1477436995886402,1,3.25,13312,-34.0,865.7,0.9265244
40000000000000000000CC00,1,1477436995893134,1477436995893134,1,8.125,13312,-34.5,865.7,0.9019807
40000000000000000000CC00,1,1477436995900092,1477436995900092,1,1.625,13312,-34.5,865.7,0.9265244
40000000000000000000CC00,1,1477436995907097,1477436995907097,1,3.25,13312,-34.5,865.7,0.93266034
40000000000000000000CC00,1,1477436995915876,1477436995915876,1,-2.4375,13312,-34.5,865.7,0.957204
40000000000000000000CC00,1,1477436995922953,1477436995922953,1,0.0,13312,-34.5,865.7,0.9510681
40000000000000000000CC00,1,1477436995929996,1477436995929996,1,7.3125,13312,-34.0,865.7,0.92038846
40000000000000000000CC00,1,1477436995936984,1477436995936984,1,3.25,13312,-34.0,865.7,0.957204
40000000000000000000CC00,1,1477436995943918,1477436995943918,1,2.4375,13312,-34.0,865.7,0.957204
40000000000000000000CC00,1,1477436995950563,1477436995950563,1,3.25,13312,-34.5,865.7,0.9510681
40000000000000000000CC00,1,1477436995957508,1477436995957508,1,7.3125,13312,-34.0,865.7,0.93266034
40000000000000000000CC00,1,1477436995964450,1477436995964450,1,5.6875,13312,-34.0,865.7,0.9633399
40000000000000000000CC00,1,1477436995971617,1477436995971617,1,5.6875,13312,-34.5,865.7,0.9510681
40000000000000000000CC00,1,1477436995978359,1477436995978359,1,0.0,13312,-34.5,865.7,0.9633399
40000000000000000000CC00,1,1477436995985360,1477436995985360,1,5.6875,13312,-34.0,865.7,0.957204
40000000000000000000CC00,1,1477436995992517,1477436995992517,1,7.3125,13312,-34.0,865.7,0.94493216
40000000000000000000CC00,1,1477436995999430,1477436995999430,1,8.125,13312,-34.0,865.7,0.9387962
40000000000000000000CC00,1,1477436996006285,1477436996006285,1,0.8125,13312,-34.0,865.7,0.9817477
40000000000000000000CC00,1,1477436996013540,1477436996013540,1,5.6875,13312,-34.5,865.7,0.9510681
40000000000000000000CC00,1,1477436996020208,1477436996020208,1,8.125,13312,-34.5,865.7,0.94493216
40000000000000000000CC00,1,1477436996027377,1477436996027377,1,5.6875,13312,-34.0,865.7,0.9510681
40000000000000000000CC00,1,1477436996034306,1477436996034306,1,4.875,13312,-34.0,865.7,0.94493216
40000000000000000000CC00,1,1477436996041025,1477436996041025,1,0.8125,13312,-34.0,865.7,0.96947587
40000000000000000000CC00,1,1477436996048222,1477436996048222,1,3.25,13312,-34.0,865.7,0.9633399
40000000000000000000CC00,1,1477436996054875,1477436996054875,1,2.4375,13312,-34.0,865.7,0.9633399
40000000000000000000CC00,1,1477436996061828,1477436996061828,1,3.25,13312,-34.0,865.7,0.9510681
40000000000000000000CC00,1,1477436996069005,1477436996069005,1,8.125,13312,-34.5,865.7,0.957204
40000000000000000000CC00,1,1477436996075677,1477436996075677,1,3.25,13312,-34.0,865.7,0.9756118
40000000000000000000CC00,1,1477436996082708,1477436996082708,1,4.875,13312,-34.0,865.7,0.9756118
40000000000000000000CC00,1,1477436996089881,1477436996089881,1,2.4375,13312,-34.0,865.7,0.9817477
40000000000000000000CC00,1,1477436996096574,1477436996096574,1,1.625,13312,-34.0,865.7,0.9817477
40000000000000000000CC00,1,1477436996103531,1477436996103531,1,7.3125,13312,-34.0,865.7,0.9510681
40000000000000000000CC00,1,1477436996110524,1477436996110524,1,3.25,13312,-34.5,865.7,0.9817477
40000000000000000000CC00,1,1477436996117807,1477436996117807,1,7.3125,13312,-34.0,865.7,0.9633399
40000000000000000000CC00,1,1477436996124780,1477436996124780,1,6.5,13312,-34.0,865.7,0.94493216
40000000000000000000CC00,1,1477436996131788,1477436996131788,1,6.5,13312,-34.0,865.7,0.957204
40000000000000000000CC00,1,1477436996138462,1477436996138462,1,3.25,13312,-34.0,865.7,0.9756118
40000000000000000000CC00,1,1477436996145589,1477436996145589,1,7.3125,13312,-34.5,865.7,0.9633399
40000000000000000000CC00,1,1477436996152361,1477436996152361,1,5.6875,13312,-34.0,865.7,0.9633399
40000000000000000000CC00,1,1477436996159548,1477436996159548,1,5.6875,13312,-34.5,865.7,0.9756118
40000000000000000000CC00,1,1477436996166301,1477436996166301,1,4.875,13312,-34.0,865.7,1.0001554
40000000000000000000CC00,1,1477436996173278,1477436996173278,1,7.3125,13312,-34.0,865.7,0.9878836
40000000000000000000CC00,1,1477436996180470,1477436996180470,1,1.625,13312,-34.0,865.7,1.0124273
40000000000000000000CC00,1,1477436996187210,1477436996187210,1,4.875,13312,-34.0,865.7,1.0062914
40000000000000000000CC00,1,1477436996194460,1477436996194460,1,4.875,13312,-34.0,865.7,1.0062914
40000000000000000000CC00,1,1477436996201480,1477436996201480,1,1.625,13312,-34.0,865.7,1.0185633
40000000000000000000CC00,1,1477436996208383,1477436996208383,1,8.125,13312,-34.0,865.7,0.9878836
40000000000000000000CC00,1,1477436996215111,1477436996215111,1,4.875,13312,-34.0,865.7,1.0246992
40000000000000000000CC00,1,1477436996222322,1477436996222322,1,1.625,13312,-34.0,865.7,1.0431069
40000000000000000000CC00,1,1477436996229064,1477436996229064,1,2.4375,13312,-34.0,865.7,1.030835
40000000000000000000CC00,1,1477436996236043,1477436996236043,1,6.5,13312,-34.5,865.7,1.0185633
40000000000000000000CC00,1,1477436996242999,1477436996242999,1,6.5,13312,-34.0,865.7,1.0431069
40000000000000000000CC00,1,1477436996249993,1477436996249993,1,3.25,13312,-34.0,865.7,1.036971
40000000000000000000CC00,1,1477436996256969,1477436996256969,1,1.625,13312,-34.0,865.7,1.0492429
40000000000000000000CC00,1,1477436996263842,1477436996263842,1,12.1875,13312,-34.0,865.7,0.99401957
40000000000000000000CC00,1,1477436996271013,1477436996271013,1,6.5,13312,-34.0,865.7,1.0431069
40000000000000000000CC00,1,1477436996277998,1477436996277998,1,5.6875,13312,-34.0,865.7,1.0431069
40000000000000000000CC00,1,1477436996284667,1477436996284667,1,7.3125,13312,-34.0,865.7,1.0431069
40000000000000000000CC00,1,1477436996291933,1477436996291933,1,5.6875,13312,-34.0,865.7,1.0615147
40000000000000000000CC00,1,1477436996298901,1477436996298901,1,4.875,13312,-34.0,865.7,1.0615147
40000000000000000000CC00,1,1477436996305792,1477436996305792,1,4.875,13312,-34.0,865.7,1.0676507
40000000000000000000CC00,1,1477436996312779,1477436996312779,1,4.875,13312,-34.0,865.7,1.0676507
40000000000000000000CC00,1,1477436996319459,1477436996319459,1,11.375,13312,-34.0,865.7,1.030835
40000000000000000000CC00,1,1477436996326714,1477436996326714,1,9.75,13312,-34.0,865.7,1.0431069
40000000000000000000CC00,1,1477436996333476,1477436996333476,1,8.125,13312,-34.0,865.7,1.0615147
40000000000000000000CC00,1,1477436996340469,1477436996340469,1,5.6875,13312,-34.0,865.7,1.0921943
40000000000000000000CC00,1,1477436996347753,1477436996347753,1,7.3125,13312,-34.0,865.7,1.0676507
40000000000000000000CC00,1,1477436996354526,1477436996354526,1,7.3125,13312,-34.5,865.7,1.0860584
40000000000000000000CC00,1,1477436996361472,1477436996361472,1,4.875,13312,-34.0,865.7,1.1106021
40000000000000000000CC00,1,1477436996368710,1477436996368710,1,4.875,13312,-34.0,865.7,1.1044662
40000000000000000000CC00,1,1477436996375662,1477436996375662,1,7.3125,13312,-34.0,865.7,1.0983303
40000000000000000000CC00,1,1477436996382364,1477436996382364,1,4.875,13312,-34.0,865.7,1.1290098
40000000000000000000CC00,1,1477436996389383,1477436996389383,1,7.3125,13312,-34.5,865.7,1.1228739
40000000000000000000CC00,1,1477436996396628,1477436996396628,1,6.5,13312,-34.0,865.7,1.1290098
40000000000000000000CC00,1,1477436996403555,1477436996403555,1,1.625,13312,-34.0,865.7,1.1658254
40000000000000000000CC00,1,1477436996410311,1477436996410311,1,8.9375,13312,-34.5,865.7,1.1290098
40000000000000000000CC00,1,1477436996417228,1477436996417228,1,3.25,13312,-34.0,865.7,1.1535536
40000000000000000000CC00,1,1477436996424146,1477436996424146,1,4.875,13312,-34.5,865.7,1.1780972
40000000000000000000CC00,1,1477436996431357,1477436996431357,1,3.25,13312,-34.5,865.7,1.1780972
40000000000000000000CC00,1,1477436996438386,1477436996438386,1,10.5625,13312,-34.0,865.7,1.1412817
40000000000000000000CC00,1,1477436996445119,1477436996445119,1,5.6875,13312,-34.5,865.7,1.1658254
40000000000000000000CC00,1,1477436996452335,1477436996452335,1,8.125,13312,-34.5,865.7,1.1658254
40000000000000000000CC00,1,1477436996459248,1477436996459248,1,9.75,13312,-34.5,865.7,1.1474177
40000000000000000000CC00,1,1477436996465963,1477436996465963,1,6.5,13312,-34.5,865.7,1.1780972
40000000000000000000CC00,1,1477436996473152,1477436996473152,1,8.9375,13312,-34.5,865.7,1.1596894
40000000000000000000CC00,1,1477436996480185,1477436996480185,1,7.3125,13312,-34.5,865.7,1.1719613
40000000000000000000CC00,1,1477436996486844,1477436996486844,1,7.3125,13312,-34.5,865.7,1.1903691
40000000000000000000CC00,1,1477436996493844,1477436996493844,1,5.6875,13312,-34.0,865.7,1.1842332
40000000000000000000CC00,1,1477436996500761,1477436996500761,1,6.5,13312,-34.5,865.7,1.1780972
40000000000000000000CC00,1,1477436996507759,1477436996507759,1,7.3125,13312,-34.5,865.7,1.1965051
40000000000000000000CC00,1,1477436996515066,1477436996515066,1,-1.625,13312,-34.5,865.7,1.2517283
40000000000000000000CC00,1,1477436996522037,1477436996522037,1,6.5,13312,-34.5,865.7,1.2026409
40000000000000000000CC00,1,1477436996528731,1477436996528731,1,4.875,13312,-34.5,865.7,1.2333206
40000000000000000000CC00,1,1477436996535790,1477436996535790,1,6.5,13312,-34.5,865.7,1.2394565
40000000000000000000CC00,1,1477436996543057,1477436996543057,1,10.5625,13312,-34.5,865.7,1.2087768
40000000000000000000CC00,1,1477436996549863,1477436996549863,1,2.4375,13312,-34.5,865.7,1.2517283
40000000000000000000CC00,1,1477436996556814,1477436996556814,1,0.0,13312,-34.5,865.7,1.2824079
40000000000000000000CC00,1,1477436996564001,1477436996564001,1,1.625,13312,-34.5,865.7,1.2701361
40000000000000000000CC00,1,1477436996570705,1477436996570705,1,6.5,13312,-34.5,865.7,1.2578642
40000000000000000000CC00,1,1477436996577647,1477436996577647,1,3.25,13312,-35.0,865.7,1.276272
40000000000000000000CC00,1,1477436996584563,1477436996584563,1,6.5,13312,-34.5,865.7,1.2824079
40000000000000000000CC00,1,1477436996591737,1477436996591737,1,3.25,13312,-34.5,865.7,1.3069516
40000000000000000000CC00,1,1477436996598562,1477436996598562,1,0.8125,13312,-34.5,865.7,1.3314953
40000000000000000000CC00,1,1477436996605808,1477436996605808,1,0.8125,13312,-35.0,865.7,1.3437672
40000000000000000000CC00,1,1477436996612821,1477436996612821,1,8.125,13312,-35.0,865.7,1.2946798
40000000000000000000CC00,1,1477436996619607,1477436996619607,1,9.75,13312,-35.0,865.7,1.2946798
40000000000000000000CC00,1,1477436996626844,1477436996626844,1,6.5,13312,-35.0,865.7,1.3192235
40000000000000000000CC00,1,1477436996633815,1477436996633815,1,5.6875,13312,-35.0,865.7,1.3253593
40000000000000000000CC00,1,1477436996640731,1477436996640731,1,5.6875,13312,-35.0,865.7,1.3314953
40000000000000000000CC00,1,1477436996647505,1477436996647505,1,10.5625,13312,-35.0,865.7,1.3192235
40000000000000000000CC00,1,1477436996654404,1477436996654404,1,7.3125,13312,-35.0,865.7,1.3499031
40000000000000000000CC00,1,1477436996661317,1477436996661317,1,8.9375,13312,-35.0,865.7,1.3499031
40000000000000000000CC00,1,1477436996668509,1477436996668509,1,3.25,13312,-35.5,865.7,1.3744467
40000000000000000000CC00,1,1477436996675215,1477436996675215,1,3.25,13312,-35.0,865.7,1.4051265
40000000000000000000CC00,1,1477436996682425,1477436996682425,1,5.6875,13312,-35.5,865.7,1.3928546
40000000000000000000CC00,1,1477436996689115,1477436996689115,1,8.9375,13312,-35.5,865.7,1.3744467
40000000000000000000CC00,1,1477436996696083,1477436996696083,1,5.6875,13312,-35.5,865.7,1.4173982
40000000000000000000CC00,1,1477436996703072,1477436996703072,1,8.125,13312,-36.0,865.7,1.3989905
40000000000000000000CC00,1,1477436996710244,1477436996710244,1,4.875,13312,-35.5,865.7,1.4542137
40000000000000000000CC00,1,1477436996716955,1477436996716955,1,9.75,13312,-35.5,865.7,1.4051265
40000000000000000000CC00,1,1477436996724152,1477436996724152,1,6.5,13312,-35.5,865.7,1.4542137
40000000000000000000CC00,1,1477436996731085,1477436996731085,1,4.875,13312,-36.0,865.7,1.4603497
40000000000000000000CC00,1,1477436996737793,1477436996737793,1,3.25,13312,-36.0,865.7,1.4726216
40000000000000000000CC00,1,1477436996744859,1477436996744859,1,3.25,13312,-36.5,865.7,1.4910294
40000000000000000000CC00,1,1477436996751820,1477436996751820,1,9.75,13312,-36.5,865.7,1.4787575
40000000000000000000CC00,1,1477436996759037,1477436996759037,1,5.6875,13312,-36.5,865.7,1.515573
40000000000000000000CC00,1,1477436996765965,1477436996765965,1,-0.8125,13312,-36.5,865.7,1.5523885
40000000000000000000CC00,1,1477436996772964,1477436996772964,1,5.6875,13312,-36.5,865.7,1.5401167
40000000000000000000CC00,1,1477436996779909,1477436996779909,1,3.25,13312,-36.5,865.7,1.5585245
40000000000000000000CC00,1,1477436996786931,1477436996786931,1,5.6875,13312,-37.0,865.7,1.5892041
40000000000000000000CC00,1,1477436996793596,1477436996793596,1,4.875,13312,-37.0,865.7,1.601476
40000000000000000000CC00,1,1477436996800546,1477436996800546,1,2.4375,13312,-37.0,865.7,1.6198837
40000000000000000000CC00,1,1477436996807566,1477436996807566,1,6.5,13312,-37.0,865.7,1.6137478
40000000000000000000CC00,1,1477436996814508,1477436996814508,1,7.3125,13312,-37.5,865.7,1.6321555
40000000000000000000CC00,1,1477436996821729,1477436996821729,1,3.25,13312,-37.5,865.7,1.6628351
40000000000000000000CC00,1,1477436996828715,1477436996828715,1,2.4375,13312,-37.0,865.7,1.6689711
40000000000000000000CC00,1,1477436996835416,1477436996835416,1,7.3125,13312,-37.5,865.7,1.6566993
40000000000000000000CC00,1,1477436996842442,1477436996842442,1,8.9375,13312,-37.5,865.7,1.6505634
40000000000000000000CC00,1,1477436996849706,1477436996849706,1,1.625,13312,-37.5,865.7,1.7119225
40000000000000000000CC00,1,1477436996856618,1477436996856618,1,3.25,13312,-38.0,865.7,1.7180585
40000000000000000000CC00,1,1477436996863338,1477436996863338,1,7.3125,13312,-37.5,865.7,1.6935148
40000000000000000000CC00,1,1477436996870253,1477436996870253,1,-0.8125,13312,-38.0,865.7,1.7426022
40000000000000000000CC00,1,1477436996877250,1477436996877250,1,8.9375,13312,-38.0,865.7,1.6873789
40000000000000000000CC00,1,1477436996884518,1477436996884518,1,10.5625,13312,-37.5,865.7,1.6873789
40000000000000000000CC00,1,1477436996891238,1477436996891238,1,9.75,13312,-38.0,865.7,1.6873789
40000000000000000000CC00,1,1477436996898295,1477436996898295,1,3.25,13312,-38.0,865.7,1.7303303
40000000000000000000CC00,1,1477436996905192,1477436996905192,1,4.875,13312,-38.0,865.7,1.7119225
40000000000000000000CC00,1,1477436996912433,1477436996912433,1,8.9375,13312,-38.0,865.7,1.681243
40000000000000000000CC00,1,1477436996919424,1477436996919424,1,4.875,13312,-38.5,865.7,1.7057866
40000000000000000000CC00,1,1477436996926151,1477436996926151,1,1.625,13312,-38.5,865.7,1.6996508
40000000000000000000CC00,1,1477436996933362,1477436996933362,1,2.4375,13312,-38.5,865.7,1.7180585
40000000000000000000CC00,1,1477436996940127,1477436996940127,1,5.6875,13312,-38.5,865.7,1.6628351
40000000000000000000CC00,1,1477436996947062,1477436996947062,1,7.3125,13312,-38.5,865.7,1.6505634
40000000000000000000CC00,1,1477436996954331,1477436996954331,1,2.4375,13312,-39.0,865.7,1.6689711
40000000000000000000CC00,1,1477436996961351,1477436996961351,1,1.625,13312,-39.0,865.7,1.6628351
40000000000000000000CC00,1,1477436996968077,1477436996968077,1,1.625,13312,-39.0,865.7,1.6137478
40000000000000000000CC00,1,1477436996975401,1477436996975401,1,2.4375,13312,-39.5,865.7,1.6076119
40000000000000000000CC00,1,1477436996982381,1477436996982381,1,2.4375,13312,-39.5,865.7,1.5830681
40000000000000000000CC00,1,1477436996989077,1477436996989077,1,0.0,13312,-39.5,865.7,1.59534
40000000000000000000CC00,1,1477436996996296,1477436996996296,1,1.625,13312,-39.5,865.7,1.5523885
40000000000000000000CC00,1,1477436997003202,1477436997003202,1,4.875,13312,-40.0,865.7,1.5094371
40000000000000000000CC00,1,1477436997009849,1477436997009849,1,9.75,13312,-39.5,865.7,1.4603497
40000000000000000000CC00,1,1477436997017168,1477436997017168,1,0.0,13312,-39.5,865.7,1.4848934
40000000000000000000CC00,1,1477436997024188,1477436997024188,1,-0.8125,13312,-39.5,865.7,1.441942
40000000000000000000CC00,1,1477436997030898,1477436997030898,1,-1.625,13312,-39.5,865.7,1.4173982
40000000000000000000CC00,1,1477436997038128,1477436997038128,1,5.6875,13312,-39.5,865.7,1.2578642
40000000000000000000CC00,1,1477436997045112,1477436997045112,1,0.0,13312,-39.5,865.7,1.2210487
40000000000000000000CC00,1,1477436997051849,1477436997051849,1,3.25,13312,-39.5,865.7,1.0799224
40000000000000000000CC00,1,1477436997059130,1477436997059130,1,2.4375,13312,-39.5,865.7,0.9633399
40000000000000000000CC00,1,1477436997066084,1477436997066084,1,0.8125,13312,-39.5,865.7,0.8897089
40000000000000000000CC00,1,1477436997072789,1477436997072789,1,0.8125,13312,-40.0,865.7,0.77926224
40000000000000000000CC00,1,1477436997079735,1477436997079735,1,8.125,13312,-39.5,865.7,0.6565438
40000000000000000000CC00,1,1477436997086946,1477436997086946,1,3.25,13312,-39.5,865.7,0.6320001
40000000000000000000CC00,1,1477436997093696,1477436997093696,1,4.875,13312,-39.0,865.7,0.558369
40000000000000000000CC00,1,1477436997100674,1477436997100674,1,0.8125,13312,-39.0,865.7,0.5154175
40000000000000000000CC00,1,1477436997107886,1477436997107886,1,1.625,13312,-38.5,865.7,0.46633017
40000000000000000000CC00,1,1477436997114567,1477436997114567,1,0.8125,13312,-38.5,865.7,0.43565056
40000000000000000000CC00,1,1477436997121756,1477436997121756,1,0.8125,13312,-38.5,865.7,0.3926991
40000000000000000000CC00,1,1477436997128489,1477436997128489,1,-0.8125,13312,-38.0,865.7,0.34974763
40000000000000000000CC00,1,1477436997135491,1477436997135491,1,1.625,13312,-38.0,865.7,0.27611655
40000000000000000000CC00,1,1477436997142452,1477436997142452,1,4.875,13312,-38.0,865.7,0.22702916
40000000000000000000CC00,1,1477436997149705,1477436997149705,1,1.625,13312,-38.0,865.7,0.1840777
40000000000000000000CC00,1,1477436997156701,1477436997156701,1,1.625,13312,-37.5,865.7,0.12271846
40000000000000000000CC00,1,1477436997163745,1477436997163745,1,-3.25,13312,-37.5,865.7,0.09817477
40000000000000000000CC00,1,1477436997170717,1477436997170717,1,0.0,13312,-37.0,865.7,0.049087387
40000000000000000000CC00,1,1477436997177394,1477436997177394,1,-0.8125,13312,-37.0,865.7,0.03681554
40000000000000000000CC00,1,1477436997184411,1477436997184411,1,2.4375,13312,-37.0,865.7,6.2586417
40000000000000000000CC00,1,1477436997191588,1477436997191588,1,1.625,13312,-37.0,865.7,6.2709136
40000000000000000000CC00,1,1477436997198365,1477436997198365,1,3.25,13312,-37.0,865.7,6.221826
40000000000000000000CC00,1,1477436997205321,1477436997205321,1,-0.8125,13312,-37.0,865.7,6.24637
40000000000000000000CC00,1,1477436997212480,1477436997212480,1,-2.4375,13312,-36.5,865.7,6.227962
40000000000000000000CC00,1,1477436997219208,1477436997219208,1,5.6875,13312,-36.5,865.7,6.1604667
40000000000000000000CC00,1,1477436997226202,1477436997226202,1,-2.4375,13312,-36.5,865.7,6.1972823
40000000000000000000CC00,1,1477436997233193,1477436997233193,1,0.0,13312,-36.0,865.7,6.1727386
40000000000000000000CC00,1,1477436997240455,1477436997240455,1,-3.25,13312,-36.0,865.7,6.1911464
40000000000000000000CC00,1,1477436997247456,1477436997247456,1,5.6875,13312,-36.0,865.7,6.1236515
40000000000000000000CC00,1,1477436997254198,1477436997254198,1,0.8125,13312,-36.0,865.7,6.148195
40000000000000000000CC00,1,1477436997261129,1477436997261129,1,-4.875,13312,-35.5,865.7,6.1788745
40000000000000000000CC00,1,1477436997268088,1477436997268088,1,2.4375,13312,-35.5,865.7,6.142059
40000000000000000000CC00,1,1477436997275273,1477436997275273,1,-3.25,13312,-35.5,865.7,6.1788745
40000000000000000000CC00,1,1477436997282247,1477436997282247,1,1.625,13312,-35.0,865.7,6.148195
40000000000000000000CC00,1,1477436997288934,1477436997288934,1,5.6875,13312,-35.5,865.7,6.1297874
40000000000000000000CC00,1,1477436997295907,1477436997295907,1,1.625,13312,-35.5,865.7,6.142059
40000000000000000000CC00,1,1477436997303053,1477436997303053,1,6.5,13312,-35.5,865.7,6.1175156
40000000000000000000CC00,1,1477436997309744,1477436997309744,1,1.625,13312,-35.0,865.7,6.1236515
40000000000000000000CC00,1,1477436997316931,1477436997316931,1,1.625,13312,-35.0,865.7,6.1359234
40000000000000000000CC00,1,1477436997323848,1477436997323848,1,-3.25,13312,-35.0,865.7,6.148195
40000000000000000000CC00,1,1477436997330631,1477436997330631,1,3.25,13312,-35.0,865.7,6.092972
40000000000000000000CC00,1,1477436997337624,1477436997337624,1,4.875,13312,-35.0,865.7,6.0807
40000000000000000000CC00,1,1477436997344926,1477436997344926,1,3.25,13312,-34.5,865.7,6.074564
40000000000000000000CC00,1,1477436997351901,1477436997351901,1,2.4375,13312,-34.5,865.7,6.068428
40000000000000000000CC00,1,1477436997358634,1477436997358634,1,-0.8125,13312,-34.5,865.7,6.074564
40000000000000000000CC00,1,1477436997365596,1477436997365596,1,0.8125,13312,-34.5,865.7,6.0438843
40000000000000000000CC00,1,1477436997372652,1477436997372652,1,4.875,13312,-34.0,865.7,6.0377483
40000000000000000000CC00,1,1477436997379910,1477436997379910,1,4.875,13312,-34.0,865.7,6.0193405
40000000000000000000CC00,1,1477436997386647,1477436997386647,1,4.875,13312,-34.0,865.7,6.0070686
40000000000000000000CC00,1,1477436997393845,1477436997393845,1,-0.8125,13312,-34.0,865.7,6.0193405
40000000000000000000CC00,1,1477436997400844,1477436997400844,1,4.875,13312,-33.5,865.7,5.988661
40000000000000000000CC00,1,1477436997407565,1477436997407565,1,6.5,13312,-33.5,865.7,5.988661
40000000000000000000CC00,1,1477436997414735,1477436997414735,1,1.625,13312,-33.5,865.7,5.988661
40000000000000000000CC00,1,1477436997421492,1477436997421492,1,6.5,13312,-33.5,865.7,5.9457097
40000000000000000000CC00,1,1477436997428678,1477436997428678,1,0.8125,13312,-33.5,865.7,5.9579816
40000000000000000000CC00,1,1477436997435351,1477436997435351,1,3.25,13312,-33.0,865.7,5.933438
40000000000000000000CC00,1,1477436997442568,1477436997442568,1,0.8125,13312,-33.0,865.7,5.933438
40000000000000000000CC00,1,1477436997449360,1477436997449360,1,0.0,13312,-33.0,865.7,5.921166
40000000000000000000CC00,1,1477436997456278,1477436997456278,1,1.625,13312,-33.0,865.7,5.902758
40000000000000000000CC00,1,1477436997463209,1477436997463209,1,-2.4375,13312,-33.0,865.7,5.908894
40000000000000000000CC00,1,1477436997470406,1477436997470406,1,1.625,13312,-32.5,865.7,5.8598065
40000000000000000000CC00,1,1477436997477153,1477436997477153,1,3.25,13312,-32.5,865.7,5.829127
40000000000000000000CC00,1,1477436997484327,1477436997484327,1,3.25,13312,-32.0,865.7,5.822991
40000000000000000000CC00,1,1477436997491003,1477436997491003,1,0.8125,13312,-32.0,865.7,5.804583
40000000000000000000CC00,1,1477436997498277,1477436997498277,1,5.6875,13312,-32.0,865.7,5.755496
40000000000000000000CC00,1,1477436997505219,1477436997505219,1,0.8125,13312,-32.0,865.7,5.7861757
40000000000000000000CC00,1,1477436997512202,1477436997512202,1,1.625,13312,-32.0,865.7,5.743224
40000000000000000000CC00,1,1477436997518977,1477436997518977,1,-1.625,13312,-32.0,865.7,5.74936
40000000000000000000CC00,1,1477436997526210,1477436997526210,1,2.4375,13312,-31.5,865.7,5.7125444
40000000000000000000CC00,1,1477436997533020,1477436997533020,1,0.8125,13312,-31.5,865.7,5.7002726
40000000000000000000CC00,1,1477436997540077,1477436997540077,1,-0.8125,13312,-32.0,865.7,5.675729
40000000000000000000CC00,1,1477436997547085,1477436997547085,1,0.0,13312,-31.5,865.7,5.663457
40000000000000000000CC00,1,1477436997554142,1477436997554142,1,3.25,13312,-31.5,865.7,5.61437
40000000000000000000CC00,1,1477436997561347,1477436997561347,1,1.625,13312,-31.5,865.7,5.608234
40000000000000000000CC00,1,1477436997568281,1477436997568281,1,-1.625,13312,-31.0,865.7,5.602098
40000000000000000000CC00,1,1477436997574961,1477436997574961,1,-0.8125,13312,-31.0,865.7,5.577554
40000000000000000000CC00,1,1477436997581913,1477436997581913,1,0.8125,13312,-31.5,865.7,5.5407386
40000000000000000000CC00,1,1477436997588939,1477436997588939,1,0.8125,13312,-31.0,865.7,5.5223308
40000000000000000000CC00,1,1477436997596142,1477436997596142,1,-0.8125,13312,-31.0,865.7,5.5223308
40000000000000000000CC00,1,1477436997603095,1477436997603095,1,1.625,13312,-31.0,865.7,5.485515
40000000000000000000CC00,1,1477436997610075,1477436997610075,1,0.8125,13312,-31.0,865.7,5.485515
40000000000000000000CC00,1,1477436997616764,1477436997616764,1,-5.6875,13312,-30.5,865.7,5.491651
40000000000000000000CC00,1,1477436997623790,1477436997623790,1,0.0,13312,-31.0,865.7,5.442564
40000000000000000000CC00,1,1477436997630723,1477436997630723,1,2.4375,13312,-30.0,865.7,5.3996124
40000000000000000000CC00,1,1477436997637665,1477436997637665,1,-0.8125,13312,-30.0,865.7,5.3934765
40000000000000000000CC00,1,1477436997644874,1477436997644874,1,2.4375,13312,-30.0,865.7,5.350525
40000000000000000000CC00,1,1477436997651616,1477436997651616,1,3.25,13312,-30.0,865.7,5.332117
40000000000000000000CC00,1,1477436997658747,1477436997658747,1,2.4375,13312,-29.5,865.7,5.3075733
40000000000000000000CC00,1,1477436997665690,1477436997665690,1,2.4375,13312,-29.5,865.7,5.289166
40000000000000000000CC00,1,1477436997672662,1477436997672662,1,3.25,13312,-29.5,865.7,5.270758
40000000000000000000CC00,1,1477436997679367,1477436997679367,1,0.8125,13312,-29.5,865.7,5.2523503
40000000000000000000CC00,1,1477436997686604,1477436997686604,1,4.875,13312,-29.5,865.7,5.2278066
40000000000000000000CC00,1,1477436997693572,1477436997693572,1,0.8125,13312,-29.0,865.7,5.2339425
40000000000000000000CC00,1,1477436997700307,1477436997700307,1,4.875,13312,-29.0,865.7,5.190991
40000000000000000000CC00,1,1477436997707519,1477436997707519,1,3.25,13312,-29.0,865.7,5.172583
40000000000000000000CC00,1,1477436997714193,1477436997714193,1,2.4375,13312,-29.0,865.7,5.172583
40000000000000000000CC00,1,1477436997721162,1477436997721162,1,1.625,13312,-28.5,865.7,5.1541753
40000000000000000000CC00,1,1477436997728387,1477436997728387,1,0.8125,13312,-29.0,865.7,5.1541753
40000000000000000000CC00,1,1477436997735079,1477436997735079,1,3.25,13312,-28.5,865.7,5.1357675
40000000000000000000CC00,1,1477436997742004,1477436997742004,1,0.8125,13312,-28.5,865.7,5.1419034
40000000000000000000CC00,1,1477436997749052,1477436997749052,1,3.25,13312,-29.0,865.7,5.111224
40000000000000000000CC00,1,1477436997756008,1477436997756008,1,4.875,13312,-29.0,865.7,5.105088
40000000000000000000CC00,1,1477436997763157,1477436997763157,1,1.625,13312,-28.5,865.7,5.11736
40000000000000000000CC00,1,1477436997883902,1477436997883902,1,0.8125,13312,-28.5,865.7,5.049865
40000000000000000000CC00,1,1477436997891192,1477436997891192,1,2.4375,13312,-28.5,865.7,5.043729
40000000000000000000CC00,1,1477436997898199,1477436997898199,1,0.0,13312,-28.5,865.7,5.049865
40000000000000000000CC00,1,1477436997904945,1477436997904945,1,1.625,13312,-28.5,865.7,5.043729
40000000000000000000CC00,1,1477436997911902,1477436997911902,1,-0.8125,13312,-28.5,865.7,5.049865
40000000000000000000CC00,1,1477436997918871,1477436997918871,1,2.4375,13312,-28.0,865.7,5.037593
40000000000000000000CC00,1,1477436997925827,1477436997925827,1,0.8125,13312,-28.5,865.7,5.037593
40000000000000000000CC00,1,1477436997933059,1477436997933059,1,0.8125,13312,-28.5,865.7,5.031457
40000000000000000000CC00,1,1477436997939719,1477436997939719,1,0.0,13312,-28.5,865.7,5.037593
40000000000000000000CC00,1,1477436997946967,1477436997946967,1,0.0,13312,-28.5,865.7,5.037593
40000000000000000000CC00,1,1477436997953654,1477436997953654,1,0.8125,13312,-28.0,865.7,5.025321
40000000000000000000CC00,1,1477436997960869,1477436997960869,1,2.4375,13312,-28.5,865.7,5.006913
40000000000000000000CC00,1,1477436997967527,1477436997967527,1,1.625,13312,-28.0,865.7,5.006913
40000000000000000000CC00,1,1477436997974454,1477436997974454,1,-0.8125,13312,-28.0,865.7,5.019185
40000000000000000000CC00,1,1477436997981344,1477436997981344,1,0.8125,13312,-28.0,865.7,5.006913
40000000000000000000CC00,1,1477436997988500,1477436997988500,1,-1.625,13312,-28.5,865.7,5.013049
40000000000000000000CC00,1,1477436997995412,1477436997995412,1,-0.8125,13312,-28.0,865.7,4.9885054
40000000000000000000CC00,1,1477436998002139,1477436998002139,1,-0.8125,13312,-28.0,865.7,4.9823694
40000000000000000000CC00,1,1477436998009128,1477436998009128,1,1.625,13312,-28.0,865.7,4.957826
40000000000000000000CC00,1,1477436998016068,1477436998016068,1,0.8125,13312,-28.5,865.7,4.95169
40000000000000000000CC00,1,1477436998023396,1477436998023396,1,0.8125,13312,-28.0,865.7,4.9455543
40000000000000000000CC00,1,1477436998030454,1477436998030454,1,1.625,13312,-28.0,865.7,4.9210105
40000000000000000000CC00,1,1477436998037364,1477436998037364,1,-0.8125,13312,-28.0,865.7,4.9271464
40000000000000000000CC00,1,1477436998044115,1477436998044115,1,-3.25,13312,-28.0,865.7,4.9332824
40000000000000000000CC00,1,1477436998051271,1477436998051271,1,0.0,13312,-28.0,865.7,4.8964667
40000000000000000000CC00,1,1477436998057973,1477436998057973,1,0.8125,13312,-28.0,865.7,4.890331
40000000000000000000CC00,1,1477436998065173,1477436998065173,1,-1.625,13312,-28.0,865.7,4.884195
40000000000000000000CC00,1,1477436998071911,1477436998071911,1,-0.8125,13312,-28.0,865.7,4.878059
40000000000000000000CC00,1,1477436998079151,1477436998079151,1,-3.25,13312,-28.5,865.7,4.865787
40000000000000000000CC00,1,1477436998086132,1477436998086132,1,2.4375,13312,-28.0,865.7,4.8289714
40000000000000000000CC00,1,1477436998093031,1477436998093031,1,-0.8125,13312,-28.0,865.7,4.8412433
40000000000000000000CC00,1,1477436998099976,1477436998099976,1,0.8125,13312,-28.0,865.7,4.8289714
40000000000000000000CC00,1,1477436998106923,1477436998106923,1,-2.4375,13312,-28.0,865.7,4.8289714
40000000000000000000CC00,1,1477436998113956,1477436998113956,1,0.0,13312,-28.5,865.7,4.8105636
40000000000000000000CC00,1,1477436998120897,1477436998120897,1,-4.875,13312,-28.0,865.7,4.8351073
40000000000000000000CC00,1,1477436998127611,1477436998127611,1,-0.8125,13312,-28.0,865.7,4.8044276
40000000000000000000CC00,1,1477436998134542,1477436998134542,1,0.8125,13312,-28.0,865.7,4.7860203
40000000000000000000CC00,1,1477436998141772,1477436998141772,1,0.8125,13312,-28.0,865.7,4.7676125
40000000000000000000CC00,1,1477436998148471,1477436998148471,1,0.0,13312,-28.0,865.7,4.7737484
40000000000000000000CC00,1,1477436998155636,1477436998155636,1,1.625,13312,-28.0,865.7,4.7614765
40000000000000000000CC00,1,1477436998162540,1477436998162540,1,-3.25,13312,-28.0,865.7,4.7860203
40000000000000000000CC00,1,1477436998169285,1477436998169285,1,-1.625,13312,-28.0,865.7,4.7676125
40000000000000000000CC00,1,1477436998176475,1477436998176475,1,0.0,13312,-28.0,865.7,4.7492046
40000000000000000000CC00,1,1477436998183423,1477436998183423,1,-2.4375,13312,-28.0,865.7,4.7614765
40000000000000000000CC00,1,1477436998190095,1477436998190095,1,0.8125,13312,-28.5,865.7,4.7369328
40000000000000000000CC00,1,1477436998197279,1477436998197279,1,2.4375,13312,-28.0,865.7,4.718525
40000000000000000000CC00,1,1477436998204233,1477436998204233,1,-0.8125,13312,-28.0,865.7,4.730797
40000000000000000000CC00,1,1477436998210932,1477436998210932,1,0.8125,13312,-28.5,865.7,4.724661
40000000000000000000CC00,1,1477436998218230,1477436998218230,1,-1.625,13312,-28.0,865.7,4.724661
40000000000000000000CC00,1,1477436998225278,1477436998225278,1,-0.8125,13312,-28.0,865.7,4.724661
40000000000000000000CC00,1,1477436998232184,1477436998232184,1,0.0,13312,-28.0,865.7,4.712389
40000000000000000000CC00,1,1477436998238844,1477436998238844,1,0.8125,13312,-28.0,865.7,4.712389
40000000000000000000CC00,1,1477436998245744,1477436998245744,1,-0.8125,13312,-28.5,865.7,4.712389
40000000000000000000CC00,1,1477436998253065,1477436998253065,1,0.8125,13312,-28.5,865.7,4.687845
40000000000000000000CC00,1,1477436998260000,1477436998260000,1,1.625,13312,-28.5,865.7,4.693981
40000000000000000000CC00,1,1477436998266956,1477436998266956,1,-6.5,13312,-28.5,865.7,4.7369328
40000000000000000000CC00,1,1477436998273702,1477436998273702,1,1.625,13312,-28.5,865.7,4.6817093
40000000000000000000CC00,1,1477436998280613,1477436998280613,1,-0.8125,13312,-28.5,865.7,4.700117
40000000000000000000CC00,1,1477436998287838,1477436998287838,1,-3.25,13312,-28.5,865.7,4.712389
40000000000000000000CC00,1,1477436998294549,1477436998294549,1,4.875,13312,-28.5,865.7,4.6571655
40000000000000000000CC00,1,1477436998301767,1477436998301767,1,-0.8125,13312,-28.5,865.7,4.687845
40000000000000000000CC00,1,1477436998308668,1477436998308668,1,0.0,13312,-28.0,865.7,4.6755733
40000000000000000000CC00,1,1477436998315713,1477436998315713,1,0.0,13312,-28.0,865.7,4.6694374
40000000000000000000CC00,1,1477436998322796,1477436998322796,1,-3.25,13312,-28.0,865.7,4.687845
40000000000000000000CC00,1,1477436998329722,1477436998329722,1,-3.25,13312,-28.0,865.7,4.6755733
40000000000000000000CC00,1,1477436998336691,1477436998336691,1,-0.8125,13312,-28.0,865.7,4.6571655
40000000000000000000CC00,1,1477436998343625,1477436998343625,1,-1.625,13312,-28.0,865.7,4.6571655
40000000000000000000CC00,1,1477436998350371,1477436998350371,1,-2.4375,13312,-28.0,865.7,4.6510296
40000000000000000000CC00,1,1477436998357675,1477436998357675,1,-3.25,13312,-28.0,865.7,4.6510296
40000000000000000000CC00,1,1477436998364390,1477436998364390,1,-3.25,13312,-28.0,865.7,4.6448936
40000000000000000000CC00,1,1477436998371532,1477436998371532,1,-2.4375,13312,-28.0,865.7,4.626486
40000000000000000000CC00,1,1477436998378233,1477436998378233,1,0.0,13312,-28.0,865.7,4.6080785
40000000000000000000CC00,1,1477436998385414,1477436998385414,1,-2.4375,13312,-28.0,865.7,4.6080785
40000000000000000000CC00,1,1477436998392098,1477436998392098,1,-0.8125,13312,-28.0,865.7,4.5958066
40000000000000000000CC00,1,1477436998399075,1477436998399075,1,-4.875,13312,-28.0,865.7,4.5896707
40000000000000000000CC00,1,1477436998406276,1477436998406276,1,-1.625,13312,-27.5,865.7,4.558991
40000000000000000000CC00,1,1477436998413178,1477436998413178,1,-0.8125,13312,-28.0,865.7,4.546719
40000000000000000000CC00,1,1477436998420144,1477436998420144,1,0.0,13312,-27.5,865.7,4.5283113
40000000000000000000CC00,1,1477436998426879,1477436998426879,1,-0.8125,13312,-27.5,865.7,4.5099034
40000000000000000000CC00,1,1477436998434110,1477436998434110,1,-0.8125,13312,-27.5,865.7,4.5037675
40000000000000000000CC00,1,1477436998440829,1477436998440829,1,1.625,13312,-27.5,865.7,4.4792237
40000000000000000000CC00,1,1477436998448084,1477436998448084,1,0.8125,13312,-27.5,865.7,4.473088
40000000000000000000CC00,1,1477436998454808,1477436998454808,1,1.625,13312,-27.5,865.7,4.4546804
40000000000000000000CC00,1,1477436998461731,1477436998461731,1,0.0,13312,-27.5,865.7,4.4546804
40000000000000000000CC00,1,1477436998468692,1477436998468692,1,1.625,13312,-27.5,865.7,4.4362726
40000000000000000000CC00,1,1477436998475905,1477436998475905,1,-1.625,13312,-27.5,865.7,4.4424086
40000000000000000000CC00,1,1477436998482650,1477436998482650,1,4.875,13312,-27.5,865.7,4.411729
40000000000000000000CC00,1,1477436998489857,1477436998489857,1,1.625,13312,-27.5,865.7,4.405593
40000000000000000000CC00,1,1477436998496527,1477436998496527,1,-0.8125,13312,-27.5,865.7,4.4240007
40000000000000000000CC00,1,1477436998503457,1477436998503457,1,1.625,13312,-27.5,865.7,4.417865
40000000000000000000CC00,1,1477436998510415,1477436998510415,1,-1.625,13312,-27.5,865.7,4.417865
40000000000000000000CC00,1,1477436998517657,1477436998517657,1,0.8125,13312,-27.5,865.7,4.399457
40000000000000000000CC00,1,1477436998524331,1477436998524331,1,0.0,13312,-27.5,865.7,4.399457
40000000000000000000CC00,1,1477436998531263,1477436998531263,1,-2.4375,13312,-27.5,865.7,4.411729
40000000000000000000CC00,1,1477436998538224,1477436998538224,1,-2.4375,13312,-27.5,865.7,4.393321
40000000000000000000CC00,1,1477436998545586,1477436998545586,1,-2.4375,13312,-27.5,865.7,4.387185
40000000000000000000CC00,1,1477436998552437,1477436998552437,1,0.0,13312,-27.5,865.7,4.3626413
40000000000000000000CC00,1,1477436998559482,1477436998559482,1,-0.8125,13312,-27.5,865.7,4.3565054
40000000000000000000CC00,1,1477436998566831,1477436998566831,1,0.0,13312,-27.5,865.7,4.3442335
40000000000000000000CC00,1,1477436998573665,1477436998573665,1,-2.4375,13312,-27.5,865.7,4.3380976
40000000000000000000CC00,1,1477436998580686,1477436998580686,1,-1.625,13312,-27.5,865.7,4.313554
40000000000000000000CC00,1,1477436998587749,1477436998587749,1,0.0,13312,-27.5,865.7,4.301282
40000000000000000000CC00,1,1477436998594822,1477436998594822,1,2.4375,13312,-27.5,865.7,4.258331
40000000000000000000CC00,1,1477436998601899,1477436998601899,1,0.0,13312,-27.5,865.7,4.252195
40000000000000000000CC00,1,1477436998609155,1477436998609155,1,0.8125,13312,-27.5,865.7,4.233787
40000000000000000000CC00,1,1477436998616199,1477436998616199,1,-0.8125,13312,-27.5,865.7,4.227651
40000000000000000000CC00,1,1477436998623228,1477436998623228,1,0.0,13312,-27.5,865.7,4.2031074
40000000000000000000CC00,1,1477436998630250,1477436998630250,1,0.8125,13312,-27.5,865.7,4.1724277
40000000000000000000CC00,1,1477436998637342,1477436998637342,1,-0.8125,13312,-27.5,865.7,4.1785636
40000000000000000000CC00,1,1477436998644094,1477436998644094,1,-0.8125,13312,-27.5,865.7,4.1662917
40000000000000000000CC00,1,1477436998651373,1477436998651373,1,-1.625,13312,-27.5,865.7,4.160156
40000000000000000000CC00,1,1477436998658498,1477436998658498,1,0.0,13312,-27.5,865.7,4.141748
40000000000000000000CC00,1,1477436998665583,1477436998665583,1,0.0,13312,-27.5,865.7,4.141748
40000000000000000000CC00,1,1477436998673558,1477436998673558,1,0.8125,13312,-27.5,865.7,4.1172047
40000000000000000000CC00,1,1477436998680796,1477436998680796,1,1.625,13312,-27.5,865.7,4.12334
40000000000000000000CC00,1,1477436998687848,1477436998687848,1,2.4375,13312,-27.5,865.7,4.1172047
40000000000000000000CC00,1,1477436998694940,1477436998694940,1,-0.8125,13312,-27.5,865.7,4.129476
40000000000000000000CC00,1,1477436998701693,1477436998701693,1,0.0,13312,-27.5,865.7,4.12334
40000000000000000000CC00,1,1477436998709018,1477436998709018,1,-0.8125,13312,-27.5,865.7,4.129476
40000000000000000000CC00,1,1477436998716068,1477436998716068,1,-2.4375,13312,-27.5,865.7,4.129476
40000000000000000000CC00,1,1477436998722986,1477436998722986,1,0.8125,13312,-28.0,865.7,4.1110687
40000000000000000000CC00,1,1477436998730003,1477436998730003,1,2.4375,13312,-27.5,865.7,4.1110687
40000000000000000000CC00,1,1477436998737190,1477436998737190,1,-2.4375,13312,-27.5,865.7,4.135612
40000000000000000000CC00,1,1477436998744107,1477436998744107,1,0.0,13312,-27.5,865.7,4.1172047
40000000000000000000CC00,1,1477436998750786,1477436998750786,1,0.8125,13312,-27.5,865.7,4.135612
40000000000000000000CC00,1,1477436998757812,1477436998757812,1,-1.625,13312,-27.5,865.7,4.135612
40000000000000000000CC00,1,1477436998764940,1477436998764940,1,2.4375,13312,-27.5,865.7,4.1110687
40000000000000000000CC00,1,1477436998771702,1477436998771702,1,0.0,13312,-27.5,865.7,4.129476
40000000000000000000CC00,1,1477436998778662,1477436998778662,1,-0.8125,13312,-27.5,865.7,4.141748
40000000000000000000CC00,1,1477436998785900,1477436998785900,1,-0.8125,13312,-27.5,865.7,4.141748
40000000000000000000CC00,1,1477436998792941,1477436998792941,1,0.8125,13312,-27.5,865.7,4.135612
40000000000000000000CC00,1,1477436998799856,1477436998799856,1,0.8125,13312,-27.5,865.7,4.141748
40000000000000000000CC00,1,1477436998806845,1477436998806845,1,2.4375,13312,-27.5,865.7,4.135612
40000000000000000000CC00,1,1477436998813592,1477436998813592,1,-1.625,13312,-27.5,865.7,4.15402
40000000000000000000CC00,1,1477436998820774,1477436998820774,1,0.0,13312,-27.5,865.7,4.147884
40000000000000000000CC00,1,1477436998827446,1477436998827446,1,0.0,13312,-27.5,865.7,4.15402
40000000000000000000CC00,1,1477436998834620,1477436998834620,1,-1.625,13312,-27.5,865.7,4.160156
40000000000000000000CC00,1,1477436998841320,1477436998841320,1,-0.8125,13312,-27.5,865.7,4.15402
40000000000000000000CC00,1,1477436998848589,1477436998848589,1,0.8125,13312,-27.5,865.7,4.15402
40000000000000000000CC00,1,1477436998855540,1477436998855540,1,-2.4375,13312,-27.5,865.7,4.1662917
40000000000000000000CC00,1,1477436998862209,1477436998862209,1,-1.625,13312,-27.5,865.7,4.1662917
40000000000000000000CC00,1,1477436998869459,1477436998869459,1,2.4375,13312,-27.5,865.7,4.141748
40000000000000000000CC00,1,1477436998876164,1477436998876164,1,-2.4375,13312,-27.5,865.7,4.1724277
40000000000000000000CC00,1,1477436998883151,1477436998883151,1,-1.625,13312,-27.5,865.7,4.1724277
40000000000000000000CC00,1,1477436998890314,1477436998890314,1,-1.625,13312,-27.5,865.7,4.1662917
40000000000000000000CC00,1,1477436998897305,1477436998897305,1,0.8125,13312,-27.5,865.7,4.160156
40000000000000000000CC00,1,1477436998903956,1477436998903956,1,-0.8125,13312,-27.5,865.7,4.1662917
40000000000000000000CC00,1,1477436998911164,1477436998911164,1,0.0,13312,-27.5,865.7,4.160156
40000000000000000000CC00,1,1477436998917839,1477436998917839,1,1.625,13312,-27.5,865.7,4.15402
40000000000000000000CC00,1,1477436998924813,1477436998924813,1,1.625,13312,-27.5,865.7,4.147884
40000000000000000000CC00,1,1477436998932020,1477436998932020,1,0.0,13312,-27.5,865.7,4.160156
40000000000000000000CC00,1,1477436998938795,1477436998938795,1,0.8125,13312,-27.5,865.7,4.15402
40000000000000000000CC00,1,1477436998945771,1477436998945771,1,0.0,13312,-27.5,865.7,4.160156
40000000000000000000CC00,1,1477436998952801,1477436998952801,1,0.8125,13312,-27.5,865.7,4.15402
40000000000000000000CC00,1,1477436998959730,1477436998959730,1,-1.625,13312,-27.5,865.7,4.1724277
40000000000000000000CC00,1,1477436998966746,1477436998966746,1,-1.625,13312,-27.5,865.7,4.1724277
40000000000000000000CC00,1,1477436998973972,1477436998973972,1,1.625,13312,-27.5,865.7,4.1662917
40000000000000000000CC00,1,1477436998980679,1477436998980679,1,1.625,13312,-27.5,865.7,4.160156
40000000000000000000CC00,1,1477436998987805,1477436998987805,1,0.0,13312,-27.5,865.7,4.1785636
40000000000000000000CC00,1,1477436998994762,1477436998994762,1,0.8125,13312,-27.5,865.7,4.1724277
40000000000000000000CC00,1,1477436999001434,1477436999001434,1,1.625,13312,-27.5,865.7,4.1785636
40000000000000000000CC00,1,1477436999008602,1477436999008602,1,0.8125,13312,-27.5,865.7,4.1846995
40000000000000000000CC00,1,1477436999015319,1477436999015319,1,2.4375,13312,-27.5,865.7,4.1846995
40000000000000000000CC00,1,1477436999022204,1477436999022204,1,1.625,13312,-27.5,865.7,4.2031074
40000000000000000000CC00,1,1477436999029421,1477436999029421,1,0.8125,13312,-27.5,865.7,4.2092433
40000000000000000000CC00,1,1477436999036481,1477436999036481,1,3.25,13312,-27.5,865.7,4.2031074
40000000000000000000CC00,1,1477436999043242,1477436999043242,1,1.625,13312,-27.5,865.7,4.221515
40000000000000000000CC00,1,1477436999050198,1477436999050198,1,0.8125,13312,-27.5,865.7,4.239923
40000000000000000000CC00,1,1477436999057510,1477436999057510,1,-0.8125,13312,-27.5,865.7,4.264467
40000000000000000000CC00,1,1477436999064523,1477436999064523,1,2.4375,13312,-27.5,865.7,4.2706027
40000000000000000000CC00,1,1477436999071253,1477436999071253,1,0.0,13312,-27.5,865.7,4.313554
40000000000000000000CC00,1,1477436999078499,1477436999078499,1,0.8125,13312,-27.5,865.7,4.3380976
40000000000000000000CC00,1,1477436999085202,1477436999085202,1,0.0,13312,-27.5,865.7,4.3687773
40000000000000000000CC00,1,1477436999092436,1477436999092436,1,2.4375,13312,-27.5,865.7,4.381049
40000000000000000000CC00,1,1477436999099125,1477436999099125,1,0.0,13312,-27.5,865.7,4.4362726
40000000000000000000CC00,1,1477436999106117,1477436999106117,1,1.625,13312,-27.5,865.7,4.460816
40000000000000000000CC00,1,1477436999113355,1477436999113355,1,0.0,13312,-27.5,865.7,4.5160394
40000000000000000000CC00,1,1477436999120315,1477436999120315,1,0.0,13312,-27.5,865.7,4.558991
40000000000000000000CC00,1,1477436999127284,1477436999127284,1,0.0,13312,-28.0,865.7,4.626486
40000000000000000000CC00,1,1477436999133937,1477436999133937,1,-0.8125,13312,-28.0,865.7,4.687845
40000000000000000000CC00,1,1477436999141112,1477436999141112,1,1.625,13312,-28.0,865.7,4.730797
40000000000000000000CC00,1,1477436999148096,1477436999148096,1,0.0,13312,-28.0,865.7,4.8166995
40000000000000000000CC00,1,1477436999155087,1477436999155087,1,3.25,13312,-28.0,865.7,4.878059
40000000000000000000CC00,1,1477436999162014,1477436999162014,1,2.4375,13312,-27.5,865.7,4.9394183
40000000000000000000CC00,1,1477436999168954,1477436999168954,1,4.875,13312,-28.0,865.7,4.9823694
40000000000000000000CC00,1,1477436999175719,1477436999175719,1,1.625,13312,-27.5,865.7,5.043729
40000000000000000000CC00,1,1477436999183027,1477436999183027,1,4.875,13312,-27.5,865.7,5.0621367
40000000000000000000CC00,1,1477436999189688,1477436999189688,1,-0.8125,13312,-27.5,865.7,5.11736
40000000000000000000CC00,1,1477436999196913,1477436999196913,1,3.25,13312,-28.0,865.7,5.1296315
40000000000000000000CC00,1,1477436999203921,1477436999203921,1,0.8125,13312,-28.0,865.7,5.172583
40000000000000000000CC00,1,1477436999210913,1477436999210913,1,3.25,13312,-28.0,865.7,5.203263
40000000000000000000CC00,1,1477436999217893,1477436999217893,1,1.625,13312,-28.0,865.7,5.270758
40000000000000000000CC00,1,1477436999224645,1477436999224645,1,0.0,13312,-28.5,865.7,5.332117
40000000000000000000CC00,1,1477436999231954,1477436999231954,1,0.8125,13312,-29.0,865.7,5.3934765
40000000000000000000CC00,1,1477436999238870,1477436999238870,1,1.625,13312,-29.5,865.7,5.4487
40000000000000000000CC00,1,1477436999245596,1477436999245596,1,0.8125,13312,-29.5,865.7,5.503923
40000000000000000000CC00,1,1477436999252858,1477436999252858,1,0.8125,13312,-29.5,865.7,5.5468745
40000000000000000000CC00,1,1477436999259761,1477436999259761,1,5.6875,13312,-29.5,865.7,5.5652823
40000000000000000000CC00,1,1477436999266763,1477436999266763,1,0.8125,13312,-29.5,865.7,5.620506
40000000000000000000CC00,1,1477436999273472,1477436999273472,1,1.625,13312,-29.5,865.7,5.651185
40000000000000000000CC00,1,1477436999280630,1477436999280630,1,0.0,13312,-29.5,865.7,5.6818647
40000000000000000000CC00,1,1477436999287486,1477436999287486,1,0.8125,13312,-29.5,865.7,5.7064085
40000000000000000000CC00,1,1477436999294203,1477436999294203,1,0.8125,13312,-29.5,865.7,5.7309523
40000000000000000000CC00,1,1477436999301359,1477436999301359,1,0.0,13312,-30.0,865.7,5.737088
40000000000000000000CC00,1,1477436999308073,1477436999308073,1,-0.8125,13312,-29.5,865.7,5.773904
40000000000000000000CC00,1,1477436999315284,1477436999315284,1,0.8125,13312,-29.5,865.7,5.78004
40000000000000000000CC00,1,1477436999322254,1477436999322254,1,-0.8125,13312,-30.0,865.7,5.810719
40000000000000000000CC00,1,1477436999329179,1477436999329179,1,0.0,13312,-30.0,865.7,5.829127
40000000000000000000CC00,1,1477436999335843,1477436999335843,1,-0.8125,13312,-30.0,865.7,5.8475347
40000000000000000000CC00,1,1477436999342861,1477436999342861,1,1.625,13312,-30.0,865.7,5.8598065
40000000000000000000CC00,1,1477436999350092,1477436999350092,1,0.8125,13312,-30.0,865.7,5.8782144
40000000000000000000CC00,1,1477436999357031,1477436999357031,1,0.0,13312,-30.5,865.7,5.902758
40000000000000000000CC00,1,1477436999363757,1477436999363757,1,-0.8125,13312,-30.5,865.7,5.933438
40000000000000000000CC00,1,1477436999370973,1477436999370973,1,-2.4375,13312,-30.5,865.7,5.970253
40000000000000000000CC00,1,1477436999377619,1477436999377619,1,-1.625,13312,-30.5,865.7,5.976389
40000000000000000000CC00,1,1477436999384648,1477436999384648,1,-1.625,13312,-31.0,865.7,5.988661
40000000000000000000CC00,1,1477436999391818,1477436999391818,1,-2.4375,13312,-31.0,865.7,6.0254765
40000000000000000000CC00,1,1477436999398808,1477436999398808,1,1.625,13312,-31.0,865.7,6.0193405
40000000000000000000CC00,1,1477436999405516,1477436999405516,1,1.625,13312,-31.5,865.7,6.0377483
40000000000000000000CC00,1,1477436999412761,1477436999412761,1,-0.8125,13312,-31.5,865.7,6.068428
40000000000000000000CC00,1,1477436999419488,1477436999419488,1,0.8125,13312,-31.5,865.7,6.068428
40000000000000000000CC00,1,1477436999426657,1477436999426657,1,-0.8125,13312,-32.0,865.7,6.086836
40000000000000000000CC00,1,1477436999433620,1477436999433620,1,-2.4375,13312,-32.0,865.7,6.1175156
40000000000000000000CC00,1,1477436999440321,1477436999440321,1,0.0,13312,-32.0,865.7,6.1113796
40000000000000000000CC00,1,1477436999447554,1477436999447554,1,-1.625,13312,-32.0,865.7,6.1359234
40000000000000000000CC00,1,1477436999454252,1477436999454252,1,-0.8125,13312,-32.0,865.7,6.142059
40000000000000000000CC00,1,1477436999461183,1477436999461183,1,-1.625,13312,-32.0,865.7,6.148195
40000000000000000000CC00,1,1477436999468345,1477436999468345,1,-3.25,13312,-32.0,865.7,6.1727386
40000000000000000000CC00,1,1477436999475087,1477436999475087,1,-3.25,13312,-32.5,865.7,6.1727386
40000000000000000000CC00,1,1477436999482325,1477436999482325,1,-2.4375,13312,-32.0,865.7,6.1727386
40000000000000000000CC00,1,1477436999489055,1477436999489055,1,-2.4375,13312,-32.0,865.7,6.1850104
40000000000000000000CC00,1,1477436999496199,1477436999496199,1,-3.25,13312,-32.0,865.7,6.1972823
40000000000000000000CC00,1,1477436999502931,1477436999502931,1,-5.6875,13312,-32.5,865.7,6.209554
40000000000000000000CC00,1,1477436999509923,1477436999509923,1,-2.4375,13312,-32.5,865.7,6.209554
40000000000000000000CC00,1,1477436999516914,1477436999516914,1,-5.6875,13312,-32.5,865.7,6.227962
40000000000000000000CC00,1,1477436999523917,1477436999523917,1,-6.5,13312,-32.5,865.7,6.234098
40000000000000000000CC00,1,1477436999530841,1477436999530841,1,-2.4375,13312,-33.0,865.7,6.21569
40000000000000000000CC00,1,1477436999537998,1477436999537998,1,-4.875,13312,-33.0,865.7,6.227962
40000000000000000000CC00,1,1477436999544776,1477436999544776,1,-2.4375,13312,-32.5,865.7,6.221826
40000000000000000000CC00,1,1477436999551684,1477436999551684,1,-0.8125,13312,-32.5,865.7,6.21569
40000000000000000000CC00,1,1477436999558855,1477436999558855,1,-8.125,13312,-32.5,865.7,6.2586417
40000000000000000000CC00,1,1477436999565784,1477436999565784,1,-3.25,13312,-32.5,865.7,6.240234
40000000000000000000CC00,1,1477436999572578,1477436999572578,1,-0.8125,13312,-32.5,865.7,6.227962
40000000000000000000CC00,1,1477436999579819,1477436999579819,1,-4.875,13312,-33.0,865.7,6.2586417
40000000000000000000CC00,1,1477436999586511,1477436999586511,1,-1.625,13312,-33.0,865.7,6.240234
40000000000000000000CC00,1,1477436999593427,1477436999593427,1,-3.25,13312,-33.0,865.7,6.252506
40000000000000000000CC00,1,1477436999600579,1477436999600579,1,0.0,13312,-33.0,865.7,6.227962
40000000000000000000CC00,1,1477436999607256,1477436999607256,1,-1.625,13312,-33.0,865.7,6.24637
40000000000000000000CC00,1,1477436999614411,1477436999614411,1,-3.25,13312,-33.0,865.7,6.2647777
40000000000000000000CC00,1,1477436999621070,1477436999621070,1,-2.4375,13312,-33.5,865.7,6.240234
40000000000000000000CC00,1,1477436999627971,1477436999627971,1,-2.4375,13312,-33.0,865.7,6.24637
40000000000000000000CC00,1,1477436999634867,1477436999634867,1,-0.8125,13312,-33.5,865.7,6.24637
40000000000000000000CC00,1,1477436999641756,1477436999641756,1,0.0,13312,-33.5,865.7,6.227962
40000000000000000000CC00,1,1477436999648741,1477436999648741,1,-3.25,13312,-33.5,865.7,6.2586417
40000000000000000000CC00,1,1477436999655913,1477436999655913,1,0.8125,13312,-33.5,865.7,6.227962
40000000000000000000CC00,1,1477436999662944,1477436999662944,1,4.875,13312,-34.0,865.7,6.21569
40000000000000000000CC00,1,1477436999669635,1477436999669635,1,2.4375,13312,-33.5,865.7,6.234098
40000000000000000000CC00,1,1477436999676567,1477436999676567,1,1.625,13312,-34.0,865.7,6.252506
40000000000000000000CC00,1,1477436999683550,1477436999683550,1,-0.8125,13312,-34.0,865.7,6.2709136
40000000000000000000CC00,1,1477436999690477,1477436999690477,1,0.0,13312,-34.0,865.7,6.2647777
40000000000000000000CC00,1,1477436999697624,1477436999697624,1,0.0,13312,-34.5,865.7,6.2647777
40000000000000000000CC00,1,1477436999704570,1477436999704570,1,-1.625,13312,-34.0,865.7,0.012271847
40000000000000000000CC00,1,1477436999711229,1477436999711229,1,-0.8125,13312,-34.5,865.7,0.012271847
40000000000000000000CC00,1,1477436999718400,1477436999718400,1,0.0,13312,-34.5,865.7,0.012271847
40000000000000000000CC00,1,1477436999725372,1477436999725372,1,0.0,13312,-34.5,865.7,0.024543693
40000000000000000000CC00,1,1477436999732322,1477436999732322,1,0.0,13312,-34.5,865.7,0.024543693
40000000000000000000CC00,1,1477436999739021,1477436999739021,1,4.875,13312,-34.5,865.7,0.024543693
40000000000000000000CC00,1,1477436999746229,1477436999746229,1,-1.625,13312,-34.5,865.7,0.049087387
40000000000000000000CC00,1,1477436999753146,1477436999753146,1,0.8125,13312,-35.0,865.7,0.05522331
40000000000000000000CC00,1,1477436999760092,1477436999760092,1,0.8125,13312,-35.0,865.7,0.049087387
40000000000000000000CC00,1,1477436999766805,1477436999766805,1,0.8125,13312,-35.0,865.7,0.06135923
40000000000000000000CC00,1,1477436999773784,1477436999773784,1,2.4375,13312,-35.0,865.7,0.06135923
40000000000000000000CC00,1,1477436999780728,1477436999780728,1,0.0,13312,-35.0,865.7,0.07363108
40000000000000000000CC00,1,1477436999787914,1477436999787914,1,2.4375,13312,-35.5,865.7,0.06135923
40000000000000000000CC00,1,1477436999794915,1477436999794915,1,2.4375,13312,-35.5,865.7,0.06135923
40000000000000000000CC00,1,1477436999801860,1477436999801860,1,0.8125,13312,-36.0,865.7,0.08590292
40000000000000000000CC00,1,1477436999808760,1477436999808760,1,2.4375,13312,-35.5,865.7,0.09203885
40000000000000000000CC00,1,1477436999815729,1477436999815729,1,1.625,13312,-36.0,865.7,0.09203885
40000000000000000000CC00,1,1477436999822405,1477436999822405,1,2.4375,13312,-36.5,865.7,0.09203885
40000000000000000000CC00,1,1477436999829646,1477436999829646,1,4.875,13312,-36.0,865.7,0.09203885
40000000000000000000CC00,1,1477436999836322,1477436999836322,1,-0.8125,13312,-36.0,865.7,0.12885438
40000000000000000000CC00,1,1477436999843584,1477436999843584,1,3.25,13312,-36.0,865.7,0.11044662
40000000000000000000CC00,1,1477436999850511,1477436999850511,1,1.625,13312,-36.5,865.7,0.12271846
40000000000000000000CC00,1,1477436999857296,1477436999857296,1,2.4375,13312,-36.0,865.7,0.14112623
40000000000000000000CC00,1,1477436999864224,1477436999864224,1,0.8125,13312,-36.5,865.7,0.16566992
40000000000000000000CC00,1,1477436999871199,1477436999871199,1,3.25,13312,-36.5,865.7,0.15339808
40000000000000000000CC00,1,1477436999878200,1477436999878200,1,0.0,13312,-36.5,865.7,0.19021362
40000000000000000000CC00,1,1477436999885203,1477436999885203,1,1.625,13312,-36.5,865.7,0.19021362
