-40.0,0.44178646691106466,2.4375
-40.5,0.4356505437595221,6.5
-40.0,0.4479223900626072,4.875
-40.5,0.46019423636569234,3.25
-40.0,0.4663301595172349,3.25
-40.0,0.4663301595172349,4.875
-40.0,0.4908738521234052,0.8125
-40.0,0.47860200582032003,4.875
-40.0,0.47860200582032003,3.25
-40.0,0.47860200582032003,6.5
-40.0,0.4970097752749477,1.625
-40.0,0.48473792897186263,5.6875
-40.5,0.4908738521234052,2.4375
-40.0,0.48473792897186263,4.875
-40.5,0.5092816215780329,1.625
-40.5,0.48473792897186263,4.875
-40.5,0.48473792897186263,3.25
-40.5,0.48473792897186263,4.875
-40.5,0.47860200582032003,4.875
-40.5,0.47860200582032003,4.875
-40.5,0.4663301595172349,3.25
-40.5,0.4540583132141498,3.25
-40.0,0.46019423636569234,1.625
-40.5,0.44178646691106466,4.875
-40.5,0.42337869745643697,2.4375
-40.5,0.42337869745643697,0.8125
-40.5,0.39269908169872414,4.875
-40.5,0.4049709280018093,0.0
-40.5,0.3988350048502667,4.875
-40.5,0.3865631585471816,1.625
-40.5,0.380427235395639,3.25
-40.0,0.3865631585471816,2.4375
-40.0,0.3865631585471816,3.25
-40.0,0.380427235395639,3.25
-40.0,0.39269908169872414,2.4375
-40.0,0.3865631585471816,2.4375
-40.0,0.4172427743048944,2.4375
-40.0,0.4172427743048944,1.625
-40.0,0.4295146206079795,4.875
-40.0,0.4479223900626072,1.625
-40.5,0.4540583132141498,2.4375
-40.5,0.4479223900626072,5.6875
-40.5,0.44178646691106466,6.5
-40.5,0.4479223900626072,2.4375
-40.5,0.4540583132141498,3.25
-40.5,0.44178646691106466,8.125
-40.5,0.4540583132141498,4.875
-40.5,0.4479223900626072,3.25
-41.0,0.4479223900626072,3.25
-41.0,0.46019423636569234,3.25
-41.0,0.4540583132141498,4.875
-41.0,0.4724660826687775,2.4375
-41.0,0.47860200582032003,2.4375
-41.0,0.46019423636569234,5.6875
-41.0,0.4663301595172349,2.4375
-41.0,0.4663301595172349,5.6875
-41.0,0.46019423636569234,6.5
-41.0,0.47860200582032003,2.4375
-41.5,0.48473792897186263,2.4375
-41.5,0.47860200582032003,4.875
-41.5,0.47860200582032003,4.875
-41.5,0.4663301595172349,6.5
-41.5,0.4479223900626072,5.6875
-41.5,0.4970097752749477,0.8125
-42.0,0.4663301595172349,3.25
-42.0,0.4724660826687775,1.625
-41.5,0.4479223900626072,4.875
-42.0,0.4663301595172349,1.625
-42.0,0.4540583132141498,2.4375
-42.0,0.4172427743048944,5.6875
-42.0,0.4172427743048944,6.5
-42.0,0.4111068511533518,3.25
-42.0,0.4111068511533518,4.875
-42.0,0.4356505437595221,0.8125
-41.5,0.4049709280018093,5.6875
-42.0,0.4172427743048944,1.625
-42.0,0.4295146206079795,-2.4375
-41.5,0.42337869745643697,0.8125
-41.5,0.42337869745643697,0.8125
-41.5,0.39269908169872414,3.25
-41.5,0.4049709280018093,-0.8125
-41.5,0.39269908169872414,0.8125
-41.5,0.3620194659410113,1.625
-41.5,0.3620194659410113,2.4375
-41.5,0.36815538909255385,2.4375
-41.5,0.34974761963792617,3.25
-41.5,0.32520392703175593,7.3125
-41.5,0.380427235395639,0.0
-41.5,0.34974761963792617,4.875
-41.5,0.380427235395639,0.0
-41.5,0.34974761963792617,4.875
-41.5,0.35588354278946877,3.25
-41.5,0.3620194659410113,2.4375
-41.5,0.3436116964863836,6.5
-41.5,0.3374757733348411,3.25
-41.5,0.3436116964863836,2.4375
-41.5,0.3374757733348411,1.625
-41.5,0.32520392703175593,2.4375
-41.5,0.32520392703175593,2.4375
-41.5,0.32520392703175593,0.8125
-41.5,0.3129320807286708,3.25
-42.0,0.3436116964863836,0.8125
-42.5,0.3436116964863836,1.625
-43.0,0.3374757733348411,7.3125
-43.0,0.3436116964863836,8.9375
-43.0,0.3865631585471816,5.6875
-43.0,0.4172427743048944,3.25
-43.0,0.4356505437595221,0.8125
-43.5,0.47860200582032003,-1.625
-43.5,0.4479223900626072,2.4375
-43.5,0.44178646691106466,6.5
-44.0,0.47860200582032003,4.875
-44.0,0.4908738521234052,3.25
-44.0,0.5276893910326605,-0.8125
-44.0,0.4970097752749477,3.25
-44.5,0.4970097752749477,8.125
-44.5,0.5154175447295755,2.4375
-44.5,0.5154175447295755,5.6875
-44.5,0.5645049299419159,-0.8125
-44.5,0.5338253141842031,3.25
-44.5,0.521553467881118,4.875
-44.5,0.5154175447295755,5.6875
-44.5,0.5276893910326605,0.8125
-45.0,0.521553467881118,3.25
-45.0,0.5154175447295755,5.6875
-45.0,0.5154175447295755,2.4375
-45.0,0.521553467881118,1.625
-44.5,0.521553467881118,5.6875
-45.0,0.5276893910326605,0.0
-45.5,0.5460971604872883,1.625
-46.0,0.5951845456996288,5.6875
-46.5,0.6504078540635119,5.6875
-47.5,0.7853981633974483,1.625
-47.5,0.8835729338221293,4.875
-47.5,0.9694758579437253,6.5
-48.5,1.0799224746714913,5.6875
-48.5,1.2026409377023426,7.3125
-49.0,1.3499030933393643,3.25
-48.5,1.9389517158874505,12.1875
-47.5,2.2641556429192065,3.25
-47.5,2.2886993355253766,5.6875
-46.0,2.36846633649543,8.9375
-45.0,2.423689644859313,8.125
-44.5,2.4727770300716534,2.4375
-44.0,2.4850488763747385,5.6875
-43.5,2.497320722677824,4.875
-43.5,2.454369260617026,11.375
-43.5,2.466641106920111,8.125
-43.5,2.454369260617026,8.9375
-43.5,2.4911847995262812,6.5
-43.0,2.497320722677824,4.875
-43.0,2.478912953223196,8.9375
-43.0,2.478912953223196,7.3125
-43.0,2.478912953223196,7.3125
-43.0,2.497320722677824,4.875
-43.0,2.4605051837685683,12.1875
-42.5,2.4911847995262812,6.5
-42.5,2.4850488763747385,8.9375
-42.0,2.4850488763747385,8.125
-41.5,2.478912953223196,7.3125
-41.5,2.4605051837685683,8.125
-41.0,2.478912953223196,7.3125
-41.0,2.478912953223196,5.6875
-41.0,2.4727770300716534,7.3125
-40.5,2.448233337465483,7.3125
-40.0,2.435961491162398,9.75
-40.5,2.442097414313941,6.5
-40.0,2.4175537217077703,7.3125
-40.0,2.4175537217077703,7.3125
-40.5,2.429825568010856,5.6875
-40.5,2.4175537217077703,5.6875
-40.5,2.411417798556228,8.125
-40.0,2.399145952253143,10.5625
-40.0,2.423689644859313,2.4375
-40.0,2.3930100291016,8.9375
-39.5,2.3930100291016,8.9375
-40.0,2.3930100291016,8.125
-40.0,2.380738182798515,9.75
-39.5,2.386874105950058,9.75
-39.5,2.3930100291016,8.9375
-39.5,2.411417798556228,4.875
-40.0,2.399145952253143,7.3125
-39.5,2.386874105950058,8.125
-39.0,2.386874105950058,6.5
-39.5,2.36846633649543,8.9375
-39.0,2.3623304133438876,8.125
-39.5,2.3746022596469727,6.5
-39.5,2.3746022596469727,6.5
-39.5,2.380738182798515,4.875
-39.5,2.3623304133438876,8.9375
-39.5,2.380738182798515,4.875
-39.0,2.356194490192345,6.5
-39.0,2.350058567040802,6.5
-39.0,2.3439226438892597,6.5
-39.0,2.3623304133438876,5.6875
-39.5,2.356194490192345,6.5
-39.0,2.356194490192345,7.3125
-39.5,2.3623304133438876,6.5
-39.0,2.3439226438892597,5.6875
-39.5,2.356194490192345,4.875
-39.0,2.3623304133438876,5.6875
-39.0,2.356194490192345,7.3125
-39.0,2.356194490192345,8.125
-39.5,2.3746022596469727,6.5
-39.5,2.36846633649543,7.3125
-39.5,2.380738182798515,8.125
-39.5,2.386874105950058,7.3125
-40.0,2.3930100291016,7.3125
-40.5,2.399145952253143,8.125
-40.5,2.4175537217077703,6.5
-40.5,2.411417798556228,8.125
-40.5,2.3930100291016,8.9375
-40.5,2.3930100291016,6.5
-41.0,2.3746022596469727,8.125
-41.0,2.380738182798515,9.75
-41.5,2.380738182798515,8.125
-41.5,2.380738182798515,6.5
-41.5,2.356194490192345,9.75
-42.0,2.356194490192345,9.75
-41.5,2.380738182798515,7.3125
-42.0,2.3439226438892597,9.75
-42.5,2.350058567040802,7.3125
-42.5,2.3009711818284617,13.8125
-43.0,2.2948352586769194,6.5
-43.0,2.2764274892222915,8.9375
-43.5,2.227340104009951,8.9375
-43.0,2.2150682577068657,8.125
-43.5,2.1782527187976104,9.75
-44.0,2.1598449493429825,8.9375
-44.0,2.1598449493429825,8.125
-44.5,2.1537090261914402,8.125
-44.5,2.098485717827557,10.5625
-45.0,2.061670178918302,9.75
-45.5,1.9880391010997909,13.8125
-45.5,1.9389517158874505,6.5
-45.5,1.8346410223112268,12.1875
-46.0,1.8346410223112268,9.75
-46.0,1.7978254834019713,5.6875
-46.0,1.736466251886546,8.9375
-46.5,1.7303303287350031,2.4375
-46.5,1.6444274046134073,3.25
-46.5,1.576932249946439,3.25
-47.0,1.521708941582556,3.25
-46.5,1.41126232485479,9.75
-46.5,1.3314953238847365,9.75
-46.5,1.2885438618239387,8.125
-46.0,1.239456476611598,3.25
-46.0,1.1658253987930873,4.875
-45.5,1.1290098598838318,3.25
-45.5,1.0676506283684062,8.125
-45.5,1.0676506283684062,4.875
-45.5,1.030835089459151,8.9375
-45.5,1.043106935762236,2.4375
-45.5,1.012427320004523,2.4375
-45.5,1.012427320004523,0.0
-44.5,0.9510680884890975,3.25
-45.0,0.9510680884890975,1.625
-45.0,0.9265243958829272,2.4375
-45.0,0.8958447801252144,4.875
-45.0,0.8897088569736719,4.875
-45.0,0.9019807032767571,-0.8125
-45.0,0.8958447801252144,-0.8125
-45.0,0.8651651643675016,3.25
-45.0,0.8528933180644165,1.625
-45.0,0.8467573949128739,2.4375
-44.5,0.8651651643675016,1.625
-44.5,0.859029241215959,0.8125
-44.5,0.8528933180644165,2.4375
-44.5,0.8160777791551611,7.3125
-44.5,0.8406214717613314,1.625
-44.5,0.8528933180644165,-1.625
-44.5,0.8160777791551611,1.625
-44.5,0.8283496254582462,2.4375
-44.0,0.8222137023067037,1.625
-44.5,0.7976700097005334,4.875
-44.5,0.8099418560036186,3.25
-44.0,0.8222137023067037,4.875
-44.0,0.8099418560036186,2.4375
-44.0,0.8160777791551611,1.625
-44.0,0.7915340865489908,2.4375
-43.5,0.7915340865489908,0.8125
-44.0,0.7792622402459057,0.8125
-43.5,0.7853981633974483,0.0
-43.5,0.7669903939428205,1.625
-43.5,0.760854470791278,2.4375
-43.5,0.7669903939428205,0.0
-43.5,0.7731263170943632,0.8125
-43.0,0.760854470791278,0.8125
-43.5,0.7853981633974483,1.625
-43.0,0.7792622402459057,2.4375
-43.0,0.8283496254582462,-0.8125
-42.5,0.7853981633974483,3.25
-43.0,0.8160777791551611,0.8125
-43.0,0.8222137023067037,0.0
-42.5,0.8160777791551611,0.8125
-43.0,0.8344855486097889,2.4375
-42.5,0.8406214717613314,0.8125
-42.5,0.8467573949128739,4.875
-42.5,0.8958447801252144,0.8125
-42.5,0.8713010875190442,5.6875
-42.0,0.9019807032767571,3.25
-42.0,0.9203884727313847,0.8125
-42.0,0.9203884727313847,2.4375
-42.0,0.9265243958829272,0.0
-42.0,0.9081166264282996,4.875
-42.0,0.9326603190344698,2.4375
-41.5,0.9203884727313847,5.6875
-42.0,0.944932165337555,0.8125
-42.0,0.9387962421860124,5.6875
-42.0,0.9633399347921826,3.25
-42.0,1.0062913968529805,3.25
-41.5,1.0246991663076084,6.5
-41.5,1.0615147052168636,0.8125
-41.5,1.0676506283684062,2.4375
-41.5,1.055378782065321,2.4375
-41.5,1.0737865515199487,0.0
-41.5,1.043106935762236,3.25
-41.5,1.043106935762236,2.4375
-41.0,1.055378782065321,5.6875
-41.0,1.0799224746714913,3.25
-41.0,1.086058397823034,3.25
-41.0,1.0921943209745766,2.4375
-41.0,1.0737865515199487,3.25
-40.5,1.0676506283684062,3.25
-40.5,1.0799224746714913,2.4375
-40.5,1.0799224746714913,2.4375
-40.5,1.0799224746714913,1.625
-40.5,1.0737865515199487,3.25
-40.0,1.0615147052168636,7.3125
-40.0,1.0921943209745766,2.4375
-40.0,1.086058397823034,4.875
-40.0,1.0983302441261191,1.625
-39.5,1.086058397823034,2.4375
-40.0,1.0921943209745766,3.25
-40.0,1.1044661672776617,3.25
-39.5,1.086058397823034,6.5
-39.5,1.086058397823034,5.6875
-40.0,1.0983302441261191,4.875
-40.0,1.0983302441261191,5.6875
-40.0,1.0921943209745766,6.5
-39.5,1.1167380135807468,3.25
-39.5,1.1106020904292042,5.6875
-39.5,1.1290098598838318,3.25
-39.5,1.1290098598838318,6.5
-40.0,1.1290098598838318,2.4375
-39.5,1.1351457830353744,2.4375
-40.0,1.1351457830353744,4.875
-40.0,1.141281706186917,4.875
-40.0,1.1535535524900022,2.4375
-39.5,1.1719613219446299,-0.8125
-40.0,1.1474176293384597,3.25
-39.5,1.141281706186917,8.125
-39.5,1.1596894756415448,1.625
-39.5,1.1780972450961724,3.25
-39.5,1.1903690913992575,5.6875
-39.5,1.1903690913992575,6.5
-39.5,1.1780972450961724,8.125
-39.5,1.1965050145508,4.875
-39.5,1.1965050145508,1.625
-39.5,1.1903690913992575,3.25
-39.5,1.1903690913992575,4.875
-39.5,1.2087768608538851,3.25
-40.0,1.214912784005428,5.6875
-40.0,1.2455923997631406,4.875
-40.0,1.2762720155208536,0.8125
-40.0,1.2578642460662257,9.75
-40.5,1.3192234775816514,4.875
-40.5,1.337631247036279,2.4375
-40.5,1.3314953238847365,5.6875
-40.0,1.337631247036279,1.625
-40.0,1.325359400733194,5.6875
-40.0,1.368310862793992,0.0
-40.0,1.3437671701878218,8.9375
-40.0,1.3437671701878218,8.9375
-40.0,1.3621749396424494,8.125
-40.5,1.3928545554001621,4.875
-40.5,1.3867186322486196,5.6875
-40.5,1.3867186322486196,8.125
-41.0,1.3989904785517047,8.125
-41.5,1.4051264017032472,8.125
-42.0,1.4173982480063325,1.625
-42.5,1.2517283229146832,6.5
-42.5,1.1965050145508,3.25
-42.5,1.1228739367322893,6.5
-42.0,1.0737865515199487,3.25
-42.0,0.9817477042468103,7.3125
-42.0,1.000155473701438,0.8125
-41.5,1.0185632431560658,3.25
-41.5,0.9572040116406401,2.4375
-41.5,0.9326603190344698,2.4375
-41.0,0.9510680884890975,0.0
-41.0,0.9387962421860124,3.25
-41.0,0.9142525495798421,7.3125
-41.0,0.9265243958829272,4.875
-41.0,0.8958447801252144,8.125
-41.0,0.9265243958829272,2.4375
-41.0,0.9142525495798421,0.8125
-41.0,0.9203884727313847,2.4375
-41.0,0.9203884727313847,5.6875
-40.5,0.9387962421860124,0.8125
-40.5,0.944932165337555,0.0
-40.5,0.9510680884890975,1.625
-40.5,0.9265243958829272,6.5
-40.5,0.944932165337555,1.625
-40.0,0.944932165337555,2.4375
-40.5,0.9510680884890975,1.625
-40.5,0.944932165337555,3.25
-40.5,0.9326603190344698,5.6875
-40.0,0.9203884727313847,6.5
-40.0,0.9387962421860124,3.25
-40.0,0.9142525495798421,3.25
-40.0,0.9019807032767571,3.25
-40.0,0.8958447801252144,3.25
-39.5,0.8897088569736719,0.0
-39.5,0.8467573949128739,3.25
-39.5,0.8160777791551611,0.8125
-39.0,0.7301748550335652,1.625
-39.0,0.662679700366597,4.875
-39.5,0.5706408530934585,2.4375
-39.5,0.521553467881118,2.4375
-40.0,0.4663301595172349,0.0
-40.0,0.4479223900626072,0.0
-41.0,0.4111068511533518,2.4375
-41.0,0.4049709280018093,1.625
-41.5,0.380427235395639,6.5
-41.0,0.3988350048502667,4.875
-41.5,0.4049709280018093,3.25
-41.5,0.39269908169872414,8.125
-41.5,0.4295146206079795,6.5
-42.0,0.4479223900626072,8.9375
-41.5,0.46019423636569234,8.125
-42.0,0.4908738521234052,4.875
-41.5,0.5092816215780329,6.5
-41.5,0.4908738521234052,7.3125
-41.0,0.521553467881118,5.6875
-41.0,0.5276893910326605,4.875
-41.0,0.5154175447295755,4.875
-41.0,0.521553467881118,3.25
-40.5,0.5276893910326605,2.4375
-40.5,0.5154175447295755,6.5
-40.0,0.4970097752749477,4.875
-40.0,0.48473792897186263,3.25
-40.0,0.44178646691106466,4.875
-40.0,0.4172427743048944,1.625
-40.0,0.35588354278946877,4.875
-40.5,0.35588354278946877,5.6875
-40.5,0.3620194659410113,5.6875
-41.0,0.3988350048502667,4.875
-40.5,0.4540583132141498,6.5
-41.0,0.4970097752749477,7.3125
-41.0,0.5338253141842031,3.25
-40.5,0.5276893910326605,5.6875
-40.5,0.5460971604872883,7.3125
-40.5,0.5460971604872883,4.875
-40.0,0.5522330836388308,3.25
-40.0,0.5460971604872883,3.25
-40.0,0.5338253141842031,3.25
-40.5,0.5092816215780329,7.3125
-40.5,0.5154175447295755,8.125
-40.5,0.5399612373357456,4.875
-40.5,0.5399612373357456,6.5
-40.0,0.5276893910326605,4.875
-40.0,0.5154175447295755,4.875
-40.0,0.521553467881118,4.875
-40.0,0.5154175447295755,2.4375
-40.5,0.4970097752749477,1.625
-40.5,0.46019423636569234,8.9375
-40.5,0.4908738521234052,2.4375
-40.5,0.4724660826687775,5.6875
-40.5,0.47860200582032003,4.875
-40.5,0.4540583132141498,1.625
-40.5,0.4663301595172349,4.875
-40.5,0.4356505437595221,7.3125
-40.5,0.46019423636569234,5.6875
-40.5,0.4540583132141498,7.3125
-40.5,0.44178646691106466,7.3125
-40.5,0.4724660826687775,5.6875
-40.5,0.47860200582032003,2.4375
-40.5,0.5092816215780329,2.4375
-40.5,0.4970097752749477,4.875
-40.5,0.5154175447295755,2.4375
-40.5,0.4908738521234052,8.125
-40.5,0.5092816215780329,4.875
-40.0,0.5031456984264903,3.25
-40.5,0.5092816215780329,4.875
-40.5,0.48473792897186263,7.3125
-40.0,0.48473792897186263,6.5
-40.0,0.4908738521234052,6.5
-40.0,0.4724660826687775,8.125
-40.0,0.4724660826687775,6.5
-40.0,0.48473792897186263,4.875
-40.0,0.4540583132141498,7.3125
-40.0,0.4663301595172349,4.875
-40.0,0.4540583132141498,7.3125
-40.0,0.46019423636569234,4.875
-40.0,0.44178646691106466,7.3125
-39.5,0.4356505437595221,6.5
-40.0,0.4295146206079795,3.25
-40.0,0.4295146206079795,5.6875
-40.0,0.4172427743048944,8.125
-40.0,0.4172427743048944,8.125
-40.0,0.4049709280018093,8.125
-39.5,0.4049709280018093,8.125
-40.0,0.42337869745643697,3.25
-40.0,0.3988350048502667,7.3125
-39.5,0.4049709280018093,6.5
-40.0,0.42337869745643697,2.4375
-40.0,0.4111068511533518,2.4375
-40.0,0.3988350048502667,8.125
-39.5,0.4172427743048944,3.25
-39.5,0.39269908169872414,6.5
-40.0,0.3865631585471816,6.5
-40.0,0.3988350048502667,6.5
-39.5,0.4049709280018093,1.625
-39.5,0.3865631585471816,6.5
-40.0,0.4111068511533518,1.625
-40.0,0.380427235395639,7.3125
-40.0,0.3865631585471816,5.6875
-39.5,0.3865631585471816,6.5
-40.0,0.39269908169872414,5.6875
