-56.5,0.0,-0.5625
-61.5,0.10431069357622391,0.1875
-54.5,-3.3379421944391554,0.375
-55.0,-1.2087768608538854,-0.1875
-51.5,4.356505437595221,0.0625
-56.0,0.27611654181941514,0.5
-64.0,0.7363107781851079,-0.375
-58.0,0.0,0.25
-56.0,-1.4051264017032474,0.0625
-51.0,3.350214040742241,0.25
-60.5,0.2883883881224998,0.5625
-58.0,-3.749049045592507,0.875
-60.0,0.9326603190344698,0.25
-57.5,1.920543946432823,-0.1875
-61.0,1.0553787820653207,2.5625
-60.5,-0.17794177139473355,0.25
-60.0,-4.117204434685061,0.25
-55.5,-0.0797670009700534,0.0625
-57.0,0.0674951546669682,0.0625
-57.5,0.3988350048502667,0.625
-61.0,4.810563750809371,-0.125
-57.5,0.0,0.0625
-59.0,-0.5092816215780327,0.125
-60.0,0.7240389318820224,0.5
-57.0,2.466641106920111,0.875
-53.5,0.926524395882927,-0.0625
-59.5,-4.52217536268687,-0.4375
-61.0,0.7669903939428206,0.625
-62.0,-1.4787574795217582,0.0625
-57.5,5.859806609723149,0.75
-62.0,0.0,-0.1875
-58.5,-2.797980957103409,0.75
-54.5,4.356505437595221,-0.5
-57.0,-4.651029748869265,0.875
-57.0,1.337631247036279,0.125
-55.5,3.227495577711389,-0.125
-54.0,0.0,-0.0625
-58.0,1.0369710126106932,0.5
-58.0,-5.141903600992669,1.125
-57.0,3.307262578681442,-1.25
-57.5,0.3988350048502669,0.75
-57.0,-3.583379120500858,-0.5
-58.5,0.9019807032767571,-0.0625
-59.5,2.5709518004963345,0.0
-60.0,1.5892040962495244,-0.5
-56.0,-3.411573272257666,0.0625
-58.0,-0.49700977527494783,0.1875
-61.5,-0.8713010875190442,1.875
-61.0,3.6324665057131984,0.375
-59.5,0.0,1.3125
-59.0,0.7915340865489906,-1.0625
-56.5,0.15953400194010658,0.1875
-57.5,-4.4362724385652745,-0.5
-53.0,4.3503695144436785,0.0
-55.5,0.0,0.5
-60.5,0.2024854640009046,0.5
-61.5,-2.4420974143139405,0.25
-58.5,3.1968159619536762,-0.25
-59.0,-4.724660826687774,0.0
-60.0,3.607922813107028,0.125
-55.5,-1.0185632431560654,-0.25
-61.0,-3.522019888985432,-0.25
-61.5,5.755495916146925,-0.1875
-54.0,-4.558990901596125,0.0
-55.5,4.319689898685966,0.125
-56.5,-5.491651220630596,-0.1875
-58.5,5.93343768754166,0.25
-53.0,-4.4976316700806995,0.0
-58.0,0.0,0.0
-62.0,-0.5092816215780331,0.125
-59.5,-5.006913291658733,0.0625
-58.0,5.872078456026235,-0.0625
-53.0,-4.227651051412828,-0.1875
-58.5,3.1231848841351657,-0.25
-57.5,-0.12271846303085177,0.5
-59.5,-4.01902966426038,-0.1875
-59.0,3.6508742751678263,0.0
-61.0,1.3560390164909064,0.125
-55.5,-0.9019807032767568,0.375
-55.5,-4.522175362686871,-0.375
-53.0,-0.2638446955163303,0.0625
-63.5,5.105088062083413,0.1875
-58.0,0.0,0.125
-61.5,-0.8344855486097889,0.0625
-52.0,5.724816300389213,0.5
-61.0,-5.970253226450915,0.625
-55.5,2.1046216409790994,0.25
-60.0,1.9880391010997913,0.1875
-59.0,-0.1288543861823941,-0.4375
-60.0,-1.9450876390389928,-0.125
-62.0,-1.9819031779482486,-0.1875
-58.5,0.8160777791551611,-0.1875
-53.0,5.276893910326606,-0.1875
-59.5,-4.632621979414637,-2.125
-58.5,4.503767593232243,0.1875
-55.0,0.0,-0.0625
-58.5,-6.1420590746941075,0.0
-59.5,0.6135923151542564,-0.625
-62.5,4.000621894805752,1.0625
-60.5,-2.110757564130642,0.1875
-61.0,-2.2518837966161214,-0.375
-59.5,1.2517283229146834,0.0
-57.0,-0.11658253987930878,0.0
-57.0,3.0004664211043144,0.0625
-59.5,0.44178646691106405,1.25
-60.5,-4.344233591292135,-0.4375
-47.0,0.0,0.125
-60.0,4.675573441475435,0.1875
-59.5,-4.601942363656923,0.9375
-58.5,0.09817477042468103,0.0625
-56.5,-0.37429131224409645,0.8125
-60.0,0.2454369260617026,0.625
-61.0,0.2699806186678729,-0.1875
-60.5,5.344389064993575,0.1875
-55.0,-0.3681553890925544,-0.125
-58.0,0.1288543861823941,0.1875
-55.5,0.0981747704246807,0.0625
-60.5,0.15339807878856426,-0.1875
-60.5,-1.0799224746714913,-0.0625
-56.0,-4.01902966426038,0.75
-62.0,0.0,0.5625
-60.5,0.15339807878856426,-1.125
-61.0,-0.8651651643675011,-0.125
-59.5,-0.7301748550335656,-0.0625
-61.5,1.2149127840054277,0.8125
-55.0,-1.1044661672776614,-0.375
-56.5,1.1719613219446297,0.5625
-60.5,-5.47937937432751,-0.25
-60.0,1.0983302441261191,0.875
-61.5,4.381049130201391,0.25
-59.5,-3.9024471243810708,-0.9375
-56.5,0.0,0.0
-59.5,-2.466641106920111,2.8125
-57.0,-0.8958447801252143,0.625
-56.0,1.6137477888556944,0.125
-61.0,1.6076118657041518,-0.1875
-53.5,0.0,0.125
-58.5,1.2517283229146834,-0.1875
-57.5,3.865631585471816,0.5
-55.0,-0.8835729338221299,0.1875
-60.0,0.5583690067903735,0.625
-59.0,-3.914718970684156,-1.25
-60.0,-1.8100973297050567,-0.125
-52.0,0.5338253141842031,1.5
-55.0,0.2761165418194155,0.0
-56.0,4.853515212870168,0.625
-60.0,-5.368932757599744,0.375
-64.0,0.0,0.8125
-59.0,-4.289010282928253,-1.25
-57.5,5.798447378207723,0.0
-55.5,-5.50392306693368,0.5625
-52.5,0.8774370106705867,-0.1875
-63.5,-0.10431069357622347,0.9375
-59.5,3.601786889955486,0.5625
-62.5,0.34361169648638334,-0.5625
-60.0,-4.9823695990525625,-0.8125
-62.0,0.006135923151542558,-1.1875
-61.0,5.712544454086128,0.0
-62.5,-0.34974761963792655,0.125
-61.0,0.674951546669682,0.5
-60.5,0.0,-0.5
-59.5,-4.828971520263998,-0.0625
-57.0,-0.5951845456996288,0.125
-60.5,4.835107443415541,0.25
-63.0,-5.0253210611133605,0.1875
-59.0,1.4235341711578748,0.625
-53.5,4.540583132141498,0.0625
-60.0,-1.7916895602504281,-0.625
-61.5,-3.429981041712294,0.125
-63.5,5.405748296509,0.0
-53.0,0.0,0.1875
-56.5,-0.9326603190344702,-0.125
-51.5,-2.9391071895888885,0.4375
-58.0,3.3133985018329852,0.5
-60.0,-3.288854809226815,1.5
-58.5,-1.981903177948248,-1.0625
-52.5,5.129631754689584,-0.0625
-55.0,0.0,0.375
-61.0,-2.3132430281315473,-0.1875
-57.5,2.7120780329818133,0.0
-58.5,-3.4483888111669208,-0.0625
-57.5,-0.24543692606170264,1.0625
-64.0,-0.5276893910326605,0.0
-59.5,0.41110685115335177,-0.625
-59.0,0.8283496254582463,0.0
-66.0,0.0,-0.125
-58.0,0.4295146206079794,0.1875
-60.0,-4.319689898685965,0.0625
-50.0,5.608233760509904,-0.0625
-59.5,-6.178874613603362,0.125
-58.0,1.9573594853420784,0.1875
-62.5,-1.4603497100671305,-0.1875
-60.0,4.080388895775806,0.875
-57.5,0.0,-0.0625
-59.0,0.12271846303085088,-0.5
-60.5,0.38042723539563905,-0.25
-59.0,-0.6074563920027138,-0.1875
-55.5,-3.405437349106123,0.25
-62.5,-0.15953400194010658,-0.625
-48.5,3.632466505713198,3.1875
-58.5,-3.742913122440964,0.0
-59.0,-1.2946797849754812,0.1875
-58.5,1.2517283229146832,-0.5
-58.0,1.7241944055834608,0.25
-55.5,1.5646604036433538,0.25
-62.5,0.0,-0.25
-56.5,-1.0062913968529807,0.875
-59.0,2.264155642919206,-0.1875
-59.5,-2.1414371798883547,0.125
-57.0,6.105243535784852,-0.1875
-60.5,-1.8223691760081415,-0.75
-60.0,-4.031301510563464,0.5
-58.5,5.399612373357456,0.1875
-59.0,-1.558524480491811,0.875
-57.5,1.2517283229146825,0.125
-57.0,-1.2701360923693104,-0.0625
-59.0,-3.2949907323783574,0.1875
-62.0,0.6933593161243099,-0.0625
-66.0,3.037281960013569,0.25
-58.5,0.0,-0.5625
-61.0,-5.902758071783947,0.5625
-57.5,4.5835345942022965,1.0625
-60.5,1.0676506283684057,0.0
-62.0,-3.2213596545598464,0.4375
-60.0,-1.957359485342078,-1.25
-59.5,5.141903600992669,-0.1875
-61.5,-3.233631500862931,-0.375
-59.0,3.675417967773996,0.75
-58.5,-5.497787143782138,0.75
-59.5,-0.4233786974564369,-0.25
-59.5,-0.11044661672776618,-1.4375
-63.0,4.522175362686871,-0.5
-47.0,0.0,0.125
-57.0,0.0674951546669682,-0.0625
-60.5,-4.01902966426038,0.5
-62.5,2.699806186678729,-1.625
-49.5,1.4848934026733005,1.75
-56.0,-5.957981380147831,0.1875
-58.5,5.006913291658733,0.1875
-59.0,0.41110685115335244,0.25
-59.0,0.0,0.0
-60.0,-0.10431069357622358,-0.25
-58.0,0.7424467013366504,0.0
-60.0,4.681709364626977,0.0
-62.0,-3.7429131224409646,-0.0625
-62.5,3.6754179677739964,-0.875
-62.0,-5.933437687541661,0.5625
-61.0,5.5100589900852235,-0.1875
-60.0,-5.602097837358362,0.0625
-50.5,0.0,0.125
-62.5,0.10431069357622302,-0.8125
-57.5,-4.601942363656923,-0.0625
-60.0,0.25770877236478773,0.25
-57.0,0.0,0.0625
-52.5,0.9019807032767568,0.25
-60.0,-4.755340442445487,-0.1875
-53.5,3.884039354926444,0.75
-60.0,0.926524395882927,-1.875
-53.0,-4.424000592262189,0.25
-60.5,4.289010282928253,0.25
-54.0,-4.9394181369917645,0.0
-57.5,-0.8958447801252144,-0.0625
-63.0,5.062136600022615,0.0625
-56.0,0.6442719309119695,0.25
-59.0,0.0,0.1875
-60.5,4.509903516383785,0.8125
-56.0,-5.178719139901924,-0.75
-60.0,0.3865631585471816,-2.0
-57.5,0.5092816215780329,0.1875
-60.5,4.233786974564369,-0.125
-59.5,0.28838838812250067,-0.25
-49.5,-5.66959299202533,0.75
-55.0,1.9696313316451632,0.1875
-61.5,-2.448233337465483,0.875
-63.5,0.8283496254582462,-0.25
-57.5,5.013049214810275,0.5625
-60.0,-0.3313398501832978,0.0
-62.5,0.0,0.875
-56.5,0.05522330836388267,0.0
-51.0,-0.27611654181941514,0.1875
-49.0,0.883572933822129,0.75
-60.5,0.0,0.125
-52.5,-3.429981041712294,0.0625
-53.0,2.5034566458293668,0.125
-58.5,1.515573018431013,-0.9375
-53.5,-3.4790684269246337,-0.0625
-53.5,1.718058482431918,0.25
-56.0,0.6626797003665965,-0.1875
-60.5,-3.012738267407399,2.1875
-51.0,0.6074563920027141,0.1875
-58.0,-0.39269908169872436,-0.1875
-59.0,2.742757648739526,0.5
-57.0,0.2270291566070748,-0.0625
-61.0,0.0,1.0625
-33.0,4.558990901596125,0.5
-57.5,1.5217089415825562,-0.125
-55.5,-0.7731263170943627,-0.125
-62.0,0.3681553890925535,-0.25
-50.0,-0.3681553890925535,0.125
-59.0,-4.558990901596125,-0.9375
-57.5,0.0,0.0625
-63.5,-2.9206994201342606,1.875
-61.0,-2.215068257706866,-0.25
-58.5,4.693981210930062,0.1875
-58.5,-5.669592992025329,0.75
-58.0,0.1165825398793087,-0.125
-61.5,0.17180584824319184,0.1875
-60.0,1.521708941582556,0.5
-62.0,-1.705786636128833,-0.25
-57.5,2.2212041808584084,0.4375
-60.5,0.0,-0.125
-59.5,-0.3436116964863836,0.0625
-59.5,4.816699673960914,0.125
-59.5,0.15953400194010658,0.25
-58.5,-0.27611654181941514,0.1875
-59.0,0.883572933822129,0.5
-58.0,-1.9205439464328222,-1.5
-59.0,1.5523885573402687,2.125
-58.5,0.5154175447295755,0.875
-58.5,-5.080544369477244,0.0
-60.0,3.982214125351125,0.1875
-60.5,-0.17794177139473444,0.125
-62.0,0.7976700097005329,0.5625
-59.0,-1.0369710126106932,0.5625
-61.0,0.0,0.0625
-60.0,3.5281558121369745,0.375
-55.5,-3.988350048502667,0.5625
-61.0,3.99448597165421,-0.5
-60.0,-0.2270291566070748,-0.125
-57.5,-0.14726215563702194,0.5
-60.0,-4.23378697456437,0.1875
-60.0,0.20862138715244738,1.1875
-59.5,3.6815538909255388,1.625
-29.5,-0.7179030087304801,0.4375
-59.5,0.0,-1.25
-56.5,-0.8651651643675011,0.0
-59.5,-4.466952054322987,0.75
-55.5,-0.2699806186678729,-0.125
-54.5,4.994641445355647,0.5
-55.5,-3.9331267401387837,0.625
-61.5,0.0,0.25
-62.0,2.988194574801229,0.75
-60.0,-3.0495538063166547,-3.125
-58.5,1.3744467859455345,0.125
-61.0,-1.0737865515199487,0.0
-58.5,-0.7424467013366504,0.625
-58.0,-0.11658253987930878,-0.125
-57.5,-0.2577087723647877,-0.125
-59.5,3.393165502803038,1.75
-57.0,2.442097414313941,-0.1875
-60.0,-0.674951546669682,0.5
-61.5,-3.497476196379262,1.8125
-60.0,-1.4971652489763858,-0.1875
-59.5,0.0,0.25
-57.5,-3.5833791205008576,0.25
-58.5,0.08590292412159589,0.125
-60.0,4.037437433715008,-0.625
-60.5,0.3313398501832987,-0.0625
-54.0,-0.7424467013366502,0.1875
-52.5,-3.792000507653305,-0.0625
-57.5,0.0,-0.1875
-55.5,-2.0555342557667595,0.125
-58.5,-1.3621749396424492,-0.5
-58.5,3.908583047532614,1.75
-63.0,0.10431069357622302,-1.125
-63.0,0.07976700097005374,0.0625
-49.5,0.08590292412159606,0.375
-60.0,-5.730952223540756,-0.25
-60.0,-0.5338253141842032,0.1875
-57.0,0.0,-0.8125
-62.5,2.294835258676919,-0.1875
-51.5,-2.0064468705544187,-0.125
-55.5,1.000155473701438,0.1875
-54.0,-0.9326603190344699,-0.125
-56.0,1.9512235621905356,-0.0625
-60.5,2.0923497946760143,0.8125
-52.5,-4.57126274789921,0.0625
-58.0,5.6143696836614465,0.125
-53.5,0.2699806186678728,0.5
-57.5,-5.074408446325701,0.875
-59.0,5.166447293598839,-0.5
-62.0,-4.669437518323892,0.5
-59.5,-0.650407854063512,0.5
-59.0,5.45483568172134,0.125
-61.0,0.0,-0.0625
-63.5,0.1349903093339364,0.125
-63.0,3.2274955777113887,0.1875
-62.5,-2.8593401886188348,0.1875
-62.0,3.8901752780779857,0.75
-56.0,0.0,0.125
-46.5,-5.080544369477243,0.25
-57.5,0.9878836273983531,0.75
-54.5,-1.104466167277662,0.5
-52.5,5.21553467881118,0.125
-54.5,-4.215379205109742,0.1875
-46.0,2.890019804376548,0.0625
-60.5,-4.331961744989051,-0.125
-63.0,0.0,0.5
-52.0,4.724660826687775,0.0
-55.0,-3.614058736258571,-0.5
-60.5,-0.3129320807286706,0.5
-61.0,3.871767508623358,-0.0625
-52.5,-5.651185222570702,0.0625
-61.0,1.859184714917397,-0.125
-59.5,-1.380582709097077,0.625
-52.5,0.859029241215959,-0.125
-60.0,-1.3560390164909066,0.0
-60.0,3.77972866135022,-0.125
-57.5,-1.8653206380689396,0.25
-61.0,0.0,-0.0625
-63.5,-0.9694758579437259,0.5625
-31.5,0.17794177139473444,0.25
-40.5,-4.2031073588066565,0.1875
-59.0,-0.576776776245001,0.0625
-61.5,0.5154175447295755,0.1875
-57.5,-0.8958447801252145,-0.5
-61.5,4.663301595172349,0.75
-61.5,0.0,-0.5
-58.0,4.516039439535327,0.5
-59.5,-0.25157284921324496,0.1875
-60.5,-3.436116964863836,0.25
-60.5,0.23930100291015988,0.0625
-57.5,-0.42337869745643686,0.0625
-60.5,3.7122335066832512,0.1875
-59.5,-0.1963495408493614,-0.1875
-60.0,-4.571262747899211,0.125
-59.5,0.0,0.75
-59.5,0.4356505437595226,2.1875
-61.0,-1.1290098598838325,0.25
-57.5,-4.031301510563464,-0.0625
-59.5,4.76147636559703,-0.5
-61.0,-4.160155896745859,1.3125
-59.0,-1.0983302441261191,-0.5625
-54.0,5.448699758569797,0.125
-58.5,0.024543692606170175,0.5625
-62.0,0.25157284921324585,-0.125
-62.0,-5.473243451175968,-0.25
-61.0,0.7608544707912781,0.125
-59.5,4.252194744018997,0.4375
-62.5,-0.674951546669682,0.875
-57.5,0.5951845456996292,1.625
-55.0,0.34361169648638334,0.375
-67.5,0.0,0.25
-59.0,-0.19021361769781908,0.1875
-64.0,-4.1417481272912315,-0.1875
-57.0,4.264466590322082,0.75
-59.0,-3.3440781175906973,-0.5625
-61.0,4.104932588381976,-0.5625
-59.0,-0.07976700097005285,0.75
-60.0,-0.9817477042468106,-0.1875
-30.5,-4.0987966652304335,0.1875
-37.5,5.252350217720435,0.1875
-57.5,0.0,-0.1875
-59.5,-4.970097752749478,-0.5
-62.5,5.325981295538946,0.9375
-52.0,0.00613592315154321,0.25
-56.5,0.0,0.125
-62.5,-1.9082721001297376,0.0
-58.5,-1.4726215563702154,0.25
-59.0,5.436427912266713,0.5
-59.0,-1.7426021750380887,-1.8125
-60.5,-3.3133985018329852,-1.3125
-59.5,3.816544200259475,-2.875
-52.5,1.0185632431560663,0.25
-47.0,-1.4235341711578755,-0.0625
-58.5,0.0,0.375
-59.0,5.45483568172134,0.125
-56.5,-0.7424467013366502,-0.5625
-61.0,-1.012427320004524,1.625
-57.5,0.0,0.5
-55.5,3.4913402732277197,0.625
-56.5,-4.295146206079796,0.125
-59.0,0.4049709280018092,1.0625
-57.5,5.614369683661447,-0.125
-59.5,-3.6508742751678263,0.1875
-55.5,1.7303303287350031,0.125
-58.5,-3.6876898140770815,0.0
-59.0,5.056000676871073,0.9375
-58.0,-0.28225246497095835,0.0625
-58.5,-5.154175447295754,-0.1875
-62.5,1.1903690913992575,-0.375
-61.0,4.52217536268687,-0.1875
-66.5,-3.5097480426823466,-0.0625
-55.0,2.8102528034064944,0.625
-53.5,0.0,-0.1875
-63.0,3.571107274197773,0.5
-57.0,-3.1968159619536767,0.0
-61.0,1.981903177948248,-0.125
-60.0,-4.01902966426038,-4.0625
-57.0,-0.662679700366597,0.0625
-61.0,5.829126993965437,-1.0625
-60.5,-1.9450876390389933,-0.0625
-57.5,-2.718213956133356,0.125
-58.0,-0.9081166264282996,2.1875
-61.5,0.8774370106705869,-0.0625
-62.0,4.374913207049849,-0.5
-50.5,0.0,0.0625
-48.5,2.5709518004963345,-0.25
-60.5,-1.6751070203711202,0.875
-55.0,-0.7485826244881929,0.0625
-54.5,5.3627968344482015,0.25
-56.5,0.0,0.0
-58.0,0.0,0.8125
-59.5,4.509903516383785,0.5
-57.5,-1.2087768608538854,0.5
-59.5,0.8467573949128742,0.0625
-57.5,-3.718369429834794,-0.25
-46.0,0.6872233929727671,1.3125
-60.5,2.5770877236478773,0.25
-54.0,1.2455923997631402,0.1875
-64.5,-4.804427827657827,-0.8125
-60.5,-0.5460971604872884,-0.1875
-33.5,0.662679700366597,0.375
-29.5,4.344233591292136,0.0625
-60.5,0.0,-0.125
-63.0,3.9024471243810717,-0.0625
-59.5,0.15953400194010658,-0.0625
-60.0,-0.6933593161243103,0.75
-61.0,0.411106851153352,0.0625
-58.5,-1.7548740213411733,0.1875
-59.0,2.0800779483729297,-0.5
-61.0,0.0,-0.1875
-58.5,3.3870295796514958,-0.125
-43.5,0.018407769454627854,0.1875
-62.0,-0.632000084608884,0.0
-60.0,-3.3563499638937833,0.875
-49.0,3.227495577711389,-0.0625
-61.0,-2.061670178918302,0.1875
-61.0,0.39269908169872414,0.75
-60.5,-0.9694758579437253,-0.0625
-59.0,3.8288160465625607,-0.125
-39.0,-4.804427827657828,-0.0625
-32.0,4.331961744989051,0.1875
-42.0,0.0,0.25
-48.0,1.1228739367322893,0.1875
-58.5,0.2577087723647882,-0.25
-61.0,-1.3130875544301093,-0.875
-61.5,0.0,-0.5
-60.0,-0.6872233929727667,0.25
-58.5,0.012271846303084644,-0.4375
-60.5,-2.2886993355253766,-0.625
-57.0,3.6815538909255388,-0.0625
-60.0,-4.878058905476339,0.0
-56.0,0.0,0.625
-59.5,-0.17180584824319167,0.25
-45.0,-0.8651651643675018,0.1875
-59.5,5.994796919057086,-1.3125
-61.0,-5.301437602932776,0.5625
-58.5,4.7062530572331465,-0.0625
-47.5,-3.834951969714103,0.125
-45.0,0.0,0.0625
-63.0,-3.417709195409209,-0.5
-61.0,-0.4724660826687775,-0.125
-58.0,6.080699843178682,-0.5
-60.5,-5.436427912266712,-0.375
-60.5,5.246214294568893,0.125
-56.5,-4.828971520263998,0.0625
-59.0,-0.44792239006260726,-0.375
-62.0,3.614058736258571,-0.1875
-62.5,1.0860583978230336,0.625
-54.0,0.2270291566070748,-0.0625
-59.0,-3.7429131224409646,0.75
-55.5,3.724505352986337,-0.25
-54.0,0.0,-0.0625
-59.0,0.19634954084936204,0.5
-61.0,0.282252464970958,0.0625
-62.5,-0.6442719309119693,0.125
-58.5,2.012582793705961,0.0625
-67.5,3.3993014259545804,-1.25
-54.5,0.5522330836388312,-0.125
-60.5,-5.632777453116074,0.1875
-62.0,1.834641022311227,2.125
-62.0,0.0,-0.1875
-58.0,-0.3988350048502666,0.625
-46.5,0.23930100291016,0.125
-52.5,4.700117134081604,0.0
-59.0,-5.45483568172134,-0.375
-45.5,0.9940195505498955,0.125
-56.0,-0.3620194659410114,0.25
-59.5,0.0,0.5625
-56.0,3.939262663290326,0.0
-57.5,-2.0739420252213865,0.375
-58.0,-0.9081166264282996,-0.625
-61.0,-0.8774370106705867,-0.75
-53.0,4.878058905476339,0.0625
-57.5,-3.3440781175906977,-0.0625
-57.0,4.399456899656019,0.0
-52.5,-0.7056311624273954,-0.0625
-60.0,-3.8472238160171877,0.1875
-61.5,-0.8651651643675016,0.0625
-31.5,0.0,0.0625
-38.5,-4.215379205109742,0.5625
-60.0,-0.2945243112740431,-0.4375
-57.0,1.3314953238847367,-0.8125
-57.0,2.816388726558037,0.1875
-61.0,-4.135612204139688,0.1875
-42.0,4.589670517353838,0.25
-55.0,-4.491495746929157,0.1875
-59.5,0.0,0.0
-56.5,-0.7669903939428206,-0.25
-56.5,1.3253594007331941,-0.1875
-56.5,-0.6197282383057992,0.5
-59.5,3.3011266555298997,0.625
-62.0,-3.902447124381071,-0.8125
-55.0,3.620194659410113,0.0625
-60.0,-3.2274955777113887,0.25
-58.0,0.17180584824319167,0.4375
-58.0,4.97623367590102,0.0625
-56.0,-5.577554144752192,-0.375
-58.5,0.0,0.0
-61.5,4.28287435977671,0.625
-57.0,-0.7301748550335656,0.0625
-53.5,-4.994641445355647,0.0
-60.0,0.36201946594101136,0.75
-57.5,0.34361169648638357,-0.5625
-59.5,-0.7240389318820226,-0.375
-57.0,4.871922982324796,-0.25
-60.5,0.9940195505498952,-0.5625
-48.0,-4.221515128261284,0.125
-62.5,3.307262578681442,0.1875
-59.5,0.0,-0.0625
-54.0,1.5707963267948966,-0.1875
-61.0,-0.5522330836388303,-0.0625
-59.0,-5.0253210611133605,0.1875
-55.5,3.307262578681442,0.1875
-64.0,-1.6382914814618645,1.5625
-57.5,4.18469958935203,0.0
-58.0,-0.4233786974564371,-0.125
-63.0,0.8222137023067031,0.8125
-63.0,-0.9449321653375549,-0.875
-31.5,-4.362641360746763,0.5
-42.5,-0.10431069357622358,0.375
