-36.0,0.36815538909255385,-0.8125
-36.0,0.36815538909255385,1.625
-36.0,0.380427235395639,0.0
-36.0,0.39269908169872414,-0.8125
-36.0,0.4049709280018093,-3.25
-36.0,0.37429131224409645,2.4375
-36.0,0.380427235395639,1.625
-36.0,0.37429131224409645,3.25
-36.0,0.380427235395639,-0.8125
-36.0,0.37429131224409645,1.625
-36.0,0.37429131224409645,1.625
-36.0,0.36815538909255385,0.8125
-36.0,0.3620194659410113,2.4375
-36.0,0.380427235395639,0.0
-36.0,0.380427235395639,1.625
-36.0,0.4111068511533518,-1.625
-36.0,0.4049709280018093,1.625
-36.0,0.4172427743048944,2.4375
-36.0,0.44178646691106466,1.625
-36.0,0.4479223900626072,2.4375
-36.0,0.4663301595172349,1.625
-36.0,0.48473792897186263,2.4375
-36.0,0.5031456984264903,2.4375
-36.0,0.5092816215780329,4.875
-36.0,0.5276893910326605,3.25
-36.0,0.5399612373357456,1.625
-36.0,0.5338253141842031,4.875
-36.0,0.5399612373357456,1.625
-36.5,0.5522330836388308,0.8125
-36.5,0.5583690067903734,0.8125
-36.0,0.5460971604872883,2.4375
-36.0,0.5399612373357456,4.875
-36.5,0.5583690067903734,2.4375
-36.5,0.5645049299419159,1.625
-36.5,0.5583690067903734,1.625
-36.5,0.5460971604872883,2.4375
-36.5,0.5522330836388308,1.625
-36.5,0.5460971604872883,1.625
-36.5,0.5522330836388308,0.8125
-36.5,0.5338253141842031,2.4375
-36.5,0.5399612373357456,3.25
-36.5,0.5522330836388308,0.0
-36.5,0.5276893910326605,3.25
-36.5,0.5338253141842031,1.625
-36.5,0.5338253141842031,2.4375
-36.5,0.5399612373357456,1.625
-36.5,0.521553467881118,4.875
-36.5,0.5338253141842031,3.25
-36.5,0.5276893910326605,2.4375
-36.5,0.5154175447295755,4.875
-36.5,0.521553467881118,1.625
-36.5,0.5276893910326605,1.625
-36.5,0.521553467881118,0.8125
-36.5,0.5092816215780329,2.4375
-36.5,0.5092816215780329,3.25
-36.5,0.5031456984264903,2.4375
-36.5,0.521553467881118,0.0
-36.5,0.5154175447295755,0.8125
-36.5,0.5092816215780329,1.625
-36.5,0.5031456984264903,2.4375
-36.5,0.4970097752749477,4.875
-36.5,0.5092816215780329,0.8125
-36.5,0.5276893910326605,0.0
-37.0,0.5154175447295755,3.25
-37.0,0.5276893910326605,2.4375
-37.0,0.5276893910326605,2.4375
-37.0,0.5460971604872883,0.0
-37.0,0.5460971604872883,1.625
-37.0,0.5460971604872883,0.8125
-37.0,0.5399612373357456,3.25
-37.0,0.5645049299419159,0.8125
-37.0,0.5706408530934585,0.8125
-37.0,0.5706408530934585,1.625
-37.0,0.5706408530934585,5.6875
-37.0,0.5951845456996288,0.8125
-37.0,0.5890486225480862,1.625
-37.5,0.5829126993965437,2.4375
-37.5,0.5890486225480862,3.25
-37.5,0.5890486225480862,3.25
-37.5,0.5767767762450011,4.875
-37.0,0.5951845456996288,1.625
-37.0,0.5951845456996288,0.8125
-37.5,0.5890486225480862,2.4375
-37.0,0.6013204688511713,1.625
-37.0,0.6013204688511713,1.625
-37.0,0.5951845456996288,2.4375
-37.0,0.5951845456996288,3.25
-37.5,0.6135923151542565,1.625
-37.5,0.6135923151542565,0.8125
-37.5,0.607456392002714,1.625
-37.5,0.6135923151542565,1.625
-37.5,0.619728238305799,0.8125
-37.5,0.619728238305799,3.25
-37.5,0.6135923151542565,3.25
-37.5,0.6442719309119693,0.8125
-37.5,0.6381360077604268,0.8125
-37.5,0.6442719309119693,2.4375
-38.0,0.6504078540635119,3.25
-38.0,0.6994952392758523,-1.625
-38.0,0.6933593161243098,1.625
-38.0,0.7179030087304801,0.8125
-38.0,0.7301748550335652,0.8125
-38.0,0.7547185476397354,-0.8125
-38.5,0.7547185476397354,0.0
-38.0,0.7669903939428205,-1.625
-38.0,0.7792622402459057,-0.8125
-38.5,0.7731263170943632,-1.625
-38.5,0.7792622402459057,-2.4375
-38.0,0.7731263170943632,0.0
-38.0,0.7731263170943632,0.8125
-38.0,0.7731263170943632,1.625
-38.0,0.7792622402459057,1.625
-38.0,0.7853981633974483,2.4375
-38.0,0.7976700097005334,1.625
-38.0,0.8099418560036186,0.8125
-38.0,0.8160777791551611,1.625
-38.0,0.8283496254582462,-0.8125
-38.0,0.8344855486097889,-1.625
-38.0,0.8160777791551611,2.4375
-38.0,0.8406214717613314,-0.8125
-38.0,0.8283496254582462,0.8125
-38.0,0.8344855486097889,0.8125
-38.0,0.8467573949128739,-0.8125
-38.0,0.8344855486097889,1.625
-38.0,0.8528933180644165,0.0
-38.0,0.8528933180644165,-0.8125
-38.0,0.8528933180644165,0.0
-38.0,0.8467573949128739,1.625
-38.0,0.859029241215959,0.8125
-38.0,0.8713010875190442,3.25
-38.0,0.8835729338221293,0.8125
-38.0,0.8835729338221293,0.8125
-38.0,0.8897088569736719,1.625
-38.0,0.9019807032767571,1.625
-37.5,0.9203884727313847,0.0
-38.0,0.9203884727313847,0.0
-38.0,0.9203884727313847,1.625
-38.0,0.9081166264282996,4.875
-37.5,0.9265243958829272,2.4375
-38.0,0.9265243958829272,3.25
-38.0,0.9510680884890975,0.8125
-37.5,0.9387962421860124,3.25
-37.5,0.9265243958829272,6.5
-37.5,0.9940195505498954,-4.875
-37.5,0.9756117810952678,0.0
-38.0,0.9817477042468103,0.8125
-37.5,0.9694758579437253,6.5
-37.5,1.0062913968529805,0.0
-37.5,1.0062913968529805,4.875
-37.5,1.0062913968529805,5.6875
-37.5,1.030835089459151,3.25
-37.0,1.043106935762236,3.25
-37.0,1.055378782065321,2.4375
-37.0,1.055378782065321,3.25
-36.5,1.0615147052168636,3.25
-36.0,1.055378782065321,1.625
-35.0,0.9572040116406401,2.4375
-35.0,0.9142525495798421,2.4375
-35.0,0.8467573949128739,0.0
-35.0,0.8283496254582462,0.8125
-35.0,0.8283496254582462,0.8125
-35.0,0.8160777791551611,1.625
-35.0,0.8344855486097889,-0.8125
-35.0,0.8160777791551611,0.8125
-35.0,0.8099418560036186,1.625
-35.0,0.8160777791551611,-1.625
-35.0,0.7915340865489908,-0.8125
-35.0,0.7853981633974483,-1.625
-35.0,0.7792622402459057,-1.625
-35.0,0.7669903939428205,-0.8125
-35.0,0.7669903939428205,-1.625
-35.0,0.7363107781851077,3.25
-35.0,0.7301748550335652,3.25
-35.0,0.7669903939428205,-1.625
-35.0,0.7424467013366504,2.4375
-35.0,0.7792622402459057,-1.625
-35.0,0.7669903939428205,0.0
-35.0,0.7853981633974483,-0.8125
-35.0,0.7853981633974483,0.0
-35.5,0.7915340865489908,-0.8125
-35.5,0.7915340865489908,-0.8125
-35.5,0.7792622402459057,1.625
-35.5,0.7976700097005334,-0.8125
-35.5,0.7976700097005334,-0.8125
-35.0,0.7976700097005334,0.8125
-35.5,0.7915340865489908,0.8125
-35.5,0.8160777791551611,-0.8125
-35.5,0.8099418560036186,-0.8125
-35.5,0.8160777791551611,0.0
-35.5,0.8283496254582462,-2.4375
-35.5,0.8160777791551611,0.0
-35.5,0.8160777791551611,0.8125
-35.5,0.8222137023067037,-1.625
-35.5,0.8222137023067037,-0.8125
-35.5,0.8222137023067037,-0.8125
-35.5,0.8222137023067037,0.0
-35.5,0.8344855486097889,-0.8125
-36.5,0.8344855486097889,0.0
-36.5,0.8160777791551611,2.4375
-36.5,0.8222137023067037,1.625
-36.5,0.8222137023067037,2.4375
-36.5,0.8406214717613314,0.0
-36.0,0.8467573949128739,2.4375
-36.5,0.8774370106705868,0.0
-36.5,0.8651651643675016,2.4375
-36.0,0.9081166264282996,-0.8125
-36.0,0.9326603190344698,1.625
-36.0,0.9633399347921826,2.4375
-36.0,0.9817477042468103,1.625
-36.0,1.0185632431560658,2.4375
-36.0,1.030835089459151,2.4375
-36.0,1.0615147052168636,1.625
-36.0,1.0615147052168636,2.4375
-36.0,1.055378782065321,4.875
-36.0,1.0676506283684062,5.6875
-36.0,1.0676506283684062,3.25
-36.0,1.043106935762236,6.5
-36.0,1.055378782065321,3.25
-36.0,1.030835089459151,5.6875
-36.0,1.012427320004523,5.6875
-36.0,1.012427320004523,2.4375
-36.0,1.0062913968529805,2.4375
-36.0,0.9940195505498954,2.4375
-36.0,0.9817477042468103,2.4375
-36.0,0.9878836273983529,0.8125
-36.0,0.9756117810952678,1.625
-35.5,0.9756117810952678,2.4375
-35.5,0.9817477042468103,0.8125
-35.5,1.000155473701438,0.0
-35.5,1.0062913968529805,1.625
-36.0,1.043106935762236,2.4375
-36.0,1.0492428589137786,2.4375
-36.0,1.055378782065321,5.6875
-36.0,1.0676506283684062,3.25
-36.0,1.055378782065321,4.875
-36.5,1.055378782065321,3.25
-36.5,1.0737865515199487,1.625
-36.0,1.055378782065321,5.6875
-36.0,1.0676506283684062,3.25
-36.5,1.0676506283684062,2.4375
-36.0,1.086058397823034,0.8125
-36.5,1.0676506283684062,5.6875
-36.5,1.0737865515199487,4.875
-36.5,1.0799224746714913,2.4375
-36.5,1.1044661672776617,0.0
-36.5,1.0983302441261191,1.625
-36.5,1.1044661672776617,2.4375
-36.5,1.1044661672776617,4.875
-36.5,1.1167380135807468,2.4375
-36.5,1.1106020904292042,3.25
-36.5,1.1167380135807468,3.25
-37.0,1.1106020904292042,1.625
-37.0,1.1106020904292042,3.25
-37.0,1.1351457830353744,1.625
-37.0,1.1290098598838318,5.6875
-37.0,1.1290098598838318,4.875
-37.5,1.1535535524900022,3.25
-37.5,1.141281706186917,7.3125
-38.0,1.141281706186917,3.25
-38.0,1.141281706186917,5.6875
-37.5,1.1535535524900022,3.25
-38.0,1.141281706186917,4.875
-38.0,1.1228739367322893,7.3125
-38.0,1.1290098598838318,5.6875
-38.0,1.1228739367322893,4.875
-38.0,1.1167380135807468,6.5
-38.0,1.1351457830353744,2.4375
-38.5,1.141281706186917,2.4375
-38.5,1.1290098598838318,3.25
-38.5,1.1228739367322893,5.6875
-38.5,1.1228739367322893,4.875
-38.5,1.1167380135807468,4.875
-38.5,1.1044661672776617,5.6875
-38.0,1.1290098598838318,1.625
-38.0,1.1167380135807468,4.875
-38.5,1.1106020904292042,4.875
-38.0,1.1290098598838318,1.625
-38.5,1.1167380135807468,4.875
-38.5,1.1044661672776617,5.6875
-38.0,1.1044661672776617,6.5
-38.5,1.1228739367322893,3.25
-38.5,1.1044661672776617,7.3125
-38.5,1.1167380135807468,4.875
-38.5,1.141281706186917,1.625
-38.5,1.1290098598838318,3.25
-38.5,1.1106020904292042,6.5
-38.5,1.1228739367322893,4.875
-38.5,1.1290098598838318,5.6875
-38.5,1.1474176293384597,1.625
-38.5,1.1351457830353744,6.5
-38.5,1.1596894756415448,3.25
-38.5,1.1658253987930873,1.625
-38.5,1.1658253987930873,5.6875
-38.5,1.1719613219446299,5.6875
-38.0,1.1658253987930873,5.6875
-38.5,1.1658253987930873,5.6875
-38.0,1.1780972450961724,4.875
-38.5,1.2026409377023426,1.625
-38.5,1.1903690913992575,5.6875
-38.5,1.1903690913992575,5.6875
-38.5,1.2026409377023426,3.25
-38.5,1.184233168247715,5.6875
-38.5,1.1965050145508,2.4375
-38.5,1.2026409377023426,3.25
-38.5,1.2026409377023426,1.625
-38.5,1.184233168247715,4.875
-38.5,1.1965050145508,1.625
-38.5,1.1658253987930873,6.5
-38.5,1.1903690913992575,3.25
-38.5,1.184233168247715,6.5
-38.5,1.184233168247715,6.5
-38.5,1.1903690913992575,2.4375
-38.5,1.184233168247715,5.6875
-38.0,1.1780972450961724,6.5
-38.5,1.1903690913992575,2.4375
-38.5,1.184233168247715,2.4375
-38.0,1.1719613219446299,5.6875
-38.0,1.1596894756415448,6.5
-38.0,1.184233168247715,1.625
-38.0,1.1719613219446299,5.6875
-38.0,1.1780972450961724,4.875
-38.0,1.1719613219446299,7.3125
-38.0,1.1780972450961724,5.6875
-38.0,1.1780972450961724,5.6875
-38.0,1.1658253987930873,5.6875
-38.0,1.1780972450961724,2.4375
-37.5,1.1658253987930873,6.5
-37.5,1.1780972450961724,5.6875
-37.5,1.184233168247715,0.0
-37.5,1.1658253987930873,3.25
-37.5,1.1596894756415448,5.6875
-37.5,1.1474176293384597,4.875
-37.5,1.1474176293384597,4.875
-37.5,1.1290098598838318,5.6875
-37.5,1.141281706186917,3.25
-37.0,1.1167380135807468,4.875
-37.5,1.1228739367322893,1.625
-37.5,1.0921943209745766,2.4375
-37.5,1.0921943209745766,2.4375
-37.0,1.0921943209745766,2.4375
-37.5,1.0921943209745766,4.875
-37.0,1.086058397823034,3.25
-37.0,1.086058397823034,5.6875
-37.5,1.1044661672776617,4.875
-37.5,1.1044661672776617,2.4375
-37.5,1.1106020904292042,3.25
-37.5,1.1228739367322893,3.25
-37.5,1.1106020904292042,3.25
-37.5,1.1228739367322893,3.25
-37.5,1.1167380135807468,3.25
-37.5,1.1167380135807468,3.25
-37.5,1.1167380135807468,3.25
-37.0,1.1106020904292042,3.25
-37.0,1.1167380135807468,3.25
-37.0,1.1106020904292042,4.875
-37.0,1.1106020904292042,5.6875
-37.0,1.1290098598838318,3.25
-37.0,1.1351457830353744,2.4375
-37.0,1.141281706186917,4.875
-37.0,1.1474176293384597,3.25
-37.0,1.1474176293384597,4.875
-37.0,1.1535535524900022,1.625
-37.0,1.1535535524900022,4.875
-37.0,1.1535535524900022,2.4375
-37.0,1.1474176293384597,5.6875
-37.0,1.1658253987930873,1.625
-37.0,1.1658253987930873,2.4375
-37.0,1.1596894756415448,3.25
-37.0,1.184233168247715,0.8125
-37.0,1.1903690913992575,1.625
-37.0,1.1780972450961724,4.875
-37.0,1.1965050145508,1.625
-36.5,1.1965050145508,2.4375
-37.0,1.2026409377023426,3.25
-36.5,1.2087768608538851,4.875
-37.0,1.2210487071569704,1.625
-36.5,1.214912784005428,5.6875
-37.0,1.227184630308513,1.625
-37.0,1.239456476611598,1.625
-37.0,1.2087768608538851,7.3125
-36.5,1.227184630308513,3.25
-37.0,1.2455923997631406,0.8125
-36.5,1.2455923997631406,1.625
-37.0,1.227184630308513,4.875
-37.0,1.2455923997631406,2.4375
-36.5,1.2333205534600555,5.6875
-36.5,1.239456476611598,4.875
-36.5,1.2640001692177683,4.875
-36.5,1.2578642460662257,6.5
-36.5,1.282407938672396,2.4375
-37.0,1.2762720155208536,2.4375
-36.5,1.2701360923693108,5.6875
-36.5,1.2578642460662257,4.875
-36.5,1.2517283229146832,5.6875
-36.5,1.2578642460662257,4.875
-36.5,1.2578642460662257,5.6875
-36.5,1.2578642460662257,3.25
-36.5,1.2701360923693108,3.25
-36.5,1.2885438618239387,1.625
-36.5,1.282407938672396,3.25
-36.5,1.2946797849754812,1.625
-36.5,1.2885438618239387,4.875
-36.0,1.3008157081270237,1.625
-36.5,1.2762720155208536,6.5
-36.5,1.2885438618239387,4.875
-36.5,1.282407938672396,4.875
-36.0,1.2885438618239387,2.4375
-36.0,1.282407938672396,4.875
-36.0,1.2885438618239387,4.875
-36.0,1.282407938672396,3.25
-36.0,1.2885438618239387,2.4375
-36.0,1.2946797849754812,2.4375
-36.0,1.3008157081270237,1.625
-36.0,1.3008157081270237,3.25
-36.0,1.2762720155208536,7.3125
-35.5,1.282407938672396,7.3125
-36.0,1.2885438618239387,4.875
-35.5,1.282407938672396,4.875
-35.5,1.2885438618239387,3.25
-35.5,1.2946797849754812,3.25
-35.5,1.2946797849754812,4.875
-35.5,1.2946797849754812,6.5
-35.0,1.3130875544301088,2.4375
-35.0,1.3314953238847365,2.4375
-35.0,1.325359400733194,3.25
-35.0,1.3314953238847365,5.6875
-35.5,1.325359400733194,1.625
-35.5,1.2885438618239387,4.875
-35.5,1.282407938672396,2.4375
-35.5,1.2640001692177683,5.6875
-35.5,1.2701360923693108,3.25
-35.5,1.2640001692177683,3.25
-35.5,1.2517283229146832,4.875
-35.5,1.2517283229146832,3.25
-35.5,1.2517283229146832,5.6875
-35.5,1.239456476611598,4.875
-35.5,1.239456476611598,5.6875
-35.5,1.2333205534600555,6.5
-35.5,1.239456476611598,6.5
-35.0,1.2455923997631406,5.6875
-34.5,1.2026409377023426,5.6875
-34.0,1.1719613219446299,4.875
-34.0,1.0799224746714913,-0.8125
-33.5,0.8713010875190442,-2.4375
-33.5,0.7792622402459057,-6.5
-33.5,0.5890486225480862,-3.25
-34.0,0.36815538909255385,0.0
-35.0,0.2454369260617026,0.0
-36.5,0.1227184630308513,2.4375
-37.5,0.14726215563702155,1.625
-38.5,0.2761165418194154,3.25
-38.5,0.5583690067903734,2.4375
-38.5,0.6258641614573416,4.875
-37.0,0.6810874698212247,0.8125
-36.0,0.6135923151542565,0.0
-35.5,0.5460971604872883,-1.625
-35.0,0.4356505437595221,0.0
-35.0,0.34974761963792617,0.8125
-35.5,0.3129320807286708,-2.4375
-36.0,0.28225246497095796,0.0
-36.0,0.2945243112740431,0.8125
-36.5,0.3313398501832985,0.8125
-36.5,0.35588354278946877,2.4375
-36.5,0.4111068511533518,2.4375
-36.5,0.4295146206079795,2.4375
-36.0,0.4479223900626072,0.8125
-36.0,0.4356505437595221,2.4375
-35.5,0.4049709280018093,0.8125
-35.5,0.3988350048502667,0.8125
-35.5,0.380427235395639,0.8125
-36.0,0.3620194659410113,0.8125
-36.0,0.35588354278946877,2.4375
-36.0,0.36815538909255385,1.625
-36.0,0.3865631585471816,0.8125
-36.0,0.3988350048502667,1.625
-35.5,0.4111068511533518,1.625
-35.5,0.4049709280018093,0.8125
-35.5,0.3988350048502667,0.0
-35.0,0.37429131224409645,-0.8125
-35.5,0.34974761963792617,2.4375
-35.0,0.3374757733348411,0.8125
-35.0,0.3313398501832985,0.8125
-35.0,0.32520392703175593,1.625
-35.5,0.32520392703175593,3.25
-35.0,0.3313398501832985,0.0
-35.5,0.3190680038802134,0.8125
-35.5,0.3190680038802134,0.0
-35.0,0.3129320807286708,0.0
-35.5,0.2945243112740431,0.8125
-35.5,0.2945243112740431,0.8125
-35.0,0.2761165418194154,1.625
-35.5,0.2761165418194154,0.0
-35.0,0.28225246497095796,-1.625
-35.5,0.28838838812250056,-0.8125
-35.5,0.2638446955163303,2.4375
-35.5,0.2699806186678728,0.8125
-35.5,0.25770877236478773,4.875
-35.5,0.2699806186678728,0.8125
-35.0,0.2761165418194154,0.0
-35.0,0.2761165418194154,0.0
-35.0,0.2761165418194154,0.8125
-35.0,0.2638446955163303,0.8125
-35.0,0.2699806186678728,0.0
-35.0,0.2699806186678728,1.625
-35.0,0.2761165418194154,0.0
-35.0,0.2761165418194154,0.0
-35.5,0.2699806186678728,2.4375
-35.0,0.2761165418194154,2.4375
-35.0,0.28838838812250056,0.8125
-35.5,0.28225246497095796,1.625
-35.5,0.28225246497095796,3.25
-35.5,0.30066023442558565,0.0
-35.0,0.28838838812250056,2.4375
-35.5,0.30679615757712825,-0.8125
-35.5,0.2945243112740431,1.625
-35.5,0.28838838812250056,3.25
-35.5,0.3129320807286708,0.0
-35.5,0.30066023442558565,1.625
-35.5,0.28225246497095796,5.6875
-35.5,0.30679615757712825,0.0
-35.5,0.30066023442558565,0.8125
-35.5,0.30066023442558565,0.8125
-35.5,0.28838838812250056,1.625
-35.5,0.30679615757712825,-0.8125
-35.5,0.28225246497095796,2.4375
-35.5,0.2945243112740431,1.625
-35.5,0.2945243112740431,0.0
-35.5,0.28225246497095796,2.4375
-35.5,0.28838838812250056,1.625
-35.5,0.30066023442558565,0.0
-35.5,0.28838838812250056,0.0
-35.5,0.2761165418194154,3.25
-35.5,0.28225246497095796,1.625
-35.5,0.2699806186678728,2.4375
-35.5,0.2699806186678728,3.25
-35.5,0.2761165418194154,1.625
-35.5,0.2699806186678728,2.4375
-35.5,0.2761165418194154,2.4375
-35.5,0.2945243112740431,-0.8125
-35.5,0.28225246497095796,1.625
-35.5,0.2761165418194154,1.625
-35.5,0.28225246497095796,1.625
-35.5,0.28838838812250056,1.625
-35.5,0.2945243112740431,0.8125
-35.5,0.2945243112740431,2.4375
-35.5,0.30066023442558565,1.625
-35.5,0.2945243112740431,2.4375
-35.5,0.28838838812250056,3.25
-35.5,0.30679615757712825,1.625
-35.5,0.30679615757712825,0.8125
-35.5,0.3190680038802134,-0.8125
-35.5,0.30066023442558565,1.625
-35.5,0.30066023442558565,2.4375
-35.5,0.3129320807286708,0.8125
