0000000000000000000000AA,865.7,2.1598449,2.4375
00000000000000000000AAAA,865.7,3.3195345,0.8125
00000000000000AAAAAAAAAA,865.7,4.718525,0.0
000000000000000000AAAAAA,865.7,4.632622,6.5
000000000000000000AAAAAA,865.7,4.6387577,5.6875
00000000000000000000AAAA,865.7,3.4606607,-23.5625
0000000000000000000000AA,865.7,2.1659808,5.6875
00000000000000AAAAAAAAAA,865.7,4.718525,4.0625
0000000000000000000000AA,865.7,2.1598449,5.6875
000000000000000000AAAAAA,865.7,4.6633015,0.8125
00000000000000000000AAAA,865.7,3.362486,1.625
00000000000000AAAAAAAAAA,865.7,4.706253,4.875
00000000000000AAAAAAAAAA,865.7,4.706253,2.4375
00000000000000000000AAAA,865.7,3.2581751,0.0
000000000000000000AAAAAA,865.7,4.6755733,-1.625
0000000000000000000000AA,865.7,2.1414373,5.6875
00000000000000AAAAAAAAAA,865.7,4.706253,1.625
0000000000000000000000AA,865.7,2.1353014,7.3125
000000000000000000AAAAAA,865.7,4.6448936,5.6875
00000000000000000000AAAA,865.7,3.0925052,52.875
0000000000000000000000AA,865.7,2.1414373,2.4375
00000000000000000000AAAA,865.7,3.3379421,-1.625
000000000000000000AAAAAA,865.7,4.687845,4.0625
00000000000000AAAAAAAAAA,865.7,4.706253,0.8125
000000000000000000AAAAAA,865.7,4.6817093,0.0
0000000000000000000000AA,865.7,2.1414373,2.4375
00000000000000AAAAAAAAAA,865.7,4.6817093,8.125
00000000000000000000AAAA,865.7,3.2213597,18.6875
00000000000000000000AAAA,865.7,3.1600003,12.1875
0000000000000000000000AA,865.7,2.1353014,8.125
00000000000000AAAAAAAAAA,865.7,4.718525,2.4375
000000000000000000AAAAAA,865.7,4.6817093,0.0
00000000000000000000AAAA,865.7,3.350214,18.6875
0000000000000000000000AA,865.7,2.1414373,1.625
000000000000000000AAAAAA,865.7,4.693981,-0.8125
00000000000000AAAAAAAAAA,865.7,4.700117,4.0625
0000000000000000000000AA,865.7,2.147573,4.875
00000000000000000000AAAA,865.7,3.2152238,-1.625
000000000000000000AAAAAA,865.7,4.700117,-1.625
00000000000000AAAAAAAAAA,865.7,4.712389,1.625
000000000000000000AAAAAA,865.7,4.6571655,4.875
00000000000000AAAAAAAAAA,865.7,4.718525,1.625
00000000000000000000AAAA,865.7,3.3379421,-8.9375
0000000000000000000000AA,865.7,2.1353014,7.3125
0000000000000000000000AA,865.7,2.1414373,1.625
00000000000000AAAAAAAAAA,865.7,4.693981,7.3125
000000000000000000AAAAAA,865.7,4.687845,2.4375
00000000000000000000AAAA,865.7,3.2152238,22.75
0000000000000000000000AA,865.7,2.1414373,2.4375
000000000000000000AAAAAA,865.7,4.6694374,5.6875
00000000000000AAAAAAAAAA,865.7,4.7492046,-1.625
00000000000000000000AAAA,865.7,3.0679617,24.375
00000000000000000000AAAA,865.7,3.3256702,0.0
00000000000000AAAAAAAAAA,865.7,4.7430687,-4.0625
0000000000000000000000AA,865.7,2.1291654,4.0625
000000000000000000AAAAAA,865.7,4.700117,1.625
00000000000000AAAAAAAAAA,865.7,4.730797,0.0
0000000000000000000000AA,865.7,2.1353014,4.0625
000000000000000000AAAAAA,865.7,4.6817093,0.8125
00000000000000000000AAAA,865.7,3.202952,4.875
00000000000000AAAAAAAAAA,865.7,4.712389,4.875
0000000000000000000000AA,865.7,2.1291654,4.0625
00000000000000000000AAAA,865.7,3.2397673,10.5625
000000000000000000AAAAAA,865.7,4.693981,2.4375
000000000000000000AAAAAA,865.7,4.6694374,6.5
0000000000000000000000AA,865.7,2.1353014,2.4375
00000000000000AAAAAAAAAA,865.7,4.706253,4.0625
00000000000000000000AAAA,865.7,3.104777,31.6875
000000000000000000AAAAAA,865.7,4.687845,1.625
00000000000000AAAAAAAAAA,865.7,4.718525,0.0
0000000000000000000000AA,865.7,2.1291654,1.625
00000000000000000000AAAA,865.7,3.1538644,30.875
00000000000000AAAAAAAAAA,865.7,4.706253,2.4375
000000000000000000AAAAAA,865.7,4.693981,4.0625
0000000000000000000000AA,865.7,2.1230295,7.3125
000000000000000000AAAAAA,865.7,4.6817093,6.5
0000000000000000000000AA,865.7,2.1353014,0.8125
00000000000000AAAAAAAAAA,865.7,4.693981,5.6875
00000000000000AAAAAAAAAA,865.7,4.7369328,-0.8125
000000000000000000AAAAAA,865.7,4.687845,2.4375
0000000000000000000000AA,865.7,2.1291654,2.4375
0000000000000000000000AA,865.7,2.1291654,1.625
00000000000000AAAAAAAAAA,865.7,4.730797,1.625
000000000000000000AAAAAA,865.7,4.6817093,4.875
0000000000000000000000AA,865.7,2.1230295,5.6875
000000000000000000AAAAAA,865.7,4.6633015,8.125
00000000000000AAAAAAAAAA,865.7,4.693981,7.3125
00000000000000AAAAAAAAAA,865.7,4.712389,0.8125
000000000000000000AAAAAA,865.7,4.706253,-1.625
0000000000000000000000AA,865.7,2.1168935,2.4375
0000000000000000000000AA,865.7,2.1230295,1.625
000000000000000000AAAAAA,865.7,4.706253,1.625
00000000000000AAAAAAAAAA,865.7,4.687845,8.9375
000000000000000000AAAAAA,865.7,4.693981,-0.8125
00000000000000AAAAAAAAAA,865.7,4.718525,0.8125
0000000000000000000000AA,865.7,2.1168935,1.625
0000000000000000000000AA,865.7,2.1230295,0.8125
000000000000000000AAAAAA,865.7,4.706253,2.4375
00000000000000AAAAAAAAAA,865.7,4.693981,6.5
000000000000000000AAAAAA,865.7,4.687845,5.6875
0000000000000000000000AA,865.7,2.1046216,5.6875
00000000000000AAAAAAAAAA,865.7,4.7369328,-0.8125
000000000000000000AAAAAA,865.7,4.712389,1.625
00000000000000AAAAAAAAAA,865.7,4.7369328,0.8125
0000000000000000000000AA,865.7,2.1046216,4.0625
0000000000000000000000AA,865.7,2.1046216,4.0625
00000000000000AAAAAAAAAA,865.7,4.724661,2.4375
000000000000000000AAAAAA,865.7,4.693981,-0.8125
00000000000000AAAAAAAAAA,865.7,4.724661,4.0625
0000000000000000000000AA,865.7,2.0984857,2.4375
000000000000000000AAAAAA,865.7,4.6755733,5.6875
000000000000000000AAAAAA,865.7,4.6817093,2.4375
0000000000000000000000AA,865.7,2.1107576,0.8125
00000000000000AAAAAAAAAA,865.7,4.7492046,0.0
0000000000000000000000AA,865.7,2.0923498,4.0625
00000000000000AAAAAAAAAA,865.7,4.724661,5.6875
000000000000000000AAAAAA,865.7,4.706253,-1.625
000000000000000000AAAAAA,865.7,4.6694374,4.875
00000000000000AAAAAAAAAA,865.7,4.718525,6.5
0000000000000000000000AA,865.7,2.0923498,3.25
00000000000000AAAAAAAAAA,865.7,4.718525,5.6875
0000000000000000000000AA,865.7,2.0923498,5.6875
000000000000000000AAAAAA,865.7,4.6448936,6.5
00000000000000AAAAAAAAAA,865.7,4.7430687,2.4375
000000000000000000AAAAAA,865.7,4.700117,1.625
0000000000000000000000AA,865.7,2.0984857,1.625
0000000000000000000000AA,865.7,2.0862138,2.4375
000000000000000000AAAAAA,865.7,4.6633015,5.6875
00000000000000AAAAAAAAAA,865.7,4.7369328,4.875
0000000000000000000000AA,865.7,2.080078,5.6875
000000000000000000AAAAAA,865.7,4.700117,1.625
00000000000000AAAAAAAAAA,865.7,4.718525,6.5
0000000000000000000000AA,865.7,2.073942,4.0625
000000000000000000AAAAAA,865.7,4.626486,10.5625
00000000000000AAAAAAAAAA,865.7,4.7553406,-0.8125
000000000000000000AAAAAA,865.7,4.693981,-0.8125
00000000000000AAAAAAAAAA,865.7,4.730797,4.875
0000000000000000000000AA,865.7,2.0862138,4.875
00000000000000AAAAAAAAAA,865.7,4.7369328,4.875
000000000000000000AAAAAA,865.7,4.718525,-6.5
0000000000000000000000AA,865.7,2.073942,2.4375
0000000000000000000000AA,865.7,2.06167,4.875
000000000000000000AAAAAA,865.7,4.693981,0.8125
00000000000000AAAAAAAAAA,865.7,4.7492046,4.0625
00000000000000AAAAAAAAAA,865.7,4.7492046,5.6875
0000000000000000000000AA,865.7,2.06167,7.3125
000000000000000000AAAAAA,865.7,4.6694374,2.4375
0000000000000000000000AA,865.7,2.073942,3.25
000000000000000000AAAAAA,865.7,4.6387577,5.6875
00000000000000AAAAAAAAAA,865.7,4.7676125,-1.625
000000000000000000AAAAAA,865.7,4.6387577,4.0625
00000000000000AAAAAAAAAA,865.7,4.730797,6.5
0000000000000000000000AA,865.7,2.0555344,6.5
00000000000000AAAAAAAAAA,865.7,4.7860203,-4.0625
0000000000000000000000AA,865.7,2.0555344,4.0625
000000000000000000AAAAAA,865.7,4.6387577,4.0625
00000000000000AAAAAAAAAA,865.7,4.7676125,-0.8125
0000000000000000000000AA,865.7,2.06167,3.25
000000000000000000AAAAAA,865.7,4.6142144,7.3125
000000000000000000AAAAAA,865.7,4.6694374,-0.8125
00000000000000AAAAAAAAAA,865.7,4.7860203,-2.4375
0000000000000000000000AA,865.7,2.0432625,5.6875
000000000000000000AAAAAA,865.7,4.626486,4.875
00000000000000AAAAAAAAAA,865.7,4.7982917,0.0
0000000000000000000000AA,865.7,2.0432625,4.875
000000000000000000AAAAAA,865.7,4.6387577,4.0625
0000000000000000000000AA,865.7,2.0309906,7.3125
00000000000000AAAAAAAAAA,865.7,4.7798843,0.8125
0000000000000000000000AA,865.7,2.0309906,2.4375
000000000000000000AAAAAA,865.7,4.577399,4.875
00000000000000AAAAAAAAAA,865.7,4.7676125,4.0625
0000000000000000000000AA,865.7,2.0371265,4.875
000000000000000000AAAAAA,865.7,4.6019425,4.0625
00000000000000AAAAAAAAAA,865.7,4.792156,-0.8125
00000000000000AAAAAAAAAA,865.7,4.7982917,0.0
000000000000000000AAAAAA,865.7,4.6142144,1.625
0000000000000000000000AA,865.7,2.0064468,6.5
0000000000000000000000AA,865.7,2.0125828,4.0625
00000000000000AAAAAAAAAA,865.7,4.8166995,1.625
000000000000000000AAAAAA,865.7,4.558991,0.0
0000000000000000000000AA,865.7,1.9941751,2.4375
00000000000000AAAAAAAAAA,865.7,4.8044276,-1.625
000000000000000000AAAAAA,865.7,4.534447,5.6875
00000000000000AAAAAAAAAA,865.7,4.8044276,0.8125
0000000000000000000000AA,865.7,2.000311,4.875
000000000000000000AAAAAA,865.7,4.571263,-0.8125
0000000000000000000000AA,865.7,1.9819032,5.6875
00000000000000AAAAAAAAAA,865.7,4.8044276,0.0
000000000000000000AAAAAA,865.7,4.473088,7.3125
00000000000000AAAAAAAAAA,865.7,4.8228354,0.0
000000000000000000AAAAAA,865.7,4.473088,7.3125
0000000000000000000000AA,865.7,1.9696313,4.0625
0000000000000000000000AA,865.7,1.9634954,2.4375
00000000000000AAAAAAAAAA,865.7,4.853515,-4.875
000000000000000000AAAAAA,865.7,4.466952,1.625
000000000000000000AAAAAA,865.7,4.5099034,-1.625
0000000000000000000000AA,865.7,1.9450877,5.6875
00000000000000AAAAAAAAAA,865.7,4.847379,1.625
00000000000000AAAAAAAAAA,865.7,4.8412433,0.8125
000000000000000000AAAAAA,865.7,4.4485445,0.8125
0000000000000000000000AA,865.7,1.9389517,4.0625
000000000000000000AAAAAA,865.7,4.4976315,-8.9375
00000000000000AAAAAAAAAA,865.7,4.853515,1.625
0000000000000000000000AA,865.7,1.9266798,5.6875
000000000000000000AAAAAA,865.7,4.4424086,-4.0625
0000000000000000000000AA,865.7,1.9205439,5.6875
00000000000000AAAAAAAAAA,865.7,4.853515,4.0625
000000000000000000AAAAAA,865.7,4.3687773,1.625
00000000000000AAAAAAAAAA,865.7,4.853515,2.4375
0000000000000000000000AA,865.7,1.9082721,4.875
00000000000000AAAAAAAAAA,865.7,4.884195,-1.625
0000000000000000000000AA,865.7,1.9021362,4.0625
000000000000000000AAAAAA,865.7,4.3258257,2.4375
000000000000000000AAAAAA,865.7,4.3196898,-0.8125
00000000000000AAAAAAAAAA,865.7,4.871923,4.875
0000000000000000000000AA,865.7,1.8898643,2.4375
00000000000000AAAAAAAAAA,865.7,4.878059,4.0625
000000000000000000AAAAAA,865.7,4.2706027,0.8125
0000000000000000000000AA,865.7,1.8653207,3.25
00000000000000AAAAAAAAAA,865.7,4.8964667,2.4375
0000000000000000000000AA,865.7,1.8898643,0.8125
000000000000000000AAAAAA,865.7,4.258331,0.8125
0000000000000000000000AA,865.7,1.8591847,3.25
000000000000000000AAAAAA,865.7,4.227651,4.875
00000000000000AAAAAAAAAA,865.7,4.9271464,1.625
0000000000000000000000AA,865.7,1.8407769,2.4375
00000000000000AAAAAAAAAA,865.7,4.9455543,4.0625
000000000000000000AAAAAA,865.7,4.1785636,7.3125
00000000000000AAAAAAAAAA,865.7,4.9332824,4.0625
0000000000000000000000AA,865.7,1.8162333,2.4375
000000000000000000AAAAAA,865.7,4.147884,-0.8125
000000000000000000AAAAAA,865.7,4.080389,9.75
0000000000000000000000AA,865.7,1.8100973,0.0
00000000000000AAAAAAAAAA,865.7,4.9823694,1.625
00000000000000AAAAAAAAAA,865.7,4.9823694,2.4375
000000000000000000AAAAAA,865.7,4.0374374,8.125
0000000000000000000000AA,865.7,1.7610099,6.5
0000000000000000000000AA,865.7,1.748738,4.875
000000000000000000AAAAAA,865.7,3.9638064,10.5625
00000000000000AAAAAAAAAA,865.7,5.031457,0.0
0000000000000000000000AA,865.7,1.7303303,4.0625
000000000000000000AAAAAA,865.7,3.9638064,2.4375
00000000000000AAAAAAAAAA,865.7,5.043729,0.8125
00000000000000AAAAAAAAAA,865.7,5.049865,4.875
0000000000000000000000AA,865.7,1.681243,6.5
000000000000000000AAAAAA,865.7,3.8165443,7.3125
000000000000000000AAAAAA,865.7,3.8104084,-1.625
00000000000000AAAAAAAAAA,865.7,5.11736,0.8125
0000000000000000000000AA,865.7,1.6505634,2.4375
0000000000000000000000AA,865.7,1.6198837,2.4375
00000000000000AAAAAAAAAA,865.7,5.1357675,6.5
000000000000000000AAAAAA,865.7,3.6999617,-8.9375
00000000000000AAAAAAAAAA,865.7,5.184855,4.875
0000000000000000000000AA,865.7,1.5585245,4.0625
000000000000000000AAAAAA,865.7,3.4606607,12.1875
000000000000000000AAAAAA,865.7,3.4667966,-0.8125
0000000000000000000000AA,865.7,1.521709,2.4375
00000000000000AAAAAAAAAA,865.7,5.2584863,2.4375
000000000000000000AAAAAA,865.7,3.3195345,16.25
00000000000000AAAAAAAAAA,865.7,5.289166,1.625
0000000000000000000000AA,865.7,1.4910294,-0.8125
000000000000000000AAAAAA,865.7,3.2520392,8.9375
00000000000000AAAAAAAAAA,865.7,5.3137093,2.4375
0000000000000000000000AA,865.7,1.4296701,3.25
000000000000000000AAAAAA,865.7,3.202952,6.5
0000000000000000000000AA,865.7,1.3744467,5.6875
00000000000000AAAAAAAAAA,865.7,5.362797,6.5
0000000000000000000000AA,865.7,1.3376312,4.875
00000000000000AAAAAAAAAA,865.7,5.424156,1.625
000000000000000000AAAAAA,865.7,3.0066023,17.0625
0000000000000000000000AA,865.7,1.3314953,-0.8125
00000000000000AAAAAAAAAA,865.7,5.460972,5.6875
00000000000000AAAAAAAAAA,865.7,5.503923,1.625
0000000000000000000000AA,865.7,1.2455924,4.875
0000000000000000000000AA,865.7,1.2149128,2.4375
00000000000000AAAAAAAAAA,865.7,5.503923,4.0625
0000000000000000000000AA,865.7,1.1842332,2.4375
00000000000000AAAAAAAAAA,865.7,5.5407386,0.8125
00000000000000AAAAAAAAAA,865.7,5.5652823,-0.8125
0000000000000000000000AA,865.7,1.1535536,0.0
0000000000000000AAAAAAAA,865.7,6.1911464,-17.875
0000000000000000000000AA,865.7,1.1290098,-0.8125
0000000000000000AAAAAAAA,865.7,6.0009327,15.4375
00000000000000AAAAAAAAAA,865.7,5.5468745,1.625
00000000000000AAAAAAAAAA,865.7,5.5714183,-1.625
0000000000000000000000AA,865.7,1.1106021,0.8125
0000000000000000AAAAAAAA,865.7,5.927302,6.5
00000000000000000000AAAA,865.7,2.9145634,37.375
0000000000000000AAAAAAAA,865.7,5.9457097,-3.25
0000000000000000000000AA,865.7,1.0860584,3.25
00000000000000AAAAAAAAAA,865.7,5.5591464,-0.8125
00000000000000000000AAAA,865.7,2.804117,8.9375
00000000000000AAAAAAAAAA,865.7,5.5407386,1.625
0000000000000000000000AA,865.7,1.1044662,2.4375
00000000000000000000AAAA,865.7,2.5464082,5.6875
0000000000000000AAAAAAAA,865.7,5.7861757,2.4375
00000000000000000000AAAA,865.7,2.3684664,8.9375
00000000000000AAAAAAAAAA,865.7,5.5591464,-2.4375
0000000000000000000000AA,865.7,1.1228739,5.6875
0000000000000000AAAAAAAA,865.7,5.7064085,8.125
00000000000000000000AAAA,865.7,2.2273402,5.6875
0000000000000000000000AA,865.7,1.116738,4.875
00000000000000AAAAAAAAAA,865.7,5.5468745,-0.8125
00000000000000AAAAAAAAAA,865.7,5.5530105,-0.8125
00000000000000000000AAAA,865.7,2.0923498,9.75
0000000000000000000000AA,865.7,1.1658254,1.625
00000000000000AAAAAAAAAA,865.7,5.5346026,-0.8125
00000000000000000000AAAA,865.7,1.9819032,8.9375
0000000000000000000000AA,865.7,1.1535536,7.3125
00000000000000000000AAAA,865.7,2.0248547,1.625
00000000000000AAAAAAAAAA,865.7,5.5468745,-2.4375
0000000000000000000000AA,865.7,1.1658254,5.6875
00000000000000AAAAAAAAAA,865.7,5.5346026,-2.4375
00000000000000000000AAAA,865.7,1.9450877,0.0
0000000000000000AAAAAAAA,865.7,5.5407386,3.25
0000000000000000000000AA,865.7,1.2210487,-3.25
0000000000000000000000AA,865.7,1.1842332,3.25
00000000000000000000AAAA,865.7,1.914408,3.25
0000000000000000AAAAAAAA,865.7,5.5346026,-1.625
00000000000000AAAAAAAAAA,865.7,5.516195,0.0
0000000000000000000000AA,865.7,1.1842332,5.6875
00000000000000000000AAAA,865.7,1.8960003,-0.8125
0000000000000000AAAAAAAA,865.7,5.503923,-1.625
00000000000000AAAAAAAAAA,865.7,5.510059,0.8125
00000000000000AAAAAAAAAA,865.7,5.497787,1.625
00000000000000000000AAAA,865.7,1.8837284,-8.125
0000000000000000AAAAAAAA,865.7,5.503923,-2.4375
0000000000000000000000AA,865.7,1.2333206,-2.4375
00000000000000000000AAAA,865.7,1.7916895,10.5625
00000000000000AAAAAAAAAA,865.7,5.510059,0.8125
0000000000000000AAAAAAAA,865.7,5.3934765,16.25
0000000000000000000000AA,865.7,1.2333206,-0.8125
0000000000000000AAAAAAAA,865.7,5.4180202,3.25
0000000000000000000000AA,865.7,1.1842332,7.3125
00000000000000AAAAAAAAAA,865.7,5.485515,1.625
00000000000000000000AAAA,865.7,1.7978255,0.8125
00000000000000AAAAAAAAAA,865.7,5.485515,2.4375
0000000000000000000000AA,865.7,1.2578642,-1.625
00000000000000000000AAAA,865.7,1.7916895,0.8125
0000000000000000AAAAAAAA,865.7,5.4118843,12.1875
0000000000000000000000AA,865.7,1.2149128,3.25
0000000000000000AAAAAAAA,865.7,5.436428,4.875
00000000000000AAAAAAAAAA,865.7,5.485515,2.4375
00000000000000000000AAAA,865.7,1.7057866,5.6875
0000000000000000000000AA,865.7,1.2149128,4.875
0000000000000000AAAAAAAA,865.7,5.516195,0.0
00000000000000000000AAAA,865.7,1.6198837,16.25
00000000000000AAAAAAAAAA,865.7,5.4671073,4.0625
0000000000000000AAAAAAAA,865.7,5.479379,2.4375
00000000000000AAAAAAAAAA,865.7,5.454836,1.625
0000000000000000000000AA,865.7,1.276272,2.4375
00000000000000000000AAAA,865.7,1.5094371,11.375
0000000000000000000000AA,865.7,1.3130876,0.0
00000000000000AAAAAAAAAA,865.7,5.442564,1.625
0000000000000000AAAAAAAA,865.7,5.5714183,3.25
00000000000000000000AAAA,865.7,1.515573,-1.625
00000000000000AAAAAAAAAA,865.7,5.436428,1.625
0000000000000000000000AA,865.7,1.2701361,6.5
00000000000000000000AAAA,865.7,1.441942,0.0
0000000000000000AAAAAAAA,865.7,5.638913,2.4375
0000000000000000AAAAAAAA,865.7,5.61437,9.75
00000000000000AAAAAAAAAA,865.7,5.4180202,4.875
00000000000000000000AAAA,865.7,1.3989905,0.8125
0000000000000000000000AA,865.7,1.2701361,4.875
00000000000000000000AAAA,865.7,1.3744467,7.3125
0000000000000000000000AA,865.7,1.3069516,0.0
00000000000000AAAAAAAAAA,865.7,5.436428,0.8125
0000000000000000AAAAAAAA,865.7,5.767768,-9.75
00000000000000000000AAAA,865.7,1.356039,8.125
0000000000000000000000AA,865.7,1.3253593,-2.4375
0000000000000000AAAAAAAA,865.7,5.804583,-6.5
000000000000000000AAAAAA,865.7,4.847379,8.9375
00000000000000AAAAAAAAAA,865.7,5.4180202,4.0625
0000000000000000AAAAAAAA,865.7,5.737088,11.375
00000000000000AAAAAAAAAA,865.7,5.436428,1.625
00000000000000000000AAAA,865.7,1.3683108,5.6875
0000000000000000000000AA,865.7,1.3008157,0.0
000000000000000000AAAAAA,865.7,4.847379,6.5
00000000000000000000AAAA,865.7,1.3805827,2.4375
0000000000000000AAAAAAAA,865.7,5.767768,8.125
000000000000000000AAAAAA,865.7,4.9210105,-6.5
00000000000000AAAAAAAAAA,865.7,5.442564,-0.8125
0000000000000000000000AA,865.7,1.1965051,9.75
0000000000000000000000AA,865.7,1.2701361,2.4375
00000000000000AAAAAAAAAA,865.7,5.442564,0.8125
00000000000000000000AAAA,865.7,1.362175,4.875
000000000000000000AAAAAA,865.7,4.8105636,5.6875
0000000000000000AAAAAAAA,865.7,5.816855,8.125
0000000000000000000000AA,865.7,1.2026409,12.1875
00000000000000000000AAAA,865.7,1.3314953,7.3125
00000000000000AAAAAAAAAA,865.7,5.430292,0.8125
000000000000000000AAAAAA,865.7,4.8044276,8.9375
0000000000000000AAAAAAAA,865.7,5.8659425,-2.4375
000000000000000000AAAAAA,865.7,4.8289714,4.875
0000000000000000AAAAAAAA,865.7,5.8904862,-3.25
00000000000000AAAAAAAAAA,865.7,5.430292,1.625
0000000000000000000000AA,865.7,1.3253593,-8.125
00000000000000000000AAAA,865.7,1.3069516,12.1875
000000000000000000AAAAAA,865.7,4.8228354,4.0625
0000000000000000AAAAAAAA,865.7,5.8598065,9.75
0000000000000000000000AA,865.7,1.1658254,12.1875
00000000000000000000AAAA,865.7,1.3683108,1.625
00000000000000AAAAAAAAAA,865.7,5.424156,4.875
00000000000000AAAAAAAAAA,865.7,5.436428,0.0
0000000000000000000000AA,865.7,1.2517283,0.0
00000000000000000000AAAA,865.7,1.3683108,4.875
0000000000000000AAAAAAAA,865.7,5.9518456,0.8125
000000000000000000AAAAAA,865.7,4.884195,-4.0625
000000000000000000AAAAAA,865.7,4.7798843,10.5625
0000000000000000AAAAAAAA,865.7,6.0193405,4.875
00000000000000AAAAAAAAAA,865.7,5.430292,0.0
00000000000000000000AAAA,865.7,1.3069516,8.125
0000000000000000000000AA,865.7,1.1228739,11.375
00000000000000AAAAAAAAAA,865.7,5.4180202,1.625
0000000000000000AAAAAAAA,865.7,6.062292,0.8125
000000000000000000AAAAAA,865.7,4.859651,-1.625
0000000000000000000000AA,865.7,1.1474177,4.875
00000000000000000000AAAA,865.7,1.3253593,4.875
00000000000000AAAAAAAAAA,865.7,5.424156,0.0
0000000000000000000000AA,865.7,0.99401957,8.9375
00000000000000000000AAAA,865.7,1.3253593,5.6875
0000000000000000AAAAAAAA,865.7,6.24637,-0.8125
000000000000000000AAAAAA,865.7,4.792156,6.5
00000000000000000000AAAA,865.7,1.3376312,2.4375
0000000000000000000000AA,865.7,1.0124273,-7.3125
000000000000000000AAAAAA,865.7,4.847379,8.125
0000000000000000AAAAAAAA,865.7,0.12271846,-9.75
00000000000000AAAAAAAAAA,865.7,5.4057484,4.0625
00000000000000000000AAAA,865.7,1.362175,-0.8125
0000000000000000000000AA,865.7,0.9387962,-18.6875
00000000000000AAAAAAAAAA,865.7,5.4180202,2.4375
0000000000000000AAAAAAAA,865.7,0.07363108,17.875
000000000000000000AAAAAA,865.7,5.013049,0.0
00000000000000000000AAAA,865.7,1.3192235,6.5
00000000000000AAAAAAAAAA,865.7,5.3934765,6.5
000000000000000000AAAAAA,865.7,5.0007772,5.6875
0000000000000000AAAAAAAA,865.7,0.30066022,-10.5625
0000000000000000000000AA,865.7,0.5829127,15.4375
00000000000000AAAAAAAAAA,865.7,5.424156,1.625
0000000000000000AAAAAAAA,865.7,0.2699806,4.875
0000000000000000000000AA,865.7,0.67495155,-5.6875
00000000000000000000AAAA,865.7,1.356039,1.625
000000000000000000AAAAAA,865.7,5.0621367,8.125
00000000000000000000AAAA,865.7,1.3437672,4.875
00000000000000AAAAAAAAAA,865.7,5.4180202,0.8125
0000000000000000AAAAAAAA,865.7,0.030679615,60.1875
0000000000000000000000AA,865.7,0.41724277,4.875
000000000000000000AAAAAA,865.7,5.1541753,2.4375
0000000000000000AAAAAAAA,865.7,0.49087384,-0.8125
0000000000000000000000AA,865.7,0.239301,22.75
00000000000000AAAAAAAAAA,865.7,5.4057484,1.625
000000000000000000AAAAAA,865.7,5.197127,2.4375
00000000000000000000AAAA,865.7,1.3805827,2.4375
0000000000000000AAAAAAAA,865.7,0.5154175,2.4375
000000000000000000AAAAAA,865.7,5.2155347,7.3125
00000000000000000000AAAA,865.7,1.3867186,0.8125
0000000000000000000000AA,865.7,0.24543692,1.625
00000000000000AAAAAAAAAA,865.7,5.4118843,0.8125
0000000000000000AAAAAAAA,865.7,0.6565438,-3.25
0000000000000000000000AA,865.7,0.319068,-17.875
000000000000000000AAAAAA,865.7,5.28303,4.0625
00000000000000000000AAAA,865.7,1.3744467,5.6875
00000000000000AAAAAAAAAA,865.7,5.4118843,0.0
000000000000000000AAAAAA,865.7,5.325981,0.8125
00000000000000000000AAAA,865.7,1.4112623,0.8125
0000000000000000AAAAAAAA,865.7,0.6320001,16.25
0000000000000000000000AA,865.7,0.25770876,-14.625
00000000000000AAAAAAAAAA,865.7,5.4118843,1.625
000000000000000000AAAAAA,865.7,5.3137093,8.125
00000000000000000000AAAA,865.7,1.4051265,4.875
0000000000000000000000AA,865.7,0.06135923,7.3125
00000000000000AAAAAAAAAA,865.7,5.3996124,1.625
00000000000000000000AAAA,865.7,1.4480779,0.0
0000000000000000000000AA,865.7,0.06749515,5.6875
00000000000000AAAAAAAAAA,865.7,5.3812046,4.0625
000000000000000000AAAAAA,865.7,5.338253,8.125
00000000000000000000AAAA,865.7,1.4480779,0.8125
000000000000000000AAAAAA,865.7,5.332117,9.75
00000000000000AAAAAAAAAA,865.7,5.3996124,1.625
0000000000000000000000AA,865.7,6.24637,5.6875
0000000000000000000000AA,865.7,6.227962,10.5625
00000000000000000000AAAA,865.7,1.4726216,1.625
00000000000000AAAAAAAAAA,865.7,5.4057484,0.0
000000000000000000AAAAAA,865.7,5.3996124,4.0625
0000000000000000000000AA,865.7,6.1543307,13.8125
00000000000000000000AAAA,865.7,1.4664856,3.25
00000000000000AAAAAAAAAA,865.7,5.4057484,-0.8125
000000000000000000AAAAAA,865.7,5.454836,-0.8125
0000000000000000000000AA,865.7,6.234098,-6.5
000000000000000000AAAAAA,865.7,5.4057484,8.9375
00000000000000AAAAAAAAAA,865.7,5.3996124,1.625
00000000000000000000AAAA,865.7,1.515573,-2.4375
00000000000000000000AAAA,865.7,1.4848934,5.6875
00000000000000AAAAAAAAAA,865.7,5.3689327,6.5
000000000000000000AAAAAA,865.7,5.460972,1.625
0000000000000000000000AA,865.7,6.1297874,8.125
000000000000000000AAAAAA,865.7,5.460972,4.875
0000000000000000000000AA,865.7,6.1788745,0.0
00000000000000000000AAAA,865.7,1.5094371,0.0
00000000000000AAAAAAAAAA,865.7,5.3996124,0.8125
0000000000000000000000AA,865.7,6.2034183,-0.8125
00000000000000000000AAAA,865.7,1.5033011,2.4375
00000000000000AAAAAAAAAA,865.7,5.3689327,8.125
000000000000000000AAAAAA,865.7,5.442564,6.5
00000000000000000000AAAA,865.7,1.5339808,-0.8125
00000000000000AAAAAAAAAA,865.7,5.3750687,5.6875
0000000000000000000000AA,865.7,6.221826,-11.375
000000000000000000AAAAAA,865.7,5.4671073,1.625
000000000000000000AAAAAA,865.7,5.479379,2.4375
0000000000000000000000AA,865.7,6.1543307,-2.4375
00000000000000000000AAAA,865.7,1.5278449,0.8125
00000000000000AAAAAAAAAA,865.7,5.3689327,5.6875
00000000000000000000AAAA,865.7,1.521709,0.8125
000000000000000000AAAAAA,865.7,5.497787,4.0625
0000000000000000000000AA,865.7,6.1359234,0.0
00000000000000AAAAAAAAAA,865.7,5.3996124,1.625
0000000000000000000000AA,865.7,6.1543307,-3.25
00000000000000000000AAAA,865.7,1.5278449,2.4375
00000000000000AAAAAAAAAA,865.7,5.3812046,4.0625
000000000000000000AAAAAA,865.7,5.5284667,-0.8125
000000000000000000AAAAAA,865.7,5.503923,4.0625
0000000000000000000000AA,865.7,6.0254765,17.875
00000000000000000000AAAA,865.7,1.5646604,-1.625
00000000000000AAAAAAAAAA,865.7,5.3750687,5.6875
00000000000000AAAAAAAAAA,865.7,5.3996124,1.625
0000000000000000000000AA,865.7,6.056156,8.9375
00000000000000000000AAAA,865.7,1.5646604,0.0
000000000000000000AAAAAA,865.7,5.5407386,0.0
000000000000000000AAAAAA,865.7,5.5284667,0.8125
00000000000000000000AAAA,865.7,1.5523885,0.0
00000000000000AAAAAAAAAA,865.7,5.3689327,4.0625
0000000000000000000000AA,865.7,6.1175156,-0.8125
0000000000000000000000AA,865.7,6.1236515,-4.875
000000000000000000AAAAAA,865.7,5.510059,6.5
00000000000000AAAAAAAAAA,865.7,5.3934765,1.625
00000000000000000000AAAA,865.7,1.5401167,3.25
00000000000000000000AAAA,865.7,1.5339808,6.5
00000000000000AAAAAAAAAA,865.7,5.3750687,4.875
000000000000000000AAAAAA,865.7,5.5652823,0.8125
0000000000000000000000AA,865.7,6.1236515,-7.3125
00000000000000000000AAAA,865.7,1.5462526,3.25
00000000000000AAAAAAAAAA,865.7,5.356661,7.3125
0000000000000000000000AA,865.7,6.1359234,-10.5625
000000000000000000AAAAAA,865.7,5.5530105,5.6875
00000000000000AAAAAAAAAA,865.7,5.3934765,1.625
000000000000000000AAAAAA,865.7,5.5652823,5.6875
00000000000000000000AAAA,865.7,1.5585245,3.25
0000000000000000000000AA,865.7,6.1175156,-8.9375
00000000000000000000AAAA,865.7,1.5585245,0.8125
00000000000000AAAAAAAAAA,865.7,5.3873405,4.875
0000000000000000000000AA,865.7,5.9579816,12.1875
000000000000000000AAAAAA,865.7,5.602098,-2.4375
000000000000000000AAAAAA,865.7,5.5714183,4.0625
0000000000000000000000AA,865.7,6.0807,-3.25
00000000000000000000AAAA,865.7,1.5707964,2.4375
00000000000000AAAAAAAAAA,865.7,5.356661,8.125
00000000000000AAAAAAAAAA,865.7,5.3873405,4.875
00000000000000000000AAAA,865.7,1.5769322,1.625
000000000000000000AAAAAA,865.7,5.602098,0.8125
0000000000000000000000AA,865.7,6.0438843,-3.25
0000000000000000000000AA,865.7,6.086836,-5.6875
00000000000000AAAAAAAAAA,865.7,5.3996124,1.625
00000000000000000000AAAA,865.7,1.5830681,0.0
000000000000000000AAAAAA,865.7,5.5652823,7.3125
000000000000000000AAAAAA,865.7,5.595962,0.8125
00000000000000000000AAAA,865.7,1.5892041,0.8125
0000000000000000000000AA,865.7,6.0070686,-5.6875
00000000000000AAAAAAAAAA,865.7,5.3934765,-0.8125
00000000000000AAAAAAAAAA,865.7,5.3689327,5.6875
00000000000000000000AAAA,865.7,1.5769322,0.8125
000000000000000000AAAAAA,865.7,5.5652823,5.6875
0000000000000000000000AA,865.7,6.0377483,5.6875
00000000000000AAAAAAAAAA,865.7,5.3934765,1.625
00000000000000000000AAAA,865.7,1.5830681,2.4375
0000000000000000000000AA,865.7,6.0132046,-1.625
000000000000000000AAAAAA,865.7,5.595962,0.0
000000000000000000AAAAAA,865.7,5.595962,2.4375
00000000000000000000AAAA,865.7,1.6137478,-2.4375
00000000000000AAAAAAAAAA,865.7,5.362797,5.6875
0000000000000000000000AA,865.7,6.0070686,2.4375
0000000000000000000000AA,865.7,5.982525,2.4375
00000000000000000000AAAA,865.7,1.5892041,0.0
000000000000000000AAAAAA,865.7,5.602098,0.8125
00000000000000AAAAAAAAAA,865.7,5.3750687,6.5
000000000000000000AAAAAA,865.7,5.5714183,8.125
0000000000000000000000AA,865.7,6.056156,-11.375
00000000000000AAAAAAAAAA,865.7,5.3996124,-0.8125
00000000000000000000AAAA,865.7,1.6076119,0.8125
0000000000000000000000AA,865.7,5.9518456,2.4375
00000000000000000000AAAA,865.7,1.6076119,1.625
000000000000000000AAAAAA,865.7,5.602098,-0.8125
00000000000000AAAAAAAAAA,865.7,5.356661,5.6875
000000000000000000AAAAAA,865.7,5.595962,1.625
0000000000000000000000AA,865.7,5.988661,0.8125
00000000000000AAAAAAAAAA,865.7,5.3996124,1.625
00000000000000000000AAAA,865.7,1.601476,3.25
00000000000000000000AAAA,865.7,1.601476,0.0
000000000000000000AAAAAA,865.7,5.5652823,5.6875
00000000000000AAAAAAAAAA,865.7,5.3750687,5.6875
0000000000000000000000AA,865.7,5.976389,0.8125
00000000000000AAAAAAAAAA,865.7,5.3750687,5.6875
0000000000000000000000AA,865.7,5.921166,8.125
00000000000000000000AAAA,865.7,1.601476,0.8125
000000000000000000AAAAAA,865.7,5.589826,0.8125
00000000000000000000AAAA,865.7,1.59534,2.4375
00000000000000AAAAAAAAAA,865.7,5.3750687,2.4375
000000000000000000AAAAAA,865.7,5.602098,-2.4375
0000000000000000000000AA,865.7,5.9579816,-5.6875
00000000000000000000AAAA,865.7,1.601476,1.625
0000000000000000000000AA,865.7,5.902758,0.0
00000000000000AAAAAAAAAA,865.7,5.356661,6.5
000000000000000000AAAAAA,865.7,5.5652823,4.875
000000000000000000AAAAAA,865.7,5.5714183,5.6875
0000000000000000000000AA,865.7,5.9579816,-3.25
00000000000000000000AAAA,865.7,1.601476,2.4375
00000000000000AAAAAAAAAA,865.7,5.3689327,7.3125
00000000000000000000AAAA,865.7,1.601476,2.4375
00000000000000AAAAAAAAAA,865.7,5.3996124,0.0
000000000000000000AAAAAA,865.7,5.577554,2.4375
0000000000000000000000AA,865.7,5.896622,-0.8125
0000000000000000000000AA,865.7,5.927302,-4.875
00000000000000000000AAAA,865.7,1.6321555,0.8125
00000000000000AAAAAAAAAA,865.7,5.362797,5.6875
000000000000000000AAAAAA,865.7,5.589826,0.0
00000000000000000000AAAA,865.7,1.6137478,2.4375
00000000000000AAAAAAAAAA,865.7,5.3689327,5.6875
0000000000000000000000AA,865.7,5.9457097,-9.75
000000000000000000AAAAAA,865.7,5.5468745,5.6875
00000000000000000000AAAA,865.7,1.6198837,0.8125
00000000000000AAAAAAAAAA,865.7,5.362797,5.6875
0000000000000000000000AA,865.7,5.902758,-5.6875
000000000000000000AAAAAA,865.7,5.5468745,5.6875
00000000000000000000AAAA,865.7,1.6260196,1.625
00000000000000AAAAAAAAAA,865.7,5.4118843,-0.8125
000000000000000000AAAAAA,865.7,5.577554,0.8125
0000000000000000000000AA,865.7,5.8720784,3.25
00000000000000AAAAAAAAAA,865.7,5.3873405,4.0625
000000000000000000AAAAAA,865.7,5.5468745,4.875
0000000000000000000000AA,865.7,5.8659425,-1.625
00000000000000000000AAAA,865.7,1.6198837,1.625
0000000000000000000000AA,865.7,5.908894,-8.9375
000000000000000000AAAAAA,865.7,5.5652823,1.625
00000000000000AAAAAAAAAA,865.7,5.3996124,1.625
00000000000000000000AAAA,865.7,1.6137478,4.875
000000000000000000AAAAAA,865.7,5.5407386,4.875
00000000000000000000AAAA,865.7,1.6260196,0.8125
00000000000000AAAAAAAAAA,865.7,5.362797,4.875
0000000000000000000000AA,865.7,5.804583,0.8125
00000000000000000000AAAA,865.7,1.6198837,2.4375
0000000000000000000000AA,865.7,5.822991,2.4375
00000000000000AAAAAAAAAA,865.7,5.3934765,-0.8125
000000000000000000AAAAAA,865.7,5.5468745,0.8125
0000000000000000000000AA,865.7,5.755496,7.3125
00000000000000000000AAAA,865.7,1.6260196,2.4375
000000000000000000AAAAAA,865.7,5.5223308,4.875
00000000000000AAAAAAAAAA,865.7,5.3934765,0.0
0000000000000000000000AA,865.7,5.7923117,8.125
00000000000000000000AAAA,865.7,1.6260196,4.875
00000000000000AAAAAAAAAA,865.7,5.3873405,4.875
000000000000000000AAAAAA,865.7,5.5407386,-0.8125
00000000000000000000AAAA,865.7,1.6260196,2.4375
00000000000000AAAAAAAAAA,865.7,5.3873405,2.4375
000000000000000000AAAAAA,865.7,5.5223308,4.0625
0000000000000000000000AA,865.7,5.7064085,6.5
000000000000000000AAAAAA,865.7,5.503923,5.6875
00000000000000AAAAAAAAAA,865.7,5.3873405,1.625
00000000000000000000AAAA,865.7,1.6260196,3.25
0000000000000000000000AA,865.7,5.78004,-1.625
00000000000000AAAAAAAAAA,865.7,5.3934765,0.0
00000000000000000000AAAA,865.7,1.6260196,3.25
000000000000000000AAAAAA,865.7,5.5407386,0.8125
0000000000000000000000AA,865.7,5.657321,13.8125
0000000000000000000000AA,865.7,5.7309523,0.8125
00000000000000000000AAAA,865.7,1.6382915,0.8125
000000000000000000AAAAAA,865.7,5.503923,4.875
00000000000000AAAAAAAAAA,865.7,5.3873405,0.8125
00000000000000000000AAAA,865.7,1.6321555,2.4375
00000000000000AAAAAAAAAA,865.7,5.350525,6.5
000000000000000000AAAAAA,865.7,5.491651,6.5
0000000000000000000000AA,865.7,5.7186804,-1.625
0000000000000000000000AA,865.7,5.7125444,-0.8125
00000000000000AAAAAAAAAA,865.7,5.3996124,0.8125
000000000000000000AAAAAA,865.7,5.5223308,1.625
00000000000000000000AAAA,865.7,1.6566993,-1.625
00000000000000000000AAAA,865.7,1.6321555,1.625
000000000000000000AAAAAA,865.7,5.510059,1.625
00000000000000AAAAAAAAAA,865.7,5.362797,4.875
0000000000000000000000AA,865.7,5.6818647,0.8125
00000000000000AAAAAAAAAA,865.7,5.3934765,1.625
000000000000000000AAAAAA,865.7,5.5284667,0.0
00000000000000000000AAAA,865.7,1.6321555,1.625
0000000000000000000000AA,865.7,5.7125444,-0.8125
00000000000000AAAAAAAAAA,865.7,5.3996124,0.8125
00000000000000000000AAAA,865.7,1.6321555,2.4375
000000000000000000AAAAAA,865.7,5.5223308,-2.4375
0000000000000000000000AA,865.7,5.7186804,-6.5
00000000000000000000AAAA,865.7,1.6382915,1.625
00000000000000AAAAAAAAAA,865.7,5.3689327,4.0625
000000000000000000AAAAAA,865.7,5.503923,-0.8125
0000000000000000000000AA,865.7,5.6266418,1.625
00000000000000000000AAAA,865.7,1.6505634,-0.8125
0000000000000000000000AA,865.7,5.675729,0.8125
00000000000000AAAAAAAAAA,865.7,5.3812046,2.4375
000000000000000000AAAAAA,865.7,5.460972,8.9375
000000000000000000AAAAAA,865.7,5.485515,1.625
00000000000000AAAAAAAAAA,865.7,5.3934765,1.625
0000000000000000000000AA,865.7,5.638913,0.0
00000000000000000000AAAA,865.7,1.6444274,0.8125
000000000000000000AAAAAA,865.7,5.479379,1.625
0000000000000000000000AA,865.7,5.61437,6.5
00000000000000AAAAAAAAAA,865.7,5.3873405,4.0625
00000000000000000000AAAA,865.7,1.6260196,-0.8125
00000000000000000000AAAA,865.7,1.6198837,0.8125
00000000000000AAAAAAAAAA,865.7,5.3689327,4.875
0000000000000000000000AA,865.7,5.6266418,2.4375
000000000000000000AAAAAA,865.7,5.503923,0.0
000000000000000000AAAAAA,865.7,5.497787,0.8125
0000000000000000000000AA,865.7,5.6880007,-5.6875
00000000000000000000AAAA,865.7,1.6321555,1.625
00000000000000AAAAAAAAAA,865.7,5.4180202,-4.0625
00000000000000AAAAAAAAAA,865.7,5.3934765,1.625
000000000000000000AAAAAA,865.7,5.5223308,-2.4375
00000000000000000000AAAA,865.7,1.6444274,0.0
0000000000000000000000AA,865.7,5.61437,0.8125
00000000000000AAAAAAAAAA,865.7,5.3996124,-0.8125
00000000000000000000AAAA,865.7,1.6076119,3.25
000000000000000000AAAAAA,865.7,5.479379,4.0625
0000000000000000000000AA,865.7,5.620506,0.8125
000000000000000000AAAAAA,865.7,5.497787,0.0
00000000000000000000AAAA,865.7,1.6076119,5.6875
0000000000000000000000AA,865.7,5.6327777,-1.625
00000000000000AAAAAAAAAA,865.7,5.3996124,0.8125
00000000000000AAAAAAAAAA,865.7,5.3996124,-1.625
0000000000000000000000AA,865.7,5.5652823,12.1875
000000000000000000AAAAAA,865.7,5.479379,2.4375
00000000000000000000AAAA,865.7,1.6321555,0.0
000000000000000000AAAAAA,865.7,5.485515,1.625
0000000000000000000000AA,865.7,5.577554,5.6875
00000000000000000000AAAA,865.7,1.5830681,7.3125
00000000000000AAAAAAAAAA,865.7,5.362797,6.5
00000000000000000000AAAA,865.7,1.6198837,4.875
00000000000000AAAAAAAAAA,865.7,5.3689327,4.875
000000000000000000AAAAAA,865.7,5.473243,4.0625
0000000000000000000000AA,865.7,5.638913,-2.4375
00000000000000AAAAAAAAAA,865.7,5.4057484,1.625
0000000000000000000000AA,865.7,5.58369,7.3125
000000000000000000AAAAAA,865.7,5.473243,2.4375
00000000000000000000AAAA,865.7,1.6382915,0.8125
00000000000000000000AAAA,865.7,1.6198837,2.4375
00000000000000AAAAAAAAAA,865.7,5.362797,6.5
0000000000000000000000AA,865.7,5.6327777,6.5
000000000000000000AAAAAA,865.7,5.491651,1.625
0000000000000000000000AA,865.7,5.657321,0.8125
00000000000000AAAAAAAAAA,865.7,5.3689327,5.6875
000000000000000000AAAAAA,865.7,5.510059,-1.625
00000000000000000000AAAA,865.7,1.6260196,1.625
000000000000000000AAAAAA,865.7,5.479379,2.4375
00000000000000000000AAAA,865.7,1.6076119,4.875
0000000000000000000000AA,865.7,5.651185,0.0
00000000000000AAAAAAAAAA,865.7,5.362797,4.875
00000000000000AAAAAAAAAA,865.7,5.350525,4.875
0000000000000000000000AA,865.7,5.6880007,-1.625
000000000000000000AAAAAA,865.7,5.4671073,4.875
00000000000000000000AAAA,865.7,1.6198837,2.4375
00000000000000000000AAAA,865.7,1.6198837,4.875
0000000000000000000000AA,865.7,5.675729,0.8125
00000000000000AAAAAAAAAA,865.7,5.362797,1.625
000000000000000000AAAAAA,865.7,5.460972,7.3125
00000000000000000000AAAA,865.7,1.6137478,2.4375
0000000000000000000000AA,865.7,5.761632,-1.625
000000000000000000AAAAAA,865.7,5.473243,5.6875
00000000000000AAAAAAAAAA,865.7,5.356661,1.625
00000000000000AAAAAAAAAA,865.7,5.338253,4.875
0000000000000000000000AA,865.7,5.7984476,-4.875
00000000000000000000AAAA,865.7,1.6382915,-1.625
000000000000000000AAAAAA,865.7,5.491651,4.875
000000000000000000AAAAAA,865.7,5.516195,0.8125
00000000000000AAAAAAAAAA,865.7,5.325981,6.5
00000000000000000000AAAA,865.7,1.59534,4.875
0000000000000000000000AA,865.7,5.7984476,-3.25
00000000000000000000AAAA,865.7,1.6137478,2.4375
0000000000000000000000AA,865.7,5.7923117,8.125
000000000000000000AAAAAA,865.7,5.503923,5.6875
00000000000000AAAAAAAAAA,865.7,5.338253,2.4375
000000000000000000AAAAAA,865.7,5.5284667,4.875
0000000000000000000000AA,865.7,5.8782144,8.125
00000000000000000000AAAA,865.7,1.601476,4.875
00000000000000AAAAAAAAAA,865.7,5.319845,5.6875
00000000000000AAAAAAAAAA,865.7,5.325981,4.0625
000000000000000000AAAAAA,865.7,5.5530105,4.875
00000000000000000000AAAA,865.7,1.6260196,1.625
0000000000000000000000AA,865.7,6.0377483,-1.625
000000000000000000AAAAAA,865.7,5.5714183,4.875
00000000000000AAAAAAAAAA,865.7,5.3137093,4.0625
00000000000000000000AAAA,865.7,1.6137478,1.625
0000000000000000000000AA,865.7,6.05002,6.5
0000000000000000000000AA,865.7,6.0807,9.75
00000000000000000000AAAA,865.7,1.6198837,0.8125
00000000000000AAAAAAAAAA,865.7,5.3014374,6.5
000000000000000000AAAAAA,865.7,5.595962,4.0625
00000000000000000000AAAA,865.7,1.6260196,1.625
00000000000000AAAAAAAAAA,865.7,5.3075733,2.4375
000000000000000000AAAAAA,865.7,5.595962,7.3125
0000000000000000000000AA,865.7,6.1666026,4.875
000000000000000000AAAAAA,865.7,5.6266418,1.625
00000000000000000000AAAA,865.7,1.6198837,1.625
0000000000000000000000AA,865.7,6.252506,-0.8125
00000000000000AAAAAAAAAA,865.7,5.3075733,2.4375
000000000000000000AAAAAA,865.7,5.6327777,5.6875
0000000000000000000000AA,865.7,0.01840777,-0.8125
00000000000000AAAAAAAAAA,865.7,5.28303,7.3125
00000000000000000000AAAA,865.7,1.6260196,1.625
00000000000000AAAAAAAAAA,865.7,5.289166,6.5
00000000000000000000AAAA,865.7,1.6321555,1.625
0000000000000000000000AA,865.7,0.030679615,2.4375
000000000000000000AAAAAA,865.7,5.663457,4.0625
000000000000000000AAAAAA,865.7,5.6941366,0.0
0000000000000000000000AA,865.7,0.0,-1.625
00000000000000AAAAAAAAAA,865.7,5.289166,6.5
00000000000000000000AAAA,865.7,1.6198837,2.4375
00000000000000000000AAAA,865.7,1.6260196,0.8125
0000000000000000000000AA,865.7,0.07363108,-0.8125
00000000000000AAAAAAAAAA,865.7,5.289166,1.625
000000000000000000AAAAAA,865.7,5.669593,2.4375
00000000000000000000AAAA,865.7,1.6260196,2.4375
0000000000000000000000AA,865.7,0.06135923,2.4375
00000000000000AAAAAAAAAA,865.7,5.28303,4.0625
000000000000000000AAAAAA,865.7,5.6941366,-0.8125
00000000000000000000AAAA,865.7,1.6382915,1.625
00000000000000AAAAAAAAAA,865.7,5.264622,4.0625
0000000000000000000000AA,865.7,0.21475731,6.5
000000000000000000AAAAAA,865.7,5.761632,4.875
000000000000000000AAAAAA,865.7,5.7923117,8.125
00000000000000000000AAAA,865.7,1.6505634,1.625
00000000000000AAAAAAAAAA,865.7,5.2339425,4.0625
0000000000000000000000AA,865.7,0.30066022,10.5625
000000000000000000AAAAAA,865.7,5.8598065,9.75
00000000000000AAAAAAAAAA,865.7,5.2155347,4.875
0000000000000000000000AA,865.7,0.49087384,-4.875
00000000000000000000AAAA,865.7,1.6566993,0.8125
0000000000000000000000AA,865.7,0.48473793,7.3125
00000000000000000000AAAA,865.7,1.6873789,-0.8125
00000000000000AAAAAAAAAA,865.7,5.184855,4.875
000000000000000000AAAAAA,865.7,6.074564,6.5
000000000000000000AAAAAA,865.7,6.234098,2.4375
00000000000000000000AAAA,865.7,1.7180585,3.25
0000000000000000000000AA,865.7,0.877437,-1.625
00000000000000AAAAAAAAAA,865.7,5.0928164,4.875
00000000000000AAAAAAAAAA,865.7,5.0989523,2.4375
0000000000000000000000AA,865.7,0.89584476,0.0
00000000000000000000AAAA,865.7,1.7241944,1.625
000000000000000000AAAAAA,865.7,6.234098,12.1875
000000000000000000AAAAAA,865.7,6.221826,10.5625
0000000000000000000000AA,865.7,0.85902923,7.3125
00000000000000000000AAAA,865.7,1.7180585,3.25
00000000000000AAAAAAAAAA,865.7,5.0805445,4.0625
00000000000000000000AAAA,865.7,1.7241944,2.4375
000000000000000000AAAAAA,865.7,0.0061359233,-0.8125
00000000000000AAAAAAAAAA,865.7,5.0866804,1.625
0000000000000000000000AA,865.7,0.92038846,-0.8125
00000000000000AAAAAAAAAA,865.7,5.0928164,0.0
000000000000000000AAAAAA,865.7,0.0061359233,1.625
00000000000000000000AAAA,865.7,1.7119225,2.4375
0000000000000000000000AA,865.7,0.9265244,-3.25
000000000000000000AAAAAA,865.7,0.030679615,0.8125
00000000000000AAAAAAAAAA,865.7,5.0928164,4.0625
00000000000000000000AAAA,865.7,1.7303303,0.8125
0000000000000000000000AA,865.7,0.92038846,-3.25
0000000000000000000000AA,865.7,0.89584476,0.8125
00000000000000000000AAAA,865.7,1.7180585,3.25
000000000000000000AAAAAA,865.7,0.0061359233,0.0
00000000000000AAAAAAAAAA,865.7,5.0866804,0.8125
00000000000000AAAAAAAAAA,865.7,5.0989523,0.8125
000000000000000000AAAAAA,865.7,6.221826,12.1875
00000000000000000000AAAA,865.7,1.7303303,-0.8125
0000000000000000000000AA,865.7,0.81607777,8.125
000000000000000000AAAAAA,865.7,6.221826,8.9375
00000000000000AAAAAAAAAA,865.7,5.1357675,-4.0625
00000000000000000000AAAA,865.7,1.7303303,0.0
0000000000000000000000AA,865.7,0.8651652,0.0
00000000000000000000AAAA,865.7,1.7180585,1.625
0000000000000000000000AA,865.7,0.8713011,-5.6875
00000000000000AAAAAAAAAA,865.7,5.111224,2.4375
000000000000000000AAAAAA,865.7,6.2647777,2.4375
00000000000000AAAAAAAAAA,865.7,5.0866804,2.4375
0000000000000000000000AA,865.7,0.8222137,6.5
000000000000000000AAAAAA,865.7,6.21569,9.75
00000000000000000000AAAA,865.7,1.7180585,4.875
00000000000000000000AAAA,865.7,1.7119225,4.875
00000000000000AAAAAAAAAA,865.7,5.0866804,1.625
0000000000000000000000AA,865.7,0.8651652,4.875
000000000000000000AAAAAA,865.7,0.012271847,0.8125
00000000000000000000AAAA,865.7,1.7241944,1.625
0000000000000000000000AA,865.7,0.9142526,-3.25
00000000000000AAAAAAAAAA,865.7,5.0866804,4.0625
000000000000000000AAAAAA,865.7,6.234098,12.1875
0000000000000000000000AA,865.7,0.9019807,-0.8125
000000000000000000AAAAAA,865.7,6.2586417,8.125
00000000000000AAAAAAAAAA,865.7,5.0928164,0.8125
00000000000000000000AAAA,865.7,1.7303303,1.625
00000000000000AAAAAAAAAA,865.7,5.0866804,0.8125
0000000000000000000000AA,865.7,0.88357294,3.25
000000000000000000AAAAAA,865.7,0.0061359233,2.4375
00000000000000000000AAAA,865.7,1.7303303,1.625
0000000000000000000000AA,865.7,0.90811664,-1.625
00000000000000000000AAAA,865.7,1.7303303,1.625
00000000000000AAAAAAAAAA,865.7,5.0866804,4.875
000000000000000000AAAAAA,865.7,6.252506,9.75
000000000000000000AAAAAA,865.7,6.2647777,12.1875
00000000000000AAAAAAAAAA,865.7,5.0744085,4.0625
00000000000000000000AAAA,865.7,1.7303303,0.8125
0000000000000000000000AA,865.7,0.9142526,-1.625
00000000000000AAAAAAAAAA,865.7,5.0744085,4.875
00000000000000000000AAAA,865.7,1.7364663,1.625
0000000000000000000000AA,865.7,0.94493216,-4.875
000000000000000000AAAAAA,865.7,0.06135923,0.0
000000000000000000AAAAAA,865.7,0.0061359233,8.125
0000000000000000000000AA,865.7,0.9142526,-1.625
00000000000000000000AAAA,865.7,1.7426022,1.625
00000000000000AAAAAAAAAA,865.7,5.0805445,0.0
000000000000000000AAAAAA,865.7,0.03681554,2.4375
00000000000000000000AAAA,865.7,1.7364663,1.625
00000000000000AAAAAAAAAA,865.7,5.0928164,0.8125
0000000000000000000000AA,865.7,0.93266034,-3.25
00000000000000000000AAAA,865.7,1.7241944,1.625
00000000000000AAAAAAAAAA,865.7,5.0805445,4.0625
000000000000000000AAAAAA,865.7,6.252506,8.125
0000000000000000000000AA,865.7,0.90811664,-5.6875
0000000000000000000000AA,865.7,0.8713011,2.4375
00000000000000AAAAAAAAAA,865.7,5.0928164,4.0625
000000000000000000AAAAAA,865.7,6.2709136,8.125
00000000000000000000AAAA,865.7,1.7180585,4.875
0000000000000000000000AA,865.7,0.9142526,-3.25
00000000000000000000AAAA,865.7,1.7241944,2.4375
00000000000000AAAAAAAAAA,865.7,5.0989523,0.8125
000000000000000000AAAAAA,865.7,0.012271847,0.0
00000000000000AAAAAAAAAA,865.7,5.0866804,1.625
00000000000000000000AAAA,865.7,1.7303303,1.625
0000000000000000000000AA,865.7,0.90811664,-0.8125
000000000000000000AAAAAA,865.7,6.24637,9.75
00000000000000AAAAAAAAAA,865.7,5.0805445,4.0625
000000000000000000AAAAAA,865.7,6.2709136,6.5
00000000000000000000AAAA,865.7,1.7426022,0.8125
0000000000000000000000AA,865.7,0.89584476,-1.625
0000000000000000000000AA,865.7,0.8651652,1.625
00000000000000AAAAAAAAAA,865.7,5.0866804,4.0625
000000000000000000AAAAAA,865.7,0.01840777,4.0625
00000000000000000000AAAA,865.7,1.7364663,0.0
000000000000000000AAAAAA,865.7,6.2709136,5.6875
0000000000000000000000AA,865.7,0.8651652,2.4375
00000000000000000000AAAA,865.7,1.7364663,0.8125
00000000000000AAAAAAAAAA,865.7,5.0866804,4.0625
00000000000000AAAAAAAAAA,865.7,5.0989523,4.875
0000000000000000000000AA,865.7,0.8897089,-2.4375
00000000000000000000AAAA,865.7,1.7364663,0.0
000000000000000000AAAAAA,865.7,6.2770495,5.6875
0000000000000000000000AA,865.7,0.877437,0.8125
00000000000000AAAAAAAAAA,865.7,5.0805445,4.875
000000000000000000AAAAAA,865.7,0.05522331,-1.625
00000000000000000000AAAA,865.7,1.7180585,5.6875
000000000000000000AAAAAA,865.7,6.2770495,8.9375
00000000000000000000AAAA,865.7,1.7364663,0.8125
0000000000000000000000AA,865.7,0.9142526,-2.4375
00000000000000AAAAAAAAAA,865.7,5.0866804,4.0625
00000000000000000000AAAA,865.7,1.7426022,0.0
000000000000000000AAAAAA,865.7,0.04295146,1.625
0000000000000000000000AA,865.7,0.89584476,0.8125
00000000000000AAAAAAAAAA,865.7,5.0928164,4.0625
0000000000000000000000AA,865.7,0.88357294,1.625
000000000000000000AAAAAA,865.7,0.079767,-5.6875
00000000000000AAAAAAAAAA,865.7,5.0928164,2.4375
00000000000000000000AAAA,865.7,1.7426022,0.0
0000000000000000000000AA,865.7,0.88357294,1.625
00000000000000AAAAAAAAAA,865.7,5.0866804,2.4375
00000000000000000000AAAA,865.7,1.7426022,1.625
000000000000000000AAAAAA,865.7,0.04295146,1.625
00000000000000000000AAAA,865.7,1.7180585,3.25
0000000000000000000000AA,865.7,0.8713011,2.4375
00000000000000AAAAAAAAAA,865.7,5.0928164,0.8125
000000000000000000AAAAAA,865.7,0.049087387,0.8125
0000000000000000000000AA,865.7,0.8713011,7.3125
00000000000000000000AAAA,865.7,1.7241944,4.875
00000000000000AAAAAAAAAA,865.7,5.0989523,0.0
000000000000000000AAAAAA,865.7,0.03681554,5.6875
00000000000000000000AAAA,865.7,1.748738,0.0
00000000000000AAAAAAAAAA,865.7,5.0866804,2.4375
000000000000000000AAAAAA,865.7,0.07363108,-1.625
0000000000000000000000AA,865.7,0.9019807,0.8125
00000000000000AAAAAAAAAA,865.7,5.0928164,-0.8125
0000000000000000000000AA,865.7,0.9019807,2.4375
00000000000000000000AAAA,865.7,1.7303303,3.25
000000000000000000AAAAAA,865.7,0.05522331,2.4375
0000000000000000000000AA,865.7,0.877437,4.875
00000000000000000000AAAA,865.7,1.7303303,1.625
00000000000000AAAAAAAAAA,865.7,5.0744085,5.6875
000000000000000000AAAAAA,865.7,0.10431069,-8.125
00000000000000AAAAAAAAAA,865.7,5.0989523,0.0
0000000000000000000000AA,865.7,0.8713011,2.4375
00000000000000000000AAAA,865.7,1.7426022,-0.8125
000000000000000000AAAAAA,865.7,0.03681554,4.0625
00000000000000000000AAAA,865.7,1.7119225,5.6875
0000000000000000000000AA,865.7,0.877437,2.4375
00000000000000AAAAAAAAAA,865.7,5.0866804,0.8125
000000000000000000AAAAAA,865.7,0.05522331,4.875
00000000000000AAAAAAAAAA,865.7,5.0744085,5.6875
0000000000000000000000AA,865.7,0.88357294,3.25
00000000000000000000AAAA,865.7,1.7426022,0.8125
000000000000000000AAAAAA,865.7,0.01840777,10.5625
0000000000000000000000AA,865.7,0.8528933,8.9375
00000000000000AAAAAAAAAA,865.7,5.0805445,4.0625
00000000000000000000AAAA,865.7,1.7303303,3.25
000000000000000000AAAAAA,865.7,6.2770495,10.5625
0000000000000000000000AA,865.7,0.8713011,4.875
00000000000000000000AAAA,865.7,1.7241944,3.25
00000000000000AAAAAAAAAA,865.7,5.0866804,2.4375
000000000000000000AAAAAA,865.7,0.030679615,6.5
00000000000000AAAAAAAAAA,865.7,5.0866804,0.8125
0000000000000000000000AA,865.7,0.85902923,5.6875
000000000000000000AAAAAA,865.7,0.06749515,0.8125
00000000000000000000AAAA,865.7,1.7303303,3.25
00000000000000000000AAAA,865.7,1.7364663,1.625
00000000000000AAAAAAAAAA,865.7,5.0682726,6.5
000000000000000000AAAAAA,865.7,0.03681554,2.4375
0000000000000000000000AA,865.7,0.83448553,6.5
0000000000000000000000AA,865.7,0.85902923,0.0
00000000000000000000AAAA,865.7,1.7241944,4.875
00000000000000AAAAAAAAAA,865.7,5.0682726,5.6875
000000000000000000AAAAAA,865.7,0.01840777,4.0625
00000000000000000000AAAA,865.7,1.7180585,3.25
000000000000000000AAAAAA,865.7,6.2709136,12.1875
00000000000000AAAAAAAAAA,865.7,5.0928164,4.0625
0000000000000000000000AA,865.7,0.8467574,4.875
00000000000000AAAAAAAAAA,865.7,5.0928164,1.625
000000000000000000AAAAAA,865.7,0.024543693,8.9375
0000000000000000000000AA,865.7,0.88357294,-3.25
00000000000000000000AAAA,865.7,1.7303303,4.875
00000000000000000000AAAA,865.7,1.7364663,0.8125
000000000000000000AAAAAA,865.7,0.0061359233,8.125
00000000000000AAAAAAAAAA,865.7,5.0989523,2.4375
0000000000000000000000AA,865.7,0.8713011,-2.4375
000000000000000000AAAAAA,865.7,0.10431069,-4.875
00000000000000000000AAAA,865.7,1.7426022,0.8125
00000000000000AAAAAAAAAA,865.7,5.0928164,5.6875
0000000000000000000000AA,865.7,0.83448553,1.625
00000000000000000000AAAA,865.7,1.7303303,1.625
0000000000000000000000AA,865.7,0.79153407,8.125
000000000000000000AAAAAA,865.7,6.2647777,10.5625
00000000000000AAAAAAAAAA,865.7,5.0928164,4.0625
00000000000000AAAAAAAAAA,865.7,5.105088,4.875
000000000000000000AAAAAA,865.7,0.079767,-4.0625
00000000000000000000AAAA,865.7,1.7303303,2.4375
0000000000000000000000AA,865.7,0.8099418,-0.8125
00000000000000AAAAAAAAAA,865.7,5.105088,2.4375
00000000000000000000AAAA,865.7,1.7364663,0.0
0000000000000000000000AA,865.7,0.77926224,2.4375
000000000000000000AAAAAA,865.7,0.030679615,1.625
00000000000000000000AAAA,865.7,1.7303303,0.0
0000000000000000000000AA,865.7,0.7853982,1.625
00000000000000AAAAAAAAAA,865.7,5.105088,5.6875
000000000000000000AAAAAA,865.7,0.07363108,-4.875
000000000000000000AAAAAA,865.7,6.2709136,9.75
0000000000000000000000AA,865.7,0.75471854,2.4375
00000000000000000000AAAA,865.7,1.7303303,0.8125
00000000000000AAAAAAAAAA,865.7,5.0989523,2.4375
0000000000000000000000AA,865.7,0.79153407,0.8125
00000000000000000000AAAA,865.7,1.7180585,3.25
00000000000000AAAAAAAAAA,865.7,5.111224,1.625
000000000000000000AAAAAA,865.7,6.2770495,12.1875
000000000000000000AAAAAA,865.7,6.2586417,8.9375
00000000000000000000AAAA,865.7,1.7180585,1.625
0000000000000000000000AA,865.7,0.7485826,6.5
00000000000000AAAAAAAAAA,865.7,5.111224,4.0625
000000000000000000AAAAAA,865.7,0.0,8.125
00000000000000000000AAAA,865.7,1.7303303,1.625
00000000000000AAAAAAAAAA,865.7,5.11736,0.8125
0000000000000000000000AA,865.7,0.7363108,1.625
0000000000000000000000AA,865.7,0.72403896,0.0
00000000000000000000AAAA,865.7,1.7119225,2.4375
000000000000000000AAAAAA,865.7,6.2709136,6.5
00000000000000AAAAAAAAAA,865.7,5.11736,1.625
00000000000000000000AAAA,865.7,1.7119225,1.625
0000000000000000000000AA,865.7,0.6565438,2.4375
000000000000000000AAAAAA,865.7,6.252506,4.0625
00000000000000AAAAAAAAAA,865.7,5.11736,5.6875
0000000000000000000000AA,865.7,0.638136,2.4375
00000000000000AAAAAAAAAA,865.7,5.11736,6.5
000000000000000000AAAAAA,865.7,6.234098,5.6875
00000000000000000000AAAA,865.7,1.7241944,-1.625
00000000000000AAAAAAAAAA,865.7,5.1419034,0.8125
000000000000000000AAAAAA,865.7,6.21569,13.0
00000000000000000000AAAA,865.7,1.7119225,2.4375
0000000000000000000000AA,865.7,0.6688156,4.875
0000000000000000000000AA,865.7,0.81607777,6.5
00000000000000000000AAAA,865.7,1.748738,0.8125
0000000000000000AAAAAAAA,865.7,0.5031457,0.0
000000000000000000AAAAAA,865.7,0.21475731,12.1875
00000000000000AAAAAAAAAA,865.7,5.025321,4.875
0000000000000000AAAAAAAA,865.7,0.5399612,-12.1875
000000000000000000AAAAAA,865.7,0.24543692,8.125
00000000000000AAAAAAAAAA,865.7,5.043729,-0.8125
0000000000000000000000AA,865.7,0.92038846,-0.8125
00000000000000000000AAAA,865.7,1.754874,2.4375
00000000000000000000AAAA,865.7,1.7426022,1.625
0000000000000000000000AA,865.7,0.89584476,5.6875
000000000000000000AAAAAA,865.7,0.25770876,4.875
00000000000000AAAAAAAAAA,865.7,5.025321,4.0625
0000000000000000AAAAAAAA,865.7,0.53382534,-14.625
00000000000000AAAAAAAAAA,865.7,5.019185,5.6875
000000000000000000AAAAAA,865.7,0.25770876,5.6875
0000000000000000AAAAAAAA,865.7,0.43565056,13.8125
00000000000000000000AAAA,865.7,1.748738,1.625
0000000000000000000000AA,865.7,0.877437,1.625
00000000000000000000AAAA,865.7,1.7426022,1.625
00000000000000AAAAAAAAAA,865.7,5.043729,4.0625
000000000000000000AAAAAA,865.7,0.25770876,-5.6875
0000000000000000000000AA,865.7,0.81607777,0.0
0000000000000000AAAAAAAA,865.7,0.49087384,-5.6875
00000000000000AAAAAAAAAA,865.7,5.0682726,1.625
000000000000000000AAAAAA,865.7,0.1840777,5.6875
00000000000000000000AAAA,865.7,1.748738,0.0
0000000000000000AAAAAAAA,865.7,0.5031457,4.875
0000000000000000000000AA,865.7,0.7731263,4.875
00000000000000000000AAAA,865.7,1.7426022,0.8125
0000000000000000000000AA,865.7,0.79767,5.6875
0000000000000000AAAAAAAA,865.7,0.41110685,23.5625
000000000000000000AAAAAA,865.7,0.1840777,4.875
00000000000000AAAAAAAAAA,865.7,5.043729,5.6875
00000000000000000000AAAA,865.7,1.7364663,4.875
0000000000000000000000AA,865.7,0.8222137,-0.8125
0000000000000000AAAAAAAA,865.7,0.44178647,-8.9375
000000000000000000AAAAAA,865.7,0.19021362,8.9375
00000000000000AAAAAAAAAA,865.7,5.031457,5.6875
00000000000000AAAAAAAAAA,865.7,5.0560007,0.8125
0000000000000000000000AA,865.7,0.83448553,-0.8125
000000000000000000AAAAAA,865.7,0.17180584,7.3125
00000000000000000000AAAA,865.7,1.7426022,1.625
0000000000000000AAAAAAAA,865.7,0.38042724,6.5
00000000000000AAAAAAAAAA,865.7,5.0621367,2.4375
000000000000000000AAAAAA,865.7,0.19021362,8.125
00000000000000000000AAAA,865.7,1.7303303,2.4375
0000000000000000000000AA,865.7,0.79153407,5.6875
0000000000000000AAAAAAAA,865.7,0.5890486,-3.25
00000000000000000000AAAA,865.7,1.7426022,1.625
0000000000000000000000AA,865.7,0.8099418,0.8125
0000000000000000AAAAAAAA,865.7,0.46633017,2.4375
00000000000000AAAAAAAAAA,865.7,5.049865,4.0625
000000000000000000AAAAAA,865.7,0.15339808,13.0
0000000000000000AAAAAAAA,865.7,0.43565056,10.5625
000000000000000000AAAAAA,865.7,0.21475731,4.0625
0000000000000000000000AA,865.7,0.8222137,0.8125
00000000000000AAAAAAAAAA,865.7,5.043729,1.625
00000000000000000000AAAA,865.7,1.7671459,-0.8125
0000000000000000000000AA,865.7,0.8467574,2.4375
00000000000000000000AAAA,865.7,1.7610099,1.625
00000000000000AAAAAAAAAA,865.7,5.043729,2.4375
0000000000000000AAAAAAAA,865.7,0.62586415,-14.625
000000000000000000AAAAAA,865.7,0.20248546,6.5
00000000000000AAAAAAAAAA,865.7,5.037593,0.8125
0000000000000000AAAAAAAA,865.7,0.53382534,0.8125
00000000000000000000AAAA,865.7,1.748738,1.625
0000000000000000000000AA,865.7,0.85902923,3.25
000000000000000000AAAAAA,865.7,0.19021362,14.625
00000000000000000000AAAA,865.7,1.754874,0.0
0000000000000000AAAAAAAA,865.7,0.5890486,-19.5
000000000000000000AAAAAA,865.7,0.2945243,-1.625
0000000000000000000000AA,865.7,0.9019807,-4.875
00000000000000AAAAAAAAAA,865.7,5.049865,0.8125
000000000000000000AAAAAA,865.7,0.28225246,2.4375
0000000000000000AAAAAAAA,865.7,0.5399612,-8.9375
00000000000000000000AAAA,865.7,1.7610099,2.4375
0000000000000000000000AA,865.7,0.9019807,0.0
00000000000000AAAAAAAAAA,865.7,5.0560007,-0.8125
0000000000000000000000AA,865.7,0.8897089,0.0
00000000000000000000AAAA,865.7,1.7303303,5.6875
00000000000000AAAAAAAAAA,865.7,5.025321,2.4375
000000000000000000AAAAAA,865.7,0.25770876,6.5
0000000000000000AAAAAAAA,865.7,0.57064086,-4.875
000000000000000000AAAAAA,865.7,0.2945243,4.0625
00000000000000000000AAAA,865.7,1.748738,3.25
0000000000000000000000AA,865.7,0.9142526,0.8125
00000000000000AAAAAAAAAA,865.7,5.031457,4.875
0000000000000000AAAAAAAA,865.7,0.54609716,-1.625
00000000000000AAAAAAAAAA,865.7,5.037593,4.0625
0000000000000000AAAAAAAA,865.7,0.45405832,-3.25
000000000000000000AAAAAA,865.7,0.2945243,4.875
0000000000000000000000AA,865.7,0.8897089,3.25
00000000000000000000AAAA,865.7,1.748738,2.4375
0000000000000000000000AA,865.7,0.8897089,3.25
000000000000000000AAAAAA,865.7,0.33133984,-1.625
00000000000000000000AAAA,865.7,1.748738,2.4375
00000000000000AAAAAAAAAA,865.7,5.037593,1.625
0000000000000000AAAAAAAA,865.7,0.38042724,19.5
0000000000000000000000AA,865.7,0.90811664,2.4375
000000000000000000AAAAAA,865.7,0.32520393,1.625
00000000000000AAAAAAAAAA,865.7,5.037593,0.0
00000000000000000000AAAA,865.7,1.7610099,2.4375
0000000000000000AAAAAAAA,865.7,0.59518456,-4.875
00000000000000AAAAAAAAAA,865.7,5.019185,4.0625
00000000000000000000AAAA,865.7,1.7610099,3.25
0000000000000000000000AA,865.7,0.9265244,1.625
000000000000000000AAAAAA,865.7,0.2945243,7.3125
0000000000000000AAAAAAAA,865.7,0.6688156,-17.0625
00000000000000000000AAAA,865.7,1.7610099,1.625
000000000000000000AAAAAA,865.7,0.31293207,6.5
0000000000000000AAAAAAAA,865.7,0.6135923,4.875
00000000000000AAAAAAAAAA,865.7,5.049865,-0.8125
0000000000000000000000AA,865.7,0.94493216,-1.625
0000000000000000AAAAAAAA,865.7,0.478602,-4.875
0000000000000000000000AA,865.7,0.9756118,-5.6875
00000000000000000000AAAA,865.7,1.7671459,2.4375
00000000000000AAAAAAAAAA,865.7,5.031457,0.8125
000000000000000000AAAAAA,865.7,0.2883884,10.5625
0000000000000000AAAAAAAA,865.7,0.61972827,-9.75
00000000000000000000AAAA,865.7,1.7732818,0.8125
0000000000000000000000AA,865.7,0.93266034,0.8125
000000000000000000AAAAAA,865.7,0.2699806,10.5625
00000000000000AAAAAAAAAA,865.7,5.019185,4.875
0000000000000000000000AA,865.7,0.957204,0.0
000000000000000000AAAAAA,865.7,0.30066022,7.3125
00000000000000AAAAAAAAAA,865.7,5.006913,6.5
0000000000000000AAAAAAAA,865.7,0.6872234,-45.5625
00000000000000000000AAAA,865.7,1.7610099,3.25
0000000000000000AAAAAAAA,865.7,0.44178647,8.125
0000000000000000000000AA,865.7,0.9510681,0.8125
000000000000000000AAAAAA,865.7,0.3436117,5.6875
00000000000000AAAAAAAAAA,865.7,5.043729,-2.4375
00000000000000000000AAAA,865.7,1.7732818,0.0
0000000000000000000000AA,865.7,0.9633399,0.0
0000000000000000AAAAAAAA,865.7,0.75471854,-43.125
000000000000000000AAAAAA,865.7,0.3436117,5.6875
00000000000000AAAAAAAAAA,865.7,5.013049,4.0625
00000000000000000000AAAA,865.7,1.7732818,2.4375
0000000000000000AAAAAAAA,865.7,0.8897089,-60.1875
00000000000000AAAAAAAAAA,865.7,5.013049,4.0625
00000000000000000000AAAA,865.7,1.7671459,4.875
0000000000000000000000AA,865.7,0.9387962,8.9375
000000000000000000AAAAAA,865.7,0.32520393,8.9375
00000000000000000000AAAA,865.7,1.754874,4.875
0000000000000000000000AA,865.7,0.96947587,0.8125
00000000000000AAAAAAAAAA,865.7,5.019185,2.4375
0000000000000000AAAAAAAA,865.7,0.398835,16.25
000000000000000000AAAAAA,865.7,0.33747578,8.125
0000000000000000AAAAAAAA,865.7,0.7117671,-28.4375
0000000000000000000000AA,865.7,0.9878836,3.25
00000000000000000000AAAA,865.7,1.7794178,1.625
00000000000000AAAAAAAAAA,865.7,5.031457,0.0
000000000000000000AAAAAA,865.7,0.41110685,-4.0625
00000000000000AAAAAAAAAA,865.7,4.9762335,5.6875
0000000000000000AAAAAAAA,865.7,0.5154175,-1.625
00000000000000000000AAAA,865.7,1.7978255,5.6875
0000000000000000000000AA,865.7,1.2210487,6.5
000000000000000000AAAAAA,865.7,0.6565438,13.0
00000000000000000000AAAA,865.7,1.8530488,1.625
00000000000000AAAAAAAAAA,865.7,4.865787,1.625
0000000000000000000000AA,865.7,1.3192235,0.8125
000000000000000000AAAAAA,865.7,0.717903,5.6875
0000000000000000AAAAAAAA,865.7,0.6135923,-15.4375
000000000000000000AAAAAA,865.7,0.717903,0.0
00000000000000AAAAAAAAAA,865.7,4.859651,-0.8125
00000000000000000000AAAA,865.7,1.8100973,3.25
0000000000000000000000AA,865.7,1.3008157,4.875
0000000000000000AAAAAAAA,865.7,0.6565438,-18.6875
00000000000000000000AAAA,865.7,1.8530488,0.0
0000000000000000000000AA,865.7,1.3130876,2.4375
000000000000000000AAAAAA,865.7,0.77926224,-2.4375
00000000000000AAAAAAAAAA,865.7,4.847379,2.4375
0000000000000000AAAAAAAA,865.7,0.478602,6.5
00000000000000AAAAAAAAAA,865.7,4.865787,-1.625
0000000000000000AAAAAAAA,865.7,0.57064086,-7.3125
000000000000000000AAAAAA,865.7,0.69949526,13.0
0000000000000000000000AA,865.7,1.3008157,8.125
00000000000000000000AAAA,865.7,1.8469129,3.25
0000000000000000000000AA,865.7,1.3253593,1.625
000000000000000000AAAAAA,865.7,0.73017484,4.875
0000000000000000AAAAAAAA,865.7,0.48473793,-5.6875
00000000000000AAAAAAAAAA,865.7,4.8412433,1.625
00000000000000000000AAAA,865.7,1.8223692,5.6875
00000000000000000000AAAA,865.7,1.8407769,2.4375
0000000000000000000000AA,865.7,1.3253593,5.6875
00000000000000AAAAAAAAAA,865.7,4.8289714,1.625
000000000000000000AAAAAA,865.7,0.75471854,-0.8125
0000000000000000AAAAAAAA,865.7,0.5829127,-17.875
00000000000000000000AAAA,865.7,1.834641,5.6875
0000000000000000AAAAAAAA,865.7,0.478602,3.25
00000000000000AAAAAAAAAA,865.7,4.8412433,4.0625
000000000000000000AAAAAA,865.7,0.6320001,16.25
0000000000000000000000AA,865.7,1.3314953,6.5
00000000000000AAAAAAAAAA,865.7,4.847379,1.625
00000000000000000000AAAA,865.7,1.834641,4.875
0000000000000000000000AA,865.7,1.3192235,7.3125
000000000000000000AAAAAA,865.7,0.72403896,1.625
0000000000000000000000AA,865.7,1.3314953,4.875
00000000000000000000AAAA,865.7,1.8285052,7.3125
00000000000000AAAAAAAAAA,865.7,4.8351073,-0.8125
000000000000000000AAAAAA,865.7,0.7363108,-1.625
00000000000000AAAAAAAAAA,865.7,4.8228354,6.5
000000000000000000AAAAAA,865.7,0.73017484,4.0625
0000000000000000000000AA,865.7,1.3192235,7.3125
00000000000000000000AAAA,865.7,1.834641,3.25
0000000000000000AAAAAAAA,865.7,0.70563114,-35.75
