-45.0,2.313243028131547,0.8125
-45.0,2.325514874434632,2.4375
-44.5,2.3009711818284617,5.6875
-45.0,2.3193789512830896,4.875
-45.0,2.3009711818284617,7.3125
-45.0,2.2764274892222915,10.5625
-45.0,2.313243028131547,5.6875
-45.0,2.3071071049800045,6.5
-45.0,2.3009711818284617,7.3125
-45.0,2.337786720737717,2.4375
-45.0,2.356194490192345,-0.8125
-45.5,2.3009711818284617,7.3125
-45.0,2.2948352586769194,9.75
-45.0,2.380738182798515,-1.625
-45.0,2.3623304133438876,-0.8125
-44.5,2.325514874434632,4.875
-45.0,2.325514874434632,7.3125
-45.0,2.3316507975861747,2.4375
-45.0,2.325514874434632,8.125
-45.5,2.3071071049800045,8.9375
-45.0,2.3439226438892597,2.4375
-45.0,2.3316507975861747,2.4375
-45.0,2.3623304133438876,0.0
-45.0,2.337786720737717,3.25
-45.0,2.3439226438892597,4.875
-45.0,2.3439226438892597,4.875
-45.0,2.350058567040802,2.4375
-45.0,2.3623304133438876,0.0
-45.0,2.3316507975861747,2.4375
-45.0,2.3623304133438876,1.625
-45.0,2.3009711818284617,8.9375
-45.5,2.350058567040802,5.6875
-45.0,2.3623304133438876,1.625
-45.0,2.3316507975861747,6.5
-45.5,2.36846633649543,1.625
-45.0,2.337786720737717,6.5
-45.0,2.337786720737717,2.4375
-45.0,2.3439226438892597,4.875
-45.0,2.3746022596469727,1.625
-45.0,2.325514874434632,6.5
-45.0,2.3316507975861747,6.5
-45.5,2.3746022596469727,0.8125
-45.0,2.337786720737717,4.875
-45.0,2.356194490192345,4.875
-45.0,2.3746022596469727,0.8125
-45.0,2.3439226438892597,6.5
-45.0,2.356194490192345,3.25
-45.0,2.350058567040802,6.5
-45.5,2.399145952253143,-2.4375
-45.0,2.350058567040802,4.875
-45.0,2.3439226438892597,8.125
-45.0,2.3930100291016,-0.8125
-45.0,2.36846633649543,3.25
-45.5,2.405281875404685,-3.25
-45.0,2.356194490192345,6.5
-45.0,2.411417798556228,-3.25
-45.0,2.3746022596469727,0.8125
-45.5,2.356194490192345,4.875
-45.0,2.380738182798515,0.8125
-45.0,2.337786720737717,7.3125
-45.0,2.3316507975861747,9.75
-45.0,2.3439226438892597,6.5
-45.0,2.3746022596469727,0.8125
-45.5,2.3623304133438876,2.4375
-45.5,2.325514874434632,8.9375
-45.0,2.380738182798515,0.8125
-45.0,2.36846633649543,1.625
-45.5,2.380738182798515,0.8125
-45.0,2.36846633649543,2.4375
-45.0,2.3439226438892597,5.6875
-45.5,2.3316507975861747,8.125
-45.0,2.386874105950058,0.8125
-45.0,2.386874105950058,0.0
-45.0,2.356194490192345,5.6875
-45.5,2.3930100291016,-0.8125
-45.0,2.337786720737717,6.5
-45.5,2.36846633649543,3.25
-45.0,2.380738182798515,0.8125
-45.0,2.386874105950058,0.8125
-45.5,2.3623304133438876,6.5
-45.5,2.380738182798515,4.875
-45.0,2.350058567040802,5.6875
-45.5,2.3930100291016,0.0
-45.5,2.356194490192345,7.3125
-45.5,2.356194490192345,8.125
-45.5,2.356194490192345,7.3125
-45.5,2.405281875404685,0.0
-45.5,2.380738182798515,5.6875
-45.5,2.36846633649543,4.875
-45.5,2.36846633649543,8.125
-45.5,2.3930100291016,5.6875
-45.5,2.411417798556228,0.8125
-45.0,2.380738182798515,6.5
-45.5,2.3930100291016,6.5
-45.5,2.411417798556228,3.25
-45.5,2.423689644859313,4.875
-45.5,2.399145952253143,4.875
-45.5,2.423689644859313,0.0
-45.5,2.4175537217077703,2.4375
-45.5,2.411417798556228,0.8125
-45.5,2.380738182798515,4.875
-45.5,2.423689644859313,0.8125
-46.0,2.399145952253143,4.875
-45.5,2.448233337465483,-2.4375
-46.0,2.3623304133438876,8.125
-46.0,2.411417798556228,1.625
-46.0,2.4175537217077703,2.4375
-46.0,2.3930100291016,4.875
-46.0,2.399145952253143,5.6875
-46.0,2.386874105950058,5.6875
-46.0,2.4175537217077703,0.0
-46.0,2.4175537217077703,1.625
-46.0,2.405281875404685,4.875
-46.0,2.442097414313941,0.8125
-46.0,2.423689644859313,2.4375
-46.0,2.429825568010856,2.4375
-46.0,2.448233337465483,1.625
-46.0,2.429825568010856,3.25
-46.0,2.411417798556228,9.75
-46.0,2.4175537217077703,8.9375
-46.0,2.423689644859313,7.3125
-46.5,2.454369260617026,0.8125
-46.0,2.423689644859313,4.875
-46.0,2.466641106920111,2.4375
-46.0,2.442097414313941,3.25
-46.5,2.423689644859313,8.9375
-46.5,2.497320722677824,-2.4375
-46.5,2.435961491162398,11.375
-46.0,2.509592568980909,5.6875
-46.5,2.509592568980909,7.3125
-46.5,2.5034566458293663,8.125
-47.0,2.5832236467994196,3.25
-46.5,2.60776733940559,3.25
-47.0,2.6016314162540475,4.875
-47.0,2.5770877236478773,8.125
-47.0,2.6261751088602177,1.625
-47.0,2.6261751088602177,8.9375
-47.0,2.6445828783148455,7.3125
-47.0,2.761165418194154,-10.5625
-47.0,2.6384469551633027,12.1875
-47.5,2.748893571891069,-1.625
-47.0,2.7120780329818137,6.5
-47.0,2.748893571891069,2.4375
-47.5,2.748893571891069,9.75
-47.0,2.8654761117703775,-3.25
-46.5,2.82252464970958,6.5
-46.0,2.84706834231575,12.1875
-45.0,2.8838838812250054,0.8125
-45.0,2.8532042654672924,2.4375
-44.0,2.82252464970958,4.875
-44.0,2.8286605728611223,1.625
-44.0,2.767301341345697,10.5625
-44.0,2.7857091108003242,6.5
-44.0,2.8102528034064944,1.625
-44.0,2.748893571891069,8.125
-43.5,2.7979809571034093,2.4375
-44.0,2.7857091108003242,2.4375
-44.0,2.773437264497239,3.25
-44.0,2.7550294950426117,5.6875
-43.5,2.816388726558037,-4.875
-44.0,2.82252464970958,-4.875
-44.0,2.791845033951867,0.0
-44.0,2.767301341345697,0.8125
-44.0,2.736621725587984,6.5
-44.0,2.7857091108003242,0.0
-44.0,2.748893571891069,5.6875
-44.0,2.724349879284899,7.3125
-44.0,2.773437264497239,0.0
-44.0,2.748893571891069,5.6875
-44.0,2.7857091108003242,0.0
-44.0,2.742757648739526,5.6875
-44.0,2.736621725587984,6.5
-44.0,2.7550294950426117,0.0
-44.0,2.742757648739526,2.4375
-44.0,2.761165418194154,3.25
-44.0,2.736621725587984,4.875
-44.0,2.791845033951867,-2.4375
-44.0,2.761165418194154,0.0
-44.0,2.6998061866787286,12.1875
-44.0,2.761165418194154,0.0
-44.0,2.742757648739526,0.8125
-44.0,2.7120780329818137,7.3125
-44.0,2.742757648739526,2.4375
-44.0,2.730485802436441,4.875
-44.5,2.7120780329818137,7.3125
-44.5,2.6998061866787286,7.3125
-44.0,2.724349879284899,6.5
-44.0,2.748893571891069,-2.4375
-44.5,2.705942109830271,7.3125
-44.0,2.705942109830271,8.9375
-44.5,2.718213956133356,5.6875
-44.0,2.748893571891069,0.0
-44.5,2.675262494072558,10.5625
-44.5,2.7120780329818137,5.6875
-44.5,2.7120780329818137,5.6875
-44.5,2.7120780329818137,5.6875
-44.5,2.705942109830271,6.5
-45.0,2.718213956133356,3.25
-44.5,2.767301341345697,-0.8125
-44.5,2.718213956133356,5.6875
-44.5,2.742757648739526,1.625
-44.5,2.736621725587984,1.625
-45.0,2.705942109830271,7.3125
-44.5,2.761165418194154,0.0
-45.0,2.705942109830271,4.875
-45.0,2.748893571891069,0.0
-45.0,2.742757648739526,3.25
-45.0,2.779573187648782,-3.25
-44.5,2.742757648739526,0.8125
-44.5,2.7120780329818137,8.125
-45.0,2.748893571891069,1.625
-45.0,2.736621725587984,3.25
-45.0,2.705942109830271,8.125
-45.0,2.7120780329818137,7.3125
-45.0,2.748893571891069,-0.8125
-45.0,2.730485802436441,4.875
-45.0,2.730485802436441,5.6875
-45.0,2.718213956133356,4.875
-45.0,2.6998061866787286,8.125
-45.0,2.742757648739526,4.875
-45.0,2.724349879284899,6.5
-45.0,2.730485802436441,6.5
-45.0,2.724349879284899,8.125
-45.5,2.724349879284899,5.6875
-45.5,2.742757648739526,3.25
-45.0,2.724349879284899,8.125
-45.0,2.718213956133356,8.125
-45.5,2.767301341345697,-0.8125
-45.5,2.742757648739526,3.25
-45.0,2.730485802436441,5.6875
-45.0,2.705942109830271,6.5
-45.0,2.7550294950426117,2.4375
-45.0,2.724349879284899,6.5
-45.0,2.6998061866787286,8.125
-45.0,2.7550294950426117,0.8125
-45.5,2.7120780329818137,7.3125
-45.0,2.7857091108003242,-3.25
-45.5,2.730485802436441,8.125
-45.0,2.748893571891069,4.875
-45.5,2.705942109830271,8.125
-45.0,2.718213956133356,7.3125
-45.0,2.761165418194154,0.0
-45.5,2.724349879284899,8.125
-45.0,2.7550294950426117,0.8125
-45.0,2.705942109830271,5.6875
-45.0,2.748893571891069,2.4375
-45.5,2.730485802436441,7.3125
-45.0,2.730485802436441,7.3125
-45.5,2.730485802436441,3.25
-45.0,2.7120780329818137,8.9375
-45.0,2.724349879284899,6.5
-45.5,2.736621725587984,3.25
-45.5,2.773437264497239,0.8125
-45.5,2.742757648739526,5.6875
-45.5,2.724349879284899,7.3125
-45.0,2.767301341345697,0.8125
-45.5,2.761165418194154,1.625
-45.5,2.7550294950426117,3.25
-45.5,2.761165418194154,4.875
-45.0,2.761165418194154,6.5
-45.5,2.767301341345697,3.25
-45.5,2.7550294950426117,1.625
-45.0,2.767301341345697,1.625
-45.5,2.718213956133356,9.75
-45.5,2.7550294950426117,1.625
-45.5,2.705942109830271,12.1875
-45.5,2.736621725587984,5.6875
-45.0,2.730485802436441,7.3125
-45.5,2.718213956133356,10.5625
-45.5,2.742757648739526,6.5
-45.5,2.767301341345697,2.4375
-45.5,2.742757648739526,3.25
-45.5,2.7550294950426117,1.625
-45.0,2.742757648739526,5.6875
-45.5,2.761165418194154,0.8125
-45.5,2.742757648739526,4.875
-45.5,2.742757648739526,5.6875
-45.5,2.742757648739526,4.875
-45.5,2.773437264497239,-0.8125
-45.5,2.736621725587984,5.6875
-45.0,2.7120780329818137,7.3125
-45.5,2.718213956133356,8.9375
-45.0,2.730485802436441,4.875
-45.5,2.742757648739526,5.6875
-45.5,2.736621725587984,6.5
-46.0,2.705942109830271,8.9375
-45.5,2.742757648739526,6.5
-45.5,2.7979809571034093,-3.25
-45.5,2.748893571891069,3.25
-45.5,2.742757648739526,4.875
-45.5,2.736621725587984,3.25
-45.0,2.736621725587984,5.6875
-45.5,2.718213956133356,10.5625
-46.0,2.767301341345697,1.625
-45.0,2.748893571891069,6.5
-45.5,2.748893571891069,5.6875
-45.5,2.761165418194154,2.4375
-45.5,2.761165418194154,0.8125
-45.5,2.7979809571034093,-2.4375
-45.5,2.742757648739526,6.5
-45.5,2.724349879284899,8.125
-45.5,2.804116880254952,0.0
-45.5,2.7550294950426117,5.6875
-45.5,2.748893571891069,5.6875
-45.5,2.773437264497239,2.4375
-45.5,2.816388726558037,-2.4375
-45.5,2.767301341345697,1.625
-45.0,2.742757648739526,8.9375
-45.5,2.779573187648782,5.6875
-45.5,2.8286605728611223,-5.6875
-46.0,2.748893571891069,11.375
-45.5,2.773437264497239,5.6875
-45.5,2.761165418194154,6.5
-45.5,2.761165418194154,7.3125
-45.5,2.816388726558037,0.8125
-45.5,2.816388726558037,0.0
-45.5,2.767301341345697,8.9375
-46.0,2.7979809571034093,6.5
-45.5,2.804116880254952,5.6875
-45.5,2.8286605728611223,0.0
-45.5,2.791845033951867,6.5
-45.5,2.791845033951867,5.6875
-45.5,2.816388726558037,3.25
-45.5,2.816388726558037,2.4375
-46.0,2.7857091108003242,7.3125
-45.5,2.7857091108003242,8.125
-45.5,2.791845033951867,8.9375
-46.0,2.8409324191642074,1.625
-45.5,2.834796496012665,1.625
-45.5,2.8286605728611223,3.25
-45.5,2.8532042654672924,2.4375
-46.0,2.859340188618835,-2.4375
-45.5,2.82252464970958,0.8125
-45.5,2.816388726558037,7.3125
-45.5,2.82252464970958,4.875
-45.5,2.8286605728611223,1.625
-45.5,2.84706834231575,0.8125
-45.5,2.804116880254952,8.9375
-45.5,2.8286605728611223,5.6875
-45.5,2.8777479580734626,0.0
-45.5,2.8102528034064944,6.5
-45.5,2.8286605728611223,6.5
-45.5,2.8961557275280905,-2.4375
-45.5,2.82252464970958,6.5
-45.5,2.8102528034064944,10.5625
-45.5,2.8654761117703775,4.875
-45.5,2.8409324191642074,5.6875
-45.5,2.859340188618835,4.875
-45.5,2.890019804376548,-0.8125
-45.5,2.8532042654672924,8.9375
-45.5,2.8777479580734626,2.4375
-45.5,2.8777479580734626,3.25
-45.5,2.8716120349219203,5.6875
-46.0,2.8777479580734626,3.25
-45.5,2.8838838812250054,5.6875
-45.5,2.8838838812250054,2.4375
-45.5,2.8654761117703775,8.9375
-45.0,2.859340188618835,5.6875
-45.0,2.8838838812250054,4.875
-45.5,2.8838838812250054,1.625
-45.5,2.8777479580734626,8.125
-45.5,2.9084275738311756,4.875
-45.5,2.9022916506796332,2.4375
-45.5,2.8838838812250054,8.9375
-45.0,2.9084275738311756,3.25
-45.5,2.9084275738311756,6.5
-46.0,2.8777479580734626,8.125
-45.5,2.8716120349219203,11.375
-45.5,2.8961557275280905,6.5
-45.0,2.9206994201342606,3.25
-45.5,2.9206994201342606,2.4375
-45.0,2.9145634969827183,4.875
-45.0,2.9206994201342606,4.875
-45.0,2.9145634969827183,5.6875
-45.0,2.9636508821950587,3.25
-45.0,2.9145634969827183,6.5
-44.5,2.8961557275280905,8.9375
-45.0,2.8716120349219203,11.375
-45.0,2.890019804376548,7.3125
-45.0,2.9329712664373457,4.875
-45.0,2.9145634969827183,8.125
-44.5,2.9206994201342606,6.5
-44.5,2.890019804376548,11.375
-45.0,2.890019804376548,7.3125
-44.5,2.9636508821950587,0.0
-44.5,2.8961557275280905,9.75
-44.5,2.9268353432858034,4.875
-45.0,2.9268353432858034,6.5
-45.0,2.9206994201342606,6.5
-44.5,2.9329712664373457,5.6875
-45.0,2.9697868053466014,0.0
-44.5,2.9084275738311756,10.5625
-44.5,2.9329712664373457,7.3125
-45.0,2.9575149590435164,1.625
-44.5,2.9943304979527716,-2.4375
-44.5,2.9513790358919736,5.6875
-44.5,2.9943304979527716,0.0
-44.5,2.9575149590435164,5.6875
-45.0,2.9391071895888885,8.9375
-45.0,2.945243112740431,8.125
-45.0,2.9636508821950587,3.25
-44.5,2.9759227284981438,3.25
-44.5,2.9268353432858034,11.375
-44.5,2.9268353432858034,10.5625
-44.5,2.988194574801229,0.8125
-45.0,2.9636508821950587,5.6875
-44.5,2.945243112740431,8.125
-44.5,3.0066023442558567,0.0
-44.5,2.9513790358919736,8.9375
-44.5,2.9575149590435164,7.3125
-44.0,2.9391071895888885,9.75
-44.5,2.9636508821950587,4.875
-44.5,2.9943304979527716,-0.8125
-44.5,2.9513790358919736,9.75
-44.5,2.9820586516496865,3.25
-44.5,2.9391071895888885,8.125
-44.5,2.988194574801229,3.25
-44.5,2.9697868053466014,6.5
-44.5,2.9636508821950587,6.5
-44.5,2.9759227284981438,7.3125
-44.5,3.031146036862027,-1.625
-44.5,2.9820586516496865,5.6875
-44.5,2.9697868053466014,5.6875
-44.5,2.9820586516496865,7.3125
-44.5,2.9697868053466014,8.9375
-44.5,2.988194574801229,4.875
-44.5,2.9575149590435164,9.75
-44.5,2.9820586516496865,9.75
-44.5,2.988194574801229,7.3125
-44.0,3.000466421104314,6.5
-44.5,2.9943304979527716,7.3125
-44.5,3.0372819600135696,-3.25
-44.5,2.988194574801229,8.9375
-44.5,3.043417883165112,-0.8125
-44.0,3.0372819600135696,0.8125
-44.5,3.0066023442558567,7.3125
-44.0,3.055689729468197,0.0
-44.0,3.018874190558942,7.3125
-44.0,3.055689729468197,0.8125
-44.0,3.018874190558942,5.6875
-44.0,3.0127382674073995,6.5
-44.0,3.018874190558942,6.5
-44.0,3.018874190558942,4.875
-44.0,3.0372819600135696,0.0
-44.5,3.031146036862027,4.875
-44.0,3.0495538063166547,-0.8125
-44.5,3.0250101137104846,3.25
-44.0,3.0495538063166547,2.4375
-44.0,3.0372819600135696,6.5
-44.5,3.031146036862027,7.3125
-44.0,3.0127382674073995,8.9375
-44.0,3.067961575771282,1.625
-44.0,3.0372819600135696,5.6875
-44.0,3.06182565261974,0.8125
-44.0,3.0372819600135696,6.5
-44.0,3.031146036862027,6.5
-44.0,3.0802334220743677,1.625
-44.0,3.0127382674073995,7.3125
-43.5,3.0372819600135696,2.4375
-43.5,3.0802334220743677,-2.4375
-43.5,3.0372819600135696,6.5
-43.5,3.043417883165112,6.5
-44.0,3.0372819600135696,6.5
-44.0,3.0802334220743677,0.0
-44.0,3.055689729468197,2.4375
-44.0,3.0925052683774528,0.0
-44.0,3.0495538063166547,8.9375
-44.0,3.0802334220743677,2.4375
-44.0,3.08636934522591,2.4375
-44.0,3.06182565261974,6.5
-44.0,3.098641191528995,0.0
-44.0,3.06182565261974,5.6875
-44.0,3.031146036862027,9.75
-44.0,3.0372819600135696,8.125
-44.0,3.074097498922825,1.625
-43.5,3.0495538063166547,7.3125
-43.5,3.0495538063166547,5.6875
-43.5,3.0802334220743677,0.8125
-44.0,3.0495538063166547,4.875
-43.5,3.055689729468197,6.5
-44.0,3.0925052683774528,-2.4375
-44.0,3.055689729468197,3.25
-43.5,3.067961575771282,3.25
-44.0,3.0925052683774528,0.0
-44.0,3.08636934522591,2.4375
-44.0,3.104777114680538,-1.625
-43.5,3.074097498922825,4.875
-44.0,3.0495538063166547,8.125
-44.0,3.08636934522591,0.8125
-43.5,3.043417883165112,8.125
-44.0,3.06182565261974,5.6875
-43.5,3.031146036862027,7.3125
-43.5,3.0495538063166547,6.5
-43.5,3.031146036862027,8.125
-43.5,3.0372819600135696,9.75
-44.0,3.018874190558942,8.9375
-43.0,3.031146036862027,6.5
-43.5,3.0372819600135696,6.5
-43.5,3.067961575771282,2.4375
-44.0,3.06182565261974,1.625
-43.5,3.0372819600135696,7.3125
-43.5,3.055689729468197,3.25
-43.5,3.067961575771282,0.8125
-43.5,3.055689729468197,6.5
-43.5,3.098641191528995,-0.8125
-43.5,3.043417883165112,6.5
-43.5,3.067961575771282,0.0
-43.5,3.055689729468197,3.25
-43.5,3.0495538063166547,3.25
-43.5,3.043417883165112,6.5
-43.5,3.06182565261974,2.4375
-43.5,3.043417883165112,7.3125
-43.5,3.055689729468197,4.875
-43.5,3.06182565261974,1.625
-43.5,3.0372819600135696,5.6875
-43.5,3.031146036862027,8.125
-43.5,3.0372819600135696,4.875
-43.5,3.06182565261974,5.6875
-43.5,3.06182565261974,4.875
-43.0,3.031146036862027,7.3125
-43.0,3.043417883165112,5.6875
-43.5,3.0802334220743677,0.8125
-43.0,3.0250101137104846,11.375
-43.5,3.055689729468197,1.625
-43.5,3.031146036862027,8.125
-43.0,3.0066023442558567,11.375
-43.0,3.031146036862027,6.5
-43.0,3.055689729468197,0.8125
-43.5,3.06182565261974,1.625
-43.5,3.067961575771282,0.8125
-43.0,3.0495538063166547,1.625
-43.0,3.067961575771282,0.0
-43.5,3.0372819600135696,5.6875
-43.0,3.031146036862027,5.6875
-43.5,3.06182565261974,3.25
-43.0,3.055689729468197,1.625
-43.5,3.0495538063166547,5.6875
-43.0,3.0495538063166547,3.25
-43.0,3.0250101137104846,6.5
-43.0,3.031146036862027,5.6875
-43.0,3.018874190558942,6.5
-43.0,3.0250101137104846,6.5
-43.0,3.067961575771282,0.0
-43.0,3.043417883165112,3.25
-43.0,3.043417883165112,4.875
-43.0,3.043417883165112,1.625
-43.5,3.0250101137104846,5.6875
-43.0,3.043417883165112,5.6875
-43.0,3.067961575771282,0.0
-43.0,3.043417883165112,4.875
-43.0,3.0250101137104846,8.9375
-43.0,3.06182565261974,4.875
-43.0,3.055689729468197,7.3125
-43.0,3.06182565261974,4.875
-43.0,3.06182565261974,5.6875
-43.5,3.06182565261974,6.5
-43.0,3.0925052683774528,1.625
-43.0,3.06182565261974,4.875
-43.0,3.055689729468197,8.9375
-43.0,3.0802334220743677,1.625
-43.0,3.074097498922825,3.25
-43.0,3.0802334220743677,5.6875
-42.5,3.08636934522591,1.625
-43.0,3.0925052683774528,2.4375
-43.0,3.06182565261974,5.6875
-43.0,3.08636934522591,4.875
-43.5,3.074097498922825,5.6875
-43.0,3.0925052683774528,3.25
-43.0,3.074097498922825,5.6875
-43.5,3.11091303783208,0.0
-43.0,3.06182565261974,8.125
-43.0,3.043417883165112,10.5625
-43.0,3.074097498922825,4.875
-43.0,3.067961575771282,6.5
-43.0,3.0925052683774528,0.8125
-43.0,3.098641191528995,1.625
-43.0,3.08636934522591,4.875
-43.0,3.074097498922825,6.5
-43.0,3.0802334220743677,7.3125
-43.0,3.055689729468197,8.125
-42.5,3.055689729468197,7.3125
-42.5,3.074097498922825,3.25
-43.0,3.055689729468197,6.5
-42.5,3.08636934522591,1.625
-43.0,3.098641191528995,-0.8125
-43.0,3.08636934522591,0.8125
-43.0,3.0802334220743677,4.875
-43.0,3.043417883165112,9.75
-42.5,3.06182565261974,5.6875
-43.0,3.06182565261974,8.125
-43.0,3.0802334220743677,6.5
-43.0,3.0802334220743677,8.9375
-43.0,3.098641191528995,6.5
-43.5,3.067961575771282,8.9375
-43.0,3.0925052683774528,5.6875
-43.0,3.129320807286708,0.0
-43.0,3.0802334220743677,7.3125
-43.0,3.06182565261974,8.125
-43.0,3.104777114680538,2.4375
-43.0,3.06182565261974,6.5
-42.5,3.055689729468197,7.3125
-43.0,3.098641191528995,0.0
-43.0,3.0925052683774528,2.4375
-43.0,3.06182565261974,7.3125
-43.0,3.067961575771282,8.125
-43.0,3.0925052683774528,1.625
-43.0,3.0802334220743677,6.5
-43.0,3.0925052683774528,6.5
-43.0,3.074097498922825,6.5
-43.0,3.0925052683774528,4.875
-43.0,3.074097498922825,6.5
-43.0,3.06182565261974,8.125
-43.0,3.0925052683774528,2.4375
-43.0,3.074097498922825,5.6875
-43.0,3.08636934522591,2.4375
-42.5,3.0802334220743677,2.4375
-43.0,3.055689729468197,5.6875
-43.0,3.074097498922825,4.875
-42.5,3.043417883165112,8.125
-42.5,3.055689729468197,8.125
-42.5,3.0925052683774528,0.0
-43.0,3.055689729468197,8.9375
-42.5,3.0802334220743677,3.25
-43.0,3.074097498922825,4.875
-42.5,3.067961575771282,8.125
-43.0,3.08636934522591,4.875
-43.0,3.0925052683774528,2.4375
-43.0,3.067961575771282,8.125
-43.0,3.08636934522591,4.875
-43.0,3.067961575771282,7.3125
-43.0,3.08636934522591,4.875
-43.0,3.0925052683774528,0.0
-43.0,3.074097498922825,6.5
-43.0,3.08636934522591,1.625
-43.0,3.074097498922825,7.3125
-43.0,3.043417883165112,7.3125
-43.0,3.055689729468197,6.5
-43.0,3.104777114680538,-1.625
-43.0,3.0802334220743677,6.5
-43.0,3.043417883165112,6.5
-43.0,3.074097498922825,6.5
-43.0,3.0495538063166547,6.5
-43.0,3.06182565261974,6.5
-43.0,3.055689729468197,8.125
-43.0,3.08636934522591,0.8125
-43.0,3.055689729468197,5.6875
-43.0,3.11091303783208,0.8125
-43.0,3.055689729468197,8.125
-43.0,3.074097498922825,5.6875
-43.0,3.06182565261974,5.6875
-43.0,3.0372819600135696,8.9375
-43.0,3.067961575771282,5.6875
-43.0,3.074097498922825,2.4375
-43.0,3.0372819600135696,8.125
-42.5,3.0495538063166547,6.5
-42.5,3.055689729468197,5.6875
-43.0,3.043417883165112,6.5
-43.0,3.067961575771282,5.6875
-42.5,3.074097498922825,3.25
-42.5,3.074097498922825,4.875
-43.0,3.11091303783208,0.0
-42.5,3.0802334220743677,4.875
-43.0,3.067961575771282,5.6875
-43.0,3.074097498922825,6.5
-43.0,3.074097498922825,5.6875
-43.0,3.0925052683774528,2.4375
-43.0,3.0802334220743677,7.3125
-43.0,3.06182565261974,6.5
-43.0,3.0802334220743677,3.25
-42.5,3.06182565261974,7.3125
-42.5,3.074097498922825,7.3125
-42.5,3.06182565261974,8.125
-43.0,3.08636934522591,3.25
-42.5,3.06182565261974,7.3125
-43.0,3.08636934522591,3.25
-42.5,3.0925052683774528,2.4375
-43.0,3.06182565261974,7.3125
-43.0,3.0925052683774528,1.625
-43.0,3.141592653589793,-3.25
-43.0,3.104777114680538,3.25
-43.0,3.098641191528995,6.5
-43.0,3.104777114680538,4.875
-42.5,3.0925052683774528,7.3125
-43.0,3.098641191528995,7.3125
-43.0,3.08636934522591,8.9375
-43.0,3.104777114680538,5.6875
-43.0,3.0925052683774528,9.75
-43.0,3.11091303783208,5.6875
-43.0,3.1231848841351653,3.25
-43.0,3.11091303783208,5.6875
-43.0,3.104777114680538,8.125
-43.0,3.129320807286708,3.25
-42.5,3.104777114680538,7.3125
-42.5,3.141592653589793,0.0
-43.0,3.1231848841351653,2.4375
-43.0,3.104777114680538,7.3125
-43.0,3.117048960983623,5.6875
-42.5,3.098641191528995,8.9375
-42.5,3.098641191528995,7.3125
-43.0,3.117048960983623,3.25
-42.5,3.1231848841351653,3.25
-42.5,3.0925052683774528,7.3125
-43.0,3.0925052683774528,8.9375
-42.5,3.098641191528995,5.6875
-43.0,3.1231848841351653,3.25
-42.5,3.0925052683774528,8.9375
-42.5,3.117048960983623,5.6875
-42.5,3.1231848841351653,4.875
-42.5,3.098641191528995,7.3125
-42.5,3.074097498922825,10.5625
-42.5,3.117048960983623,4.875
-42.5,3.11091303783208,5.6875
-42.5,3.117048960983623,2.4375
-42.5,3.104777114680538,3.25
-42.0,3.104777114680538,2.4375
-42.5,3.098641191528995,5.6875
-42.5,3.129320807286708,1.625
-42.5,3.11091303783208,0.0
-42.5,3.098641191528995,5.6875
-42.5,3.104777114680538,5.6875
-42.5,3.1231848841351653,0.8125
-42.0,3.0925052683774528,7.3125
-42.5,3.08636934522591,6.5
-42.5,3.0925052683774528,8.125
-42.5,3.11091303783208,2.4375
-42.0,3.0925052683774528,5.6875
-42.0,3.117048960983623,0.8125
-42.0,3.0925052683774528,4.875
-42.5,3.074097498922825,6.5
-42.0,3.0925052683774528,3.25
-42.0,3.067961575771282,7.3125
-42.0,3.074097498922825,7.3125
-42.5,3.074097498922825,3.25
-42.0,3.074097498922825,5.6875
-42.0,3.098641191528995,1.625
-42.0,3.0802334220743677,3.25
-42.0,3.08636934522591,3.25
-42.0,3.06182565261974,6.5
-42.0,3.0802334220743677,1.625
-42.0,3.055689729468197,7.3125
-41.5,3.0925052683774528,1.625
-42.0,3.067961575771282,2.4375
-41.5,3.0925052683774528,-0.8125
-42.0,3.0802334220743677,3.25
-41.5,3.06182565261974,5.6875
-42.0,3.06182565261974,6.5
-41.5,3.0495538063166547,5.6875
-41.5,3.06182565261974,4.875
-41.5,3.055689729468197,6.5
-42.0,3.031146036862027,8.9375
-41.5,3.067961575771282,3.25
-41.5,3.067961575771282,4.875
-42.0,3.06182565261974,3.25
-41.5,3.043417883165112,7.3125
-41.5,3.043417883165112,6.5
-41.5,3.067961575771282,1.625
-41.5,3.031146036862027,8.125
-41.5,3.08636934522591,0.8125
-41.5,3.055689729468197,2.4375
-41.5,3.0495538063166547,4.875
-41.5,3.0372819600135696,6.5
-41.5,3.074097498922825,-2.4375
-41.5,3.0495538063166547,0.8125
-41.5,3.031146036862027,7.3125
-41.5,3.074097498922825,1.625
-41.5,3.067961575771282,-0.8125
-41.5,3.0495538063166547,1.625
-41.5,3.06182565261974,0.8125
-41.5,3.074097498922825,0.8125
-41.5,3.043417883165112,5.6875
-41.5,2.988194574801229,13.8125
-41.5,3.0250101137104846,5.6875
-41.5,3.0372819600135696,3.25
-41.5,3.0372819600135696,2.4375
-41.5,3.018874190558942,7.3125
-41.5,3.055689729468197,1.625
-41.5,3.067961575771282,-0.8125
-41.5,3.043417883165112,4.875
-41.5,3.06182565261974,0.8125
-41.0,3.055689729468197,2.4375
-41.5,3.0372819600135696,3.25
-41.5,3.0495538063166547,1.625
-41.5,3.043417883165112,2.4375
-41.5,3.0495538063166547,2.4375
-42.0,3.031146036862027,6.5
-41.5,3.0495538063166547,4.875
-42.0,3.074097498922825,0.8125
-41.5,3.0372819600135696,8.125
-42.0,3.0925052683774528,-2.4375
-41.5,3.055689729468197,3.25
-41.5,3.0495538063166547,4.875
-42.0,3.0372819600135696,7.3125
-42.0,3.06182565261974,6.5
-42.0,3.06182565261974,6.5
-42.0,3.043417883165112,8.9375
-42.5,3.06182565261974,6.5
-42.5,3.067961575771282,8.125
-42.5,3.074097498922825,5.6875
-42.5,3.067961575771282,7.3125
-43.0,3.074097498922825,7.3125
-43.0,3.0495538063166547,8.125
-42.5,3.074097498922825,5.6875
-42.5,3.067961575771282,4.875
-42.5,3.06182565261974,7.3125
-43.0,3.08636934522591,4.875
-42.5,3.08636934522591,4.875
-42.5,3.06182565261974,7.3125
-42.0,3.06182565261974,7.3125
-42.5,3.0925052683774528,0.0
-43.0,3.074097498922825,4.875
-43.0,3.06182565261974,6.5
-43.0,3.055689729468197,5.6875
-43.0,3.0250101137104846,6.5
-43.0,3.018874190558942,3.25
-42.5,2.773437264497239,4.875
-42.5,2.791845033951867,-3.25
-42.5,2.742757648739526,5.6875
-42.0,2.724349879284899,8.9375
-42.0,2.736621725587984,6.5
-42.0,2.7550294950426117,2.4375
-41.5,2.724349879284899,8.125
-42.0,2.736621725587984,3.25
-41.5,2.705942109830271,5.6875
-41.5,2.705942109830271,5.6875
-41.0,2.693670263527186,5.6875
-41.5,2.6998061866787286,3.25
-41.5,2.6691265709210157,5.6875
-41.5,2.675262494072558,3.25
-41.5,2.6691265709210157,3.25
-41.0,2.6691265709210157,1.625
-41.5,2.675262494072558,0.8125
-41.5,2.6139032625571326,6.5
-41.5,2.60776733940559,6.5
-41.5,2.6139032625571326,3.25
-41.5,2.5954954931025047,3.25
-42.0,2.564815877344792,5.6875
-42.0,2.564815877344792,8.9375
-41.5,2.5709518004963345,3.25
-41.5,2.5770877236478773,3.25
-41.5,2.564815877344792,0.0
-42.0,2.5709518004963345,0.8125
-41.5,2.5586799541932495,5.6875
-41.5,2.5341362615870793,8.9375
-42.0,2.5709518004963345,3.25
-42.0,2.5464081078901644,1.625
-42.0,2.5464081078901644,2.4375
-42.0,2.5341362615870793,2.4375
-42.5,2.509592568980909,5.6875
-42.0,2.521864415283994,7.3125
-42.0,2.521864415283994,1.625
-42.0,2.5402721847386216,5.6875
-42.0,2.509592568980909,7.3125
-42.0,2.5280003384355365,6.5
-42.0,2.552544031041707,2.4375
-42.0,2.5341362615870793,5.6875
-42.0,2.5341362615870793,7.3125
-42.0,2.521864415283994,6.5
-42.5,2.5157284921324514,7.3125
-42.0,2.5157284921324514,7.3125
-42.0,2.5034566458293663,7.3125
-42.5,2.497320722677824,8.9375
-42.5,2.4727770300716534,11.375
-42.0,2.4911847995262812,6.5
-42.0,2.5157284921324514,3.25
-42.0,2.4911847995262812,6.5
-42.5,2.4850488763747385,4.875
-42.0,2.478912953223196,6.5
-42.0,2.478912953223196,5.6875
-42.5,2.4605051837685683,8.9375
-42.5,2.4850488763747385,2.4375
-42.5,2.4605051837685683,7.3125
-42.5,2.466641106920111,6.5
-42.0,2.4605051837685683,5.6875
-42.5,2.435961491162398,8.9375
-42.5,2.454369260617026,7.3125
-42.0,2.442097414313941,5.6875
-42.0,2.442097414313941,2.4375
-42.0,2.4175537217077703,8.9375
-42.0,2.423689644859313,7.3125
-42.5,2.435961491162398,4.875
-42.0,2.423689644859313,4.875
-42.5,2.429825568010856,6.5
-42.0,2.411417798556228,10.5625
-42.5,2.429825568010856,6.5
-42.5,2.423689644859313,5.6875
-42.5,2.399145952253143,9.75
-42.5,2.399145952253143,8.9375
-42.0,2.399145952253143,7.3125
