E28011606000020612AF520D,905.25,4.724661,0.0
E28011606000020612AF20CD,905.25,0.8713011,0.0625
E28011606000020612AF20FD,905.25,0.22702916,0.4375
E28011606000020612AF20BD,905.25,4.9700975,0.4375
E28011606000020612AF20ED,905.25,5.123496,0.0625
E28011606000020612AF20BD,911.25,0.42951462,0.1875
E28011606000020612AF20CD,911.25,6.0132046,0.125
E28011606000020612AF20CD,911.25,5.270758,0.25
E28011606000020612B034BC,911.25,5.0989523,0.0625
E28011606000020612AF20DD,911.25,5.896622,0.25
E28011606000020612AF20BD,911.25,5.970253,0.4375
E28011606000020612AF20ED,920.75,6.1297874,0.375
E28011606000020612AF520D,920.75,0.36201948,0.25
E28011606000020612AF206C,920.75,5.737088,0.5
E28011606000020612AF20DC,920.75,4.565127,0.875
E28011606000020612B034BC,920.75,1.2640002,0.375
E28011606000020612AF20ED,911.75,5.1357675,0.125
E28011606000020612AF20BD,911.75,0.33747578,0.625
E28011606000020612AF20CD,911.75,5.896622,0.1875
E28011606000020612B034BC,911.75,0.52155346,0.125
E28011606000020612AF20FD,926.75,0.20862138,0.0
E28011606000020612AF20CD,926.75,5.332117,0.25
E28011606000020612AF20BD,926.75,6.1788745,0.25
E28011606000020612AF522D,926.75,3.8042724,0.5
E28011606000020612AF20FD,926.75,1.4664856,0.5
E28011606000020612AF20BD,906.75,0.60132045,0.1875
E28011606000020612B034BC,906.75,3.8349519,0.0625
E28011606000020612AF20CD,906.75,0.6320001,0.625
E28011606000020612AF20BD,906.75,4.558991,0.5
E28011606000020612AF20FD,906.75,0.07363108,0.25
E28011606000020612AF20CD,907.75,0.46019423,0.125
E28011606000020612AF20FD,907.75,6.2770495,0.25
E28011606000020612AF20BD,907.75,1.1719613,0.1875
E28011606000020612AF520D,912.25,1.4173982,0.375
E28011606000020612AF20ED,912.25,2.0064468,-0.0625
E28011606000020612B034BC,912.25,4.7430687,0.125
E28011606000020612AF20DD,912.25,2.6507187,0.125
E28011606000020612AF20BD,912.25,5.78004,0.375
E28011606000020612AF20CD,912.25,5.178719,0.0
E28011606000020612B0348C,912.25,5.510059,0.25
E28011606000020612AF522D,912.25,1.0124273,0.375
E28011606000020612AF20FD,926.25,1.601476,0.25
E28011606000020612AF20CD,926.25,5.473243,0.0625
E28011606000020612AF20CD,926.25,0.59518456,0.375
E28011606000020612AF20ED,926.25,2.5341363,0.125
E28011606000020612AF20ED,914.25,4.6633015,0.125
E28011606000020612AF20FD,914.25,4.859651,0.4375
E28011606000020612AF20BD,914.25,6.234098,0.1875
E28011606000020612AF520D,914.25,4.4914956,0.875
E28011606000020612AF20BD,909.75,6.2647777,0.375
E28011606000020612AF20ED,909.75,6.0009327,0.25
E28011606000020612AF20FD,909.75,4.4240007,-0.0625
E28011606000020612AF20CD,909.75,5.3873405,0.5625
E28011606000020612B034DC,909.75,0.46019423,0.0625
E28011606000020612B0348C,909.75,0.9019807,-0.375
E28011606000020612AF522D,909.75,5.0560007,0.75
E28011606000020612AF20BD,902.75,5.589826,0.0625
E28011606000020612B034BC,902.75,4.3319616,-0.25
E28011606000020612AF520D,902.75,5.3750687,-0.125
E28011606000020612AF20CD,902.75,4.3380976,0.1875
E28011606000020612AF20FD,902.75,0.57064086,0.5625
E28011606000020612AF20ED,902.75,5.761632,0.125
E28011606000020612B034BC,906.25,4.2031074,0.0
E28011606000020612AF20DD,906.25,3.4729326,0.125
E28011606000020612AF20BD,906.25,3.8533597,0.25
E28011606000020612AF20BD,910.25,6.1850104,0.5
E28011606000020612B034BC,910.25,5.454836,0.0625
E28011606000020612B0348C,910.25,0.5645049,1.125
E28011606000020612AF522D,910.25,4.9026027,0.125
E28011606000020612AF520D,922.25,0.319068,0.1875
E28011606000020612AF20BD,922.25,5.3689327,0.1875
E28011606000020612AF20CD,922.25,1.2333206,0.0625
E28011606000020612AF20ED,905.75,5.1419034,0.0
E28011606000020612AF20FD,905.75,5.1357675,0.25
E28011606000020612AF20BD,905.75,3.9331267,0.125
E28011606000020612AF20DD,905.75,3.595651,0.8125
E28011606000020612AF20ED,918.25,0.31293207,0.125
E28011606000020612AF20DD,918.25,1.7610099,0.1875
E28011606000020612AF20BD,918.25,1.6505634,0.125
E28011606000020612AF20CD,918.25,1.1719613,-0.0625
E28011606000020612AF20FD,918.25,0.31293207,0.0625
E28011606000020612AF20FD,918.25,4.577399,0.0625
E28011606000020612AF20FD,927.25,3.2581751,0.25
E28011606000020612AF20CD,927.25,0.4049709,0.375
E28011606000020612AF20BD,927.25,1.2333206,0.375
E28011606000020612AF20BD,912.75,0.11044662,0.375
E28011606000020612AF20ED,912.75,5.013049,0.1875
E28011606000020612AF20DD,912.75,2.552544,0.0625
E28011606000020612AF20CD,912.75,5.166447,0.0625
E28011606000020612AF20FD,912.75,3.9699423,0.4375
E28011606000020612AF20FD,904.25,5.6941366,0.0625
E28011606000020612B034BC,904.25,5.2278066,0.0625
E28011606000020612AF20DD,904.25,3.8840394,0.25
E28011606000020612AF20BD,904.25,1.116738,0.625
E28011606000020612AEE2EB,904.25,1.2578642,0.125
E28011606000020612AF20BD,904.25,5.160311,0.125
E28011606000020612AF520D,904.25,4.859651,0.625
E28011606000020612AF20ED,921.25,6.2647777,0.4375
E28011606000020612AF20CD,921.25,4.6571655,0.125
E28011606000020612AF20BD,921.25,2.3684664,0.25
E28011606000020612AF20FD,921.25,4.239923,0.25
E28011606000020612AF20DD,917.25,1.9450877,0.0625
E28011606000020612AF20FD,917.25,3.6386025,0.1875
E28011606000020612AF20CD,917.25,1.2455924,0.5
E28011606000020612AF20ED,917.25,0.6810875,0.1875
E28011606000020612AF522D,917.25,1.3437672,0.0
E28011606000020612B034BC,917.25,5.9579816,-0.375
E28011606000020612AF20BD,917.25,4.9332824,0.375
E28011606000020612AF520D,917.25,1.030835,0.375
E28011606000020612AEE2EB,907.25,4.95169,-0.25
E28011606000020612AF20DD,907.25,0.23316509,0.625
E28011606000020612AF20FD,907.25,0.030679615,0.625
E28011606000020612AF20FD,921.75,4.1724277,0.1875
E28011606000020612AF20CD,921.75,4.4853597,0.5
E28011606000020612AF520D,921.75,0.5829127,0.5625
E28011606000020612AF20BD,921.75,5.485515,0.1875
E28011606000020612AF520D,917.75,0.9265244,0.125
E28011606000020612AF20CD,917.75,1.2517283,0.25
E28011606000020612AF522D,917.75,1.4910294,0.25
E28011606000020612AF20ED,917.75,0.43565056,0.375
E28011606000020612B034BC,917.75,0.06135923,-0.375
E28011606000020612AF20BD,917.75,4.847379,0.125
E28011606000020612AF20DD,917.75,1.7241944,0.1875
E28011606000020612B0348C,916.75,2.6139033,0.0625
E28011606000020612AF20ED,916.75,4.104933,0.1875
E28011606000020612B034BC,916.75,0.8897089,0.0
E28011606000020612AF20CD,916.75,1.9573594,0.125
E28011606000020612AF20BD,916.75,2.5770876,0.375
E28011606000020612AF20BD,909.25,0.8406215,0.625
E28011606000020612AF20CD,909.25,0.09203885,0.25
E28011606000020612AF520D,909.25,1.521709,0.125
E28011606000020612AF20BD,908.25,0.638136,0.8125
E28011606000020612AF520D,908.25,4.890331,0.625
E28011606000020612AF20ED,908.25,0.33747578,0.125
E28011606000020612B034DC,908.25,1.8469129,-2.1875
E28011606000020612B034BC,908.25,6.0807,0.375
E28011606000020612AF20DD,908.25,0.04295146,0.25
E28011606000020612AF20FD,908.25,4.5160394,-0.0625
E28011606000020612AF20CD,925.25,0.79767,0.625
E28011606000020612AF20BD,925.25,1.521709,-0.125
E28011606000020612AF20CD,924.25,0.99401957,0.5
E28011606000020612AF20CD,924.25,6.0193405,0.125
E28011606000020612AF520D,924.25,6.1911464,0.1875
E28011606000020612AF20DD,924.25,0.6442719,0.1875
E28011606000020612AF520D,913.25,4.5835347,-0.125
E28011606000020612AF20DD,913.25,5.663457,0.5625
E28011606000020612AF20BD,913.25,5.6818647,0.1875
E28011606000020612AF522D,913.25,6.086836,1.75
E28011606000020612AF20CD,913.25,4.307418,0.125
E28011606000020612AF20CD,923.75,1.2087768,0.0
E28011606000020612AF20FD,923.75,4.417865,-0.125
E28011606000020612AF20BD,923.75,5.516195,0.0
E28011606000020612AF520D,903.25,5.0866804,0.5625
E28011606000020612AF520D,903.25,6.1850104,0.0625
E28011606000020612AF20ED,903.25,0.11044662,0.1875
E28011606000020612AF20DD,903.25,4.221515,0.125
E28011606000020612AF20ED,913.75,1.6198837,0.375
E28011606000020612AF20CD,913.75,4.687845,0.0625
E28011606000020612AF20FD,913.75,5.8475347,-0.5
E28011606000020612AF20FD,913.75,5.454836,0.0
E28011606000020612AF20ED,920.25,0.22702916,0.5625
E28011606000020612AF20CD,920.25,1.5769322,0.125
E28011606000020612AF20BD,920.25,5.61437,0.125
E28011606000020612AF520D,920.25,1.7303303,-0.625
E28011606000020612AF90CC,908.75,0.24543692,0.75
E28011606000020612AF20DD,908.75,3.2520392,0.0
E28011606000020612AF20BD,908.75,6.2709136,0.0
E28011606000020612AF20CD,908.75,5.2216706,0.25
E28011606000020612AF20FD,908.75,3.9331267,-0.1875
E28011606000020612AF20ED,908.75,2.0555344,0.9375
E28011606000020612AF20CD,922.75,0.05522331,0.125
E28011606000020612B0006C,922.75,0.09203885,0.0
E28011606000020612AF520D,922.75,6.0377483,0.25
E28011606000020612AF20FD,922.75,3.9208548,0.125
E28011606000020612AF52AD,915.75,1.1903691,1.125
E28011606000020612AF20ED,915.75,0.8528933,0.0625
E28011606000020612AF20BD,915.75,0.36201948,0.1875
E28011606000020612AF520D,919.75,0.48473793,0.625
E28011606000020612AF523D,919.75,6.0316124,0.9375
E28011606000020612AF521C,919.75,0.5399612,0.0
E28011606000020612AF20FD,919.75,2.147573,0.5
E28011606000020612AF20ED,919.75,3.9576705,0.0
E28011606000020612AF522D,919.75,0.25157285,1.875
E28011606000020612AEE2EB,919.75,6.252506,0.8125
E28011606000020612AF20CD,919.75,0.159534,0.5
E28011606000020612AF90CC,910.75,1.9021362,0.1875
E28011606000020612AF20BD,910.75,5.982525,0.5
E28011606000020612AF20FD,910.75,3.9699423,0.0625
E28011606000020612AF20ED,910.75,5.338253,0.1875
E28011606000020612AF20BD,910.75,1.1903691,0.8125
E28011606000020612AF520D,910.75,1.8960003,0.5625
E28011606000020612AF20ED,910.75,5.172583,0.125
E28011606000020612AF20BD,923.25,5.9947968,0.5
E28011606000020612AF52DD,923.25,5.9641175,0.75
E28011606000020612AF20CD,904.75,2.6016314,0.5
E28011606000020612AF90BC,904.75,5.3137093,1.625
E28011606000020612AF520D,904.75,5.473243,0.1875
E28011606000020612AF20DD,904.75,0.3436117,0.8125
E28011606000020612AF20FD,904.75,5.2339425,0.25
E28011606000020612AEE2EB,904.75,0.22089323,0.375
E28011606000020612AF20BD,904.75,0.44178647,0.0625
E28011606000020612AF20ED,903.75,3.9515345,0.0
E28011606000020612AF20CD,903.75,6.1666026,0.25
E28011606000020612AF20DD,903.75,0.6074564,0.625
E28011606000020612AF20CD,903.75,0.8651652,0.1875
E28011606000020612B034BC,903.75,4.730797,0.375
E28011606000020612AF20ED,903.75,5.479379,1.0625
E28011606000020612AF20FD,903.75,0.50928164,0.0
E28011606000020612AF20BD,903.75,5.737088,0.1875
E28011606000020612AF20DD,903.75,4.853515,0.0625
E28011606000020612AF520D,903.75,1.4235342,0.0625
E28011606000020612AF520D,924.75,0.28225246,0.125
E28011606000020612AEE48C,924.75,0.45405832,0.0625
E28011606000020612AF20ED,924.75,6.0132046,0.25
E28011606000020612AF20CD,924.75,0.7669904,0.75
E28011606000020612B0686C,924.75,5.835263,-0.125
E28011606000020612B0685C,924.75,2.313243,-0.1875
E28011606000020612B0681C,924.75,5.0866804,2.125
E28011606000020612AF20DD,915.25,1.8285052,0.125
E28011606000020612AF208C,915.25,1.6689711,2.1875
E28011606000020612AF20FD,915.25,3.423845,0.25
E28011606000020612AF20CD,915.25,0.6810875,0.625
E28011606000020612B0942C,915.25,5.350525,0.5
E28011606000020612AF526D,915.25,5.645049,0.0
E28011606000020612AF20BD,915.25,5.1480393,0.25
E28011606000020612B0941C,915.25,1.3744467,-0.1875
E28011606000020612AF20FD,916.25,4.4485445,0.0625
E28011606000020612AF20ED,916.25,4.3687773,0.1875
E28011606000020612AF20CD,916.25,5.172583,0.125
E28011606000020612AF20ED,925.75,2.4543693,0.0625
E28011606000020612AF20CD,925.75,0.57064086,0.1875
E28011606000020612AF900D,925.75,0.8406215,1.5
E28011606000020612AF20DD,925.75,6.056156,0.5
E28011606000020612AF20ED,925.75,4.8964667,0.1875
E28011606000020612AF52DD,925.75,0.44178647,0.1875
E28011606000020612AF20FD,918.75,6.068428,0.125
E28011606000020612AF20CD,918.75,6.240234,0.25
E28011606000020612AEE2FB,918.75,2.0064468,-0.375
E28011606000020612AF520D,918.75,0.17180584,0.25
E28011606000020612AF522D,918.75,0.10431069,1.1875
E28011606000020612AF20ED,918.75,0.41724277,-0.0625
E28011606000020612AF20DD,918.75,1.0615147,0.375
E28011606000020612AF90BC,918.75,4.104933,0.5625
E28011606000020612AF20CD,919.25,1.4051265,0.375
E28011606000020612AF20DD,919.25,2.4911847,0.75
E28011606000020612AF20ED,919.25,3.5281558,0.5
E28011606000020612AEE2FB,914.75,5.982525,-0.1875
E28011606000020612B068CC,914.75,1.0799224,-0.4375
E28011606000020612AF20DD,914.75,1.9328158,0.1875
E28011606000020612AEE2FB,905.25,5.485515,0.0
E28011606000020612AF520D,905.25,5.5714183,-0.0625
E28011606000020612AF20DD,905.25,3.583379,0.75
E28011606000020612B0942C,905.25,1.8223692,0.8125
E28011606000020612AF20CD,911.25,6.0438843,0.0
E28011606000020612AF520D,911.25,5.4487,0.125
E28011606000020612AF20BD,911.25,4.8412433,0.75
E28011606000020612AF20ED,911.25,4.7369328,0.375
E28011606000020612AF20FD,911.25,5.602098,0.4375
E28011606000020612AF520D,920.75,0.03681554,0.1875
E28011606000020612AEE4EC,920.75,6.0991077,-0.75
E28011606000020612AF20FD,920.75,1.6321555,0.25
E28011606000020612AF520C,920.75,0.21475731,1.625
E28011606000020612AF20BD,911.75,6.0316124,0.5
E28011606000020612B034BC,911.75,0.43565056,-0.625
E28011606000020612B0942C,911.75,4.233787,5.625
E28011606000020612AF20ED,911.75,5.3750687,-0.625
E28011606000020612AF52AD,911.75,2.2518837,0.5625
E28011606000020612AF20CD,911.75,5.3689327,0.0
E28011606000020612AF20FD,911.75,5.5223308,-0.25
E28011606000020612AF20ED,926.75,3.2581751,-0.125
E28011606000020612AF20BD,926.75,1.9389517,0.25
E28011606000020612AF521C,926.75,0.3681554,1.5
E28011606000020612B0942C,926.75,2.7550294,2.3125
E28011606000020612AF20BD,906.75,3.3011267,0.8125
E28011606000020612B0942C,906.75,4.546719,2.5625
E28011606000020612AF520D,906.75,2.153709,0.5
E28011606000020612AF20FC,906.75,0.20248546,0.0
E28011606000020612B034BC,906.75,0.70563114,1.8125
E28011606000020612AF20CD,906.75,0.12885438,-0.1875
E28011606000020612AF546C,907.75,5.3873405,6.625
E28011606000020612AF20CD,907.75,5.8413987,0.125
E28011606000020612AF20BD,907.75,0.079767,0.0625
E28011606000020612AF20ED,907.75,5.822991,0.8125
E28011606000020612B068BC,907.75,0.7853982,1.9375
E28011606000020612AF20ED,907.75,4.399457,0.125
E28011606000020612AEE2EB,907.75,6.240234,-0.0625
E28011606000020612AF20BD,912.25,0.5154175,0.25
E28011606000020612AF521C,912.25,0.75471854,1.5
E28011606000020612AF54FD,912.25,5.105088,1.9375
E28011606000020612B0942C,912.25,6.086836,1.4375
E28011606000020612AF20ED,912.25,4.6387577,0.0
E28011606000020612AF20FD,912.25,5.651185,0.0625
E28011606000020612B0348C,912.25,5.0621367,0.8125
E28011606000020612AF20BD,912.25,2.0371265,0.5625
E28011606000020612AF520D,926.25,5.4057484,0.5
E28011606000020612B068DC,926.25,5.970253,2.5625
E28011606000020612AF549D,926.25,2.1414373,0.875
E28011606000020612AF20CD,926.25,5.28303,0.625
E28011606000020612AEE2EB,926.25,2.2764275,1.125
E28011606000020612AF526D,926.25,0.72403896,1.0625
E28011606000020612AF20FD,926.25,1.4296701,0.1875
E28011606000020612B034DC,926.25,0.49700978,1.75
E28011606000020612AF52DD,926.25,2.0125828,1.125
E28011606000020612B0009C,926.25,5.645049,1.625
E28011606000020612AF209C,926.25,1.7426022,0.375
E28011606000020612AF20DD,926.25,0.5276894,0.75
E28011606000020612B032FC,926.25,6.142059,1.875
E28011606000020612AF20FD,914.25,3.7735927,0.5
E28011606000020612AFC2CC,914.25,2.1046216,2.625
E28011606000020612AF54AD,914.25,5.0989523,1.4375
E28011606000020612AF20BD,914.25,1.8530488,0.5
E28011606000020612B0942C,914.25,0.33133984,1.4375
E28011606000020612AF521C,914.25,1.8162333,1.125
E28011606000020612AF54FD,914.25,0.19021362,2.1875
E28011606000020612AEE2EB,914.25,5.6880007,1.9375
E28011606000020612B034DC,914.25,0.65040785,1.75
E28011606000020612B034EC,914.25,4.3442335,1.3125
E28011606000020612AF20ED,914.25,4.6080785,0.125
E28011606000020612AF20CD,909.75,6.2647777,0.25
E28011606000020612AF907D,909.75,5.11736,0.9375
E28011606000020612AF20FD,909.75,6.0807,0.625
E28011606000020612AF522D,909.75,1.2517283,1.0625
E28011606000020612AF520D,909.75,4.8964667,-0.0625
E28011606000020612AEE2EB,909.75,2.4298255,1.5625
E28011606000020612AF52DD,909.75,3.8533597,1.75
E28011606000020612AF20ED,909.75,1.7855537,1.125
E28011606000020612AF20FD,909.75,4.7369328,0.125
E28011606000020612AF520C,902.75,0.49087384,-0.8125
E28011606000020612AF20DD,902.75,0.7608545,0.375
E28011606000020612AF20BD,902.75,4.2031074,-0.125
E28011606000020612B0683C,902.75,5.8536706,0.5625
E28011606000020612AF547D,902.75,0.12271846,1.125
E28011606000020612AF20FC,902.75,5.74936,-0.8125
E28011606000020612AF20ED,902.75,1.0553788,0.25
E28011606000020612AF522D,902.75,5.767768,-0.5
E28011606000020612B0941C,906.25,1.4848934,1.0625
E28011606000020612AF20FD,906.25,0.4233787,-0.125
E28011606000020612AF20CD,906.25,0.5154175,0.5625
E28011606000020612B0941C,906.25,1.8591847,1.625
E28011606000020612AF20BD,906.25,4.7737484,0.5
E28011606000020612AEE2FB,906.25,0.01840777,1.5625
E28011606000020612AF54FD,906.25,2.1107576,1.3125
E28011606000020612B034BC,906.25,4.632622,0.0625
E28011606000020612AF20BD,910.25,1.0001554,0.375
E28011606000020612AF20FD,910.25,6.074564,0.75
E28011606000020612B0942C,910.25,5.2155347,1.4375
E28011606000020612AF20FD,910.25,4.160156,-0.5625
E28011606000020612AF900D,910.25,6.1850104,1.3125
E28011606000020612AFC22C,910.25,0.89584476,0.0625
E28011606000020612AF548D,910.25,1.8530488,0.25
E28011606000020612B068FC,910.25,5.829127,0.75
E28011606000020612AF20DD,910.25,5.8659425,0.25
E28011606000020612AF520D,922.25,6.1359234,0.25
E28011606000020612AF90BC,922.25,1.3928546,-0.0625
E28011606000020612AFC4FC,922.25,5.5652823,0.5
E28011606000020612B0940C,922.25,1.0553788,0.8125
E28011606000020612AF54FD,922.25,2.1659808,0.4375
E28011606000020612B0007C,922.25,1.9082721,-0.4375
E28011606000020612AF20CD,922.25,0.06749515,0.625
E28011606000020612B0349C,922.25,5.356661,0.75
E28011606000020612AF20ED,922.25,6.1666026,0.1875
E28011606000020612AF20FD,922.25,6.148195,0.0
E28011606000020612B0687C,922.25,5.7002726,0.75
E28011606000020612AF90CC,905.75,0.83448553,2.8125
E28011606000020612AF20CD,905.75,3.8840394,0.25
E28011606000020612AEE2FB,905.75,1.8407769,0.25
E28011606000020612AF20BD,905.75,5.1357675,-0.75
E28011606000020612AF907C,905.75,0.44178647,2.8125
E28011606000020612AF20FD,905.75,0.52155346,-0.1875
E28011606000020612B0686C,918.25,5.657321,0.125
E28011606000020612AF20ED,918.25,4.098797,0.125
E28011606000020612AFC22C,918.25,4.0251656,-1.3125
E28011606000020612B0009C,918.25,5.2462144,0.5
E28011606000020612AF208C,918.25,0.7853982,0.0625
E28011606000020612B0680C,918.25,2.3439226,0.8125
E28011606000020612AF521C,918.25,0.2883884,-0.0625
E28011606000020612AF20FD,918.25,2.951379,0.1875
E28011606000020612AEE41C,918.25,0.5767768,3.125
E28011606000020612AF20CD,918.25,0.5276894,0.8125
E28011606000020612AF521C,927.25,0.957204,-0.5625
E28011606000020612AF205C,927.25,5.61437,-0.625
E28011606000020612AF20FC,927.25,4.718525,-1.125
E28011606000020612AF90CC,927.25,4.7860203,0.75
E28011606000020612AF520D,927.25,5.203263,0.0
E28011606000020612B0689C,927.25,2.153709,1.125
E28011606000020612AF20EC,927.25,5.4671073,-0.75
E28011606000020612AEE49C,927.25,5.0805445,-0.25
E28011606000020612AF20DD,927.25,0.3681554,0.0
E28011606000020612B0687C,927.25,1.3314953,1.125
E28011606000020612AEE2FB,912.75,1.7794178,0.875
E28011606000020612AF20ED,912.75,4.1662917,-0.1875
E28011606000020612B068CC,912.75,1.8469129,0.5
E28011606000020612AF54FD,912.75,6.0991077,0.4375
E28011606000020612AF20CD,912.75,5.8536706,0.0625
E28011606000020612AF541D,912.75,0.024543693,0.875
E28011606000020612B068FC,912.75,0.0,1.5
E28011606000020612AF906C,904.25,5.645049,0.4375
E28011606000020612AF900C,904.25,3.8594956,-0.0625
E28011606000020612AF20CD,904.25,0.33747578,0.125
E28011606000020612B0343C,904.25,6.2034183,-1.4375
E28011606000020612AFC27C,904.25,0.59518456,-0.8125
E28011606000020612AFC26C,904.25,0.9019807,-1.4375
E28011606000020612AF528D,904.25,1.0676507,-0.25
E28011606000020612AFC4EC,904.25,1.6137478,-1.1875
E28011606000020612AF54DD,904.25,4.859651,-0.5625
E28011606000020612AFC2BC,904.25,1.1044662,-0.75
E28011606000020612AF20DD,921.25,1.030835,0.5
E28011606000020612AF520D,921.25,6.148195,0.5625
E28011606000020612B034DC,921.25,6.2709136,-0.4375
E28011606000020612AF20ED,921.25,5.74936,0.5625
E28011606000020612B0945D,921.25,5.921166,-1.125
E28011606000020612AF20CD,921.25,5.921166,0.875
E28011606000020612AFC4EC,921.25,5.61437,-1.75
E28011606000020612AFC4EC,921.25,0.99401957,0.5
E28011606000020612B0683C,917.25,0.43565056,0.1875
E28011606000020612B0007C,917.25,5.3996124,0.0
E28011606000020612AF90BC,917.25,0.05522331,-1.625
E28011606000020612AF52ED,917.25,0.08590292,0.9375
E28011606000020612B0348C,917.25,5.0989523,-1.0625
E28011606000020612AF90CC,907.25,0.48473793,-0.75
E28011606000020612AF20DD,907.25,6.1175156,0.125
E28011606000020612AF20CD,907.25,5.921166,0.5625
E28011606000020612AF20FD,907.25,5.1541753,0.4375
E28011606000020612AF540D,907.25,1.116738,-1.1875
E28011606000020612AF903D,907.25,0.28225246,-0.4375
E28011606000020612AF907C,907.25,6.0132046,0.125
E28011606000020612AF20ED,907.25,1.1965051,0.4375
E28011606000020612AF904D,907.25,6.086836,-0.5625
E28011606000020612B068CC,907.25,5.9457097,-1.0625
E28011606000020612AF52FD,907.25,6.2770495,-0.75
E28011606000020612AF902D,921.75,4.540583,0.125
E28011606000020612AF20CD,921.75,5.577554,0.5
E28011606000020612AF20CD,921.75,4.5283113,0.1875
E28011606000020612AF900D,921.75,2.0371265,0.4375
E28011606000020612AF54FD,921.75,6.1113796,-0.9375
E28011606000020612B0349C,921.75,0.32520393,0.5625
E28011606000020612AF20CD,917.75,5.166447,0.0625
E28011606000020612AF20BD,917.75,6.1297874,0.625
E28011606000020612B0348C,917.75,0.2699806,-0.5
E28011606000020612AF20BD,917.75,5.2584863,0.5
E28011606000020612AFC2DC,916.75,0.75471854,-1.0625
E28011606000020612AF902C,916.75,0.159534,-0.1875
E28011606000020612AF52FD,916.75,5.2155347,-0.875
E28011606000020612AEE2EB,916.75,1.0799224,0.375
E28011606000020612B034EC,916.75,4.853515,-0.75
E28011606000020612AF20BD,916.75,6.0193405,-1.5
E28011606000020612AF20FD,916.75,0.06135923,-0.4375
E28011606000020612AF520D,916.75,0.5399612,0.0625
E28011606000020612AF54CD,916.75,4.6387577,-2.125
E28011606000020612AF20DD,916.75,1.7057866,0.5625
E28011606000020612B0349C,916.75,2.1291654,-1.3125
E28011606000020612AF20CD,909.25,4.9455543,0.375
E28011606000020612AEE2FB,909.25,1.6444274,-1.0625
E28011606000020612B0009C,909.25,4.074253,-1.75
E28011606000020612AF907C,909.25,0.7853982,-0.8125
E28011606000020612AF20CD,909.25,6.227962,0.8125
E28011606000020612AF520D,909.25,2.000311,0.0
E28011606000020612AF20FD,909.25,0.07363108,0.5625
E28011606000020612AF20FD,908.25,0.25157285,0.1875
E28011606000020612AF54FD,908.25,5.8782144,-0.25
E28011606000020612AF20CD,908.25,0.10431069,0.0625
E28011606000020612AF20ED,908.25,5.325981,0.5
E28011606000020612AFC2CC,908.25,5.043729,-2.6875
E28011606000020612AFC21C,908.25,0.61972827,-3.6875
E28011606000020612AFC4AC,908.25,2.4482334,-1.875
E28011606000020612AF20DD,908.25,0.3681554,0.5
E28011606000020612AF20FD,908.25,4.5896707,0.25
E28011606000020612AF20FD,925.25,1.6873789,0.5
E28011606000020612AF20BD,925.25,0.3926991,0.0
E28011606000020612AF20CD,925.25,5.7248163,0.125
E28011606000020612AF20ED,925.25,2.4052818,0.1875
E28011606000020612AF901C,925.25,1.9941751,-1.3125
E28011606000020612AF20DD,925.25,0.99401957,0.625
E28011606000020612AF20FD,924.25,3.8042724,0.125
E28011606000020612AF20CD,924.25,0.6810875,0.625
E28011606000020612AF54FD,924.25,0.59518456,-0.125
E28011606000020612AF541D,924.25,1.2087768,0.0625
E28011606000020612AF20DD,924.25,1.5585245,0.1875
E28011606000020612AF20BD,913.25,0.49700978,0.375
E28011606000020612AF20CD,913.25,5.5530105,0.5
E28011606000020612AF20BD,913.25,1.9696313,-0.0625
E28011606000020612AF548D,913.25,5.9579816,-0.125
E28011606000020612AF900D,913.25,0.04295146,-0.75
E28011606000020612AF904D,913.25,1.4296701,-0.5
E28011606000020612AF903D,913.25,5.0007772,0.0
E28011606000020612AF54DD,913.25,0.9633399,0.25
E28011606000020612AF20DD,913.25,2.810253,-0.0625
E28011606000020612AF52AD,923.75,1.7241944,-0.0625
E28011606000020612AF520D,923.75,6.086836,-0.0625
E28011606000020612AF20CD,923.75,5.810719,0.375
E28011606000020612AF20FD,923.75,1.3928546,-1.5625
E28011606000020612AF20BD,923.75,6.2770495,0.5
E28011606000020612AF20DD,923.75,0.46019423,-0.0625
E28011606000020612AF20BD,923.75,2.3684664,-0.125
E28011606000020612AF90CC,903.25,2.8409324,0.125
E28011606000020612AF20BD,903.25,5.4671073,0.1875
E28011606000020612AF20FD,903.25,1.0737865,0.0625
E28011606000020612AF20CD,903.25,4.565127,-0.0625
E28011606000020612AF20DD,903.25,4.160156,0.1875
E28011606000020612AF20ED,913.75,4.9946413,0.25
E28011606000020612AF20BD,913.75,5.9579816,0.5
E28011606000020612AF520D,913.75,1.116738,0.0625
E28011606000020612B0942C,913.75,0.61972827,-0.0625
E28011606000020612AF20CD,913.75,4.632622,0.5625
E28011606000020612AF546D,920.25,2.877748,0.25
E28011606000020612AF20CD,920.25,0.33747578,0.0625
E28011606000020612AF20CC,920.25,5.1480393,-0.5625
E28011606000020612B0683C,920.25,5.737088,0.125
E28011606000020612AF20DD,920.25,1.356039,0.625
E28011606000020612AF20BD,920.25,1.6935148,0.25
E28011606000020612AF20FD,920.25,5.74936,0.125
E28011606000020612AF20ED,920.25,0.8897089,0.375
E28011606000020612AF20ED,908.75,5.743224,0.1875
E28011606000020612AF54AD,908.75,2.080078,0.375
E28011606000020612AF20CD,908.75,0.12885438,0.1875
E28011606000020612AF20DD,908.75,6.0438843,0.125
E28011606000020612AF20FD,908.75,6.092972,0.4375
E28011606000020612B0684C,908.75,3.7858646,0.5625
E28011606000020612AF20DD,922.75,0.96947587,-0.0625
E28011606000020612AF52DD,922.75,1.3314953,0.125
E28011606000020612AF52ED,922.75,0.079767,-0.0625
E28011606000020612B0349C,922.75,1.5707964,0.125
E28011606000020612AF20CC,922.75,0.25770876,-2.5
E28011606000020612AF20ED,922.75,1.2026409,0.125
E28011606000020612AF54FD,922.75,0.06749515,-0.1875
E28011606000020612AF20FD,922.75,2.2457478,0.5
E28011606000020612AF520D,922.75,5.74936,0.375
E28011606000020612AF52DD,915.75,3.595651,0.0625
E28011606000020612B0349C,915.75,4.792156,0.0625
E28011606000020612AF20BD,915.75,0.32520393,0.0625
E28011606000020612AF20CD,915.75,5.424156,0.125
E28011606000020612AF20FD,919.75,1.1351458,0.5625
E28011606000020612AF20CD,919.75,4.859651,0.125
E28011606000020612AF20ED,919.75,4.141748,0.0625
E28011606000020612AF20ED,910.75,1.5892041,0.1875
E28011606000020612AF20BD,910.75,0.24543692,0.4375
E28011606000020612AF20DD,910.75,2.6507187,0.0625
E28011606000020612AF20CC,923.25,5.8843503,-0.75
E28011606000020612AF20CD,923.25,1.036971,0.25
E28011606000020612AF20FD,923.25,3.9822142,0.125
E28011606000020612AF20BD,923.25,2.2825634,0.0
E28011606000020612AF20ED,923.25,3.8779035,0.25
E28011606000020612AF20BD,904.75,5.319845,-0.0625
E28011606000020612AF20FD,904.75,0.2883884,0.5625
E28011606000020612B0327C,904.75,5.479379,-0.5625
E28011606000020612B034FC,904.75,6.142059,0.0
E28011606000020612AF20DD,903.75,3.3318062,0.375
E28011606000020612B0348C,903.75,5.4057484,-0.9375
E28011606000020612B0684C,903.75,1.4173982,-1.125
E28011606000020612B0680C,903.75,5.9518456,0.0625
E28011606000020612AF20CD,903.75,0.27611655,0.0
E28011606000020612AF20FD,903.75,5.0621367,0.25
E28011606000020612B068DC,903.75,1.2824079,0.375
E28011606000020612AF20DD,924.75,6.1727386,0.5
E28011606000020612AF20BD,924.75,2.06167,0.4375
E28011606000020612AF520D,924.75,2.1230295,-0.1875
E28011606000020612AF20FD,924.75,0.19634955,0.1875
E28011606000020612AF20FD,915.25,5.203263,0.4375
E28011606000020612AF206C,915.25,1.681243,0.1875
E28011606000020612AF20FD,916.25,2.9268353,0.25
E28011606000020612AF52DD,916.25,0.159534,-1.0625
E28011606000020612AF20CC,916.25,3.8717675,0.0
E28011606000020612AF20BD,916.25,4.540583,0.25
E28011606000020612AF209C,916.25,0.5829127,-0.0625
E28011606000020612AF901D,916.25,5.485515,-0.25
E28011606000020612AF20DD,916.25,1.9819032,0.25
E28011606000020612AF520D,925.75,5.9457097,0.0
E28011606000020612AF20BD,925.75,2.0432625,0.125
E28011606000020612AF20ED,925.75,0.28225246,0.75
E28011606000020612AF20CD,925.75,0.6872234,0.5
E28011606000020612AF20DD,925.75,5.773904,-0.125
E28011606000020612AF20BD,918.75,1.0492429,0.25
E28011606000020612AF20CD,918.75,0.27611655,0.375
E28011606000020612AFC26C,918.75,5.332117,1.0625
E28011606000020612B0685C,918.75,0.079767,-0.125
E28011606000020612AF206C,918.75,5.28303,0.1875
E28011606000020612AF20ED,918.75,4.7430687,0.0625
E28011606000020612AF52DD,918.75,1.2455924,0.8125
E28011606000020612AF20FD,918.75,5.3996124,0.1875
E28011606000020612AF209C,919.25,5.203263,0.0
E28011606000020612AF20DD,919.25,1.5707964,0.25
E28011606000020612AF20FD,919.25,5.270758,0.25
E28011606000020612AF520D,919.25,1.1658254,0.0625
E28011606000020612B0685C,919.25,6.0193405,-0.8125
E28011606000020612AF20FD,919.25,4.473088,0.8125
E28011606000020612AF20ED,914.75,5.1419034,0.1875
E28011606000020612AF20BD,914.75,0.6933593,0.5625
E28011606000020612AF20FD,914.75,5.319845,0.25
E28011606000020612AF20CD,914.75,5.761632,0.125
E28011606000020612AF20FD,905.25,0.7363108,0.0625
E28011606000020612AF20DD,905.25,0.7853982,0.125
E28011606000020612AF20BD,905.25,3.7060976,0.25
E28011606000020612B0684C,905.25,6.062292,-0.0625
E28011606000020612AF520D,905.25,5.276894,0.25
E28011606000020612B0684C,911.25,4.0374374,0.8125
E28011606000020612AF520D,911.25,1.2701361,-0.0625
E28011606000020612AF20DD,911.25,2.3316507,0.25
E28011606000020612AF20ED,911.25,5.031457,0.0625
E28011606000020612AF520D,911.25,4.6510296,-0.0625
E28011606000020612AF520D,920.75,5.442564,0.0625
E28011606000020612AF52DD,920.75,1.2149128,0.5625
E28011606000020612AF20BD,920.75,5.9579816,0.25
E28011606000020612AF20FD,920.75,1.1106021,0.875
E28011606000020612AF20CD,920.75,4.8044276,0.0625
E28011606000020612AF20DD,911.75,5.577554,0.5
E28011606000020612B068DC,911.75,3.4790685,2.3125
E28011606000020612AF520D,911.75,4.221515,0.75
E28011606000020612AF20BD,911.75,5.8413987,0.25
E28011606000020612B0686C,911.75,0.6442719,1.1875
E28011606000020612AF541D,911.75,0.17794177,0.8125
E28011606000020612AF20ED,911.75,5.761632,0.375
E28011606000020612AF20DD,926.75,0.28225246,-0.0625
E28011606000020612AF20BD,926.75,1.4051265,0.1875
E28011606000020612AF90CC,926.75,5.804583,0.25
E28011606000020612AF20FD,926.75,0.30066022,-0.0625
E28011606000020612AF20ED,926.75,6.1850104,0.5625
E28011606000020612B0349C,906.75,1.515573,0.9375
E28011606000020612AF52DD,906.75,0.6688156,1.625
E28011606000020612AF20BD,906.75,4.9700975,0.0
E28011606000020612AF20DD,906.75,5.5223308,-0.5
E28011606000020612AF52ED,906.75,3.423845,0.625
E28011606000020612AF20CD,906.75,1.036971,0.25
E28011606000020612AF20FD,906.75,0.15339808,0.1875
E28011606000020612AF520D,906.75,5.4118843,0.5
E28011606000020612AF20FD,906.75,6.086836,-0.25
E28011606000020612B068CC,906.75,4.865787,0.0
E28011606000020612AF20CD,907.75,2.1107576,0.8125
E28011606000020612B034EC,907.75,0.2883884,0.5625
E28011606000020612B034FC,907.75,5.669593,1.0625
E28011606000020612AF20FD,907.75,5.0007772,-0.625
E28011606000020612B0942C,907.75,0.90811664,0.875
E28011606000020612AF520D,907.75,5.019185,0.0625
E28011606000020612B068DC,907.75,4.8166995,0.625
E28011606000020612AF54FD,907.75,0.8222137,0.5625
E28011606000020612AF529D,907.75,1.2026409,0.875
E28011606000020612B0680C,907.75,0.28225246,1.8125
E28011606000020612AF901D,912.25,1.1719613,1.625
E28011606000020612AF522D,912.25,0.77926224,0.9375
E28011606000020612AF901C,912.25,0.3436117,0.5625
E28011606000020612AF20CD,912.25,2.3500586,0.25
E28011606000020612AF52FD,912.25,4.141748,1.625
E28011606000020612AF20ED,912.25,5.430292,0.375
E28011606000020612AF520D,912.25,0.54609716,-0.0625
E28011606000020612AF20BD,912.25,4.258331,0.5625
E28011606000020612AF20FD,912.25,5.5468745,0.1875
E28011606000020612AF52ED,912.25,3.8840394,-0.625
E28011606000020612AF20BD,926.25,5.1296315,0.0
E28011606000020612B0682C,926.25,1.1228739,0.8125
E28011606000020612AF20CD,926.25,0.9265244,0.125
E28011606000020612AF20CD,926.25,4.7860203,0.0625
E28011606000020612AF520D,926.25,5.8782144,0.125
E28011606000020612AF20DD,914.25,2.0371265,0.375
E28011606000020612AF20FD,914.25,4.1172047,0.125
E28011606000020612AFC48C,914.25,1.1106021,4.1875
E28011606000020612AF20ED,914.25,1.4787575,-0.1875
E28011606000020612AF520D,914.25,4.712389,0.5
E28011606000020612AFC26C,914.25,5.7125444,0.0
E28011606000020612AF20BD,909.75,4.411729,0.1875
E28011606000020612B0009C,909.75,4.9271464,1.75
E28011606000020612B0343C,909.75,2.3623304,-1.0625
E28011606000020612AF20CD,909.75,6.2709136,0.1875
E28011606000020612B034BC,909.75,1.9573594,0.8125
E28011606000020612AF90CC,909.75,4.95169,-0.1875
E28011606000020612B0009C,902.75,1.356039,0.125
E28011606000020612AF90CC,902.75,5.325981,0.5
E28011606000020612AF529D,902.75,0.079767,-1.5625
E28011606000020612B0007C,902.75,5.4487,1.0625
E28011606000020612AF20FD,902.75,1.116738,0.625
E28011606000020612AF20FC,902.75,2.5095925,2.25
E28011606000020612AF20CD,902.75,0.45405832,0.375
E28011606000020612AFC22C,902.75,0.93266034,1.3125
E28011606000020612AF20BD,906.25,3.7920005,0.5
E28011606000020612AF20DD,906.25,0.024543693,0.25
E28011606000020612AF90BC,906.25,5.8659425,0.375
E28011606000020612AF522D,906.25,5.829127,0.5625
E28011606000020612AF20CD,906.25,6.0807,0.1875
E28011606000020612AF20ED,906.25,5.902758,0.625
E28011606000020612B034EC,906.25,1.7119225,0.625
E28011606000020612AF20FD,906.25,5.479379,-0.125
E28011606000020612AF90AC,906.25,0.9387962,1.0625
E28011606000020612AEE43C,906.25,3.9760783,0.875
E28011606000020612AF20FD,910.25,6.2709136,0.4375
E28011606000020612B0689C,910.25,0.46633017,-0.5625
E28011606000020612B0348C,910.25,4.0374374,0.75
E28011606000020612B0941C,910.25,0.8651652,0.375
E28011606000020612AF20DD,910.25,4.853515,-1.0625
E28011606000020612AF20CD,922.25,1.4787575,-0.1875
E28011606000020612AEE41C,922.25,2.3868742,1.25
E28011606000020612AF520D,922.25,6.1113796,0.5
E28011606000020612B032FC,922.25,0.72403896,2.25
E28011606000020612AF549D,922.25,5.197127,0.625
E28011606000020612AF20FD,922.25,1.3805827,0.8125
E28011606000020612AF90BC,922.25,5.516195,2.875
E28011606000020612B0343C,922.25,0.638136,1.8125
E28011606000020612AF20DD,922.25,0.7853982,0.1875
E28011606000020612AF900D,905.75,0.049087387,0.1875
E28011606000020612AF901D,905.75,2.1598449,0.5625
E28011606000020612B0327C,905.75,4.890331,0.75
E28011606000020612AF20BD,905.75,1.0799224,0.5
E28011606000020612AF520D,905.75,5.3689327,0.125
E28011606000020612AF540D,905.75,0.90811664,0.875
E28011606000020612AF54FD,905.75,1.6076119,0.0625
E28011606000020612AF20DD,905.75,0.8099418,0.0625
E28011606000020612B0942C,918.25,2.233476,0.5
E28011606000020612AF20ED,918.25,0.6872234,-0.125
E28011606000020612AF522D,918.25,4.9210105,1.75
E28011606000020612AF20FD,918.25,5.043729,-0.0625
E28011606000020612B068CC,918.25,5.2339425,-0.75
E28011606000020612AF20CD,918.25,5.013049,-0.0625
E28011606000020612AF20BD,918.25,0.049087387,0.4375
E28011606000020612AF90BC,918.25,0.9756118,1.8125
E28011606000020612AFC2CC,927.25,0.5645049,-1.25
E28011606000020612AF20FD,927.25,0.024543693,0.25
E28011606000020612AEE49C,927.25,6.2647777,-0.5
E28011606000020612AF541D,927.25,4.417865,0.125
E28011606000020612AF20DD,927.25,0.09817477,0.1875
E28011606000020612AF20CD,927.25,5.424156,-0.0625
E28011606000020612AF20ED,927.25,1.2824079,-0.625
E28011606000020612AF520D,927.25,1.9941751,0.375
E28011606000020612AF20BD,912.75,2.963651,0.1875
E28011606000020612AF521C,912.75,4.3258257,1.5
E28011606000020612B0327C,912.75,5.9518456,-0.625
E28011606000020612AF20FD,912.75,5.835263,0.1875
E28011606000020612AF520D,912.75,1.2885438,0.1875
E28011606000020612AEE2FB,912.75,1.5769322,0.1875
E28011606000020612AF54FD,912.75,4.540583,-0.1875
E28011606000020612AEE2EB,912.75,5.160311,-0.125
E28011606000020612AF20FD,912.75,5.6266418,0.4375
E28011606000020612AFC2DC,904.25,0.36201948,-0.8125
E28011606000020612AF54FD,904.25,0.17794177,-0.125
E28011606000020612AFC27C,904.25,0.3742913,-1.5625
E28011606000020612AF20CD,904.25,4.3503695,0.375
E28011606000020612AF900D,904.25,1.8530488,0.1875
E28011606000020612AF54BD,904.25,1.521709,0.1875
E28011606000020612AF20FD,921.25,2.0187187,0.625
E28011606000020612AF902D,921.25,5.3812046,-1.625
E28011606000020612AF907D,921.25,1.5094371,0.25
E28011606000020612AF54DC,921.25,0.5031457,0.5
E28011606000020612AF203C,921.25,0.73017484,0.8125
E28011606000020612AF90CC,921.25,2.2457478,1.3125
E28011606000020612AF20DD,921.25,1.1965051,0.125
E28011606000020612B068FC,921.25,5.773904,-2.875
E28011606000020612AEE45C,921.25,0.0061359233,0.875
E28011606000020612AF20CD,921.25,5.638913,0.0
E28011606000020612AF520D,921.25,5.7064085,0.125
E28011606000020612AFC4EC,921.25,5.0744085,0.375
E28011606000020612AF52FD,921.25,0.59518456,0.1875
E28011606000020612AF520D,917.25,3.344078,0.25
E28011606000020612AEE48C,917.25,2.0862138,0.25
E28011606000020612AF20FD,917.25,5.1296315,0.1875
E28011606000020612B0680C,917.25,6.0070686,0.0
E28011606000020612B034FC,917.25,5.4671073,-0.4375
E28011606000020612AF20ED,917.25,0.75471854,-0.0625
E28011606000020612B034EC,917.25,1.9266798,-0.5625
E28011606000020612AF541D,917.25,5.927302,0.4375
E28011606000020612B0684C,917.25,6.2586417,0.125
E28011606000020612AF543D,907.25,6.0991077,-2.25
E28011606000020612AF54FD,907.25,0.20862138,-0.0625
E28011606000020612AF542D,907.25,0.11658254,0.8125
E28011606000020612AF20FD,907.25,0.11044662,0.5625
E28011606000020612AF20ED,907.25,5.037593,0.0
E28011606000020612AF20BD,907.25,4.853515,-0.0625
E28011606000020612AF900D,907.25,4.7737484,-0.25
E28011606000020612AF20ED,907.25,0.22702916,0.375
E28011606000020612B0942C,921.75,0.88357294,-0.0625
E28011606000020612AF54BC,921.75,1.9021362,2.8125
E28011606000020612AF90BC,921.75,5.595962,0.625
E28011606000020612AF541D,921.75,0.23316509,0.0625
E28011606000020612AF20BD,921.75,0.25157285,0.8125
E28011606000020612AEE44C,921.75,6.24637,0.1875
E28011606000020612AF520D,921.75,5.608234,0.375
E28011606000020612AF543D,921.75,5.473243,0.25
E28011606000020612AF900D,921.75,4.8289714,-0.25
E28011606000020612AFC4EC,921.75,1.4664856,-0.375
E28011606000020612AF20CD,921.75,5.902758,0.5
E28011606000020612AF20ED,917.75,1.0860584,0.1875
E28011606000020612AF520D,917.75,0.11658254,0.1875
E28011606000020612AF520D,917.75,2.6200392,-0.9375
E28011606000020612B0942C,917.75,5.3812046,-0.625
E28011606000020612AF20ED,917.75,3.669282,-0.5625
E28011606000020612AF20CD,917.75,5.2216706,0.25
E28011606000020612AF90CC,917.75,5.3689327,-0.625
E28011606000020612AF20BD,917.75,0.04295146,0.625
E28011606000020612B0683C,917.75,1.0431069,-0.75
E28011606000020612AF205C,917.75,5.816855,-1.1875
E28011606000020612B0689C,916.75,0.12271846,-0.8125
E28011606000020612B0942C,916.75,4.3442335,-0.5625
E28011606000020612AEE2FB,916.75,1.8775924,-0.75
E28011606000020612AF20ED,916.75,5.9641175,0.25
E28011606000020612B068AC,916.75,1.0062914,-0.625
E28011606000020612B0942C,916.75,0.6320001,0.125
E28011606000020612AF20FD,916.75,0.024543693,0.0625
E28011606000020612AF541D,916.75,5.908894,-0.5
E28011606000020612AF20ED,909.25,2.3193789,-0.0625
E28011606000020612AEE4CC,909.25,4.4976315,-0.375
E28011606000020612AF520D,909.25,2.067806,0.625
E28011606000020612AF20DC,909.25,1.030835,-0.75
E28011606000020612AEE4FC,909.25,5.166447,-0.4375
E28011606000020612B0942C,909.25,1.914408,-0.75
E28011606000020612AEE2FB,909.25,4.466952,-0.625
E28011606000020612AF20BD,909.25,3.4790685,0.1875
E28011606000020612B0940C,909.25,5.2400784,-0.8125
E28011606000020612AEE2EB,908.25,0.6074564,-1.25
E28011606000020612B068AC,908.25,2.5341363,-1.3125
E28011606000020612AF90CC,908.25,5.5468745,-0.8125
E28011606000020612AFC2CC,908.25,4.295146,-0.125
E28011606000020612AF20BD,908.25,4.9946413,0.1875
E28011606000020612AF20ED,908.25,5.669593,-0.625
E28011606000020612AF20CD,908.25,0.24543692,0.75
E28011606000020612AF54FD,925.25,0.15339808,-0.125
E28011606000020612AF20DD,925.25,2.5709517,1.0625
E28011606000020612AF52ED,925.25,1.914408,0.1875
E28011606000020612B0687C,925.25,0.6810875,-0.125
E28011606000020612AF529D,925.25,1.4480779,-0.25
E28011606000020612B0686C,925.25,0.52155346,0.0
E28011606000020612AEE2FB,925.25,5.737088,0.0625
E28011606000020612AF900D,925.25,2.3930101,-0.0625
E28011606000020612AF20CD,925.25,1.9450877,0.625
E28011606000020612B068DC,924.25,6.1666026,-0.8125
E28011606000020612AF208C,924.25,1.7119225,0.25
E28011606000020612AF20CD,924.25,5.454836,0.375
E28011606000020612AF205C,924.25,4.135612,0.75
E28011606000020612AF520D,924.25,5.602098,0.1875
E28011606000020612AF20BD,924.25,1.2087768,0.25
E28011606000020612B034BC,924.25,5.454836,0.25
E28011606000020612AF20DD,924.25,0.23316509,0.5625
E28011606000020612B0684C,924.25,5.2584863,-1.125
E28011606000020612AF20BD,913.25,4.5221753,0.25
E28011606000020612AF900D,913.25,0.398835,-0.875
E28011606000020612AF20FD,913.25,5.350525,0.4375
E28011606000020612AF549D,913.25,2.6077673,-0.625
E28011606000020612AF20CD,913.25,6.0070686,0.125
E28011606000020612AEE2EB,913.25,5.332117,-1.3125
E28011606000020612AF520D,913.25,1.1719613,0.0625
E28011606000020612AF20ED,923.75,0.22089323,0.0
E28011606000020612AEE2FB,923.75,5.767768,-0.5
E28011606000020612B0942C,923.75,4.374913,-0.25
E28011606000020612AF20DD,923.75,0.45405832,0.1875
E28011606000020612AF520D,923.75,2.9145634,0.125
E28011606000020612AF20BD,923.75,1.1044662,0.375
E28011606000020612AEE2EB,923.75,5.6941366,-0.0625
E28011606000020612AF529D,903.25,4.626486,0.0625
E28011606000020612AF520C,903.25,4.387185,1.0625
E28011606000020612AF209C,903.25,5.589826,0.25
E28011606000020612AEE2EB,903.25,0.73017484,-1.0625
E28011606000020612B034BC,903.25,5.5346026,0.1875
E28011606000020612AF202C,903.25,5.810719,-3.5625
E28011606000020612AF20CD,903.25,1.2087768,0.1875
E28011606000020612AF20CD,913.75,2.9268353,0.5625
E28011606000020612AF523D,913.75,0.44178647,-1.4375
E28011606000020612B0348C,913.75,1.8591847,-1.0625
E28011606000020612B068CC,913.75,0.44178647,0.8125
E28011606000020612AF905D,913.75,0.49700978,0.0625
E28011606000020612AEE2FB,913.75,0.85902923,-0.75
E28011606000020612AF20BD,913.75,0.3681554,0.5
E28011606000020612AF20FD,913.75,5.430292,0.5625
E28011606000020612AF20EC,913.75,5.976389,0.0625
E28011606000020612B0942C,913.75,2.067806,-0.4375
E28011606000020612AF208C,920.25,5.338253,-2.125
E28011606000020612AF903D,920.25,4.1724277,-0.25
E28011606000020612AEE2FB,920.25,4.95169,-0.1875
E28011606000020612AF20BC,920.25,0.717903,0.5625
E28011606000020612B0942C,920.25,0.35588354,0.0
E28011606000020612AF90BC,920.25,5.3689327,-0.1875
E28011606000020612AF20BD,920.25,1.2210487,0.5
E28011606000020612AF20CD,920.25,6.0132046,0.125
E28011606000020612B0685C,920.25,5.602098,0.0
E28011606000020612AF20EC,920.25,1.2824079,-0.25
E28011606000020612AF206C,908.75,5.356661,0.1875
E28011606000020612AF521C,908.75,4.9026027,-0.25
E28011606000020612AF20CD,908.75,2.1598449,0.375
E28011606000020612B068FC,908.75,1.7671459,-0.875
E28011606000020612AF90BC,908.75,2.4605052,-0.25
E28011606000020612B034DC,908.75,3.9085832,-1.0625
E28011606000020612B0007C,908.75,4.712389,0.125
E28011606000020612AF54FD,908.75,0.8713011,-1.125
E28011606000020612AF528D,908.75,0.77926224,-1.8125
E28011606000020612AF20ED,908.75,5.5591464,0.0625
E28011606000020612AF20CD,922.75,1.0062914,0.75
E28011606000020612B0940C,922.75,6.148195,-0.75
E28011606000020612B0349C,922.75,0.6135923,-1.25
E28011606000020612B068AC,922.75,5.6818647,-1.75
E28011606000020612B034DC,922.75,3.8104084,-1.3125
E28011606000020612AF20ED,922.75,0.36201948,0.0625
E28011606000020612AF20BD,922.75,5.7984476,0.5625
E28011606000020612B0942C,922.75,5.0007772,-0.8125
E28011606000020612AF20FD,922.75,4.104933,0.25
E28011606000020612AF20ED,922.75,5.7064085,0.0
E28011606000020612AF204C,915.75,3.669282,-0.5
E28011606000020612AF520D,915.75,0.94493216,0.625
E28011606000020612AEE2FB,915.75,3.669282,-1.875
E28011606000020612AF207C,915.75,4.313554,-0.5625
E28011606000020612AEE4FC,915.75,6.1911464,-0.0625
E28011606000020612AF20BD,915.75,5.319845,0.5
E28011606000020612AF20CD,915.75,1.2455924,0.0
E28011606000020612AF201C,915.75,4.7614765,-0.5
E28011606000020612B034BC,915.75,1.9021362,-0.5
E28011606000020612AEE4BC,915.75,1.2149128,-0.25
E28011606000020612AF20EC,919.75,2.0064468,-0.125
E28011606000020612AF20DD,919.75,1.3805827,0.125
E28011606000020612AF20BD,919.75,4.7369328,-0.1875
E28011606000020612AEE46C,919.75,5.5284667,-1.0625
E28011606000020612AFC4FC,919.75,1.2455924,-0.875
E28011606000020612AF20CD,919.75,5.111224,0.375
E28011606000020612AF20FD,919.75,4.4301367,-0.1875
E28011606000020612AF520D,919.75,1.5830681,-0.1875
E28011606000020612B034DC,910.75,4.6694374,-1.5625
E28011606000020612B0941C,910.75,5.7861757,-0.875
E28011606000020612B0346C,910.75,1.7426022,-1.5625
E28011606000020612AF522D,910.75,0.6135923,-0.625
E28011606000020612AF521C,910.75,1.7364663,-0.8125
E28011606000020612AF205C,910.75,0.01840777,-0.1875
E28011606000020612AEE4FC,910.75,5.5223308,-0.625
E28011606000020612AF20FD,910.75,4.233787,0.125
E28011606000020612AF20CD,923.25,5.105088,0.25
E28011606000020612AF20DD,923.25,0.5767768,0.1875
E28011606000020612AF202C,923.25,5.197127,-0.5
E28011606000020612AF520D,923.25,5.8720784,0.5
E28011606000020612AF20BD,923.25,0.72403896,0.375
E28011606000020612AEE4DC,923.25,1.116738,0.875
E28011606000020612AF200C,923.25,0.69949526,-0.25
E28011606000020612AF20FD,923.25,2.2580197,0.5625
E28011606000020612AF520D,904.75,6.1666026,0.1875
E28011606000020612AF20FC,904.75,1.3805827,-2.625
E28011606000020612AF20CC,904.75,3.5649714,-2.625
E28011606000020612AF20ED,904.75,5.6941366,0.0625
E28011606000020612AF20BD,904.75,5.6266418,0.1875
E28011606000020612B0941C,904.75,5.8659425,-0.25
E28011606000020612AF20EC,904.75,5.657321,-1.25
E28011606000020612AF521C,904.75,5.8413987,-0.9375
E28011606000020612B0942C,904.75,0.06135923,-1.25
E28011606000020612B068AC,904.75,0.012271847,-0.9375
E28011606000020612AF205C,904.75,4.258331,-0.5
E28011606000020612AF521C,903.75,4.571263,-0.9375
E28011606000020612AF20ED,903.75,6.1911464,0.5
E28011606000020612AF900D,903.75,0.41724277,0.5
E28011606000020612B034BC,903.75,1.116738,-0.375
E28011606000020612AF20FD,903.75,5.6818647,0.125
E28011606000020612AF90BC,903.75,5.436428,-0.8125
E28011606000020612AF520D,903.75,5.497787,0.1875
E28011606000020612AF20DD,903.75,0.59518456,0.1875
E28011606000020612AF203C,924.75,6.1359234,-0.5
E28011606000020612AF90BC,924.75,5.6880007,-1.8125
E28011606000020612AF54FD,924.75,2.000311,-1.25
E28011606000020612AF20CD,924.75,5.896622,0.25
E28011606000020612B068DC,924.75,1.7426022,-1.3125
E28011606000020612AF528D,924.75,6.0991077,-1.1875
E28011606000020612AF522D,924.75,1.601476,-0.75
E28011606000020612AF20FD,924.75,3.8717675,0.0625
E28011606000020612AF20DD,915.25,3.8901753,1.5
E28011606000020612B034BC,915.25,3.828816,-0.75
E28011606000020612AF20CD,915.25,5.4180202,0.5
E28011606000020612AF20BD,915.25,0.79767,0.1875
E28011606000020612B0941C,915.25,1.3314953,-0.875
E28011606000020612AF20FD,916.25,5.3014374,0.125
E28011606000020612AFC48C,916.25,4.3319616,-0.75
E28011606000020612AF20CD,916.25,0.34974763,0.375
E28011606000020612B034BC,916.25,5.638913,-0.5
E28011606000020612AF20BD,916.25,5.319845,0.0625
E28011606000020612B0348C,916.25,4.5160394,-2.9375
E28011606000020612AF520D,916.25,0.19021362,0.0625
E28011606000020612AF20DD,925.75,0.27611655,0.5
E28011606000020612AF20CD,925.75,5.7186804,0.1875
E28011606000020612AF904D,925.75,5.4180202,-1.5
E28011606000020612AF520D,925.75,5.577554,0.5
E28011606000020612AF20EC,925.75,4.5037675,-0.8125
E28011606000020612B068BC,925.75,5.295302,-0.75
E28011606000020612AF20ED,925.75,0.17180584,-0.125
E28011606000020612AEE2EB,918.75,0.43565056,-1.625
E28011606000020612AF20DD,918.75,1.9696313,0.375
E28011606000020612AF20CD,918.75,2.0248547,0.25
E28011606000020612AF20ED,918.75,0.4049709,0.125
E28011606000020612AF20FD,918.75,4.687845,0.1875
E28011606000020612AFC48C,919.25,0.22089323,1.3125
E28011606000020612AF20ED,919.25,0.7363108,0.125
E28011606000020612AF20BD,919.25,1.1474177,-0.0625
E28011606000020612AEE4AC,919.25,1.3069516,0.0625
E28011606000020612AF20FD,919.25,6.1666026,0.1875
E28011606000020612B0007C,919.25,0.09817477,-0.5
E28011606000020612AF52FD,919.25,6.2034183,0.375
E28011606000020612AF20CD,919.25,0.5645049,0.5625
E28011606000020612AF520D,919.25,0.3436117,0.5
E28011606000020612B0348C,919.25,5.8598065,-1.5
E28011606000020612AF20ED,914.75,4.9455543,-0.0625
E28011606000020612AF20BD,914.75,1.7364663,0.375
E28011606000020612AF20FD,914.75,5.276894,0.1875
E28011606000020612AF520D,914.75,0.30679616,-0.5
E28011606000020612AF20BD,905.25,5.6880007,-0.1875
E28011606000020612B0942C,905.25,0.20862138,-1.5625
E28011606000020612AF20CD,905.25,0.8528933,-0.125
E28011606000020612AF522D,905.25,6.234098,0.125
E28011606000020612AF520D,905.25,5.4671073,0.25
E28011606000020612AF20CD,911.25,5.338253,-0.0625
E28011606000020612AF20FD,911.25,0.9633399,0.9375
E28011606000020612AF20EC,911.25,0.85902923,-1.0625
E28011606000020612AF20BD,911.25,2.4543693,0.125
E28011606000020612AF520D,911.25,1.4910294,0.125
E28011606000020612AF20DD,911.25,5.835263,0.125
E28011606000020612B0942C,911.25,1.2578642,-0.5
E28011606000020612AF20FD,920.75,5.5346026,0.5
E28011606000020612AF20CD,920.75,1.5585245,-0.0625
E28011606000020612AF20ED,920.75,0.3436117,0.1875
E28011606000020612B0942C,920.75,0.08590292,-0.4375
E28011606000020612AF20ED,911.75,4.687845,-0.25
E28011606000020612AF20CD,911.75,5.9947968,0.8125
E28011606000020612AEE2FB,911.75,5.203263,-0.875
E28011606000020612AF20ED,911.75,1.2946798,0.375
E28011606000020612AF20BD,911.75,5.11736,0.5625
E28011606000020612AF20BD,926.75,0.47246608,0.1875
E28011606000020612AF520D,926.75,5.608234,0.125
E28011606000020612AF54FD,926.75,0.9510681,-1.25
E28011606000020612AF20CD,926.75,5.5468745,0.0
E28011606000020612AF20ED,926.75,3.8472238,0.0
E28011606000020612AF20BD,906.75,1.3314953,0.125
E28011606000020612AF20DD,906.75,5.503923,-0.1875
E28011606000020612AF520D,906.75,5.332117,-0.5625
E28011606000020612AF20CD,906.75,0.41110685,-0.0625
E28011606000020612AF20ED,906.75,5.3934765,0.0625
E28011606000020612AF20BD,907.75,3.515884,0.75
E28011606000020612AF520D,907.75,5.1357675,0.25
E28011606000020612AF20ED,907.75,2.5464082,0.375
E28011606000020612AF20DD,907.75,0.1840777,0.5
E28011606000020612AF520C,912.25,2.0371265,-0.75
E28011606000020612AF20CD,912.25,5.6880007,0.5625
E28011606000020612AF20BD,912.25,5.835263,0.0
E28011606000020612AF20DC,912.25,5.031457,-1.5625
E28011606000020612AF20ED,912.25,4.718525,0.375
E28011606000020612AF20FD,912.25,6.1972823,0.8125
E28011606000020612AF20CD,912.25,5.657321,0.375
E28011606000020612AF20ED,926.25,6.1052437,0.5625
E28011606000020612AF20BD,926.25,5.190991,0.5625
E28011606000020612AF20CD,926.25,0.8897089,0.5625
E28011606000020612AF20ED,914.25,4.393321,0.125
E28011606000020612AF20ED,914.25,1.5462526,-0.0625
E28011606000020612AF20DD,914.25,5.0744085,0.75
E28011606000020612AF20BD,914.25,1.6137478,0.1875
E28011606000020612AF20CD,914.25,4.565127,0.5625
E28011606000020612AEE2FB,914.25,2.3868742,0.0625
E28011606000020612AF20BD,909.75,5.8475347,0.375
E28011606000020612AF20ED,909.75,5.350525,0.5
E28011606000020612AF20DD,909.75,5.91503,0.25
E28011606000020612B0942C,909.75,6.142059,0.1875
E28011606000020612AF520D,909.75,1.3376312,0.1875
E28011606000020612AF520D,909.75,5.5407386,1.125
E28011606000020612AF20FD,902.75,5.74936,0.125
E28011606000020612AF20BD,902.75,0.16566992,0.125
E28011606000020612AF20CD,902.75,5.3873405,0.1875
E28011606000020612AF20FD,906.25,5.11736,-0.1875
E28011606000020612AF20CD,906.25,6.1972823,0.125
E28011606000020612AF20DD,906.25,0.3436117,0.125
E28011606000020612AF520D,906.25,5.166447,0.0
E28011606000020612AF20BD,906.25,0.14112623,0.1875
E28011606000020612AF20FD,906.25,4.147884,0.1875
E28011606000020612B0942C,906.25,1.5585245,-0.125
E28011606000020612AF20BD,910.25,5.835263,0.125
E28011606000020612AF20DD,910.25,5.7861757,0.625
E28011606000020612AF20ED,910.25,5.295302,0.1875
E28011606000020612AF20ED,922.25,1.030835,-0.1875
E28011606000020612AF20BD,922.25,0.14112623,0.5625
E28011606000020612AEE2FB,905.75,2.2273402,0.8125
E28011606000020612AF520C,905.75,1.4664856,2.6875
E28011606000020612AF20ED,905.75,6.24637,0.375
E28011606000020612AF520D,905.75,5.2216706,-0.1875
E28011606000020612AF20BD,905.75,0.50928164,0.125
E28011606000020612AF522D,905.75,0.9265244,2.6875
E28011606000020612AF20CD,905.75,5.921166,0.5
E28011606000020612AF20DD,905.75,0.2883884,0.25
E28011606000020612AF20BD,918.25,1.0921943,0.5625
E28011606000020612AF20CD,918.25,1.4848934,0.375
E28011606000020612AF20BD,918.25,2.4298255,-0.0625
E28011606000020612AF20FD,918.25,4.4853597,0.4375
E28011606000020612AF20CD,927.25,0.159534,0.5625
E28011606000020612AF20DD,927.25,6.2770495,0.0
E28011606000020612AF20FD,927.25,0.012271847,0.75
E28011606000020612AF208C,927.25,5.970253,1.0625
E28011606000020612AF20CD,927.25,5.485515,0.125
E28011606000020612AF20DD,927.25,6.1359234,0.25
E28011606000020612AF20BD,927.25,6.1604667,0.1875
E28011606000020612AF20BD,912.75,5.761632,-0.25
E28011606000020612AF20DD,912.75,5.595962,0.5625
E28011606000020612AF520D,912.75,4.4792237,0.1875
E28011606000020612AF20CD,912.75,1.4848934,0.1875
E28011606000020612AF20CD,904.25,5.9518456,0.125
E28011606000020612AF20FD,904.25,0.9633399,0.1875
E28011606000020612AF20ED,904.25,6.2647777,0.0
E28011606000020612AF20CD,904.25,0.717903,0.25
E28011606000020612AF20BD,904.25,5.5468745,0.5
E28011606000020612AF520D,921.25,1.9450877,0.1875
E28011606000020612AF20CD,921.25,1.681243,0.125
E28011606000020612AF20BD,921.25,5.7064085,0.625
E28011606000020612AEE2EB,921.25,0.92038846,-0.5625
E28011606000020612AF20CD,921.25,0.44792238,0.9375
E28011606000020612B034BC,917.25,0.8099418,-0.5
E28011606000020612AF20BD,917.25,5.1296315,0.0625
E28011606000020612AF20ED,917.25,0.38042724,0.9375
E28011606000020612AF20DC,917.25,5.8843503,-0.0625
E28011606000020612AF520D,907.25,4.865787,-1.0625
E28011606000020612AF20BD,907.25,4.7982917,0.0625
E28011606000020612AF20CD,907.25,0.6626797,0.125
E28011606000020612AF20DD,921.75,4.307418,0.0
E28011606000020612AF20FD,921.75,4.577399,0.1875
E28011606000020612AF20CD,921.75,0.52155346,0.1875
E28011606000020612AF20ED,921.75,6.1543307,0.125
E28011606000020612AF20BD,921.75,0.61972827,0.1875
E28011606000020612AF522D,921.75,6.1113796,-0.8125
E28011606000020612AF20CD,917.75,1.1780972,0.0625
E28011606000020612B034BC,917.75,5.4671073,-0.25
E28011606000020612AF20DC,917.75,4.8228354,-2.0
E28011606000020612B068AC,917.75,0.6442719,-0.5
E28011606000020612AF20FD,917.75,2.3868742,0.125
E28011606000020612AF20BD,917.75,0.8897089,0.1875
E28011606000020612AF20FD,916.75,5.031457,-0.0625
E28011606000020612AF20CD,916.75,2.0371265,0.375
E28011606000020612AF20ED,916.75,4.1969714,0.25
E28011606000020612AF20DD,916.75,3.7920005,0.125
E28011606000020612AF20FD,909.25,6.24637,0.5
E28011606000020612AF520D,909.25,2.1414373,0.125
E28011606000020612AF20FD,909.25,4.8228354,0.0625
E28011606000020612AF20DD,909.25,5.9518456,0.625
E28011606000020612AF20CD,909.25,2.1905246,0.1875
E28011606000020612AF20DD,908.25,6.1788745,0.375
E28011606000020612AF20FD,908.25,5.043729,0.125
E28011606000020612AF20CD,908.25,5.430292,0.375
E28011606000020612AF520D,908.25,5.0744085,0.125
E28011606000020612AF20BD,908.25,5.767768,0.625
E28011606000020612AF20FD,908.25,0.14112623,-0.0625
E28011606000020612AF20CD,908.25,0.38656315,0.25
E28011606000020612AF20ED,908.25,5.810719,0.1875
E28011606000020612AF20ED,925.25,0.38042724,0.25
E28011606000020612AF20DD,925.25,1.435806,0.375
E28011606000020612AF20CD,925.25,0.8651652,0.125
E28011606000020612AF20BD,924.25,0.79767,0.125
E28011606000020612AEE4AC,924.25,5.6941366,-0.0625
E28011606000020612AF20ED,924.25,1.0246992,-0.25
E28011606000020612AF520D,924.25,5.908894,0.375
E28011606000020612AF20FD,924.25,0.6810875,0.625
E28011606000020612AF20CD,924.25,4.6571655,0.5625
E28011606000020612AF20DD,913.25,2.0309906,0.0625
E28011606000020612AF520D,913.25,4.313554,0.0625
E28011606000020612AF20BD,913.25,0.80380595,0.5625
E28011606000020612B0942C,913.25,4.626486,-0.1875
E28011606000020612AF20BD,923.75,2.1905246,-0.125
E28011606000020612AF20CD,923.75,1.3314953,0.0625
E28011606000020612AF20FD,923.75,1.1351458,-0.4375
E28011606000020612AF20ED,923.75,0.398835,-0.0625
E28011606000020612AF20ED,903.25,4.393321,0.1875
E28011606000020612AF20DD,903.25,3.8533597,0.5625
E28011606000020612AF20CD,903.25,6.1850104,0.125
E28011606000020612AF520D,903.25,5.651185,0.5
E28011606000020612AF20BD,903.25,0.67495155,0.25
E28011606000020612AF20FD,903.25,5.442564,0.5
E28011606000020612AF20DD,913.75,2.0187187,-0.0625
E28011606000020612B0941C,913.75,0.9510681,0.25
E28011606000020612AF20CD,913.75,5.58369,0.0
E28011606000020612AF20ED,913.75,4.9639616,0.5625
E28011606000020612B0942C,913.75,3.8779035,0.25
E28011606000020612AF20FD,913.75,5.479379,0.0
E28011606000020612AF20FD,920.25,4.6817093,0.1875
E28011606000020612B0942C,920.25,1.1535536,0.4375
E28011606000020612AF20CD,920.25,1.3437672,0.375
E28011606000020612AF520D,920.25,0.159534,0.0625
E28011606000020612AF20CD,920.25,0.049087387,0.5625
E28011606000020612AF20DD,908.75,2.8163888,0.375
E28011606000020612AF20CD,908.75,5.28303,0.125
E28011606000020612AF520D,908.75,5.0560007,0.1875
E28011606000020612AF20BD,908.75,2.638447,0.125
E28011606000020612AF20FD,908.75,0.877437,0.25
E28011606000020612AF20ED,908.75,6.227962,0.0625
E28011606000020612AF20CD,922.75,1.2824079,0.125
E28011606000020612AF20BD,922.75,5.3689327,0.1875
E28011606000020612AF20FD,922.75,4.6755733,0.125
E28011606000020612B0942C,922.75,6.0807,0.875
E28011606000020612AF20CD,915.75,5.013049,0.375
E28011606000020612AF20ED,915.75,4.95169,0.25
E28011606000020612AF20CD,915.75,1.0246992,0.25
E28011606000020612AF520D,919.75,0.2638447,0.5
E28011606000020612AF20DD,919.75,1.2517283,0.1875
E28011606000020612AF20CD,919.75,0.23316509,0.0
E28011606000020612B0942C,910.75,4.3442335,-0.0625
E28011606000020612AF520D,910.75,0.877437,0.1875
E28011606000020612AF20ED,910.75,5.2339425,0.5
E28011606000020612B034BC,923.25,0.94493216,0.1875
E28011606000020612AF520D,923.25,5.7923117,0.5
E28011606000020612AF20ED,923.25,0.92038846,0.25
E28011606000020612AF20FD,923.25,1.2026409,0.1875
E28011606000020612AF20CD,923.25,5.743224,0.125
E28011606000020612AF20FD,904.75,5.2339425,0.0625
E28011606000020612AF20CD,904.75,2.5157285,0.25
E28011606000020612AF20DD,904.75,0.4049709,0.5
E28011606000020612AF20BD,904.75,0.24543692,0.625
E28011606000020612AF20CD,904.75,0.7731263,0.1875
E28011606000020612AF20ED,904.75,0.27611655,0.0
E28011606000020612AF20ED,903.75,0.41724277,0.0625
E28011606000020612AF20CD,903.75,0.957204,0.25
E28011606000020612AF20BD,903.75,5.58369,0.0625
E28011606000020612AF20FD,903.75,0.9756118,0.25
E28011606000020612AF20DD,903.75,4.000622,0.25
E28011606000020612AF20CD,924.75,1.0246992,0.125
E28011606000020612AF20ED,924.75,0.94493216,0.0625
E28011606000020612AF20FD,924.75,0.79767,0.4375
E28011606000020612AF520D,924.75,2.4052818,0.0625
E28011606000020612AF20DD,924.75,0.3742913,0.375
E28011606000020612AF20CD,924.75,2.2089324,0.25
E28011606000020612AF20BD,915.25,5.5223308,0.125
E28011606000020612AF20FD,915.25,2.3746023,0.125
E28011606000020612AF520D,915.25,3.8472238,0.5
E28011606000020612B0683C,915.25,5.835263,0.0
E28011606000020612AF20FD,915.25,5.1296315,0.0625
E28011606000020612AF20CD,915.25,5.160311,0.5625
E28011606000020612B0942C,915.25,5.9641175,-0.125
E28011606000020612AF20FD,916.25,4.9885054,0.25
E28011606000020612B0942C,916.25,5.7861757,-0.25
E28011606000020612AF20CD,916.25,1.8285052,0.5
E28011606000020612AF20BD,916.25,0.15339808,0.1875
E28011606000020612AF20FD,925.75,0.6933593,0.125
E28011606000020612AF20DD,925.75,0.30066022,0.125
E28011606000020612AF520D,925.75,2.2212043,0.0625
E28011606000020612AF20CD,925.75,5.276894,0.375
E28011606000020612AF20ED,925.75,0.5031457,0.125
E28011606000020612AF20BD,925.75,0.5031457,0.125
E28011606000020612AF20DD,918.75,1.4603497,0.25
E28011606000020612AF20CD,918.75,0.45405832,0.125
E28011606000020612AF20FD,918.75,1.7241944,0.0625
E28011606000020612AF20CD,918.75,1.4787575,0.25
E28011606000020612AF20ED,918.75,1.2640002,0.375
E28011606000020612AF20BD,918.75,2.8286605,0.125
E28011606000020612AF20CD,919.25,1.4542137,0.375
E28011606000020612AF20ED,919.25,1.1412817,0.25
E28011606000020612AF20DD,919.25,1.362175,0.125
E28011606000020612AEE2FB,914.75,1.2087768,0.75
E28011606000020612AF20ED,914.75,5.7248163,0.0
E28011606000020612AF20CD,914.75,4.374913,0.25
E28011606000020612AF20DD,914.75,1.7978255,0.25
E28011606000020612AF520D,914.75,3.9638064,0.5625
E28011606000020612AF20FD,914.75,5.669593,0.1875
E28011606000020612AF20BD,905.25,0.14112623,0.25
E28011606000020612AF20BD,905.25,5.2462144,0.25
E28011606000020612AF20CD,905.25,0.7363108,0.5625
E28011606000020612AF20FD,905.25,0.7669904,0.1875
E28011606000020612AF20BD,911.25,4.2092433,0.1875
E28011606000020612AEE2FB,911.25,0.0061359233,-0.1875
E28011606000020612B0343C,911.25,5.743224,-1.0625
E28011606000020612B0942C,911.25,4.3319616,-0.125
E28011606000020612AF520D,920.75,0.09817477,0.0
E28011606000020612AF20DD,920.75,1.0615147,0.1875
E28011606000020612AF20CD,920.75,6.1543307,0.0625
E28011606000020612B034BC,920.75,5.111224,0.0
E28011606000020612AF20ED,920.75,4.301282,0.5625
E28011606000020612AF20FD,920.75,1.6566993,0.5
E28011606000020612AF20CD,911.75,5.804583,0.1875
E28011606000020612AF520D,911.75,0.38042724,0.0625
E28011606000020612AF20BD,911.75,0.9878836,0.75
E28011606000020612AF20FD,911.75,5.669593,0.0625
E28011606000020612AF20FD,926.75,0.8222137,0.125
E28011606000020612B034DC,926.75,0.27611655,-3.1875
E28011606000020612AF20ED,926.75,0.22089323,0.125
E28011606000020612AF520D,906.75,5.356661,0.5625
E28011606000020612AF20ED,906.75,3.7613208,0.1875
E28011606000020612AF20DD,906.75,0.0,0.625
E28011606000020612AF20CD,906.75,5.497787,0.0
E28011606000020612B068CC,906.75,5.74936,-1.625
E28011606000020612AF20FD,906.75,0.46019423,0.125
E28011606000020612AF20FD,907.75,0.19634955,0.625
E28011606000020612AF20CD,907.75,0.17180584,0.1875
E28011606000020612AF20BD,907.75,4.859651,0.25
E28011606000020612AF20CD,912.25,4.730797,0.0625
E28011606000020612AF20BD,912.25,5.5591464,0.25
E28011606000020612AF520D,912.25,4.417865,0.5
E28011606000020612AF20FD,912.25,6.1788745,0.1875
E28011606000020612AEE2EB,912.25,1.3253593,0.1875
E28011606000020612AF20DD,912.25,5.356661,0.375
E28011606000020612B0349C,912.25,2.0309906,-0.1875
E28011606000020612AF520D,926.25,2.1230295,0.0625
E28011606000020612AF20ED,926.25,0.35588354,0.0625
E28011606000020612AF20FD,926.25,0.60132045,0.5
E28011606000020612AF20ED,926.25,0.04295146,0.1875
E28011606000020612AF20CD,926.25,0.80380595,0.125
E28011606000020612AF20DD,926.25,4.4792237,0.0
E28011606000020612AF20FD,914.25,5.2584863,0.25
E28011606000020612AF20CD,914.25,5.350525,0.25
E28011606000020612AF20CD,914.25,1.2885438,0.1875
E28011606000020612AF520D,914.25,4.0374374,0.625
E28011606000020612AF20FD,909.75,3.7981365,0.5625
E28011606000020612AF20BD,909.75,2.5402722,0.0625
E28011606000020612AF20CD,909.75,5.019185,0.125
E28011606000020612AF20DD,909.75,2.6998062,0.375
E28011606000020612AF520D,909.75,4.8351073,0.125
E28011606000020612B0349C,909.75,3.9147189,-0.125
E28011606000020612AF20CD,902.75,6.142059,0.1875
E28011606000020612AF520D,902.75,6.062292,0.125
E28011606000020612AF20DD,902.75,3.9024472,0.1875
E28011606000020612AEE2EB,902.75,0.17794177,3.25
E28011606000020612AF20CD,902.75,4.301282,0.0625
E28011606000020612AF20FD,902.75,1.0615147,0.25
E28011606000020612AF20BD,902.75,5.822991,0.1875
E28011606000020612AF20CD,906.25,0.558369,0.5625
E28011606000020612AF20ED,906.25,6.209554,0.1875
E28011606000020612AF20BD,906.25,5.0744085,0.25
E28011606000020612AF20FD,906.25,4.853515,0.4375
E28011606000020612AF20DD,906.25,0.10431069,0.1875
E28011606000020612B0349C,910.25,0.38656315,0.125
E28011606000020612AEE2EB,910.25,2.5034566,0.25
E28011606000020612AEE2FB,910.25,3.503612,-0.25
E28011606000020612AF20BD,910.25,5.589826,0.375
E28011606000020612AF20DD,910.25,5.737088,0.25
E28011606000020612AF20CD,910.25,4.9885054,0.0
E28011606000020612AF20FD,910.25,0.5522331,0.5
E28011606000020612AF20CD,922.25,1.3314953,0.125
E28011606000020612AF20ED,922.25,3.7920005,0.5
E28011606000020612AF20BD,922.25,2.313243,-0.0625
E28011606000020612AF20FD,922.25,4.7553406,0.25
E28011606000020612AF20FD,905.75,0.6810875,0.5625
E28011606000020612AF20BD,905.75,5.172583,0.25
E28011606000020612B034BC,905.75,4.4792237,0.1875
E28011606000020612AF20ED,905.75,0.81607777,0.375
E28011606000020612AF20DD,905.75,3.3318062,0.25
E28011606000020612AF20CD,905.75,5.663457,0.125
E28011606000020612AF20DD,918.25,1.4480779,0.625
E28011606000020612AF20FD,918.25,1.748738,0.125
E28011606000020612AF520D,918.25,0.43565056,0.5625
E28011606000020612B034BC,918.25,6.148195,-0.0625
E28011606000020612AF20CD,927.25,0.67495155,0.0625
E28011606000020612AF20FD,927.25,3.8779035,0.1875
E28011606000020612AF20BD,927.25,1.521709,0.25
E28011606000020612AF20DD,927.25,0.88357294,0.1875
E28011606000020612AF20ED,927.25,6.0991077,0.5625
E28011606000020612AF20BD,912.75,0.8099418,0.5625
E28011606000020612AF520D,912.75,4.3503695,0.125
E28011606000020612AF20ED,912.75,6.0807,0.0625
E28011606000020612AEE2EB,912.75,0.83448553,0.1875
E28011606000020612B0343C,912.75,0.9878836,0.5625
E28011606000020612AF20CD,912.75,1.441942,0.1875
E28011606000020612AEE2FB,912.75,5.8598065,0.25
E28011606000020612B034BC,912.75,4.8228354,-0.0625
E28011606000020612B034BC,904.25,5.006913,0.125
E28011606000020612AF20CD,904.25,5.8413987,0.75
E28011606000020612B0942C,904.25,0.88357294,0.875
E28011606000020612AF20FD,904.25,0.93266034,0.125
E28011606000020612AF20CD,921.25,1.3499031,0.0625
E28011606000020612AF20BD,921.25,5.58369,0.0
E28011606000020612AF20ED,921.25,0.75471854,0.5625
E28011606000020612B0942C,921.25,0.3926991,0.125
E28011606000020612AF20FD,921.25,4.7982917,0.1875
E28011606000020612AF20CD,917.25,1.6935148,0.0625
E28011606000020612AEE2EB,917.25,4.7798843,2.0
E28011606000020612AF20DD,917.25,1.4971652,0.625
E28011606000020612AF20ED,917.25,1.8162333,0.0
E28011606000020612B034BC,917.25,0.11044662,-0.125
E28011606000020612AF520D,917.25,0.50928164,0.1875
E28011606000020612AF20BD,917.25,2.0862138,0.25
E28011606000020612B0683C,917.25,1.1719613,0.1875
E28011606000020612AF20BD,907.25,6.148195,0.1875
E28011606000020612B0942C,907.25,5.602098,1.4375
E28011606000020612AF20DD,907.25,6.1788745,0.25
E28011606000020612AF20BD,907.25,4.9394183,0.0625
E28011606000020612AF20FD,907.25,0.33747578,0.1875
E28011606000020612AF20BD,921.75,5.510059,0.125
E28011606000020612AF520D,921.75,0.030679615,0.0
E28011606000020612AF20BD,917.75,5.1296315,0.125
E28011606000020612B034BC,917.75,0.024543693,0.0625
E28011606000020612AF20FD,917.75,1.8039614,0.5
E28011606000020612B0683C,917.75,0.79153407,1.25
E28011606000020612AF520D,917.75,0.48473793,0.375
E28011606000020612AF20ED,917.75,1.6505634,0.125
E28011606000020612AF20CD,917.75,0.6626797,0.25
E28011606000020612AF20DD,917.75,1.521709,0.0625
E28011606000020612AEE2FB,916.75,6.240234,-0.25
E28011606000020612B068AC,916.75,0.24543692,0.1875
E28011606000020612AF20CD,916.75,0.8713011,0.0625
E28011606000020612AF20BD,909.25,4.6203504,0.0625
E28011606000020612AF20ED,909.25,5.4671073,0.75
E28011606000020612AF20FD,909.25,6.2034183,0.1875
E28011606000020612AF20CD,909.25,6.086836,0.1875
E28011606000020612B0942C,908.25,5.430292,1.3125
E28011606000020612AF20DD,908.25,6.0193405,0.375
E28011606000020612AEE2FB,908.25,4.3687773,-0.125
E28011606000020612AF20BD,908.25,5.9579816,0.0625
E28011606000020612B034BC,908.25,0.2945243,0.25
E28011606000020612AF20CD,908.25,2.1353014,0.1875
E28011606000020612AF520D,908.25,5.0989523,0.125
E28011606000020612AF20FD,908.25,1.1412817,0.1875
E28011606000020612AF20BD,925.25,5.013049,0.5625
E28011606000020612AF20FD,925.25,4.301282,0.0625
E28011606000020612AF20CD,925.25,0.9633399,0.25
E28011606000020612AF20ED,924.25,3.5220199,0.1875
E28011606000020612AF20BD,924.25,5.197127,0.25
E28011606000020612AF20CD,924.25,1.0921943,0.1875
E28011606000020612AEE4DC,924.25,5.338253,1.625
E28011606000020612AF520D,913.25,4.2092433,0.25
E28011606000020612AF20ED,913.25,6.062292,0.0
E28011606000020612AF20FD,913.25,6.0193405,0.1875
E28011606000020612AF20DD,913.25,2.0371265,0.5625
E28011606000020612AF20CD,913.25,4.5283113,0.375
E28011606000020612B034BC,913.25,1.4051265,0.1875
E28011606000020612AF20BD,923.75,5.2523503,0.1875
E28011606000020612AF20FD,923.75,4.577399,0.0
E28011606000020612AF20BD,903.25,5.7064085,0.375
E28011606000020612AF20CD,903.25,1.0676507,0.25
E28011606000020612AF20FD,903.25,5.184855,0.5
E28011606000020612B034BC,903.25,5.5714183,0.0
E28011606000020612AEE2EB,913.75,0.08590292,0.0625
E28011606000020612AF20FD,913.75,2.7673013,0.4375
E28011606000020612AF520D,913.75,4.1110687,0.5625
E28011606000020612B0942C,913.75,2.1659808,0.4375
E28011606000020612AF20DD,913.75,1.9389517,0.5625
E28011606000020612AF20CD,913.75,1.3253593,0.25
E28011606000020612B0942C,913.75,0.2699806,0.125
E28011606000020612AF20BD,920.25,2.5893595,0.5
E28011606000020612AF20FD,920.25,4.8166995,0.4375
E28011606000020612AF20CD,920.25,1.3376312,0.0625
E28011606000020612AF20ED,920.25,4.068117,0.375
E28011606000020612AF20BD,908.75,5.829127,0.25
E28011606000020612AF520D,908.75,5.013049,0.0625
E28011606000020612AEE2EB,908.75,5.8904862,0.125
E28011606000020612AF20CD,908.75,5.178719,0.5
E28011606000020612B034BC,908.75,0.19021362,0.0625
E28011606000020612AF20DD,908.75,2.8163888,0.25
E28011606000020612AF520D,922.75,2.871612,0.1875
E28011606000020612AF20BD,922.75,0.9756118,0.1875
E28011606000020612AF20ED,922.75,1.036971,0.1875
E28011606000020612AF20FD,922.75,1.2087768,0.5
E28011606000020612AF20CD,922.75,1.2578642,0.375
E28011606000020612AF20BD,922.75,5.3873405,0.125
E28011606000020612B0942C,915.75,6.0377483,-0.125
E28011606000020612AF20ED,915.75,4.9885054,0.4375
E28011606000020612AF20FD,915.75,5.013049,0.4375
E28011606000020612AF20CD,915.75,5.0805445,0.25
E28011606000020612AF20FD,919.75,1.7180585,0.1875
E28011606000020612AF202C,919.75,5.190991,1.25
E28011606000020612AF20ED,919.75,1.2333206,0.0625
E28011606000020612AF20DD,919.75,1.2640002,0.0625
E28011606000020612B068BC,919.75,5.203263,-0.625
E28011606000020612B034BC,919.75,5.58369,0.0625
E28011606000020612AF20BD,919.75,1.5830681,0.25
E28011606000020612AF20ED,910.75,5.988661,0.1875
E28011606000020612B0349C,910.75,6.221826,0.25
E28011606000020612AF520D,910.75,4.6387577,0.1875
E28011606000020612AF20DD,910.75,2.5341363,0.0
E28011606000020612AF20CD,910.75,4.890331,0.125
E28011606000020612AF20CD,910.75,5.896622,0.1875
E28011606000020612AF20BD,910.75,4.3319616,0.5
E28011606000020612AF20ED,910.75,5.172583,0.1875
E28011606000020612AF520D,923.25,5.510059,0.125
E28011606000020612AF20FD,923.25,4.6633015,0.0625
E28011606000020612AF20CD,923.25,1.1903691,0.875
E28011606000020612AF20BD,923.25,2.1843886,0.0625
E28011606000020612B0942C,904.75,0.75471854,-0.25
E28011606000020612AF20ED,904.75,0.9878836,0.5
E28011606000020612AF520D,904.75,5.773904,-0.0625
E28011606000020612AF20CD,904.75,5.7984476,0.4375
E28011606000020612AF20DD,904.75,0.38042724,0.375
E28011606000020612AF20ED,903.75,4.3626413,0.1875
E28011606000020612AF20ED,903.75,0.3436117,0.25
E28011606000020612AF20CD,903.75,4.104933,0.25
E28011606000020612B068CC,903.75,0.85902923,-0.625
E28011606000020612AF20BD,903.75,5.620506,0.1875
E28011606000020612AF20BD,924.75,5.0989523,0.5625
E28011606000020612B0942C,924.75,4.878059,1.125
E28011606000020612AF20CD,924.75,1.030835,0.125
E28011606000020612AF520D,915.25,0.6872234,0.5
E28011606000020612AF20ED,915.25,2.4911847,0.125
E28011606000020612AF20FD,915.25,2.4052818,0.1875
E28011606000020612AF20BD,915.25,2.3500586,0.0625
E28011606000020612AF20CD,915.25,1.1719613,0.5
E28011606000020612AF20DD,915.25,1.6873789,0.5
E28011606000020612AEE2EB,915.25,5.497787,0.5
E28011606000020612AF20BD,916.25,5.350525,0.5
E28011606000020612AF20BD,916.25,0.17180584,0.125
E28011606000020612AF20CD,916.25,1.8407769,0.4375
E28011606000020612AF20ED,916.25,4.9210105,0.5
E28011606000020612AF20CD,925.75,0.877437,0.1875
E28011606000020612AF20ED,925.75,0.10431069,0.5
E28011606000020612AF520D,925.75,2.2150683,0.0625
E28011606000020612AF20BD,925.75,0.5154175,0.0625
E28011606000020612AF20DD,925.75,0.2699806,0.375
E28011606000020612AF20ED,918.75,1.3683108,0.1875
E28011606000020612AF20CD,918.75,0.44792238,0.25
E28011606000020612AF20BD,918.75,1.7732818,0.125
E28011606000020612AF520D,918.75,0.4233787,0.1875
E28011606000020612B034BC,918.75,6.0193405,0.25
E28011606000020612AF20FD,919.25,4.871923,0.25
E28011606000020612AF20ED,919.25,4.301282,0.1875
E28011606000020612AF20BD,919.25,2.7059422,0.25
E28011606000020612AF20CD,919.25,1.4235342,0.5625
E28011606000020612B0942C,919.25,1.3192235,0.0625
E28011606000020612B0942C,914.75,2.9759228,0.0625
E28011606000020612AF20BD,914.75,5.5530105,0.0625
E28011606000020612B0942C,914.75,1.7119225,0.5
E28011606000020612B034BC,914.75,0.7363108,0.5
E28011606000020612AF520D,914.75,0.7853982,0.25
E28011606000020612AF20FD,914.75,5.651185,0.75
E28011606000020612AF20DD,914.75,4.9148746,0.5
E28011606000020612AF520D,905.25,5.669593,0.1875
E28011606000020612B0942C,905.25,0.43565056,-0.25
E28011606000020612AF20BD,905.25,0.16566992,0.5
E28011606000020612B034BC,905.25,4.5835347,0.375
E28011606000020612AF20FD,905.25,0.7853982,0.5
E28011606000020612AF20CD,905.25,0.7485826,0.125
E28011606000020612B0942C,911.25,4.7614765,-0.1875
E28011606000020612AF20CD,911.25,5.829127,0.375
E28011606000020612AF20ED,911.25,5.1296315,0.125
E28011606000020612AF20FD,911.25,5.78004,0.1875
E28011606000020612AF20BD,911.25,4.227651,0.5625
E28011606000020612AF20CD,920.75,1.3253593,0.1875
E28011606000020612AF20BD,920.75,1.3928546,0.0625
E28011606000020612AF20DD,920.75,1.0246992,0.375
E28011606000020612AF20CD,920.75,6.1604667,0.125
E28011606000020612B068BC,920.75,4.3503695,0.375
E28011606000020612AF520D,911.75,4.466952,0.5
E28011606000020612B0349C,911.75,2.3071072,-0.0625
E28011606000020612AF20FD,911.75,0.05522331,0.4375
E28011606000020612AEE2FB,911.75,6.1850104,0.25
E28011606000020612AF20ED,926.75,6.1972823,0.375
E28011606000020612AF20BD,926.75,1.601476,0.125
E28011606000020612B034BC,906.75,0.9756118,0.1875
E28011606000020612B0942C,906.75,5.74936,-0.0625
E28011606000020612AF20FD,906.75,4.7492046,0.1875
E28011606000020612AF20DD,906.75,6.2647777,0.5625
E28011606000020612AF20BD,906.75,6.240234,0.125
E28011606000020612AF20ED,906.75,0.5890486,0.25
E28011606000020612AF520D,906.75,2.2518837,0.25
E28011606000020612AEE2EB,907.75,6.142059,-0.375
E28011606000020612AF20ED,907.75,0.33133984,0.25
E28011606000020612AF20DD,907.75,4.147884,-0.125
E28011606000020612AF20ED,907.75,5.908894,0.125
E28011606000020612AF520D,907.75,5.933438,0.1875
E28011606000020612AF20FD,912.25,5.5591464,0.4375
E28011606000020612B0941C,912.25,0.012271847,-0.0625
E28011606000020612AF20BD,912.25,4.0251656,0.25
E28011606000020612AF20ED,912.25,5.11736,-0.0625
E28011606000020612AF20CD,912.25,5.7064085,0.375
E28011606000020612AF20CD,926.25,2.0432625,0.5625
E28011606000020612B034BC,926.25,5.5223308,0.8125
E28011606000020612AF20FD,926.25,0.6074564,0.1875
E28011606000020612B034BC,914.25,0.92038846,0.25
E28011606000020612AF20CD,914.25,5.338253,0.375
E28011606000020612AF20BD,914.25,0.57064086,0.1875
E28011606000020612B0942C,914.25,0.09817477,-0.0625
E28011606000020612AF20DD,909.75,0.08590292,0.25
E28011606000020612AF20BD,909.75,4.534447,0.25
E28011606000020612AF20DD,909.75,2.72435,0.0
E28011606000020612AF520D,909.75,1.675107,0.375
E28011606000020612B0343C,909.75,0.6626797,0.25
E28011606000020612AF20DD,902.75,3.9147189,0.25
E28011606000020612AF520D,902.75,6.062292,0.0625
E28011606000020612AF20BD,902.75,3.8165443,0.25
E28011606000020612AF20ED,902.75,4.534447,0.0625
E28011606000020612B034BC,902.75,5.7125444,0.25
E28011606000020612AEE2FB,902.75,1.7794178,0.0
E28011606000020612AF520D,906.25,0.5276894,0.375
E28011606000020612AF20FD,906.25,0.5645049,0.4375
E28011606000020612AF20DD,906.25,4.466952,-0.125
E28011606000020612AF20BD,906.25,5.0621367,0.125
E28011606000020612AF20CD,906.25,0.54609716,0.8125
E28011606000020612AF20CD,910.25,5.921166,0.25
E28011606000020612AF20BD,910.25,2.478913,0.1875
E28011606000020612AF20CD,910.25,4.9639616,0.125
E28011606000020612AF520D,910.25,4.7430687,0.25
E28011606000020612AEE2FB,910.25,0.030679615,0.0
E28011606000020612B034BC,910.25,6.074564,0.5
E28011606000020612AF20ED,922.25,1.0983303,0.375
E28011606000020612AF20CD,922.25,5.8475347,0.0625
E28011606000020612AF20FD,905.75,0.67495155,0.625
E28011606000020612AF20CD,905.75,0.6688156,0.0625
E28011606000020612AF20ED,905.75,0.04295146,0.0625
E28011606000020612AF20BD,905.75,5.1541753,0.5
E28011606000020612AF520D,918.25,0.42951462,0.0625
E28011606000020612AF20FD,918.25,1.7057866,0.0625
E28011606000020612AF20ED,918.25,1.4480779,0.1875
E28011606000020612AF20DD,918.25,1.4603497,0.125
E28011606000020612AF20BD,918.25,5.031457,0.0625
E28011606000020612AF20CD,918.25,0.6074564,0.125
E28011606000020612AF20FD,927.25,0.50928164,0.5
E28011606000020612AF520D,927.25,1.8837284,0.125
E28011606000020612AF20CD,927.25,1.9512236,0.1875
E28011606000020612AF20DD,927.25,0.17794177,0.75
E28011606000020612AF20BD,927.25,1.5033011,0.5
E28011606000020612AF20DD,927.25,3.9638064,0.5
E28011606000020612AF20CD,912.75,5.645049,0.0
E28011606000020612AF20ED,912.75,5.0805445,0.1875
E28011606000020612AF20FD,912.75,5.479379,0.1875
E28011606000020612AF20BD,912.75,3.9576705,0.375
E28011606000020612AF20CD,904.25,5.8598065,0.0
E28011606000020612AF20FD,904.25,5.0866804,0.125
E28011606000020612AF20DD,904.25,3.6386025,0.25
E28011606000020612B0942C,904.25,0.9878836,0.5
E28011606000020612AF520D,904.25,5.8720784,0.0625
E28011606000020612AF20BD,904.25,3.5342917,0.5
E28011606000020612AF20BD,921.25,5.577554,0.1875
E28011606000020612AF20ED,917.25,4.7676125,0.25
E28011606000020612AF20CD,917.25,4.8412433,0.0625
E28011606000020612AF20FD,917.25,4.9332824,0.125
E28011606000020612B0942C,917.25,2.2273402,-0.0625
E28011606000020612AF20BD,917.25,6.209554,0.0625
E28011606000020612AF20FD,907.25,4.5958066,0.1875
E28011606000020612AEE2EB,907.25,3.3870296,0.1875
E28011606000020612AF20BD,907.25,6.1297874,0.5625
E28011606000020612AF520D,907.25,5.289166,0.25
E28011606000020612AEE2FB,907.25,5.0744085,0.0625
E28011606000020612AF20DD,907.25,6.1972823,0.625
E28011606000020612B034BC,907.25,3.8226802,0.5625
E28011606000020612AEE4DC,921.75,0.82834965,-0.1875
E28011606000020612AF20FD,921.75,4.7982917,0.0625
E28011606000020612B0942C,921.75,0.049087387,0.5625
E28011606000020612AF20ED,921.75,3.8410878,0.5625
E28011606000020612AF20CD,917.75,4.7553406,-0.0625
E28011606000020612B0942C,917.75,1.9757673,0.0625
E28011606000020612AF20BD,917.75,6.092972,0.1875
E28011606000020612AF520D,917.75,0.45405832,0.75
E28011606000020612AEE2FB,917.75,5.589826,0.0
E28011606000020612AEE2FB,916.75,6.240234,-0.0625
E28011606000020612AEE2EB,916.75,5.019185,-0.125
E28011606000020612AF520D,916.75,0.5031457,0.25
E28011606000020612AF20BD,916.75,5.319845,0.625
E28011606000020612AF20FD,916.75,5.160311,0.1875
E28011606000020612B034BC,916.75,0.2945243,0.375
E28011606000020612B0942C,909.25,5.5591464,0.875
E28011606000020612AF520D,909.25,5.031457,0.0625
E28011606000020612AF20BD,909.25,4.6142144,0.125
E28011606000020612AF20CD,909.25,6.0991077,0.625
E28011606000020612AF20DD,909.25,0.38042724,0.0625
E28011606000020612AF20ED,909.25,5.491651,0.375
E28011606000020612AF20FD,909.25,6.1911464,0.1875
E28011606000020612AF20CD,908.25,0.049087387,0.5
E28011606000020612AF20CD,908.25,5.270758,0.375
E28011606000020612AF20FD,908.25,4.264467,0.4375
E28011606000020612B034BC,908.25,0.19021362,0.25
E28011606000020612AF520D,908.25,1.9573594,0.1875
E28011606000020612AF20ED,925.25,0.57064086,0.25
E28011606000020612AF20BD,925.25,0.5829127,0.375
E28011606000020612B034BC,925.25,0.12271846,0.1875
E28011606000020612AF20ED,925.25,0.20862138,0.375
E28011606000020612AF20FD,924.25,1.362175,0.25
E28011606000020612AF20BD,924.25,2.067806,0.0625
E28011606000020612AF20DD,924.25,5.6941366,0.125
E28011606000020612AF20CD,924.25,1.0737865,0.25
E28011606000020612AF20BD,913.25,5.5652823,0.5625
E28011606000020612AF520D,913.25,4.233787,0.5625
E28011606000020612AEE2EB,913.25,0.478602,-0.25
E28011606000020612AF20CD,913.25,1.4173982,0.1875
E28011606000020612B034BC,913.25,1.362175,0.375
E28011606000020612AF20DD,913.25,2.0493984,0.0
E28011606000020612AF20FD,923.75,4.5835347,0.5
E28011606000020612AF20DD,903.25,4.215379,0.25
E28011606000020612AF520D,903.25,5.669593,0.0625
E28011606000020612AF20CD,903.25,1.0553788,0.5
E28011606000020612AF20BD,903.25,5.6941366,0.25
