300833B2DDD9014000000000,865.7,4.374913,1.625
300833B2DDD9014000000000,865.7,0.398835,5.6875
300833B2DDD9014000000000,865.7,1.4480779,4.875
300833B2DDD9014000000000,865.7,1.036971,0.0
300833B2DDD9014000000000,865.7,0.4049709,4.875
300833B2DDD9014000000000,865.7,4.4240007,6.5
300833B2DDD9014000000000,865.7,3.282719,5.6875
300833B2DDD9014000000000,865.7,2.9881945,0.0
300833B2DDD9014000000000,865.7,0.6933593,2.4375
300833B2DDD9014000000000,865.7,0.42951462,1.625
300833B2DDD9014000000000,865.7,3.2336316,1.625
300833B2DDD9014000000000,865.7,5.3812046,5.6875
300833B2DDD9014000000000,865.7,0.7853982,3.25
300833B2DDD9014000000000,865.7,0.69949526,-0.8125
300833B2DDD9014000000000,865.7,4.405593,-6.5
300833B2DDD9014000000000,865.7,1.030835,4.0625
300833B2DDD9014000000000,865.7,1.435806,4.875
300833B2DDD9014000000000,865.7,2.6998062,-12.1875
300833B2DDD9014000000000,865.7,3.9515345,-11.375
300833B2DDD9014000000000,865.7,2.9206994,-8.9375
300833B2DDD9014000000000,865.7,2.6998062,1.625
300833B2DDD9014000000000,865.7,3.8901753,-0.8125
300833B2DDD9014000000000,865.7,3.344078,-11.375
300833B2DDD9014000000000,865.7,2.8409324,9.75
300833B2DDD9014000000000,865.7,2.7611654,-5.6875
300833B2DDD9014000000000,865.7,3.264311,-3.25
300833B2DDD9014000000000,865.7,0.79153407,5.6875
300833B2DDD9014000000000,865.7,4.3687773,1.625
300833B2DDD9014000000000,865.7,0.6810875,8.125
300833B2DDD9014000000000,865.7,3.2459033,0.0
300833B2DDD9014000000000,865.7,4.4301367,4.0625
300833B2DDD9014000000000,865.7,3.2949908,2.4375
300833B2DDD9014000000000,865.7,0.558369,12.1875
300833B2DDD9014000000000,865.7,0.4049709,3.25
300833B2DDD9014000000000,865.7,3.8594956,-1.625
300833B2DDD9014000000000,865.7,3.8779035,-1.625
300833B2DDD9014000000000,865.7,1.0492429,1.625
300833B2DDD9014000000000,865.7,1.4480779,1.625
300833B2DDD9014000000000,865.7,2.9759228,4.875
300833B2DDD9014000000000,865.7,2.6691265,-8.9375
300833B2DDD9014000000000,865.7,0.38042724,4.875
300833B2DDD9014000000000,865.7,5.3812046,10.5625
300833B2DDD9014000000000,865.7,1.6444274,1.625
300833B2DDD9014000000000,865.7,2.8470683,4.0625
300833B2DDD9014000000000,865.7,0.4049709,4.875
300833B2DDD9014000000000,865.7,4.252195,0.8125
300833B2DDD9014000000000,865.7,2.8347964,-0.8125
300833B2DDD9014000000000,865.7,4.411729,4.875
300833B2DDD9014000000000,865.7,2.7427576,0.8125
300833B2DDD9014000000000,865.7,2.5770876,4.0625
300833B2DDD9014000000000,865.7,3.9392626,-2.4375
300833B2DDD9014000000000,865.7,1.356039,5.6875
300833B2DDD9014000000000,865.7,0.3436117,4.875
300833B2DDD9014000000000,865.7,0.5645049,7.3125
300833B2DDD9014000000000,865.7,3.0127382,4.875
300833B2DDD9014000000000,865.7,1.0921943,3.25
300833B2DDD9014000000000,865.7,3.1415927,0.0
300833B2DDD9014000000000,865.7,5.479379,7.3125
300833B2DDD9014000000000,865.7,3.2459033,2.4375
300833B2DDD9014000000000,865.7,0.80380595,2.4375
300833B2DDD9014000000000,865.7,3.8349519,3.25
300833B2DDD9014000000000,865.7,4.411729,4.0625
300833B2DDD9014000000000,865.7,2.7550294,-0.8125
300833B2DDD9014000000000,865.7,2.9206994,-0.8125
300833B2DDD9014000000000,865.7,3.264311,-0.8125
300833B2DDD9014000000000,865.7,4.129476,4.0625
300833B2DDD9014000000000,865.7,3.9392626,-2.4375
300833B2DDD9014000000000,865.7,1.1106021,-0.8125
300833B2DDD9014000000000,865.7,3.1354568,-8.125
300833B2DDD9014000000000,865.7,3.0618258,-2.4375
300833B2DDD9014000000000,865.7,3.9147189,-15.4375
300833B2DDD9014000000000,865.7,0.30679616,0.0
300833B2DDD9014000000000,865.7,2.8470683,-0.8125
300833B2DDD9014000000000,865.7,0.33133984,1.625
300833B2DDD9014000000000,865.7,5.473243,10.5625
300833B2DDD9014000000000,865.7,0.6074564,5.6875
300833B2DDD9014000000000,865.7,1.362175,8.9375
300833B2DDD9014000000000,865.7,1.7732818,8.125
300833B2DDD9014000000000,865.7,0.82834965,0.8125
300833B2DDD9014000000000,865.7,2.5402722,2.4375
300833B2DDD9014000000000,865.7,2.9084275,-3.25
300833B2DDD9014000000000,865.7,3.2520392,1.625
300833B2DDD9014000000000,865.7,0.81607777,4.875
300833B2DDD9014000000000,865.7,0.2699806,2.4375
300833B2DDD9014000000000,865.7,4.399457,4.0625
300833B2DDD9014000000000,865.7,4.141748,0.0
300833B2DDD9014000000000,865.7,1.3437672,7.3125
300833B2DDD9014000000000,865.7,2.7857091,-4.875
300833B2DDD9014000000000,865.7,0.558369,5.6875
300833B2DDD9014000000000,865.7,0.33133984,8.125
300833B2DDD9014000000000,865.7,3.8533597,-8.9375
300833B2DDD9014000000000,865.7,3.043418,0.0
300833B2DDD9014000000000,865.7,5.485515,9.75
300833B2DDD9014000000000,865.7,1.8039614,0.0
300833B2DDD9014000000000,865.7,3.9576705,-3.25
300833B2DDD9014000000000,865.7,2.8225245,5.6875
300833B2DDD9014000000000,865.7,2.552544,-2.4375
300833B2DDD9014000000000,865.7,1.0921943,4.875
300833B2DDD9014000000000,865.7,3.1661363,-8.9375
300833B2DDD9014000000000,865.7,2.7427576,0.8125
300833B2DDD9014000000000,865.7,1.7794178,-5.6875
300833B2DDD9014000000000,865.7,3.031146,0.8125
300833B2DDD9014000000000,865.7,2.5954955,-10.5625
300833B2DDD9014000000000,865.7,2.9391072,-16.25
300833B2DDD9014000000000,865.7,0.82834965,0.8125
300833B2DDD9014000000000,865.7,2.8163888,4.875
300833B2DDD9014000000000,865.7,3.8656316,-10.5625
300833B2DDD9014000000000,865.7,3.9147189,0.0
300833B2DDD9014000000000,865.7,0.34974763,0.8125
300833B2DDD9014000000000,865.7,3.2581751,2.4375
300833B2DDD9014000000000,865.7,0.33747578,8.9375
300833B2DDD9014000000000,865.7,5.516195,0.0
300833B2DDD9014000000000,865.7,0.5767768,-0.8125
300833B2DDD9014000000000,865.7,4.1846995,0.8125
300833B2DDD9014000000000,865.7,1.0860584,2.4375
300833B2DDD9014000000000,865.7,3.1354568,7.3125
300833B2DDD9014000000000,865.7,4.4424086,0.0
300833B2DDD9014000000000,865.7,1.3437672,6.5
300833B2DDD9014000000000,865.7,2.730486,0.8125
300833B2DDD9014000000000,865.7,5.479379,5.6875
300833B2DDD9014000000000,865.7,0.3742913,4.875
300833B2DDD9014000000000,865.7,3.0188742,1.625
300833B2DDD9014000000000,865.7,3.2520392,2.4375
300833B2DDD9014000000000,865.7,2.8225245,3.25
300833B2DDD9014000000000,865.7,3.9147189,-3.25
300833B2DDD9014000000000,865.7,0.35588354,6.5
300833B2DDD9014000000000,865.7,4.4485445,-1.625
300833B2DDD9014000000000,865.7,3.9085832,-8.125
300833B2DDD9014000000000,865.7,0.80380595,7.3125
300833B2DDD9014000000000,865.7,2.5832236,-7.3125
300833B2DDD9014000000000,865.7,4.252195,0.8125
300833B2DDD9014000000000,865.7,1.6076119,5.6875
300833B2DDD9014000000000,865.7,1.0615147,5.6875
300833B2DDD9014000000000,865.7,2.797981,2.4375
300833B2DDD9014000000000,865.7,0.49087384,0.0
300833B2DDD9014000000000,865.7,3.2213597,0.0
300833B2DDD9014000000000,865.7,1.4112623,-4.875
300833B2DDD9014000000000,865.7,3.742913,7.3125
300833B2DDD9014000000000,865.7,3.276583,3.25
300833B2DDD9014000000000,865.7,5.3689327,7.3125
300833B2DDD9014000000000,865.7,0.52155346,8.125
300833B2DDD9014000000000,865.7,1.3989905,2.4375
300833B2DDD9014000000000,865.7,0.46633017,4.875
300833B2DDD9014000000000,865.7,0.8099418,1.625
300833B2DDD9014000000000,865.7,1.0860584,-3.25
300833B2DDD9014000000000,865.7,2.718214,-2.4375
300833B2DDD9014000000000,865.7,2.8286605,0.8125
300833B2DDD9014000000000,865.7,2.5954955,-4.875
300833B2DDD9014000000000,865.7,4.466952,2.4375
300833B2DDD9014000000000,865.7,2.9820588,-3.25
300833B2DDD9014000000000,865.7,2.7366216,-2.4375
300833B2DDD9014000000000,865.7,3.350214,-2.4375
300833B2DDD9014000000000,865.7,4.6019425,-5.6875
300833B2DDD9014000000000,865.7,1.4235342,-7.3125
300833B2DDD9014000000000,865.7,4.0313015,-18.6875
300833B2DDD9014000000000,865.7,0.46633017,3.25
300833B2DDD9014000000000,865.7,3.9760783,0.0
300833B2DDD9014000000000,865.7,3.344078,4.875
300833B2DDD9014000000000,865.7,2.9391072,1.625
300833B2DDD9014000000000,865.7,4.466952,1.625
300833B2DDD9014000000000,865.7,1.0001554,9.75
300833B2DDD9014000000000,865.7,2.718214,-1.625
300833B2DDD9014000000000,865.7,3.282719,5.6875
300833B2DDD9014000000000,865.7,5.3137093,14.625
300833B2DDD9014000000000,865.7,2.9759228,-7.3125
300833B2DDD9014000000000,865.7,3.7613208,1.625
300833B2DDD9014000000000,865.7,0.49087384,7.3125
300833B2DDD9014000000000,865.7,0.99401957,1.625
300833B2DDD9014000000000,865.7,2.8286605,4.875
300833B2DDD9014000000000,865.7,4.558991,-2.4375
300833B2DDD9014000000000,865.7,1.435806,-4.0625
300833B2DDD9014000000000,865.7,0.558369,5.6875
300833B2DDD9014000000000,865.7,0.81607777,3.25
300833B2DDD9014000000000,865.7,2.632311,-9.75
300833B2DDD9014000000000,865.7,0.8099418,6.5
300833B2DDD9014000000000,865.7,4.552855,-8.9375
300833B2DDD9014000000000,865.7,2.7059422,-1.625
300833B2DDD9014000000000,865.7,4.4424086,4.875
300833B2DDD9014000000000,865.7,4.0374374,-15.4375
300833B2DDD9014000000000,865.7,2.8470683,1.625
300833B2DDD9014000000000,865.7,2.951379,1.625
300833B2DDD9014000000000,865.7,2.5893595,-2.4375
300833B2DDD9014000000000,865.7,0.49700978,0.8125
300833B2DDD9014000000000,865.7,3.3686218,2.4375
300833B2DDD9014000000000,865.7,3.3072627,0.8125
300833B2DDD9014000000000,865.7,0.47246608,5.6875
300833B2DDD9014000000000,865.7,3.7613208,5.6875
300833B2DDD9014000000000,865.7,0.5154175,10.5625
300833B2DDD9014000000000,865.7,1.356039,8.125
300833B2DDD9014000000000,865.7,3.0679617,-3.25
300833B2DDD9014000000000,865.7,5.319845,10.5625
300833B2DDD9014000000000,865.7,0.83448553,8.125
300833B2DDD9014000000000,865.7,1.0431069,4.875
300833B2DDD9014000000000,865.7,2.72435,-1.625
300833B2DDD9014000000000,865.7,1.4235342,-0.8125
300833B2DDD9014000000000,865.7,1.030835,8.9375
300833B2DDD9014000000000,865.7,4.4424086,4.875
300833B2DDD9014000000000,865.7,0.8651652,0.0
300833B2DDD9014000000000,865.7,3.350214,4.875
300833B2DDD9014000000000,865.7,0.478602,4.875
300833B2DDD9014000000000,865.7,0.8099418,6.5
300833B2DDD9014000000000,865.7,0.6320001,-5.6875
300833B2DDD9014000000000,865.7,3.7797287,2.4375
300833B2DDD9014000000000,865.7,3.3195345,0.8125
300833B2DDD9014000000000,865.7,2.9943304,-4.875
300833B2DDD9014000000000,865.7,2.5954955,-2.4375
300833B2DDD9014000000000,865.7,2.8225245,4.0625
300833B2DDD9014000000000,865.7,0.48473793,1.625
300833B2DDD9014000000000,865.7,4.4485445,1.625
300833B2DDD9014000000000,865.7,4.0128937,-10.5625
300833B2DDD9014000000000,865.7,3.104777,-2.4375
300833B2DDD9014000000000,865.7,5.344389,6.5
300833B2DDD9014000000000,865.7,0.54609716,13.8125
300833B2DDD9014000000000,865.7,0.8467574,0.0
300833B2DDD9014000000000,865.7,4.4914956,-5.6875
300833B2DDD9014000000000,865.7,4.4792237,-0.8125
300833B2DDD9014000000000,865.7,3.7920005,1.625
300833B2DDD9014000000000,865.7,0.46633017,2.4375
300833B2DDD9014000000000,865.7,2.9759228,-0.8125
300833B2DDD9014000000000,865.7,3.9822142,-11.375
300833B2DDD9014000000000,865.7,0.83448553,0.8125
300833B2DDD9014000000000,865.7,2.6936703,1.625
300833B2DDD9014000000000,865.7,3.3011267,1.625
300833B2DDD9014000000000,865.7,3.3195345,1.625
300833B2DDD9014000000000,865.7,0.47246608,4.875
300833B2DDD9014000000000,865.7,1.0492429,2.4375
300833B2DDD9014000000000,865.7,3.196816,-7.3125
300833B2DDD9014000000000,865.7,5.325981,9.75
300833B2DDD9014000000000,865.7,2.5341363,6.5
300833B2DDD9014000000000,865.7,1.4051265,8.9375
300833B2DDD9014000000000,865.7,2.8654761,-2.4375
300833B2DDD9014000000000,865.7,0.46019423,1.625
300833B2DDD9014000000000,865.7,2.9881945,0.0
300833B2DDD9014000000000,865.7,2.6200392,-8.125
300833B2DDD9014000000000,865.7,3.1415927,4.875
300833B2DDD9014000000000,865.7,3.8226802,1.625
300833B2DDD9014000000000,865.7,4.411729,-1.625
300833B2DDD9014000000000,865.7,0.8099418,0.8125
300833B2DDD9014000000000,865.7,5.362797,1.625
300833B2DDD9014000000000,865.7,0.47246608,5.6875
300833B2DDD9014000000000,865.7,3.3011267,0.0
300833B2DDD9014000000000,865.7,3.2888548,3.25
300833B2DDD9014000000000,865.7,0.73017484,-4.875
300833B2DDD9014000000000,865.7,2.730486,-2.4375
300833B2DDD9014000000000,865.7,4.4546804,0.0
300833B2DDD9014000000000,865.7,3.9822142,-8.9375
300833B2DDD9014000000000,865.7,0.5890486,4.0625
300833B2DDD9014000000000,865.7,1.3989905,5.6875
300833B2DDD9014000000000,865.7,2.8470683,0.0
300833B2DDD9014000000000,865.7,1.030835,4.875
300833B2DDD9014000000000,865.7,0.65040785,-0.8125
300833B2DDD9014000000000,865.7,2.9881945,0.0
300833B2DDD9014000000000,865.7,3.9024472,-4.875
300833B2DDD9014000000000,865.7,4.000622,-19.5
300833B2DDD9014000000000,865.7,0.79153407,1.625
300833B2DDD9014000000000,865.7,3.282719,1.625
300833B2DDD9014000000000,865.7,4.3687773,0.0
300833B2DDD9014000000000,865.7,1.0001554,8.125
300833B2DDD9014000000000,865.7,5.3934765,5.6875
300833B2DDD9014000000000,865.7,2.730486,-3.25
300833B2DDD9014000000000,865.7,4.4424086,1.625
300833B2DDD9014000000000,865.7,2.8409324,0.8125
300833B2DDD9014000000000,865.7,0.41110685,1.625
300833B2DDD9014000000000,865.7,0.41724277,3.25
300833B2DDD9014000000000,865.7,3.2152238,-5.6875
300833B2DDD9014000000000,865.7,2.6752625,-6.5
300833B2DDD9014000000000,865.7,1.0246992,2.4375
300833B2DDD9014000000000,865.7,1.435806,4.875
300833B2DDD9014000000000,865.7,2.9206994,-8.125
300833B2DDD9014000000000,865.7,3.1354568,-2.4375
300833B2DDD9014000000000,865.7,0.41724277,4.0625
300833B2DDD9014000000000,865.7,2.804117,5.6875
300833B2DDD9014000000000,865.7,4.4362726,0.8125
300833B2DDD9014000000000,865.7,3.9760783,1.625
300833B2DDD9014000000000,865.7,2.6998062,-7.3125
300833B2DDD9014000000000,865.7,2.7427576,-1.625
300833B2DDD9014000000000,865.7,3.0004663,-0.8125
300833B2DDD9014000000000,865.7,5.424156,8.9375
300833B2DDD9014000000000,865.7,1.0553788,3.25
300833B2DDD9014000000000,865.7,0.7853982,1.625
300833B2DDD9014000000000,865.7,3.2213597,4.875
300833B2DDD9014000000000,865.7,1.4296701,4.0625
300833B2DDD9014000000000,865.7,0.36201948,3.25
300833B2DDD9014000000000,865.7,2.6568546,-4.875
300833B2DDD9014000000000,865.7,0.7117671,5.6875
300833B2DDD9014000000000,865.7,4.252195,1.625
300833B2DDD9014000000000,865.7,3.7674568,-9.75
300833B2DDD9014000000000,865.7,1.8285052,2.4375
300833B2DDD9014000000000,865.7,1.834641,7.3125
300833B2DDD9014000000000,865.7,4.405593,3.25
300833B2DDD9014000000000,865.7,2.7366216,0.0
300833B2DDD9014000000000,865.7,0.80380595,0.0
300833B2DDD9014000000000,865.7,3.2336316,0.8125
300833B2DDD9014000000000,865.7,2.6261752,-3.25
300833B2DDD9014000000000,865.7,3.02501,-0.8125
300833B2DDD9014000000000,865.7,1.0431069,4.875
300833B2DDD9014000000000,865.7,1.435806,7.3125
300833B2DDD9014000000000,865.7,2.638447,0.8125
300833B2DDD9014000000000,865.7,0.34974763,2.4375
300833B2DDD9014000000000,865.7,0.3742913,5.6875
300833B2DDD9014000000000,865.7,4.0374374,-2.4375
300833B2DDD9014000000000,865.7,5.4487,9.75
300833B2DDD9014000000000,865.7,3.0618258,-7.3125
300833B2DDD9014000000000,865.7,3.663146,9.75
300833B2DDD9014000000000,865.7,4.239923,-1.625
300833B2DDD9014000000000,865.7,2.8470683,0.0
300833B2DDD9014000000000,865.7,0.69949526,6.5
300833B2DDD9014000000000,865.7,1.435806,4.875
300833B2DDD9014000000000,865.7,3.031146,-8.125
300833B2DDD9014000000000,865.7,4.0313015,-0.8125
300833B2DDD9014000000000,865.7,4.4362726,0.8125
300833B2DDD9014000000000,865.7,3.2336316,-0.8125
300833B2DDD9014000000000,865.7,3.6999617,0.0
300833B2DDD9014000000000,865.7,3.0495539,-5.6875
300833B2DDD9014000000000,865.7,5.485515,5.6875
300833B2DDD9014000000000,865.7,1.9082721,12.1875
300833B2DDD9014000000000,865.7,0.3926991,4.0625
300833B2DDD9014000000000,865.7,1.0553788,3.25
300833B2DDD9014000000000,865.7,2.7795732,-5.6875
300833B2DDD9014000000000,865.7,0.62586415,13.8125
300833B2DDD9014000000000,865.7,2.8347964,6.5
300833B2DDD9014000000000,865.7,0.35588354,1.625
300833B2DDD9014000000000,865.7,0.79153407,2.4375
300833B2DDD9014000000000,865.7,2.6568546,-1.625
300833B2DDD9014000000000,865.7,4.1908355,0.0
300833B2DDD9014000000000,865.7,2.638447,-2.4375
300833B2DDD9014000000000,865.7,5.454836,9.75
300833B2DDD9014000000000,865.7,3.2213597,1.625
300833B2DDD9014000000000,865.7,4.0558453,-2.4375
300833B2DDD9014000000000,865.7,0.7731263,4.875
300833B2DDD9014000000000,865.7,4.4240007,0.8125
300833B2DDD9014000000000,865.7,3.031146,-6.5
300833B2DDD9014000000000,865.7,4.1846995,2.4375
300833B2DDD9014000000000,865.7,2.0064468,9.75
300833B2DDD9014000000000,865.7,0.33133984,5.6875
300833B2DDD9014000000000,865.7,2.883884,-4.875
300833B2DDD9014000000000,865.7,0.3681554,6.5
300833B2DDD9014000000000,865.7,2.6261752,1.625
300833B2DDD9014000000000,865.7,3.742913,-9.75
300833B2DDD9014000000000,865.7,2.7366216,0.0
300833B2DDD9014000000000,865.7,3.0188742,1.625
300833B2DDD9014000000000,865.7,0.7669904,1.625
300833B2DDD9014000000000,865.7,1.4787575,-4.0625
300833B2DDD9014000000000,865.7,2.6813984,-9.75
300833B2DDD9014000000000,865.7,1.0553788,7.3125
300833B2DDD9014000000000,865.7,1.9573594,19.5
300833B2DDD9014000000000,865.7,0.33747578,1.625
300833B2DDD9014000000000,865.7,3.043418,-3.25
300833B2DDD9014000000000,865.7,3.7183695,-9.75
300833B2DDD9014000000000,865.7,0.6135923,21.125
300833B2DDD9014000000000,865.7,1.441942,4.875
300833B2DDD9014000000000,865.7,4.233787,-8.125
300833B2DDD9014000000000,865.7,0.7853982,2.4375
300833B2DDD9014000000000,865.7,4.4240007,0.8125
300833B2DDD9014000000000,865.7,3.2274957,0.0
300833B2DDD9014000000000,865.7,0.38656315,1.625
300833B2DDD9014000000000,865.7,2.8532043,0.8125
300833B2DDD9014000000000,865.7,2.7427576,-1.625
300833B2DDD9014000000000,865.7,4.068117,-3.25
300833B2DDD9014000000000,865.7,1.0737865,1.625
300833B2DDD9014000000000,865.7,2.9391072,8.9375
300833B2DDD9014000000000,865.7,5.473243,8.125
300833B2DDD9014000000000,865.7,2.632311,-2.4375
300833B2DDD9014000000000,865.7,2.6691265,0.0
300833B2DDD9014000000000,865.7,3.2090878,1.625
300833B2DDD9014000000000,865.7,3.755185,-8.125
300833B2DDD9014000000000,865.7,1.4480779,1.625
300833B2DDD9014000000000,865.7,2.644583,-7.3125
300833B2DDD9014000000000,865.7,4.4301367,0.0
300833B2DDD9014000000000,865.7,3.0188742,0.8125
300833B2DDD9014000000000,865.7,2.871612,-2.4375
300833B2DDD9014000000000,865.7,4.1662917,1.625
300833B2DDD9014000000000,865.7,0.7608545,3.25
300833B2DDD9014000000000,865.7,5.454836,8.9375
300833B2DDD9014000000000,865.7,0.4049709,1.625
300833B2DDD9014000000000,865.7,2.9943304,-1.625
300833B2DDD9014000000000,865.7,4.0435734,0.8125
300833B2DDD9014000000000,865.7,0.35588354,0.0
300833B2DDD9014000000000,865.7,2.712078,3.25
300833B2DDD9014000000000,865.7,0.77926224,3.25
300833B2DDD9014000000000,865.7,1.0492429,7.3125
300833B2DDD9014000000000,865.7,2.6936703,-4.875
300833B2DDD9014000000000,865.7,2.000311,4.875
300833B2DDD9014000000000,865.7,2.6077673,2.4375
300833B2DDD9014000000000,865.7,3.675418,5.6875
300833B2DDD9014000000000,865.7,2.8593402,0.0
300833B2DDD9014000000000,865.7,4.215379,-4.875
300833B2DDD9014000000000,865.7,4.417865,0.8125
300833B2DDD9014000000000,865.7,4.0497093,0.0
300833B2DDD9014000000000,865.7,0.32520393,4.875
300833B2DDD9014000000000,865.7,0.7117671,8.125
300833B2DDD9014000000000,865.7,1.0615147,2.4375
300833B2DDD9014000000000,865.7,2.963651,5.6875
300833B2DDD9014000000000,865.7,2.6813984,-4.0625
300833B2DDD9014000000000,865.7,2.7611654,-1.625
300833B2DDD9014000000000,865.7,0.79767,0.0
300833B2DDD9014000000000,865.7,3.19068,6.5
300833B2DDD9014000000000,865.7,3.043418,-3.25
300833B2DDD9014000000000,865.7,0.38656315,2.4375
300833B2DDD9014000000000,865.7,2.0555344,-6.5
300833B2DDD9014000000000,865.7,5.473243,5.6875
300833B2DDD9014000000000,865.7,1.441942,2.4375
300833B2DDD9014000000000,865.7,2.8286605,5.6875
300833B2DDD9014000000000,865.7,5.485515,4.0625
300833B2DDD9014000000000,865.7,2.6629906,-8.125
300833B2DDD9014000000000,865.7,4.0435734,0.0
300833B2DDD9014000000000,865.7,0.33747578,4.875
300833B2DDD9014000000000,865.7,2.9452431,6.5
300833B2DDD9014000000000,865.7,4.4362726,-0.8125
300833B2DDD9014000000000,865.7,0.7363108,3.25
300833B2DDD9014000000000,865.7,1.0799224,-1.625
300833B2DDD9014000000000,865.7,0.38656315,6.5
300833B2DDD9014000000000,865.7,3.3686218,49.625
300833B2DDD9014000000000,865.7,3.0188742,0.8125
300833B2DDD9014000000000,865.7,1.4664856,0.8125
300833B2DDD9014000000000,865.7,2.06167,-7.3125
300833B2DDD9014000000000,865.7,3.202952,1.625
300833B2DDD9014000000000,865.7,2.6998062,-6.5
300833B2DDD9014000000000,865.7,0.7669904,4.875
300833B2DDD9014000000000,865.7,4.1785636,2.4375
300833B2DDD9014000000000,865.7,2.7488935,-0.8125
300833B2DDD9014000000000,865.7,1.435806,8.9375
300833B2DDD9014000000000,865.7,2.9820588,5.6875
300833B2DDD9014000000000,865.7,0.72403896,4.0625
300833B2DDD9014000000000,865.7,3.2090878,2.4375
300833B2DDD9014000000000,865.7,0.35588354,1.625
300833B2DDD9014000000000,865.7,2.7488935,0.8125
300833B2DDD9014000000000,865.7,2.0923498,-6.5
300833B2DDD9014000000000,865.7,0.38656315,0.8125
300833B2DDD9014000000000,865.7,2.6629906,-6.5
300833B2DDD9014000000000,865.7,4.160156,4.875
300833B2DDD9014000000000,865.7,5.485515,7.3125
300833B2DDD9014000000000,865.7,0.7853982,0.8125
300833B2DDD9014000000000,865.7,3.031146,-6.5
300833B2DDD9014000000000,865.7,4.417865,2.4375
300833B2DDD9014000000000,865.7,4.0190296,3.25
300833B2DDD9014000000000,865.7,3.669282,-21.125
300833B2DDD9014000000000,865.7,1.0246992,8.9375
300833B2DDD9014000000000,865.7,2.8286605,3.25
300833B2DDD9014000000000,865.7,2.6813984,-7.3125
300833B2DDD9014000000000,865.7,1.0492429,3.25
300833B2DDD9014000000000,865.7,0.6626797,13.0
300833B2DDD9014000000000,865.7,3.0066023,1.625
300833B2DDD9014000000000,865.7,0.3436117,2.4375
300833B2DDD9014000000000,865.7,0.3926991,0.8125
300833B2DDD9014000000000,865.7,2.7059422,4.875
300833B2DDD9014000000000,865.7,3.202952,3.25
300833B2DDD9014000000000,865.7,5.4671073,8.125
300833B2DDD9014000000000,865.7,4.1724277,4.0625
300833B2DDD9014000000000,865.7,4.0374374,0.0
300833B2DDD9014000000000,865.7,4.4240007,1.625
300833B2DDD9014000000000,865.7,2.8409324,0.8125
300833B2DDD9014000000000,865.7,0.7669904,2.4375
300833B2DDD9014000000000,865.7,3.6815538,1.625
300833B2DDD9014000000000,865.7,2.0493984,2.4375
300833B2DDD9014000000000,865.7,2.7059422,-8.125
300833B2DDD9014000000000,865.7,1.4542137,1.625
300833B2DDD9014000000000,865.7,3.0066023,-4.875
300833B2DDD9014000000000,865.7,2.55868,9.75
300833B2DDD9014000000000,865.7,4.1662917,-0.8125
300833B2DDD9014000000000,865.7,3.2152238,0.8125
300833B2DDD9014000000000,865.7,1.0431069,8.125
300833B2DDD9014000000000,865.7,0.77926224,-0.8125
300833B2DDD9014000000000,865.7,2.9391072,4.0625
300833B2DDD9014000000000,865.7,0.33133984,3.25
300833B2DDD9014000000000,865.7,4.405593,2.4375
300833B2DDD9014000000000,865.7,5.485515,4.875
300833B2DDD9014000000000,865.7,3.8042724,-23.5625
300833B2DDD9014000000000,865.7,2.7059422,-8.125
300833B2DDD9014000000000,865.7,3.043418,-0.8125
300833B2DDD9014000000000,865.7,0.79153407,0.8125
300833B2DDD9014000000000,865.7,4.0435734,0.0
300833B2DDD9014000000000,865.7,0.34974763,2.4375
300833B2DDD9014000000000,865.7,2.7611654,-1.625
300833B2DDD9014000000000,865.7,2.6752625,-5.6875
300833B2DDD9014000000000,865.7,2.080078,1.625
300833B2DDD9014000000000,865.7,1.4726216,-1.625
300833B2DDD9014000000000,865.7,2.877748,-6.5
300833B2DDD9014000000000,865.7,0.70563114,7.3125
300833B2DDD9014000000000,865.7,4.098797,0.0
300833B2DDD9014000000000,865.7,4.0497093,0.0
300833B2DDD9014000000000,865.7,2.6629906,-7.3125
300833B2DDD9014000000000,865.7,0.27611655,4.875
300833B2DDD9014000000000,865.7,5.491651,8.125
300833B2DDD9014000000000,865.7,2.963651,-2.4375
300833B2DDD9014000000000,865.7,3.0556898,-1.625
300833B2DDD9014000000000,865.7,0.7853982,3.25
300833B2DDD9014000000000,865.7,1.3989905,4.0625
300833B2DDD9014000000000,865.7,4.405593,2.4375
300833B2DDD9014000000000,865.7,1.9450877,8.9375
300833B2DDD9014000000000,865.7,0.31293207,6.5
300833B2DDD9014000000000,865.7,3.7797287,-23.5625
300833B2DDD9014000000000,865.7,2.8470683,0.8125
300833B2DDD9014000000000,865.7,2.7673013,0.0
300833B2DDD9014000000000,865.7,2.6875343,-0.8125
300833B2DDD9014000000000,865.7,3.196816,3.25
300833B2DDD9014000000000,865.7,1.0983303,3.25
300833B2DDD9014000000000,865.7,2.8163888,4.875
300833B2DDD9014000000000,865.7,4.0374374,4.0625
300833B2DDD9014000000000,865.7,0.319068,4.0625
300833B2DDD9014000000000,865.7,4.381049,4.875
300833B2DDD9014000000000,865.7,2.9943304,-9.75
300833B2DDD9014000000000,865.7,2.0309906,0.0
300833B2DDD9014000000000,865.7,1.0983303,0.8125
300833B2DDD9014000000000,865.7,3.6263306,8.9375
300833B2DDD9014000000000,865.7,0.81607777,0.8125
300833B2DDD9014000000000,865.7,1.441942,-0.8125
300833B2DDD9014000000000,865.7,3.2090878,0.8125
300833B2DDD9014000000000,865.7,2.7673013,-0.8125
300833B2DDD9014000000000,865.7,2.6629906,-10.5625
300833B2DDD9014000000000,865.7,4.0251656,3.25
300833B2DDD9014000000000,865.7,5.5346026,5.6875
300833B2DDD9014000000000,865.7,0.23316509,6.5
300833B2DDD9014000000000,865.7,3.043418,3.25
300833B2DDD9014000000000,865.7,0.6810875,5.6875
300833B2DDD9014000000000,865.7,2.7059422,-10.5625
300833B2DDD9014000000000,865.7,2.6875343,0.0
300833B2DDD9014000000000,865.7,3.663146,-10.5625
300833B2DDD9014000000000,865.7,5.5284667,5.6875
300833B2DDD9014000000000,865.7,3.202952,2.4375
300833B2DDD9014000000000,865.7,3.037282,1.625
300833B2DDD9014000000000,865.7,0.81607777,1.625
300833B2DDD9014000000000,865.7,0.2945243,2.4375
300833B2DDD9014000000000,865.7,0.23316509,4.875
300833B2DDD9014000000000,865.7,2.7795732,-1.625
300833B2DDD9014000000000,865.7,4.0497093,-1.625
300833B2DDD9014000000000,865.7,1.3867186,8.9375
300833B2DDD9014000000000,865.7,4.0435734,-2.4375
300833B2DDD9014000000000,865.7,2.6200392,-4.875
300833B2DDD9014000000000,865.7,4.411729,0.8125
300833B2DDD9014000000000,865.7,2.8163888,7.3125
300833B2DDD9014000000000,865.7,0.72403896,3.25
300833B2DDD9014000000000,865.7,2.8961558,4.0625
300833B2DDD9014000000000,865.7,1.1780972,-5.6875
300833B2DDD9014000000000,865.7,1.9573594,4.875
300833B2DDD9014000000000,865.7,0.6320001,14.625
300833B2DDD9014000000000,865.7,2.8286605,5.6875
300833B2DDD9014000000000,865.7,0.80380595,4.875
300833B2DDD9014000000000,865.7,4.3687773,4.875
300833B2DDD9014000000000,865.7,0.19634955,4.875
300833B2DDD9014000000000,865.7,2.791845,-2.4375
300833B2DDD9014000000000,865.7,2.712078,-6.5
300833B2DDD9014000000000,865.7,3.5649714,5.6875
300833B2DDD9014000000000,865.7,1.9880391,-1.625
300833B2DDD9014000000000,865.7,2.644583,-4.875
300833B2DDD9014000000000,865.7,4.0558453,-0.8125
300833B2DDD9014000000000,865.7,1.3867186,9.75
300833B2DDD9014000000000,865.7,0.2699806,1.625
300833B2DDD9014000000000,865.7,3.0495539,1.625
300833B2DDD9014000000000,865.7,2.8532043,6.5
300833B2DDD9014000000000,865.7,1.1106021,3.25
300833B2DDD9014000000000,865.7,3.9944859,-0.8125
300833B2DDD9014000000000,865.7,3.196816,1.625
300833B2DDD9014000000000,865.7,5.5591464,4.875
300833B2DDD9014000000000,865.7,3.0679617,1.625
300833B2DDD9014000000000,865.7,2.6568546,-8.125
300833B2DDD9014000000000,865.7,4.3687773,3.25
300833B2DDD9014000000000,865.7,5.58369,0.8125
300833B2DDD9014000000000,865.7,0.7485826,-0.8125
300833B2DDD9014000000000,865.7,3.577243,-0.8125
300833B2DDD9014000000000,865.7,4.074253,0.0
300833B2DDD9014000000000,865.7,0.8099418,6.5
300833B2DDD9014000000000,865.7,2.7673013,0.8125
300833B2DDD9014000000000,865.7,2.0309906,4.0625
300833B2DDD9014000000000,865.7,1.3928546,8.9375
300833B2DDD9014000000000,865.7,3.9576705,0.0
300833B2DDD9014000000000,865.7,2.8347964,0.0
300833B2DDD9014000000000,865.7,0.24543692,1.625
300833B2DDD9014000000000,865.7,2.8470683,3.25
300833B2DDD9014000000000,865.7,2.7734373,-10.5625
300833B2DDD9014000000000,865.7,0.08590292,2.4375
300833B2DDD9014000000000,865.7,3.19068,0.8125
300833B2DDD9014000000000,865.7,1.1535536,-4.875
300833B2DDD9014000000000,865.7,2.7795732,-1.625
300833B2DDD9014000000000,865.7,1.0983303,7.3125
300833B2DDD9014000000000,865.7,1.441942,-2.4375
300833B2DDD9014000000000,865.7,3.9515345,-0.8125
300833B2DDD9014000000000,865.7,2.8593402,-1.625
300833B2DDD9014000000000,865.7,3.184544,0.0
300833B2DDD9014000000000,865.7,0.8099418,1.625
300833B2DDD9014000000000,865.7,0.6933593,8.125
300833B2DDD9014000000000,865.7,2.6629906,-8.125
300833B2DDD9014000000000,865.7,4.080389,0.8125
300833B2DDD9014000000000,865.7,3.0740974,1.625
300833B2DDD9014000000000,865.7,4.3687773,0.8125
300833B2DDD9014000000000,865.7,0.20862138,4.875
300833B2DDD9014000000000,865.7,3.663146,-18.6875
300833B2DDD9014000000000,865.7,2.7427576,-11.375
300833B2DDD9014000000000,865.7,2.8593402,-4.0625
300833B2DDD9014000000000,865.7,6.2586417,1.625
300833B2DDD9014000000000,865.7,5.58369,4.0625
300833B2DDD9014000000000,865.7,2.0309906,17.875
300833B2DDD9014000000000,865.7,0.81607777,1.625
300833B2DDD9014000000000,865.7,3.9576705,-1.625
300833B2DDD9014000000000,865.7,3.7060976,-19.5
300833B2DDD9014000000000,865.7,3.0986412,-0.8125
300833B2DDD9014000000000,865.7,5.5468745,13.8125
300833B2DDD9014000000000,865.7,2.1291654,2.4375
300833B2DDD9014000000000,865.7,2.6200392,-1.625
300833B2DDD9014000000000,865.7,2.810253,4.0625
300833B2DDD9014000000000,865.7,0.22702916,0.0
300833B2DDD9014000000000,865.7,4.399457,-0.8125
300833B2DDD9014000000000,865.7,1.116738,4.875
300833B2DDD9014000000000,865.7,0.73017484,3.25
300833B2DDD9014000000000,865.7,3.1784081,0.0
300833B2DDD9014000000000,865.7,1.4296701,4.0625
300833B2DDD9014000000000,865.7,2.797981,0.0
300833B2DDD9014000000000,865.7,2.730486,-7.3125
300833B2DDD9014000000000,865.7,4.080389,0.8125
300833B2DDD9014000000000,865.7,6.1788745,5.6875
300833B2DDD9014000000000,865.7,2.9022915,-7.3125
300833B2DDD9014000000000,865.7,2.7734373,0.0
300833B2DDD9014000000000,865.7,3.0740974,1.625
300833B2DDD9014000000000,865.7,2.8532043,-0.8125
300833B2DDD9014000000000,865.7,0.8099418,1.625
300833B2DDD9014000000000,865.7,3.1722722,2.4375
300833B2DDD9014000000000,865.7,3.9699423,-0.8125
300833B2DDD9014000000000,865.7,4.374913,1.625
300833B2DDD9014000000000,865.7,0.7608545,3.25
300833B2DDD9014000000000,865.7,4.080389,1.625
300833B2DDD9014000000000,865.7,2.8163888,2.4375
300833B2DDD9014000000000,865.7,6.227962,-3.25
300833B2DDD9014000000000,865.7,1.3867186,8.125
300833B2DDD9014000000000,865.7,5.5591464,7.3125
300833B2DDD9014000000000,865.7,0.20248546,2.4375
300833B2DDD9014000000000,865.7,2.6507187,8.9375
300833B2DDD9014000000000,865.7,2.1659808,2.4375
300833B2DDD9014000000000,865.7,1.1535536,-3.25
300833B2DDD9014000000000,865.7,2.6507187,-4.0625
300833B2DDD9014000000000,865.7,3.515884,-6.5
300833B2DDD9014000000000,865.7,0.7608545,0.8125
300833B2DDD9014000000000,865.7,5.589826,1.625
300833B2DDD9014000000000,865.7,3.8410878,-36.5625
300833B2DDD9014000000000,865.7,2.6629906,-2.4375
300833B2DDD9014000000000,865.7,2.730486,-6.5
300833B2DDD9014000000000,865.7,0.80380595,4.875
300833B2DDD9014000000000,865.7,2.8347964,0.8125
300833B2DDD9014000000000,865.7,0.22089323,0.8125
300833B2DDD9014000000000,865.7,3.9822142,-0.8125
300833B2DDD9014000000000,865.7,3.184544,0.8125
300833B2DDD9014000000000,865.7,2.871612,-1.625
300833B2DDD9014000000000,865.7,2.4175537,4.0625
300833B2DDD9014000000000,865.7,4.098797,1.625
300833B2DDD9014000000000,865.7,3.0863693,0.0
300833B2DDD9014000000000,865.7,4.387185,1.625
300833B2DDD9014000000000,865.7,2.7734373,0.0
300833B2DDD9014000000000,865.7,5.829127,-0.8125
300833B2DDD9014000000000,865.7,1.4787575,4.875
300833B2DDD9014000000000,865.7,1.0615147,-1.625
300833B2DDD9014000000000,865.7,0.8099418,4.0625
300833B2DDD9014000000000,865.7,0.16566992,4.875
300833B2DDD9014000000000,865.7,4.129476,-3.25
300833B2DDD9014000000000,865.7,5.6327777,0.8125
300833B2DDD9014000000000,865.7,2.6813984,-5.6875
300833B2DDD9014000000000,865.7,0.72403896,2.4375
300833B2DDD9014000000000,865.7,3.515884,-8.9375
300833B2DDD9014000000000,865.7,4.399457,-0.8125
300833B2DDD9014000000000,865.7,0.99401957,3.25
300833B2DDD9014000000000,865.7,4.000622,2.4375
300833B2DDD9014000000000,865.7,2.804117,-2.4375
300833B2DDD9014000000000,865.7,5.589826,2.4375
300833B2DDD9014000000000,865.7,3.0863693,2.4375
300833B2DDD9014000000000,865.7,3.1784081,1.625
300833B2DDD9014000000000,865.7,2.7488935,-2.4375
300833B2DDD9014000000000,865.7,1.5094371,-6.5
300833B2DDD9014000000000,865.7,2.7673013,7.3125
300833B2DDD9014000000000,865.7,2.8286605,2.4375
300833B2DDD9014000000000,865.7,2.4911847,12.1875
300833B2DDD9014000000000,865.7,2.7366216,-2.4375
300833B2DDD9014000000000,865.7,5.516195,-2.4375
300833B2DDD9014000000000,865.7,0.10431069,5.6875
300833B2DDD9014000000000,865.7,3.117049,-0.8125
300833B2DDD9014000000000,865.7,0.717903,1.625
300833B2DDD9014000000000,865.7,2.5280004,8.125
300833B2DDD9014000000000,865.7,1.4296701,13.8125
300833B2DDD9014000000000,865.7,4.393321,-4.0625
300833B2DDD9014000000000,865.7,2.8225245,-3.25
300833B2DDD9014000000000,865.7,3.1784081,1.625
300833B2DDD9014000000000,865.7,4.135612,-3.25
300833B2DDD9014000000000,865.7,5.589826,9.75
300833B2DDD9014000000000,865.7,4.0067577,1.625
300833B2DDD9014000000000,865.7,3.5711074,-21.125
300833B2DDD9014000000000,865.7,2.9022915,-5.6875
300833B2DDD9014000000000,865.7,0.8406215,1.625
300833B2DDD9014000000000,865.7,2.8225245,-7.3125
300833B2DDD9014000000000,865.7,2.6998062,-8.9375
300833B2DDD9014000000000,865.7,1.0185633,1.625
300833B2DDD9014000000000,865.7,3.9699423,1.625
300833B2DDD9014000000000,865.7,2.8532043,-2.4375
300833B2DDD9014000000000,865.7,4.1110687,-0.8125
300833B2DDD9014000000000,865.7,1.4664856,4.875
300833B2DDD9014000000000,865.7,0.8406215,3.25
300833B2DDD9014000000000,865.7,2.6875343,-7.3125
300833B2DDD9014000000000,865.7,3.5220199,-13.8125
300833B2DDD9014000000000,865.7,3.1661363,0.8125
300833B2DDD9014000000000,865.7,0.09817477,4.875
300833B2DDD9014000000000,865.7,0.6933593,6.5
300833B2DDD9014000000000,865.7,2.797981,-0.8125
300833B2DDD9014000000000,865.7,4.374913,-0.8125
300833B2DDD9014000000000,865.7,3.117049,0.0
300833B2DDD9014000000000,865.7,2.5464082,0.0
300833B2DDD9014000000000,865.7,2.6936703,1.625
300833B2DDD9014000000000,865.7,2.8654761,0.8125
300833B2DDD9014000000000,865.7,5.460972,0.8125
300833B2DDD9014000000000,865.7,5.608234,4.0625
300833B2DDD9014000000000,865.7,1.036971,-3.25
300833B2DDD9014000000000,865.7,2.730486,-7.3125
300833B2DDD9014000000000,865.7,2.5095925,5.6875
300833B2DDD9014000000000,865.7,0.81607777,3.25
300833B2DDD9014000000000,865.7,4.3442335,4.0625
300833B2DDD9014000000000,865.7,2.6998062,-6.5
300833B2DDD9014000000000,865.7,5.473243,-1.625
300833B2DDD9014000000000,865.7,2.8163888,5.6875
300833B2DDD9014000000000,865.7,0.72403896,2.4375
300833B2DDD9014000000000,865.7,2.8286605,-4.875
300833B2DDD9014000000000,865.7,3.5404277,-20.3125
300833B2DDD9014000000000,865.7,5.5468745,14.625
300833B2DDD9014000000000,865.7,0.9878836,11.375
300833B2DDD9014000000000,865.7,3.9576705,-0.8125
300833B2DDD9014000000000,865.7,3.1538644,0.0
300833B2DDD9014000000000,865.7,1.4480779,8.125
300833B2DDD9014000000000,865.7,4.135612,-2.4375
300833B2DDD9014000000000,865.7,3.1293209,-0.8125
300833B2DDD9014000000000,865.7,2.8163888,-3.25
300833B2DDD9014000000000,865.7,0.079767,1.625
300833B2DDD9014000000000,865.7,0.79767,3.25
300833B2DDD9014000000000,865.7,5.608234,7.3125
300833B2DDD9014000000000,865.7,2.6691265,1.625
300833B2DDD9014000000000,865.7,2.8409324,-8.125
300833B2DDD9014000000000,865.7,4.3380976,3.25
300833B2DDD9014000000000,865.7,3.1293209,2.4375
300833B2DDD9014000000000,865.7,3.4606607,-6.5
300833B2DDD9014000000000,865.7,2.7857091,-0.8125
300833B2DDD9014000000000,865.7,2.8409324,0.8125
300833B2DDD9014000000000,865.7,0.8099418,-9.75
300833B2DDD9014000000000,865.7,0.07363108,1.625
300833B2DDD9014000000000,865.7,1.1106021,-6.5
300833B2DDD9014000000000,865.7,2.5157285,1.625
300833B2DDD9014000000000,865.7,3.1600003,-5.6875
300833B2DDD9014000000000,865.7,3.9269907,2.4375
300833B2DDD9014000000000,865.7,5.442564,3.25
300833B2DDD9014000000000,865.7,1.4235342,8.9375
300833B2DDD9014000000000,865.7,2.6691265,-0.8125
300833B2DDD9014000000000,865.7,4.1110687,-0.8125
300833B2DDD9014000000000,865.7,3.123185,2.4375
300833B2DDD9014000000000,865.7,5.454836,1.625
300833B2DDD9014000000000,865.7,0.81607777,6.5
300833B2DDD9014000000000,865.7,1.4664856,5.6875
300833B2DDD9014000000000,865.7,3.3686218,-3.25
300833B2DDD9014000000000,865.7,5.602098,9.75
300833B2DDD9014000000000,865.7,2.9084275,-4.875
300833B2DDD9014000000000,865.7,3.9331267,-1.625
300833B2DDD9014000000000,865.7,2.797981,0.0
300833B2DDD9014000000000,865.7,2.5095925,1.625
300833B2DDD9014000000000,865.7,3.1538644,0.8125
300833B2DDD9014000000000,865.7,1.0676507,1.625
300833B2DDD9014000000000,865.7,2.8225245,-4.875
300833B2DDD9014000000000,865.7,2.6629906,-2.4375
300833B2DDD9014000000000,865.7,0.06135923,1.625
300833B2DDD9014000000000,865.7,4.3319616,3.25
300833B2DDD9014000000000,865.7,4.1110687,-0.8125
300833B2DDD9014000000000,865.7,2.6507187,0.0
300833B2DDD9014000000000,865.7,0.7485826,5.6875
300833B2DDD9014000000000,865.7,1.0799224,8.125
300833B2DDD9014000000000,865.7,2.8286605,-5.6875
300833B2DDD9014000000000,865.7,0.04295146,4.0625
300833B2DDD9014000000000,865.7,2.6936703,-2.4375
300833B2DDD9014000000000,865.7,2.871612,0.0
300833B2DDD9014000000000,865.7,3.3133986,8.125
300833B2DDD9014000000000,865.7,2.7366216,-3.25
300833B2DDD9014000000000,865.7,0.79767,4.875
300833B2DDD9014000000000,865.7,1.441942,4.875
300833B2DDD9014000000000,865.7,2.3623304,-0.8125
300833B2DDD9014000000000,865.7,3.828816,4.0625
300833B2DDD9014000000000,865.7,3.1354568,-0.8125
300833B2DDD9014000000000,865.7,0.8406215,-3.25
300833B2DDD9014000000000,865.7,4.086525,-1.625
300833B2DDD9014000000000,865.7,4.313554,4.875
300833B2DDD9014000000000,865.7,5.8843503,0.0
300833B2DDD9014000000000,865.7,3.1354568,0.8125
300833B2DDD9014000000000,865.7,2.6813984,-4.875
300833B2DDD9014000000000,865.7,5.595962,15.4375
300833B2DDD9014000000000,865.7,2.1353014,10.5625
300833B2DDD9014000000000,865.7,2.6752625,-4.875
300833B2DDD9014000000000,865.7,4.307418,2.4375
300833B2DDD9014000000000,865.7,3.3072627,7.3125
300833B2DDD9014000000000,865.7,3.7367773,7.3125
300833B2DDD9014000000000,865.7,1.435806,4.0625
300833B2DDD9014000000000,865.7,6.0254765,1.625
300833B2DDD9014000000000,865.7,0.049087387,0.8125
300833B2DDD9014000000000,865.7,3.1293209,3.25
300833B2DDD9014000000000,865.7,3.104777,1.625
300833B2DDD9014000000000,865.7,5.638913,10.5625
300833B2DDD9014000000000,865.7,0.75471854,2.4375
300833B2DDD9014000000000,865.7,2.810253,-3.25
300833B2DDD9014000000000,865.7,4.074253,-1.625
300833B2DDD9014000000000,865.7,2.7059422,2.4375
300833B2DDD9014000000000,865.7,0.9019807,-1.625
300833B2DDD9014000000000,865.7,2.6813984,-0.8125
300833B2DDD9014000000000,865.7,2.89002,-1.625
300833B2DDD9014000000000,865.7,1.3314953,-4.875
300833B2DDD9014000000000,865.7,5.61437,10.5625
300833B2DDD9014000000000,865.7,3.742913,1.625
300833B2DDD9014000000000,865.7,0.7669904,-1.625
300833B2DDD9014000000000,865.7,4.061981,0.8125
300833B2DDD9014000000000,865.7,3.117049,1.625
300833B2DDD9014000000000,865.7,2.7059422,-0.8125
300833B2DDD9014000000000,865.7,4.3258257,-0.8125
300833B2DDD9014000000000,865.7,2.791845,-0.8125
300833B2DDD9014000000000,865.7,3.1477287,-0.8125
300833B2DDD9014000000000,865.7,3.3747578,-10.5625
300833B2DDD9014000000000,865.7,6.056156,0.8125
300833B2DDD9014000000000,865.7,2.6998062,-10.5625
300833B2DDD9014000000000,865.7,2.6936703,-1.625
300833B2DDD9014000000000,865.7,0.024543693,4.0625
300833B2DDD9014000000000,865.7,0.85902923,3.25
300833B2DDD9014000000000,865.7,1.441942,1.625
300833B2DDD9014000000000,865.7,2.8654761,4.0625
300833B2DDD9014000000000,865.7,1.2578642,2.4375
300833B2DDD9014000000000,865.7,2.1291654,4.875
300833B2DDD9014000000000,865.7,2.6691265,4.0625
300833B2DDD9014000000000,865.7,3.4115732,-7.3125
300833B2DDD9014000000000,865.7,2.791845,-1.625
300833B2DDD9014000000000,865.7,4.074253,-0.8125
300833B2DDD9014000000000,865.7,3.749049,1.625
300833B2DDD9014000000000,865.7,3.110913,2.4375
300833B2DDD9014000000000,865.7,3.0863693,8.125
300833B2DDD9014000000000,865.7,0.030679615,1.625
300833B2DDD9014000000000,865.7,1.4235342,4.0625
300833B2DDD9014000000000,865.7,2.1168935,5.6875
300833B2DDD9014000000000,865.7,5.595962,13.0
300833B2DDD9014000000000,865.7,6.0377483,5.6875
300833B2DDD9014000000000,865.7,0.83448553,10.5625
300833B2DDD9014000000000,865.7,4.2767386,6.5
300833B2DDD9014000000000,865.7,2.7550294,-10.5625
300833B2DDD9014000000000,865.7,2.6568546,-5.6875
300833B2DDD9014000000000,865.7,2.877748,0.8125
300833B2DDD9014000000000,865.7,1.2517283,1.625
300833B2DDD9014000000000,865.7,0.75471854,6.5
300833B2DDD9014000000000,865.7,2.8470683,1.625
300833B2DDD9014000000000,865.7,4.313554,-2.4375
300833B2DDD9014000000000,865.7,6.1297874,-5.6875
300833B2DDD9014000000000,865.7,0.89584476,0.8125
300833B2DDD9014000000000,865.7,1.3376312,-8.9375
300833B2DDD9014000000000,865.7,5.657321,1.625
300833B2DDD9014000000000,865.7,2.712078,-0.8125
300833B2DDD9014000000000,865.7,1.441942,-0.8125
300833B2DDD9014000000000,865.7,4.074253,-1.625
300833B2DDD9014000000000,865.7,3.7183695,5.6875
300833B2DDD9014000000000,865.7,0.012271847,4.0625
300833B2DDD9014000000000,865.7,0.7485826,3.25
300833B2DDD9014000000000,865.7,2.6507187,-2.4375
300833B2DDD9014000000000,865.7,2.7734373,0.0
300833B2DDD9014000000000,865.7,2.6568546,0.0
300833B2DDD9014000000000,865.7,3.104777,3.25
300833B2DDD9014000000000,865.7,3.1415927,0.0
300833B2DDD9014000000000,865.7,2.0309906,8.9375
300833B2DDD9014000000000,865.7,3.350214,-0.8125
300833B2DDD9014000000000,865.7,2.8654761,0.0
300833B2DDD9014000000000,865.7,0.90811664,2.4375
300833B2DDD9014000000000,865.7,3.6999617,5.6875
300833B2DDD9014000000000,865.7,3.123185,0.0
300833B2DDD9014000000000,865.7,4.2828746,4.0625
300833B2DDD9014000000000,865.7,2.791845,-0.8125
300833B2DDD9014000000000,865.7,1.4051265,5.6875
300833B2DDD9014000000000,865.7,1.2885438,6.5
300833B2DDD9014000000000,865.7,2.730486,-1.625
300833B2DDD9014000000000,865.7,0.03681554,0.8125
300833B2DDD9014000000000,865.7,3.110913,3.25
300833B2DDD9014000000000,865.7,4.068117,-1.625
300833B2DDD9014000000000,865.7,6.1052437,7.3125
300833B2DDD9014000000000,865.7,2.6691265,-2.4375
300833B2DDD9014000000000,865.7,2.6936703,-8.125
300833B2DDD9014000000000,865.7,3.3993015,-12.1875
300833B2DDD9014000000000,865.7,0.7731263,2.4375
300833B2DDD9014000000000,865.7,2.0248547,8.9375
300833B2DDD9014000000000,865.7,5.620506,13.0
300833B2DDD9014000000000,865.7,3.1354568,1.625
300833B2DDD9014000000000,865.7,2.6507187,-4.0625
300833B2DDD9014000000000,865.7,5.620506,8.125
300833B2DDD9014000000000,865.7,3.6999617,5.6875
300833B2DDD9014000000000,865.7,4.2828746,0.0
300833B2DDD9014000000000,865.7,4.0558453,0.0
300833B2DDD9014000000000,865.7,6.1543307,1.625
300833B2DDD9014000000000,865.7,2.6936703,-5.6875
300833B2DDD9014000000000,865.7,3.0925052,2.4375
300833B2DDD9014000000000,865.7,2.6629906,7.3125
300833B2DDD9014000000000,865.7,0.024543693,4.0625
300833B2DDD9014000000000,865.7,0.9142526,5.6875
300833B2DDD9014000000000,865.7,2.883884,-1.625
300833B2DDD9014000000000,865.7,1.435806,2.4375
300833B2DDD9014000000000,865.7,2.8163888,-6.5
300833B2DDD9014000000000,865.7,3.429981,-14.625
300833B2DDD9014000000000,865.7,1.3499031,-1.625
300833B2DDD9014000000000,865.7,0.7669904,5.6875
300833B2DDD9014000000000,865.7,1.9696313,17.0625
300833B2DDD9014000000000,865.7,3.19068,6.5
300833B2DDD9014000000000,865.7,3.1354568,0.0
300833B2DDD9014000000000,865.7,0.024543693,1.625
300833B2DDD9014000000000,865.7,4.0435734,0.0
300833B2DDD9014000000000,865.7,3.104777,2.4375
300833B2DDD9014000000000,865.7,2.0371265,5.6875
300833B2DDD9014000000000,865.7,3.6938257,5.6875
300833B2DDD9014000000000,865.7,2.7550294,-1.625
300833B2DDD9014000000000,865.7,4.2706027,4.0625
300833B2DDD9014000000000,865.7,2.791845,-4.875
300833B2DDD9014000000000,865.7,2.638447,-2.4375
300833B2DDD9014000000000,865.7,5.6266418,9.75
300833B2DDD9014000000000,865.7,0.7731263,0.8125
300833B2DDD9014000000000,865.7,1.3867186,6.5
300833B2DDD9014000000000,865.7,2.8225245,7.3125
300833B2DDD9014000000000,865.7,0.9019807,6.5
300833B2DDD9014000000000,865.7,2.6507187,0.0
300833B2DDD9014000000000,865.7,1.2885438,7.3125
300833B2DDD9014000000000,865.7,6.1850104,4.875
300833B2DDD9014000000000,865.7,0.03681554,2.4375
300833B2DDD9014000000000,865.7,1.3314953,-5.6875
300833B2DDD9014000000000,865.7,2.6507187,-5.6875
300833B2DDD9014000000000,865.7,4.2828746,0.8125
300833B2DDD9014000000000,865.7,2.000311,9.75
300833B2DDD9014000000000,865.7,0.90811664,9.75
300833B2DDD9014000000000,865.7,4.0313015,1.625
300833B2DDD9014000000000,865.7,2.877748,-4.875
300833B2DDD9014000000000,865.7,3.6938257,6.5
300833B2DDD9014000000000,865.7,3.4790685,-22.75
300833B2DDD9014000000000,865.7,2.644583,2.4375
300833B2DDD9014000000000,865.7,3.110913,3.25
300833B2DDD9014000000000,865.7,5.577554,13.8125
300833B2DDD9014000000000,865.7,3.117049,4.875
300833B2DDD9014000000000,865.7,0.80380595,1.625
300833B2DDD9014000000000,865.7,1.435806,0.8125
300833B2DDD9014000000000,865.7,6.2034183,5.6875
300833B2DDD9014000000000,865.7,2.7734373,2.4375
300833B2DDD9014000000000,865.7,2.7488935,-0.8125
300833B2DDD9014000000000,865.7,3.123185,0.0
300833B2DDD9014000000000,865.7,4.0558453,-1.625
300833B2DDD9014000000000,865.7,0.957204,-0.8125
300833B2DDD9014000000000,865.7,2.638447,-4.0625
300833B2DDD9014000000000,865.7,4.307418,-2.4375
300833B2DDD9014000000000,865.7,0.03681554,5.6875
300833B2DDD9014000000000,865.7,0.73017484,11.375
300833B2DDD9014000000000,865.7,2.871612,-2.4375
300833B2DDD9014000000000,865.7,3.1415927,0.8125
300833B2DDD9014000000000,865.7,3.7060976,6.5
300833B2DDD9014000000000,865.7,2.797981,-0.8125
300833B2DDD9014000000000,865.7,2.000311,6.5
300833B2DDD9014000000000,865.7,3.4790685,-14.625
300833B2DDD9014000000000,865.7,2.632311,2.4375
300833B2DDD9014000000000,865.7,1.3008157,0.0
300833B2DDD9014000000000,865.7,1.3867186,5.6875
300833B2DDD9014000000000,865.7,5.6266418,10.5625
300833B2DDD9014000000000,865.7,6.221826,0.0
300833B2DDD9014000000000,865.7,2.7550294,-1.625
300833B2DDD9014000000000,865.7,1.2885438,3.25
300833B2DDD9014000000000,865.7,4.301282,1.625
300833B2DDD9014000000000,865.7,0.06135923,2.4375
300833B2DDD9014000000000,865.7,2.632311,2.4375
300833B2DDD9014000000000,865.7,3.1538644,-1.625
300833B2DDD9014000000000,865.7,4.0497093,-2.4375
300833B2DDD9014000000000,865.7,6.252506,0.0
300833B2DDD9014000000000,865.7,2.791845,-0.8125
300833B2DDD9014000000000,865.7,3.6999617,4.875
300833B2DDD9014000000000,865.7,3.1293209,4.875
300833B2DDD9014000000000,865.7,0.9387962,4.875
300833B2DDD9014000000000,865.7,2.0248547,1.625
300833B2DDD9014000000000,865.7,3.4545248,-20.3125
300833B2DDD9014000000000,865.7,5.608234,10.5625
300833B2DDD9014000000000,865.7,1.3744467,8.9375
300833B2DDD9014000000000,865.7,2.7857091,0.0
300833B2DDD9014000000000,865.7,2.6077673,-0.8125
300833B2DDD9014000000000,865.7,2.871612,-7.3125
300833B2DDD9014000000000,865.7,0.7608545,6.5
300833B2DDD9014000000000,865.7,3.6999617,8.125
300833B2DDD9014000000000,865.7,3.1538644,-1.625
300833B2DDD9014000000000,865.7,2.0064468,4.0625
300833B2DDD9014000000000,865.7,4.3196898,-1.625
300833B2DDD9014000000000,865.7,0.06135923,1.625
300833B2DDD9014000000000,865.7,0.957204,3.25
300833B2DDD9014000000000,865.7,3.1538644,-0.8125
300833B2DDD9014000000000,865.7,1.3989905,4.875
300833B2DDD9014000000000,865.7,4.0313015,-1.625
300833B2DDD9014000000000,865.7,2.8470683,-4.875
300833B2DDD9014000000000,865.7,1.3130876,4.875
300833B2DDD9014000000000,865.7,2.644583,-7.3125
300833B2DDD9014000000000,865.7,0.7731263,2.4375
300833B2DDD9014000000000,865.7,2.6568546,0.0
300833B2DDD9014000000000,865.7,5.58369,15.4375
300833B2DDD9014000000000,865.7,6.2770495,-3.25
300833B2DDD9014000000000,865.7,2.804117,-2.4375
300833B2DDD9014000000000,865.7,2.810253,-4.875
300833B2DDD9014000000000,865.7,3.3931656,-9.75
300833B2DDD9014000000000,865.7,2.5954955,7.3125
300833B2DDD9014000000000,865.7,3.9944859,1.625
300833B2DDD9014000000000,865.7,2.8163888,3.25
300833B2DDD9014000000000,865.7,4.28901,3.25
300833B2DDD9014000000000,865.7,6.240234,7.3125
300833B2DDD9014000000000,865.7,3.4790685,-15.4375
300833B2DDD9014000000000,865.7,2.8163888,-3.25
300833B2DDD9014000000000,865.7,0.024543693,6.5
300833B2DDD9014000000000,865.7,0.81607777,-1.625
300833B2DDD9014000000000,865.7,3.123185,3.25
300833B2DDD9014000000000,865.7,3.7245054,0.0
300833B2DDD9014000000000,865.7,3.1661363,0.0
300833B2DDD9014000000000,865.7,1.3928546,6.5
300833B2DDD9014000000000,865.7,2.6200392,-6.5
300833B2DDD9014000000000,865.7,0.9817477,0.8125
300833B2DDD9014000000000,865.7,5.589826,14.625
300833B2DDD9014000000000,865.7,2.712078,15.4375
300833B2DDD9014000000000,865.7,1.9941751,8.9375
300833B2DDD9014000000000,865.7,1.2455924,11.375
300833B2DDD9014000000000,865.7,2.6507187,-8.125
300833B2DDD9014000000000,865.7,3.4115732,-5.6875
300833B2DDD9014000000000,865.7,0.96947587,-1.625
300833B2DDD9014000000000,865.7,3.9883502,3.25
300833B2DDD9014000000000,865.7,3.1600003,-4.875
300833B2DDD9014000000000,865.7,4.2767386,5.6875
300833B2DDD9014000000000,865.7,3.1477287,2.4375
300833B2DDD9014000000000,865.7,2.8225245,-3.25
300833B2DDD9014000000000,865.7,0.03681554,6.5
300833B2DDD9014000000000,865.7,1.3805827,8.125
300833B2DDD9014000000000,865.7,1.2946798,4.875
300833B2DDD9014000000000,865.7,6.252506,1.625
300833B2DDD9014000000000,865.7,2.6691265,0.0
300833B2DDD9014000000000,865.7,3.6999617,5.6875
300833B2DDD9014000000000,865.7,2.804117,4.0625
300833B2DDD9014000000000,865.7,1.9450877,13.8125
300833B2DDD9014000000000,865.7,0.7853982,-1.625
300833B2DDD9014000000000,865.7,5.6266418,6.5
300833B2DDD9014000000000,865.7,2.7857091,0.8125
300833B2DDD9014000000000,865.7,2.8163888,-4.875
300833B2DDD9014000000000,865.7,2.0187187,0.8125
300833B2DDD9014000000000,865.7,3.1600003,-1.625
300833B2DDD9014000000000,865.7,3.1415927,1.625
300833B2DDD9014000000000,865.7,4.2828746,4.875
300833B2DDD9014000000000,865.7,3.5588355,-21.125
300833B2DDD9014000000000,865.7,0.9817477,-1.625
300833B2DDD9014000000000,865.7,2.804117,4.0625
300833B2DDD9014000000000,865.7,1.2885438,3.25
300833B2DDD9014000000000,865.7,2.8593402,-9.75
300833B2DDD9014000000000,865.7,0.06749515,0.8125
300833B2DDD9014000000000,865.7,4.0435734,-3.25
300833B2DDD9014000000000,865.7,5.589826,13.0
300833B2DDD9014000000000,865.7,1.3499031,12.1875
300833B2DDD9014000000000,865.7,3.6999617,7.3125
300833B2DDD9014000000000,865.7,6.234098,0.0
300833B2DDD9014000000000,865.7,2.638447,1.625
300833B2DDD9014000000000,865.7,2.6077673,-0.8125
300833B2DDD9014000000000,865.7,0.7731263,0.0
300833B2DDD9014000000000,865.7,3.4667966,-16.25
300833B2DDD9014000000000,865.7,0.8099418,-3.25
300833B2DDD9014000000000,865.7,3.1354568,3.25
300833B2DDD9014000000000,865.7,0.9756118,-2.4375
300833B2DDD9014000000000,865.7,4.0251656,0.8125
300833B2DDD9014000000000,865.7,2.6139033,4.0625
300833B2DDD9014000000000,865.7,2.7795732,0.8125
300833B2DDD9014000000000,865.7,6.227962,-1.625
300833B2DDD9014000000000,865.7,4.301282,0.0
300833B2DDD9014000000000,865.7,1.9880391,6.5
300833B2DDD9014000000000,865.7,5.608234,12.1875
300833B2DDD9014000000000,865.7,3.7060976,2.4375
300833B2DDD9014000000000,865.7,2.644583,0.0
300833B2DDD9014000000000,865.7,0.09203885,-2.4375
300833B2DDD9014000000000,865.7,2.7611654,3.25
300833B2DDD9014000000000,865.7,3.1293209,3.25
300833B2DDD9014000000000,865.7,2.8409324,-1.625
300833B2DDD9014000000000,865.7,1.2946798,3.25
300833B2DDD9014000000000,865.7,1.4296701,1.625
300833B2DDD9014000000000,865.7,5.6266418,7.3125
300833B2DDD9014000000000,865.7,2.810253,5.6875
300833B2DDD9014000000000,865.7,3.503612,-21.125
300833B2DDD9014000000000,865.7,6.1972823,2.4375
300833B2DDD9014000000000,865.7,2.5832236,8.125
300833B2DDD9014000000000,865.7,0.99401957,-5.6875
300833B2DDD9014000000000,865.7,0.06135923,4.875
300833B2DDD9014000000000,865.7,2.6752625,-7.3125
300833B2DDD9014000000000,865.7,3.123185,4.875
300833B2DDD9014000000000,865.7,4.0558453,-1.625
300833B2DDD9014000000000,865.7,3.1722722,-3.25
300833B2DDD9014000000000,865.7,0.79153407,3.25
300833B2DDD9014000000000,865.7,3.7060976,5.6875
300833B2DDD9014000000000,865.7,1.9880391,7.3125
300833B2DDD9014000000000,865.7,1.3928546,5.6875
300833B2DDD9014000000000,865.7,2.791845,0.0
300833B2DDD9014000000000,865.7,2.797981,0.0
300833B2DDD9014000000000,865.7,4.307418,-1.625
300833B2DDD9014000000000,865.7,1.2824079,2.4375
300833B2DDD9014000000000,865.7,0.05522331,4.0625
300833B2DDD9014000000000,865.7,2.0125828,0.0
300833B2DDD9014000000000,865.7,0.9633399,0.8125
300833B2DDD9014000000000,865.7,3.35635,8.9375
300833B2DDD9014000000000,865.7,3.1600003,-1.625
300833B2DDD9014000000000,865.7,4.301282,4.875
300833B2DDD9014000000000,865.7,2.638447,0.0
300833B2DDD9014000000000,865.7,2.638447,0.0
300833B2DDD9014000000000,865.7,0.7669904,3.25
300833B2DDD9014000000000,865.7,2.8286605,2.4375
300833B2DDD9014000000000,865.7,1.2885438,5.6875
300833B2DDD9014000000000,865.7,2.797981,0.0
300833B2DDD9014000000000,865.7,1.4051265,4.875
300833B2DDD9014000000000,865.7,4.0313015,0.8125
300833B2DDD9014000000000,865.7,3.7060976,2.4375
300833B2DDD9014000000000,865.7,3.1600003,-1.625
300833B2DDD9014000000000,865.7,6.234098,-2.4375
300833B2DDD9014000000000,865.7,2.797981,0.0
300833B2DDD9014000000000,865.7,5.58369,17.0625
300833B2DDD9014000000000,865.7,2.8225245,0.0
300833B2DDD9014000000000,865.7,0.80380595,4.875
300833B2DDD9014000000000,865.7,3.6999617,7.3125
300833B2DDD9014000000000,865.7,2.8163888,-2.4375
300833B2DDD9014000000000,865.7,3.1661363,-4.875
300833B2DDD9014000000000,865.7,0.030679615,4.875
300833B2DDD9014000000000,865.7,0.93266034,3.25
300833B2DDD9014000000000,865.7,2.0064468,2.4375
300833B2DDD9014000000000,865.7,1.3130876,1.625
300833B2DDD9014000000000,865.7,4.0497093,-2.4375
300833B2DDD9014000000000,865.7,3.3993015,2.4375
300833B2DDD9014000000000,865.7,3.1354568,1.625
300833B2DDD9014000000000,865.7,1.362175,8.9375
300833B2DDD9014000000000,865.7,6.209554,0.8125
300833B2DDD9014000000000,865.7,4.295146,3.25
300833B2DDD9014000000000,865.7,2.7857091,-2.4375
300833B2DDD9014000000000,865.7,5.602098,9.75
300833B2DDD9014000000000,865.7,2.6568546,-4.0625
300833B2DDD9014000000000,865.7,2.638447,0.0
300833B2DDD9014000000000,865.7,1.9696313,4.875
300833B2DDD9014000000000,865.7,3.1538644,0.8125
300833B2DDD9014000000000,865.7,3.1477287,1.625
300833B2DDD9014000000000,865.7,2.797981,-2.4375
300833B2DDD9014000000000,865.7,5.645049,1.625
300833B2DDD9014000000000,865.7,0.04295146,5.6875
300833B2DDD9014000000000,865.7,0.94493216,2.4375
300833B2DDD9014000000000,865.7,3.2888548,8.125
300833B2DDD9014000000000,865.7,0.77926224,0.8125
300833B2DDD9014000000000,865.7,2.6507187,-4.0625
300833B2DDD9014000000000,865.7,1.441942,0.0
300833B2DDD9014000000000,865.7,4.307418,0.8125
300833B2DDD9014000000000,865.7,6.2034183,0.0
300833B2DDD9014000000000,865.7,1.3376312,-2.4375
300833B2DDD9014000000000,865.7,2.7795732,-0.8125
300833B2DDD9014000000000,865.7,2.8286605,0.0
300833B2DDD9014000000000,865.7,3.7183695,5.6875
300833B2DDD9014000000000,865.7,4.0374374,0.8125
300833B2DDD9014000000000,865.7,2.6813984,-5.6875
300833B2DDD9014000000000,865.7,2.6875343,-4.0625
300833B2DDD9014000000000,865.7,2.871612,-4.875
300833B2DDD9014000000000,865.7,1.3928546,8.9375
300833B2DDD9014000000000,865.7,2.6568546,-4.0625
300833B2DDD9014000000000,865.7,0.07363108,0.8125
300833B2DDD9014000000000,865.7,2.7611654,1.625
300833B2DDD9014000000000,865.7,2.0064468,2.4375
300833B2DDD9014000000000,865.7,6.24637,2.4375
300833B2DDD9014000000000,865.7,5.6941366,0.0
300833B2DDD9014000000000,865.7,4.3196898,-1.625
300833B2DDD9014000000000,865.7,3.1415927,1.625
300833B2DDD9014000000000,865.7,3.1354568,2.4375
300833B2DDD9014000000000,865.7,0.957204,0.8125
300833B2DDD9014000000000,865.7,1.3253593,2.4375
300833B2DDD9014000000000,865.7,4.0435734,-0.8125
300833B2DDD9014000000000,865.7,3.6876898,7.3125
300833B2DDD9014000000000,865.7,2.7734373,3.25
300833B2DDD9014000000000,865.7,0.7853982,0.8125
300833B2DDD9014000000000,865.7,3.4545248,-15.4375
