-45.5,4.552854978444583,2.4375
-45.5,4.589670517353839,-5.6875
-45.5,4.571262747899211,0.8125
-45.5,4.589670517353839,-3.25
-45.5,4.614214209960009,-6.5
-45.5,4.620350133111551,-8.9375
-45.5,4.583534594202296,0.8125
-45.5,4.626486056263094,-5.6875
-45.5,4.614214209960009,-4.875
-45.5,4.601942363656923,-2.4375
-45.5,4.601942363656923,2.4375
-46.0,4.608078286808466,-4.875
-45.5,4.589670517353839,1.625
-46.0,4.614214209960009,-2.4375
-45.5,4.6448938257177215,-7.3125
-46.0,4.595806440505381,0.0
-45.5,4.657165672020807,-8.9375
-45.5,4.614214209960009,-0.8125
-45.5,4.620350133111551,-0.8125
-45.5,4.608078286808466,0.8125
-45.5,4.577398671050753,4.875
-46.0,4.632621979414636,-1.625
-45.5,4.614214209960009,-1.625
-45.5,4.626486056263094,-0.8125
-45.5,4.626486056263094,0.8125
-46.0,4.669437518323892,-4.875
-45.5,4.638757902566179,-1.625
-45.5,4.6448938257177215,-3.25
-46.0,4.632621979414636,1.625
-46.0,4.675573441475434,-6.5
-46.0,4.669437518323892,-3.25
-45.5,4.6878452877785195,-3.25
-46.0,4.700117134081604,-2.4375
-46.0,4.724660826687775,3.25
-45.5,4.859651136021712,-9.75
-45.5,4.859651136021712,0.0
-45.5,4.933282213840222,-4.875
-45.5,4.9823695990525625,-4.875
-45.0,5.00077736850719,-0.8125
-45.0,4.994641445355648,4.875
-45.0,5.019185137961818,0.0
-45.0,5.105088062083414,-7.3125
-45.0,5.092816215780329,-1.625
-45.0,5.117359908386499,-1.625
-44.5,5.111223985234957,8.9375
-44.5,5.221670601962723,-8.9375
-44.5,5.190990986205009,1.625
-43.5,5.258486140871978,2.4375
-43.5,5.295301679781233,0.0
-43.5,5.3198453723874035,-0.8125
-43.0,5.325981295538946,4.875
-43.0,5.424156065963627,-6.5
-43.0,5.411884219660542,0.8125
-43.0,5.442563835418255,0.0
-43.0,5.45483568172134,-0.8125
-43.0,5.473243451175968,-0.8125
-43.0,5.516194913236766,-5.6875
-43.0,5.522330836388308,-2.4375
-43.5,5.516194913236766,2.4375
-43.5,5.5284667595398505,0.8125
-43.5,5.553010452146021,-1.625
-43.5,5.540738605842936,2.4375
-43.5,5.589825991055276,-0.8125
-43.5,5.632777453116074,-5.6875
-43.5,5.6143696836614465,2.4375
-43.0,5.681864838328415,-0.8125
-43.0,5.681864838328415,-1.625
-43.0,5.66959299202533,0.8125
-43.0,5.712544454086128,-4.875
-42.5,5.712544454086128,1.625
-42.5,5.730952223540755,3.25
-42.5,5.755495916146925,1.625
-42.5,5.792311455056181,0.0
-42.5,5.792311455056181,4.875
-42.0,5.8475347634200645,-2.4375
-42.0,5.816855147662351,5.6875
-42.0,5.8475347634200645,4.875
-41.5,5.841398840268521,5.6875
-42.0,5.872078456026235,1.625
-42.0,5.872078456026235,2.4375
-42.0,5.8659425328746915,4.875
-41.5,5.927301764390117,-1.625
-41.0,5.945709533844745,0.8125
-40.5,6.025476534814799,4.875
-40.5,6.050020227420969,4.875
-40.0,6.117515382087937,5.6875
-39.5,6.17273869045182,1.625
-39.5,6.22182607566416,1.625
-39.0,0.01227184630308513,2.4375
-38.5,0.030679615757712823,2.4375
-38.5,0.0674951546669682,2.4375
-38.0,0.11658253987930872,0.8125
-37.5,0.14726215563702155,2.4375
-37.5,0.20248546400090464,4.875
-37.5,0.25157284921324513,4.875
-37.0,0.28225246497095796,2.4375
-37.0,0.30066023442558565,2.4375
-37.0,0.28225246497095796,6.5
-38.0,0.3129320807286708,4.875
-38.5,0.3190680038802134,1.625
-39.0,0.32520392703175593,4.875
-39.5,0.37429131224409645,0.0
-40.0,0.3620194659410113,4.875
-40.0,0.3436116964863836,3.25
-40.5,0.2945243112740431,1.625
-40.5,0.25157284921324513,4.875
-41.0,0.23316507975861744,5.6875
-41.0,0.20248546400090464,4.875
-41.0,0.18407769454627693,4.875
-41.5,0.1595340019401067,1.625
-41.5,0.11658253987930872,7.3125
-41.5,0.11658253987930872,5.6875
-41.5,0.1595340019401067,-3.25
-41.0,0.1349903093339364,3.25
-40.5,0.1595340019401067,5.6875
-40.0,0.20248546400090464,4.875
-39.5,0.25770877236478773,7.3125
-39.5,0.28838838812250056,5.6875
-39.5,0.4172427743048944,0.8125
-39.5,0.44178646691106466,3.25
-38.5,0.4540583132141498,6.5
-38.0,0.3988350048502667,0.8125
-37.5,0.3313398501832985,2.4375
-37.5,0.28838838812250056,1.625
-37.5,0.28225246497095796,0.8125
-37.5,0.17794177139473438,4.875
-37.5,0.1349903093339364,1.625
-37.5,0.06135923151542565,4.875
-38.0,0.03681553890925539,2.4375
-38.0,6.258641614573416,6.5
-38.0,6.258641614573416,0.0
-38.0,6.2463697682703305,-1.625
-38.0,6.215690152512618,1.625
