-33.0,4.816699673960914,-6.5
-33.0,4.798291904506286,-4.875
-33.0,4.798291904506286,0.0
-33.0,4.767612288748572,1.625
-33.0,4.81056375080937,-4.0625
-33.0,4.767612288748572,2.4375
-33.0,4.76147636559703,1.625
-33.0,4.81056375080937,-4.0625
-33.0,4.773748211900116,4.0625
-33.0,4.7860200582032,-0.8125
-33.0,4.792155981354743,0.0
-33.0,4.773748211900116,4.875
-33.0,4.7860200582032,-0.8125
-33.0,4.792155981354743,0.8125
-33.0,4.792155981354743,-1.625
-33.0,4.792155981354743,-0.8125
-33.0,4.779884135051658,4.0625
-33.0,4.792155981354743,0.8125
-33.0,4.792155981354743,4.0625
-33.5,4.822835597112456,-4.875
-33.0,4.7860200582032,4.875
-33.0,4.779884135051658,2.4375
-33.0,4.7860200582032,4.875
-33.0,4.798291904506286,1.625
-33.0,4.798291904506286,2.4375
-33.0,4.804427827657828,0.8125
-33.0,4.841243366567084,-4.875
-33.0,4.816699673960914,-0.8125
-33.0,4.816699673960914,0.0
-33.0,4.816699673960914,0.8125
-33.0,4.828971520263998,-0.8125
-33.0,4.816699673960914,4.0625
-33.0,4.847379289718626,-2.4375
-33.0,4.822835597112456,0.0
-33.0,4.865787059173254,-4.875
-32.5,4.865787059173254,-5.6875
-33.0,4.822835597112456,2.4375
-33.0,4.878058905476339,-6.5
-33.0,4.871922982324796,-4.875
-33.0,4.841243366567084,0.0
-32.5,4.828971520263998,4.0625
-32.5,4.822835597112456,4.875
-33.0,4.828971520263998,4.875
-33.0,4.828971520263998,4.0625
-33.0,4.884194828627882,-5.6875
-32.5,4.871922982324796,-5.6875
-33.0,4.884194828627882,-5.6875
-32.5,4.853515212870168,-0.8125
-33.0,4.859651136021712,-2.4375
-33.0,4.8351074434155406,4.0625
-32.5,4.816699673960914,5.6875
-33.0,4.884194828627882,-6.5
-33.0,4.847379289718626,0.8125
-33.0,4.828971520263998,4.0625
-33.0,4.878058905476339,-4.875
-33.0,4.853515212870168,0.8125
-33.0,4.890330751779424,-6.5
-33.0,4.8351074434155406,2.4375
-33.0,4.890330751779424,-6.5
-33.0,4.841243366567084,2.4375
-33.0,4.847379289718626,1.625
-33.0,4.828971520263998,1.625
-33.0,4.878058905476339,-4.0625
-33.0,4.853515212870168,0.8125
-33.0,4.865787059173254,-1.625
-33.0,4.841243366567084,0.8125
-33.0,4.871922982324796,-5.6875
-33.0,4.865787059173254,-4.875
-33.0,4.8351074434155406,2.4375
-33.0,4.828971520263998,0.8125
-33.0,4.8351074434155406,0.8125
-33.0,4.847379289718626,-0.8125
-33.0,4.853515212870168,-4.0625
-33.0,4.828971520263998,1.625
-33.0,4.841243366567084,-1.625
-33.0,4.804427827657828,5.6875
-33.0,4.816699673960914,0.8125
-33.0,4.841243366567084,-1.625
-33.0,4.804427827657828,4.875
-33.0,4.871922982324796,-8.125
-33.0,4.828971520263998,-0.8125
-33.0,4.816699673960914,4.0625
-33.0,4.804427827657828,4.875
-33.0,4.8351074434155406,-1.625
-33.0,4.792155981354743,5.6875
-33.0,4.828971520263998,-4.875
-33.0,4.816699673960914,1.625
-33.0,4.804427827657828,2.4375
-33.0,4.81056375080937,-0.8125
-33.0,4.804427827657828,0.8125
-33.0,4.792155981354743,2.4375
-33.0,4.822835597112456,-4.875
-33.0,4.792155981354743,1.625
-33.5,4.773748211900116,6.5
-33.0,4.7860200582032,4.875
-33.0,4.828971520263998,-6.5
-33.0,4.7860200582032,0.0
-33.5,4.7860200582032,1.625
-33.0,4.822835597112456,-5.6875
-33.0,4.76147636559703,4.875
-33.0,4.755340442445488,4.875
-33.0,4.7860200582032,-1.625
-33.5,4.767612288748572,2.4375
-33.0,4.7860200582032,-0.8125
-33.5,4.767612288748572,0.8125
-33.0,4.767612288748572,0.0
-33.5,4.798291904506286,-2.4375
-33.5,4.773748211900116,1.625
-33.0,4.7860200582032,0.8125
-33.5,4.755340442445488,4.875
-33.5,4.773748211900116,0.0
-33.5,4.773748211900116,0.8125
-33.5,4.773748211900116,0.0
-33.0,4.798291904506286,-4.0625
-33.5,4.779884135051658,0.0
-33.5,4.804427827657828,-4.0625
-33.5,4.804427827657828,-5.6875
-33.5,4.81056375080937,-5.6875
-33.5,4.81056375080937,-4.875
-33.5,4.749204519293945,5.6875
-33.5,4.7860200582032,-0.8125
-33.5,4.743068596142402,6.5
-33.5,4.76147636559703,2.4375
-33.5,4.773748211900116,-0.8125
-33.5,4.749204519293945,6.5
-33.5,4.792155981354743,-2.4375
-33.5,4.767612288748572,4.0625
-33.5,4.804427827657828,-4.0625
-33.5,4.773748211900116,-0.8125
-33.5,4.779884135051658,1.625
-33.5,4.816699673960914,-5.6875
-33.5,4.779884135051658,0.8125
-33.5,4.773748211900116,0.8125
-33.5,4.779884135051658,0.8125
-33.5,4.81056375080937,-4.875
-34.0,4.7860200582032,0.0
-33.5,4.76147636559703,5.6875
-33.5,4.773748211900116,0.0
-33.5,4.816699673960914,-5.6875
-33.5,4.773748211900116,2.4375
-33.5,4.81056375080937,-4.0625
-33.5,4.792155981354743,-0.8125
-33.5,4.767612288748572,4.0625
-34.0,4.773748211900116,4.0625
-34.0,4.792155981354743,-1.625
-33.5,4.7860200582032,-0.8125
-33.5,4.773748211900116,1.625
-34.0,4.773748211900116,1.625
-34.0,4.779884135051658,1.625
-33.5,4.804427827657828,-4.875
-33.5,4.767612288748572,2.4375
-33.5,4.749204519293945,6.5
-33.5,4.81056375080937,-2.4375
-33.5,4.81056375080937,-5.6875
-33.5,4.767612288748572,2.4375
-33.5,4.792155981354743,0.0
-33.5,4.822835597112456,-4.0625
-34.0,4.767612288748572,6.5
-33.5,4.828971520263998,-4.0625
-34.0,4.7860200582032,5.6875
-33.5,4.816699673960914,-4.0625
-33.5,4.798291904506286,0.0
-33.5,4.792155981354743,5.6875
-33.5,4.798291904506286,1.625
-33.5,4.798291904506286,0.8125
-33.5,4.7860200582032,4.875
-33.5,4.7860200582032,4.875
-34.0,4.7860200582032,5.6875
-33.5,4.767612288748572,8.125
-33.5,4.816699673960914,-0.8125
-33.5,4.828971520263998,-4.875
-34.0,4.773748211900116,5.6875
-33.5,4.841243366567084,-6.5
-34.0,4.792155981354743,4.0625
-34.0,4.853515212870168,-6.5
-34.0,4.816699673960914,0.0
-34.0,4.798291904506286,1.625
-33.5,4.773748211900116,6.5
-34.0,4.853515212870168,-7.3125
-34.0,4.81056375080937,1.625
-34.0,4.798291904506286,2.4375
-34.0,4.847379289718626,-4.875
-33.5,4.8351074434155406,-4.0625
-33.5,4.7860200582032,2.4375
-33.5,4.8351074434155406,-4.875
-33.5,4.81056375080937,0.8125
-34.0,4.816699673960914,0.0
-33.5,4.853515212870168,-5.6875
-33.5,4.828971520263998,-0.8125
-33.5,4.798291904506286,5.6875
-33.5,4.81056375080937,4.875
-34.0,4.798291904506286,7.3125
-33.5,4.822835597112456,0.8125
-33.5,4.81056375080937,4.875
-34.0,4.804427827657828,6.5
-34.0,4.822835597112456,0.8125
-33.5,4.798291904506286,7.3125
-33.5,4.822835597112456,1.625
-33.5,4.816699673960914,1.625
-33.5,4.841243366567084,0.0
-34.0,4.865787059173254,-4.875
-34.0,4.859651136021712,-4.0625
-34.0,4.847379289718626,0.0
-33.5,4.884194828627882,-8.125
-34.0,4.822835597112456,4.875
-34.0,4.828971520263998,2.4375
-34.0,4.871922982324796,-4.875
-33.5,4.865787059173254,-4.0625
-34.0,4.859651136021712,0.0
-33.5,4.878058905476339,-4.0625
-33.5,4.896466674930966,-6.5
-33.5,4.841243366567084,2.4375
-33.5,4.871922982324796,-2.4375
-33.5,4.847379289718626,2.4375
-34.0,4.878058905476339,-1.625
-33.5,4.8351074434155406,7.3125
-33.5,4.865787059173254,1.625
-33.5,4.871922982324796,1.625
-33.5,4.884194828627882,-0.8125
-33.5,4.896466674930966,-2.4375
-33.5,4.896466674930966,-2.4375
-33.5,4.878058905476339,0.8125
-33.5,4.878058905476339,4.875
-33.5,4.871922982324796,4.0625
-33.5,4.890330751779424,0.0
-33.5,4.902602598082509,-0.8125
-33.5,4.859651136021712,7.3125
-33.5,4.914874444385594,-2.4375
-33.5,4.865787059173254,5.6875
-33.5,4.914874444385594,-0.8125
-33.5,4.890330751779424,4.0625
-33.5,4.92714629068868,-4.0625
-33.5,4.92714629068868,-0.8125
-33.5,4.902602598082509,2.4375
-33.5,4.902602598082509,6.5
-33.5,4.95168998329485,-4.0625
-33.5,4.921010367537137,0.0
-33.0,4.914874444385594,4.0625
-33.5,4.92714629068868,0.0
-33.0,4.933282213840222,0.8125
-33.5,4.933282213840222,1.625
-33.0,4.921010367537137,2.4375
-33.0,4.970097752749477,-4.875
-33.0,4.92714629068868,5.6875
-33.0,4.945554060143307,0.8125
-33.0,4.92714629068868,5.6875
-33.0,4.97623367590102,-4.0625
-33.0,4.994641445355648,-5.6875
-33.0,4.97623367590102,0.0
-33.0,4.994641445355648,-4.875
-33.0,4.95168998329485,4.0625
-33.0,4.933282213840222,8.125
-33.0,4.957825906446392,2.4375
-33.0,4.97623367590102,0.8125
-33.0,4.9823695990525625,-1.625
-33.0,4.963961829597935,2.4375
-33.0,4.963961829597935,4.875
-33.0,4.9823695990525625,0.8125
-33.0,4.957825906446392,4.875
-33.0,4.994641445355648,-0.8125
-33.0,4.963961829597935,6.5
-32.5,5.00077736850719,-1.625
-32.5,5.00077736850719,-1.625
-32.5,5.006913291658733,-0.8125
-32.5,5.013049214810275,-2.4375
-32.5,5.006913291658733,-0.8125
-32.5,4.988505522204105,4.0625
-32.5,4.97623367590102,5.6875
-32.5,4.988505522204105,4.0625
-32.5,5.006913291658733,0.8125
-32.5,5.0253210611133605,-1.625
-32.5,5.006913291658733,1.625
-32.5,5.0253210611133605,-0.8125
-32.0,5.037592907416445,-4.875
-32.0,5.019185137961818,0.8125
-32.0,5.00077736850719,2.4375
-32.0,5.037592907416445,-1.625
-32.0,5.031456984264903,-0.8125
-32.0,5.00077736850719,5.6875
-32.0,5.043728830567988,-4.0625
-32.0,5.019185137961818,1.625
-32.0,5.019185137961818,4.0625
-31.5,5.0253210611133605,0.8125
-31.5,5.056000676871073,-0.8125
-32.0,5.013049214810275,4.0625
-31.5,5.019185137961818,7.3125
-31.5,5.037592907416445,0.8125
-31.5,5.019185137961818,6.5
-31.5,5.037592907416445,0.8125
-31.5,5.031456984264903,0.8125
-31.5,5.049864753719531,1.625
-31.5,5.031456984264903,4.0625
-31.5,5.043728830567988,0.0
-31.5,5.056000676871073,0.0
-31.5,5.049864753719531,1.625
-31.5,5.0682725231741586,1.625
-31.0,5.092816215780329,-5.6875
-31.0,5.049864753719531,4.875
-31.0,5.056000676871073,1.625
-31.0,5.092816215780329,-5.6875
-31.0,5.037592907416445,7.3125
-31.0,5.037592907416445,7.3125
-31.0,5.037592907416445,4.0625
-31.0,5.080544369477243,0.0
-31.0,5.043728830567988,5.6875
-31.0,5.056000676871073,4.875
-31.0,5.056000676871073,4.0625
-31.0,5.062136600022616,4.875
-31.0,5.074408446325701,4.0625
-31.0,5.111223985234957,-6.5
-30.5,5.062136600022616,2.4375
-31.0,5.062136600022616,4.0625
-30.5,5.0682725231741586,4.0625
-30.5,5.062136600022616,4.0625
-30.5,5.0682725231741586,4.875
-30.5,5.086680292628786,2.4375
-30.5,5.086680292628786,1.625
-30.5,5.086680292628786,1.625
-30.5,5.111223985234957,0.0
-30.5,5.098952138931871,0.0
-30.5,5.117359908386499,-2.4375
-30.5,5.135767677841127,-4.875
-30.5,5.117359908386499,-2.4375
-30.0,5.123495831538041,-1.625
-30.0,5.117359908386499,-1.625
-30.5,5.123495831538041,-2.4375
-30.5,5.105088062083414,1.625
-30.0,5.117359908386499,0.8125
-30.0,5.092816215780329,4.0625
-30.0,5.086680292628786,6.5
-30.0,5.098952138931871,4.875
-30.0,5.098952138931871,4.875
-30.0,5.092816215780329,6.5
-30.0,5.098952138931871,4.0625
-30.0,5.092816215780329,5.6875
-30.0,5.105088062083414,4.875
-29.5,5.111223985234957,4.875
-29.5,5.135767677841127,1.625
-30.0,5.141903600992669,0.0
-29.5,5.141903600992669,0.0
-29.5,5.117359908386499,4.0625
-29.5,5.117359908386499,6.5
-29.5,5.141903600992669,-0.8125
-29.5,5.141903600992669,0.8125
-29.5,5.135767677841127,1.625
-29.5,5.117359908386499,5.6875
-29.5,5.141903600992669,0.8125
-29.5,5.123495831538041,4.0625
-29.0,5.117359908386499,6.5
-29.5,5.123495831538041,2.4375
-29.5,5.166447293598839,-2.4375
-29.5,5.166447293598839,-4.0625
-29.0,5.123495831538041,2.4375
-29.0,5.123495831538041,0.8125
-29.0,5.129631754689584,4.0625
-29.0,5.154175447295755,-0.8125
-29.0,5.154175447295755,-1.625
-29.0,5.123495831538041,5.6875
-29.0,5.141903600992669,0.0
-29.0,5.105088062083414,4.875
-29.0,5.098952138931871,4.875
-29.0,5.105088062083414,4.0625
-29.0,5.111223985234957,4.875
-29.0,5.098952138931871,4.875
-29.0,5.111223985234957,4.875
-29.0,5.111223985234957,4.0625
-29.0,5.129631754689584,-1.625
-29.0,5.129631754689584,-2.4375
-29.0,5.098952138931871,5.6875
-29.0,5.092816215780329,6.5
-28.5,5.086680292628786,4.875
-29.0,5.092816215780329,2.4375
-28.5,5.105088062083414,0.0
-29.0,5.092816215780329,6.5
-29.0,5.123495831538041,-2.4375
-28.5,5.111223985234957,-0.8125
-29.0,5.105088062083414,2.4375
-29.0,5.080544369477243,4.875
-29.0,5.086680292628786,4.0625
-28.5,5.111223985234957,-0.8125
-28.5,5.092816215780329,1.625
-28.5,5.086680292628786,5.6875
-28.5,5.080544369477243,4.875
-28.5,5.111223985234957,0.0
-29.0,5.086680292628786,0.8125
-28.5,5.074408446325701,6.5
-28.5,5.105088062083414,-0.8125
-28.5,5.098952138931871,0.0
-28.5,5.074408446325701,6.5
-28.5,5.086680292628786,1.625
-28.5,5.074408446325701,6.5
-28.5,5.092816215780329,5.6875
-28.5,5.092816215780329,2.4375
-28.5,5.080544369477243,4.875
-28.5,5.086680292628786,2.4375
-28.5,5.105088062083414,1.625
-28.5,5.092816215780329,4.875
-28.5,5.080544369477243,5.6875
-28.5,5.074408446325701,6.5
-28.5,5.117359908386499,-0.8125
-28.5,5.111223985234957,0.0
-28.5,5.111223985234957,-0.8125
-28.5,5.117359908386499,0.0
-28.5,5.086680292628786,5.6875
-28.5,5.111223985234957,-0.8125
-29.0,5.111223985234957,-0.8125
-28.5,5.080544369477243,2.4375
-28.5,5.098952138931871,1.625
-28.5,5.098952138931871,4.0625
-28.5,5.092816215780329,5.6875
-28.5,5.092816215780329,5.6875
-28.5,5.098952138931871,2.4375
-28.5,5.098952138931871,2.4375
-28.5,5.092816215780329,4.875
-28.5,5.117359908386499,1.625
-28.5,5.092816215780329,4.875
-28.5,5.098952138931871,4.875
-28.5,5.105088062083414,4.875
-28.5,5.098952138931871,5.6875
-28.5,5.098952138931871,4.875
-28.5,5.105088062083414,4.875
-28.5,5.105088062083414,4.0625
-28.5,5.117359908386499,-0.8125
-28.5,5.086680292628786,7.3125
-28.5,5.086680292628786,6.5
-28.5,5.086680292628786,5.6875
-28.5,5.105088062083414,1.625
-28.5,5.080544369477243,7.3125
-28.5,5.080544369477243,6.5
-28.5,5.098952138931871,2.4375
-28.5,5.086680292628786,4.875
-28.5,5.074408446325701,6.5
-28.5,5.141903600992669,-4.0625
-28.5,5.092816215780329,4.875
-28.5,5.098952138931871,2.4375
-28.5,5.098952138931871,2.4375
-28.5,5.086680292628786,6.5
-28.5,5.086680292628786,6.5
-28.5,5.092816215780329,4.0625
-28.5,5.074408446325701,6.5
-28.5,5.111223985234957,0.8125
-28.5,5.098952138931871,4.0625
-28.5,5.092816215780329,2.4375
-28.5,5.074408446325701,8.125
-28.5,5.092816215780329,5.6875
-28.5,5.111223985234957,0.8125
-28.0,5.086680292628786,4.875
-28.5,5.074408446325701,7.3125
-28.5,5.117359908386499,0.0
-28.5,5.129631754689584,0.0
-28.5,5.123495831538041,0.0
-28.5,5.129631754689584,-1.625
-28.5,5.098952138931871,4.0625
-28.5,5.080544369477243,7.3125
-28.5,5.092816215780329,5.6875
-28.5,5.092816215780329,6.5
-28.5,5.129631754689584,-1.625
-28.5,5.117359908386499,2.4375
-28.5,5.117359908386499,1.625
-28.5,5.092816215780329,6.5
-28.5,5.117359908386499,4.0625
-28.5,5.129631754689584,1.625
-28.5,5.105088062083414,5.6875
-28.5,5.105088062083414,5.6875
-28.5,5.129631754689584,0.0
-28.5,5.098952138931871,8.125
-28.5,5.135767677841127,-0.8125
-28.5,5.098952138931871,6.5
-28.5,5.135767677841127,-1.625
-28.5,5.117359908386499,4.875
-28.5,5.111223985234957,5.6875
-28.5,5.148039524144211,-1.625
-28.5,5.098952138931871,4.875
-28.5,5.135767677841127,-0.8125
-28.5,5.111223985234957,2.4375
-28.5,5.117359908386499,0.8125
-28.5,5.080544369477243,6.5
-28.5,5.105088062083414,4.0625
-28.5,5.105088062083414,2.4375
-28.5,5.111223985234957,2.4375
-28.5,5.135767677841127,-4.0625
-28.5,5.098952138931871,2.4375
-28.5,5.092816215780329,4.875
-28.5,5.098952138931871,1.625
-28.5,5.092816215780329,4.0625
-28.5,5.098952138931871,4.0625
-28.5,5.092816215780329,4.0625
-28.5,5.0682725231741586,5.6875
-28.5,5.074408446325701,5.6875
-28.5,5.074408446325701,7.3125
-28.5,5.086680292628786,4.0625
-28.5,5.111223985234957,-0.8125
-28.5,5.092816215780329,0.8125
-28.5,5.0682725231741586,8.125
-28.5,5.092816215780329,2.4375
-28.5,5.105088062083414,-1.625
-28.5,5.092816215780329,0.8125
-28.5,5.092816215780329,0.0
-28.0,5.080544369477243,4.875
-28.5,5.074408446325701,5.6875
-28.5,5.074408446325701,7.3125
-28.5,5.105088062083414,0.0
-28.5,5.105088062083414,-0.8125
-28.5,5.086680292628786,4.0625
-28.5,5.105088062083414,0.8125
-28.5,5.098952138931871,4.0625
-28.5,5.111223985234957,2.4375
-28.5,5.111223985234957,0.0
-28.5,5.098952138931871,4.0625
-28.5,5.086680292628786,6.5
-28.5,5.092816215780329,2.4375
-28.5,5.111223985234957,0.0
-28.5,5.105088062083414,0.0
-28.5,5.098952138931871,1.625
-28.5,5.111223985234957,1.625
-28.5,5.123495831538041,0.0
-28.5,5.092816215780329,4.0625
-28.5,5.105088062083414,2.4375
-28.5,5.117359908386499,0.8125
-28.5,5.086680292628786,5.6875
-28.5,5.092816215780329,2.4375
-28.5,5.117359908386499,1.625
-28.5,5.111223985234957,0.8125
-28.5,5.092816215780329,8.9375
-28.5,5.092816215780329,5.6875
-28.5,5.105088062083414,1.625
-28.5,5.111223985234957,6.5
-28.5,5.086680292628786,6.5
-28.5,5.098952138931871,4.0625
-28.5,5.117359908386499,0.8125
-28.5,5.092816215780329,5.6875
-28.5,5.117359908386499,0.0
-28.5,5.098952138931871,4.0625
-28.5,5.117359908386499,0.8125
-28.5,5.098952138931871,6.5
-28.5,5.117359908386499,2.4375
-28.5,5.086680292628786,5.6875
-28.5,5.092816215780329,4.875
-28.5,5.098952138931871,5.6875
-28.5,5.129631754689584,0.0
-28.5,5.092816215780329,5.6875
-28.5,5.111223985234957,4.875
-28.5,5.129631754689584,-1.625
-28.5,5.117359908386499,0.0
-28.5,5.117359908386499,0.0
-28.5,5.105088062083414,1.625
-28.5,5.098952138931871,4.875
-28.5,5.117359908386499,0.8125
-28.5,5.105088062083414,2.4375
-28.5,5.123495831538041,-0.8125
-28.5,5.111223985234957,1.625
-28.5,5.123495831538041,0.0
-28.5,5.105088062083414,4.0625
-28.5,5.111223985234957,1.625
-28.5,5.111223985234957,4.0625
-28.5,5.123495831538041,0.0
-28.5,5.098952138931871,4.0625
-28.5,5.123495831538041,0.8125
-28.5,5.141903600992669,-2.4375
-28.5,5.111223985234957,2.4375
-28.5,5.135767677841127,-1.625
-28.5,5.098952138931871,4.0625
-28.5,5.111223985234957,2.4375
-28.5,5.092816215780329,4.0625
-28.5,5.098952138931871,4.875
-28.5,5.086680292628786,6.5
-28.5,5.111223985234957,2.4375
-28.5,5.092816215780329,4.875
-28.5,5.129631754689584,-0.8125
-28.5,5.086680292628786,5.6875
-28.5,5.129631754689584,-2.4375
-28.5,5.111223985234957,0.0
-28.5,5.117359908386499,-0.8125
-28.5,5.105088062083414,2.4375
-28.5,5.098952138931871,4.875
-28.5,5.111223985234957,4.0625
-28.5,5.111223985234957,1.625
-28.5,5.111223985234957,4.0625
-28.5,5.105088062083414,2.4375
-28.5,5.129631754689584,0.0
-28.5,5.105088062083414,0.8125
-28.5,5.092816215780329,5.6875
-28.5,5.086680292628786,4.875
-28.5,5.105088062083414,4.0625
-28.5,5.111223985234957,4.0625
-28.5,5.098952138931871,5.6875
-28.5,5.135767677841127,-1.625
-28.5,5.086680292628786,4.875
-28.5,5.105088062083414,1.625
-28.5,5.148039524144211,-2.4375
-28.5,5.141903600992669,-2.4375
-28.5,5.092816215780329,5.6875
-28.5,5.111223985234957,0.8125
-28.5,5.098952138931871,5.6875
-28.5,5.092816215780329,5.6875
-28.5,5.098952138931871,2.4375
-28.5,5.086680292628786,5.6875
-28.5,5.105088062083414,0.8125
-28.5,5.092816215780329,4.0625
-28.5,5.111223985234957,-0.8125
-28.5,5.086680292628786,2.4375
-28.5,5.092816215780329,2.4375
-28.5,5.086680292628786,2.4375
-28.5,5.086680292628786,4.0625
-28.5,5.105088062083414,-2.4375
-28.5,5.086680292628786,2.4375
-28.5,5.092816215780329,1.625
-28.5,5.105088062083414,-0.8125
-28.5,5.117359908386499,-1.625
-28.5,5.111223985234957,-2.4375
