-31.0,4.921010367537137,4.875
-31.0,4.914874444385594,4.875
-30.5,4.963961829597935,-2.4375
-31.0,4.933282213840222,2.4375
-31.0,4.921010367537137,4.875
-31.0,4.92714629068868,2.4375
-31.0,4.945554060143307,0.0
-30.5,4.970097752749477,-2.4375
-31.0,4.95168998329485,-1.625
-30.5,4.9394181369917645,5.6875
-30.5,4.9394181369917645,0.8125
-31.0,4.921010367537137,4.875
-30.5,4.9394181369917645,2.4375
-31.0,4.933282213840222,4.0625
-31.0,4.921010367537137,2.4375
-30.5,4.921010367537137,5.6875
-31.0,4.957825906446392,-1.625
-30.5,4.933282213840222,4.875
-30.5,4.921010367537137,4.0625
-31.0,4.9823695990525625,-4.0625
-30.5,4.914874444385594,4.875
-30.5,4.92714629068868,4.0625
-30.5,4.908738521234052,8.125
-30.5,4.92714629068868,4.0625
-31.0,4.957825906446392,-0.8125
-30.5,4.92714629068868,6.5
-30.5,4.933282213840222,1.625
-30.5,4.921010367537137,5.6875
-31.0,4.92714629068868,2.4375
-31.0,4.963961829597935,-2.4375
-30.5,4.92714629068868,4.0625
-31.0,4.95168998329485,0.0
-30.5,4.92714629068868,4.875
-31.0,4.9823695990525625,-4.875
-31.0,4.92714629068868,5.6875
-31.0,4.945554060143307,-0.8125
-31.0,4.970097752749477,-4.0625
-31.0,4.933282213840222,4.0625
-31.0,4.97623367590102,-4.0625
-31.0,4.970097752749477,-4.875
-31.0,4.9394181369917645,1.625
-30.5,4.957825906446392,-0.8125
-31.0,4.963961829597935,-2.4375
-31.0,4.902602598082509,7.3125
-31.0,4.92714629068868,4.0625
-30.5,4.957825906446392,-1.625
-31.0,4.9394181369917645,1.625
-31.0,4.963961829597935,-4.0625
-31.0,4.95168998329485,-1.625
-30.5,4.92714629068868,5.6875
-30.5,4.970097752749477,-5.6875
-31.0,4.902602598082509,8.125
-31.0,4.92714629068868,1.625
-31.0,4.970097752749477,-2.4375
-31.0,4.963961829597935,-2.4375
-31.0,4.933282213840222,2.4375
-30.5,4.9823695990525625,-4.875
-31.0,4.921010367537137,5.6875
-31.0,4.933282213840222,0.8125
-31.0,4.95168998329485,-0.8125
-31.0,4.97623367590102,-2.4375
-30.5,4.95168998329485,0.0
-31.0,4.9394181369917645,4.875
-31.0,4.933282213840222,1.625
-31.0,4.921010367537137,5.6875
-31.0,4.957825906446392,-2.4375
-31.0,4.945554060143307,-0.8125
-31.0,4.95168998329485,0.0
-31.0,4.933282213840222,5.6875
-31.0,4.9394181369917645,1.625
-30.5,4.970097752749477,-2.4375
-31.0,4.97623367590102,-4.0625
-31.0,5.00077736850719,-7.3125
-31.0,4.945554060143307,0.8125
-31.0,4.95168998329485,0.8125
-31.0,4.945554060143307,0.8125
-31.0,4.9394181369917645,4.875
-31.0,4.9394181369917645,5.6875
-31.0,4.9394181369917645,0.8125
-31.0,4.97623367590102,-2.4375
-31.0,4.9394181369917645,4.0625
-31.0,4.9394181369917645,1.625
-31.0,4.988505522204105,-4.875
-31.0,4.994641445355648,-7.3125
-31.0,4.945554060143307,0.8125
-30.5,4.92714629068868,4.875
-31.0,4.9394181369917645,0.8125
-31.0,4.914874444385594,7.3125
-31.0,4.970097752749477,-4.875
-31.0,4.9394181369917645,4.0625
-31.0,4.945554060143307,1.625
-31.0,4.97623367590102,-4.875
-31.0,4.945554060143307,0.8125
-31.0,4.9394181369917645,0.8125
-31.0,4.945554060143307,0.0
-31.0,4.95168998329485,-1.625
-31.0,4.9394181369917645,1.625
-31.0,4.95168998329485,0.8125
-31.0,4.95168998329485,0.0
-31.0,4.945554060143307,1.625
-30.5,4.933282213840222,2.4375
-31.0,4.945554060143307,1.625
-31.0,4.945554060143307,0.8125
-31.0,4.933282213840222,2.4375
-31.0,4.945554060143307,2.4375
-31.0,4.963961829597935,0.0
-31.0,4.945554060143307,0.8125
-31.0,4.95168998329485,0.0
-31.0,4.92714629068868,4.875
-31.0,4.92714629068868,6.5
-31.0,4.9394181369917645,0.8125
-31.0,4.9823695990525625,-4.875
-31.0,4.95168998329485,-0.8125
-31.0,4.9823695990525625,-2.4375
-31.0,4.945554060143307,2.4375
-31.0,4.9394181369917645,0.8125
-31.0,4.9823695990525625,-4.875
-31.0,4.914874444385594,6.5
-31.0,4.933282213840222,4.0625
-31.0,4.933282213840222,2.4375
-31.0,4.970097752749477,-4.875
-31.0,4.994641445355648,-7.3125
-31.0,4.970097752749477,-2.4375
-31.0,4.95168998329485,-0.8125
-31.0,4.957825906446392,-1.625
-31.0,4.914874444385594,5.6875
-31.0,4.9394181369917645,0.8125
-31.0,4.933282213840222,4.875
-31.0,4.933282213840222,1.625
-31.0,4.92714629068868,1.625
-31.0,4.92714629068868,2.4375
-31.0,4.908738521234052,7.3125
-30.5,4.970097752749477,-4.875
-31.0,4.921010367537137,1.625
-31.0,4.957825906446392,-4.875
-31.0,4.9394181369917645,0.0
-31.0,4.945554060143307,-2.4375
-31.0,4.963961829597935,-4.875
-31.0,4.908738521234052,6.5
-31.0,4.95168998329485,-2.4375
-31.0,4.963961829597935,-6.5
-31.0,4.957825906446392,-4.875
-31.0,4.933282213840222,-0.8125
-31.0,4.902602598082509,8.9375
-31.0,4.9394181369917645,-0.8125
-31.0,4.902602598082509,5.6875
-31.0,4.945554060143307,-0.8125
-31.0,4.896466674930966,7.3125
-31.0,4.957825906446392,-6.5
-31.0,4.908738521234052,4.0625
-31.0,4.914874444385594,2.4375
-31.0,4.921010367537137,0.8125
-31.0,4.945554060143307,-1.625
-31.0,4.963961829597935,-6.5
-31.0,4.963961829597935,-4.875
-31.0,4.914874444385594,1.625
-30.5,4.933282213840222,0.8125
-31.0,4.914874444385594,4.0625
-31.0,4.921010367537137,4.0625
-31.0,4.914874444385594,4.0625
-31.0,4.921010367537137,2.4375
-31.0,4.945554060143307,-1.625
-31.0,4.97623367590102,-6.5
-31.0,4.921010367537137,4.0625
-31.0,4.933282213840222,2.4375
-31.0,4.92714629068868,1.625
-31.0,4.914874444385594,7.3125
-31.0,4.97623367590102,-4.875
-31.0,4.921010367537137,4.875
-31.0,4.933282213840222,1.625
-31.0,4.9394181369917645,0.8125
-31.0,4.92714629068868,2.4375
-31.0,4.963961829597935,-2.4375
-31.0,4.95168998329485,0.8125
-31.0,4.92714629068868,4.875
-31.0,4.933282213840222,2.4375
-31.0,4.9394181369917645,0.8125
-31.0,4.957825906446392,0.0
-31.0,4.921010367537137,6.5
-31.0,4.963961829597935,1.625
-31.0,4.9823695990525625,-4.875
-31.0,4.970097752749477,-0.8125
-31.0,4.9394181369917645,5.6875
-31.0,4.97623367590102,0.0
-31.0,4.9394181369917645,4.875
-31.0,4.945554060143307,6.5
-31.0,4.95168998329485,2.4375
-31.0,4.945554060143307,2.4375
-31.0,4.95168998329485,4.0625
-31.0,4.957825906446392,4.875
-31.0,4.97623367590102,-0.8125
-31.0,4.963961829597935,2.4375
-31.0,4.957825906446392,4.0625
-31.0,4.963961829597935,1.625
-31.0,4.994641445355648,-0.8125
-31.0,4.97623367590102,2.4375
-31.0,5.006913291658733,-5.6875
-31.5,4.970097752749477,4.0625
-31.0,4.988505522204105,-1.625
-31.5,5.00077736850719,-0.8125
-31.0,4.994641445355648,-0.8125
-31.0,5.013049214810275,-4.875
-31.0,4.97623367590102,1.625
-31.0,4.957825906446392,6.5
-31.5,5.006913291658733,-2.4375
-31.0,5.013049214810275,-4.875
-31.0,5.006913291658733,-2.4375
-31.0,5.013049214810275,-4.875
-31.5,4.9823695990525625,2.4375
-31.5,4.9823695990525625,1.625
-31.5,4.97623367590102,4.0625
-31.5,4.994641445355648,1.625
-31.5,5.00077736850719,-1.625
-31.0,4.9823695990525625,0.8125
-31.5,4.970097752749477,5.6875
-31.5,5.0253210611133605,-7.3125
-31.5,4.97623367590102,4.875
-31.5,4.970097752749477,1.625
-31.5,4.9823695990525625,1.625
-31.5,4.963961829597935,6.5
-31.5,4.97623367590102,0.0
-31.5,4.970097752749477,2.4375
-31.5,4.9823695990525625,0.0
-31.5,4.97623367590102,1.625
-31.5,4.970097752749477,2.4375
-31.5,4.97623367590102,1.625
-31.5,4.945554060143307,7.3125
-31.5,4.945554060143307,6.5
-31.0,4.95168998329485,4.0625
-31.5,4.9823695990525625,-1.625
-31.0,4.957825906446392,4.875
-31.5,4.970097752749477,0.8125
-31.0,4.957825906446392,2.4375
-31.5,4.963961829597935,2.4375
-31.5,4.945554060143307,4.0625
-31.5,4.945554060143307,2.4375
-31.5,4.970097752749477,-0.8125
-31.5,4.95168998329485,0.8125
-31.5,4.957825906446392,0.8125
-31.5,4.92714629068868,4.875
-31.5,4.95168998329485,-0.8125
-31.5,4.970097752749477,-4.0625
-31.5,4.92714629068868,2.4375
-31.0,4.970097752749477,-4.0625
-31.5,4.945554060143307,0.0
-31.5,4.92714629068868,4.0625
-31.0,4.908738521234052,7.3125
-31.0,4.95168998329485,-4.0625
-31.5,4.914874444385594,4.0625
-31.5,4.95168998329485,-4.0625
-31.5,4.914874444385594,4.0625
-31.5,4.902602598082509,4.0625
-31.5,4.914874444385594,0.0
-31.5,4.945554060143307,-4.875
-31.5,4.933282213840222,-1.625
-31.5,4.95168998329485,-5.6875
-31.5,4.914874444385594,-0.8125
-31.0,4.884194828627882,7.3125
-31.0,4.902602598082509,0.8125
-31.5,4.921010367537137,-2.4375
-31.5,4.92714629068868,-2.4375
-31.5,4.908738521234052,-0.8125
-31.5,4.884194828627882,6.5
-31.0,4.92714629068868,-1.625
-31.0,4.908738521234052,-0.8125
-31.0,4.871922982324796,6.5
-31.5,4.902602598082509,0.8125
-31.5,4.878058905476339,5.6875
-31.5,4.921010367537137,-5.6875
-31.0,4.908738521234052,-4.0625
-31.0,4.914874444385594,-5.6875
-31.5,4.890330751779424,0.8125
-31.0,4.921010367537137,-7.3125
-31.0,4.902602598082509,-5.6875
-31.0,4.896466674930966,-4.0625
-31.0,4.878058905476339,1.625
-31.0,4.921010367537137,-6.5
-31.0,4.871922982324796,1.625
-31.0,4.871922982324796,0.0
-31.0,4.859651136021712,0.0
-31.0,4.853515212870168,1.625
-31.5,4.884194828627882,-4.0625
-31.0,4.871922982324796,0.0
-31.0,4.878058905476339,-1.625
-31.0,4.841243366567084,1.625
-31.5,4.878058905476339,-5.6875
-31.0,4.859651136021712,-2.4375
-31.0,4.816699673960914,4.875
-31.0,4.871922982324796,-5.6875
-31.0,4.816699673960914,1.625
-31.0,4.859651136021712,-4.875
-31.0,4.822835597112456,-0.8125
-31.0,4.841243366567084,-4.0625
-31.0,4.8351074434155406,-4.0625
-31.0,4.798291904506286,1.625
-31.0,4.816699673960914,-0.8125
-31.5,4.847379289718626,-7.3125
-31.0,4.828971520263998,-4.875
-31.0,4.828971520263998,-4.0625
-31.0,4.828971520263998,-5.6875
-31.5,4.767612288748572,4.875
-31.0,4.76147636559703,5.6875
-31.0,4.792155981354743,1.625
-31.0,4.779884135051658,1.625
-31.0,4.7860200582032,0.0
-31.0,4.773748211900116,0.8125
-31.0,4.755340442445488,4.0625
-31.0,4.792155981354743,-2.4375
-31.0,4.779884135051658,-1.625
-31.0,4.76147636559703,1.625
-31.0,4.749204519293945,2.4375
-31.0,4.804427827657828,-5.6875
-31.0,4.773748211900116,-2.4375
-31.0,4.743068596142402,2.4375
-31.0,4.749204519293945,0.8125
-31.0,4.7860200582032,-7.3125
-31.0,4.7860200582032,-7.3125
-31.0,4.779884135051658,-5.6875
-31.5,4.73693267299086,0.8125
-31.0,4.76147636559703,-4.0625
-31.0,4.767612288748572,-5.6875
-31.0,4.76147636559703,-4.875
-31.0,4.749204519293945,-4.0625
-31.0,4.718524903536232,0.8125
-31.0,4.749204519293945,-4.875
-31.0,4.71238898038469,-0.8125
-31.0,4.706253057233147,2.4375
-31.0,4.7307967498393175,-4.875
-31.0,4.675573441475434,4.875
-31.0,4.693981210930062,-1.625
-31.0,4.681709364626977,0.8125
-31.0,4.724660826687775,-5.6875
-31.0,4.6878452877785195,-1.625
-31.0,4.663301595172349,1.625
-31.0,4.693981210930062,-4.0625
-31.0,4.651029748869264,4.875
-31.0,4.657165672020807,2.4375
-31.0,4.651029748869264,1.625
-31.0,4.675573441475434,-2.4375
-31.0,4.71238898038469,-8.125
-31.0,4.6878452877785195,-4.875
-31.0,4.6448938257177215,1.625
-31.0,4.681709364626977,-5.6875
-31.0,4.632621979414636,0.8125
-31.0,4.638757902566179,-0.8125
-31.0,4.657165672020807,-6.5
-31.0,4.638757902566179,-4.0625
-31.0,4.620350133111551,0.8125
-31.0,4.638757902566179,-6.5
-30.5,4.614214209960009,-0.8125
-30.5,4.589670517353839,4.0625
-30.5,4.608078286808466,-0.8125
-31.0,4.601942363656923,0.0
-31.0,4.626486056263094,-6.5
-31.0,4.608078286808466,-4.875
-30.5,4.565126824747668,4.875
-30.5,4.614214209960009,-8.125
-30.5,4.583534594202296,-1.625
-30.5,4.565126824747668,0.8125
-30.5,4.595806440505381,-5.6875
-30.5,4.583534594202296,1.625
-30.5,4.565126824747668,-0.8125
-30.5,4.589670517353839,-4.0625
-30.5,4.577398671050753,-1.625
-30.5,4.577398671050753,0.0
-30.5,4.571262747899211,1.625
-30.5,4.595806440505381,-2.4375
-30.5,4.565126824747668,1.625
-30.0,4.589670517353839,-2.4375
-30.5,4.558990901596125,4.0625
-30.5,4.577398671050753,1.625
-30.5,4.620350133111551,-7.3125
-30.5,4.558990901596125,4.0625
-30.0,4.595806440505381,-0.8125
-30.0,4.552854978444583,4.875
-30.0,4.571262747899211,0.8125
-30.0,4.608078286808466,-6.5
-30.0,4.571262747899211,1.625
-30.0,4.595806440505381,-4.0625
-30.0,4.565126824747668,1.625
-30.0,4.571262747899211,0.8125
-30.0,4.571262747899211,1.625
-29.5,4.595806440505381,-4.0625
-30.0,4.614214209960009,-4.0625
-29.5,4.608078286808466,-0.8125
-29.5,4.601942363656923,-4.0625
-29.5,4.626486056263094,-6.5
-30.0,4.595806440505381,0.0
-30.0,4.620350133111551,-4.0625
-30.0,4.638757902566179,-8.125
-29.5,4.595806440505381,2.4375
-29.5,4.565126824747668,7.3125
-29.5,4.577398671050753,4.0625
-29.5,4.558990901596125,5.6875
-29.5,4.546719055293041,8.125
-29.5,4.614214209960009,-4.0625
-29.5,4.608078286808466,-2.4375
-29.5,4.620350133111551,-4.875
-29.5,4.601942363656923,-1.625
-29.5,4.626486056263094,-6.5
-29.5,4.614214209960009,-1.625
-29.5,4.571262747899211,7.3125
-29.5,4.601942363656923,1.625
-29.5,4.620350133111551,-4.875
-29.5,4.601942363656923,-0.8125
-29.5,4.632621979414636,-5.6875
-29.5,4.558990901596125,4.875
-30.0,4.614214209960009,-4.0625
-30.0,4.632621979414636,-4.875
-29.5,4.620350133111551,-4.875
-30.0,4.632621979414636,-4.875
-30.0,4.626486056263094,-1.625
-29.5,4.626486056263094,0.0
-30.0,4.620350133111551,-2.4375
-30.0,4.669437518323892,-10.5625
-29.5,4.608078286808466,-0.8125
-30.0,4.6448938257177215,-5.6875
-30.0,4.608078286808466,-0.8125
-30.0,4.632621979414636,-2.4375
-29.5,4.614214209960009,0.0
-29.5,4.614214209960009,-0.8125
-30.0,4.595806440505381,2.4375
-29.5,4.6448938257177215,-5.6875
-29.5,4.601942363656923,4.0625
-29.5,4.601942363656923,2.4375
-30.0,4.620350133111551,0.8125
-30.0,4.620350133111551,-2.4375
-30.0,4.657165672020807,-8.125
-30.0,4.626486056263094,-0.8125
-30.0,4.589670517353839,7.3125
-30.0,4.657165672020807,-5.6875
-30.0,4.632621979414636,-0.8125
-30.0,4.620350133111551,0.8125
-30.0,4.657165672020807,-1.625
-30.0,4.669437518323892,-2.4375
-30.0,4.669437518323892,-4.0625
-30.0,4.675573441475434,-2.4375
-30.0,4.657165672020807,1.625
-30.0,4.669437518323892,-2.4375
-30.0,4.681709364626977,-5.6875
-30.0,4.675573441475434,-0.8125
-30.0,4.657165672020807,1.625
-30.0,4.651029748869264,1.625
-30.0,4.663301595172349,-1.625
-30.0,4.669437518323892,-1.625
-30.0,4.663301595172349,-1.625
-30.0,4.669437518323892,-1.625
-30.0,4.669437518323892,-1.625
-30.0,4.663301595172349,-1.625
-30.0,4.651029748869264,0.8125
-30.0,4.669437518323892,-2.4375
-30.0,4.657165672020807,-0.8125
-30.0,4.663301595172349,-4.0625
-30.0,4.675573441475434,-4.875
-29.5,4.651029748869264,0.8125
-30.0,4.669437518323892,-5.6875
-30.0,4.681709364626977,-4.0625
-30.0,4.651029748869264,0.0
-29.5,4.669437518323892,-4.875
-30.0,4.675573441475434,-4.875
-30.0,4.651029748869264,-2.4375
-30.0,4.6448938257177215,-0.8125
-30.0,4.6448938257177215,-0.8125
-30.0,4.657165672020807,-1.625
-30.0,4.638757902566179,0.8125
-30.0,4.651029748869264,0.0
-30.0,4.6448938257177215,-1.625
-30.0,4.657165672020807,-4.0625
-30.0,4.669437518323892,-1.625
-30.0,4.651029748869264,-0.8125
-30.0,4.651029748869264,-2.4375
-30.0,4.638757902566179,-0.8125
-30.0,4.651029748869264,-2.4375
-30.0,4.6448938257177215,-2.4375
-30.0,4.669437518323892,-2.4375
-30.0,4.657165672020807,-1.625
-30.0,4.638757902566179,0.0
-30.0,4.657165672020807,-2.4375
-30.0,4.6448938257177215,0.8125
-30.0,4.6448938257177215,1.625
-30.0,4.675573441475434,-4.0625
-30.0,4.663301595172349,0.0
-30.0,4.632621979414636,2.4375
-30.5,4.6878452877785195,-4.875
-30.0,4.6878452877785195,-5.6875
-30.5,4.657165672020807,0.8125
-30.5,4.663301595172349,-1.625
-30.5,4.663301595172349,0.8125
-30.5,4.657165672020807,-0.8125
-30.0,4.669437518323892,-0.8125
-30.0,4.657165672020807,1.625
-30.5,4.651029748869264,4.0625
-30.5,4.681709364626977,-1.625
-30.5,4.669437518323892,1.625
-30.5,4.681709364626977,0.8125
-30.5,4.681709364626977,0.0
-30.5,4.706253057233147,-2.4375
-30.5,4.675573441475434,4.0625
-30.5,4.669437518323892,4.0625
-30.5,4.71238898038469,-2.4375
-30.5,4.706253057233147,-2.4375
-30.5,4.718524903536232,-0.8125
-30.5,4.71238898038469,0.0
-30.5,4.749204519293945,-7.3125
-30.5,4.724660826687775,-1.625
-30.5,4.700117134081604,4.0625
-30.5,4.6878452877785195,6.5
-30.5,4.718524903536232,0.8125
-30.5,4.706253057233147,4.875
-31.0,4.749204519293945,-2.4375
-31.0,4.724660826687775,0.0
-31.0,4.71238898038469,4.0625
-31.0,4.743068596142402,-2.4375
-30.5,4.718524903536232,1.625
-31.0,4.718524903536232,0.8125
-31.0,4.724660826687775,0.0
-31.0,4.681709364626977,6.5
-31.0,4.706253057233147,1.625
-31.0,4.700117134081604,0.0
-31.0,4.681709364626977,0.8125
-31.0,4.718524903536232,-7.3125
-31.0,4.6878452877785195,-2.4375
-31.0,4.663301595172349,0.0
-31.0,4.663301595172349,-4.0625
-31.0,4.669437518323892,-4.0625
-31.0,4.651029748869264,0.0
-31.0,4.651029748869264,-4.0625
-31.0,4.657165672020807,-6.5
-30.5,4.620350133111551,0.0
-30.5,4.601942363656923,0.8125
-30.5,4.626486056263094,-2.4375
-30.5,4.626486056263094,-4.0625
-30.5,4.614214209960009,0.8125
-30.5,4.608078286808466,-2.4375
-30.5,4.577398671050753,4.0625
-30.5,4.565126824747668,8.125
-30.0,4.601942363656923,0.0
-30.5,4.614214209960009,0.0
-30.0,4.595806440505381,1.625
-30.0,4.651029748869264,-7.3125
-30.0,4.589670517353839,2.4375
-30.0,4.620350133111551,-1.625
-30.0,4.706253057233147,0.8125
-30.0,4.71238898038469,-1.625
-30.0,4.700117134081604,0.0
-30.0,4.718524903536232,-0.8125
-30.0,4.706253057233147,4.0625
-30.0,4.693981210930062,4.875
-30.0,4.743068596142402,-4.0625
-30.0,4.71238898038469,2.4375
-30.0,4.7307967498393175,-0.8125
-30.0,4.7307967498393175,-0.8125
-30.0,4.718524903536232,-0.8125
-30.0,4.73693267299086,-2.4375
-30.0,4.724660826687775,-0.8125
-30.0,4.706253057233147,4.875
-30.0,4.7307967498393175,-2.4375
-30.0,4.718524903536232,0.0
-30.0,4.71238898038469,1.625
-30.0,4.706253057233147,1.625
-30.0,4.749204519293945,-4.0625
-30.0,4.71238898038469,0.0
-30.0,4.681709364626977,5.6875
-30.0,4.706253057233147,2.4375
-30.0,4.71238898038469,1.625
-30.0,4.700117134081604,4.0625
-30.5,4.724660826687775,-0.8125
-30.0,4.700117134081604,4.0625
-30.0,4.71238898038469,0.0
-30.0,4.724660826687775,-1.625
-30.5,4.73693267299086,-2.4375
-30.5,4.71238898038469,0.8125
-30.0,4.700117134081604,1.625
-30.0,4.724660826687775,-1.625
-30.0,4.743068596142402,-5.6875
-30.0,4.724660826687775,0.0
-30.0,4.71238898038469,0.8125
-30.0,4.724660826687775,-4.0625
-30.0,4.700117134081604,4.0625
-30.0,4.724660826687775,-0.8125
-30.0,4.718524903536232,-0.8125
-30.0,4.724660826687775,-2.4375
-30.0,4.693981210930062,4.0625
-30.0,4.706253057233147,1.625
-30.0,4.718524903536232,0.8125
-30.0,4.706253057233147,0.8125
-30.0,4.724660826687775,-2.4375
-30.0,4.706253057233147,1.625
-30.0,4.706253057233147,0.8125
-30.0,4.73693267299086,-4.875
-30.0,4.7307967498393175,-4.875
-30.0,4.6878452877785195,4.875
-30.0,4.71238898038469,0.0
-30.0,4.693981210930062,1.625
-30.0,4.7307967498393175,-1.625
-30.0,4.71238898038469,0.0
-30.0,4.700117134081604,4.0625
-30.0,4.700117134081604,1.625
-30.0,4.693981210930062,4.0625
-30.0,4.700117134081604,2.4375
-30.0,4.71238898038469,0.8125
-30.0,4.706253057233147,1.625
-30.0,4.718524903536232,-2.4375
-30.0,4.6878452877785195,4.875
-30.0,4.706253057233147,2.4375
-30.0,4.693981210930062,4.0625
-30.0,4.700117134081604,4.0625
-30.5,4.681709364626977,6.5
-30.0,4.6878452877785195,6.5
-30.0,4.718524903536232,-2.4375
-30.0,4.693981210930062,1.625
-30.0,4.724660826687775,-2.4375
-30.0,4.693981210930062,4.0625
-30.0,4.706253057233147,0.8125
-30.0,4.71238898038469,0.8125
-30.0,4.693981210930062,4.0625
-30.5,4.700117134081604,4.0625
-30.0,4.718524903536232,-0.8125
-30.0,4.7307967498393175,-4.0625
-30.0,4.7307967498393175,-4.0625
-30.0,4.724660826687775,-1.625
-30.0,4.700117134081604,0.8125
-30.0,4.724660826687775,-0.8125
-30.0,4.706253057233147,0.8125
-30.0,4.700117134081604,2.4375
-30.0,4.706253057233147,0.8125
-30.0,4.681709364626977,4.0625
-30.0,4.693981210930062,2.4375
-30.0,4.6878452877785195,4.0625
-30.0,4.6878452877785195,1.625
-30.0,4.700117134081604,1.625
-30.0,4.6878452877785195,2.4375
-30.0,4.73693267299086,-6.5
-30.0,4.700117134081604,1.625
-30.0,4.73693267299086,-4.875
-30.0,4.681709364626977,4.0625
-30.0,4.700117134081604,0.8125
-30.0,4.724660826687775,-1.625
