-48.5,0.0,1.5
-47.5,0.7301748550335656,0.9375
-49.0,0.0,0.75
-55.0,0.0,1.9375
-48.5,-4.638757902566179,0.9375
-44.5,0.22089323345553225,0.5625
-44.0,0.0,0.9375
-43.0,-0.018407769454626965,0.125
-44.0,0.9756117810952674,-0.625
-46.0,0.08590292412159606,-0.1875
-48.5,0.0,0.875
-52.5,1.1535535524900018,1.8125
-38.5,0.0,0.8125
-35.5,-3.2213596545598464,0.0
-50.5,5.540738605842936,0.25
-54.5,0.0,-0.0625
-26.0,5.129631754689584,0.875
-26.0,-2.9022916506796332,0.625
-25.5,0.0,0.8125
-26.0,-5.939573610693203,0.625
-25.5,0.0,0.1875
-25.5,0.006135923151542322,0.0625
-26.0,0.0,0.1875
-26.0,0.0,0.5
-26.0,-0.006135923151542572,0.625
-29.5,0.0,0.375
-57.0,5.344389064993574,-0.1875
-25.0,0.0,0.125
-25.0,0.0,0.625
-25.0,0.006135923151542322,0.1875
-26.0,0.0,0.25
-26.5,0.0,0.375
-25.0,0.0,0.5
-25.0,-3.1354567304382504,0.5625
-25.0,0.0,0.375
-25.0,0.018407769454627854,0.1875
-59.0,0.0,0.125
-59.0,0.05522330836388267,0.375
-30.0,-4.552854978444582,0.75
-29.5,0.0,0.25
-58.5,4.491495746929157,0.125
-25.0,0.0,0.5
-58.0,0.0,-0.1875
-58.0,-0.024543692606170175,0.1875
-28.5,-4.147884050442774,0.375
-28.5,0.006135923151542655,0.375
-28.0,0.0,0.1875
-25.0,0.0,0.5
-25.0,0.0,0.375
-25.0,0.006135923151542322,0.25
-25.5,0.0,0.125
-25.5,0.006135923151542322,0.125
-59.5,0.0,0.125
-25.5,0.0,0.25
-26.0,0.0,0.375
-26.0,0.00613592315154321,0.375
-25.0,0.0,0.75
-25.0,-3.1231848841351653,0.625
-25.5,0.0,0.375
-26.0,0.0,0.375
-25.5,0.0,0.25
-25.0,-0.006135923151542322,0.125
-25.5,0.0,0.75
-25.0,-3.13545673043825,0.625
-26.0,0.0,0.625
-26.0,3.0434178831651124,0.1875
-23.0,0.0,0.625
-25.0,0.0,0.75
-46.5,4.123340357836603,0.0625
-45.0,0.012271846303085532,-0.0625
-47.5,0.0,-2.3125
-48.5,-0.1902136176978193,0.625
-51.5,4.2644665903220815,0.0
-54.0,0.00613592315154321,0.0625
-52.0,0.0,0.0625
-49.0,0.0,0.125
-48.0,0.0,0.25
-49.0,-0.024543692606170175,0.1875
-52.5,0.0,0.1875
-52.5,-3.129320807286708,0.25
-48.5,0.0,0.25
-48.5,3.1661363461959633,0.125
-48.5,0.05522330836388267,0.1875
-49.0,0.12271846303085177,-1.25
-53.5,0.0,0.125
-53.0,0.0,0.5625
-53.5,0.0,0.5
-53.0,0.024543692606170286,0.125
-52.5,-0.08590292412159595,0.0
-52.5,0.018407769454627743,0.1875
-51.5,0.0,0.375
-51.5,0.0,0.0
-53.0,0.0,-0.125
-52.0,0.0,0.9375
-54.0,-0.22089323345553236,1.75
-54.5,0.30679615757712825,1.8125
-45.5,0.0,0.25
-45.0,0.3252039270317564,0.8125
-52.5,-4.368777283898306,-0.375
-53.5,0.2270291566070748,0.25
-42.0,-1.4296700943094176,1.5625
-41.0,0.09203884727313846,0.1875
-52.0,0.0,0.25
-51.0,-3.080233422074368,0.375
-39.5,4.5835345942022965,-0.5625
-39.5,-0.04908738521234124,-0.75
-46.0,-4.7860200582032,-0.625
-47.0,0.0,-0.0625
-41.5,-4.577398671050753,0.5
-39.0,0.34361169648638357,1.125
-49.5,-0.20862138715244716,3.5
-48.5,0.0,1.9375
-36.5,4.675573441475434,-0.8125
-38.0,-0.7792622402459051,-1.5625
-47.0,0.1288543861823932,0.8125
-50.5,-3.2029518851052186,0.8125
-35.5,0.0,0.25
-35.5,-0.16566992509164924,-0.5625
-38.0,5.460971604872882,-0.0625
-41.5,-0.47860200582031975,-1.75
-47.0,0.0,1.5
-50.0,0.5460971604872884,0.1875
-42.0,-0.3558835427894689,0.125
-42.0,-0.05522330836388312,-0.8125
-46.5,0.0,0.5
-46.5,0.0797670009700534,0.625
-43.0,-0.31293208072867085,0.125
-43.0,0.006135923151542655,0.25
-49.5,0.0,0.125
-49.5,-0.030679615757712497,0.5
-46.5,-0.6013204688511715,0.0625
-46.5,0.006135923151542322,0.0625
-49.5,0.0,0.5625
-48.5,0.03067961575771283,0.25
-43.5,0.05522330836388312,0.125
-44.5,-0.036815538909255374,0.625
-51.0,0.0,0.1875
-50.0,0.006135923151542599,0.8125
-46.0,-0.06749515466696823,0.5
-45.5,-0.018407769454627687,0.0625
-45.5,0.0,0.1875
-46.0,0.0,0.5625
-41.5,-0.05522330836388356,0.1875
-41.5,0.006135923151542322,0.5
-47.5,-0.0674951546669682,-0.0625
-50.5,0.0,-0.0625
-46.5,-0.15339807878856426,0.125
-46.5,-0.012271846303084644,0.125
-48.0,-3.1538644998928786,0.25
-47.0,0.0,0.25
-44.0,-0.030679615757712497,0.25
-44.0,-3.1661363461959633,0.5
-44.5,-1.030835089459151,2.625
-45.5,0.0,0.9375
-46.5,0.5645049299419158,0.5
-46.0,-0.024543692606170175,0.25
-44.5,-3.607922813107028,0.75
-45.5,3.1170489609836225,0.9375
-44.0,0.0,0.5
-44.0,0.07363107781851075,0.125
-46.0,0.0,0.625
-46.0,0.20862138715244782,1.125
-45.0,0.5276893910326601,0.5
-45.0,0.03681553890925571,0.1875
-44.5,0.0,0.5
-45.5,-0.030679615757713385,0.625
-41.5,-5.325981295538946,0.1875
-42.0,0.03067961575771283,0.125
-44.5,0.0,0.375
-44.5,-3.117048960983623,0.375
-43.5,0.5645049299419159,0.5625
-43.0,-0.024543692606170286,0.8125
-45.5,0.0,0.125
-45.5,-0.00613592315154321,0.5
-44.0,-5.546874528994478,0.1875
-44.0,-0.018407769454627743,0.1875
-47.5,0.0,0.0625
-47.0,-0.018407769454627854,-0.0625
-44.5,0.11658253987930944,0.375
-44.5,-3.1600004230444214,0.5
-47.0,3.0556897294681975,0.5625
-46.5,0.0,0.0625
-44.5,0.06135923151542588,0.1875
-44.5,0.018407769454627854,0.1875
-44.0,0.0,0.375
-43.5,-3.135456730438251,0.125
-43.5,-2.3009711818284617,0.0625
-43.0,-0.024543692606170286,1.1875
-46.0,0.0,0.5
-46.5,0.0,0.0625
-42.5,0.8283496254582462,0.1875
-42.5,0.0,0.1875
-49.5,0.0,0.5625
-49.5,0.0674951546669682,-0.0625
-44.0,-5.663457068873787,1.125
-41.5,0.0,0.0625
-45.0,-4.006757817957295,0.1875
-44.5,0.036815538909255485,0.0
-40.0,0.0,0.625
-40.0,0.19634954084936207,0.875
-45.5,-0.6135923151542564,-0.25
-48.0,0.0,-0.0625
-43.0,-5.442563835418255,-0.25
-45.0,-0.06135923151542566,-0.25
-47.5,0.0,0.375
-48.0,-0.03681553890925482,-0.0625
-45.5,-3.233631500862932,-0.125
-46.5,-0.2270291566070748,0.375
-46.0,0.0,0.5
-46.5,0.15953400194010658,0.25
-45.0,0.0,0.1875
-45.5,0.19021361769781908,0.5625
-45.0,0.0,0.25
-45.5,0.18407769454627676,0.0
-45.0,0.5399612373357456,1.0625
-46.5,0.14726215563702194,-1.125
-43.5,-3.6999616603801666,-0.125
-46.5,0.0,0.125
-48.0,0.2883883881225005,0.0625
-48.5,0.23930100291016,0.1875
-45.0,0.0,0.125
-45.0,-0.036815538909255374,0.5
-46.5,0.4417864669110646,0.25
-46.5,0.0,0.25
-44.0,-3.6938257372286243,0.8125
-45.0,0.05522330836388312,0.75
-46.0,0.0,0.375
-45.5,-0.012271846303085532,0.0625
-45.0,-0.7853981633974483,0.25
-47.5,0.0,-0.0625
-49.5,3.9515345095934116,0.25
-49.5,0.018407769454627854,0.1875
-46.5,-4.012893741108837,0.25
-47.0,0.0,0.25
-49.5,4.080388895775805,0.25
-49.5,-3.1231848841351653,0.5
-45.5,0.0,0.25
-46.0,-3.074097498922825,0.125
-44.0,3.6570101983193686,0.125
-44.0,-3.1968159619536767,0.1875
-49.0,0.0,0.5625
-48.5,0.1349903093339364,0.1875
-50.0,0.9940195505498952,0.0
-49.0,0.0,0.25
-46.0,-4.0987966652304335,0.1875
-46.0,0.006135923151542544,0.1875
-48.5,0.9510680884890976,0.25
-43.5,0.0,0.1875
-46.0,-3.669282044622453,0.1875
-46.5,3.2520392703175593,0.5
-46.0,0.0,0.25
-47.0,0.04295146206079803,0.0625
-46.0,-0.1349903093339364,0.5625
-45.0,-0.03681553890925571,0.25
-47.0,0.0,0.5
-48.5,-2.8654761117703775,1.75
-46.0,-1.0737865515199487,0.8125
-46.5,0.018407769454627694,0.1875
-49.0,0.0,0.5625
-47.5,-0.07363107781851075,0.1875
-50.0,-0.6320000846088842,0.375
-50.0,0.06135923151542566,0.125
-47.0,0.0,0.5625
-47.0,0.012271846303085199,0.5
-46.5,-0.5276893910326605,0.375
-47.0,-0.018407769454627687,0.375
-47.5,0.0,0.8125
-48.5,0.024543692606170175,-0.5
-47.0,-1.030835089459151,0.25
-48.0,0.0,0.1875
-45.5,0.30679615757712825,0.25
-45.0,0.14112623248547895,0.5625
-46.0,-0.6504078540635119,0.1875
-44.0,0.0,0.375
-44.5,0.8099418560036185,0.0
-45.5,-0.0981747704246807,0.1875
-48.0,0.0,0.5
-47.0,0.018407769454627687,0.5
-48.0,0.12885438618239387,0.5625
-47.5,0.03067961575771283,0.25
-44.0,0.0,0.5
-44.0,0.00613592315154321,0.375
-44.5,0.12271846303085088,-0.0625
-44.0,-0.12271846303085088,0.375
-46.0,0.0,0.1875
-45.5,3.1477285767413354,0.25
-44.5,0.04908738521234035,0.5
-44.5,0.0,0.25
-45.0,-0.2577087723647882,0.25
-44.5,0.024543692606170175,0.1875
-44.5,0.4295146206079794,0.25
-48.5,0.0,0.625
-46.5,-0.5460971604872883,0.375
-46.5,3.1538644998928786,0.1875
-50.5,0.0,0.1875
-51.0,3.141592653589793,0.125
-47.5,-0.41110685115335155,0.0625
-44.0,0.0,0.25
-46.0,3.5833791205008576,0.625
-46.0,-3.1109130378320797,0.5
-43.5,2.509592568980908,0.25
-43.5,-3.1600004230444205,0.5625
-50.5,0.0,0.375
-50.5,0.0,0.0625
-45.5,-0.7976700097005335,0.125
-44.5,0.0,0.125
-46.5,3.7306412761378795,0.0625
-47.0,0.012271846303084644,0.5625
-45.0,-3.730641276137879,0.0625
-43.5,0.0,0.125
-47.0,-5.31370944923586,0.5
-47.0,0.036815538909255374,0.0625
-48.0,0.0,0.375
-48.0,3.1538644998928786,0.125
-49.5,-2.3746022596469727,0.1875
-49.0,-0.012271846303085088,0.1875
-46.0,0.0,-0.0625
-46.0,-0.006135923151542322,0.0625
-49.0,-5.71868037723767,0.25
-49.0,0.006135923151542544,0.375
-47.0,0.0,0.1875
-47.0,0.0,0.25
-51.5,0.5154175447295755,0.1875
-46.0,0.0,0.375
-43.0,-3.9392626632903265,0.1875
-43.0,3.1170489609836225,0.375
-49.5,0.0,0.125
-49.5,3.1293208072867085,0.25
-46.5,-0.7424467013366511,0.0
-47.0,0.04295146206079803,0.125
-48.5,0.0,0.5
-49.0,0.024543692606170175,0.1875
-47.0,2.7243498792848984,0.1875
-47.0,-3.1477285767413354,0.125
-50.5,0.0,-0.0625
-50.0,-0.024543692606170175,0.1875
-47.5,-0.6565437772150542,0.375
-47.5,0.012271846303084644,0.375
-48.0,0.0,0.125
-47.5,-0.012271846303085088,0.375
-44.0,-0.4847379289718626,0.5
-48.5,0.0,0.0625
-48.5,3.5465635815916023,0.1875
-48.5,0.012271846303085532,0.125
-43.5,0.0,0.625
-43.5,0.0,0.5625
-46.5,-5.565282298449106,0.375
-46.5,0.0,0.125
-45.5,0.0,0.1875
-45.5,-0.006135923151542544,0.1875
-47.5,0.3313398501832985,0.5
-48.0,0.006135923151542544,0.0625
-46.0,0.0,0.0625
-46.0,0.006135923151542322,0.0
-49.0,-5.737088146692298,0.0625
-49.5,0.0,0.0625
-47.5,2.485048876374739,0.25
-47.5,0.018407769454626965,0.25
-49.0,0.0,0.25
-49.0,0.0,0.125
-48.5,2.613903262557132,0.125
-48.5,-3.1538644998928778,0.1875
-47.0,0.0,0.125
-47.0,0.0,0.125
-43.5,5.816855147662351,-0.0625
-45.5,0.0,0.8125
-48.0,0.5645049299419159,0.125
-48.0,-0.006135923151542544,0.1875
-45.5,-0.5706408530934586,0.5
-46.5,0.0,0.125
-50.0,-5.712544454086128,0.375
-50.0,-0.006135923151542572,0.5
-43.0,0.0,0.125
-43.0,3.117048960983623,0.625
-46.5,0.7363107781851079,0.0
-46.5,0.006135923151542322,0.125
-44.5,0.0,0.125
-44.5,-0.018407769454627743,0.375
-47.0,0.6074563920027138,0.375
-49.5,0.0,0.0
-46.0,2.5586799541932495,0.5
-46.0,0.0,0.8125
-49.5,-5.6941366846315,0.1875
-49.0,0.0,0.0625
-48.0,2.5341362615870793,0.375
-48.0,0.018407769454627854,0.125
-49.0,0.6013204688511715,0.0625
-46.0,0.0,0.375
-43.0,-0.7363107781851079,0.5
-43.0,-0.006135923151542322,0.375
-46.0,0.0,0.5625
-46.0,-0.006135923151542322,0.75
-43.0,-0.6933593161243099,0.25
-43.0,-3.141592653589793,0.25
-47.5,0.0,0.125
-47.5,0.0,0.125
-46.0,-0.282252464970958,0.5
-46.5,0.0,0.125
-47.5,3.411573272257666,0.25
-47.5,0.0,0.1875
-44.0,0.0,0.75
-44.0,0.006135923151542544,0.625
-47.0,0.6135923151542564,0.375
-46.5,0.0,0.375
-43.0,-0.6933593161243099,0.75
-43.0,-3.1170489609836225,0.0625
-46.5,3.8288160465625602,0.0625
-49.5,0.0,0.25
-47.5,-0.6442719309119695,0.25
-47.5,0.012271846303085532,0.0625
-49.5,0.632000084608884,0.25
-49.0,0.0,-0.0625
-48.0,-0.6504078540635119,-0.0625
-48.0,-0.018407769454626965,0.5
-46.5,0.0,0.5
-46.5,0.018407769454626965,0.1875
-44.0,-3.7858645845017618,0.1875
-44.0,0.012271846303085088,0.0625
-49.0,0.0,0.0625
-49.0,0.006135923151542322,0.0
-48.0,-3.6508742751678254,0.25
-48.0,0.0,0.0625
-49.0,3.56497135104623,0.0625
-49.0,0.006135923151542322,0.0625
-48.0,-3.644738352016283,0.0625
-44.0,0.0,0.125
-46.5,3.926990816987242,-0.0625
-46.5,0.0,0.25
-43.5,-0.865165164367502,0.25
-43.0,0.0,0.25
-47.5,-5.577554144752192,0.25
-47.5,0.006135923151542544,0.25
-44.5,0.0,0.1875
-44.5,-0.03681553890925543,0.625
-48.0,0.4172427743048944,0.25
-48.5,0.0,0.25
-47.0,2.718213956133356,0.625
-46.5,-3.1538644998928778,0.375
-48.0,0.4417864669110646,0.1875
-47.5,0.0,0.0625
-44.0,-0.4908738521234052,0.5
-45.5,0.0,0.5625
-48.0,0.3988350048502667,0.375
-48.0,-0.006135923151542544,0.5
-44.5,0.0,0.0625
-44.5,-0.006135923151542599,0.25
-48.0,0.4724660826687775,0.125
-48.0,-0.006135923151542544,0.1875
-43.5,0.0,0.75
-43.5,0.0,0.25
-46.5,3.730641276137879,0.25
-47.5,0.0,0.5
-45.0,-0.41724277430489437,0.375
-45.0,0.018407769454627687,0.125
-47.5,0.4111068511533519,0.1875
-46.5,0.0,0.0625
-43.0,5.6143696836614465,0.1875
-43.0,-0.006135923151542322,0.125
-46.5,0.0,0.0
-46.5,3.1538644998928786,0.0625
-43.5,-3.706097583531709,0.375
-43.5,0.0,0.5
-46.0,0.0,0.1875
-46.0,0.0,0.25
-43.0,-3.7858645845017627,0.5625
-46.5,0.0,0.1875
-48.0,0.38042723539563905,0.125
-48.0,3.141592653589793,0.1875
-46.5,0.0,0.5
-46.5,0.018407769454627854,0.1875
-50.0,0.6074563920027138,0.1875
-47.0,0.0,0.375
-44.0,-0.521553467881118,0.5
-44.0,0.006135923151542544,0.0
-47.0,0.5031456984264904,0.5625
-48.0,0.0,0.5
-47.0,-0.44792239006260726,0.375
-47.0,-3.1231848841351657,0.25
-48.0,0.43565054375952217,0.25
-48.0,0.0,0.0
-44.5,-0.4663301595172349,-0.0625
-44.5,-0.012271846303085199,0.5
-47.0,0.0,0.125
-47.0,-0.018407769454627743,0.375
-43.5,5.700272607783043,0.5625
-47.5,0.0,0.25
-49.0,0.5829126993965437,0.0
-49.0,-0.006135923151542544,0.125
-45.0,0.0,0.5625
-45.0,0.03067961575771283,0.5625
-49.0,0.3988350048502667,0.5
-49.0,0.006135923151542544,0.25
-46.5,0.0,0.375
-46.5,0.006135923151542322,0.25
-51.5,-5.786175531904639,0.25
-46.0,0.0,0.625
-43.0,-3.792000507653305,0.25
-43.0,0.0,0.375
-46.0,3.792000507653305,0.625
-49.5,0.0,0.375
-47.0,-0.6688156235181388,0.0
-47.0,-0.012271846303085532,0.0625
-48.5,0.0,0.1875
-48.5,0.0,0.0625
-47.5,2.675262494072558,0.5625
-47.5,0.0,0.125
-50.0,0.0,0.0
-50.0,-0.018407769454627854,0.125
-47.0,-0.6626797003665974,0.0625
-44.0,0.0,0.25
-47.5,0.48473792897186263,0.125
-47.5,-0.024543692606170286,0.5
-44.0,-0.4847379289718626,0.5
-47.5,0.0,0.375
-48.5,3.6692820446224537,-0.0625
-48.5,-0.006135923151542322,0.25
-47.5,-3.6631461214709113,0.25
-43.0,0.0,0.75
-46.5,0.6504078540635119,0.125
-46.5,-0.00613592315154321,0.1875
-45.5,0.0,0.1875
-45.5,0.0,0.1875
-47.5,0.3620194659410113,0.125
-49.5,0.0,0.25
-45.0,5.859806609723149,0.25
-45.0,0.0,0.1875
-49.5,-5.8475347634200645,0.0625
-49.5,0.0,0.0625
-47.0,-0.674951546669682,0.1875
-47.0,-0.030679615757712497,0.375
-49.5,0.6442719309119695,0.1875
-49.0,0.0,0.0625
-47.5,-3.792000507653305,0.375
-47.5,3.160000423044421,0.1875
-49.0,0.6135923151542562,0.0625
-47.5,0.0,0.25
-43.5,5.749359992995383,0.25
-44.0,-0.006135923151542322,0.5625
-48.5,0.0,0.5
-48.5,-3.1170489609836225,0.0625
-45.5,-0.6258641614573417,0.1875
-46.5,0.0,0.0625
-50.5,-5.706408530934586,0.1875
-50.5,-0.006135923151542572,0.5
-43.0,0.0,0.625
-43.0,-3.1354567304382504,0.5
-46.5,3.8717675086233583,0.5
-46.5,-0.006135923151542322,0.375
-45.0,0.0,0.25
-45.0,0.03067961575771283,0.0
-47.0,0.846757394912874,-0.5
-50.0,0.0,0.375
-46.0,5.675728915176872,0.375
-46.0,0.0,0.5625
-50.0,-5.675728915176872,0.1875
-49.5,0.0,0.5625
-48.0,-0.49700977527494783,0.0
-48.0,3.178408192499048,0.0625
-46.5,0.0,0.25
-46.5,0.0,0.5
-43.0,-4.074252972624263,0.25
-43.0,0.0,-0.0625
-46.5,4.074252972624263,0.125
-46.5,-0.012271846303085532,0.1875
-45.5,0.0,0.25
-45.5,-3.117048960983623,-0.0625
-49.5,0.38042723539563894,0.25
-49.5,0.0,0.25
-45.5,2.736621725587984,0.375
-45.5,-0.018407769454627854,0.375
-45.5,0.0,0.375
-45.5,0.018407769454626965,0.125
-44.5,-4.276738436625167,0.0
-44.5,0.0,0.5
-47.0,0.0,0.1875
-47.0,0.018407769454627687,0.0625
-43.0,2.0125827937059615,0.0625
-47.5,0.0,0.375
-52.5,-2.6875343403756435,0.5625
-52.5,-0.012271846303085088,0.75
-48.0,0.0,0.125
-47.5,-0.012271846303085532,0.1875
-52.5,0.5583690067903735,0.0
-46.5,0.0,0.5
-44.0,-4.0987966652304335,0.75
-44.0,-0.006135923151542544,0.625
-46.5,4.111068511533518,0.1875
-52.5,0.0,-0.125
-47.5,-0.5460971604872888,0.25
-47.5,-3.1354567304382504,0.5
-52.0,0.0,0.25
-52.0,-3.1600004230444205,0.375
-47.5,2.601631416254047,0.0625
-43.5,0.0,0.25
-46.0,4.160155896745859,0.25
-46.0,0.0,0.375
-43.5,-4.178563666200487,0.25
-43.0,0.0,0.625
-48.0,-5.209398755659638,0.0
-48.0,0.0,0.375
-44.0,0.0,0.375
-44.0,3.141592653589793,0.375
-49.5,-2.276427489222292,0.25
-51.5,0.0,0.25
-46.5,2.5893595699509624,0.1875
-46.5,-3.172272269347506,0.5
-49.5,0.0,0.25
-49.5,0.006135923151542544,0.25
-44.0,-0.8774370106705867,0.25
-44.0,-0.012271846303085115,0.5
-50.5,0.0,0.0
-50.5,-0.006135923151542544,0.0625
-45.0,-0.7424467013366502,0.25
-45.0,0.0,0.5625
-47.5,0.7240389318820225,0.375
-48.0,-0.12271846303085121,0.1875
-45.0,-0.5706408530934585,0.0
-43.5,0.0,0.5
-46.5,3.80427235395639,0.125
-46.5,-3.1477285767413354,0.0
-45.0,0.0,0.375
-45.0,0.006135923151542544,0.375
-47.5,3.485204350076177,0.375
-47.0,0.0,0.5
-43.0,5.663457068873787,0.25
-43.0,-3.141592653589793,0.1875
-46.5,0.0,0.0
-46.5,3.141592653589793,0.0
-43.5,-3.785864584501762,0.0625
-43.5,0.018407769454627854,0.0625
-46.0,0.0,0.5
-46.0,3.1415926535897927,0.5
-43.0,-3.834951969714103,0.8125
-46.5,0.0,0.5
-48.0,0.30679615757712764,0.1875
-48.0,-3.1477285767413354,0.25
-47.0,0.0,0.1875
-47.5,0.012271846303085532,-0.0625
-49.5,0.5399612373357456,-0.0625
-47.0,0.0,0.125
-44.0,-3.7858645845017618,0.5
-44.0,0.006135923151542544,0.125
-47.0,3.7613208918955925,0.1875
-48.0,0.0,0.875
-47.5,-0.31906800388021317,0.1875
-47.5,-3.1538644998928786,0.375
-47.5,0.0,0.8125
-47.5,-0.006135923151542544,0.5625
-44.5,-0.5522330836388307,0.0625
-44.5,-0.006135923151542544,0.5
-47.0,0.0,0.5
-47.0,-0.006135923151542544,0.375
-43.5,5.743224069843841,0.375
-48.0,0.0,0.0625
-49.0,0.4908738521234053,0.1875
-49.0,-0.018407769454627854,0.1875
-48.0,-0.47860200582031975,0.1875
-45.5,0.0,0.0625
-49.0,0.5460971604872883,0.375
-48.5,0.01840776945462763,0.0625
-45.5,-0.5645049299419159,0.0
-47.0,0.0,0.25
-51.0,-5.651185222570702,0.125
-46.0,0.0,0.25
-43.0,-0.7485826244881935,0.5625
-43.0,-3.1538644998928778,0.5
-46.0,3.8840393549264434,0.5
-49.0,0.0,0.0
-47.5,-0.6381360077604263,0.5625
-47.5,0.012271846303084644,0.25
-48.0,0.0,0.5
-48.5,3.160000423044421,0.0625
-47.5,-3.51588396583389,0.25
-47.5,3.1477285767413354,0.1875
-49.5,0.0,0.375
-49.5,0.03681553890925482,0.0
-47.5,-0.5829126993965437,0.125
-44.0,0.0,0.375
-47.5,0.4356505437595221,0.5
-47.0,0.018407769454627687,0.1875
-44.0,-0.4540583132141498,0.25
-48.0,0.0,0.1875
-48.5,0.41110685115335244,0.0
-48.5,0.006135923151542322,0.0
-43.0,0.0,0.25
-43.0,3.1538644998928778,0.1875
-46.5,0.6504078540635119,0.75
-47.0,0.00613592315154321,0.375
-45.0,0.0,0.375
-45.0,0.0,0.9375
-47.5,0.33747577333484113,0.375
-49.5,0.0,0.375
-45.5,5.730952223540756,0.0625
-45.5,0.012271846303084644,0.0
-49.5,-5.755495916146925,0.375
-49.5,0.0,0.5
-47.5,-0.6197282383057994,0.1875
-47.5,0.012271846303085532,0.0
-49.0,0.0,0.0
-49.0,0.030679615757712497,-0.125
-48.0,-0.570640853093459,0.0
-48.0,-0.006135923151542322,0.0625
-47.0,0.0,0.625
-47.0,0.02454369260617023,0.1875
-43.5,5.780039608753096,0.25
-45.0,0.0,0.75
-48.5,0.5706408530934585,0.375
-48.5,-0.006135923151542544,0.375
-45.0,-0.576776776245001,0.375
-46.5,0.0,0.1875
-50.5,-5.706408530934585,0.1875
-50.5,0.0,0.375
-43.0,0.0,0.0625
-43.0,-0.006135923151542322,0.1875
-46.5,3.859495662320273,0.25
-46.5,0.012271846303084644,0.25
-44.5,0.0,0.125
-44.5,-0.006135923151542544,0.25
-47.5,0.5951845456996288,0.25
-50.0,0.0,-0.0625
-46.0,5.681864838328415,0.625
-46.0,-0.012271846303085532,0.5
-50.0,-5.675728915176872,0.0625
-49.0,0.0,-0.125
-48.0,-0.5706408530934581,0.0625
-48.0,-0.00613592315154321,0.0625
-49.0,0.570640853093459,0.25
-46.5,0.0,0.25
-43.5,-3.834951969714103,0.125
-43.5,-0.018407769454627854,0.375
-46.0,0.0,0.375
-46.0,-3.1415926535897927,0.5
-43.0,-0.8406214717613316,0.375
-45.5,0.0,0.625
-48.0,-2.7243498792848984,0.5625
-48.0,3.1538644998928786,0.5
-46.5,0.0,0.5625
-46.5,0.012271846303085088,0.125
-48.5,-2.730485802436441,0.125
-47.0,0.0,0.25
-44.0,-0.7669903939428205,0.5
-44.0,-0.012271846303085199,0.75
-46.5,0.0,0.5625
-46.5,0.030679615757713385,0.0625
-42.5,-4.000621894805752,0.25
-42.5,0.01840776945462741,0.0625
-49.5,0.0,-0.375
-49.5,-0.024543692606170175,0.0625
-46.5,-0.6688156235181397,0.0
-46.5,-0.024543692606170175,0.375
-49.0,0.0,0.375
-49.0,0.012271846303085532,0.125
-47.0,-0.6626797003665974,0.25
-43.5,0.0,0.0625
-46.5,0.7608544707912781,0.125
-46.5,0.006135923151542544,0.0
-43.5,-0.7731263170943632,0.125
-47.0,0.0,0.0625
-49.0,0.546097160487288,0.125
-49.0,-3.129320807286708,-0.0625
-47.5,2.601631416254048,0.0
-47.0,0.0,0.25
-48.5,0.5031456984264899,0.0625
-48.5,-0.006135923151542322,0.5
-47.0,-0.47246608266877743,0.125
-42.5,0.0,0.1875
-46.0,0.7669903939428204,0.125
-46.0,-0.01840776945462741,0.5625
-42.5,0.0,0.125
-42.5,0.012271846303085532,0.0
-47.0,-5.589825991055276,0.125
-47.5,0.0,0.75
-44.0,-3.614058736258571,0.125
-44.0,3.1538644998928786,0.1875
-47.5,0.4479223900626068,0.5
-48.0,0.0,0.25
-46.5,-0.35588354278946865,0.0625
-46.5,3.1354567304382504,0.0625
-48.5,-2.8163887265580367,0.1875
-47.5,0.0,0.625
-44.0,-0.4049709280018092,0.5625
-44.5,-0.006135923151542572,0.375
-48.0,0.0,0.125
-48.0,-3.153864499892878,0.0625
-46.0,-0.3190680038802133,0.1875
-45.0,0.0,0.25
-48.5,0.3313398501832985,0.0625
-48.5,-0.006135923151542544,0.1875
-45.0,-0.3313398501832985,0.625
-44.0,0.0,0.125
-46.5,3.552699504743145,0.25
-46.5,-3.1231848841351653,0.0
-45.5,0.0,0.5
-45.5,3.141592653589793,0.625
-47.5,-2.791845033951867,0.5
-47.5,0.012271846303085199,0.25
-43.5,0.0,0.25
-43.5,-0.00613592315154321,0.1875
-46.5,-5.688000761479957,0.125
-46.5,0.0,0.1875
-44.0,-0.44792239006260726,0.125
-44.0,0.006135923151542544,0.0625
-46.0,0.0,0.625
-46.0,-3.098641191528995,0.25
-43.5,-0.595184545699629,0.5625
-46.5,0.0,0.5
-48.0,0.3620194659410114,0.25
-48.0,3.141592653589793,0.0625
-47.0,0.0,0.1875
-47.0,0.024543692606170175,-0.0625
-50.0,0.6197282383057985,-0.0625
-50.0,-0.012271846303084644,0.125
-44.0,0.0,0.5625
-44.0,0.0,0.625
-47.0,0.47246608266877743,0.1875
-48.5,0.0,0.0625
-47.0,-0.4233786974564371,0.25
-47.0,0.006135923151542322,0.5
-48.0,0.4049709280018092,0.25
-48.0,0.0,0.125
-44.5,-0.4847379289718625,0.375
-44.5,0.006135923151542544,0.0
-47.5,0.0,0.125
-48.0,0.012271846303085088,0.25
-43.5,5.503923066933681,0.25
-43.5,-3.1415926535897936,0.5
-50.5,0.0,0.25
-50.5,-3.1477285767413354,0.25
-47.5,2.6261751088602177,0.1875
-45.0,0.0,0.75
-49.0,0.5276893910326607,0.0625
-49.0,-0.012271846303085199,0.5
-45.0,-0.5092816215780329,0.375
-46.5,0.0,-0.0625
-51.5,-5.835262917116979,0.5
-51.5,0.0,0.5
-46.5,5.816855147662351,0.125
-43.0,0.0,0.0625
-46.0,3.785864584501762,0.375
-46.0,-0.012271846303084644,0.75
-47.0,0.0,0.1875
-47.0,0.012271846303084644,0.125
-49.5,0.6504078540635119,0.5625
-49.5,0.0,0.75
-47.0,0.0,-0.0625
-47.5,0.0,0.25
-49.0,-2.7120780329818137,0.25
-50.5,0.0,0.0625
-47.0,-0.6504078540635119,0.5
-47.0,0.024543692606170175,0.125
-47.5,0.0,0.125
-47.5,-0.04295146206079803,0.375
-44.0,-0.4479223900626072,0.1875
-44.0,-0.01227184630308513,0.375
-48.5,0.0,0.125
-48.5,0.006135923151542322,0.125
-47.5,-3.6508742751678254,0.5
-43.0,0.0,0.5625
-46.5,0.6381360077604272,0.25
-46.5,-0.006135923151542322,0.5
-43.0,-3.7735927381986776,0.5
-45.5,0.0,0.1875
-47.5,0.3313398501832985,0.25
-47.5,0.0,0.75
-45.5,0.0,0.125
-45.5,6.258641614573415,0.25
-50.0,-5.902758071783947,0.25
-49.5,0.0,0.1875
-47.0,-0.6810874698212244,0.375
-47.0,-0.030679615757713385,0.75
-49.5,0.6381360077604272,0.5
-49.0,0.0,0.5625
-47.5,-3.73064127613788,0.375
-47.5,3.1661363461959633,0.0625
-49.5,0.5890486225480869,0.25
-47.5,0.0,0.1875
-44.0,5.7616318392984684,0.375
-44.0,-0.006135923151542322,0.5625
-49.0,0.0,0.5625
-49.0,0.01840776945462763,0.5
-45.0,-0.5706408530934585,0.625
-46.0,0.0,0.25
-51.0,-5.626641529964532,0.0625
-51.0,-0.006135923151542572,0.0625
-43.0,0.0,0.25
-43.0,0.0,0.375
-46.5,3.853359739168731,0.125
-47.5,0.0,0.125
-44.5,-0.5951845456996288,0.125
-44.5,-0.012271846303085199,0.375
-47.5,0.5890486225480863,0.25
-50.0,0.0,-0.0625
-46.0,5.724816300389213,-0.0625
-46.0,-0.012271846303085532,0.1875
-49.0,0.0,0.125
-49.0,-0.006135923151542322,0.0625
-48.0,-3.73064127613788,0.375
-48.0,0.024543692606170175,0.0625
-46.5,0.0,0.25
-46.5,-3.141592653589793,0.25
-43.0,2.4114177985562275,0.5
-43.0,-3.1538644998928778,0.9375
-46.5,0.0,0.25
-46.0,0.0,0.5
-46.0,0.0,0.375
-46.0,0.012271846303085088,0.1875
-47.5,3.4115732722576664,0.0625
-47.5,-0.012271846303085532,0.5
-46.5,0.0,0.125
-46.5,-3.1293208072867085,0.375
-48.0,0.24543692606170264,0.5
-47.0,0.0,0.125
-44.0,-0.6135923151542564,0.125
-44.0,-0.006135923151542544,0.5
-47.0,0.0,0.375
-47.0,0.012271846303084644,0.1875
-43.0,-0.6994952392758522,0.5
-43.0,-3.129320807286708,0.1875
-49.5,0.0,0.0625
-49.5,-0.006135923151542322,0.125
-47.5,-0.6135923151542562,0.125
-47.5,0.0,0.1875
-49.0,0.6013204688511715,0.0625
-49.0,0.0,0.375
-47.5,-0.6135923151542562,0.125
-43.5,0.0,0.1875
-47.0,0.6013204688511715,0.25
-47.0,3.1477285767413354,0.1875
-43.5,-3.736777199289422,0.0625
-48.0,0.0,0.0625
-49.0,0.4970097752749476,0.0
-49.0,0.0,-0.0625
-48.0,0.0,0.1875
-48.0,0.012271846303084644,0.0625
-48.5,0.4233786974564371,0.0
-48.5,-3.141592653589793,0.0625
-43.5,0.0,0.1875
-43.5,-0.006135923151542544,0.5625
-46.5,0.6442719309119691,0.1875
-47.0,0.0,0.625
-43.0,2.589359569950962,0.5625
-43.0,3.135456730438251,0.5
-47.5,0.0,0.5625
-47.5,-0.006135923151542544,0.5
-44.5,-0.3436116964863837,0.375
-47.0,0.0,0.125
-48.0,-2.8532042654672924,0.25
-48.0,3.141592653589793,0.1875
-47.0,-3.4422528880153784,0.125
-44.5,0.0,0.625
-47.5,-2.761165418194154,0.5625
-47.5,0.006135923151542655,0.25
-45.5,0.0,0.125
-45.5,3.141592653589793,0.5
-47.5,0.2822524649709579,0.25
-48.0,0.0,0.375
-45.0,-0.5338253141842031,0.1875
-45.0,0.006135923151542599,0.0625
-46.5,0.0,0.1875
-46.5,-3.1231848841351657,0.125
-43.5,-0.6381360077604266,0.375
-43.5,0.012271846303085088,0.0
-47.5,0.0,0.375
-47.5,-0.006135923151542544,0.5
-45.0,-0.3190680038802134,0.1875
-45.0,0.0,0.1875
-47.0,0.0,0.1875
-47.0,-0.006135923151542565,0.1875
-43.0,2.521864415283994,0.375
-43.5,0.0,0.25
-46.5,0.6074563920027138,0.125
-46.5,3.117048960983623,0.5
-43.5,0.0,0.5
-43.5,-0.012271846303085088,0.5
-46.0,3.82881604656256,0.375
-48.0,0.0,0.1875
-46.5,-0.31293208072867074,0.375
-46.5,3.1415926535897927,0.75
-48.0,0.31906800388021406,0.0625
-49.5,0.0,0.0625
-47.0,-0.546097160487288,0.0625
-47.0,-0.006135923151542322,0.1875
-47.0,0.0,0.375
-47.0,0.01840776945462763,0.25
-44.0,-0.6013204688511713,0.375
-44.0,0.0,0.1875
-48.0,0.0,0.25
-48.0,-0.012271846303085088,0.5625
-47.5,-0.3313398501832985,0.1875
-44.5,0.0,0.125
-47.5,0.5522330836388307,0.5625
-47.5,-0.012271846303085088,0.25
-44.5,-0.5399612373357456,0.5625
-43.5,0.0,0.1875
-47.0,-5.749359992995384,0.125
-47.0,0.0,0.0625
-43.5,5.7616318392984684,0.125
-48.0,0.0,0.125
-48.5,0.5092816215780331,-0.375
-48.5,-0.024543692606170175,0.0625
-45.5,0.0,0.5
-45.5,0.030679615757712823,-0.125
-49.0,0.5154175447295753,0.0625
-49.0,0.012271846303085199,0.0
-46.5,0.0,0.0625
-47.0,-0.018407769454627854,0.25
-51.0,-5.66959299202533,0.0
-46.0,0.0,0.1875
-43.0,-3.8656315854718155,0.375
-43.0,0.006135923151542544,0.25
-46.0,3.853359739168731,0.25
-49.5,0.0,0.375
-47.5,-0.6381360077604272,0.25
-47.5,0.018407769454627854,0.25
-49.5,0.6074563920027138,0.0625
-48.5,0.0,0.125
-47.5,-0.3926990816987246,0.25
-47.5,-3.1477285767413354,0.5
-49.5,0.0,0.125
-49.5,0.018407769454626965,-0.1875
-47.0,-0.6013204688511706,0.125
-44.0,0.0,0.5
-47.5,0.44178646691106466,0.375
