5.2523503
5.2339425
5.2462144
5.2523503
5.2523503
5.2339425
5.276894
5.276894
5.2462144
5.2584863
5.270758
5.276894
2.080078
2.0862138
2.1291654
5.2400784
2.0862138
2.1353014
5.276894
5.264622
5.270758
5.2400784
5.2462144
2.1353014
5.276894
5.2523503
5.2523503
5.2400784
5.276894
5.264622
5.2400784
5.28303
5.270758
5.2584863
5.2400784
5.270758
5.2400784
5.2584863
5.2462144
5.2462144
2.1353014
2.1414373
2.0862138
5.2400784
5.2462144
5.264622
5.2584863
5.2400784
5.2339425
5.2400784
5.276894
5.2462144
5.2462144
5.2523503
5.2400784
5.2462144
2.1353014
5.2462144
2.147573
5.295302
2.1107576
5.289166
2.147573
2.1046216
5.276894
5.289166
5.289166
5.2584863
2.1598449
5.295302
5.264622
5.295302
2.1107576
5.289166
5.264622
5.289166
5.276894
5.270758
2.1107576
5.289166
5.264622
5.264622
5.2584863
2.1107576
5.276894
5.295302
5.276894
5.295302
5.2584863
5.3014374
5.2523503
5.295302
5.295302
5.295302
5.2584863
5.295302
5.264622
5.264622
5.295302
5.2584863
5.264622
5.2523503
5.270758
5.264622
5.270758
5.264622
5.2400784
2.153709
5.2523503
5.2584863
5.289166
5.2584863
5.295302
2.1598449
5.264622
5.289166
2.153709
2.1598449
2.153709
5.270758
2.0984857
5.2584863
5.2584863
2.0984857
5.2523503
2.147573
5.295302
2.0923498
5.264622
5.270758
2.147573
5.264622
5.270758
2.147573
5.270758
5.276894
5.264622
2.1598449
5.264622
5.2523503
5.295302
5.295302
5.2584863
2.1107576
5.289166
5.295302
5.2523503
5.2584863
5.289166
5.2584863
5.295302
2.147573
5.2462144
5.270758
5.289166
2.153709
2.153709
5.270758
5.2584863
5.295302
2.153709
5.295302
2.153709
5.264622
5.289166
5.264622
5.264622
2.153709
5.2584863
5.289166
5.3014374
5.264622
5.264622
5.270758
5.289166
2.153709
2.147573
2.147573
5.2584863
5.295302
5.2584863
5.276894
5.270758
5.270758
5.28303
5.270758
2.1598449
5.264622
5.295302
5.295302
5.270758
5.295302
5.3014374
5.295302
5.295302
2.153709
5.2584863
5.264622
5.2584863
5.264622
5.289166
5.276894
5.264622
5.276894
5.2584863
5.270758
5.2584863
2.153709
5.264622
5.289166
5.2584863
2.147573
2.153709
5.289166
5.295302
2.147573
5.264622
5.264622
5.295302
5.2584863
5.276894
5.295302
2.0984857
5.2584863
2.153709
5.295302
5.276894
5.264622
5.2523503
5.295302
2.1107576
5.289166
5.295302
5.270758
5.295302
5.2523503
5.264622
5.3014374
5.289166
5.289166
2.147573
5.264622
5.295302
5.2523503
5.295302
2.1168935
5.264622
5.276894
2.147573
5.270758
2.1598449
5.264622
5.264622
5.2462144
5.2462144
5.270758
5.2584863
2.153709
5.289166
5.295302
5.289166
5.295302
5.295302
2.1046216
5.3014374
5.276894
2.153709
2.1598449
5.270758
5.289166
5.2584863
2.1168935
2.0984857
5.270758
5.295302
5.270758
5.264622
5.270758
5.270758
2.153709
5.270758
2.1046216
5.295302
5.295302
5.270758
2.153709
5.2584863
5.2584863
5.295302
5.2584863
5.28303
2.1107576
5.264622
5.264622
5.270758
5.2584863
5.2584863
5.295302
5.289166
5.276894
2.1107576
5.28303
5.276894
5.289166
5.28303
5.28303
5.3075733
5.3075733
2.1107576
5.276894
5.270758
5.289166
5.3075733
5.289166
5.3075733
5.3137093
5.28303
5.270758
5.319845
5.3075733
5.3137093
5.3137093
5.3137093
5.3075733
2.1659808
5.3075733
5.3137093
2.1721168
2.1659808
2.1721168
5.3137093
5.276894
2.1168935
5.28303
5.3137093
5.270758
5.3137093
5.3075733
5.270758
5.28303
5.270758
5.295302
5.3075733
5.28303
5.3075733
5.3075733
2.1721168
5.3075733
5.28303
2.1168935
5.3137093
5.28303
5.3075733
5.28303
5.28303
5.3137093
5.289166
5.2584863
2.153709
5.28303
5.295302
5.2584863
2.1598449
5.2584863
2.1414373
5.295302
5.289166
5.295302
2.147573
5.295302
5.295302
5.2584863
5.295302
2.147573
2.147573
2.1414373
5.2462144
5.295302
5.264622
5.2584863
5.3014374
5.295302
5.2584863
5.28303
5.289166
5.2584863
2.147573
5.295302
5.270758
5.3014374
2.1414373
5.28303
5.270758
5.289166
5.2584863
5.289166
2.153709
5.2584863
5.289166
5.289166
5.264622
5.295302
5.295302
5.2523503
5.295302
5.295302
5.2584863
2.1598449
5.289166
2.1414373
5.295302
2.1598449
5.28303
5.2584863
5.289166
5.295302
5.295302
5.295302
5.3014374
5.3014374
5.28303
5.295302
2.153709
5.289166
5.3014374
2.1598449
5.295302
5.3075733
2.1046216
2.1046216
5.295302
5.3014374
5.289166
5.264622
5.264622
2.153709
5.2584863
5.3014374
5.270758
5.28303
5.264622
2.1598449
5.28303
5.28303
5.295302
5.276894
5.3014374
5.2584863
5.3014374
5.295302
2.147573
5.295302
2.1598449
5.295302
5.3014374
5.3014374
5.3014374
2.153709
2.0984857
2.1107576
5.295302
5.295302
5.295302
5.295302
5.3014374
5.295302
2.1598449
5.295302
5.3014374
5.295302
5.3075733
5.3014374
5.289166
5.295302
5.289166
5.2584863
5.28303
5.2523503
5.289166
5.2584863
2.153709
5.289166
2.1598449
5.295302
5.295302
5.289166
5.2584863
5.2584863
5.289166
2.153709
5.2584863
2.1414373
5.2523503
5.289166
5.3014374
5.28303
5.295302
2.1107576
5.28303
5.295302
5.28303
5.295302
2.0984857
5.270758
5.295302
5.289166
5.28303
2.147573
2.1598449
5.295302
2.1598449
5.289166
2.1107576
2.1414373
5.289166
5.289166
5.3075733
5.295302
2.153709
5.289166
5.264622
5.295302
5.289166
5.295302
5.2584863
5.295302
5.295302
5.28303
2.147573
5.289166
2.1107576
5.276894
5.270758
5.295302
5.264622
2.1414373
5.2584863
5.2584863
5.295302
5.2523503
2.1414373
5.2584863
5.2523503
5.2523503
5.264622
5.289166
2.0984857
5.28303
5.289166
5.289166
5.264622
5.295302
5.289166
5.295302
5.276894
2.153709
5.2584863
5.289166
5.2523503
5.264622
5.2584863
5.289166
5.276894
5.289166
5.2400784
5.295302
5.295302
5.28303
5.2584863
5.2523503
2.1598449
5.276894
5.289166
5.264622
5.264622
5.289166
2.1046216
2.1598449
5.295302
5.3014374
5.295302
5.264622
5.289166
5.270758
5.2523503
2.147573
5.264622
2.1414373
5.295302
5.2584863
5.2584863
2.147573
5.289166
5.289166
5.289166
5.2584863
5.28303
2.1598449
5.289166
5.2584863
5.276894
5.270758
2.1107576
5.295302
2.0984857
5.2523503
5.289166
5.264622
5.276894
5.289166
2.153709
5.289166
5.264622
5.295302
5.289166
5.276894
5.289166
5.2523503
2.147573
2.1414373
5.2584863
5.2584863
5.270758
5.264622
5.295302
5.289166
5.2584863
5.270758
2.147573
5.295302
2.147573
5.2584863
5.295302
5.289166
5.289166
5.2584863
5.2584863
5.289166
5.295302
5.289166
5.2462144
2.0984857
5.276894
5.28303
5.295302
2.0984857
5.2584863
5.276894
2.153709
5.2584863
5.295302
5.295302
5.289166
5.264622
5.2584863
5.2584863
5.295302
5.270758
5.270758
5.264622
5.2339425
5.270758
2.153709
5.289166
5.2462144
5.2584863
2.1598449
5.264622
5.289166
2.1107576
5.264622
5.2462144
2.1046216
5.289166
5.295302
5.2584863
5.295302
5.295302
5.276894
5.270758
5.3014374
5.2523503
5.2584863
5.276894
5.289166
5.2584863
5.289166
5.264622
5.2523503
5.2584863
5.295302
5.2400784
2.153709
5.264622
2.1107576
5.270758
5.276894
5.2584863
5.2584863
5.2584863
5.2584863
2.1046216
5.264622
5.289166
5.2584863
5.2523503
5.28303
5.270758
5.289166
5.2584863
5.295302
5.289166
5.2584863
2.1414373
5.2523503
5.295302
5.2523503
5.270758
2.1414373
5.264622
5.28303
5.2584863
2.0923498
5.2584863
5.289166
5.2584863
2.1107576
5.2523503
5.2523503
5.270758
5.264622
5.2584863
5.28303
5.2523503
2.147573
5.2584863
5.289166
5.2584863
5.289166
5.289166
5.270758
5.289166
5.289166
5.2523503
5.2462144
5.289166
5.2584863
2.0923498
5.289166
2.1414373
5.295302
5.289166
5.2584863
5.270758
2.147573
2.153709
5.289166
5.264622
5.2523503
5.264622
5.28303
5.2523503
5.2584863
2.1414373
5.2523503
5.289166
2.0984857
2.1046216
5.2523503
5.295302
5.270758
5.2523503
5.295302
5.276894
5.289166
5.2584863
5.295302
2.1046216
5.270758
5.295302
5.3014374
5.295302
5.289166
2.1107576
5.295302
5.3014374
5.289166
5.295302
5.3014374
5.289166
5.270758
5.3014374
2.153709
5.295302
5.3014374
5.295302
5.276894
5.270758
5.295302
5.2584863
5.28303
5.295302
5.3014374
5.264622
2.1598449
5.295302
5.270758
5.295302
5.289166
5.276894
5.295302
2.153709
5.270758
5.264622
5.264622
5.3014374
2.1598449
5.276894
5.289166
5.270758
5.289166
5.2523503
5.3014374
2.147573
5.289166
5.295302
5.264622
5.270758
5.295302
5.295302
5.270758
5.295302
5.289166
5.289166
5.28303
5.289166
2.1414373
5.3014374
5.295302
5.289166
5.295302
5.289166
5.295302
5.28303
5.264622
5.276894
5.264622
5.289166
2.147573
5.295302
5.289166
2.147573
5.2523503
5.295302
5.289166
5.289166
5.295302
5.289166
5.289166
5.289166
2.1353014
5.289166
5.289166
5.28303
2.147573
5.2584863
5.2523503
5.295302
5.295302
5.289166
5.295302
2.1598449
2.147573
5.2523503
5.270758
2.1046216
5.289166
5.289166
5.28303
5.295302
5.289166
2.147573
5.270758
5.3014374
5.289166
2.153709
5.270758
2.153709
2.147573
2.1414373
5.264622
5.289166
5.289166
5.264622
2.1598449
2.147573
5.2584863
5.289166
5.264622
5.2523503
5.28303
5.295302
5.2584863
5.295302
2.1414373
5.28303
2.1598449
5.264622
5.276894
5.2584863
5.3014374
5.2584863
5.295302
5.295302
5.289166
5.2400784
5.289166
5.289166
5.289166
2.147573
2.153709
5.2523503
5.295302
5.289166
2.147573
5.2584863
5.2584863
5.264622
5.295302
5.270758
5.295302
2.1414373
5.289166
5.295302
5.264622
5.270758
5.28303
5.28303
5.289166
5.295302
5.2584863
2.1107576
5.264622
5.289166
5.295302
5.289166
5.28303
2.0984857
5.289166
5.2523503
5.2523503
5.2523503
5.264622
5.2278066
5.264622
5.264622
5.264622
5.2584863
5.2523503
2.1168935
5.2523503
2.1168935
5.2462144
5.2584863
5.2462144
5.2278066
5.270758
5.2584863
5.264622
2.1230295
5.264622
5.2523503
5.2339425
5.2278066
5.2278066
5.2523503
5.270758
5.2216706
5.2523503
5.2462144
5.2278066
5.2584863
5.2584863
5.2462144
5.2400784
5.2584863
5.2216706
5.2278066
2.1107576
5.2278066
5.2584863
5.264622
5.2462144
5.2339425
5.2584863
5.270758
5.2584863
5.2400784
5.2584863
2.1107576
5.270758
5.2584863
5.2278066
5.2584863
5.2278066
5.2462144
5.2400784
5.2523503
5.2278066
5.2584863
2.1046216
5.295302
5.270758
2.153709
5.270758
5.270758
5.264622
5.264622
5.276894
5.295302
5.270758
5.2584863
5.295302
5.295302
5.276894
5.295302
2.1598449
2.1353014
5.264622
5.276894
5.2523503
2.0984857
5.2584863
5.289166
2.1046216
5.2584863
2.147573
5.264622
2.1414373
5.3014374
5.295302
5.264622
5.295302
2.1598449
5.295302
5.276894
2.147573
5.295302
2.1046216
5.264622
5.295302
5.2584863
5.3014374
5.270758
5.270758
5.264622
5.264622
5.2523503
5.264622
5.295302
5.276894
2.153709
5.276894
5.3014374
5.295302
5.2584863
5.270758
2.1046216
2.147573
5.270758
5.289166
5.2155347
5.2462144
2.1107576
5.264622
5.2216706
5.264622
5.2523503
5.2278066
5.2584863
5.2462144
5.2523503
5.2523503
5.2584863
5.2523503
5.2584863
5.2216706
5.2278066
5.264622
5.264622
5.270758
5.2584863
5.2523503
5.264622
5.2216706
5.2523503
5.2523503
5.2462144
5.2584863
5.2523503
5.2584863
5.2523503
2.0984857
5.2584863
2.067806
5.2339425
5.2278066
5.2523503
5.264622
5.2339425
5.2339425
5.264622
5.2339425
2.1046216
5.2523503
2.0984857
2.1046216
5.2523503
5.2584863
2.1046216
5.2584863
5.2339425
5.2216706
5.2278066
5.2584863
5.2584863
5.2523503
5.2523503
5.2400784
5.2278066
5.2584863
5.2584863
5.270758
5.2339425
5.270758
5.264622
5.2339425
5.270758
5.2584863
5.264622
5.2216706
5.264622
2.1291654
5.264622
5.2523503
5.2523503
5.264622
2.1291654
5.2278066
5.264622
5.264622
2.1107576
5.270758
5.270758
5.2339425
5.264622
2.1107576
5.264622
5.2584863
2.1230295
5.2584863
5.2584863
5.264622
5.264622
2.1230295
2.1107576
5.2523503
5.270758
5.2523503
5.276894
5.270758
2.1168935
5.2462144
5.264622
2.1291654
5.2339425
5.2462144
5.2400784
5.2278066
5.264622
5.264622
5.276894
5.2584863
5.264622
5.2584863
5.2339425
5.264622
5.2339425
5.2584863
5.270758
5.264622
5.2400784
5.2523503
5.270758
5.2339425
5.2462144
5.270758
5.2462144
2.1230295
5.264622
5.2339425
2.1168935
5.2339425
5.264622
2.080078
5.270758
5.270758
5.264622
5.264622
2.073942
5.2339425
5.270758
2.1230295
5.2462144
5.264622
5.2339425
5.270758
5.2400784
5.264622
5.264622
5.2400784
2.1291654
5.2400784
5.264622
2.1291654
5.2339425
2.1168935
5.2400784
5.2462144
5.2462144
5.2400784
5.264622
5.2462144
5.2278066
5.2216706
5.2400784
5.2339425
5.2339425
5.2462144
5.2339425
2.073942
2.067806
5.264622
2.1291654
5.2278066
2.1291654
2.1291654
5.2400784
5.2339425
5.264622
5.264622
5.2155347
5.264622
2.1168935
2.1230295
5.264622
5.2584863
5.270758
5.264622
5.264622
5.2584863
5.2278066
5.264622
2.1230295
5.2462144
5.270758
5.2339425
5.2584863
5.2584863
5.2584863
5.264622
5.2278066
2.1230295
5.28303
5.264622
2.1107576
5.2339425
2.1291654
5.264622
5.2584863
5.276894
5.264622
5.2523503
5.264622
5.264622
5.2584863
5.2584863
5.264622
5.2462144
5.2339425
2.1230295
5.2523503
2.1230295
5.276894
5.264622
2.1230295
5.2278066
2.1107576
5.270758
2.1230295
5.2584863
5.2584863
5.264622
5.270758
2.1168935
2.1107576
5.2584863
5.276894
5.2584863
5.2462144
5.270758
2.1291654
2.1291654
5.276894
5.2339425
5.270758
5.2400784
5.2584863
5.2462144
5.276894
5.2400784
5.2462144
5.2523503
2.1291654
5.2523503
5.270758
5.2462144
5.2339425
5.2584863
2.1353014
5.2523503
5.2462144
5.276894
5.270758
5.264622
5.270758
5.270758
2.1353014
5.270758
2.1353014
5.270758
5.270758
5.2400784
5.2523503
5.264622
5.270758
5.28303
5.270758
2.1353014
5.2400784
5.2523503
5.2584863
5.270758
5.2339425
5.2584863
5.270758
5.2584863
5.264622
5.270758
5.270758
5.2400784
5.276894
5.2462144
2.1353014
5.28303
2.1353014
5.276894
5.2339425
5.2584863
5.2400784
5.276894
5.270758
5.2400784
5.276894
5.276894
5.270758
2.1291654
5.264622
2.1353014
5.28303
5.276894
5.264622
5.276894
2.1168935
5.276894
5.270758
2.1414373
5.2462144
5.270758
5.2462144
5.2400784
5.28303
5.2400784
5.2400784
5.276894
5.28303
2.0862138
5.28303
5.2462144
2.1291654
5.289166
5.270758
5.2400784
5.2462144
5.2400784
5.2462144
2.1230295
5.2400784
5.270758
5.2339425
5.2462144
5.270758
5.2584863
5.264622
2.1353014
5.2462144
5.2400784
5.2462144
2.0862138
2.0923498
5.28303
5.2462144
5.2400784
5.2400784
5.2400784
5.270758
5.28303
5.2278066
5.264622
2.067806
5.2400784
5.2339425
5.264622
5.2523503
5.2523503
2.1168935
5.264622
5.2584863
5.2584863
5.2584863
2.1107576
5.2278066
5.2339425
5.2278066
5.2584863
5.2584863
5.2216706
5.264622
5.2584863
5.2584863
2.1107576
5.2523503
2.1107576
5.2523503
5.2523503
5.2278066
5.2584863
2.1230295
5.2216706
2.1046216
5.2523503
5.2462144
2.1107576
5.2584863
5.2523503
5.264622
2.1168935
5.2400784
5.2584863
5.2278066
5.2523503
5.2584863
2.1107576
2.067806
2.1168935
5.2584863
5.2216706
5.264622
5.2400784
5.2584863
5.2400784
5.264622
5.2278066
5.2339425
5.2278066
5.2584863
5.2400784
5.2584863
5.264622
5.2278066
2.1168935
5.2462144
5.270758
5.2400784
5.2584863
5.2339425
5.276894
2.1353014
2.1230295
5.2584863
2.1291654
2.1353014
5.2400784
5.2584863
2.1168935
5.270758
2.1230295
5.270758
5.2462144
2.1353014
5.264622
2.073942
5.270758
5.2339425
5.2462144
5.270758
5.2339425
2.1353014
5.2339425
5.270758
5.264622
2.1291654
5.276894
5.264622
2.1353014
2.1291654
5.264622
5.2584863
5.270758
5.2339425
2.1353014
5.2339425
5.2462144
5.2400784
5.264622
5.2339425
5.270758
5.2339425
5.270758
5.276894
5.2584863
5.264622
5.276894
5.2339425
5.2400784
5.2339425
5.2523503
2.1230295
5.2584863
5.2584863
5.264622
5.264622
5.2462144
5.2584863
5.264622
5.2584863
5.264622
5.264622
5.2523503
5.264622
5.2278066
5.2462144
5.2523503
5.270758
5.2584863
5.2400784
5.264622
2.1230295
5.264622
5.264622
5.2584863
5.2339425
5.2278066
5.2523503
5.264622
5.2339425
5.2584863
5.2462144
5.2584863
5.2523503
5.2400784
2.1230295
2.1168935
5.270758
5.264622
5.2339425
5.264622
5.2339425
5.270758
5.2278066
2.1168935
5.2400784
5.2462144
5.2155347
5.2400784
5.270758
5.2278066
5.264622
5.264622
5.2584863
5.264622
5.2400784
2.1230295
5.2278066
5.2400784
5.2278066
5.2339425
5.264622
5.264622
2.1230295
5.2339425
5.264622
5.2278066
5.2584863
5.2400784
5.2584863
5.2278066
5.2400784
5.264622
5.2339425
5.2339425
5.2339425
5.2400784
5.270758
5.2155347
2.1230295
2.1168935
5.2155347
5.2400784
5.2278066
5.2584863
5.2400784
5.2584863
5.2278066
5.2278066
5.2339425
2.067806
5.2584863
2.067806
5.264622
2.080078
2.1168935
5.2278066
5.264622
5.2339425
5.2339425
5.2339425
5.264622
5.2523503
5.264622
5.2584863
5.2155347
5.2584863
5.2584863
5.2339425
5.2400784
5.2339425
2.1291654
2.1168935
5.264622
5.2400784
5.2216706
5.2278066
5.2400784
5.2339425
2.1353014
5.270758
5.2584863
5.270758
5.2584863
2.073942
5.2462144
5.264622
5.264622
5.264622
5.270758
5.2339425
5.276894
5.2400784
5.276894
5.264622
5.270758
5.2584863
5.276894
5.270758
5.270758
5.2523503
2.1230295
5.2462144
5.2462144
2.1353014
5.270758
5.2462144
5.2339425
5.2462144
5.264622
5.270758
2.1291654
2.080078
5.2400784
2.1353014
2.073942
5.270758
5.276894
5.270758
5.270758
5.270758
2.1230295
2.073942
5.2523503
5.270758
2.1291654
5.264622
5.264622
5.264622
2.080078
5.270758
5.264622
5.2523503
2.0923498
5.2523503
5.270758
5.264622
5.270758
5.2523503
