-34.0,0.0,1.625
-34.5,0.006135923151542322,0.8125
-34.5,-0.024543692606170175,6.5
-34.0,0.03067961575771294,2.4375
-34.0,-0.012271846303085088,2.4375
-34.0,0.0,3.25
-34.5,0.01840776945462741,0.0
-34.0,-0.024543692606170175,3.25
-34.5,0.012271846303085088,5.6875
-34.5,0.012271846303085088,0.8125
-34.5,0.0,2.4375
-34.5,0.012271846303085532,0.8125
-34.0,-0.006135923151542766,-0.8125
-34.0,-0.006135923151542766,1.625
-34.5,0.0,1.625
-34.5,-0.01840776945462741,7.3125
-34.0,0.006135923151542322,1.625
-34.0,-0.006135923151542322,3.25
-34.0,0.01840776945462741,0.0
-34.0,-0.006135923151542322,2.4375
-34.0,0.006135923151542322,0.8125
-34.0,0.0,0.0
-34.0,0.0,0.8125
-34.0,-0.024543692606170175,4.875
-34.5,0.024543692606170175,0.8125
-34.5,0.0,2.4375
-34.5,0.0,0.8125
-34.0,-0.012271846303085088,0.8125
-34.5,0.006135923151542766,1.625
-34.5,-0.012271846303085088,3.25
-34.5,-0.006135923151542766,4.875
-34.5,0.0,5.6875
-34.5,0.0,3.25
-34.5,0.006135923151542766,0.8125
-34.5,0.006135923151542322,1.625
-34.5,-0.012271846303085088,5.6875
-34.0,0.0,4.875
-34.0,-0.006135923151542322,4.875
-34.5,0.006135923151542322,2.4375
-34.5,0.024543692606170175,1.625
-34.5,-0.024543692606170175,4.875
-34.5,0.012271846303085088,1.625
-34.5,0.012271846303085088,0.0
-34.5,-0.01840776945462741,3.25
-34.0,0.024543692606170175,-2.4375
-34.0,-0.012271846303085088,0.8125
-34.0,0.006135923151542322,0.0
-34.5,-0.012271846303085088,4.875
-34.5,0.0,1.625
-34.5,0.018407769454627854,0.8125
-34.5,0.006135923151542766,-0.8125
-34.0,-0.02454369260617062,3.25
-34.5,0.0,2.4375
-34.5,0.0,1.625
-34.5,0.006135923151542766,0.8125
-34.5,-0.006135923151542766,2.4375
-34.5,0.006135923151542766,0.0
-34.0,0.018407769454627854,0.0
-34.5,-0.018407769454627854,0.8125
-34.0,0.0,1.625
-34.5,-0.006135923151542766,4.875
-34.5,-0.006135923151542322,4.875
-34.0,0.024543692606170175,-0.8125
-34.5,0.0,2.4375
-34.5,-0.006135923151542766,2.4375
-34.0,0.0,1.625
-34.5,-0.006135923151542322,2.4375
-34.5,0.012271846303085088,2.4375
-34.5,-0.018407769454627854,4.875
-34.5,0.0,4.875
-34.5,0.006135923151542766,3.25
-34.5,-0.006135923151542766,2.4375
-34.5,0.0,2.4375
-34.0,0.0,1.625
-34.5,0.03067961575771294,2.4375
-34.5,-0.018407769454627854,1.625
-34.5,0.012271846303085532,0.8125
-34.5,-0.018407769454627854,4.875
-34.5,0.006135923151542322,1.625
-34.5,0.012271846303085532,1.625
-34.5,-0.006135923151542766,3.25
-34.0,-0.018407769454627854,4.875
-34.5,0.03067961575771294,-0.8125
-34.5,-0.018407769454627854,0.8125
-34.5,-0.006135923151542322,3.25
-34.5,0.006135923151542322,1.625
-34.5,-0.012271846303085088,3.25
-34.5,0.02454369260617062,1.625
-34.5,-0.018407769454627854,4.875
-34.5,0.0,2.4375
-34.0,0.012271846303085088,2.4375
-34.5,-0.024543692606170175,6.5
-34.5,0.03681553890925526,0.0
-34.5,0.006135923151542766,-0.8125
-34.5,-0.018407769454627854,2.4375
-34.5,-0.012271846303085088,3.25
-34.5,0.006135923151542322,4.875
-34.5,-0.012271846303085088,2.4375
-34.5,0.018407769454627854,2.4375
-34.5,-0.006135923151542766,2.4375
-34.5,-0.012271846303085088,5.6875
-34.5,0.006135923151542766,2.4375
-34.5,0.018407769454627854,1.625
-34.5,-0.006135923151542766,2.4375
-34.5,0.0,2.4375
-34.5,-0.006135923151542766,2.4375
-34.5,0.012271846303085532,2.4375
-34.5,0.012271846303085088,-1.625
-34.5,-0.012271846303085088,0.8125
-34.5,0.0,0.0
-34.5,-0.012271846303085532,3.25
-34.5,0.006135923151542766,1.625
-34.5,0.012271846303085088,0.8125
-34.5,-0.012271846303085088,2.4375
-34.5,-0.012271846303085088,3.25
-34.5,0.03067961575771294,-0.8125
-34.5,-0.012271846303085088,1.625
-34.5,-0.012271846303085532,4.875
-34.5,0.0,1.625
-34.5,0.0,1.625
-34.5,0.006135923151542766,0.0
-34.5,0.0,2.4375
-34.5,-0.006135923151542766,2.4375
-34.5,0.0,1.625
-34.5,0.0,2.4375
-34.5,0.006135923151542766,1.625
-34.5,0.006135923151542766,1.625
-34.5,-0.018407769454627854,3.25
-34.5,0.0,2.4375
-34.5,0.012271846303085088,2.4375
-34.5,-0.006135923151542766,2.4375
-34.5,0.0,2.4375
-34.5,0.006135923151542766,0.8125
-34.5,0.0,1.625
-34.5,-0.018407769454627854,4.875
-34.5,0.012271846303085088,2.4375
-34.5,0.02454369260617062,-0.8125
-34.5,-0.018407769454627854,1.625
-34.5,0.012271846303085088,-0.8125
-34.5,0.0,0.0
-34.5,0.0,-0.8125
-34.5,-0.018407769454627854,4.875
-34.5,0.0,4.875
-34.5,0.006135923151542766,2.4375
-34.5,0.012271846303085088,0.0
-34.5,-0.018407769454627854,2.4375
-34.5,0.012271846303085532,0.0
-34.5,-0.02454369260617062,6.5
-34.5,0.012271846303085088,1.625
-34.5,0.02454369260617062,0.0
-34.5,-0.03067961575771294,2.4375
-34.5,0.006135923151542322,3.25
-34.5,0.006135923151542766,2.4375
-34.5,0.03681553890925526,-3.25
-34.5,-0.030679615757712497,0.0
-34.5,-0.012271846303085532,2.4375
-34.5,0.0,2.4375
-34.5,0.018407769454627854,0.0
-34.5,-0.012271846303085088,1.625
-34.5,0.0,1.625
-34.5,0.006135923151542766,0.0
-34.5,-0.018407769454627854,4.875
-34.5,0.006135923151542322,1.625
-34.5,-0.012271846303085088,5.6875
-34.5,-0.006135923151542322,6.5
-34.5,0.024543692606170175,1.625
-34.5,0.006135923151542766,0.8125
-34.5,0.0,0.0
-34.5,-0.018407769454627854,3.25
-34.5,0.006135923151542322,2.4375
-34.5,-0.006135923151542322,4.875
-34.5,0.018407769454627854,0.8125
-34.5,-0.012271846303085532,1.625
-34.5,0.018407769454627854,1.625
-35.0,-0.024543692606170175,0.0
-34.5,0.018407769454627854,0.0
-34.5,-0.018407769454627854,3.25
-35.0,-0.018407769454627854,4.875
-35.0,0.012271846303085088,3.25
-35.0,0.006135923151542766,0.0
-35.0,0.006135923151542322,0.0
-35.0,-0.006135923151542322,1.625
-34.5,0.006135923151542322,0.0
-35.0,0.006135923151542766,-0.8125
-35.0,-0.018407769454627854,2.4375
-34.5,-0.012271846303085088,2.4375
-34.5,0.0,3.25
-35.0,-0.012271846303085088,5.6875
-35.0,0.0,5.6875
-35.0,-0.006135923151542322,4.875
-35.0,0.024543692606170175,2.4375
-35.0,0.012271846303085088,0.8125
-35.0,-0.012271846303085088,2.4375
-35.0,0.0,0.0
-35.0,0.0,3.25
-35.0,-0.024543692606170175,6.5
-35.0,0.04908738521234035,1.625
-35.0,0.0,-0.8125
-35.0,-0.012271846303085088,4.875
-35.0,0.018407769454627854,0.0
-35.0,0.006135923151542322,0.8125
-35.0,-0.018407769454627854,4.0625
-34.5,0.018407769454627854,0.8125
-35.0,0.006135923151542766,0.0
-34.5,0.0,0.8125
-35.0,0.01840776945462741,0.0
-35.0,-0.006135923151542322,0.0
-35.0,0.006135923151542322,-0.8125
-35.0,0.0,0.0
-35.0,0.006135923151542766,-0.8125
-34.5,-0.018407769454627854,4.875
-35.0,0.03067961575771294,1.625
-35.0,-0.024543692606170175,2.4375
-35.0,0.01840776945462741,0.8125
-35.0,-0.012271846303085088,2.4375
-35.0,-0.006135923151542322,3.25
-35.0,0.012271846303085088,0.0
-35.0,-0.006135923151542766,0.8125
-35.0,0.006135923151542766,0.0
-35.0,-0.012271846303085088,4.875
-35.0,0.024543692606170175,-0.8125
-35.0,-0.018407769454627854,2.4375
-35.0,0.018407769454627854,0.0
-35.0,-0.024543692606170175,3.25
-35.0,0.012271846303085088,0.8125
-35.0,-0.006135923151542766,2.4375
-35.0,0.018407769454627854,0.8125
-35.0,-0.03681553890925526,4.875
-35.0,0.0,7.3125
-35.0,0.01840776945462741,3.25
-35.0,0.0,1.625
-34.5,0.0,1.625
-34.5,0.012271846303085088,0.8125
-35.0,-0.012271846303085088,4.0625
-34.5,0.012271846303085088,2.4375
-34.5,0.012271846303085088,-0.8125
-35.0,0.0,0.8125
-34.5,0.03067961575771294,-3.25
-34.5,-0.024543692606170175,0.0
-34.5,0.006135923151542766,1.625
-34.5,-0.006135923151542766,3.25
-34.0,0.03067961575771294,-0.8125
-34.0,-0.012271846303085088,1.625
-34.5,-0.012271846303085088,3.25
-34.5,0.030679615757712497,1.625
-34.5,0.006135923151542766,0.8125
-34.0,0.0,1.625
-34.5,-0.006135923151542766,1.625
-34.5,0.0,4.875
-34.0,0.006135923151542766,3.25
-34.5,0.024543692606170175,1.625
-34.5,0.006135923151542766,1.625
-34.5,-0.006135923151542766,3.25
-34.5,0.0,2.4375
-34.0,0.012271846303085088,2.4375
-34.5,0.024543692606170175,-0.8125
-34.5,-0.006135923151542322,1.625
-34.0,-0.006135923151542766,1.625
-34.0,0.024543692606170175,-0.8125
-34.0,-0.012271846303085088,1.625
-34.0,0.006135923151542766,3.25
-34.5,0.03681553890925526,-0.8125
-34.0,-0.03067961575771294,2.4375
-34.0,0.006135923151542766,4.875
-34.0,0.0,4.875
-34.0,0.03067961575771294,0.8125
-34.5,0.0,1.625
-34.5,0.006135923151542322,2.4375
-34.0,0.006135923151542766,1.625
-34.0,0.0,1.625
-34.5,0.01840776945462741,-0.8125
-34.5,0.012271846303085532,0.0
-34.5,0.0,0.8125
-34.0,0.024543692606170175,-5.6875
-34.0,0.012271846303085088,-3.25
-34.0,-0.018407769454627854,-0.8125
-34.0,0.006135923151542766,0.8125
-34.0,0.01840776945462741,-1.625
-34.0,0.006135923151542766,-3.25
-34.0,-0.012271846303085088,0.0
-34.0,0.03681553890925526,-4.0625
-34.0,-0.006135923151542322,-0.8125
-34.0,0.01840776945462741,-1.625
-34.0,0.0,-1.625
-33.5,0.012271846303085088,-1.625
-33.5,0.0,-0.8125
-34.0,0.012271846303085088,0.0
-33.5,0.012271846303085088,0.8125
-33.5,0.02454369260617062,-3.25
-33.5,0.0,-1.625
-33.5,0.012271846303084644,-2.4375
-33.5,-0.006135923151542322,0.0
-33.5,0.018407769454627854,-1.625
-33.5,0.012271846303084644,0.0
-33.0,0.018407769454627854,0.0
-33.0,-0.006135923151542322,-1.625
-33.0,0.0,-0.8125
-33.5,0.012271846303085532,0.0
-33.0,0.006135923151542322,0.0
-33.5,0.018407769454627854,-1.625
-33.0,0.0,-0.8125
-33.0,0.0,0.0
-32.5,0.0,0.0
-32.5,0.012271846303084644,0.8125
-33.0,0.012271846303085532,-0.8125
-32.5,-0.00613592315154321,0.8125
-33.0,0.018407769454627854,-0.8125
-32.5,0.012271846303085532,-2.4375
-33.0,0.012271846303084644,-2.4375
-32.5,-0.012271846303084644,0.0
-32.5,0.012271846303084644,-0.8125
-33.0,0.024543692606170175,-4.875
-32.5,-0.006135923151542322,0.8125
-33.0,0.018407769454627854,-4.0625
-32.5,0.0,-0.8125
-32.5,0.018407769454627854,-1.625
-32.5,-0.006135923151542322,0.8125
-32.5,0.012271846303084644,-0.8125
-32.5,0.012271846303085532,0.0
-32.0,0.018407769454626965,-3.25
-32.5,0.00613592315154321,-0.8125
-32.5,0.006135923151542322,-2.4375
-32.5,0.0,0.8125
-32.5,0.024543692606170175,-1.625
-32.5,0.0,-1.625
-32.5,0.012271846303085532,-2.4375
-32.5,0.006135923151542322,-1.625
-32.5,0.024543692606170175,-2.4375
-32.5,0.012271846303085532,-2.4375
-32.5,-0.00613592315154321,-0.8125
-32.5,0.0,0.0
-32.5,0.00613592315154321,1.625
-32.5,0.018407769454626965,-2.4375
-32.0,0.00613592315154321,0.0
-32.5,0.018407769454627854,-2.4375
-32.0,0.0,0.8125
-32.5,0.012271846303084644,-0.8125
-32.0,0.006135923151542322,-0.8125
-32.5,0.012271846303085532,-0.8125
-32.0,0.012271846303084644,0.0
-32.5,0.00613592315154321,-0.8125
-32.0,0.012271846303084644,-0.8125
-32.5,0.00613592315154321,0.0
-32.0,0.024543692606170175,-3.25
-32.0,0.012271846303084644,-3.25
-32.0,-0.018407769454627854,1.625
-32.5,0.018407769454627854,0.0
-32.5,0.018407769454627854,0.0
-32.5,0.012271846303085532,0.8125
-32.5,0.024543692606170175,-3.25
-32.0,0.006135923151542322,-0.8125
-32.5,0.012271846303084644,-2.4375
-32.5,0.012271846303085532,-0.8125
-32.5,0.024543692606170175,-2.4375
-32.5,0.006135923151542322,-4.0625
-32.5,0.012271846303085532,-2.4375
-32.5,0.012271846303084644,-2.4375
-33.0,0.018407769454627854,-4.0625
-32.5,0.018407769454627854,-1.625
-33.0,-0.006135923151542322,0.0
-32.5,0.012271846303084644,-0.8125
-33.0,0.024543692606170175,-2.4375
-33.0,-0.012271846303084644,0.8125
-33.0,0.024543692606170175,0.0
-32.5,0.012271846303085532,1.625
-32.5,0.018407769454626965,-1.625
-32.5,0.0,1.625
-32.5,0.024543692606170175,-0.8125
-32.5,0.00613592315154321,-0.8125
-32.5,0.012271846303084644,0.8125
-32.5,0.024543692606170175,-1.625
-32.5,0.00613592315154321,-0.8125
-32.5,0.0,2.4375
-32.5,0.012271846303084644,0.8125
-32.5,0.024543692606170175,0.8125
-32.5,0.012271846303085532,-0.8125
-32.0,-0.006135923151542322,2.4375
-32.0,0.030679615757712497,0.0
-32.5,0.018407769454627854,-2.4375
-32.5,0.006135923151542322,-0.8125
-32.0,0.0,0.0
-32.5,0.018407769454627854,1.625
-32.5,0.024543692606170175,-1.625
-32.5,0.006135923151542322,-0.8125
-32.0,0.024543692606170175,-0.8125
-32.5,-0.006135923151542322,1.625
-32.5,0.012271846303085532,1.625
-32.5,0.012271846303084644,1.625
-32.5,0.006135923151542322,1.625
-32.5,0.030679615757713385,0.0
-32.5,0.006135923151542322,0.8125
-32.5,0.018407769454627854,-1.625
-32.5,0.006135923151542322,0.8125
-32.5,0.012271846303085532,2.4375
-33.0,0.018407769454627854,2.4375
-33.0,0.03681553890925482,1.625
-33.0,0.012271846303085532,1.625
-33.0,0.012271846303084644,0.8125
-33.5,0.04295146206079803,-1.625
-33.5,0.012271846303085532,0.8125
-33.5,0.018407769454627854,0.8125
-33.5,0.030679615757712497,-1.625
-33.5,0.006135923151542322,0.8125
-33.5,-0.006135923151542322,6.5
-33.5,0.03681553890925571,-0.8125
-34.0,0.006135923151542322,1.625
-34.0,0.024543692606170175,0.0
-34.0,0.018407769454627854,-0.8125
-34.0,0.0,2.4375
-34.0,0.018407769454627854,1.625
-34.0,0.030679615757712497,-0.8125
-34.5,0.012271846303084644,0.0
-34.5,0.018407769454627854,-0.8125
-35.0,0.012271846303085532,1.625
-34.5,0.012271846303084644,0.8125
-35.0,0.00613592315154321,1.625
-35.0,0.018407769454626965,0.0
-35.0,0.04908738521234124,-3.25
-35.0,0.0,-1.625
-35.0,0.012271846303084644,0.8125
-35.0,0.012271846303085532,-0.8125
-35.0,0.012271846303084644,-1.625
-35.0,0.0,1.625
-35.0,0.024543692606170175,0.8125
-35.0,0.018407769454627854,0.0
-35.0,0.024543692606170175,-1.625
-35.5,0.012271846303085532,-0.8125
-35.5,-0.012271846303085532,2.4375
-35.5,0.04908738521234035,-1.625
-35.5,0.024543692606171064,-1.625
-35.5,0.024543692606170175,-5.6875
-36.0,-0.03681553890925571,2.4375
-36.0,0.04295146206079803,-1.625
-36.0,0.018407769454627854,-4.0625
-36.0,-0.00613592315154321,1.625
-36.0,0.030679615757713385,-1.625
-36.0,0.012271846303084644,-0.8125
-36.0,0.00613592315154321,2.4375
-36.0,0.04295146206079803,-0.8125
-36.5,0.0,-1.625
-36.5,0.012271846303084644,2.4375
-36.5,0.006135923151542322,0.8125
-37.0,0.06135923151542588,-5.6875
-37.0,0.0,-0.8125
-37.5,-0.006135923151542322,2.4375
-37.5,0.03681553890925571,-0.8125
-37.5,-0.00613592315154321,2.4375
-37.5,0.07976700097005374,-5.6875
-37.5,-0.030679615757713385,1.625
-37.5,0.012271846303085532,1.625
-38.0,0.030679615757712497,0.0
-38.5,0.030679615757713385,-2.4375
-38.0,0.012271846303084644,-1.625
-38.0,0.012271846303085532,-1.625
-38.5,0.0,2.4375
-38.5,0.030679615757712497,-1.625
-39.0,-0.012271846303084644,4.875
-39.0,0.0674951546669682,-4.875
-39.5,0.0,-0.8125
-39.5,-0.00613592315154321,1.625
-39.5,0.018407769454627854,2.4375
-39.5,0.04908738521234035,-2.4375
-40.0,0.0,0.0
-40.5,-6.240233845118788,-1.625
-40.5,0.030679615757712823,-5.6875
-40.5,-0.006135923151542565,4.875
-40.5,0.0,4.875
-41.0,0.02454369260617026,2.4375
-41.0,0.06135923151542564,-2.4375
-41.0,0.0,1.625
-41.0,-0.006135923151542558,5.6875
-41.0,0.03681553890925539,4.875
-41.5,0.0,7.3125
-41.5,0.05522330836388309,-1.625
-41.5,0.012271846303085115,0.0
-42.0,0.03067961575771283,2.4375
-42.0,0.0,1.625
-42.0,-0.018407769454627687,6.5
-42.5,0.04908738521234052,0.8125
-42.5,0.006135923151542544,4.875
-42.5,0.012271846303085143,4.875
-42.5,0.04908738521234052,0.8125
-43.0,0.006135923151542544,5.6875
-43.5,0.012271846303085143,2.4375
-43.5,0.024543692606170286,6.5
-44.0,0.04295146206079792,0.8125
-44.0,0.006135923151542599,0.0
-44.5,0.02454369260617023,4.875
-44.5,0.04295146206079792,-2.4375
-44.5,0.006135923151542655,2.4375
-45.0,0.006135923151542544,2.4375
-45.0,0.006135923151542544,7.3125
-45.0,0.03067961575771283,0.8125
-46.0,0.024543692606170286,4.0625
-46.0,0.03067961575771283,0.8125
-46.5,-0.018407769454627743,8.125
-47.0,0.05522330836388312,8.125
-47.5,0.06135923151542566,0.0
-48.0,0.01840776945462763,1.625
-49.0,-0.006135923151542544,8.9375
-48.5,-0.018407769454627743,13.8125
-49.5,0.09203884727313849,5.6875
-49.0,0.0674951546669682,1.625
-50.0,0.006135923151542544,8.125
-50.5,0.10431069357622369,-1.625
-50.5,-0.04295146206079803,9.75
-51.5,0.0674951546669682,9.75
-51.5,0.08590292412159584,9.75
-52.0,-0.03067961575771272,10.5625
-53.0,0.14112623248547895,1.625
-53.5,0.036815538909255485,10.5625
-54.5,0.04908738521234057,9.75
-54.5,-0.07363107781851097,17.0625
-54.0,0.18407769454627698,10.5625
-55.0,-0.05522330836388312,26.8125
-55.5,0.036815538909255485,26.8125
-56.0,0.0,28.4375
-55.5,0.2638446955163303,1.625
-56.0,-0.2515728492132452,48.8125
-57.0,0.2147573103039897,30.875
-57.0,0.09817477042468115,29.25
-58.5,0.08590292412159584,39.875
-60.0,-0.3742913122440965,15.4375
-59.0,0.1718058482431919,-8.125
-59.5,-0.20862138715244716,27.625
-59.5,-0.2822524649709579,66.6875
-59.5,0.17794177139473422,28.4375
-59.0,0.036815538909255485,19.5
-59.5,0.07976700097005329,15.4375
-60.0,-0.012271846303085088,15.4375
-59.0,0.01840776945462763,20.3125
-59.0,0.12885438618239387,0.0
-58.5,-0.09203884727313838,13.8125
-58.0,-0.03067961575771294,4.875
-58.0,0.14112623248547895,-10.5625
-58.5,-0.0674951546669682,-7.3125
-58.0,-0.18407769454627676,24.375
-57.5,0.2699806186678728,-27.625
-56.5,-0.2699806186678728,24.375
-57.0,0.24543692606170242,-4.875
-57.5,-0.12271846303085132,4.875
-55.5,0.08590292412159606,-9.75
-56.5,-0.227029156607075,18.6875
-57.0,0.10431069357622369,-9.75
-57.5,-0.024543692606170175,8.125
-55.0,-0.07976700097005351,34.125
-56.5,-0.0674951546669682,31.6875
-56.0,0.036815538909255485,24.375
-57.0,-0.06135923151542566,32.5
-56.0,0.07976700097005329,12.1875
-56.0,0.09817477042468115,-2.4375
-56.0,0.12885438618239387,-34.125
-55.0,-0.2945243112740432,29.25
-56.0,0.0,18.6875
-55.5,-0.03681553890925526,29.25
-55.0,0.17794177139473422,0.0
-55.0,0.0,-2.4375
-55.0,-0.11658253987930878,12.1875
-55.0,0.227029156607075,-23.5625
-55.5,-0.2699806186678728,25.1875
-55.0,-0.07976700097005329,24.375
-54.0,0.1227184630308511,10.5625
-55.0,0.006135923151542766,4.875
-54.5,-0.0920388472731386,18.6875
-55.0,0.05522330836388312,10.5625
-54.5,0.06135923151542566,6.5
-55.0,0.04295146206079803,-8.125
-54.5,-0.11658253987930878,17.0625
-55.0,-0.1595340019401068,27.625
-54.0,0.17794177139473444,4.875
-54.0,-0.012271846303085088,2.4375
-54.0,-0.012271846303085088,8.125
-53.5,0.03067961575771272,-0.8125
-53.5,-0.07363107781851075,18.6875
-53.0,0.036815538909255485,6.5
-54.0,0.07363107781851075,-9.75
-53.5,0.0,-2.4375
-53.5,0.05522330836388312,-8.125
-53.5,-0.26998061866787304,27.625
-53.5,0.09817477042468115,19.5
-53.5,0.03067961575771272,9.75
-53.5,0.006135923151542766,15.4375
-53.0,0.01840776945462763,3.25
-53.0,-0.06135923151542566,10.5625
-52.5,0.06135923151542566,13.8125
-53.0,-0.03067961575771294,15.4375
-53.0,0.07976700097005351,6.5
-53.0,0.006135923151542544,6.5
-53.0,-0.036815538909255485,14.625
-52.5,0.03067961575771294,6.5
-53.0,-0.03067961575771294,7.3125
-53.0,0.036815538909255485,3.25
-52.5,-0.04295146206079803,11.375
-53.0,-0.1472621556370215,26.0
-53.0,0.294524311274043,-11.375
-53.0,-0.19634954084936207,21.125
-53.0,0.10431069357622369,0.0
-53.0,0.07363107781851075,-10.5625
-52.5,-0.11044661672776623,14.625
-53.0,0.03067961575771294,-0.8125
-53.0,-0.21475731030398992,36.5625
-53.0,0.19021361769781953,8.125
-52.5,0.07976700097005351,2.4375
-53.0,-0.07363107781851097,8.125
-52.5,-0.03681553890925526,26.0
-52.5,-0.07363107781851075,30.875
-52.5,0.15953400194010658,17.875
-52.5,-0.03681553890925526,9.75
-52.5,0.11044661672776601,0.8125
-52.5,0.06135923151542566,-15.4375
-52.5,-0.1349903093339364,7.3125
-51.5,0.2638446955163303,-34.125
-52.0,-0.07976700097005329,-13.8125
-52.0,-0.14112623248547895,2.4375
-52.5,0.0,6.5
-52.5,-0.024543692606170175,15.4375
-52.0,0.07976700097005329,7.3125
-52.5,0.15339807878856404,-20.3125
-52.5,-0.1718058482431919,2.4375
-52.0,-0.006135923151542544,11.375
-51.5,0.03067961575771294,0.0
-51.5,-0.0674951546669682,16.25
-52.0,0.01840776945462763,16.25
-52.0,0.10431069357622369,-2.4375
-52.0,-0.0920388472731386,9.75
-52.0,-0.12885438618239387,28.4375
-51.5,0.19634954084936207,8.125
-51.5,-0.04295146206079781,9.75
-52.0,0.0674951546669682,2.4375
-52.0,-0.036815538909255485,12.1875
-51.5,0.1718058482431919,-8.9375
-51.0,-0.08590292412159606,-2.4375
-51.5,-0.18407769454627676,24.375
-51.5,0.15339807878856404,-3.25
-52.0,-0.01840776945462763,10.5625
-52.0,0.0674951546669682,2.4375
-52.0,0.07363107781851075,-8.125
-51.5,-0.12271846303085132,9.75
-51.0,0.03067961575771272,6.5
-51.5,0.04295146206079803,0.8125
-51.5,-0.19634954084936207,32.5
-51.5,-0.012271846303085088,35.75
-51.5,0.2393010029101601,0.0
-51.5,-0.04295146206079803,5.6875
-51.5,-0.07976700097005329,19.5
-51.5,0.11044661672776601,6.5
-51.0,0.06135923151542566,-14.625
-50.5,-0.0674951546669682,22.75
-50.5,-0.006135923151542544,8.125
-51.0,-0.01840776945462763,16.25
-50.5,0.04908738521234057,1.625
-51.0,-0.0674951546669682,9.75
-50.5,0.03067961575771272,20.3125
-50.5,0.012271846303085088,11.375
-50.5,0.05522330836388312,3.25
-51.0,-0.006135923151542544,9.75
-50.0,0.036815538909255485,5.6875
-50.5,-0.07363107781851097,26.8125
-50.0,-0.012271846303085088,15.4375
-50.5,-0.10431069357622347,32.5
-50.5,0.2147573103039897,-2.4375
-50.0,-0.036815538909255485,6.5
-50.0,-0.024543692606170175,7.3125
-50.5,0.04295146206079803,2.4375
-50.0,0.024543692606170175,-7.3125
-49.5,-0.04295146206079803,14.625
-50.5,-0.01840776945462763,7.3125
-50.5,-0.03681553890925526,12.1875
-50.5,0.006135923151542544,9.75
-50.0,0.03681553890925526,13.8125
-50.5,-0.06135923151542566,17.875
-50.0,0.11658253987930878,6.5
-50.0,0.01840776945462763,8.9375
-50.0,-0.04295146206079781,8.125
-50.0,-0.07976700097005351,17.875
-50.0,0.08590292412159606,10.5625
-50.0,-0.012271846303085088,8.125
-50.0,0.03681553890925526,9.75
-49.5,0.01840776945462763,3.25
-49.5,0.09817477042468115,-12.1875
-49.5,-0.1595340019401068,13.8125
-49.5,0.07363107781851097,4.875
-49.5,-0.07363107781851097,13.8125
-50.0,0.06135923151542566,4.875
-49.0,0.0674951546669682,-10.5625
-49.5,0.018407769454627854,-6.5
-49.0,-0.0920388472731386,7.3125
-49.5,-0.04908738521234035,17.875
-49.5,0.03681553890925526,8.125
-49.0,0.09817477042468115,0.0
-49.5,-0.07976700097005351,11.375
-49.0,0.07976700097005351,-2.4375
-49.5,-0.06135923151542566,7.3125
-49.0,-0.012271846303085088,14.625
-49.0,-0.04295146206079803,22.75
-49.0,0.06135923151542566,12.1875
-49.0,0.04908738521234057,-3.25
-48.5,0.0,4.875
-48.5,-0.03067961575771294,5.6875
-48.5,0.05522330836388312,-2.4375
-48.5,-0.06135923151542566,4.875
-48.5,0.10431069357622369,-3.25
-48.5,-0.12271846303085132,12.1875
-48.5,-0.018407769454627854,15.4375
-48.0,0.11044661672776623,0.0
-48.0,0.024543692606170175,2.4375
-48.5,-0.055223308363882895,8.125
-48.0,-0.036815538909255485,13.8125
-48.0,0.006135923151542544,7.3125
-48.0,0.036815538909255485,8.9375
-48.0,-0.006135923151542544,10.5625
-47.5,0.055223308363882895,5.6875
-47.5,-0.11658253987930856,17.875
-47.5,0.11658253987930856,-1.625
-48.0,-0.01840776945462763,0.8125
-47.5,0.04908738521234057,-3.25
-47.5,-0.024543692606170175,3.25
-47.0,-0.04908738521234057,9.75
-47.5,0.03681553890925526,7.3125
-47.0,-0.006135923151542544,8.9375
-47.5,-0.04295146206079781,13.8125
-47.5,0.06135923151542566,8.125
-47.0,0.06135923151542544,-1.625
-47.0,-0.07363107781851075,12.1875
-47.0,0.04908738521234057,7.3125
-47.0,0.05522330836388312,-1.625
-47.0,-0.03067961575771294,0.8125
-46.5,0.006135923151542766,1.625
-46.5,-0.06135923151542566,10.5625
-46.5,0.03681553890925526,8.125
-46.5,0.04908738521234057,2.4375
-46.0,0.04295146206079803,-3.25
-46.0,-0.09817477042468115,9.75
-46.5,0.03067961575771294,8.125
-45.5,0.08590292412159584,-2.4375
-46.0,-0.04295146206079803,5.6875
-45.5,0.012271846303085088,2.4375
-45.5,0.036815538909255485,-1.625
-45.5,-0.07976700097005329,12.1875
-46.0,0.09203884727313838,-0.8125
-45.5,-0.03067961575771272,4.875
-45.5,0.006135923151542544,6.5
-45.5,-0.03067961575771294,13.8125
-45.5,0.04908738521234057,3.25
-45.5,0.06135923151542566,3.25
-45.5,-0.05522330836388312,9.75
-45.0,0.01840776945462763,6.5
-45.5,0.04908738521234057,0.8125
-45.0,-0.03681553890925526,5.6875
-44.5,0.006135923151542322,7.3125
-44.5,0.006135923151542766,8.125
-45.0,0.03067961575771294,2.4375
-45.0,0.01840776945462741,2.4375
-45.0,-0.04295146206079803,8.9375
-44.5,0.049087385212340795,1.625
-45.0,-0.006135923151542766,1.625
-44.5,-0.006135923151542322,5.6875
-44.5,0.04295146206079803,0.8125
-45.0,-0.09817477042468115,17.875
-44.5,0.07976700097005329,7.3125
-45.0,-0.006135923151542766,7.3125
-45.0,0.08590292412159606,-5.6875
-44.5,-0.07363107781851097,4.875
-44.5,-0.024543692606170175,7.3125
-44.5,0.05522330836388312,3.25
-44.5,0.006135923151542766,1.625
-44.5,0.006135923151542322,5.6875
-44.5,-0.01840776945462741,3.25
-44.0,0.024543692606170175,5.6875
-44.5,-0.006135923151542766,3.25
-44.0,-0.030679615757712497,6.5
-44.5,0.04908738521234035,2.4375
-44.0,0.024543692606170175,0.0
-44.5,-0.012271846303085088,2.4375
-44.0,-0.012271846303085088,4.875
-44.0,0.03067961575771294,0.8125
-43.5,-0.03681553890925571,7.3125
-44.0,0.006135923151542766,8.9375
-44.0,0.0,7.3125
-44.0,0.018407769454627854,6.5
-44.0,0.07363107781851053,-5.6875
-44.0,-0.006135923151542322,3.25
-44.0,-0.04295146206079803,7.3125
-44.0,0.024543692606170175,3.25
-44.0,0.03067961575771294,-0.8125
-44.0,0.0,2.4375
-43.5,0.01840776945462741,0.8125
-43.5,0.03681553890925571,-2.4375
-43.5,-0.049087385212340795,8.125
-43.5,-0.04295146206079803,12.1875
-43.5,0.07976700097005374,3.25
-43.5,-0.012271846303085532,4.875
-43.0,0.05522330836388312,-2.4375
-43.0,0.018407769454627854,-2.4375
-43.0,-0.012271846303085088,5.6875
-43.0,-0.012271846303085088,4.875
-43.0,0.12885438618239364,-8.125
-43.0,-0.09203884727313838,5.6875
-42.5,0.0,8.125
-42.5,0.04295146206079803,0.8125
-42.5,0.03067961575771294,-1.625
-42.5,0.006135923151542322,2.4375
-42.0,0.012271846303085088,2.4375
-42.0,-0.012271846303085088,7.3125
-42.0,0.08590292412159606,6.5
-41.5,-0.006135923151542766,4.875
-41.5,0.09203884727313882,-0.8125
-41.0,0.006135923151542322,0.8125
-41.0,0.024543692606170175,5.6875
-40.5,0.049087385212340795,1.625
-40.5,0.09203884727313838,-4.875
-40.5,0.05522330836388312,-2.4375
-40.0,0.04908738521234035,2.4375
-40.0,0.10431069357622347,-1.625
-39.5,0.07976700097005374,0.8125
-39.5,0.08590292412159561,3.25
-38.0,0.1288543861823941,0.0
-37.5,0.1349903093339364,-2.4375
-37.0,0.12271846303085132,-2.4375
-35.5,0.12271846303085132,-2.4375
-35.5,0.1472621556370215,-4.875
-34.5,0.15953400194010658,-8.125
-34.0,0.07363107781851097,-4.875
-33.5,0.11044661672776623,-4.875
-33.0,0.07363107781851053,-4.875
-33.0,0.06135923151542588,-4.875
-32.5,0.0674951546669682,-6.5
-32.5,0.061359231515424995,-5.6875
-32.5,0.018407769454627854,-0.8125
-32.0,0.06135923151542588,-1.625
-32.5,0.08590292412159606,-8.9375
-32.5,0.018407769454627854,-2.4375
-32.0,0.05522330836388267,-5.6875
-32.0,0.03681553890925571,-6.5
-32.0,0.012271846303084644,-2.4375
-32.0,0.030679615757713385,-1.625
-32.0,0.018407769454626965,-0.8125
-32.0,0.03681553890925571,-0.8125
-32.0,0.03681553890925571,-4.875
-32.0,-0.012271846303085532,1.625
-31.5,0.012271846303085532,2.4375
-31.5,0.03681553890925482,-0.8125
-31.5,0.012271846303085532,0.0
-31.5,-0.012271846303085532,4.875
-31.5,0.024543692606170175,1.625
-31.5,0.024543692606171064,0.0
-31.0,0.006135923151542322,2.4375
-31.0,0.006135923151542322,0.8125
-31.5,0.024543692606170175,0.0
-31.5,0.006135923151542322,0.8125
-31.5,0.00613592315154321,1.625
-31.0,0.018407769454627854,1.625
-31.5,0.0,5.6875
-31.0,0.03681553890925482,0.0
-31.0,-0.006135923151542322,4.875
-31.5,0.03681553890925571,-1.625
-31.0,-0.018407769454627854,1.625
-31.0,0.018407769454627854,2.4375
-31.0,0.006135923151542322,2.4375
-31.0,-0.006135923151542322,6.5
-31.0,0.030679615757712497,4.0625
-31.0,0.012271846303085532,5.6875
-31.5,0.012271846303084644,4.875
-31.0,0.018407769454627854,2.4375
-31.0,0.0,7.3125
-31.0,0.018407769454627854,5.6875
-31.5,-0.012271846303085532,6.5
-31.0,0.024543692606170175,4.875
-31.5,0.012271846303085532,2.4375
-31.0,0.024543692606170175,1.625
-31.5,-0.03681553890925571,6.5
-31.0,0.04295146206079803,0.8125
-31.0,-0.024543692606170175,4.875
-31.0,-0.006135923151542322,4.875
-31.0,-0.012271846303085532,6.5
-31.5,0.018407769454627854,4.875
-31.5,-0.018407769454627854,6.5
-31.0,0.018407769454627854,2.4375
-31.5,0.0,5.6875
-31.0,0.012271846303085532,4.875
-31.5,0.0,0.0
-31.5,-0.024543692606170175,6.5
-31.0,-0.012271846303085532,8.9375
-31.5,0.018407769454627854,4.875
-31.0,0.0,4.875
-31.0,-0.012271846303085532,6.5
-31.0,0.018407769454627854,2.4375
-31.5,-0.018407769454627854,6.5
-31.5,0.0,5.6875
-31.0,-0.006135923151542322,7.3125
-31.5,0.024543692606170175,4.875
-31.5,0.0,4.875
-31.0,0.0,4.875
-31.5,0.018407769454627854,0.0
-31.5,-0.024543692606170175,4.875
-31.0,0.006135923151542322,3.25
-31.5,0.006135923151542322,2.4375
-31.0,-0.018407769454626965,7.3125
-31.0,0.030679615757712497,0.8125
-31.0,-0.012271846303085532,3.25
-31.0,0.0,2.4375
-31.5,-0.006135923151542322,4.0625
-31.5,0.0,4.0625
-31.5,-0.006135923151542322,2.4375
-31.0,0.0,4.875
-31.0,-0.012271846303085532,5.6875
-31.0,0.00613592315154321,6.5
-31.0,0.018407769454626965,3.25
-31.5,0.0,3.25
-31.5,-0.018407769454626965,5.6875
-31.5,-0.012271846303085532,5.6875
-31.5,0.018407769454627854,1.625
-31.5,0.006135923151542322,1.625
-31.5,-0.006135923151542322,6.5
-31.0,0.018407769454627854,1.625
-31.0,-0.00613592315154321,3.25
-31.5,0.0,2.4375
-31.5,-0.012271846303084644,4.875
-31.5,0.0,4.875
-31.0,-0.012271846303085532,7.3125
