-48.5,0.0,7.3125
-55.5,-0.6197282383057994,36.5625
-53.0,-2.5464081078901644,4.875
-41.0,0.006135923151542544,4.875
-60.5,4.552854978444583,8.125
-48.5,-1.3130875544301093,12.1875
-52.5,-3.3195344249845276,-1.625
-41.0,0.0674951546669682,4.875
-56.5,2.7488935718910694,48.8125
-27.5,-0.06135923151542588,1.625
-53.5,-2.908427573831176,1.625
-50.0,2.8593401886188357,17.0625
-59.0,-0.11044661672776623,25.1875
-60.0,0.7731263170943627,8.125
-27.0,-0.589048622548086,1.625
-59.0,0.674951546669682,39.0
-55.5,-3.2888548092268146,11.375
-49.0,2.4420974143139405,6.5
-58.0,0.08590292412159606,31.6875
-44.5,-3.9392626632903265,9.75
-55.0,2.5586799541932495,15.4375
-40.5,-2.1475731030398975,6.5
-58.5,1.5094370952794707,20.3125
-45.0,-2.0187187168575034,0.0
-55.0,2.3746022596469722,18.6875
-40.0,-1.8346410223112266,6.5
-59.0,1.7794177139473435,-34.9375
-56.5,2.3561944901923453,20.3125
-61.0,1.4419419406125025,9.75
-43.5,-4.749204519293945,0.0
-50.5,2.7918450339518674,1.625
-52.0,-2.7918450339518674,-3.25
-62.0,3.178408192499049,47.1875
-51.0,-0.23930100291016032,-22.75
-43.5,-2.957514959043516,0.0
-57.0,3.2643111166206444,31.6875
-60.5,0.822213702306704,9.75
-52.5,-4.037437433715008,-1.625
-62.5,3.9392626632903265,-18.6875
-27.5,-1.1965050145507998,0.0
-60.5,0.012271846303084644,25.1875
-52.5,-0.9387962421860121,-3.25
-56.0,0.23316507975861755,15.4375
-61.0,0.04295146206079803,39.0
-58.0,-1.012427320004523,17.0625
-27.5,1.6505633277649494,1.625
-58.0,-0.674951546669682,21.125
-53.5,-0.12885438618239364,15.4375
-59.0,-0.7853981633974483,11.375
-58.5,0.9142525495798419,13.8125
-60.5,0.03681553890925571,13.8125
-54.0,-2.190524565100696,-1.625
-57.0,0.07363107781851075,25.1875
-43.0,4.52217536268687,-3.25
-39.0,-5.546874528994478,8.125
-58.5,4.902602598082509,30.875
-39.5,-4.884194828627881,0.0
-55.0,0.7240389318820226,26.8125
-59.5,0.2638446955163303,50.4375
-43.0,4.552854978444583,-8.125
-58.5,-0.8406214717613318,7.3125
-52.0,-0.6197282383057985,13.8125
-50.5,-2.7673013413456973,6.5
-64.0,2.8593401886188357,-8.9375
-57.0,1.3621749396424487,-13.8125
-44.5,-4.098796665230433,17.0625
-60.5,-0.9081166264282996,-1.625
-59.5,4.049709280018093,13.8125
-60.5,-4.123340357836604,-15.4375
-53.0,3.8472238160171877,18.6875
-44.0,-2.982058651649686,4.875
-52.0,0.07976700097005329,-8.125
-57.5,4.025165587411922,-3.25
-65.5,0.34361169648638423,53.6875
-28.0,-2.043262409463674,4.875
-53.5,-0.748582624488193,13.8125
-48.5,0.2883883881225002,13.8125
-60.0,-2.8900198043765477,17.0625
-59.5,4.135612204139689,13.8125
-58.0,-0.6258641614573417,13.8125
-49.0,-0.6442719309119695,0.0
-27.5,0.4908738521234053,3.25
-60.5,0.3681553890925535,18.6875
-55.0,-3.393165502803038,11.375
-56.5,2.595495493102505,13.8125
-54.5,-3.571107274197773,-15.4375
-45.5,-0.12885438618239387,1.625
-40.0,0.607456392002714,6.5
-51.0,2.061670178918302,8.125
-53.5,-0.6565437772150546,18.6875
-44.0,4.086524818927348,-1.625
-40.0,-5.497787143782138,3.25
-52.5,2.3071071049800045,0.0
-53.0,-0.4970097752749476,39.0
-55.5,-2.141437179888355,0.0
-43.5,1.5033011721279284,12.1875
-63.5,4.417864669110647,-67.5
-49.5,-2.386874105950058,7.3125
-54.5,-2.4175537217077707,-3.25
-63.0,4.552854978444583,1.625
-60.0,-1.3744467859455352,15.4375
-54.5,-3.1600004230444205,-15.4375
-44.0,0.34361169648638357,8.9375
-63.5,-1.4419419406125027,50.4375
-48.0,3.6201946594101133,3.25
-28.0,0.18407769454627676,4.875
-58.5,-2.086213871524472,6.5
-48.5,1.423534171157875,6.5
-52.5,-0.32520392703175593,-1.625
-56.0,0.9449321653375549,21.9375
-59.0,1.325359400733194,15.4375
-28.0,-1.2762720155208536,3.25
-54.5,0.04295146206079803,18.6875
-49.0,-0.7547185476397353,18.6875
-53.5,-0.3865631585471814,0.0
-59.0,2.3991459522531424,-41.5
-54.5,-3.368621810196868,26.8125
-42.0,-1.4296700943094174,4.875
-42.5,5.203262832508095,0.0
-55.0,-5.553010452146021,10.5625
-62.0,-0.12885438618239387,-6.5
-42.5,5.755495916146926,-3.25
-55.0,-3.7858645845017627,11.375
-61.5,-2.012582793705961,26.8125
-54.5,0.05522330836388309,-1.625
-41.0,0.5399612373357456,-1.625
-44.5,0.6749515466696823,-1.625
-55.0,0.04908738521234035,-6.5
-51.5,2.951379035891974,-3.25
-60.5,0.546097160487288,9.75
-66.5,-4.430136515413732,48.8125
-44.0,0.8958447801252145,3.25
-55.0,0.15953400194010658,-11.375
-52.0,2.6998061866787286,12.1875
-65.5,-3.7122335066832517,17.0625
-28.0,3.6201946594101133,1.625
-51.0,-0.3313398501832987,6.5
-51.5,-1.9512235621905356,6.5
-55.0,1.2333205534600555,0.0
-59.5,1.2517283229146834,6.5
-28.0,-0.2024854640009046,1.625
-56.0,-1.086058397823034,-4.875
-52.0,0.558369006790373,8.125
-59.0,0.9940195505498961,36.5625
-53.0,-3.1293208072867085,-1.625
-55.5,0.4786020058203202,26.8125
-39.5,-1.2455923997631406,0.0
-54.0,1.6505633277649499,13.8125
-45.5,3.571107274197773,0.0
-62.5,0.012271846303084644,17.0625
-56.0,0.04295146206079803,10.5625
-40.0,-5.258486140871978,-6.5
-46.0,5.209398755659637,-3.25
-56.5,0.1963495408493623,3.25
-57.0,-3.982214125351125,28.4375
-61.0,3.9085830475326135,15.4375
-55.5,-3.8410878928656453,39.0
-50.5,1.7794177139473435,7.3125
-64.0,-3.939262663290326,-20.3125
-44.0,1.4848934026733005,-4.875
-50.5,-0.4172427743048943,-9.75
-61.5,4.767612288748573,-18.6875
-59.0,-1.0185632431560654,72.375
-44.0,-3.393165502803039,3.25
-59.5,3.6386024288647416,-26.8125
-49.0,-3.9883500485026673,0.0
-52.0,2.865476111770377,-10.5625
-62.0,1.9205439464328231,-18.6875
-51.0,-2.3746022596469727,4.875
-28.0,0.570640853093459,3.25
-62.0,0.1288543861823932,-11.375
-55.0,-3.055689729468197,0.0
-55.5,1.9696313316451632,3.25
-55.5,0.5215534678811178,4.875
-27.5,0.4295146206079794,-1.625
-51.0,-0.6994952392758522,15.4375
-63.0,0.5154175447295755,28.4375
-55.0,-0.8283496254582459,1.625
-54.5,-2.2089323345553233,3.25
-54.5,2.9391071895888885,12.1875
-45.0,2.233476027161493,-1.625
-57.0,-3.8104082771079324,13.8125
-39.5,-1.6014759425526095,4.875
-58.5,0.7117670855789376,10.5625
-39.0,-0.6810874698212248,1.625
-45.5,5.424156065963627,1.625
-55.0,-3.8901752780779857,4.875
-60.0,-0.7853981633974483,4.875
-43.5,0.2270291566070748,1.625
-47.5,-0.8406214717613314,-4.875
-45.0,3.0372819600135696,4.875
-64.5,-3.411573272257666,34.9375
-64.0,4.172427743048944,76.4375
-43.5,-2.9145634969827183,3.25
-46.0,2.2150682577068657,-4.875
-46.5,-2.9513790358919736,-1.625
-63.0,0.4233786974564371,39.0
-63.0,3.626330582561656,65.875
-49.5,-1.4112623248547904,4.875
-27.5,0.49700977527494805,7.3125
-57.5,0.05522330836388267,21.9375
-54.5,-0.7915340865489906,1.625
-61.0,1.6689710972195773,22.75
-54.0,-2.620039185708675,3.25
-54.5,0.1472621556370215,-3.25
-28.0,1.5278448647340985,7.3125
-49.5,-0.5829126993965432,18.6875
-62.0,1.0124273200045226,26.8125
-53.5,-0.9326603190344693,9.75
-43.0,2.356194490192345,3.25
-60.5,-5.418020142812085,10.5625
-39.5,0.4908738521234052,9.75
-56.0,0.23316507975861755,56.9375
-56.0,4.933282213840222,48.8125
-61.0,-5.780039608753096,-20.3125
-58.5,3.5465635815916023,-17.0625
-43.0,2.0125827937059615,4.875
-40.0,-4.945554060143308,8.125
-57.0,2.8593401886188348,-15.4375
-56.5,-2.589359569950962,6.5
-61.5,-1.1903690913992575,15.4375
-54.5,6.068427996875597,-8.125
-59.5,-6.160466844148735,15.4375
-45.0,1.7671458676442586,3.25
-45.0,2.509592568980909,-7.3125
-56.0,1.22104870715697,-15.4375
-62.5,0.5215534678811178,36.5625
-51.0,-4.700117134081604,-3.25
-64.0,1.9144080232812803,38.1875
-44.5,1.0492428589137783,-1.625
-45.0,-2.5157284921324514,4.875
-50.5,-0.6565437772150544,-4.875
-61.5,-0.705631162427395,20.3125
-57.0,4.945554060143308,-9.75
-64.5,-1.5094370952794711,12.1875
-27.5,0.3374757733348406,1.625
-58.5,-0.9142525495798419,33.3125
-58.5,1.1167380135807465,18.6875
-50.5,-1.6935147898257474,-6.5
-49.5,0.6688156235181397,0.0
-28.0,0.7915340865489906,4.875
-50.5,-1.4603497100671303,-3.25
-59.0,1.7855536370988867,20.3125
-50.5,-1.3008157081270242,0.0
-44.0,2.834796496012665,3.25
-59.5,-3.6140587362585705,39.0
-39.0,-1.5339807878856413,6.5
-59.0,4.755340442445487,6.5
-54.5,-5.589825991055276,0.0
-57.0,1.7978254834019716,33.3125
-43.5,4.154019973594316,-6.5
-38.0,-5.148039524144212,-1.625
-57.5,1.1412817061869172,11.375
-55.0,4.09266074207889,1.625
-57.0,-3.7674568150471344,13.8125
-59.5,3.2459033471660166,-17.0625
-50.0,-4.28287435977671,4.875
-61.0,4.0128937411088375,45.5625
-44.0,-3.6570101983193686,7.3125
-61.0,2.7120780329818137,55.3125
-49.0,-0.4049709280018092,-1.625
-62.0,2.2457478734645786,-15.4375
-66.0,-3.5281558121369745,-17.0625
-44.0,-1.0615147052168639,3.25
-27.5,2.577087723647877,3.25
-56.0,-3.5956509668039427,6.5
-58.5,3.055689729468197,21.125
-54.5,-0.0674951546669682,17.0625
-51.0,-0.05522330836388267,9.75
-61.5,0.7424467013366502,4.875
-28.0,-0.0674951546669682,-1.625
-51.0,-0.6013204688511715,6.5
-57.0,-0.04295146206079803,27.625
-62.0,0.9019807032767568,-25.1875
-55.5,-0.7547185476397353,11.375
-57.0,-2.945243112740431,4.875
-38.5,0.08590292412159584,-1.625
-60.0,5.289165756629691,48.8125
-42.5,-0.08590292412159606,0.0
-56.5,-3.8288160465625602,30.0625
-56.5,0.32520392703175593,11.375
-38.5,-1.7119225592803755,-3.25
-43.0,5.154175447295754,-1.625
-56.0,-3.319534424984527,18.6875
-58.0,-0.2638446955163305,0.0
-60.5,-2.356194490192345,33.3125
-60.5,5.00077736850719,13.8125
-59.0,0.3681553890925535,-20.3125
-43.0,-3.816544200259475,10.5625
-49.0,2.5341362615870793,0.0
-50.0,-2.3316507975861747,18.6875
-59.0,4.264466590322082,15.4375
-68.5,-2.9697868053466014,36.5625
-60.0,2.0800779483729293,-21.9375
-48.5,-1.0860583978230336,0.0
-43.0,-2.528000338435537,8.9375
-58.5,3.902447124381071,-11.375
-67.5,-2.350058567040802,64.25
-49.5,-1.270136092369311,4.875
-28.0,2.2641556429192065,4.875
-61.0,0.6994952392758522,-48.8125
-52.5,-1.5646604036433542,-3.25
-54.5,0.15953400194010703,-1.625
-27.5,0.7363107781851075,0.0
-60.5,0.5767767762450013,30.0625
-54.0,-1.2578642460662257,9.75
-53.0,0.012271846303085088,8.125
-45.0,2.558679954193249,-1.625
-39.5,-5.227806525114265,3.25
-56.0,2.4543692606170255,-6.5
-58.0,-1.5033011721279281,-6.5
-60.0,4.147884050442774,0.0
-58.5,-4.344233591292136,31.6875
-46.5,4.252194744018997,0.0
-39.5,-4.957825906446391,8.125
-54.0,2.116893487282185,17.0625
-60.5,3.0434178831651124,25.1875
-42.5,-4.3503695144436785,3.25
-49.0,2.3071071049800045,3.25
-58.0,-1.8285050991596843,48.8125
-63.5,1.3314953238847367,128.5625
-51.0,-1.6751070203711202,20.3125
-65.5,-1.3192234775816516,48.8125
-62.0,3.2029518851052186,-17.0625
-49.0,0.14112623248547917,3.25
-43.0,-2.147573103039898,0.0
-58.0,1.9941750242513334,18.6875
-64.0,1.8837284075235674,-15.4375
-62.0,-1.6444274046134075,13.8125
-50.5,-2.018718716857504,3.25
-68.0,0.41110685115335177,-41.5
-28.0,1.7978254834019713,4.875
-56.5,-0.5645049299419158,13.8125
-50.5,0.09203884727313838,8.125
-57.0,2.380738182798515,20.3125
-60.5,-1.264000169217768,52.0625
-56.0,-1.1351457830353744,6.5
-27.5,0.4847379289718625,4.875
-58.0,1.8591847149173972,31.6875
-50.5,-2.3071071049800045,6.5
-60.5,1.1106020904292038,65.875
-40.0,-3.7613208918955916,3.25
-43.0,5.154175447295755,-3.25
-58.0,0.08590292412159517,4.875
-56.5,-3.380893656499953,30.0625
-59.5,3.2213596545598464,20.3125
-55.5,-4.1172044346850605,0.0
-65.0,-0.4663301595172349,131.8125
-59.5,4.626486056263094,-6.5
-56.0,-4.178563666200486,42.3125
-40.5,-1.0062913968529807,8.125
-43.0,5.2768939103266055,0.0
-64.5,-4.037437433715008,56.9375
-57.0,0.6013204688511711,34.9375
-57.0,3.436116964863836,-8.9375
-42.0,-4.1172044346850605,15.4375
-46.0,2.380738182798515,8.9375
-48.0,-2.9391071895888885,1.625
-59.0,2.589359569950962,26.8125
-60.5,-3.313398501832985,0.0
-53.0,5.105088062083413,-4.875
-58.5,-3.8226801234110175,0.0
-61.0,0.26384469551633005,10.5625
-58.0,-0.7915340865489908,20.3125
-60.0,2.7243498792848992,-21.9375
-60.0,-3.1047771146805383,-3.25
-61.0,2.883883881225006,25.1875
-59.0,-1.6812429435226628,21.125
-60.0,2.270291566070749,1.625
-47.0,-3.043417883165112,8.125
-42.5,0.4172427743048943,8.125
-60.5,0.8283496254582463,4.875
-45.5,1.662835174068035,-4.875
-57.0,-4.4362724385652745,85.4375
-27.5,4.080388895775806,1.625
-60.5,0.4663301595172351,-8.9375
-50.5,-1.0676506283684062,4.875
-54.0,0.3742913122440963,11.375
-60.5,1.0983302441261191,18.6875
-60.0,0.07363107781851053,47.1875
-59.5,-3.706097583531709,0.0
-62.0,3.663146121470911,12.1875
-54.0,-1.0860583978230336,9.75
-28.0,0.17794177139473444,-1.625
-60.0,1.202640937702343,8.125
-61.0,-0.8344855486097895,41.5
-51.0,-1.012427320004523,15.4375
-58.0,-1.5462526341887262,11.375
-55.5,0.6442719309119693,17.0625
-40.5,-1.7303303287350031,1.625
-44.0,5.129631754689584,0.0
-59.5,-2.1291653335852705,-8.125
-58.0,2.245747873464579,15.4375
-59.5,-3.0679615757712826,20.3125
-61.0,2.994330497952771,21.9375
-44.0,-0.07976700097005285,1.625
-40.0,-5.092816215780329,4.875
-60.0,3.4606606574700063,-55.3125
-58.0,-4.28287435977671,27.625
-54.5,2.5095925689809087,8.125
-59.0,0.49700977527494805,6.5
-61.0,3.0311460368620264,43.9375
-63.5,-4.902602598082509,11.375
-48.0,0.4786020058203202,8.125
-43.0,0.19634954084936207,10.5625
-62.0,-0.6688156235181395,26.0
-60.5,3.792000507653305,12.1875
-48.0,-0.21475731030398926,10.5625
-62.0,-1.9696313316451635,-81.375
-59.0,-0.3865631585471818,24.375
-57.0,2.8409324191642074,30.0625
-64.5,0.6810874698212253,-4.875
-63.5,-1.3805827090970775,9.75
-60.5,-2.6016314162540475,-72.375
-62.5,-0.662679700366597,-56.9375
-59.5,4.908738521234051,120.4375
-42.5,-4.362641360746763,17.0625
-63.5,2.6016314162540475,75.625
-48.0,-2.7427576487395267,4.875
-48.5,3.0802334220743677,12.1875
-57.0,0.8038059328520761,11.375
-60.5,-3.264311116620645,-18.6875
-62.5,-0.42337869745643686,-19.5
-63.0,-0.6074563920027138,18.6875
-63.5,2.258019719767664,-17.0625
-59.0,-0.3497476196379261,-1.625
-61.5,2.9881945748012284,-34.9375
-63.0,-5.559146375297563,15.4375
-27.5,3.540427658440059,4.875
-67.0,0.1349903093339364,43.9375
-55.0,-0.47860200582031975,15.4375
-56.5,-2.1782527187976104,-8.125
-51.0,1.9328157927359078,8.125
-27.5,0.613592315154257,3.25
-54.0,-0.5338253141842033,15.4375
-65.0,0.6381360077604263,58.5625
-50.5,-0.7608544707912777,-1.625
-58.5,-1.9144080232812803,1.625
-40.0,-0.8222137023067037,0.0
-42.5,5.117359908386499,-3.25
-59.5,0.31293208072867085,-1.625
-54.5,-3.393165502803038,-9.75
-61.5,2.294835258676919,-14.625
-56.0,-2.7366217255879834,30.0625
-58.5,-2.227340104009951,26.8125
-61.0,2.552544031041707,17.0625
-62.5,2.589359569950962,29.25
-55.5,-2.3991459522531424,20.3125
-56.0,-0.4049709280018092,31.6875
-60.0,0.6442719309119691,-39.0
-40.5,-2.337786720737717,-3.25
-43.5,5.209398755659637,-6.5
-58.0,-5.835262917116979,12.1875
-59.5,0.04908738521234049,6.5
-43.0,1.6382914814618648,13.8125
-63.5,-0.9326603190344699,58.5625
-62.0,-0.8958447801252144,92.75
-48.0,1.4419419406125027,-6.5
-59.0,4.424000592262189,15.4375
-58.0,-1.6812429435226628,-13.8125
-48.0,0.2024854640009046,12.1875
-60.5,-0.46019423636569234,83.8125
-61.5,-0.840621471761331,1.625
-64.0,2.196660488252238,-15.4375
-61.5,-0.5829126993965437,17.0625
-55.5,-4.491495746929157,-1.625
-61.0,1.3069516312785663,10.5625
-64.0,4.221515128261284,36.5625
-54.5,-5.270757987175063,11.375
-59.0,4.043573356866551,26.0
-43.5,-2.6445828783148455,7.3125
-49.0,-0.20862138715244716,13.8125
-61.5,3.736777199289422,67.5
-60.0,-4.902602598082509,-4.875
-61.0,0.3988350048502667,42.3125
-49.0,3.528155812136975,10.5625
-60.0,-2.509592568980909,29.25
-61.5,2.8716120349219203,34.9375
-61.5,-0.3313398501832987,-4.875
-28.0,-0.3067961575771285,0.0
-63.5,-2.2150682577068657,3.25
-51.0,1.5217089415825562,13.8125
-59.5,0.9694758579437255,34.9375
-59.5,-2.840932419164208,-1.625
-52.5,1.779417713947344,13.8125
-28.0,0.7363107781851075,7.3125
-59.5,0.3620194659410112,6.5
-53.0,-1.1596894756415446,9.75
-59.5,-1.8407769454627694,18.6875
-65.0,0.9203884727313847,1.625
-50.5,1.1474176293384595,4.875
-40.0,-2.7979809571034093,-6.5
-44.0,5.166447293598839,-8.125
-57.0,-3.6815538909255388,17.0625
-56.0,0.018407769454627854,47.1875
-56.5,-2.2027964114037806,-8.125
-60.5,2.362330413343887,62.625
-40.5,-1.6873788666742051,-3.25
-56.0,1.3560390164909069,26.8125
-60.5,0.5522330836388307,39.875
-55.5,-0.46019423636569234,30.0625
-43.5,3.595650966803943,-1.625
-56.0,-5.5530104521460215,6.5
-52.0,1.662835174068035,36.5625
-59.5,1.3192234775816514,59.375
-47.5,1.644427404613407,15.4375
-58.0,-1.0860583978230336,30.0625
-65.0,-0.38042723539563905,53.6875
-43.0,-1.6505633277649499,4.875
-63.0,1.2762720155208536,-24.375
-56.5,2.8838838812250054,-8.9375
-65.5,-3.3808936564999534,48.8125
-63.0,1.3192234775816516,-8.9375
-62.0,1.619883712007237,-1.625
-63.0,-4.693981210930062,10.5625
-61.0,1.8407769454627694,-15.4375
-63.5,2.675262494072558,-7.3125
-59.5,-1.619883712007237,39.875
-43.0,-1.9205439464328227,4.875
-51.0,0.0,0.0
-61.5,1.6873788666742051,58.5625
-66.5,-0.9142525495798419,121.25
-62.0,1.2394564766115979,62.625
-47.0,1.0492428589137788,10.5625
-57.0,-0.4540583132141496,6.5
-56.5,1.41126232485479,-18.6875
-64.5,-4.841243366567084,21.125
-63.5,4.681709364626976,-39.0
-63.5,-2.644582878314845,-13.8125
-62.5,1.1106020904292042,3.25
-28.0,0.10431069357622391,0.0
-59.0,-0.9019807032767573,24.375
-49.0,0.28838838812250067,4.875
-58.5,-2.5770877236478773,11.375
-53.5,2.5034566458293663,13.8125
-58.5,-2.4850488763747385,3.25
-27.5,3.1415926535897927,3.25
-49.5,-0.558369006790373,9.75
-53.5,-0.04908738521234035,13.8125
-60.0,0.3620194659410112,26.8125
-40.0,-2.932971266437346,-8.125
-45.5,4.933282213840222,4.875
-57.5,-3.3993014259545813,26.8125
-60.0,-0.46633015951723467,6.5
-62.5,-0.6258641614573417,77.25
-59.5,-1.2026409377023428,36.5625
-63.0,4.215379205109742,-26.0
-63.0,-2.9452431127404313,-121.25
-57.5,-1.2210487071569704,28.4375
-45.5,5.565282298449106,3.25
-40.0,-4.921010367537137,9.75
-58.0,1.6689710972195775,28.4375
-63.5,-1.533980787885641,64.25
-59.0,0.859029241215959,47.1875
-42.5,-0.08590292412159584,10.5625
-48.0,-0.1349903093339364,-1.625
-47.5,2.5648158773447918,-3.25
-59.0,1.8469128686143126,-15.4375
-63.5,-1.8162332528565992,44.75
-60.0,0.3681553890925535,47.1875
-59.5,0.8528933180644165,69.125
-61.0,-5.375068680751286,-8.9375
-64.5,0.9940195505498954,-33.3125
-57.5,4.1417481272912315,28.4375
-59.5,-2.442097414313941,10.5625
-61.0,-2.6691265709210157,22.75
-42.0,1.736466251886546,12.1875
-60.0,2.8532042654672924,28.4375
-58.5,-2.0923497946760143,32.5
-60.5,-1.9819031779482483,-74.8125
-59.0,5.178719139901925,38.1875
-58.5,-5.350524988145117,-66.6875
-64.5,3.9699422790480394,102.5
-48.0,-2.718213956133356,1.625
-47.5,2.3500585670408025,-4.875
-57.5,1.368310862793992,-74.0
-59.5,-5.049864753719531,11.375
-63.0,1.1535535524900022,-7.3125
-58.0,2.994330497952771,33.3125
-28.0,-0.47246608266877743,4.875
-69.5,0.9817477042468106,-8.9375
-59.5,-3.6140587362585705,-9.75
-50.5,2.497320722677824,6.5
-53.5,-0.012271846303085088,1.625
-57.0,0.20862138715244694,18.6875
-59.0,-0.546097160487288,-18.6875
-51.0,0.3742913122440963,11.375
-28.0,0.10431069357622347,7.3125
-57.0,0.012271846303085532,21.9375
-67.0,1.8039614065535137,78.0625
-56.5,-1.2455923997631402,-3.25
-59.0,-0.5522330836388312,4.875
-58.0,-2.4298255680108554,-1.625
-54.0,2.2396119503130363,3.25
-62.0,2.3132430281315473,-60.1875
-60.5,-5.460971604872883,0.0
-44.0,5.350524988145117,1.625
-62.0,-1.325359400733194,17.0625
-39.5,-3.8717675086233587,0.0
-57.0,1.9205439464328227,6.5
-63.0,-2.1905245651006955,39.875
-57.5,1.5462526341887264,30.0625
-44.5,4.025165587411922,-6.5
-40.0,-5.295301679781233,6.5
-60.5,0.7240389318820226,70.75
-63.0,-0.7179030087304801,-13.8125
-62.5,4.270602513473625,-18.6875
-60.5,-5.184855063053467,48.8125
-57.5,0.5706408530934585,-3.25
-60.0,1.368310862793992,33.3125
-58.0,4.2092432819582,-4.875
-42.5,-4.509903516383785,12.1875
-59.0,1.4664856332186729,-21.125
-60.5,2.3316507975861747,24.375
-58.5,0.07976700097005374,-11.375
-64.5,0.6872233929727667,-114.6875
-59.5,-5.368932757599744,43.125
-57.5,3.896311201229529,-22.75
-60.5,-3.497476196379262,11.375
-50.0,0.22089323345553225,6.5
-62.5,-0.5583690067903733,1.625
-63.0,5.178719139901925,-8.9375
-52.5,-1.1658253987930873,12.1875
-59.0,-4.828971520263999,8.125
-63.5,0.05522330836388309,-4.875
-60.5,4.534447208989955,11.375
-59.5,-3.141592653589793,4.875
-62.5,-0.32520392703175593,18.6875
-60.5,3.380893656499953,-18.6875
-62.5,-3.663146121470911,64.25
-43.0,0.8283496254582462,1.625
-60.0,3.914718970684156,-21.9375
-48.5,-4.006757817957294,11.375
-53.0,3.0618256526197394,4.875
-60.5,-2.8777479580734626,38.1875
-58.5,-1.7119225592803755,1.625
-59.0,1.576932249946439,13.8125
-57.0,2.356194490192345,-21.125
-59.0,-1.9512235621905356,128.5625
-60.5,1.8898643306751097,53.6875
-61.5,-3.2029518851052186,30.875
-60.5,0.20248546400090472,4.875
-63.0,-0.06749515466696832,-22.75
-57.5,0.24543692606170253,-33.3125
-27.5,2.9206994201342606,4.875
-51.0,0.00613592315154321,-13.8125
-61.0,1.3805827090970766,13.8125
-58.5,-4.405592822807561,17.0625
-56.0,2.270291566070749,-7.3125
-58.5,0.3313398501832987,34.9375
-66.5,1.2762720155208536,76.4375
-62.0,-0.9449321653375549,33.3125
-27.5,0.10431069357622302,1.625
-56.0,-0.9510680884890972,-4.875
-58.0,0.5706408530934586,18.6875
-60.0,1.2701360923693108,36.5625
-60.0,-3.77972866135022,4.875
-52.5,2.6691265709210157,4.875
-61.0,0.5460971604872884,3.25
-40.5,-3.571107274197773,9.75
-62.0,1.3744467859455347,-15.4375
-57.5,-0.0674951546669682,70.75
-61.5,3.2090878082567613,-30.875
-56.5,-3.11091303783208,23.5625
-45.0,3.884039354926443,1.625
-62.0,-6.062292073724054,94.375
-57.5,2.2396119503130363,17.0625
-40.0,-1.4051264017032472,-1.625
-44.5,5.246214294568893,-11.375
-56.5,-3.2581751934691017,15.4375
-59.5,2.3868741059500573,-15.4375
-64.5,-1.9941750242513332,83.0
-62.5,-3.3072625786814425,9.75
-64.5,3.6079228131070282,38.1875
-42.0,-1.8837284075235674,10.5625
-48.5,0.04295146206079781,11.375
-47.0,2.3009711818284613,7.3125
-63.0,-1.0676506283684057,-31.6875
-57.5,0.9878836273983529,43.125
-61.5,-3.0127382674073995,26.0
-61.0,0.018407769454627854,38.1875
-62.0,0.9756117810952676,10.5625
-64.0,3.724505352986337,67.5
-65.0,-0.6197282383057994,-43.125
-59.5,-2.644582878314845,-1.625
-61.0,2.9022916506796332,-17.0625
-64.5,-3.865631585471816,125.3125
-60.0,-0.4049709280018092,21.125
-59.0,3.6017868899554855,30.0625
-64.0,0.5338253141842033,8.125
-59.0,-0.11658253987930856,-1.625
-60.5,-3.350214040742241,47.1875
-63.5,0.8222137023067038,43.125
-64.0,2.0125827937059615,105.75
-46.5,-0.45405831321415047,4.875
-58.5,0.7731263170943636,-30.0625
-42.5,-3.1538644998928786,15.4375
-64.0,0.7179030087304799,17.0625
-63.0,-0.1349903093339364,7.3125
-49.0,-0.6074563920027138,1.625
-62.5,-0.1349903093339364,-13.8125
-59.0,-0.2822524649709579,43.125
-59.5,3.976078202199582,-1.625
-63.5,0.8283496254582463,88.6875
-60.5,-0.3558835427894689,7.3125
-62.5,-4.424000592262189,50.4375
-63.5,1.822369176008142,38.1875
-60.5,-0.6565437772150546,38.1875
-59.0,1.2762720155208536,-15.4375
-63.0,0.07363107781851053,18.6875
-64.0,-2.313243028131547,121.25
-63.5,3.5036121195308043,74.8125
-64.5,-2.6936702635271863,-9.75
-27.5,1.779417713947344,3.25
-53.0,-0.8160777791551612,6.5
-50.0,0.10431069357622391,-11.375
-64.5,0.6320000846088836,23.5625
-65.0,0.4970097752749485,-4.875
-62.5,-2.7182139561333565,33.3125
-65.0,2.8654761117703775,69.125
-65.0,-2.086213871524472,26.8125
-60.0,1.41126232485479,30.875
-63.0,-2.5341362615870793,17.0625
-66.0,3.3563499638937833,30.0625
-51.5,-1.527844864734099,-1.625
-63.5,-2.0923497946760143,30.875
-27.5,2.8838838812250054,7.3125
-68.0,0.006135923151542322,13.8125
-63.0,-2.2027964114037806,38.1875
-59.5,2.0984857178275576,29.25
-52.5,-0.9019807032767573,11.375
-62.5,1.883728407523567,43.9375
-61.5,-2.5525440310417067,13.8125
-61.5,3.0372819600135696,-36.5625
-59.0,0.7363107781851079,23.5625
-40.0,-5.246214294568893,3.25
-44.5,5.0253210611133605,-3.25
-57.5,-4.147884050442774,28.4375
-51.5,0.8038059328520761,11.375
-62.5,1.1965050145507998,-13.8125
-50.5,-1.1535535524900018,11.375
-44.5,3.2765829629237295,-1.625
-59.0,-5.921165841238575,87.0625
-62.5,3.5404276584400596,56.9375
-40.0,-2.699806186678728,0.0
-61.5,4.166291819897402,12.1875
-55.5,-3.239767424014474,23.5625
-63.5,1.8653206380689398,17.0625
-51.0,-1.6137477888556946,20.3125
-63.5,-1.4296700943094178,36.5625
-63.0,1.2578642460662257,-7.3125
-46.0,2.258019719767664,0.0
-64.0,1.6935147898257474,55.3125
-62.0,-1.7855536370988858,41.5
-64.5,-1.8407769454627698,48.8125
-44.0,-0.08590292412159561,-7.3125
-60.5,1.337631247036279,-20.3125
-62.0,2.2702915660707492,4.875
-64.5,-3.288854809226815,34.9375
-65.5,0.116582539879309,109.0
-51.5,-0.41724277430489476,6.5
-44.5,2.135301256736813,0.0
-44.0,-2.2948352586769194,13.8125
-64.0,-0.10431069357622347,8.9375
-61.5,-1.7671458676442586,67.5
-63.0,0.28838838812250056,-48.8125
-59.5,3.2888548092268146,3.25
-62.5,1.0124273200045235,18.6875
-64.0,-2.515728492132452,65.875
-62.5,-1.9880391010997909,43.125
-61.5,4.657165672020807,40.6875
-28.0,-0.7915340865489915,8.9375
-61.5,1.3989904785517053,13.8125
-64.5,-5.381204603902829,-3.25
-53.5,3.2213596545598464,1.625
-62.5,-1.368310862793992,-23.5625
-52.5,1.67510702037112,17.0625
-60.5,-2.2396119503130363,-10.5625
-54.5,0.2147573103039897,13.8125
-57.5,4.135612204139688,17.0625
-28.0,-1.6076118657041523,4.875
-59.0,-2.675262494072558,-15.4375
-58.0,2.8532042654672924,-13.8125
-52.5,-0.9756117810952674,8.125
-63.5,-0.43565054375952217,48.8125
-60.5,3.025010113710484,43.9375
-51.5,-2.1291653335852696,11.375
-54.5,-2.6813984172241008,-15.4375
-41.0,-0.3313398501832986,-3.25
-61.0,3.7183694298347945,-8.125
-46.0,1.6751070203711205,0.0
-55.0,-4.031301510563465,61.8125
-63.0,-0.8528933180644165,19.5
-55.0,0.883572933822129,39.0
-63.5,-0.22089323345553202,65.875
-59.5,-1.7180584824319183,3.25
-62.0,1.6137477888556946,60.1875
-40.5,-1.086058397823034,3.25
-45.0,5.350524988145117,6.5
-63.0,-4.657165672020807,122.875
-59.5,3.497476196379262,-43.9375
-56.0,-2.478912953223196,48.8125
-62.0,-1.098330244126119,44.75
-63.0,0.35588354278946865,39.875
-57.5,1.086058397823034,28.4375
-61.0,-2.552544031041707,-33.3125
-46.5,4.147884050442774,8.9375
-42.5,-2.411417798556228,10.5625
-59.5,3.8717675086233583,24.375
-58.0,-1.7671458676442588,41.5
-62.0,-2.589359569950962,-7.3125
-62.5,2.779573187648782,-34.9375
-49.5,-2.405281875404685,6.5
-59.0,0.49700977527494783,24.375
-60.0,-0.1349903093339364,17.0625
-56.5,0.4049709280018092,22.75
-57.0,0.546097160487288,7.3125
-57.5,-1.7303303287350031,-12.1875
-63.0,0.32520392703175593,6.5
-62.5,3.7551849687440497,24.375
-57.5,-0.5829126993965437,34.9375
-48.5,-3.153864499892878,17.0625
-57.0,1.306951631278566,13.8125
-41.5,-1.153553552490002,7.3125
-47.5,2.399145952253143,-4.875
-59.5,-1.67510702037112,21.125
-56.5,2.221204180858408,33.3125
-64.0,-3.055689729468197,36.5625
-57.0,-1.0369710126106932,1.625
-59.5,2.147573103039898,56.9375
-55.5,0.14112623248547873,27.625
-28.0,1.0246991663076086,0.0
-57.0,-3.3440781175906977,18.6875
-61.0,0.6013204688511713,47.1875
-63.0,-0.07976700097005329,-3.25
-48.5,2.073942025221387,17.0625
-52.5,-0.09203884727313838,17.0625
-55.5,0.7363107781851075,11.375
-65.0,-1.8162332528565992,61.8125
-64.0,2.1230294104337277,47.1875
-64.5,0.28225246497095746,40.6875
-58.0,-0.294524311274043,12.1875
-55.0,-0.9387962421860121,3.25
-61.0,-1.2885438618239387,4.875
-65.0,2.840932419164208,-28.4375
-28.0,-0.822213702306704,1.625
-57.0,-2.9697868053466014,8.125
-53.5,2.509592568980909,-1.625
-59.5,1.2210487071569704,4.875
-65.0,0.6810874698212244,29.25
-49.5,-2.1414371798883547,6.5
-53.0,1.1719613219446297,-8.9375
-39.0,-3.736777199289422,6.5
-58.0,5.350524988145116,3.25
-53.0,-4.037437433715008,0.0
-45.0,3.8656315854718155,1.625
-59.0,-1.41126232485479,-4.875
-60.0,-3.871767508623358,21.9375
-60.0,1.6014759425526093,30.0625
-58.5,-1.6137477888556944,27.625
-63.0,3.1661363461959633,-27.625
-54.5,1.3130875544301088,-10.5625
-59.0,-4.417864669110647,4.875
-40.0,0.1472621556370215,4.875
-60.0,-0.7056311624273949,63.4375
-56.0,-0.17794177139473438,23.5625
-45.0,6.000932842208629,-6.5
-54.5,-3.669282044622454,25.1875
-60.0,3.3379421944391554,11.375
-63.5,-2.135301256736813,48.8125
-46.5,1.0921943209745764,4.875
-56.5,-3.196815961953676,20.3125
-57.0,4.589670517353838,-50.4375
-62.0,-2.8654761117703775,13.8125
-42.0,-1.1106020904292042,8.9375
-55.0,-0.546097160487288,1.625
-49.0,0.09203884727313838,15.4375
-61.0,0.6013204688511715,67.5
-61.5,3.6570101983193686,-77.25
-60.0,-3.834951969714103,18.6875
-47.5,2.6629906477694734,-1.625
-56.5,-4.47308797747453,30.875
-42.5,1.8223691760081417,10.5625
-49.5,-0.5706408530934586,0.0
-55.5,0.4295146206079796,30.875
-62.5,-1.552388557340269,-13.8125
-28.0,3.7429131224409646,1.625
-65.0,0.5338253141842033,-21.9375
-49.5,-1.0553787820653215,11.375
-62.5,1.5646604036433538,65.875
-65.0,-0.2024854640009046,-3.25
-59.5,-2.742757648739526,26.0
-53.0,1.294679784975481,-1.625
-57.0,-2.4911847995262812,31.6875
-57.5,4.399456899656019,9.75
-56.5,-1.9389517158874505,15.4375
-52.5,-0.018407769454627854,4.875
-50.5,0.12271846303085132,13.8125
-28.0,0.5154175447295755,3.25
-57.5,-0.8651651643675016,18.6875
-65.0,1.546252634188726,96.0
-56.5,-3.405437349106123,11.375
-59.5,1.5953400194010667,-3.25
-59.0,-1.165825398793087,-10.5625
-55.5,4.166291819897401,-8.9375
-58.5,-1.558524480491811,-6.5
-58.0,-1.5217089415825562,33.3125
-56.5,0.15953400194010658,-22.75
-60.0,-2.7550294950426113,-6.5
-43.5,5.6941366846315,-6.5
-57.5,-3.8717675086233583,43.9375
-62.5,3.5220198889854326,-50.4375
-57.0,0.34974761963792567,8.9375
-58.5,-5.872078456026235,31.6875
-40.0,0.9326603190344698,15.4375
-55.0,4.97623367590102,-13.8125
-60.0,-0.07363107781851053,3.25
-55.0,0.04908738521234035,-30.875
-39.5,-4.9823695990525625,13.8125
-44.5,4.914874444385594,-6.5
-58.5,-5.675728915176872,-34.9375
-60.0,-0.25770877236478773,-10.5625
-55.5,2.1353012567368124,25.1875
-63.0,0.24543692606170264,69.125
-52.0,0.6933593161243099,1.625
-55.5,1.632155558310322,-26.0
-60.0,1.1044661672776614,25.1875
-60.0,-4.743068596142402,87.0625
-59.5,4.589670517353838,44.75
-42.0,-3.663146121470911,7.3125
-58.0,2.8286605728611223,43.9375
-56.5,-2.969786805346601,-4.875
-46.0,2.7918450339518666,-7.3125
-62.5,-1.1167380135807465,40.6875
-58.0,1.969631331645163,36.5625
-62.0,-4.528311285838413,41.5
-57.0,4.503767593232242,-7.3125
-64.0,-2.1291653335852696,99.25
-60.0,1.6935147898257479,-4.875
-58.0,-1.9021361769781953,27.625
-49.0,-1.2640001692177683,6.5
-55.0,0.28838838812250045,13.8125
-63.5,0.294524311274043,50.4375
-59.0,0.32520392703175593,27.625
-61.0,1.4051264017032477,-45.5625
-55.0,0.5829126993965437,17.0625
-59.5,-2.7611654181941545,100.875
-59.0,-1.0615147052168634,-1.625
-62.0,0.2761165418194155,25.1875
-63.5,3.0250101137104837,-76.4375
-45.0,0.17794177139473444,-1.625
-60.0,-2.0064468705544183,-56.9375
-56.0,3.1722722693475056,-4.875
-57.5,-1.092194320974576,23.5625
-56.5,0.34974761963792567,33.3125
-60.0,0.11658253987930856,0.0
-62.5,-3.264311116620644,1.625
-58.5,4.2031073588066565,1.625
-60.5,-3.982214125351124,87.0625
-62.5,3.4483888111669216,7.3125
-59.0,-2.7611654181941545,34.9375
-50.0,-0.9756117810952678,9.75
-42.5,0.3067961575771283,12.1875
-53.0,0.5154175447295752,-8.9375
-63.5,2.601631416254048,36.5625
-62.0,-4.865787059173254,18.6875
-54.5,5.712544454086127,-12.1875
-28.0,-1.8346410223112262,7.3125
-49.0,-0.47860200582032064,0.0
-59.0,-0.3067961575771281,20.3125
-61.0,1.043106935762236,-8.125
-63.0,-1.9328157927359078,3.25
-57.0,0.5645049299419158,-38.1875
-52.5,0.632000084608884,1.625
-55.0,-2.5832236467994196,9.75
-65.5,3.32567034813607,69.125
-59.0,-0.7424467013366502,18.6875
-28.0,0.5215534678811178,1.625
-58.5,-0.8467573949128737,22.75
-52.5,0.3988350048502669,-3.25
-50.0,-0.3620194659410112,15.4375
-55.0,-1.9144080232812803,-6.5
-56.5,1.1228739367322893,-50.4375
-45.0,3.644738352016284,-11.375
-54.0,-3.3379421944391554,26.0
-56.0,-0.748582624488193,39.0
-57.5,-0.22089323345553247,21.9375
-40.5,-0.9203884727313847,1.625
-59.0,0.28225246497095813,69.125
-60.0,-0.9387962421860125,20.3125
-59.5,2.282563412373834,43.9375
-63.0,-0.9510680884890974,72.375
-58.5,-1.5401167110371838,24.375
-61.5,4.295146206079795,-50.4375
-44.5,1.4664856332186735,-8.125
-40.0,-4.933282213840222,8.125
-58.5,-0.5338253141842031,3.25
-60.5,1.116738013580747,9.75
-60.0,-1.4419419406125027,-24.375
-61.5,5.4241560659636265,-13.8125
-56.5,-3.663146121470911,30.0625
-59.0,1.2333205534600555,-26.8125
-59.5,-1.2087768608538851,56.9375
-55.5,1.214912784005428,69.125
-50.5,-1.638291481461865,0.0
-63.0,4.043573356866551,-13.8125
-44.5,-3.1722722693475065,8.125
-47.0,2.0800779483729297,8.9375
-54.0,1.0860583978230336,-15.4375
-65.0,0.31293208072867085,-104.125
-59.5,-3.393165502803038,1.625
-61.0,-2.282563412373834,-20.3125
-58.5,1.055378782065321,7.3125
-63.5,4.338097668140594,36.5625
-61.5,-0.15953400194010658,9.75
-62.5,-3.294990732378358,85.4375
-51.5,-0.2822524649709579,6.5
-47.0,2.613903262557133,3.25
-43.5,-2.2396119503130363,0.0
-60.0,0.6565437772150542,55.3125
-56.0,2.552544031041707,8.9375
-64.5,-5.037592907416446,-8.125
-63.0,-0.05522330836388309,10.5625
-62.5,2.5586799541932495,47.1875
-64.5,-0.4233786974564371,-3.25
-55.5,1.5155730184310134,31.6875
-28.0,0.23316507975861755,7.3125
-56.5,-0.5276893910326605,8.125
-52.5,-2.423689644859313,1.625
-52.0,2.675262494072558,-3.25
-60.0,0.6381360077604268,-11.375
-60.5,0.47860200582031975,27.625
-51.5,-1.0001554737014375,4.875
-28.0,0.15953400194010658,-1.625
-51.0,-2.767301341345697,8.125
-63.5,3.172272269347506,-3.25
-60.5,0.24543692606170264,15.4375
-56.5,-1.0921943209745768,31.6875
-62.5,-3.5711072741977725,85.4375
-60.5,4.313553975534423,-25.1875
-41.5,-3.6140587362585705,4.875
-44.0,5.405748296509,3.25
-57.5,-4.147884050442773,28.4375
-58.5,2.2150682577068657,-12.1875
-56.5,-3.117048960983623,16.25
-59.5,4.6448938257177215,10.5625
-62.0,-3.785864584501762,1.625
-63.5,-0.7363107781851079,-38.1875
-61.0,-0.8344855486097886,61.8125
-61.0,1.4848934026733005,33.3125
-40.5,-1.141281706186917,-1.625
-61.0,5.0866802926287855,-4.875
-44.5,0.34974761963792655,-1.625
-61.0,-6.105243535784852,52.0625
-64.0,1.6260196351587797,62.625
-62.0,1.2455923997631406,30.875
-55.5,-1.0615147052168639,11.375
-62.5,2.816388726558037,-4.875
-54.0,-2.6568547246179306,36.5625
-60.5,4.0558452031696355,-7.3125
-50.0,-4.049709280018092,15.4375
-63.5,0.18407769454627676,69.125
-59.5,-1.8775924843720246,-15.4375
-56.5,2.8961557275280905,24.375
-56.0,-1.2946797849754812,13.8125
-50.0,2.595495493102505,-1.625
-60.5,-3.1477285767413363,-8.9375
-57.0,2.9636508821950587,-21.9375
-42.0,-2.570951800496334,8.9375
-64.0,3.963806355896496,-15.4375
-50.5,-1.3314953238847362,7.3125
-57.5,-3.2949907323783574,-11.375
-51.0,0.07976700097005329,6.5
-43.5,0.5399612373357456,10.5625
-57.5,1.9696313316451632,24.375
-58.0,0.9326603190344698,45.5625
-28.0,-0.5706408530934581,-3.25
-50.0,-0.5890486225480864,26.8125
-56.0,0.08590292412159606,24.375
-55.5,0.7363107781851075,3.25
-64.5,-4.331961744989051,50.4375
-60.5,5.66959299202533,39.0
-53.0,-1.6137477888556946,1.625
-63.0,-2.3500585670408025,8.9375
-54.0,-0.09817477042468092,-4.875
-60.0,2.945243112740431,3.25
-63.5,1.619883712007237,58.5625
-28.0,-2.1414371798883547,1.625
-63.0,1.7364662518865455,15.4375
-60.5,-0.8344855486097886,17.0625
-50.0,-1.2087768608538854,0.0
-63.0,-1.5217089415825558,-12.1875
-55.5,1.1474176293384595,13.8125
-55.5,0.5338253141842029,28.4375
-54.5,-2.2273401040099507,-9.75
-54.5,2.485048876374739,4.875
-40.0,-3.331806271287613,4.875
-45.5,5.418020142812085,-1.625
-62.0,-0.31906800388021406,-36.5625
-55.5,-3.8901752780779857,36.5625
-58.0,-1.576932249946439,-40.6875
-54.5,2.969786805346601,6.5
-62.0,2.258019719767664,34.9375
-61.5,-5.313709449235861,-31.6875
-55.0,4.847379289718626,-3.25
-45.0,-5.0682725231741586,1.625
-58.0,0.16566992509164924,-1.625
-54.5,2.2089323345553233,13.8125
-55.5,2.7550294950426117,-1.625
-57.0,0.006135923151542322,-4.875
-61.5,-4.878058905476339,-4.875
-39.5,0.4663301595172349,4.875
-54.0,1.6812429435226628,3.25
-60.5,-2.5464081078901644,0.0
-45.5,2.0493983326152163,8.9375
-48.0,-0.4417864669110645,17.0625
-60.0,4.350369514443678,18.6875
-62.0,-5.767767762450011,9.75
-51.0,3.865631585471816,0.0
-60.0,1.3437671701878209,8.125
-64.0,-3.7674568150471344,40.6875
-61.0,3.7122335066832517,3.25
-49.5,-3.5956509668039427,1.625
-45.0,0.09817477042468092,7.3125
-63.5,-1.4664856332186729,-126.125
-48.5,3.472932503773092,10.5625
-62.0,-2.5832236467994196,11.375
-61.0,-0.9449321653375551,25.1875
-65.0,0.4601942363656924,43.9375
-59.5,5.307573526084318,29.25
-28.5,-2.000310947402876,-1.625
-60.5,-3.098641191528995,4.875
-53.0,2.043262409463674,3.25
-59.0,1.583068173097982,29.25
-57.5,-1.6628351740680354,-21.125
-49.0,0.7976700097005334,6.5
-28.5,0.34361169648638334,-1.625
-49.5,-0.3006602344255853,4.875
-59.0,-1.1842331682477147,4.875
-53.0,0.10431069357622347,4.875
-62.0,1.540116711037184,43.125
-40.5,-3.3379421944391554,11.375
-44.5,5.289165756629691,-1.625
-55.5,-3.8779034317749015,25.1875
-60.5,0.9019807032767573,201.0
-57.0,-2.497320722677824,18.6875
-59.0,-0.30679615757712825,6.5
-57.0,5.675728915176872,4.875
-59.5,-5.780039608753096,58.5625
-60.5,2.331650797586174,-26.0
-45.0,-2.60776733940559,1.625
-41.0,0.8406214717613314,1.625
-56.5,-0.7179030087304801,3.25
-56.0,2.1230294104337273,3.25
-52.0,1.981903177948248,-1.625
-47.0,-2.908427573831175,3.25
-43.5,0.20862138715244716,7.3125
-51.0,2.932971266437346,1.625
-59.5,1.3928545554001621,18.6875
-65.5,-5.730952223540756,-55.3125
-43.0,1.509437095279471,4.875
-46.5,-0.19021361769781953,-1.625
-51.0,2.865476111770378,4.875
-65.5,-4.356505437595221,-25.1875
-61.0,6.12365130523948,17.0625
-55.0,-1.5769322499464398,21.125
-28.5,-0.4908738521234044,4.875
-54.5,-1.1412817061869176,-3.25
-51.0,1.0615147052168639,9.75
-61.5,-2.7120780329818137,3.25
-57.0,2.8102528034064944,8.125
-54.5,2.024854640009047,3.25
-61.5,-5.516194913236766,-3.25
-28.5,3.479068426924634,3.25
-55.0,1.2946797849754814,18.6875
-51.0,-1.558524480491812,0.0
-56.5,0.3252039270317564,13.8125
-52.0,-1.245592399763141,6.5
-54.5,-0.5767767762450009,15.4375
-46.0,3.638602428864741,-6.5
-40.5,-5.246214294568893,-3.25
-59.0,-0.22089323345553236,56.9375
-61.5,0.25770877236478773,69.125
-63.0,0.9694758579437252,30.0625
-59.0,-0.7915340865489908,1.625
-56.5,1.4051264017032474,6.5
-60.5,0.5706408530934586,-55.3125
-47.0,2.957514959043516,-8.125
-40.0,-5.141903600992669,1.625
-58.5,0.01840776945462763,18.6875
-55.0,0.8774370106705869,20.3125
-62.0,0.7915340865489906,55.3125
-55.5,-0.07363107781851053,18.6875
-61.5,-1.7855536370988863,21.125
-60.0,5.019185137961818,-31.6875
-51.0,-3.6692820446224537,-3.25
-41.0,0.12271846303085132,9.75
-50.0,2.9820586516496865,11.375
-54.5,0.9572040116406404,-4.875
-60.0,0.2638446955163296,53.6875
-60.5,-6.178874613603362,3.25
-54.5,5.859806609723149,-1.625
-41.5,-3.730641276137879,7.3125
-51.5,-0.6565437772150546,9.75
-52.0,3.2704470397721868,3.25
-28.5,-0.7485826244881926,7.3125
-53.5,-0.632000084608884,13.8125
-54.0,-0.12271846303085132,11.375
-60.0,-1.607611865704152,-20.3125
-54.5,2.6875343403756426,18.6875
-56.0,-2.460505183768568,-7.3125
-49.0,2.0493983326152163,-1.625
-58.5,1.5094370952794707,22.75
-63.0,0.2699806186678728,40.6875
-28.0,-1.6935147898257474,3.25
-56.5,-2.3746022596469727,-3.25
-52.5,1.8898643306751102,6.5
-53.5,-0.116582539879309,8.125
-64.0,1.938951715887451,53.6875
-57.5,-4.338097668140594,9.75
-49.5,2.890019804376548,1.625
-56.5,0.9510680884890972,22.75
-51.5,-2.9759227284981433,15.4375
-41.0,-1.1535535524900022,3.25
-42.5,5.289165756629691,4.875
-60.5,-3.2029518851052186,25.1875
-59.5,-2.6323110320117604,4.875
-58.0,0.08590292412159592,8.125
-41.0,0.4295146206079795,0.0
-43.0,5.368932757599744,-1.625
-53.0,-3.607922813107028,8.125
-60.5,-2.2825634123738343,0.0
-60.5,2.300971181828462,8.125
-59.5,-2.073942025221387,-26.8125
-47.0,3.423845118560751,-1.625
-49.5,-1.779417713947344,8.125
-56.5,3.245903347166017,3.25
-46.0,-3.749049045592507,55.3125
-59.5,0.2270291566070748,42.3125
-45.0,0.01227184630308531,13.8125
-49.5,0.32520392703175593,11.375
-46.0,1.705786636128833,3.25
-59.5,-2.1046216409791,39.0
-55.0,3.4606606574700063,-9.75
-28.0,-1.092194320974576,4.875
-55.0,0.3681553890925535,13.8125
-52.0,-3.8410878928656453,-1.625
-51.0,2.8961557275280905,6.5
-54.0,-0.006135923151542766,9.75
-28.0,0.5767767762450009,3.25
-51.0,-0.5829126993965432,3.25
-54.0,0.04908738521234035,4.875
-52.5,-2.9084275738311756,15.4375
-55.0,3.902447124381071,8.125
-40.5,-3.963806355896497,6.5
-59.0,1.816233252856599,9.75
-43.5,3.5281558121369745,-4.875
-60.0,-5.135767677841127,-39.0
-52.5,2.1782527187976104,26.8125
-40.5,-2.405281875404685,6.5
-60.0,-0.06135923151542555,34.9375
-44.0,5.411884219660542,-3.25
-58.5,-3.5036121195308048,4.875
-52.5,0.6013204688511715,15.4375
-49.5,-0.9203884727313847,23.5625
-61.5,-0.1472621556370215,23.5625
-45.5,1.7241944055834608,8.9375
-56.5,1.8898643306751097,-3.25
-45.5,-3.552699504743145,11.375
-56.5,3.5404276584400596,13.8125
-60.5,-3.7367771992894214,52.0625
-45.5,0.22089323345553247,13.8125
-45.0,1.6505633277649499,1.625
-49.0,-1.6382914814618648,0.0
-28.0,2.055534255766759,1.625
-57.0,-3.3379421944391554,-38.1875
-50.5,2.761165418194154,1.625
-53.0,-2.9084275738311756,6.5
-55.0,2.9759227284981438,4.875
-54.5,0.9203884727313847,21.9375
-63.0,-0.3988350048502669,-9.75
-63.0,1.3192234775816516,65.875
-28.0,-1.325359400733194,0.0
-62.5,1.5278448647340985,-15.4375
-64.0,-1.558524480491811,0.0
-54.5,0.34361169648638334,28.4375
-56.5,-3.785864584501762,-1.625
-53.5,-0.036815538909255485,0.0
-51.5,2.9636508821950587,3.25
-55.0,-0.05522330836388312,4.875
-58.0,-3.031146036862027,18.6875
-44.0,5.503923066933681,-6.5
-41.0,-5.3198453723874035,-1.625
-60.0,-0.5092816215780328,13.8125
-58.0,2.282563412373834,50.4375
-52.0,0.32520392703175593,3.25
-41.0,-2.110757564130642,6.5
-43.5,5.325981295538946,-4.875
-51.5,-3.307262578681442,9.75
-59.5,-2.5402721847386216,8.9375
-58.0,0.2638446955163303,25.1875
-58.5,2.2580197197676637,26.8125
-46.5,0.9817477042468106,0.0
-59.0,-2.4911847995262812,23.5625
-48.5,0.6749515466696823,13.8125
-45.5,0.4049709280018092,13.8125
-57.5,3.669282044622453,17.0625
-46.5,-2.294835258676919,7.3125
-59.0,-2.4911847995262812,6.5
-49.0,0.6688156235181395,6.5
-57.0,4.1172044346850605,0.0
-45.0,-3.644738352016283,10.5625
-54.5,1.073786551519949,17.0625
-28.0,0.7608544707912781,1.625
-53.5,-0.23930100291016032,-8.125
-63.0,-0.6688156235181393,42.3125
-57.0,1.4971652489763856,1.625
-56.5,-3.356349963893783,4.875
-50.5,2.423689644859313,4.875
-66.0,0.411106851153352,127.75
-56.5,-2.718213956133356,8.125
-65.0,1.8653206380689398,21.125
-28.5,0.8038059328520761,-3.25
-57.0,-2.5770877236478773,18.6875
-53.0,2.018718716857504,-1.625
-63.5,-0.34974761963792655,11.375
-66.5,1.2394564766115979,131.0
-63.5,-0.515417544729575,-36.5625
-50.0,-0.2270291566070748,6.5
-58.5,0.5645049299419154,-1.625
-54.5,-0.9019807032767564,0.0
-39.0,-2.6016314162540475,-3.25
-47.0,4.90260259808251,-3.25
-58.5,-5.0682725231741586,48.8125
-58.0,1.3928545554001621,-33.3125
-62.5,-1.902136176978195,61.8125
-63.5,0.619728238305799,-13.8125
-54.5,1.7916895602504286,25.1875
-55.0,-0.5154175447295752,27.625
-60.0,3.3808936564999525,26.8125
-58.0,-3.0925052683774523,30.0625
-55.5,0.19021361769781953,11.375
-60.0,3.2090878082567613,48.8125
-60.5,-4.76147636559703,52.0625
-40.0,-0.2515728492132451,1.625
-56.0,1.6628351740680352,-1.625
-48.0,3.669282044622453,-8.125
-51.5,-4.196971435655114,-4.875
-42.0,-0.14112623248547895,7.3125
-46.0,2.5402721847386216,1.625
-55.5,-4.147884050442774,-1.625
-51.0,1.8407769454627696,6.5
-42.5,-0.07976700097005351,8.9375
-46.0,2.380738182798515,-12.1875
-56.5,1.7732817907958012,-4.875
-28.5,-1.8223691760081415,4.875
-65.5,1.0860583978230336,33.3125
-59.0,-1.644427404613407,10.5625
-54.0,-0.7117670855789378,-3.25
-51.0,0.9878836273983529,-4.875
-65.0,-2.4911847995262812,9.75
-59.5,3.012738267407399,34.9375
-59.5,1.8714565612204828,22.75
-58.5,-6.068427996875597,22.75
-53.5,2.736621725587984,0.0
-28.5,1.2578642460662253,7.3125
-62.0,-2.319378951283089,-47.1875
-62.5,2.8347964960126646,31.6875
-49.5,-1.233320553460055,1.625
-53.0,-1.2701360923693108,11.375
-40.0,-1.3069516312785665,-4.875
-63.0,0.8774370106705869,23.5625
-54.0,0.521553467881118,3.25
-60.5,1.4664856332186726,45.5625
-46.5,2.423689644859313,1.625
-57.5,-5.307573526084318,1.625
-58.0,0.04295146206079792,-25.1875
-40.0,0.036815538909255374,1.625
-45.5,5.289165756629691,-1.625
-58.5,-1.8162332528565992,34.9375
-54.0,-2.024854640009046,11.375
-63.5,2.165980872494525,-1.625
-49.0,-0.27611654181941514,0.0
-43.5,-2.5218644152839937,22.75
-48.5,0.09817477042468092,9.75
-61.0,-0.07363107781851075,9.75
-61.0,4.356505437595221,0.0
-65.0,-3.816544200259475,39.0
-47.0,-0.5338253141842033,11.375
-42.5,-0.006135923151542544,4.875
-49.5,2.251883796616121,0.0
-62.5,-1.325359400733194,9.75
-28.5,1.4603497100671303,4.875
-59.0,-1.1290098598838316,-72.375
-57.0,0.674951546669682,3.25
-63.0,-1.8775924843720249,13.8125
-60.0,1.2946797849754812,0.0
-55.0,2.423689644859313,4.875
-56.5,-3.184544115650591,13.8125
-63.0,1.3744467859455343,4.875
-63.5,1.4480778637640457,41.5
-62.0,-5.160311370447297,33.3125
-50.0,3.8288160465625602,17.0625
-57.5,2.1291653335852696,33.3125
-58.5,-1.1106020904292038,36.5625
-28.5,-0.7301748550335656,7.3125
-58.5,-1.22104870715697,-21.125
-61.5,1.3928545554001621,0.0
-50.5,-0.3865631585471818,6.5
-57.5,1.2026409377023426,31.6875
-56.0,-1.7855536370988858,0.0
-54.5,2.6384469551633023,1.625
-57.5,-0.8160777791551608,3.25
-57.5,-4.4546802080199015,-4.875
-62.0,-0.6442719309119693,33.3125
-54.0,4.252194744018997,-7.3125
-59.0,-1.000155473701438,4.875
-62.0,-2.319378951283089,36.5625
-55.0,1.227184630308513,6.5
-39.5,-1.3069516312785663,-3.25
-56.5,-0.705631162427395,13.8125
-59.5,3.650874275167826,-15.4375
-56.5,-1.9634954084936207,15.4375
-56.0,-1.6751070203711202,8.125
-43.5,5.9088939949354895,-1.625
-63.0,-3.8901752780779857,47.1875
-64.0,-1.6014759425526095,1.625
-59.5,0.47860200582032,30.875
-59.5,-0.10431069357622369,29.25
-39.5,-0.1349903093339363,6.5
-59.0,2.865476111770378,-24.375
-59.0,-1.6260196351587797,18.6875
-54.5,-1.2455923997631406,-6.5
-44.0,5.160311370447297,-1.625
-57.5,0.23930100291015943,15.4375
-62.0,-3.5526995047431447,25.1875
-61.0,-2.313243028131547,-1.625
-56.5,1.8960002538266525,8.125
-46.0,-0.9387962421860123,-3.25
-46.0,0.6872233929727674,7.3125
-51.5,-1.4358060174609601,4.875
-47.5,3.8533597391687304,-3.25
-47.0,-2.325514874434632,3.25
-47.5,2.3623304133438876,7.3125
-44.5,-3.1722722693475065,0.0
-51.0,-0.03681553890925526,-1.625
-28.0,2.902291650679633,1.625
-59.0,-0.5951845456996288,12.1875
-51.0,0.12885438618239364,11.375
-57.0,-1.7241944055834604,56.9375
-55.5,1.5217089415825558,9.75
-57.0,-2.294835258676919,28.4375
-59.5,3.472932503773092,24.375
-55.5,-0.7056311624273954,13.8125
-51.5,-1.3560390164909064,-4.875
-62.5,0.23930100291015988,20.3125
-59.0,2.0800779483729293,45.5625
-62.0,-0.3558835427894689,-38.1875
-28.5,-0.4295146206079794,0.0
-59.0,0.9387962421860125,21.9375
-54.5,-1.9389517158874505,7.3125
-56.5,1.9144080232812803,15.4375
-57.0,-1.6566992509164926,34.9375
-59.5,0.9817477042468106,13.8125
-51.0,-0.6074563920027138,3.25
-55.0,-0.37429131224409673,13.8125
-60.5,1.7548740213411733,12.1875
-57.5,-3.626330582561655,-4.875
-56.5,2.6200391857086744,4.875
-62.5,-0.9081166264282992,21.125
-64.0,1.0185632431560654,111.4375
-39.0,-3.5526995047431447,9.75
-60.5,3.6508742751678263,36.5625
-63.0,-0.3067961575771285,29.25
-58.0,-2.6691265709210157,0.0
-62.0,1.3314953238847365,39.875
-53.0,-0.9878836273983529,3.25
-46.5,4.362641360746764,0.0
-60.5,-5.933437687541661,65.875
-61.0,0.1718058482431918,-27.625
-59.5,1.3069516312785665,13.8125
-57.0,2.0371264863121312,8.125
-59.5,-0.42337869745643664,0.0
-61.5,-1.3314953238847367,52.0625
-60.5,1.7548740213411733,22.75
-46.0,2.4911847995262812,1.625
-61.5,-3.5895150436524004,29.25
-63.0,3.6079228131070282,-34.9375
-57.5,-4.3933209765044765,22.75
-39.0,-1.1167380135807468,4.875
-61.0,2.012582793705961,10.5625
-53.5,-0.8651651643675016,4.875
-61.5,2.4236896448593135,-1.625
-62.0,-2.4175537217077707,25.1875
-60.0,1.3744467859455345,-6.5
-59.5,0.23930100291016032,10.5625
-56.5,0.7179030087304801,4.875
-60.5,-2.6629906477694734,13.8125
-60.5,-1.5033011721279284,15.4375
-46.5,3.920854893835699,7.3125
-49.5,-2.442097414313941,-3.25
-52.0,0.31293208072867085,15.4375
-58.5,3.810408277107933,-3.25
-43.5,-3.902447124381071,10.5625
-57.0,3.35021404074224,12.1875
-52.0,-4.313553975534423,-4.875
-62.0,3.6999616603801666,99.25
-55.0,0.8038059328520761,4.875
-61.0,0.7485826244881926,-15.4375
-63.5,-1.601475942552609,18.6875
-56.5,0.19021361769781908,28.4375
-61.0,-1.2394564766115979,76.4375
-62.0,-2.0800779483729297,22.75
-50.0,0.294524311274043,6.5
-43.0,0.2822524649709579,8.9375
-61.5,1.4173982480063325,91.9375
-62.0,1.4358060174609601,15.4375
-57.5,1.0492428589137788,-12.1875
-62.0,-4.798291904506286,13.8125
-50.0,0.9756117810952679,8.9375
-55.5,2.5464081078901644,34.9375
-45.5,-0.3558835427894689,8.9375
-54.5,-3.6447383520162835,-12.1875
-56.5,4.466952054322987,8.9375
-61.0,-0.6565437772150551,70.75
-57.5,0.9572040116406404,21.9375
-59.0,0.3252039270317564,4.875
-61.0,-3.75518496874405,21.9375
-55.0,-0.6074563920027138,25.1875
-55.0,2.5770877236478773,6.5
-54.0,-0.04295146206079803,3.25
-28.5,0.3620194659410112,4.875
-61.0,-1.7364662518865455,-22.75
-58.0,1.2762720155208531,-8.9375
-62.0,-0.4970097752749476,7.3125
-57.0,-0.36815538909255396,-4.875
-59.0,2.3500585670408025,8.125
-62.0,-1.9021361769781953,-33.3125
-56.5,-1.7426021750380882,4.875
-59.0,3.552699504743145,6.5
-28.0,-0.8897088569736722,1.625
-62.0,-1.1044661672776614,-3.25
-60.0,-2.2212041808584084,80.5625
-60.0,2.3746022596469722,-18.6875
-54.5,-2.067806102069844,15.4375
-57.0,-0.41110685115335177,-13.8125
-53.0,3.2949907323783574,11.375
-54.0,0.3252039270317564,3.25
-50.0,-3.006602344255857,9.75
-44.0,4.9210103675371375,3.25
-59.0,-1.6689710972195773,18.6875
-57.0,0.7608544707912772,-4.875
-62.5,-3.1170489609836225,30.875
-56.0,0.4049709280018092,6.5
-60.5,-2.172116795646068,4.875
-58.0,4.595806440505381,-23.5625
-38.5,-4.344233591292136,3.25
-65.5,4.166291819897402,39.875
-53.0,-2.2825634123738343,-3.25
-61.0,2.7673013413456964,-13.8125
-58.5,-5.0253210611133605,15.4375
-56.0,5.418020142812085,53.6875
-38.5,-5.013049214810276,9.75
-44.0,5.43029198911517,-1.625
-58.0,-0.6442719309119687,3.25
-60.5,-1.9634954084936211,-21.9375
-55.5,-1.055378782065321,1.625
-62.5,2.9206994201342606,-18.6875
-53.5,-2.5095925689809087,-20.3125
-61.5,2.0493983326152168,53.6875
-58.0,-4.5835345942022965,36.5625
-62.5,0.08590292412159589,7.3125
-52.5,2.380738182798515,12.1875
-48.0,-0.705631162427395,12.1875
-50.0,0.11044661672776623,3.25
-56.0,-0.4233786974564371,36.5625
-46.5,-1.368310862793992,3.25
-58.0,2.116893487282185,55.3125
-43.0,-0.5276893910326605,4.875
-60.5,3.4667965806215486,4.875
-61.5,-0.9510680884890972,31.6875
-63.0,-0.5706408530934581,90.3125
-58.0,-2.0678061020698446,-4.875
-52.5,2.601631416254047,-1.625
-51.0,-1.3314953238847362,21.125
-47.0,0.9572040116406404,12.1875
-61.5,-2.9881945748012293,-6.5
-58.0,4.430136515413732,100.875
-57.0,0.337475773334841,-21.9375
-56.5,-3.3011266555298997,17.0625
-61.5,-1.4358060174609604,3.25
-68.5,2.7857091108003242,34.9375
-54.5,-2.3439226438892597,17.0625
-62.5,-0.5767767762450011,1.625
-48.0,0.8713010875190443,13.8125
-41.0,-0.024543692606170397,18.6875
-68.0,1.3621749396424496,178.1875
-50.0,-1.2210487071569704,-3.25
-47.5,1.8346410223112266,7.3125
-47.0,-1.9757672547967058,13.8125
-57.0,3.761320891895592,-28.4375
-59.0,-2.8961557275280905,25.1875
-61.5,-1.6014759425526093,-33.3125
-57.5,-0.4417864669110646,-29.25
-57.5,4.3074180523828804,-8.125
-50.5,-5.00077736850719,-1.625
-53.0,4.411728745959104,6.5
-50.5,-2.159844949342983,7.3125
-56.0,0.06135923151542588,18.6875
-63.5,2.2334760271614935,15.4375
-54.5,-0.7301748550335652,-6.5
-28.5,0.2761165418194156,7.3125
-52.0,0.006135923151542322,8.125
-55.5,-2.454369260617026,34.9375
-60.0,-0.9510680884890975,24.375
-59.5,0.2699806186678727,20.3125
-61.0,0.28838838812250067,-3.25
-60.0,3.7858645845017627,26.0
-55.5,0.840621471761331,-28.4375
-63.5,-2.699806186678728,8.125
-28.5,0.9081166264282992,4.875
-61.0,-3.368621810196868,-104.125
-61.0,3.7429131224409646,1.625
-62.0,-4.239922897715912,27.625
-55.5,5.301437602932776,40.6875
-54.0,-1.3867186322486198,23.5625
-59.5,-2.7795731876487815,31.6875
-52.5,2.135301256736813,18.6875
-54.0,-1.8100973297050569,11.375
-65.5,0.28838838812250067,55.3125
-61.5,0.337475773334841,1.625
-55.5,-0.1472621556370215,-1.625
-62.5,3.1354567304382504,-43.125
-38.5,-4.466952054322987,3.25
-60.5,2.0800779483729297,11.375
-45.5,3.288854809226814,4.875
-54.5,-1.2087768608538854,13.8125
-58.5,-0.5522330836388303,13.8125
-57.5,0.44178646691106493,6.5
-57.5,-4.589670517353839,-28.4375
-59.0,5.178719139901925,-20.3125
-58.0,-3.018874190558942,24.375
-62.5,-0.8344855486097891,83.8125
-62.0,-0.30066023442558554,53.6875
-56.0,-0.27611654181941536,0.0
-61.0,-0.4295146206079796,18.6875
-55.5,4.626486056263094,16.25
-57.5,-3.0740974989228245,-7.3125
-57.5,-2.0125827937059615,-11.375
-39.0,0.705631162427395,8.125
-45.5,-0.8590292412159591,0.0
-61.5,1.5401167110371836,42.3125
-54.0,4.092660742078891,-8.125
-60.5,-0.7731263170943636,33.3125
-56.0,-2.9759227284981433,14.625
-56.5,3.724505352986337,24.375
-61.0,-5.436427912266712,-18.6875
-60.0,0.8222137023067038,30.875
-58.5,0.8835729338221292,11.375
-56.5,3.9147189706841563,-6.5
-57.5,-1.2455923997631402,4.875
-58.5,1.0369710126106932,-8.9375
-44.0,-3.822680123411018,4.875
-53.0,2.1230294104337273,15.4375
-54.5,-0.15339807878856426,4.875
-50.5,-1.8960002538266523,4.875
-57.5,4.06811704947272,-34.9375
-63.5,-2.1537090261914402,78.875
-57.5,-3.3870295796514958,31.6875
-52.0,4.4976316700806995,3.25
-63.0,-2.239611950313036,92.75
-47.0,1.6198837120072374,-4.875
-59.5,-3.810408277107933,61.0
-57.0,0.6135923151542566,-4.875
-63.5,1.2578642460662257,13.8125
-55.5,-1.423534171157875,1.625
-48.5,1.1044661672776614,-4.875
-60.0,0.7301748550335656,34.9375
-55.0,-0.6258641614573417,21.125
-59.0,-0.05522330836388312,41.5
-53.5,-1.2026409377023426,-22.75
-61.0,1.6137477888556941,31.6875
-63.5,-2.448233337465483,20.3125
-55.5,1.2824079386723959,-3.25
-60.5,1.478757479521758,29.25
-58.5,0.3988350048502669,13.8125
-57.5,-2.1782527187976104,8.9375
-53.5,1.423534171157875,15.4375
-59.0,0.6197282383057989,58.5625
-49.0,-1.6198837120072371,0.0
-58.0,-0.8038059328520759,17.0625
-60.5,1.2333205534600555,21.125
-42.5,-0.04908738521234057,15.4375
-58.5,2.7673013413456973,33.3125
-53.0,-2.613903262557133,21.125
-60.0,0.7301748550335652,83.8125
-55.0,-1.564660403643354,13.8125
-55.5,2.804116880254952,10.5625
-60.0,1.5278448647340985,-26.0
-60.5,-3.5711072741977725,21.125
-48.0,2.215068257706865,4.875
-55.5,-3.3686218101968675,10.5625
-61.5,4.908738521234052,-40.6875
-50.5,-3.8288160465625602,-13.8125
-57.5,4.160155896745859,-23.5625
-54.5,-0.34361169648638334,-13.8125
-58.5,-3.5649713510462306,23.5625
-64.0,-1.380582709097077,91.9375
-62.0,1.8100973297050569,65.875
-56.5,-0.6565437772150546,18.6875
-28.5,2.307107104980004,4.875
-62.5,-3.4299810417122933,44.75
-49.0,2.859340188618835,1.625
-61.5,-2.773437264497239,-10.5625
-51.5,2.687534340375643,18.6875
-58.5,0.9510680884890981,45.5625
-57.5,-0.44178646691106493,7.3125
-61.5,-3.098641191528995,70.75
-28.5,3.282718886075272,-3.25
-51.5,-0.5338253141842033,17.0625
-59.5,0.865165164367502,-33.3125
-50.0,-1.0983302441261191,-1.625
-58.5,1.0185632431560654,38.1875
-62.0,-0.2024854640009046,30.875
-54.0,-2.5218644152839937,4.875
-58.5,0.8038059328520759,9.75
-57.5,-0.25157284921324496,18.6875
-59.5,-1.932815792735908,31.6875
-56.0,4.871922982324796,-1.625
-61.5,0.28838838812250067,1.625
-58.0,-1.619883712007237,21.125
-57.5,-3.429981041712294,-13.8125
-46.0,5.730952223540756,-15.4375
-38.5,-5.5100589900852235,6.5
-54.5,5.442563835418255,8.9375
-61.0,-0.3067961575771285,6.5
-56.0,-5.3627968344482015,4.875
-60.5,1.8714565612204823,0.0
-61.0,3.3440781175906973,38.1875
-61.0,-1.558524480491811,-4.875
-45.5,2.043262409463674,-3.25
-60.0,-3.650874275167826,21.9375
-55.0,-0.5767767762450013,17.0625
-57.5,3.018874190558942,17.0625
-38.5,-4.239922897715912,6.5
-59.5,5.031456984264903,-7.3125
-61.0,-2.024854640009046,76.4375
-56.0,-1.4787574795217577,15.4375
-63.0,2.773437264497239,-23.5625
-57.5,-4.718524903536232,65.875
-55.0,4.57126274789921,3.25
-53.5,-2.534136261587079,10.5625
-54.0,3.607922813107028,48.8125
-59.5,-0.11658253987930856,13.8125
-57.0,-4.921010367537137,13.8125
-57.5,-0.7976700097005334,-29.25
-60.5,3.3011266555298997,43.125
-61.0,-1.4419419406125025,-44.75
-42.5,-0.1349903093339364,13.8125
-50.5,0.2024854640009046,15.4375
-60.0,-0.9694758579437253,26.0
-62.5,0.17794177139473444,26.0
-66.0,0.24543692606170242,-93.5625
-58.5,-1.2149127840054277,21.125
-50.0,2.2580197197676637,-22.75
-59.5,2.4298255680108554,3.25
-59.0,-0.3681553890925535,13.8125
-57.0,-3.2765829629237295,-8.9375
-45.0,3.160000423044421,-1.625
-57.5,-4.331961744989051,-3.25
-63.0,2.2641556429192065,67.5
-62.5,0.1963495408493623,36.5625
-61.5,2.0248546400090466,8.9375
-54.0,-2.613903262557133,-4.875
-62.5,4.2031073588066565,12.1875
-61.5,-2.699806186678728,12.1875
-59.0,1.9328157927359078,-6.5
-54.0,-3.607922813107028,10.5625
-57.5,1.779417713947344,28.4375
-62.0,-3.4606606574700067,27.625
-62.5,5.246214294568892,26.0
-64.5,-3.3870295796514953,21.125
-57.5,-0.14726215563702172,18.6875
-61.5,1.3437671701878215,21.125
-58.5,2.1966604882522387,20.3125
-48.5,-3.417709195409209,13.8125
-53.0,-0.6565437772150544,4.875
-60.0,-1.2271846303085128,-3.25
-42.0,1.8285050991596843,10.5625
-46.0,2.503456645829366,-1.625
-51.0,-2.87161203492192,3.25
-67.0,-0.607456392002714,48.8125
-61.0,-0.5154175447295755,21.9375
-55.0,1.3867186322486196,1.625
-63.0,-1.5830681730979816,-26.0
-55.5,4.9394181369917645,-3.25
-59.0,-3.724505352986337,44.75
-58.5,2.1046216409791,67.5
-62.5,1.000155473701438,44.75
-61.5,-0.030679615757712497,9.75
-60.0,-0.7301748550335652,-38.1875
-28.0,0.36201946594101075,3.25
-52.0,-0.4479223900626068,13.8125
-60.5,-2.6629906477694734,0.0
-54.5,2.2457478734645786,1.625
-64.5,1.8162332528565992,122.875
-58.5,-4.773748211900116,-7.3125
-66.0,0.8160777791551612,-15.4375
-63.0,3.0802334220743677,74.0
-59.5,0.4908738521234053,21.9375
-59.0,0.2577087723647873,13.8125
-28.0,-0.8344855486097886,7.3125
-59.0,-3.429981041712294,-11.375
-58.5,4.184699589352029,8.9375
-54.0,-1.558524480491811,18.6875
-60.0,-2.8961557275280905,-31.6875
-61.5,4.227651051412827,13.8125
-52.5,-0.6442719309119687,-13.8125
-40.0,-3.227495577711389,6.5
-58.0,4.614214209960008,13.8125
-53.5,0.22702915660707568,-26.0
-65.0,-2.8470683423157506,96.8125
-52.5,-2.435961491162398,-4.875
-56.0,-0.11658253987930872,17.0625
-56.0,1.4848934026733005,-30.875
-44.0,4.0558452031696355,3.25
-56.0,-3.7060975835317094,42.3125
-65.0,1.7241944055834608,55.3125
-56.0,-2.024854640009046,-4.875
-62.5,4.239922897715912,40.6875
-51.5,-5.197126909356552,0.0
-64.5,2.454369260617026,27.625
-56.0,-1.4787574795217582,4.875
-40.0,-0.95720401164064,-1.625
-55.5,1.2087768608538854,9.75
-56.5,4.215379205109741,-9.75
-44.0,-0.34361169648638334,4.875
-62.0,-0.15339807878856426,20.3125
-54.5,-0.2638446955163305,-52.0625
-53.5,-3.3993014259545804,12.1875
-57.5,3.1477285767413354,15.4375
-63.5,-1.41126232485479,0.0
-63.0,2.12916533358527,-4.875
-62.0,-5.074408446325701,-1.625
-40.0,0.8958447801252144,22.75
-61.0,1.5707963267948968,-8.125
-60.0,-1.423534171157875,-12.1875
-57.5,0.22089323345553202,8.9375
-64.0,1.4603497100671308,61.0
-46.5,0.8160777791551612,-4.875
-60.5,-2.926835343285804,10.5625
-64.5,0.6749515466696823,-8.9375
-62.0,2.785709110800324,30.875
-61.0,-2.8777479580734626,26.0
-50.5,-0.5154175447295752,18.6875
-55.5,2.067806102069844,13.8125
-56.5,-3.0802334220743677,7.3125
-60.0,4.884194828627882,39.0
-57.0,-4.135612204139688,-12.1875
-55.0,0.8283496254582463,11.375
-63.0,-0.3620194659410114,33.3125
-63.5,0.16566992509164935,21.125
-62.5,2.6691265709210157,7.3125
-58.5,-2.920699420134261,-3.25
-45.5,2.6936702635271863,3.25
-41.0,-2.6077673394055907,18.6875
-64.0,-0.06135923151542566,-24.375
-64.0,-0.34361169648638357,70.75
-54.0,0.6504078540635116,9.75
-64.5,0.4233786974564371,61.0
-56.5,-2.1905245651006955,0.0
-62.0,0.5522330836388308,4.875
-51.0,0.7853981633974482,-13.8125
-60.5,1.2087768608538854,21.9375
-58.0,-1.6505633277649499,12.1875
-59.0,4.509903516383785,31.6875
-56.0,-3.1109130378320797,-21.125
-61.0,-0.9633399347921829,18.6875
-60.0,1.6014759425526093,13.8125
-64.0,0.9142525495798424,-52.0625
-60.5,0.9387962421860125,48.8125
-61.5,-0.1963495408493623,15.4375
-28.5,-0.6994952392758522,3.25
-55.0,0.840621471761331,18.6875
-52.0,-1.2455923997631402,1.625
-58.5,0.05522330836388312,29.25
-63.0,0.5215534678811173,61.0
-59.0,-3.202951885105218,36.5625
-66.5,4.7860200582032,-36.5625
-53.0,-2.478912953223196,6.5
-28.5,0.705631162427395,6.5
-59.5,0.47860200582031975,22.75
-58.5,-1.0369710126106932,18.6875
-59.0,-2.8593401886188348,17.0625
-58.0,4.509903516383785,42.3125
-52.5,-1.7732817907958016,9.75
-62.5,1.4358060174609606,61.0
-54.5,0.8160777791551608,10.5625
-51.5,-2.098485717827557,3.25
-66.0,-3.454524734318464,-26.0
-59.0,2.5157284921324514,-9.75
-43.5,3.337942194439155,1.625
-55.0,0.22702915660707568,43.9375
-58.0,-1.9696313316451635,-10.5625
-38.5,-3.56497135104623,4.875
-63.0,4.859651136021711,99.25
-60.5,-2.4175537217077703,50.4375
-61.0,1.1780972450961724,48.8125
-58.0,-0.7485826244881926,8.9375
-44.5,2.448233337465483,4.875
-40.0,-5.209398755659637,1.625
-51.0,3.3993014259545804,-22.75
-63.5,-4.04357335686655,24.375
-51.5,4.289010282928253,-13.8125
-55.0,-3.5711072741977725,26.8125
-57.5,-0.619728238305799,36.5625
-60.5,1.6689710972195775,34.9375
-55.5,1.2210487071569707,21.9375
-64.0,2.6384469551633027,39.875
-55.5,-2.6261751088602177,23.5625
-52.0,1.3130875544301084,0.0
-55.5,-3.7122335066832512,6.5
-51.5,3.7183694298347945,-3.25
-40.5,-3.681553890925539,9.75
-44.0,5.111223985234956,1.625
-58.0,-3.7551849687440493,25.1875
-60.5,-1.9205439464328227,91.125
-58.5,2.1966604882522383,24.375
-60.5,2.184388641949153,-31.6875
-65.0,-1.6935147898257483,140.75
-62.0,-2.380738182798515,9.75
-48.5,0.8467573949128739,-6.5
-46.0,2.675262494072558,0.0
-61.0,0.6074563920027138,3.25
-58.0,-3.098641191528995,10.5625
-63.5,3.1047771146805374,96.8125
-60.5,0.31293208072867085,-36.5625
-64.5,-1.8591847149173968,14.625
-41.0,-1.104466167277662,12.1875
-64.5,4.031301510563465,-119.625
-65.0,-1.055378782065321,-43.9375
-67.5,-4.558990901596125,-109.0
-53.0,4.460816131171444,-3.25
-64.0,-4.09266074207889,65.875
-55.0,3.6140587362585705,20.3125
-64.0,-3.4422528880153784,-133.4375
-63.0,3.834951969714103,8.125
-41.0,-2.853204265467293,11.375
-55.5,2.4666411069201106,9.75
-45.0,-0.23930100291015943,-1.625
-62.0,-0.1656699250916498,61.8125
-62.0,-3.4177091954092083,-1.625
-63.0,4.626486056263094,21.9375
-60.5,-5.0253210611133605,62.625
-49.0,1.0124273200045233,8.125
-64.5,0.294524311274043,26.0
-58.5,-1.3867186322486196,6.5
-61.0,4.878058905476339,-1.625
-62.0,-4.921010367537137,22.75
-65.5,5.589825991055276,30.875
-55.0,-1.0799224746714913,9.75
-63.0,-0.09817477042468159,6.5
-28.5,-0.337475773334841,3.25
-51.0,-1.0431069357622356,-1.625
-60.5,-2.890019804376548,18.6875
-57.5,2.092349794676015,7.3125
-63.5,-1.975767254796706,36.5625
-59.0,5.141903600992669,23.5625
-59.5,-4.104932588381976,-9.75
-57.5,0.3497476196379261,9.75
-57.5,0.6197282383057989,-43.125
-59.0,-0.8774370106705867,7.3125
-55.5,2.853204265467293,18.6875
-62.0,0.6258641614573417,34.9375
-51.5,-1.5155730184310139,6.5
-28.5,0.7179030087304801,1.625
-59.0,-3.2029518851052186,33.3125
-61.0,3.945398586441869,30.875
-58.5,-2.6261751088602177,-7.3125
-60.5,-1.2087768608538851,3.25
-57.5,4.117204434685061,-6.5
-53.0,-1.6260196351587797,8.125
-62.0,-2.2825634123738343,22.75
-59.5,0.9878836273983529,12.1875
-52.0,0.7976700097005334,-4.875
-54.5,1.1351457830353748,17.0625
-59.5,-2.34392264388926,-10.5625
-60.0,0.03067961575771294,-12.1875
-40.5,-1.1351457830353744,-4.875
-62.5,1.2087768608538854,-17.0625
-57.0,0.30066023442558576,28.4375
-56.5,0.6810874698212244,24.375
-45.0,2.939107189588889,-1.625
-55.5,-3.4361169648638366,4.875
-58.0,-1.6812429435226628,52.0625
-57.0,-0.6442719309119693,75.625
-58.5,5.436427912266712,-65.875
-65.0,-2.4420974143139405,24.375
-63.5,-2.086213871524472,15.4375
-62.5,3.233631500862931,-7.3125
-60.0,-1.9573594853420775,-15.4375
-64.0,-1.104466167277662,-22.75
-64.5,1.4848934026733005,79.75
-40.0,-1.8775924843720246,1.625
-63.5,2.8286605728611223,30.0625
-44.5,2.221204180858409,-3.25
-57.5,-0.8590292412159597,26.0
-61.0,-4.374913207049849,25.1875
-57.5,5.559146375297564,30.875
-55.0,-3.4729325037730914,3.25
-63.0,1.000155473701438,24.375
-54.5,-1.5585244804918115,21.9375
-62.5,3.8288160465625602,-48.8125
-44.5,-1.7794177139473435,0.0
-42.0,-2.178252718797611,-1.625
-64.0,2.3623304133438876,-1.625
-58.5,-4.252194744018998,21.125
-49.0,1.2026409377023426,-1.625
-56.5,0.10431069357622369,7.3125
-60.0,0.43565054375952195,56.9375
-62.0,-0.3067961575771281,10.5625
-58.5,2.9452431127404313,47.1875
-58.5,-0.4049709280018092,76.4375
-58.0,-1.9021361769781953,27.625
-63.5,3.767456815047135,10.5625
-61.5,-4.76147636559703,21.9375
-63.0,2.202796411403781,39.875
-58.5,-2.092349794676015,-1.625
-42.0,0.5031456984264904,0.0
-45.0,2.3009711818284613,1.625
-58.5,-3.945398586441869,4.875
-61.0,4.773748211900115,50.4375
-56.0,-3.4238451185607506,-21.125
-58.0,2.9820586516496865,17.0625
-64.0,-2.092349794676015,26.0
-53.0,-0.8774370106705869,34.9375
-57.5,-0.2270291566070748,36.5625
-63.5,1.4051264017032474,27.625
-62.5,-2.0064468705544187,43.125
-64.5,5.553010452146021,-43.125
-28.5,-2.0923497946760143,-1.625
-55.5,0.4908738521234053,30.0625
-60.5,-3.202951885105219,-11.375
-56.5,1.9082721001297378,1.625
-60.5,-3.3011266555299,15.4375
-53.5,3.2397674240144743,11.375
-62.5,2.356194490192345,-29.25
-52.0,-2.3316507975861747,0.0
-58.5,-2.6691265709210157,4.875
-59.0,-0.2208932334555323,-26.0
-28.0,3.7490490455925065,4.875
-53.5,-0.840621471761331,-1.625
-51.0,0.1472621556370215,9.75
-56.5,-2.0493983326152163,-9.75
-57.0,1.945087639038993,-44.75
-56.0,0.7424467013366502,-1.625
-62.5,1.3314953238847362,41.5
-61.0,-1.0676506283684057,59.375
-59.0,1.0185632431560654,-10.5625
-60.0,-3.1968159619536762,6.5
-44.0,3.9638063558964967,0.0
-56.0,-4.104932588381976,13.8125
-39.0,-1.1780972450961724,8.125
-61.5,-0.41724277430489437,-1.625
-62.0,1.239456476611598,-17.0625
-56.5,1.2333205534600555,3.25
-63.5,1.9389517158874505,69.125
-65.5,0.9387962421860125,12.1875
-63.0,-1.9389517158874505,55.3125
-62.0,0.5706408530934586,39.875
-62.5,-0.8160777791551612,8.9375
-58.5,-0.5583690067903735,20.3125
-43.0,2.9329712664373457,-8.125
-60.5,-1.9328157927359078,69.125
-39.5,-3.313398501832985,0.0
-62.5,0.8222137023067035,47.1875
-59.5,0.44792239006260726,-13.8125
-61.0,-0.9326603190344698,88.6875
-46.0,3.252039270317559,3.25
-60.0,-3.35021404074224,-15.4375
-42.0,0.7608544707912781,10.5625
-54.5,-0.5276893910326605,-1.625
-57.5,4.626486056263094,-3.25
-61.5,-0.233165079758618,30.0625
-55.5,-4.76147636559703,-26.0
-54.5,-0.705631162427395,-15.4375
-58.5,4.841243366567083,-3.25
-54.5,-0.44178646691106405,1.625
-60.5,0.8528933180644165,-23.5625
-57.0,-4.154019973594316,10.5625
-48.5,0.19021361769781953,-8.125
-58.0,4.074252972624263,-7.3125
-59.5,-0.570640853093459,-26.0
-59.0,-4.061981126321178,-10.5625
-59.0,4.28287435977671,-3.25
-58.0,-0.9940195505498952,21.9375
-58.5,0.6872233929727667,38.1875
-41.5,-3.282718886075272,10.5625
-49.5,-0.04908738521234035,-8.125
-61.0,0.32520392703175593,-7.3125
-59.0,3.1354567304382504,4.875
-57.0,-3.8472238160171877,15.4375
-54.0,-0.2515728492132452,-10.5625
-59.5,0.0674951546669682,17.0625
-53.0,3.3440781175906973,12.1875
-59.0,-4.01902966426038,33.3125
-54.5,-0.10431069357622358,17.0625
-59.0,4.184699589352029,52.0625
-46.0,-0.0674951546669682,-7.3125
-60.0,1.1903690913992575,-4.875
-59.5,-0.4233786974564371,13.8125
-56.5,-0.15953400194010658,8.9375
-59.5,0.0,22.75
-55.5,-4.6448938257177215,1.625
-28.5,3.908583047532613,0.0
-58.0,-2.0125827937059606,15.4375
-53.5,0.8774370106705867,9.75
-60.5,-0.23930100291016032,-26.0
-58.5,-1.5646604036433538,1.625
-56.5,2.5341362615870793,-25.1875
-55.0,-2.000310947402876,-8.125
-61.5,1.4358060174609604,-73.1875
-57.0,0.9817477042468101,12.1875
-61.0,-3.5895150436524004,15.4375
-52.5,2.6875343403756435,8.125
-58.5,-2.1046216409791,10.5625
-28.5,2.975922728498144,4.875
-57.0,-0.7179030087304805,13.8125
-63.0,-0.8160777791551608,-22.75
-60.5,-1.300815708127024,-3.25
-58.0,0.7915340865489908,1.625
-52.5,1.2087768608538854,8.125
-56.5,0.6504078540635119,1.625
-53.0,-0.9142525495798424,9.75
-56.5,-1.4296700943094174,-11.375
-58.5,1.5830681730979816,-3.25
-45.0,2.6752624940725585,1.625
-61.0,-4.129476280988146,11.375
-65.5,-1.3008157081270237,1.625
-40.0,0.12271846303085132,8.125
-59.5,1.828505099159684,43.125
-61.5,-1.2026409377023424,30.875
-62.0,0.9878836273983527,52.0625
-54.5,0.662679700366597,21.9375
-56.0,-0.2699806186678728,-3.25
-59.0,-1.012427320004523,8.125
-59.5,-0.19634954084936207,18.6875
-58.0,-1.1658253987930873,21.125
-59.5,0.1718058482431918,43.9375
-62.5,5.424156065963627,-7.3125
-56.5,-3.1722722693475056,4.875
-60.5,-2.2886993355253766,-8.125
-63.5,5.583690067903734,-50.4375
-39.5,-5.307573526084319,3.25
-46.0,5.375068680751287,-11.375
-61.5,-3.27658296292373,33.3125
-57.0,-0.5645049299419158,34.9375
-58.5,-0.24543692606170264,28.4375
-61.0,0.17794177139473444,65.875
-55.0,0.8344855486097886,8.125
-60.0,-1.3192234775816511,25.1875
-61.5,0.6074563920027138,10.5625
-59.0,-2.012582793705961,15.4375
-57.5,2.9329712664373457,13.0
-57.0,-2.2518837966161214,13.8125
-46.0,3.074097498922825,8.9375
-53.0,-0.9878836273983529,10.5625
-57.5,-1.3008157081270235,10.5625
-65.0,0.7608544707912779,85.4375
-42.0,-0.5460971604872882,15.4375
-50.0,-0.2024854640009046,13.8125
-62.5,4.491495746929157,6.5
-59.5,-2.5525440310417067,-3.25
-60.5,-0.6688156235181393,17.0625
-60.0,1.055378782065321,59.375
-63.5,0.30679615757712764,24.375
-53.0,-4.227651051412827,-1.625
-56.0,4.049709280018093,3.25
-59.5,-2.1046216409791,-9.75
-58.0,3.9944859716542096,-34.9375
-56.5,-1.1351457830353748,-21.9375
-57.0,-3.184544115650591,18.6875
-62.5,0.036815538909255485,44.75
-62.0,-0.9817477042468105,85.4375
-57.5,0.7056311624273949,-7.3125
-59.5,3.399301425954581,1.625
-65.0,-2.9636508821950587,56.9375
-50.0,-0.20862138715244716,0.0
-57.0,0.012271846303085088,-20.3125
-59.5,2.7120780329818137,12.1875
-63.0,-3.767456815047135,44.75
-56.0,-0.2208932334555323,13.8125
-62.5,3.8717675086233583,-36.5625
-56.5,-3.117048960983623,-29.25
-43.0,0.7976700097005334,10.5625
-46.5,1.8285050991596843,7.3125
-59.0,-2.5464081078901644,-10.5625
-53.5,1.086058397823034,27.625
-54.5,2.4911847995262812,-6.5
-50.5,1.1535535524900018,-4.875
-60.5,-3.4238451185607506,28.4375
-59.0,1.9880391010997904,62.625
-57.0,-0.9572040116406395,15.4375
-60.0,-1.2640001692177685,52.0625
-65.5,-1.1044661672776617,82.1875
-61.5,-0.4970097752749477,18.6875
-61.5,4.792155981354743,15.4375
-60.0,0.2024854640009046,-70.75
-59.0,-2.932971266437346,15.4375
-55.0,0.5829126993965437,15.4375
-28.5,0.7056311624273945,9.75
-56.5,-0.34974761963792567,30.0625
-63.5,1.116738013580747,53.6875
-52.0,-1.2394564766115983,8.125
-54.5,-2.497320722677824,3.25
-66.0,2.767301341345697,50.4375
-59.0,-2.638446955163303,28.4375
-61.0,3.5097480426823466,-52.0625
-58.5,-0.6197282383057985,26.0
-61.0,-1.7732817907958016,-17.0625
-67.5,0.6197282383057989,27.625
-28.5,1.1658253987930873,-4.875
-63.5,1.1351457830353748,43.125
-57.5,-1.583068173097982,-1.625
-58.0,-2.693670263527186,-3.25
-69.5,3.135456730438251,43.9375
-53.0,-0.5829126993965437,4.875
-56.5,-0.03681553890925571,25.1875
-59.0,0.1288543861823941,18.6875
-56.0,-2.110757564130642,-13.8125
-63.0,3.5956509668039427,29.25
-60.0,-2.6384469551633027,-29.25
-40.0,-1.6996507129772902,3.25
-60.5,4.675573441475434,-10.5625
-55.5,-2.7979809571034093,25.1875
-61.5,1.6137477888556941,28.4375
-58.0,-3.3870295796514953,17.0625
-51.5,1.761009944492716,31.6875
-45.0,3.32567034813607,-11.375
-63.5,-1.8100973297050569,12.1875
-58.5,-3.1293208072867076,55.3125
-62.5,3.178408192499049,137.5
-59.5,-0.14726215563702194,13.8125
-62.0,1.3560390164909073,-30.0625
-64.0,-4.123340357836604,52.0625
-65.0,1.7978254834019716,-17.0625
-59.5,2.061670178918302,-14.625
-57.0,-4.5835345942022965,36.5625
-65.0,1.6260196351587797,-62.625
-59.0,1.896000253826652,4.875
-57.5,0.14726215563702194,23.5625
-65.0,-1.7732817907958012,83.0
-53.0,0.4540583132141496,11.375
-55.0,-0.3006602344255853,26.8125
-66.0,0.32520392703175593,154.5625
-59.0,-2.12916533358527,3.25
-60.5,0.10431069357622358,-21.125
-40.0,-0.09203884727313849,1.625
-44.5,5.135767677841127,-3.25
-61.5,-1.7732817907958012,9.75
-57.5,-3.7613208918955925,36.5625
-64.5,0.36815538909255385,4.875
-63.0,2.810252803406495,3.25
-60.0,1.8039614065535137,-34.125
-60.0,-1.4664856332186726,6.5
-63.0,1.5892040962495244,-18.6875
-58.5,-1.288543861823939,13.8125
-60.5,-0.2638446955163296,29.25
-66.5,-2.4175537217077707,130.1875
-44.0,0.0674951546669682,8.9375
-54.0,-1.2394564766115979,1.625
-62.0,5.516194913236765,-12.1875
-61.5,-3.657010198319368,58.5625
-51.0,1.9144080232812803,3.25
-63.5,1.9634954084936203,-43.125
-61.5,-1.0369710126106932,-3.25
-60.5,0.4970097752749476,-23.5625
-48.5,-3.6815538909255388,9.75
-56.0,-0.05522330836388312,20.3125
-55.0,3.8410878928656453,13.8125
-45.5,-1.558524480491812,0.0
-53.0,-2.8163887265580367,-10.5625
-60.0,2.8961557275280905,-21.125
-60.0,-2.638446955163303,13.8125
-60.5,-1.325359400733194,-4.875
-58.0,0.018407769454627687,33.3125
-57.5,4.417864669110647,-4.875
-61.0,-1.5033011721279284,-4.875
-57.5,0.11044661672776623,6.5
-61.0,1.3805827090970766,63.4375
-61.0,-3.1231848841351653,18.6875
-58.5,-0.5092816215780329,-8.9375
-60.5,-0.49087385212340506,13.8125
-65.0,2.147573103039898,-8.9375
-60.5,2.2334760271614935,90.3125
-63.0,-1.9450876390389928,8.9375
-62.0,-2.8163887265580376,13.8125
-65.5,4.76147636559703,72.375
-60.5,-2.1537090261914402,13.8125
-62.5,-2.6998061866787286,4.875
-54.0,5.988660995905543,-23.5625
-48.0,-4.147884050442774,1.625
-54.5,4.025165587411922,0.0
-52.0,-2.423689644859313,3.25
-57.5,1.4296700943094178,-6.5
-60.0,0.589048622548086,4.875
-57.5,-1.2517283229146834,-4.875
-62.0,-2.2027964114037806,17.0625
-60.5,-0.2822524649709579,25.1875
-59.5,2.834796496012665,-13.8125
-54.5,-2.810252803406495,6.5
-59.0,1.6812429435226628,-1.625
-53.0,-1.9205439464328227,3.25
-45.5,2.503456645829366,3.25
-44.0,-2.331650797586174,12.1875
-56.5,-1.2517283229146832,21.125
-60.5,-0.2638446955163303,1.625
-65.0,3.8656315854718155,183.0625
-59.5,0.3313398501832987,34.125
-58.0,1.7978254834019713,27.625
-60.0,-1.3805827090970766,13.8125
-57.0,-2.969786805346602,43.9375
-58.5,4.313553975534424,8.9375
-61.0,-3.7245053529863372,29.25
-60.5,-1.4480778637640452,-1.625
-28.5,3.098641191528995,4.875
-64.0,-0.6565437772150542,38.1875
-62.0,-3.411573272257666,3.25
-63.5,2.7120780329818133,-13.8125
-53.5,0.21475731030399015,4.875
-58.5,3.043417883165112,25.1875
-49.5,-2.6139032625571326,4.875
-57.0,-2.098485717827557,-3.25
-55.5,3.534291735288517,18.6875
-58.5,-1.1535535524900018,22.75
-61.0,1.1106020904292038,41.5
-28.0,-0.6810874698212244,1.625
-54.0,-1.1290098598838316,6.5
-58.5,2.5832236467994196,31.6875
-51.0,-2.313243028131547,21.9375
-58.0,-1.8407769454627696,1.625
-55.5,3.270447039772187,26.8125
-64.5,-1.853048791765855,-3.25
-64.0,-0.6442719309119691,29.25
-58.5,1.503301172127928,13.8125
-61.0,2.448233337465483,24.375
-43.5,-0.4908738521234053,-4.875
-53.5,-2.9759227284981433,-9.75
-39.5,-1.9144080232812803,6.5
-60.0,-0.07363107781851075,-21.9375
-59.5,4.601942363656923,3.25
-55.5,-5.3198453723874035,22.75
-56.5,0.8406214717613314,-4.875
-57.5,1.214912784005428,6.5
-63.5,1.4971652489763856,10.5625
-40.0,-2.742757648739526,3.25
-59.0,4.01902966426038,61.0
-56.5,-4.1172044346850605,29.25
-44.0,5.098952138931871,-6.5
-58.0,-3.5895150436524,31.6875
-54.0,0.26384469551633005,8.125
-61.0,-1.8407769454627694,11.375
-62.5,2.442097414313941,22.75
-43.0,-1.3683108627939922,8.9375
-54.5,2.5341362615870793,13.8125
-57.5,-3.221359654559847,13.8125
-59.5,-0.6994952392758524,3.25
-47.5,-0.05522330836388312,3.25
-58.5,0.8651651643675018,-4.875
-57.0,3.5465635815916023,47.1875
-63.0,0.5829126993965437,-36.5625
-56.0,-5.148039524144211,-24.375
-64.0,5.71868037723767,26.8125
-63.5,-0.8160777791551617,33.3125
-49.5,-3.448388811166921,18.6875
-60.5,0.779262240245906,26.8125
-46.5,1.9880391010997909,4.875
-55.0,1.3989904785517044,36.5625
-55.0,-4.565126824747668,-45.5625
-62.0,4.184699589352029,50.4375
-58.5,-4.638757902566178,-1.625
-54.5,1.7426021750380882,1.625
-57.5,2.908427573831176,0.0
-56.5,-3.135456730438251,10.5625
-54.0,-0.7731263170943632,7.3125
-54.0,4.700117134081605,1.625
-61.5,-4.669437518323892,-17.0625
-62.0,2.5218644152839937,-12.1875
-64.5,-1.0369710126106932,-3.25
-59.0,-0.20862138715244694,12.1875
-63.0,2.3930100291016005,45.5625
-55.5,-3.9760782021995826,-8.125
-54.0,1.2885438618239384,21.125
-61.5,2.472777030071654,-4.875
-47.0,1.1228739367322893,-1.625
-57.0,-6.037748381117884,-17.0625
-63.0,3.2949907323783574,139.125
-63.0,1.6566992509164926,22.75
-59.0,-3.9453985864418692,-18.6875
-57.0,4.381049130201391,-25.1875
-44.0,-3.6079228131070282,0.0
-48.5,-0.15339807878856404,6.5
-55.0,-0.8099418560036187,-8.9375
-45.0,3.4606606574700063,4.875
-53.0,-4.282874359776709,-3.25
-56.5,5.896622148632404,-18.6875
-59.5,-0.07363107781851053,43.125
-59.5,-3.2643111166206444,41.5
-56.5,2.4850488763747385,9.75
-65.5,-0.04908738521234035,-50.4375
-62.0,0.34361169648638423,10.5625
-54.0,-3.51588396583389,12.1875
-58.0,3.0004664211043144,-3.25
-60.5,-2.515728492132452,15.4375
-58.5,2.896155727528091,41.5
-61.5,-1.3499030933393645,-21.125
-60.0,-3.227495577711389,-17.0625
-28.5,3.4729325037730914,3.25
-59.0,-0.04295146206079803,13.8125
-60.0,0.7915340865489915,22.75
-54.0,-1.3560390164909073,21.9375
-54.5,-2.699806186678728,-3.25
-58.5,0.8651651643675017,65.875
-63.5,-0.8713010875190442,-13.8125
-57.5,3.0925052683774528,-4.875
-52.0,-0.06135923151542588,-8.125
-58.5,2.2764274892222915,18.6875
-28.5,-2.0064468705544183,3.25
-60.0,0.7915340865489906,12.1875
-57.5,-3.6140587362585705,21.125
-54.5,-0.36815538909255396,6.5
-65.5,2.055534255766759,17.0625
-58.5,2.8961557275280905,17.0625
-51.5,-2.030990563160589,8.125
-54.0,-0.632000084608884,6.5
-58.0,0.7424467013366502,7.3125
-57.5,0.35588354278946843,3.25
-62.5,-4.098796665230433,1.625
-39.5,0.5522330836388308,-3.25
-44.0,5.111223985234956,0.0
-55.0,-3.7674568150471344,4.875
-63.0,1.4910293258248433,34.9375
-58.0,-1.0124273200045235,11.375
-58.5,-1.981903177948248,-17.0625
-61.5,5.534602682691394,33.3125
-63.5,-3.0495538063166547,58.5625
-64.5,-1.2333205534600555,-47.1875
-44.5,3.957670432744954,-9.75
-61.0,-5.74322406984384,1.625
-53.5,2.2764274892222915,4.875
-62.5,0.3865631585471814,23.5625
-59.5,-0.5092816215780327,50.4375
-39.0,-1.564660403643354,6.5
-58.0,0.012271846303085199,-13.8125
-62.0,2.448233337465483,47.1875
-64.5,-1.8162332528565992,-17.0625
-50.0,0.8835729338221294,4.875
-49.0,2.086213871524472,-4.875
-59.5,-0.07363107781851053,-3.25
-59.5,2.0125827937059606,8.125
-58.0,-0.9387962421860125,-13.8125
-56.5,-1.7487380981896306,-30.875
-59.5,2.245747873464579,-29.25
-58.0,-1.0676506283684066,-21.125
-60.0,-2.9820586516496865,41.5
-60.0,-1.2394564766115979,-39.875
-43.5,1.4787574795217582,13.8125
-50.5,2.294835258676919,8.9375
-53.0,-4.135612204139688,-1.625
-48.5,1.0492428589137786,-3.25
-60.5,2.1046216409791,65.0625
-56.0,-0.9265243958829275,27.625
-51.0,3.4667965806215486,-7.3125
-60.5,-5.105088062083413,15.4375
-55.5,4.123340357836604,4.875
-63.0,-3.56497135104623,21.125
-60.0,1.1412817061869167,13.8125
-61.5,-0.9510680884890974,50.4375
-49.0,3.0679615757712826,4.875
-44.0,-2.5954954931025047,12.1875
-51.0,-1.2026409377023428,-3.25
-62.0,4.135612204139688,-52.0625
-48.5,-3.859495662320273,8.125
-51.0,4.147884050442774,18.6875
-61.0,-4.767612288748573,25.1875
-63.0,2.6384469551633027,-22.75
-56.5,1.9696313316451635,13.8125
-62.0,-4.356505437595221,-50.4375
-60.5,2.932971266437346,0.0
-51.0,-0.37429131224409673,-1.625
-54.5,-0.662679700366597,25.1875
-53.5,2.804116880254952,0.0
-58.0,-1.3744467859455343,-1.625
-63.0,-1.6444274046134075,-7.3125
-60.0,1.5155730184310134,8.9375
-53.0,-1.9328157927359078,-3.25
-65.0,-0.19634954084936207,13.8125
-54.0,1.564660403643354,0.0
-59.5,0.25770877236478773,15.4375
-28.5,0.6381360077604268,3.25
-52.0,-1.0676506283684062,-8.125
-53.5,0.25770877236478773,-1.625
-28.5,0.8283496254582463,0.0
-59.0,-0.4908738521234053,48.8125
-51.5,-0.44792239006260726,3.25
-60.0,0.9203884727313847,31.6875
-58.0,-2.2886993355253766,36.5625
-62.5,0.7853981633974483,61.8125
-56.0,3.32567034813607,-10.5625
-61.0,-5.546874528994478,0.0
-58.5,1.9082721001297376,33.3125
-38.0,-1.7978254834019713,6.5
-43.5,5.013049214810275,-3.25
-60.5,-5.26462206402352,-21.9375
-38.5,0.2883883881225005,3.25
-61.0,5.675728915176872,-4.875
-43.0,-0.6565437772150542,-1.625
-56.5,-5.608233760509904,-4.875
-60.0,0.3620194659410113,31.6875
-61.5,2.7979809571034093,34.9375
-57.5,-0.4049709280018092,17.0625
-53.0,-1.662835174068035,12.1875
-61.0,2.5157284921324514,-15.4375
-57.0,-2.552544031041707,1.625
-49.0,1.1290098598838318,15.4375
-55.5,-1.3437671701878215,-13.8125
-47.5,3.687689814077081,8.9375
-45.0,-2.5034566458293663,12.1875
-62.5,3.5158839658338894,-33.3125
-59.0,-2.577087723647877,15.4375
-57.5,1.7671458676442584,-18.6875
-61.5,-4.651029748869264,29.25
-63.0,5.577554144752191,33.3125
-45.5,-3.5158839658338894,4.875
-49.0,0.116582539879309,4.875
-60.5,3.3747577333484102,15.4375
-56.0,0.34974761963792655,-4.875
-62.5,-3.7551849687440497,12.1875
-58.0,0.17180584824319167,-6.5
-54.5,3.5465635815916023,3.25
-48.5,-1.368310862793992,4.875
-60.0,1.0860583978230345,30.875
-56.0,-1.3008157081270237,9.75
-59.5,1.6321555583103216,-10.5625
-62.0,-1.9880391010997904,56.9375
-28.5,0.14726215563702105,4.875
-51.5,-0.6626797003665965,4.875
-48.5,-0.19021361769781953,-3.25
-58.5,1.2824079386723963,43.9375
-54.5,-3.5526995047431456,-1.625
-61.0,4.111068511533518,3.25
-63.0,-1.0001554737014375,-11.375
-28.5,-0.012271846303085532,8.9375
-55.5,-3.0802334220743672,3.25
-51.5,2.5709518004963345,11.375
-57.0,1.2578642460662262,12.1875
-50.5,-1.6812429435226632,-15.4375
-59.5,0.8590292412159592,28.4375
-63.5,0.6013204688511715,48.8125
-52.0,-2.4605051837685687,4.875
-54.0,0.049087385212340795,0.0
-39.5,-1.466485633218673,-1.625
-44.0,5.240078371417351,-4.875
-59.0,-5.706408530934586,39.0
-40.0,0.4908738521234052,1.625
-52.5,1.1412817061869172,15.4375
-54.5,0.36815538909255396,25.1875
-59.0,-1.9941750242513336,-23.5625
-43.5,5.577554144752192,3.25
-56.5,-4.6448938257177215,-15.4375
-46.5,3.117048960983623,1.625
-61.0,-0.3067961575771285,95.1875
-65.5,-1.000155473701438,0.0
-43.5,-1.2026409377023426,8.9375
-59.0,4.000621894805752,-33.3125
-61.5,-4.491495746929157,8.125
-51.0,0.42337869745643686,0.0
-64.0,-0.8283496254582461,-7.3125
-44.0,0.9940195505498954,12.1875
-63.0,-0.8099418560036185,-30.875
-47.0,3.5895150436524,3.25
-50.5,-2.87161203492192,15.4375
-57.5,3.5158839658338894,24.375
-62.0,-3.4054373491061236,22.75
-58.0,3.767456815047135,3.25
-65.0,-4.583534594202296,-21.125
-28.5,3.0188741905589414,0.0
-55.0,-1.0492428589137783,-8.125
-56.5,0.5031456984264904,13.8125
-57.5,-1.2149127840054277,13.8125
-61.5,0.7669903939428204,48.8125
-53.0,0.12271846303085132,3.25
-55.5,1.5155730184310134,15.4375
-28.0,-0.6565437772150542,7.3125
-54.5,-0.7117670855789378,15.4375
-57.0,1.030835089459151,10.5625
-59.0,-1.055378782065321,-4.875
-53.0,-0.14112623248547873,3.25
-58.5,-1.41126232485479,13.8125
-61.5,1.957359485342078,-3.25
-45.0,2.0493983326152163,-3.25
-38.5,-5.283029833478148,1.625
-52.5,1.1474176293384595,13.8125
-56.5,0.5031456984264902,15.4375
-57.5,2.791845033951867,0.0
-59.0,0.9326603190344702,-20.3125
-62.5,-3.221359654559847,60.1875
-38.5,-2.2027964114037806,9.75
-59.5,4.4117287459591035,17.0625
-60.5,1.0921943209745768,25.1875
-45.0,-0.1288543861823941,-3.25
-62.0,-3.626330582561655,23.5625
-51.5,-0.5338253141842033,26.8125
-54.0,0.45405831321415,8.125
-51.5,-0.45405831321415,20.3125
-43.0,0.04295146206079803,10.5625
-62.5,-1.2087768608538854,74.8125
-61.5,0.8651651643675015,34.9375
-65.0,-0.5522330836388307,29.25
-46.5,3.4177091954092083,-1.625
-64.0,1.8407769454627694,13.8125
-56.0,-5.190990986205009,-28.4375
-64.0,3.055689729468197,18.6875
-56.5,-3.411573272257666,8.9375
-47.5,3.601786889955486,0.0
-42.5,-2.2886993355253766,18.6875
-61.0,0.055223308363882895,15.4375
-62.5,4.196971435655114,15.4375
-64.0,-3.730641276137879,62.625
-49.5,-0.47246608266877765,8.125
-28.5,2.1537090261914402,1.625
-51.5,-0.6872233929727676,-3.25
-56.0,1.5769322499464389,15.4375
-58.0,-4.485359823777614,43.9375
-50.0,2.761165418194154,3.25
-56.5,-2.5464081078901644,9.75
-55.5,4.104932588381976,-8.125
-28.5,-0.7179030087304801,-1.625
-51.5,-0.8774370106705867,1.625
-50.0,0.1349903093339364,-9.75
-39.0,-2.6016314162540475,6.5
-45.0,5.074408446325701,-6.5
-53.0,-3.141592653589793,8.125
-57.5,-0.4847379289718625,28.4375
-59.5,0.03067961575771294,-22.75
-61.5,-1.6444274046134073,-74.0
-57.5,1.816233252856599,36.5625
-38.5,-1.6689710972195775,9.75
-44.5,4.988505522204106,-8.125
-50.5,-3.307262578681443,-6.5
-60.5,-1.8960002538266523,-55.3125
-51.5,1.5830681730979814,23.5625
-42.5,-0.43565054375952195,7.3125
-43.5,2.7673013413456964,4.875
-56.0,-0.10431069357622302,30.0625
-50.0,-2.1843886419491536,20.3125
-42.5,-0.4540583132141496,11.375
-44.0,2.552544031041707,4.875
-58.5,0.47246608266877743,-11.375
-28.5,-0.6197282383057994,8.9375
-49.5,-1.368310862793992,-3.25
-60.5,-1.6014759425526093,4.875
-52.0,2.2212041808584084,4.875
-59.5,1.2824079386723959,55.3125
-60.5,0.1349903093339364,21.9375
-28.5,-0.6688156235181397,1.625
-53.5,-0.6381360077604268,6.5
-51.5,-0.6872233929727671,-6.5
-59.5,-0.36815538909255396,-4.875
-60.0,2.386874105950058,21.9375
-59.5,-0.37429131224409673,18.6875
-54.0,-2.4789129532231957,9.75
-42.5,4.25833066717054,0.0
-41.0,-5.571418221600649,9.75
-64.5,-0.2147573103039898,30.0625
-57.0,5.258486140871978,7.3125
-58.5,-5.0253210611133605,-4.875
-40.5,0.024543692606170286,3.25
-42.5,-0.662679700366597,8.125
-55.5,2.3684663364954304,-1.625
-57.5,-1.9082721001297378,-4.875
-58.5,4.638757902566179,12.1875
-46.5,-0.6933593161243099,4.875
-43.5,-2.36846633649543,17.0625
-49.0,-0.5276893910326605,8.125
-63.0,1.9082721001297376,13.8125
-56.0,0.7853981633974483,-12.1875
-43.5,-2.2212041808584084,8.9375
-45.0,2.233476027161494,-7.3125
-48.5,-2.8163887265580376,13.8125
-64.0,0.49700977527494783,65.875
-57.5,1.6382914814618645,17.0625
-28.5,0.5583690067903735,1.625
-61.5,0.6135923151542562,-15.4375
-56.0,-3.0004664211043135,-8.125
-54.5,1.4235341711578748,11.375
-51.5,0.8958447801252145,1.625
-57.0,0.8283496254582463,21.9375
-29.0,-0.7547185476397358,3.25
-51.5,-0.18407769454627676,6.5
-58.0,0.6688156235181397,-8.9375
-55.5,-2.890019804376548,-3.25
-58.5,3.0434178831651124,20.3125
-53.0,-1.3867186322486198,1.625
-59.0,-2.9575149590435164,26.8125
-40.0,0.3620194659410113,1.625
-45.0,5.295301679781233,1.625
-52.5,-3.8594956623202727,17.0625
-64.0,3.0066023442558563,26.8125
-59.0,-4.350369514443678,-10.5625
-55.0,1.2455923997631406,11.375
-39.5,-1.3130875544301088,9.75
-55.5,1.2087768608538854,39.0
-44.5,4.06811704947272,3.25
-52.5,-3.810408277107933,-1.625
-58.5,-1.6996507129772906,39.0
-58.0,0.03067961575771283,-4.875
-49.5,3.546563581591602,24.375
-43.5,-1.9757672547967053,12.1875
-48.0,-0.9387962421860125,6.5
-59.5,1.2455923997631406,-21.125
-65.0,3.1231848841351653,45.5625
-49.0,-3.816544200259475,3.25
-43.0,0.3129320807286706,15.4375
-54.0,2.890019804376548,21.125
-61.0,0.3926990816987237,30.0625
-56.5,-0.9019807032767568,0.0
-29.0,-0.4908738521234053,3.25
-52.5,-0.28225246497095746,0.0
-60.0,-2.681398417224101,-15.4375
-52.0,2.067806102069844,-6.5
-52.5,0.6994952392758522,9.75
-52.0,-0.7424467013366502,1.625
-29.0,0.9510680884890976,1.625
-62.0,-3.356349963893783,0.0
-54.0,3.362485887045325,11.375
-58.5,0.07976700097005374,41.5
-51.5,-1.41126232485479,6.5
-38.0,-2.061670178918302,8.125
-44.0,5.154175447295755,6.5
-63.0,-1.0492428589137788,-13.8125
-58.0,-4.086524818927348,3.25
-56.5,1.521708941582556,13.8125
-37.5,-1.5707963267948966,6.5
-52.5,2.202796411403781,15.4375
-56.5,-0.5767767762450013,0.0
-44.5,3.5342917352885177,-9.75
-58.5,-4.945554060143308,8.125
-46.0,3.8717675086233587,-3.25
-56.0,-0.07363107781851141,-15.4375
-44.0,-2.6875343403756426,15.4375
-56.5,2.9636508821950587,28.4375
-50.5,-2.9575149590435164,8.125
-65.5,0.8467573949128737,87.0625
-57.5,1.2210487071569704,15.4375
-43.0,-2.067806102069844,8.9375
-58.5,3.411573272257666,-4.875
-50.5,-3.4606606574700063,17.0625
-66.0,0.30066023442558554,42.3125
-46.5,2.5157284921324514,13.8125
-52.0,-1.8162332528565988,-1.625
-28.5,1.1780972450961724,0.0
-60.5,1.2578642460662257,29.25
-58.0,-0.22089323345553247,18.6875
-53.5,-1.6137477888556946,11.375
-56.5,-1.7916895602504288,-13.8125
-64.5,2.2825634123738343,42.3125
-28.0,0.06135923151542588,0.0
-64.0,0.17180584824319123,11.375
-54.0,-2.6691265709210152,-17.0625
-54.0,1.349903093339364,4.875
-52.5,0.5276893910326605,8.125
-56.0,1.5155730184310139,26.0
-58.0,-0.674951546669682,17.0625
-45.0,1.5401167110371832,-3.25
-57.5,-4.8351074434155406,6.5
-39.0,-0.3865631585471816,8.125
-58.0,2.2457478734645786,21.9375
-54.0,-1.3744467859455345,13.8125
-57.0,-0.6442719309119692,21.9375
-53.5,0.6872233929727672,-4.875
-39.0,-0.8774370106705868,4.875
-43.5,4.988505522204105,6.5
-55.0,-2.319378951283089,23.5625
-63.0,2.969786805346601,34.9375
-48.0,-2.172116795646067,-1.625
-47.0,-2.7120780329818137,9.75
-57.5,-0.9326603190344698,-8.9375
-66.0,5.19099098620501,-11.375
-65.5,-2.8163887265580376,47.1875
-42.0,-0.8467573949128739,18.6875
-62.5,1.1167380135807468,-7.3125
-42.0,-1.1106020904292042,10.5625
-45.5,-0.7485826244881928,3.25
-48.0,2.988194574801229,4.875
-61.5,-1.7119225592803753,50.4375
-51.5,0.6135923151542566,6.5
-28.0,0.9756117810952678,0.0
-55.5,-3.184544115650591,-4.875
-52.5,2.313243028131547,17.0625
-60.0,0.6013204688511715,30.0625
-62.5,0.4970097752749476,30.875
-28.0,-0.22089323345553247,1.625
-52.0,-0.883572933822129,-3.25
-50.5,-0.17794177139473444,-4.875
-59.5,0.9449321653375549,3.25
-55.5,-2.699806186678728,-1.625
-43.0,4.436272438565274,0.0
-38.5,-5.135767677841127,4.875
-59.0,-0.3436116964863836,69.125
-59.0,1.7916895602504288,17.0625
-55.5,0.20862138715244738,25.1875
-59.5,1.1044661672776614,-3.25
-60.0,0.024543692606170175,15.4375
-43.0,2.3807381827985155,-4.875
-58.0,-3.810408277107933,28.4375
-38.5,-1.3314953238847367,3.25
-56.5,-0.48473792897186263,20.3125
-55.0,2.024854640009046,28.4375
-50.5,-0.5031456984264902,9.75
-42.5,0.24543692606170264,12.1875
-59.5,0.0674951546669682,25.1875
-48.5,2.2212041808584084,10.5625
-61.5,1.1290098598838316,56.9375
-48.5,-1.0001554737014384,-1.625
-61.0,1.0185632431560663,3.25
-42.5,-3.3624858870453256,13.8125
-62.0,-0.16566992509164913,25.1875
-51.0,-0.05522330836388312,21.9375
-28.5,2.3868741059500582,1.625
-50.5,-1.0246991663076086,4.875
-51.5,-0.1288543861823941,-1.625
-60.5,2.043262409463674,8.125
-60.0,-0.5645049299419158,34.9375
-60.5,0.024543692606170175,28.4375
-60.0,0.04295146206079803,6.5
-29.0,-0.3926990816987237,3.25
-52.0,-1.0615147052168639,6.5
-57.0,3.1784081924990484,15.4375
-50.0,-3.2520392703175593,3.25
-61.5,1.5646604036433542,24.375
-55.0,-1.5155730184310139,20.3125
-38.0,-2.350058567040802,1.625
-43.0,5.0069132916587336,0.0
-51.5,-3.546563581591603,13.8125
-53.5,-1.748738098189631,3.25
-37.5,0.3865631585471816,0.0
-43.5,5.135767677841127,-6.5
-56.5,-2.7120780329818137,33.3125
-51.5,-1.3253594007331941,4.875
-57.5,-1.4603497100671303,34.9375
-49.0,1.2087768608538851,8.125
-43.5,0.19634954084936207,17.0625
-47.0,2.4911847995262812,-3.25
-49.0,-2.601631416254047,11.375
-43.5,0.17180584824319167,7.3125
-46.5,2.2396119503130363,-1.625
-60.0,0.1656699250916489,7.3125
-29.5,-0.21475731030398926,-1.625
-53.5,-0.1840776945462772,17.0625
-56.0,0.2515728492132454,4.875
-64.5,1.1228739367322893,17.0625
-55.5,-1.0431069357622365,21.125
-52.5,-2.5218644152839937,4.875
-56.5,2.3868741059500573,15.4375
-29.5,-0.024543692606170175,1.625
-56.5,-0.4295146206079794,15.4375
-59.5,1.662835174068035,15.4375
-54.5,-3.497476196379262,13.8125
-53.0,1.6198837120072371,11.375
-59.0,1.8775924843720246,22.75
-40.5,-4.7860200582032,6.5
-56.0,1.423534171157875,23.5625
-41.5,3.7797286613502203,-1.625
-56.0,-5.712544454086128,28.4375
-53.5,2.9820586516496865,9.75
-56.0,-3.0066023442558567,-1.625
-60.5,2.1782527187976104,34.9375
-40.5,-1.5830681730979816,1.625
-42.5,5.203262832508095,-9.75
-55.0,-3.178408192499048,9.75
-48.0,1.8775924843720242,8.9375
-52.0,-2.7918450339518666,23.5625
-41.5,0.03067961575771294,8.9375
-46.0,2.454369260617026,4.875
-51.0,-2.485048876374739,9.75
-42.5,0.11044661672776623,8.9375
-57.0,1.380582709097077,25.1875
-29.0,0.9449321653375553,-1.625
-59.0,-1.9144080232812803,-3.25
-52.5,1.0676506283684062,15.4375
-64.5,1.0983302441261191,-11.375
-60.0,0.9572040116406395,30.875
-29.0,-1.1965050145507998,3.25
-52.5,-0.8038059328520757,13.8125
-52.5,-0.02454369260617062,0.0
-66.0,0.21475731030399015,4.875
-43.0,2.460505183768568,-3.25
-39.0,-5.24007837141735,1.625
-57.5,1.4358060174609601,0.0
-60.5,0.05522330836388312,45.5625
-60.0,3.7551849687440497,3.25
-59.5,0.07976700097005285,-8.125
-44.0,-0.09203884727313838,0.0
-39.5,-5.221670601962723,3.25
-58.0,1.2333205534600555,21.9375
-52.0,-0.23316507975861755,9.75
-48.0,2.3930100291016005,0.0
-42.5,-2.34392264388926,15.4375
-46.0,2.3255148744346323,-13.8125
-42.5,-2.313243028131547,13.8125
-50.5,-0.3620194659410114,4.875
-29.0,2.6813984172241008,7.3125
-53.0,-3.2459033471660166,-4.875
-61.5,2.7550294950426113,60.1875
-59.5,-0.3497476196379261,-3.25
-51.5,0.16566992509164935,8.125
-54.0,0.07363107781851097,17.0625
-29.0,0.6135923151542566,4.875
-50.5,-0.8038059328520761,8.125
-54.5,-2.3316507975861747,-3.25
-53.5,2.3746022596469727,6.5
-60.5,1.2394564766115979,8.125
-39.5,-3.5342917352885173,3.25
-46.5,4.743068596142402,-1.625
-55.5,-2.3930100291016005,26.8125
-58.5,-1.4296700943094174,21.9375
-62.0,3.2704470397721868,-13.8125
-57.5,-5.178719139901925,3.25
-61.5,5.516194913236766,-48.8125
-39.0,-4.485359823777614,8.125
-58.5,-1.0676506283684064,39.0
-45.5,5.681864838328415,1.625
-59.5,-3.429981041712294,15.4375
-54.0,1.159689475641545,8.125
-41.5,-1.6444274046134075,13.8125
-47.0,2.5525440310417067,10.5625
-49.0,-2.8777479580734626,-6.5
-58.5,2.84706834231575,11.375
-56.0,1.8407769454627694,-1.625
-70.5,-4.749204519293945,-102.5
-46.5,3.0066023442558567,3.25
-58.0,-0.1288543861823932,21.9375
-41.5,-2.4911847995262817,13.8125
-48.5,-0.3067961575771281,-20.3125
-55.0,4.601942363656923,-3.25
-61.5,-1.4603497100671303,13.8125
-29.0,-0.570640853093459,-3.25
-61.5,-0.10431069357622302,34.9375
-57.5,-3.6570101983193686,21.9375
-53.5,3.6386024288647407,4.875
-50.0,-0.15339807878856426,4.875
-59.0,0.06135923151542588,21.125
-29.0,0.17794177139473444,1.625
-60.0,0.04295146206079803,6.5
-60.5,0.4601942363656919,24.375
-50.5,-0.6504078540635114,-1.625
-54.0,0.12271846303085132,-3.25
-57.0,-0.5890486225480864,18.6875
-59.0,-2.4175537217077707,13.8125
-42.5,4.620350133111551,-1.625
-55.0,-2.3377867207377174,8.125
-53.5,2.159844949342983,-1.625
-39.5,-4.387185053352934,4.875
-58.0,-0.944932165337555,52.0625
-39.5,0.9510680884890975,4.875
-43.0,4.657165672020806,-1.625
-56.0,-0.6688156235181397,0.0
-52.5,-1.67510702037112,18.6875
-58.0,-3.227495577711389,21.9375
-49.5,1.8530487917658547,4.875
-42.0,-0.018407769454627854,1.625
-46.0,2.4911847995262817,4.875
-60.5,1.325359400733194,23.5625
-58.0,-1.6628351740680358,9.75
-48.0,-2.5525440310417062,-4.875
-42.5,0.14112623248547895,13.8125
-58.5,2.3746022596469727,11.375
-62.5,1.4603497100671303,-15.4375
-48.0,-1.2394564766115979,-3.25
-49.0,-0.779262240245906,9.75
-29.5,0.5092816215780331,3.25
-56.5,0.23930100291015943,11.375
-56.0,-0.11658253987930856,26.0
-54.5,-3.761320891895592,6.5
-52.5,3.018874190558942,3.25
-58.5,1.0492428589137788,21.125
-29.0,-0.4295146206079794,4.875
-55.5,0.14112623248547873,27.625
-56.0,-0.22089323345553247,13.8125
-58.5,0.5767767762450013,10.5625
-50.0,-0.8835729338221294,15.4375
-52.5,-0.03067961575771294,3.25
-57.5,-3.0066023442558567,1.625
-39.5,0.5154175447295753,3.25
-60.0,4.81056375080937,-34.9375
-43.5,-0.3252039270317555,4.875
-53.0,-2.5770877236478773,21.9375
-57.0,-2.8409324191642074,20.3125
-39.0,0.9081166264282996,4.875
-53.5,2.000310947402876,15.4375
-43.5,2.5648158773447918,1.625
-59.0,-0.03681553890925482,-26.0
-59.0,-5.6573211457222445,112.25
-47.0,4.632621979414636,1.625
-43.5,-2.718213956133356,12.1875
-49.0,-0.06135923151542566,11.375
-59.0,2.6875343403756435,0.0
-68.5,-2.816388726558037,4.875
-59.0,2.58322364679942,18.6875
-48.0,-2.540272184738622,11.375
-42.5,0.18407769454627676,17.0625
-47.5,2.4666411069201115,1.625
-70.0,-2.681398417224101,40.6875
-49.5,1.9205439464328227,6.5
-29.0,0.43565054375952217,0.0
-55.0,0.10431069357622391,33.3125
-58.5,0.47860200582031975,10.5625
-57.5,-4.111068511533518,13.8125
-52.0,2.9206994201342606,4.875
-59.0,0.4540583132141496,13.8125
-58.5,0.06135923151542588,23.5625
-29.0,0.07363107781851053,4.875
-49.0,-0.49087385212340484,15.4375
-51.5,-0.16566992509164935,9.75
-56.0,0.8713010875190443,12.1875
-56.5,-3.6324665057131984,9.75
-58.0,3.7797286613502195,24.375
-39.0,-3.337942194439155,6.5
-43.0,4.589670517353838,1.625
-57.5,-5.491651220630596,0.0
-52.5,3.055689729468197,15.4375
-59.5,2.2948352586769194,36.5625
-39.5,-4.411728745959104,4.875
-56.5,-0.8528933180644165,-4.875
-43.5,5.393476450205915,-6.5
-52.5,-2.5034566458293668,25.1875
-60.0,2.509592568980909,12.1875
-49.0,-3.939262663290327,8.125
-42.5,0.15339807878856426,10.5625
-47.5,2.5157284921324514,-3.25
-59.0,0.23930100291016032,-4.875
-48.5,-2.816388726558037,17.0625
-42.0,0.08590292412159584,8.9375
-47.5,2.423689644859313,3.25
-59.0,0.018407769454627854,21.9375
-55.5,-0.1288543861823941,17.0625
-29.0,-0.1656699250916489,7.3125
-49.5,-0.44792239006260726,3.25
-52.5,-0.1349903093339364,9.75
-57.0,0.44792239006260726,11.375
-56.0,-3.399301425954581,6.5
-58.0,4.037437433715008,3.25
-57.5,-4.000621894805752,8.125
-52.0,2.5586799541932495,13.8125
-43.5,2.5402721847386216,-1.625
-39.5,-4.583534594202296,15.4375
-58.0,-0.8467573949128739,58.5625
-60.5,5.528466759539851,-27.625
-39.5,-4.663301595172349,15.4375
-43.5,4.589670517353838,-4.875
-52.5,-2.583223646799419,9.75
-57.0,-2.896155727528091,15.4375
-60.5,5.565282298449106,-36.5625
-61.5,0.11044661672776623,-17.0625
-42.5,-3.9760782021995817,15.4375
-48.0,-0.036815538909255485,13.8125
-59.0,2.4298255680108563,21.9375
-48.0,0.018407769454626965,4.875
-59.5,-0.024543692606170175,13.8125
-47.5,0.03681553890925571,4.875
-42.0,-2.448233337465483,4.875
-47.5,-0.09203884727313838,6.5
-29.5,2.276427489222291,6.5
-57.0,0.15953400194010658,0.0
-52.5,-0.7669903939428204,9.75
-57.0,-2.7857091108003242,8.125
-49.0,2.9268353432858034,13.8125
-59.0,0.8713010875190439,26.0
-55.5,-0.30679615757712764,24.375
