-41.0,1.0369710126106935,2.4375
-41.0,1.043106935762236,1.625
-41.0,1.0615147052168636,-0.8125
-41.0,1.0492428589137786,2.4375
-41.5,1.0676506283684062,2.4375
-41.0,1.0615147052168636,3.25
-41.5,1.0615147052168636,2.4375
-41.5,1.0676506283684062,0.8125
-41.5,1.0737865515199487,1.625
-41.5,1.0615147052168636,3.25
-41.5,1.0615147052168636,1.625
-41.0,1.0676506283684062,5.6875
-41.0,1.0921943209745766,1.625
-41.5,1.0737865515199487,7.3125
-41.5,1.0799224746714913,5.6875
-41.5,1.0676506283684062,8.125
-41.5,1.0921943209745766,3.25
-41.5,1.1351457830353744,-5.6875
-41.5,1.0676506283684062,4.875
-41.5,1.0676506283684062,0.8125
-41.5,1.0369710126106935,6.5
-41.5,1.0737865515199487,4.875
-41.5,1.1228739367322893,2.4375
-41.5,1.1474176293384597,0.8125
-41.5,1.1658253987930873,5.6875
-41.5,1.184233168247715,5.6875
-42.0,1.214912784005428,1.625
-42.0,1.239456476611598,0.8125
-42.0,1.227184630308513,5.6875
-42.0,1.2455923997631406,4.875
-42.0,1.227184630308513,7.3125
-42.0,1.2517283229146832,3.25
-42.0,1.2333205534600555,4.875
-42.5,1.2087768608538851,5.6875
-42.5,1.1965050145508,6.5
-42.5,1.1780972450961724,5.6875
-42.0,1.1596894756415448,7.3125
-42.0,1.1474176293384597,7.3125
-42.5,1.1228739367322893,7.3125
-42.0,1.1351457830353744,2.4375
-42.0,1.0983302441261191,7.3125
-42.0,1.1044661672776617,4.875
-42.0,1.1290098598838318,-1.625
-42.0,1.086058397823034,4.875
-42.5,1.0799224746714913,5.6875
-42.0,1.0799224746714913,3.25
-42.5,1.0676506283684062,3.25
-42.5,1.0615147052168636,4.875
-42.0,1.0369710126106935,4.875
-42.5,1.030835089459151,4.875
-42.5,1.0185632431560658,4.875
-42.5,1.0062913968529805,3.25
-42.5,1.000155473701438,0.8125
-42.5,0.9878836273983529,3.25
-43.0,0.9694758579437253,8.9375
-42.5,0.9878836273983529,4.875
-43.0,1.012427320004523,-1.625
-43.0,0.9694758579437253,6.5
-43.0,1.0062913968529805,-1.625
-43.0,1.000155473701438,0.0
-43.0,0.9878836273983529,2.4375
-42.5,0.9572040116406401,4.875
-43.0,0.9510680884890975,5.6875
-42.5,0.9572040116406401,5.6875
-42.5,0.9572040116406401,4.875
-42.5,0.9633399347921826,0.8125
-42.5,0.9756117810952678,0.8125
-43.0,0.9940195505498954,2.4375
-43.0,0.9817477042468103,7.3125
-43.0,1.012427320004523,2.4375
-43.5,1.0369710126106935,6.5
-43.5,1.0615147052168636,2.4375
-44.0,1.0615147052168636,4.875
-44.0,1.0615147052168636,6.5
-44.0,1.0799224746714913,4.875
-44.0,1.1044661672776617,0.8125
-44.5,1.0921943209745766,7.3125
-45.0,1.1044661672776617,7.3125
-45.0,1.1474176293384597,3.25
-45.0,1.1719613219446299,3.25
-45.5,1.2210487071569704,8.125
-45.5,1.2762720155208536,7.3125
-46.5,1.3314953238847365,8.9375
-46.5,1.4358060174609601,2.4375
-47.0,1.4971652489763858,6.5
-47.5,1.607611865704152,1.625
-47.5,1.7916895602504288,5.6875
-47.5,1.9389517158874505,8.9375
-47.5,2.1659808724945253,8.9375
-44.5,2.4727770300716534,-0.8125
-43.0,2.442097414313941,7.3125
-43.0,2.448233337465483,7.3125
-42.5,2.454369260617026,8.125
-42.5,2.5157284921324514,8.125
-42.5,2.5464081078901644,3.25
-42.5,2.5586799541932495,4.875
-42.0,2.5770877236478773,6.5
-42.5,2.60776733940559,5.6875
-42.0,2.6200391857086753,4.875
-42.0,2.662990647769473,3.25
-42.0,2.6384469551633027,9.75
-42.0,2.705942109830271,7.3125
-42.0,2.7550294950426117,7.3125
-42.0,2.816388726558037,-0.8125
-42.0,2.804116880254952,9.75
-42.0,2.8838838812250054,3.25
-41.5,2.9084275738311756,3.25
-41.5,2.9575149590435164,7.3125
-41.5,2.9820586516496865,8.125
-41.0,3.055689729468197,2.4375
-40.5,3.074097498922825,3.25
-40.0,3.08636934522591,2.4375
-39.5,3.0925052683774528,0.8125
-39.0,3.067961575771282,3.25
-39.0,3.074097498922825,2.4375
-39.0,3.0925052683774528,-0.8125
-38.5,3.06182565261974,3.25
-38.5,3.055689729468197,3.25
-38.5,3.0802334220743677,0.0
-38.5,3.074097498922825,1.625
-38.0,3.06182565261974,3.25
-38.5,3.067961575771282,0.8125
-38.0,3.074097498922825,0.8125
-38.5,3.0802334220743677,0.0
-38.0,3.0495538063166547,3.25
-38.0,3.0495538063166547,2.4375
-38.5,3.0495538063166547,1.625
-38.5,3.0495538063166547,0.8125
-38.0,3.031146036862027,3.25
-38.0,3.018874190558942,3.25
-38.0,3.000466421104314,3.25
-38.0,2.9943304979527716,5.6875
-38.0,2.9943304979527716,2.4375
-38.0,2.9820586516496865,6.5
-38.0,2.9820586516496865,4.875
-38.0,2.9697868053466014,5.6875
-38.0,2.9636508821950587,7.3125
-38.5,2.988194574801229,2.4375
-38.0,2.9759227284981438,5.6875
-38.0,2.9697868053466014,6.5
-38.0,2.9636508821950587,4.875
-38.0,2.9697868053466014,5.6875
-38.5,2.9820586516496865,6.5
-38.0,2.9943304979527716,2.4375
-38.0,2.9759227284981438,6.5
-38.0,2.9820586516496865,4.875
-38.5,2.9759227284981438,7.3125
-38.5,2.9943304979527716,1.625
-38.5,2.9759227284981438,5.6875
-38.5,3.000466421104314,0.0
-38.5,2.9575149590435164,5.6875
-38.5,2.9575149590435164,6.5
-38.5,2.9575149590435164,7.3125
-38.5,2.9575149590435164,5.6875
-39.0,2.9697868053466014,2.4375
-39.0,2.9636508821950587,7.3125
-39.0,2.9575149590435164,8.125
-39.5,2.9513790358919736,8.125
-39.5,3.018874190558942,-0.8125
-39.5,2.9820586516496865,8.125
-39.5,3.031146036862027,1.625
-39.5,3.0127382674073995,2.4375
-40.0,3.0066023442558567,4.875
-39.5,3.0372819600135696,-0.8125
-40.0,3.0250101137104846,1.625
-40.0,2.9943304979527716,5.6875
-40.0,2.988194574801229,6.5
-40.0,3.0127382674073995,2.4375
-40.0,3.0250101137104846,1.625
-40.0,2.9759227284981438,5.6875
-40.0,3.018874190558942,2.4375
-40.5,2.988194574801229,7.3125
-40.5,2.9943304979527716,5.6875
-40.5,3.0127382674073995,4.875
-40.5,3.0250101137104846,1.625
-41.0,3.018874190558942,3.25
-41.5,3.06182565261974,-2.4375
-41.5,3.031146036862027,1.625
-41.5,3.031146036862027,2.4375
-42.0,2.9943304979527716,7.3125
-42.0,2.9820586516496865,8.9375
-42.0,2.9697868053466014,8.125
-42.5,3.0250101137104846,-0.8125
-42.5,2.9513790358919736,7.3125
-42.5,2.9329712664373457,7.3125
-42.5,2.890019804376548,11.375
-42.5,2.9329712664373457,1.625
-42.5,2.890019804376548,8.125
-43.0,2.8838838812250054,4.875
-43.0,2.8777479580734626,8.125
-43.0,2.834796496012665,8.125
-43.0,2.8409324191642074,6.5
-43.5,2.8409324191642074,3.25
-43.5,2.8102528034064944,8.125
-43.5,2.816388726558037,6.5
-43.5,2.7857091108003242,5.6875
-44.5,2.773437264497239,7.3125
-44.5,2.730485802436441,9.75
-45.0,2.6998061866787286,6.5
-47.0,2.4605051837685683,2.4375
-47.5,2.405281875404685,4.875
-47.5,2.3439226438892597,8.9375
-48.0,2.337786720737717,0.8125
-48.0,2.2396119503130363,11.375
-48.0,2.2334760271614935,5.6875
-48.0,2.2027964114037806,5.6875
-48.0,2.0800779483729293,14.625
-48.0,2.073942025221387,5.6875
-48.0,2.0493983326152168,1.625
-48.0,1.9941750242513334,7.3125
-48.0,1.9205439464328227,13.8125
-48.5,1.88986433067511,8.125
-48.5,1.8285050991596843,5.6875
-49.0,1.7794177139473437,8.125
-49.0,1.6935147898257479,1.625
-49.0,1.6505633277649499,3.25
-49.0,1.6382914814618648,2.4375
-49.0,1.5953400194010667,5.6875
-49.0,1.5830681730979816,1.625
-49.0,1.4910293258248433,13.8125
-49.0,1.4358060174609601,7.3125
-48.5,1.4480778637640452,0.0
-48.5,1.4051264017032472,8.125
-48.5,1.3928545554001621,8.125
-48.5,1.3867186322486196,3.25
-48.5,1.368310862793992,6.5
-48.5,1.3867186322486196,0.8125
-48.0,1.3621749396424494,1.625
-48.5,1.337631247036279,4.875
-48.0,1.3744467859455345,-1.625
-48.0,1.3621749396424494,2.4375
-48.0,1.3499030933393643,3.25
-48.5,1.3314953238847365,4.875
-48.5,1.368310862793992,2.4375
-48.5,1.3744467859455345,1.625
-48.5,1.3621749396424494,3.25
-48.5,1.337631247036279,10.5625
-49.0,1.4296700943094176,0.0
-48.5,1.4173982480063325,3.25
-49.0,1.4419419406125027,0.8125
-48.5,1.4296700943094176,1.625
-49.0,1.4480778637640452,5.6875
-49.0,1.4726215563702154,2.4375
-49.0,1.4726215563702154,2.4375
-49.0,1.4848934026733007,3.25
-49.0,1.4910293258248433,7.3125
-49.5,1.5401167110371838,4.875
-49.5,1.576932249946439,0.8125
-49.5,1.6137477888556946,0.0
-49.0,1.6444274046134073,6.5
-49.0,1.662835174068035,2.4375
-49.0,1.6873788666742053,-0.8125
-49.0,1.6566992509164924,0.8125
-49.0,1.6566992509164924,0.0
-49.0,1.6689710972195777,3.25
-49.0,1.6996507129772904,3.25
-48.5,1.7426021750380885,-0.8125
-48.5,1.7119225592803755,6.5
-48.5,1.736466251886546,1.625
-48.5,1.761009944492716,0.8125
-48.5,1.761009944492716,4.875
-48.5,1.8100973297050567,-1.625
-48.5,1.7855536370988863,6.5
-48.5,1.8653206380689396,8.9375
-48.5,1.88986433067511,9.75
-48.5,1.945087639038993,2.4375
-48.5,1.9512235621905356,4.875
-48.0,1.9512235621905356,8.9375
-48.5,2.012582793705961,1.625
-48.0,1.9941750242513334,7.3125
-48.0,1.9696313316451632,8.9375
-48.0,2.0800779483729293,0.8125
-48.0,2.1046216409791,8.125
-48.0,2.110757564130642,19.5
-47.5,2.3193789512830896,2.4375
-47.0,2.3009711818284617,7.3125
-46.5,2.3316507975861747,3.25
-46.5,2.2948352586769194,8.125
-45.5,2.325514874434632,-1.625
-46.0,2.2764274892222915,9.75
-45.5,2.405281875404685,0.8125
-45.5,2.411417798556228,5.6875
-45.0,2.454369260617026,6.5
-44.5,2.429825568010856,10.5625
-45.0,2.466641106920111,2.4375
-45.0,2.466641106920111,-0.8125
-45.0,2.435961491162398,5.6875
-44.5,2.442097414313941,4.875
-44.5,2.478912953223196,6.5
-44.0,2.5280003384355365,5.6875
-44.0,2.5341362615870793,7.3125
-44.0,2.5832236467994196,1.625
-44.0,2.5709518004963345,5.6875
-44.0,2.564815877344792,7.3125
-43.5,2.564815877344792,8.9375
-44.0,2.60776733940559,4.875
-43.5,2.650718801466388,5.6875
-43.5,2.6875343403756435,2.4375
-43.0,2.6998061866787286,5.6875
-43.0,2.7120780329818137,3.25
-42.5,2.7120780329818137,7.3125
-42.5,2.736621725587984,4.875
-42.0,2.730485802436441,4.875
-42.0,2.718213956133356,7.3125
-42.0,2.718213956133356,3.25
-42.0,2.6875343403756435,6.5
-42.0,2.6691265709210157,3.25
-42.0,2.6568547246179306,4.875
-42.5,2.650718801466388,4.875
-42.0,2.6323110320117604,6.5
-42.0,2.6384469551633027,8.125
-41.5,2.662990647769473,5.6875
-41.5,2.6568547246179306,6.5
-41.0,2.6445828783148455,6.5
-41.5,2.650718801466388,1.625
-41.5,2.6261751088602177,2.4375
-41.5,2.5954954931025047,2.4375
-41.5,2.5770877236478773,8.125
-41.5,2.5893595699509624,6.5
-41.5,2.60776733940559,6.5
-41.5,2.6139032625571326,2.4375
-41.5,2.6139032625571326,5.6875
-41.5,2.6261751088602177,5.6875
-41.0,2.6445828783148455,4.875
-41.0,2.6445828783148455,3.25
-41.5,2.6261751088602177,4.875
-41.0,2.6323110320117604,2.4375
-41.5,2.5893595699509624,8.125
-41.0,2.6016314162540475,4.875
-41.0,2.5954954931025047,5.6875
-41.0,2.564815877344792,6.5
-41.0,2.5893595699509624,0.8125
-41.0,2.552544031041707,4.875
-41.0,2.5341362615870793,6.5
-41.0,2.5464081078901644,1.625
-41.0,2.5464081078901644,3.25
-41.0,2.5464081078901644,4.875
-40.5,2.564815877344792,1.625
-40.5,2.5464081078901644,5.6875
-40.5,2.564815877344792,4.875
-40.5,2.5954954931025047,4.875
-41.0,2.6016314162540475,4.875
-41.0,2.6200391857086753,4.875
-41.0,2.650718801466388,2.4375
-41.5,2.662990647769473,2.4375
-42.5,2.724349879284899,3.25
-44.5,2.736621725587984,5.6875
-46.0,2.6261751088602177,0.0
-47.5,2.454369260617026,2.4375
-48.5,2.380738182798515,2.4375
-48.5,2.1537090261914402,0.8125
-48.0,2.000310947402876,6.5
-48.0,1.9696313316451632,12.1875
-46.5,1.6812429435226628,8.125
-46.0,1.6260196351587797,7.3125
-45.5,1.6382914814618648,0.0
-44.5,1.662835174068035,-1.625
-44.5,1.6751070203711202,2.4375
-44.0,1.6935147898257479,4.875
-44.0,1.7303303287350031,1.625
-43.5,1.7548740213411735,5.6875
-44.0,1.8407769454627694,-2.4375
-43.5,1.846912868614312,2.4375
-43.0,1.8775924843720249,1.625
-43.5,1.8837284075235674,2.4375
-42.5,1.8714565612204823,6.5
-42.5,1.8653206380689396,2.4375
-42.5,1.8223691760081417,5.6875
-42.0,1.718058482431918,8.125
-41.5,1.6321555583103222,8.125
-41.5,1.6014759425526093,4.875
-40.5,1.41126232485479,5.6875
-40.5,1.2026409377023426,5.6875
-41.0,1.086058397823034,4.875
-42.0,1.0369710126106935,-1.625
-43.0,1.000155473701438,7.3125
-43.5,1.0676506283684062,10.5625
-43.5,1.184233168247715,3.25
-43.0,1.2026409377023426,1.625
-43.0,1.1596894756415448,0.8125
-42.5,1.0246991663076084,1.625
-43.0,0.9265243958829272,1.625
-43.5,0.9081166264282996,8.125
-44.0,1.1106020904292042,7.3125
-44.0,1.2333205534600555,10.5625
-43.0,1.423534171157875,2.4375
-42.5,1.3989904785517047,6.5
-41.0,1.2946797849754812,1.625
-40.5,1.1719613219446299,2.4375
-40.5,1.086058397823034,0.8125
-41.0,1.012427320004523,2.4375
-40.5,1.0246991663076084,1.625
-41.0,1.0185632431560658,2.4375
-41.0,1.0246991663076084,1.625
-40.5,0.9878836273983529,2.4375
-40.5,0.9694758579437253,0.8125
-41.0,0.944932165337555,1.625
-41.0,0.9572040116406401,1.625
-41.0,0.9572040116406401,3.25
-41.0,1.000155473701438,3.25
-41.0,1.0062913968529805,8.125
-41.0,1.055378782065321,0.8125
-41.0,1.012427320004523,4.875
-40.5,1.0185632431560658,3.25
-41.0,1.000155473701438,3.25
-41.0,0.9817477042468103,7.3125
-41.5,1.012427320004523,2.4375
-41.5,1.012427320004523,5.6875
-41.5,1.0185632431560658,4.875
-41.5,1.0185632431560658,3.25
-42.0,1.0062913968529805,5.6875
-42.0,0.9878836273983529,7.3125
-42.0,0.9940195505498954,4.875
-41.5,1.000155473701438,0.8125
-41.5,0.9510680884890975,6.5
-41.5,0.9817477042468103,0.8125
-41.5,0.944932165337555,4.875
-41.5,0.9572040116406401,2.4375
-41.5,0.9633399347921826,0.0
-42.0,0.9572040116406401,0.8125
-41.5,0.9633399347921826,0.8125
-42.0,0.9326603190344698,5.6875
-41.5,0.9633399347921826,1.625
-42.0,0.944932165337555,5.6875
-41.5,0.9756117810952678,1.625
-42.0,0.9817477042468103,5.6875
-42.0,1.0062913968529805,0.8125
-42.0,1.012427320004523,2.4375
-42.0,1.012427320004523,1.625
-42.0,1.0185632431560658,3.25
-42.0,1.043106935762236,0.8125
-42.0,1.000155473701438,7.3125
-42.0,1.043106935762236,2.4375
-42.0,1.0615147052168636,1.625
-42.0,1.0799224746714913,0.0
-42.0,1.0369710126106935,7.3125
-41.5,1.0799224746714913,2.4375
-42.0,1.0921943209745766,1.625
-41.5,1.1044661672776617,1.625
-41.5,1.0799224746714913,5.6875
-41.5,1.1044661672776617,0.8125
-41.5,1.0921943209745766,5.6875
-42.0,1.086058397823034,5.6875
-41.5,1.1167380135807468,2.4375
-42.0,1.0921943209745766,6.5
-42.0,1.1228739367322893,3.25
-41.5,1.1228739367322893,2.4375
-42.0,1.1351457830353744,0.8125
-41.5,1.1044661672776617,7.3125
-41.5,1.1106020904292042,7.3125
-41.5,1.141281706186917,0.8125
-41.5,1.0921943209745766,7.3125
-41.5,1.1290098598838318,2.4375
-41.5,1.1228739367322893,2.4375
-41.5,1.1228739367322893,4.875
-41.5,1.1167380135807468,4.875
-41.5,1.1044661672776617,7.3125
-41.0,1.1167380135807468,4.875
-41.5,1.1290098598838318,0.0
-41.0,1.1044661672776617,6.5
-41.5,1.1351457830353744,0.8125
-41.0,1.1351457830353744,-0.8125
-41.5,1.1474176293384597,1.625
