E28011606000020612B034BC,920.25,1.0676507,0.5
E28011606000020612B0344D,920.25,1.2517283,0.125
E28011606000020612AEE2CC,920.25,5.7861757,-0.5
E28011606000020612AEE41C,920.25,0.25157285,-0.125
E28011606000020612AEB8DB,920.25,1.3253593,0.125
E28011606000020612AE841B,920.25,5.006913,0.0625
E28011606000020612AE7ADC,920.25,5.61437,0.625
E28011606000020612AE847B,920.25,5.804583,0.0
E28011606000020612AEB8FC,920.25,0.90811664,0.25
E28011606000020612AE849C,920.25,0.6135923,0.0625
E28011606000020612AE849B,922.75,4.626486,-0.0625
E28011606000020612AFC48D,922.75,0.70563114,-0.375
E28011606000020612AEE21C,922.75,0.38042724,0.0625
E28011606000020612AFC28D,922.75,5.810719,0.0
E28011606000020612AE84AB,922.75,0.5890486,0.25
E28011606000020612AEB8CC,922.75,5.276894,-0.25
E28011606000020612AFC49D,922.75,1.4542137,0.125
E28011606000020612AE7AAB,922.75,5.8720784,0.25
E28011606000020612AEB8BC,922.75,4.9210105,0.1875
E28011606000020612AE846B,922.75,3.9208548,0.125
E28011606000020612AFC25D,922.75,1.1842332,-0.125
E28011606000020612AE84DB,922.75,1.0860584,-0.5
E28011606000020612AEE42C,922.75,5.7064085,0.5625
E28011606000020612AE848B,922.75,6.21569,-1.0625
E28011606000020612AEB8CB,910.25,0.75471854,0.1875
E28011606000020612AEB81B,910.25,2.153709,-0.5625
E28011606000020612AEE20C,910.25,4.3687773,0.4375
E28011606000020612AEB8AB,910.25,3.0495539,-0.5625
E28011606000020612AEB86C,910.25,5.123496,-0.125
E28011606000020612B0345D,910.25,2.0923498,-0.0625
E28011606000020612AE7ACC,910.25,0.8651652,0.0625
E28011606000020612AE7AEC,910.25,3.4606607,0.1875
E28011606000020612AE844C,910.25,1.3376312,0.25
E28011606000020612AEE24C,910.25,2.6016314,-0.1875
E28011606000020612B0349C,910.25,0.46019423,0.25
E28011606000020612AEE4DC,910.25,6.092972,0.5625
E28011606000020612AEE20B,910.25,5.804583,0.125
E28011606000020612AE842C,910.25,5.1357675,-0.125
E28011606000020612AEB83B,910.25,1.362175,-0.1875
E28011606000020612AEE21B,905.75,5.516195,-0.8125
E28011606000020612AE7A9B,905.75,5.197127,-0.0625
E28011606000020612AEE22C,905.75,1.0860584,-0.0625
E28011606000020612AEB8EB,905.75,1.356039,0.0625
E28011606000020612AEB86B,905.75,0.8528933,0.0625
E28011606000020612AE847C,905.75,0.2945243,0.0
E28011606000020612AE7ABC,905.75,4.871923,0.0625
E28011606000020612AEB84C,905.75,4.9639616,0.25
E28011606000020612AE84EB,905.75,5.896622,-0.9375
E28011606000020612AEE2DC,905.75,1.7241944,0.1875
E28011606000020612B0346D,905.75,1.9512236,0.0625
E28011606000020612AEB8FB,905.75,1.4910294,0.25
E28011606000020612AEB85B,905.75,5.896622,0.1875
E28011606000020612B0348D,905.75,5.0621367,0.5
E28011606000020612AEE23C,906.25,5.743224,-0.875
E28011606000020612AE842B,906.25,4.3503695,0.625
E28011606000020612AE7ABB,906.25,1.8653207,0.0
E28011606000020612AEE40C,906.25,2.6261752,-0.0625
E28011606000020612B034BC,906.25,1.5892041,-0.0625
E28011606000020612AEB8EC,906.25,4.4240007,-0.875
E28011606000020612AE84BC,906.25,0.17180584,0.625
E28011606000020612AEB87C,906.25,5.6266418,1.75
E28011606000020612AEE2EC,906.25,0.4049709,0.0
E28011606000020612AEE27C,906.25,1.2333206,1.0625
E28011606000020612AE7A8B,906.25,4.239923,-0.125
E28011606000020612AFC21D,906.25,1.8530488,-0.5
E28011606000020612AEE4BC,912.25,5.516195,0.75
E28011606000020612B0344D,912.25,2.7488935,-0.1875
E28011606000020612AE7ADC,912.25,4.417865,0.25
E28011606000020612AEB84B,912.25,1.3683108,-0.375
E28011606000020612AE849C,912.25,1.6996508,0.1875
E28011606000020612AEB88C,912.25,0.07363108,0.0625
E28011606000020612AEB89B,912.25,5.3750687,0.125
E28011606000020612B0348C,912.25,1.3192235,0.125
E28011606000020612AFC4AD,912.25,0.0061359233,-0.875
E28011606000020612AEB8FC,912.25,2.5034566,0.125
E28011606000020612AE841B,912.25,0.46633017,-0.125
E28011606000020612AEB85C,912.25,6.221826,0.0
E28011606000020612AEB8AC,912.25,6.1604667,0.0
E28011606000020612AEE2FC,924.75,5.7002726,-0.125
E28011606000020612AE84AB,924.75,6.252506,0.125
E28011606000020612AE849B,924.75,1.0921943,-0.0625
E28011606000020612AEE42C,924.75,5.264622,0.5
E28011606000020612AEE28C,924.75,5.049865,0.4375
E28011606000020612B0942C,924.75,5.0866804,0.5
E28011606000020612AE840C,924.75,5.8598065,0.5
E28011606000020612AEB8BB,924.75,5.5652823,0.125
E28011606000020612AEE21C,924.75,6.142059,0.1875
E28011606000020612AEB8BC,924.75,4.466952,0.0625
E28011606000020612AE7AAB,924.75,2.0371265,-0.125
E28011606000020612AEE20C,927.25,1.362175,0.1875
E28011606000020612AE846C,927.25,6.0070686,-0.1875
E28011606000020612AE84CC,927.25,0.99401957,-0.125
E28011606000020612B0347D,927.25,1.3683108,0.0
E28011606000020612AE84AC,927.25,1.2394565,0.875
E28011606000020612AEB8EB,927.25,0.3436117,-0.1875
E28011606000020612AE7A8C,927.25,0.35588354,0.1875
E28011606000020612B0349C,927.25,5.9947968,0.125
E28011606000020612AFC48D,927.25,4.9823694,0.375
E28011606000020612AE7AEC,927.25,5.645049,-0.5625
E28011606000020612AEB80C,927.25,6.2647777,0.5
E28011606000020612AE846B,927.25,6.05002,0.125
E28011606000020612AEB8CC,927.25,3.9760783,0.375
E28011606000020612AEE41C,927.25,4.9946413,0.125
E28011606000020612AEE2BC,927.25,1.7180585,0.0
E28011606000020612B0346D,905.25,2.1168935,0.25
E28011606000020612AE7ABC,905.25,4.9700975,0.25
E28011606000020612AE7ABB,905.25,2.0923498,0.9375
E28011606000020612AE847C,905.25,0.38042724,0.0625
E28011606000020612AE848C,905.25,0.7853982,-0.75
E28011606000020612AE7ACC,905.25,2.3009713,0.25
E28011606000020612AEE24C,905.25,3.6508744,-0.0625
E28011606000020612AEB83B,905.25,5.8782144,-0.25
E28011606000020612AE842C,905.25,0.3436117,0.125
E28011606000020612AE842B,905.25,4.632622,0.25
E28011606000020612AE7ACB,905.25,0.79767,-0.1875
E28011606000020612B034BC,905.25,1.9082721,0.25
E28011606000020612AEB88B,905.25,1.521709,-0.1875
E28011606000020612AEB84C,905.25,5.049865,0.5625
E28011606000020612AEB8AB,905.25,0.65040785,0.0625
E28011606000020612AEB86B,916.25,4.8412433,-0.5625
E28011606000020612AEE2CC,916.25,0.36201948,-0.1875
E28011606000020612AE7ADC,916.25,0.2638447,0.0625
E28011606000020612AEE4AC,916.25,0.41110685,1.125
E28011606000020612AEB8EC,916.25,1.7794178,-0.1875
E28011606000020612B0349D,916.25,0.6135923,0.1875
E28011606000020612AEB8DC,916.25,1.2394565,0.25
E28011606000020612AE7AEB,916.25,1.6260196,0.1875
E28011606000020612AEB8FB,916.25,5.11736,0.1875
E28011606000020612AEB81B,916.25,0.80380595,-0.25
E28011606000020612AE84CB,916.25,5.651185,0.25
E28011606000020612AE847B,907.25,5.577554,-0.1875
E28011606000020612AE840B,907.25,5.7309523,0.125
E28011606000020612AFC4AD,907.25,1.601476,-0.8125
E28011606000020612B0348C,907.25,6.1850104,0.1875
E28011606000020612B0348D,907.25,4.4976315,0.125
E28011606000020612AE84EB,907.25,5.332117,0.625
E28011606000020612AF20EC,907.25,4.706253,1.75
E28011606000020612AE84AB,907.25,2.1659808,-0.125
E28011606000020612AEE2EC,907.25,0.1349903,0.0625
E28011606000020612AE843C,907.25,1.1780972,-0.75
E28011606000020612AE849C,907.25,6.234098,0.4375
E28011606000020612AEE2DC,907.25,4.577399,-0.125
E28011606000020612AEE40C,907.25,2.3255148,-0.0625
E28011606000020612AEB8CB,907.25,1.4726216,-0.125
E28011606000020612AEB8BB,913.75,1.5523885,0.25
E28011606000020612AEE2FC,913.75,1.8591847,0.0625
E28011606000020612AEE4DC,913.75,4.5099034,0.0
E28011606000020612AE7A9B,913.75,4.7982917,0.1875
E28011606000020612AEB8EB,913.75,0.0061359233,-0.1875
E28011606000020612AEB89B,913.75,5.006913,0.0625
E28011606000020612AEE22C,913.75,5.3014374,0.1875
E28011606000020612AEE21C,913.75,5.442564,0.125
E28011606000020612AEB8BC,913.75,0.478602,0.125
E28011606000020612B0345D,913.75,0.92038846,0.5
E28011606000020612AE7A8B,913.75,2.3746023,-0.1875
E28011606000020612AEB85C,913.75,5.743224,0.1875
E28011606000020612AE845C,913.75,4.129476,1.3125
E28011606000020612AEB8CC,904.25,6.0009327,-0.125
E28011606000020612AE7ABC,904.25,2.080078,-0.375
E28011606000020612AEB8DB,904.25,1.030835,-0.0625
E28011606000020612B0349C,904.25,4.95169,0.125
E28011606000020612AE7AAB,904.25,5.933438,-0.25
E28011606000020612AE7AEC,904.25,5.350525,0.0625
E28011606000020612AE7ABB,904.25,2.2518837,0.0625
E28011606000020612AEB88C,904.25,1.5462526,0.1875
E28011606000020612AEE42C,904.25,4.0128937,-0.25
E28011606000020612AEB84B,904.25,0.6688156,1.0625
E28011606000020612AEB8AC,904.25,1.4971652,0.25
E28011606000020612AE7ACC,904.25,2.6200392,0.5
E28011606000020612AEE21B,904.25,5.91503,0.0625
E28011606000020612AE84DB,904.25,5.4671073,0.25
E28011606000020612AFC49D,917.25,6.0193405,-0.5
E28011606000020612AEB88B,917.25,1.4296701,-0.25
E28011606000020612AE846C,917.25,5.645049,0.0625
E28011606000020612AE841B,917.25,5.5223308,-0.375
E28011606000020612AEE23C,917.25,1.116738,-2.1875
E28011606000020612AE846B,917.25,5.2093987,0.0
E28011606000020612AF202C,917.25,5.638913,-0.125
E28011606000020612AEB8FC,917.25,1.6935148,-0.0625
E28011606000020612AE7A8C,917.25,5.8904862,0.0
E28011606000020612AEB83B,917.25,0.08590292,0.125
E28011606000020612AE840C,917.25,5.190991,0.5625
E28011606000020612AEB8AB,917.25,1.8591847,-1.125
E28011606000020612AE848B,917.25,0.7424467,-0.75
E28011606000020612B0347D,917.25,0.49087384,-0.0625
E28011606000020612AE847B,915.75,0.5276894,0.5
E28011606000020612AEE41C,915.75,5.019185,0.125
E28011606000020612AEB8EC,915.75,1.8714565,0.1875
E28011606000020612AEE2CC,915.75,0.44178647,-0.5625
E28011606000020612AE847C,915.75,1.1903691,0.125
E28011606000020612AFC27D,915.75,5.3137093,0.8125
E28011606000020612AE84AC,915.75,1.6137478,0.0
E28011606000020612B034BC,915.75,4.9823694,0.1875
E28011606000020612AEB85B,915.75,0.33747578,-0.4375
E28011606000020612AE84BC,915.75,1.0860584,0.625
E28011606000020612AE7AEB,915.75,5.0007772,0.4375
E28011606000020612AFC48D,915.75,4.4853597,0.25
E28011606000020612AE849C,908.25,5.896622,0.125
E28011606000020612AE842B,908.25,0.88357294,-0.1875
E28011606000020612AEB86B,908.25,0.38656315,0.25
E28011606000020612AE84CB,908.25,1.5094371,0.125
E28011606000020612AE7ACB,908.25,0.3681554,0.625
E28011606000020612AEB8FB,908.25,1.0615147,0.125
E28011606000020612AE844C,908.25,5.166447,-0.1875
E28011606000020612AEE2FC,908.25,5.939574,0.125
E28011606000020612AFC2FD,908.25,4.552855,1.5625
E28011606000020612B0346D,908.25,1.3867186,-0.0625
E28011606000020612AE842C,908.25,5.608234,0.1875
E28011606000020612AEB86C,908.25,5.602098,-0.125
E28011606000020612AEB80B,909.25,1.8530488,0.0
E28011606000020612AFC4BD,909.25,0.60132045,-0.1875
E28011606000020612B0345D,909.25,2.4482334,0.0
E28011606000020612AEE2EC,909.25,5.8598065,0.1875
E28011606000020612AEB8BC,909.25,1.6628351,0.1875
E28011606000020612AEE21C,909.25,0.38042724,0.375
E28011606000020612AE7A8B,909.25,0.5154175,0.125
E28011606000020612AEB8EB,909.25,0.6135923,0.125
E28011606000020612AEE22C,909.25,0.1840777,0.25
E28011606000020612AEB8CB,909.25,0.9633399,-0.125
E28011606000020612AEE20B,909.25,5.988661,0.625
E28011606000020612AEE42C,925.25,5.049865,0.125
E28011606000020612AE7AEC,925.25,5.976389,-0.0625
E28011606000020612AEB8CC,925.25,1.3499031,0.625
E28011606000020612AEB80C,925.25,3.7060976,0.375
E28011606000020612AE840B,925.25,4.8044276,-0.5
E28011606000020612B0349C,925.25,0.19021362,0.375
E28011606000020612AEB81B,925.25,5.332117,-0.4375
E28011606000020612AEE2DC,925.25,1.4235342,-0.0625
E28011606000020612AEB88C,925.25,0.7731263,1.5
E28011606000020612AEE28C,925.25,4.9700975,-0.0625
E28011606000020612AEB89B,925.25,5.755496,0.125
E28011606000020612AE84CC,925.25,1.2578642,0.75
E28011606000020612B0942C,925.25,1.754874,0.875
E28011606000020612AEE40C,925.25,5.4671073,0.1875
E28011606000020612B0344D,925.25,0.03681554,0.375
E28011606000020612AE843C,915.25,5.7002726,0.1875
E28011606000020612AEE2AC,915.25,5.7002726,-0.1875
E28011606000020612AE7AAB,915.25,0.69949526,0.25
E28011606000020612AE7ABB,915.25,5.3137093,0.25
E28011606000020612AEE4AC,915.25,1.0246992,-0.5
E28011606000020612AE848B,915.25,1.1535536,0.875
E28011606000020612B0347D,915.25,4.160156,0.0
E28011606000020612AEB8DB,915.25,1.9941751,-2.1875
E28011606000020612AE7ABC,915.25,6.0377483,0.0
E28011606000020612AEB85C,915.25,2.073942,-0.375
E28011606000020612AEE4EC,915.25,0.9265244,0.5625
E28011606000020612AEB84C,915.25,0.03681554,-0.125
E28011606000020612AF90BD,915.25,5.28303,-0.1875
E28011606000020612AEB8BB,915.25,1.3008157,-0.1875
E28011606000020612AE841B,918.25,5.3075733,0.25
E28011606000020612AE84EB,918.25,5.6941366,0.1875
E28011606000020612AE849B,918.25,5.5591464,-0.125
E28011606000020612AE849C,918.25,0.7669904,0.4375
E28011606000020612AE7AEB,918.25,1.5278449,-0.75
E28011606000020612AEB83B,918.25,6.1543307,0.1875
E28011606000020612AE846C,918.25,5.356661,-0.125
E28011606000020612AEB8EC,918.25,1.435806,0.0625
E28011606000020612B0349D,918.25,0.23316509,0.5
E28011606000020612AE7A9B,918.25,0.48473793,-0.125
E28011606000020612AE7ACC,918.25,5.123496,0.0
E28011606000020612AE84DB,918.25,5.356661,0.8125
E28011606000020612AE846B,918.25,4.890331,0.8125
E28011606000020612AEE24C,903.25,4.3258257,0.1875
E28011606000020612AE847B,903.25,3.202952,0.875
E28011606000020612AEE2FC,903.25,0.12271846,0.5
E28011606000020612AE847C,903.25,1.1106021,0.125
E28011606000020612AEB8FB,903.25,1.914408,0.125
E28011606000020612B0348D,903.25,6.056156,0.5625
E28011606000020612AEE2CC,903.25,5.0621367,-0.125
E28011606000020612B034BC,903.25,5.473243,0.125
E28011606000020612AEE23C,903.25,0.012271847,-0.5
E28011606000020612AEB85B,903.25,0.6320001,0.125
E28011606000020612AFC4AD,923.25,1.1412817,0.125
E28011606000020612AEB8AC,923.25,0.50928164,0.125
E28011606000020612AFC28D,923.25,2.5095925,-0.75
E28011606000020612AFC25D,923.25,0.8528933,0.1875
E28011606000020612AEB8FC,923.25,0.4233787,-0.25
E28011606000020612AEE2BC,923.25,2.4052818,0.0625
E28011606000020612AE84AB,923.25,0.41724277,0.1875
E28011606000020612AE842C,923.25,5.424156,0.0625
E28011606000020612AEE20C,923.25,5.319845,0.1875
E28011606000020612AEB8EB,923.25,4.393321,-0.5625
E28011606000020612AEE2EC,923.25,5.810719,0.0
E28011606000020612AEE41C,921.75,5.988661,0.1875
E28011606000020612AEB86C,921.75,5.6818647,0.1875
E28011606000020612AEB80B,921.75,4.160156,-0.1875
E28011606000020612AE7ABB,921.75,3.9147189,0.125
E28011606000020612AEB8CC,921.75,5.516195,0.1875
E28011606000020612AE842B,921.75,0.90811664,0.125
E28011606000020612AEE22C,921.75,0.38042724,0.0
E28011606000020612B0349C,921.75,0.96947587,0.25
E28011606000020612AFC4BD,921.75,6.0254765,0.0625
E28011606000020612AE84BC,921.75,0.20862138,-0.4375
E28011606000020612AEB81B,921.75,6.074564,-0.4375
E28011606000020612AEE21C,921.75,0.5829127,0.125
E28011606000020612AE7A9C,921.75,4.473088,0.4375
E28011606000020612AEE2DC,921.75,5.5284667,0.75
E28011606000020612AEE45C,912.75,0.9265244,-0.5
E28011606000020612AEB80C,912.75,0.17180584,0.0625
E28011606000020612AEB8DB,912.75,2.3807383,-0.0625
E28011606000020612AE7ADC,912.75,1.2210487,-0.125
E28011606000020612B0345D,912.75,1.3314953,0.0
E28011606000020612AE7AAB,912.75,0.6810875,0.25
E28011606000020612AE840B,912.75,4.4914956,-0.0625
E28011606000020612AE7ACB,912.75,5.7125444,-0.375
E28011606000020612AEB8BC,912.75,0.6933593,0.0
E28011606000020612AE84CB,912.75,0.11658254,0.0625
E28011606000020612B0942C,912.75,0.14112623,0.75
E28011606000020612AEE42C,912.75,1.9757673,-0.125
E28011606000020612AEB88C,912.75,6.092972,0.0625
E28011606000020612AE7AEB,919.75,1.276272,0.1875
E28011606000020612AEB84C,919.75,2.067806,0.125
E28011606000020612AEE20B,919.75,0.41724277,0.1875
E28011606000020612AE7A9B,919.75,6.086836,-0.8125
E28011606000020612AE847C,919.75,0.46633017,0.0625
E28011606000020612AFC49D,919.75,5.8598065,0.125
E28011606000020612AEB8EC,919.75,1.1658254,-0.125
E28011606000020612AE846C,919.75,1.6444274,-0.125
E28011606000020612AE84CC,919.75,5.013049,-0.25
E28011606000020612AEB8CB,919.75,5.1357675,-0.125
E28011606000020612AEB83B,919.75,5.835263,0.0625
E28011606000020612AE7A8C,919.75,5.270758,0.0625
E28011606000020612B0348C,919.75,5.516195,0.0625
E28011606000020612AFC26D,919.75,0.19021362,0.1875
E28011606000020612AEB8AB,919.75,1.3130876,0.1875
E28011606000020612AE847B,925.75,1.834641,0.0625
E28011606000020612AE849C,925.75,5.436428,0.0625
E28011606000020612AEB89B,925.75,5.61437,0.25
E28011606000020612AEE40C,925.75,5.325981,-0.125
E28011606000020612AE840C,925.75,5.7125444,0.75
E28011606000020612AE7A8B,925.75,6.0316124,0.0
E28011606000020612AEE2CC,925.75,4.473088,-0.375
E28011606000020612AE7ABC,925.75,0.43565056,1.25
E28011606000020612AEB88B,916.75,1.748738,-1.5
E28011606000020612AEB8EB,916.75,5.577554,0.125
E28011606000020612B034BC,916.75,4.7737484,0.375
E28011606000020612AEE28C,916.75,0.92038846,-0.125
E28011606000020612AE846B,916.75,5.319845,0.1875
E28011606000020612B0346D,916.75,5.6327777,0.1875
E28011606000020612AEB8AC,916.75,5.491651,0.625
E28011606000020612AEE2EC,916.75,0.79767,0.125
E28011606000020612AEE2BC,916.75,0.6135923,0.5
E28011606000020612AE84AB,916.75,5.78004,0.1875
E28011606000020612AE849B,916.75,5.7309523,0.0
E28011606000020612AEB8FB,916.75,5.049865,0.125
E28011606000020612B0344D,916.75,1.9082721,-0.125
E28011606000020612AEE22C,907.75,0.57064086,0.0
E28011606000020612AEE2FC,907.75,5.939574,0.0
E28011606000020612AEE23C,907.75,5.4057484,-1.125
E28011606000020612AEB8CC,907.75,5.1541753,0.375
E28011606000020612AE84DB,907.75,1.435806,0.1875
E28011606000020612AE842B,907.75,0.8651652,0.25
E28011606000020612B0349D,907.75,0.09817477,0.25
E28011606000020612AEE24C,907.75,0.12271846,-0.0625
E28011606000020612AE7ABB,907.75,1.3744467,-0.1875
E28011606000020612AE848C,907.75,6.240234,1.4375
E28011606000020612AEB81B,907.75,6.1175156,-0.4375
E28011606000020612AEE21C,907.75,3.9515345,0.0
E28011606000020612AE7ACC,907.75,4.7798843,0.5
E28011606000020612AEB8BB,907.75,2.969787,0.0625
E28011606000020612AEE4EC,911.75,5.58369,0.0625
E28011606000020612AEB86B,911.75,5.8475347,0.0625
E28011606000020612AE841B,911.75,0.5645049,0.0
E28011606000020612AEE20C,911.75,4.141748,0.0625
E28011606000020612AE840B,911.75,1.5585245,0.4375
E28011606000020612B0349C,911.75,0.08590292,0.375
E28011606000020612AE84EB,911.75,4.080389,0.25
E28011606000020612AEE2DC,911.75,0.10431069,0.0625
E28011606000020612AEB80C,911.75,0.38656315,0.5
E28011606000020612AEB8FC,911.75,5.755496,-0.0625
E28011606000020612AEB8BC,911.75,0.89584476,0.0
E28011606000020612AFC2FD,911.75,0.09817477,-0.25
E28011606000020612AE845C,911.75,4.7798843,0.5625
E28011606000020612AEB85C,911.75,0.15339808,0.375
E28011606000020612AEE4AC,911.75,5.178719,-0.875
E28011606000020612AE84CB,914.75,5.970253,-0.125
E28011606000020612AE84AC,914.75,5.160311,0.25
E28011606000020612AEB8DB,914.75,2.0432625,0.5625
E28011606000020612AE7AAB,914.75,0.62586415,0.375
E28011606000020612AEE4DC,914.75,4.160156,0.0
E28011606000020612AE842C,914.75,0.8897089,-0.0625
E28011606000020612AE7AEC,914.75,2.3684664,0.375
E28011606000020612AE847C,914.75,1.356039,-0.1875
E28011606000020612B0347D,914.75,1.116738,0.0
E28011606000020612AE7AEB,914.75,1.8407769,0.1875
E28011606000020612AEE2AC,914.75,5.933438,0.0
E28011606000020612B0345D,914.75,0.6933593,0.25
E28011606000020612B0942C,914.75,5.2093987,0.1875
E28011606000020612AEB86C,914.75,4.104933,0.0
E28011606000020612AE7ACB,914.75,5.4057484,-0.25
E28011606000020612AEE41C,914.75,5.3075733,0.25
E28011606000020612B0348D,924.25,0.25157285,0.5
E28011606000020612AEB8EC,924.25,0.09817477,0.625
E28011606000020612AEE42C,924.25,5.356661,0.375
E28011606000020612AEB89B,924.25,6.0438843,0.125
E28011606000020612AE84CC,924.25,1.3744467,0.875
E28011606000020612AEB80B,924.25,0.59518456,-0.375
E28011606000020612B0346D,924.25,0.478602,0.4375
E28011606000020612AEE2CC,924.25,1.4726216,1.1875
E28011606000020612AEE40C,924.25,5.761632,-0.125
E28011606000020612AE84BC,924.25,5.927302,-0.5625
E28011606000020612B034BC,924.25,0.22089323,0.625
E28011606000020612AEB84C,924.25,1.0799224,0.0
E28011606000020612AEB8AC,921.25,1.0553788,0.8125
E28011606000020612AEE20B,921.25,0.0061359233,0.375
E28011606000020612AF90BD,921.25,5.9457097,0.5625
E28011606000020612AFC25D,921.25,4.9210105,0.4375
E28011606000020612AE846B,921.25,4.381049,0.25
E28011606000020612AE7A8C,921.25,4.9885054,0.0625
E28011606000020612B0348C,921.25,5.049865,0.125
E28011606000020612AE7ABC,921.25,1.59534,-0.1875
E28011606000020612AEB8EB,921.25,4.792156,-0.0625
E28011606000020612AE7A9B,921.25,5.111224,-0.5
E28011606000020612AE7ADC,921.25,5.2278066,0.0
E28011606000020612AEB88C,921.25,4.4424086,0.0
E28011606000020612AEE2EC,921.25,6.148195,0.0
E28011606000020612AFC28D,921.25,0.20862138,0.125
E28011606000020612AE7A8B,918.75,1.0921943,0.0625
E28011606000020612AEB8CC,918.75,6.092972,0.9375
E28011606000020612AEB84B,918.75,0.33133984,-0.9375
E28011606000020612AE849C,918.75,0.6810875,-0.1875
E28011606000020612AE84DB,918.75,5.276894,-0.25
E28011606000020612AE842B,918.75,1.6689711,0.5
E28011606000020612AEB83B,918.75,6.1052437,-0.125
E28011606000020612AE84AB,918.75,5.1419034,0.4375
E28011606000020612AE848B,918.75,0.5276894,-0.0625
E28011606000020612AE7ABB,918.75,4.215379,-0.375
E28011606000020612AEE21C,918.75,1.276272,0.375
E28011606000020612AEE24C,904.75,3.8349519,0.0
E28011606000020612AEB8BB,904.75,3.7674568,0.1875
E28011606000020612AE84EB,904.75,6.2586417,0.25
E28011606000020612AEE21B,904.75,5.737088,1.0625
E28011606000020612AEE2FC,904.75,6.1604667,0.1875
E28011606000020612AEE22C,904.75,1.3683108,0.0
E28011606000020612AEB8CB,904.75,2.000311,0.25
E28011606000020612AEE20C,904.75,5.332117,0.0625
E28011606000020612B0349C,904.75,4.853515,0.0
E28011606000020612AF20EC,904.75,5.816855,0.625
E28011606000020612AFC4AD,904.75,5.669593,-1.125
E28011606000020612AE848C,904.75,3.8717675,0.8125
E28011606000020612AEE27C,904.75,4.7553406,-0.25
E28011606000020612AEB8BC,904.75,5.8536706,-0.0625
E28011606000020612B0349D,904.75,1.2455924,0.25
E28011606000020612AE842C,904.75,3.675418,0.125
E28011606000020612AEB8FC,904.75,4.307418,-0.0625
E28011606000020612AE847C,909.75,5.5346026,0.125
E28011606000020612AE7AEC,909.75,0.44178647,0.0
E28011606000020612AFC2FD,909.75,0.558369,-0.0625
E28011606000020612AEB85C,909.75,0.7669904,0.625
E28011606000020612AEE4BC,909.75,6.2647777,0.1875
E28011606000020612AEE2DC,909.75,0.75471854,0.0625
E28011606000020612AE7ACC,909.75,0.9633399,0.1875
E28011606000020612AE847B,909.75,4.9946413,-0.0625
E28011606000020612AEB86C,909.75,2.1230295,0.375
E28011606000020612AE849B,909.75,1.0062914,0.5625
E28011606000020612B0344D,909.75,0.2638447,-0.0625
E28011606000020612AE7AEB,909.75,0.45405832,-0.1875
E28011606000020612B0347D,909.75,5.3689327,0.75
E28011606000020612AEE23C,909.75,5.2523503,-0.1875
E28011606000020612AEB88B,909.75,0.34974763,0.0625
E28011606000020612AE84BC,910.75,5.2216706,0.5625
E28011606000020612AEB8DB,910.75,6.074564,-0.1875
E28011606000020612AE84CC,910.75,4.0374374,0.0
E28011606000020612B0348D,910.75,0.06749515,0.0625
E28011606000020612AE84CB,910.75,0.69949526,0.0
E28011606000020612AEB80B,910.75,1.2701361,-0.25
E28011606000020612AE7ACB,910.75,6.2647777,0.0625
E28011606000020612AEB84C,910.75,3.8472238,0.125
E28011606000020612AEE2BC,910.75,4.9885054,0.0625
E28011606000020612AEB8EC,910.75,3.4115732,0.1875
E28011606000020612B0345D,910.75,1.9880391,0.0625
E28011606000020612AE846C,910.75,1.4173982,0.125
E28011606000020612AEB8FB,910.75,0.2638447,0.125
E28011606000020612AE7AAB,926.75,4.7614765,0.0
E28011606000020612B000ED,926.75,5.651185,-0.5
E28011606000020612AEB83C,926.75,4.252195,-0.0625
E28011606000020612AEE28C,926.75,4.4914956,0.5625
E28011606000020612AEB86B,926.75,3.7981365,3.125
E28011606000020612AE7A8B,926.75,5.767768,0.0625
E28011606000020612AFC28D,926.75,1.6260196,-0.1875
E28011606000020612AEB8EB,926.75,0.30066022,0.5
E28011606000020612B0346D,926.75,6.068428,0.125
E28011606000020612AE849C,926.75,5.2278066,0.0
E28011606000020612AE840C,926.75,5.577554,0.5625
E28011606000020612AEB81B,926.75,4.5221753,0.8125
E28011606000020612AFC49D,926.75,0.11658254,0.0
E28011606000020612AEB8AB,913.25,2.6077673,-0.25
E28011606000020612AE842B,913.25,5.8904862,0.125
E28011606000020612AEE4AC,913.25,4.381049,0.5
E28011606000020612AEB8BB,913.25,1.6382915,0.25
E28011606000020612AEB89B,913.25,1.9757673,0.5
E28011606000020612AEE20B,913.25,5.1357675,-0.5
E28011606000020612AEB88C,913.25,6.234098,0.0
E28011606000020612AEB85B,913.25,0.75471854,0.5
E28011606000020612AFC25D,913.25,3.7613208,0.875
E28011606000020612AEB84B,913.25,1.2271847,0.1875
E28011606000020612B034BC,913.25,5.743224,0.1875
E28011606000020612AE7ABB,913.25,5.737088,0.125
E28011606000020612AEB8FC,914.25,2.2150683,0.1875
E28011606000020612AE84AC,914.25,2.0862138,0.5625
E28011606000020612AE7AFB,914.25,5.1541753,0.625
E28011606000020612B0349D,914.25,1.0676507,0.0
E28011606000020612AE842C,914.25,1.0001554,-0.1875
E28011606000020612AEB8CB,914.25,6.1972823,0.0
E28011606000020612AE847C,914.25,4.546719,0.1875
E28011606000020612AE840B,914.25,4.3442335,0.375
E28011606000020612AFC48D,914.25,1.6996508,0.5
E28011606000020612B0349C,914.25,5.9518456,0.5
E28011606000020612AE7AEC,914.25,5.6327777,0.125
E28011606000020612AEE2EC,914.25,1.2394565,0.125
E28011606000020612AEB86C,919.25,6.0807,0.0
E28011606000020612AE7ACC,919.25,4.706253,-0.1875
E28011606000020612AEB8BC,919.25,5.473243,0.125
E28011606000020612AEE40C,919.25,0.49087384,-0.75
E28011606000020612AEE2DC,919.25,4.9087386,0.1875
E28011606000020612AE84EB,919.25,2.3255148,0.0625
E28011606000020612AE7A9B,919.25,6.209554,-0.5
E28011606000020612B0348C,919.25,5.7002726,0.1875
E28011606000020612AE7AEB,919.25,1.2946798,-0.0625
E28011606000020612AEB8DC,919.25,6.1113796,2.1875
E28011606000020612AEE41C,919.25,0.6626797,-0.1875
E28011606000020612AE7ADC,919.25,5.7064085,-0.1875
E28011606000020612AE84DB,919.25,4.859651,0.625
E28011606000020612AEB8CC,919.25,5.804583,0.25
E28011606000020612AE849B,919.25,2.1966605,0.1875
E28011606000020612AE847B,919.25,5.9579816,-0.0625
E28011606000020612AEE20C,906.75,4.9026027,0.0
E28011606000020612AEE23C,906.75,5.829127,0.0625
E28011606000020612AEE42C,906.75,0.32520393,0.0625
E28011606000020612AE7AAB,906.75,5.270758,0.0
E28011606000020612AF20EC,906.75,4.9455543,1.0625
E28011606000020612AEB8DB,906.75,0.79767,0.25
E28011606000020612AEE24C,906.75,3.6386025,-0.0625
E28011606000020612AEB8EC,906.75,4.1172047,-0.0625
E28011606000020612AEE22C,906.75,0.65040785,0.25
E28011606000020612AE84CB,906.75,2.1782527,0.0
E28011606000020612AEE21C,906.75,4.1908355,-0.0625
E28011606000020612B0344D,906.75,4.3319616,0.0
E28011606000020612AEE2FC,906.75,5.970253,0.125
E28011606000020612AE7ABC,906.75,1.5401167,-0.375
E28011606000020612AEE27C,902.75,5.160311,1.25
E28011606000020612AE849C,902.75,4.405593,0.0
E28011606000020612B0348D,902.75,6.227962,-0.1875
E28011606000020612AEE21B,902.75,6.1359234,0.5
E28011606000020612AE844C,902.75,0.7608545,0.0625
E28011606000020612AE842B,902.75,5.0007772,0.0625
E28011606000020612AE846B,902.75,2.2396119,-0.125
E28011606000020612AEB8EB,902.75,5.1296315,0.125
E28011606000020612AEB8FB,902.75,2.000311,0.1875
E28011606000020612AEB84C,902.75,5.5652823,-0.0625
E28011606000020612AEB85C,902.75,5.602098,0.125
E28011606000020612AEB88C,903.75,4.9885054,0.1875
E28011606000020612AE843C,903.75,2.2580197,0.0
E28011606000020612B034BC,903.75,5.3934765,-0.125
E28011606000020612AEB8BB,903.75,4.000622,0.5
E28011606000020612AFC4AD,903.75,5.7248163,0.1875
E28011606000020612AEB83B,903.75,0.12271846,-0.25
E28011606000020612AEE20B,903.75,1.0553788,0.4375
E28011606000020612AEB85B,903.75,0.42951462,0.0
E28011606000020612AEB89B,903.75,1.3437672,0.375
E28011606000020612AFC28D,903.75,0.6442719,-0.8125
E28011606000020612B0346D,903.75,2.5157285,0.0625
E28011606000020612AEB8FC,903.75,4.4914956,0.125
E28011606000020612AFC21D,903.75,5.8904862,-0.9375
E28011606000020612AFC48D,926.25,5.3689327,-0.5
E28011606000020612AEB83C,926.25,4.381049,0.1875
E28011606000020612AEB80B,926.25,3.35635,0.125
E28011606000020612AE840B,926.25,4.6633015,1.125
E28011606000020612AE7A8B,926.25,5.896622,0.0625
E28011606000020612B0347D,926.25,4.7492046,0.375
E28011606000020612AEE28C,926.25,4.6571655,0.1875
E28011606000020612B0349C,926.25,6.221826,0.0625
E28011606000020612AFC25D,926.25,5.7984476,-0.125
E28011606000020612AEB88B,926.25,0.5767768,-0.1875
E28011606000020612AE840C,926.25,5.6818647,0.0
E28011606000020612AE7ABB,926.25,0.12885438,-0.0625
E28011606000020612AEB81B,926.25,4.871923,-3.1875
E28011606000020612AE7A8C,926.25,0.59518456,-0.1875
E28011606000020612AE847C,926.25,2.080078,0.1875
E28011606000020612B0345D,917.75,0.08590292,0.125
E28011606000020612AEE23C,917.75,0.81607777,0.9375
E28011606000020612AEE41C,917.75,1.3499031,-0.125
E28011606000020612AEE2EC,917.75,0.46633017,0.5625
E28011606000020612AE7A9B,917.75,3.7674568,0.125
E28011606000020612AEE2BC,917.75,3.4667966,0.5
E28011606000020612AEB8CB,917.75,5.5530105,0.125
E28011606000020612B0348C,917.75,6.074564,0.25
E28011606000020612AEE40C,917.75,0.5645049,0.0625
E28011606000020612AE7AAB,917.75,0.34974763,0.375
E28011606000020612AE842C,917.75,0.14112623,-0.0625
E28011606000020612AE849B,917.75,2.2457478,-0.0625
E28011606000020612B0349D,917.75,0.34974763,0.4375
E28011606000020612AE7AEB,917.75,1.4910294,-0.25
E28011606000020612AE84EB,917.75,2.6139033,1.0625
E28011606000020612AE846C,922.25,0.8528933,0.1875
E28011606000020612AEB8BC,922.25,4.9700975,0.75
E28011606000020612AEB8CC,922.25,5.338253,0.5625
E28011606000020612AF90BD,922.25,5.503923,0.25
E28011606000020612AEE20C,922.25,5.4487,0.1875
E28011606000020612AEB8EC,922.25,0.5276894,-0.125
E28011606000020612AEE42C,922.25,5.755496,0.5625
E28011606000020612AE7AEC,922.25,0.57064086,0.0
E28011606000020612AEE2FC,922.25,0.16566992,0.1875
E28011606000020612AE845C,922.25,2.3255148,-0.5625
E28011606000020612B0344D,922.25,0.81607777,0.0625
E28011606000020612AE841B,922.25,4.558991,-0.1875
E28011606000020612AF20EC,911.25,2.3807383,-0.125
E28011606000020612AE84AC,911.25,5.638913,1.0625
E28011606000020612AEE4DC,911.25,5.8843503,0.375
E28011606000020612AEE21C,911.25,6.068428,0.0625
E28011606000020612AEE4AC,911.25,5.7309523,0.0
E28011606000020612AE843C,911.25,0.05522331,0.125
E28011606000020612AEB86B,911.25,6.0807,-0.5625
E28011606000020612AEB8EB,911.25,0.25770876,0.0625
E28011606000020612AE84AB,911.25,0.8467574,0.25
E28011606000020612AEE2DC,911.25,0.28225246,0.1875
E28011606000020612B034BC,911.25,0.06749515,0.25
E28011606000020612AE84BC,911.25,2.0432625,-0.1875
E28011606000020612AE84DB,911.25,0.67495155,0.25
E28011606000020612AEB85C,911.25,0.2883884,-0.5625
E28011606000020612AEB84C,908.75,1.3008157,0.125
E28011606000020612AEB8FC,908.75,0.21475731,0.375
E28011606000020612AEB8FB,908.75,0.90811664,0.1875
E28011606000020612B0348D,908.75,0.79153407,-0.125
E28011606000020612AEE2CC,908.75,0.1840777,-0.1875
E28011606000020612AE847B,908.75,5.2339425,0.75
E28011606000020612AEB85B,908.75,5.0007772,0.25
E28011606000020612AE7ACC,908.75,1.2087768,0.5
E28011606000020612AEB86C,908.75,5.510059,0.0
E28011606000020612AE7ABC,908.75,0.99401957,-0.125
E28011606000020612AFC48D,908.75,0.28225246,0.1875
E28011606000020612AE7ADC,908.75,1.9757673,-0.25
E28011606000020612AE842B,908.75,3.8901753,0.5625
E28011606000020612B0349C,923.75,0.5829127,0.0625
E28011606000020612AE7ABB,923.75,0.42951462,-0.125
E28011606000020612AFC25D,923.75,0.61972827,0.1875
E28011606000020612B0346D,923.75,0.61972827,0.1875
E28011606000020612AE7A8B,923.75,0.20248546,-0.125
E28011606000020612AE840B,923.75,1.9819032,0.1875
E28011606000020612AE7A8C,923.75,4.2092433,0.1875
E28011606000020612AE849C,923.75,5.988661,-0.0625
E28011606000020612AEE23C,923.75,3.5342917,-0.0625
E28011606000020612AEB81B,923.75,5.5591464,0.8125
E28011606000020612AE846B,923.75,0.5645049,-0.0625
E28011606000020612B0942C,923.75,2.1905246,0.25
E28011606000020612AFC28D,923.75,5.442564,0.25
E28011606000020612AEB8BB,923.75,5.773904,0.125
E28011606000020612AE840C,920.75,0.96947587,0.25
E28011606000020612AE84CC,920.75,5.264622,-0.0625
E28011606000020612AE847C,920.75,0.2883884,0.0
E28011606000020612AEE2BC,920.75,5.8720784,0.4375
E28011606000020612AFC4BD,920.75,0.03681554,-0.125
E28011606000020612AEB88C,920.75,1.4235342,0.0625
E28011606000020612B0348C,920.75,5.2339425,-0.0625
E28011606000020612AFC4AD,920.75,1.6996508,-0.5625
E28011606000020612AEE2EC,920.75,6.221826,0.25
E28011606000020612B0349D,920.75,5.6880007,-0.1875
E28011606000020612AE7AAB,920.75,0.04295146,0.25
E28011606000020612AEE41C,920.75,0.09203885,-0.125
E28011606000020612AEB80C,920.75,4.8166995,0.625
E28011606000020612AEB89B,920.25,0.69949526,0.1875
E28011606000020612AFC49D,920.25,5.816855,0.5625
E28011606000020612AE846C,920.25,4.6755733,0.0625
E28011606000020612AEB8EC,920.25,0.96947587,-0.1875
E28011606000020612AEB8BC,920.25,5.3750687,0.0625
E28011606000020612AEB8CC,920.25,5.74936,0.5
E28011606000020612AEE28C,920.25,6.240234,0.4375
E28011606000020612AEE42C,920.25,6.2770495,0.625
E28011606000020612B0345D,920.25,5.5714183,0.0625
E28011606000020612AE7A9B,920.25,5.74936,-0.1875
E28011606000020612AE7AEC,920.25,1.2149128,0.125
E28011606000020612AEB8DB,920.25,1.0124273,0.0625
E28011606000020612AEE2FC,920.25,0.8651652,0.0625
E28011606000020612AEE22C,920.25,0.4049709,0.1875
E28011606000020612AE843C,922.75,1.1044662,0.0
E28011606000020612AE849B,922.75,1.4235342,0.125
E28011606000020612AEB8AC,922.75,0.6565438,0.0
E28011606000020612AEE21C,922.75,0.30066022,0.25
E28011606000020612AE841B,922.75,4.4546804,0.25
E28011606000020612AE84EB,922.75,1.7426022,-0.5625
E28011606000020612AEB8CB,922.75,4.6019425,0.0625
E28011606000020612AEB8FC,922.75,0.42951462,0.0625
E28011606000020612AEB80B,922.75,3.9576705,0.0
E28011606000020612AE845C,922.75,1.9512236,0.4375
E28011606000020612AE7AEB,922.75,0.52155346,0.625
E28011606000020612AEB8EB,922.75,4.460816,0.0
E28011606000020612B0347D,922.75,5.638913,0.0
E28011606000020612B034BC,910.25,0.3436117,0.0625
E28011606000020612AEE24C,910.25,5.7186804,-0.125
E28011606000020612B0349C,910.25,0.46633017,0.0625
E28011606000020612AEE40C,910.25,1.4051265,0.125
E28011606000020612AEB86C,910.25,5.0866804,0.25
E28011606000020612AEE4AC,910.25,6.1236515,-0.0625
E28011606000020612AE84AB,910.25,1.1351458,0.25
E28011606000020612B0346D,910.25,0.957204,0.0
E28011606000020612AE842B,910.25,0.33133984,-0.0625
E28011606000020612AEB83B,910.25,1.3314953,0.125
E28011606000020612AE84CB,910.25,0.81607777,0.25
E28011606000020612AEB8FB,910.25,0.41724277,0.25
E28011606000020612AE84BC,910.25,2.2150683,0.0625
E28011606000020612AEB85B,910.25,4.540583,0.0625
E28011606000020612AEE23C,905.75,5.9641175,0.1875
E28011606000020612AEE20C,905.75,5.0621367,0.0625
E28011606000020612AE7ACB,905.75,0.73017484,0.1875
E28011606000020612AF20EC,905.75,5.3873405,-0.25
E28011606000020612AE847C,905.75,0.25770876,0.0625
E28011606000020612AE7ABC,905.75,1.7119225,0.0625
E28011606000020612AE849C,905.75,0.32520393,0.0625
E28011606000020612AEB86B,905.75,0.8897089,-0.0625
E28011606000020612AE848C,905.75,3.5649714,0.25
E28011606000020612AE847B,905.75,5.810719,0.375
E28011606000020612AE846B,905.75,1.6505634,0.8125
E28011606000020612AEE27C,905.75,1.3437672,0.9375
E28011606000020612AFC28D,905.75,0.12885438,-0.9375
E28011606000020612AEB8AB,905.75,0.48473793,-0.125
E28011606000020612AEB84C,905.75,1.8100973,0.0625
E28011606000020612AEB8BB,906.25,0.20862138,0.5625
E28011606000020612B0344D,906.25,4.5160394,0.0625
E28011606000020612AE84CC,906.25,5.2278066,0.625
E28011606000020612AEB87C,906.25,5.939574,2.5
E28011606000020612AEB84B,906.25,0.15339808,0.1875
E28011606000020612AEB89B,906.25,0.7485826,0.0625
E28011606000020612AEE20B,906.25,0.43565056,0.25
E28011606000020612B0348D,906.25,4.890331,0.4375
E28011606000020612AEE2DC,906.25,1.6382915,0.0625
E28011606000020612B0348C,906.25,3.503612,-0.1875
E28011606000020612AEE2CC,906.25,4.5037675,0.375
E28011606000020612AEB81B,906.25,3.4545248,-2.1875
E28011606000020612AE7ABB,906.25,1.8469129,-0.0625
E28011606000020612AEE2EC,906.25,0.3742913,0.0
E28011606000020612AEB80C,912.25,0.25157285,0.5625
E28011606000020612AEE42C,912.25,2.0309906,0.125
E28011606000020612AE841B,912.25,0.478602,0.25
E28011606000020612AEB8EC,912.25,6.142059,0.125
E28011606000020612AE849B,912.25,0.638136,0.125
E28011606000020612B0349D,912.25,4.865787,0.125
E28011606000020612B0345D,912.25,1.5094371,-0.0625
E28011606000020612AEE45C,912.25,1.2026409,0.0
E28011606000020612AE7AAB,912.25,0.79767,0.125
E28011606000020612AEE41C,912.25,5.7248163,-0.125
E28011606000020612B0942C,912.25,0.42951462,0.8125
E28011606000020612AFC4AD,912.25,6.221826,-0.125
E28011606000020612AEB8BC,924.75,1.3867186,-0.125
E28011606000020612AEE28C,924.75,5.0621367,0.75
E28011606000020612AEB83C,924.75,4.8228354,0.125
E28011606000020612B0347D,924.75,1.9941751,-0.375
E28011606000020612AE846C,924.75,0.14726216,0.125
E28011606000020612AE840B,924.75,1.7426022,0.0625
E28011606000020612AEB8FC,924.75,0.06749515,-0.9375
E28011606000020612AEB8CC,924.75,4.534447,0.25
E28011606000020612AE84DB,924.75,0.9756118,0.0625
E28011606000020612AE7ADC,924.75,1.6996508,0.0625
E28011606000020612AE7AEC,924.75,6.0193405,0.375
E28011606000020612AE7A8C,924.75,4.135612,-0.0625
E28011606000020612AE840C,924.75,5.822991,0.625
E28011606000020612AFC25D,924.75,0.16566992,0.4375
E28011606000020612AEB8EB,924.75,4.0128937,0.0
E28011606000020612AE848B,924.75,6.0009327,-0.125
E28011606000020612AE847C,927.25,4.8228354,0.0625
E28011606000020612B0349C,927.25,6.0070686,0.0
E28011606000020612AE842B,927.25,5.7861757,0.1875
E28011606000020612AE7A8B,927.25,5.651185,0.0
E28011606000020612AEE40C,927.25,4.9700975,0.25
E28011606000020612B0346D,927.25,2.810253,0.1875
E28011606000020612AEE23C,927.25,2.7611654,-2.625
E28011606000020612AE84EB,927.25,1.1351458,-0.1875
E28011606000020612AEB8FB,927.25,2.7734373,0.1875
E28011606000020612AEB80B,927.25,0.11044662,0.0
E28011606000020612AEE2FC,927.25,5.178719,0.375
E28011606000020612B034BC,927.25,5.822991,0.25
E28011606000020612AE7ABC,905.25,1.8469129,0.0
E28011606000020612AE7ACB,905.25,0.79767,0.1875
E28011606000020612AE84CB,905.25,2.712078,0.1875
E28011606000020612AEB85B,905.25,6.0438843,0.0
E28011606000020612AEB8DB,905.25,0.8651652,-0.1875
E28011606000020612AE849C,905.25,3.6386025,0.0625
E28011606000020612AE7ACC,905.25,5.5591464,-0.25
E28011606000020612AE7A9B,905.25,5.0866804,0.5
E28011606000020612AEB8BB,905.25,3.6140587,0.125
E28011606000020612AEB8AC,905.25,4.558991,-0.0625
E28011606000020612AE843C,905.25,1.7180585,0.125
E28011606000020612AE846B,905.25,1.7364663,0.125
E28011606000020612AEB85C,905.25,5.319845,-0.375
E28011606000020612AEE21C,905.25,4.534447,-0.125
E28011606000020612AFC2FD,916.25,1.5707964,-0.4375
E28011606000020612AE7ABB,916.25,5.0744085,0.9375
E28011606000020612AE7AFB,916.25,3.9515345,0.0625
E28011606000020612AEB84C,916.25,6.05002,0.375
E28011606000020612AEB89B,916.25,1.4112623,0.0
E28011606000020612AE7AEB,916.25,1.6628351,0.0625
E28011606000020612AFC28D,916.25,4.6448936,-0.25
E28011606000020612AE842C,916.25,0.5399612,0.125
E28011606000020612AE84CC,916.25,5.3014374,-0.25
E28011606000020612AE84BC,916.25,1.0492429,0.0
E28011606000020612AE847B,916.25,0.38042724,0.25
E28011606000020612B0348D,916.25,5.0805445,-0.0625
E28011606000020612B0345D,907.25,6.2647777,0.1875
E28011606000020612AE840B,907.25,5.737088,0.0625
E28011606000020612AE841B,907.25,2.1168935,-0.125
E28011606000020612AEB8EC,907.25,4.239923,-0.125
E28011606000020612AEE22C,907.25,0.57064086,0.0
E28011606000020612B0349D,907.25,0.3436117,-0.125
E28011606000020612AEE42C,907.25,0.2638447,-0.5
E28011606000020612AEB84B,907.25,6.0254765,0.5625
E28011606000020612AEE20C,907.25,4.7737484,-0.0625
E28011606000020612AF20EC,907.25,4.7737484,0.0
E28011606000020612AEE2EC,907.25,0.12885438,0.25
E28011606000020612AE844C,907.25,2.2702916,0.125
E28011606000020612B0348C,913.75,0.90811664,0.125
E28011606000020612AE7ADC,913.75,0.99401957,-0.25
E28011606000020612AE84AB,913.75,0.11044662,0.4375
E28011606000020612AEB88B,913.75,5.651185,0.125
E28011606000020612AEB8CC,913.75,0.8651652,0.375
E28011606000020612AE842B,913.75,6.0377483,-0.125
E28011606000020612AE849B,913.75,0.46019423,-0.125
E28011606000020612AEE4BC,913.75,4.6571655,-0.25
E28011606000020612AEB87C,913.75,5.8475347,-0.0625
E28011606000020612AEB8CB,913.75,6.2770495,0.25
E28011606000020612AEB86B,913.75,5.3014374,0.25
E28011606000020612AE846C,913.75,3.417709,-0.125
E28011606000020612B034BC,904.25,5.28303,0.5
E28011606000020612AEE2DC,904.25,5.1296315,0.125
E28011606000020612AEE2FC,904.25,6.2034183,0.0
E28011606000020612B0346D,904.25,2.3930101,-0.0625
E28011606000020612AE847C,904.25,0.69949526,0.1875
E28011606000020612AEE20B,904.25,0.9265244,0.0
E28011606000020612B0344D,904.25,5.276894,0.0625
E28011606000020612AE84DB,904.25,5.503923,-0.5
E28011606000020612B0349C,904.25,4.9455543,0.25
E28011606000020612AEE40C,904.25,6.252506,0.0
E28011606000020612AE7A8B,904.25,4.473088,0.0625
E28011606000020612AE7AAB,904.25,5.91503,-0.375
E28011606000020612AEB8FC,904.25,4.3503695,-0.5625
E28011606000020612AEB8BC,917.25,5.939574,0.5
E28011606000020612AE7ABC,917.25,5.4180202,0.0625
E28011606000020612AEE41C,917.25,1.4112623,0.1875
E28011606000020612AEE2CC,917.25,0.2638447,-0.0625
E28011606000020612AE846B,917.25,5.2339425,0.0
E28011606000020612AFC4AD,917.25,4.7982917,-0.25
E28011606000020612AE840C,917.25,5.190991,-0.125
E28011606000020612AEB83B,917.25,0.07363108,0.25
E28011606000020612AE7A8C,917.25,5.927302,-0.125
E28011606000020612AF90BD,917.25,1.3989905,-0.0625
E28011606000020612AEE2AC,917.25,4.8964667,0.375
E28011606000020612AEB8FB,917.25,5.019185,0.25
E28011606000020612AE7A9B,917.25,4.000622,0.0
E28011606000020612B0345D,915.75,0.46633017,0.25
E28011606000020612AEB80B,915.75,5.4671073,0.0
E28011606000020612AEE4DC,915.75,0.65040785,0.25
E28011606000020612AEB8AC,915.75,5.7984476,-0.125
E28011606000020612AE847B,915.75,0.5645049,-0.25
E28011606000020612AE7ACC,915.75,5.6327777,-0.125
E28011606000020612AEE28C,915.75,1.1719613,-0.25
E28011606000020612AE84CC,915.75,5.424156,0.1875
E28011606000020612AEB89B,915.75,4.6142144,0.0625
E28011606000020612AE849C,915.75,1.1044662,0.0625
E28011606000020612AE841B,915.75,5.6327777,-0.0625
E28011606000020612AEE23C,915.75,1.3069516,0.1875
E28011606000020612AE840B,915.75,0.92038846,-0.125
E28011606000020612AFC27D,915.75,5.3934765,-0.5625
E28011606000020612AE848B,915.75,1.1106021,-0.0625
E28011606000020612AE84BC,908.25,6.1236515,0.1875
E28011606000020612AE7ADC,908.25,2.1905246,-0.375
E28011606000020612B0347D,908.25,5.7248163,-0.125
E28011606000020612AEE22C,908.25,0.43565056,0.0
E28011606000020612B0348D,908.25,0.957204,-0.125
E28011606000020612AE7ACB,908.25,0.31293207,0.5625
E28011606000020612AEB80C,908.25,1.1290098,0.9375
E28011606000020612AE7ABB,908.25,1.1596894,0.0
E28011606000020612AEE24C,908.25,0.06749515,0.5625
E28011606000020612AE842C,908.25,5.6327777,-0.125
E28011606000020612AEE21C,908.25,3.828816,-0.0625
E28011606000020612AE84EB,908.25,4.9946413,0.5
E28011606000020612AEB86C,908.25,5.645049,0.0625
E28011606000020612B0349D,909.25,5.8475347,0.25
E28011606000020612AEB86B,909.25,0.10431069,0.0625
E28011606000020612AEB8EC,909.25,0.558369,-0.0625
E28011606000020612AEE2EC,909.25,2.730486,0.0
E28011606000020612AEB8BB,909.25,5.743224,0.1875
E28011606000020612AEB84C,909.25,1.2087768,0.25
E28011606000020612AE7AEC,909.25,3.7367773,0.1875
E28011606000020612AE7AEB,909.25,3.6938257,0.25
E28011606000020612AEE45C,909.25,5.350525,0.875
E28011606000020612AEE42C,909.25,3.0495539,0.1875
E28011606000020612B0348C,909.25,2.1843886,-0.125
E28011606000020612AE849B,909.25,1.1903691,0.0
E28011606000020612B0346D,925.25,0.17794177,0.25
E28011606000020612AEB8CB,925.25,0.9817477,-0.1875
E28011606000020612AFC28D,925.25,1.9573594,-0.125
E28011606000020612AEE20C,925.25,1.7978255,-0.0625
E28011606000020612AE847C,925.25,5.491651,-0.375
E28011606000020612B034BC,925.25,6.2770495,0.0625
E28011606000020612AE7AAB,925.25,5.037593,0.125
E28011606000020612AEE20B,925.25,2.7366216,-0.125
E28011606000020612AEB81B,925.25,5.3014374,-0.1875
E28011606000020612AEB8CC,925.25,4.3380976,0.25
E28011606000020612AEB8EB,925.25,3.9331267,-0.0625
E28011606000020612B0349C,925.25,0.19634955,0.1875
E28011606000020612AEB8BC,915.25,0.08590292,0.375
E28011606000020612B0345D,915.25,0.558369,0.1875
E28011606000020612AF202C,915.25,0.50928164,-0.5
E28011606000020612AE84DB,915.25,6.1297874,1.0625
E28011606000020612AEE2DC,915.25,5.3137093,0.1875
E28011606000020612AE84CB,915.25,5.8720784,0.1875
E28011606000020612AE84AB,915.25,6.0193405,0.75
E28011606000020612AEE21B,915.25,4.233787,0.9375
E28011606000020612AE7ABC,915.25,6.0316124,0.875
E28011606000020612AEB8FB,915.25,5.3014374,0.25
E28011606000020612AEE2FC,915.25,4.890331,-0.25
E28011606000020612AE843C,915.25,5.6818647,-0.125
E28011606000020612AE7A8B,915.25,1.9205439,0.1875
E28011606000020612AE84AC,915.25,4.9946413,0.125
E28011606000020612AFC2FD,915.25,1.9880391,-0.1875
E28011606000020612AEE2BC,918.25,3.3993015,0.0
E28011606000020612AEE40C,918.25,0.47246608,-0.125
E28011606000020612AEB85C,918.25,4.9087386,0.625
E28011606000020612AEB8AC,918.25,1.7794178,0.5
E28011606000020612AE840C,918.25,4.9394183,0.4375
E28011606000020612B0344D,918.25,1.6321555,0.1875
E28011606000020612AE842B,918.25,1.7180585,0.5625
E28011606000020612AE846C,918.25,5.325981,0.25
E28011606000020612AEE4EC,918.25,5.8413987,0.625
E28011606000020612AEE4DC,918.25,2.5157285,2.5625
E28011606000020612AEE2CC,918.25,0.06749515,-0.0625
E28011606000020612AEB88B,918.25,1.2824079,0.125
E28011606000020612AEB89B,918.25,4.147884,-0.125
E28011606000020612AEB8FC,918.25,1.5462526,0.0
E28011606000020612AEB8DB,903.25,1.4664856,-0.0625
E28011606000020612AEE24C,903.25,4.295146,-0.0625
E28011606000020612AEB87C,903.25,5.8720784,0.5
E28011606000020612AE840B,903.25,0.4233787,0.0625
E28011606000020612AE7ADC,903.25,0.0,0.25
E28011606000020612AFC21D,903.25,6.1727386,-2.125
E28011606000020612AE842C,903.25,4.1969714,0.0625
E28011606000020612AEE27C,903.25,5.0621367,0.1875
E28011606000020612AEB85B,903.25,0.59518456,0.125
E28011606000020612AEB8AB,903.25,0.7117671,-0.25
E28011606000020612AE7ACB,903.25,1.0124273,-0.1875
E28011606000020612B0347D,903.25,0.9142526,-0.0625
E28011606000020612AE849C,903.25,4.2706027,0.125
E28011606000020612AEE23C,903.25,0.15339808,1.5625
E28011606000020612AEB80B,923.25,3.9269907,-0.125
E28011606000020612AEE2EC,923.25,5.810719,0.125
E28011606000020612AE846B,923.25,0.7117671,-0.125
E28011606000020612AEB8EC,923.25,0.33747578,0.25
E28011606000020612AEB84C,923.25,1.3437672,-0.125
E28011606000020612AEE41C,923.25,5.6266418,0.5625
E28011606000020612AEE42C,923.25,5.5714183,0.875
E28011606000020612AE84EB,923.25,1.6505634,0.0625
E28011606000020612AFC4AD,923.25,1.2824079,0.0625
E28011606000020612AEE21C,923.25,0.20248546,-0.0625
E28011606000020612AFC48D,923.25,0.46019423,0.25
E28011606000020612AEB83B,921.75,5.5714183,0.5
E28011606000020612AEB8CC,921.75,5.491651,0.0625
E28011606000020612AFC49D,921.75,5.2339425,0.5625
E28011606000020612AEB8BB,921.75,0.030679615,0.125
E28011606000020612B0349C,921.75,0.99401957,0.1875
E28011606000020612B034BC,921.75,3.9269907,0.0625
E28011606000020612B0346D,921.75,4.3503695,0.25
E28011606000020612AEB88C,921.75,1.3744467,-0.25
E28011606000020612AE7A8C,921.75,4.8289714,0.5
E28011606000020612AE7AAB,921.75,6.1359234,0.1875
E28011606000020612AE845C,921.75,5.479379,0.0
E28011606000020612AE7AEC,921.75,0.75471854,0.625
E28011606000020612B0942C,912.75,0.14726216,0.5625
E28011606000020612AEB80C,912.75,0.20248546,0.25
E28011606000020612AEB8FB,912.75,5.988661,0.125
E28011606000020612AE7ABB,912.75,5.970253,0.25
E28011606000020612AEB81B,912.75,1.5830681,0.25
E28011606000020612AE847B,912.75,1.3744467,-0.0625
E28011606000020612AEE45C,912.75,0.9510681,0.0625
E28011606000020612AE7ABC,912.75,0.20248546,0.9375
E28011606000020612AEB8BC,912.75,0.7424467,0.1875
E28011606000020612B0349D,912.75,4.700117,0.0625
E28011606000020612AEB8CB,912.75,0.17794177,-0.0625
E28011606000020612AE7A8B,912.75,5.970253,0.25
E28011606000020612AEE2BC,912.75,4.8228354,0.125
E28011606000020612AE847C,912.75,4.8228354,-0.125
E28011606000020612AFC28D,912.75,5.645049,0.0
E28011606000020612B0348C,912.75,1.2026409,0.125
E28011606000020612AEE20C,912.75,0.8897089,-0.125
E28011606000020612AEE20B,919.75,0.47246608,0.125
E28011606000020612AFC27D,919.75,0.7608545,0.0
E28011606000020612AEB89B,919.75,3.9392626,0.0625
E28011606000020612AE848B,919.75,0.11658254,-0.0625
E28011606000020612AE841B,919.75,5.0744085,0.125
E28011606000020612AE849B,919.75,5.0744085,0.25
E28011606000020612B0344D,919.75,1.3130876,-0.1875
E28011606000020612AE846C,919.75,1.6996508,-0.0625
E28011606000020612AFC26D,919.75,0.15339808,0.5
E28011606000020612AFC4BD,919.75,0.398835,0.0
E28011606000020612AE843C,919.75,4.5958066,-0.25
E28011606000020612AEB8FC,919.75,1.036971,0.75
E28011606000020612AEE40C,919.75,0.3681554,0.1875
E28011606000020612AEE28C,919.75,0.049087387,0.25
E28011606000020612AE84CC,925.75,1.2087768,-0.5
E28011606000020612AE842B,925.75,6.1666026,0.125
E28011606000020612AE840B,925.75,4.7982917,0.0
E28011606000020612AE84BC,925.75,5.5223308,0.0
E28011606000020612B0347D,925.75,1.7241944,-0.1875
E28011606000020612AE840C,925.75,5.773904,0.0625
E28011606000020612AEE2CC,925.75,1.3069516,-0.625
E28011606000020612AFC25D,925.75,6.0132046,0.25
E28011606000020612AEE23C,925.75,6.209554,0.125
E28011606000020612AE846B,925.75,0.06749515,0.0625
E28011606000020612AEE2DC,925.75,4.4362726,0.0
E28011606000020612AE7ACB,925.75,2.3255148,0.75
E28011606000020612AEB8DC,916.75,4.3565054,0.125
E28011606000020612AEE42C,916.75,1.0246992,-0.25
E28011606000020612AEB84B,916.75,0.46019423,-0.0625
E28011606000020612AEE21B,916.75,4.0374374,0.0
E28011606000020612AEB8EB,916.75,5.5530105,0.4375
E28011606000020612AE84AB,916.75,5.78004,0.1875
E28011606000020612AEB84C,916.75,5.902758,0.1875
E28011606000020612AEB85C,916.75,4.9271464,0.0
E28011606000020612AE84CB,916.75,5.577554,0.5625
E28011606000020612AEE2EC,916.75,0.83448553,0.125
E28011606000020612AEE4DC,916.75,0.17794177,0.5
E28011606000020612B0349C,916.75,5.5284667,0.1875
E28011606000020612AEE41C,916.75,1.4848934,0.0625
E28011606000020612AE842C,907.75,5.816855,-0.0625
E28011606000020612AE7ADC,907.75,2.1905246,0.375
E28011606000020612B0346D,907.75,1.4787575,0.5625
E28011606000020612AEE24C,907.75,0.16566992,0.9375
E28011606000020612AE844C,907.75,5.3137093,0.5
E28011606000020612AEB8DB,907.75,0.49087384,0.125
E28011606000020612AE7AEB,907.75,4.098797,0.0625
E28011606000020612AEB8CC,907.75,5.178719,-0.1875
E28011606000020612AE847B,907.75,5.356661,-0.0625
E28011606000020612AEE21C,907.75,3.9453986,0.25
E28011606000020612AEB80B,907.75,5.743224,0.625
E28011606000020612AEB8BB,907.75,2.9881945,0.25
E28011606000020612AE7ABB,907.75,1.3192235,0.1875
E28011606000020612AE848C,907.75,0.06749515,-0.1875
E28011606000020612AEB8FB,907.75,1.1965051,0.4375
E28011606000020612B034BC,907.75,1.0737865,-0.0625
E28011606000020612AF20EC,907.75,1.2149128,0.0
E28011606000020612AFC4AD,911.75,0.30066022,-0.125
E28011606000020612AEB8EC,911.75,0.012271847,-0.0625
E28011606000020612AE7A8B,911.75,6.221826,0.125
E28011606000020612AEB86C,911.75,4.7369328,0.0625
E28011606000020612AEB88C,911.75,0.11658254,0.125
E28011606000020612AEB8CB,911.75,0.398835,0.25
E28011606000020612AE847C,911.75,5.031457,0.0625
E28011606000020612AEE22C,911.75,5.8782144,0.125
E28011606000020612AEB8BC,911.75,0.88357294,0.125
E28011606000020612B0349D,911.75,1.8837284,0.0625
E28011606000020612AE845C,911.75,4.730797,0.4375
E28011606000020612AEB89B,914.75,4.8166995,-0.0625
E28011606000020612AEE4AC,914.75,0.96947587,0.1875
E28011606000020612AEE40C,914.75,0.43565056,-0.375
E28011606000020612AFC27D,914.75,5.74936,0.375
E28011606000020612AEE4BC,914.75,4.405593,0.5
E28011606000020612AE841B,914.75,5.9641175,0.0
E28011606000020612AE7AAB,914.75,0.61972827,0.0625
E28011606000020612B0344D,914.75,2.067806,0.375
E28011606000020612AFC48D,914.75,4.7860203,0.5
E28011606000020612B0348D,914.75,5.2462144,-0.0625
E28011606000020612AE849B,914.75,0.14726216,0.1875
E28011606000020612AE84CC,914.75,5.7923117,-0.125
E28011606000020612AEE20C,914.75,0.46633017,0.0
E28011606000020612B0348C,914.75,0.62586415,0.125
E28011606000020612B0347D,924.25,5.270758,-0.125
E28011606000020612AE7A8C,924.25,4.246059,-0.5
E28011606000020612AEB8FC,924.25,0.17794177,0.5
E28011606000020612AE849C,924.25,5.8782144,0.75
E28011606000020612AE84AB,924.25,0.12885438,0.0
E28011606000020612AE840C,924.25,6.0070686,0.1875
E28011606000020612AEB8EB,924.25,4.1785636,0.0625
E28011606000020612AEE23C,924.25,0.398835,-0.625
E28011606000020612AEB80C,924.25,0.7608545,0.125
E28011606000020612AE84DB,924.25,1.1351458,0.375
E28011606000020612AE842B,924.25,0.2945243,0.0
E28011606000020612AEB85B,924.25,5.123496,0.125
E28011606000020612AEE45C,924.25,1.3192235,-0.125
E28011606000020612AEE41C,921.25,6.1850104,-0.125
E28011606000020612AE7AEB,921.25,0.92038846,0.0
E28011606000020612AEB84C,921.25,4.9639616,-0.125
E28011606000020612AE7ABC,921.25,4.730797,0.375
E28011606000020612AEE2FC,921.25,0.5399612,0.0
E28011606000020612AEE2BC,921.25,5.8536706,0.0625
E28011606000020612AEE2EC,921.25,6.148195,-0.125
E28011606000020612AE7A9B,921.25,5.166447,-2.3125
E28011606000020612AE842C,921.25,5.5530105,-0.125
E28011606000020612B0346D,921.25,4.4914956,0.1875
E28011606000020612AE846B,921.25,4.3565054,0.5
E28011606000020612B0349C,921.25,1.1106021,0.125
E28011606000020612AFC49D,921.25,5.61437,0.1875
E28011606000020612AEB81B,921.25,0.05522331,-0.0625
E28011606000020612AEE42C,921.25,5.988661,1.125
E28011606000020612AFC26D,918.75,0.72403896,0.5
E28011606000020612AEB8BB,918.75,0.5890486,-0.0625
E28011606000020612AE7AEC,918.75,1.601476,0.625
E28011606000020612AEE2CC,918.75,6.234098,-0.0625
E28011606000020612AE840B,918.75,0.0,0.0
E28011606000020612AEE2DC,918.75,5.0682726,0.25
E28011606000020612AE7A9C,918.75,5.031457,0.5625
E28011606000020612B034BC,918.75,1.4296701,0.0
E28011606000020612B0345D,918.75,6.062292,0.0
E28011606000020612AEB8FB,918.75,4.6571655,0.125
E28011606000020612AEE4EC,918.75,5.767768,0.375
E28011606000020612AE84BC,918.75,0.6872234,0.5625
E28011606000020612AFC28D,918.75,3.9944859,0.1875
E28011606000020612AEE4DC,918.75,2.5341363,-0.125
E28011606000020612AE7ADC,918.75,5.816855,0.25
E28011606000020612AE7ABB,918.75,4.1846995,0.1875
E28011606000020612AEB86C,904.75,0.3926991,0.0
E28011606000020612B0349D,904.75,4.3687773,-0.0625
E28011606000020612AEB8CC,904.75,5.9579816,-0.1875
E28011606000020612AFC2ED,904.75,0.06749515,0.125
E28011606000020612AEB86B,904.75,1.1658254,1.1875
E28011606000020612AE843C,904.75,1.9021362,-0.5
E28011606000020612AE84EB,904.75,6.209554,0.1875
E28011606000020612AEB87C,904.75,2.4298255,2.1875
E28011606000020612AFC21D,904.75,5.5284667,0.5
E28011606000020612AEE20B,904.75,0.877437,0.4375
E28011606000020612AEE21B,904.75,5.822991,0.375
E28011606000020612AEB89B,904.75,1.116738,-0.1875
E28011606000020612AEE40C,909.75,1.521709,0.1875
E28011606000020612AE7AAB,909.75,4.6142144,-0.25
E28011606000020612AEE22C,909.75,0.049087387,0.125
E28011606000020612AEB84B,909.75,1.6689711,0.375
E28011606000020612AEB8AB,909.75,6.1972823,0.125
E28011606000020612AEB85C,909.75,0.7608545,0.0
E28011606000020612AEB83B,909.75,1.4542137,0.0625
E28011606000020612AEE20C,909.75,4.4301367,0.125
E28011606000020612AEB8DB,909.75,6.21569,0.1875
E28011606000020612AFC48D,909.75,0.0061359233,0.25
E28011606000020612AFC4BD,909.75,0.3436117,1.3125
E28011606000020612B0344D,909.75,3.4054372,0.125
E28011606000020612AEE21C,909.75,0.21475731,0.25
E28011606000020612AE84CC,910.75,0.9387962,0.0
E28011606000020612AE841B,910.75,0.9142526,0.625
E28011606000020612AE7AEB,910.75,0.159534,0.0625
E28011606000020612AE847C,910.75,5.270758,0.0625
E28011606000020612AEE2FC,910.75,5.7125444,0.5
E28011606000020612AEB88C,910.75,0.34974763,0.0
E28011606000020612AE7ACB,910.75,6.209554,0.0625
E28011606000020612AEB8AC,910.75,3.417709,0.0
E28011606000020612AFC4AD,910.75,0.6565438,-0.5625
E28011606000020612AEB8EB,910.75,0.31293207,-0.0625
E28011606000020612AEB80B,910.75,1.1842332,1.0625
E28011606000020612AE842B,910.75,0.0,0.375
E28011606000020612AE849C,926.75,5.2216706,-0.1875
E28011606000020612AF52DD,926.75,0.6810875,0.875
E28011606000020612AEE42C,926.75,4.7676125,-0.8125
E28011606000020612AEB8BC,926.75,4.1662917,0.25
E28011606000020612AEE2EC,926.75,5.270758,0.25
E28011606000020612B0349C,926.75,6.1052437,0.125
E28011606000020612AE846C,926.75,6.062292,-0.0625
E28011606000020612AE7A8B,926.75,5.78004,0.0625
E28011606000020612AEB84C,926.75,0.4233787,-0.1875
E28011606000020612AEB80C,926.75,0.1840777,0.0
E28011606000020612AEB8CB,926.75,0.5829127,0.0625
E28011606000020612AEE2BC,926.75,4.9700975,0.625
E28011606000020612AE7AEC,926.75,5.7125444,0.125
E28011606000020612AEE23C,926.75,5.7923117,0.25
E28011606000020612AEB83C,926.75,4.246059,-0.625
E28011606000020612B0348C,913.25,1.0431069,0.125
E28011606000020612AE7ABB,913.25,5.6941366,-0.125
E28011606000020612B0345D,913.25,1.1290098,-0.0625
E28011606000020612AE7ADC,913.25,1.1228739,-0.0625
E28011606000020612B0347D,913.25,4.577399,-0.1875
E28011606000020612AEB86C,913.25,1.276272,0.5
E28011606000020612AE848B,913.25,1.5339808,-0.25
E28011606000020612AEE4BC,913.25,4.7676125,0.875
E28011606000020612AEB8FB,913.25,5.8413987,0.125
E28011606000020612AE840B,913.25,4.5221753,0.125
E28011606000020612AE847B,913.25,1.2271847,0.0625
E28011606000020612B0348D,913.25,5.5714183,0.0
E28011606000020612AEB8FC,913.25,5.491651,0.25
E28011606000020612B034BC,913.25,5.743224,0.125
E28011606000020612AEB8BB,913.25,1.6505634,-0.0625
E28011606000020612AEB89B,914.25,4.9210105,0.1875
E28011606000020612AEE4AC,914.25,1.2333206,-0.125
E28011606000020612B0346D,914.25,6.234098,0.0625
E28011606000020612AE849B,914.25,0.33133984,-0.1875
E28011606000020612AEB8EC,914.25,5.442564,0.1875
E28011606000020612AE84AB,914.25,6.2647777,-0.125
E28011606000020612AE843C,914.25,5.8659425,0.1875
E28011606000020612AEB88B,914.25,5.675729,-0.0625
E28011606000020612AEE20B,914.25,4.9148746,0.125
E28011606000020612AEE4EC,914.25,4.5283113,0.375
E28011606000020612AEB8CC,914.25,0.7731263,0.125
E28011606000020612AEB8DC,914.25,5.037593,0.1875
E28011606000020612AEE4DC,914.25,4.534447,0.125
E28011606000020612AFC4BD,919.25,0.50928164,0.1875
E28011606000020612AEB85C,919.25,1.4173982,0.75
E28011606000020612AE847C,919.25,0.53382534,-0.125
E28011606000020612AEE2AC,919.25,1.0062914,0.125
E28011606000020612AEB85B,919.25,6.1297874,0.125
E28011606000020612AEE22C,919.25,4.0497093,0.25
E28011606000020612AEB8DB,919.25,1.2026409,0.5
E28011606000020612AEE41C,919.25,0.638136,0.125
E28011606000020612AE7A9B,919.25,6.2586417,0.5625
E28011606000020612AE842C,919.25,6.1175156,-0.125
E28011606000020612AEE20C,919.25,5.743224,0.5625
E28011606000020612AFC27D,919.25,0.7485826,-0.5625
E28011606000020612AFC26D,919.25,0.47246608,0.625
E28011606000020612AEE21C,919.25,1.2087768,0.0
E28011606000020612AEB83B,919.25,5.896622,0.0
E28011606000020612AEE2FC,906.75,5.933438,0.5625
E28011606000020612AE7ACC,906.75,1.9880391,-0.5
E28011606000020612AE844C,906.75,2.5280004,0.0
E28011606000020612AEB84B,906.75,6.1666026,1.1875
E28011606000020612AEE40C,906.75,5.620506,0.125
E28011606000020612AE849C,906.75,0.07363108,0.1875
E28011606000020612AE84CC,906.75,5.190991,1.125
E28011606000020612AE84EB,906.75,5.5407386,-0.5625
E28011606000020612AE842B,906.75,0.9878836,-0.0625
E28011606000020612AFC21D,906.75,4.8044276,2.25
E28011606000020612AEB87C,906.75,6.1175156,0.625
E28011606000020612B0349C,902.75,5.264622,-0.0625
E28011606000020612AEE27C,902.75,5.2523503,0.0
E28011606000020612AE84BC,902.75,1.276272,0.0
E28011606000020612AEE2EC,902.75,4.0313015,0.375
E28011606000020612AE841B,902.75,5.8720784,0.8125
E28011606000020612AE7ABB,902.75,2.4666412,-0.0625
E28011606000020612AE7AEC,902.75,5.424156,0.125
E28011606000020612AE7AEB,902.75,5.1296315,-0.25
E28011606000020612AEB8AC,902.75,4.9823694,0.0625
E28011606000020612AEB84C,902.75,5.608234,0.0625
E28011606000020612AEB80C,902.75,5.178719,0.125
E28011606000020612AEB8CB,902.75,2.2580197,0.375
E28011606000020612AF209C,902.75,1.1903691,-3.0
E28011606000020612B034BC,903.75,5.3812046,0.125
E28011606000020612AE840B,903.75,0.31293207,-0.0625
E28011606000020612AE84CB,903.75,6.2034183,0.125
E28011606000020612AEB8BC,903.75,5.988661,0.0
E28011606000020612AEB8AB,903.75,3.7613208,0.125
E28011606000020612AEE42C,903.75,4.227651,1.0625
E28011606000020612AEB88C,903.75,5.006913,0.0
E28011606000020612AE7ACB,903.75,0.7608545,-0.0625
E28011606000020612B0348C,903.75,4.2828746,-0.1875
E28011606000020612B0344D,903.75,5.473243,0.0
E28011606000020612B0349D,903.75,4.730797,0.0
E28011606000020612AFC28D,903.75,0.6320001,-1.0625
E28011606000020612AE7AAB,903.75,6.0070686,0.125
E28011606000020612B0348D,903.75,5.8536706,-0.125
E28011606000020612AE846B,926.25,6.2770495,0.0
E28011606000020612AE84AB,926.25,5.921166,-0.1875
E28011606000020612B000ED,926.25,6.0193405,0.1875
E28011606000020612AFC4AD,926.25,0.030679615,0.375
E28011606000020612AE7ABC,926.25,0.5645049,0.0
E28011606000020612AEB88B,926.25,0.5890486,-0.25
E28011606000020612AEB8FB,926.25,6.092972,-0.0625
E28011606000020612AE847B,926.25,4.859651,-0.25
E28011606000020612AEE20B,926.25,5.933438,-0.125
E28011606000020612AFC48D,926.25,2.2641556,-0.875
E28011606000020612AEB89B,926.25,5.473243,0.25
E28011606000020612B0347D,917.75,0.3742913,0.5
E28011606000020612AE7A8B,917.75,1.4542137,0.25
E28011606000020612AE849B,917.75,5.3750687,-0.0625
E28011606000020612B0346D,917.75,5.436428,0.0625
E28011606000020612AF202C,917.75,2.1598449,0.875
E28011606000020612AEB86B,917.75,4.5283113,-0.375
E28011606000020612AE846C,917.75,5.6327777,0.0
E28011606000020612AE848B,917.75,0.48473793,0.75
E28011606000020612AEE23C,917.75,0.6320001,0.5625
E28011606000020612AEB8EB,917.75,5.3812046,0.0
E28011606000020612AEE20C,917.75,2.9206994,0.0
E28011606000020612AE843C,917.75,5.019185,0.0625
E28011606000020612AEE2DC,917.75,5.0928164,0.5625
E28011606000020612AEB8CC,922.25,5.350525,-0.1875
E28011606000020612AEB86C,922.25,2.4420974,0.0
E28011606000020612AEE40C,922.25,0.03681554,0.0625
E28011606000020612AE847C,922.25,6.240234,0.375
E28011606000020612AEB8BB,922.25,6.1788745,0.0
E28011606000020612B0349C,922.25,0.8651652,0.375
E28011606000020612AEE2CC,922.25,5.031457,0.25
E28011606000020612AE841B,922.25,4.552855,0.0625
E28011606000020612AE7ADC,922.25,5.019185,0.5
E28011606000020612B0345D,922.25,5.0744085,0.0
E28011606000020612AE842C,922.25,5.503923,0.125
E28011606000020612AEB8FC,922.25,0.62586415,-1.25
E28011606000020612AEB80B,922.25,4.15402,-0.125
E28011606000020612AE84BC,911.25,5.160311,0.0
E28011606000020612AE84CC,911.25,0.717903,0.0
E28011606000020612AEE24C,911.25,5.608234,0.0
E28011606000020612AEE21C,911.25,6.074564,0.125
E28011606000020612AEB80C,911.25,0.5767768,0.625
E28011606000020612AEE4EC,911.25,5.982525,0.0
E28011606000020612AEE2EC,911.25,5.2339425,0.25
E28011606000020612AEB84C,911.25,0.60132045,-0.0625
E28011606000020612AE849C,911.25,1.9328158,0.5
E28011606000020612AEB85B,911.25,1.1535536,0.25
E28011606000020612AE84DB,911.25,3.8165443,-0.125
E28011606000020612AE7AEB,911.25,0.01840777,-0.5
E28011606000020612AE7AEC,911.25,0.10431069,0.0625
E28011606000020612AEE2FC,911.25,5.6327777,0.125
E28011606000020612AEB87C,908.75,5.78004,-0.875
E28011606000020612AE7ABB,908.75,1.030835,0.25
E28011606000020612AEB8DB,908.75,0.15339808,0.0625
E28011606000020612AEB8EC,908.75,0.6872234,0.125
E28011606000020612AEB8CB,908.75,1.0983303,-0.125
E28011606000020612AEE45C,908.75,2.3500586,-0.125
E28011606000020612AEB84B,908.75,5.5591464,-0.0625
E28011606000020612AE844C,908.75,1.8469129,-0.75
E28011606000020612AEB83B,908.75,1.7855537,-0.0625
E28011606000020612B0348D,908.75,0.7731263,-0.125
E28011606000020612AEB85C,908.75,1.3192235,-0.125
E28011606000020612AE842B,908.75,0.8222137,0.0625
E28011606000020612AE7ACC,908.75,1.2026409,0.0625
E28011606000020612AE84AB,923.75,0.2638447,0.4375
E28011606000020612AE845C,923.75,1.7119225,-0.0625
E28011606000020612AE7AAB,923.75,5.4180202,0.75
E28011606000020612AE849B,923.75,1.2640002,0.25
E28011606000020612B0347D,923.75,2.2641556,-0.1875
E28011606000020612B0344D,923.75,0.44178647,0.125
E28011606000020612B0346D,923.75,3.7613208,0.1875
E28011606000020612AEE41C,923.75,5.5346026,0.0
E28011606000020612B0348C,923.75,4.7614765,0.0625
E28011606000020612AE84EB,923.75,1.5892041,-0.1875
E28011606000020612AEB89B,923.75,6.1727386,0.0
E28011606000020612AE7ACB,923.75,6.0193405,-0.5
E28011606000020612AEB88C,920.75,4.700117,0.0
E28011606000020612AE7A8C,920.75,5.11736,0.625
E28011606000020612AEB8BC,920.75,5.289166,0.0
E28011606000020612AE840B,920.75,5.908894,0.0625
E28011606000020612AEE22C,920.75,0.33747578,-0.125
E28011606000020612AEE2DC,920.75,5.3873405,0.375
E28011606000020612AFC4BD,920.75,0.14112623,0.0625
E28011606000020612AFC49D,920.75,5.6818647,0.125
E28011606000020612AEB8AC,920.75,1.2824079,0.1875
E28011606000020612AE840C,920.75,4.12334,0.25
E28011606000020612AE846B,920.75,4.5283113,0.125
E28011606000020612AFC26D,920.75,5.8904862,0.5
E28011606000020612B034BC,920.75,4.092661,0.0
E28011606000020612AE7A9B,920.25,5.620506,-0.5
E28011606000020612AEE23C,920.25,0.75471854,0.25
E28011606000020612AEB8BB,920.25,0.2699806,0.125
E28011606000020612AEB8EB,920.25,4.9271464,-0.125
E28011606000020612AE847C,920.25,0.398835,0.0
E28011606000020612AEB8FB,920.25,4.3319616,0.25
E28011606000020612AE7ABC,920.25,4.8228354,0.5
E28011606000020612AEB88B,920.25,0.6626797,0.25
E28011606000020612AEB81B,920.25,0.3436117,0.0
E28011606000020612AE7ADC,920.25,5.5346026,-0.5
E28011606000020612AEB80B,920.25,4.6142144,-0.25
E28011606000020612AE848B,920.25,0.20248546,0.8125
E28011606000020612AFC28D,920.25,0.36201948,0.125
E28011606000020612B0349D,920.25,5.773904,0.0625
E28011606000020612AFC27D,920.25,0.89584476,-0.125
E28011606000020612B0349C,922.75,0.77926224,0.0625
E28011606000020612AE7ABB,922.75,0.60132045,-0.0625
E28011606000020612AE84CC,922.75,1.748738,-1.9375
E28011606000020612AEE2FC,922.75,6.240234,0.25
E28011606000020612AEE2CC,922.75,4.9394183,0.875
E28011606000020612AE7A8B,922.75,0.4049709,0.0625
E28011606000020612AEB8FC,922.75,0.46019423,-0.8125
E28011606000020612AE846C,922.75,0.6933593,0.1875
E28011606000020612AEE42C,922.75,5.638913,0.1875
E28011606000020612AEB86C,922.75,2.3684664,-0.25
E28011606000020612B0942C,922.75,5.7002726,-0.0625
E28011606000020612AE843C,922.75,1.0737865,-0.375
E28011606000020612AEE4EC,910.25,0.049087387,0.5
E28011606000020612AEE2BC,910.25,4.878059,0.75
E28011606000020612AE842C,910.25,1.9450877,0.125
E28011606000020612AFC2FD,910.25,3.5588355,0.0
E28011606000020612AEB8CC,910.25,1.4296701,0.25
E28011606000020612AEE2EC,910.25,2.4666412,0.125
E28011606000020612AE84DB,910.25,1.0676507,0.625
E28011606000020612AE7AAB,910.25,1.3069516,0.1875
E28011606000020612AE842B,910.25,0.3681554,0.0625
E28011606000020612B0345D,910.25,2.0984857,-0.0625
E28011606000020612AEE4DC,910.25,6.086836,0.0625
E28011606000020612AE84AB,910.25,1.0676507,-0.0625
E28011606000020612AE847B,910.25,1.8714565,0.9375
E28011606000020612B0348D,905.75,5.0744085,0.5
E28011606000020612AFC48D,905.75,0.877437,0.75
E28011606000020612AFC4AD,905.75,5.3137093,0.0625
E28011606000020612AEE21B,905.75,5.460972,0.25
E28011606000020612AE7ACC,905.75,5.436428,0.25
E28011606000020612AEB8AB,905.75,0.5522331,0.25
E28011606000020612AEE27C,905.75,4.565127,0.375
E28011606000020612AEE21C,905.75,4.381049,0.125
E28011606000020612AE849B,905.75,1.9880391,0.0625
E28011606000020612B0346D,905.75,1.9205439,0.5625
E28011606000020612AE7ACB,905.75,0.6933593,0.8125
E28011606000020612AEB85B,905.75,5.8782144,0.25
E28011606000020612B034BC,906.25,1.6137478,0.0625
E28011606000020612AEE2DC,906.25,4.7553406,0.0625
E28011606000020612AEB87C,906.25,6.0132046,-0.0625
E28011606000020612AE7A9B,906.25,5.0560007,0.1875
E28011606000020612AE847C,906.25,0.17180584,0.0
E28011606000020612AE7ABC,906.25,1.6689711,0.125
E28011606000020612AEB8EC,906.25,4.1785636,0.5
E28011606000020612AE846B,906.25,1.6566993,0.25
E28011606000020612AFC21D,906.25,4.9762335,1.75
E28011606000020612AEB8DB,906.25,0.65040785,0.875
E28011606000020612AE7AEC,906.25,4.9700975,0.5
E28011606000020612AF20EC,906.25,5.184855,0.1875
E28011606000020612AE848B,912.25,4.9700975,0.0
E28011606000020612AEB89B,912.25,5.356661,0.0
E28011606000020612AE7ADC,912.25,4.473088,0.5
E28011606000020612B0344D,912.25,5.8598065,0.125
E28011606000020612AEB86B,912.25,5.902758,0.125
E28011606000020612AEB80B,912.25,0.5399612,0.1875
E28011606000020612B0348C,912.25,1.3314953,-0.125
E28011606000020612B0349C,912.25,0.0061359233,0.25
E28011606000020612AEB8AC,912.25,6.240234,0.5625
E28011606000020612AEB81B,912.25,1.6996508,0.0
E28011606000020612AEE2FC,912.25,5.3934765,-0.5
E28011606000020612B0347D,912.25,1.6566993,-0.1875
E28011606000020612AE849C,912.25,1.6628351,0.1875
E28011606000020612AEB8EB,912.25,0.20248546,0.4375
E28011606000020612AE84BC,912.25,4.9394183,-0.0625
E28011606000020612AEB8FB,912.25,6.0991077,0.5
E28011606000020612AFC28D,924.75,2.0371265,-0.5
E28011606000020612AE842C,924.75,5.28303,-0.0625
E28011606000020612AE840C,924.75,5.8720784,-0.0625
E28011606000020612AEE23C,924.75,0.12885438,2.125
E28011606000020612AEE41C,924.75,5.344389,0.0
E28011606000020612AEB8CB,924.75,4.1969714,-0.75
E28011606000020612B0942C,924.75,1.8960003,-0.0625
E28011606000020612AEB8BC,924.75,4.5221753,0.1875
E28011606000020612AE846C,924.75,0.19021362,0.25
E28011606000020612AFC49D,924.75,0.7424467,-0.0625
E28011606000020612AE7AEB,927.25,6.086836,-0.875
E28011606000020612AEE42C,927.25,4.393321,0.5
E28011606000020612AEE2BC,927.25,1.6935148,0.625
E28011606000020612AE84AB,927.25,2.4850488,0.5625
E28011606000020612AFC25D,927.25,5.460972,0.125
E28011606000020612AEB8BB,927.25,4.9271464,-0.125
E28011606000020612AEE28C,927.25,4.405593,0.25
E28011606000020612AEE2EC,927.25,5.2093987,0.1875
E28011606000020612AE7A8B,927.25,5.61437,0.0
E28011606000020612AEB84C,927.25,0.36201948,-0.125
E28011606000020612AF52DD,927.25,0.3926991,1.1875
E28011606000020612AE842B,927.25,5.7861757,0.25
E28011606000020612AE7ABB,927.25,0.01840777,0.375
E28011606000020612AE7AAB,905.25,5.651185,0.0625
E28011606000020612AE847B,905.25,5.921166,0.375
E28011606000020612B0346D,905.25,5.270758,-0.1875
E28011606000020612AE84EB,905.25,6.068428,0.375
E28011606000020612AEE22C,905.25,1.2640002,-0.125
E28011606000020612AEE24C,905.25,3.663146,-0.0625
E28011606000020612AE849B,905.25,5.2216706,0.125
E28011606000020612AEB8FC,905.25,4.2031074,0.1875
E28011606000020612AEB8CC,905.25,5.761632,0.25
E28011606000020612B0348D,905.25,5.270758,-0.125
E28011606000020612AE84CB,905.25,5.8659425,0.0625
E28011606000020612B0349D,905.25,1.0431069,0.5
E28011606000020612AEB86C,905.25,0.1840777,-0.125
E28011606000020612AE841B,905.25,5.6880007,-0.1875
E28011606000020612AEB88C,916.25,5.3996124,1.25
E28011606000020612AEE21C,916.25,1.7610099,0.25
E28011606000020612AEB85C,916.25,5.019185,0.5
E28011606000020612AEB83B,916.25,0.2883884,-0.125
E28011606000020612AEB8EC,916.25,1.7119225,0.5
E28011606000020612AEE4EC,916.25,0.09817477,2.625
E28011606000020612AEB8DC,916.25,4.3380976,0.4375
E28011606000020612B034BC,916.25,4.884195,-0.375
E28011606000020612AEE20C,916.25,0.09203885,-0.25
E28011606000020612AE7A9B,916.25,1.1412817,0.0
E28011606000020612AEE20B,916.25,4.5221753,-0.0625
E28011606000020612B0349C,916.25,5.6266418,0.25
E28011606000020612AEB8AB,916.25,1.9696313,0.25
E28011606000020612AEB89B,916.25,4.5099034,0.0625
E28011606000020612AEB86B,907.25,0.72403896,-0.75
E28011606000020612AE7ACC,907.25,1.8285052,0.5625
E28011606000020612B0347D,907.25,6.0193405,0.125
E28011606000020612AE84BC,907.25,6.1972823,0.5625
E28011606000020612AEB8FB,907.25,1.2946798,0.1875
E28011606000020612AEE2DC,907.25,1.4235342,0.5
E28011606000020612AE842C,907.25,5.9457097,0.0625
E28011606000020612AE843C,907.25,1.2026409,-0.25
E28011606000020612AEE23C,907.25,5.497787,-1.3125
E28011606000020612AEB85B,907.25,5.3996124,0.25
E28011606000020612AEB8EB,907.25,1.0124273,0.125
E28011606000020612AEB8DB,907.25,0.62586415,-0.0625
E28011606000020612AE849C,907.25,6.234098,0.125
E28011606000020612B0344D,907.25,4.092661,-0.0625
E28011606000020612AE847C,907.25,6.1543307,0.375
E28011606000020612AEB8BC,913.75,0.44178647,0.375
E28011606000020612AEB8CB,913.75,0.030679615,-0.0625
E28011606000020612AE84AB,913.75,0.049087387,0.4375
E28011606000020612AE7ACB,913.75,5.5407386,-1.0625
E28011606000020612AE84CC,913.75,6.1727386,-0.8125
E28011606000020612AEE2FC,913.75,1.8960003,0.375
E28011606000020612AEB81B,913.75,1.2824079,0.0625
E28011606000020612AEE40C,913.75,0.57064086,-0.0625
E28011606000020612AEE4AC,913.75,1.0983303,0.0625
E28011606000020612AE7ABC,913.75,0.0061359233,0.9375
E28011606000020612AEB80B,913.75,6.0438843,0.1875
E28011606000020612AE846B,904.25,1.9512236,0.5625
E28011606000020612AE84EB,904.25,0.11044662,-0.8125
E28011606000020612AEE2EC,904.25,3.8410878,-0.125
E28011606000020612B0346D,904.25,2.4114177,0.0625
E28011606000020612AFC28D,904.25,0.48473793,-0.625
E28011606000020612AE842B,904.25,4.871923,0.125
E28011606000020612AF20EC,904.25,6.0438843,0.125
E28011606000020612AE7AEB,904.25,4.9210105,-0.0625
E28011606000020612AEB8BB,904.25,3.8656316,0.0625
E28011606000020612AEE21B,904.25,5.8843503,-0.125
E28011606000020612AE840B,904.25,0.1840777,0.1875
E28011606000020612AEB88B,904.25,4.8289714,-0.625
E28011606000020612AE848C,904.25,4.080389,0.0
E28011606000020612AEE22C,917.25,4.540583,0.1875
E28011606000020612AF202C,917.25,5.497787,0.1875
E28011606000020612AE846C,917.25,5.61437,0.4375
E28011606000020612AEE2AC,917.25,4.9026027,0.1875
E28011606000020612AEB8FC,917.25,1.6873789,0.0625
E28011606000020612AEB84C,917.25,5.7125444,0.125
E28011606000020612AEE4DC,917.25,6.2647777,-1.25
E28011606000020612AE7AEC,917.25,1.7732818,1.25
E28011606000020612AEE41C,917.25,1.6198837,0.0
E28011606000020612AE84CB,917.25,5.473243,0.0625
E28011606000020612AE847B,917.25,0.17794177,-0.0625
E28011606000020612AE7ABB,917.25,4.8044276,0.1875
E28011606000020612AE849B,917.25,5.5591464,0.125
E28011606000020612AEE20C,915.75,0.19021362,0.1875
E28011606000020612B0942C,915.75,4.7737484,0.0
E28011606000020612AFC4AD,915.75,1.8653207,0.0
E28011606000020612AEB8AC,915.75,5.7248163,0.125
E28011606000020612AEE21C,915.75,5.025321,-0.0625
E28011606000020612AEB83B,915.75,0.31293207,0.5
E28011606000020612AEE20B,915.75,1.5523885,-0.125
E28011606000020612AE845C,915.75,0.53382534,-0.25
E28011606000020612AEB8EC,915.75,1.8837284,0.1875
E28011606000020612AE84DB,915.75,5.804583,-0.375
E28011606000020612AE7AAB,915.75,0.6565438,0.375
E28011606000020612B0348D,915.75,5.0866804,0.125
E28011606000020612AE7A9B,915.75,4.3626413,0.125
E28011606000020612AE84AC,915.75,4.712389,0.5625
E28011606000020612AEB8AB,915.75,2.0923498,0.0625
E28011606000020612AE841B,908.25,1.8898643,-0.1875
E28011606000020612AEE24C,908.25,6.252506,0.0
E28011606000020612AE843C,908.25,0.9633399,0.0
E28011606000020612AE849C,908.25,2.7427576,0.1875
E28011606000020612AEE2BC,908.25,5.0928164,0.25
E28011606000020612AE7ACC,908.25,1.3989905,0.0625
E28011606000020612AFC48D,908.25,0.43565056,-0.4375
E28011606000020612B0349D,908.25,6.1911464,-0.0625
E28011606000020612AEB85B,908.25,5.105088,0.8125
E28011606000020612AEB84B,908.25,5.7002726,0.125
E28011606000020612B0349C,908.25,0.9510681,0.125
E28011606000020612AEB86B,908.25,0.41110685,-0.875
E28011606000020612AE84BC,908.25,6.0009327,0.875
E28011606000020612B034BC,908.25,0.92038846,0.0625
E28011606000020612AEE2FC,909.25,5.902758,-0.0625
E28011606000020612AEE4BC,909.25,0.43565056,-0.5
E28011606000020612AEB89B,909.25,6.1788745,0.125
E28011606000020612AEB80B,909.25,4.9946413,0.0
E28011606000020612AE844C,909.25,1.6935148,0.0
E28011606000020612AE84AB,909.25,1.3192235,0.5625
E28011606000020612AEB85C,909.25,4.2092433,0.25
E28011606000020612AEB8BC,909.25,1.6873789,0.25
E28011606000020612B0344D,909.25,3.4913402,-0.0625
E28011606000020612AEB8DB,909.25,0.049087387,0.75
E28011606000020612AEB8CC,909.25,1.681243,0.375
E28011606000020612AEB8CB,909.25,0.9878836,-0.125
E28011606000020612AE842B,909.25,0.75471854,0.25
E28011606000020612AE7AEB,925.25,0.030679615,-0.375
E28011606000020612AE7A8B,925.25,6.2586417,0.0625
E28011606000020612AEB83C,925.25,4.6694374,0.125
E28011606000020612AEB8EB,925.25,0.75471854,0.1875
E28011606000020612AEE40C,925.25,5.479379,-0.0625
E28011606000020612AE840B,925.25,1.7241944,-0.9375
E28011606000020612AEB8FB,925.25,0.04295146,0.0
E28011606000020612AE7A8C,925.25,3.9760783,0.75
E28011606000020612AE84EB,925.25,1.5401167,-0.125
E28011606000020612B0347D,925.25,1.8653207,0.0
E28011606000020612AEE2EC,925.25,5.424156,0.25
E28011606000020612AEE41C,915.25,2.1107576,-0.8125
E28011606000020612AE846C,915.25,5.9579816,0.125
E28011606000020612AEB88C,915.25,5.5591464,0.25
E28011606000020612AE849B,915.25,0.0,0.1875
E28011606000020612AEE2AC,915.25,5.7002726,0.375
E28011606000020612AEE23C,915.25,1.3928546,0.0
E28011606000020612AE842C,915.25,0.82834965,-0.5
E28011606000020612AE84CB,915.25,5.8782144,-0.125
E28011606000020612AEE2CC,915.25,0.43565056,0.125
E28011606000020612AEB8BB,915.25,1.3192235,0.0625
E28011606000020612AEE42C,915.25,1.2824079,1.9375
E28011606000020612AF90BD,915.25,2.0493984,0.8125
E28011606000020612AE7ABB,915.25,5.276894,0.125
E28011606000020612AE7ACB,915.25,5.436428,0.0625
E28011606000020612B0345D,918.25,6.1911464,0.1875
E28011606000020612AFC4BD,918.25,0.9265244,-0.25
E28011606000020612AEE4EC,918.25,5.7861757,-0.5
E28011606000020612AEB8DC,918.25,3.6263306,2.5
E28011606000020612B0346D,918.25,5.3137093,0.25
E28011606000020612AFC26D,918.25,1.030835,0.1875
E28011606000020612AE846B,918.25,5.013049,0.0625
E28011606000020612AEE20B,918.25,3.9638064,0.1875
E28011606000020612AEE21C,918.25,4.534447,0.125
E28011606000020612B0348C,918.25,5.9457097,0.0625
E28011606000020612AE847B,918.25,6.234098,0.375
E28011606000020612AEB86C,918.25,3.282719,-0.0625
E28011606000020612AE7AAB,918.25,0.23316509,0.125
E28011606000020612B0348D,918.25,4.626486,0.25
E28011606000020612AE84DB,903.25,5.908894,-0.375
E28011606000020612AEB85B,903.25,0.65040785,0.0625
E28011606000020612AE849C,903.25,4.295146,-0.1875
E28011606000020612B034BC,903.25,5.4671073,0.5
E28011606000020612AEE2FC,903.25,0.079767,-0.375
E28011606000020612AE841B,903.25,5.8720784,0.0625
E28011606000020612AEB88B,903.25,4.9762335,-3.1875
E28011606000020612AE847C,903.25,1.0921943,0.125
E28011606000020612AEB8AB,903.25,0.6872234,0.5
E28011606000020612AEE21B,903.25,5.9457097,-0.8125
E28011606000020612B0349C,923.25,0.67495155,0.0625
E28011606000020612AE840C,923.25,0.0,-0.0625
E28011606000020612AEE22C,923.25,0.20248546,0.25
E28011606000020612AE7AEC,923.25,0.22702916,0.125
E28011606000020612AE7A9C,923.25,3.9269907,-0.0625
E28011606000020612AEB81B,923.25,5.7125444,0.125
E28011606000020612AE7ACC,923.25,4.2092433,-0.25
E28011606000020612AEB89B,923.25,6.2709136,0.0625
E28011606000020612AFC25D,923.25,0.92038846,0.25
E28011606000020612AEB83B,923.25,5.178719,0.875
E28011606000020612AE84CC,923.25,4.7614765,0.0
E28011606000020612AE845C,923.25,1.8100973,1.625
E28011606000020612AE7ABC,923.25,1.1780972,-0.25
E28011606000020612AEE28C,923.25,5.503923,-0.1875
E28011606000020612AEB80C,923.25,4.1908355,-0.0625
E28011606000020612AE7A8C,921.75,4.871923,0.1875
E28011606000020612AEE20C,921.75,2.3561945,0.25
E28011606000020612AEB8EB,921.75,1.4971652,0.75
E28011606000020612AE84AB,921.75,0.9142526,-0.1875
E28011606000020612AEB8EC,921.75,0.70563114,0.5625
E28011606000020612AEB8FC,921.75,0.6626797,-0.1875
E28011606000020612AEB84C,921.75,1.675107,-0.125
E28011606000020612B0344D,921.75,0.94493216,0.0625
E28011606000020612AE840B,921.75,5.7002726,0.5
E28011606000020612AFC49D,921.75,5.0866804,0.875
E28011606000020612AEE2EC,912.75,1.6382915,0.0625
E28011606000020612AFC48D,912.75,5.4487,-0.1875
E28011606000020612AFC2FD,912.75,6.062292,-0.25
E28011606000020612AEE4DC,912.75,5.362797,0.125
E28011606000020612AEE48C,912.75,5.9947968,-0.125
E28011606000020612AEB8BB,912.75,1.748738,0.0625
E28011606000020612AE84EB,912.75,0.6933593,-0.0625
E28011606000020612AEE42C,912.75,5.0928164,0.125
E28011606000020612AE846B,912.75,6.148195,0.1875
E28011606000020612AE7A8B,912.75,2.7673013,0.125
E28011606000020612AEB86B,912.75,5.589826,0.375
E28011606000020612B0345D,912.75,1.2885438,0.0
E28011606000020612AEB8CC,912.75,0.9387962,0.125
E28011606000020612AE7AEB,912.75,5.822991,0.0
E28011606000020612AEB8FB,919.75,4.4853597,0.0625
E28011606000020612B0348D,919.75,1.2640002,0.125
E28011606000020612B0346D,919.75,4.9087386,0.1875
E28011606000020612AEE2CC,919.75,5.933438,-0.5
E28011606000020612AEB86C,919.75,6.068428,0.125
E28011606000020612AEB8BC,919.75,5.485515,-0.125
E28011606000020612AE843C,919.75,4.5958066,0.0625
E28011606000020612AEE21C,919.75,1.1106021,0.125
E28011606000020612AFC28D,919.75,0.5399612,0.125
E28011606000020612AEB8DB,919.75,1.3744467,-0.875
E28011606000020612AFC27D,919.75,0.79767,-0.1875
E28011606000020612AEB8CB,919.75,5.1419034,-0.0625
E28011606000020612AE842B,919.75,1.3928546,0.25
E28011606000020612B0349D,919.75,6.0254765,0.0625
E28011606000020612AEE23C,919.75,0.7853982,-0.25
E28011606000020612AEE40C,919.75,0.43565056,0.125
E28011606000020612AEE2FC,925.75,5.5223308,0.0625
E28011606000020612AE842C,925.75,5.0989523,0.4375
E28011606000020612AE849B,925.75,0.717903,-0.0625
E28011606000020612AEE2BC,925.75,5.197127,-0.125
E28011606000020612B0347D,925.75,1.7426022,0.1875
E28011606000020612AEB8AB,925.75,1.3376312,0.1875
E28011606000020612AE84BC,925.75,5.5407386,-0.4375
E28011606000020612AE7AAB,925.75,4.9332824,0.875
E28011606000020612AE847B,925.75,4.95169,0.0625
E28011606000020612AEB83C,925.75,1.435806,-0.25
E28011606000020612AE7ADC,925.75,1.5033011,-0.125
E28011606000020612AE841B,925.75,3.9699423,-0.25
E28011606000020612AE7ABB,916.75,4.8412433,0.5625
E28011606000020612AE84CC,916.75,2.1107576,0.1875
E28011606000020612AE847C,916.75,1.0431069,0.1875
E28011606000020612AF202C,916.75,5.9579816,-0.8125
E28011606000020612B0348C,916.75,0.09817477,0.125
E28011606000020612B034BC,916.75,1.6505634,0.0
E28011606000020612AE84DB,916.75,5.78004,1.125
E28011606000020612AEB80C,916.75,5.657321,0.375
E28011606000020612AEE22C,916.75,4.6633015,0.625
E28011606000020612AE7ABC,916.75,5.5346026,-0.375
E28011606000020612AE84AB,916.75,5.7002726,0.25
E28011606000020612AEE28C,916.75,0.9387962,0.125
E28011606000020612AEB88C,916.75,5.3812046,0.1875
E28011606000020612AE7ACC,916.75,5.3873405,-0.5625
E28011606000020612B0349C,907.75,4.2092433,0.125
E28011606000020612AEE2EC,907.75,0.012271847,0.0625
E28011606000020612AEE20C,907.75,4.687845,0.4375
E28011606000020612AEB84C,907.75,1.4051265,0.0
E28011606000020612AEB83B,907.75,2.06167,-0.1875
E28011606000020612AE840B,907.75,5.6266418,0.0625
E28011606000020612AEE24C,907.75,0.06749515,0.5
E28011606000020612AE7ACB,907.75,0.46633017,0.0
E28011606000020612AE849C,907.75,6.068428,0.1875
E28011606000020612AE844C,907.75,5.3014374,-0.125
E28011606000020612AEE2DC,907.75,1.2517283,0.25
E28011606000020612AEE21B,911.75,4.6755733,-0.625
E28011606000020612AE84AC,911.75,5.651185,-1.8125
E28011606000020612AE848B,911.75,2.0187187,0.375
E28011606000020612B0345D,911.75,1.6076119,0.125
E28011606000020612AEB8AC,911.75,0.10431069,-0.25
E28011606000020612AFC25D,911.75,1.2271847,0.5
E28011606000020612AEB80B,911.75,0.8099418,0.5
E28011606000020612B0346D,911.75,0.5154175,-0.0625
E28011606000020612AEB86B,911.75,5.8782144,0.25
E28011606000020612AEB85C,911.75,0.06749515,0.0625
E28011606000020612B0348D,911.75,6.0193405,0.1875
E28011606000020612B0344D,911.75,5.9947968,0.375
E28011606000020612AE84CB,911.75,0.42951462,0.25
E28011606000020612AEB8FB,911.75,6.234098,0.25
E28011606000020612AEB8EC,911.75,6.1911464,-0.25
E28011606000020612AEE20B,914.75,4.8044276,-0.1875
E28011606000020612AE7AFB,914.75,4.8044276,-1.875
E28011606000020612B0942C,914.75,5.3075733,0.9375
E28011606000020612AEE21C,914.75,2.067806,0.0
E28011606000020612AEB89B,914.75,4.8166995,0.1875
E28011606000020612AEE4BC,914.75,4.5221753,0.8125
E28011606000020612AEB86C,914.75,0.99401957,0.0
E28011606000020612AEB8EB,914.75,6.0070686,0.1875
E28011606000020612AE845C,914.75,3.8656316,0.1875
E28011606000020612AFC48D,914.75,4.9332824,-0.5
E28011606000020612AEE41C,914.75,2.1843886,-0.1875
E28011606000020612B0349D,914.75,0.8467574,0.0
E28011606000020612AE847C,924.25,5.6327777,0.0625
E28011606000020612AE84EB,924.25,4.7369328,-0.5
E28011606000020612AE84BC,924.25,5.91503,0.0
E28011606000020612AEE42C,924.25,5.3750687,-0.25
E28011606000020612AE847B,924.25,5.1296315,0.5
E28011606000020612AE7ABB,924.25,0.33133984,0.125
E28011606000020612AEB8CC,924.25,1.5033011,-0.1875
E28011606000020612AEE23C,924.25,0.3926991,-0.9375
E28011606000020612AEB8BC,924.25,4.6387577,-0.0625
E28011606000020612AE7AEB,924.25,0.21475731,1.5
E28011606000020612AEB88B,924.25,0.7363108,0.1875
E28011606000020612AE7AAB,924.25,5.2278066,0.1875
E28011606000020612AFC4AD,924.25,0.93266034,0.75
E28011606000020612AE842B,924.25,0.24543692,0.1875
E28011606000020612AE846B,924.25,0.36201948,0.0625
E28011606000020612AEB81B,924.25,5.620506,0.4375
E28011606000020612AEB8CB,921.25,4.8105636,0.25
E28011606000020612AE7A8C,921.25,5.006913,-0.375
E28011606000020612AE84AB,921.25,4.1969714,0.5
E28011606000020612AFC26D,921.25,5.6818647,0.0
E28011606000020612AEE40C,921.25,0.2699806,-0.0625
E28011606000020612AEB8FC,921.25,0.7424467,0.25
E28011606000020612AEB8DC,921.25,2.1168935,-0.1875
E28011606000020612AE7A8B,921.25,0.6872234,-0.4375
E28011606000020612AE840C,921.25,0.7424467,1.0625
E28011606000020612AEE2CC,921.25,5.436428,0.25
E28011606000020612AEE2FC,921.25,0.49087384,0.1875
E28011606000020612AEE2BC,921.25,5.816855,0.1875
E28011606000020612AEB8DB,921.25,0.79767,-0.0625
E28011606000020612AEB88C,921.25,4.5099034,0.375
E28011606000020612AE846C,921.25,1.2210487,-0.5
E28011606000020612AE849B,921.25,1.7794178,0.1875
E28011606000020612AEE2EC,918.75,0.319068,0.0
E28011606000020612AE843C,918.75,1.7119225,0.75
E28011606000020612AFC49D,918.75,6.062292,0.0625
E28011606000020612AE842C,918.75,6.1359234,0.4375
E28011606000020612AE840B,918.75,0.05522331,0.0
E28011606000020612AEE2AC,918.75,1.1596894,0.25
E28011606000020612AEB8BB,918.75,0.5829127,0.0
E28011606000020612B034BC,918.75,1.4051265,0.25
E28011606000020612AE849C,918.75,0.6626797,-0.125
E28011606000020612AEB80C,918.75,5.264622,0.8125
E28011606000020612AEE24C,904.75,0.6872234,0.0
E28011606000020612AEB84C,904.75,2.1046216,-0.125
E28011606000020612AEB8FB,904.75,1.6873789,0.0625
E28011606000020612AE841B,904.75,5.6880007,0.1875
E28011606000020612AEE22C,904.75,1.4173982,0.5625
E28011606000020612AE84DB,904.75,5.2462144,0.1875
E28011606000020612B0347D,904.75,0.3926991,0.1875
E28011606000020612AEB83B,904.75,6.0193405,-0.125
E28011606000020612AFC28D,904.75,0.20862138,-0.0625
E28011606000020612AEE21B,904.75,5.755496,0.5625
E28011606000020612AEB84B,904.75,0.3742913,0.1875
E28011606000020612AE844C,904.75,0.12885438,-0.1875
E28011606000020612B0348C,909.75,2.0187187,0.0
E28011606000020612AEE4EC,909.75,0.33747578,0.8125
E28011606000020612AEE2DC,909.75,0.7485826,-0.0625
E28011606000020612AE7AEC,909.75,3.5711074,0.5
E28011606000020612AE84EB,909.75,4.6633015,-0.125
E28011606000020612AEB8AB,909.75,6.240234,-0.5
E28011606000020612AE7ACC,909.75,1.0185633,-0.0625
E28011606000020612AEB86C,909.75,5.2339425,0.1875
E28011606000020612B0344D,909.75,3.3747578,0.0
E28011606000020612AFC48D,909.75,6.2586417,0.0625
E28011606000020612AE847C,909.75,5.485515,-0.1875
E28011606000020612AEB89B,909.75,6.0438843,0.1875
E28011606000020612AEB8EC,909.75,0.4233787,0.25
E28011606000020612AE84CB,910.75,0.717903,0.0625
E28011606000020612AE84AB,910.75,0.9265244,-0.25
E28011606000020612AEE42C,910.75,5.7248163,0.0
E28011606000020612B0349C,910.75,0.32520393,0.375
E28011606000020612AEE20B,910.75,5.7002726,0.375
E28011606000020612AE7ABC,910.75,0.25770876,0.375
E28011606000020612AFC2FD,910.75,0.2945243,0.125
E28011606000020612AE847B,910.75,4.8412433,0.5625
E28011606000020612AEB8CB,910.75,0.6320001,0.25
E28011606000020612AF20EC,910.75,6.0377483,-0.4375
E28011606000020612AEB80B,910.75,1.276272,0.5625
E28011606000020612AE7ABB,910.75,0.22702916,0.0
E28011606000020612AEE21C,910.75,6.1911464,0.0625
E28011606000020612AEE48C,910.75,0.5154175,-0.5
E28011606000020612AEE23C,910.75,1.6260196,0.4375
E28011606000020612AE840C,926.75,5.602098,-0.125
E28011606000020612AEE2FC,926.75,5.3075733,-0.125
E28011606000020612AEE40C,926.75,5.0682726,0.0
E28011606000020612AEE2EC,926.75,5.270758,0.125
E28011606000020612AE849B,926.75,0.8406215,0.375
E28011606000020612AEE20C,926.75,1.4910294,-0.0625
E28011606000020612AEB88B,926.75,0.2699806,2.8125
E28011606000020612AE842B,926.75,5.91503,0.25
E28011606000020612AEB8EB,926.75,0.34974763,0.125
E28011606000020612AE84CC,926.75,0.96947587,1.875
E28011606000020612AEB8CC,926.75,4.141748,0.125
E28011606000020612AFC25D,926.75,5.61437,0.5
E28011606000020612AE7A8B,926.75,5.773904,0.25
E28011606000020612AEB8BC,926.75,4.1846995,-0.0625
E28011606000020612AEE4DC,913.25,4.9026027,-0.5625
E28011606000020612AE841B,913.25,0.17794177,0.0
E28011606000020612AEB8BB,913.25,1.6505634,0.0
E28011606000020612B034BC,913.25,5.74936,0.0
E28011606000020612AE846B,913.25,6.062292,0.4375
E28011606000020612AE845C,913.25,4.1172047,1.5625
E28011606000020612AE84AC,913.25,5.3873405,0.125
E28011606000020612AE843C,913.25,6.0254765,-0.875
E28011606000020612AEE2BC,913.25,4.718525,0.0625
E28011606000020612AE7AAB,913.25,0.79153407,0.375
E28011606000020612B0348D,913.25,5.5591464,-0.125
E28011606000020612AEB85B,913.25,0.7424467,0.25
E28011606000020612AF202C,913.25,1.4603497,-0.5625
E28011606000020612AEE4AC,914.25,1.2333206,0.5
E28011606000020612AE84EB,914.25,3.5526996,0.125
E28011606000020612AE7AEB,914.25,2.1414373,-0.0625
E28011606000020612AE84BC,914.25,4.5099034,-0.125
E28011606000020612AEE41C,914.25,2.2396119,0.125
E28011606000020612AEE21B,914.25,4.5283113,0.0
E28011606000020612AE849C,914.25,1.3130876,0.0625
E28011606000020612AEB83B,914.25,0.6074564,-0.1875
E28011606000020612AE7ACB,914.25,5.491651,-2.5625
E28011606000020612B0348C,914.25,0.7608545,0.0625
E28011606000020612AE842C,914.25,1.0246992,0.125
E28011606000020612AE840B,914.25,4.3380976,-0.125
