-58.0,0.0,-4.875
-58.0,-0.018407769454627854,-8.125
-57.0,0.15339807878856426,-48.8125
-56.5,-0.10431069357622391,-4.875
-56.5,0.1288543861823941,-40.6875
-58.5,-0.14112623248547917,-18.6875
-58.0,-0.006135923151542322,-8.125
-57.5,-0.018407769454627854,1.625
-57.0,-0.07976700097005329,34.9375
-57.5,0.20862138715244694,-47.1875
-57.5,-0.024543692606170175,-33.3125
-57.5,-0.18407769454627676,24.375
-57.5,0.03067961575771294,33.3125
-56.5,0.10431069357622347,-21.9375
-57.5,-0.08590292412159606,0.0
-58.0,0.06135923151542588,-7.3125
-58.0,0.05522330836388312,-25.1875
-56.5,-0.09817477042468115,4.875
-57.0,0.0674951546669682,-1.625
-57.5,0.07976700097005329,-6.5
-57.5,-0.04908738521234035,-39.0
-57.5,0.07976700097005329,-50.4375
-57.5,-0.39269908169872414,56.9375
-57.0,0.2147573103039897,1.625
-57.5,0.04295146206079803,-4.875
-58.0,-0.006135923151542766,-8.9375
-57.5,-0.03067961575771294,0.0
-57.5,-0.1656699250916489,52.0625
-58.0,0.2331650797586171,8.9375
-57.0,0.049087385212340795,-25.1875
-56.5,0.04908738521234035,-34.9375
-57.0,-0.012271846303085088,-23.5625
-58.0,-0.09817477042468115,-4.875
-57.5,-0.17180584824319167,36.5625
-57.5,0.2270291566070748,-22.75
-58.0,-0.07363107781851053,8.125
-58.5,-0.06135923151542588,31.6875
-58.0,0.12271846303085132,-20.3125
-58.0,-0.10431069357622347,44.75
-58.0,-0.11044661672776623,34.9375
-58.0,0.20862138715244738,-31.6875
-57.0,-0.2147573103039897,34.9375
-58.0,0.07976700097005329,47.1875
-57.5,-0.0674951546669682,41.5
-57.5,0.3067961575771281,-45.5625
-58.0,-0.12271846303085132,8.125
-57.5,0.1349903093339364,-45.5625
-57.5,-0.1349903093339364,-28.4375
-58.0,-0.03681553890925526,-23.5625
-57.0,0.2331650797586171,-43.9375
-56.5,-0.10431069357622347,-34.9375
-56.5,-0.0674951546669682,-26.0
-58.0,0.03067961575771294,-30.0625
-58.0,-0.20862138715244738,36.5625
-57.5,0.0674951546669682,13.8125
-58.0,-0.11658253987930856,25.1875
-57.5,0.28838838812250067,-25.1875
-57.5,-0.23930100291016032,27.625
-56.5,0.24543692606170264,-42.3125
-58.0,-0.2147573103039897,33.3125
-58.0,0.04908738521234035,6.5
-58.0,-0.006135923151542322,28.4375
-58.0,0.1472621556370215,-21.9375
-57.5,-0.03681553890925526,1.625
-58.0,-0.17794177139473444,47.1875
-58.0,0.17794177139473444,6.5
-57.5,-0.1288543861823941,26.8125
-58.0,0.024543692606170175,-6.5
-57.5,-0.0981747704246807,13.8125
-57.5,-0.012271846303085088,47.1875
-57.5,0.11044661672776579,9.75
-57.5,0.05522330836388312,1.625
-57.5,-0.07976700097005329,17.0625
-57.5,0.15339807878856426,-9.75
-58.0,-0.03681553890925526,-9.75
-57.5,0.042951462060797585,-20.3125
-58.0,-0.11658253987930856,6.5
-58.0,-0.1472621556370215,55.3125
-58.5,0.39269908169872414,-80.5625
-58.5,-0.15953400194010658,-28.4375
-57.5,0.0,-13.8125
-58.0,-0.049087385212340795,13.8125
-57.5,-0.15339807878856382,40.6875
-57.0,0.10431069357622347,4.875
-57.0,0.1349903093339364,-43.9375
-58.0,-0.018407769454627854,-21.9375
-58.0,-0.042951462060797585,8.125
-58.0,-0.06135923151542588,13.8125
-57.5,0.012271846303085088,15.4375
-57.0,0.012271846303085088,-8.125
-57.5,0.10431069357622391,-8.125
-57.5,-0.07976700097005374,-13.8125
-57.0,0.04295146206079803,-4.875
-58.5,0.11044661672776623,-44.75
-57.5,-0.10431069357622347,-8.125
-58.5,0.006135923151542322,-28.4375
-57.5,-0.14112623248547873,26.8125
-58.5,0.15339807878856382,-13.8125
-57.0,0.07363107781851097,-21.9375
-57.0,-0.0674951546669682,-17.0625
-58.0,-0.07363107781851097,10.5625
-57.5,0.08590292412159606,-18.6875
-57.5,-0.0674951546669682,-28.4375
-58.0,-0.1472621556370215,30.0625
-58.0,-0.10431069357622347,50.4375
-58.0,0.17794177139473444,17.0625
-58.0,0.18407769454627676,-43.125
-57.5,-0.19021361769781953,0.0
-57.5,0.012271846303085088,6.5
-58.0,0.04908738521234035,-10.5625
-58.5,0.08590292412159606,-34.9375
-57.5,-0.03067961575771294,-13.8125
-57.5,0.018407769454627854,-17.0625
-58.5,-0.03681553890925526,-8.9375
-58.5,0.030679615757712497,-29.25
-57.5,-0.042951462060797585,-3.25
-58.0,-0.12271846303085132,-8.125
-57.5,0.1656699250916489,-34.9375
-58.0,-0.337475773334841,67.5
-57.5,0.38042723539563905,-21.9375
-58.0,-0.09203884727313838,-6.5
-57.5,-0.2822524649709579,67.5
-57.0,0.3742913122440963,-24.375
-58.0,-0.07976700097005329,13.8125
-57.5,0.049087385212340795,-24.375
-57.5,-0.14112623248547917,11.375
-57.5,0.11044661672776623,-4.875
-57.5,-0.08590292412159606,38.1875
-57.5,0.09817477042468115,4.875
-57.5,0.012271846303085088,3.25
-57.0,-0.15339807878856426,40.6875
-58.0,0.08590292412159606,17.0625
-58.0,0.11658253987930856,-3.25
-58.5,0.03067961575771294,-20.3125
-57.5,-0.03681553890925526,8.125
-58.0,0.0674951546669682,-24.375
-57.5,-0.12271846303085132,23.5625
-58.5,0.006135923151542322,40.6875
-58.0,-0.07363107781851053,52.0625
-57.5,0.11044661672776623,20.3125
-59.0,0.0674951546669682,1.625
-58.5,-0.012271846303085088,-3.25
-58.5,0.06135923151542544,-15.4375
-58.5,0.03681553890925526,-36.5625
-58.5,0.05522330836388312,-34.9375
-58.5,-0.04908738521234035,-28.4375
-59.0,-0.0674951546669682,23.5625
-57.0,0.19634954084936185,-43.9375
-58.0,-0.1349903093339364,-17.0625
-58.5,0.09817477042468115,-25.1875
-58.0,0.03067961575771294,6.5
-57.5,-0.2515728492132454,44.75
-58.5,0.03067961575771294,42.3125
-59.0,-0.03681553890925526,67.5
-57.5,0.3497476196379261,-23.5625
-58.5,-0.2699806186678728,40.6875
-58.0,0.1288543861823941,6.5
-58.0,-0.03681553890925571,25.1875
-58.0,0.24543692606170264,-30.0625
-58.0,0.024543692606170175,-40.6875
-59.0,-0.07363107781851053,6.5
-58.0,-0.09817477042468115,40.6875
-58.5,0.012271846303085088,22.75
-58.5,-0.03681553890925526,33.3125
-58.0,0.1349903093339364,-3.25
-59.0,-0.09817477042468115,30.0625
-59.0,0.10431069357622347,6.5
-58.5,-0.2024854640009046,67.5
-60.0,0.1840776945462772,52.0625
-59.0,0.012271846303085088,39.0
-59.0,0.11044661672776623,18.6875
-58.0,0.0,8.125
-58.0,0.06135923151542544,-11.375
-57.5,0.012271846303085088,28.4375
-58.5,-0.04295146206079803,28.4375
-58.5,0.19021361769781953,-18.6875
-58.5,-0.042951462060797585,-1.625
-59.0,-0.12271846303085132,48.8125
-58.0,0.2822524649709579,-42.3125
-58.0,-0.1288543861823941,-6.5
-58.0,-0.03681553890925526,8.125
-58.5,0.14112623248547917,-17.0625
-58.0,-0.012271846303085532,0.0
-58.5,0.05522330836388312,-7.3125
-58.0,-0.01840776945462741,-6.5
-57.0,-0.05522330836388312,34.9375
-58.5,0.04295146206079803,4.875
-58.0,-0.09203884727313882,28.4375
-58.0,0.22702915660707523,-8.125
-58.0,0.01840776945462741,-6.5
-58.5,-0.006135923151542322,23.5625
-58.5,0.06135923151542544,6.5
-58.5,0.2147573103039897,-47.1875
-58.5,-0.024543692606170175,-26.8125
-58.0,-0.1472621556370215,20.3125
-58.0,-0.07976700097005329,65.875
-58.0,0.07363107781851097,23.5625
-58.0,0.05522330836388267,30.0625
-57.5,0.06135923151542544,11.375
-58.0,0.14726215563702194,-20.3125
-57.5,0.018407769454627854,-23.5625
-58.0,-0.006135923151542322,-20.3125
-57.0,-0.14112623248547962,30.0625
-57.5,0.17180584824319212,-6.5
-57.5,-0.03681553890925571,1.625
-57.0,0.3006602344255862,-67.5
-56.5,-0.3620194659410112,31.6875
-56.5,0.030679615757712497,40.6875
-57.0,0.1349903093339364,11.375
-57.0,-0.08590292412159606,23.5625
-57.5,0.0981747704246807,6.5
-57.5,-0.0674951546669682,6.5
-57.0,0.07363107781851141,-1.625
-56.5,0.14726215563702105,-17.0625
-57.0,0.0,-33.3125
-57.0,-0.2024854640009046,18.6875
-56.5,0.233165079758618,-48.8125
-57.0,-0.1349903093339364,4.875
-57.0,-0.15953400194010658,42.3125
-57.5,0.2024854640009046,-3.25
-56.0,-0.04908738521234124,8.125
-57.0,-0.09203884727313838,40.6875
-56.5,0.31906800388021406,-25.1875
-57.0,-0.19021361769781997,21.9375
-56.5,0.024543692606170175,21.9375
-56.0,0.233165079758618,-50.4375
-56.5,-0.09817477042468159,-11.375
-56.0,0.024543692606170175,-11.375
-56.0,-0.07976700097005285,20.3125
-57.5,-0.024543692606170175,23.5625
-56.0,0.24543692606170264,-30.0625
-56.0,0.018407769454626965,-45.5625
-56.0,-0.2331650797586171,33.3125
-56.0,0.17794177139473444,-26.8125
-56.0,-0.024543692606170175,8.125
-56.5,0.030679615757712497,8.125
-56.0,-0.1656699250916489,55.3125
-56.0,0.05522330836388267,43.9375
-56.0,0.18407769454627676,-8.125
-56.0,0.012271846303085532,-6.5
-56.0,0.04908738521234035,-13.8125
-55.5,0.006135923151542322,-4.875
-55.5,-0.15953400194010658,42.3125
-55.5,0.14112623248547962,0.0
-56.0,-0.0674951546669682,17.0625
-55.5,-0.11044661672776623,70.75
-55.0,0.17794177139473444,13.8125
-55.5,-0.0674951546669682,53.6875
-55.5,0.061359231515424995,21.9375
-55.0,-0.006135923151542322,43.9375
-55.5,0.23930100291016032,-25.1875
-54.5,-0.09817477042468159,3.25
-54.5,-0.09203884727313838,25.1875
-55.0,0.18407769454627676,-9.75
-55.0,0.018407769454627854,-33.3125
-55.0,0.04908738521234124,-21.9375
-54.5,0.0,-23.5625
-54.5,-0.06135923151542588,-6.5
-54.5,-0.08590292412159606,26.8125
-54.5,-0.04908738521234035,42.3125
-54.5,0.14112623248547873,9.75
-54.5,0.06135923151542588,-4.875
-54.5,0.006135923151542322,-8.125
-54.5,0.07976700097005374,-25.1875
-54.5,0.030679615757712497,-33.3125
-54.0,-0.10431069357622391,-1.625
-54.0,-0.05522330836388267,9.75
-54.5,-0.006135923151542322,18.6875
-54.0,0.012271846303084644,20.3125
-54.0,0.11658253987930856,-6.5
-54.5,-0.08590292412159517,26.8125
-54.0,0.2577087723647873,-48.8125
-54.0,-0.15339807878856426,8.125
-54.0,0.03681553890925571,-18.6875
-54.0,0.04908738521234035,-13.8125
-53.5,-0.15953400194010658,28.4375
-54.0,0.08590292412159606,9.75
-54.0,0.04908738521234035,3.25
-54.0,-0.08590292412159606,28.4375
-54.0,0.15953400194010658,0.0
-54.0,0.07976700097005374,-18.6875
-54.0,-0.1349903093339364,3.25
-54.0,-0.09203884727313838,23.5625
-53.5,0.030679615757712497,21.9375
-54.0,0.1963495408493623,-34.9375
-54.0,-0.06135923151542588,-3.25
-54.0,0.04908738521234035,-4.875
-53.5,-0.006135923151542322,-15.4375
-53.5,-0.10431069357622391,8.125
-53.5,0.04908738521234035,-1.625
-53.0,0.15339807878856426,-50.4375
-53.0,-0.31293208072867085,55.3125
-53.0,0.15339807878856426,6.5
-53.5,0.06135923151542588,-13.8125
-53.0,0.08590292412159606,-18.6875
-53.0,-0.08590292412159606,-6.5
-53.0,-0.04295146206079803,20.3125
-53.5,0.21475731030399015,-34.9375
-53.0,-0.05522330836388356,-26.8125
-53.0,-0.1349903093339364,9.75
-53.0,0.030679615757712497,0.0
-53.0,0.05522330836388356,-3.25
-53.0,-0.05522330836388356,6.5
-52.5,0.1349903093339364,-18.6875
-53.0,-0.11044661672776535,0.0
-53.0,0.10431069357622302,-25.1875
-53.0,-0.0674951546669682,0.0
-53.0,0.0,-1.625
-53.5,0.04295146206079803,-6.5
-53.0,0.03681553890925571,-17.0625
-52.5,0.11658253987930856,-55.3125
-52.0,-0.14112623248547873,-17.0625
-52.5,-0.012271846303085532,-3.25
-52.5,-0.030679615757712497,-4.875
-52.5,0.0981747704246807,-18.6875
-53.0,-0.08590292412159606,-1.625
-52.5,0.0,3.25
-52.5,-0.024543692606170175,3.25
-52.5,0.11658253987930856,-20.3125
-52.5,-0.11044661672776623,-1.625
-52.5,0.07363107781851141,-17.0625
-52.5,0.006135923151542322,-6.5
-52.5,-0.09203884727313838,11.375
-52.5,0.030679615757712497,8.125
-52.5,0.10431069357622391,-20.3125
-52.5,-0.024543692606170175,-13.8125
-52.0,0.030679615757712497,-26.8125
-51.5,-0.024543692606170175,-30.0625
-52.0,-0.05522330836388267,-1.625
-52.0,0.012271846303084644,1.625
-52.0,-0.03681553890925482,8.125
-52.0,-0.024543692606171064,13.8125
-52.0,0.06135923151542588,-11.375
-51.5,0.006135923151542322,0.0
-51.5,-0.006135923151542322,-8.125
-52.0,0.04295146206079803,-6.5
-51.5,-0.04908738521234035,0.0
-52.5,0.0,-3.25
-51.5,-0.012271846303085532,0.0
-52.0,0.030679615757713385,-21.9375
-52.0,-0.00613592315154321,-1.625
-51.5,-0.012271846303084644,3.25
-51.5,-0.012271846303085532,9.75
-51.5,-0.024543692606170175,13.8125
-51.5,0.0,9.75
-51.5,0.024543692606170175,6.5
-51.5,0.024543692606170175,4.875
-51.5,0.05522330836388356,-21.9375
-51.5,-0.11044661672776623,13.8125
-51.5,0.12271846303085088,-30.0625
-51.5,0.07363107781851141,-9.75
-51.0,-0.07363107781851141,1.625
-51.5,0.06135923151542588,-9.75
-51.5,-0.012271846303084644,-8.125
-51.5,0.012271846303084644,-20.3125
-51.5,-0.018407769454627854,0.0
-51.5,0.06135923151542588,-18.6875
-52.0,-0.1349903093339364,15.4375
-51.0,0.10431069357622391,-4.875
-52.0,-0.00613592315154321,-9.75
-51.5,0.08590292412159606,-20.3125
-51.5,-0.11658253987930856,8.125
-52.0,0.04908738521234035,4.875
-52.0,0.05522330836388356,-13.8125
-51.5,-0.04295146206079803,-9.75
-52.0,0.04295146206079803,-9.75
-52.0,0.012271846303084644,-8.125
-51.5,0.04908738521234035,-25.1875
-52.5,0.04908738521234124,-29.25
-52.0,-0.14726215563702194,12.1875
-52.0,-0.030679615757712497,13.8125
-52.5,0.14112623248547873,-23.5625
-52.0,0.0981747704246807,-56.9375
-52.5,-0.22089323345553158,4.875
-52.0,0.05522330836388267,-3.25
-52.5,0.0,-23.5625
-52.5,-0.024543692606170175,-6.5
-52.5,-0.030679615757712497,0.0
-52.0,-0.0674951546669682,11.375
-52.5,0.11658253987930856,-20.3125
-53.0,-0.0674951546669682,-13.8125
-52.5,-0.09817477042468159,26.8125
-52.5,0.07363107781851141,4.875
-53.0,0.03681553890925482,-8.125
-52.5,0.03681553890925571,-25.1875
-53.0,-0.1656699250916489,20.3125
-52.5,0.1963495408493614,-25.1875
-53.0,-0.17794177139473444,20.3125
-53.0,0.06135923151542588,11.375
-53.0,0.10431069357622391,-18.6875
-53.0,-0.03681553890925571,-3.25
-53.5,-0.03681553890925571,0.0
-53.0,0.07976700097005374,-31.6875
-53.5,-0.05522330836388267,-9.75
-52.5,-0.0674951546669682,1.625
-53.0,0.0674951546669682,-8.125
-53.5,-0.09203884727313927,30.0625
-53.5,0.05522330836388356,3.25
-53.5,0.05522330836388267,-11.375
-53.0,0.04295146206079803,-25.1875
-53.0,0.00613592315154321,-15.4375
-53.5,0.03681553890925482,-34.9375
-53.5,-0.1656699250916489,8.125
-53.5,0.1963495408493623,-43.125
-53.5,-0.19021361769781997,9.75
-53.0,0.05522330836388356,-1.625
-53.0,-0.07976700097005374,28.4375
-52.5,0.14112623248547873,-8.125
-53.5,-0.08590292412159606,9.75
-53.0,0.012271846303085532,0.0
-53.0,0.0,20.3125
-53.5,-0.030679615757712497,23.5625
-53.5,0.07363107781851053,-8.125
-53.5,0.0674951546669682,-28.4375
-53.5,-0.12271846303085177,9.75
-53.5,0.024543692606171064,8.125
-53.0,0.03681553890925482,4.875
-53.0,0.04908738521234035,-25.1875
-53.5,0.024543692606170175,-28.4375
-54.0,-0.08590292412159517,0.0
-53.0,0.006135923151542322,-18.6875
-53.5,0.10431069357622391,-21.9375
-53.0,-0.12271846303085177,13.8125
-53.5,-0.006135923151542322,-4.875
-53.5,0.08590292412159606,-17.0625
-54.0,0.061359231515424995,-31.6875
-53.5,-0.05522330836388267,-13.8125
-53.5,0.012271846303084644,-26.8125
-53.5,0.0674951546669682,-40.6875
-53.5,-0.12271846303085088,9.75
-54.0,0.024543692606170175,-4.875
-54.0,0.06135923151542588,-26.8125
-54.5,-0.07976700097005374,0.0
-53.5,0.024543692606170175,-4.875
-53.5,-0.006135923151542322,-13.8125
-53.5,0.024543692606170175,-13.8125
-54.0,-0.03681553890925482,-13.8125
-53.5,0.030679615757712497,-26.8125
-54.0,-0.024543692606170175,-13.8125
-53.5,-0.07976700097005374,31.6875
-54.5,0.0674951546669682,6.5
-53.5,0.04908738521234035,-20.3125
-53.5,-0.21475731030398926,50.4375
-53.5,0.2270291566070748,-31.6875
-53.5,-0.024543692606170175,-21.9375
-54.0,0.06135923151542588,-31.6875
-54.0,-0.09203884727313838,-6.5
-53.5,0.0,-10.5625
-54.5,-0.10431069357622391,24.375
-54.5,0.07363107781851053,-3.25
-54.0,-0.018407769454627854,13.8125
-54.5,0.07363107781851141,4.875
-54.0,0.024543692606170175,-30.0625
-54.0,-0.08590292412159606,-17.0625
-54.0,0.04908738521234035,-26.8125
-54.0,0.006135923151542322,-13.8125
-53.5,-0.11044661672776623,20.3125
-54.0,0.09817477042468159,-9.75
-53.5,-0.04295146206079803,-13.8125
-54.0,0.03681553890925571,-4.875
-54.0,0.018407769454626965,-34.9375
-53.5,-0.006135923151542322,-13.8125
-53.5,0.10431069357622391,-47.1875
-54.5,-0.21475731030399015,18.6875
-54.5,0.04908738521234035,4.875
-53.5,-0.030679615757712497,6.5
-54.5,0.04295146206079803,-17.0625
-54.0,-0.012271846303085532,1.625
-53.5,0.06135923151542588,-21.9375
-54.0,0.006135923151542322,-21.9375
-53.5,0.0,-25.1875
-54.0,-0.006135923151542322,-15.4375
-54.0,0.018407769454627854,-30.0625
-53.5,-0.07363107781851053,1.625
-54.0,-0.04908738521234124,25.1875
-54.0,0.15953400194010747,-23.5625
-54.0,-0.23930100291016032,27.625
-53.5,0.09203884727313838,1.625
-54.0,-0.006135923151542322,6.5
-53.5,0.018407769454627854,0.0
-53.5,-0.05522330836388356,13.8125
-54.0,0.20862138715244694,-48.8125
-54.0,-0.14112623248547873,-1.625
-54.0,0.0,8.125
-54.5,0.006135923151542322,-20.3125
-54.0,0.04908738521234124,-23.5625
-53.5,-0.030679615757713385,-21.9375
-54.0,0.03681553890925571,-28.4375
-54.5,-0.09817477042468159,-3.25
-54.0,0.024543692606171064,-11.375
-54.0,-0.08590292412159606,11.375
-53.5,0.0674951546669682,-3.25
-54.5,-0.10431069357622391,34.9375
-54.5,0.04295146206079803,6.5
-54.0,0.0981747704246807,-13.8125
-54.5,0.0,-15.4375
-54.5,-0.15339807878856337,28.4375
-54.0,0.14112623248547873,-8.125
-54.0,-0.024543692606170175,-25.1875
-54.5,-0.04295146206079803,-4.875
-54.0,0.04295146206079803,0.0
-55.0,-0.0674951546669682,-4.875
-54.5,0.09203884727313838,-21.9375
-54.0,0.0,-20.3125
-54.5,-0.14112623248547873,9.75
-54.5,0.012271846303084644,11.375
-54.5,-0.06135923151542588,18.6875
-54.5,0.05522330836388356,11.375
-54.0,0.28838838812250067,-70.75
-54.5,-0.17180584824319212,-40.6875
-54.0,-0.15339807878856426,18.6875
-54.5,0.2024854640009046,-42.3125
-54.0,0.05522330836388356,-47.1875
-54.0,-0.2699806186678728,18.6875
-54.5,0.1349903093339364,-1.625
-54.0,0.006135923151542322,-23.5625
-54.0,0.04295146206079803,-21.9375
-54.5,-0.03681553890925571,-21.9375
-54.0,0.006135923151542322,-18.6875
-54.0,-0.11044661672776535,-13.8125
-54.0,0.0981747704246807,-39.0
-54.0,0.006135923151542322,-28.4375
-54.0,0.018407769454627854,-40.6875
-54.0,-0.2024854640009046,21.9375
-54.0,0.2270291566070748,-36.5625
-54.5,-0.0981747704246807,-7.3125
-54.5,-0.1349903093339364,13.8125
-54.0,0.10431069357622302,-9.75
-54.5,0.030679615757713385,-28.4375
-54.0,0.03681553890925482,-40.6875
-54.0,-0.006135923151542322,-21.9375
-53.5,-0.1288543861823941,6.5
-54.5,0.03681553890925571,-8.125
-54.5,0.07976700097005374,-17.0625
-54.0,-0.2699806186678728,40.6875
-54.0,0.2577087723647873,-17.0625
-54.5,0.030679615757712497,-34.9375
-54.0,-0.11658253987930856,-4.875
-54.0,-0.1288543861823941,25.1875
-54.0,0.03681553890925571,21.9375
-54.0,0.0674951546669682,-3.25
-54.5,0.0674951546669682,-17.0625
-54.0,-0.030679615757712497,-6.5
-53.5,-0.03681553890925571,13.8125
-54.0,0.04295146206079803,-15.4375
-54.5,0.0,-25.1875
-54.5,-0.06135923151542588,0.0
-54.0,0.08590292412159606,-39.0
-54.0,-0.17180584824319212,9.75
-54.0,-0.012271846303084644,15.4375
-53.5,-0.030679615757712497,23.5625
-54.0,0.07976700097005285,-3.25
-54.5,0.12271846303085177,-34.9375
-53.5,-0.11658253987930944,-1.625
-54.5,0.05522330836388356,-23.5625
-53.5,0.0,-20.3125
-54.0,-0.018407769454627854,-30.0625
-53.5,-0.04295146206079803,-4.875
-54.0,0.04295146206079803,-20.3125
-54.0,-0.1963495408493623,30.0625
-54.0,0.3006602344255862,-52.0625
-54.0,-0.2699806186678728,20.3125
-54.0,-0.04295146206079803,30.0625
-53.5,0.0674951546669682,4.875
-54.0,-0.012271846303085532,6.5
-53.5,0.03681553890925571,-13.8125
-54.0,0.06135923151542588,-31.6875
-53.5,0.0,-23.5625
-54.0,-0.22089323345553247,60.1875
-53.5,0.22089323345553247,-28.4375
-53.5,-0.05522330836388356,-4.875
-53.0,0.012271846303085532,-8.125
-54.0,-0.04908738521234124,1.625
-53.5,-0.0981747704246807,30.0625
-54.0,0.1288543861823941,-9.75
-53.5,-0.012271846303085532,-23.5625
-53.0,-0.04295146206079803,-1.625
-53.5,0.00613592315154321,4.875
-53.0,-0.030679615757713385,9.75
-53.0,-0.07363107781851053,13.8125
-52.5,0.05522330836388267,-1.625
-53.0,-0.061359231515424995,25.1875
-53.0,0.03681553890925482,1.625
-53.0,-0.030679615757712497,15.4375
-53.0,0.07976700097005374,-8.125
-53.0,0.024543692606170175,-17.0625
-53.0,-0.15339807878856426,17.0625
-53.0,0.04908738521234035,15.4375
-53.0,0.030679615757712497,-6.5
-52.5,-0.024543692606170175,3.25
-53.0,0.1349903093339364,-38.1875
-53.0,-0.17180584824319123,21.9375
-52.5,-0.024543692606170175,13.8125
-53.0,0.04908738521234035,17.0625
-52.0,-0.09203884727313838,43.9375
-52.5,0.1288543861823932,1.625
-52.5,-0.04295146206079803,15.4375
-52.5,0.1288543861823941,-33.3125
-53.0,-0.20862138715244694,17.0625
-52.5,0.09203884727313838,-6.5
-52.0,0.012271846303085532,-4.875
-52.5,-0.018407769454627854,-6.5
-52.5,-0.07976700097005374,15.4375
-52.5,0.1288543861823941,-18.6875
-52.5,-0.006135923151542322,-17.0625
-52.5,0.024543692606170175,-28.4375
-52.0,-0.030679615757713385,-17.0625
-52.0,-0.061359231515424995,-1.625
-52.5,-0.09817477042468159,15.4375
-52.0,0.07363107781851141,11.375
-52.0,0.0,8.125
-52.0,0.024543692606170175,-9.75
-52.5,-0.18407769454627765,39.0
-52.0,0.08590292412159606,18.6875
-52.0,0.1349903093339364,-11.375
-52.0,-0.04908738521234035,-6.5
-52.5,-0.08590292412159606,17.0625
-52.5,0.03681553890925571,0.0
-52.5,-0.04295146206079803,18.6875
-52.0,0.03681553890925571,9.75
-52.0,0.07363107781851053,-15.4375
-51.5,-0.14726215563702194,23.5625
-51.5,-0.018407769454627854,13.8125
-52.0,0.06749515466696909,-4.875
-52.0,0.04295146206079714,-15.4375
-52.0,-0.04295146206079714,8.125
-52.0,0.03681553890925482,1.625
-51.5,0.0,-11.375
-51.5,-0.1349903093339364,33.3125
-51.5,0.15953400194010658,-20.3125
-51.5,-0.14726215563702105,11.375
-52.0,0.12271846303085088,-3.25
-51.5,0.06135923151542588,-26.8125
-51.5,-0.09203884727313838,-4.875
-51.5,-0.04908738521234035,8.125
-52.0,0.018407769454626965,17.0625
-52.0,-0.018407769454626965,6.5
-51.5,0.018407769454626965,11.375
-52.0,0.0,9.75
-51.5,0.030679615757713385,4.875
-51.0,-0.10431069357622391,23.5625
-51.5,0.05522330836388356,1.625
-51.5,0.05522330836388267,-3.25
-51.5,0.006135923151542322,-13.8125
-51.5,-0.0981747704246807,4.875
-51.5,0.06135923151542588,-6.5
-51.5,-0.07363107781851141,18.6875
-51.5,-0.012271846303084644,15.4375
-51.0,0.07363107781851053,-6.5
-51.5,0.05522330836388356,-17.0625
-51.0,-0.11658253987930944,8.125
-51.5,0.04908738521234124,-9.75
-51.5,0.012271846303084644,4.875
-51.0,-0.05522330836388267,-3.25
-51.0,-0.024543692606170175,8.125
-51.5,-0.07363107781851141,20.3125
-51.0,0.012271846303085532,18.6875
-51.5,0.030679615757712497,18.6875
-51.0,-0.05522330836388267,30.0625
-51.5,0.14726215563702105,-9.75
-51.0,0.012271846303085532,-21.9375
-51.0,-0.07976700097005374,1.625
-51.0,0.0,6.5
-51.0,0.00613592315154321,8.125
-51.0,-0.024543692606171064,20.3125
-51.0,-0.024543692606170175,18.6875
-51.0,0.030679615757713385,6.5
-51.0,0.0,9.75
-50.5,-0.00613592315154321,4.875
-51.0,0.09203884727313927,-11.375
-51.0,-0.018407769454627854,-3.25
-51.0,0.0,11.375
-51.0,-0.04295146206079803,9.75
-51.0,-0.07363107781851053,33.3125
-51.0,0.0981747704246807,0.0
-51.0,0.012271846303084644,8.125
-50.5,-0.018407769454626965,9.75
-51.0,0.07976700097005285,-9.75
-50.5,0.03681553890925571,-20.3125
-51.0,-0.07976700097005374,0.0
-50.5,0.06135923151542588,-15.4375
-51.5,-0.018407769454627854,3.25
-51.0,0.03681553890925571,0.0
-50.5,-0.030679615757712497,-4.875
-51.0,0.03681553890925482,-13.8125
-51.0,0.04295146206079803,-8.125
-51.0,-0.030679615757712497,4.875
-51.5,0.018407769454627854,-6.5
-51.0,0.012271846303084644,-9.75
-51.0,-0.006135923151542322,21.9375
-51.0,0.05522330836388267,6.5
-52.0,0.012271846303085532,4.875
-51.0,0.0981747704246807,-23.5625
-51.0,-0.08590292412159606,1.625
-51.0,0.012271846303085532,-8.125
-51.0,0.0674951546669682,-23.5625
-51.5,0.0,-8.125
-51.5,-0.03681553890925571,9.75
-51.5,-0.012271846303084644,1.625
-51.5,0.018407769454627854,9.75
-51.5,0.012271846303084644,11.375
-51.5,0.09203884727313838,-20.3125
-52.0,-0.1288543861823941,23.5625
-52.0,0.15339807878856426,-21.9375
-52.0,-0.11658253987930856,31.6875
-52.0,0.1349903093339364,-20.3125
-52.0,-0.07363107781851053,6.5
-51.5,0.11658253987930856,-26.8125
-51.5,-0.10431069357622391,13.8125
-52.0,0.012271846303085532,-6.5
-52.0,-0.006135923151542322,3.25
-51.5,0.10431069357622302,-15.4375
-52.5,-0.31293208072867085,85.4375
-52.0,0.3313398501832987,-18.6875
-52.0,-0.08590292412159606,13.8125
-51.5,0.08590292412159606,-18.6875
-51.5,-0.06135923151542588,-3.25
-51.5,0.03681553890925571,-10.5625
-51.5,0.0674951546669682,-21.9375
-52.0,-0.1349903093339364,9.75
-52.0,0.0674951546669682,6.5
-52.0,0.08590292412159606,-9.75
-51.0,-0.06135923151542588,8.125
-51.5,-0.012271846303084644,15.4375
-51.5,-0.00613592315154321,4.875
-51.0,0.00613592315154321,11.375
-51.5,0.17180584824319123,-39.0
-51.5,-0.03681553890925482,-18.6875
-51.5,-0.024543692606171064,-3.25
-51.5,0.018407769454627854,0.0
-51.0,0.030679615757713385,-4.875
-51.5,-0.012271846303085532,-4.875
-51.0,0.0,3.25
-51.0,-0.018407769454627854,-3.25
-51.5,-0.05522330836388267,20.3125
-51.0,0.11658253987930856,-8.125
-51.0,-0.04908738521234035,8.125
-51.0,0.08590292412159606,-11.375
-51.0,-0.04295146206079803,-6.5
-50.5,-0.024543692606170175,8.125
-50.5,0.0,11.375
-51.0,0.11044661672776623,-10.5625
-50.5,-0.07363107781851141,15.4375
-51.0,0.14726215563702194,-36.5625
-50.5,-0.07363107781851053,-8.125
-50.5,-0.00613592315154321,-8.125
-51.0,-0.024543692606170175,1.625
-50.5,0.1349903093339364,-30.0625
-50.5,-0.07363107781851053,-6.5
-50.5,-0.018407769454627854,-8.125
-50.0,-0.04908738521234035,3.25
-50.5,0.11044661672776623,-23.5625
-50.5,-0.06135923151542588,9.75
-50.5,-0.006135923151542322,4.875
-50.5,0.05522330836388267,-4.875
-50.5,-0.061359231515424995,8.125
-50.0,0.030679615757712497,15.4375
-50.0,0.03681553890925571,-11.375
-50.0,-0.00613592315154321,-1.625
-50.0,0.024543692606170175,-6.5
-50.0,0.0,6.5
-50.5,0.012271846303085532,4.875
-50.5,-0.006135923151542322,0.0
-50.0,0.024543692606170175,-3.25
-50.0,-0.030679615757713385,6.5
-50.0,0.08590292412159606,-13.8125
-50.0,-0.030679615757712497,6.5
-50.0,-0.04908738521234035,12.1875
-49.5,0.0,4.875
-50.0,0.08590292412159606,-11.375
-50.0,-0.04295146206079803,-3.25
-50.0,0.0,13.8125
-49.5,0.04908738521234035,0.0
-50.0,-0.018407769454627854,3.25
-49.5,0.04295146206079803,-1.625
-50.0,-0.04295146206079803,8.125
-49.5,-0.018407769454627854,9.75
-49.5,0.0,15.4375
-49.5,0.012271846303085532,18.6875
-49.5,0.08590292412159606,-20.3125
-50.0,-0.10431069357622391,23.5625
-49.5,0.15953400194010658,-23.5625
-50.0,-0.07976700097005374,-4.875
-49.5,-0.012271846303084644,11.375
-50.0,0.06135923151542588,-4.875
-50.0,0.012271846303084644,-18.6875
-49.5,-0.0981747704246807,25.1875
-50.0,0.04295146206079803,9.75
-49.5,-0.00613592315154321,11.375
-49.5,0.024543692606171064,8.125
-49.5,0.024543692606170175,6.5
-50.0,0.05522330836388267,-11.375
-50.0,-0.0674951546669682,13.8125
-49.5,0.012271846303085532,17.0625
-49.5,0.030679615757712497,3.25
-50.0,-0.03681553890925571,11.375
-49.5,0.018407769454627854,11.375
-50.0,0.05522330836388356,1.625
-49.5,-0.07363107781851141,17.0625
-49.5,0.05522330836388356,13.8125
-49.5,0.024543692606170175,1.625
-50.0,-0.006135923151542322,-4.875
-49.5,-0.00613592315154321,-3.25
-49.5,0.03681553890925571,-3.25
-49.5,-0.006135923151542322,6.5
-49.5,-0.0674951546669682,15.4375
-49.5,0.08590292412159606,-6.5
-50.0,-0.06135923151542588,4.875
-49.5,0.030679615757712497,1.625
-49.5,-0.012271846303084644,9.75
-49.5,-0.00613592315154321,17.0625
-49.5,-0.012271846303084644,23.5625
-49.5,0.03681553890925482,6.5
-49.5,-0.061359231515424995,18.6875
-49.5,0.07976700097005285,1.625
-50.0,-0.04295146206079803,11.375
-49.5,0.018407769454627854,0.0
-49.5,0.03681553890925571,1.625
-49.5,-0.006135923151542322,6.5
-49.5,-0.03681553890925571,6.5
-49.5,0.030679615757712497,-3.25
-49.5,-0.061359231515424995,20.3125
-50.0,0.012271846303084644,15.4375
-49.5,0.09203884727313838,-11.375
-49.5,-0.07363107781851053,6.5
-49.5,-0.012271846303085532,13.8125
-49.5,0.012271846303085532,18.6875
-49.5,0.012271846303084644,8.125
-49.5,0.012271846303085532,13.8125
-49.5,-0.03681553890925571,21.9375
-49.5,0.04908738521234124,3.25
-49.0,-0.018407769454627854,6.5
-50.0,0.04295146206079803,-8.125
-49.5,-0.05522330836388356,11.375
-49.5,0.024543692606170175,6.5
-49.5,0.0,9.75
-49.5,0.06135923151542588,-4.875
-49.5,-0.08590292412159606,6.5
-49.5,0.006135923151542322,21.9375
-49.5,0.024543692606171064,8.125
-49.5,-0.012271846303085532,21.9375
-49.5,0.024543692606170175,4.875
-49.5,0.05522330836388356,-4.875
-49.5,-0.08590292412159606,15.4375
-49.0,0.030679615757712497,8.125
-49.0,0.006135923151542322,12.1875
-49.5,0.018407769454627854,0.0
-49.5,-0.006135923151542322,1.625
-49.5,-0.08590292412159606,30.0625
-49.5,0.05522330836388356,11.375
-49.0,0.0674951546669682,-8.125
-49.0,-0.012271846303085532,1.625
-49.5,-0.030679615757712497,4.875
-49.0,0.012271846303084644,6.5
-50.0,-0.024543692606170175,6.5
-49.5,0.006135923151542322,9.75
-49.0,0.00613592315154321,4.875
-49.5,-0.030679615757713385,20.3125
-49.5,0.03681553890925571,8.125
-49.0,0.006135923151542322,8.125
-49.0,-0.05522330836388267,13.8125
-49.0,0.05522330836388267,1.625
-49.0,0.030679615757713385,-3.25
-49.0,-0.09817477042468159,21.9375
-49.0,0.0674951546669682,3.25
-49.0,-0.024543692606170175,8.125
-49.0,-0.006135923151542322,3.25
-49.0,-0.006135923151542322,8.9375
-49.0,0.012271846303084644,6.5
-49.0,-0.05522330836388267,20.3125
-49.0,0.08590292412159517,-3.25
-48.5,-0.04908738521234035,6.5
-49.0,-0.030679615757712497,23.5625
-48.5,0.07976700097005285,-8.125
-48.5,-0.030679615757712497,13.8125
-49.0,-0.030679615757712497,11.375
-49.0,0.024543692606170175,4.875
-48.5,0.006135923151542322,3.25
-49.0,-0.012271846303084644,17.0625
-48.5,-0.06135923151542588,25.1875
-48.5,0.04908738521234035,9.75
-48.5,0.0,11.375
-48.5,0.012271846303085532,9.75
-48.5,-0.00613592315154321,4.875
-48.5,-0.03681553890925482,13.8125
-49.0,0.030679615757712497,-1.625
-48.5,-0.012271846303085532,9.75
-48.0,0.03681553890925571,3.25
-48.5,0.006135923151542322,-6.5
-48.5,-0.07363107781851053,20.3125
-48.5,0.04295146206079803,6.5
-48.5,-0.06135923151542588,21.9375
-48.5,0.07976700097005374,1.625
-48.5,-0.024543692606170175,1.625
-48.5,0.030679615757712497,-1.625
-48.0,-0.024543692606170175,3.25
-48.0,-0.006135923151542322,-3.25
-48.5,-0.030679615757713385,17.0625
-48.0,0.05522330836388356,0.0
-48.0,-0.10431069357622391,17.0625
-48.0,0.10431069357622391,-4.875
-48.0,-0.006135923151542322,-11.375
-48.0,-0.030679615757713385,-1.625
-47.5,-0.05522330836388267,11.375
-47.5,0.030679615757712497,6.5
-48.0,-0.04295146206079803,20.3125
-48.0,0.0,15.4375
-47.5,0.0,15.4375
-47.5,-0.04295146206079803,21.9375
-47.0,0.018407769454627854,9.75
-47.5,0.018407769454627854,6.5
-47.0,-0.030679615757712497,11.375
-47.0,-0.00613592315154321,11.375
-47.0,-0.061359231515424995,18.6875
-47.0,0.012271846303084644,11.375
-46.5,0.030679615757712497,0.0
-46.5,-0.012271846303084644,-6.5
-46.5,0.0,-3.25
-47.0,-0.07976700097005374,11.375
-46.5,-0.012271846303084644,9.75
-46.5,-0.012271846303085532,13.8125
-46.0,0.0,15.4375
-46.5,-0.012271846303084644,15.4375
-46.5,-0.00613592315154321,18.6875
-46.0,0.04908738521234124,1.625
-46.0,-0.03681553890925571,11.375
-46.0,0.0,6.5
-46.0,-0.006135923151542322,4.875
-46.0,0.0,1.625
-46.0,0.030679615757712497,-6.5
-46.0,0.006135923151542322,-8.125
-46.0,-0.07976700097005285,8.125
-46.0,0.006135923151542322,8.125
-45.5,-0.018407769454627854,17.0625
-45.5,0.03681553890925571,1.625
-46.0,0.0,4.875
-45.5,-0.030679615757713385,13.8125
-46.0,-0.018407769454626965,9.75
-46.0,-0.03681553890925571,15.4375
-46.0,0.03681553890925571,8.125
-45.5,0.018407769454626965,1.625
-45.5,0.024543692606171064,-1.625
-45.5,0.018407769454626965,-9.75
-45.5,-0.024543692606170175,-1.625
-45.5,-0.0674951546669682,21.9375
-45.5,0.03681553890925571,4.875
-45.5,-0.012271846303085532,3.25
-45.5,0.024543692606170175,3.25
-45.5,0.00613592315154321,1.625
-46.0,-0.04908738521234035,20.3125
-45.5,0.012271846303084644,6.5
-45.5,0.03681553890925571,4.875
-45.5,-0.05522330836388356,11.375
-45.5,0.0674951546669682,-3.25
-45.5,-0.030679615757712497,9.75
-45.5,-0.012271846303085532,9.75
-45.5,0.00613592315154321,8.125
-45.5,0.030679615757712497,3.25
-46.0,-0.04908738521234035,11.375
-45.5,0.07976700097005285,-15.4375
-46.0,-0.09203884727313838,20.3125
-45.5,0.00613592315154321,17.0625
-45.5,0.07976700097005285,-6.5
-45.5,-0.04295146206079803,0.0
-45.5,0.030679615757713385,1.625
-45.5,-0.04295146206079803,3.25
-45.5,-0.030679615757713385,9.75
-46.0,0.024543692606170175,6.5
-45.5,-0.018407769454626965,17.0625
-45.5,-0.030679615757713385,21.9375
-45.5,0.04908738521234035,11.375
-45.5,-0.018407769454626965,11.375
-45.5,0.061359231515424995,-3.25
-45.5,0.00613592315154321,-6.5
-45.5,-0.06135923151542588,9.75
-45.5,0.012271846303084644,4.875
-45.5,0.05522330836388356,-4.875
-45.5,-0.0674951546669682,8.125
-45.5,0.006135923151542322,13.8125
-45.5,-0.006135923151542322,15.4375
-45.5,0.006135923151542322,8.125
-45.5,-0.030679615757712497,20.3125
-45.5,0.024543692606170175,11.375
-45.5,0.012271846303084644,6.5
-45.5,-0.024543692606170175,15.4375
-46.0,0.024543692606170175,11.375
-45.5,0.07363107781851141,-4.875
-45.5,-0.06135923151542588,8.125
-46.0,0.006135923151542322,13.8125
-46.0,0.04295146206079803,4.875
-46.0,-0.012271846303084644,13.8125
-46.5,0.012271846303084644,13.8125
-47.0,0.05522330836388356,3.25
