80000000000000000000CC00,1,1477529998265723,1477529998265723,1,12.1875,13312,-55.5,865.7,3.1661363
80000000000000000000CC00,1,1477529998272737,1477529998272737,1,0.8125,13312,-53.0,865.7,3.1661363
80000000000000000000CC00,1,1477529998280899,1477529998280899,1,-4.875,13312,-53.5,865.7,3.1661363
80000000000000000000CC00,1,1477529998288563,1477529998288563,1,-8.9375,13312,-53.5,865.7,3.1784081
80000000000000000000CC00,1,1477529998295550,1477529998295550,1,-9.75,13312,-53.0,865.7,3.264311
80000000000000000000CC00,1,1477529998302566,1477529998302566,1,-22.75,13312,-52.5,865.7,3.3808937
80000000000000000000CC00,1,1477529998310306,1477529998310306,1,-26.8125,13312,-53.5,865.7,3.3808937
80000000000000000000CC00,1,1477529998316978,1477529998316978,1,41.5,13312,-53.5,865.7,2.957515
80000000000000000000CC00,1,1477529998323908,1477529998323908,1,-26.8125,13312,-52.0,865.7,3.3072627
80000000000000000000CC00,1,1477529998331991,1477529998331991,1,-7.3125,13312,-54.5,865.7,3.2520392
80000000000000000000CC00,1,1477529998338946,1477529998338946,1,-5.6875,13312,-54.0,865.7,3.117049
80000000000000000000CC00,1,1477529998348140,1477529998348140,1,-6.5,13312,-53.0,865.7,3.1722722
80000000000000000000CC00,1,1477529998354945,1477529998354945,1,30.0625,13312,-54.0,865.7,3.1477287
80000000000000000000CC00,1,1477529998361976,1477529998361976,1,39.875,13312,-52.0,865.7,2.9759228
80000000000000000000CC00,1,1477529998369607,1477529998369607,1,17.0625,13312,-53.5,865.7,3.1293209
80000000000000000000CC00,1,1477529998376535,1477529998376535,1,-2.4375,13312,-53.0,865.7,3.196816
80000000000000000000CC00,1,1477529998384400,1477529998384400,1,14.625,13312,-54.0,865.7,3.117049
80000000000000000000CC00,1,1477529998392981,1477529998392981,1,21.9375,13312,-52.5,865.7,3.0740974
80000000000000000000CC00,1,1477529998399721,1477529998399721,1,-10.5625,13312,-54.0,865.7,3.202952
80000000000000000000CC00,1,1477529998407363,1477529998407363,1,-57.75,13312,-54.0,865.7,3.270447
80000000000000000000CC00,1,1477529998414361,1477529998414361,1,56.9375,13312,-54.0,865.7,2.7795732
80000000000000000000CC00,1,1477529998421100,1477529998421100,1,8.9375,13312,-52.5,865.7,3.1293209
80000000000000000000CC00,1,1477529998430974,1477529998430974,1,27.625,13312,-54.0,865.7,3.043418
80000000000000000000CC00,1,1477529998440068,1477529998440068,1,-9.75,13312,-54.5,865.7,3.19068
80000000000000000000CC00,1,1477529998449584,1477529998449584,1,-12.1875,13312,-55.0,865.7,3.1415927
80000000000000000000CC00,1,1477529998458052,1477529998458052,1,17.0625,13312,-53.5,865.7,3.0066023
80000000000000000000CC00,1,1477529998465488,1477529998465488,1,-15.4375,13312,-53.5,865.7,3.3931656
80000000000000000000CC00,1,1477529998473307,1477529998473307,1,6.5,13312,-53.0,865.7,3.184544
80000000000000000000CC00,1,1477529998480526,1477529998480526,1,-25.1875,13312,-52.0,865.7,3.2949908
80000000000000000000CC00,1,1477529998490767,1477529998490767,1,-17.0625,13312,-52.0,865.7,3.2274957
80000000000000000000CC00,1,1477529998499555,1477529998499555,1,0.0,13312,-54.5,865.7,3.1661363
80000000000000000000CC00,1,1477529998506269,1477529998506269,1,13.8125,13312,-53.5,865.7,3.1477287
80000000000000000000CC00,1,1477529998513221,1477529998513221,1,-4.875,13312,-51.0,865.7,3.2090878
80000000000000000000CC00,1,1477529998520837,1477529998520837,1,-24.375,13312,-54.0,865.7,3.2397673
80000000000000000000CC00,1,1477529998528240,1477529998528240,1,-4.875,13312,-52.5,865.7,3.0679617
80000000000000000000CC00,1,1477529998536021,1477529998536021,1,15.4375,13312,-53.5,865.7,3.1538644
80000000000000000000CC00,1,1477529998544669,1477529998544669,1,-26.8125,13312,-52.0,865.7,3.264311
80000000000000000000CC00,1,1477529998552441,1477529998552441,1,-54.5,13312,-53.5,865.7,3.4790685
80000000000000000000CC00,1,1477529998559445,1477529998559445,1,4.875,13312,-51.5,865.7,3.037282
80000000000000000000CC00,1,1477529998574511,1477529998574511,1,-36.5625,13312,-54.0,865.7,3.184544
80000000000000000000CC00,1,1477529998582090,1477529998582090,1,-19.5,13312,-52.5,865.7,3.2520392
80000000000000000000CC00,1,1477529998588808,1477529998588808,1,-34.125,13312,-54.0,865.7,2.9759228
80000000000000000000CC00,1,1477529998596538,1477529998596538,1,13.0,13312,-53.5,865.7,2.9452431
80000000000000000000CC00,1,1477529998603332,1477529998603332,1,5.6875,13312,-54.0,865.7,2.9084275
80000000000000000000CC00,1,1477529998611824,1477529998611824,1,6.5,13312,-52.0,865.7,2.957515
80000000000000000000CC00,1,1477529998619501,1477529998619501,1,10.5625,13312,-52.5,865.7,2.9943304
80000000000000000000CC00,1,1477529998626910,1477529998626910,1,4.875,13312,-54.0,865.7,2.8654761
80000000000000000000CC00,1,1477529998633888,1477529998633888,1,13.8125,13312,-52.5,865.7,2.89002
80000000000000000000CC00,1,1477529998640847,1477529998640847,1,48.8125,13312,-53.0,865.7,2.6875343
80000000000000000000CC00,1,1477529998647579,1477529998647579,1,1.625,13312,-53.5,865.7,2.8470683
80000000000000000000CC00,1,1477529998654826,1477529998654826,1,20.3125,13312,-51.5,865.7,2.8593402
80000000000000000000CC00,1,1477529998663451,1477529998663451,1,-9.75,13312,-52.5,865.7,2.969787
80000000000000000000CC00,1,1477529998670503,1477529998670503,1,39.875,13312,-53.5,865.7,2.6200392
80000000000000000000CC00,1,1477529998677497,1477529998677497,1,-9.75,13312,-54.0,865.7,2.8163888
80000000000000000000CC00,1,1477529998684493,1477529998684493,1,12.1875,13312,-52.0,865.7,2.712078
80000000000000000000CC00,1,1477529998691467,1477529998691467,1,-22.75,13312,-52.0,865.7,2.9206994
80000000000000000000CC00,1,1477529998698219,1477529998698219,1,-20.3125,13312,-53.5,865.7,2.89002
80000000000000000000CC00,1,1477529998705182,1477529998705182,1,0.8125,13312,-53.5,865.7,2.7366216
80000000000000000000CC00,1,1477529998713640,1477529998713640,1,5.6875,13312,-53.0,865.7,2.89002
80000000000000000000CC00,1,1477529998720650,1477529998720650,1,-43.9375,13312,-52.5,865.7,3.0127382
80000000000000000000CC00,1,1477529998727893,1477529998727893,1,22.75,13312,-53.0,865.7,2.5709517
80000000000000000000CC00,1,1477529998734900,1477529998734900,1,-10.5625,13312,-53.0,865.7,2.6875343
80000000000000000000CC00,1,1477529998741821,1477529998741821,1,7.3125,13312,-53.0,865.7,2.797981
80000000000000000000CC00,1,1477529998748471,1477529998748471,1,32.5,13312,-52.0,865.7,2.6261752
80000000000000000000CC00,1,1477529998755705,1477529998755705,1,-4.0625,13312,-52.5,865.7,2.632311
80000000000000000000CC00,1,1477529998762695,1477529998762695,1,-29.25,13312,-53.5,865.7,2.8961558
80000000000000000000CC00,1,1477529998770567,1477529998770567,1,-22.75,13312,-52.5,865.7,2.8593402
80000000000000000000CC00,1,1477529998777520,1477529998777520,1,-9.75,13312,-52.5,865.7,2.6875343
80000000000000000000CC00,1,1477529998784711,1477529998784711,1,-0.8125,13312,-51.5,865.7,2.7857091
80000000000000000000CC00,1,1477529998792816,1477529998792816,1,10.5625,13312,-52.0,865.7,2.804117
80000000000000000000CC00,1,1477529998799509,1477529998799509,1,12.1875,13312,-53.5,865.7,2.4298255
80000000000000000000CC00,1,1477529998806652,1477529998806652,1,-29.25,13312,-51.5,865.7,2.8593402
80000000000000000000CC00,1,1477529998813622,1477529998813622,1,-43.9375,13312,-52.5,865.7,2.8654761
80000000000000000000CC00,1,1477529998820856,1477529998820856,1,45.5625,13312,-52.5,865.7,2.3868742
80000000000000000000CC00,1,1477529998827622,1477529998827622,1,5.6875,13312,-52.5,865.7,2.6016314
80000000000000000000CC00,1,1477529998834812,1477529998834812,1,-4.875,13312,-52.5,865.7,2.552544
80000000000000000000CC00,1,1477529998841508,1477529998841508,1,9.75,13312,-53.5,865.7,2.5157285
80000000000000000000CC00,1,1477529998849165,1477529998849165,1,-24.375,13312,-52.5,865.7,2.877748
80000000000000000000CC00,1,1477529998855917,1477529998855917,1,-35.75,13312,-52.5,865.7,2.791845
80000000000000000000CC00,1,1477529998863163,1477529998863163,1,8.9375,13312,-52.5,865.7,2.3193789
80000000000000000000CC00,1,1477529998870085,1477529998870085,1,17.875,13312,-52.0,865.7,2.4543693
80000000000000000000CC00,1,1477529998877085,1477529998877085,1,16.25,13312,-51.5,865.7,2.4359615
80000000000000000000CC00,1,1477529998884118,1477529998884118,1,21.125,13312,-53.5,865.7,2.3868742
80000000000000000000CC00,1,1477529998891108,1477529998891108,1,-10.5625,13312,-53.5,865.7,2.6998062
80000000000000000000CC00,1,1477529998899483,1477529998899483,1,-23.5625,13312,-52.0,865.7,2.6016314
80000000000000000000CC00,1,1477529998906215,1477529998906215,1,-16.25,13312,-51.5,865.7,2.6813984
80000000000000000000CC00,1,1477529998913218,1477529998913218,1,-6.5,13312,-52.5,865.7,2.5341363
80000000000000000000CC00,1,1477529998921271,1477529998921271,1,0.8125,13312,-52.0,865.7,2.5034566
80000000000000000000CC00,1,1477529998928441,1477529998928441,1,27.625,13312,-52.0,865.7,2.3071072
80000000000000000000CC00,1,1477529998935357,1477529998935357,1,-28.4375,13312,-53.5,865.7,2.5709517
80000000000000000000CC00,1,1477529998942092,1477529998942092,1,25.1875,13312,-53.0,865.7,2.3255148
80000000000000000000CC00,1,1477529998952445,1477529998952445,1,-20.3125,13312,-52.5,865.7,2.6261752
80000000000000000000CC00,1,1477529998959200,1477529998959200,1,-14.625,13312,-53.5,865.7,2.6200392
80000000000000000000CC00,1,1477529998968028,1477529998968028,1,15.4375,13312,-52.5,865.7,2.5218644
80000000000000000000CC00,1,1477529998975063,1477529998975063,1,-41.5,13312,-53.5,865.7,2.6261752
80000000000000000000CC00,1,1477529998981827,1477529998981827,1,7.3125,13312,-52.5,865.7,2.4543693
80000000000000000000CC00,1,1477529998988783,1477529998988783,1,-2.4375,13312,-53.0,865.7,2.3684664
80000000000000000000CC00,1,1477529998996055,1477529998996055,1,17.0625,13312,-52.5,865.7,2.3500586
80000000000000000000CC00,1,1477529999002853,1477529999002853,1,-34.125,13312,-53.5,865.7,2.5341363
80000000000000000000CC00,1,1477529999011431,1477529999011431,1,-8.9375,13312,-51.5,865.7,2.5034566
80000000000000000000CC00,1,1477529999019183,1477529999019183,1,14.625,13312,-53.0,865.7,2.2702916
80000000000000000000CC00,1,1477529999026269,1477529999026269,1,-2.4375,13312,-53.5,865.7,2.3071072
80000000000000000000CC00,1,1477529999032941,1477529999032941,1,-29.25,13312,-52.5,865.7,2.5648158
80000000000000000000CC00,1,1477529999039897,1477529999039897,1,25.1875,13312,-54.0,865.7,2.2273402
80000000000000000000CC00,1,1477529999047896,1477529999047896,1,-8.125,13312,-52.0,865.7,2.4973207
80000000000000000000CC00,1,1477529999055135,1477529999055135,1,-23.5625,13312,-53.0,865.7,2.4911847
80000000000000000000CC00,1,1477529999062052,1477529999062052,1,-10.5625,13312,-53.0,865.7,2.4482334
80000000000000000000CC00,1,1477529999068758,1477529999068758,1,1.625,13312,-54.0,865.7,2.3255148
80000000000000000000CC00,1,1477529999075681,1477529999075681,1,-19.5,13312,-53.5,865.7,2.4175537
80000000000000000000CC00,1,1477529999082987,1477529999082987,1,-43.125,13312,-52.0,865.7,2.6568546
80000000000000000000CC00,1,1477529999089724,1477529999089724,1,27.625,13312,-53.5,865.7,2.1046216
80000000000000000000CC00,1,1477529999096913,1477529999096913,1,10.5625,13312,-52.5,865.7,2.3561945
80000000000000000000CC00,1,1477529999103662,1477529999103662,1,-69.125,13312,-53.0,865.7,2.7488935
80000000000000000000CC00,1,1477529999110900,1477529999110900,1,-16.25,13312,-52.0,865.7,2.4605052
80000000000000000000CC00,1,1477529999117595,1477529999117595,1,-15.4375,13312,-53.5,865.7,2.4543693
80000000000000000000CC00,1,1477529999124606,1477529999124606,1,14.625,13312,-54.0,865.7,2.233476
80000000000000000000CC00,1,1477529999131582,1477529999131582,1,-15.4375,13312,-52.0,865.7,2.4236896
80000000000000000000CC00,1,1477529999138528,1477529999138528,1,-21.9375,13312,-52.0,865.7,2.4298255
80000000000000000000CC00,1,1477529999145756,1477529999145756,1,-21.9375,13312,-53.0,865.7,2.3868742
80000000000000000000CC00,1,1477529999152859,1477529999152859,1,-13.8125,13312,-52.5,865.7,2.4175537
80000000000000000000CC00,1,1477529999159561,1477529999159561,1,-30.875,13312,-52.0,865.7,2.3439226
80000000000000000000CC00,1,1477529999166611,1477529999166611,1,12.1875,13312,-53.0,865.7,2.1659808
80000000000000000000CC00,1,1477529999173536,1477529999173536,1,-34.125,13312,-52.0,865.7,2.4236896
80000000000000000000CC00,1,1477529999180503,1477529999180503,1,-17.0625,13312,-53.5,865.7,2.3193789
80000000000000000000CC00,1,1477529999187506,1477529999187506,1,13.0,13312,-53.5,865.7,1.9880391
80000000000000000000CC00,1,1477529999194723,1477529999194723,1,15.4375,13312,-52.5,865.7,2.0248547
80000000000000000000CC00,1,1477529999201403,1477529999201403,1,-6.5,13312,-53.0,865.7,2.2027965
80000000000000000000CC00,1,1477529999209677,1477529999209677,1,-20.3125,13312,-52.5,865.7,2.2825634
80000000000000000000CC00,1,1477529999217865,1477529999217865,1,25.1875,13312,-53.5,865.7,2.000311
80000000000000000000CC00,1,1477529999225999,1477529999225999,1,-82.1875,13312,-52.5,865.7,2.5280004
80000000000000000000CC00,1,1477529999234085,1477529999234085,1,-43.9375,13312,-51.5,865.7,2.4236896
80000000000000000000CC00,1,1477529999241066,1477529999241066,1,-1.625,13312,-53.5,865.7,1.9941751
80000000000000000000CC00,1,1477529999248004,1477529999248004,1,44.75,13312,-54.5,865.7,2.0125828
80000000000000000000CC00,1,1477529999255029,1477529999255029,1,16.25,13312,-53.0,865.7,2.1659808
80000000000000000000CC00,1,1477529999262280,1477529999262280,1,-23.5625,13312,-51.5,865.7,2.3009713
80000000000000000000CC00,1,1477529999268985,1477529999268985,1,7.3125,13312,-54.0,865.7,2.0187187
80000000000000000000CC00,1,1477529999276204,1477529999276204,1,74.8125,13312,-53.0,865.7,1.8714565
80000000000000000000CC00,1,1477529999282943,1477529999282943,1,-2.4375,13312,-52.5,865.7,2.3561945
80000000000000000000CC00,1,1477529999290182,1477529999290182,1,37.375,13312,-52.5,865.7,1.7732818
80000000000000000000CC00,1,1477529999297111,1477529999297111,1,-1.625,13312,-54.0,865.7,2.0248547
80000000000000000000CC00,1,1477529999303786,1477529999303786,1,0.0,13312,-53.5,865.7,2.0187187
80000000000000000000CC00,1,1477529999310993,1477529999310993,1,-56.125,13312,-52.5,865.7,2.4236896
80000000000000000000CC00,1,1477529999317967,1477529999317967,1,4.0625,13312,-50.5,865.7,2.1721168
80000000000000000000CC00,1,1477529999325758,1477529999325758,1,28.4375,13312,-53.0,865.7,1.9512236
80000000000000000000CC00,1,1477529999332790,1477529999332790,1,-35.75,13312,-53.0,865.7,2.2764275
80000000000000000000CC00,1,1477529999340799,1477529999340799,1,-42.3125,13312,-52.5,865.7,2.3684664
80000000000000000000CC00,1,1477529999347850,1477529999347850,1,60.1875,13312,-53.0,865.7,1.8223692
80000000000000000000CC00,1,1477529999355915,1477529999355915,1,-17.875,13312,-53.5,865.7,2.1168935
80000000000000000000CC00,1,1477529999363566,1477529999363566,1,35.75,13312,-53.5,865.7,1.7364663
80000000000000000000CC00,1,1477529999370349,1477529999370349,1,2.4375,13312,-52.0,865.7,2.0432625
80000000000000000000CC00,1,1477529999377600,1477529999377600,1,38.1875,13312,-53.5,865.7,1.6444274
80000000000000000000CC00,1,1477529999384319,1477529999384319,1,-21.9375,13312,-53.0,865.7,2.0432625
80000000000000000000CC00,1,1477529999391261,1477529999391261,1,25.1875,13312,-52.5,865.7,1.9328158
80000000000000000000CC00,1,1477529999398239,1477529999398239,1,13.8125,13312,-54.0,865.7,1.7732818
80000000000000000000CC00,1,1477529999405473,1477529999405473,1,-5.6875,13312,-53.0,865.7,2.0248547
80000000000000000000CC00,1,1477529999412206,1477529999412206,1,27.625,13312,-53.0,865.7,1.8223692
80000000000000000000CC00,1,1477529999419413,1477529999419413,1,-5.6875,13312,-52.5,865.7,2.067806
80000000000000000000CC00,1,1477529999426181,1477529999426181,1,65.875,13312,-52.5,865.7,1.4664856
80000000000000000000CC00,1,1477529999434931,1477529999434931,1,56.125,13312,-53.5,865.7,1.4235342
80000000000000000000CC00,1,1477529999441840,1477529999441840,1,-24.375,13312,-53.0,865.7,1.9573594
80000000000000000000CC00,1,1477529999449875,1477529999449875,1,17.875,13312,-53.0,865.7,1.754874
80000000000000000000CC00,1,1477529999456648,1477529999456648,1,49.625,13312,-53.0,865.7,1.6505634
80000000000000000000CC00,1,1477529999464963,1477529999464963,1,8.125,13312,-54.0,865.7,1.8285052
80000000000000000000CC00,1,1477529999473827,1477529999473827,1,-31.6875,13312,-53.0,865.7,2.0187187
80000000000000000000CC00,1,1477529999480763,1477529999480763,1,-58.5625,13312,-52.5,865.7,2.0248547
80000000000000000000CC00,1,1477529999489910,1477529999489910,1,-54.5,13312,-52.5,865.7,1.8960003
80000000000000000000CC00,1,1477529999497225,1477529999497225,1,10.5625,13312,-53.0,865.7,1.521709
80000000000000000000CC00,1,1477529999504252,1477529999504252,1,37.375,13312,-54.0,865.7,1.2578642
80000000000000000000CC00,1,1477529999511649,1477529999511649,1,12.1875,13312,-53.0,865.7,1.4971652
80000000000000000000CC00,1,1477529999519498,1477529999519498,1,-1.625,13312,-54.5,865.7,1.3253593
80000000000000000000CC00,1,1477529999526519,1477529999526519,1,-46.375,13312,-54.0,865.7,1.6873789
80000000000000000000CC00,1,1477529999534682,1477529999534682,1,-17.0625,13312,-53.0,865.7,1.515573
80000000000000000000CC00,1,1477529999546004,1477529999546004,1,25.1875,13312,-54.5,865.7,1.2026409
80000000000000000000CC00,1,1477529999554218,1477529999554218,1,-13.0,13312,-55.0,865.7,1.5094371
80000000000000000000CC00,1,1477529999561596,1477529999561596,1,-25.1875,13312,-54.5,865.7,1.5033011
80000000000000000000CC00,1,1477529999575428,1477529999575428,1,-12.1875,13312,-55.5,865.7,1.2210487
80000000000000000000CC00,1,1477529999584030,1477529999584030,1,14.625,13312,-53.5,865.7,0.99401957
80000000000000000000CC00,1,1477529999599412,1477529999599412,1,-6.5,13312,-55.5,865.7,1.0737865
80000000000000000000CC00,1,1477529999606841,1477529999606841,1,-21.125,13312,-55.5,865.7,0.90811664
80000000000000000000CC00,1,1477529999623510,1477529999623510,1,30.875,13312,-58.0,865.7,0.8222137
80000000000000000000CC00,1,1477529999630229,1477529999630229,1,16.25,13312,-56.0,865.7,0.8406215
80000000000000000000CC00,1,1477529999690070,1477529999690070,1,28.4375,13312,-57.0,865.7,0.7731263
80000000000000000000CC00,1,1477529999808861,1477529999808861,1,-66.6875,13312,-56.5,865.7,1.030835
80000000000000000000CC00,1,1477529999931976,1477529999931976,1,-46.375,13312,-57.5,865.7,1.030835
80000000000000000000CC00,1,1477529999971748,1477529999971748,1,21.125,13312,-55.0,865.7,0.5767768
80000000000000000000CC00,1,1477529999995526,1477529999995526,1,-15.4375,13312,-57.0,865.7,0.73017484
80000000000000000000CC00,1,1477530000047229,1477530000047229,1,-36.5625,13312,-54.5,865.7,0.82834965
80000000000000000000CC00,1,1477530000079833,1477530000079833,1,4.875,13312,-57.0,865.7,0.62586415
80000000000000000000CC00,1,1477530000115840,1477530000115840,1,-99.25,13312,-56.5,865.7,0.9265244
80000000000000000000CC00,1,1477530000139128,1477530000139128,1,30.875,13312,-57.5,865.7,0.478602
80000000000000000000CC00,1,1477530000260707,1477530000260707,1,65.875,13312,-58.5,865.7,0.012271847
80000000000000000000CC00,1,1477530000781067,1477530000781067,1,43.125,13312,-56.0,865.7,6.2770495
80000000000000000000CC00,1,1477530000789451,1477530000789451,1,25.1875,13312,-56.5,865.7,0.05522331
80000000000000000000CC00,1,1477530000799277,1477530000799277,1,-10.5625,13312,-58.0,865.7,0.0
80000000000000000000CC00,1,1477530000838233,1477530000838233,1,-0.8125,13312,-56.5,865.7,6.1727386
80000000000000000000CC00,1,1477530000871349,1477530000871349,1,95.1875,13312,-56.5,865.7,5.6266418
80000000000000000000CC00,1,1477530000893463,1477530000893463,1,-27.625,13312,-57.0,865.7,0.19634955
80000000000000000000CC00,1,1477530000903188,1477530000903188,1,4.0625,13312,-56.5,865.7,6.2770495
80000000000000000000CC00,1,1477530000921071,1477530000921071,1,61.0,13312,-56.0,865.7,5.810719
80000000000000000000CC00,1,1477530000939521,1477530000939521,1,52.0625,13312,-55.0,865.7,6.0807
80000000000000000000CC00,1,1477530000976415,1477530000976415,1,54.5,13312,-56.0,865.7,5.8659425
80000000000000000000CC00,1,1477530000985921,1477530000985921,1,4.875,13312,-56.5,865.7,6.209554
80000000000000000000CC00,1,1477530001024105,1477530001024105,1,37.375,13312,-56.0,865.7,5.9457097
80000000000000000000CC00,1,1477530001056617,1477530001056617,1,90.3125,13312,-53.5,865.7,5.577554
80000000000000000000CC00,1,1477530001065449,1477530001065449,1,-20.3125,13312,-56.0,865.7,0.06135923
80000000000000000000CC00,1,1477530001075066,1477530001075066,1,1.625,13312,-57.0,865.7,6.240234
80000000000000000000CC00,1,1477530001115116,1477530001115116,1,25.1875,13312,-56.0,865.7,0.19634955
80000000000000000000CC00,1,1477530001139565,1477530001139565,1,30.0625,13312,-56.5,865.7,6.1911464
80000000000000000000CC00,1,1477530001147664,1477530001147664,1,13.0,13312,-57.0,865.7,6.086836
80000000000000000000CC00,1,1477530001154636,1477530001154636,1,-17.875,13312,-56.0,865.7,6.1727386
80000000000000000000CC00,1,1477530001173813,1477530001173813,1,-12.1875,13312,-54.5,865.7,6.2709136
80000000000000000000CC00,1,1477530001193701,1477530001193701,1,39.0,13312,-55.5,865.7,6.240234
80000000000000000000CC00,1,1477530001201834,1477530001201834,1,1.625,13312,-54.5,865.7,6.209554
80000000000000000000CC00,1,1477530001262086,1477530001262086,1,-9.75,13312,-55.5,865.7,6.1543307
80000000000000000000CC00,1,1477530001273623,1477530001273623,1,6.5,13312,-58.0,865.7,6.1297874
80000000000000000000CC00,1,1477530001310511,1477530001310511,1,-51.25,13312,-55.0,865.7,0.15339808
80000000000000000000CC00,1,1477530001354373,1477530001354373,1,-47.1875,13312,-56.5,865.7,0.57064086
80000000000000000000CC00,1,1477530001398967,1477530001398967,1,52.875,13312,-55.5,865.7,0.012271847
80000000000000000000CC00,1,1477530001443755,1477530001443755,1,-4.875,13312,-56.0,865.7,0.12271846
80000000000000000000CC00,1,1477530001457751,1477530001457751,1,13.8125,13312,-53.0,865.7,0.07363108
80000000000000000000CC00,1,1477530001490147,1477530001490147,1,-16.25,13312,-58.5,865.7,0.16566992
80000000000000000000CC00,1,1477530001533075,1477530001533075,1,65.875,13312,-57.0,865.7,0.04295146
80000000000000000000CC00,1,1477530005137782,1477530005137782,1,10.5625,13312,-55.5,865.7,3.4422529
80000000000000000000CC00,1,1477530005155932,1477530005155932,1,20.3125,13312,-53.5,865.7,3.5281558
80000000000000000000CC00,1,1477530005163160,1477530005163160,1,-12.1875,13312,-53.0,865.7,3.5465636
80000000000000000000CC00,1,1477530005170547,1477530005170547,1,17.875,13312,-53.0,865.7,3.4483888
80000000000000000000CC00,1,1477530005177273,1477530005177273,1,2.4375,13312,-53.5,865.7,3.5281558
80000000000000000000CC00,1,1477530005184522,1477530005184522,1,-25.1875,13312,-50.5,865.7,3.6938257
80000000000000000000CC00,1,1477530005192266,1477530005192266,1,6.5,13312,-50.5,865.7,3.515884
80000000000000000000CC00,1,1477530005199235,1477530005199235,1,8.9375,13312,-49.0,865.7,3.5281558
80000000000000000000CC00,1,1477530005206168,1477530005206168,1,0.8125,13312,-49.5,865.7,3.5711074
80000000000000000000CC00,1,1477530005215317,1477530005215317,1,8.9375,13312,-50.0,865.7,3.5465636
80000000000000000000CC00,1,1477530005222578,1477530005222578,1,7.3125,13312,-48.5,865.7,3.6017869
80000000000000000000CC00,1,1477530005229360,1477530005229360,1,10.5625,13312,-48.0,865.7,3.577243
80000000000000000000CC00,1,1477530005237683,1477530005237683,1,8.125,13312,-48.0,865.7,3.6386025
80000000000000000000CC00,1,1477530005244637,1477530005244637,1,7.3125,13312,-47.5,865.7,3.6386025
80000000000000000000CC00,1,1477530005251365,1477530005251365,1,1.625,13312,-47.5,865.7,3.6140587
80000000000000000000CC00,1,1477530005261473,1477530005261473,1,-2.4375,13312,-47.0,865.7,3.6570103
80000000000000000000CC00,1,1477530005268194,1477530005268194,1,1.625,13312,-46.5,865.7,3.6017869
80000000000000000000CC00,1,1477530005276275,1477530005276275,1,2.4375,13312,-46.5,865.7,3.5404277
80000000000000000000CC00,1,1477530005283453,1477530005283453,1,8.9375,13312,-47.5,865.7,3.4606607
80000000000000000000CC00,1,1477530005290413,1477530005290413,1,-4.875,13312,-48.0,865.7,3.4790685
80000000000000000000CC00,1,1477530005297203,1477530005297203,1,-12.1875,13312,-48.0,865.7,3.4545248
80000000000000000000CC00,1,1477530005304456,1477530005304456,1,6.5,13312,-47.5,865.7,3.3072627
80000000000000000000CC00,1,1477530005311188,1477530005311188,1,-13.8125,13312,-48.5,865.7,3.3379421
80000000000000000000CC00,1,1477530005318387,1477530005318387,1,-8.125,13312,-49.0,865.7,3.350214
80000000000000000000CC00,1,1477530005325077,1477530005325077,1,-19.5,13312,-49.0,865.7,3.2949908
80000000000000000000CC00,1,1477530005332294,1477530005332294,1,10.5625,13312,-48.5,865.7,3.0925052
80000000000000000000CC00,1,1477530005339299,1477530005339299,1,-23.5625,13312,-48.5,865.7,3.2274957
80000000000000000000CC00,1,1477530005346664,1477530005346664,1,-8.125,13312,-49.0,865.7,3.202952
80000000000000000000CC00,1,1477530005353370,1477530005353370,1,16.25,13312,-49.0,865.7,3.043418
80000000000000000000CC00,1,1477530005361269,1477530005361269,1,4.0625,13312,-50.0,865.7,3.0802333
80000000000000000000CC00,1,1477530005369423,1477530005369423,1,-8.9375,13312,-50.0,865.7,3.1538644
80000000000000000000CC00,1,1477530005376135,1477530005376135,1,-12.1875,13312,-48.5,865.7,3.202952
80000000000000000000CC00,1,1477530005384561,1477530005384561,1,-13.0,13312,-48.5,865.7,3.196816
80000000000000000000CC00,1,1477530005393256,1477530005393256,1,-5.6875,13312,-50.0,865.7,3.196816
80000000000000000000CC00,1,1477530005400071,1477530005400071,1,21.9375,13312,-49.0,865.7,3.037282
80000000000000000000CC00,1,1477530005407034,1477530005407034,1,-4.875,13312,-50.0,865.7,3.2520392
80000000000000000000CC00,1,1477530005414028,1477530005414028,1,0.0,13312,-49.0,865.7,3.1661363
80000000000000000000CC00,1,1477530005420988,1477530005420988,1,4.875,13312,-49.5,865.7,3.0986412
80000000000000000000CC00,1,1477530005428223,1477530005428223,1,-17.875,13312,-49.0,865.7,3.270447
80000000000000000000CC00,1,1477530005434922,1477530005434922,1,-5.6875,13312,-49.0,865.7,3.3318062
80000000000000000000CC00,1,1477530005442124,1477530005442124,1,-1.625,13312,-50.0,865.7,3.104777
80000000000000000000CC00,1,1477530005449111,1477530005449111,1,-6.5,13312,-48.0,865.7,3.2274957
80000000000000000000CC00,1,1477530005455826,1477530005455826,1,-0.8125,13312,-50.0,865.7,3.1600003
80000000000000000000CC00,1,1477530005462871,1477530005462871,1,-20.3125,13312,-49.0,865.7,3.2581751
80000000000000000000CC00,1,1477530005469882,1477530005469882,1,36.5625,13312,-49.0,865.7,2.9881945
80000000000000000000CC00,1,1477530005476902,1477530005476902,1,-13.0,13312,-48.0,865.7,3.276583
80000000000000000000CC00,1,1477530005483889,1477530005483889,1,21.9375,13312,-49.5,865.7,3.0740974
80000000000000000000CC00,1,1477530005490858,1477530005490858,1,6.5,13312,-49.5,865.7,3.1661363
80000000000000000000CC00,1,1477530005497810,1477530005497810,1,-9.75,13312,-49.0,865.7,3.2152238
80000000000000000000CC00,1,1477530005504775,1477530005504775,1,8.125,13312,-49.5,865.7,3.0863693
80000000000000000000CC00,1,1477530005511750,1477530005511750,1,-8.125,13312,-48.0,865.7,3.202952
80000000000000000000CC00,1,1477530005518942,1477530005518942,1,2.4375,13312,-50.0,865.7,2.9943304
80000000000000000000CC00,1,1477530005525917,1477530005525917,1,-9.75,13312,-48.5,865.7,3.2213597
80000000000000000000CC00,1,1477530005532746,1477530005532746,1,17.0625,13312,-49.5,865.7,3.02501
80000000000000000000CC00,1,1477530005539983,1477530005539983,1,-6.5,13312,-50.0,865.7,3.104777
80000000000000000000CC00,1,1477530005546661,1477530005546661,1,-1.625,13312,-49.5,865.7,3.110913
80000000000000000000CC00,1,1477530005553640,1477530005553640,1,-1.625,13312,-49.5,865.7,3.1415927
80000000000000000000CC00,1,1477530005560838,1477530005560838,1,7.3125,13312,-49.0,865.7,3.031146
80000000000000000000CC00,1,1477530005567599,1477530005567599,1,-7.3125,13312,-49.5,865.7,3.1661363
80000000000000000000CC00,1,1477530005575599,1477530005575599,1,6.5,13312,-49.5,865.7,2.963651
80000000000000000000CC00,1,1477530005582903,1477530005582903,1,10.5625,13312,-49.5,865.7,3.0986412
80000000000000000000CC00,1,1477530005589853,1477530005589853,1,8.125,13312,-49.5,865.7,3.043418
80000000000000000000CC00,1,1477530005596650,1477530005596650,1,-10.5625,13312,-48.0,865.7,3.1661363
80000000000000000000CC00,1,1477530005605232,1477530005605232,1,20.3125,13312,-50.0,865.7,2.9391072
80000000000000000000CC00,1,1477530005613309,1477530005613309,1,35.75,13312,-49.5,865.7,2.8409324
80000000000000000000CC00,1,1477530005620276,1477530005620276,1,-19.5,13312,-50.5,865.7,3.110913
80000000000000000000CC00,1,1477530005627293,1477530005627293,1,-20.3125,13312,-50.0,865.7,3.104777
80000000000000000000CC00,1,1477530005634257,1477530005634257,1,4.0625,13312,-50.5,865.7,2.89002
80000000000000000000CC00,1,1477530005641476,1477530005641476,1,-15.4375,13312,-49.5,865.7,3.0802333
80000000000000000000CC00,1,1477530005648169,1477530005648169,1,-15.4375,13312,-51.0,865.7,3.104777
80000000000000000000CC00,1,1477530005655432,1477530005655432,1,0.8125,13312,-49.0,865.7,3.0495539
80000000000000000000CC00,1,1477530005662413,1477530005662413,1,-16.25,13312,-49.0,865.7,3.1415927
80000000000000000000CC00,1,1477530005669248,1477530005669248,1,-10.5625,13312,-50.0,865.7,3.0863693
80000000000000000000CC00,1,1477530005677813,1477530005677813,1,23.5625,13312,-51.0,865.7,3.0004663
80000000000000000000CC00,1,1477530005685085,1477530005685085,1,-14.625,13312,-51.0,865.7,3.0127382
80000000000000000000CC00,1,1477530005691798,1477530005691798,1,-22.75,13312,-48.5,865.7,3.1477287
80000000000000000000CC00,1,1477530005699027,1477530005699027,1,-14.625,13312,-49.5,865.7,3.0802333
80000000000000000000CC00,1,1477530005705960,1477530005705960,1,4.875,13312,-50.0,865.7,2.89002
80000000000000000000CC00,1,1477530005712780,1477530005712780,1,-8.9375,13312,-50.5,865.7,2.9452431
80000000000000000000CC00,1,1477530005719713,1477530005719713,1,-10.5625,13312,-50.0,865.7,3.0740974
80000000000000000000CC00,1,1477530005727360,1477530005727360,1,-0.8125,13312,-50.5,865.7,3.0495539
80000000000000000000CC00,1,1477530005734320,1477530005734320,1,-17.875,13312,-49.0,865.7,3.0495539
80000000000000000000CC00,1,1477530005741074,1477530005741074,1,58.5625,13312,-50.0,865.7,2.644583
80000000000000000000CC00,1,1477530005748060,1477530005748060,1,25.1875,13312,-51.5,865.7,2.791845
80000000000000000000CC00,1,1477530005755040,1477530005755040,1,-29.25,13312,-51.0,865.7,3.2459033
80000000000000000000CC00,1,1477530005761993,1477530005761993,1,10.5625,13312,-51.0,865.7,2.8409324
80000000000000000000CC00,1,1477530005769339,1477530005769339,1,2.4375,13312,-51.0,865.7,2.8961558
80000000000000000000CC00,1,1477530005776780,1477530005776780,1,-30.0625,13312,-51.0,865.7,2.9759228
80000000000000000000CC00,1,1477530005783515,1477530005783515,1,8.9375,13312,-51.0,865.7,2.951379
80000000000000000000CC00,1,1477530005790476,1477530005790476,1,74.0,13312,-49.5,865.7,2.5770876
80000000000000000000CC00,1,1477530005797665,1477530005797665,1,21.9375,13312,-50.5,865.7,2.9084275
80000000000000000000CC00,1,1477530005804643,1477530005804643,1,-49.625,13312,-51.0,865.7,3.0863693
80000000000000000000CC00,1,1477530005811610,1477530005811610,1,-10.5625,13312,-50.5,865.7,2.9022915
80000000000000000000CC00,1,1477530005818658,1477530005818658,1,67.5,13312,-50.5,865.7,2.5770876
80000000000000000000CC00,1,1477530005826925,1477530005826925,1,14.625,13312,-51.0,865.7,2.8532043
80000000000000000000CC00,1,1477530005834619,1477530005834619,1,-25.1875,13312,-49.5,865.7,3.0679617
80000000000000000000CC00,1,1477530005841362,1477530005841362,1,-7.3125,13312,-50.0,865.7,3.0127382
80000000000000000000CC00,1,1477530005849023,1477530005849023,1,-21.9375,13312,-49.5,865.7,3.0066023
80000000000000000000CC00,1,1477530005855997,1477530005855997,1,29.25,13312,-51.0,865.7,2.7366216
80000000000000000000CC00,1,1477530005863000,1477530005863000,1,34.9375,13312,-50.5,865.7,2.7059422
80000000000000000000CC00,1,1477530005869978,1477530005869978,1,21.9375,13312,-50.5,865.7,2.8286605
80000000000000000000CC00,1,1477530005876940,1477530005876940,1,-4.0625,13312,-49.5,865.7,2.8961558
80000000000000000000CC00,1,1477530005884290,1477530005884290,1,0.8125,13312,-50.0,865.7,2.9206994
80000000000000000000CC00,1,1477530005890992,1477530005890992,1,8.9375,13312,-51.0,865.7,2.883884
80000000000000000000CC00,1,1477530005898198,1477530005898198,1,-0.8125,13312,-51.0,865.7,3.0127382
80000000000000000000CC00,1,1477530005904943,1477530005904943,1,8.125,13312,-50.0,865.7,3.0004663
80000000000000000000CC00,1,1477530005911934,1477530005911934,1,-27.625,13312,-49.5,865.7,3.110913
80000000000000000000CC00,1,1477530005918932,1477530005918932,1,-12.1875,13312,-49.0,865.7,3.123185
80000000000000000000CC00,1,1477530005925870,1477530005925870,1,-14.625,13312,-50.0,865.7,3.0863693
80000000000000000000CC00,1,1477530005933137,1477530005933137,1,-20.3125,13312,-50.0,865.7,3.1784081
80000000000000000000CC00,1,1477530005939814,1477530005939814,1,-2.4375,13312,-49.0,865.7,3.0618258
80000000000000000000CC00,1,1477530005955303,1477530005955303,1,5.6875,13312,-51.0,865.7,3.0066023
80000000000000000000CC00,1,1477530005962187,1477530005962187,1,-2.4375,13312,-50.5,865.7,2.9329712
