-28.0,0.8897088569736719,2.4375
-28.5,0.8774370106705868,5.6875
-28.0,0.8835729338221293,2.4375
-28.0,0.8958447801252144,1.625
-28.0,0.8897088569736719,3.25
-28.0,0.8835729338221293,5.6875
-28.0,0.9019807032767571,1.625
-28.0,0.8958447801252144,3.25
-28.0,0.8897088569736719,2.4375
-28.0,0.8835729338221293,5.6875
-28.0,0.9019807032767571,0.8125
-28.5,0.8958447801252144,3.25
-28.0,0.8958447801252144,2.4375
-28.0,0.8897088569736719,3.25
-28.0,0.9019807032767571,2.4375
-28.0,0.9081166264282996,0.8125
-28.0,0.8958447801252144,3.25
-28.0,0.8958447801252144,3.25
-28.0,0.9019807032767571,1.625
-28.0,0.9019807032767571,2.4375
-28.5,0.9142525495798421,0.8125
-28.0,0.9019807032767571,2.4375
-28.0,0.9081166264282996,2.4375
-28.0,0.9203884727313847,1.625
-28.0,0.9081166264282996,3.25
-28.0,0.9019807032767571,4.875
-28.0,0.8958447801252144,5.6875
-28.0,0.9019807032767571,4.875
-28.5,0.9081166264282996,4.875
-28.0,0.9265243958829272,0.8125
-28.0,0.9326603190344698,0.0
-28.0,0.9081166264282996,4.875
-28.0,0.9326603190344698,1.625
-28.0,0.9326603190344698,1.625
-28.0,0.9265243958829272,2.4375
-28.0,0.9265243958829272,2.4375
-28.0,0.9265243958829272,2.4375
-28.0,0.9326603190344698,2.4375
-28.0,0.9326603190344698,2.4375
-28.0,0.9387962421860124,2.4375
-28.0,0.9265243958829272,3.25
-28.0,0.9265243958829272,3.25
-28.0,0.9387962421860124,1.625
-28.0,0.9326603190344698,1.625
-28.0,0.9326603190344698,2.4375
-28.0,0.9326603190344698,3.25
-28.0,0.9510680884890975,0.8125
-28.0,0.9265243958829272,4.875
-28.0,0.9326603190344698,3.25
-28.0,0.9326603190344698,3.25
-28.0,0.9510680884890975,0.8125
-28.0,0.944932165337555,3.25
-28.0,0.944932165337555,2.4375
-28.0,0.944932165337555,0.8125
-28.0,0.9510680884890975,3.25
-28.0,0.9572040116406401,1.625
-28.0,0.9633399347921826,0.8125
-28.0,0.9510680884890975,4.875
-27.5,0.9572040116406401,3.25
-28.0,0.9572040116406401,3.25
-28.0,0.9633399347921826,3.25
-27.5,0.9633399347921826,2.4375
-27.5,0.9633399347921826,2.4375
-27.5,0.9817477042468103,0.8125
-28.0,0.9694758579437253,2.4375
-28.0,0.9756117810952678,3.25
-27.5,0.9694758579437253,3.25
-28.0,0.9817477042468103,2.4375
-27.5,0.9756117810952678,3.25
-27.5,0.9756117810952678,3.25
-27.5,0.9817477042468103,2.4375
-27.5,0.9878836273983529,4.875
-27.5,0.9878836273983529,3.25
-27.5,1.000155473701438,2.4375
-27.5,0.9940195505498954,2.4375
-27.5,0.9940195505498954,3.25
-27.5,1.012427320004523,0.0
-27.5,0.9940195505498954,2.4375
-27.5,0.9940195505498954,4.875
-27.5,1.000155473701438,2.4375
-27.5,1.000155473701438,4.875
-27.5,1.0062913968529805,3.25
-27.5,1.000155473701438,4.875
-27.5,1.0062913968529805,4.875
-27.5,1.012427320004523,2.4375
-27.5,1.0246991663076084,1.625
-27.5,1.000155473701438,6.5
-27.5,1.0246991663076084,2.4375
-27.5,1.0246991663076084,1.625
-27.5,1.030835089459151,1.625
-27.5,1.0246991663076084,5.6875
-27.5,1.0246991663076084,2.4375
-27.5,1.0246991663076084,4.875
-27.5,1.0369710126106935,1.625
-27.5,1.043106935762236,1.625
-27.0,1.055378782065321,0.8125
-27.0,1.0492428589137786,3.25
-27.0,1.043106935762236,2.4375
-27.0,1.055378782065321,3.25
-27.5,1.0676506283684062,2.4375
-27.0,1.0615147052168636,2.4375
-27.0,1.0676506283684062,2.4375
-27.0,1.0799224746714913,1.625
-27.0,1.0799224746714913,5.6875
-27.0,1.086058397823034,2.4375
-27.0,1.086058397823034,4.875
-27.0,1.0921943209745766,4.875
-27.0,1.1167380135807468,1.625
-27.0,1.1106020904292042,3.25
-27.0,1.1106020904292042,4.875
-27.0,1.1228739367322893,2.4375
-27.0,1.1351457830353744,2.4375
-27.0,1.1290098598838318,3.25
-27.0,1.1596894756415448,0.0
-27.0,1.1535535524900022,3.25
-27.0,1.1535535524900022,3.25
-26.5,1.1596894756415448,4.875
-26.5,1.1780972450961724,0.8125
-26.5,1.1535535524900022,6.5
-27.0,1.1596894756415448,6.5
-27.0,1.1903690913992575,2.4375
-26.5,1.184233168247715,5.6875
-26.5,1.184233168247715,4.875
-26.5,1.184233168247715,5.6875
-26.5,1.2026409377023426,3.25
-26.5,1.2026409377023426,4.875
-26.5,1.2087768608538851,5.6875
-26.5,1.214912784005428,3.25
-26.5,1.214912784005428,5.6875
-26.5,1.2210487071569704,6.5
-26.5,1.2333205534600555,4.875
-26.5,1.239456476611598,3.25
-26.5,1.2333205534600555,6.5
-26.5,1.2455923997631406,3.25
-26.5,1.2517283229146832,5.6875
-26.5,1.2578642460662257,3.25
-26.5,1.2701360923693108,3.25
-26.5,1.2701360923693108,4.875
-26.5,1.2885438618239387,2.4375
-26.5,1.2762720155208536,6.5
-26.5,1.2946797849754812,3.25
-26.5,1.2946797849754812,4.875
-26.5,1.2946797849754812,6.5
-26.5,1.2946797849754812,7.3125
-26.5,1.3130875544301088,4.875
-26.0,1.325359400733194,4.875
-26.5,1.3314953238847365,3.25
-26.0,1.3314953238847365,3.25
-26.5,1.325359400733194,7.3125
-26.5,1.337631247036279,5.6875
-26.5,1.3437671701878218,6.5
-26.5,1.3560390164909069,4.875
-26.0,1.3621749396424494,3.25
-26.0,1.3621749396424494,5.6875
-26.0,1.3560390164909069,6.5
-26.0,1.368310862793992,6.5
-26.0,1.3867186322486196,4.875
-26.5,1.3928545554001621,3.25
-26.0,1.3989904785517047,5.6875
-26.0,1.3867186322486196,7.3125
-26.0,1.4296700943094176,2.4375
-26.0,1.4296700943094176,1.625
-26.5,1.4419419406125027,2.4375
-26.5,1.4542137869155878,1.625
-26.5,1.4603497100671303,1.625
-26.0,1.4664856332186729,1.625
-26.0,1.4848934026733007,-0.8125
-26.5,1.4910293258248433,0.8125
-26.5,1.5033011721279284,-0.8125
-26.0,1.4787574795217582,4.875
-26.5,1.5155730184310134,-0.8125
-26.5,1.5155730184310134,2.4375
-26.5,1.5278448647340985,0.8125
-26.5,1.5401167110371838,0.0
-26.5,1.552388557340269,0.0
-26.5,1.5401167110371838,3.25
-26.5,1.5462526341887264,1.625
-26.5,1.564660403643354,0.0
-26.5,1.576932249946439,0.8125
-26.0,1.5830681730979816,0.0
-26.0,1.5953400194010667,0.8125
-26.0,1.5953400194010667,1.625
-26.0,1.6014759425526093,3.25
-26.0,1.6137477888556946,2.4375
-26.0,1.6382914814618648,0.0
-26.0,1.6444274046134073,0.8125
-26.0,1.6444274046134073,2.4375
-26.0,1.6444274046134073,3.25
-26.0,1.662835174068035,2.4375
-26.0,1.6689710972195777,3.25
-26.0,1.6751070203711202,2.4375
-26.0,1.6935147898257479,1.625
-26.0,1.6873788666742053,4.875
-26.0,1.718058482431918,2.4375
-26.0,1.7119225592803755,3.25
-25.5,1.718058482431918,3.25
-26.0,1.748738098189631,1.625
-26.0,1.748738098189631,3.25
-25.5,1.748738098189631,3.25
-25.5,1.7671458676442586,3.25
-25.5,1.7671458676442586,4.875
-25.5,1.7855536370988863,2.4375
-26.0,1.7855536370988863,6.5
-25.5,1.8100973297050567,1.625
-25.5,1.8100973297050567,1.625
-25.5,1.8039614065535141,4.875
-25.5,1.8285050991596843,1.625
-25.5,1.8162332528565992,4.875
-25.5,1.8223691760081417,3.25
-26.0,1.8407769454627694,4.875
-25.5,1.8346410223112268,3.25
-25.5,1.8346410223112268,4.875
-25.5,1.8530487917658545,2.4375
-25.5,1.8530487917658545,3.25
-26.0,1.8530487917658545,2.4375
-25.5,1.8714565612204823,2.4375
-25.5,1.8837284075235674,2.4375
-26.0,1.8837284075235674,4.875
-25.5,1.88986433067511,2.4375
-25.5,1.902136176978195,3.25
-25.5,1.9205439464328227,0.8125
-26.0,1.9082721001297376,3.25
-25.5,1.9266798695843652,1.625
-25.5,1.9266798695843652,3.25
-25.5,1.9389517158874505,1.625
-25.5,1.945087639038993,4.875
-26.0,1.9512235621905356,7.3125
-25.5,1.9512235621905356,5.6875
-26.0,1.9757672547967058,5.6875
-25.5,1.9880391010997909,2.4375
-25.5,1.9880391010997909,4.875
-25.5,2.0064468705544187,2.4375
-25.5,2.012582793705961,3.25
-25.5,2.0371264863121317,2.4375
-25.5,2.0371264863121317,5.6875
-25.5,2.061670178918302,2.4375
-25.5,2.073942025221387,2.4375
-25.5,2.0923497946760143,3.25
-25.5,2.1046216409791,3.25
-25.5,2.110757564130642,3.25
-25.5,2.12916533358527,3.25
-25.5,2.1475731030398975,2.4375
-25.5,2.1475731030398975,4.875
-26.0,2.1659808724945253,2.4375
-25.5,2.1659808724945253,5.6875
-25.5,2.1905245651006955,4.875
-26.0,2.1966604882522383,3.25
-26.0,2.2089323345553233,3.25
-25.5,2.2212041808584084,4.875
-26.0,2.2457478734645786,2.4375
-26.0,2.2641556429192065,2.4375
-26.0,2.2764274892222915,3.25
-26.0,2.2948352586769194,1.625
-26.0,2.3316507975861747,-0.8125
-26.0,2.325514874434632,2.4375
-26.0,2.350058567040802,0.0
-26.0,2.356194490192345,0.8125
-26.0,2.380738182798515,1.625
-25.5,2.399145952253143,1.625
-25.5,2.423689644859313,0.8125
-25.5,2.435961491162398,3.25
-26.0,2.448233337465483,3.25
-25.5,2.4727770300716534,3.25
-25.5,2.478912953223196,5.6875
-26.0,2.5034566458293663,3.25
-25.5,2.5341362615870793,3.25
-25.5,2.5464081078901644,4.875
-25.5,2.5770877236478773,4.875
-25.5,2.5893595699509624,5.6875
-25.5,2.6261751088602177,3.25
-25.5,2.6384469551633027,5.6875
-25.5,2.6691265709210157,5.6875
-25.5,2.6875343403756435,5.6875
-25.5,2.705942109830271,6.5
-25.5,2.748893571891069,3.25
-26.0,2.767301341345697,4.875
-26.0,2.7979809571034093,5.6875
-26.0,2.82252464970958,2.4375
-26.0,2.834796496012665,4.875
-26.0,2.84706834231575,7.3125
-26.0,2.8777479580734626,5.6875
-26.0,2.9145634969827183,3.25
-26.5,2.9084275738311756,7.3125
-26.5,2.9575149590435164,2.4375
-26.5,2.9697868053466014,4.875
-26.5,2.9759227284981438,4.875
-27.0,3.0127382674073995,2.4375
-27.0,3.0250101137104846,1.625
-27.0,3.0372819600135696,2.4375
-27.0,3.055689729468197,2.4375
-27.0,3.067961575771282,2.4375
-27.5,3.08636934522591,0.8125
-27.0,3.0925052683774528,1.625
-27.5,3.0925052683774528,4.875
-27.5,3.104777114680538,4.875
-27.5,3.117048960983623,2.4375
-28.0,3.11091303783208,6.5
-27.5,3.147728576741336,1.625
-27.5,3.153864499892878,1.625
-27.5,3.153864499892878,2.4375
-28.0,3.153864499892878,4.875
-28.0,3.160000423044421,4.875
-27.5,3.1784081924990484,3.25
-28.0,3.184544115650591,0.8125
-28.0,3.172272269347506,3.25
-28.0,3.184544115650591,3.25
-28.0,3.1968159619536762,3.25
-28.0,3.1968159619536762,5.6875
-28.0,3.2029518851052186,4.875
-28.0,3.2090878082567613,5.6875
-28.0,3.2029518851052186,5.6875
-28.5,3.227495577711389,1.625
-28.5,3.215223731408304,5.6875
-28.5,3.2213596545598464,5.6875
-28.5,3.2213596545598464,4.875
-28.5,3.227495577711389,6.5
-29.0,3.2397674240144743,3.25
-28.5,3.2459033471660166,2.4375
-29.0,3.2397674240144743,4.875
-29.0,3.2520392703175593,2.4375
-29.0,3.2520392703175593,2.4375
-29.5,3.2581751934691017,2.4375
-29.5,3.2581751934691017,3.25
-29.5,3.2704470397721868,1.625
-29.5,3.2643111166206444,3.25
-30.0,3.2765829629237295,1.625
-30.0,3.2827188860752723,1.625
-30.5,3.2827188860752723,4.875
-30.5,3.3011266555298997,1.625
-30.5,3.3011266555298997,1.625
-31.0,3.2888548092268146,6.5
-31.0,3.313398501832985,0.8125
-30.5,3.3011266555298997,4.875
-31.0,3.3011266555298997,3.25
-31.0,3.3195344249845276,0.8125
-31.5,3.2949907323783574,6.5
-31.0,3.32567034813607,2.4375
-31.5,3.313398501832985,2.4375
-31.5,3.313398501832985,2.4375
-31.5,3.3318062712876126,1.625
-32.0,3.3195344249845276,2.4375
-32.0,3.32567034813607,2.4375
-32.0,3.32567034813607,1.625
-32.0,3.32567034813607,3.25
-32.0,3.32567034813607,3.25
-32.5,3.3379421944391554,0.8125
-32.5,3.3379421944391554,2.4375
-32.5,3.3318062712876126,2.4375
-32.5,3.3318062712876126,2.4375
-32.5,3.3318062712876126,1.625
-33.0,3.32567034813607,2.4375
-32.5,3.313398501832985,6.5
-33.0,3.3379421944391554,1.625
-33.0,3.3318062712876126,2.4375
-33.0,3.3318062712876126,2.4375
-33.5,3.3195344249845276,2.4375
-33.5,3.3072625786814425,4.875
-33.0,3.3195344249845276,1.625
-33.5,3.3195344249845276,1.625
-33.0,3.313398501832985,3.25
-33.5,3.3072625786814425,3.25
-34.0,3.3072625786814425,3.25
-34.0,3.2888548092268146,5.6875
-33.5,3.3011266555298997,2.4375
-34.0,3.2949907323783574,2.4375
-34.0,3.3011266555298997,2.4375
-34.0,3.3011266555298997,1.625
-34.0,3.2765829629237295,3.25
-34.5,3.2704470397721868,5.6875
-34.5,3.2704470397721868,3.25
-34.5,3.2827188860752723,0.8125
-34.5,3.2643111166206444,3.25
-34.5,3.2459033471660166,3.25
-35.0,3.2520392703175593,2.4375
-35.0,3.2336315008629315,3.25
-35.0,3.215223731408304,4.875
-35.0,3.1968159619536762,4.875
-35.0,3.1968159619536762,2.4375
-35.5,3.172272269347506,4.875
-35.5,3.153864499892878,3.25
-36.0,3.1354567304382504,3.25
-35.5,3.11091303783208,2.4375
-35.5,3.074097498922825,4.875
-36.0,3.055689729468197,4.875
-36.0,3.031146036862027,6.5
-36.0,3.0066023442558567,4.875
-36.0,2.9759227284981438,5.6875
-36.0,2.945243112740431,3.25
-36.0,2.9084275738311756,5.6875
-36.0,2.8777479580734626,2.4375
-36.5,2.816388726558037,4.875
-36.5,2.761165418194154,8.125
-36.5,2.718213956133356,6.5
-36.5,2.6691265709210157,6.5
-36.5,2.6200391857086753,4.875
-37.0,2.5402721847386216,6.5
-37.0,2.4911847995262812,7.3125
-37.0,2.442097414313941,7.3125
-37.0,2.411417798556228,5.6875
-37.5,2.399145952253143,2.4375
-37.5,2.3623304133438876,2.4375
-37.5,2.325514874434632,4.875
-37.5,2.2764274892222915,5.6875
-37.5,2.2457478734645786,7.3125
-37.5,2.2150682577068657,7.3125
-37.0,2.1905245651006955,8.9375
-37.0,2.172116795646068,8.125
-37.0,2.1598449493429825,6.5
-37.0,2.141437179888355,6.5
-37.0,2.116893487282185,9.75
-37.0,2.086213871524472,10.5625
-37.0,2.073942025221387,9.75
-36.5,2.067806102069844,6.5
-37.0,2.055534255766759,7.3125
-37.0,2.043262409463674,6.5
-37.0,2.018718716857504,8.9375
-37.0,2.0064468705544187,8.9375
-36.5,1.9880391010997909,9.75
-37.0,1.9941750242513334,8.125
-36.5,1.9819031779482483,7.3125
-36.5,1.9696313316451632,8.125
-37.0,1.9512235621905356,8.125
-36.5,1.9512235621905356,7.3125
-36.5,1.932815792735908,8.125
-36.5,1.9266798695843652,7.3125
-36.5,1.9266798695843652,5.6875
-36.5,1.902136176978195,6.5
-36.5,1.902136176978195,8.9375
-36.5,1.8960002538266525,8.9375
-36.5,1.8775924843720249,8.9375
-36.5,1.8775924843720249,7.3125
-36.5,1.8714565612204823,6.5
-36.5,1.8775924843720249,5.6875
-36.5,1.8530487917658545,7.3125
-36.5,1.846912868614312,8.125
-36.5,1.8530487917658545,5.6875
-36.5,1.859184714917397,5.6875
-36.5,1.8346410223112268,8.9375
-36.5,1.8346410223112268,6.5
-36.5,1.8285050991596843,4.875
-36.5,1.8100973297050567,9.75
-36.5,1.8162332528565992,7.3125
-36.5,1.8100973297050567,7.3125
-36.5,1.7978254834019713,9.75
-36.5,1.7978254834019713,8.125
-36.5,1.7916895602504288,7.3125
-36.5,1.7978254834019713,4.875
-36.0,1.7916895602504288,5.6875
-36.5,1.7855536370988863,4.875
-36.5,1.7671458676442586,7.3125
-36.0,1.761009944492716,4.875
-36.5,1.7732817907958012,4.875
-36.5,1.761009944492716,4.875
-36.5,1.748738098189631,4.875
-36.0,1.7303303287350031,7.3125
-36.5,1.7426021750380885,5.6875
-36.5,1.7241944055834606,7.3125
-36.0,1.7241944055834606,5.6875
-36.5,1.7241944055834606,6.5
-36.5,1.718058482431918,2.4375
-36.5,1.6935147898257479,7.3125
-36.5,1.6996507129772904,4.875
-36.0,1.6751070203711202,7.3125
-36.5,1.6751070203711202,4.875
-36.0,1.6751070203711202,4.875
-36.5,1.6566992509164924,5.6875
-36.0,1.6382914814618648,6.5
-36.5,1.6321555583103222,4.875
-36.5,1.6198837120072371,4.875
-36.5,1.576932249946439,6.5
-36.5,1.5830681730979816,4.875
-36.5,1.5585244804918115,2.4375
-36.5,1.5155730184310134,8.125
-36.5,1.4971652489763858,8.125
-36.5,1.5155730184310134,3.25
-36.5,1.5033011721279284,2.4375
-36.5,1.4787574795217582,3.25
-36.0,1.4787574795217582,3.25
-36.5,1.4358060174609601,4.875
-36.5,1.4542137869155878,2.4375
-36.5,1.3989904785517047,8.125
-36.0,1.4296700943094176,3.25
-36.5,1.368310862793992,9.75
-36.0,1.3928545554001621,5.6875
-36.0,1.368310862793992,7.3125
-36.0,1.368310862793992,4.875
-36.0,1.3560390164909069,6.5
-36.0,1.3499030933393643,5.6875
-36.0,1.3437671701878218,3.25
-36.0,1.3437671701878218,3.25
-36.0,1.325359400733194,5.6875
-36.0,1.3130875544301088,6.5
-36.0,1.3069516312785663,8.125
-36.0,1.2946797849754812,7.3125
-36.0,1.282407938672396,8.125
-35.5,1.282407938672396,8.125
-36.0,1.2885438618239387,5.6875
-36.0,1.2762720155208536,6.5
-36.0,1.2578642460662257,8.125
-36.0,1.2455923997631406,6.5
-36.0,1.2455923997631406,5.6875
-36.0,1.2578642460662257,4.875
-36.0,1.2333205534600555,2.4375
-36.0,1.227184630308513,5.6875
-35.5,1.2210487071569704,4.875
-36.0,1.1965050145508,6.5
-35.5,1.1780972450961724,7.3125
-36.0,1.1780972450961724,2.4375
-36.0,1.1596894756415448,5.6875
-35.5,1.1351457830353744,8.125
-36.0,1.1351457830353744,5.6875
-35.5,1.1290098598838318,5.6875
-36.0,1.1106020904292042,6.5
-35.5,1.0983302441261191,8.125
-36.0,1.1167380135807468,2.4375
-36.0,1.0799224746714913,4.875
-35.5,1.0921943209745766,5.6875
-36.0,1.0737865515199487,5.6875
-35.5,1.086058397823034,1.625
-36.0,1.0737865515199487,0.8125
-36.0,1.0492428589137786,8.125
-36.0,1.0615147052168636,1.625
-36.0,1.0737865515199487,0.8125
-36.0,1.055378782065321,3.25
-36.0,1.0369710126106935,4.875
-36.0,1.030835089459151,6.5
-35.5,1.0369710126106935,6.5
-35.5,1.0185632431560658,6.5
-36.0,1.012427320004523,5.6875
-36.0,1.0185632431560658,4.875
-36.0,0.9878836273983529,6.5
-36.0,1.000155473701438,6.5
-36.0,1.0062913968529805,3.25
-36.0,0.9940195505498954,4.875
-35.5,0.9878836273983529,2.4375
-36.0,0.9878836273983529,4.875
-36.0,0.9756117810952678,3.25
-36.0,0.9572040116406401,5.6875
-35.5,0.9694758579437253,4.875
-36.0,0.944932165337555,5.6875
-35.5,0.9510680884890975,3.25
-35.5,0.9510680884890975,2.4375
-36.0,0.9633399347921826,0.0
-36.0,0.9142525495798421,6.5
-36.0,0.9203884727313847,4.875
-36.0,0.9387962421860124,0.8125
-36.0,0.8099418560036186,0.8125
-36.0,0.8222137023067037,-0.8125
-36.0,0.8099418560036186,0.8125
-36.0,0.7976700097005334,3.25
-36.0,0.803805932852076,0.0
-36.0,0.8160777791551611,-0.8125
-36.0,0.7792622402459057,0.8125
-36.0,0.7853981633974483,2.4375
-36.0,0.7792622402459057,0.8125
-36.0,0.7792622402459057,1.625
-36.0,0.7853981633974483,0.0
-36.0,0.7731263170943632,1.625
-36.0,0.7792622402459057,-0.8125
-36.5,0.7853981633974483,-0.8125
-36.0,0.7731263170943632,0.0
-36.5,0.7792622402459057,-0.8125
-36.5,0.7669903939428205,0.8125
-36.5,0.7547185476397354,0.0
-36.0,0.7669903939428205,-0.8125
-36.0,0.7363107781851077,2.4375
-36.0,0.7547185476397354,-0.8125
-36.0,0.7547185476397354,-0.8125
-36.0,0.760854470791278,0.0
-36.0,0.7792622402459057,-4.875
-36.0,0.7363107781851077,0.0
-36.0,0.7240389318820226,1.625
-36.0,0.7363107781851077,0.8125
-36.0,0.7240389318820226,0.0
-36.0,0.7301748550335652,-0.8125
-36.0,0.7363107781851077,0.0
-36.0,0.6933593161243098,3.25
-36.0,0.7117670855789375,0.8125
-36.0,0.6933593161243098,2.4375
-36.0,0.6749515466696822,3.25
-36.0,0.6872233929727672,1.625
-36.0,0.6872233929727672,0.8125
-36.0,0.6442719309119693,6.5
-35.5,0.6504078540635119,5.6875
-36.0,0.6442719309119693,4.875
-36.0,0.6381360077604268,4.875
-35.5,0.6381360077604268,4.875
-36.0,0.6258641614573416,6.5
-35.5,0.6135923151542565,6.5
-36.0,0.619728238305799,4.875
-36.0,0.6258641614573416,2.4375
-36.0,0.6135923151542565,6.5
-36.0,0.607456392002714,5.6875
-35.5,0.607456392002714,5.6875
-36.0,0.619728238305799,0.8125
-36.0,0.6135923151542565,1.625
-36.0,0.607456392002714,1.625
-36.0,0.5951845456996288,3.25
-35.5,0.5767767762450011,2.4375
-35.5,0.5645049299419159,6.5
-36.0,0.5706408530934585,3.25
-36.0,0.5767767762450011,1.625
-36.0,0.5645049299419159,2.4375
-35.5,0.5583690067903734,3.25
-36.0,0.5645049299419159,0.0
-36.0,0.5460971604872883,3.25
-36.0,0.5338253141842031,6.5
-35.5,0.5276893910326605,5.6875
-35.5,0.5399612373357456,2.4375
-35.5,0.5645049299419159,0.0
-36.0,0.5276893910326605,3.25
-35.5,0.5338253141842031,2.4375
-36.0,0.5338253141842031,2.4375
-36.0,0.5460971604872883,1.625
-36.0,0.5522330836388308,0.0
-36.0,0.521553467881118,4.875
-36.0,0.5092816215780329,5.6875
-36.0,0.521553467881118,4.875
-36.0,0.5154175447295755,5.6875
-35.5,0.5399612373357456,1.625
-35.5,0.5276893910326605,2.4375
-35.5,0.5154175447295755,3.25
-36.0,0.5092816215780329,7.3125
-36.0,0.5460971604872883,-0.8125
-36.0,0.5092816215780329,6.5
-35.5,0.5276893910326605,1.625
-36.0,0.5092816215780329,4.875
-36.0,0.5338253141842031,1.625
-36.0,0.5276893910326605,2.4375
-35.5,0.5399612373357456,0.8125
-36.0,0.5154175447295755,2.4375
-36.0,0.521553467881118,4.875
-35.5,0.5092816215780329,5.6875
-35.5,0.5092816215780329,5.6875
-36.0,0.5338253141842031,1.625
-35.5,0.521553467881118,4.875
-35.5,0.5276893910326605,3.25
-35.5,0.5399612373357456,1.625
-36.0,0.5338253141842031,1.625
-35.5,0.521553467881118,3.25
-35.5,0.5276893910326605,3.25
-35.5,0.5092816215780329,6.5
-36.0,0.5338253141842031,2.4375
-36.0,0.5338253141842031,2.4375
-35.5,0.5399612373357456,2.4375
-35.5,0.5276893910326605,5.6875
-35.5,0.5460971604872883,1.625
-35.5,0.5399612373357456,1.625
-35.5,0.5399612373357456,3.25
-35.5,0.5460971604872883,2.4375
-35.5,0.5583690067903734,1.625
-35.5,0.5338253141842031,4.875
-35.5,0.5522330836388308,0.8125
-35.5,0.5460971604872883,5.6875
-35.5,0.5460971604872883,3.25
-35.5,0.5460971604872883,6.5
-35.5,0.5645049299419159,3.25
-35.5,0.5522330836388308,4.875
-35.5,0.5767767762450011,2.4375
-35.5,0.5706408530934585,1.625
-35.5,0.5829126993965437,1.625
-35.5,0.5767767762450011,0.0
-35.5,0.5645049299419159,5.6875
-35.5,0.5645049299419159,4.875
-35.5,0.5583690067903734,5.6875
-35.5,0.5706408530934585,4.875
-35.5,0.5706408530934585,3.25
-35.5,0.5645049299419159,7.3125
-35.5,0.5706408530934585,5.6875
-35.5,0.5645049299419159,6.5
-35.5,0.5767767762450011,6.5
-35.5,0.5767767762450011,6.5
-35.5,0.6013204688511713,1.625
-35.5,0.6013204688511713,3.25
-35.5,0.5890486225480862,2.4375
-35.5,0.5951845456996288,6.5
-35.5,0.5890486225480862,5.6875
-35.5,0.5951845456996288,6.5
-35.5,0.6013204688511713,3.25
-35.5,0.6013204688511713,5.6875
-35.0,0.607456392002714,5.6875
-35.5,0.619728238305799,2.4375
-35.5,0.619728238305799,4.875
-35.0,0.6381360077604268,0.8125
-35.5,0.6320000846088841,2.4375
-35.5,0.6320000846088841,5.6875
-35.5,0.6320000846088841,5.6875
-35.0,0.6381360077604268,5.6875
-35.5,0.6381360077604268,5.6875
-35.0,0.6504078540635119,4.875
-35.0,0.6442719309119693,4.875
-35.5,0.6565437772150544,4.875
-35.5,0.6504078540635119,4.875
-35.0,0.6749515466696822,3.25
-35.5,0.6749515466696822,4.875
-35.5,0.6688156235181395,4.875
-35.0,0.6810874698212247,4.875
-35.0,0.6749515466696822,5.6875
-35.0,0.7117670855789375,0.0
-35.5,0.7179030087304801,0.0
-35.0,0.6933593161243098,4.875
-35.0,0.7117670855789375,3.25
-35.5,0.7301748550335652,1.625
-35.0,0.7240389318820226,4.875
-35.0,0.7301748550335652,0.8125
-35.0,0.7485826244881929,0.8125
-35.0,0.7547185476397354,1.625
-35.0,0.7669903939428205,-0.8125
-35.0,0.7669903939428205,3.25
-35.0,0.7976700097005334,-0.8125
-34.5,0.7915340865489908,2.4375
-35.0,0.803805932852076,0.8125
-35.0,0.803805932852076,1.625
-34.5,0.8283496254582462,0.8125
-34.5,0.8344855486097889,2.4375
-34.5,0.8099418560036186,4.875
-34.5,0.8283496254582462,4.875
-34.5,0.859029241215959,0.0
-34.0,0.8467573949128739,4.875
-34.5,0.859029241215959,4.875
-34.5,0.8774370106705868,3.25
-34.0,0.9019807032767571,0.8125
-34.0,0.8958447801252144,4.875
-34.0,0.9019807032767571,5.6875
-34.0,0.9142525495798421,5.6875
-34.0,0.9265243958829272,3.25
-34.0,0.9387962421860124,4.875
-33.5,0.9387962421860124,4.875
-33.5,0.9817477042468103,0.8125
-33.5,0.9633399347921826,6.5
-33.5,1.000155473701438,3.25
-33.5,1.0062913968529805,4.875
-33.5,1.0185632431560658,7.3125
-33.0,1.043106935762236,6.5
-33.0,1.0676506283684062,6.5
-33.0,1.086058397823034,10.5625
-33.0,1.1351457830353744,4.875
-32.5,1.1535535524900022,8.9375
-33.0,1.2087768608538851,5.6875
-32.5,1.2210487071569704,9.75
-32.5,1.2640001692177683,7.3125
-32.5,1.3008157081270237,7.3125
-32.5,1.3499030933393643,6.5
-32.5,1.3928545554001621,6.5
-32.5,1.4419419406125027,4.875
-32.5,1.4910293258248433,2.4375
-32.5,1.5278448647340985,3.25
-32.5,1.5830681730979816,3.25
-32.5,1.6014759425526093,8.125
-32.0,1.6382914814618648,7.3125
-32.0,1.6566992509164924,4.875
-31.5,1.6751070203711202,5.6875
-32.0,1.6935147898257479,4.875
-31.5,1.7241944055834606,4.875
-32.0,1.7426021750380885,7.3125
-31.5,1.7916895602504288,3.25
-31.5,1.8162332528565992,8.125
-31.5,1.8653206380689396,3.25
-31.5,1.902136176978195,3.25
-31.0,1.9144080232812801,6.5
-31.0,1.945087639038993,4.875
-31.5,1.9696313316451632,3.25
-31.5,1.9819031779482483,4.875
-31.0,1.9941750242513334,5.6875
-31.5,2.024854640009046,2.4375
-31.0,2.030990563160589,5.6875
-31.5,2.055534255766759,4.875
-31.5,2.067806102069844,4.875
-31.0,2.0923497946760143,5.6875
-31.5,2.098485717827557,5.6875
-31.5,2.12916533358527,3.25
-31.5,2.141437179888355,4.875
-31.5,2.1475731030398975,7.3125
-31.5,2.1782527187976104,4.875
-31.5,2.1966604882522383,3.25
-31.5,2.2212041808584084,3.25
-31.5,2.2518837966161214,2.4375
-32.0,2.270291566070749,3.25
-32.0,2.2886993355253766,6.5
-32.0,2.3071071049800045,3.25
-32.0,2.356194490192345,-2.4375
-32.0,2.356194490192345,0.0
-32.0,2.356194490192345,2.4375
-32.0,2.3746022596469727,0.8125
-32.0,2.3623304133438876,5.6875
-32.0,2.386874105950058,0.8125
-32.0,2.380738182798515,2.4375
-32.0,2.399145952253143,2.4375
-32.0,2.386874105950058,4.875
-32.0,2.399145952253143,3.25
-32.0,2.405281875404685,2.4375
-32.0,2.3930100291016,2.4375
-32.0,2.386874105950058,3.25
-31.5,2.399145952253143,2.4375
-32.0,2.386874105950058,3.25
-32.0,2.380738182798515,4.875
-32.0,2.386874105950058,2.4375
-32.0,2.3930100291016,2.4375
-32.0,2.380738182798515,4.875
-32.0,2.3746022596469727,6.5
-32.0,2.3930100291016,1.625
-32.0,2.386874105950058,3.25
-32.0,2.399145952253143,0.8125
-32.0,2.386874105950058,2.4375
-32.0,2.386874105950058,0.8125
-32.0,2.380738182798515,2.4375
-32.0,2.380738182798515,3.25
-32.0,2.380738182798515,2.4375
-32.0,2.3930100291016,0.0
-32.0,2.3930100291016,0.8125
-32.0,2.386874105950058,2.4375
-32.0,2.3746022596469727,4.875
-32.0,2.386874105950058,2.4375
-32.0,2.380738182798515,2.4375
-32.0,2.3746022596469727,4.875
-32.0,2.36846633649543,4.875
-32.0,2.380738182798515,2.4375
-32.0,2.386874105950058,2.4375
-32.0,2.380738182798515,4.875
-32.0,2.3930100291016,1.625
-32.0,2.386874105950058,1.625
-32.0,2.3746022596469727,5.6875
-32.0,2.386874105950058,3.25
-32.0,2.386874105950058,3.25
-32.0,2.3746022596469727,4.875
-32.0,2.386874105950058,2.4375
-32.0,2.380738182798515,3.25
-32.0,2.380738182798515,3.25
-32.0,2.3746022596469727,5.6875
-32.0,2.380738182798515,5.6875
-32.0,2.3930100291016,3.25
-32.0,2.3930100291016,3.25
-32.0,2.3930100291016,5.6875
-32.0,2.399145952253143,4.875
-31.5,2.411417798556228,4.875
-32.0,2.411417798556228,5.6875
-32.0,2.4175537217077703,2.4375
-32.0,2.405281875404685,5.6875
-32.0,2.411417798556228,3.25
-32.0,2.405281875404685,3.25
-32.0,2.4175537217077703,3.25
-32.0,2.4175537217077703,3.25
-32.0,2.429825568010856,0.8125
-32.0,2.429825568010856,2.4375
-31.5,2.429825568010856,3.25
-32.0,2.423689644859313,4.875
-32.0,2.448233337465483,1.625
-31.5,2.442097414313941,3.25
-32.0,2.448233337465483,2.4375
-31.5,2.448233337465483,5.6875
-31.5,2.454369260617026,3.25
-32.0,2.442097414313941,3.25
-31.5,2.448233337465483,4.875
-31.5,2.448233337465483,4.875
-31.5,2.435961491162398,6.5
-31.5,2.454369260617026,2.4375
-31.5,2.454369260617026,5.6875
-31.5,2.454369260617026,2.4375
-31.5,2.4605051837685683,4.875
-32.0,2.454369260617026,2.4375
-31.5,2.454369260617026,2.4375
-32.0,2.442097414313941,4.875
-32.0,2.454369260617026,3.25
-31.5,2.4605051837685683,2.4375
-32.0,2.454369260617026,4.875
-32.0,2.4605051837685683,2.4375
-31.5,2.4727770300716534,3.25
-32.0,2.454369260617026,6.5
-31.5,2.466641106920111,5.6875
-31.5,2.4850488763747385,5.6875
-31.5,2.4911847995262812,1.625
-32.0,2.497320722677824,1.625
-31.5,2.497320722677824,2.4375
-31.5,2.4911847995262812,3.25
-32.0,2.497320722677824,1.625
-31.5,2.4911847995262812,4.875
-31.5,2.478912953223196,6.5
-32.0,2.4850488763747385,4.875
-31.5,2.4911847995262812,3.25
-31.5,2.4850488763747385,5.6875
-32.0,2.4911847995262812,5.6875
-32.0,2.497320722677824,3.25
-31.5,2.497320722677824,3.25
-31.5,2.497320722677824,2.4375
-31.5,2.5034566458293663,2.4375
-32.0,2.497320722677824,5.6875
-31.5,2.497320722677824,2.4375
-32.0,2.5034566458293663,3.25
-32.0,2.5034566458293663,3.25
-32.0,2.509592568980909,0.8125
-31.5,2.4911847995262812,5.6875
-31.5,2.4911847995262812,5.6875
-31.5,2.497320722677824,4.875
-31.5,2.497320722677824,5.6875
-31.5,2.497320722677824,5.6875
-32.0,2.5034566458293663,3.25
-31.5,2.5034566458293663,4.875
-31.5,2.497320722677824,4.875
-32.0,2.497320722677824,4.875
-31.5,2.509592568980909,2.4375
-32.0,2.5034566458293663,2.4375
-32.0,2.5034566458293663,2.4375
-32.0,2.5034566458293663,2.4375
-32.0,2.509592568980909,2.4375
-32.0,2.497320722677824,4.875
-31.5,2.5034566458293663,3.25
-32.0,2.509592568980909,3.25
-32.0,2.497320722677824,4.875
-32.0,2.497320722677824,4.875
-31.5,2.5034566458293663,3.25
-31.5,2.497320722677824,4.875
-32.0,2.497320722677824,2.4375
-32.0,2.5157284921324514,0.8125
-31.5,2.497320722677824,3.25
-31.5,2.4911847995262812,5.6875
-32.0,2.5034566458293663,2.4375
-32.0,2.4911847995262812,7.3125
-31.5,2.497320722677824,4.875
-31.5,2.5034566458293663,3.25
-31.5,2.509592568980909,3.25
-32.0,2.521864415283994,2.4375
-32.0,2.5157284921324514,2.4375
-32.0,2.5280003384355365,1.625
-31.5,2.5157284921324514,5.6875
-31.5,2.5157284921324514,4.875
-32.0,2.5157284921324514,6.5
-32.0,2.5157284921324514,3.25
-31.5,2.509592568980909,5.6875
-31.5,2.5341362615870793,2.4375
-32.0,2.5280003384355365,3.25
-32.0,2.5341362615870793,1.625
-32.0,2.5402721847386216,0.8125
-31.5,2.5402721847386216,4.875
-32.0,2.5280003384355365,6.5
-31.5,2.5341362615870793,4.875
-32.0,2.5280003384355365,4.875
-31.5,2.5280003384355365,6.5
-31.5,2.5402721847386216,3.25
-31.5,2.5341362615870793,4.875
-31.5,2.5280003384355365,6.5
-31.5,2.5402721847386216,4.875
-31.5,2.5402721847386216,5.6875
-31.5,2.5280003384355365,7.3125
-31.5,2.5341362615870793,4.875
-31.5,2.5464081078901644,3.25
-32.0,2.5280003384355365,4.875
-31.5,2.5280003384355365,4.875
-31.5,2.5341362615870793,3.25
-31.5,2.5402721847386216,4.875
-31.5,2.5464081078901644,1.625
-32.0,2.5402721847386216,3.25
-31.5,2.5402721847386216,4.875
-31.5,2.5402721847386216,3.25
-32.0,2.5402721847386216,2.4375
-31.5,2.5402721847386216,3.25
-32.0,2.5280003384355365,4.875
-31.5,2.5280003384355365,6.5
-31.5,2.5341362615870793,4.875
-31.5,2.5341362615870793,5.6875
-32.0,2.5341362615870793,3.25
-32.0,2.5402721847386216,4.875
-32.0,2.5402721847386216,3.25
-31.5,2.552544031041707,0.8125
-32.0,2.5402721847386216,3.25
-32.0,2.5280003384355365,6.5
-31.5,2.5402721847386216,4.875
-31.5,2.5280003384355365,5.6875
-31.5,2.5464081078901644,3.25
-32.0,2.5341362615870793,4.875
-32.0,2.5402721847386216,3.25
-31.5,2.5464081078901644,2.4375
-31.5,2.552544031041707,4.875
-31.5,2.5464081078901644,4.875
-32.0,2.552544031041707,4.875
-31.5,2.5586799541932495,4.875
-31.5,2.564815877344792,4.875
-32.0,2.564815877344792,3.25
-32.0,2.5709518004963345,2.4375
-32.0,2.564815877344792,3.25
-31.5,2.5709518004963345,3.25
-31.5,2.552544031041707,6.5
-32.0,2.5832236467994196,2.4375
-31.5,2.5770877236478773,4.875
-31.5,2.5770877236478773,5.6875
-31.5,2.5832236467994196,6.5
-31.5,2.6016314162540475,2.4375
-32.0,2.5832236467994196,4.875
-32.0,2.6016314162540475,2.4375
-32.0,2.6016314162540475,0.8125
-32.0,2.5893595699509624,5.6875
-31.5,2.5832236467994196,5.6875
-31.5,2.5893595699509624,5.6875
-31.5,2.5893595699509624,6.5
-31.5,2.6016314162540475,3.25
-31.5,2.5954954931025047,5.6875
-31.5,2.5954954931025047,6.5
-31.5,2.6139032625571326,2.4375
-32.0,2.6139032625571326,2.4375
-31.5,2.60776733940559,6.5
-32.0,2.6200391857086753,1.625
-31.5,2.60776733940559,5.6875
-32.0,2.6139032625571326,5.6875
-31.5,2.6261751088602177,1.625
-31.5,2.60776733940559,5.6875
-31.5,2.6200391857086753,6.5
-31.5,2.6139032625571326,7.3125
-31.5,2.6261751088602177,5.6875
-31.5,2.6384469551633027,2.4375
-31.5,2.6384469551633027,4.875
-31.5,2.650718801466388,3.25
-32.0,2.650718801466388,5.6875
-31.5,2.6568547246179306,4.875
-31.5,2.650718801466388,5.6875
-31.5,2.6568547246179306,5.6875
-32.0,2.6691265709210157,1.625
-31.5,2.662990647769473,4.875
-31.5,2.6568547246179306,5.6875
-32.0,2.662990647769473,2.4375
-32.0,2.650718801466388,6.5
-31.5,2.662990647769473,5.6875
-31.5,2.662990647769473,5.6875
-31.5,2.675262494072558,2.4375
-32.0,2.662990647769473,3.25
-31.5,2.662990647769473,5.6875
-32.0,2.675262494072558,3.25
-32.0,2.6691265709210157,4.875
-32.0,2.662990647769473,6.5
-31.5,2.675262494072558,2.4375
-31.5,2.662990647769473,6.5
-31.5,2.662990647769473,5.6875
-31.5,2.662990647769473,5.6875
-31.5,2.6568547246179306,6.5
-31.5,2.675262494072558,2.4375
-31.5,2.650718801466388,8.125
-31.5,2.6691265709210157,4.875
-31.5,2.662990647769473,4.875
-31.5,2.662990647769473,6.5
-31.5,2.6691265709210157,3.25
-31.5,2.6691265709210157,4.875
-31.5,2.662990647769473,5.6875
-31.5,2.6691265709210157,2.4375
-31.5,2.662990647769473,6.5
-31.5,2.6691265709210157,4.875
-31.5,2.662990647769473,5.6875
-31.5,2.6568547246179306,6.5
-32.0,2.6568547246179306,4.875
-31.5,2.6568547246179306,5.6875
-31.5,2.662990647769473,5.6875
-31.5,2.662990647769473,5.6875
-31.5,2.6691265709210157,4.875
-31.5,2.6691265709210157,2.4375
-32.0,2.6568547246179306,4.875
-31.5,2.6568547246179306,5.6875
-32.0,2.6568547246179306,5.6875
-31.5,2.650718801466388,6.5
-32.0,2.6568547246179306,4.875
-31.5,2.650718801466388,6.5
-32.0,2.6568547246179306,3.25
-31.5,2.650718801466388,4.875
-31.5,2.662990647769473,3.25
-31.5,2.650718801466388,5.6875
-32.0,2.6568547246179306,4.875
-31.5,2.662990647769473,3.25
-31.5,2.6568547246179306,5.6875
-32.0,2.650718801466388,4.875
-31.5,2.650718801466388,5.6875
-31.5,2.662990647769473,3.25
-31.5,2.6568547246179306,5.6875
-31.5,2.650718801466388,5.6875
-31.5,2.662990647769473,5.6875
-31.5,2.6691265709210157,0.8125
-31.5,2.662990647769473,5.6875
-31.5,2.6568547246179306,5.6875
-31.5,2.6568547246179306,5.6875
-31.5,2.6568547246179306,4.875
-31.5,2.6568547246179306,3.25
-31.5,2.6445828783148455,6.5
-32.0,2.662990647769473,4.875
-31.5,2.6445828783148455,7.3125
-31.5,2.662990647769473,2.4375
-31.5,2.6384469551633027,7.3125
-31.5,2.650718801466388,5.6875
-31.5,2.650718801466388,4.875
-31.5,2.6568547246179306,2.4375
-31.5,2.650718801466388,5.6875
-31.5,2.6445828783148455,5.6875
-31.5,2.6568547246179306,1.625
-32.0,2.6445828783148455,5.6875
-31.5,2.6445828783148455,6.5
-31.5,2.650718801466388,4.875
-32.0,2.6384469551633027,7.3125
-32.0,2.6445828783148455,3.25
-31.5,2.6384469551633027,6.5
-32.0,2.650718801466388,3.25
-31.5,2.650718801466388,6.5
-31.5,2.6445828783148455,4.875
-32.0,2.6445828783148455,5.6875
