-38.0,1.8530487917658545,8.9375
-38.5,1.8960002538266525,0.0
-38.0,1.902136176978195,1.625
-38.0,1.8775924843720249,4.875
-38.0,1.9266798695843652,-2.4375
-38.0,1.88986433067511,5.6875
-38.0,1.902136176978195,2.4375
-38.0,1.9082721001297376,4.875
-38.5,1.9144080232812801,1.625
-38.0,1.9082721001297376,3.25
-38.0,1.932815792735908,-1.625
-38.0,1.9205439464328227,2.4375
-38.0,1.9144080232812801,4.875
-38.5,1.88986433067511,6.5
-38.0,1.932815792735908,0.0
-38.0,1.9082721001297376,6.5
-38.0,1.9389517158874505,0.0
-38.0,1.9266798695843652,2.4375
-38.0,1.945087639038993,0.0
-38.5,1.88986433067511,8.9375
-38.5,1.8960002538266525,8.125
-38.0,1.88986433067511,9.75
-38.0,1.9205439464328227,0.8125
-38.0,1.945087639038993,0.8125
-38.0,1.902136176978195,6.5
-38.0,1.9389517158874505,0.8125
-38.5,1.9634954084936207,-2.4375
-38.0,1.932815792735908,3.25
-38.0,1.932815792735908,2.4375
-38.5,1.932815792735908,3.25
-38.0,1.9389517158874505,2.4375
-38.5,1.902136176978195,7.3125
-38.0,1.9389517158874505,-0.8125
-38.0,1.8775924843720249,8.9375
-38.0,1.8960002538266525,7.3125
-38.0,1.9389517158874505,3.25
-38.0,1.9389517158874505,-0.8125
-38.0,1.9573594853420782,-3.25
-38.0,1.932815792735908,0.8125
-38.0,1.9512235621905356,-1.625
-38.5,1.9389517158874505,0.8125
-38.0,1.9696313316451632,-3.25
-38.0,1.9389517158874505,0.8125
-38.0,1.902136176978195,8.9375
-38.5,1.9205439464328227,2.4375
-38.5,1.9144080232812801,3.25
-38.0,1.8714565612204823,14.625
-38.0,1.9573594853420782,-1.625
-38.5,1.932815792735908,0.0
-38.0,1.9144080232812801,3.25
-38.0,1.9082721001297376,4.875
-38.5,1.9266798695843652,0.8125
-38.0,1.9205439464328227,2.4375
-38.5,1.9205439464328227,2.4375
-38.0,1.9144080232812801,2.4375
-38.5,1.8960002538266525,8.9375
-38.0,1.9573594853420782,-1.625
-38.0,1.902136176978195,7.3125
-38.0,1.9144080232812801,6.5
-38.0,1.9573594853420782,-1.625
-38.5,1.9205439464328227,5.6875
-38.0,1.9389517158874505,1.625
-38.0,1.9082721001297376,7.3125
-38.0,1.9389517158874505,2.4375
-38.0,1.932815792735908,5.6875
-38.5,1.9634954084936207,-0.8125
-38.0,1.9819031779482483,-3.25
-38.0,1.9205439464328227,7.3125
-38.0,1.88986433067511,11.375
-38.0,1.9512235621905356,0.8125
-38.0,1.9266798695843652,5.6875
-38.0,1.9144080232812801,4.875
-38.0,1.9266798695843652,3.25
-38.0,1.9389517158874505,0.8125
-38.0,1.9696313316451632,0.0
-38.0,1.9144080232812801,8.125
-38.0,1.9696313316451632,0.0
-38.0,1.932815792735908,3.25
-38.0,1.945087639038993,3.25
-38.5,1.88986433067511,8.125
-38.0,1.9634954084936207,-0.8125
-38.0,1.8960002538266525,8.125
-38.0,1.9512235621905356,-1.625
-38.5,1.932815792735908,3.25
-38.0,1.9573594853420782,0.0
-38.0,1.9144080232812801,4.875
-38.0,1.9266798695843652,6.5
-38.0,1.9573594853420782,-0.8125
-38.0,1.902136176978195,6.5
-38.0,1.9082721001297376,8.125
-38.0,1.8960002538266525,8.125
-38.0,1.945087639038993,1.625
-38.0,1.945087639038993,2.4375
-38.0,1.9144080232812801,5.6875
-38.0,1.9144080232812801,4.875
-38.0,1.9573594853420782,-1.625
-38.0,1.945087639038993,0.8125
-38.0,1.945087639038993,-0.8125
-38.0,1.9389517158874505,1.625
-38.0,1.9144080232812801,5.6875
-38.0,1.932815792735908,4.875
-38.0,1.932815792735908,3.25
-38.0,1.9634954084936207,-1.625
-38.0,1.88986433067511,9.75
-38.0,1.9696313316451632,-5.6875
-38.0,1.9205439464328227,4.875
-38.0,1.945087639038993,0.0
-38.0,1.9082721001297376,6.5
-38.0,1.9144080232812801,4.875
-38.0,1.902136176978195,8.125
-38.0,1.9696313316451632,-3.25
-38.5,1.9205439464328227,4.875
-38.0,1.945087639038993,1.625
-38.0,1.9205439464328227,5.6875
-38.0,1.9144080232812801,4.875
-38.0,1.932815792735908,2.4375
-38.0,1.9512235621905356,-0.8125
-38.0,1.9144080232812801,5.6875
-38.0,1.9266798695843652,2.4375
-38.0,1.9205439464328227,3.25
-38.0,1.9144080232812801,2.4375
-38.0,1.8960002538266525,7.3125
-38.0,1.9266798695843652,0.0
-38.0,1.8960002538266525,7.3125
-38.0,1.8960002538266525,4.875
-38.0,1.8775924843720249,5.6875
-38.0,1.8714565612204823,8.9375
-38.0,1.9082721001297376,2.4375
-38.0,1.88986433067511,7.3125
-38.0,1.9266798695843652,0.8125
-38.0,1.9512235621905356,-3.25
-38.0,1.902136176978195,3.25
-38.0,1.9389517158874505,-3.25
-38.0,1.8960002538266525,0.8125
-38.0,1.9082721001297376,0.8125
-38.0,1.9082721001297376,0.0
-38.0,1.859184714917397,6.5
-38.5,1.8530487917658545,6.5
-38.5,1.8530487917658545,3.25
-38.0,1.88986433067511,-3.25
-38.0,1.859184714917397,0.0
-38.0,1.846912868614312,0.0
-38.5,1.7916895602504288,7.3125
-38.5,1.7732817907958012,8.9375
-38.0,1.8039614065535141,0.0
-38.0,1.7732817907958012,3.25
-38.0,1.7916895602504288,-1.625
-38.5,1.761009944492716,-1.625
-38.0,1.6996507129772904,3.25
-38.0,1.6566992509164924,7.3125
-38.5,1.662835174068035,1.625
-38.0,1.607611865704152,7.3125
-38.0,1.5830681730979816,5.6875
-38.5,1.5401167110371838,8.9375
-38.5,1.5155730184310134,5.6875
-38.0,1.4787574795217582,0.0
-37.5,1.4358060174609601,-5.6875
-37.0,1.3499030933393643,0.8125
-37.0,1.2333205534600555,6.5
-37.0,1.227184630308513,1.625
-36.5,1.1167380135807468,3.25
-36.0,1.0246991663076084,0.8125
-35.5,0.7669903939428205,0.8125
-35.0,0.6504078540635119,1.625
-34.5,0.4908738521234052,3.25
-34.5,0.3865631585471816,0.8125
-34.0,0.2699806186678728,1.625
-34.5,0.09817477042468103,4.875
-34.5,0.0859029241215959,1.625
-35.0,0.03681553890925539,1.625
-35.0,0.006135923151542565,2.4375
-35.0,0.006135923151542565,0.8125
-35.0,6.258641614573416,3.25
-35.0,6.2463697682703305,4.875
-35.0,6.264777537724958,-3.25
-35.0,6.22182607566416,1.625
-35.0,6.215690152512618,-0.8125
-35.0,6.178874613603362,0.8125
-35.0,6.160466844148735,0.0
-35.5,6.129787228391022,-0.8125
-35.0,6.043884304269426,6.5
-35.0,6.000932842208628,3.25
-35.5,5.915029918087033,3.25
-37.0,5.626641529964532,2.4375
-37.0,5.583690067903734,-1.625
-38.0,5.43029198911517,-3.25
-38.0,5.356660911296659,1.625
-38.0,5.197126909356553,5.6875
-39.0,5.123495831538041,2.4375
-39.0,5.049864753719531,5.6875
-39.0,5.0253210611133605,2.4375
-39.5,4.9823695990525625,0.8125
-40.0,4.97623367590102,-6.5
-40.0,4.902602598082509,0.8125
-40.5,4.8351074434155406,8.9375
-41.0,4.767612288748572,9.75
-41.5,4.773748211900116,8.9375
-41.5,4.8351074434155406,3.25
-41.5,4.779884135051658,12.1875
-41.5,4.871922982324796,1.625
-41.5,4.878058905476339,1.625
-41.5,4.81056375080937,10.5625
-41.5,4.890330751779424,0.8125
-41.5,4.908738521234052,0.0
-41.5,4.902602598082509,7.3125
-41.5,4.9823695990525625,-3.25
-41.5,4.957825906446392,4.875
-41.5,5.00077736850719,1.625
-41.0,5.0253210611133605,4.875
-41.5,5.092816215780329,0.8125
-41.5,5.178719139901925,-1.625
-41.0,5.117359908386499,10.5625
-41.5,5.246214294568893,0.0
-41.5,5.264622064023521,7.3125
-41.5,5.325981295538946,0.8125
-41.5,5.313709449235861,8.9375
-41.5,5.325981295538946,12.1875
-41.5,5.47937937432751,-1.625
-41.0,5.50392306693368,1.625
-41.5,5.559146375297564,3.25
-41.0,5.5284667595398505,7.3125
-41.0,5.620505606812989,-0.8125
-41.0,5.632777453116074,1.625
-41.5,5.632777453116074,4.875
-40.5,5.700272607783043,-0.8125
-41.0,5.64504929941916,9.75
-41.0,5.712544454086128,4.875
-40.5,5.767767762450011,-2.4375
-41.0,5.773903685601553,1.625
-40.5,5.773903685601553,3.25
-40.5,5.829126993965437,-1.625
-40.5,5.8475347634200645,1.625
-40.5,5.872078456026235,3.25
-40.0,5.8475347634200645,12.1875
-40.0,5.964117303299373,-1.625
-40.0,5.976389149602458,1.625
-39.5,5.970253226450915,8.9375
-39.5,6.080699843178682,4.875
-40.0,6.129787228391022,1.625
-39.5,6.19728238305799,2.4375
-39.5,6.22182607566416,6.5
-39.0,0.02454369260617026,2.4375
-39.0,0.04908738521234052,5.6875
-38.5,0.09203884727313846,4.875
-38.5,0.16566992509164924,0.8125
-38.5,0.18407769454627693,2.4375
-38.5,0.2086213871524472,6.5
-38.0,0.2270291566070749,9.75
-38.0,0.28838838812250056,3.25
-38.0,0.34974761963792617,3.25
-38.0,0.4049709280018093,1.625
-37.5,0.39269908169872414,4.875
-38.0,0.4356505437595221,3.25
-38.0,0.4356505437595221,5.6875
-38.0,0.47860200582032003,2.4375
-38.0,0.4970097752749477,2.4375
-38.0,0.5154175447295755,4.875
-38.0,0.521553467881118,6.5
-38.0,0.5460971604872883,5.6875
-38.0,0.5767767762450011,5.6875
-38.5,0.6565437772150544,3.25
-38.5,0.6872233929727672,1.625
-38.5,0.7485826244881929,-1.625
-38.5,0.803805932852076,2.4375
-38.5,0.8344855486097889,5.6875
-38.5,0.9510680884890975,0.8125
-38.0,1.030835089459151,-2.4375
-38.5,1.0676506283684062,5.6875
-38.0,1.0983302441261191,3.25
-38.5,1.184233168247715,-2.4375
-38.5,1.2210487071569704,0.8125
-38.5,1.227184630308513,5.6875
-39.0,1.3008157081270237,4.875
-39.0,1.3621749396424494,-1.625
-39.5,1.4480778637640452,0.0
-40.0,1.4848934026733007,0.0
-40.0,1.4787574795217582,7.3125
-40.0,1.533980787885641,6.5
-40.5,1.5830681730979816,6.5
-40.5,1.5953400194010667,5.6875
-40.5,1.6198837120072371,-3.25
-40.0,1.5892040962495242,3.25
-40.0,1.6260196351587797,0.0
-39.5,1.6382914814618648,0.0
-39.5,1.6260196351587797,3.25
-38.5,1.705786636128833,-5.6875
-38.5,1.662835174068035,3.25
-38.5,1.6996507129772904,0.0
-38.0,1.6812429435226628,5.6875
-38.0,1.6689710972195777,7.3125
-37.5,1.7119225592803755,3.25
-37.5,1.718058482431918,3.25
-37.0,1.7303303287350031,4.875
-37.0,1.761009944492716,-2.4375
-36.5,1.7303303287350031,6.5
-36.5,1.7303303287350031,6.5
-36.5,1.7119225592803755,7.3125
-36.5,1.7426021750380885,-2.4375
-36.5,1.7241944055834606,-7.3125
-36.0,1.6505633277649499,1.625
-35.5,1.607611865704152,-1.625
-35.5,1.5033011721279284,4.875
-35.0,1.4910293258248433,0.0
-34.5,1.380582709097077,6.5
-34.0,1.3499030933393643,0.8125
-34.0,1.2885438618239387,4.875
-33.5,1.2701360923693108,0.8125
-33.5,1.2578642460662257,-0.8125
-33.0,1.214912784005428,2.4375
-33.0,1.184233168247715,2.4375
-32.5,1.1596894756415448,1.625
-32.5,1.1290098598838318,1.625
-33.0,1.0921943209745766,3.25
-32.0,1.0615147052168636,3.25
-32.0,1.030835089459151,2.4375
-32.0,0.9756117810952678,1.625
-32.0,0.9081166264282996,0.8125
-32.0,0.8774370106705868,-0.8125
-31.5,0.8160777791551611,-0.8125
-31.0,0.6994952392758523,0.8125
-31.0,0.6504078540635119,0.8125
-30.5,0.6013204688511713,2.4375
-30.5,0.5583690067903734,4.875
-30.0,0.5092816215780329,1.625
-30.0,0.47860200582032003,0.8125
-29.5,0.4111068511533518,1.625
-29.5,0.35588354278946877,0.0
-29.5,0.2945243112740431,1.625
-30.0,0.25157284921324513,0.0
-30.0,0.1718058482431918,1.625
-29.5,0.11044661672776616,0.8125
-30.0,0.04295146206079795,0.8125
-30.0,6.258641614573416,1.625
-30.0,6.215690152512618,-4.875
-30.0,6.129787228391022,0.8125
-29.5,6.086835766330224,0.0
-30.0,6.043884304269426,0.8125
-30.0,6.013204688511713,1.625
-29.5,5.976389149602458,1.625
-30.0,5.945709533844745,-1.625
-30.0,5.872078456026235,0.8125
-30.0,5.841398840268521,-0.8125
-30.5,5.773903685601553,0.8125
-30.5,5.737088146692298,0.0
-30.5,5.681864838328415,0.0
-31.0,5.602097837358362,1.625
-31.5,5.546874528994478,-0.8125
-31.5,5.473243451175968,0.8125
-31.5,5.405748296509,0.8125
-31.5,5.3198453723874035,-0.8125
-32.0,5.178719139901925,0.0
-32.5,5.043728830567988,0.0
-33.0,4.908738521234052,1.625
-33.0,4.890330751779424,-2.4375
-34.0,4.804427827657828,1.625
-34.0,4.767612288748572,0.0
-34.0,4.749204519293945,1.625
-34.0,4.718524903536232,1.625
-34.5,4.693981210930062,0.8125
-34.5,4.6448938257177215,7.3125
-34.5,4.675573441475434,0.0
-34.0,4.657165672020807,0.8125
-34.5,4.657165672020807,-1.625
-34.5,4.620350133111551,2.4375
-34.5,4.638757902566179,-5.6875
-34.0,4.601942363656923,-1.625
-34.5,4.534447208989955,2.4375
-34.0,4.552854978444583,1.625
-34.0,4.540583132141498,1.625
-34.0,4.4976316700806995,8.125
-33.5,4.540583132141498,0.0
-33.5,4.540583132141498,-4.875
-34.0,4.4976316700806995,0.8125
-33.5,4.473087977474529,-1.625
-34.0,4.454680208019902,1.625
-33.5,4.448544284868359,0.0
-33.0,4.4362724385652745,0.0
-33.5,4.4362724385652745,-1.625
-33.5,4.399456899656019,0.0
-33.5,4.387185053352934,1.625
-33.5,4.381049130201391,-0.8125
-33.5,4.362641360746763,0.8125
-33.5,4.374913207049849,1.625
-33.5,4.381049130201391,0.8125
-33.5,4.381049130201391,1.625
-33.0,4.399456899656019,0.0
-33.5,4.399456899656019,1.625
-33.0,4.411728745959104,1.625
-33.0,4.442408361716817,1.625
-32.5,4.473087977474529,2.4375
-32.5,4.516039439535327,0.0
-32.0,4.571262747899211,0.8125
-32.0,4.620350133111551,-0.8125
-32.0,4.626486056263094,0.8125
-32.0,4.669437518323892,-2.4375
-32.0,4.706253057233147,1.625
-32.0,4.700117134081604,0.8125
-32.0,4.675573441475434,0.0
-32.0,4.528311285838413,3.25
-32.5,4.4976316700806995,2.4375
-32.0,4.485359823777615,0.8125
-32.5,4.430136515413731,4.875
-32.0,4.454680208019902,2.4375
-32.0,4.608078286808466,0.0
-30.5,4.890330751779424,0.8125
-29.0,5.344389064993574,3.25
-28.0,5.835262917116979,1.625
-28.0,6.264777537724958,0.0
-27.0,0.2699806186678728,0.0
-27.5,0.4172427743048944,3.25
-28.0,0.5154175447295755,3.25
-28.0,0.6013204688511713,2.4375
-28.5,0.6872233929727672,0.8125
-29.0,0.7915340865489908,0.8125
-29.5,0.8897088569736719,3.25
-29.5,0.9878836273983529,1.625
-30.0,1.0615147052168636,3.25
-30.0,1.141281706186917,2.4375
-30.5,1.2210487071569704,2.4375
-31.0,1.2578642460662257,7.3125
-31.5,1.337631247036279,3.25
-31.5,1.4051264017032472,2.4375
-32.0,1.4296700943094176,1.625
-32.5,1.4848934026733007,0.0
-32.5,1.533980787885641,-2.4375
-33.0,1.5585244804918115,-0.8125
-32.5,1.5155730184310134,7.3125
-33.0,1.5585244804918115,3.25
-33.0,1.5462526341887264,4.875
-33.0,1.5892040962495242,-2.4375
-33.0,1.5462526341887264,4.875
-33.0,1.564660403643354,-0.8125
-33.5,1.5278448647340985,4.875
-33.0,1.5462526341887264,0.8125
-33.5,1.533980787885641,1.625
-33.0,1.4848934026733007,8.9375
-33.5,1.5462526341887264,-0.8125
-33.0,1.4910293258248433,7.3125
-33.0,1.5033011721279284,5.6875
-33.5,1.5462526341887264,0.0
-33.0,1.552388557340269,-1.625
-33.0,1.5278448647340985,4.875
-33.0,1.509437095279471,4.875
-33.0,1.509437095279471,4.875
-33.0,1.5278448647340985,3.25
-33.0,1.5585244804918115,-2.4375
-32.5,1.5707963267948966,-4.875
-33.0,1.5155730184310134,7.3125
-33.0,1.5585244804918115,-0.8125
-33.0,1.5585244804918115,1.625
-33.0,1.5707963267948966,-0.8125
-33.0,1.564660403643354,3.25
-33.0,1.5462526341887264,2.4375
-33.0,1.552388557340269,1.625
-33.0,1.5707963267948966,-1.625
-33.0,1.521708941582556,5.6875
-33.0,1.521708941582556,3.25
-33.0,1.5155730184310134,3.25
-33.0,1.4848934026733007,7.3125
-33.0,1.5155730184310134,1.625
-33.0,1.4848934026733007,4.875
-32.5,1.4971652489763858,1.625
-33.0,1.4848934026733007,5.6875
-33.0,1.5155730184310134,1.625
-33.0,1.4848934026733007,8.125
-32.5,1.552388557340269,-3.25
-33.0,1.4971652489763858,6.5
-33.0,1.5401167110371838,0.0
-33.0,1.5033011721279284,7.3125
-33.0,1.5462526341887264,0.8125
-32.5,1.533980787885641,2.4375
-33.0,1.5278448647340985,4.875
-33.0,1.5585244804918115,-0.8125
