E28011606000020612AF540B,916.75,5.737088,0.0
E28011606000020612AF540B,919.25,1.441942,0.5625
E28011606000020612AF540B,919.25,1.362175,0.625
E28011606000020612AF540B,919.25,1.4910294,-0.75
E28011606000020612AF540B,919.25,1.4173982,0.625
E28011606000020612AF540B,926.25,4.534447,0.0625
E28011606000020612AF540B,926.25,4.5160394,0.1875
E28011606000020612AF540B,926.25,4.5160394,0.1875
E28011606000020612AF540B,926.25,4.5283113,0.375
E28011606000020612AF540B,922.75,0.012271847,0.125
E28011606000020612AF540B,922.75,0.024543693,0.25
E28011606000020612AF540B,922.75,0.030679615,0.8125
E28011606000020612AF540B,922.75,0.0,-0.1875
E28011606000020612AF540B,918.25,1.834641,0.0
E28011606000020612AF540B,918.25,1.8285052,-0.1875
E28011606000020612AF540B,918.25,1.7671459,0.75
E28011606000020612AF540B,918.25,1.8162333,-0.625
E28011606000020612AF540B,916.25,6.0991077,0.0625
E28011606000020612AF540B,916.25,6.1236515,-0.75
E28011606000020612AF540B,916.25,6.062292,0.125
E28011606000020612AF540B,916.25,6.1727386,-0.5
E28011606000020612AF540B,918.75,1.6444274,-0.0625
E28011606000020612AF540B,918.75,1.6996508,-0.875
E28011606000020612AF540B,918.75,1.675107,-0.25
E28011606000020612AF540B,918.75,1.6321555,0.75
E28011606000020612AF540B,912.25,5.902758,0.5625
E28011606000020612AF540B,912.25,5.91503,-0.0625
E28011606000020612AF540B,912.25,5.8720784,1.625
E28011606000020612AF540B,912.25,5.9579816,0.0625
E28011606000020612AF540B,913.75,4.693981,1.125
E28011606000020612AF540B,913.75,4.718525,0.625
E28011606000020612AF540B,913.75,4.8105636,0.125
E28011606000020612AF540B,913.75,4.9762335,-2.0
E28011606000020612AF540B,913.75,5.031457,0.125
E28011606000020612AF540B,905.75,0.3926991,2.1875
E28011606000020612AF540B,905.75,0.34974763,-3.25
E28011606000020612AF540B,905.75,0.06749515,-0.8125
E28011606000020612AF540B,921.75,0.65040785,-0.625
E28011606000020612AF540B,921.75,0.6442719,0.125
E28011606000020612AF540B,921.75,0.72403896,0.5625
E28011606000020612AF540B,921.75,0.7731263,-0.25
E28011606000020612AF540B,906.75,5.3934765,0.125
E28011606000020612AF540B,913.25,5.5223308,0.0625
E28011606000020612AF540B,913.25,5.497787,0.0625
E28011606000020612AF540B,913.25,5.5530105,-0.9375
E28011606000020612AF540B,913.25,5.485515,0.1875
E28011606000020612AF540B,909.25,5.8413987,-1.875
E28011606000020612AF540B,926.75,4.6817093,2.0
E28011606000020612AF540B,926.75,4.565127,0.8125
E28011606000020612AF540B,926.75,4.577399,0.0
E28011606000020612AF540B,926.75,4.565127,0.125
E28011606000020612AF540B,907.75,4.1662917,3.0
E28011606000020612AF540B,907.75,1.030835,2.625
E28011606000020612AF540B,907.75,1.1780972,0.0
E28011606000020612AF540B,921.25,1.1596894,0.0625
E28011606000020612AF540B,921.25,1.1228739,-2.625
E28011606000020612AF540B,921.25,0.6626797,3.8125
E28011606000020612AF540B,921.25,0.73017484,0.875
E28011606000020612AF540B,921.25,0.6442719,0.875
E28011606000020612AF540B,927.25,3.8533597,0.1875
E28011606000020612AF540B,927.25,3.8165443,0.1875
E28011606000020612AF540B,927.25,3.8840394,0.5625
E28011606000020612AF540B,927.25,3.9699423,0.9375
E28011606000020612AF540B,923.75,5.8782144,-0.375
E28011606000020612AF540B,923.75,5.8536706,0.125
E28011606000020612AF540B,923.75,5.91503,-1.0625
E28011606000020612AF540B,923.75,5.8598065,0.75
E28011606000020612AF540B,911.25,0.79153407,2.1875
E28011606000020612AF540B,911.25,0.8897089,-2.625
E28011606000020612AF540B,911.25,0.9817477,-2.25
E28011606000020612AF540B,911.25,0.6688156,1.5625
E28011606000020612AF540B,912.75,5.8720784,0.8125
E28011606000020612AF540B,912.75,5.810719,-0.25
E28011606000020612AF540B,912.75,5.78004,0.8125
E28011606000020612AF540B,912.75,5.822991,1.3125
E28011606000020612AF540B,917.75,2.233476,-0.0625
E28011606000020612AF540B,917.75,2.2518837,-0.625
E28011606000020612AF540B,917.75,2.2212043,-0.375
E28011606000020612AF540B,917.75,2.2886994,-1.5625
E28011606000020612AF540B,915.25,3.9392626,-0.8125
E28011606000020612AF540B,915.25,3.8840394,1.9375
E28011606000020612AF540B,915.25,3.6386025,3.8125
E28011606000020612AF540B,915.25,3.8901753,0.625
E28011606000020612AF540B,920.75,0.96947587,-0.1875
E28011606000020612AF540B,920.75,0.9142526,1.625
E28011606000020612AF540B,920.75,0.9633399,1.75
E28011606000020612AF540B,920.75,0.957204,-1.25
E28011606000020612AF540B,925.25,5.172583,-1.0625
E28011606000020612AF540B,925.25,5.11736,0.5625
E28011606000020612AF540B,925.25,5.105088,0.1875
E28011606000020612AF540B,925.25,5.11736,0.0625
E28011606000020612AF540B,925.25,5.0560007,0.0625
E28011606000020612AF540B,908.75,6.24637,0.0
E28011606000020612AF540B,908.75,6.068428,-0.0625
E28011606000020612AF540B,908.75,5.8598065,2.25
E28011606000020612AF540B,924.75,5.264622,0.5625
E28011606000020612AF540B,924.75,5.332117,-0.125
E28011606000020612AF540B,924.75,5.289166,0.5625
E28011606000020612AF540B,924.75,5.3137093,0.375
E28011606000020612AF540B,907.25,3.9515345,2.5625
E28011606000020612AF540B,907.25,1.0431069,1.5625
E28011606000020612AF540B,907.25,4.258331,-0.625
E28011606000020612AF540B,907.25,1.1290098,0.9375
E28011606000020612AF540B,914.75,4.264467,-0.0625
E28011606000020612AF540B,914.75,4.1662917,0.5625
E28011606000020612AF540B,914.75,4.1846995,-0.5
E28011606000020612AF540B,914.75,4.1110687,0.5
E28011606000020612AF540B,922.25,0.07363108,-0.0625
E28011606000020612AF540B,922.25,0.10431069,-0.875
E28011606000020612AF540B,922.25,0.1349903,-0.625
E28011606000020612AF540B,922.25,0.079767,0.375
E28011606000020612AF540B,924.25,5.5652823,-0.8125
E28011606000020612AF540B,924.25,5.510059,-1.875
E28011606000020612AF540B,924.25,5.5284667,-2.25
E28011606000020612AF540B,924.25,5.473243,0.5625
E28011606000020612AF540B,904.25,0.04295146,-0.75
E28011606000020612AF540B,904.25,0.21475731,-2.9375
E28011606000020612AF540B,920.25,0.7485826,6.625
E28011606000020612AF540B,920.25,0.7731263,1.125
E28011606000020612AF540B,920.25,0.717903,2.3125
E28011606000020612AF540B,920.25,0.67495155,2.6875
E28011606000020612AF540B,903.75,0.49700978,1.8125
E28011606000020612AF540B,903.75,0.7608545,-1.75
E28011606000020612AF540B,903.75,0.52155346,-0.375
E28011606000020612AF540B,903.75,0.42951462,0.875
E28011606000020612AF540B,915.75,0.47246608,-1.0625
E28011606000020612AF540B,915.75,0.5276894,0.625
E28011606000020612AF540B,915.75,3.675418,-0.1875
E28011606000020612AF540B,923.25,6.086836,0.1875
E28011606000020612AF540B,923.25,6.086836,-0.125
E28011606000020612AF540B,923.25,5.902758,1.625
E28011606000020612AF540B,923.25,5.8843503,-0.1875
E28011606000020612AF540B,914.25,4.8412433,0.375
E28011606000020612AF540B,914.25,4.7860203,0.8125
E28011606000020612AF540B,914.25,4.7676125,0.0625
E28011606000020612AF540B,925.75,4.626486,-0.9375
E28011606000020612AF540B,925.75,4.460816,1.5
E28011606000020612AF540B,925.75,4.4853597,0.0625
E28011606000020612AF540B,925.75,4.4362726,0.9375
E28011606000020612AF540B,910.75,1.2885438,-1.625
E28011606000020612AF540B,910.75,1.1903691,0.9375
E28011606000020612AF540B,910.75,1.2517283,1.25
E28011606000020612AF540B,910.75,1.362175,-4.0625
E28011606000020612AF540B,908.25,0.57064086,2.125
E28011606000020612AF540B,908.25,0.62586415,0.5625
E28011606000020612AF540B,908.25,3.8840394,0.25
E28011606000020612AF540B,919.75,0.88357294,2.9375
E28011606000020612AF540B,919.75,1.1228739,-1.875
E28011606000020612AF540B,919.75,1.1965051,-2.25
E28011606000020612AF540B,919.75,0.99401957,-0.5625
E28011606000020612AF540B,917.25,2.1230295,-0.5
E28011606000020612AF540B,917.25,2.1168935,-0.8125
E28011606000020612AF540B,917.25,2.1353014,0.875
E28011606000020612AF540B,917.25,5.3137093,0.125
E28011606000020612AF540B,909.75,2.55868,-2.6875
E28011606000020612AF540B,909.75,5.6818647,-2.1875
E28011606000020612AF540B,909.75,2.5648158,-0.25
E28011606000020612AF540B,910.25,2.0923498,0.125
E28011606000020612AF540B,910.25,2.0309906,-0.125
E28011606000020612AF540B,910.25,2.000311,-0.1875
E28011606000020612AF540B,911.75,0.5890486,2.625
E28011606000020612AF540B,911.75,0.6074564,0.0
E28011606000020612AF540B,911.75,0.717903,0.5625
E28011606000020612AF540B,911.75,0.6626797,0.9375
E28011606000020612AF540B,916.75,2.632311,-0.375
E28011606000020612AF540B,916.75,5.773904,0.375
E28011606000020612AF540B,916.75,5.7309523,0.125
E28011606000020612AF540B,916.75,2.6629906,1.125
E28011606000020612AF540B,919.25,1.4971652,-3.6875
E28011606000020612AF540B,919.25,1.4480779,0.375
E28011606000020612AF540B,919.25,1.3744467,2.125
E28011606000020612AF540B,919.25,1.5033011,-1.625
E28011606000020612AF540B,926.25,4.4301367,0.0625
E28011606000020612AF540B,926.25,4.411729,0.5625
E28011606000020612AF540B,926.25,4.387185,-0.375
E28011606000020612AF540B,922.75,6.1359234,1.1875
E28011606000020612AF540B,922.75,6.21569,-0.0625
E28011606000020612AF540B,922.75,6.227962,-0.375
E28011606000020612AF540B,922.75,6.221826,1.25
E28011606000020612AF540B,918.25,2.0248547,-0.8125
E28011606000020612AF540B,918.25,2.0555344,0.8125
E28011606000020612AF540B,918.25,2.0555344,-1.625
E28011606000020612AF540B,918.25,5.0866804,-1.125
E28011606000020612AF540B,916.25,0.07363108,0.875
E28011606000020612AF540B,916.25,0.030679615,0.9375
E28011606000020612AF540B,916.25,0.20248546,-1.9375
E28011606000020612AF540B,916.25,0.20862138,-0.875
E28011606000020612AF540B,918.75,1.7794178,-0.5
E28011606000020612AF540B,918.75,1.7732818,-0.5625
E28011606000020612AF540B,918.75,1.8100973,0.25
E28011606000020612AF540B,918.75,1.7241944,0.25
E28011606000020612AF540B,912.25,6.221826,0.625
E28011606000020612AF540B,912.25,6.0377483,0.0625
E28011606000020612AF540B,912.25,6.0254765,-0.25
E28011606000020612AF540B,912.25,6.2034183,-0.5
E28011606000020612AF540B,913.75,4.9823694,0.9375
E28011606000020612AF540B,913.75,4.957826,1.875
E28011606000020612AF540B,913.75,5.0007772,1.1875
E28011606000020612AF540B,913.75,5.049865,1.1875
E28011606000020612AF540B,921.75,0.17180584,0.875
E28011606000020612AF540B,921.75,0.159534,0.0
E28011606000020612AF540B,921.75,0.159534,0.9375
E28011606000020612AF540B,913.25,5.460972,-0.75
E28011606000020612AF540B,913.25,5.3689327,1.5
E28011606000020612AF540B,913.25,5.4180202,0.0625
E28011606000020612AF540B,913.25,5.28303,3.0
E28011606000020612AF540B,913.25,5.442564,-1.3125
E28011606000020612AF540B,909.25,2.233476,-0.8125
E28011606000020612AF540B,909.25,2.3623304,-1.75
E28011606000020612AF540B,926.75,0.8651652,0.0625
E28011606000020612AF540B,926.75,3.9944859,0.375
E28011606000020612AF540B,926.75,3.9760783,0.375
E28011606000020612AF540B,926.75,4.0190296,0.125
E28011606000020612AF540B,921.25,0.46633017,-0.1875
E28011606000020612AF540B,921.25,0.49700978,0.75
E28011606000020612AF540B,921.25,0.47246608,-0.875
E28011606000020612AF540B,921.25,0.45405832,1.5
E28011606000020612AF540B,927.25,0.717903,-0.375
E28011606000020612AF540B,927.25,3.8104084,-0.5
E28011606000020612AF540B,923.75,5.608234,-1.875
E28011606000020612AF540B,923.75,5.5468745,1.125
E28011606000020612AF540B,923.75,5.5407386,1.25
E28011606000020612AF540B,923.75,5.61437,0.1875
E28011606000020612AF540B,923.75,5.5407386,1.125
E28011606000020612AF540B,911.25,0.6135923,-2.125
E28011606000020612AF540B,911.25,0.5829127,1.5
E28011606000020612AF540B,911.25,0.5645049,-0.5
E28011606000020612AF540B,911.25,0.61972827,0.8125
E28011606000020612AF540B,912.75,5.816855,-1.0625
E28011606000020612AF540B,912.75,5.761632,-0.625
E28011606000020612AF540B,912.75,5.767768,1.625
E28011606000020612AF540B,912.75,5.835263,2.9375
E28011606000020612AF540B,917.75,2.2518837,-3.0
E28011606000020612AF540B,917.75,2.2089324,-1.9375
E28011606000020612AF540B,917.75,2.153709,0.25
E28011606000020612AF540B,917.75,2.2089324,-2.875
E28011606000020612AF540B,915.25,3.9699423,0.0
E28011606000020612AF540B,915.25,3.9760783,-0.125
E28011606000020612AF540B,915.25,3.9392626,0.9375
E28011606000020612AF540B,915.25,3.9576705,1.0625
E28011606000020612AF540B,920.75,0.7731263,0.0625
E28011606000020612AF540B,920.75,0.7485826,-1.125
E28011606000020612AF540B,920.75,0.558369,0.375
E28011606000020612AF540B,920.75,0.7731263,0.8125
E28011606000020612AF540B,925.25,4.7982917,0.5
E28011606000020612AF540B,925.25,4.7798843,0.375
E28011606000020612AF540B,925.25,4.7737484,0.0
E28011606000020612AF540B,925.25,4.7492046,0.375
E28011606000020612AF540B,908.75,5.8904862,0.0625
E28011606000020612AF540B,908.75,5.810719,-0.0625
E28011606000020612AF540B,924.75,5.013049,-0.9375
E28011606000020612AF540B,924.75,5.11736,0.25
E28011606000020612AF540B,924.75,4.9639616,-0.125
E28011606000020612AF540B,924.75,5.0682726,-0.625
E28011606000020612AF540B,914.75,4.3442335,0.25
E28011606000020612AF540B,914.75,4.405593,-1.5625
E28011606000020612AF540B,914.75,4.3196898,0.5
E28011606000020612AF540B,914.75,4.3565054,-0.0625
E28011606000020612AF540B,922.25,6.2034183,1.0625
E28011606000020612AF540B,922.25,6.2709136,-0.375
E28011606000020612AF540B,922.25,0.08590292,-0.625
E28011606000020612AF540B,922.25,6.1543307,1.125
E28011606000020612AF540B,924.25,5.356661,0.0
E28011606000020612AF540B,924.25,5.332117,-0.125
E28011606000020612AF540B,924.25,5.350525,-0.375
E28011606000020612AF540B,924.25,5.344389,0.875
E28011606000020612AF540B,920.25,0.9633399,0.375
E28011606000020612AF540B,920.25,0.9510681,0.375
E28011606000020612AF540B,920.25,1.0001554,0.0625
E28011606000020612AF540B,920.25,1.0124273,-4.0
E28011606000020612AF540B,920.25,1.0860584,-4.6875
E28011606000020612AF540B,915.75,3.5588355,-0.25
E28011606000020612AF540B,915.75,0.41110685,-0.8125
E28011606000020612AF540B,915.75,0.36201948,0.0
E28011606000020612AF540B,915.75,0.38656315,-0.0625
E28011606000020612AF540B,923.25,5.804583,-1.1875
E28011606000020612AF540B,923.25,5.8413987,-0.375
E28011606000020612AF540B,923.25,5.835263,0.5
E28011606000020612AF540B,923.25,5.7923117,-0.375
E28011606000020612AF540B,914.25,4.718525,1.25
E28011606000020612AF540B,914.25,4.700117,0.375
E28011606000020612AF540B,914.25,4.718525,0.0
E28011606000020612AF540B,914.25,4.7553406,-0.5625
E28011606000020612AF540B,925.75,4.534447,0.375
E28011606000020612AF540B,925.75,4.552855,-1.8125
E28011606000020612AF540B,925.75,4.5037675,0.1875
E28011606000020612AF540B,925.75,4.5099034,-0.0625
E28011606000020612AF540B,910.75,1.0246992,-0.125
E28011606000020612AF540B,910.75,1.1965051,-3.3125
E28011606000020612AF540B,910.75,1.0124273,-1.5625
E28011606000020612AF540B,910.75,0.96947587,0.8125
E28011606000020612AF540B,908.25,0.012271847,-2.5
E28011606000020612AF540B,919.75,1.1658254,1.125
E28011606000020612AF540B,919.75,1.0860584,1.125
E28011606000020612AF540B,919.75,1.2824079,0.375
E28011606000020612AF540B,919.75,1.1719613,0.0625
E28011606000020612AF540B,919.75,1.0431069,2.3125
E28011606000020612AF540B,917.25,2.4359615,0.0625
E28011606000020612AF540B,917.25,2.4052818,0.9375
E28011606000020612AF540B,917.25,5.620506,-0.0625
E28011606000020612AF540B,909.75,1.8653207,-1.0625
E28011606000020612AF540B,909.75,1.8653207,-0.25
E28011606000020612AF540B,909.75,1.834641,1.0625
E28011606000020612AF540B,909.75,1.8100973,0.5625
E28011606000020612AF540B,910.25,1.3376312,0.8125
E28011606000020612AF540B,910.25,1.4480779,-0.625
E28011606000020612AF540B,910.25,1.2578642,5.0625
E28011606000020612AF540B,910.25,1.5462526,-4.75
E28011606000020612AF540B,911.75,0.20248546,-0.5
E28011606000020612AF540B,911.75,0.14726216,1.75
E28011606000020612AF540B,911.75,0.41110685,-5.4375
E28011606000020612AF540B,911.75,0.09203885,0.875
E28011606000020612AF540B,916.75,6.0070686,-1.75
E28011606000020612AF540B,916.75,2.7427576,-0.0625
E28011606000020612AF540B,916.75,2.8593402,-0.125
E28011606000020612AF540B,916.75,5.933438,0.0625
E28011606000020612AF540B,919.25,1.3805827,0.125
E28011606000020612AF540B,919.25,1.3499031,1.25
E28011606000020612AF540B,919.25,1.5278449,-2.1875
E28011606000020612AF540B,919.25,1.4480779,-0.25
E28011606000020612AF540B,926.25,4.2828746,0.125
E28011606000020612AF540B,926.25,4.295146,-0.625
E28011606000020612AF540B,922.75,6.0193405,0.1875
E28011606000020612AF540B,922.75,6.0438843,0.625
E28011606000020612AF540B,922.75,6.0254765,-0.8125
E28011606000020612AF540B,922.75,6.074564,-0.1875
E28011606000020612AF540B,922.75,5.9947968,1.1875
E28011606000020612AF540B,918.25,2.0187187,-2.0
E28011606000020612AF540B,918.25,1.9266798,0.25
E28011606000020612AF540B,918.25,1.8960003,0.9375
E28011606000020612AF540B,918.25,2.0064468,-1.5
E28011606000020612AF540B,916.25,0.10431069,-0.5625
E28011606000020612AF540B,916.25,0.09203885,0.0
E28011606000020612AF540B,916.25,0.030679615,0.0625
E28011606000020612AF540B,916.25,0.01840777,0.125
E28011606000020612AF540B,918.75,1.6628351,1.5625
E28011606000020612AF540B,918.75,1.6935148,-1.875
E28011606000020612AF540B,918.75,1.6382915,0.5625
E28011606000020612AF540B,918.75,1.675107,-0.625
E28011606000020612AF540B,912.25,6.1727386,1.8125
E28011606000020612AF540B,912.25,6.148195,-0.1875
E28011606000020612AF540B,912.25,5.976389,1.8125
E28011606000020612AF540B,912.25,6.142059,-0.9375
E28011606000020612AF540B,913.75,5.0744085,-0.0625
E28011606000020612AF540B,913.75,5.105088,-0.25
E28011606000020612AF540B,913.75,5.0866804,0.125
E28011606000020612AF540B,913.75,5.105088,0.1875
E28011606000020612AF540B,921.75,0.19634955,1.125
E28011606000020612AF540B,921.75,0.079767,2.875
E28011606000020612AF540B,921.75,0.159534,0.5
E28011606000020612AF540B,921.75,0.14726216,0.75
E28011606000020612AF540B,921.75,0.1840777,-0.0625
E28011606000020612AF540B,913.25,5.3934765,1.5
E28011606000020612AF540B,913.25,5.4180202,0.5625
E28011606000020612AF540B,913.25,5.3750687,-0.5625
E28011606000020612AF540B,909.25,2.2518837,0.1875
E28011606000020612AF540B,909.25,2.2089324,2.25
E28011606000020612AF540B,909.25,2.3071072,-0.75
E28011606000020612AF540B,926.75,4.0374374,0.1875
E28011606000020612AF540B,926.75,4.1110687,-0.8125
E28011606000020612AF540B,907.75,0.07363108,4.9375
E28011606000020612AF540B,921.25,0.398835,2.3125
E28011606000020612AF540B,921.25,0.46633017,-0.1875
E28011606000020612AF540B,921.25,0.36201948,1.625
E28011606000020612AF540B,921.25,0.48473793,-1.0625
E28011606000020612AF540B,921.25,0.47246608,0.625
E28011606000020612AF540B,927.25,3.9331267,-1.3125
E28011606000020612AF540B,927.25,3.8472238,0.0625
E28011606000020612AF540B,923.75,5.61437,-0.75
E28011606000020612AF540B,923.75,5.577554,-1.0625
E28011606000020612AF540B,923.75,5.61437,-0.5
E28011606000020612AF540B,923.75,5.5407386,0.9375
E28011606000020612AF540B,911.25,0.6933593,-0.25
E28011606000020612AF540B,911.25,0.50928164,2.3125
E28011606000020612AF540B,911.25,0.45405832,2.6875
E28011606000020612AF540B,911.25,0.6810875,-1.8125
E28011606000020612AF540B,912.75,5.767768,1.3125
E28011606000020612AF540B,912.75,5.7309523,1.1875
E28011606000020612AF540B,912.75,5.8475347,-1.5
E28011606000020612AF540B,912.75,5.8598065,0.1875
E28011606000020612AF540B,917.75,5.3075733,-0.5625
E28011606000020612AF540B,917.75,2.0371265,3.0
E28011606000020612AF540B,917.75,2.2396119,0.75
E28011606000020612AF540B,917.75,2.233476,-0.875
E28011606000020612AF540B,915.25,3.9699423,-0.0625
E28011606000020612AF540B,915.25,4.000622,-0.875
E28011606000020612AF540B,915.25,3.9576705,0.1875
E28011606000020612AF540B,915.25,3.9638064,-0.125
E28011606000020612AF540B,920.75,0.8099418,-0.625
E28011606000020612AF540B,920.75,0.5645049,2.25
E28011606000020612AF540B,920.75,0.6933593,0.375
E28011606000020612AF540B,920.75,0.478602,2.1875
E28011606000020612AF540B,925.25,4.859651,-0.8125
E28011606000020612AF540B,925.25,4.8044276,-0.5
E28011606000020612AF540B,925.25,4.7982917,1.125
E28011606000020612AF540B,925.25,4.7614765,0.75
E28011606000020612AF540B,908.75,2.632311,0.0
E28011606000020612AF540B,908.75,5.8536706,0.1875
E28011606000020612AF540B,924.75,5.1480393,-0.1875
E28011606000020612AF540B,924.75,5.0866804,0.75
E28011606000020612AF540B,924.75,5.049865,0.0625
E28011606000020612AF540B,924.75,5.0805445,0.5
E28011606000020612AF540B,914.75,4.3503695,-0.5
E28011606000020612AF540B,914.75,1.1412817,0.8125
E28011606000020612AF540B,914.75,4.301282,0.25
E28011606000020612AF540B,914.75,4.307418,0.1875
E28011606000020612AF540B,914.75,4.3319616,0.5625
E28011606000020612AF540B,922.25,0.0061359233,-1.0625
E28011606000020612AF540B,922.25,6.2709136,1.8125
E28011606000020612AF540B,922.25,6.2586417,-0.625
E28011606000020612AF540B,922.25,6.074564,0.8125
E28011606000020612AF540B,924.25,5.2462144,1.75
E28011606000020612AF540B,924.25,5.4487,-0.625
E28011606000020612AF540B,924.25,5.3812046,0.0
E28011606000020612AF540B,920.25,0.85902923,0.5625
E28011606000020612AF540B,920.25,0.94493216,0.9375
E28011606000020612AF540B,920.25,0.9817477,0.0
E28011606000020612AF540B,920.25,1.0124273,0.375
E28011606000020612AF540B,915.75,3.6079228,-0.75
E28011606000020612AF540B,915.75,3.589515,-0.25
E28011606000020612AF540B,915.75,0.4233787,-0.5
E28011606000020612AF540B,915.75,0.3926991,0.8125
E28011606000020612AF540B,923.25,5.816855,0.5625
E28011606000020612AF540B,923.25,5.8413987,0.625
E28011606000020612AF540B,923.25,5.7923117,0.0
E28011606000020612AF540B,923.25,5.78004,1.0625
E28011606000020612AF540B,923.25,5.804583,-0.25
E28011606000020612AF540B,914.25,4.7492046,-0.5625
E28011606000020612AF540B,914.25,4.693981,-0.125
E28011606000020612AF540B,914.25,4.7737484,-0.625
E28011606000020612AF540B,925.75,4.558991,0.25
E28011606000020612AF540B,925.75,4.577399,-0.5625
E28011606000020612AF540B,925.75,4.552855,-0.5625
E28011606000020612AF540B,910.75,0.8222137,3.0
E28011606000020612AF540B,910.75,0.957204,-1.125
E28011606000020612AF540B,910.75,0.92038846,0.5
E28011606000020612AF540B,910.75,0.85902923,2.1875
E28011606000020612AF540B,908.25,6.092972,5.375
E28011606000020612AF540B,919.75,1.0737865,1.5
E28011606000020612AF540B,919.75,1.1106021,1.1875
E28011606000020612AF540B,919.75,1.1412817,0.8125
E28011606000020612AF540B,919.75,1.2087768,0.625
E28011606000020612AF540B,917.25,2.5034566,0.8125
E28011606000020612AF540B,917.25,2.5464082,-0.875
E28011606000020612AF540B,917.25,2.5280004,-0.0625
E28011606000020612AF540B,917.25,2.4298255,1.125
E28011606000020612AF540B,909.75,1.7241944,2.5625
E28011606000020612AF540B,909.75,1.7426022,-0.75
E28011606000020612AF540B,909.75,1.8100973,1.25
E28011606000020612AF540B,910.25,1.4235342,-3.125
E28011606000020612AF540B,910.25,1.5523885,-2.125
E28011606000020612AF540B,910.25,1.4235342,-1.625
E28011606000020612AF540B,911.75,0.16566992,1.75
E28011606000020612AF540B,911.75,0.23316509,-0.875
E28011606000020612AF540B,911.75,0.20248546,1.1875
E28011606000020612AF540B,911.75,0.0,3.5
E28011606000020612AF540B,916.75,5.927302,-0.25
E28011606000020612AF540B,916.75,2.9022915,-1.5
E28011606000020612AF540B,916.75,5.91503,1.625
E28011606000020612AF540B,916.75,2.8961558,-0.75
E28011606000020612AF540B,916.75,2.9206994,-0.5625
E28011606000020612AF540B,919.25,1.59534,-2.625
E28011606000020612AF540B,919.25,1.5462526,-1.625
E28011606000020612AF540B,919.25,1.5094371,0.125
E28011606000020612AF540B,926.25,4.3319616,0.1875
E28011606000020612AF540B,926.25,4.3442335,0.25
E28011606000020612AF540B,926.25,4.3196898,-0.8125
E28011606000020612AF540B,922.75,6.0377483,-0.625
E28011606000020612AF540B,922.75,6.0132046,1.25
E28011606000020612AF540B,922.75,5.896622,0.0
E28011606000020612AF540B,922.75,6.1113796,0.0
E28011606000020612AF540B,918.25,1.8285052,1.625
E28011606000020612AF540B,918.25,2.0064468,-1.75
E28011606000020612AF540B,918.25,1.7916895,-0.75
E28011606000020612AF540B,918.25,1.7671459,-0.9375
E28011606000020612AF540B,916.25,0.12885438,-0.5625
E28011606000020612AF540B,916.25,0.06135923,-0.375
E28011606000020612AF540B,916.25,0.03681554,-0.5
E28011606000020612AF540B,916.25,0.04295146,0.0625
E28011606000020612AF540B,918.75,1.7057866,-0.125
E28011606000020612AF540B,918.75,1.7364663,-0.0625
E28011606000020612AF540B,918.75,1.6444274,1.1875
E28011606000020612AF540B,918.75,1.6935148,0.5625
E28011606000020612AF540B,912.25,6.1604667,2.625
E28011606000020612AF540B,912.25,6.1666026,-0.8125
E28011606000020612AF540B,912.25,6.1297874,-0.5
E28011606000020612AF540B,912.25,6.221826,-1.25
E28011606000020612AF540B,913.75,5.037593,1.5
E28011606000020612AF540B,913.75,5.037593,0.875
E28011606000020612AF540B,913.75,5.0560007,0.75
E28011606000020612AF540B,913.75,5.049865,0.5625
E28011606000020612AF540B,921.75,0.15339808,0.0625
E28011606000020612AF540B,921.75,0.19021362,0.8125
E28011606000020612AF540B,921.75,6.2647777,3.8125
E28011606000020612AF540B,921.75,0.21475731,-1.5
E28011606000020612AF540B,921.75,0.06749515,2.0
E28011606000020612AF540B,913.25,5.5591464,0.375
E28011606000020612AF540B,913.25,5.460972,-0.0625
E28011606000020612AF540B,913.25,5.430292,0.875
E28011606000020612AF540B,909.25,5.491651,-0.125
E28011606000020612AF540B,909.25,2.3500586,1.5
E28011606000020612AF540B,909.25,5.61437,-2.25
E28011606000020612AF540B,926.75,4.12334,-0.8125
E28011606000020612AF540B,926.75,4.0251656,0.0625
E28011606000020612AF540B,926.75,4.0313015,0.375
E28011606000020612AF540B,921.25,0.49087384,-0.0625
E28011606000020612AF540B,921.25,0.47246608,-0.875
E28011606000020612AF540B,921.25,0.38656315,3.1875
E28011606000020612AF540B,921.25,0.6074564,2.1875
E28011606000020612AF540B,927.25,3.8717675,-0.5
E28011606000020612AF540B,927.25,3.8594956,0.0625
E28011606000020612AF540B,923.75,5.6941366,0.0
E28011606000020612AF540B,923.75,5.5591464,0.875
E28011606000020612AF540B,923.75,5.620506,0.375
E28011606000020612AF540B,923.75,5.608234,0.9375
E28011606000020612AF540B,911.25,0.6320001,0.125
E28011606000020612AF540B,911.25,0.6626797,-1.625
E28011606000020612AF540B,911.25,0.5890486,-0.8125
E28011606000020612AF540B,912.75,5.8413987,-1.0625
E28011606000020612AF540B,912.75,5.816855,-1.625
E28011606000020612AF540B,912.75,5.7248163,1.5625
E28011606000020612AF540B,912.75,5.761632,1.3125
E28011606000020612AF540B,912.75,5.767768,3.0
E28011606000020612AF540B,917.75,2.147573,1.8125
E28011606000020612AF540B,917.75,2.233476,0.8125
E28011606000020612AF540B,917.75,2.233476,-0.625
E28011606000020612AF540B,915.25,3.9638064,-0.375
E28011606000020612AF540B,915.25,3.9760783,0.25
E28011606000020612AF540B,915.25,0.80380595,1.0625
E28011606000020612AF540B,915.25,3.9944859,-0.375
E28011606000020612AF540B,920.75,0.62586415,-1.0625
E28011606000020612AF540B,920.75,0.80380595,-0.5
E28011606000020612AF540B,920.75,0.7424467,0.1875
E28011606000020612AF540B,920.75,0.8222137,-0.8125
E28011606000020612AF540B,925.25,4.847379,0.25
E28011606000020612AF540B,925.25,4.792156,0.5625
E28011606000020612AF540B,925.25,4.871923,-0.625
E28011606000020612AF540B,925.25,4.8166995,0.375
E28011606000020612AF540B,908.75,5.8475347,0.0625
E28011606000020612AF540B,908.75,2.6568546,0.5625
E28011606000020612AF540B,924.75,5.0682726,0.8125
E28011606000020612AF540B,924.75,5.0989523,0.5
E28011606000020612AF540B,924.75,5.1357675,-0.875
E28011606000020612AF540B,924.75,5.123496,1.3125
E28011606000020612AF540B,914.75,4.3380976,0.1875
E28011606000020612AF540B,914.75,4.3319616,0.375
E28011606000020612AF540B,914.75,4.3258257,-0.0625
E28011606000020612AF540B,914.75,4.3503695,0.375
E28011606000020612AF540B,922.25,6.2709136,0.375
E28011606000020612AF540B,922.25,6.252506,0.5625
E28011606000020612AF540B,922.25,0.0061359233,-1.1875
E28011606000020612AF540B,922.25,6.252506,1.875
E28011606000020612AF540B,924.25,5.473243,-3.5
E28011606000020612AF540B,924.25,5.3689327,0.0
E28011606000020612AF540B,924.25,5.3750687,-0.5
E28011606000020612AF540B,924.25,5.332117,0.9375
E28011606000020612AF540B,920.25,0.9756118,0.75
E28011606000020612AF540B,920.25,1.036971,-1.875
E28011606000020612AF540B,920.25,0.9756118,0.875
E28011606000020612AF540B,920.25,0.94493216,1.8125
E28011606000020612AF540B,915.75,0.43565056,0.1875
E28011606000020612AF540B,915.75,0.45405832,0.0625
E28011606000020612AF540B,915.75,0.43565056,-0.625
E28011606000020612AF540B,915.75,0.47246608,0.0
E28011606000020612AF540B,923.25,5.829127,0.5
E28011606000020612AF540B,923.25,5.822991,0.125
E28011606000020612AF540B,923.25,5.9457097,-2.0
E28011606000020612AF540B,923.25,5.822991,0.75
E28011606000020612AF540B,914.25,4.8105636,-1.125
E28011606000020612AF540B,914.25,4.7369328,-0.8125
E28011606000020612AF540B,914.25,4.7430687,0.5625
E28011606000020612AF540B,914.25,4.700117,0.375
E28011606000020612AF540B,925.75,4.552855,-0.25
E28011606000020612AF540B,925.75,4.4853597,1.0625
E28011606000020612AF540B,925.75,4.552855,-0.125
E28011606000020612AF540B,910.75,1.0062914,-0.375
E28011606000020612AF540B,910.75,0.957204,1.25
E28011606000020612AF540B,910.75,1.1044662,-0.5625
E28011606000020612AF540B,910.75,0.957204,-0.875
E28011606000020612AF540B,908.25,6.1727386,0.8125
E28011606000020612AF540B,908.25,6.1543307,-0.0625
E28011606000020612AF540B,919.75,1.276272,-1.0625
E28011606000020612AF540B,919.75,1.2640002,0.0
E28011606000020612AF540B,919.75,1.1842332,-0.8125
E28011606000020612AF540B,919.75,1.1719613,0.0625
E28011606000020612AF540B,917.25,2.5280004,-0.0625
E28011606000020612AF540B,917.25,5.595962,0.5625
E28011606000020612AF540B,917.25,5.6266418,0.1875
E28011606000020612AF540B,917.25,5.669593,-0.625
E28011606000020612AF540B,909.75,1.7794178,1.75
E28011606000020612AF540B,909.75,1.8591847,0.5625
E28011606000020612AF540B,910.25,1.3989905,-1.3125
E28011606000020612AF540B,910.25,1.5462526,-2.125
E28011606000020612AF540B,910.25,1.5646604,-1.5
E28011606000020612AF540B,910.25,1.4603497,-1.5
E28011606000020612AF540B,911.75,0.2699806,-2.625
E28011606000020612AF540B,911.75,0.2638447,-1.625
E28011606000020612AF540B,911.75,0.1840777,-0.125
E28011606000020612AF540B,911.75,0.19634955,0.9375
E28011606000020612AF540B,916.75,5.9579816,0.0625
E28011606000020612AF540B,916.75,6.1175156,-0.8125
E28011606000020612AF540B,916.75,5.988661,0.0625
E28011606000020612AF540B,916.75,5.988661,-0.5
E28011606000020612AF540B,919.25,1.4971652,-1.9375
E28011606000020612AF540B,919.25,1.4664856,0.5
E28011606000020612AF540B,919.25,1.5033011,-1.8125
E28011606000020612AF540B,919.25,1.3928546,2.3125
E28011606000020612AF540B,926.25,4.3196898,0.0625
E28011606000020612AF540B,926.25,4.28901,-0.0625
E28011606000020612AF540B,922.75,6.142059,-1.125
E28011606000020612AF540B,922.75,6.092972,-0.875
E28011606000020612AF540B,922.75,6.056156,0.9375
E28011606000020612AF540B,922.75,6.1727386,-0.1875
E28011606000020612AF540B,918.25,2.06167,-0.875
E28011606000020612AF540B,918.25,1.9880391,-1.875
E28011606000020612AF540B,918.25,1.9819032,0.25
E28011606000020612AF540B,918.25,1.9266798,-2.1875
E28011606000020612AF540B,916.25,0.06135923,-1.1875
E28011606000020612AF540B,916.25,0.049087387,0.625
E28011606000020612AF540B,916.25,0.06135923,-0.5625
E28011606000020612AF540B,916.25,0.0,0.0
E28011606000020612AF540B,918.75,1.6382915,0.1875
E28011606000020612AF540B,918.75,1.6566993,-0.625
E28011606000020612AF540B,918.75,1.6076119,1.5
E28011606000020612AF540B,918.75,1.5892041,3.0
E28011606000020612AF540B,912.25,5.9457097,-0.1875
E28011606000020612AF540B,912.25,6.062292,0.25
E28011606000020612AF540B,912.25,5.921166,-0.75
E28011606000020612AF540B,912.25,5.9457097,0.875
E28011606000020612AF540B,913.75,4.8044276,1.5
E28011606000020612AF540B,913.75,4.878059,0.25
E28011606000020612AF540B,913.75,4.9271464,-0.125
E28011606000020612AF540B,921.75,0.15339808,-0.0625
E28011606000020612AF540B,921.75,0.11658254,0.25
E28011606000020612AF540B,921.75,0.22089323,-0.9375
E28011606000020612AF540B,913.25,5.436428,0.125
E28011606000020612AF540B,913.25,5.479379,1.125
E28011606000020612AF540B,913.25,5.5591464,0.5
E28011606000020612AF540B,913.25,5.5591464,1.25
E28011606000020612AF540B,909.25,5.9579816,-0.375
E28011606000020612AF540B,926.75,4.411729,0.375
E28011606000020612AF540B,926.75,4.4240007,0.0625
E28011606000020612AF540B,926.75,4.4362726,-0.875
E28011606000020612AF540B,926.75,4.4240007,0.0
E28011606000020612AF540B,903.25,5.6941366,1.8125
E28011606000020612AF540B,907.75,0.80380595,-0.375
E28011606000020612AF540B,907.75,3.9760783,1.125
E28011606000020612AF540B,907.75,0.88357294,-0.75
E28011606000020612AF540B,907.75,4.258331,-4.0
E28011606000020612AF540B,905.25,5.289166,2.0
E28011606000020612AF540B,921.25,0.17180584,2.875
E28011606000020612AF540B,921.25,0.2883884,0.25
E28011606000020612AF540B,921.25,0.22089323,0.125
E28011606000020612AF540B,921.25,0.079767,1.5625
E28011606000020612AF540B,927.25,0.5829127,-0.25
E28011606000020612AF540B,927.25,3.742913,-0.5625
E28011606000020612AF540B,927.25,3.6999617,0.0625
E28011606000020612AF540B,923.75,5.442564,0.0625
E28011606000020612AF540B,923.75,5.442564,-0.25
E28011606000020612AF540B,923.75,5.3873405,0.5
E28011606000020612AF540B,904.75,5.976389,-1.1875
E28011606000020612AF540B,904.75,5.91503,-0.1875
E28011606000020612AF540B,904.75,6.0254765,-2.25
E28011606000020612AF540B,906.25,5.2216706,-1.5
E28011606000020612AF540B,906.25,5.197127,-1.5625
E28011606000020612AF540B,906.25,5.037593,0.1875
E28011606000020612AF540B,906.25,5.0007772,1.625
E28011606000020612AF540B,911.25,0.7853982,0.625
E28011606000020612AF540B,911.25,0.92038846,0.75
E28011606000020612AF540B,911.25,0.89584476,0.25
E28011606000020612AF540B,911.25,0.80380595,2.9375
E28011606000020612AF540B,912.75,5.9641175,-0.1875
E28011606000020612AF540B,912.75,5.9579816,0.0625
E28011606000020612AF540B,912.75,5.9641175,2.1875
E28011606000020612AF540B,912.75,5.988661,-0.1875
E28011606000020612AF540B,917.75,2.2027965,1.75
E28011606000020612AF540B,917.75,2.4052818,0.0625
E28011606000020612AF540B,917.75,2.478913,0.0625
E28011606000020612AF540B,917.75,2.4605052,0.0625
E28011606000020612AF540B,915.25,4.1110687,0.875
E28011606000020612AF540B,915.25,4.1724277,0.75
E28011606000020612AF540B,915.25,4.1908355,-0.25
E28011606000020612AF540B,920.75,1.1596894,0.25
E28011606000020612AF540B,920.75,1.2455924,2.125
E28011606000020612AF540B,920.75,1.0615147,2.0
E28011606000020612AF540B,920.75,1.116738,0.8125
E28011606000020612AF540B,925.25,5.2462144,-0.0625
E28011606000020612AF540B,925.25,5.178719,0.625
E28011606000020612AF540B,925.25,5.2155347,-0.1875
E28011606000020612AF540B,925.25,5.2155347,0.375
E28011606000020612AF540B,908.75,0.24543692,0.1875
E28011606000020612AF540B,908.75,0.41724277,-0.1875
E28011606000020612AF540B,908.75,0.45405832,1.3125
E28011606000020612AF540B,924.75,5.338253,1.625
E28011606000020612AF540B,924.75,5.3689327,0.1875
E28011606000020612AF540B,924.75,5.3014374,0.625
E28011606000020612AF540B,924.75,5.3689327,0.125
E28011606000020612AF540B,914.75,4.4914956,-0.375
E28011606000020612AF540B,914.75,4.4301367,1.125
E28011606000020612AF540B,914.75,4.4485445,0.75
E28011606000020612AF540B,914.75,4.4424086,-0.25
E28011606000020612AF540B,922.25,0.14112623,0.875
E28011606000020612AF540B,922.25,0.0061359233,-0.9375
E28011606000020612AF540B,922.25,0.030679615,1.1875
E28011606000020612AF540B,922.25,0.079767,0.9375
E28011606000020612AF540B,924.25,5.3873405,0.9375
E28011606000020612AF540B,924.25,5.5652823,0.1875
E28011606000020612AF540B,924.25,5.473243,1.25
E28011606000020612AF540B,920.25,0.89584476,2.625
E28011606000020612AF540B,920.25,1.1719613,-0.8125
E28011606000020612AF540B,920.25,1.0001554,4.1875
E28011606000020612AF540B,920.25,1.0676507,1.1875
E28011606000020612AF540B,915.75,0.36201948,1.0625
E28011606000020612AF540B,915.75,3.5649714,-0.5
E28011606000020612AF540B,915.75,3.4667966,0.625
E28011606000020612AF540B,915.75,3.4483888,0.75
E28011606000020612AF540B,923.25,5.835263,-0.125
E28011606000020612AF540B,923.25,5.7923117,-0.25
E28011606000020612AF540B,923.25,5.755496,-0.1875
E28011606000020612AF540B,914.25,4.7982917,-0.9375
E28011606000020612AF540B,914.25,4.730797,1.25
E28011606000020612AF540B,914.25,4.8044276,0.5625
E28011606000020612AF540B,914.25,4.7737484,2.875
E28011606000020612AF540B,925.75,4.6510296,0.75
E28011606000020612AF540B,925.75,4.687845,0.375
E28011606000020612AF540B,925.75,4.693981,-0.25
E28011606000020612AF540B,910.75,1.4542137,0.625
E28011606000020612AF540B,910.75,1.5094371,0.1875
E28011606000020612AF540B,910.75,1.515573,0.0625
E28011606000020612AF540B,910.75,1.4971652,-0.625
E28011606000020612AF540B,908.25,4.0374374,-0.875
E28011606000020612AF540B,908.25,0.9510681,-0.625
E28011606000020612AF540B,919.75,1.3989905,-2.3125
E28011606000020612AF540B,919.75,1.1535536,0.75
E28011606000020612AF540B,919.75,1.0737865,0.0625
E28011606000020612AF540B,919.75,1.0246992,3.3125
E28011606000020612AF540B,917.25,2.4420974,-1.25
E28011606000020612AF540B,917.25,2.3316507,-0.125
E28011606000020612AF540B,917.25,5.362797,2.25
E28011606000020612AF540B,917.25,2.313243,0.0625
E28011606000020612AF540B,909.75,2.4666412,-0.1875
E28011606000020612AF540B,910.25,1.9082721,1.0625
E28011606000020612AF540B,910.25,2.000311,-1.5625
E28011606000020612AF540B,911.75,0.50928164,0.875
E28011606000020612AF540B,911.75,0.49700978,-1.5625
E28011606000020612AF540B,911.75,0.25770876,-0.0625
E28011606000020612AF540B,911.75,0.05522331,3.0
E28011606000020612AF540B,916.75,5.810719,0.75
E28011606000020612AF540B,916.75,2.6507187,-1.625
E28011606000020612AF540B,916.75,2.5402722,0.25
E28011606000020612AF540B,916.75,2.478913,0.5
E28011606000020612AF540B,919.25,1.0676507,1.875
E28011606000020612AF540B,919.25,1.5278449,-0.9375
E28011606000020612AF540B,919.25,1.5769322,1.25
E28011606000020612AF540B,919.25,1.7364663,1.5625
E28011606000020612AF540B,926.25,4.5896707,0.875
E28011606000020612AF540B,926.25,4.700117,-2.0
E28011606000020612AF540B,922.75,6.1911464,0.5
E28011606000020612AF540B,922.75,0.0,0.9375
E28011606000020612AF540B,922.75,0.06135923,-1.0625
E28011606000020612AF540B,922.75,0.0,-0.5
E28011606000020612AF540B,918.25,1.9573594,1.875
E28011606000020612AF540B,918.25,1.9880391,0.8125
E28011606000020612AF540B,918.25,4.9087386,2.3125
E28011606000020612AF540B,918.25,2.0555344,-2.25
E28011606000020612AF540B,916.25,6.227962,-0.75
E28011606000020612AF540B,916.25,6.1236515,-0.125
E28011606000020612AF540B,916.25,6.1911464,0.625
E28011606000020612AF540B,916.25,6.21569,0.9375
E28011606000020612AF540B,918.75,1.7057866,-0.625
E28011606000020612AF540B,918.75,1.7303303,-0.0625
E28011606000020612AF540B,918.75,1.6260196,0.0625
E28011606000020612AF540B,918.75,1.6198837,0.9375
E28011606000020612AF540B,912.25,6.1359234,-0.8125
E28011606000020612AF540B,912.25,6.092972,0.125
E28011606000020612AF540B,912.25,6.1972823,-1.5
E28011606000020612AF540B,912.25,6.1911464,0.5625
E28011606000020612AF540B,913.75,4.9455543,0.5625
E28011606000020612AF540B,913.75,4.95169,-0.625
E28011606000020612AF540B,913.75,4.884195,-1.1875
E28011606000020612AF540B,921.75,0.20862138,0.5625
E28011606000020612AF540B,921.75,0.20248546,0.125
E28011606000020612AF540B,921.75,0.20248546,-0.125
E28011606000020612AF540B,921.75,0.16566992,-0.0625
E28011606000020612AF540B,921.75,0.16566992,0.25
E28011606000020612AF540B,913.25,4.95169,0.5
E28011606000020612AF540B,913.25,4.9762335,0.25
E28011606000020612AF540B,913.25,5.013049,-0.8125
E28011606000020612AF540B,926.75,4.092661,-0.125
E28011606000020612AF540B,926.75,4.092661,0.25
E28011606000020612AF540B,926.75,4.104933,-0.125
E28011606000020612AF540B,926.75,4.092661,0.0
E28011606000020612AF540B,921.25,0.45405832,-0.25
E28011606000020612AF540B,921.25,0.38656315,1.5
E28011606000020612AF540B,921.25,0.41110685,0.625
E28011606000020612AF540B,921.25,0.46019423,0.375
E28011606000020612AF540B,927.25,3.8226802,0.0625
E28011606000020612AF540B,927.25,3.8226802,-0.125
E28011606000020612AF540B,927.25,3.8104084,0.375
E28011606000020612AF540B,927.25,3.8226802,0.125
E28011606000020612AF540B,923.75,5.7125444,0.75
E28011606000020612AF540B,923.75,5.74936,0.125
E28011606000020612AF540B,923.75,5.767768,0.125
E28011606000020612AF540B,923.75,5.737088,0.5625
E28011606000020612AF540B,911.25,0.60132045,2.875
E28011606000020612AF540B,911.25,0.7117671,-0.9375
E28011606000020612AF540B,911.25,0.62586415,-1.125
E28011606000020612AF540B,912.75,5.61437,1.1875
E28011606000020612AF540B,912.75,5.595962,0.5625
E28011606000020612AF540B,912.75,5.657321,-0.1875
E28011606000020612AF540B,912.75,5.61437,1.75
E28011606000020612AF540B,917.75,1.914408,0.625
E28011606000020612AF540B,917.75,1.9328158,0.875
E28011606000020612AF540B,917.75,1.8898643,0.8125
E28011606000020612AF540B,917.75,1.9389517,0.1875
E28011606000020612AF540B,915.25,0.478602,1.125
E28011606000020612AF540B,915.25,0.5154175,-0.5625
E28011606000020612AF540B,915.25,0.48473793,-0.125
E28011606000020612AF540B,915.25,0.47246608,0.25
E28011606000020612AF540B,920.75,0.60132045,0.75
E28011606000020612AF540B,920.75,0.6688156,0.5625
E28011606000020612AF540B,920.75,0.60132045,-0.1875
E28011606000020612AF540B,920.75,0.62586415,-0.875
E28011606000020612AF540B,925.25,4.859651,0.5
E28011606000020612AF540B,925.25,4.890331,0.0
