80000000000000000000CC00,865.7,1.9757673,0.0
80000000000000000000CC00,865.7,1.9757673,1.625
80000000000000000000CC00,865.7,1.9573594,5.6875
80000000000000000000CC00,865.7,1.9757673,2.4375
80000000000000000000CC00,865.7,1.9634954,9.75
80000000000000000000CC00,865.7,1.9634954,4.0625
80000000000000000000CC00,865.7,1.9634954,4.875
80000000000000000000CC00,865.7,1.9757673,2.4375
80000000000000000000CC00,865.7,2.0125828,-1.625
80000000000000000000CC00,865.7,1.9819032,1.625
80000000000000000000CC00,865.7,1.9941751,0.0
80000000000000000000CC00,865.7,1.9819032,1.625
80000000000000000000CC00,865.7,1.9389517,7.3125
80000000000000000000CC00,865.7,1.9573594,2.4375
80000000000000000000CC00,865.7,1.9634954,0.0
80000000000000000000CC00,865.7,1.9634954,-1.625
80000000000000000000CC00,865.7,1.9512236,0.8125
80000000000000000000CC00,865.7,1.9573594,0.0
80000000000000000000CC00,865.7,1.9328158,6.5
80000000000000000000CC00,865.7,1.9266798,5.6875
80000000000000000000CC00,865.7,1.9512236,-0.8125
80000000000000000000CC00,865.7,1.9573594,-0.8125
80000000000000000000CC00,865.7,1.9389517,4.0625
80000000000000000000CC00,865.7,1.9389517,4.875
80000000000000000000CC00,865.7,1.9389517,4.875
80000000000000000000CC00,865.7,1.9512236,-1.625
80000000000000000000CC00,865.7,1.9082721,9.75
80000000000000000000CC00,865.7,1.9389517,4.875
80000000000000000000CC00,865.7,1.9389517,6.5
80000000000000000000CC00,865.7,1.9328158,7.3125
80000000000000000000CC00,865.7,1.9450877,2.4375
80000000000000000000CC00,865.7,1.9450877,2.4375
80000000000000000000CC00,865.7,1.9450877,2.4375
80000000000000000000CC00,865.7,1.9450877,4.0625
80000000000000000000CC00,865.7,1.9328158,4.875
80000000000000000000CC00,865.7,1.9328158,4.0625
80000000000000000000CC00,865.7,1.9328158,1.625
80000000000000000000CC00,865.7,1.9266798,4.875
80000000000000000000CC00,865.7,1.9512236,0.8125
80000000000000000000CC00,865.7,1.9205439,4.875
80000000000000000000CC00,865.7,1.9450877,0.0
80000000000000000000CC00,865.7,1.9450877,1.625
80000000000000000000CC00,865.7,1.9266798,4.875
80000000000000000000CC00,865.7,1.9266798,5.6875
80000000000000000000CC00,865.7,1.9450877,2.4375
80000000000000000000CC00,865.7,1.9328158,4.875
80000000000000000000CC00,865.7,1.9634954,-1.625
80000000000000000000CC00,865.7,1.914408,6.5
80000000000000000000CC00,865.7,1.9205439,6.5
80000000000000000000CC00,865.7,1.9328158,2.4375
80000000000000000000CC00,865.7,1.9266798,5.6875
80000000000000000000CC00,865.7,1.9266798,6.5
80000000000000000000CC00,865.7,1.9512236,4.0625
80000000000000000000CC00,865.7,1.9450877,1.625
80000000000000000000CC00,865.7,1.9450877,1.625
80000000000000000000CC00,865.7,1.9450877,1.625
80000000000000000000CC00,865.7,1.9450877,0.8125
80000000000000000000CC00,865.7,1.9328158,4.875
80000000000000000000CC00,865.7,1.9512236,0.8125
80000000000000000000CC00,865.7,1.9389517,4.875
80000000000000000000CC00,865.7,1.9328158,5.6875
80000000000000000000CC00,865.7,1.9450877,4.0625
80000000000000000000CC00,865.7,1.9450877,2.4375
80000000000000000000CC00,865.7,1.9205439,6.5
80000000000000000000CC00,865.7,1.9266798,4.0625
80000000000000000000CC00,865.7,1.9389517,5.6875
80000000000000000000CC00,865.7,1.9328158,4.0625
80000000000000000000CC00,865.7,1.9205439,6.5
80000000000000000000CC00,865.7,1.9328158,6.5
80000000000000000000CC00,865.7,1.9205439,6.5
80000000000000000000CC00,865.7,1.9512236,1.625
80000000000000000000CC00,865.7,1.9389517,4.0625
80000000000000000000CC00,865.7,1.9389517,2.4375
80000000000000000000CC00,865.7,1.9573594,0.0
80000000000000000000CC00,865.7,1.9266798,6.5
80000000000000000000CC00,865.7,1.9573594,-2.4375
80000000000000000000CC00,865.7,1.9205439,5.6875
80000000000000000000CC00,865.7,1.9512236,0.0
80000000000000000000CC00,865.7,1.9328158,4.875
80000000000000000000CC00,865.7,1.9389517,0.8125
80000000000000000000CC00,865.7,1.9634954,-0.8125
80000000000000000000CC00,865.7,1.9389517,1.625
80000000000000000000CC00,865.7,1.9450877,2.4375
80000000000000000000CC00,865.7,1.9389517,4.0625
80000000000000000000CC00,865.7,1.9328158,4.875
80000000000000000000CC00,865.7,1.9205439,6.5
80000000000000000000CC00,865.7,1.9266798,5.6875
80000000000000000000CC00,865.7,1.9266798,5.6875
80000000000000000000CC00,865.7,1.9512236,2.4375
80000000000000000000CC00,865.7,1.9389517,4.0625
80000000000000000000CC00,865.7,1.9389517,2.4375
80000000000000000000CC00,865.7,1.9328158,4.0625
80000000000000000000CC00,865.7,1.914408,7.3125
80000000000000000000CC00,865.7,1.9512236,0.8125
80000000000000000000CC00,865.7,1.9389517,4.0625
80000000000000000000CC00,865.7,1.9266798,7.3125
80000000000000000000CC00,865.7,1.9573594,2.4375
80000000000000000000CC00,865.7,1.9389517,5.6875
80000000000000000000CC00,865.7,1.9450877,4.0625
80000000000000000000CC00,865.7,1.9634954,-1.625
80000000000000000000CC00,865.7,1.9389517,4.875
80000000000000000000CC00,865.7,1.9450877,4.0625
80000000000000000000CC00,865.7,1.9328158,7.3125
80000000000000000000CC00,865.7,1.9819032,-2.4375
80000000000000000000CC00,865.7,1.9634954,-1.625
80000000000000000000CC00,865.7,1.9573594,0.0
80000000000000000000CC00,865.7,1.9266798,7.3125
80000000000000000000CC00,865.7,1.9205439,7.3125
80000000000000000000CC00,865.7,1.9573594,0.8125
80000000000000000000CC00,865.7,1.9328158,5.6875
80000000000000000000CC00,865.7,1.9389517,4.0625
80000000000000000000CC00,865.7,1.9205439,7.3125
80000000000000000000CC00,865.7,1.9328158,4.875
80000000000000000000CC00,865.7,1.9389517,4.0625
80000000000000000000CC00,865.7,1.9573594,-0.8125
80000000000000000000CC00,865.7,1.9389517,5.6875
80000000000000000000CC00,865.7,1.9205439,6.5
80000000000000000000CC00,865.7,1.9450877,1.625
80000000000000000000CC00,865.7,1.9450877,4.0625
80000000000000000000CC00,865.7,1.9328158,4.0625
80000000000000000000CC00,865.7,1.9512236,-0.8125
80000000000000000000CC00,865.7,1.9450877,0.0
80000000000000000000CC00,865.7,1.9328158,4.875
80000000000000000000CC00,865.7,1.9450877,0.8125
80000000000000000000CC00,865.7,1.9450877,0.8125
80000000000000000000CC00,865.7,1.9266798,4.875
80000000000000000000CC00,865.7,1.9450877,1.625
80000000000000000000CC00,865.7,1.9266798,4.0625
80000000000000000000CC00,865.7,1.9328158,4.0625
80000000000000000000CC00,865.7,1.9082721,8.125
80000000000000000000CC00,865.7,1.9266798,2.4375
80000000000000000000CC00,865.7,1.9082721,7.3125
80000000000000000000CC00,865.7,1.9512236,-0.8125
80000000000000000000CC00,865.7,1.9328158,0.8125
80000000000000000000CC00,865.7,1.9266798,2.4375
80000000000000000000CC00,865.7,1.9082721,6.5
80000000000000000000CC00,865.7,1.9389517,0.8125
80000000000000000000CC00,865.7,1.9205439,5.6875
80000000000000000000CC00,865.7,1.9328158,0.0
80000000000000000000CC00,865.7,1.9328158,2.4375
80000000000000000000CC00,865.7,1.8898643,6.5
80000000000000000000CC00,865.7,1.9082721,5.6875
80000000000000000000CC00,865.7,1.9328158,0.0
80000000000000000000CC00,865.7,1.9205439,4.875
80000000000000000000CC00,865.7,1.914408,4.0625
80000000000000000000CC00,865.7,1.9266798,2.4375
80000000000000000000CC00,865.7,1.9205439,2.4375
80000000000000000000CC00,865.7,1.914408,4.875
80000000000000000000CC00,865.7,1.9328158,0.0
80000000000000000000CC00,865.7,1.9266798,2.4375
80000000000000000000CC00,865.7,1.9021362,8.9375
80000000000000000000CC00,865.7,1.9328158,0.0
80000000000000000000CC00,865.7,1.9021362,6.5
80000000000000000000CC00,865.7,1.9328158,0.8125
80000000000000000000CC00,865.7,1.9328158,0.8125
80000000000000000000CC00,865.7,1.914408,4.0625
80000000000000000000CC00,865.7,1.9328158,0.0
80000000000000000000CC00,865.7,1.9328158,1.625
80000000000000000000CC00,865.7,1.9266798,2.4375
80000000000000000000CC00,865.7,1.914408,4.875
80000000000000000000CC00,865.7,1.9450877,-0.8125
80000000000000000000CC00,865.7,1.9389517,0.0
80000000000000000000CC00,865.7,1.9328158,0.0
80000000000000000000CC00,865.7,1.914408,4.875
80000000000000000000CC00,865.7,1.9573594,-2.4375
80000000000000000000CC00,865.7,1.9205439,2.4375
80000000000000000000CC00,865.7,1.9082721,5.6875
80000000000000000000CC00,865.7,1.914408,4.0625
80000000000000000000CC00,865.7,1.9450877,-4.0625
80000000000000000000CC00,865.7,1.9205439,2.4375
80000000000000000000CC00,865.7,1.914408,4.0625
80000000000000000000CC00,865.7,1.9205439,4.875
80000000000000000000CC00,865.7,1.9082721,4.875
80000000000000000000CC00,865.7,1.9082721,6.5
80000000000000000000CC00,865.7,1.914408,5.6875
80000000000000000000CC00,865.7,1.9328158,1.625
80000000000000000000CC00,865.7,1.9328158,0.0
80000000000000000000CC00,865.7,1.9082721,4.875
80000000000000000000CC00,865.7,1.9328158,2.4375
80000000000000000000CC00,865.7,1.9389517,0.8125
80000000000000000000CC00,865.7,1.9205439,4.0625
80000000000000000000CC00,865.7,1.9205439,4.0625
80000000000000000000CC00,865.7,1.9450877,1.625
80000000000000000000CC00,865.7,1.9328158,2.4375
80000000000000000000CC00,865.7,1.9450877,1.625
80000000000000000000CC00,865.7,1.9205439,5.6875
80000000000000000000CC00,865.7,1.9266798,4.875
80000000000000000000CC00,865.7,1.9082721,6.5
80000000000000000000CC00,865.7,1.9450877,-0.8125
80000000000000000000CC00,865.7,1.9328158,0.8125
80000000000000000000CC00,865.7,1.9634954,-1.625
80000000000000000000CC00,865.7,1.9450877,-0.8125
80000000000000000000CC00,865.7,1.9205439,4.875
80000000000000000000CC00,865.7,1.9205439,2.4375
80000000000000000000CC00,865.7,1.914408,4.875
80000000000000000000CC00,865.7,1.9328158,0.8125
80000000000000000000CC00,865.7,1.9328158,1.625
80000000000000000000CC00,865.7,1.9389517,1.625
80000000000000000000CC00,865.7,1.9266798,4.0625
80000000000000000000CC00,865.7,1.9266798,2.4375
80000000000000000000CC00,865.7,1.9205439,4.875
80000000000000000000CC00,865.7,1.9266798,4.875
80000000000000000000CC00,865.7,1.9082721,5.6875
80000000000000000000CC00,865.7,1.9450877,0.0
80000000000000000000CC00,865.7,1.9266798,4.0625
80000000000000000000CC00,865.7,1.9512236,-0.8125
80000000000000000000CC00,865.7,1.9082721,5.6875
80000000000000000000CC00,865.7,1.9205439,4.875
80000000000000000000CC00,865.7,1.9266798,4.875
80000000000000000000CC00,865.7,1.9573594,-0.8125
80000000000000000000CC00,865.7,1.9389517,2.4375
80000000000000000000CC00,865.7,1.9328158,2.4375
80000000000000000000CC00,865.7,1.9266798,4.0625
80000000000000000000CC00,865.7,1.914408,8.125
80000000000000000000CC00,865.7,1.9266798,4.875
80000000000000000000CC00,865.7,1.9450877,1.625
80000000000000000000CC00,865.7,1.9205439,6.5
80000000000000000000CC00,865.7,1.9512236,-0.8125
80000000000000000000CC00,865.7,1.9328158,1.625
80000000000000000000CC00,865.7,1.9266798,4.0625
80000000000000000000CC00,865.7,1.9389517,0.0
80000000000000000000CC00,865.7,1.9328158,1.625
80000000000000000000CC00,865.7,1.9205439,2.4375
80000000000000000000CC00,865.7,1.9450877,0.0
80000000000000000000CC00,865.7,1.9389517,1.625
80000000000000000000CC00,865.7,1.9266798,6.5
80000000000000000000CC00,865.7,1.9328158,4.0625
80000000000000000000CC00,865.7,1.9266798,1.625
80000000000000000000CC00,865.7,1.9512236,-0.8125
80000000000000000000CC00,865.7,1.9266798,4.875
80000000000000000000CC00,865.7,1.9450877,2.4375
80000000000000000000CC00,865.7,1.9450877,0.0
80000000000000000000CC00,865.7,1.9266798,4.0625
80000000000000000000CC00,865.7,1.9082721,6.5
80000000000000000000CC00,865.7,1.9450877,1.625
80000000000000000000CC00,865.7,1.9328158,4.0625
80000000000000000000CC00,865.7,1.9328158,1.625
80000000000000000000CC00,865.7,1.9266798,1.625
80000000000000000000CC00,865.7,1.9328158,1.625
80000000000000000000CC00,865.7,1.9328158,1.625
80000000000000000000CC00,865.7,1.9450877,0.8125
80000000000000000000CC00,865.7,1.9021362,7.3125
80000000000000000000CC00,865.7,1.9328158,1.625
80000000000000000000CC00,865.7,1.9205439,5.6875
80000000000000000000CC00,865.7,1.9205439,4.875
80000000000000000000CC00,865.7,1.9512236,0.0
80000000000000000000CC00,865.7,1.9205439,2.4375
80000000000000000000CC00,865.7,1.9512236,0.8125
80000000000000000000CC00,865.7,1.9634954,-0.8125
80000000000000000000CC00,865.7,1.9389517,1.625
80000000000000000000CC00,865.7,1.9389517,-0.8125
80000000000000000000CC00,865.7,1.9266798,4.0625
80000000000000000000CC00,865.7,1.9266798,4.0625
80000000000000000000CC00,865.7,1.9328158,2.4375
80000000000000000000CC00,865.7,1.9328158,1.625
80000000000000000000CC00,865.7,1.9573594,0.8125
80000000000000000000CC00,865.7,1.9328158,2.4375
80000000000000000000CC00,865.7,1.9328158,2.4375
80000000000000000000CC00,865.7,1.9328158,2.4375
80000000000000000000CC00,865.7,1.9205439,4.0625
80000000000000000000CC00,865.7,1.9512236,-1.625
80000000000000000000CC00,865.7,1.9205439,4.875
80000000000000000000CC00,865.7,1.9634954,-2.4375
80000000000000000000CC00,865.7,1.9389517,0.8125
80000000000000000000CC00,865.7,1.9328158,1.625
80000000000000000000CC00,865.7,1.9205439,4.0625
80000000000000000000CC00,865.7,1.9389517,0.8125
80000000000000000000CC00,865.7,1.8837284,8.125
80000000000000000000CC00,865.7,1.9389517,2.4375
80000000000000000000CC00,865.7,1.914408,4.875
80000000000000000000CC00,865.7,1.914408,5.6875
80000000000000000000CC00,865.7,1.9021362,8.125
80000000000000000000CC00,865.7,1.9328158,0.0
80000000000000000000CC00,865.7,1.9328158,0.8125
80000000000000000000CC00,865.7,1.9266798,4.0625
80000000000000000000CC00,865.7,1.9266798,0.8125
80000000000000000000CC00,865.7,1.9205439,4.0625
80000000000000000000CC00,865.7,1.9266798,4.0625
80000000000000000000CC00,865.7,1.9205439,4.0625
80000000000000000000CC00,865.7,1.9389517,0.0
80000000000000000000CC00,865.7,1.9082721,4.875
80000000000000000000CC00,865.7,1.914408,5.6875
80000000000000000000CC00,865.7,1.9021362,6.5
80000000000000000000CC00,865.7,1.9266798,0.8125
80000000000000000000CC00,865.7,1.9205439,2.4375
80000000000000000000CC00,865.7,1.9450877,0.0
80000000000000000000CC00,865.7,1.9328158,-0.8125
80000000000000000000CC00,865.7,1.9021362,5.6875
80000000000000000000CC00,865.7,1.914408,4.875
80000000000000000000CC00,865.7,1.914408,2.4375
80000000000000000000CC00,865.7,1.9205439,4.875
80000000000000000000CC00,865.7,1.9021362,6.5
80000000000000000000CC00,865.7,1.9512236,-2.4375
80000000000000000000CC00,865.7,1.8960003,6.5
80000000000000000000CC00,865.7,1.9082721,6.5
80000000000000000000CC00,865.7,1.9082721,5.6875
80000000000000000000CC00,865.7,1.914408,4.0625
80000000000000000000CC00,865.7,1.9021362,6.5
80000000000000000000CC00,865.7,1.9389517,0.8125
80000000000000000000CC00,865.7,1.9266798,0.8125
80000000000000000000CC00,865.7,1.9082721,0.0
80000000000000000000CC00,865.7,1.914408,2.4375
80000000000000000000CC00,865.7,1.914408,2.4375
80000000000000000000CC00,865.7,1.9021362,6.5
80000000000000000000CC00,865.7,1.914408,0.8125
80000000000000000000CC00,865.7,1.914408,2.4375
80000000000000000000CC00,865.7,1.9021362,8.125
80000000000000000000CC00,865.7,1.9082721,0.8125
80000000000000000000CC00,865.7,1.8960003,4.0625
80000000000000000000CC00,865.7,1.914408,0.8125
80000000000000000000CC00,865.7,1.8837284,6.5
80000000000000000000CC00,865.7,1.8960003,4.875
80000000000000000000CC00,865.7,1.8898643,5.6875
80000000000000000000CC00,865.7,1.914408,1.625
80000000000000000000CC00,865.7,1.9328158,-0.8125
80000000000000000000CC00,865.7,1.9266798,0.8125
80000000000000000000CC00,865.7,1.8960003,5.6875
80000000000000000000CC00,865.7,1.9205439,2.4375
80000000000000000000CC00,865.7,1.9450877,-1.625
80000000000000000000CC00,865.7,1.9205439,1.625
80000000000000000000CC00,865.7,1.9266798,0.0
80000000000000000000CC00,865.7,1.9389517,0.8125
80000000000000000000CC00,865.7,1.9389517,-0.8125
80000000000000000000CC00,865.7,1.9389517,1.625
80000000000000000000CC00,865.7,1.9266798,2.4375
80000000000000000000CC00,865.7,1.9328158,2.4375
80000000000000000000CC00,865.7,1.9573594,0.0
80000000000000000000CC00,865.7,1.9573594,0.8125
80000000000000000000CC00,865.7,1.9634954,0.8125
80000000000000000000CC00,865.7,1.9696313,-2.4375
80000000000000000000CC00,865.7,1.9757673,-4.0625
80000000000000000000CC00,865.7,1.9328158,4.875
80000000000000000000CC00,865.7,1.9512236,0.0
80000000000000000000CC00,865.7,1.9450877,4.0625
80000000000000000000CC00,865.7,1.9696313,0.0
80000000000000000000CC00,865.7,1.9573594,2.4375
80000000000000000000CC00,865.7,1.9266798,8.9375
80000000000000000000CC00,865.7,1.9634954,0.8125
80000000000000000000CC00,865.7,1.9696313,0.8125
80000000000000000000CC00,865.7,1.9696313,1.625
80000000000000000000CC00,865.7,1.9634954,2.4375
80000000000000000000CC00,865.7,1.9696313,4.0625
80000000000000000000CC00,865.7,1.9389517,6.5
80000000000000000000CC00,865.7,1.9512236,4.875
80000000000000000000CC00,865.7,1.9757673,1.625
80000000000000000000CC00,865.7,1.9696313,0.0
80000000000000000000CC00,865.7,1.9880391,-0.8125
80000000000000000000CC00,865.7,1.9512236,6.5
80000000000000000000CC00,865.7,1.9880391,-0.8125
80000000000000000000CC00,865.7,1.9512236,5.6875
80000000000000000000CC00,865.7,1.9512236,5.6875
80000000000000000000CC00,865.7,1.9696313,1.625
80000000000000000000CC00,865.7,1.9696313,1.625
80000000000000000000CC00,865.7,1.9573594,5.6875
80000000000000000000CC00,865.7,1.9757673,0.8125
80000000000000000000CC00,865.7,1.9389517,8.125
80000000000000000000CC00,865.7,1.9941751,-1.625
80000000000000000000CC00,865.7,1.9512236,5.6875
80000000000000000000CC00,865.7,1.9757673,0.0
80000000000000000000CC00,865.7,1.9634954,4.0625
80000000000000000000CC00,865.7,1.9819032,0.0
80000000000000000000CC00,865.7,1.9450877,7.3125
80000000000000000000CC00,865.7,1.9757673,1.625
80000000000000000000CC00,865.7,1.9757673,0.8125
80000000000000000000CC00,865.7,1.9696313,4.875
80000000000000000000CC00,865.7,1.9634954,2.4375
80000000000000000000CC00,865.7,1.9941751,-1.625
80000000000000000000CC00,865.7,1.9819032,0.0
80000000000000000000CC00,865.7,1.9941751,0.0
80000000000000000000CC00,865.7,1.9573594,4.0625
80000000000000000000CC00,865.7,1.9819032,0.8125
80000000000000000000CC00,865.7,2.000311,-0.8125
80000000000000000000CC00,865.7,1.9819032,0.8125
80000000000000000000CC00,865.7,1.9450877,5.6875
80000000000000000000CC00,865.7,1.9819032,0.0
80000000000000000000CC00,865.7,1.9757673,-1.625
80000000000000000000CC00,865.7,1.9757673,0.8125
80000000000000000000CC00,865.7,1.9819032,0.0
80000000000000000000CC00,865.7,1.9757673,0.0
80000000000000000000CC00,865.7,1.9696313,2.4375
80000000000000000000CC00,865.7,1.9696313,5.6875
80000000000000000000CC00,865.7,1.9512236,7.3125
80000000000000000000CC00,865.7,1.9450877,6.5
80000000000000000000CC00,865.7,1.9696313,2.4375
80000000000000000000CC00,865.7,1.9512236,4.875
80000000000000000000CC00,865.7,1.9819032,2.4375
80000000000000000000CC00,865.7,1.9819032,0.8125
80000000000000000000CC00,865.7,1.9696313,0.8125
80000000000000000000CC00,865.7,1.9757673,0.0
80000000000000000000CC00,865.7,1.9634954,2.4375
80000000000000000000CC00,865.7,1.9512236,2.4375
80000000000000000000CC00,865.7,1.9389517,4.0625
80000000000000000000CC00,865.7,1.9634954,0.0
80000000000000000000CC00,865.7,1.9512236,4.875
80000000000000000000CC00,865.7,1.9696313,-0.8125
80000000000000000000CC00,865.7,1.9634954,0.8125
80000000000000000000CC00,865.7,1.9450877,4.0625
80000000000000000000CC00,865.7,1.9205439,5.6875
80000000000000000000CC00,865.7,1.9328158,4.0625
80000000000000000000CC00,865.7,1.9512236,0.0
80000000000000000000CC00,865.7,1.9573594,-0.8125
80000000000000000000CC00,865.7,1.9328158,5.6875
80000000000000000000CC00,865.7,1.9389517,2.4375
80000000000000000000CC00,865.7,1.9512236,-0.8125
80000000000000000000CC00,865.7,1.9450877,0.0
80000000000000000000CC00,865.7,1.9328158,2.4375
80000000000000000000CC00,865.7,1.9573594,-2.4375
80000000000000000000CC00,865.7,1.9512236,-1.625
80000000000000000000CC00,865.7,1.9389517,0.0
80000000000000000000CC00,865.7,1.9450877,0.0
80000000000000000000CC00,865.7,1.8775924,8.9375
80000000000000000000CC00,865.7,1.8898643,5.6875
80000000000000000000CC00,865.7,1.9266798,-4.0625
80000000000000000000CC00,865.7,1.8837284,6.5
80000000000000000000CC00,865.7,1.914408,1.625
80000000000000000000CC00,865.7,1.8898643,5.6875
80000000000000000000CC00,865.7,1.8960003,4.0625
80000000000000000000CC00,865.7,1.8898643,2.4375
80000000000000000000CC00,865.7,1.8714565,5.6875
80000000000000000000CC00,865.7,1.8960003,0.0
80000000000000000000CC00,865.7,1.8898643,-2.4375
80000000000000000000CC00,865.7,1.8653207,5.6875
80000000000000000000CC00,865.7,1.8837284,1.625
80000000000000000000CC00,865.7,1.8960003,-1.625
80000000000000000000CC00,865.7,1.8591847,4.875
80000000000000000000CC00,865.7,1.8653207,2.4375
80000000000000000000CC00,865.7,1.8591847,4.0625
80000000000000000000CC00,865.7,1.8469129,1.625
80000000000000000000CC00,865.7,1.8714565,-0.8125
80000000000000000000CC00,865.7,1.8591847,1.625
80000000000000000000CC00,865.7,1.8653207,0.8125
80000000000000000000CC00,865.7,1.8469129,0.8125
80000000000000000000CC00,865.7,1.834641,1.625
80000000000000000000CC00,865.7,1.8162333,6.5
80000000000000000000CC00,865.7,1.8653207,-4.875
80000000000000000000CC00,865.7,1.8469129,-0.8125
80000000000000000000CC00,865.7,1.834641,-0.8125
80000000000000000000CC00,865.7,1.8162333,4.0625
80000000000000000000CC00,865.7,1.8223692,-0.8125
80000000000000000000CC00,865.7,1.8285052,-0.8125
80000000000000000000CC00,865.7,1.8162333,2.4375
80000000000000000000CC00,865.7,1.8285052,-4.0625
80000000000000000000CC00,865.7,1.7978255,1.625
80000000000000000000CC00,865.7,1.8039614,2.4375
80000000000000000000CC00,865.7,1.8039614,1.625
80000000000000000000CC00,865.7,1.8100973,-0.8125
80000000000000000000CC00,865.7,1.7855537,1.625
80000000000000000000CC00,865.7,1.7978255,-0.8125
80000000000000000000CC00,865.7,1.7732818,4.875
80000000000000000000CC00,865.7,1.7794178,2.4375
80000000000000000000CC00,865.7,1.7978255,-4.0625
80000000000000000000CC00,865.7,1.7916895,-1.625
80000000000000000000CC00,865.7,1.7671459,2.4375
80000000000000000000CC00,865.7,1.7794178,0.8125
80000000000000000000CC00,865.7,1.7426022,4.875
80000000000000000000CC00,865.7,1.7671459,1.625
80000000000000000000CC00,865.7,1.7855537,-2.4375
80000000000000000000CC00,865.7,1.7732818,0.0
80000000000000000000CC00,865.7,1.754874,5.6875
80000000000000000000CC00,865.7,1.7732818,1.625
80000000000000000000CC00,865.7,1.7610099,1.625
80000000000000000000CC00,865.7,1.7855537,0.0
80000000000000000000CC00,865.7,1.7671459,4.0625
80000000000000000000CC00,865.7,1.7732818,0.8125
80000000000000000000CC00,865.7,1.7916895,0.0
80000000000000000000CC00,865.7,1.7916895,0.0
80000000000000000000CC00,865.7,1.8039614,-2.4375
80000000000000000000CC00,865.7,1.7855537,1.625
80000000000000000000CC00,865.7,1.7916895,1.625
80000000000000000000CC00,865.7,1.7916895,0.8125
80000000000000000000CC00,865.7,1.7732818,1.625
80000000000000000000CC00,865.7,1.8039614,-0.8125
80000000000000000000CC00,865.7,1.8039614,-1.625
80000000000000000000CC00,865.7,1.7732818,4.0625
80000000000000000000CC00,865.7,1.7916895,4.0625
80000000000000000000CC00,865.7,1.7794178,2.4375
80000000000000000000CC00,865.7,1.8039614,0.0
80000000000000000000CC00,865.7,1.8039614,2.4375
80000000000000000000CC00,865.7,1.8039614,2.4375
80000000000000000000CC00,865.7,1.7916895,2.4375
80000000000000000000CC00,865.7,1.8039614,0.8125
80000000000000000000CC00,865.7,1.7671459,7.3125
80000000000000000000CC00,865.7,1.7978255,4.0625
80000000000000000000CC00,865.7,1.7855537,4.0625
80000000000000000000CC00,865.7,1.8100973,0.8125
80000000000000000000CC00,865.7,1.7978255,0.8125
80000000000000000000CC00,865.7,1.7916895,4.0625
80000000000000000000CC00,865.7,1.7978255,0.8125
80000000000000000000CC00,865.7,1.8100973,0.0
80000000000000000000CC00,865.7,1.7916895,4.0625
80000000000000000000CC00,865.7,1.7916895,4.0625
80000000000000000000CC00,865.7,1.8039614,1.625
80000000000000000000CC00,865.7,1.8285052,-2.4375
80000000000000000000CC00,865.7,1.8039614,0.8125
80000000000000000000CC00,865.7,1.7916895,4.875
80000000000000000000CC00,865.7,1.7855537,5.6875
80000000000000000000CC00,865.7,1.8162333,-1.625
80000000000000000000CC00,865.7,1.8039614,0.0
80000000000000000000CC00,865.7,1.8162333,-0.8125
80000000000000000000CC00,865.7,1.7671459,8.125
80000000000000000000CC00,865.7,1.8039614,0.0
80000000000000000000CC00,865.7,1.7794178,4.0625
80000000000000000000CC00,865.7,1.8162333,0.8125
80000000000000000000CC00,865.7,1.7978255,2.4375
80000000000000000000CC00,865.7,1.8100973,0.0
80000000000000000000CC00,865.7,1.8039614,1.625
80000000000000000000CC00,865.7,1.8285052,-1.625
80000000000000000000CC00,865.7,1.8100973,0.8125
80000000000000000000CC00,865.7,1.8162333,0.8125
80000000000000000000CC00,865.7,1.7916895,4.0625
80000000000000000000CC00,865.7,1.8285052,-0.8125
80000000000000000000CC00,865.7,1.8162333,0.8125
80000000000000000000CC00,865.7,1.8039614,1.625
80000000000000000000CC00,865.7,1.8223692,-0.8125
80000000000000000000CC00,865.7,1.834641,-1.625
80000000000000000000CC00,865.7,1.8100973,0.8125
80000000000000000000CC00,865.7,1.7855537,4.875
80000000000000000000CC00,865.7,1.8223692,1.625
80000000000000000000CC00,865.7,1.8285052,0.8125
80000000000000000000CC00,865.7,1.8223692,0.0
80000000000000000000CC00,865.7,1.8100973,1.625
80000000000000000000CC00,865.7,1.8039614,4.875
80000000000000000000CC00,865.7,1.8162333,2.4375
80000000000000000000CC00,865.7,1.834641,-0.8125
80000000000000000000CC00,865.7,1.8469129,-2.4375
80000000000000000000CC00,865.7,1.8162333,1.625
80000000000000000000CC00,865.7,1.834641,0.0
80000000000000000000CC00,865.7,1.8407769,-0.8125
80000000000000000000CC00,865.7,1.7978255,6.5
80000000000000000000CC00,865.7,1.8407769,-2.4375
80000000000000000000CC00,865.7,1.8039614,2.4375
80000000000000000000CC00,865.7,1.834641,-1.625
80000000000000000000CC00,865.7,1.8039614,2.4375
80000000000000000000CC00,865.7,1.8223692,-0.8125
80000000000000000000CC00,865.7,1.8223692,-0.8125
80000000000000000000CC00,865.7,1.8100973,2.4375
80000000000000000000CC00,865.7,1.7978255,2.4375
80000000000000000000CC00,865.7,1.8100973,1.625
80000000000000000000CC00,865.7,1.8100973,0.8125
80000000000000000000CC00,865.7,1.8162333,-0.8125
80000000000000000000CC00,865.7,1.7855537,8.125
80000000000000000000CC00,865.7,1.7978255,1.625
80000000000000000000CC00,865.7,1.8039614,0.0
80000000000000000000CC00,865.7,1.8100973,-0.8125
80000000000000000000CC00,865.7,1.7610099,7.3125
80000000000000000000CC00,865.7,1.8100973,0.0
80000000000000000000CC00,865.7,1.7916895,2.4375
80000000000000000000CC00,865.7,1.7794178,4.875
80000000000000000000CC00,865.7,1.8100973,1.625
80000000000000000000CC00,865.7,1.8285052,-4.0625
80000000000000000000CC00,865.7,1.8162333,-1.625
80000000000000000000CC00,865.7,1.8100973,0.8125
80000000000000000000CC00,865.7,1.8100973,-0.8125
80000000000000000000CC00,865.7,1.8162333,-0.8125
80000000000000000000CC00,865.7,1.7855537,2.4375
80000000000000000000CC00,865.7,1.8039614,-0.8125
80000000000000000000CC00,865.7,1.8162333,-1.625
80000000000000000000CC00,865.7,1.8162333,1.625
80000000000000000000CC00,865.7,1.7855537,4.875
80000000000000000000CC00,865.7,1.8162333,-1.625
80000000000000000000CC00,865.7,1.8100973,-0.8125
80000000000000000000CC00,865.7,1.8162333,-0.8125
80000000000000000000CC00,865.7,1.8039614,0.8125
80000000000000000000CC00,865.7,1.7855537,4.875
80000000000000000000CC00,865.7,1.8285052,-2.4375
80000000000000000000CC00,865.7,1.8100973,0.8125
80000000000000000000CC00,865.7,1.8223692,0.0
80000000000000000000CC00,865.7,1.8162333,-0.8125
80000000000000000000CC00,865.7,1.8162333,0.0
80000000000000000000CC00,865.7,1.7916895,0.8125
80000000000000000000CC00,865.7,1.8223692,0.8125
80000000000000000000CC00,865.7,1.7732818,5.6875
80000000000000000000CC00,865.7,1.8039614,0.8125
80000000000000000000CC00,865.7,1.7978255,0.8125
80000000000000000000CC00,865.7,1.8285052,-1.625
80000000000000000000CC00,865.7,1.8162333,-2.4375
80000000000000000000CC00,865.7,1.7978255,1.625
80000000000000000000CC00,865.7,1.7978255,2.4375
80000000000000000000CC00,865.7,1.8039614,0.8125
80000000000000000000CC00,865.7,1.8100973,0.0
80000000000000000000CC00,865.7,1.8223692,-4.0625
80000000000000000000CC00,865.7,1.7855537,4.0625
80000000000000000000CC00,865.7,1.8162333,-0.8125
80000000000000000000CC00,865.7,1.7978255,0.0
80000000000000000000CC00,865.7,1.7978255,1.625
80000000000000000000CC00,865.7,1.7855537,5.6875
80000000000000000000CC00,865.7,1.8039614,0.8125
80000000000000000000CC00,865.7,1.8223692,-1.625
80000000000000000000CC00,865.7,1.8039614,0.0
80000000000000000000CC00,865.7,1.7978255,0.0
80000000000000000000CC00,865.7,1.7978255,2.4375
80000000000000000000CC00,865.7,1.8039614,0.0
80000000000000000000CC00,865.7,1.7794178,4.875
80000000000000000000CC00,865.7,1.7732818,5.6875
80000000000000000000CC00,865.7,1.8039614,1.625
80000000000000000000CC00,865.7,1.8100973,-1.625
80000000000000000000CC00,865.7,1.7978255,0.8125
80000000000000000000CC00,865.7,1.8039614,0.0
80000000000000000000CC00,865.7,1.7978255,0.0
80000000000000000000CC00,865.7,1.7978255,0.8125
80000000000000000000CC00,865.7,1.8039614,0.0
80000000000000000000CC00,865.7,1.8162333,-2.4375
80000000000000000000CC00,865.7,1.7916895,2.4375
80000000000000000000CC00,865.7,1.8039614,1.625
80000000000000000000CC00,865.7,1.7978255,0.0
80000000000000000000CC00,865.7,1.7978255,0.0
80000000000000000000CC00,865.7,1.7732818,4.0625
80000000000000000000CC00,865.7,1.7732818,4.0625
80000000000000000000CC00,865.7,1.8285052,-4.0625
80000000000000000000CC00,865.7,1.7794178,0.8125
80000000000000000000CC00,865.7,1.7916895,0.0
80000000000000000000CC00,865.7,1.8100973,-1.625
80000000000000000000CC00,865.7,1.7732818,4.875
80000000000000000000CC00,865.7,1.7610099,6.5
80000000000000000000CC00,865.7,1.7855537,4.875
80000000000000000000CC00,865.7,1.7794178,4.0625
80000000000000000000CC00,865.7,1.7794178,0.8125
80000000000000000000CC00,865.7,1.7916895,1.625
80000000000000000000CC00,865.7,1.7732818,4.0625
80000000000000000000CC00,865.7,1.7978255,0.0
80000000000000000000CC00,865.7,1.7794178,1.625
80000000000000000000CC00,865.7,1.7732818,2.4375
80000000000000000000CC00,865.7,1.7978255,0.0
80000000000000000000CC00,865.7,1.7794178,4.875
80000000000000000000CC00,865.7,1.7732818,1.625
80000000000000000000CC00,865.7,1.7794178,4.0625
80000000000000000000CC00,865.7,1.7794178,0.8125
80000000000000000000CC00,865.7,1.7855537,0.8125
80000000000000000000CC00,865.7,1.7978255,0.0
80000000000000000000CC00,865.7,1.7794178,2.4375
80000000000000000000CC00,865.7,1.8039614,-1.625
80000000000000000000CC00,865.7,1.7732818,1.625
80000000000000000000CC00,865.7,1.7732818,4.875
80000000000000000000CC00,865.7,1.7794178,1.625
80000000000000000000CC00,865.7,1.7671459,2.4375
80000000000000000000CC00,865.7,1.7671459,2.4375
80000000000000000000CC00,865.7,1.7610099,5.6875
80000000000000000000CC00,865.7,1.754874,4.0625
80000000000000000000CC00,865.7,1.7610099,2.4375
80000000000000000000CC00,865.7,1.7671459,1.625
80000000000000000000CC00,865.7,1.7855537,0.0
80000000000000000000CC00,865.7,1.7916895,-0.8125
80000000000000000000CC00,865.7,1.7794178,0.8125
80000000000000000000CC00,865.7,1.7916895,-1.625
80000000000000000000CC00,865.7,1.7732818,-0.8125
80000000000000000000CC00,865.7,1.7855537,-4.0625
80000000000000000000CC00,865.7,1.7732818,-1.625
80000000000000000000CC00,865.7,1.7610099,1.625
80000000000000000000CC00,865.7,1.754874,4.875
80000000000000000000CC00,865.7,1.7610099,0.8125
80000000000000000000CC00,865.7,1.7671459,1.625
80000000000000000000CC00,865.7,1.7671459,0.8125
80000000000000000000CC00,865.7,1.7794178,-1.625
80000000000000000000CC00,865.7,1.7671459,0.0
80000000000000000000CC00,865.7,1.7671459,-1.625
80000000000000000000CC00,865.7,1.7610099,0.0
80000000000000000000CC00,865.7,1.754874,0.8125
80000000000000000000CC00,865.7,1.754874,-0.8125
80000000000000000000CC00,865.7,1.748738,1.625
80000000000000000000CC00,865.7,1.754874,-2.4375
80000000000000000000CC00,865.7,1.7426022,0.0
80000000000000000000CC00,865.7,1.754874,-1.625
80000000000000000000CC00,865.7,1.7364663,1.625
80000000000000000000CC00,865.7,1.7180585,2.4375
80000000000000000000CC00,865.7,1.7610099,-4.0625
80000000000000000000CC00,865.7,1.7180585,4.0625
80000000000000000000CC00,865.7,1.7426022,-0.8125
80000000000000000000CC00,865.7,1.7303303,0.8125
80000000000000000000CC00,865.7,1.7241944,0.8125
80000000000000000000CC00,865.7,1.7610099,-5.6875
80000000000000000000CC00,865.7,1.7241944,4.0625
80000000000000000000CC00,865.7,1.754874,-2.4375
80000000000000000000CC00,865.7,1.7241944,0.8125
80000000000000000000CC00,865.7,1.7303303,0.8125
80000000000000000000CC00,865.7,1.7426022,-0.8125
80000000000000000000CC00,865.7,1.754874,-4.0625
80000000000000000000CC00,865.7,1.7241944,2.4375
80000000000000000000CC00,865.7,1.7241944,4.0625
80000000000000000000CC00,865.7,1.7241944,0.0
80000000000000000000CC00,865.7,1.7426022,-0.8125
80000000000000000000CC00,865.7,1.7303303,0.8125
80000000000000000000CC00,865.7,1.7057866,4.0625
80000000000000000000CC00,865.7,1.7119225,1.625
80000000000000000000CC00,865.7,1.7241944,0.8125
80000000000000000000CC00,865.7,1.7364663,0.0
80000000000000000000CC00,865.7,1.7241944,0.8125
80000000000000000000CC00,865.7,1.7057866,2.4375
80000000000000000000CC00,865.7,1.7303303,1.625
80000000000000000000CC00,865.7,1.7364663,-4.0625
80000000000000000000CC00,865.7,1.7303303,0.8125
80000000000000000000CC00,865.7,1.7426022,-0.8125
80000000000000000000CC00,865.7,1.7303303,0.0
80000000000000000000CC00,865.7,1.7241944,1.625
80000000000000000000CC00,865.7,1.7180585,1.625
80000000000000000000CC00,865.7,1.7426022,0.0
80000000000000000000CC00,865.7,1.7119225,0.8125
80000000000000000000CC00,865.7,1.7364663,-1.625
80000000000000000000CC00,865.7,1.7119225,4.0625
80000000000000000000CC00,865.7,1.748738,-2.4375
80000000000000000000CC00,865.7,1.7180585,1.625
80000000000000000000CC00,865.7,1.7241944,0.0
80000000000000000000CC00,865.7,1.7303303,-0.8125
80000000000000000000CC00,865.7,1.6935148,4.0625
80000000000000000000CC00,865.7,1.7119225,4.0625
80000000000000000000CC00,865.7,1.7303303,-0.8125
80000000000000000000CC00,865.7,1.7057866,4.875
80000000000000000000CC00,865.7,1.7303303,0.8125
80000000000000000000CC00,865.7,1.7303303,0.0
80000000000000000000CC00,865.7,1.7119225,0.8125
80000000000000000000CC00,865.7,1.7241944,0.8125
80000000000000000000CC00,865.7,1.7303303,-0.8125
80000000000000000000CC00,865.7,1.7180585,2.4375
80000000000000000000CC00,865.7,1.7180585,1.625
80000000000000000000CC00,865.7,1.7119225,1.625
80000000000000000000CC00,865.7,1.7241944,1.625
80000000000000000000CC00,865.7,1.7303303,-1.625
80000000000000000000CC00,865.7,1.7303303,0.0
80000000000000000000CC00,865.7,1.7364663,0.0
80000000000000000000CC00,865.7,1.6996508,5.6875
80000000000000000000CC00,865.7,1.6996508,4.875
80000000000000000000CC00,865.7,1.7241944,-0.8125
80000000000000000000CC00,865.7,1.7180585,0.8125
80000000000000000000CC00,865.7,1.7364663,-2.4375
80000000000000000000CC00,865.7,1.7119225,1.625
80000000000000000000CC00,865.7,1.7241944,1.625
80000000000000000000CC00,865.7,1.6996508,6.5
80000000000000000000CC00,865.7,1.7364663,-1.625
80000000000000000000CC00,865.7,1.7180585,0.8125
80000000000000000000CC00,865.7,1.7180585,0.8125
80000000000000000000CC00,865.7,1.748738,-4.0625
80000000000000000000CC00,865.7,1.7119225,4.875
80000000000000000000CC00,865.7,1.7180585,0.8125
80000000000000000000CC00,865.7,1.7303303,0.0
80000000000000000000CC00,865.7,1.7057866,4.875
80000000000000000000CC00,865.7,1.7426022,-5.6875
80000000000000000000CC00,865.7,1.7057866,0.0
80000000000000000000CC00,865.7,1.7119225,1.625
80000000000000000000CC00,865.7,1.6996508,1.625
80000000000000000000CC00,865.7,1.6996508,0.0
80000000000000000000CC00,865.7,1.6935148,1.625
80000000000000000000CC00,865.7,1.6873789,1.625
80000000000000000000CC00,865.7,1.6935148,0.0
80000000000000000000CC00,865.7,1.6996508,-2.4375
80000000000000000000CC00,865.7,1.681243,0.8125
80000000000000000000CC00,865.7,1.7057866,-4.875
80000000000000000000CC00,865.7,1.675107,0.8125
80000000000000000000CC00,865.7,1.675107,0.8125
80000000000000000000CC00,865.7,1.675107,0.8125
80000000000000000000CC00,865.7,1.6689711,2.4375
80000000000000000000CC00,865.7,1.6628351,4.875
80000000000000000000CC00,865.7,1.6689711,4.0625
80000000000000000000CC00,865.7,1.675107,0.0
80000000000000000000CC00,865.7,1.6996508,0.0
80000000000000000000CC00,865.7,1.6996508,-0.8125
80000000000000000000CC00,865.7,1.6935148,1.625
80000000000000000000CC00,865.7,1.6996508,4.0625
80000000000000000000CC00,865.7,1.7241944,0.8125
80000000000000000000CC00,865.7,1.6873789,7.3125
80000000000000000000CC00,865.7,1.748738,2.4375
80000000000000000000CC00,865.7,1.7364663,4.0625
80000000000000000000CC00,865.7,1.748738,5.6875
80000000000000000000CC00,865.7,1.7732818,4.0625
80000000000000000000CC00,865.7,1.7978255,0.8125
80000000000000000000CC00,865.7,1.8039614,4.875
80000000000000000000CC00,865.7,1.8162333,6.5
80000000000000000000CC00,865.7,1.8653207,1.625
80000000000000000000CC00,865.7,1.8960003,0.0
80000000000000000000CC00,865.7,1.8960003,8.125
80000000000000000000CC00,865.7,1.9512236,0.0
80000000000000000000CC00,865.7,1.9389517,6.5
80000000000000000000CC00,865.7,1.9512236,5.6875
80000000000000000000CC00,865.7,1.9880391,2.4375
80000000000000000000CC00,865.7,1.9757673,4.875
80000000000000000000CC00,865.7,2.0187187,0.0
80000000000000000000CC00,865.7,2.0125828,1.625
80000000000000000000CC00,865.7,2.000311,4.0625
80000000000000000000CC00,865.7,2.000311,5.6875
80000000000000000000CC00,865.7,2.0432625,-4.0625
80000000000000000000CC00,865.7,2.0187187,0.8125
80000000000000000000CC00,865.7,2.0187187,4.875
80000000000000000000CC00,865.7,2.000311,5.6875
80000000000000000000CC00,865.7,2.0371265,0.0
80000000000000000000CC00,865.7,2.0248547,4.0625
80000000000000000000CC00,865.7,2.0493984,-0.8125
80000000000000000000CC00,865.7,2.0248547,7.3125
80000000000000000000CC00,865.7,2.0309906,5.6875
80000000000000000000CC00,865.7,2.0555344,0.8125
80000000000000000000CC00,865.7,2.0493984,4.875
80000000000000000000CC00,865.7,2.067806,4.0625
80000000000000000000CC00,865.7,2.080078,1.625
80000000000000000000CC00,865.7,2.073942,-2.4375
80000000000000000000CC00,865.7,1.9696313,2.4375
80000000000000000000CC00,865.7,1.9021362,-4.875
80000000000000000000CC00,865.7,1.7671459,4.0625
80000000000000000000CC00,865.7,1.6689711,0.0
80000000000000000000CC00,865.7,1.5646604,-2.4375
80000000000000000000CC00,865.7,1.4726216,4.0625
80000000000000000000CC00,865.7,1.4542137,-0.8125
80000000000000000000CC00,865.7,1.3867186,1.625
80000000000000000000CC00,865.7,1.276272,1.625
80000000000000000000CC00,865.7,1.1596894,1.625
80000000000000000000CC00,865.7,1.036971,1.625
80000000000000000000CC00,865.7,0.9633399,-6.5
80000000000000000000CC00,865.7,0.81607777,0.0
80000000000000000000CC00,865.7,0.72403896,1.625
80000000000000000000CC00,865.7,0.72403896,-4.875
80000000000000000000CC00,865.7,0.65040785,4.875
80000000000000000000CC00,865.7,0.6810875,-2.4375
80000000000000000000CC00,865.7,0.65040785,0.0
80000000000000000000CC00,865.7,0.62586415,5.6875
80000000000000000000CC00,865.7,0.62586415,5.6875
80000000000000000000CC00,865.7,0.638136,4.0625
80000000000000000000CC00,865.7,0.6688156,0.8125
80000000000000000000CC00,865.7,0.638136,7.3125
80000000000000000000CC00,865.7,0.6565438,4.0625
80000000000000000000CC00,865.7,0.67495155,-0.8125
80000000000000000000CC00,865.7,0.70563114,-2.4375
80000000000000000000CC00,865.7,0.6933593,0.8125
80000000000000000000CC00,865.7,0.7117671,-0.8125
80000000000000000000CC00,865.7,0.73017484,0.8125
80000000000000000000CC00,865.7,0.7363108,2.4375
80000000000000000000CC00,865.7,0.77926224,-0.8125
80000000000000000000CC00,865.7,0.7485826,5.6875
80000000000000000000CC00,865.7,0.81607777,-1.625
80000000000000000000CC00,865.7,0.8406215,-2.4375
80000000000000000000CC00,865.7,0.81607777,4.875
80000000000000000000CC00,865.7,0.85902923,-0.8125
80000000000000000000CC00,865.7,0.8651652,0.0
80000000000000000000CC00,865.7,0.877437,1.625
80000000000000000000CC00,865.7,0.88357294,0.8125
80000000000000000000CC00,865.7,0.92038846,-4.0625
80000000000000000000CC00,865.7,0.9265244,-1.625
80000000000000000000CC00,865.7,0.9265244,0.0
80000000000000000000CC00,865.7,0.92038846,0.8125
80000000000000000000CC00,865.7,0.9510681,-2.4375
80000000000000000000CC00,865.7,0.9142526,1.625
80000000000000000000CC00,865.7,0.92038846,0.8125
80000000000000000000CC00,865.7,0.9142526,1.625
80000000000000000000CC00,865.7,0.957204,-4.0625
80000000000000000000CC00,865.7,0.9510681,0.8125
80000000000000000000CC00,865.7,0.94493216,1.625
80000000000000000000CC00,865.7,0.9633399,-1.625
80000000000000000000CC00,865.7,1.0001554,-6.5
80000000000000000000CC00,865.7,0.9878836,-1.625
80000000000000000000CC00,865.7,0.9817477,-0.8125
80000000000000000000CC00,865.7,0.96947587,2.4375
80000000000000000000CC00,865.7,1.0062914,-2.4375
80000000000000000000CC00,865.7,0.9878836,0.8125
80000000000000000000CC00,865.7,1.0124273,-1.625
80000000000000000000CC00,865.7,1.0001554,-0.8125
80000000000000000000CC00,865.7,1.0185633,-4.0625
80000000000000000000CC00,865.7,1.0062914,0.8125
80000000000000000000CC00,865.7,1.0062914,0.0
80000000000000000000CC00,865.7,1.0001554,1.625
80000000000000000000CC00,865.7,0.9756118,6.5
80000000000000000000CC00,865.7,1.0124273,-0.8125
80000000000000000000CC00,865.7,1.0124273,0.0
80000000000000000000CC00,865.7,0.99401957,2.4375
80000000000000000000CC00,865.7,0.99401957,2.4375
80000000000000000000CC00,865.7,1.0062914,0.8125
80000000000000000000CC00,865.7,0.9878836,1.625
80000000000000000000CC00,865.7,1.0124273,-0.8125
80000000000000000000CC00,865.7,1.0124273,0.8125
80000000000000000000CC00,865.7,0.96947587,4.875
80000000000000000000CC00,865.7,0.9756118,4.875
80000000000000000000CC00,865.7,1.0246992,-1.625
80000000000000000000CC00,865.7,1.0124273,-0.8125
80000000000000000000CC00,865.7,0.9878836,2.4375
80000000000000000000CC00,865.7,1.0001554,0.0
80000000000000000000CC00,865.7,0.99401957,1.625
80000000000000000000CC00,865.7,1.0001554,0.8125
80000000000000000000CC00,865.7,0.99401957,4.0625
80000000000000000000CC00,865.7,1.0062914,-0.8125
80000000000000000000CC00,865.7,0.9878836,1.625
80000000000000000000CC00,865.7,0.9817477,5.6875
80000000000000000000CC00,865.7,0.99401957,0.8125
80000000000000000000CC00,865.7,0.9756118,2.4375
80000000000000000000CC00,865.7,1.0124273,-1.625
80000000000000000000CC00,865.7,0.9817477,1.625
80000000000000000000CC00,865.7,1.0062914,-4.0625
80000000000000000000CC00,865.7,1.0001554,-4.0625
80000000000000000000CC00,865.7,0.9878836,0.8125
80000000000000000000CC00,865.7,0.99401957,0.0
80000000000000000000CC00,865.7,0.96947587,4.0625
80000000000000000000CC00,865.7,0.9817477,1.625
80000000000000000000CC00,865.7,1.0062914,-4.0625
80000000000000000000CC00,865.7,0.99401957,-1.625
80000000000000000000CC00,865.7,0.9878836,-0.8125
80000000000000000000CC00,865.7,0.9756118,0.8125
80000000000000000000CC00,865.7,0.9756118,2.4375
80000000000000000000CC00,865.7,0.9878836,-2.4375
80000000000000000000CC00,865.7,0.9756118,0.0
80000000000000000000CC00,865.7,0.9756118,0.8125
80000000000000000000CC00,865.7,0.9817477,-1.625
80000000000000000000CC00,865.7,0.9633399,1.625
80000000000000000000CC00,865.7,0.9756118,-0.8125
80000000000000000000CC00,865.7,0.9510681,2.4375
80000000000000000000CC00,865.7,0.99401957,-4.0625
80000000000000000000CC00,865.7,0.9817477,-0.8125
80000000000000000000CC00,865.7,0.9878836,-1.625
80000000000000000000CC00,865.7,0.9817477,0.0
80000000000000000000CC00,865.7,0.9878836,-2.4375
80000000000000000000CC00,865.7,0.96947587,1.625
80000000000000000000CC00,865.7,0.9510681,4.875
80000000000000000000CC00,865.7,0.9510681,4.875
80000000000000000000CC00,865.7,0.9510681,4.875
80000000000000000000CC00,865.7,0.957204,2.4375
80000000000000000000CC00,865.7,0.9633399,0.8125
80000000000000000000CC00,865.7,0.9633399,1.625
80000000000000000000CC00,865.7,0.9756118,0.8125
80000000000000000000CC00,865.7,0.96947587,-0.8125
80000000000000000000CC00,865.7,0.96947587,1.625
80000000000000000000CC00,865.7,0.9756118,-1.625
80000000000000000000CC00,865.7,0.9633399,0.8125
80000000000000000000CC00,865.7,0.9756118,-1.625
80000000000000000000CC00,865.7,0.9756118,-1.625
80000000000000000000CC00,865.7,0.957204,4.875
80000000000000000000CC00,865.7,0.957204,4.875
80000000000000000000CC00,865.7,0.96947587,0.0
80000000000000000000CC00,865.7,0.96947587,1.625
80000000000000000000CC00,865.7,0.9878836,-2.4375
80000000000000000000CC00,865.7,0.9817477,-1.625
80000000000000000000CC00,865.7,0.9817477,0.0
80000000000000000000CC00,865.7,0.9633399,2.4375
80000000000000000000CC00,865.7,0.9633399,1.625
80000000000000000000CC00,865.7,0.9817477,0.0
80000000000000000000CC00,865.7,0.957204,1.625
80000000000000000000CC00,865.7,0.957204,2.4375
80000000000000000000CC00,865.7,0.9817477,-1.625
80000000000000000000CC00,865.7,0.9756118,0.0
80000000000000000000CC00,865.7,0.957204,2.4375
80000000000000000000CC00,865.7,0.957204,0.8125
80000000000000000000CC00,865.7,0.99401957,-2.4375
80000000000000000000CC00,865.7,0.9633399,0.8125
80000000000000000000CC00,865.7,0.9633399,0.0
80000000000000000000CC00,865.7,0.9817477,-2.4375
80000000000000000000CC00,865.7,0.99401957,-5.6875
80000000000000000000CC00,865.7,0.9817477,-2.4375
80000000000000000000CC00,865.7,0.99401957,-4.875
80000000000000000000CC00,865.7,0.9817477,-2.4375
80000000000000000000CC00,865.7,0.957204,1.625
80000000000000000000CC00,865.7,0.94493216,7.3125
80000000000000000000CC00,865.7,0.9510681,1.625
80000000000000000000CC00,865.7,0.9633399,1.625
80000000000000000000CC00,865.7,0.957204,1.625
80000000000000000000CC00,865.7,0.9817477,-4.0625
80000000000000000000CC00,865.7,0.9633399,2.4375
80000000000000000000CC00,865.7,0.9510681,4.875
80000000000000000000CC00,865.7,0.9510681,4.0625
80000000000000000000CC00,865.7,0.957204,1.625
80000000000000000000CC00,865.7,0.9817477,-2.4375
80000000000000000000CC00,865.7,0.96947587,0.8125
80000000000000000000CC00,865.7,0.9756118,-1.625
80000000000000000000CC00,865.7,0.9817477,-1.625
80000000000000000000CC00,865.7,0.94493216,4.875
80000000000000000000CC00,865.7,0.96947587,0.0
80000000000000000000CC00,865.7,1.0001554,-5.6875
80000000000000000000CC00,865.7,0.9878836,-1.625
80000000000000000000CC00,865.7,0.96947587,0.8125
80000000000000000000CC00,865.7,0.9510681,4.875
80000000000000000000CC00,865.7,0.9756118,0.8125
80000000000000000000CC00,865.7,0.9633399,2.4375
80000000000000000000CC00,865.7,1.0001554,-2.4375
80000000000000000000CC00,865.7,0.9817477,0.0
80000000000000000000CC00,865.7,0.96947587,1.625
80000000000000000000CC00,865.7,0.957204,2.4375
80000000000000000000CC00,865.7,0.9817477,-1.625
80000000000000000000CC00,865.7,1.0001554,-2.4375
80000000000000000000CC00,865.7,1.0062914,-4.0625
80000000000000000000CC00,865.7,0.96947587,1.625
80000000000000000000CC00,865.7,0.96947587,0.8125
80000000000000000000CC00,865.7,0.9878836,0.8125
80000000000000000000CC00,865.7,0.9756118,0.8125
80000000000000000000CC00,865.7,0.99401957,-2.4375
80000000000000000000CC00,865.7,0.9878836,1.625
80000000000000000000CC00,865.7,0.9817477,1.625
80000000000000000000CC00,865.7,1.0001554,-0.8125
80000000000000000000CC00,865.7,0.9756118,1.625
80000000000000000000CC00,865.7,0.9878836,0.8125
80000000000000000000CC00,865.7,0.9756118,4.0625
80000000000000000000CC00,865.7,1.0001554,-4.0625
80000000000000000000CC00,865.7,0.9817477,0.0
80000000000000000000CC00,865.7,0.9878836,0.0
80000000000000000000CC00,865.7,1.0062914,-2.4375
80000000000000000000CC00,865.7,0.99401957,1.625
80000000000000000000CC00,865.7,0.9878836,1.625
80000000000000000000CC00,865.7,1.0062914,-0.8125
80000000000000000000CC00,865.7,0.9817477,2.4375
80000000000000000000CC00,865.7,1.0185633,-4.0625
80000000000000000000CC00,865.7,0.9756118,4.875
80000000000000000000CC00,865.7,1.0124273,-1.625
80000000000000000000CC00,865.7,1.0062914,-0.8125
80000000000000000000CC00,865.7,1.0062914,-0.8125
80000000000000000000CC00,865.7,0.9878836,1.625
80000000000000000000CC00,865.7,0.9817477,2.4375
80000000000000000000CC00,865.7,0.9878836,2.4375
80000000000000000000CC00,865.7,1.0001554,0.0
80000000000000000000CC00,865.7,1.0185633,-4.0625
80000000000000000000CC00,865.7,1.0062914,-1.625
80000000000000000000CC00,865.7,0.9817477,1.625
80000000000000000000CC00,865.7,0.9878836,1.625
80000000000000000000CC00,865.7,1.0001554,0.8125
80000000000000000000CC00,865.7,0.99401957,1.625
80000000000000000000CC00,865.7,0.9878836,4.0625
80000000000000000000CC00,865.7,0.9878836,1.625
80000000000000000000CC00,865.7,1.0062914,-0.8125
80000000000000000000CC00,865.7,1.0062914,0.0
80000000000000000000CC00,865.7,0.99401957,1.625
80000000000000000000CC00,865.7,1.0246992,-2.4375
80000000000000000000CC00,865.7,0.9878836,4.0625
80000000000000000000CC00,865.7,0.9817477,5.6875
80000000000000000000CC00,865.7,0.99401957,1.625
80000000000000000000CC00,865.7,1.0001554,0.0
80000000000000000000CC00,865.7,1.0124273,1.625
80000000000000000000CC00,865.7,0.9878836,4.875
80000000000000000000CC00,865.7,1.0062914,2.4375
80000000000000000000CC00,865.7,1.0124273,-1.625
80000000000000000000CC00,865.7,1.0001554,0.0
80000000000000000000CC00,865.7,1.0124273,-0.8125
80000000000000000000CC00,865.7,1.0001554,1.625
80000000000000000000CC00,865.7,1.0062914,0.0
80000000000000000000CC00,865.7,1.0062914,0.0
80000000000000000000CC00,865.7,1.0124273,0.0
80000000000000000000CC00,865.7,1.0001554,1.625
80000000000000000000CC00,865.7,1.0062914,0.8125
80000000000000000000CC00,865.7,1.0124273,0.8125
80000000000000000000CC00,865.7,1.0124273,0.8125
80000000000000000000CC00,865.7,1.030835,-2.4375
80000000000000000000CC00,865.7,1.0185633,-0.8125
80000000000000000000CC00,865.7,1.0001554,2.4375
80000000000000000000CC00,865.7,1.0062914,2.4375
80000000000000000000CC00,865.7,1.030835,-1.625
80000000000000000000CC00,865.7,0.99401957,4.0625
80000000000000000000CC00,865.7,0.99401957,4.0625
80000000000000000000CC00,865.7,1.0185633,0.0
80000000000000000000CC00,865.7,1.0246992,-0.8125
80000000000000000000CC00,865.7,1.0001554,2.4375
80000000000000000000CC00,865.7,1.0062914,2.4375
80000000000000000000CC00,865.7,1.0185633,0.0
80000000000000000000CC00,865.7,1.0124273,1.625
80000000000000000000CC00,865.7,1.0062914,2.4375
80000000000000000000CC00,865.7,1.0062914,2.4375
80000000000000000000CC00,865.7,1.0124273,0.8125
80000000000000000000CC00,865.7,1.0001554,2.4375
80000000000000000000CC00,865.7,0.99401957,4.875
80000000000000000000CC00,865.7,1.0062914,1.625
80000000000000000000CC00,865.7,1.0185633,0.0
80000000000000000000CC00,865.7,1.0062914,4.0625
80000000000000000000CC00,865.7,1.0185633,0.8125
80000000000000000000CC00,865.7,1.0185633,2.4375
80000000000000000000CC00,865.7,1.0185633,0.8125
80000000000000000000CC00,865.7,1.0062914,4.0625
80000000000000000000CC00,865.7,1.0062914,2.4375
80000000000000000000CC00,865.7,0.9878836,6.5
80000000000000000000CC00,865.7,1.0185633,0.8125
80000000000000000000CC00,865.7,1.0246992,1.625
80000000000000000000CC00,865.7,1.0185633,0.0
80000000000000000000CC00,865.7,1.0185633,0.8125
80000000000000000000CC00,865.7,1.0185633,1.625
80000000000000000000CC00,865.7,1.0185633,1.625
80000000000000000000CC00,865.7,1.0062914,4.0625
80000000000000000000CC00,865.7,1.0246992,1.625
80000000000000000000CC00,865.7,1.0246992,0.8125
80000000000000000000CC00,865.7,1.0246992,0.0
80000000000000000000CC00,865.7,1.030835,0.8125
80000000000000000000CC00,865.7,1.030835,-0.8125
80000000000000000000CC00,865.7,1.036971,0.8125
80000000000000000000CC00,865.7,1.036971,-0.8125
80000000000000000000CC00,865.7,1.0185633,4.0625
80000000000000000000CC00,865.7,1.0062914,4.875
80000000000000000000CC00,865.7,1.0124273,2.4375
80000000000000000000CC00,865.7,0.99401957,4.875
80000000000000000000CC00,865.7,1.0062914,4.875
80000000000000000000CC00,865.7,0.9878836,6.5
80000000000000000000CC00,865.7,1.0431069,-2.4375
80000000000000000000CC00,865.7,1.036971,-0.8125
80000000000000000000CC00,865.7,1.0246992,0.0
80000000000000000000CC00,865.7,1.0062914,4.875
80000000000000000000CC00,865.7,1.0062914,2.4375
80000000000000000000CC00,865.7,1.0124273,4.0625
80000000000000000000CC00,865.7,1.0185633,0.0
80000000000000000000CC00,865.7,1.030835,-1.625
80000000000000000000CC00,865.7,1.0124273,4.0625
80000000000000000000CC00,865.7,1.0185633,2.4375
80000000000000000000CC00,865.7,1.0001554,4.875
80000000000000000000CC00,865.7,1.0124273,0.8125
80000000000000000000CC00,865.7,1.0062914,0.0
80000000000000000000CC00,865.7,1.0185633,1.625
80000000000000000000CC00,865.7,1.0124273,2.4375
80000000000000000000CC00,865.7,1.0185633,0.8125
80000000000000000000CC00,865.7,1.0062914,4.0625
80000000000000000000CC00,865.7,1.0124273,2.4375
80000000000000000000CC00,865.7,1.0124273,2.4375
80000000000000000000CC00,865.7,1.0185633,0.8125
80000000000000000000CC00,865.7,1.0062914,2.4375
80000000000000000000CC00,865.7,0.99401957,4.875
80000000000000000000CC00,865.7,1.0246992,-0.8125
80000000000000000000CC00,865.7,1.0062914,2.4375
80000000000000000000CC00,865.7,1.0185633,0.0
80000000000000000000CC00,865.7,1.030835,-1.625
80000000000000000000CC00,865.7,1.0124273,1.625
80000000000000000000CC00,865.7,1.0124273,2.4375
80000000000000000000CC00,865.7,1.0124273,0.8125
80000000000000000000CC00,865.7,1.0062914,1.625
80000000000000000000CC00,865.7,1.0246992,-0.8125
80000000000000000000CC00,865.7,1.0062914,2.4375
80000000000000000000CC00,865.7,0.99401957,4.875
80000000000000000000CC00,865.7,1.0246992,0.0
80000000000000000000CC00,865.7,1.0062914,0.0
80000000000000000000CC00,865.7,1.0246992,-2.4375
80000000000000000000CC00,865.7,1.0062914,2.4375
80000000000000000000CC00,865.7,1.0124273,2.4375
80000000000000000000CC00,865.7,1.0246992,0.0
80000000000000000000CC00,865.7,1.036971,-2.4375
80000000000000000000CC00,865.7,1.030835,-4.0625
80000000000000000000CC00,865.7,1.0062914,1.625
80000000000000000000CC00,865.7,1.0062914,4.0625
80000000000000000000CC00,865.7,1.0001554,4.875
80000000000000000000CC00,865.7,1.0246992,-2.4375
80000000000000000000CC00,865.7,1.0062914,0.8125
80000000000000000000CC00,865.7,1.0062914,1.625
80000000000000000000CC00,865.7,0.99401957,2.4375
80000000000000000000CC00,865.7,1.0185633,-0.8125
80000000000000000000CC00,865.7,1.0062914,0.8125
80000000000000000000CC00,865.7,1.0062914,0.8125
80000000000000000000CC00,865.7,1.0062914,1.625
80000000000000000000CC00,865.7,1.0062914,-0.8125
80000000000000000000CC00,865.7,0.99401957,1.625
80000000000000000000CC00,865.7,1.0062914,0.0
80000000000000000000CC00,865.7,1.0001554,0.8125
80000000000000000000CC00,865.7,1.0001554,1.625
80000000000000000000CC00,865.7,1.0062914,0.8125
80000000000000000000CC00,865.7,0.9878836,4.0625
80000000000000000000CC00,865.7,0.9878836,2.4375
80000000000000000000CC00,865.7,1.0062914,1.625
80000000000000000000CC00,865.7,1.0001554,1.625
80000000000000000000CC00,865.7,0.9878836,1.625
80000000000000000000CC00,865.7,0.9756118,4.875
80000000000000000000CC00,865.7,1.0062914,1.625
80000000000000000000CC00,865.7,0.9878836,2.4375
80000000000000000000CC00,865.7,1.0062914,0.0
80000000000000000000CC00,865.7,1.0062914,0.8125
80000000000000000000CC00,865.7,0.99401957,4.875
80000000000000000000CC00,865.7,1.0062914,0.0
80000000000000000000CC00,865.7,1.0062914,0.8125
80000000000000000000CC00,865.7,0.9878836,4.0625
80000000000000000000CC00,865.7,0.9633399,7.3125
80000000000000000000CC00,865.7,1.0001554,0.8125
80000000000000000000CC00,865.7,1.0001554,0.8125
80000000000000000000CC00,865.7,1.0124273,0.8125
80000000000000000000CC00,865.7,1.0062914,0.8125
80000000000000000000CC00,865.7,1.0062914,1.625
80000000000000000000CC00,865.7,0.9817477,5.6875
80000000000000000000CC00,865.7,1.0001554,1.625
80000000000000000000CC00,865.7,1.0001554,0.8125
80000000000000000000CC00,865.7,0.99401957,2.4375
80000000000000000000CC00,865.7,1.0246992,-2.4375
80000000000000000000CC00,865.7,1.0062914,0.0
80000000000000000000CC00,865.7,1.0185633,0.8125
80000000000000000000CC00,865.7,1.0124273,0.0
80000000000000000000CC00,865.7,0.99401957,4.875
80000000000000000000CC00,865.7,1.0062914,0.0
80000000000000000000CC00,865.7,1.0062914,0.8125
80000000000000000000CC00,865.7,1.0185633,-0.8125
80000000000000000000CC00,865.7,1.0124273,0.8125
80000000000000000000CC00,865.7,0.99401957,4.0625
80000000000000000000CC00,865.7,1.0001554,1.625
80000000000000000000CC00,865.7,1.0246992,-0.8125
80000000000000000000CC00,865.7,1.0246992,-1.625
80000000000000000000CC00,865.7,1.0001554,2.4375
80000000000000000000CC00,865.7,1.0246992,0.0
80000000000000000000CC00,865.7,1.0062914,1.625
80000000000000000000CC00,865.7,1.030835,0.0
80000000000000000000CC00,865.7,1.030835,-1.625
80000000000000000000CC00,865.7,1.0246992,-1.625
80000000000000000000CC00,865.7,1.0185633,4.0625
80000000000000000000CC00,865.7,1.0124273,1.625
80000000000000000000CC00,865.7,1.0185633,4.0625
80000000000000000000CC00,865.7,1.0185633,4.0625
80000000000000000000CC00,865.7,1.0185633,2.4375
80000000000000000000CC00,865.7,1.0062914,4.875
80000000000000000000CC00,865.7,1.030835,2.4375
80000000000000000000CC00,865.7,1.0492429,0.0
80000000000000000000CC00,865.7,1.0124273,5.6875
80000000000000000000CC00,865.7,1.030835,1.625
80000000000000000000CC00,865.7,1.0431069,0.8125
80000000000000000000CC00,865.7,1.0492429,0.8125
80000000000000000000CC00,865.7,1.0431069,0.8125
80000000000000000000CC00,865.7,1.0431069,0.8125
80000000000000000000CC00,865.7,1.0492429,0.8125
80000000000000000000CC00,865.7,1.0615147,1.625
80000000000000000000CC00,865.7,1.0492429,0.8125
80000000000000000000CC00,865.7,1.036971,5.6875
80000000000000000000CC00,865.7,1.0553788,2.4375
80000000000000000000CC00,865.7,1.0553788,0.0
80000000000000000000CC00,865.7,1.0553788,0.0
80000000000000000000CC00,865.7,1.0431069,2.4375
80000000000000000000CC00,865.7,1.036971,4.0625
80000000000000000000CC00,865.7,1.0615147,0.0
80000000000000000000CC00,865.7,1.0492429,0.8125
80000000000000000000CC00,865.7,1.036971,2.4375
80000000000000000000CC00,865.7,1.0492429,4.0625
80000000000000000000CC00,865.7,1.0431069,4.875
80000000000000000000CC00,865.7,1.0492429,4.0625
80000000000000000000CC00,865.7,1.0676507,0.0
80000000000000000000CC00,865.7,1.0921943,-1.625
80000000000000000000CC00,865.7,1.0737865,1.625
80000000000000000000CC00,865.7,1.0553788,4.875
80000000000000000000CC00,865.7,1.0615147,4.0625
80000000000000000000CC00,865.7,1.0799224,2.4375
80000000000000000000CC00,865.7,1.0983303,-0.8125
80000000000000000000CC00,865.7,1.0737865,2.4375
80000000000000000000CC00,865.7,1.0799224,4.0625
80000000000000000000CC00,865.7,1.0799224,2.4375
80000000000000000000CC00,865.7,1.0676507,7.3125
80000000000000000000CC00,865.7,1.0921943,4.0625
80000000000000000000CC00,865.7,1.1044662,0.8125
80000000000000000000CC00,865.7,1.1044662,2.4375
80000000000000000000CC00,865.7,1.0921943,4.875
80000000000000000000CC00,865.7,1.1106021,0.8125
80000000000000000000CC00,865.7,1.0860584,2.4375
80000000000000000000CC00,865.7,1.1290098,-0.8125
80000000000000000000CC00,865.7,1.1290098,1.625
80000000000000000000CC00,865.7,1.1290098,0.8125
80000000000000000000CC00,865.7,1.1290098,1.625
80000000000000000000CC00,865.7,1.1106021,4.875
80000000000000000000CC00,865.7,1.1412817,0.0
80000000000000000000CC00,865.7,1.1228739,4.875
80000000000000000000CC00,865.7,1.1474177,0.0
80000000000000000000CC00,865.7,1.1535536,0.0
80000000000000000000CC00,865.7,1.1290098,4.875
80000000000000000000CC00,865.7,1.1596894,4.0625
80000000000000000000CC00,865.7,1.1351458,4.875
80000000000000000000CC00,865.7,1.1474177,5.6875
80000000000000000000CC00,865.7,1.1903691,-4.0625
80000000000000000000CC00,865.7,1.1474177,5.6875
80000000000000000000CC00,865.7,1.1719613,2.4375
80000000000000000000CC00,865.7,1.1719613,4.0625
80000000000000000000CC00,865.7,1.1903691,0.0
80000000000000000000CC00,865.7,1.2026409,0.8125
80000000000000000000CC00,865.7,1.2026409,0.0
80000000000000000000CC00,865.7,1.1719613,6.5
80000000000000000000CC00,865.7,1.1965051,1.625
80000000000000000000CC00,865.7,1.2026409,2.4375
80000000000000000000CC00,865.7,1.1965051,2.4375
80000000000000000000CC00,865.7,1.2026409,1.625
80000000000000000000CC00,865.7,1.1780972,8.125
80000000000000000000CC00,865.7,1.2210487,1.625
80000000000000000000CC00,865.7,1.1903691,6.5
80000000000000000000CC00,865.7,1.1903691,6.5
80000000000000000000CC00,865.7,1.2087768,5.6875
80000000000000000000CC00,865.7,1.2210487,4.875
80000000000000000000CC00,865.7,1.2271847,4.0625
80000000000000000000CC00,865.7,1.2578642,-1.625
80000000000000000000CC00,865.7,1.2333206,2.4375
80000000000000000000CC00,865.7,1.2271847,5.6875
80000000000000000000CC00,865.7,1.2394565,2.4375
80000000000000000000CC00,865.7,1.2333206,4.0625
80000000000000000000CC00,865.7,1.2271847,6.5
80000000000000000000CC00,865.7,1.2210487,5.6875
80000000000000000000CC00,865.7,1.2333206,4.875
80000000000000000000CC00,865.7,1.2210487,7.3125
80000000000000000000CC00,865.7,1.2271847,5.6875
80000000000000000000CC00,865.7,1.2578642,-0.8125
80000000000000000000CC00,865.7,1.2394565,6.5
80000000000000000000CC00,865.7,1.2455924,-0.8125
80000000000000000000CC00,865.7,1.2517283,0.8125
80000000000000000000CC00,865.7,1.2333206,2.4375
80000000000000000000CC00,865.7,1.2271847,5.6875
80000000000000000000CC00,865.7,1.2517283,-1.625
80000000000000000000CC00,865.7,1.2087768,7.3125
80000000000000000000CC00,865.7,1.2394565,2.4375
80000000000000000000CC00,865.7,1.2271847,4.0625
80000000000000000000CC00,865.7,1.2394565,4.0625
80000000000000000000CC00,865.7,1.2087768,4.875
80000000000000000000CC00,865.7,1.2087768,6.5
80000000000000000000CC00,865.7,1.2149128,8.125
80000000000000000000CC00,865.7,1.2271847,2.4375
80000000000000000000CC00,865.7,1.2271847,0.8125
80000000000000000000CC00,865.7,1.2149128,4.875
80000000000000000000CC00,865.7,1.2517283,0.8125
80000000000000000000CC00,865.7,1.2149128,4.875
80000000000000000000CC00,865.7,1.2271847,4.0625
80000000000000000000CC00,865.7,1.2394565,-0.8125
80000000000000000000CC00,865.7,1.2333206,0.0
80000000000000000000CC00,865.7,1.2333206,5.6875
80000000000000000000CC00,865.7,1.3130876,4.0625
80000000000000000000CC00,865.7,1.356039,7.3125
80000000000000000000CC00,865.7,1.4112623,4.0625
80000000000000000000CC00,865.7,1.4664856,0.0
80000000000000000000CC00,865.7,1.4664856,4.0625
80000000000000000000CC00,865.7,1.4848934,4.875
80000000000000000000CC00,865.7,1.5278449,4.0625
80000000000000000000CC00,865.7,1.5892041,-0.8125
80000000000000000000CC00,865.7,1.6260196,1.625
80000000000000000000CC00,865.7,1.6260196,7.3125
80000000000000000000CC00,865.7,1.681243,5.6875
80000000000000000000CC00,865.7,1.748738,-0.8125
80000000000000000000CC00,865.7,1.7794178,4.0625
80000000000000000000CC00,865.7,1.8469129,4.875
80000000000000000000CC00,865.7,1.914408,2.4375
80000000000000000000CC00,865.7,1.9512236,7.3125
80000000000000000000CC00,865.7,2.0187187,5.6875
80000000000000000000CC00,865.7,2.0555344,6.5
80000000000000000000CC00,865.7,2.073942,8.125
80000000000000000000CC00,865.7,2.147573,0.8125
80000000000000000000CC00,865.7,2.1353014,6.5
80000000000000000000CC00,865.7,2.1414373,8.125
80000000000000000000CC00,865.7,2.1291654,7.3125
80000000000000000000CC00,865.7,2.1659808,4.0625
80000000000000000000CC00,865.7,2.153709,4.875
80000000000000000000CC00,865.7,2.147573,1.625
80000000000000000000CC00,865.7,2.1291654,5.6875
80000000000000000000CC00,865.7,2.1230295,6.5
80000000000000000000CC00,865.7,2.1353014,0.8125
80000000000000000000CC00,865.7,2.1291654,1.625
80000000000000000000CC00,865.7,2.1353014,0.8125
80000000000000000000CC00,865.7,2.1353014,0.8125
80000000000000000000CC00,865.7,2.1046216,7.3125
80000000000000000000CC00,865.7,2.153709,-0.8125
80000000000000000000CC00,865.7,2.1168935,5.6875
80000000000000000000CC00,865.7,2.1291654,1.625
80000000000000000000CC00,865.7,2.0923498,7.3125
80000000000000000000CC00,865.7,2.1230295,0.8125
80000000000000000000CC00,865.7,2.0862138,7.3125
80000000000000000000CC00,865.7,2.1046216,5.6875
80000000000000000000CC00,865.7,2.0984857,5.6875
80000000000000000000CC00,865.7,2.1107576,5.6875
80000000000000000000CC00,865.7,2.1230295,5.6875
80000000000000000000CC00,865.7,2.0984857,9.75
80000000000000000000CC00,865.7,2.1230295,4.875
80000000000000000000CC00,865.7,2.1230295,5.6875
80000000000000000000CC00,865.7,2.1353014,4.875
80000000000000000000CC00,865.7,2.1107576,13.0
80000000000000000000CC00,865.7,2.147573,6.5
80000000000000000000CC00,865.7,2.1659808,1.625
80000000000000000000CC00,865.7,2.1291654,8.9375
80000000000000000000CC00,865.7,2.147573,6.5
80000000000000000000CC00,865.7,2.1721168,0.8125
80000000000000000000CC00,865.7,2.1414373,6.5
80000000000000000000CC00,865.7,2.1353014,8.125
80000000000000000000CC00,865.7,2.153709,5.6875
80000000000000000000CC00,865.7,2.1598449,2.4375
80000000000000000000CC00,865.7,2.153709,2.4375
80000000000000000000CC00,865.7,2.1353014,6.5
80000000000000000000CC00,865.7,2.1230295,8.9375
80000000000000000000CC00,865.7,2.153709,5.6875
80000000000000000000CC00,865.7,2.1230295,9.75
80000000000000000000CC00,865.7,2.1291654,8.125
80000000000000000000CC00,865.7,2.1414373,6.5
80000000000000000000CC00,865.7,2.1414373,4.0625
80000000000000000000CC00,865.7,2.1598449,2.4375
80000000000000000000CC00,865.7,2.1721168,1.625
80000000000000000000CC00,865.7,2.1291654,7.3125
80000000000000000000CC00,865.7,2.1230295,8.9375
80000000000000000000CC00,865.7,2.1414373,4.875
80000000000000000000CC00,865.7,2.1230295,4.0625
80000000000000000000CC00,865.7,2.1353014,0.0
80000000000000000000CC00,865.7,2.1598449,0.0
80000000000000000000CC00,865.7,2.1291654,2.4375
80000000000000000000CC00,865.7,2.0984857,6.5
80000000000000000000CC00,865.7,2.1168935,2.4375
80000000000000000000CC00,865.7,2.1353014,0.8125
80000000000000000000CC00,865.7,2.1230295,0.8125
80000000000000000000CC00,865.7,2.0923498,7.3125
80000000000000000000CC00,865.7,2.0923498,8.125
80000000000000000000CC00,865.7,2.1230295,1.625
80000000000000000000CC00,865.7,2.1414373,-0.8125
80000000000000000000CC00,865.7,2.0923498,8.125
80000000000000000000CC00,865.7,2.1230295,4.0625
80000000000000000000CC00,865.7,2.1598449,-0.8125
80000000000000000000CC00,865.7,2.1230295,2.4375
80000000000000000000CC00,865.7,2.153709,0.8125
80000000000000000000CC00,865.7,2.1843886,-4.0625
80000000000000000000CC00,865.7,2.1230295,5.6875
80000000000000000000CC00,865.7,2.1843886,-1.625
80000000000000000000CC00,865.7,2.1598449,2.4375
80000000000000000000CC00,865.7,2.1659808,2.4375
80000000000000000000CC00,865.7,2.153709,4.875
80000000000000000000CC00,865.7,2.1721168,0.8125
80000000000000000000CC00,865.7,2.2089324,-0.8125
80000000000000000000CC00,865.7,2.1966605,1.625
80000000000000000000CC00,865.7,2.2150683,0.0
80000000000000000000CC00,865.7,2.1843886,5.6875
80000000000000000000CC00,865.7,2.2089324,0.8125
80000000000000000000CC00,865.7,2.2027965,5.6875
80000000000000000000CC00,865.7,2.2150683,4.0625
80000000000000000000CC00,865.7,2.233476,0.0
80000000000000000000CC00,865.7,2.233476,0.0
80000000000000000000CC00,865.7,2.2396119,0.8125
80000000000000000000CC00,865.7,2.2089324,4.875
80000000000000000000CC00,865.7,2.1905246,9.75
80000000000000000000CC00,865.7,2.1782527,9.75
80000000000000000000CC00,865.7,2.2580197,-2.4375
80000000000000000000CC00,865.7,2.1966605,12.1875
80000000000000000000CC00,865.7,2.2641556,-2.4375
80000000000000000000CC00,865.7,2.2089324,8.125
80000000000000000000CC00,865.7,2.233476,4.875
80000000000000000000CC00,865.7,2.2518837,-1.625
80000000000000000000CC00,865.7,2.2641556,-5.6875
80000000000000000000CC00,865.7,2.1843886,8.9375
80000000000000000000CC00,865.7,2.2457478,0.0
80000000000000000000CC00,865.7,2.1843886,7.3125
80000000000000000000CC00,865.7,2.2396119,0.0
80000000000000000000CC00,865.7,2.2089324,4.875
80000000000000000000CC00,865.7,2.233476,0.8125
80000000000000000000CC00,865.7,2.2518837,0.0
80000000000000000000CC00,865.7,2.2150683,6.5
80000000000000000000CC00,865.7,2.233476,4.0625
80000000000000000000CC00,865.7,2.233476,2.4375
80000000000000000000CC00,865.7,2.2212043,4.875
80000000000000000000CC00,865.7,2.2089324,7.3125
80000000000000000000CC00,865.7,2.2396119,1.625
80000000000000000000CC00,865.7,2.2518837,0.0
80000000000000000000CC00,865.7,2.1966605,7.3125
80000000000000000000CC00,865.7,2.1782527,8.9375
80000000000000000000CC00,865.7,2.1843886,6.5
80000000000000000000CC00,865.7,2.2027965,4.0625
80000000000000000000CC00,865.7,2.1721168,6.5
80000000000000000000CC00,865.7,2.1843886,6.5
80000000000000000000CC00,865.7,2.153709,8.125
80000000000000000000CC00,865.7,2.1905246,0.8125
80000000000000000000CC00,865.7,2.1782527,2.4375
80000000000000000000CC00,865.7,2.153709,10.5625
80000000000000000000CC00,865.7,2.1659808,4.875
80000000000000000000CC00,865.7,2.1843886,1.625
80000000000000000000CC00,865.7,2.1659808,5.6875
80000000000000000000CC00,865.7,2.1843886,1.625
80000000000000000000CC00,865.7,2.1659808,5.6875
80000000000000000000CC00,865.7,2.147573,8.9375
80000000000000000000CC00,865.7,2.1598449,7.3125
80000000000000000000CC00,865.7,2.1414373,9.75
80000000000000000000CC00,865.7,2.1414373,8.125
80000000000000000000CC00,865.7,2.1659808,4.875
80000000000000000000CC00,865.7,2.153709,7.3125
80000000000000000000CC00,865.7,2.1659808,6.5
80000000000000000000CC00,865.7,2.1782527,1.625
80000000000000000000CC00,865.7,2.1414373,6.5
80000000000000000000CC00,865.7,2.147573,8.9375
80000000000000000000CC00,865.7,2.147573,5.6875
80000000000000000000CC00,865.7,2.1598449,4.0625
80000000000000000000CC00,865.7,2.153709,4.875
80000000000000000000CC00,865.7,2.1782527,1.625
80000000000000000000CC00,865.7,2.1721168,0.8125
80000000000000000000CC00,865.7,2.1721168,1.625
80000000000000000000CC00,865.7,2.1414373,5.6875
80000000000000000000CC00,865.7,2.1598449,2.4375
80000000000000000000CC00,865.7,2.1353014,6.5
80000000000000000000CC00,865.7,2.153709,4.875
80000000000000000000CC00,865.7,2.1353014,5.6875
80000000000000000000CC00,865.7,2.1598449,4.0625
80000000000000000000CC00,865.7,2.1353014,5.6875
80000000000000000000CC00,865.7,2.1353014,6.5
80000000000000000000CC00,865.7,2.1414373,6.5
80000000000000000000CC00,865.7,2.1353014,8.9375
80000000000000000000CC00,865.7,2.153709,5.6875
80000000000000000000CC00,865.7,2.147573,5.6875
80000000000000000000CC00,865.7,2.153709,4.875
80000000000000000000CC00,865.7,2.147573,5.6875
80000000000000000000CC00,865.7,2.1353014,6.5
80000000000000000000CC00,865.7,2.1659808,4.0625
80000000000000000000CC00,865.7,2.1721168,4.875
80000000000000000000CC00,865.7,2.1598449,4.875
80000000000000000000CC00,865.7,2.1721168,2.4375
80000000000000000000CC00,865.7,2.1659808,4.0625
80000000000000000000CC00,865.7,2.1598449,5.6875
80000000000000000000CC00,865.7,2.1598449,7.3125
80000000000000000000CC00,865.7,2.1598449,6.5
80000000000000000000CC00,865.7,2.1659808,6.5
80000000000000000000CC00,865.7,2.1598449,5.6875
80000000000000000000CC00,865.7,2.1843886,4.0625
80000000000000000000CC00,865.7,2.1782527,1.625
80000000000000000000CC00,865.7,2.1905246,4.875
80000000000000000000CC00,865.7,2.1843886,4.875
80000000000000000000CC00,865.7,2.1843886,6.5
80000000000000000000CC00,865.7,2.1721168,4.0625
80000000000000000000CC00,865.7,2.1905246,1.625
80000000000000000000CC00,865.7,2.1905246,4.875
80000000000000000000CC00,865.7,2.1659808,6.5
80000000000000000000CC00,865.7,2.1905246,2.4375
80000000000000000000CC00,865.7,2.1843886,7.3125
80000000000000000000CC00,865.7,2.1782527,6.5
80000000000000000000CC00,865.7,2.1843886,4.0625
80000000000000000000CC00,865.7,2.1905246,2.4375
80000000000000000000CC00,865.7,2.1782527,5.6875
80000000000000000000CC00,865.7,2.1782527,8.125
80000000000000000000CC00,865.7,2.1905246,4.0625
80000000000000000000CC00,865.7,2.1905246,4.875
80000000000000000000CC00,865.7,2.1721168,7.3125
80000000000000000000CC00,865.7,2.1782527,4.875
80000000000000000000CC00,865.7,2.2150683,0.8125
80000000000000000000CC00,865.7,2.1905246,4.875
80000000000000000000CC00,865.7,2.1966605,5.6875
80000000000000000000CC00,865.7,2.2027965,4.0625
80000000000000000000CC00,865.7,2.1721168,7.3125
80000000000000000000CC00,865.7,2.2089324,2.4375
80000000000000000000CC00,865.7,2.2089324,1.625
80000000000000000000CC00,865.7,2.1659808,8.125
80000000000000000000CC00,865.7,2.1782527,7.3125
80000000000000000000CC00,865.7,2.1782527,6.5
80000000000000000000CC00,865.7,2.1843886,6.5
80000000000000000000CC00,865.7,2.1659808,7.3125
80000000000000000000CC00,865.7,2.1721168,8.125
80000000000000000000CC00,865.7,2.1843886,4.0625
80000000000000000000CC00,865.7,2.2027965,1.625
80000000000000000000CC00,865.7,2.2027965,4.0625
80000000000000000000CC00,865.7,2.2027965,1.625
80000000000000000000CC00,865.7,2.1843886,4.875
80000000000000000000CC00,865.7,2.2027965,4.0625
80000000000000000000CC00,865.7,2.1905246,4.0625
80000000000000000000CC00,865.7,2.2027965,2.4375
80000000000000000000CC00,865.7,2.1782527,4.0625
80000000000000000000CC00,865.7,2.1782527,5.6875
80000000000000000000CC00,865.7,2.1843886,6.5
80000000000000000000CC00,865.7,2.2027965,1.625
80000000000000000000CC00,865.7,2.1843886,4.875
80000000000000000000CC00,865.7,2.1843886,5.6875
80000000000000000000CC00,865.7,2.2027965,2.4375
80000000000000000000CC00,865.7,2.1966605,2.4375
80000000000000000000CC00,865.7,2.1843886,7.3125
80000000000000000000CC00,865.7,2.1721168,8.125
80000000000000000000CC00,865.7,2.1721168,7.3125
80000000000000000000CC00,865.7,2.1905246,4.875
80000000000000000000CC00,865.7,2.2089324,1.625
80000000000000000000CC00,865.7,2.2273402,-0.8125
80000000000000000000CC00,865.7,2.2027965,0.8125
80000000000000000000CC00,865.7,2.1782527,7.3125
80000000000000000000CC00,865.7,2.1782527,6.5
80000000000000000000CC00,865.7,2.2089324,2.4375
80000000000000000000CC00,865.7,2.1905246,5.6875
80000000000000000000CC00,865.7,2.2212043,0.8125
