-36.5,4.479223900626073,0.0
-37.0,4.491495746929157,0.8125
-37.5,4.651029748869264,0.8125
-37.5,4.681709364626977,-4.875
-37.5,4.663301595172349,0.8125
-38.0,4.669437518323892,-1.625
-38.0,4.663301595172349,0.0
-38.0,4.700117134081604,-2.4375
-37.5,4.669437518323892,0.0
-38.0,4.749204519293945,-2.4375
-39.5,4.816699673960914,1.625
-41.0,4.767612288748572,1.625
-42.5,4.73693267299086,0.0
-42.5,4.718524903536232,1.625
-42.5,4.749204519293945,-6.5
-42.5,4.700117134081604,-0.8125
-43.0,4.718524903536232,-3.25
-43.0,4.706253057233147,-2.4375
-43.0,4.693981210930062,-3.25
-43.0,4.71238898038469,-8.9375
-43.0,4.681709364626977,-0.8125
-43.0,4.693981210930062,-3.25
-43.0,4.71238898038469,-5.6875
-43.0,4.693981210930062,-2.4375
-43.0,4.700117134081604,-1.625
-43.0,4.669437518323892,0.8125
-43.0,4.6878452877785195,0.8125
-43.0,4.669437518323892,-0.8125
-43.0,4.681709364626977,-0.8125
-43.0,4.663301595172349,0.0
-43.0,4.669437518323892,2.4375
-43.5,4.669437518323892,2.4375
-43.5,4.693981210930062,-3.25
-43.5,4.6878452877785195,-0.8125
-43.5,4.675573441475434,-1.625
-43.5,4.657165672020807,0.0
-43.5,4.663301595172349,-0.8125
-43.5,4.681709364626977,-8.125
-43.5,4.663301595172349,-4.875
-43.5,4.6448938257177215,-3.25
-43.5,4.614214209960009,-0.8125
-43.5,4.614214209960009,-4.875
-43.5,4.558990901596125,2.4375
-43.5,4.589670517353839,-6.5
-43.5,4.565126824747668,-1.625
-44.0,4.522175362686871,-2.4375
-43.5,4.503767593232243,0.0
-43.5,4.503767593232243,-2.4375
-43.5,4.509903516383785,-5.6875
-44.0,4.4976316700806995,-3.25
