-33.0,0.0,1.625
-32.0,2.908427573831176,0.8125
-57.5,-1.6505633277649503,53.6875
-62.5,0.10431069357622347,9.75
-61.0,0.7117670855789378,26.0
-32.5,0.8467573949128737,0.8125
-33.0,-2.9206994201342606,4.0625
-59.5,1.2701360923693108,0.0
-60.0,-0.04295146206079803,67.5
-32.0,1.6873788666742056,1.625
-33.0,-2.8961557275280905,2.4375
-59.0,1.4235341711578748,22.75
-59.5,0.03681553890925571,-12.1875
-32.0,1.4296700943094178,1.625
-33.0,-2.883883881225006,4.875
-61.0,1.4480778637640452,-40.6875
-59.0,0.337475773334841,-42.3125
-62.0,-0.012271846303085088,51.25
-33.0,-1.7487380981896308,1.625
-32.0,2.8593401886188357,2.4375
-59.5,-1.1780972450961729,-34.125
-60.0,-0.2147573103039897,-7.3125
-60.5,0.12271846303085132,2.4375
-32.0,1.2885438618239382,-0.8125
-33.0,-2.883883881225005,4.875
-62.0,1.7057866361288332,-31.6875
-33.0,-1.6996507129772904,2.4375
-32.5,2.883883881225006,-0.8125
-60.0,-1.0308350894591514,-45.5625
-60.0,-0.4970097752749476,12.1875
-62.0,0.8590292412159592,11.375
-33.5,-2.190524565100696,4.875
-32.0,2.8347964960126655,1.625
-59.5,-1.3314953238847371,2.4375
-59.0,-0.14112623248547873,34.125
-33.0,-1.3499030933393643,4.875
-32.0,2.8163887265580367,2.4375
-32.0,0.0,1.625
-33.0,-2.7979809571034093,4.0625
-59.0,1.3928545554001621,26.8125
-62.0,-0.4295146206079794,86.25
-60.5,1.2271846303085128,-17.0625
-32.0,0.613592315154257,-0.8125
-33.0,-2.8041168802549525,4.875
-59.5,1.466485633218673,9.75
-60.0,0.46019423636569234,41.5
-60.5,-0.5583690067903735,-5.6875
-61.5,1.466485633218673,-1.625
-33.0,-2.840932419164208,7.3125
-32.0,2.804116880254952,2.4375
-59.0,-1.1965050145507998,-17.0625
-60.0,-0.1963495408493623,-26.0
-32.0,1.3989904785517053,0.0
-33.0,-2.7673013413456973,2.4375
-59.5,1.4726215563702159,31.6875
-59.5,-0.1288543861823941,12.1875
-33.0,-1.337631247036279,2.4375
-32.0,2.7550294950426113,1.625
-58.0,-1.251728322914683,-4.875
-60.5,-0.20862138715244738,-1.625
-61.0,0.6565437772150546,52.0625
-63.5,1.1535535524900022,-49.625
-32.0,-0.3558835427894689,1.625
-33.0,-2.761165418194154,4.875
-59.5,1.5769322499464389,-33.3125
-59.0,0.09817477042468115,-18.6875
-59.5,0.8897088569736717,52.0625
-61.0,-0.6933593161243095,83.0
-64.5,-3.6938257372286243,113.875
-32.0,4.608078286808466,-1.625
-33.0,-2.791845033951867,5.6875
-61.5,2.2334760271614935,8.125
-59.0,-1.000155473701438,12.1875
-61.0,-0.294524311274043,81.375
-62.0,1.0799224746714917,52.0625
-32.0,0.7608544707912781,0.0
-33.0,-2.7857091108003247,6.5
-59.5,1.3989904785517049,-9.75
-59.5,-0.1840776945462772,-5.6875
-32.0,1.5646604036433538,1.625
-33.0,-2.761165418194154,4.0625
-59.5,1.6014759425526095,-12.1875
-60.0,-0.5706408530934586,46.375
-62.0,0.5767767762450013,101.6875
-33.0,-1.6260196351587797,8.125
-32.0,2.791845033951867,0.0
-59.0,-1.3928545554001621,21.125
-59.5,0.8344855486097886,-17.0625
-61.0,-0.662679700366597,-31.6875
-60.5,0.4172427743048943,-40.6875
-33.0,-1.9880391010997909,6.5
-32.0,2.791845033951867,0.0
-58.5,-1.4296700943094178,17.875
-60.5,0.8283496254582463,8.9375
-60.5,0.7056311624273945,14.625
-33.0,-2.89615572752809,5.6875
-32.0,2.8041168802549516,0.0
-60.0,-1.3008157081270233,-11.375
-60.5,-0.4049709280018092,31.6875
-33.0,-1.0921943209745768,1.625
-32.0,2.8041168802549525,-1.625
-59.5,-1.3560390164909073,-42.3125
-59.5,-0.030679615757712497,6.5
-32.0,1.3744467859455343,0.0
-33.0,-2.779573187648782,0.0
-58.5,1.5033011721279284,5.6875
-61.0,0.07976700097005374,-48.8125
-32.0,1.2026409377023421,0.8125
-33.0,-2.8163887265580367,7.3125
-60.0,1.4726215563702156,9.75
-61.0,-0.3497476196379261,49.625
-33.0,-1.0983302441261191,2.4375
-32.0,2.7734372644972396,3.25
-60.0,-1.202640937702343,-11.375
-60.5,-0.6197282383057989,69.125
-60.5,1.0676506283684062,16.25
-58.5,-0.6565437772150546,15.4375
-32.0,1.4358060174609606,-0.8125
-33.0,-2.8041168802549525,5.6875
-62.0,1.761009944492716,122.0625
-32.0,1.0369710126106932,0.0
-33.0,-2.8041168802549516,5.6875
-59.5,1.644427404613407,-10.5625
-60.5,-0.07363107781851053,-45.5625
-60.5,0.6994952392758527,16.25
-33.0,-2.2396119503130363,4.875
-32.0,2.7734372644972387,-0.8125
-62.0,-1.5339807878856409,20.3125
-60.0,0.3865631585471814,-34.9375
-32.0,1.1290098598838325,2.4375
-33.0,-2.7427576487395267,1.625
-59.0,1.644427404613407,3.25
-59.0,0.024543692606170175,-53.6875
-32.5,-1.67510702037112,4.875
-60.5,1.2333205534600555,6.5
-32.0,1.558524480491811,-2.4375
-59.5,-1.251728322914683,-33.3125
-63.0,0.7792622402459055,-37.375
-60.0,-0.8774370106705862,-46.375
-58.0,-0.43565054375952217,69.9375
-33.0,-1.0062913968529807,0.8125
-32.0,2.7550294950426117,1.625
-60.5,-0.8344855486097891,-7.3125
-33.0,-1.91440802328128,1.625
-32.0,2.773437264497239,-1.625
-60.0,-1.2271846303085132,-10.5625
-61.0,-0.2024854640009046,21.125
-60.0,0.6442719309119695,14.625
-32.0,0.7669903939428204,0.0
-33.0,-2.773437264497239,2.4375
-59.0,1.5033011721279284,1.625
-60.0,0.19021361769781953,-63.4375
-63.0,1.0062913968529807,18.6875
-32.0,0.07363107781851053,0.8125
-62.5,-1.6076118657041518,43.9375
-32.5,-1.1351457830353744,2.4375
-59.5,1.5830681730979816,-22.75
-60.5,0.11044661672776623,95.1875
-32.5,-1.6873788666742056,2.4375
-32.0,2.736621725587984,0.8125
-60.0,-1.4419419406125025,8.125
-61.0,0.7485826244881926,37.375
-58.0,-0.5706408530934581,-3.25
-33.0,-1.4726215563702159,4.0625
-32.5,2.7304858024364416,1.625
-63.5,-0.4540583132141496,-36.5625
-61.0,-0.7424467013366507,-42.3125
-58.5,-0.39269908169872414,12.1875
-58.0,0.36815538909255396,8.125
-32.0,1.233320553460055,-1.625
-32.5,-2.7243498792848984,4.875
-60.5,1.6505633277649499,-51.25
-60.5,0.03681553890925526,-69.125
-59.0,-0.18407769454627676,-1.625
-32.5,-1.4787574795217582,1.625
-32.5,2.675262494072558,1.625
-58.5,-1.1842331682477147,-5.6875
-32.5,1.1965050145508003,-0.8125
-32.5,-2.6875343403756435,2.4375
-61.0,1.3560390164909069,5.6875
-61.0,0.17794177139473444,96.0
-33.0,-1.5278448647340985,4.875
-32.0,2.6752624940725585,0.0
-62.0,-1.3928545554001626,12.1875
-59.0,0.12885438618239364,34.125
-60.5,0.7179030087304801,-7.3125
-61.5,0.18407769454627676,40.6875
-32.0,0.34361169648638423,2.4375
-32.5,-2.6323110320117604,6.5
-58.0,1.5339807878856413,-63.4375
-59.5,-0.20862138715244738,16.25
-62.0,0.9019807032767573,-21.125
-32.5,0.398835004850266,2.4375
-32.5,-2.589359569950962,4.875
-60.5,1.2271846303085132,17.0625
-59.5,-0.116582539879309,-11.375
-32.5,-1.0676506283684062,5.6875
-32.5,2.552544031041707,0.0
-61.0,-1.423534171157875,4.875
-58.0,-0.03681553890925571,26.0
-32.5,-1.0615147052168634,1.625
-32.5,2.515728492132451,0.8125
-59.5,-1.3928545554001617,39.875
-60.5,0.5154175447295755,-81.375
-60.0,0.42951462060797896,-48.8125
-32.5,0.4663301595172351,0.0
-32.5,-2.534136261587079,2.4375
-61.5,1.619883712007237,56.9375
-60.5,-0.337475773334841,-24.375
-62.0,1.4051264017032472,-10.5625
-60.5,-1.5585244804918115,-3.25
-32.5,-1.1412817061869167,5.6875
-32.5,2.5402721847386216,-0.8125
-59.0,-1.000155473701438,-31.6875
-60.0,-0.03681553890925526,-37.375
-60.0,-0.09817477042468115,-21.125
-32.5,1.1351457830353744,1.625
-32.0,-2.5280003384355365,1.625
-60.5,1.2578642460662257,-56.9375
-32.0,-1.2640001692177685,0.0
-32.5,2.5402721847386216,2.4375
-59.0,-1.1535535524900018,-29.25
-60.5,0.6810874698212244,-6.5
-60.5,-0.8651651643675016,-17.0625
-32.5,1.3437671701878222,0.8125
-32.0,-2.570951800496335,4.0625
-58.5,1.086058397823034,26.0
-61.5,0.8406214717613314,10.5625
-60.0,-0.8283496254582463,18.6875
-32.0,-1.0983302441261191,2.4375
-32.5,2.5832236467994196,-1.625
-60.0,-1.325359400733194,17.0625
-61.0,0.018407769454627854,-24.375
-61.0,1.2885438618239382,2.4375
-59.5,-1.000155473701438,-26.8125
-32.5,0.9878836273983533,2.4375
-32.0,-2.521864415283994,-2.4375
-60.5,1.0983302441261191,38.1875
-32.0,-1.129009859883832,2.4375
-32.5,2.570951800496335,0.0
-59.5,-1.3314953238847371,-21.125
-59.5,0.2638446955163305,-15.4375
-32.0,-1.5094370952794711,4.875
-32.5,2.55867995419325,1.625
-60.5,-1.3437671701878218,-22.75
-58.5,-0.09203884727313838,37.375
-59.5,1.2578642460662257,17.875
-32.0,-2.3807381827985155,2.4375
-32.5,2.564815877344792,0.8125
-59.5,-0.9817477042468101,-48.8125
-60.0,-0.28225246497095835,-5.6875
-32.0,-1.294679784975481,2.4375
-32.5,2.5586799541932495,0.0
-59.0,-1.0983302441261191,-30.875
-32.0,-1.4296700943094174,1.625
-32.5,2.521864415283994,0.0
-58.0,-1.1658253987930873,-2.4375
-61.5,0.6442719309119687,-15.4375
-32.5,0.527689391032661,0.8125
-32.0,-2.5280003384355365,2.4375
-61.5,1.1719613219446297,26.8125
-60.5,0.4049709280018092,-36.5625
-60.0,0.10431069357622391,43.125
-32.5,0.8344855486097882,0.0
-32.0,-2.503456645829366,2.4375
-61.0,1.1658253987930873,11.375
-63.0,0.4540583132141496,27.625
-60.0,-0.3865631585471814,21.125
-32.5,1.2701360923693104,0.8125
-32.0,-2.503456645829366,5.6875
-59.5,1.4296700943094174,-34.125
-58.5,-0.03681553890925526,-22.75
-32.0,-1.3621749396424492,2.4375
-32.5,2.4666411069201106,-0.8125
-59.0,-1.3989904785517044,10.5625
-61.0,0.12271846303085132,24.375
-33.0,1.2701360923693108,0.8125
-32.0,-2.472777030071654,4.875
-60.0,1.4603497100671308,-71.5625
-60.0,0.11044661672776579,49.625
-58.5,-0.0674951546669682,-65.875
-32.0,-1.4726215563702154,0.0
-32.5,2.4298255680108554,2.4375
-59.0,-1.251728322914683,5.6875
-60.0,-0.1349903093339364,4.875
-32.0,-1.030835089459151,-0.8125
-33.0,2.4236896448593135,1.625
-59.0,-1.1842331682477152,-20.3125
-61.0,-0.03067961575771294,-14.625
-33.0,1.2026409377023426,1.625
-32.5,-2.4175537217077703,2.4375
-59.0,1.2578642460662257,-13.8125
-62.0,-0.3190680038802136,1.625
-61.0,0.8774370106705867,0.0
-32.5,0.6013204688511715,1.625
-32.0,-2.399145952253143,1.625
-59.5,1.1228739367322893,-17.0625
-60.0,0.3558835427894689,-43.9375
-62.0,1.1474176293384595,-38.1875
-60.5,-1.6873788666742051,0.8125
-59.5,0.5767767762450009,-53.6875
-32.0,-1.5094370952794707,1.625
-33.0,2.3807381827985155,4.875
-32.0,-2.3868741059500582,1.625
-59.0,1.1106020904292042,0.0
-32.5,1.294679784975481,1.625
-59.0,-0.7179030087304801,26.0
-59.0,-0.7669903939428204,29.25
-33.0,1.4910293258248437,1.625
-32.0,-2.3991459522531433,0.8125
-61.5,1.2762720155208536,-41.5
-59.0,-0.1349903093339364,6.5
-32.0,-1.1474176293384595,1.625
-33.0,2.3991459522531424,1.625
-59.5,-1.5339807878856409,6.5
-58.0,0.2699806186678728,2.4375
-62.0,0.018407769454627854,11.375
-32.5,1.2455923997631402,1.625
-32.0,-2.4114177985562275,2.4375
-60.0,0.926524395882927,25.1875
-32.0,-0.9019807032767568,0.0
-33.0,2.399145952253143,-0.8125
-60.5,-1.012427320004523,-65.875
-58.5,-0.15953400194010703,-26.8125
-32.0,-1.2333205534600555,1.625
-33.0,2.3991459522531433,0.0
-62.0,-1.5033011721279288,36.5625
-58.5,0.28838838812250067,-15.4375
-61.5,0.3742913122440963,34.125
-33.0,0.8344855486097886,0.0
-60.0,-1.0676506283684057,-37.375
-32.0,-1.3130875544301088,0.0
-59.5,1.0308350894591505,-25.1875
-32.5,1.3437671701878218,1.625
-32.0,-2.350058567040802,-4.875
-61.0,0.9142525495798419,19.5
-60.0,0.04295146206079803,18.6875
-32.5,1.3867186322486198,0.8125
-32.0,-2.356194490192345,-1.625
-60.0,1.1658253987930873,-16.25
-60.0,0.2699806186678728,-53.6875
-32.5,0.9203884727313847,0.8125
-32.0,-2.356194490192345,0.0
-59.0,1.2762720155208531,-52.875
-59.5,0.049087385212340795,-30.875
-32.0,-1.3314953238847367,5.6875
-33.0,2.36846633649543,0.0
-58.5,-1.1535535524900022,-16.25
-58.5,-0.12271846303085132,-34.125
-32.0,-1.0737865515199485,2.4375
-32.5,2.3377867207377174,0.8125
-59.5,-1.0185632431560663,-17.0625
-59.5,0.2024854640009046,-90.3125
-32.0,-1.5033011721279284,0.0
-32.5,2.31937895128309,0.0
-60.5,-0.7240389318820233,4.875
-58.5,-0.4172427743048943,8.9375
-62.0,-0.15339807878856382,-24.375
-32.0,-1.0185632431560658,0.8125
-33.0,2.3193789512830896,-1.625
-59.0,-1.2701360923693112,12.1875
-61.0,-0.177941771394734,7.3125
-60.5,0.8283496254582459,12.1875
-32.0,-1.6873788666742051,1.625
-33.0,2.294835258676919,0.0
-60.0,-1.5217089415825558,42.3125
-60.0,0.5706408530934586,-27.625
-31.5,-1.337631247036279,1.625
-33.0,2.2948352586769194,0.0
-58.5,-1.245592399763141,-1.625
-61.5,0.06135923151542588,-41.5
-31.5,-1.0983302441261191,2.4375
-33.0,2.276427489222291,-0.8125
-58.5,-1.306951631278566,19.5
-61.5,-0.19021361769781953,31.6875
-61.0,0.7669903939428204,11.375
-31.5,-1.5278448647340985,1.625
-33.0,2.239611950313036,0.8125
-59.5,-1.2455923997631402,9.75
-63.0,0.20862138715244694,86.25
-61.0,-0.4479223900626068,24.375
-58.0,0.34361169648638334,-33.3125
-33.0,1.1412817061869167,1.625
-31.5,-2.2150682577068657,0.8125
-59.5,0.9633399347921827,-24.375
-61.0,0.7853981633974487,-34.9375
-33.0,0.4601942363656919,0.8125
-31.5,-2.2212041808584084,4.875
-60.5,1.8285050991596847,-43.125
-61.0,-0.5951845456996292,-30.875
-59.0,-0.2270291566070748,17.875
-31.5,-0.9756117810952678,0.0
-33.0,2.1905245651006955,0.8125
-59.0,-1.5339807878856409,61.8125
-61.0,0.9142525495798424,16.25
-58.5,-0.4479223900626077,-51.25
-33.0,1.0799224746714917,-2.4375
-31.5,-2.1537090261914402,-4.0625
-61.5,0.8528933180644165,-17.875
-59.5,-0.02454369260617062,13.8125
-31.5,-0.8406214717613314,1.625
-33.5,2.1353012567368124,0.8125
-59.5,-1.0615147052168634,9.75
-61.0,-0.39269908169872414,-28.4375
-33.0,1.4542137869155876,-0.8125
-31.5,-2.0862138715244716,4.0625
-58.0,1.1535535524900022,-36.5625
-61.0,0.03681553890925526,43.9375
-62.0,-0.3190680038802136,-1.625
-58.0,0.22702915660707523,-12.1875
-31.5,-1.1106020904292042,7.3125
-33.0,2.0923497946760143,-0.8125
-62.0,-1.368310862793992,1.625
-33.0,1.349903093339364,2.4375
-31.0,-2.000310947402876,-0.8125
-59.0,0.8406214717613314,18.6875
-58.5,-0.1349903093339364,-8.9375
-33.0,1.3008157081270242,-0.8125
-31.0,-2.0125827937059615,2.4375
-59.5,1.0185632431560654,-14.625
-61.5,-0.6504078540635114,65.875
-61.0,0.20862138715244694,10.5625
-33.0,1.4296700943094174,-3.25
-31.0,-1.93895171588745,2.4375
-60.0,0.8651651643675016,1.625
-31.0,-0.8651651643675016,4.875
-33.0,1.9205439464328222,-0.8125
-59.0,-1.1167380135807465,-17.875
-60.0,0.44178646691106493,6.5
-60.5,-0.11044661672776623,-53.6875
-62.0,1.1658253987930869,-19.5
-33.0,-0.41110685115335155,0.8125
-31.5,-1.8285050991596843,5.6875
-59.5,1.0062913968529807,-41.5
-62.0,-0.294524311274043,-43.125
-61.5,1.589204096249524,-39.875
-60.5,-0.969475857943725,7.3125
-31.0,-1.2333205534600555,1.625
-33.0,1.7119225592803753,-0.8125
-58.0,-0.8651651643675016,-44.75
-60.5,-0.14112623248547873,-43.125
-31.0,-0.6810874698212248,4.875
-33.0,1.644427404613407,0.8125
-59.0,-1.1044661672776614,18.6875
-58.5,0.049087385212340795,0.8125
-31.0,-0.5645049299419163,0.8125
-33.0,1.619883712007237,1.625
-59.5,-0.9142525495798419,-3.25
-61.5,-0.30066023442558576,12.1875
-31.0,-0.4049709280018092,4.0625
-33.0,1.6260196351587801,0.0
-59.5,-1.0615147052168639,-23.5625
-61.5,-0.03067961575771294,6.5
-31.0,-0.5338253141842033,2.4375
-33.0,1.6260196351587801,0.0
-60.0,-1.0676506283684066,-40.6875
-59.5,0.7853981633974483,-26.8125
-31.5,-1.3560390164909069,5.6875
-59.0,1.0615147052168639,-99.25
-33.0,0.5645049299419158,0.8125
-62.0,-0.3558835427894689,11.375
-59.0,-0.5829126993965437,-23.5625
-33.0,0.9326603190344702,3.25
-31.0,-1.6076118657041523,1.625
-62.0,1.3376312470362794,-19.5
-60.5,-1.202640937702343,43.125
-58.5,0.3313398501832987,18.6875
-31.0,-0.4663301595172351,0.8125
-33.0,1.619883712007237,0.0
-60.0,-0.9633399347921823,-32.5
-59.5,-0.1288543861823941,-14.625
-61.5,0.6442719309119691,5.6875
-31.0,-1.1719613219446297,1.625
-33.0,1.6137477888556946,0.8125
-59.5,-1.1719613219446297,20.3125
-59.5,0.5338253141842029,-63.4375
-33.0,0.6258641614573421,0.8125
-31.0,-1.5892040962495249,5.6875
-62.0,0.15953400194010703,58.5625
-58.5,0.27611654181941514,15.4375
-31.0,-0.43565054375952217,6.5
-33.0,1.5646604036433538,3.25
-60.5,-0.9326603190344693,-16.25
-61.5,-0.2147573103039897,-2.4375
-31.0,-0.39269908169872414,6.5
-33.0,1.5462526341887264,0.8125
-58.5,-0.8467573949128742,-17.875
-61.5,-0.3436116964863838,-8.9375
-31.5,-0.337475773334841,4.875
-33.0,1.5339807878856413,0.0
-60.5,-0.8774370106705867,-29.25
-62.5,-0.6381360077604268,58.5625
-63.5,1.2026409377023426,-8.9375
-31.5,-1.1903690913992575,0.0
-32.5,1.497165248976386,0.0
-58.5,-1.0921943209745768,2.4375
-60.5,-0.4908738521234053,55.3125
-31.5,0.09817477042468115,1.625
-33.0,1.4480778637640452,3.25
-59.0,-0.8099418560036185,-49.625
-59.0,-0.09817477042468115,-12.1875
-31.5,-0.5276893910326605,2.4375
-33.0,1.4603497100671303,1.625
-60.5,-1.1842331682477147,23.5625
-59.5,0.17794177139473444,37.375
-31.5,-0.4049709280018092,-2.4375
-33.0,1.4051264017032472,-0.8125
-59.0,-1.0492428589137788,-4.875
-60.0,1.2946797849754814,-4.875
-59.5,-1.0062913968529807,-65.875
-31.5,-0.6135923151542566,-0.8125
-33.0,1.3560390164909069,0.8125
-61.5,-1.030835089459151,-26.0
-59.0,-0.06135923151542544,15.4375
-59.5,1.3560390164909069,19.5
-31.5,-1.5953400194010672,1.625
-33.0,1.3130875544301088,0.0
-60.5,-1.1228739367322893,16.25
-60.0,0.21475731030399015,24.375
-32.5,0.8958447801252145,0.8125
-31.5,-1.2578642460662262,0.8125
-58.5,0.5338253141842033,-44.75
-60.5,-0.45405831321415,10.5625
-31.5,-0.012271846303085088,-0.8125
-32.5,1.17196132194463,0.0
-61.5,-0.8528933180644165,-52.875
-59.0,-0.14112623248547917,1.625
-31.5,-0.17180584824319167,1.625
-32.5,1.1535535524900018,0.8125
-61.5,-1.3314953238847362,28.4375
-59.5,0.46019423636569234,4.875
-32.5,0.8528933180644169,0.8125
-31.5,-1.0799224746714917,2.4375
-58.5,-0.38042723539563905,68.3125
-59.0,0.6810874698212248,2.4375
-31.0,-0.2638446955163305,2.4375
-33.0,1.0246991663076086,0.0
-58.0,-0.8897088569736722,0.0
-61.0,-0.14112623248547873,11.375
-31.0,0.06135923151542544,0.8125
-61.0,0.06135923151542544,-54.5
-33.0,0.8774370106705867,2.4375
-58.5,-0.6197282383057989,-47.1875
-31.0,-0.3067961575771281,5.6875
-32.5,0.9387962421860125,-1.625
-60.0,-0.8774370106705867,11.375
-60.0,0.2024854640009046,-58.5625
-31.5,-0.1963495408493623,2.4375
-33.0,0.840621471761331,2.4375
-60.0,-1.190369091399257,32.5
-58.5,0.9019807032767573,-67.5
-59.0,0.7056311624273945,16.25
-33.0,-0.41110685115335155,-0.8125
-31.0,-0.8283496254582463,2.4375
-59.0,0.030679615757712497,-16.25
-59.0,0.32520392703175593,-95.1875
-59.5,1.1780972450961724,-34.125
-31.5,-1.4787574795217577,-2.4375
-32.5,0.748582624488193,1.625
-58.5,-0.6258641614573417,-35.75
-60.0,-0.5460971604872884,43.125
-31.0,0.4233786974564371,1.625
-33.0,0.748582624488193,-2.4375
-61.5,-0.779262240245906,-32.5
-59.0,-0.17180584824319167,3.25
-60.5,-0.07363107781851097,-19.5
-33.0,1.0001554737014384,0.0
-31.0,-0.6626797003665974,0.8125
-58.5,-0.0674951546669682,-13.8125
-33.0,0.7240389318820224,-1.625
-31.5,-0.6074563920027138,-1.625
-59.5,-0.0674951546669682,4.875
-62.5,-0.17180584824319167,13.8125
-31.5,0.2515728492132454,4.875
-32.5,0.589048622548086,-3.25
-60.0,-1.2026409377023426,52.875
-31.5,0.6933593161243099,-0.8125
-32.5,0.49087385212340484,-2.4375
-58.0,-0.9203884727313847,-0.8125
-31.5,0.46019423636569234,1.625
-32.5,0.4172427743048943,0.8125
-59.0,-0.7547185476397353,16.25
-61.0,-0.19634954084936185,-16.25
-32.5,0.9572040116406404,-1.625
-32.0,-0.3558835427894693,-1.625
-58.0,-0.15953400194010658,-27.625
-58.0,-0.25157284921324496,-17.0625
-32.5,0.748582624488193,0.0
-60.0,-0.8406214717613314,-14.625
-32.0,0.558369006790373,-4.0625
-57.0,-0.47246608266877743,2.4375
-32.0,0.4847379289718625,-4.0625
-32.0,0.26998061866787326,-2.4375
-59.0,-0.9142525495798424,-0.8125
-58.5,0.25157284921324496,3.25
-32.0,0.37429131224409673,2.4375
-32.5,0.294524311274043,-5.6875
-58.0,-0.7669903939428204,15.4375
-32.0,0.5215534678811178,-1.625
-32.0,0.2331650797586171,-2.4375
-58.5,-0.7424467013366498,-36.5625
-60.0,0.9510680884890976,-26.0
-32.5,-0.22089323345553247,-1.625
-32.0,-0.2024854640009046,-0.8125
-60.0,-0.44792239006260726,-25.1875
-58.0,0.12271846303085132,-27.625
-58.0,0.10431069357622347,-36.5625
-32.0,0.23316507975861755,-1.625
-32.0,0.19021361769781953,-2.4375
-59.0,-0.8406214717613314,-9.75
-32.0,0.662679700366597,-1.625
-32.0,0.17794177139473444,-4.875
-59.0,-0.6197282383057989,-18.6875
-57.0,0.06135923151542544,-42.3125
-32.0,0.41724277430489476,-4.0625
-32.5,0.11044661672776623,1.625
-59.0,-0.5951845456996292,-27.625
-60.5,-0.10431069357622347,17.0625
-32.0,0.5829126993965432,-1.625
-32.5,0.1349903093339364,-1.625
-60.0,-0.7731263170943627,-8.125
-58.0,0.14112623248547873,-10.5625
-59.0,1.159689475641545,-5.6875
-61.5,-1.3008157081270237,-32.5
-32.0,0.6810874698212244,-0.8125
-32.5,0.07976700097005374,-2.4375
-58.5,-0.6810874698212248,8.125
-32.5,0.6074563920027143,-1.625
-32.0,0.07976700097005285,-1.625
-61.0,-1.0246991663076082,12.1875
-32.0,0.9633399347921823,-1.625
-32.5,0.04908738521234124,-1.625
-60.0,-0.6749515466696825,-34.9375
-59.5,0.19021361769781953,-25.1875
-32.0,0.44792239006260726,0.0
-61.5,-0.8528933180644165,21.125
-32.0,0.8958447801252145,-2.4375
-32.0,-0.006135923151542322,-0.8125
-32.0,-0.00613592315154321,-1.625
-58.5,-0.42337869745643664,-43.125
-60.5,-0.31293208072867085,-10.5625
-32.5,0.7669903939428209,-0.8125
-32.0,-0.03681553890925571,0.0
-59.0,-0.5767767762450009,-19.5
-57.0,-0.049087385212340795,-18.6875
-58.5,-0.11658253987930856,10.5625
-59.0,0.19021361769781953,-42.3125
-32.5,0.5890486225480864,0.0
-32.0,-0.03681553890925571,-0.8125
-32.0,0.04908738521234035,0.8125
-32.0,-0.0674951546669682,0.8125
-60.0,-0.5951845456996288,-38.1875
-59.5,0.006135923151542766,-4.875
-32.0,0.6013204688511715,-1.625
-32.5,0.09203884727313838,-1.625
-57.0,-0.791534086548991,-2.4375
-58.5,-0.2822524649709579,33.3125
-32.0,0.9878836273983529,-2.4375
-32.5,0.08590292412159606,0.8125
-57.5,-0.10431069357622391,-79.75
-59.5,-0.39269908169872414,-45.5625
-32.5,0.5215534678811182,-0.8125
-32.0,-0.11044661672776623,-3.25
-60.5,-1.012427320004523,55.3125
-32.5,1.135145783035374,-1.625
-32.0,-0.1349903093339364,-1.625
-60.5,-1.0246991663076077,6.5
-32.5,1.1658253987930873,0.0
-32.0,-0.1349903093339364,-1.625
-57.5,-0.5706408530934586,-21.125
-61.0,-0.22089323345553247,8.125
-32.5,0.9449321653375553,0.8125
-32.0,-0.15339807878856426,-3.25
-57.5,-0.6810874698212248,13.8125
-60.5,-0.0674951546669682,26.0
-58.0,0.16566992509164935,-10.5625
-33.0,0.7547185476397349,2.4375
-32.0,-0.1963495408493614,0.0
-59.5,-0.9633399347921832,29.25
-31.5,0.9756117810952678,-0.8125
-59.5,-0.8038059328520757,16.25
-33.0,1.0308350894591505,0.0
-58.0,-0.546097160487288,-34.125
-58.0,-0.1288543861823941,-13.8125
-31.5,0.4540583132141496,-3.25
-33.0,0.233165079758618,0.0
-59.5,-1.043106935762236,-6.5
-31.5,0.7792622402459055,0.8125
-33.0,0.2638446955163305,-0.8125
-58.0,-1.012427320004523,20.3125
-31.5,0.7608544707912781,0.0
-33.0,0.2699806186678728,-0.8125
-59.0,-0.748582624488193,-14.625
-31.5,0.49087385212340484,-2.4375
-33.0,0.24543692606170264,0.8125
-59.5,-1.337631247036279,61.0
-58.5,0.5951845456996288,-7.3125
-33.0,0.7669903939428204,-1.625
-31.5,-0.28838838812250067,0.0
-59.5,-0.7117670855789373,21.125
-32.0,0.7117670855789373,-1.625
-33.0,0.28225246497095835,0.0
-59.0,-0.5399612373357456,-52.0625
-59.5,-0.779262240245906,30.875
-58.5,0.5031456984264904,-30.875
-31.5,0.5460971604872884,-2.4375
-33.0,0.27611654181941514,-0.8125
-58.0,-1.0492428589137783,10.5625
-32.0,0.7547185476397353,-1.625
-33.0,0.28838838812250067,0.0
-58.0,-0.6197282383057989,-34.125
-33.0,0.6442719309119691,0.0
-31.5,-0.3067961575771285,0.0
-57.5,-0.4049709280018088,-37.375
-32.0,0.411106851153352,-2.4375
-33.0,0.30679615757712764,0.8125
-58.0,-0.7301748550335647,-27.625
-58.0,-0.10431069357622391,-43.9375
-33.5,0.8774370106705867,-0.8125
-32.0,-0.34361169648638334,-4.875
-58.0,-0.6258641614573417,-26.8125
-60.0,0.2699806186678728,-40.6875
-33.5,0.6994952392758522,0.8125
-31.5,-0.3620194659410112,-0.8125
-58.5,-0.6381360077604268,15.4375
-59.5,0.1963495408493623,-61.0
-33.0,0.852893318064416,-1.625
-32.0,-0.398835004850266,-3.25
-58.5,-0.5460971604872884,-3.25
-60.0,-0.1349903093339364,0.8125
-59.0,1.3928545554001617,-6.5
-31.5,-0.7240389318820224,-1.625
-58.5,-0.39269908169872414,-38.1875
-33.0,0.8406214717613314,-2.4375
-59.5,-0.7363107781851075,-46.375
-32.0,0.29452431127404255,-4.875
-33.0,0.4601942363656928,1.625
-59.0,-0.8774370106705867,-19.5
-60.0,-0.40497092800180967,0.8125
-32.0,0.8160777791551612,-4.875
-33.5,0.5092816215780331,-4.875
-33.5,-0.012271846303085532,-1.625
-32.0,-0.5092816215780323,-0.8125
-33.5,0.5092816215780323,1.625
-31.5,-0.4970097752749476,-2.4375
-33.0,0.546097160487288,-4.0625
-32.0,-0.5522330836388303,-1.625
-58.0,-0.3988350048502669,-34.125
-31.5,0.3988350048502669,-4.875
-33.5,0.5522330836388303,-4.0625
-58.5,-0.9387962421860121,-37.375
-33.5,0.9510680884890976,0.0
-31.5,-0.5522330836388312,-6.5
-57.5,-0.5951845456996283,1.625
-59.0,0.17180584824319167,-33.3125
-33.0,0.9940195505498957,-0.8125
-31.5,-0.5829126993965437,-2.4375
-58.5,-0.2699806186678728,-27.625
-59.5,-0.23316507975861755,-36.5625
-33.0,1.0921943209745764,-0.8125
-31.5,-0.5951845456996283,-2.4375
-32.0,0.0,-3.25
-33.0,0.6013204688511706,-2.4375
-33.0,0.00613592315154321,0.8125
-32.0,-0.6197282383057994,-0.8125
-58.5,-0.14112623248547917,-41.5
-59.0,-0.4970097752749476,17.0625
-31.5,0.662679700366597,-5.6875
-33.0,0.6074563920027138,0.0
-60.5,-1.043106935762236,-37.375
-58.5,-0.07363107781851053,-10.5625
-32.0,0.5031456984264904,-3.25
-33.0,0.6135923151542562,-0.8125
-58.0,-1.2149127840054277,27.625
-59.0,0.08590292412159606,-60.1875
-32.0,0.5031456984264899,-2.4375
-32.5,0.6381360077604272,-0.8125
-57.5,-1.030835089459151,-23.5625
-32.0,0.3988350048502669,-4.875
-32.5,0.6381360077604263,0.8125
-58.0,-1.055378782065321,-35.75
-32.0,0.3926990816987237,0.0
-32.5,0.6749515466696829,-1.625
-58.0,-1.2946797849754814,1.625
-32.5,1.2946797849754814,0.0
-32.0,-0.6626797003665974,-2.4375
-60.0,-0.6197282383057989,-41.5
-32.5,1.2824079386723963,0.0
-32.0,-0.6442719309119695,-5.6875
-60.5,-0.6688156235181397,-30.875
-32.0,0.6258641614573417,0.8125
-32.5,0.6933593161243099,-0.8125
-60.0,-1.159689475641545,-27.625
-32.5,1.159689475641545,0.0
-32.0,-0.6688156235181397,-1.625
-58.0,-0.5645049299419158,-47.1875
-32.5,1.22104870715697,1.625
-32.0,-0.6565437772150542,-0.8125
-59.0,-0.39269908169872414,-69.125
-32.5,1.0676506283684062,0.0
-31.5,-0.6810874698212244,-1.625
-58.5,-0.3988350048502669,-53.6875
-32.5,1.073786551519949,0.0
-31.5,-0.674951546669682,-1.625
-59.0,-0.5031456984264904,-48.8125
-32.0,0.5031456984264904,-1.625
-32.0,0.6626797003665965,2.4375
-58.5,-1.6935147898257474,38.1875
-57.0,0.6258641614573413,-14.625
-32.0,0.39883500485026646,-1.625
-32.0,0.7117670855789378,-2.4375
-59.5,-1.380582709097077,27.625
-60.0,0.30066023442558576,-25.1875
-32.0,1.055378782065321,0.8125
-32.0,-0.6872233929727676,-0.8125
-59.5,-0.5522330836388303,-1.625
-62.0,-0.10431069357622391,17.0625
-61.0,0.9142525495798424,7.3125
-63.0,1.9634954084936203,34.9375
-31.5,-1.5523885573402687,-0.8125
-59.5,-1.1535535524900018,-15.4375
-32.0,0.4601942363656919,2.4375
-62.0,0.9817477042468106,-8.9375
-61.5,-1.8469128686143117,27.625
-62.5,0.9878836273983529,0.8125
-63.0,-3.429981041712294,-140.75
-62.5,4.755340442445488,115.5
-59.5,-1.9512235621905356,-13.8125
-31.5,0.5215534678811178,-0.8125
-58.5,-0.558369006790373,2.4375
-31.5,1.190369091399257,4.875
-63.0,0.07976700097005374,12.1875
-62.5,-0.6013204688511715,4.875
-31.5,-0.1349903093339364,2.4375
-31.5,0.6872233929727676,-1.625
-57.5,-1.454213786915588,57.75
-60.5,-0.012271846303085088,26.0
-60.5,1.2026409377023426,-28.4375
-63.0,-4.289010282928253,-0.8125
-31.5,4.52217536268687,4.0625
-32.0,-0.6381360077604263,-0.8125
-60.0,-0.9449321653375549,34.125
-61.5,1.1474176293384595,6.5
-59.5,-0.4417864669110645,-44.75
-63.5,2.478912953223196,25.1875
-31.0,-1.5892040962495244,0.0
-58.5,-1.0799224746714913,-14.625
-32.0,0.4233786974564371,0.8125
-59.5,0.0981747704246807,-0.8125
-61.0,-0.6994952392758522,-22.75
-63.0,-3.2520392703175593,-6.5
-61.5,4.571262747899211,20.3125
-60.0,-1.190369091399258,-7.3125
-31.5,1.1351457830353744,-4.875
-32.0,-0.674951546669682,1.625
-61.5,-0.7608544707912781,28.4375
-60.0,0.5890486225480864,52.875
-61.5,0.6565437772150546,43.9375
-63.0,1.4173982480063323,40.6875
-32.0,-1.8898643306751097,1.625
-31.0,0.632000084608884,-4.0625
-59.0,-0.791534086548991,-47.1875
-60.0,-0.39883500485026646,-8.9375
-64.0,2.63231103201176,43.9375
-60.0,-1.9205439464328231,-3.25
-32.0,-0.17794177139473355,3.25
-30.5,0.6442719309119687,-4.0625
-61.0,-1.349903093339364,5.6875
-59.0,-0.25157284921324496,74.8125
-62.5,1.1412817061869172,1.625
-63.5,-4.166291819897402,-0.8125
-32.0,4.006757817957295,0.0
-30.5,0.6074563920027138,-0.8125
-57.5,-1.5033011721279288,63.4375
-60.5,-0.012271846303085088,12.1875
-64.0,3.117048960983623,3.25
-61.0,-2.2518837966161214,24.375
-31.5,0.049087385212340795,-0.8125
-30.5,0.5951845456996283,-4.875
-60.5,-1.1167380135807465,4.875
-59.5,-0.12271846303085132,0.0
-61.5,0.5767767762450013,15.4375
-63.5,1.9512235621905356,36.5625
-61.0,-1.0185632431560663,-17.875
-30.0,-0.31906800388021317,-1.625
-32.0,-0.5522330836388303,0.8125
-61.0,-0.6994952392758527,8.9375
-58.5,0.07976700097005329,5.6875
-62.0,1.1351457830353748,53.6875
-63.5,0.9081166264282992,126.9375
-61.5,-1.0799224746714913,-29.25
-29.0,0.15339807878856426,0.8125
-32.0,-0.4908738521234053,0.8125
-58.5,-0.5092816215780331,-36.5625
-58.5,0.16566992509164935,-80.5625
-61.5,0.2822524649709579,26.0
-61.0,-0.31906800388021317,-64.25
-32.5,0.38042723539563905,1.625
-29.0,0.47860200582031975,-2.4375
-59.0,-0.8160777791551608,-31.6875
-61.0,-0.6013204688511715,23.5625
-63.0,1.055378782065321,3.25
-63.0,1.5462526341887264,78.0625
-29.0,-1.22104870715697,1.625
-61.5,0.2638446955163296,5.6875
-32.5,-0.6933593161243099,-0.8125
-61.0,-0.5767767762450005,-27.625
-59.5,0.06135923151542544,-4.875
-59.5,0.6074563920027143,-2.4375
-63.5,-4.0987966652304335,20.3125
-29.0,4.430136515413731,1.625
-32.0,-0.4295146206079794,0.8125
-59.0,-0.7301748550335652,28.4375
-61.0,0.17180584824319212,3.25
-64.0,-3.3440781175906977,-34.125
-62.0,5.013049214810276,-67.5
-62.0,-1.1044661672776623,17.0625
-28.5,0.3926990816987246,1.625
-32.0,-0.3926990816987246,-2.4375
-61.0,-0.15339807878856382,23.5625
-60.0,-0.3497476196379261,-12.1875
-60.5,-0.17794177139473444,16.25
-59.5,1.4051264017032477,9.75
-63.0,1.2149127840054277,34.125
-32.0,-1.9328157927359078,-1.625
-28.5,0.3558835427894689,1.625
-60.0,0.41110685115335155,-9.75
-58.5,-1.3437671701878218,26.0
-60.5,-0.2822524649709579,9.75
-62.5,2.5464081078901644,83.0
-59.5,-1.5707963267948966,10.5625
-28.5,0.2270291566070748,-0.8125
-32.0,-0.337475773334841,-0.8125
-59.5,-0.2822524649709579,-45.5625
-59.5,-0.43565054375952217,-31.6875
-58.5,0.09203884727313838,5.6875
-32.5,0.6197282383057994,1.625
-28.5,0.3006602344255853,0.8125
-60.0,-0.9449321653375549,-34.125
-28.5,0.9387962421860125,-0.8125
-32.5,-0.3067961575771285,2.4375
-60.0,-0.5154175447295755,-4.875
-60.5,0.07363107781851097,-71.5625
-60.5,0.5890486225480864,-11.375
-64.0,1.9328157927359078,-30.875
-28.0,-1.7794177139473435,-0.8125
-32.0,-0.27611654181941603,-0.8125
-58.0,-0.8344855486097886,40.6875
-60.5,-0.11658253987930856,10.5625
-61.0,1.1535535524900018,-7.3125
-63.0,-3.6815538909255388,-51.25
-28.0,3.712233506683252,0.0
-32.0,-0.24543692606170264,1.625
-60.0,-0.7301748550335656,35.75
-62.0,2.699806186678729,40.6875
-62.0,-2.6507188014663883,19.5
-28.0,0.9142525495798419,0.8125
-32.0,-0.2270291566070748,0.8125
-60.5,-0.47246608266877743,-49.625
-60.0,-0.25157284921324496,37.375
-62.5,2.718213956133356,43.125
-64.0,-1.3928545554001621,7.3125
-59.5,-1.2087768608538854,22.75
-28.0,0.8038059328520761,-1.625
-32.5,-0.19021361769781997,0.8125
-62.5,-0.7485826244881926,52.875
-63.5,2.693670263527186,26.0
-61.5,-2.086213871524472,45.5625
-61.0,1.116738013580747,-24.375
-27.5,-0.8283496254582463,-1.625
-32.0,-0.12271846303085177,-1.625
-61.0,2.0555342557667595,34.125
-59.0,-2.6998061866787286,17.875
-61.0,-0.1472621556370215,10.5625
-63.0,0.5276893910326605,58.5625
-62.5,1.423534171157875,-76.4375
-27.5,-1.0921943209745768,-1.625
-32.0,-0.05522330836388267,1.625
-58.5,-0.5767767762450013,-9.75
-60.5,1.030835089459151,61.8125
-60.0,-1.2885438618239387,-1.625
-62.5,-3.264311116620644,0.0
-61.0,4.147884050442774,-8.125
-27.5,-0.018407769454627854,-0.8125
-32.5,-0.030679615757712497,0.8125
-58.5,-0.337475773334841,-26.0
-60.0,-0.46019423636569234,7.3125
-62.5,2.4605051837685683,60.1875
-63.5,-0.9019807032767568,-30.875
-62.0,-0.9817477042468106,53.6875
-27.5,0.21475731030399015,0.0
-32.5,0.012271846303084644,0.8125
-58.5,-0.5338253141842029,-21.125
-60.0,-0.116582539879309,-2.4375
-60.0,0.632000084608884,-9.75
-63.0,2.1537090261914402,43.125
-62.0,-1.3376312470362786,19.5
-32.5,-0.7915340865489915,1.625
-27.5,-0.024543692606170175,-2.4375
-59.0,-0.3742913122440963,-39.875
-63.5,2.4911847995262817,73.1875
-59.5,-2.043262409463674,-1.625
-60.5,-0.6626797003665974,8.9375
-62.5,1.349903093339364,45.5625
-32.5,-0.7363107781851079,0.0
-27.5,-0.061359231515424995,-1.625
-63.5,-3.6876898140770815,-74.8125
-62.5,4.399456899656019,17.0625
-62.0,-0.6626797003665965,38.1875
-60.0,-0.5215534678811182,2.4375
-60.5,-0.46633015951723467,24.375
-27.5,0.9142525495798424,-0.8125
-32.5,0.0981747704246807,0.0
-58.5,-0.6197282383057989,-11.375
-61.0,-0.3313398501832987,27.625
-63.0,-2.8654761117703775,-27.625
-59.5,3.7122335066832512,21.125
-61.0,0.5829126993965437,23.5625
-27.5,-0.6135923151542562,-1.625
-32.5,0.11658253987930856,4.875
-60.5,-0.7363107781851075,2.4375
-58.5,-0.03681553890925526,25.1875
-62.5,1.0983302441261191,-33.3125
-63.0,1.558524480491811,51.25
-59.5,-1.0492428589137788,-0.8125
-27.5,-1.0124273200045226,-0.8125
-32.5,0.20862138715244738,0.8125
-59.5,-0.8590292412159592,-3.25
-58.0,-0.049087385212340795,33.3125
-27.5,0.6258641614573417,-0.8125
-33.0,0.31906800388021317,0.8125
-58.5,-0.7547185476397353,-3.25
-60.5,-0.46633015951723467,43.125
-27.5,0.8651651643675016,0.8125
-32.5,0.3742913122440963,-1.625
-59.5,-0.9265243958829275,12.1875
-58.5,0.2638446955163305,-22.75
-62.5,-3.393165502803038,3.25
-62.5,4.123340357836604,12.1875
-27.0,-0.5154175447295755,1.625
-33.0,0.4540583132141496,2.4375
-59.0,-0.9203884727313842,-10.5625
-59.5,0.4172427743048943,-20.3125
-63.5,2.5648158773447918,3.25
-60.0,-2.307107104980004,42.3125
-27.0,-0.2515728492132454,0.8125
-32.5,0.5215534678811178,1.625
-58.5,-0.546097160487288,-43.125
-59.0,-0.662679700366597,38.1875
-64.0,3.104777114680538,8.9375
-60.5,-2.135301256736813,51.25
-27.0,-0.294524311274043,-0.8125
-32.5,0.5399612373357461,2.4375
-64.0,-3.8165442002594756,-11.375
-59.5,2.3746022596469727,68.3125
-59.0,0.8651651643675016,-21.125
-26.5,0.006135923151542322,4.0625
-32.5,0.5829126993965437,1.625
-58.5,-0.8099418560036185,12.1875
-63.0,2.7120780329818137,85.4375
-61.5,-2.736621725587984,22.75
-27.0,0.23930100291015988,2.4375
-33.0,0.6013204688511711,1.625
-61.0,-1.1596894756415441,59.375
-63.5,3.1293208072867076,41.5
-59.0,-2.705942109830271,-15.4375
-62.0,1.4480778637640452,-20.3125
-60.5,-0.969475857943725,19.5
-27.0,-0.3558835427894689,0.8125
-32.5,0.6197282383057994,0.8125
-59.0,0.012271846303084644,-7.3125
-58.5,-0.7117670855789373,-17.875
-61.0,-0.39269908169872414,61.8125
-26.5,0.43565054375952217,2.4375
-58.5,-0.04295146206079803,8.9375
-59.0,-0.18407769454627676,1.625
-33.0,0.9019807032767573,-0.8125
-62.0,0.012271846303084644,-8.125
-26.5,-0.674951546669682,0.0
-62.5,-0.23930100291015988,38.1875
-32.5,0.8713010875190439,2.4375
-61.0,-0.5829126993965437,51.25
-59.5,-0.27611654181941514,5.6875
-63.5,2.8532042654672924,22.75
-61.5,-1.4358060174609601,-12.1875
-26.5,-1.2026409377023426,1.625
-32.5,0.6688156235181393,-0.8125
-61.5,-0.1963495408493614,20.3125
-58.0,-0.3313398501832987,-39.875
-60.0,0.969475857943725,-11.375
-60.5,-1.41126232485479,7.3125
-58.5,0.2270291566070748,-0.8125
-27.0,0.07363107781851097,0.0
-33.0,0.6442719309119691,2.4375
-60.0,-1.0246991663076082,34.9375
-61.5,0.8528933180644169,1.625
-27.0,-0.49700977527494805,4.0625
-33.0,0.6810874698212248,1.625
-60.0,-0.7669903939428209,-51.25
-59.5,-0.07976700097005329,28.4375
-62.5,2.675262494072558,63.4375
-60.0,-2.1475731030398975,41.5
-27.0,-0.3558835427894689,1.625
-61.5,-0.31906800388021317,37.375
-33.0,0.9756117810952678,6.5
-61.0,-0.1349903093339364,26.8125
-58.0,-0.8528933180644165,25.1875
-62.5,2.7673013413456964,50.4375
-26.5,-2.4298255680108554,0.0
-33.0,0.6688156235181397,0.8125
-59.0,-1.0185632431560658,8.9375
-59.0,0.20862138715244694,-3.25
-62.0,-3.1906800388021335,-31.6875
-62.0,4.049709280018092,-21.125
-27.0,-0.7179030087304801,-0.8125
-58.5,0.09203884727313838,-43.125
-32.5,0.5829126993965437,0.0
-61.0,-1.0921943209745764,28.4375
-64.0,-2.8961557275280905,-26.8125
-61.5,4.724660826687775,-37.375
-63.0,-0.7915340865489906,26.8125
-27.0,-0.6688156235181397,2.4375
-32.5,0.7424467013366502,0.8125
-59.5,-0.6688156235181397,-46.375
-59.5,-0.3067961575771281,9.75
-61.5,1.8100973297050564,-29.25
-26.5,-1.632155558310322,0.8125
-32.5,0.8038059328520757,3.25
-61.0,-0.8283496254582463,-19.5
-58.5,-0.03681553890925526,8.9375
-62.5,1.4112623248547895,-0.8125
-26.5,-1.4051264017032468,5.6875
-59.5,0.2699806186678728,-34.125
-32.5,0.589048622548086,6.5
-60.5,-1.2762720155208531,34.125
-64.0,2.810252803406494,46.375
-60.0,-1.8775924843720242,23.5625
-62.0,1.092194320974576,-16.25
-27.0,-1.6137477888556941,0.0
-33.0,0.8774370106705871,4.875
-58.5,-0.6810874698212248,-22.75
-60.5,1.4971652489763856,5.6875
-63.5,-5.006913291658733,49.625
-60.5,3.5036121195308043,-60.1875
-61.0,0.6074563920027138,8.125
-27.0,-0.8283496254582463,4.0625
-33.0,0.9081166264283,4.875
-59.0,-0.9203884727313851,4.875
-60.0,-0.1472621556370215,32.5
-27.0,0.15953400194010658,0.8125
-33.0,0.9203884727313847,2.4375
-57.5,-0.5951845456996288,-22.75
-59.5,-0.46019423636569234,4.875
-27.0,0.116582539879309,2.4375
-33.0,0.9449321653375544,2.4375
-61.0,1.6812429435226628,86.25
-59.5,-2.65685472461793,-8.9375
-60.0,0.9326603190344702,87.0625
-58.5,-0.570640853093459,-3.25
-62.0,0.41110685115335155,17.875
-32.5,0.22089323345553247,0.0
-27.0,-0.9817477042468101,1.625
-58.0,0.30066023442558576,-33.3125
-61.5,0.25157284921324496,61.0
-62.5,0.8528933180644165,37.375
-61.5,1.0369710126106932,75.625
-61.5,-2.577087723647877,0.8125
-33.0,1.0983302441261187,3.25
-27.0,-0.9817477042468097,2.4375
-61.0,-0.26998061866787326,19.5
-59.0,0.4786020058203202,-4.875
-64.0,-3.436116964863836,7.3125
-27.0,3.2152237314083036,1.625
-33.0,1.012427320004523,3.25
-57.5,-1.1106020904292038,36.5625
-60.5,-0.006135923151542766,-9.75
-27.0,0.09817477042468115,0.0
-32.5,1.0185632431560654,2.4375
-59.5,-1.1535535524900018,33.3125
-59.5,0.3742913122440963,-33.3125
-60.5,0.748582624488193,-26.0
-27.0,-1.0062913968529807,1.625
-32.5,1.055378782065321,0.8125
-58.5,-0.8222137023067035,-10.5625
-60.0,-0.2147573103039897,-2.4375
-59.5,0.018407769454627854,23.5625
-27.0,-0.049087385212340795,0.8125
-32.5,1.086058397823034,0.0
-60.0,-0.8160777791551612,-43.9375
-63.5,1.4542137869155876,-23.5625
-27.0,-1.7364662518865455,0.0
-32.5,1.0983302441261191,2.4375
-58.5,-0.6994952392758522,-27.625
-60.0,-0.2699806186678728,-18.6875
-61.0,0.3742913122440963,52.0625
-27.5,-0.5522330836388307,0.0
-33.0,1.1719613219446297,1.625
-60.0,-0.7301748550335652,-47.1875
-59.0,-0.17794177139473444,28.4375
-32.5,0.9081166264282996,3.25
-27.5,-1.2394564766115979,0.8125
-61.0,0.2699806186678728,-5.6875
-62.5,-2.859340188618835,-79.75
-59.5,2.761165418194154,17.875
-27.5,-0.23930100291015988,-4.0625
-32.5,1.3437671701878218,1.625
-59.0,-0.7853981633974487,-14.625
-64.0,-3.620194659410113,33.3125
-61.0,3.1784081924990484,1.625
-27.5,-0.1472621556370215,-2.4375
-32.5,1.380582709097077,3.25
-58.5,-0.8528933180644165,-8.9375
-62.0,1.2517283229146834,-8.9375
-60.5,-1.6566992509164926,40.6875
-27.5,-0.14112623248547917,-4.875
-32.5,1.4051264017032472,2.4375
-58.5,-0.9387962421860121,-22.75
-59.0,-0.03067961575771294,-43.125
-27.5,-0.4970097752749476,2.4375
-32.0,1.4787574795217582,1.625
-59.0,-1.1535535524900022,3.25
-62.5,0.7608544707912777,27.625
-58.5,-0.3681553890925535,0.0
-63.5,-3.4913402732277192,8.125
-27.5,2.7550294950426113,0.8125
-32.5,1.5033011721279284,1.625
-61.5,-1.000155473701438,-30.875
-62.5,-3.3379421944391554,0.0
-60.0,3.6079228131070282,-11.375
-60.5,0.3436116964863838,8.9375
-62.5,1.0001554737014375,-8.9375
-27.5,-2.1168934872821845,0.8125
-32.5,1.497165248976386,0.8125
-59.5,-1.3253594007331944,46.375
-58.5,0.1963495408493623,22.75
-62.0,-3.2397674240144743,-2.4375
-32.5,4.368777283898306,2.4375
-27.5,-1.5094370952794711,0.8125
-58.5,0.5829126993965437,17.0625
-60.5,-0.5583690067903735,66.6875
-32.5,1.4910293258248433,0.8125
-27.5,-1.5217089415825562,1.625
-59.0,0.2761165418194156,36.5625
-60.0,0.04295146206079803,10.5625
-61.5,1.380582709097077,57.75
-27.5,-1.6996507129772906,0.8125
-32.5,1.5155730184310139,2.4375
-61.5,-1.055378782065321,-6.5
-59.0,0.2024854640009046,-17.0625
-61.5,-3.583379120500858,28.4375
-32.5,4.448544284868359,-0.8125
-27.5,-1.5278448647340985,1.625
-59.0,0.6994952392758527,-30.875
-61.0,-0.44178646691106493,11.375
-61.0,0.938796242186013,-12.1875
-27.5,-1.2087768608538858,0.8125
-32.0,1.527844864734099,1.625
-61.5,-1.5339807878856413,60.1875
-57.5,0.5460971604872884,0.0
-27.5,-0.5338253141842033,-0.8125
-59.0,0.705631162427395,-2.4375
-32.5,0.8038059328520757,5.6875
-61.0,-1.2026409377023426,20.3125
-62.0,-2.2457478734645786,-101.6875
-27.5,1.9205439464328227,1.625
-32.5,1.558524480491812,0.8125
-61.0,-0.8713010875190443,-20.3125
-62.0,2.4911847995262812,30.875
-59.5,-2.485048876374739,-9.75
-61.5,0.4049709280018092,42.3125
-62.5,0.9510680884890972,-20.3125
-32.0,-0.5215534678811178,5.6875
-27.5,-1.5278448647340985,2.4375
-58.5,0.17180584824319212,65.875
-60.5,0.3497476196379261,11.375
-62.0,2.748893571891069,74.8125
-62.0,-1.6260196351587801,-69.9375
-27.5,-1.6751070203711196,1.625
-62.0,0.6013204688511711,-33.3125
-32.5,0.9756117810952678,2.4375
-59.0,-0.8038059328520761,-48.8125
-27.5,-0.7976700097005334,0.0
-32.5,1.632155558310322,1.625
-58.5,-1.0001554737014375,-5.6875
-60.5,-0.1840776945462772,-8.125
-62.0,1.4480778637640452,26.0
-27.5,-1.9021361769781948,-0.8125
-32.5,1.6260196351587797,3.25
-60.0,-0.9572040116406404,-22.75
-58.5,-0.27611654181941514,39.875
-63.5,-3.202951885105219,-1.625
-27.5,2.761165418194154,0.8125
-59.5,0.7363107781851079,2.4375
-59.5,-0.2024854640009046,26.0
-32.0,1.159689475641545,1.625
-27.5,-1.6996507129772906,4.0625
-59.5,0.5767767762450009,15.4375
-32.0,1.1167380135807465,4.875
-60.0,-1.2026409377023421,-7.3125
-63.0,0.31906800388021317,99.25
-32.5,0.8958447801252145,2.4375
-28.0,-1.705786636128833,0.8125
-58.5,0.4233786974564371,28.4375
-61.0,0.7363107781851075,27.625
-59.5,-0.9142525495798419,61.8125
-61.5,-2.564815877344792,-44.75
-27.5,2.3193789512830896,-0.8125
-32.5,1.6996507129772906,0.8125
-60.5,-1.3499030933393645,40.6875
-58.5,-0.012271846303085088,56.9375
-61.5,1.6812429435226628,-7.3125
-61.0,-0.8160777791551608,30.875
-64.0,-3.8717675086233587,40.6875
-27.5,2.675262494072558,-0.8125
-32.5,1.7119225592803762,0.0
-60.5,-1.5769322499464398,26.0
-59.0,0.49700977527494805,22.75
-62.0,-3.227495577711389,-12.1875
-27.5,2.5586799541932495,0.8125
-32.5,1.7487380981896314,1.625
-60.0,-1.4664856332186735,21.125
-59.0,0.29452431127404344,26.8125
-27.5,-0.6013204688511715,1.625
-32.5,1.7487380981896306,5.6875
-59.5,-1.092194320974576,1.625
-59.5,-0.34974761963792655,26.8125
-27.5,-0.31293208072867085,1.625
-60.5,0.34974761963792655,6.5
-32.5,1.4358060174609601,-0.8125
-58.0,-1.1965050145508003,27.625
-61.0,-3.2949907323783574,46.375
-28.0,2.7120780329818137,0.8125
-32.0,1.7548740213411738,4.875
-62.0,-1.3008157081270242,-1.625
-58.5,0.21475731030399015,23.5625
-62.0,-3.3011266555299,16.25
-27.5,2.595495493102505,4.875
-58.5,0.8528933180644165,-24.375
-32.5,0.9572040116406404,3.25
-60.5,-1.3008157081270242,27.625
-28.0,-0.4970097752749476,1.625
-32.0,1.8039614065535141,3.25
-59.0,-1.073786551519949,-0.8125
-61.0,-0.07976700097005329,-24.375
-32.5,1.190369091399257,-1.625
-28.0,-1.8775924843720242,-1.625
-60.5,0.7179030087304801,-8.125
-59.0,0.07976700097005329,12.1875
-62.5,-3.245903347166017,0.8125
-32.5,4.289010282928253,4.875
-28.0,-1.86532063806894,1.625
-59.5,1.0615147052168639,-44.75
-62.0,2.4911847995262812,42.3125
-61.0,-3.117048960983623,40.6875
-28.0,-0.46633015951723467,-0.8125
-32.0,1.926679869584365,-0.8125
-59.5,-0.926524395882927,-14.625
-62.0,-2.932971266437346,-62.625
-59.5,2.82252464970958,-46.375
-28.0,-0.9019807032767568,-0.8125
-32.5,1.91440802328128,4.875
-59.0,-0.95720401164064,-10.5625
-60.0,-0.1963495408493623,-2.4375
-62.5,2.834796496012665,35.75
-60.5,-2.0984857178275576,24.375
-28.0,-1.503301172127928,0.0
-32.5,1.9450876390389928,1.625
-60.5,-1.380582709097077,12.1875
-61.0,3.043417883165112,61.0
-59.5,-2.7918450339518666,4.875
-62.0,0.5951845456996283,45.5625
-28.0,-1.4296700943094174,2.4375
-32.5,1.994175024251334,-3.25
-59.5,-1.6382914814618652,65.875
-60.0,0.5522330836388307,-2.4375
-28.5,-0.9019807032767568,-0.8125
-32.0,1.957359485342078,1.625
-58.0,-1.306951631278566,31.6875
-60.5,0.10431069357622347,-12.1875
-28.0,-0.748582624488193,0.8125
-32.5,1.957359485342078,1.625
-59.0,-1.2701360923693104,35.75
-62.0,-0.29452431127404344,38.1875
-62.5,-2.423689644859313,-63.4375
-28.0,2.024854640009046,0.0
-61.0,1.0185632431560658,-37.375
-32.5,0.9326603190344698,2.4375
-62.5,-4.552854978444583,34.9375
-58.5,3.663146121470911,-23.5625
-28.0,-1.055378782065321,-0.8125
-32.5,1.981903177948249,-3.25
-58.0,-0.791534086548991,-39.875
-59.0,-0.705631162427395,33.3125
-63.5,-2.9820586516496865,41.5
-58.5,3.8901752780779857,47.1875
-60.0,-0.7301748550335652,-15.4375
-28.5,-0.6810874698212244,1.625
-32.0,1.9757672547967053,1.625
-59.0,-1.2762720155208531,25.1875
-62.5,-3.1784081924990484,38.1875
-60.5,2.650718801466388,77.25
-28.5,-0.19021361769781953,-1.625
-32.0,1.9880391010997909,3.25
-59.0,-1.1780972450961724,30.875
-60.5,2.7366217255879843,35.75
-32.5,-1.540116711037184,0.8125
-28.5,-2.030990563160589,0.0
-58.5,0.8774370106705867,17.0625
-60.5,-0.33133985018329826,50.4375
-63.0,-2.552544031041707,-5.6875
-28.5,2.0064468705544187,-1.625
-32.0,2.012582793705961,3.25
-59.5,-1.1658253987930873,14.625
-59.0,-0.3129320807286704,24.375
-63.5,-2.908427573831176,0.8125
-28.5,2.356194490192345,-0.8125
-32.0,2.0616701789183023,0.0
-64.5,-4.460816131171445,34.9375
-61.0,3.0495538063166547,16.25
-59.0,0.36201946594101164,-1.625
-28.5,-1.030835089459151,-2.4375
-32.0,2.0800779483729297,0.8125
-59.0,-1.0308350894591514,-26.0
-61.0,-0.294524311274043,24.375
-64.0,-2.8961557275280905,-32.5
-32.0,4.221515128261285,0.0
-28.5,-2.1046216409791003,-0.8125
-60.0,0.7363107781851079,28.4375
-61.5,1.6076118657041518,12.1875
-60.0,-1.6689710972195773,20.3125
-64.5,-2.442097414313941,-50.4375
-28.5,1.748738098189631,-0.8125
-32.0,2.147573103039898,-2.4375
-56.5,-1.3314953238847367,34.125
-60.0,0.2822524649709579,-37.375
-63.5,-3.135456730438251,-26.8125
-62.5,4.381049130201391,-0.8125
-29.0,-2.362330413343887,0.0
-32.0,2.190524565100696,-5.6875
-60.0,-0.8713010875190443,-46.375
-59.5,-0.2024854640009046,5.6875
-61.5,-3.3195344249845276,-17.0625
-32.0,4.368777283898306,0.8125
-29.0,-2.184388641949153,-0.8125
-59.5,1.1474176293384595,9.75
-62.0,-0.2024854640009046,-25.1875
-63.5,-3.1109130378320806,-17.0625
-29.0,2.147573103039898,0.8125
-32.0,2.2089323345553233,0.8125
-59.0,-1.0983302441261191,-8.9375
-60.0,-0.16566992509164935,9.75
-60.0,1.5585244804918115,17.0625
-62.5,-0.4540583132141496,-9.75
-29.0,-2.0678061020698446,-2.4375
-32.0,2.245747873464579,-0.8125
-60.5,-1.2640001692177685,-20.3125
-58.5,0.07363107781851053,-17.0625
-32.0,1.1842331682477147,0.8125
-29.0,-2.251883796616121,0.0
-59.5,0.7976700097005334,12.1875
-62.5,3.0740974989228254,44.75
-59.5,-2.472777030071654,-54.5
-29.5,-1.41126232485479,0.8125
-32.0,2.2580197197676637,2.4375
-60.5,-1.1903690913992575,-19.5
-59.5,0.17794177139473444,-12.1875
-32.0,1.030835089459151,0.0
-29.5,-2.282563412373834,-2.4375
-59.5,1.2455923997631406,-23.5625
-61.5,-0.21475731030399015,-14.625
-60.5,-0.1656699250916489,11.375
-59.5,0.17180584824319167,17.875
-32.0,1.251728322914683,-0.8125
-29.5,-2.282563412373834,-4.0625
-61.0,2.030990563160589,27.625
-61.0,-4.362641360746763,38.1875
-29.5,2.3193789512830896,-2.4375
-32.0,2.319378951283089,-5.6875
-59.5,-1.3621749396424492,36.5625
-60.0,0.15339807878856426,-12.1875
-60.5,2.7182139561333565,36.5625
-62.5,-2.2948352586769194,36.5625
-29.5,-1.5646604036433542,0.0
-32.0,2.3377867207377174,-1.625
-58.5,-1.325359400733194,21.125
-60.0,-0.17180584824319212,17.875
-62.0,3.0802334220743672,22.75
-32.0,-1.5830681730979812,0.0
-29.5,-2.3377867207377174,-4.0625
-60.5,0.6504078540635119,60.1875
-59.0,0.3067961575771285,37.375
-63.0,-3.0127382674073995,-0.8125
-29.5,2.061670178918302,-7.3125
-32.0,2.3439226438892593,-4.875
-62.5,0.4049709280018092,-23.5625
-59.0,-1.7303303287350027,24.375
-60.0,0.030679615757712497,-9.75
-63.0,-3.380893656499953,24.375
-32.0,4.669437518323892,-0.8125
-29.5,-2.350058567040802,-4.0625
-58.5,0.6994952392758522,41.5
-59.5,0.6565437772150546,-20.3125
-64.0,-3.3195344249845276,-24.375
-60.5,4.724660826687774,-0.8125
-29.5,-2.785709110800324,-0.8125
-60.0,1.9757672547967053,-18.6875
-32.0,0.4049709280018092,-1.625
-60.0,-1.1228739367322889,-10.5625
-60.5,0.012271846303085088,-55.3125
-61.5,2.60776733940559,96.0
-61.0,-1.2455923997631402,17.0625
-29.5,-2.6507188014663883,0.8125
-32.0,2.3746022596469722,3.25
-59.5,-1.2271846303085128,-21.125
-58.5,0.0674951546669682,-9.75
-62.5,0.46019423636569234,26.8125
-62.0,-3.497476196379262,-42.3125
-29.5,1.7978254834019716,0.8125
-32.5,2.4236896448593126,0.0
-61.0,-1.2149127840054277,-8.125
-60.0,0.1288543861823941,4.875
-29.5,-1.337631247036279,-0.8125
-32.0,2.435961491162398,-0.8125
-60.0,-1.7671458676442588,70.75
-59.5,0.5092816215780331,26.0
-29.5,-1.1780972450961724,-0.8125
-60.0,0.8651651643675016,65.875
-32.0,1.5707963267948966,-2.4375
-60.0,-1.1658253987930873,-17.875
-32.0,1.1535535524900018,0.0
-29.5,-2.4114177985562275,-2.4375
-59.5,0.9142525495798419,26.8125
-61.5,0.22702915660707523,10.5625
-32.0,1.2762720155208536,0.8125
-29.5,-2.4236896448593135,-0.8125
-59.0,1.1535535524900022,-5.6875
-61.0,-0.36815538909255396,49.625
-61.5,-2.6139032625571326,-11.375
-29.5,1.8407769454627694,-4.875
-61.5,1.086058397823034,37.375
-32.0,1.3437671701878213,-3.25
-61.5,-4.466952054322987,-24.375
-59.0,3.117048960983623,7.3125
-29.5,-1.0921943209745768,-1.625
-32.0,2.4052818754046856,0.8125
-59.0,-0.9694758579437255,-43.125
-60.5,-0.5706408530934586,27.625
-61.5,-2.4789129532231957,-53.6875
-61.0,3.2336315008629315,28.4375
-29.5,-1.6566992509164926,1.625
-32.0,2.466641106920111,-1.625
-60.0,-1.17196132194463,-0.8125
-61.0,1.17196132194463,3.25
-58.5,-1.2455923997631406,-37.375
-61.0,-3.442252888015379,35.75
-61.0,3.9638063558964967,34.125
-29.5,-1.7364662518865455,2.4375
-32.0,2.4605051837685683,-0.8125
-59.5,-1.5462526341887264,39.875
-60.5,0.4295146206079794,-19.5
-63.5,2.6875343403756435,30.875
-62.5,-1.0615147052168634,-40.6875
-62.5,-1.0983302441261191,16.25
-29.5,-1.834641022311227,-2.4375
-32.5,2.405281875404685,0.8125
-60.0,-1.1658253987930873,2.4375
-63.0,-3.1906800388021335,-10.5625
-59.5,2.5709518004963345,32.5
-63.0,1.2271846303085128,-8.125
-29.5,-1.8469128686143117,0.8125
-32.0,2.4298255680108554,-0.8125
-59.5,-1.2762720155208531,4.875
-63.0,-2.761165418194154,-69.125
-61.0,2.5402721847386216,31.6875
-29.5,-0.9265243958829275,-1.625
-32.5,2.423689644859313,-0.8125
-60.0,-1.1780972450961724,-9.75
-62.0,-0.5829126993965437,61.0
-62.5,-2.405281875404685,-41.5
-29.5,1.718058482431918,1.625
-32.0,2.4359614911623986,0.8125
-60.5,-1.6444274046134075,54.5
-58.0,-0.06135923151542588,77.25
-29.5,-0.7240389318820224,1.625
-32.0,2.4482333374654828,0.0
-59.5,-1.233320553460055,2.4375
-59.0,-0.3988350048502669,22.75
-29.5,-0.8099418560036185,-0.8125
-32.5,2.435961491162398,1.625
-59.0,-1.0799224746714913,-24.375
-61.5,-0.23930100291015988,-5.6875
-63.0,-3.0127382674073995,-5.6875
-29.5,1.8837284075235674,0.8125
-32.0,2.448233337465483,1.625
-58.5,-1.1412817061869167,-6.5
-59.5,-0.2147573103039897,-17.0625
-61.0,-3.0495538063166547,6.5
-29.5,1.981903177948248,-4.0625
-32.0,2.442097414313941,0.8125
-59.5,-1.4173982480063323,25.1875
-61.0,0.19634954084936185,-50.4375
-64.0,-3.0925052683774528,-34.125
-32.5,4.301282129231337,1.625
-29.5,-2.4482333374654828,0.8125
-59.5,1.3130875544301088,0.8125
-60.5,-0.2147573103039897,-2.4375
-29.0,-1.0492428589137788,-1.625
-32.5,2.3930100291016,1.625
-59.5,-1.349903093339364,13.8125
-61.0,-0.03067961575771294,-15.4375
-32.0,1.3867186322486194,0.8125
-29.0,-2.3991459522531424,-0.8125
-60.0,1.073786551519949,25.1875
-62.0,-3.055689729468197,-20.3125
-60.0,3.098641191528995,-27.625
-29.5,-1.1228739367322893,0.8125
-32.5,2.4052818754046847,1.625
-59.0,-0.883572933822129,-58.5625
-62.0,-0.8283496254582463,66.6875
-62.5,-2.7918450339518666,-0.8125
-32.5,4.503767593232242,0.8125
-29.0,-2.3930100291015997,-1.625
-59.5,1.4112623248547895,-20.3125
-61.0,-0.3865631585471814,-2.4375
-61.0,-3.147728576741336,24.375
-29.0,2.135301256736813,-1.625
-32.5,2.3930100291016,0.0
-62.0,-4.276738436625168,-17.875
-61.5,3.000466421104314,34.125
-60.0,0.24543692606170264,-17.875
-60.5,0.6994952392758522,-54.5
-32.0,0.31293208072867085,1.625
-29.0,-2.350058567040802,-2.4375
-59.5,1.012427320004523,26.0
-61.0,0.03681553890925526,-18.6875
-62.5,-3.1047771146805374,11.375
-29.0,2.073942025221387,0.0
-32.0,2.3193789512830896,2.4375
-62.5,-4.270602513473626,-23.5625
-59.0,2.9391071895888885,13.8125
-61.0,-0.12271846303085132,12.1875
-29.0,-0.8467573949128742,0.8125
-32.5,2.319378951283089,0.8125
-60.0,-1.2394564766115979,-0.8125
-61.5,0.04295146206079803,-21.125
-63.0,-3.32567034813607,26.8125
-63.5,3.9760782021995817,21.125
-28.5,-1.7426021750380882,0.0
-32.5,2.282563412373834,-0.8125
-58.5,-1.4603497100671303,34.9375
-60.5,0.45405831321415,-68.3125
-64.0,0.3436116964863838,56.9375
-32.0,0.6626797003665965,0.8125
-28.5,-2.282563412373834,-0.8125
-60.0,0.9449321653375549,18.6875
-60.5,-0.33133985018329826,69.9375
-28.5,-0.6074563920027143,0.0
-32.5,2.2764274892222915,1.625
-62.0,-4.368777283898305,4.875
-59.5,3.129320807286708,-8.9375
-60.0,-0.5460971604872884,3.25
-28.5,-0.4847379289718625,0.0
-32.5,2.270291566070749,0.0
-61.0,-1.1351457830353744,-39.875
-59.5,-0.27611654181941514,26.0
-61.0,2.9759227284981438,31.6875
-63.5,-1.1351457830353748,-38.1875
-62.0,-1.0615147052168634,23.5625
-28.0,-1.5278448647340985,0.0
-33.0,2.1598449493429825,-1.625
-59.5,-1.0799224746714913,-52.0625
-59.0,-0.33133985018329826,52.0625
-62.0,-3.0679615757712826,-13.8125
-61.5,4.473087977474529,52.875
-27.5,-2.067806102069844,1.625
-33.0,2.0493983326152163,-0.8125
-60.0,-1.349903093339364,33.3125
-60.0,0.04295146206079803,-9.75
-62.5,-2.6629906477694734,-37.375
-27.0,2.0003109474028764,5.6875
-33.0,1.9512235621905352,-0.8125
-62.0,-1.558524480491811,25.1875
-58.5,0.1349903093339364,60.1875
-27.0,-0.411106851153352,-0.8125
-33.0,1.8039614065535141,-0.8125
-58.5,-0.9817477042468106,-23.5625
-60.0,-0.1656699250916489,-17.875
-33.0,1.1535535524900018,-2.4375
-27.0,-1.761009944492716,0.8125
-58.0,0.6442719309119695,-18.6875
-62.0,0.6994952392758527,27.625
-60.5,-0.7976700097005338,29.25
-64.5,-3.405437349106123,23.5625
-27.0,2.9513790358919736,0.8125
-33.0,1.6137477888556946,0.8125
-60.0,-0.9019807032767573,0.0
-59.5,-0.5031456984264904,30.875
-63.5,-2.724349879284899,-17.0625
-60.5,3.4054373491061236,60.1875
-26.5,-0.5399612373357456,-1.625
-33.0,1.1535535524900022,1.625
-60.0,-1.104466167277662,0.0
-59.0,0.07363107781851097,17.875
-61.5,-3.399301425954581,25.1875
-26.0,3.3870295796514958,1.625
-33.0,1.000155473701438,-0.8125
-59.0,-0.8897088569736722,35.75
-61.5,0.09203884727313882,-24.375
-62.5,2.3623304133438876,88.6875
-26.0,-2.429825568010856,1.625
-32.5,0.8160777791551612,0.0
-58.5,-0.865165164367502,19.5
-61.0,-0.25157284921324496,-0.8125
-63.0,2.975922728498144,80.5625
-26.0,-2.5648158773447927,0.8125
-32.5,0.6626797003665974,1.625
-61.0,-0.9019807032767573,28.4375
-60.5,0.22089323345553247,-40.6875
-61.0,-3.2765829629237295,-19.5
-63.0,4.841243366567084,-33.3125
-26.0,-1.5278448647340985,0.0
-33.0,0.6442719309119695,2.4375
-61.0,-1.0369710126106937,34.125
-63.0,-2.6875343403756435,-75.625
-60.0,3.1661363461959633,-37.375
-60.0,0.4908738521234053,-3.25
-33.0,0.07363107781851053,-0.8125
-26.5,-0.6258641614573417,0.8125
-60.5,-0.3006602344255853,-2.4375
-59.0,0.4417864669110645,-64.25
-61.0,-3.6447383520162835,-40.6875
-26.5,3.5281558121369745,1.625
-33.0,0.5767767762450013,0.8125
-61.5,-3.853359739168731,-59.375
-59.5,3.479068426924634,-52.0625
-59.5,-0.42951462060797985,-22.75
-63.0,1.5094370952794707,-36.5625
-26.5,-1.251728322914683,2.4375
-33.0,0.5522330836388307,0.8125
-61.0,-4.209243281958199,14.625
-61.0,3.522019888985432,-14.625
-59.0,-0.16566992509164935,17.0625
-26.5,0.3313398501832987,1.625
-33.0,0.5276893910326601,-0.8125
-58.0,-0.6197282383057985,-59.375
-60.0,-0.30066023442558576,26.0
-59.0,2.705942109830271,62.625
-26.5,-2.3193789512830896,2.4375
-58.5,0.03067961575771294,-24.375
-32.5,0.5092816215780331,-0.8125
-60.0,-0.8467573949128742,17.0625
-60.0,-3.393165502803038,34.9375
-32.5,4.239922897715912,0.0
-26.5,-0.5522330836388312,0.8125
-60.5,-0.5338253141842029,19.5
-63.0,-3.2213596545598464,17.0625
-59.0,3.8104082771079324,-49.625
-26.5,-0.04295146206079803,0.8125
-32.5,0.5338253141842029,0.8125
-58.5,-1.0308350894591505,45.5625
-61.5,1.761009944492716,-9.75
-60.5,-1.748738098189631,10.5625
-61.0,-3.0802334220743672,-15.4375
-32.5,4.06811704947272,-0.8125
-27.5,-0.31293208072867085,-4.0625
-59.5,-0.7669903939428204,25.1875
-62.0,0.17794177139473444,17.875
-61.0,-3.055689729468197,-2.4375
-32.0,3.9331267401387837,-0.8125
-27.0,-0.2331650797586171,0.0
-61.0,-0.4908738521234053,-21.125
-59.5,0.08590292412159561,-10.5625
-60.5,-3.307262578681442,0.0
-60.0,3.282718886075272,8.125
-27.0,0.515417544729575,-0.8125
-31.5,0.14726215563702194,-0.8125
-62.0,0.7547185476397358,-1.625
-61.0,-1.6935147898257483,39.875
-60.5,2.448233337465483,111.4375
-27.5,-1.6137477888556946,-0.8125
-32.0,0.11044661672776623,-3.25
-59.0,-0.9019807032767568,34.9375
-60.5,0.3190680038802136,-77.25
-62.0,-3.4606606574700067,-43.9375
-62.5,4.792155981354743,-31.6875
-60.5,-0.6013204688511715,-44.75
-28.0,-0.1963495408493623,-2.4375
-31.5,0.030679615757712497,-1.625
-60.5,-0.8713010875190439,4.875
-61.5,-3.3195344249845276,36.5625
-60.0,3.7551849687440497,-43.9375
-31.5,0.41724277430489476,-1.625
-28.0,0.08590292412159517,-0.8125
-58.0,-1.0308350894591505,35.75
-62.0,-3.2581751934691017,57.75
-59.5,3.3440781175906977,10.5625
-28.5,0.9756117810952678,-1.625
-31.0,-0.11044661672776623,-1.625
-60.0,-1.3130875544301088,46.375
-60.0,0.6197282383057989,9.75
-29.0,0.8774370106705867,-0.8125
-31.0,-0.15953400194010658,-2.4375
-58.5,-0.6872233929727671,14.625
-61.5,-0.7547185476397353,75.625
-29.5,1.644427404613407,0.8125
-30.5,-0.19021361769781908,0.0
-61.0,-3.75518496874405,-30.875
-60.5,3.0495538063166547,18.6875
-60.0,-0.11044661672776623,7.3125
-30.0,1.0799224746714913,0.0
-30.0,-0.2331650797586171,0.0
-59.0,-0.5522330836388307,-42.3125
-58.5,-0.09203884727313882,-54.5
-29.5,0.6626797003665974,0.0
-31.5,0.3620194659410112,-1.625
-60.5,-1.2762720155208536,26.8125
-29.5,0.926524395882927,-4.875
-31.5,0.4663301595172351,-1.625
-58.5,-1.4173982480063323,-3.25
-61.5,-2.9022916506796332,-34.125
-29.0,3.8288160465625602,0.0
-31.5,0.5399612373357456,-1.625
-59.5,-0.9940195505498952,-45.5625
-63.0,0.5767767762450013,1.625
-60.0,1.5707963267948966,64.25
-60.0,-2.6936702635271863,-0.8125
-31.5,1.5585244804918115,1.625
-29.5,-0.5583690067903735,-1.625
-59.5,-0.6442719309119691,-49.625
-31.5,1.233320553460055,0.0
-29.0,-0.6135923151542562,0.0
-59.0,-0.6381360077604268,-8.9375
-60.0,-0.12885438618239364,-19.5
-31.5,1.3928545554001621,0.0
-29.5,-0.6197282383057994,-2.4375
-57.0,-0.546097160487288,-45.5625
-61.0,-3.6815538909255388,12.1875
-60.0,2.9513790358919736,25.1875
-31.0,1.9205439464328227,0.0
-29.5,-0.6810874698212244,-1.625
-59.0,-0.6626797003665974,-10.5625
-59.5,-0.11658253987930856,-15.4375
-63.5,-3.1968159619536762,-8.9375
-29.5,3.951534509593412,-0.8125
-31.0,0.6994952392758522,0.8125
-60.5,-1.4358060174609601,-42.3125
-59.0,0.10431069357622347,-49.625
-29.5,0.6013204688511711,-0.8125
-30.5,0.7363107781851079,0.8125
-59.5,-1.4726215563702154,-7.3125
-60.5,-2.6016314162540475,-94.375
-59.0,2.030990563160589,40.6875
-30.5,2.018718716857504,0.0
-30.0,-0.7424467013366502,-1.625
-59.5,-0.9878836273983529,22.75
-62.5,-2.9452431127404313,4.875
-60.5,2.908427573831176,12.1875
-30.0,0.9817477042468101,-1.625
-30.0,0.7485826244881926,0.0
-59.0,-1.5217089415825558,-31.6875
-60.0,0.1349903093339364,43.9375
-30.5,0.6074563920027143,-2.4375
-30.0,0.6994952392758522,-0.8125
-59.0,-1.5155730184310134,-19.5
-59.5,-0.3558835427894689,81.375
-30.5,1.1412817061869167,-1.625
-30.0,0.674951546669682,-1.625
-60.5,-1.233320553460055,-30.875
-58.5,-0.5951845456996288,26.0
-61.5,-2.7979809571034098,45.5625
-30.5,4.552854978444583,-0.8125
-31.0,-0.6381360077604263,0.0
-61.0,-0.41724277430489476,-66.6875
-60.5,-0.20862138715244694,12.1875
