-43.0,3.6079228131070282,-5.6875
-43.0,3.522019888985432,4.875
-43.5,3.485204350076177,-4.875
-43.5,3.436116964863836,-1.625
-43.0,3.429981041712294,-4.875
-43.5,3.4054373491061236,-2.4375
-43.5,3.3318062712876126,-0.8125
-43.0,3.3440781175906977,3.25
-43.5,3.423845118560751,-2.4375
-43.5,3.399301425954581,3.25
-43.5,3.411573272257666,4.875
-43.5,3.442252888015379,-1.625
-43.5,3.3870295796514958,2.4375
-43.5,3.356349963893783,2.4375
-43.5,3.4054373491061236,0.8125
-43.5,3.466796580621549,4.875
-43.5,3.472932503773092,6.5
-44.0,3.5281558121369745,1.625
-43.5,3.5772431973493153,-3.25
-43.5,3.6447383520162835,-2.4375
-43.5,3.6570101983193686,0.8125
-43.5,3.6815538909255388,1.625
-44.0,3.749049045592507,1.625
-43.5,3.933126740138784,-5.6875
-43.0,3.9699422790480394,-3.25
-43.0,3.9515345095934116,-0.8125
-43.5,3.9699422790480394,-1.625
-43.5,3.9944859716542096,-3.25
-43.0,3.9944859716542096,0.0
-43.0,4.025165587411922,-3.25
-43.0,4.0128937411088375,1.625
-42.5,4.0558452031696355,-4.875
-42.5,4.025165587411922,0.8125
-42.0,4.0558452031696355,-3.25
-42.5,4.037437433715008,0.0
-42.5,4.037437433715008,-2.4375
-42.5,4.0558452031696355,-4.875
-42.5,4.04357335686655,-1.625
-41.5,4.049709280018092,0.0
-42.0,4.049709280018092,-1.625
-41.5,4.04357335686655,0.0
-42.0,4.0558452031696355,-0.8125
-41.5,4.080388895775806,-0.8125
-41.5,4.06811704947272,2.4375
-42.0,4.0987966652304335,-1.625
-41.5,4.111068511533518,0.0
