-35.5,2.5954954931025047,0.0
-35.5,2.6323110320117604,-8.9375
-35.5,2.5770877236478773,1.625
-35.5,2.5770877236478773,2.4375
-35.5,2.6200391857086753,-7.3125
-35.5,2.5341362615870793,9.75
-35.5,2.5709518004963345,2.4375
-35.5,2.5464081078901644,8.125
-35.5,2.60776733940559,-5.6875
-35.5,2.5832236467994196,-2.4375
-35.5,2.6016314162540475,-5.6875
-35.5,2.5954954931025047,-2.4375
-35.5,2.6139032625571326,-5.6875
-35.5,2.5954954931025047,-2.4375
-35.0,2.5893595699509624,1.625
-35.5,2.552544031041707,6.5
-35.5,2.5832236467994196,2.4375
-35.5,2.6323110320117604,-5.6875
-35.5,2.5954954931025047,1.625
-35.0,2.60776733940559,-0.8125
-35.0,2.6384469551633027,-4.875
-35.0,2.6323110320117604,-2.4375
-35.5,2.5893595699509624,4.0625
-35.0,2.662990647769473,-5.6875
-35.5,2.60776733940559,4.875
-35.0,2.6691265709210157,-6.5
-35.5,2.6200391857086753,1.625
-35.5,2.6445828783148455,-0.8125
-35.5,2.6445828783148455,0.8125
-35.5,2.6200391857086753,5.6875
-35.5,2.6384469551633027,2.4375
-35.5,2.6261751088602177,4.0625
-35.5,2.6261751088602177,2.4375
-35.5,2.6384469551633027,2.4375
-35.5,2.6445828783148455,2.4375
-35.5,2.60776733940559,7.3125
-35.5,2.6200391857086753,7.3125
-36.0,2.60776733940559,8.125
-35.5,2.650718801466388,1.625
-35.5,2.6568547246179306,2.4375
-36.0,2.6813984172241008,-4.0625
-36.0,2.6261751088602177,8.9375
-35.5,2.6323110320117604,8.9375
-35.5,2.675262494072558,0.0
-35.5,2.730485802436441,-7.3125
-35.5,2.6384469551633027,8.9375
-35.5,2.6445828783148455,7.3125
-35.5,2.693670263527186,0.8125
-35.5,2.7120780329818137,-0.8125
-35.5,2.736621725587984,-6.5
-35.5,2.6875343403756435,2.4375
-35.5,2.736621725587984,-5.6875
-35.5,2.730485802436441,-4.0625
-35.5,2.705942109830271,4.0625
-35.5,2.662990647769473,7.3125
-35.5,2.736621725587984,-4.0625
-35.5,2.748893571891069,-5.6875
-35.5,2.724349879284899,-0.8125
-35.5,2.718213956133356,2.4375
-35.5,2.742757648739526,0.8125
-35.5,2.730485802436441,4.0625
-35.5,2.742757648739526,0.0
-35.5,2.730485802436441,4.0625
-35.5,2.724349879284899,4.0625
-35.5,2.7857091108003242,-5.6875
-35.5,2.724349879284899,7.3125
-35.5,2.767301341345697,-1.625
-35.5,2.7857091108003242,-4.0625
-35.5,2.761165418194154,1.625
-36.0,2.730485802436441,7.3125
-35.5,2.724349879284899,8.9375
-35.5,2.748893571891069,1.625
-35.0,2.773437264497239,1.625
-35.5,2.8102528034064944,-6.5
-35.0,2.791845033951867,-2.4375
-35.5,2.816388726558037,-4.875
-35.5,2.7550294950426117,8.9375
-35.5,2.773437264497239,7.3125
-35.5,2.7550294950426117,8.125
-35.5,2.767301341345697,9.75
-35.5,2.773437264497239,6.5
-35.0,2.834796496012665,-4.875
-35.5,2.816388726558037,2.4375
-35.0,2.859340188618835,-6.5
-35.5,2.8654761117703775,-6.5
-35.5,2.8532042654672924,-2.4375
-35.0,2.8654761117703775,-4.875
-35.5,2.84706834231575,0.8125
-35.5,2.834796496012665,4.0625
-35.5,2.8654761117703775,1.625
-35.5,2.834796496012665,5.6875
-35.0,2.8716120349219203,0.0
-35.5,2.834796496012665,7.3125
-35.0,2.8777479580734626,0.0
-35.0,2.859340188618835,4.875
-35.0,2.8654761117703775,2.4375
-35.0,2.9329712664373457,-6.5
-35.0,2.8532042654672924,8.9375
-35.0,2.8838838812250054,2.4375
-35.5,2.8777479580734626,7.3125
-35.0,2.8777479580734626,7.3125
-35.0,2.9268353432858034,-4.0625
-35.0,2.9759227284981438,-5.6875
-35.0,2.988194574801229,-8.125
-35.0,2.9697868053466014,-4.0625
-35.0,2.9145634969827183,8.125
-35.0,2.9329712664373457,2.4375
-35.0,2.9391071895888885,4.0625
-35.0,2.988194574801229,-4.0625
-35.0,2.988194574801229,-1.625
-34.5,3.031146036862027,-8.9375
-34.5,3.0127382674073995,-6.5
-35.0,2.9575149590435164,8.125
-34.5,2.9820586516496865,4.0625
-35.0,2.9820586516496865,4.875
-35.0,2.9575149590435164,8.9375
-35.0,2.988194574801229,5.6875
-34.5,3.000466421104314,2.4375
-34.5,3.031146036862027,0.8125
-34.5,3.055689729468197,0.0
-34.5,3.08636934522591,-6.5
-34.5,3.0250101137104846,5.6875
-34.5,3.055689729468197,1.625
-34.5,3.0802334220743677,-2.4375
-34.5,3.104777114680538,-4.875
-34.5,3.074097498922825,4.0625
-34.0,3.0925052683774528,0.8125
-34.0,3.11091303783208,-1.625
-34.0,3.1231848841351653,0.0
-34.0,3.147728576741336,-0.8125
-33.5,3.172272269347506,-4.0625
-34.0,3.184544115650591,-4.875
-33.5,3.184544115650591,-0.8125
-34.0,3.1906800388021335,2.4375
-33.5,3.2090878082567613,0.8125
-33.5,3.2090878082567613,1.625
-33.0,3.227495577711389,-1.625
-33.0,3.2459033471660166,-0.8125
-33.5,3.2459033471660166,1.625
-33.0,3.2581751934691017,0.0
-33.0,3.2827188860752723,-4.0625
-32.5,3.2827188860752723,0.0
-32.5,3.2888548092268146,-0.8125
-33.0,3.3072625786814425,1.625
-32.5,3.3195344249845276,0.0
-32.5,3.3318062712876126,-0.8125
-32.5,3.3502140407422405,-2.4375
-32.0,3.3440781175906977,0.0
-32.0,3.3747577333484107,-2.4375
-32.0,3.3747577333484107,0.0
-32.0,3.3870295796514958,-2.4375
-32.0,3.380893656499953,0.8125
-32.0,3.3870295796514958,0.8125
-32.0,3.399301425954581,0.0
-31.5,3.411573272257666,0.0
-32.0,3.423845118560751,1.625
-32.0,3.442252888015379,0.8125
-31.5,3.442252888015379,0.0
-31.5,3.472932503773092,-2.4375
-31.5,3.485204350076177,-1.625
-31.5,3.4913402732277192,1.625
-31.0,3.522019888985432,-1.625
-31.0,3.5281558121369745,0.8125
-31.5,3.5465635815916023,0.8125
-31.0,3.56497135104623,0.0
-31.0,3.5833791205008576,0.8125
-31.0,3.6017868899554855,-0.8125
-31.0,3.6263305825616556,-0.8125
-31.0,3.6386024288647407,-0.8125
-31.0,3.6570101983193686,-2.4375
-31.0,3.6815538909255388,-2.4375
-31.0,3.6876898140770815,-0.8125
-31.0,3.6999616603801666,0.8125
-31.0,3.7122335066832517,0.0
-31.0,3.7429131224409646,-2.4375
-31.0,3.7551849687440497,-0.8125
-31.0,3.7551849687440497,2.4375
-31.0,3.810408277107933,-5.6875
-31.0,3.7981364308048478,0.0
-31.0,3.847223816017188,-4.875
-31.0,3.8533597391687304,-0.8125
-31.0,3.890175278077986,-1.625
-31.0,3.9208548938356986,-4.0625
-31.0,3.9638063558964967,-6.5
-31.0,3.9699422790480394,-0.8125
-30.5,3.988350048502667,-2.4375
-30.5,4.000621894805752,-1.625
-30.5,4.01902966426038,-1.625
-30.5,4.04357335686655,-4.875
-30.5,4.06811704947272,-6.5
-30.5,4.086524818927348,-6.5
-30.0,4.080388895775806,-0.8125
-30.5,4.09266074207889,0.0
-30.0,4.104932588381976,-0.8125
-30.0,4.129476280988146,-2.4375
-30.0,4.147884050442774,0.0
-30.0,4.1601558967458585,0.0
-30.0,4.215379205109742,-8.9375
-30.0,4.196971435655114,-1.625
-30.0,4.215379205109742,-2.4375
-30.0,4.23378697456437,-2.4375
-30.0,4.239922897715912,0.8125
-30.0,4.252194744018997,-2.4375
-30.0,4.25833066717054,2.4375
-30.0,4.295146206079795,-4.0625
-29.5,4.289010282928253,4.0625
-30.0,4.344233591292136,-4.875
-29.5,4.313553975534423,2.4375
-30.0,4.338097668140593,-0.8125
-30.0,4.374913207049849,-4.875
-30.0,4.368777283898306,2.4375
-30.0,4.399456899656019,0.0
-30.0,4.442408361716817,-6.5
-30.0,4.430136515413731,-0.8125
-30.0,4.448544284868359,0.0
-30.0,4.454680208019902,4.875
-30.5,4.4976316700806995,-0.8125
-30.0,4.534447208989955,-5.6875
-30.5,4.552854978444583,-2.4375
-30.5,4.577398671050753,-2.4375
-30.5,4.595806440505381,1.625
-31.0,4.601942363656923,0.0
-30.5,4.638757902566179,-1.625
-31.0,4.669437518323892,-0.8125
-31.0,4.693981210930062,0.0
-31.5,4.706253057233147,0.8125
-31.0,4.743068596142402,-2.4375
-31.5,4.7307967498393175,1.625
-31.0,4.743068596142402,5.6875
-31.0,4.792155981354743,-2.4375
-31.0,4.798291904506286,-2.4375
-31.5,4.767612288748572,7.3125
-31.0,4.792155981354743,1.625
-31.5,4.798291904506286,0.0
-31.5,4.798291904506286,0.0
-31.5,4.7860200582032,1.625
-31.5,4.779884135051658,4.0625
-32.0,4.804427827657828,-0.8125
-31.5,4.81056375080937,-2.4375
-32.0,4.798291904506286,1.625
-32.0,4.81056375080937,-2.4375
-32.0,4.773748211900116,4.875
-32.0,4.76147636559703,4.0625
-31.5,4.792155981354743,0.0
-31.5,4.76147636559703,2.4375
-31.5,4.749204519293945,5.6875
-31.5,4.749204519293945,4.0625
-32.0,4.743068596142402,1.625
-32.0,4.724660826687775,-1.625
-31.5,4.718524903536232,-0.8125
-31.5,4.675573441475434,-1.625
-31.0,4.638757902566179,-0.8125
-31.0,4.614214209960009,-0.8125
-31.5,4.626486056263094,-4.875
-30.5,4.583534594202296,-0.8125
-31.0,4.601942363656923,-8.125
-30.5,4.577398671050753,-5.6875
-30.5,4.565126824747668,-7.3125
-30.0,4.509903516383785,0.0
-30.0,4.503767593232243,0.0
-30.0,4.503767593232243,-1.625
-30.0,4.485359823777615,0.8125
-30.0,4.466952054322987,0.0
-30.0,4.448544284868359,4.0625
-29.5,4.448544284868359,-0.8125
-29.5,4.473087977474529,-4.875
-29.5,4.473087977474529,-7.3125
-29.5,4.399456899656019,4.875
-29.0,4.424000592262189,-1.625
-29.0,4.411728745959104,0.0
-29.0,4.4362724385652745,-4.875
-29.0,4.4362724385652745,-2.4375
-29.0,4.424000592262189,0.0
-29.0,4.4362724385652745,-1.625
-29.0,4.424000592262189,1.625
-28.5,4.399456899656019,4.0625
-28.5,4.411728745959104,1.625
-28.5,4.4362724385652745,-4.875
-28.5,4.411728745959104,-2.4375
-28.5,4.424000592262189,-5.6875
-28.5,4.387185053352934,1.625
-28.5,4.356505437595221,4.0625
-28.0,4.362641360746763,1.625
-28.0,4.3503695144436785,0.8125
-28.5,4.344233591292136,0.8125
-28.0,4.344233591292136,1.625
-28.0,4.331961744989051,2.4375
-28.0,4.356505437595221,-2.4375
-28.0,4.344233591292136,-4.875
-28.0,4.331961744989051,-0.8125
-28.0,4.319689898685965,2.4375
-28.0,4.3074180523828804,0.0
-28.0,4.319689898685965,-4.875
-28.0,4.301282129231338,-1.625
-28.0,4.276738436625168,-0.8125
-28.0,4.252194744018997,1.625
-28.0,4.276738436625168,-5.6875
-28.0,4.227651051412827,1.625
-27.5,4.215379205109742,0.0
-28.0,4.196971435655114,-0.8125
-27.5,4.190835512503572,-0.8125
-28.0,4.1601558967458585,0.8125
-28.0,4.123340357836604,4.0625
-28.0,4.1417481272912315,-4.0625
-27.5,4.1172044346850605,-1.625
-27.5,4.09266074207889,-1.625
-27.5,4.074252972624263,0.0
-28.0,4.031301510563465,1.625
-28.0,4.025165587411922,-2.4375
-27.5,4.000621894805752,-0.8125
-28.0,3.9760782021995817,-0.8125
-28.0,3.9638063558964967,-0.8125
-28.0,3.9392626632903265,-2.4375
-28.0,3.9085830475326135,-0.8125
-28.0,3.8840393549264434,0.8125
-27.5,3.859495662320273,-0.8125
-27.5,3.822680123411018,0.0
-27.5,3.792000507653305,4.0625
-27.5,3.767456815047135,4.875
-27.5,3.761320891895592,0.0
-27.5,3.730641276137879,0.8125
-27.5,3.7122335066832517,2.4375
-27.5,3.6999616603801666,0.8125
-27.5,3.6876898140770815,0.0
-27.0,3.6570101983193686,0.8125
-27.0,3.6324665057131984,0.8125
-27.0,3.6079228131070282,0.8125
-27.5,3.5833791205008576,0.8125
-27.0,3.5588354278946874,-0.8125
-27.0,3.5342917352885173,1.625
-27.0,3.497476196379262,2.4375
-27.0,3.479068426924634,1.625
-27.5,3.442252888015379,2.4375
-27.5,3.423845118560751,2.4375
-27.0,3.393165502803038,0.8125
-27.5,3.3747577333484107,1.625
-27.5,3.3440781175906977,1.625
-27.5,3.32567034813607,0.8125
-27.5,3.3011266555298997,0.8125
-27.5,3.2643111166206444,0.8125
-28.0,3.2397674240144743,0.0
-27.5,3.227495577711389,-1.625
-28.0,3.1661363461959633,0.8125
-28.0,3.147728576741336,-2.4375
-28.0,3.1231848841351653,-2.4375
-28.0,3.08636934522591,-1.625
-28.0,3.0495538063166547,-4.0625
-27.5,2.9759227284981438,4.0625
-27.5,2.9391071895888885,1.625
-27.5,2.9022916506796332,2.4375
-28.0,2.8716120349219203,1.625
-28.0,2.8532042654672924,0.0
-28.0,2.82252464970958,0.0
-28.0,2.791845033951867,0.0
-28.0,2.7550294950426117,1.625
-28.0,2.748893571891069,-0.8125
-28.0,2.718213956133356,0.8125
-28.0,2.7120780329818137,0.8125
-28.5,2.693670263527186,-0.8125
-28.5,2.675262494072558,0.0
-28.5,2.6445828783148455,4.0625
-28.0,2.6261751088602177,4.0625
-28.5,2.6200391857086753,1.625
-28.5,2.6016314162540475,2.4375
-28.5,2.5893595699509624,4.0625
-28.5,2.60776733940559,-0.8125
-28.5,2.564815877344792,4.0625
-28.5,2.5893595699509624,-0.8125
-28.5,2.564815877344792,0.8125
-28.5,2.552544031041707,1.625
-28.5,2.5586799541932495,-0.8125
-29.0,2.5341362615870793,2.4375
-28.5,2.5464081078901644,-0.8125
-28.5,2.5464081078901644,-4.0625
-29.0,2.4911847995262812,5.6875
-29.0,2.4850488763747385,2.4375
-29.0,2.5157284921324514,-1.625
-29.0,2.497320722677824,-1.625
-29.0,2.4850488763747385,-1.625
-29.0,2.466641106920111,0.0
-29.5,2.4727770300716534,-1.625
-29.0,2.454369260617026,0.0
-29.0,2.429825568010856,4.0625
-29.5,2.429825568010856,-0.8125
-29.5,2.411417798556228,1.625
-29.5,2.399145952253143,1.625
-29.5,2.399145952253143,0.0
-29.5,2.3930100291016,-0.8125
-30.0,2.380738182798515,0.0
-30.0,2.380738182798515,-4.875
-30.0,2.325514874434632,4.875
-30.0,2.3316507975861747,0.8125
-30.0,2.3193789512830896,0.8125
-30.0,2.325514874434632,-0.8125
-30.0,2.3193789512830896,-2.4375
-30.0,2.2886993355253766,-0.8125
-30.0,2.270291566070749,1.625
-30.0,2.2641556429192065,0.0
-30.5,2.2334760271614935,4.875
-30.0,2.2212041808584084,5.6875
-30.5,2.2457478734645786,-1.625
-30.0,2.2212041808584084,1.625
-30.5,2.1966604882522383,6.5
-30.5,2.172116795646068,7.3125
-30.5,2.184388641949153,5.6875
-30.5,2.2150682577068657,0.0
-30.5,2.1659808724945253,6.5
-30.5,2.184388641949153,1.625
-30.0,2.184388641949153,-0.8125
-30.5,2.1537090261914402,5.6875
-30.5,2.1659808724945253,0.8125
-30.5,2.1782527187976104,0.0
-30.5,2.1782527187976104,0.0
-30.5,2.12916533358527,5.6875
-30.5,2.1475731030398975,0.8125
-30.5,2.1537090261914402,0.0
-31.0,2.1230294104337273,5.6875
-30.5,2.110757564130642,7.3125
-30.5,2.12916533358527,0.8125
-30.5,2.1230294104337273,0.0
-30.5,2.1046216409791,2.4375
-30.5,2.0923497946760143,5.6875
-30.5,2.12916533358527,-0.8125
-30.5,2.073942025221387,6.5
-31.0,2.0800779483729293,5.6875
-30.5,2.0800779483729293,6.5
-30.5,2.116893487282185,-1.625
-31.0,2.086213871524472,4.875
-30.5,2.1046216409791,-0.8125
-31.0,2.0800779483729293,5.6875
-31.0,2.055534255766759,5.6875
-31.0,2.067806102069844,4.875
-30.5,2.0923497946760143,-0.8125
-30.5,2.0493983326152168,6.5
-30.5,2.067806102069844,4.0625
-30.5,2.086213871524472,-1.625
-30.5,2.073942025221387,0.8125
-30.5,2.030990563160589,6.5
-30.5,2.0371264863121317,4.875
-31.0,2.073942025221387,-0.8125
-30.5,2.024854640009046,6.5
-30.5,2.055534255766759,0.8125
-31.0,2.055534255766759,-0.8125
-31.0,2.055534255766759,0.0
-31.0,2.055534255766759,0.0
-31.0,2.0371264863121317,2.4375
-31.0,2.043262409463674,-0.8125
-31.0,2.000310947402876,8.9375
-30.5,2.018718716857504,1.625
-30.5,2.018718716857504,2.4375
-31.0,2.018718716857504,0.8125
-31.0,2.018718716857504,0.0
-31.0,2.0064468705544187,1.625
-31.0,2.000310947402876,1.625
-31.0,1.9757672547967058,6.5
-31.0,1.9941750242513334,2.4375
-31.0,1.9634954084936207,7.3125
-31.0,1.9696313316451632,4.0625
-31.0,1.9941750242513334,-0.8125
-31.0,2.0064468705544187,-1.625
-31.0,1.9512235621905356,7.3125
-31.0,1.945087639038993,6.5
-31.0,1.9634954084936207,2.4375
-31.0,1.9512235621905356,4.875
-31.0,1.945087639038993,6.5
-31.0,1.945087639038993,4.0625
-31.0,1.9266798695843652,5.6875
-31.0,1.9205439464328227,8.125
-31.0,1.9634954084936207,0.0
-31.0,1.945087639038993,2.4375
-31.0,1.945087639038993,4.0625
-31.0,1.945087639038993,-0.8125
-31.0,1.945087639038993,-0.8125
-31.0,1.8960002538266525,9.75
-31.0,1.932815792735908,2.4375
-31.0,1.9389517158874505,-0.8125
-31.0,1.9205439464328227,2.4375
-31.0,1.8960002538266525,6.5
-31.0,1.902136176978195,1.625
-31.0,1.932815792735908,-0.8125
-31.0,1.9389517158874505,-2.4375
-31.0,1.9144080232812801,0.8125
-31.5,1.932815792735908,-1.625
-31.0,1.8960002538266525,4.0625
-31.0,1.88986433067511,6.5
-31.0,1.932815792735908,-4.0625
-31.5,1.8775924843720249,5.6875
-31.5,1.8960002538266525,4.0625
-31.0,1.9082721001297376,-2.4375
-31.0,1.8775924843720249,7.3125
-31.0,1.8714565612204823,6.5
-31.5,1.9144080232812801,-2.4375
-31.0,1.8714565612204823,7.3125
-31.0,1.8775924843720249,6.5
-31.0,1.9082721001297376,0.8125
-31.5,1.8960002538266525,1.625
-31.0,1.8837284075235674,6.5
-31.0,1.8837284075235674,4.0625
-31.5,1.902136176978195,1.625
-31.0,1.8960002538266525,0.8125
-31.0,1.9144080232812801,-0.8125
-31.5,1.9082721001297376,0.0
-31.0,1.932815792735908,-4.875
-31.0,1.9266798695843652,-4.0625
-31.0,1.8714565612204823,4.875
-31.0,1.8775924843720249,5.6875
-31.5,1.8837284075235674,7.3125
-31.5,1.9144080232812801,-1.625
-31.0,1.9082721001297376,-1.625
-31.0,1.9205439464328227,-1.625
-31.0,1.8775924843720249,5.6875
-31.0,1.9082721001297376,0.8125
-31.5,1.9144080232812801,-0.8125
-31.5,1.88986433067511,4.0625
-31.0,1.8775924843720249,6.5
-31.0,1.9082721001297376,-0.8125
-31.0,1.902136176978195,1.625
-31.0,1.902136176978195,0.8125
-31.0,1.9144080232812801,-0.8125
-31.0,1.8837284075235674,4.875
-31.0,1.9144080232812801,-0.8125
-31.0,1.8653206380689396,7.3125
-31.5,1.8960002538266525,2.4375
-31.0,1.88986433067511,2.4375
-31.0,1.8775924843720249,4.875
-31.0,1.8960002538266525,1.625
-31.0,1.9205439464328227,0.0
-31.0,1.9144080232812801,1.625
-31.0,1.8714565612204823,7.3125
-31.0,1.8775924843720249,4.0625
-31.0,1.9205439464328227,-0.8125
-31.5,1.8837284075235674,4.0625
-31.0,1.9082721001297376,0.0
-31.0,1.9082721001297376,1.625
-31.0,1.9205439464328227,-4.0625
-31.0,1.9144080232812801,0.0
-31.0,1.8960002538266525,4.875
-31.0,1.9205439464328227,-0.8125
-31.0,1.9144080232812801,2.4375
-31.0,1.902136176978195,5.6875
-31.0,1.9082721001297376,2.4375
-31.0,1.9205439464328227,6.5
-31.0,1.9573594853420782,-0.8125
-31.0,1.9082721001297376,8.9375
-31.0,1.932815792735908,6.5
-31.0,1.9573594853420782,-0.8125
-31.0,1.932815792735908,5.6875
-31.0,1.945087639038993,4.0625
-31.0,1.9880391010997909,-2.4375
-31.0,1.9389517158874505,4.875
-31.0,1.945087639038993,6.5
-31.0,1.9696313316451632,2.4375
-31.0,1.9757672547967058,1.625
-31.0,1.9880391010997909,0.8125
-31.0,1.9389517158874505,7.3125
-31.0,1.9757672547967058,4.0625
-31.0,1.9819031779482483,4.875
-31.0,2.012582793705961,0.0
-31.0,1.9880391010997909,5.6875
-30.5,2.018718716857504,4.0625
-31.0,2.0493983326152168,1.625
-30.5,2.0800779483729293,0.0
-30.5,2.0493983326152168,8.9375
-30.5,2.0800779483729293,7.3125
-30.5,2.1353012567368124,0.0
-30.5,2.141437179888355,0.8125
-30.5,2.1659808724945253,0.8125
-30.5,2.2027964114037806,0.0
-30.0,2.2518837966161214,-4.0625
-30.0,2.2948352586769194,-4.875
-30.0,2.2948352586769194,4.0625
-30.0,2.3316507975861747,5.6875
-29.5,2.399145952253143,2.4375
-29.5,2.442097414313941,4.0625
-29.0,2.478912953223196,2.4375
-29.0,2.5341362615870793,-4.0625
-29.0,2.552544031041707,0.8125
-29.0,2.5402721847386216,4.0625
-29.0,2.564815877344792,0.0
-29.0,2.5709518004963345,0.8125
-29.0,2.5954954931025047,-1.625
-29.0,2.5954954931025047,0.8125
-29.0,2.6323110320117604,-4.875
-28.5,2.6445828783148455,-2.4375
-29.0,2.6568547246179306,2.4375
-29.0,2.6875343403756435,4.0625
-28.5,2.779573187648782,4.875
-28.5,2.8777479580734626,6.5
-28.5,3.08636934522591,0.8125
-28.0,3.2397674240144743,1.625
-27.5,3.4054373491061236,4.875
-28.0,3.5833791205008576,2.4375
-28.0,3.7551849687440497,5.6875
-28.5,3.9085830475326135,-1.625
-28.5,3.9699422790480394,0.0
-28.5,4.025165587411922,-1.625
-28.5,4.037437433715008,2.4375
-28.5,4.086524818927348,-1.625
-28.5,4.0987966652304335,0.8125
-28.5,4.1417481272912315,0.0
-28.5,4.147884050442774,0.8125
-28.5,4.1417481272912315,1.625
-28.5,4.123340357836604,0.8125
-29.0,4.111068511533518,2.4375
-29.0,4.1172044346850605,-1.625
-29.0,4.09266074207889,0.0
-29.0,4.06811704947272,1.625
-29.0,4.061981126321178,0.0
-29.0,4.0558452031696355,-1.625
-29.0,4.031301510563465,0.8125
-29.0,4.031301510563465,-0.8125
-28.5,4.006757817957295,0.8125
-29.0,4.000621894805752,0.8125
-28.5,4.000621894805752,0.8125
-29.0,3.9822141253511245,2.4375
-28.5,3.9944859716542096,0.0
-28.5,3.9944859716542096,-0.8125
-28.5,3.988350048502667,0.0
-28.5,4.0128937411088375,-2.4375
-28.0,4.006757817957295,0.0
-28.0,4.01902966426038,-2.4375
-28.0,4.01902966426038,0.0
-28.0,4.031301510563465,-0.8125
-28.0,4.037437433715008,0.0
-28.0,4.037437433715008,0.0
-28.0,4.0558452031696355,-1.625
-28.0,4.0558452031696355,-0.8125
-27.5,4.074252972624263,-2.4375
-27.5,4.086524818927348,-4.0625
-28.0,4.080388895775806,0.0
-27.5,4.086524818927348,0.8125
-28.0,4.0987966652304335,-2.4375
-27.5,4.0987966652304335,-0.8125
-28.0,4.0987966652304335,0.8125
-27.5,4.061981126321178,5.6875
-28.0,4.111068511533518,0.8125
-28.0,4.104932588381976,1.625
-28.0,4.111068511533518,-0.8125
-28.0,4.123340357836604,-1.625
-28.0,4.123340357836604,-0.8125
-28.0,4.1172044346850605,0.0
-28.0,4.123340357836604,0.0
-28.0,4.135612204139688,-1.625
-28.0,4.123340357836604,-1.625
-28.0,4.129476280988146,-2.4375
-28.0,4.111068511533518,0.8125
-28.0,4.1172044346850605,0.0
-28.0,4.111068511533518,0.0
-28.0,4.123340357836604,0.8125
-28.0,4.123340357836604,0.8125
-28.0,4.123340357836604,1.625
-28.0,4.129476280988146,-0.8125
-28.5,4.129476280988146,-0.8125
-28.0,4.1417481272912315,-4.0625
-28.0,4.147884050442774,-2.4375
-28.0,4.147884050442774,0.0
-28.5,4.1601558967458585,-0.8125
-28.5,4.178563666200486,-1.625
-28.5,4.172427743048944,-0.8125
-28.5,4.172427743048944,-1.625
-28.5,4.1601558967458585,0.8125
-28.0,4.178563666200486,-1.625
-28.5,4.1601558967458585,1.625
-28.5,4.154019973594316,0.8125
-28.5,4.1601558967458585,0.8125
-28.5,4.1601558967458585,-0.8125
-28.5,4.166291819897402,-2.4375
-28.5,4.166291819897402,-1.625
-28.5,4.1601558967458585,-2.4375
-28.5,4.154019973594316,0.0
-28.5,4.166291819897402,-0.8125
-28.5,4.147884050442774,0.8125
-28.5,4.147884050442774,0.8125
-28.5,4.154019973594316,-1.625
-28.5,4.135612204139688,0.8125
-28.5,4.1417481272912315,0.0
-28.5,4.135612204139688,0.8125
-28.5,4.135612204139688,2.4375
-28.5,4.129476280988146,2.4375
-28.5,4.147884050442774,-0.8125
-28.5,4.135612204139688,-0.8125
-28.5,4.135612204139688,0.8125
-28.5,4.135612204139688,-0.8125
-28.5,4.1172044346850605,1.625
-28.5,4.135612204139688,0.8125
-28.5,4.1417481272912315,-1.625
-28.5,4.129476280988146,-1.625
-28.5,4.135612204139688,-1.625
-28.5,4.123340357836604,0.8125
-28.5,4.129476280988146,0.0
-28.5,4.123340357836604,0.8125
-28.5,4.1417481272912315,-2.4375
-28.5,4.1417481272912315,-4.0625
-28.5,4.135612204139688,-2.4375
-28.5,4.135612204139688,-1.625
-28.5,4.111068511533518,4.0625
-28.5,4.1172044346850605,0.8125
-28.5,4.123340357836604,0.0
-28.5,4.135612204139688,-2.4375
-28.5,4.123340357836604,0.0
-28.5,4.123340357836604,0.8125
-28.5,4.1172044346850605,-0.8125
-28.5,4.135612204139688,-4.0625
-28.5,4.104932588381976,1.625
-28.0,4.0987966652304335,4.875
-28.5,4.1172044346850605,0.8125
-28.5,4.123340357836604,0.8125
-28.5,4.104932588381976,2.4375
-28.5,4.1172044346850605,0.0
-28.0,4.135612204139688,-2.4375
-29.0,4.1172044346850605,1.625
-28.5,4.129476280988146,-1.625
-28.5,4.111068511533518,0.0
-28.5,4.123340357836604,-1.625
-28.5,4.129476280988146,-2.4375
-28.5,4.129476280988146,-0.8125
-28.5,4.111068511533518,0.8125
-28.5,4.123340357836604,0.0
-28.5,4.123340357836604,-0.8125
-28.5,4.1172044346850605,0.8125
-28.5,4.129476280988146,0.0
-28.5,4.129476280988146,0.0
-28.5,4.129476280988146,-1.625
-28.5,4.1172044346850605,0.0
-28.5,4.123340357836604,0.0
-28.5,4.111068511533518,2.4375
-28.5,4.1417481272912315,-2.4375
-28.5,4.1172044346850605,1.625
-28.5,4.123340357836604,0.8125
-28.5,4.123340357836604,0.8125
-28.5,4.135612204139688,0.8125
-28.5,4.135612204139688,-1.625
-28.5,4.1172044346850605,2.4375
-28.5,4.123340357836604,1.625
-28.5,4.135612204139688,0.8125
-28.5,4.135612204139688,0.8125
