-34.0,0.9633399347921826,2.4375
-34.0,0.9633399347921826,4.875
-33.5,0.9817477042468103,0.8125
-34.0,0.9756117810952678,3.25
-34.0,0.9694758579437253,2.4375
-34.0,0.9633399347921826,4.875
-34.0,0.9756117810952678,3.25
-34.0,0.9694758579437253,4.875
-34.0,0.9694758579437253,5.6875
-34.0,0.9817477042468103,3.25
-34.0,0.9756117810952678,4.875
-34.0,0.9694758579437253,5.6875
-34.0,0.9878836273983529,4.875
-34.0,0.9756117810952678,4.875
-34.0,0.9878836273983529,3.25
-34.0,0.9878836273983529,3.25
-34.0,0.9878836273983529,3.25
-34.0,0.9878836273983529,4.875
-34.0,0.9940195505498954,4.875
-34.0,1.000155473701438,3.25
-34.0,0.9940195505498954,2.4375
-34.0,0.9878836273983529,4.875
-33.5,0.9878836273983529,6.5
-33.5,0.9940195505498954,4.875
-34.0,0.9940195505498954,5.6875
-33.5,0.9878836273983529,6.5
-34.0,1.012427320004523,2.4375
-34.0,1.000155473701438,6.5
-33.5,1.030835089459151,0.8125
-34.0,1.0369710126106935,0.8125
-34.0,1.0246991663076084,4.875
-34.0,1.0369710126106935,2.4375
-33.5,1.0492428589137786,3.25
-33.5,1.055378782065321,4.875
-34.0,1.0492428589137786,5.6875
-34.0,1.055378782065321,5.6875
-33.5,1.086058397823034,1.625
-33.5,1.0737865515199487,3.25
-33.5,1.086058397823034,1.625
-33.5,1.086058397823034,1.625
-33.5,1.0921943209745766,3.25
-33.5,1.0737865515199487,6.5
-33.5,1.0921943209745766,4.875
-33.0,1.0983302441261191,3.25
-33.5,1.086058397823034,6.5
-33.0,1.0799224746714913,7.3125
-33.5,1.1167380135807468,2.4375
-33.0,1.1167380135807468,4.875
-33.0,1.0921943209745766,8.125
-33.5,1.1474176293384597,1.625
-33.5,1.1474176293384597,1.625
-33.0,1.1535535524900022,2.4375
-33.0,1.1474176293384597,5.6875
-33.0,1.1535535524900022,4.875
-33.5,1.1474176293384597,3.25
-33.0,1.1474176293384597,6.5
-33.0,1.1535535524900022,5.6875
-33.0,1.1596894756415448,5.6875
-33.0,1.1780972450961724,2.4375
-33.0,1.1903690913992575,1.625
-33.0,1.1780972450961724,5.6875
-33.0,1.2026409377023426,0.8125
-33.0,1.2087768608538851,2.4375
-33.0,1.2026409377023426,4.875
-33.0,1.214912784005428,0.8125
-32.5,1.214912784005428,2.4375
-32.5,1.2087768608538851,3.25
-33.0,1.214912784005428,3.25
-33.0,1.214912784005428,2.4375
-33.0,1.2087768608538851,1.625
-32.5,1.227184630308513,0.8125
-32.5,1.2026409377023426,3.25
-32.5,1.2026409377023426,2.4375
-32.5,1.2026409377023426,4.875
-32.5,1.227184630308513,0.8125
-32.5,1.2210487071569704,1.625
-32.5,1.214912784005428,2.4375
-32.5,1.2087768608538851,3.25
-32.5,1.2210487071569704,2.4375
-32.5,1.1965050145508,2.4375
-32.5,1.2087768608538851,3.25
-32.5,1.2087768608538851,3.25
-32.5,1.214912784005428,3.25
-32.5,1.2087768608538851,4.875
-32.5,1.227184630308513,2.4375
-32.5,1.227184630308513,0.8125
-32.5,1.214912784005428,3.25
-32.5,1.2333205534600555,1.625
-32.5,1.2333205534600555,1.625
-32.5,1.239456476611598,0.8125
-32.5,1.2517283229146832,1.625
-32.5,1.2210487071569704,5.6875
-32.5,1.227184630308513,4.875
-32.5,1.2333205534600555,1.625
-32.5,1.2517283229146832,0.8125
-32.5,1.239456476611598,2.4375
-32.5,1.2578642460662257,3.25
-32.5,1.239456476611598,5.6875
-32.5,1.2578642460662257,1.625
-32.5,1.2517283229146832,6.5
-32.5,1.2455923997631406,5.6875
-32.5,1.2578642460662257,5.6875
-32.5,1.2701360923693108,2.4375
-32.5,1.2578642460662257,5.6875
-32.5,1.2762720155208536,3.25
-32.5,1.2946797849754812,0.8125
-32.5,1.2762720155208536,5.6875
-32.5,1.2762720155208536,4.875
-32.5,1.2946797849754812,1.625
-32.5,1.2762720155208536,5.6875
-32.5,1.3008157081270237,3.25
-32.5,1.2946797849754812,5.6875
-32.5,1.3008157081270237,5.6875
-32.5,1.3069516312785663,1.625
-32.5,1.3069516312785663,2.4375
-32.5,1.3130875544301088,1.625
-32.5,1.3069516312785663,1.625
-32.5,1.3130875544301088,3.25
-32.5,1.325359400733194,0.8125
-32.5,1.3437671701878218,0.8125
-32.5,1.3069516312785663,7.3125
-32.5,1.3314953238847365,0.0
-32.5,1.3314953238847365,3.25
-32.5,1.3130875544301088,5.6875
-32.5,1.3314953238847365,4.875
-32.5,1.337631247036279,4.875
-32.5,1.325359400733194,5.6875
-32.5,1.3499030933393643,2.4375
-32.5,1.3437671701878218,5.6875
-32.5,1.337631247036279,5.6875
-32.5,1.3621749396424494,3.25
-33.0,1.3560390164909069,3.25
-32.5,1.3314953238847365,7.3125
-32.5,1.3621749396424494,5.6875
-32.5,1.3744467859455345,1.625
-32.5,1.3621749396424494,6.5
-33.0,1.3744467859455345,3.25
-33.0,1.3744467859455345,3.25
-32.5,1.3928545554001621,0.0
-32.5,1.380582709097077,4.875
-33.0,1.3560390164909069,8.125
-33.0,1.3867186322486196,4.875
-32.5,1.4051264017032472,2.4375
-33.0,1.423534171157875,0.0
-33.0,1.3928545554001621,3.25
-32.5,1.41126232485479,0.8125
-32.5,1.4051264017032472,3.25
-32.5,1.4358060174609601,0.0
-33.0,1.4173982480063325,3.25
-33.0,1.4358060174609601,-0.8125
-33.0,1.4480778637640452,-1.625
-32.5,1.4480778637640452,-2.4375
-32.5,1.4419419406125027,-0.8125
-32.5,1.41126232485479,0.0
-32.5,1.423534171157875,0.0
-32.5,1.41126232485479,3.25
-32.5,1.423534171157875,3.25
-32.5,1.4296700943094176,1.625
-32.5,1.4051264017032472,5.6875
-32.5,1.3928545554001621,5.6875
-32.5,1.423534171157875,1.625
-32.5,1.41126232485479,3.25
-32.5,1.3928545554001621,7.3125
-32.5,1.4358060174609601,0.8125
-32.5,1.4419419406125027,0.8125
-32.5,1.4173982480063325,3.25
-32.5,1.4296700943094176,2.4375
-32.5,1.4358060174609601,2.4375
-32.5,1.4419419406125027,0.8125
-32.5,1.4603497100671303,-1.625
-32.5,1.4419419406125027,0.8125
-32.5,1.4358060174609601,3.25
-32.5,1.4296700943094176,2.4375
-32.5,1.4603497100671303,-0.8125
-32.5,1.4542137869155878,0.8125
-32.5,1.4603497100671303,-0.8125
-32.5,1.4173982480063325,6.5
-32.5,1.4664856332186729,-0.8125
-32.5,1.4480778637640452,2.4375
-32.5,1.4603497100671303,0.0
-32.5,1.4787574795217582,0.0
-32.5,1.4787574795217582,0.8125
-32.5,1.5033011721279284,-1.625
-32.5,1.4848934026733007,2.4375
-32.5,1.509437095279471,-0.8125
-32.5,1.5155730184310134,-1.625
-32.5,1.4910293258248433,3.25
-32.5,1.4971652489763858,0.8125
-32.0,1.5033011721279284,4.875
-32.5,1.4971652489763858,2.4375
-32.5,1.5155730184310134,0.0
-32.5,1.521708941582556,-0.8125
-32.5,1.4971652489763858,3.25
-32.0,1.5033011721279284,3.25
-32.0,1.5278448647340985,0.0
-32.5,1.5585244804918115,-1.625
-32.5,1.5462526341887264,0.0
-32.5,1.552388557340269,-1.625
-32.5,1.533980787885641,2.4375
-32.5,1.5401167110371838,2.4375
-32.0,1.5401167110371838,3.25
-32.5,1.5585244804918115,1.625
-32.5,1.552388557340269,1.625
-32.0,1.5585244804918115,2.4375
-32.0,1.5401167110371838,5.6875
-32.0,1.5585244804918115,0.8125
-32.0,1.564660403643354,2.4375
-32.0,1.5707963267948966,0.8125
-32.0,1.5892040962495242,2.4375
-32.0,1.5830681730979816,2.4375
-32.0,1.5892040962495242,2.4375
-32.0,1.5892040962495242,2.4375
-32.0,1.5953400194010667,4.875
-32.0,1.607611865704152,1.625
-32.0,1.6014759425526093,3.25
-32.0,1.607611865704152,1.625
-32.0,1.6137477888556946,1.625
-32.0,1.6198837120072371,3.25
-32.0,1.607611865704152,4.875
-32.0,1.607611865704152,4.875
-31.5,1.6260196351587797,2.4375
-32.0,1.6382914814618648,1.625
-32.0,1.6321555583103222,2.4375
-32.0,1.6321555583103222,2.4375
-31.5,1.6198837120072371,3.25
-31.5,1.6260196351587797,4.875
-32.0,1.6382914814618648,2.4375
-32.0,1.6260196351587797,4.875
-31.5,1.6321555583103222,4.875
-31.5,1.6444274046134073,2.4375
-31.5,1.6444274046134073,2.4375
-32.0,1.6382914814618648,5.6875
-32.0,1.6505633277649499,2.4375
-31.5,1.6444274046134073,2.4375
-32.0,1.6566992509164924,1.625
-31.5,1.6689710972195777,-0.8125
-32.0,1.6505633277649499,5.6875
-32.0,1.6505633277649499,1.625
-31.5,1.6566992509164924,2.4375
-31.5,1.6505633277649499,1.625
-31.5,1.6505633277649499,4.875
-31.5,1.6444274046134073,3.25
-31.5,1.662835174068035,2.4375
-32.0,1.6505633277649499,5.6875
-31.5,1.6751070203711202,0.8125
-32.0,1.662835174068035,4.875
-31.5,1.6566992509164924,4.875
-31.5,1.662835174068035,3.25
-31.5,1.6873788666742053,0.0
-31.5,1.662835174068035,3.25
-31.5,1.6566992509164924,5.6875
-31.5,1.6566992509164924,3.25
-31.5,1.6935147898257479,1.625
-31.5,1.662835174068035,5.6875
-31.5,1.6873788666742053,1.625
-31.5,1.6751070203711202,4.875
-31.5,1.6812429435226628,4.875
-31.5,1.6996507129772904,3.25
-31.5,1.6996507129772904,2.4375
-31.5,1.6935147898257479,3.25
-31.5,1.705786636128833,2.4375
-31.5,1.6996507129772904,3.25
-31.5,1.7303303287350031,1.625
-31.5,1.6996507129772904,4.875
-31.5,1.7241944055834606,4.875
-31.5,1.748738098189631,0.0
-31.5,1.7241944055834606,3.25
-31.5,1.7426021750380885,2.4375
-31.5,1.748738098189631,1.625
-31.5,1.7671458676442586,1.625
-31.5,1.748738098189631,5.6875
-32.0,1.7916895602504288,0.0
-31.5,1.7855536370988863,1.625
-32.0,1.7794177139473437,4.875
-31.5,1.7978254834019713,2.4375
-31.5,1.8039614065535141,3.25
-32.0,1.8100973297050567,2.4375
-32.0,1.8346410223112268,4.875
-32.0,1.8407769454627694,3.25
-32.5,1.8346410223112268,2.4375
-32.5,1.846912868614312,1.625
-32.5,1.8346410223112268,0.8125
-32.5,1.8346410223112268,0.8125
-32.5,1.8223691760081417,2.4375
-32.5,1.8223691760081417,3.25
-32.5,1.8162332528565992,4.875
-32.5,1.8285050991596843,3.25
-32.5,1.846912868614312,0.8125
-32.5,1.8346410223112268,1.625
-32.5,1.8407769454627694,2.4375
-32.5,1.846912868614312,1.625
-32.5,1.8285050991596843,5.6875
-32.5,1.8162332528565992,7.3125
-32.5,1.8407769454627694,0.8125
-32.5,1.846912868614312,2.4375
-32.5,1.8346410223112268,3.25
-32.5,1.8039614065535141,7.3125
-32.5,1.8346410223112268,2.4375
-32.5,1.8285050991596843,0.8125
-32.5,1.8223691760081417,1.625
-32.5,1.8223691760081417,2.4375
-32.5,1.8100973297050567,3.25
-32.5,1.8162332528565992,2.4375
-32.5,1.8039614065535141,5.6875
-32.5,1.8346410223112268,0.0
-32.5,1.8162332528565992,1.625
-32.5,1.8285050991596843,1.625
-32.5,1.8039614065535141,6.5
-32.5,1.8223691760081417,1.625
-32.5,1.8100973297050567,3.25
-32.5,1.8346410223112268,1.625
-32.5,1.8039614065535141,5.6875
-32.5,1.8039614065535141,3.25
-32.5,1.8039614065535141,6.5
-32.5,1.8285050991596843,0.8125
-32.5,1.8223691760081417,4.875
-32.5,1.8162332528565992,3.25
-32.5,1.8162332528565992,4.875
-32.5,1.8162332528565992,2.4375
-32.5,1.8039614065535141,3.25
-32.5,1.8100973297050567,1.625
-32.5,1.8223691760081417,-0.8125
-32.5,1.7978254834019713,2.4375
-33.0,1.7916895602504288,2.4375
-32.5,1.8039614065535141,1.625
-32.5,1.7794177139473437,5.6875
-33.0,1.7732817907958012,6.5
-32.5,1.7916895602504288,1.625
-32.5,1.7916895602504288,1.625
-32.5,1.7916895602504288,2.4375
-32.5,1.7794177139473437,1.625
-32.5,1.7855536370988863,1.625
-32.5,1.7732817907958012,4.875
-33.0,1.7978254834019713,2.4375
-32.5,1.7732817907958012,4.875
-32.5,1.7855536370988863,5.6875
-32.5,1.8100973297050567,-1.625
-32.5,1.7978254834019713,1.625
-32.5,1.7916895602504288,2.4375
-32.5,1.7732817907958012,6.5
-32.5,1.7855536370988863,2.4375
-32.5,1.8039614065535141,0.0
-33.0,1.7732817907958012,4.875
-32.5,1.7855536370988863,2.4375
-32.5,1.7794177139473437,2.4375
-32.5,1.7794177139473437,3.25
-32.5,1.761009944492716,5.6875
-33.0,1.7855536370988863,0.8125
-32.5,1.7671458676442586,3.25
-32.5,1.7855536370988863,0.8125
-32.5,1.7855536370988863,0.0
-32.5,1.7794177139473437,0.8125
