E280110020007B1E57E608E5,1,1473189190183554,1473189190183554,1,0.0,13312,-57.0,865.7,0.0
E28011002000795E57E608E5,1,1473189190186129,1473189190186129,1,0.8125,13312,-42.5,865.7,4.3565054
E280110020007A9E57E608E5,1,1473189190187686,1473189190187686,1,-7.3125,13312,-57.0,865.7,4.12334
E28011002000785E57E608E5,1,1473189190189477,1473189190189477,1,3.25,13312,-43.5,865.7,3.0066023
E28011002000799E57E608E5,1,1473189190191290,1473189190191290,1,0.0,13312,-46.5,865.7,1.2026409
E28011002000709E57EA08E5,1,1473189190192889,1473189190192889,1,-5.6875,13312,-43.5,865.7,4.577399
E280110020007ADE57E608E5,1,1473189190194567,1473189190194567,1,1.625,13312,-39.5,865.7,4.0435734
E28011002000715E57EA08E5,1,1473189190197849,1473189190197849,1,4.0625,13312,-41.5,865.7,0.28225246
E28011002000725E57EA08E5,1,1473189190199410,1473189190199410,1,0.0,13312,-49.5,865.7,0.6626797
E28011002000775E57E208E5,1,1473189190200721,1473189190200721,1,0.0,13312,-48.5,865.7,3.7674568
E28011002000779E57E208E5,1,1473189190202196,1473189190202196,1,6.5,13312,-48.0,865.7,1.2824079
E28011002000711E57EA08E5,1,1473189190211568,1473189190211568,1,9.75,13312,-49.5,865.7,3.2397673
E28011002000745E57EB08E5,1,1473189190212872,1473189190212872,1,4.875,13312,-44.5,865.7,3.5711074
E28011002000739E57EA08E5,1,1473189190215672,1473189190215672,1,5.6875,13312,-37.5,865.7,3.3870296
E28011002000715E57EA08E5,1,1473189190217737,1473189190217737,1,0.0,13312,-41.5,865.7,0.28225246
E28011002000765E57EB08E5,1,1473189190219122,1473189190219122,1,7.3125,13312,-38.5,865.7,3.7674568
E28011002000719E57EA08E5,1,1473189190220456,1473189190220456,1,2.4375,13312,-44.5,865.7,1.7303303
E28011002000795E57E608E5,1,1473189190221798,1473189190221798,1,0.8125,13312,-42.5,865.7,4.3442335
E2801100200070DE57EA08E5,1,1473189190223404,1473189190223404,1,1.625,13312,-47.0,865.7,1.4664856
E280110020007ADE57E608E5,1,1473189190224730,1473189190224730,1,5.6875,13312,-39.5,865.7,4.0190296
E28011002000799E57E608E5,1,1473189190226221,1473189190226221,1,4.875,13312,-46.5,865.7,1.1658254
E280110020007A9E57E608E5,1,1473189190227818,1473189190227818,1,4.875,13312,-57.5,865.7,4.068117
E280110020007B1E57E608E5,1,1473189190229178,1473189190229178,1,5.6875,13312,-58.0,865.7,6.1850104
E2801100200078DE57E608E5,1,1473189190230559,1473189190230559,1,5.6875,13312,-39.5,865.7,3.3011267
E28011002000775E57E208E5,1,1473189190232124,1473189190232124,1,4.875,13312,-49.0,865.7,3.755185
E28011002000709E57EA08E5,1,1473189190233688,1473189190233688,1,2.4375,13312,-43.5,865.7,4.5099034
E28011002000785E57E608E5,1,1473189190235225,1473189190235225,1,7.3125,13312,-43.5,865.7,3.0066023
E28011002000779E57E208E5,1,1473189190236837,1473189190236837,1,3.25,13312,-48.5,865.7,1.2885438
E28011002000791E57E608E5,1,1473189190239269,1473189190239269,1,14.625,13312,-54.0,865.7,2.1966605
E28011002000725E57EA08E5,1,1473189190241448,1473189190241448,1,-4.875,13312,-49.5,865.7,0.6933593
E28011002000799E57E608E5,1,1473189190250645,1473189190250645,1,5.6875,13312,-46.5,865.7,1.1535536
E28011002000709E57EA08E5,1,1473189190252209,1473189190252209,1,2.4375,13312,-43.5,865.7,4.534447
E28011002000785E57E608E5,1,1473189190253783,1473189190253783,1,0.0,13312,-43.0,865.7,3.031146
E28011002000725E57EA08E5,1,1473189190255125,1473189190255125,1,5.6875,13312,-49.5,865.7,0.6565438
E28011002000745E57EB08E5,1,1473189190257450,1473189190257450,1,-0.8125,13312,-44.5,865.7,3.6017869
E28011002000711E57EA08E5,1,1473189190259512,1473189190259512,1,1.625,13312,-49.5,865.7,3.2520392
E2801100200070DE57EA08E5,1,1473189190260792,1473189190260792,1,4.0625,13312,-47.0,865.7,1.4664856
E28011002000791E57E608E5,1,1473189190262626,1473189190262626,1,-4.0625,13312,-54.0,865.7,2.3009713
E280110020007A9E57E608E5,1,1473189190263952,1473189190263952,1,2.4375,13312,-57.0,865.7,4.086525
E28011002000765E57EB08E5,1,1473189190265293,1473189190265293,1,5.6875,13312,-39.0,865.7,3.7797287
E28011002000739E57EA08E5,1,1473189190266638,1473189190266638,1,2.4375,13312,-37.5,865.7,3.3931656
E28011002000719E57EA08E5,1,1473189190267974,1473189190267974,1,6.5,13312,-44.5,865.7,1.7119225
E28011002000715E57EA08E5,1,1473189190270769,1473189190270769,1,0.8125,13312,-41.5,865.7,0.28225246
E280110020007ADE57E608E5,1,1473189190272082,1473189190272082,1,0.8125,13312,-39.5,865.7,4.0374374
E28011002000775E57E208E5,1,1473189190274047,1473189190274047,1,5.6875,13312,-49.0,865.7,3.742913
E28011002000779E57E208E5,1,1473189190275932,1473189190275932,1,4.875,13312,-48.5,865.7,1.2640002
E28011002000795E57E608E5,1,1473189190277273,1473189190277273,1,0.0,13312,-42.5,865.7,4.3380976
E2801100200078DE57E608E5,1,1473189190278627,1473189190278627,1,9.75,13312,-40.0,865.7,3.282719
E280110020007B1E57E608E5,1,1473189190280966,1473189190280966,1,1.625,13312,-57.5,865.7,6.252506
E28011002000719E57EA08E5,1,1473189190293169,1473189190293169,1,8.125,13312,-44.5,865.7,1.7119225
E28011002000795E57E608E5,1,1473189190294427,1473189190294427,1,2.4375,13312,-42.5,865.7,4.3319616
E28011002000775E57E208E5,1,1473189190295793,1473189190295793,1,1.625,13312,-48.5,865.7,3.749049
E28011002000779E57E208E5,1,1473189190297434,1473189190297434,1,-3.25,13312,-48.0,865.7,1.356039
E2801100200070DE57EA08E5,1,1473189190298798,1473189190298798,1,0.8125,13312,-47.0,865.7,1.4664856
E28011002000765E57EB08E5,1,1473189190300350,1473189190300350,1,2.4375,13312,-39.0,865.7,3.7797287
E28011002000715E57EA08E5,1,1473189190301980,1473189190301980,1,2.4375,13312,-41.0,865.7,0.2699806
E280110020007ADE57E608E5,1,1473189190303533,1473189190303533,1,3.25,13312,-39.5,865.7,4.0374374
E28011002000791E57E608E5,1,1473189190304827,1473189190304827,1,9.75,13312,-54.0,865.7,2.2273402
E28011002000725E57EA08E5,1,1473189190307609,1473189190307609,1,0.0,13312,-49.5,865.7,0.6810875
E28011002000709E57EA08E5,1,1473189190310581,1473189190310581,1,1.625,13312,-43.5,865.7,4.546719
E280110020007A9E57E608E5,1,1473189190311911,1473189190311911,1,3.25,13312,-57.0,865.7,4.086525
E28011002000745E57EB08E5,1,1473189190313869,1473189190313869,1,2.4375,13312,-44.5,865.7,3.589515
E28011002000785E57E608E5,1,1473189190315451,1473189190315451,1,6.5,13312,-43.5,865.7,2.9943304
E28011002000739E57EA08E5,1,1473189190316755,1473189190316755,1,2.4375,13312,-37.5,865.7,3.3870296
E280110020007B1E57E608E5,1,1473189190318586,1473189190318586,1,17.0625,13312,-57.5,865.7,6.1972823
E2801100200078DE57E608E5,1,1473189190320091,1473189190320091,1,4.0625,13312,-40.0,865.7,3.3133986
E28011002000799E57E608E5,1,1473189190321923,1473189190321923,1,5.6875,13312,-46.5,865.7,1.1658254
E28011002000711E57EA08E5,1,1473189190325950,1473189190325950,1,4.0625,13312,-49.5,865.7,3.2397673
E28011002000745E57EB08E5,1,1473189190334976,1473189190334976,1,4.875,13312,-44.5,865.7,3.577243
E28011002000765E57EB08E5,1,1473189190336556,1473189190336556,1,4.875,13312,-38.5,865.7,3.7613208
E28011002000775E57E208E5,1,1473189190337867,1473189190337867,1,5.6875,13312,-48.5,865.7,3.7367773
E2801100200078DE57E608E5,1,1473189190339929,1473189190339929,1,8.9375,13312,-40.0,865.7,3.276583
E28011002000711E57EA08E5,1,1473189190341295,1473189190341295,1,12.1875,13312,-49.5,865.7,3.202952
E280110020007ADE57E608E5,1,1473189190342577,1473189190342577,1,1.625,13312,-39.5,865.7,4.0374374
E28011002000725E57EA08E5,1,1473189190343919,1473189190343919,1,3.25,13312,-49.0,865.7,0.6626797
E28011002000795E57E608E5,1,1473189190345741,1473189190345741,1,1.625,13312,-42.5,865.7,4.3503695
E28011002000799E57E608E5,1,1473189190347075,1473189190347075,1,-2.4375,13312,-46.5,865.7,1.2026409
E28011002000709E57EA08E5,1,1473189190348426,1473189190348426,1,-1.625,13312,-43.5,865.7,4.540583
E28011002000785E57E608E5,1,1473189190349978,1473189190349978,1,4.875,13312,-43.5,865.7,3.0066023
E28011002000715E57EA08E5,1,1473189190351557,1473189190351557,1,3.25,13312,-41.5,865.7,0.25770876
E28011002000739E57EA08E5,1,1473189190354432,1473189190354432,1,5.6875,13312,-37.5,865.7,3.3870296
E2801100200070DE57EA08E5,1,1473189190356037,1473189190356037,1,8.9375,13312,-47.0,865.7,1.441942
E28011002000779E57E208E5,1,1473189190358712,1473189190358712,1,-0.8125,13312,-48.5,865.7,1.2946798
E28011002000719E57EA08E5,1,1473189190359992,1473189190359992,1,4.0625,13312,-45.0,865.7,1.7057866
E280110020007A9E57E608E5,1,1473189190362689,1473189190362689,1,3.25,13312,-57.0,865.7,4.104933
E280110020007B1E57E608E5,1,1473189190364576,1473189190364576,1,5.6875,13312,-58.0,865.7,6.2034183
E28011002000791E57E608E5,1,1473189190365941,1473189190365941,1,0.8125,13312,-53.5,865.7,2.2948353
E28011002000709E57EA08E5,1,1473189190375163,1473189190375163,1,0.8125,13312,-43.5,865.7,4.546719
E28011002000775E57E208E5,1,1473189190376474,1473189190376474,1,5.6875,13312,-49.0,865.7,3.755185
E28011002000711E57EA08E5,1,1473189190377811,1473189190377811,1,-1.625,13312,-49.5,865.7,3.270447
E28011002000779E57E208E5,1,1473189190379893,1473189190379893,1,5.6875,13312,-48.0,865.7,1.2824079
E28011002000765E57EB08E5,1,1473189190381431,1473189190381431,1,6.5,13312,-39.0,865.7,3.7613208
E28011002000795E57E608E5,1,1473189190383028,1473189190383028,1,0.8125,13312,-42.5,865.7,4.3442335
E2801100200078DE57E608E5,1,1473189190384368,1473189190384368,1,3.25,13312,-39.5,865.7,3.2888548
E2801100200070DE57EA08E5,1,1473189190386441,1473189190386441,1,4.875,13312,-47.5,865.7,1.4480779
E280110020007ADE57E608E5,1,1473189190388515,1473189190388515,1,2.4375,13312,-39.0,865.7,4.0435734
E28011002000785E57E608E5,1,1473189190389824,1473189190389824,1,1.625,13312,-43.5,865.7,3.0127382
E280110020007A9E57E608E5,1,1473189190391421,1473189190391421,1,-3.25,13312,-57.0,865.7,4.129476
E28011002000739E57EA08E5,1,1473189190394254,1473189190394254,1,3.25,13312,-37.5,865.7,3.3931656
E280110020007B1E57E608E5,1,1473189190395604,1473189190395604,1,14.625,13312,-57.5,865.7,6.2034183
E28011002000719E57EA08E5,1,1473189190397390,1473189190397390,1,5.6875,13312,-45.0,865.7,1.7057866
E28011002000715E57EA08E5,1,1473189190399009,1473189190399009,1,0.0,13312,-41.5,865.7,0.28225246
E28011002000725E57EA08E5,1,1473189190400549,1473189190400549,1,11.375,13312,-49.0,865.7,0.5829127
E28011002000799E57E608E5,1,1473189190402137,1473189190402137,1,2.4375,13312,-46.5,865.7,1.1719613
E28011002000745E57EB08E5,1,1473189190403725,1473189190403725,1,1.625,13312,-44.5,865.7,3.6017869
E28011002000791E57E608E5,1,1473189190405301,1473189190405301,1,0.0,13312,-53.5,865.7,2.2702916
E28011002000745E57EB08E5,1,1473189190417934,1473189190417934,1,4.875,13312,-44.5,865.7,3.589515
E28011002000739E57EA08E5,1,1473189190419238,1473189190419238,1,4.875,13312,-38.0,865.7,3.3993015
E28011002000799E57E608E5,1,1473189190420571,1473189190420571,1,4.875,13312,-46.5,865.7,1.1658254
E2801100200070DE57EA08E5,1,1473189190421950,1473189190421950,1,-2.4375,13312,-47.5,865.7,1.4971652
E280110020007B1E57E608E5,1,1473189190423300,1473189190423300,1,17.0625,13312,-58.0,865.7,6.1236515
E28011002000725E57EA08E5,1,1473189190425908,1473189190425908,1,6.5,13312,-49.0,865.7,0.6320001
E28011002000711E57EA08E5,1,1473189190427471,1473189190427471,1,11.375,13312,-49.0,865.7,3.19068
E280110020007ADE57E608E5,1,1473189190429820,1473189190429820,1,3.25,13312,-39.5,865.7,4.0374374
E28011002000795E57E608E5,1,1473189190431189,1473189190431189,1,0.0,13312,-42.5,865.7,4.3503695
E28011002000785E57E608E5,1,1473189190432515,1473189190432515,1,1.625,13312,-43.0,865.7,3.02501
E28011002000779E57E208E5,1,1473189190434041,1473189190434041,1,-1.625,13312,-48.0,865.7,1.3130876
E28011002000765E57EB08E5,1,1473189190435426,1473189190435426,1,2.4375,13312,-39.0,865.7,3.7858646
E28011002000775E57E208E5,1,1473189190437516,1473189190437516,1,8.9375,13312,-48.5,865.7,3.7183695
E280110020007A9E57E608E5,1,1473189190439120,1473189190439120,1,5.6875,13312,-57.0,865.7,4.0435734
E28011002000791E57E608E5,1,1473189190441311,1473189190441311,1,8.9375,13312,-54.0,865.7,2.2580197
E28011002000715E57EA08E5,1,1473189190442900,1473189190442900,1,0.0,13312,-41.5,865.7,0.2945243
E28011002000719E57EA08E5,1,1473189190444693,1473189190444693,1,5.6875,13312,-44.5,865.7,1.7057866
E28011002000709E57EA08E5,1,1473189190446017,1473189190446017,1,-1.625,13312,-43.5,865.7,4.565127
E2801100200078DE57E608E5,1,1473189190447341,1473189190447341,1,7.3125,13312,-40.0,865.7,3.282719
E28011002000775E57E208E5,1,1473189191085590,1473189191085590,1,7.3125,13312,-45.5,865.7,3.4729326
E2801100200078DE57E608E5,1,1473189191087436,1473189191087436,1,-0.8125,13312,-42.0,865.7,3.4545248
E28011002000745E57EB08E5,1,1473189191088999,1473189191088999,1,4.875,13312,-46.5,865.7,3.5465636
E28011002000725E57EA08E5,1,1473189191091061,1473189191091061,1,-5.6875,13312,-48.5,865.7,0.79153407
E28011002000779E57E208E5,1,1473189191092432,1473189191092432,1,3.25,13312,-46.5,865.7,1.1658254
E28011002000765E57EB08E5,1,1473189191094026,1473189191094026,1,1.625,13312,-36.5,865.7,4.4546804
E2801100200070DE57EA08E5,1,1473189191096058,1473189191096058,1,9.75,13312,-48.5,865.7,1.7671459
E280110020007A9E57E608E5,1,1473189191097397,1473189191097397,1,-2.4375,13312,-57.0,865.7,4.2828746
E28011002000791E57E608E5,1,1473189191098734,1473189191098734,1,-0.8125,13312,-53.0,865.7,1.9512236
E280110020007ADE57E608E5,1,1473189191100074,1473189191100074,1,5.6875,13312,-39.5,865.7,3.9147189
E28011002000799E57E608E5,1,1473189191101463,1473189191101463,1,1.625,13312,-47.5,865.7,1.1351458
E28011002000785E57E608E5,1,1473189191103028,1473189191103028,1,7.3125,13312,-48.5,865.7,2.9391072
E28011002000711E57EA08E5,1,1473189191104435,1473189191104435,1,5.6875,13312,-49.5,865.7,3.123185
E28011002000739E57EA08E5,1,1473189191107043,1473189191107043,1,4.875,13312,-37.5,865.7,3.4667966
E280110020007B1E57E608E5,1,1473189191108988,1473189191108988,1,2.4375,13312,-56.0,865.7,5.5407386
E28011002000775E57E208E5,1,1473189191120637,1473189191120637,1,1.625,13312,-45.5,865.7,3.503612
E28011002000765E57EB08E5,1,1473189191122005,1473189191122005,1,-0.8125,13312,-37.0,865.7,4.473088
E28011002000739E57EA08E5,1,1473189191123325,1473189191123325,1,3.25,13312,-37.5,865.7,3.4852045
E280110020007A9E57E608E5,1,1473189191125144,1473189191125144,1,17.875,13312,-57.5,865.7,4.1969714
E28011002000791E57E608E5,1,1473189191126934,1473189191126934,1,8.125,13312,-52.5,865.7,1.9389517
E28011002000711E57EA08E5,1,1473189191128243,1473189191128243,1,9.75,13312,-49.5,865.7,3.0556898
E28011002000715E57EA08E5,1,1473189191129834,1473189191129834,1,2.4375,13312,-39.5,865.7,0.09817477
E28011002000719E57EA08E5,1,1473189191131185,1473189191131185,1,4.0625,13312,-45.0,865.7,1.6382915
E28011002000725E57EA08E5,1,1473189191132721,1473189191132721,1,-1.625,13312,-48.5,865.7,0.7853982
E280110020007ADE57E608E5,1,1473189191134088,1473189191134088,1,2.4375,13312,-40.0,865.7,3.9147189
E28011002000709E57EA08E5,1,1473189191135411,1473189191135411,1,0.0,13312,-42.5,865.7,4.706253
E28011002000799E57E608E5,1,1473189191137002,1473189191137002,1,8.125,13312,-47.5,865.7,1.116738
E2801100200078DE57E608E5,1,1473189191138339,1473189191138339,1,9.75,13312,-42.5,865.7,3.4054372
E2801100200070DE57EA08E5,1,1473189191140919,1473189191140919,1,4.875,13312,-48.5,865.7,1.8530488
E280110020007B1E57E608E5,1,1473189191142691,1473189191142691,1,13.0,13312,-56.0,865.7,5.473243
E28011002000745E57EB08E5,1,1473189191144321,1473189191144321,1,2.4375,13312,-46.5,865.7,3.5220199
E28011002000785E57E608E5,1,1473189191146055,1473189191146055,1,0.8125,13312,-49.0,865.7,2.969787
E28011002000779E57E208E5,1,1473189191147371,1473189191147371,1,3.25,13312,-46.5,865.7,1.1903691
E28011002000795E57E608E5,1,1473189191149528,1473189191149528,1,1.625,13312,-50.0,865.7,5.497787
E28011002000791E57E608E5,1,1473189191162468,1473189191162468,1,11.375,13312,-52.0,865.7,1.8960003
E28011002000715E57EA08E5,1,1473189191163875,1473189191163875,1,4.0625,13312,-39.5,865.7,0.11044662
E28011002000775E57E208E5,1,1473189191165425,1473189191165425,1,5.6875,13312,-45.5,865.7,3.4852045
E28011002000765E57EB08E5,1,1473189191167285,1473189191167285,1,3.25,13312,-37.0,865.7,4.5283113
E28011002000709E57EA08E5,1,1473189191168881,1473189191168881,1,-3.25,13312,-42.5,865.7,4.724661
E28011002000719E57EA08E5,1,1473189191170190,1473189191170190,1,5.6875,13312,-45.5,865.7,1.6260196
E28011002000779E57E208E5,1,1473189191172028,1473189191172028,1,-1.625,13312,-46.5,865.7,1.2394565
E280110020007B1E57E608E5,1,1473189191173321,1473189191173321,1,12.1875,13312,-55.5,865.7,5.473243
E28011002000739E57EA08E5,1,1473189191175376,1473189191175376,1,7.3125,13312,-37.5,865.7,3.4790685
E28011002000745E57EB08E5,1,1473189191176694,1473189191176694,1,4.875,13312,-46.5,865.7,3.503612
E280110020007ADE57E608E5,1,1473189191178824,1473189191178824,1,3.25,13312,-39.5,865.7,3.8779035
E2801100200078DE57E608E5,1,1473189191180403,1473189191180403,1,6.5,13312,-43.0,865.7,3.429981
E28011002000795E57E608E5,1,1473189191181975,1473189191181975,1,-3.25,13312,-50.5,865.7,5.608234
E28011002000711E57EA08E5,1,1473189191185001,1473189191185001,1,3.25,13312,-49.5,865.7,3.110913
E2801100200070DE57EA08E5,1,1473189191186337,1473189191186337,1,2.4375,13312,-49.0,865.7,1.8591847
E28011002000725E57EA08E5,1,1473189191187930,1473189191187930,1,-1.625,13312,-48.5,865.7,0.79153407
E28011002000799E57E608E5,1,1473189191189336,1473189191189336,1,3.25,13312,-47.5,865.7,1.0921943
E280110020007A9E57E608E5,1,1473189191191115,1473189191191115,1,16.25,13312,-57.0,865.7,4.215379
E28011002000785E57E608E5,1,1473189191192764,1473189191192764,1,6.5,13312,-49.0,865.7,2.877748
E280110020007ADE57E608E5,1,1473189191202013,1473189191202013,1,1.625,13312,-39.5,865.7,3.9085832
E28011002000711E57EA08E5,1,1473189191204655,1473189191204655,1,-0.8125,13312,-49.5,865.7,3.1354568
E28011002000785E57E608E5,1,1473189191205967,1473189191205967,1,3.25,13312,-49.0,865.7,2.877748
E28011002000715E57EA08E5,1,1473189191207317,1473189191207317,1,1.625,13312,-39.0,865.7,0.12885438
E28011002000765E57EB08E5,1,1473189191208673,1473189191208673,1,5.6875,13312,-37.5,865.7,4.546719
E280110020007A9E57E608E5,1,1473189191210026,1473189191210026,1,1.625,13312,-57.0,865.7,4.2706027
E28011002000775E57E208E5,1,1473189191211335,1473189191211335,1,2.4375,13312,-45.0,865.7,3.497476
E28011002000709E57EA08E5,1,1473189191212671,1473189191212671,1,0.0,13312,-42.5,865.7,4.730797
E2801100200070DE57EA08E5,1,1473189191214010,1473189191214010,1,7.3125,13312,-49.0,865.7,1.8591847
E28011002000799E57E608E5,1,1473189191215690,1473189191215690,1,5.6875,13312,-47.5,865.7,1.0799224
E28011002000739E57EA08E5,1,1473189191217320,1473189191217320,1,5.6875,13312,-37.5,865.7,3.4913402
E28011002000725E57EA08E5,1,1473189191218897,1473189191218897,1,-0.8125,13312,-48.0,865.7,0.8099418
E280110020007B1E57E608E5,1,1473189191220218,1473189191220218,1,2.4375,13312,-55.0,865.7,5.577554
E28011002000795E57E608E5,1,1473189191221547,1473189191221547,1,-2.4375,13312,-50.0,865.7,5.6941366
E28011002000791E57E608E5,1,1473189191223028,1473189191223028,1,8.9375,13312,-52.0,865.7,1.9021362
E28011002000719E57EA08E5,1,1473189191224659,1473189191224659,1,8.125,13312,-46.0,865.7,1.601476
E28011002000779E57E208E5,1,1473189191227773,1473189191227773,1,0.8125,13312,-46.0,865.7,1.2394565
E28011002000745E57EB08E5,1,1473189191229572,1473189191229572,1,4.875,13312,-46.5,865.7,3.4729326
E2801100200078DE57E608E5,1,1473189191230909,1473189191230909,1,7.3125,13312,-43.0,865.7,3.429981
E28011002000745E57EB08E5,1,1473189191239673,1473189191239673,1,1.625,13312,-46.5,865.7,3.4852045
E28011002000709E57EA08E5,1,1473189191241282,1473189191241282,1,2.4375,13312,-42.5,865.7,4.724661
E280110020007A9E57E608E5,1,1473189191242863,1473189191242863,1,6.5,13312,-57.0,865.7,4.28901
E28011002000765E57EB08E5,1,1473189191244202,1473189191244202,1,2.4375,13312,-37.5,865.7,4.5835347
E28011002000739E57EA08E5,1,1473189191245805,1473189191245805,1,3.25,13312,-37.5,865.7,3.509748
E28011002000791E57E608E5,1,1473189191247127,1473189191247127,1,2.4375,13312,-51.5,865.7,1.9266798
E28011002000799E57E608E5,1,1473189191248731,1473189191248731,1,8.9375,13312,-47.5,865.7,1.0676507
E28011002000779E57E208E5,1,1473189191250073,1473189191250073,1,5.6875,13312,-46.5,865.7,1.2271847
E28011002000785E57E608E5,1,1473189191251367,1473189191251367,1,1.625,13312,-49.0,865.7,2.871612
E28011002000725E57EA08E5,1,1473189191252707,1473189191252707,1,2.4375,13312,-48.5,865.7,0.81607777
E28011002000715E57EA08E5,1,1473189191254526,1473189191254526,1,1.625,13312,-39.5,865.7,0.15339808
E28011002000795E57E608E5,1,1473189191257812,1473189191257812,1,4.875,13312,-50.0,865.7,5.7186804
E280110020007ADE57E608E5,1,1473189191259151,1473189191259151,1,4.875,13312,-39.5,865.7,3.8779035
E28011002000719E57EA08E5,1,1473189191260473,1473189191260473,1,6.5,13312,-45.5,865.7,1.6137478
E2801100200078DE57E608E5,1,1473189191261810,1473189191261810,1,8.125,13312,-43.0,865.7,3.4483888
E28011002000775E57E208E5,1,1473189191263758,1473189191263758,1,4.875,13312,-45.0,865.7,3.509748
E280110020007B1E57E608E5,1,1473189191265106,1473189191265106,1,8.125,13312,-55.0,865.7,5.6266418
E28011002000711E57EA08E5,1,1473189191266983,1473189191266983,1,6.5,13312,-49.5,865.7,3.0863693
E2801100200070DE57EA08E5,1,1473189191268347,1473189191268347,1,7.3125,13312,-48.5,865.7,1.8530488
E28011002000795E57E608E5,1,1473189191281069,1473189191281069,1,0.0,13312,-50.0,865.7,5.7923117
E28011002000719E57EA08E5,1,1473189191282662,1473189191282662,1,2.4375,13312,-45.5,865.7,1.6198837
E28011002000791E57E608E5,1,1473189191283987,1473189191283987,1,8.9375,13312,-51.5,865.7,1.8530488
E28011002000745E57EB08E5,1,1473189191285811,1473189191285811,1,7.3125,13312,-46.5,865.7,3.4422529
E28011002000739E57EA08E5,1,1473189191287115,1473189191287115,1,4.875,13312,-37.5,865.7,3.509748
E28011002000775E57E208E5,1,1473189191288921,1473189191288921,1,4.875,13312,-45.0,865.7,3.503612
E28011002000785E57E608E5,1,1473189191290258,1473189191290258,1,0.8125,13312,-49.0,865.7,2.8593402
E280110020007ADE57E608E5,1,1473189191291597,1473189191291597,1,0.8125,13312,-39.5,865.7,3.8840394
E28011002000799E57E608E5,1,1473189191293005,1473189191293005,1,9.75,13312,-47.5,865.7,1.0492429
E28011002000725E57EA08E5,1,1473189191295520,1473189191295520,1,-3.25,13312,-48.5,865.7,0.8651652
E280110020007B1E57E608E5,1,1473189191296824,1473189191296824,1,-0.8125,13312,-55.0,865.7,5.663457
E2801100200070DE57EA08E5,1,1473189191299126,1473189191299126,1,3.25,13312,-49.0,865.7,1.8714565
E2801100200078DE57E608E5,1,1473189191300435,1473189191300435,1,8.125,13312,-43.0,865.7,3.4545248
E28011002000709E57EA08E5,1,1473189191302525,1473189191302525,1,3.25,13312,-42.5,865.7,4.730797
E28011002000711E57EA08E5,1,1473189191303877,1473189191303877,1,7.3125,13312,-49.5,865.7,3.104777
E28011002000779E57E208E5,1,1473189191306639,1473189191306639,1,6.5,13312,-46.0,865.7,1.2210487
E28011002000715E57EA08E5,1,1473189191309688,1473189191309688,1,0.8125,13312,-39.0,865.7,0.16566992
E28011002000765E57EB08E5,1,1473189191311000,1473189191311000,1,1.625,13312,-38.0,865.7,4.6080785
E280110020007A9E57E608E5,1,1473189191312469,1473189191312469,1,13.8125,13312,-57.5,865.7,4.258331
E2801100200070DE57EA08E5,1,1473189191320608,1473189191320608,1,8.125,13312,-49.0,865.7,1.834641
E28011002000745E57EB08E5,1,1473189191322903,1473189191322903,1,4.0625,13312,-46.5,865.7,3.4483888
E280110020007A9E57E608E5,1,1473189191324202,1473189191324202,1,22.75,13312,-57.5,865.7,4.147884
E28011002000765E57EB08E5,1,1473189191325510,1473189191325510,1,0.8125,13312,-38.0,865.7,4.626486
E28011002000795E57E608E5,1,1473189191328114,1473189191328114,1,-0.8125,13312,-50.0,865.7,5.822991
E280110020007B1E57E608E5,1,1473189191330656,1473189191330656,1,-7.3125,13312,-55.0,865.7,5.7248163
E28011002000719E57EA08E5,1,1473189191333134,1473189191333134,1,5.6875,13312,-45.5,865.7,1.601476
E28011002000775E57E208E5,1,1473189191334954,1473189191334954,1,3.25,13312,-45.5,865.7,3.5220199
E28011002000799E57E608E5,1,1473189191336259,1473189191336259,1,5.6875,13312,-47.5,865.7,1.0615147
E28011002000785E57E608E5,1,1473189191337840,1473189191337840,1,-1.625,13312,-49.0,865.7,2.8163888
E28011002000709E57EA08E5,1,1473189191339165,1473189191339165,1,3.25,13312,-42.5,865.7,4.730797
E28011002000711E57EA08E5,1,1473189191340731,1473189191340731,1,15.4375,13312,-49.5,865.7,3.0556898
E2801100200078DE57E608E5,1,1473189191342009,1473189191342009,1,5.6875,13312,-43.0,865.7,3.4606607
E28011002000715E57EA08E5,1,1473189191344080,1473189191344080,1,6.5,13312,-39.5,865.7,0.16566992
E28011002000791E57E608E5,1,1473189191345504,1473189191345504,1,4.875,13312,-51.5,865.7,1.8898643
E28011002000739E57EA08E5,1,1473189191346964,1473189191346964,1,8.125,13312,-37.5,865.7,3.503612
E280110020007ADE57E608E5,1,1473189191348544,1473189191348544,1,2.4375,13312,-39.5,865.7,3.8779035
E28011002000779E57E208E5,1,1473189191350355,1473189191350355,1,3.25,13312,-46.5,865.7,1.2333206
E28011002000725E57EA08E5,1,1473189191351733,1473189191351733,1,0.0,13312,-48.5,865.7,0.9019807
E28011002000745E57EB08E5,1,1473189191362307,1473189191362307,1,0.8125,13312,-46.5,865.7,3.4545248
E28011002000779E57E208E5,1,1473189191363920,1473189191363920,1,1.625,13312,-46.5,865.7,1.2210487
E28011002000775E57E208E5,1,1473189191365288,1473189191365288,1,6.5,13312,-45.0,865.7,3.5220199
E28011002000719E57EA08E5,1,1473189191366851,1473189191366851,1,7.3125,13312,-45.5,865.7,1.5830681
E28011002000711E57EA08E5,1,1473189191368486,1473189191368486,1,7.3125,13312,-49.5,865.7,3.0986412
E28011002000739E57EA08E5,1,1473189191370641,1473189191370641,1,4.875,13312,-37.5,865.7,3.509748
E28011002000785E57E608E5,1,1473189191371991,1473189191371991,1,0.8125,13312,-49.5,865.7,2.7611654
E2801100200078DE57E608E5,1,1473189191373343,1473189191373343,1,8.125,13312,-43.5,865.7,3.4852045
E28011002000715E57EA08E5,1,1473189191374693,1473189191374693,1,2.4375,13312,-39.0,865.7,0.20248546
E28011002000765E57EB08E5,1,1473189191376030,1473189191376030,1,0.8125,13312,-38.0,865.7,4.6387577
E28011002000795E57E608E5,1,1473189191377401,1473189191377401,1,-0.8125,13312,-49.5,865.7,5.902758
E28011002000799E57E608E5,1,1473189191378751,1473189191378751,1,-3.25,13312,-47.5,865.7,1.0860584
E28011002000709E57EA08E5,1,1473189191381492,1473189191381492,1,1.625,13312,-42.5,865.7,4.7676125
E280110020007ADE57E608E5,1,1473189191383057,1473189191383057,1,7.3125,13312,-39.5,865.7,3.8656316
E28011002000791E57E608E5,1,1473189191384606,1473189191384606,1,1.625,13312,-51.5,865.7,1.8960003
E280110020007B1E57E608E5,1,1473189191386100,1473189191386100,1,15.4375,13312,-54.5,865.7,5.5652823
E28011002000725E57EA08E5,1,1473189191388529,1473189191388529,1,1.625,13312,-48.0,865.7,0.94493216
E280110020007A9E57E608E5,1,1473189191389885,1473189191389885,1,-19.5,13312,-57.5,865.7,4.4485445
E2801100200070DE57EA08E5,1,1473189191392153,1473189191392153,1,12.1875,13312,-49.0,865.7,1.8530488
E2801100200070DE57EA08E5,1,1473189191402546,1473189191402546,1,13.8125,13312,-49.0,865.7,1.8653207
E28011002000765E57EB08E5,1,1473189191404111,1473189191404111,1,2.4375,13312,-38.0,865.7,4.6387577
E28011002000779E57E208E5,1,1473189191406788,1473189191406788,1,2.4375,13312,-46.0,865.7,1.2271847
E280110020007ADE57E608E5,1,1473189191408381,1473189191408381,1,0.8125,13312,-39.5,865.7,3.8779035
E28011002000795E57E608E5,1,1473189191409752,1473189191409752,1,0.0,13312,-49.5,865.7,5.8720784
E28011002000775E57E208E5,1,1473189191411076,1473189191411076,1,0.8125,13312,-45.0,865.7,3.5588355
E28011002000709E57EA08E5,1,1473189191412460,1473189191412460,1,4.875,13312,-42.5,865.7,4.7614765
E28011002000715E57EA08E5,1,1473189191413884,1473189191413884,1,4.875,13312,-39.5,865.7,0.1840777
E28011002000739E57EA08E5,1,1473189191415456,1473189191415456,1,6.5,13312,-37.5,865.7,3.503612
E2801100200078DE57E608E5,1,1473189191416808,1473189191416808,1,7.3125,13312,-43.5,865.7,3.497476
E28011002000785E57E608E5,1,1473189191418159,1473189191418159,1,-3.25,13312,-49.5,865.7,2.7427576
E28011002000799E57E608E5,1,1473189191419771,1473189191419771,1,0.0,13312,-47.5,865.7,1.0860584
E28011002000725E57EA08E5,1,1473189191421525,1473189191421525,1,1.625,13312,-48.5,865.7,0.957204
E28011002000719E57EA08E5,1,1473189191423700,1473189191423700,1,6.5,13312,-45.5,865.7,1.6260196
E28011002000711E57EA08E5,1,1473189191425021,1473189191425021,1,-0.8125,13312,-49.0,865.7,3.110913
E28011002000791E57E608E5,1,1473189191426390,1473189191426390,1,13.8125,13312,-51.0,865.7,1.7732818
E28011002000745E57EB08E5,1,1473189191428398,1473189191428398,1,6.5,13312,-46.5,865.7,3.4115732
E280110020007B1E57E608E5,1,1473189191429705,1473189191429705,1,8.125,13312,-55.0,865.7,5.620506
E280110020007A9E57E608E5,1,1473189191431257,1473189191431257,1,3.25,13312,-56.5,865.7,4.264467
E280110020007B1E57E608E5,1,1473189191441785,1473189191441785,1,13.8125,13312,-54.5,865.7,5.608234
E28011002000779E57E208E5,1,1473189191443395,1473189191443395,1,0.8125,13312,-46.0,865.7,1.2210487
E28011002000745E57EB08E5,1,1473189191445180,1473189191445180,1,0.0,13312,-46.0,865.7,3.4483888
E280110020007A9E57E608E5,1,1473189191447879,1473189191447879,1,-0.8125,13312,-57.0,865.7,4.301282
E28011002000775E57E208E5,1,1473189191449261,1473189191449261,1,2.4375,13312,-45.0,865.7,3.5649714
E28011002000725E57EA08E5,1,1473189191450600,1473189191450600,1,5.6875,13312,-48.5,865.7,0.96947587
E28011002000765E57EB08E5,1,1473189191454615,1473189191454615,1,-0.8125,13312,-38.5,865.7,4.6694374
E28011002000715E57EA08E5,1,1473189191456195,1473189191456195,1,4.875,13312,-39.0,865.7,0.22702916
E28011002000709E57EA08E5,1,1473189191457460,1473189191457460,1,-0.8125,13312,-42.5,865.7,4.7798843
E28011002000739E57EA08E5,1,1473189191458765,1473189191458765,1,7.3125,13312,-37.5,865.7,3.515884
E280110020007ADE57E608E5,1,1473189191460357,1473189191460357,1,1.625,13312,-39.0,865.7,3.8901753
E28011002000719E57EA08E5,1,1473189191461808,1473189191461808,1,10.5625,13312,-45.5,865.7,1.59534
E28011002000785E57E608E5,1,1473189191464056,1473189191464056,1,0.8125,13312,-50.0,865.7,2.6507187
E28011002000795E57E608E5,1,1473189191465641,1473189191465641,1,-8.125,13312,-49.0,865.7,5.982525
E2801100200078DE57E608E5,1,1473189191467498,1473189191467498,1,5.6875,13312,-43.5,865.7,3.5342917
E2801100200070DE57EA08E5,1,1473189191469118,1473189191469118,1,4.0625,13312,-49.0,865.7,1.9205439
E28011002000711E57EA08E5,1,1473189191471051,1473189191471051,1,4.875,13312,-48.5,865.7,3.0863693
E28011002000799E57E608E5,1,1473189191472399,1473189191472399,1,7.3125,13312,-48.0,865.7,1.0431069
E28011002000791E57E608E5,1,1473189191473864,1473189191473864,1,-1.625,13312,-51.0,865.7,1.8653207
E28011002000745E57EB08E5,1,1473189191482301,1473189191482301,1,0.0,13312,-46.5,865.7,3.417709
E280110020007ADE57E608E5,1,1473189191483628,1473189191483628,1,6.5,13312,-39.5,865.7,3.8656316
E28011002000725E57EA08E5,1,1473189191485914,1473189191485914,1,0.8125,13312,-48.5,865.7,1.030835
E28011002000779E57E208E5,1,1473189191487229,1473189191487229,1,0.8125,13312,-46.0,865.7,1.2333206
E28011002000739E57EA08E5,1,1473189191488940,1473189191488940,1,5.6875,13312,-38.0,865.7,3.5220199
E28011002000709E57EA08E5,1,1473189191490505,1473189191490505,1,5.6875,13312,-42.5,865.7,4.7860203
E28011002000785E57E608E5,1,1473189191492141,1473189191492141,1,6.5,13312,-50.0,865.7,2.6016314
E2801100200078DE57E608E5,1,1473189191493520,1473189191493520,1,12.1875,13312,-43.5,865.7,3.5220199
E28011002000799E57E608E5,1,1473189191495363,1473189191495363,1,4.875,13312,-48.0,865.7,1.0492429
E28011002000795E57E608E5,1,1473189191496973,1473189191496973,1,-1.625,13312,-48.5,865.7,5.9457097
E280110020007B1E57E608E5,1,1473189191498564,1473189191498564,1,4.875,13312,-54.5,865.7,5.6266418
E28011002000775E57E208E5,1,1473189191500143,1473189191500143,1,7.3125,13312,-45.0,865.7,3.5465636
E28011002000719E57EA08E5,1,1473189191501479,1473189191501479,1,4.0625,13312,-45.5,865.7,1.6198837
E28011002000711E57EA08E5,1,1473189191503299,1473189191503299,1,7.3125,13312,-49.0,865.7,3.0618258
E28011002000765E57EB08E5,1,1473189191504608,1473189191504608,1,-1.625,13312,-38.5,865.7,4.687845
E2801100200070DE57EA08E5,1,1473189191505945,1473189191505945,1,8.9375,13312,-49.0,865.7,1.9021362
E28011002000715E57EA08E5,1,1473189191510305,1473189191510305,1,0.8125,13312,-39.0,865.7,0.22702916
E28011002000791E57E608E5,1,1473189191511573,1473189191511573,1,9.75,13312,-51.0,865.7,1.7794178
E280110020007A9E57E608E5,1,1473189191512912,1473189191512912,1,-11.375,13312,-57.0,865.7,4.460816
E28011002000765E57EB08E5,1,1473189191522157,1473189191522157,1,-0.8125,13312,-39.0,865.7,4.6817093
E28011002000779E57E208E5,1,1473189191523996,1473189191523996,1,0.0,13312,-46.0,865.7,1.2455924
E280110020007ADE57E608E5,1,1473189191525381,1473189191525381,1,6.5,13312,-39.5,865.7,3.8779035
E280110020007A9E57E608E5,1,1473189191526677,1473189191526677,1,8.9375,13312,-57.0,865.7,4.28901
E28011002000745E57EB08E5,1,1473189191529221,1473189191529221,1,0.8125,13312,-46.0,865.7,3.3747578
E2801100200078DE57E608E5,1,1473189191530589,1473189191530589,1,4.875,13312,-43.0,865.7,3.5526996
E28011002000715E57EA08E5,1,1473189191531939,1473189191531939,1,1.625,13312,-39.0,865.7,0.22702916
E28011002000719E57EA08E5,1,1473189191533248,1473189191533248,1,6.5,13312,-46.0,865.7,1.5830681
E28011002000775E57E208E5,1,1473189191534585,1473189191534585,1,3.25,13312,-44.5,865.7,3.577243
E2801100200070DE57EA08E5,1,1473189191537140,1473189191537140,1,6.5,13312,-49.0,865.7,1.9328158
E28011002000739E57EA08E5,1,1473189191538728,1473189191538728,1,4.875,13312,-38.0,865.7,3.5342917
E28011002000709E57EA08E5,1,1473189191540539,1473189191540539,1,3.25,13312,-42.5,865.7,4.7982917
E28011002000785E57E608E5,1,1473189191541876,1473189191541876,1,5.6875,13312,-50.0,865.7,2.6139033
E28011002000791E57E608E5,1,1473189191543681,1473189191543681,1,2.4375,13312,-50.5,865.7,1.8285052
E28011002000725E57EA08E5,1,1473189191545414,1473189191545414,1,0.0,13312,-48.0,865.7,1.1106021
E28011002000711E57EA08E5,1,1473189191547845,1473189191547845,1,2.4375,13312,-48.5,865.7,3.0556898
E28011002000799E57E608E5,1,1473189191549209,1473189191549209,1,7.3125,13312,-47.5,865.7,1.0246992
E280110020007B1E57E608E5,1,1473189191550557,1473189191550557,1,4.0625,13312,-54.0,865.7,5.7064085
E28011002000795E57E608E5,1,1473189191552649,1473189191552649,1,1.625,13312,-49.0,865.7,6.0254765
E28011002000715E57EA08E5,1,1473189191562554,1473189191562554,1,0.0,13312,-39.0,865.7,0.24543692
E28011002000739E57EA08E5,1,1473189191563902,1473189191563902,1,5.6875,13312,-38.0,865.7,3.5404277
E28011002000799E57E608E5,1,1473189191565697,1473189191565697,1,0.0,13312,-47.5,865.7,1.0431069
E28011002000775E57E208E5,1,1473189191567051,1473189191567051,1,4.875,13312,-44.5,865.7,3.595651
E2801100200078DE57E608E5,1,1473189191568644,1473189191568644,1,8.9375,13312,-43.0,865.7,3.5526996
E280110020007B1E57E608E5,1,1473189191570205,1473189191570205,1,-5.6875,13312,-54.0,865.7,5.743224
E28011002000711E57EA08E5,1,1473189191571544,1473189191571544,1,3.25,13312,-49.0,865.7,3.037282
E28011002000795E57E608E5,1,1473189191572914,1473189191572914,1,4.875,13312,-49.0,865.7,6.0254765
E28011002000719E57EA08E5,1,1473189191574945,1473189191574945,1,4.0625,13312,-45.5,865.7,1.5769322
E2801100200070DE57EA08E5,1,1473189191576523,1473189191576523,1,5.6875,13312,-49.0,865.7,1.9450877
E280110020007A9E57E608E5,1,1473189191577833,1473189191577833,1,-5.6875,13312,-56.5,865.7,4.4301367
E28011002000779E57E208E5,1,1473189191579417,1473189191579417,1,1.625,13312,-46.0,865.7,1.2578642
E280110020007ADE57E608E5,1,1473189191580770,1473189191580770,1,8.125,13312,-39.0,865.7,3.8594956
E28011002000785E57E608E5,1,1473189191583058,1473189191583058,1,10.5625,13312,-51.0,865.7,2.55868
E28011002000745E57EB08E5,1,1473189191585080,1473189191585080,1,0.0,13312,-46.0,865.7,3.3318062
E28011002000791E57E608E5,1,1473189191586791,1473189191586791,1,8.9375,13312,-50.5,865.7,1.7916895
E28011002000709E57EA08E5,1,1473189191589023,1473189191589023,1,0.8125,13312,-42.5,865.7,4.8412433
E28011002000765E57EB08E5,1,1473189191590890,1473189191590890,1,3.25,13312,-39.5,865.7,4.6694374
E28011002000725E57EA08E5,1,1473189191593802,1473189191593802,1,1.625,13312,-48.0,865.7,1.2149128
E28011002000715E57EA08E5,1,1473189191603214,1473189191603214,1,4.0625,13312,-39.0,865.7,0.239301
E28011002000719E57EA08E5,1,1473189191604550,1473189191604550,1,5.6875,13312,-45.5,865.7,1.59534
E28011002000739E57EA08E5,1,1473189191605897,1473189191605897,1,5.6875,13312,-38.0,865.7,3.5588355
E28011002000711E57EA08E5,1,1473189191607476,1473189191607476,1,7.3125,13312,-49.0,865.7,3.0127382
E280110020007B1E57E608E5,1,1473189191608837,1473189191608837,1,10.5625,13312,-54.0,865.7,5.657321
E28011002000799E57E608E5,1,1473189191610711,1473189191610711,1,5.6875,13312,-47.5,865.7,1.0124273
E28011002000791E57E608E5,1,1473189191612801,1473189191612801,1,14.625,13312,-50.5,865.7,1.7303303
E28011002000775E57E208E5,1,1473189191614393,1473189191614393,1,-0.8125,13312,-45.0,865.7,3.6386025
E280110020007ADE57E608E5,1,1473189191615930,1473189191615930,1,2.4375,13312,-39.0,865.7,3.8717675
E28011002000745E57EB08E5,1,1473189191618454,1473189191618454,1,1.625,13312,-46.0,865.7,3.3072627
E28011002000709E57EA08E5,1,1473189191619819,1473189191619819,1,1.625,13312,-42.5,865.7,4.859651
E28011002000785E57E608E5,1,1473189191621879,1473189191621879,1,0.0,13312,-51.0,865.7,2.5402722
E2801100200078DE57E608E5,1,1473189191623276,1473189191623276,1,8.125,13312,-43.5,865.7,3.595651
E2801100200070DE57EA08E5,1,1473189191626771,1473189191626771,1,5.6875,13312,-48.5,865.7,1.9634954
E280110020007A9E57E608E5,1,1473189191628350,1473189191628350,1,-3.25,13312,-56.5,865.7,4.4362726
E28011002000765E57EB08E5,1,1473189191629688,1473189191629688,1,0.8125,13312,-39.5,865.7,4.6755733
E28011002000725E57EA08E5,1,1473189191631055,1473189191631055,1,-0.8125,13312,-48.0,865.7,1.3130876
E28011002000779E57E208E5,1,1473189191632413,1473189191632413,1,2.4375,13312,-45.5,865.7,1.2271847
E28011002000795E57E608E5,1,1473189191634665,1473189191634665,1,2.4375,13312,-47.5,865.7,6.092972
E280110020007A9E57E608E5,1,1473189191643807,1473189191643807,1,5.6875,13312,-57.0,865.7,4.3442335
E280110020007B1E57E608E5,1,1473189191645098,1473189191645098,1,6.5,13312,-53.5,865.7,5.6818647
E280110020007ADE57E608E5,1,1473189191648542,1473189191648542,1,2.4375,13312,-39.0,865.7,3.8963113
E28011002000775E57E208E5,1,1473189191649839,1473189191649839,1,4.875,13312,-45.0,865.7,3.6263306
E28011002000739E57EA08E5,1,1473189191651200,1473189191651200,1,6.5,13312,-38.0,865.7,3.5588355
E28011002000715E57EA08E5,1,1473189191652790,1473189191652790,1,0.8125,13312,-38.5,865.7,0.30066022
E28011002000765E57EB08E5,1,1473189191654142,1473189191654142,1,0.0,13312,-40.0,865.7,4.6755733
E28011002000711E57EA08E5,1,1473189191655738,1473189191655738,1,8.9375,13312,-48.5,865.7,2.9820588
E28011002000791E57E608E5,1,1473189191657794,1473189191657794,1,3.25,13312,-50.5,865.7,1.748738
E28011002000795E57E608E5,1,1473189191659150,1473189191659150,1,-6.5,13312,-47.0,865.7,6.1604667
E28011002000709E57EA08E5,1,1473189191660473,1473189191660473,1,2.4375,13312,-42.5,865.7,4.871923
E28011002000725E57EA08E5,1,1473189191662039,1473189191662039,1,6.5,13312,-48.5,865.7,1.3499031
E28011002000745E57EB08E5,1,1473189191663554,1473189191663554,1,0.8125,13312,-46.0,865.7,3.2949908
E28011002000799E57E608E5,1,1473189191665756,1473189191665756,1,3.25,13312,-48.0,865.7,1.0246992
E2801100200078DE57E608E5,1,1473189191667122,1473189191667122,1,6.5,13312,-44.0,865.7,3.6570103
E28011002000719E57EA08E5,1,1473189191668430,1473189191668430,1,8.125,13312,-45.5,865.7,1.5830681
E28011002000779E57E208E5,1,1473189191669756,1473189191669756,1,-0.8125,13312,-45.5,865.7,1.2333206
E28011002000785E57E608E5,1,1473189191671227,1473189191671227,1,-14.625,13312,-51.5,865.7,2.552544
E2801100200070DE57EA08E5,1,1473189191672576,1473189191672576,1,8.9375,13312,-48.5,865.7,1.9389517
E28011002000739E57EA08E5,1,1473189191680927,1473189191680927,1,4.875,13312,-38.5,865.7,3.577243
E28011002000799E57E608E5,1,1473189191682501,1473189191682501,1,1.625,13312,-47.5,865.7,1.0431069
E28011002000779E57E208E5,1,1473189191683831,1473189191683831,1,3.25,13312,-45.5,865.7,1.2149128
E28011002000775E57E208E5,1,1473189191685140,1473189191685140,1,7.3125,13312,-44.5,865.7,3.6386025
E28011002000719E57EA08E5,1,1473189191687213,1473189191687213,1,4.0625,13312,-45.5,865.7,1.59534
E2801100200070DE57EA08E5,1,1473189191689031,1473189191689031,1,6.5,13312,-48.5,865.7,2.0187187
E28011002000725E57EA08E5,1,1473189191691122,1473189191691122,1,-3.25,13312,-49.0,865.7,1.5033011
E28011002000795E57E608E5,1,1473189191692931,1473189191692931,1,1.625,13312,-46.5,865.7,6.092972
E28011002000711E57EA08E5,1,1473189191694311,1473189191694311,1,4.875,13312,-48.5,865.7,3.0188742
E28011002000709E57EA08E5,1,1473189191696116,1473189191696116,1,1.625,13312,-43.0,865.7,4.884195
E2801100200078DE57E608E5,1,1473189191697397,1473189191697397,1,10.5625,13312,-44.5,865.7,3.6938257
E28011002000791E57E608E5,1,1473189191698736,1473189191698736,1,8.9375,13312,-50.0,865.7,1.6996508
E28011002000745E57EB08E5,1,1473189191700094,1473189191700094,1,-0.8125,13312,-46.0,865.7,3.2888548
E28011002000765E57EB08E5,1,1473189191701435,1473189191701435,1,3.25,13312,-40.0,865.7,4.6571655
E28011002000715E57EA08E5,1,1473189191703013,1473189191703013,1,4.0625,13312,-38.5,865.7,0.33133984
E280110020007ADE57E608E5,1,1473189191704365,1473189191704365,1,2.4375,13312,-39.0,865.7,3.8840394
E280110020007A9E57E608E5,1,1473189191707011,1473189191707011,1,-10.5625,13312,-56.5,865.7,4.4976315
E28011002000785E57E608E5,1,1473189191708491,1473189191708491,1,1.625,13312,-51.5,865.7,2.3684664
E280110020007B1E57E608E5,1,1473189191710294,1473189191710294,1,12.1875,13312,-54.0,865.7,5.608234
E28011002000779E57E208E5,1,1473189191720854,1473189191720854,1,4.875,13312,-45.0,865.7,1.1719613
E280110020007A9E57E608E5,1,1473189191722376,1473189191722376,1,1.625,13312,-57.0,865.7,4.4301367
E28011002000775E57E208E5,1,1473189191723757,1473189191723757,1,5.6875,13312,-44.5,865.7,3.675418
E2801100200070DE57EA08E5,1,1473189191725277,1473189191725277,1,6.5,13312,-48.5,865.7,2.0493984
E28011002000765E57EB08E5,1,1473189191727608,1473189191727608,1,1.625,13312,-40.5,865.7,4.6571655
E28011002000725E57EA08E5,1,1473189191728933,1473189191728933,1,6.5,13312,-49.5,865.7,1.5892041
E2801100200078DE57E608E5,1,1473189191730285,1473189191730285,1,5.6875,13312,-44.5,865.7,3.7797287
E28011002000715E57EA08E5,1,1473189191731594,1473189191731594,1,4.875,13312,-38.5,865.7,0.36201948
E28011002000799E57E608E5,1,1473189191732909,1473189191732909,1,0.0,13312,-48.0,865.7,1.0737865
E280110020007B1E57E608E5,1,1473189191734288,1473189191734288,1,-1.625,13312,-54.0,865.7,5.6941366
E28011002000795E57E608E5,1,1473189191735614,1473189191735614,1,0.0,13312,-45.0,865.7,6.056156
E280110020007ADE57E608E5,1,1473189191736984,1473189191736984,1,3.25,13312,-39.0,865.7,3.8779035
E28011002000745E57EB08E5,1,1473189191738811,1473189191738811,1,0.8125,13312,-46.0,865.7,3.2888548
E28011002000719E57EA08E5,1,1473189191740844,1473189191740844,1,8.125,13312,-45.5,865.7,1.6260196
E28011002000709E57EA08E5,1,1473189191742395,1473189191742395,1,5.6875,13312,-42.5,865.7,4.871923
E28011002000739E57EA08E5,1,1473189191743741,1473189191743741,1,3.25,13312,-38.5,865.7,3.589515
E28011002000791E57E608E5,1,1473189191747463,1473189191747463,1,7.3125,13312,-49.0,865.7,1.6198837
E28011002000711E57EA08E5,1,1473189191749040,1473189191749040,1,8.125,13312,-48.0,865.7,3.0066023
E28011002000785E57E608E5,1,1473189191750377,1473189191750377,1,-6.5,13312,-51.5,865.7,2.3255148
E28011002000765E57EB08E5,1,1473189191760976,1473189191760976,1,0.8125,13312,-41.0,865.7,4.632622
E28011002000791E57E608E5,1,1473189191762541,1473189191762541,1,1.625,13312,-49.5,865.7,1.6382915
E28011002000715E57EA08E5,1,1473189191763863,1473189191763863,1,0.0,13312,-38.5,865.7,0.41724277
E28011002000795E57E608E5,1,1473189191765220,1473189191765220,1,-1.625,13312,-44.0,865.7,6.062292
E28011002000739E57EA08E5,1,1473189191766525,1473189191766525,1,6.5,13312,-38.0,865.7,3.589515
E28011002000745E57EB08E5,1,1473189191768564,1473189191768564,1,0.8125,13312,-46.0,865.7,3.2949908
E28011002000775E57E208E5,1,1473189191771050,1473189191771050,1,1.625,13312,-44.5,865.7,3.6938257
E28011002000725E57EA08E5,1,1473189191772924,1473189191772924,1,5.6875,13312,-49.0,865.7,1.7794178
E280110020007A9E57E608E5,1,1473189191774520,1473189191774520,1,19.5,13312,-56.5,865.7,4.3565054
E2801100200070DE57EA08E5,1,1473189191775825,1473189191775825,1,-1.625,13312,-48.0,865.7,2.1659808
E280110020007ADE57E608E5,1,1473189191778607,1473189191778607,1,6.5,13312,-39.0,865.7,3.8594956
E28011002000709E57EA08E5,1,1473189191780827,1473189191780827,1,6.5,13312,-43.0,865.7,4.865787
E28011002000719E57EA08E5,1,1473189191782160,1473189191782160,1,-0.8125,13312,-45.5,865.7,1.681243
E2801100200078DE57E608E5,1,1473189191783770,1473189191783770,1,7.3125,13312,-45.5,865.7,3.8963113
E280110020007B1E57E608E5,1,1473189191785345,1473189191785345,1,13.0,13312,-54.5,865.7,5.5714183
E28011002000785E57E608E5,1,1473189191786697,1473189191786697,1,4.875,13312,-51.0,865.7,2.2580197
E28011002000779E57E208E5,1,1473189191789018,1473189191789018,1,3.25,13312,-45.0,865.7,1.1290098
E28011002000799E57E608E5,1,1473189191790592,1473189191790592,1,9.75,13312,-48.5,865.7,1.0492429
E28011002000711E57EA08E5,1,1473189191791969,1473189191791969,1,-0.8125,13312,-47.5,865.7,3.0556898
E28011002000779E57E208E5,1,1473189191803300,1473189191803300,1,0.8125,13312,-45.0,865.7,1.1412817
E28011002000719E57EA08E5,1,1473189191804864,1473189191804864,1,1.625,13312,-45.5,865.7,1.6689711
E28011002000715E57EA08E5,1,1473189191806965,1473189191806965,1,4.875,13312,-38.5,865.7,0.42951462
E28011002000709E57EA08E5,1,1473189191808785,1473189191808785,1,8.9375,13312,-42.5,865.7,4.853515
E28011002000791E57E608E5,1,1473189191811133,1473189191811133,1,5.6875,13312,-49.0,865.7,1.5830681
E28011002000739E57EA08E5,1,1473189191812716,1473189191812716,1,6.5,13312,-38.5,865.7,3.595651
E280110020007B1E57E608E5,1,1473189191814036,1473189191814036,1,8.9375,13312,-54.0,865.7,5.5468745
E28011002000765E57EB08E5,1,1473189191816081,1473189191816081,1,-1.625,13312,-41.0,865.7,4.632622
E28011002000725E57EA08E5,1,1473189191817704,1473189191817704,1,-1.625,13312,-50.0,865.7,1.9082721
E2801100200078DE57E608E5,1,1473189191819465,1473189191819465,1,0.8125,13312,-45.5,865.7,3.9760783
E28011002000775E57E208E5,1,1473189191820818,1473189191820818,1,2.4375,13312,-44.5,865.7,3.7060976
E28011002000799E57E608E5,1,1473189191822663,1473189191822663,1,6.5,13312,-48.0,865.7,1.0676507
E28011002000745E57EB08E5,1,1473189191824163,1473189191824163,1,0.0,13312,-46.0,865.7,3.2949908
E2801100200070DE57EA08E5,1,1473189191825968,1473189191825968,1,5.6875,13312,-48.5,865.7,2.1598449
E280110020007ADE57E608E5,1,1473189191827988,1473189191827988,1,7.3125,13312,-39.0,865.7,3.8410878
E28011002000711E57EA08E5,1,1473189191829836,1473189191829836,1,6.5,13312,-48.0,865.7,3.0004663
E28011002000795E57E608E5,1,1473189191833732,1473189191833732,1,-0.8125,13312,-43.5,865.7,6.0991077
E28011002000785E57E608E5,1,1473189191835070,1473189191835070,1,2.4375,13312,-51.5,865.7,2.233476
E280110020007A9E57E608E5,1,1473189191837277,1473189191837277,1,10.5625,13312,-57.0,865.7,4.4301367
E28011002000719E57EA08E5,1,1473189191845430,1473189191845430,1,0.8125,13312,-45.5,865.7,1.6996508
E28011002000709E57EA08E5,1,1473189191846783,1473189191846783,1,1.625,13312,-43.0,865.7,4.9026027
E28011002000785E57E608E5,1,1473189191848105,1473189191848105,1,0.0,13312,-51.5,865.7,2.2580197
E2801100200078DE57E608E5,1,1473189191849474,1473189191849474,1,4.875,13312,-45.5,865.7,3.9699423
E28011002000739E57EA08E5,1,1473189191850777,1473189191850777,1,3.25,13312,-38.5,865.7,3.6017869
E280110020007A9E57E608E5,1,1473189191852869,1473189191852869,1,-8.9375,13312,-57.0,865.7,4.5221753
E28011002000711E57EA08E5,1,1473189191855665,1473189191855665,1,7.3125,13312,-48.0,865.7,2.9881945
E28011002000775E57E208E5,1,1473189191857214,1473189191857214,1,4.875,13312,-45.0,865.7,3.7060976
E2801100200070DE57EA08E5,1,1473189191858564,1473189191858564,1,4.0625,13312,-48.5,865.7,2.1843886
E28011002000725E57EA08E5,1,1473189191859915,1473189191859915,1,0.0,13312,-49.5,865.7,1.9573594
E280110020007B1E57E608E5,1,1473189191861238,1473189191861238,1,6.5,13312,-54.0,865.7,5.577554
E28011002000745E57EB08E5,1,1473189191863082,1473189191863082,1,6.5,13312,-45.5,865.7,3.264311
E28011002000795E57E608E5,1,1473189191865143,1473189191865143,1,0.0,13312,-44.0,865.7,6.0991077
E28011002000791E57E608E5,1,1473189191866540,1473189191866540,1,-2.4375,13312,-49.0,865.7,1.6076119
E280110020007ADE57E608E5,1,1473189191867894,1473189191867894,1,8.9375,13312,-39.0,865.7,3.8410878
E28011002000715E57EA08E5,1,1473189191869244,1473189191869244,1,5.6875,13312,-38.5,865.7,0.44178647
E28011002000765E57EB08E5,1,1473189191873090,1473189191873090,1,0.8125,13312,-41.0,865.7,4.6203504
E28011002000779E57E208E5,1,1473189191875522,1473189191875522,1,0.8125,13312,-45.0,865.7,1.1290098
E28011002000799E57E608E5,1,1473189191876886,1473189191876886,1,-2.4375,13312,-48.0,865.7,1.1044662
E28011002000715E57EA08E5,1,1473189191885034,1473189191885034,1,4.875,13312,-38.5,865.7,0.45405832
E280110020007A9E57E608E5,1,1473189191886629,1473189191886629,1,16.25,13312,-56.5,865.7,4.393321
E28011002000799E57E608E5,1,1473189191887947,1473189191887947,1,6.5,13312,-48.5,865.7,1.0737865
E28011002000709E57EA08E5,1,1473189191889283,1473189191889283,1,1.625,13312,-43.0,865.7,4.890331
E28011002000725E57EA08E5,1,1473189191890595,1473189191890595,1,4.875,13312,-49.5,865.7,1.9389517
E2801100200078DE57E608E5,1,1473189191892484,1473189191892484,1,2.4375,13312,-45.5,865.7,3.9883502
E28011002000791E57E608E5,1,1473189191894767,1473189191894767,1,-3.25,13312,-49.0,865.7,1.6137478
E28011002000739E57EA08E5,1,1473189191896127,1473189191896127,1,5.6875,13312,-38.5,865.7,3.6017869
E28011002000779E57E208E5,1,1473189191897708,1473189191897708,1,0.0,13312,-45.0,865.7,1.1351458
E28011002000719E57EA08E5,1,1473189191899302,1473189191899302,1,2.4375,13312,-45.5,865.7,1.6996508
E28011002000745E57EB08E5,1,1473189191900620,1473189191900620,1,1.625,13312,-45.5,865.7,3.2949908
E28011002000711E57EA08E5,1,1473189191901957,1473189191901957,1,0.8125,13312,-48.0,865.7,3.031146
E28011002000775E57E208E5,1,1473189191905250,1473189191905250,1,2.4375,13312,-45.0,865.7,3.7060976
E280110020007B1E57E608E5,1,1473189191907906,1473189191907906,1,-8.125,13312,-54.5,865.7,5.669593
E280110020007ADE57E608E5,1,1473189191909857,1473189191909857,1,3.25,13312,-39.0,865.7,3.8656316
E28011002000795E57E608E5,1,1473189191911765,1473189191911765,1,-1.625,13312,-44.0,865.7,6.1236515
E28011002000765E57EB08E5,1,1473189191913103,1473189191913103,1,2.4375,13312,-41.0,865.7,4.632622
E2801100200070DE57EA08E5,1,1473189191914427,1473189191914427,1,7.3125,13312,-49.0,865.7,2.1598449
E28011002000785E57E608E5,1,1473189191916390,1473189191916390,1,6.5,13312,-51.5,865.7,2.2212043
E2801100200070DE57EA08E5,1,1473189191924823,1473189191924823,1,7.3125,13312,-48.5,865.7,2.1598449
E28011002000785E57E608E5,1,1473189191926853,1473189191926853,1,0.8125,13312,-51.5,865.7,2.2396119
E28011002000795E57E608E5,1,1473189191928831,1473189191928831,1,5.6875,13312,-44.0,865.7,6.086836
E28011002000739E57EA08E5,1,1473189191930148,1473189191930148,1,6.5,13312,-38.5,865.7,3.6017869
E28011002000779E57E208E5,1,1473189191931956,1473189191931956,1,0.8125,13312,-45.0,865.7,1.1228739
E28011002000745E57EB08E5,1,1473189191933246,1473189191933246,1,0.8125,13312,-46.0,865.7,3.3133986
E28011002000765E57EB08E5,1,1473189191934614,1473189191934614,1,1.625,13312,-41.0,865.7,4.632622
E28011002000709E57EA08E5,1,1473189191936223,1473189191936223,1,5.6875,13312,-43.0,865.7,4.871923
E28011002000775E57E208E5,1,1473189191938015,1473189191938015,1,4.875,13312,-45.5,865.7,3.7060976
E28011002000799E57E608E5,1,1473189191939363,1473189191939363,1,1.625,13312,-48.0,865.7,1.0921943
E28011002000791E57E608E5,1,1473189191940688,1473189191940688,1,7.3125,13312,-49.0,865.7,1.521709
E28011002000711E57EA08E5,1,1473189191941983,1473189191941983,1,8.125,13312,-47.5,865.7,3.0188742
E28011002000719E57EA08E5,1,1473189191943377,1473189191943377,1,4.875,13312,-45.5,865.7,1.6935148
E280110020007B1E57E608E5,1,1473189191944897,1473189191944897,1,-12.1875,13312,-54.5,865.7,5.6880007
E2801100200078DE57E608E5,1,1473189191946246,1473189191946246,1,-0.8125,13312,-46.0,865.7,3.9944859
E280110020007A9E57E608E5,1,1473189191947812,1473189191947812,1,-0.8125,13312,-57.0,865.7,4.5283113
E28011002000715E57EA08E5,1,1473189191949122,1473189191949122,1,2.4375,13312,-38.5,865.7,0.46633017
E280110020007ADE57E608E5,1,1473189191950434,1473189191950434,1,5.6875,13312,-39.0,865.7,3.8594956
E28011002000725E57EA08E5,1,1473189191952582,1473189191952582,1,5.6875,13312,-49.5,865.7,1.9328158
E28011002000775E57E208E5,1,1473189191962236,1473189191962236,1,7.3125,13312,-45.5,865.7,3.6876898
E28011002000715E57EA08E5,1,1473189191964052,1473189191964052,1,1.625,13312,-38.5,865.7,0.47246608
E28011002000719E57EA08E5,1,1473189191965432,1473189191965432,1,4.875,13312,-45.5,865.7,1.6689711
E28011002000745E57EB08E5,1,1473189191967798,1473189191967798,1,6.5,13312,-46.0,865.7,3.276583
E28011002000779E57E208E5,1,1473189191969097,1473189191969097,1,4.875,13312,-45.0,865.7,1.116738
E28011002000739E57EA08E5,1,1473189191970670,1473189191970670,1,7.3125,13312,-38.5,865.7,3.6079228
E28011002000765E57EB08E5,1,1473189191972291,1473189191972291,1,0.8125,13312,-41.0,865.7,4.632622
E2801100200078DE57E608E5,1,1473189191973629,1473189191973629,1,2.4375,13312,-45.5,865.7,3.9699423
E280110020007ADE57E608E5,1,1473189191975012,1473189191975012,1,3.25,13312,-39.5,865.7,3.8717675
E28011002000711E57EA08E5,1,1473189191977073,1473189191977073,1,8.125,13312,-47.5,865.7,2.9881945
E28011002000709E57EA08E5,1,1473189191978368,1473189191978368,1,4.875,13312,-43.0,865.7,4.871923
E28011002000791E57E608E5,1,1473189191980187,1473189191980187,1,1.625,13312,-49.0,865.7,1.5892041
E28011002000785E57E608E5,1,1473189191981993,1473189191981993,1,20.3125,13312,-51.5,865.7,2.147573
E28011002000799E57E608E5,1,1473189191984683,1473189191984683,1,2.4375,13312,-48.0,865.7,1.0799224
E280110020007B1E57E608E5,1,1473189191986376,1473189191986376,1,4.875,13312,-54.5,865.7,5.577554
E280110020007A9E57E608E5,1,1473189191988805,1473189191988805,1,-0.8125,13312,-57.0,865.7,4.4976315
E2801100200070DE57EA08E5,1,1473189191990171,1473189191990171,1,-2.4375,13312,-48.5,865.7,2.2089324
E28011002000795E57E608E5,1,1473189191991483,1473189191991483,1,-1.625,13312,-44.5,865.7,6.227962
E28011002000725E57EA08E5,1,1473189191992922,1473189191992922,1,1.625,13312,-49.0,865.7,1.9082721
E28011002000711E57EA08E5,1,1473189192001369,1473189192001369,1,12.1875,13312,-48.0,865.7,2.969787
E28011002000791E57E608E5,1,1473189192003216,1473189192003216,1,2.4375,13312,-48.5,865.7,1.5892041
E28011002000799E57E608E5,1,1473189192005751,1473189192005751,1,2.4375,13312,-48.0,865.7,1.0799224
E28011002000775E57E208E5,1,1473189192007529,1473189192007529,1,5.6875,13312,-45.0,865.7,3.7122335
E280110020007ADE57E608E5,1,1473189192008852,1473189192008852,1,2.4375,13312,-39.5,865.7,3.8594956
E2801100200078DE57E608E5,1,1473189192010162,1473189192010162,1,4.0625,13312,-45.5,865.7,3.9576705
E28011002000739E57EA08E5,1,1473189192011764,1473189192011764,1,5.6875,13312,-38.5,865.7,3.6201947
E28011002000725E57EA08E5,1,1473189192013075,1473189192013075,1,5.6875,13312,-49.0,865.7,1.8653207
E28011002000719E57EA08E5,1,1473189192014379,1473189192014379,1,0.0,13312,-46.0,865.7,1.675107
E28011002000709E57EA08E5,1,1473189192015775,1473189192015775,1,0.0,13312,-43.0,865.7,4.871923
E28011002000785E57E608E5,1,1473189192017128,1473189192017128,1,0.0,13312,-52.0,865.7,2.3377867
E28011002000765E57EB08E5,1,1473189192018947,1473189192018947,1,-2.4375,13312,-41.5,865.7,4.632622
E28011002000779E57E208E5,1,1473189192020712,1473189192020712,1,2.4375,13312,-45.0,865.7,1.1535536
E28011002000715E57EA08E5,1,1473189192022022,1473189192022022,1,4.0625,13312,-39.0,865.7,0.42951462
E280110020007A9E57E608E5,1,1473189192025001,1473189192025001,1,1.625,13312,-57.0,865.7,4.4546804
E2801100200070DE57EA08E5,1,1473189192026872,1473189192026872,1,2.4375,13312,-49.0,865.7,2.147573
E28011002000745E57EB08E5,1,1473189192028304,1473189192028304,1,4.0625,13312,-45.5,865.7,3.2336316
E28011002000795E57E608E5,1,1473189192029687,1473189192029687,1,0.8125,13312,-44.5,865.7,0.06749515
E280110020007B1E57E608E5,1,1473189192031168,1473189192031168,1,13.8125,13312,-54.5,865.7,5.5530105
E2801100200078DE57E608E5,1,1473189192039537,1473189192039537,1,4.875,13312,-45.0,865.7,3.9331267
E28011002000785E57E608E5,1,1473189192040804,1473189192040804,1,6.5,13312,-52.0,865.7,2.3500586
E280110020007A9E57E608E5,1,1473189192042144,1473189192042144,1,23.5625,13312,-56.5,865.7,4.411729
E28011002000791E57E608E5,1,1473189192043708,1473189192043708,1,6.5,13312,-48.5,865.7,1.6076119
E28011002000719E57EA08E5,1,1473189192045027,1473189192045027,1,0.0,13312,-45.5,865.7,1.681243
E28011002000795E57E608E5,1,1473189192046327,1473189192046327,1,1.625,13312,-44.5,865.7,0.159534
E280110020007ADE57E608E5,1,1473189192048404,1473189192048404,1,4.875,13312,-39.0,865.7,3.8717675
E28011002000775E57E208E5,1,1473189192049755,1473189192049755,1,8.125,13312,-45.0,865.7,3.7060976
E28011002000715E57EA08E5,1,1473189192051093,1473189192051093,1,4.0625,13312,-39.0,865.7,0.41724277
E28011002000799E57E608E5,1,1473189192052455,1473189192052455,1,4.0625,13312,-48.5,865.7,1.0185633
E280110020007B1E57E608E5,1,1473189192054773,1473189192054773,1,12.1875,13312,-54.5,865.7,5.602098
E28011002000779E57E208E5,1,1473189192056355,1473189192056355,1,0.8125,13312,-45.5,865.7,1.1842332
E2801100200070DE57EA08E5,1,1473189192058132,1473189192058132,1,5.6875,13312,-48.5,865.7,2.1046216
E28011002000709E57EA08E5,1,1473189192060134,1473189192060134,1,0.8125,13312,-43.0,865.7,4.878059
E28011002000765E57EB08E5,1,1473189192061431,1473189192061431,1,0.8125,13312,-41.5,865.7,4.5896707
E28011002000739E57EA08E5,1,1473189192062779,1473189192062779,1,6.5,13312,-38.5,865.7,3.6447384
E28011002000711E57EA08E5,1,1473189192064896,1473189192064896,1,8.125,13312,-47.5,865.7,2.9759228
E28011002000745E57EB08E5,1,1473189192067631,1473189192067631,1,0.8125,13312,-46.0,865.7,3.2336316
E28011002000725E57EA08E5,1,1473189192069115,1473189192069115,1,3.25,13312,-48.0,865.7,1.7610099
E280110020007A9E57E608E5,1,1473189192078825,1473189192078825,1,6.5,13312,-57.0,865.7,4.4914956
E2801100200078DE57E608E5,1,1473189192080134,1473189192080134,1,4.875,13312,-45.0,865.7,3.9085832
E28011002000739E57EA08E5,1,1473189192081451,1473189192081451,1,5.6875,13312,-39.0,865.7,3.6447384
E28011002000725E57EA08E5,1,1473189192083258,1473189192083258,1,6.5,13312,-48.0,865.7,1.7794178
E28011002000765E57EB08E5,1,1473189192084849,1473189192084849,1,0.0,13312,-42.0,865.7,4.5896707
E28011002000719E57EA08E5,1,1473189192086485,1473189192086485,1,2.4375,13312,-46.0,865.7,1.6260196
E280110020007ADE57E608E5,1,1473189192087896,1473189192087896,1,6.5,13312,-38.5,865.7,3.8779035
E2801100200070DE57EA08E5,1,1473189192089685,1473189192089685,1,8.125,13312,-48.5,865.7,2.0432625
E28011002000779E57E208E5,1,1473189192091293,1473189192091293,1,1.625,13312,-45.5,865.7,1.1903691
E28011002000795E57E608E5,1,1473189192092606,1473189192092606,1,1.625,13312,-43.5,865.7,0.31293207
E28011002000715E57EA08E5,1,1473189192094426,1473189192094426,1,5.6875,13312,-39.5,865.7,0.4049709
E28011002000709E57EA08E5,1,1473189192096748,1473189192096748,1,0.0,13312,-43.5,865.7,4.8412433
E28011002000785E57E608E5,1,1473189192098797,1473189192098797,1,16.25,13312,-52.0,865.7,2.3071072
E28011002000775E57E208E5,1,1473189192100985,1473189192100985,1,8.9375,13312,-45.0,865.7,3.7245054
E28011002000745E57EB08E5,1,1473189192103425,1473189192103425,1,2.4375,13312,-46.0,865.7,3.184544
E28011002000791E57E608E5,1,1473189192105005,1473189192105005,1,5.6875,13312,-49.0,865.7,1.6689711
E28011002000799E57E608E5,1,1473189192106563,1473189192106563,1,-1.625,13312,-48.5,865.7,1.0185633
E280110020007B1E57E608E5,1,1473189192108537,1473189192108537,1,-5.6875,13312,-54.0,865.7,5.737088
E28011002000711E57EA08E5,1,1473189192110369,1473189192110369,1,8.9375,13312,-47.5,865.7,2.957515
E28011002000709E57EA08E5,1,1473189192120750,1473189192120750,1,2.4375,13312,-43.5,865.7,4.7676125
E28011002000745E57EB08E5,1,1473189192122319,1473189192122319,1,0.8125,13312,-45.5,865.7,3.196816
E280110020007ADE57E608E5,1,1473189192123631,1473189192123631,1,5.6875,13312,-39.0,865.7,3.8963113
E28011002000791E57E608E5,1,1473189192124982,1473189192124982,1,8.125,13312,-49.0,865.7,1.7057866
E28011002000711E57EA08E5,1,1473189192126304,1473189192126304,1,7.3125,13312,-47.5,865.7,2.9391072
E28011002000715E57EA08E5,1,1473189192127668,1473189192127668,1,-0.8125,13312,-39.0,865.7,0.41110685
E2801100200078DE57E608E5,1,1473189192129286,1473189192129286,1,4.875,13312,-44.5,865.7,3.8656316
E28011002000725E57EA08E5,1,1473189192130623,1473189192130623,1,0.8125,13312,-47.5,865.7,1.8775924
E2801100200070DE57EA08E5,1,1473189192132200,1473189192132200,1,-0.8125,13312,-48.5,865.7,2.0432625
E28011002000799E57E608E5,1,1473189192133564,1473189192133564,1,5.6875,13312,-48.5,865.7,0.96947587
E28011002000775E57E208E5,1,1473189192135399,1473189192135399,1,3.25,13312,-45.5,865.7,3.7674568
E28011002000779E57E208E5,1,1473189192137138,1473189192137138,1,0.8125,13312,-46.0,865.7,1.2640002
E28011002000719E57EA08E5,1,1473189192138447,1473189192138447,1,6.5,13312,-45.5,865.7,1.6137478
E280110020007A9E57E608E5,1,1473189192140054,1473189192140054,1,18.6875,13312,-57.0,865.7,4.393321
E28011002000795E57E608E5,1,1473189192141971,1473189192141971,1,-2.4375,13312,-43.0,865.7,0.3436117
E28011002000739E57EA08E5,1,1473189192143744,1473189192143744,1,6.5,13312,-39.0,865.7,3.6508744
E28011002000765E57EB08E5,1,1473189192145068,1473189192145068,1,1.625,13312,-42.5,865.7,4.4546804
E28011002000785E57E608E5,1,1473189192150066,1473189192150066,1,4.875,13312,-51.5,865.7,2.4605052
E280110020007B1E57E608E5,1,1473189192151403,1473189192151403,1,13.8125,13312,-54.0,865.7,5.7125444
E28011002000799E57E608E5,1,1473189192159539,1473189192159539,1,5.6875,13312,-48.0,865.7,0.94493216
E280110020007A9E57E608E5,1,1473189192161643,1473189192161643,1,6.5,13312,-56.0,865.7,4.4853597
E28011002000765E57EB08E5,1,1473189192162980,1473189192162980,1,8.125,13312,-42.5,865.7,4.381049
E28011002000739E57EA08E5,1,1473189192164779,1473189192164779,1,7.3125,13312,-39.5,865.7,3.663146
E28011002000709E57EA08E5,1,1473189192166146,1473189192166146,1,-4.0625,13312,-44.0,865.7,4.7553406
E28011002000719E57EA08E5,1,1473189192167724,1473189192167724,1,10.5625,13312,-45.5,865.7,1.5707964
E28011002000745E57EB08E5,1,1473189192169055,1473189192169055,1,-0.8125,13312,-45.5,865.7,3.1784081
E280110020007ADE57E608E5,1,1473189192170878,1473189192170878,1,2.4375,13312,-38.5,865.7,3.9331267
E28011002000715E57EA08E5,1,1473189192172470,1473189192172470,1,4.0625,13312,-39.5,865.7,0.3681554
E2801100200070DE57EA08E5,1,1473189192174268,1473189192174268,1,2.4375,13312,-49.0,865.7,1.9941751
E28011002000779E57E208E5,1,1473189192175839,1473189192175839,1,6.5,13312,-46.0,865.7,1.2640002
E2801100200078DE57E608E5,1,1473189192177358,1473189192177358,1,0.8125,13312,-43.5,865.7,3.8533597
E280110020007B1E57E608E5,1,1473189192178650,1473189192178650,1,-1.625,13312,-53.5,865.7,5.829127
E28011002000795E57E608E5,1,1473189192180474,1473189192180474,1,-1.625,13312,-43.0,865.7,0.49700978
E28011002000785E57E608E5,1,1473189192182025,1473189192182025,1,5.6875,13312,-51.5,865.7,2.4298255
E28011002000725E57EA08E5,1,1473189192183321,1473189192183321,1,5.6875,13312,-47.0,865.7,1.9450877
E28011002000711E57EA08E5,1,1473189192185224,1473189192185224,1,2.4375,13312,-47.0,865.7,2.969787
E28011002000791E57E608E5,1,1473189192187188,1473189192187188,1,9.75,13312,-49.0,865.7,1.7610099
E28011002000775E57E208E5,1,1473189192190483,1473189192190483,1,7.3125,13312,-45.5,865.7,3.7858646
E28011002000765E57EB08E5,1,1473189192198858,1473189192198858,1,1.625,13312,-42.0,865.7,4.3503695
E2801100200070DE57EA08E5,1,1473189192200422,1473189192200422,1,4.0625,13312,-49.0,865.7,1.9757673
E28011002000725E57EA08E5,1,1473189192201972,1473189192201972,1,2.4375,13312,-46.5,865.7,2.0187187
E28011002000719E57EA08E5,1,1473189192203507,1473189192203507,1,6.5,13312,-45.0,865.7,1.5769322
E28011002000739E57EA08E5,1,1473189192204853,1473189192204853,1,4.875,13312,-39.5,865.7,3.6876898
E28011002000711E57EA08E5,1,1473189192206204,1473189192206204,1,8.9375,13312,-47.0,865.7,2.9206994
E28011002000709E57EA08E5,1,1473189192208294,1473189192208294,1,8.9375,13312,-44.5,865.7,4.693981
E280110020007B1E57E608E5,1,1473189192209628,1473189192209628,1,9.75,13312,-53.5,865.7,5.810719
E28011002000785E57E608E5,1,1473189192211489,1473189192211489,1,0.8125,13312,-52.0,865.7,2.4359615
E28011002000779E57E208E5,1,1473189192213582,1473189192213582,1,4.875,13312,-46.0,865.7,1.3437672
E28011002000775E57E208E5,1,1473189192214919,1473189192214919,1,4.875,13312,-45.0,865.7,3.8165443
E2801100200078DE57E608E5,1,1473189192216228,1473189192216228,1,4.0625,13312,-43.5,865.7,3.8410878
E28011002000745E57EB08E5,1,1473189192217589,1473189192217589,1,4.875,13312,-45.0,865.7,3.0556898
E280110020007ADE57E608E5,1,1473189192219155,1473189192219155,1,6.5,13312,-38.0,865.7,3.9515345
E280110020007A9E57E608E5,1,1473189192220494,1473189192220494,1,8.125,13312,-56.5,865.7,4.5037675
E28011002000715E57EA08E5,1,1473189192222991,1473189192222991,1,0.8125,13312,-39.5,865.7,0.31293207
E28011002000799E57E608E5,1,1473189192224326,1473189192224326,1,-1.625,13312,-48.0,865.7,0.88357294
E28011002000795E57E608E5,1,1473189192225865,1473189192225865,1,2.4375,13312,-42.5,865.7,0.8099418
E28011002000791E57E608E5,1,1473189192227459,1473189192227459,1,4.875,13312,-49.0,865.7,1.8530488
E2801100200078DE57E608E5,1,1473189192240894,1473189192240894,1,7.3125,13312,-43.0,865.7,3.828816
E28011002000719E57EA08E5,1,1473189192242244,1473189192242244,1,4.0625,13312,-45.5,865.7,1.5401167
E280110020007B1E57E608E5,1,1473189192244550,1473189192244550,1,0.0,13312,-53.0,865.7,5.9518456
E280110020007A9E57E608E5,1,1473189192247424,1473189192247424,1,13.8125,13312,-57.0,865.7,4.4976315
E28011002000711E57EA08E5,1,1473189192248790,1473189192248790,1,4.875,13312,-47.0,865.7,2.8961558
E28011002000775E57E208E5,1,1473189192250156,1473189192250156,1,7.3125,13312,-44.5,865.7,3.7920005
E280110020007ADE57E608E5,1,1473189192251678,1473189192251678,1,3.25,13312,-38.0,865.7,3.9515345
E2801100200070DE57EA08E5,1,1473189192253015,1473189192253015,1,4.875,13312,-49.0,865.7,1.9512236
E28011002000745E57EB08E5,1,1473189192254573,1473189192254573,1,1.625,13312,-45.0,865.7,2.963651
E28011002000715E57EA08E5,1,1473189192256234,1473189192256234,1,4.875,13312,-39.5,865.7,0.20862138
E28011002000739E57EA08E5,1,1473189192258047,1473189192258047,1,4.875,13312,-40.0,865.7,3.7613208
E28011002000791E57E608E5,1,1473189192259356,1473189192259356,1,4.875,13312,-49.5,865.7,1.9021362
E28011002000725E57EA08E5,1,1473189192260823,1473189192260823,1,3.25,13312,-44.0,865.7,2.0555344
E28011002000799E57E608E5,1,1473189192262184,1473189192262184,1,2.4375,13312,-48.0,865.7,0.79767
E28011002000795E57E608E5,1,1473189192263754,1473189192263754,1,4.875,13312,-40.0,865.7,0.9510681
E28011002000779E57E208E5,1,1473189192265154,1473189192265154,1,4.875,13312,-46.5,865.7,1.4173982
E28011002000765E57EB08E5,1,1473189192267385,1473189192267385,1,4.875,13312,-41.0,865.7,4.3258257
E28011002000709E57EA08E5,1,1473189192268665,1473189192268665,1,2.4375,13312,-44.0,865.7,4.7614765
E28011002000785E57E608E5,1,1473189192270019,1473189192270019,1,6.5,13312,-54.5,865.7,2.6016314
E28011002000795E57E608E5,1,1473189192279961,1473189192279961,1,5.6875,13312,-40.0,865.7,0.9633399
E280110020007ADE57E608E5,1,1473189192281925,1473189192281925,1,6.5,13312,-38.0,865.7,3.9453986
E28011002000725E57EA08E5,1,1473189192283264,1473189192283264,1,5.6875,13312,-43.0,865.7,1.9941751
E28011002000765E57EB08E5,1,1473189192284587,1473189192284587,1,1.625,13312,-41.0,865.7,4.3380976
E280110020007A9E57E608E5,1,1473189192285899,1473189192285899,1,19.5,13312,-57.0,865.7,4.4546804
E28011002000709E57EA08E5,1,1473189192287265,1473189192287265,1,3.25,13312,-44.0,865.7,4.7676125
E28011002000785E57E608E5,1,1473189192288589,1473189192288589,1,7.3125,13312,-55.0,865.7,2.712078
E28011002000775E57E208E5,1,1473189192290220,1473189192290220,1,2.4375,13312,-44.0,865.7,3.7797287
E28011002000715E57EA08E5,1,1473189192292502,1473189192292502,1,-0.8125,13312,-39.5,865.7,0.14726216
E28011002000719E57EA08E5,1,1473189192293841,1473189192293841,1,4.0625,13312,-45.0,865.7,1.4726216
E28011002000711E57EA08E5,1,1473189192295193,1473189192295193,1,4.875,13312,-46.5,865.7,2.797981
E2801100200070DE57EA08E5,1,1473189192296701,1473189192296701,1,15.4375,13312,-49.0,865.7,1.8653207
E2801100200078DE57E608E5,1,1473189192298322,1473189192298322,1,4.875,13312,-42.0,865.7,3.828816
E28011002000745E57EB08E5,1,1473189192299668,1473189192299668,1,5.6875,13312,-45.0,865.7,2.8593402
E28011002000739E57EA08E5,1,1473189192301283,1473189192301283,1,7.3125,13312,-40.0,865.7,3.7858646
E28011002000799E57E608E5,1,1473189192303240,1473189192303240,1,2.4375,13312,-48.0,865.7,0.75471854
E28011002000791E57E608E5,1,1473189192304791,1473189192304791,1,7.3125,13312,-49.5,865.7,1.8960003
E28011002000779E57E208E5,1,1473189192306147,1473189192306147,1,2.4375,13312,-46.5,865.7,1.4235342
E280110020007B1E57E608E5,1,1473189192307881,1473189192307881,1,8.125,13312,-52.5,865.7,5.8536706
E280110020007ADE57E608E5,1,1473189192316742,1473189192316742,1,5.6875,13312,-38.0,865.7,3.9331267
E28011002000715E57EA08E5,1,1473189192318050,1473189192318050,1,-1.625,13312,-39.0,865.7,0.11044662
E280110020007A9E57E608E5,1,1473189192320271,1473189192320271,1,8.9375,13312,-57.0,865.7,4.4914956
E28011002000745E57EB08E5,1,1473189192322706,1473189192322706,1,0.8125,13312,-45.0,865.7,2.8593402
E28011002000795E57E608E5,1,1473189192324021,1473189192324021,1,4.875,13312,-38.5,865.7,0.9387962
E28011002000799E57E608E5,1,1473189192325938,1473189192325938,1,0.8125,13312,-48.0,865.7,0.7608545
E28011002000765E57EB08E5,1,1473189192327294,1473189192327294,1,5.6875,13312,-40.0,865.7,4.307418
E2801100200078DE57E608E5,1,1473189192329857,1473189192329857,1,7.3125,13312,-42.0,865.7,3.7981365
E28011002000775E57E208E5,1,1473189192331835,1473189192331835,1,3.25,13312,-43.5,865.7,3.7183695
E28011002000711E57EA08E5,1,1473189192333174,1473189192333174,1,7.3125,13312,-46.5,865.7,2.7734373
E280110020007B1E57E608E5,1,1473189192334956,1473189192334956,1,0.0,13312,-52.0,865.7,5.8413987
E28011002000719E57EA08E5,1,1473189192336784,1473189192336784,1,-0.8125,13312,-45.5,865.7,1.4664856
E28011002000725E57EA08E5,1,1473189192338748,1473189192338748,1,3.25,13312,-42.0,865.7,1.8714565
E28011002000739E57EA08E5,1,1473189192340080,1473189192340080,1,5.6875,13312,-39.5,865.7,3.8042724
E28011002000709E57EA08E5,1,1473189192342231,1473189192342231,1,0.0,13312,-43.5,865.7,4.8166995
E2801100200070DE57EA08E5,1,1473189192343585,1473189192343585,1,6.5,13312,-49.0,865.7,1.9389517
E28011002000791E57E608E5,1,1473189192344936,1473189192344936,1,8.125,13312,-49.5,865.7,1.8591847
E28011002000779E57E208E5,1,1473189192346279,1473189192346279,1,5.6875,13312,-46.5,865.7,1.3744467
E28011002000785E57E608E5,1,1473189192347731,1473189192347731,1,9.75,13312,-56.5,865.7,3.043418
E28011002000765E57EB08E5,1,1473189192356085,1473189192356085,1,1.625,13312,-39.0,865.7,4.313554
E28011002000739E57EA08E5,1,1473189192357686,1473189192357686,1,2.4375,13312,-39.5,865.7,3.828816
E280110020007B1E57E608E5,1,1473189192359971,1473189192359971,1,7.3125,13312,-52.5,865.7,5.743224
E28011002000725E57EA08E5,1,1473189192362369,1473189192362369,1,2.4375,13312,-41.5,865.7,1.8285052
E28011002000709E57EA08E5,1,1473189192363667,1473189192363667,1,4.875,13312,-43.5,865.7,4.7798843
E28011002000715E57EA08E5,1,1473189192365805,1473189192365805,1,-0.8125,13312,-39.5,865.7,0.05522331
E2801100200078DE57E608E5,1,1473189192367388,1473189192367388,1,3.25,13312,-41.5,865.7,3.8533597
E28011002000745E57EB08E5,1,1473189192368931,1473189192368931,1,0.8125,13312,-45.5,865.7,2.8409324
E2801100200070DE57EA08E5,1,1473189192370526,1473189192370526,1,6.5,13312,-49.0,865.7,1.9696313
E280110020007ADE57E608E5,1,1473189192371879,1473189192371879,1,4.875,13312,-38.0,865.7,3.8717675
E28011002000779E57E208E5,1,1473189192373221,1473189192373221,1,1.625,13312,-46.0,865.7,1.3805827
E28011002000795E57E608E5,1,1473189192374579,1473189192374579,1,6.5,13312,-38.0,865.7,0.8528933
E28011002000799E57E608E5,1,1473189192375938,1473189192375938,1,-0.8125,13312,-48.5,865.7,0.7731263
E28011002000711E57EA08E5,1,1473189192377675,1473189192377675,1,8.125,13312,-47.0,865.7,2.7550294
E28011002000775E57E208E5,1,1473189192379027,1473189192379027,1,4.875,13312,-43.0,865.7,3.6263306
E28011002000791E57E608E5,1,1473189192380393,1473189192380393,1,4.875,13312,-49.0,865.7,1.7978255
E28011002000719E57EA08E5,1,1473189192381758,1473189192381758,1,7.3125,13312,-45.0,865.7,1.4235342
E28011002000785E57E608E5,1,1473189192383124,1473189192383124,1,12.1875,13312,-56.5,865.7,3.184544
E280110020007A9E57E608E5,1,1473189192385914,1473189192385914,1,14.625,13312,-57.5,865.7,4.460816
E28011002000799E57E608E5,1,1473189192394525,1473189192394525,1,1.625,13312,-48.5,865.7,0.77926224
E28011002000715E57EA08E5,1,1473189192396089,1473189192396089,1,1.625,13312,-39.0,865.7,0.03681554
E280110020007ADE57E608E5,1,1473189192397372,1473189192397372,1,7.3125,13312,-38.5,865.7,3.8717675
E28011002000739E57EA08E5,1,1473189192398930,1473189192398930,1,6.5,13312,-39.0,865.7,3.7858646
E28011002000791E57E608E5,1,1473189192400253,1473189192400253,1,5.6875,13312,-49.5,865.7,1.7794178
E28011002000779E57E208E5,1,1473189192402106,1473189192402106,1,3.25,13312,-45.5,865.7,1.3008157
E28011002000725E57EA08E5,1,1473189192403951,1473189192403951,1,1.625,13312,-41.5,865.7,1.7241944
E2801100200078DE57E608E5,1,1473189192406040,1473189192406040,1,2.4375,13312,-41.5,865.7,3.9024472
E28011002000795E57E608E5,1,1473189192407863,1473189192407863,1,2.4375,13312,-37.5,865.7,0.80380595
E28011002000765E57EB08E5,1,1473189192409387,1473189192409387,1,1.625,13312,-38.5,865.7,4.264467
E28011002000745E57EB08E5,1,1473189192410735,1473189192410735,1,8.125,13312,-46.0,865.7,2.8163888
E28011002000775E57E208E5,1,1473189192412823,1473189192412823,1,1.625,13312,-43.0,865.7,3.5711074
E28011002000719E57EA08E5,1,1473189192414145,1473189192414145,1,2.4375,13312,-45.0,865.7,1.4726216
E28011002000709E57EA08E5,1,1473189192415411,1473189192415411,1,1.625,13312,-43.0,865.7,4.7860203
E28011002000785E57E608E5,1,1473189192417860,1473189192417860,1,7.3125,13312,-56.5,865.7,3.362486
E2801100200070DE57EA08E5,1,1473189192420103,1473189192420103,1,0.0,13312,-48.5,865.7,2.067806
E28011002000711E57EA08E5,1,1473189192422253,1473189192422253,1,5.6875,13312,-47.0,865.7,2.7488935
E280110020007A9E57E608E5,1,1473189192423604,1473189192423604,1,-0.8125,13312,-56.5,865.7,4.5221753
E280110020007B1E57E608E5,1,1473189192425551,1473189192425551,1,5.6875,13312,-53.0,865.7,5.608234
E28011002000715E57EA08E5,1,1473189192434093,1473189192434093,1,-0.8125,13312,-39.0,865.7,0.03681554
E28011002000799E57E608E5,1,1473189192435458,1473189192435458,1,3.25,13312,-48.5,865.7,0.8467574
E28011002000711E57EA08E5,1,1473189192438625,1473189192438625,1,8.125,13312,-47.0,865.7,2.7366216
E280110020007ADE57E608E5,1,1473189192439963,1473189192439963,1,1.625,13312,-38.0,865.7,3.8349519
E28011002000775E57E208E5,1,1473189192441373,1473189192441373,1,2.4375,13312,-43.0,865.7,3.5465636
E280110020007B1E57E608E5,1,1473189192442963,1473189192442963,1,1.625,13312,-53.0,865.7,5.595962
E28011002000765E57EB08E5,1,1473189192444318,1473189192444318,1,2.4375,13312,-37.5,865.7,4.227651
E28011002000779E57E208E5,1,1473189192445631,1473189192445631,1,0.0,13312,-45.5,865.7,1.2640002
E2801100200078DE57E608E5,1,1473189192447198,1473189192447198,1,0.8125,13312,-41.5,865.7,3.9269907
E28011002000795E57E608E5,1,1473189192448482,1473189192448482,1,0.8125,13312,-37.0,865.7,0.72403896
E28011002000739E57EA08E5,1,1473189192450057,1473189192450057,1,1.625,13312,-38.0,865.7,3.7797287
E28011002000725E57EA08E5,1,1473189192451395,1473189192451395,1,1.625,13312,-42.0,865.7,1.6260196
E28011002000709E57EA08E5,1,1473189192452717,1473189192452717,1,0.0,13312,-43.0,865.7,4.7982917
E28011002000785E57E608E5,1,1473189192454357,1473189192454357,1,4.875,13312,-57.0,865.7,3.5281558
E28011002000719E57EA08E5,1,1473189192455719,1473189192455719,1,0.0,13312,-45.5,865.7,1.5094371
E2801100200070DE57EA08E5,1,1473189192457329,1473189192457329,1,4.875,13312,-48.5,865.7,2.073942
E28011002000791E57E608E5,1,1473189192458638,1473189192458638,1,6.5,13312,-50.0,865.7,1.6505634
E28011002000745E57EB08E5,1,1473189192460214,1473189192460214,1,4.875,13312,-46.5,865.7,2.8961558
E280110020007A9E57E608E5,1,1473189192461907,1473189192461907,1,-2.4375,13312,-57.0,865.7,4.5835347
E2801100200070DE57EA08E5,1,1473189192471335,1473189192471335,1,7.3125,13312,-49.0,865.7,2.080078
E28011002000719E57EA08E5,1,1473189192472656,1473189192472656,1,4.875,13312,-45.5,865.7,1.4971652
E28011002000765E57EB08E5,1,1473189192474010,1473189192474010,1,2.4375,13312,-37.0,865.7,4.1785636
E28011002000791E57E608E5,1,1473189192475350,1473189192475350,1,14.625,13312,-50.0,865.7,1.5769322
E280110020007A9E57E608E5,1,1473189192476644,1473189192476644,1,4.875,13312,-57.0,865.7,4.5037675
E28011002000799E57E608E5,1,1473189192477906,1473189192477906,1,4.0625,13312,-48.5,865.7,0.8651652
E28011002000779E57E208E5,1,1473189192479717,1473189192479717,1,4.875,13312,-45.0,865.7,1.2026409
E2801100200078DE57E608E5,1,1473189192482004,1473189192482004,1,1.625,13312,-41.5,865.7,3.9760783
E28011002000745E57EB08E5,1,1473189192483536,1473189192483536,1,4.0625,13312,-47.0,865.7,2.9452431
E28011002000711E57EA08E5,1,1473189192484901,1473189192484901,1,4.875,13312,-47.5,865.7,2.7673013
E28011002000725E57EA08E5,1,1473189192486239,1473189192486239,1,2.4375,13312,-42.5,865.7,1.5462526
E28011002000775E57E208E5,1,1473189192489067,1473189192489067,1,-0.8125,13312,-43.0,865.7,3.4667966
E28011002000709E57EA08E5,1,1473189192490662,1473189192490662,1,3.25,13312,-43.0,865.7,4.7430687
E280110020007ADE57E608E5,1,1473189192492279,1473189192492279,1,6.5,13312,-38.5,865.7,3.8165443
E28011002000785E57E608E5,1,1473189192494230,1473189192494230,1,-5.6875,13312,-57.0,865.7,3.7122335
E28011002000739E57EA08E5,1,1473189192495562,1473189192495562,1,5.6875,13312,-38.0,865.7,3.7060976
E28011002000715E57EA08E5,1,1473189192497834,1473189192497834,1,1.625,13312,-38.5,865.7,6.2647777
E280110020007B1E57E608E5,1,1473189192500148,1473189192500148,1,-8.125,13312,-53.5,865.7,5.473243
E28011002000795E57E608E5,1,1473189192501802,1473189192501802,1,5.6875,13312,-36.5,865.7,0.5890486
E280110020007ADE57E608E5,1,1473189192514303,1473189192514303,1,6.5,13312,-38.5,865.7,3.7858646
E28011002000779E57E208E5,1,1473189192516481,1473189192516481,1,1.625,13312,-44.5,865.7,1.1535536
E28011002000739E57EA08E5,1,1473189192517799,1473189192517799,1,2.4375,13312,-37.5,865.7,3.7060976
E28011002000715E57EA08E5,1,1473189192519122,1473189192519122,1,1.625,13312,-38.5,865.7,6.240234
E28011002000719E57EA08E5,1,1473189192520686,1473189192520686,1,4.0625,13312,-46.0,865.7,1.515573
E28011002000791E57E608E5,1,1473189192522489,1473189192522489,1,2.4375,13312,-50.0,865.7,1.59534
E28011002000709E57EA08E5,1,1473189192523828,1473189192523828,1,-0.8125,13312,-42.5,865.7,4.7553406
E28011002000775E57E208E5,1,1473189192525182,1473189192525182,1,1.625,13312,-43.0,865.7,3.3931656
E28011002000725E57EA08E5,1,1473189192526786,1473189192526786,1,2.4375,13312,-42.5,865.7,1.4664856
E2801100200070DE57EA08E5,1,1473189192528092,1473189192528092,1,0.8125,13312,-49.0,865.7,2.1782527
E2801100200078DE57E608E5,1,1473189192529560,1473189192529560,1,2.4375,13312,-41.5,865.7,4.0251656
E28011002000745E57EB08E5,1,1473189192531416,1473189192531416,1,4.0625,13312,-48.0,865.7,3.0495539
E280110020007A9E57E608E5,1,1473189192532740,1473189192532740,1,8.125,13312,-57.0,865.7,4.4546804
E28011002000799E57E608E5,1,1473189192534074,1473189192534074,1,8.9375,13312,-49.0,865.7,0.9510681
E28011002000785E57E608E5,1,1473189192536583,1473189192536583,1,-1.625,13312,-56.5,865.7,3.8840394
E28011002000765E57EB08E5,1,1473189192538306,1473189192538306,1,1.625,13312,-37.0,865.7,4.0313015
E28011002000795E57E608E5,1,1473189192539646,1473189192539646,1,0.8125,13312,-36.0,865.7,0.5031457
E280110020007B1E57E608E5,1,1473189192542623,1473189192542623,1,-2.4375,13312,-53.0,865.7,5.295302
E28011002000711E57EA08E5,1,1473189192543935,1473189192543935,1,8.9375,13312,-47.5,865.7,2.7488935
E28011002000785E57E608E5,1,1473189192552301,1473189192552301,1,-2.4375,13312,-56.0,865.7,3.9269907
E28011002000725E57EA08E5,1,1473189192553854,1473189192553854,1,3.25,13312,-42.5,865.7,1.3989905
E28011002000791E57E608E5,1,1473189192555674,1473189192555674,1,4.875,13312,-50.5,865.7,1.5278449
E28011002000795E57E608E5,1,1473189192558032,1473189192558032,1,0.8125,13312,-36.0,865.7,0.45405832
E28011002000711E57EA08E5,1,1473189192559399,1473189192559399,1,7.3125,13312,-47.5,865.7,2.7795732
E2801100200070DE57EA08E5,1,1473189192561459,1473189192561459,1,4.875,13312,-49.5,865.7,2.2027965
E28011002000739E57EA08E5,1,1473189192562805,1473189192562805,1,3.25,13312,-37.5,865.7,3.6263306
E28011002000779E57E208E5,1,1473189192564629,1473189192564629,1,3.25,13312,-44.5,865.7,1.0676507
E280110020007B1E57E608E5,1,1473189192566004,1473189192566004,1,-0.8125,13312,-53.5,865.7,5.2093987
E280110020007ADE57E608E5,1,1473189192567317,1473189192567317,1,4.875,13312,-39.0,865.7,3.7613208
E28011002000719E57EA08E5,1,1473189192568682,1473189192568682,1,4.875,13312,-46.5,865.7,1.5646604
E28011002000765E57EB08E5,1,1473189192570063,1473189192570063,1,-2.4375,13312,-37.0,865.7,3.9638064
E2801100200078DE57E608E5,1,1473189192571414,1473189192571414,1,0.8125,13312,-41.5,865.7,4.061981
E28011002000799E57E608E5,1,1473189192573472,1473189192573472,1,3.25,13312,-48.5,865.7,1.0246992
E28011002000775E57E208E5,1,1473189192574796,1473189192574796,1,5.6875,13312,-43.5,865.7,3.3011267
E28011002000709E57EA08E5,1,1473189192577870,1473189192577870,1,-4.875,13312,-42.0,865.7,4.6755733
E28011002000715E57EA08E5,1,1473189192579218,1473189192579218,1,0.0,13312,-38.0,865.7,6.2034183
E280110020007A9E57E608E5,1,1473189192580559,1473189192580559,1,-6.5,13312,-57.5,865.7,4.5283113
E28011002000745E57EB08E5,1,1473189192584303,1473189192584303,1,0.0,13312,-48.5,865.7,3.2336316
E28011002000725E57EA08E5,1,1473189192592446,1473189192592446,1,6.5,13312,-43.5,865.7,1.3192235
E28011002000791E57E608E5,1,1473189192595387,1473189192595387,1,3.25,13312,-51.0,865.7,1.5033011
E28011002000779E57E208E5,1,1473189192597269,1473189192597269,1,3.25,13312,-44.5,865.7,1.0185633
E28011002000719E57EA08E5,1,1473189192598647,1473189192598647,1,8.9375,13312,-46.5,865.7,1.5646604
E280110020007B1E57E608E5,1,1473189192600025,1473189192600025,1,8.9375,13312,-53.0,865.7,5.025321
E28011002000765E57EB08E5,1,1473189192601633,1473189192601633,1,4.875,13312,-36.5,865.7,3.7981365
E28011002000775E57E208E5,1,1473189192603226,1473189192603226,1,3.25,13312,-44.0,865.7,3.2581751
E2801100200078DE57E608E5,1,1473189192604548,1473189192604548,1,0.8125,13312,-41.5,865.7,4.061981
E2801100200070DE57EA08E5,1,1473189192606128,1473189192606128,1,10.5625,13312,-50.0,865.7,2.1966605
E28011002000739E57EA08E5,1,1473189192607473,1473189192607473,1,2.4375,13312,-37.5,865.7,3.5281558
E28011002000715E57EA08E5,1,1473189192609263,1473189192609263,1,4.0625,13312,-38.0,865.7,6.1543307
E28011002000745E57EB08E5,1,1473189192610552,1473189192610552,1,4.0625,13312,-48.5,865.7,3.276583
E28011002000795E57E608E5,1,1473189192611835,1473189192611835,1,2.4375,13312,-36.5,865.7,0.30066022
E28011002000799E57E608E5,1,1473189192613425,1473189192613425,1,8.125,13312,-49.0,865.7,1.0553788
E280110020007A9E57E608E5,1,1473189192615019,1473189192615019,1,-8.9375,13312,-57.0,865.7,4.5221753
E280110020007ADE57E608E5,1,1473189192616415,1473189192616415,1,5.6875,13312,-39.0,865.7,3.749049
E28011002000711E57EA08E5,1,1473189192617909,1473189192617909,1,5.6875,13312,-48.0,865.7,2.8593402
E28011002000709E57EA08E5,1,1473189192619262,1473189192619262,1,1.625,13312,-41.5,865.7,4.571263
E28011002000785E57E608E5,1,1473189192621468,1473189192621468,1,17.0625,13312,-55.0,865.7,3.8717675
E28011002000779E57E208E5,1,1473189192630102,1473189192630102,1,0.8125,13312,-45.0,865.7,1.0001554
E28011002000711E57EA08E5,1,1473189192631965,1473189192631965,1,10.5625,13312,-48.0,865.7,2.8470683
E28011002000795E57E608E5,1,1473189192634115,1473189192634115,1,1.625,13312,-36.5,865.7,0.25157285
E28011002000799E57E608E5,1,1473189192635478,1473189192635478,1,4.0625,13312,-48.5,865.7,1.1351458
E28011002000715E57EA08E5,1,1473189192636816,1473189192636816,1,1.625,13312,-38.0,865.7,6.1359234
E2801100200070DE57EA08E5,1,1473189192638154,1473189192638154,1,6.5,13312,-50.5,865.7,2.2518837
E280110020007ADE57E608E5,1,1473189192639508,1473189192639508,1,3.25,13312,-39.5,865.7,3.742913
E28011002000775E57E208E5,1,1473189192640844,1473189192640844,1,0.0,13312,-44.5,865.7,3.2274957
E28011002000745E57EB08E5,1,1473189192642120,1473189192642120,1,0.8125,13312,-48.5,865.7,3.4115732
E28011002000709E57EA08E5,1,1473189192643431,1473189192643431,1,-1.625,13312,-41.0,865.7,4.534447
E28011002000765E57EB08E5,1,1473189192644728,1473189192644728,1,3.25,13312,-36.5,865.7,3.6263306
E2801100200078DE57E608E5,1,1473189192646575,1473189192646575,1,0.8125,13312,-41.0,865.7,4.0558453
E28011002000739E57EA08E5,1,1473189192647935,1473189192647935,1,0.8125,13312,-37.0,865.7,3.4545248
E28011002000719E57EA08E5,1,1473189192649528,1473189192649528,1,6.5,13312,-46.5,865.7,1.681243
E280110020007B1E57E608E5,1,1473189192651708,1473189192651708,1,6.5,13312,-53.5,865.7,4.9026027
E28011002000785E57E608E5,1,1473189192653175,1473189192653175,1,-10.5625,13312,-54.5,865.7,4.0128937
E28011002000725E57EA08E5,1,1473189192654515,1473189192654515,1,3.25,13312,-45.5,865.7,1.362175
E28011002000791E57E608E5,1,1473189192655895,1473189192655895,1,12.1875,13312,-52.0,865.7,1.4910294
E280110020007A9E57E608E5,1,1473189192657859,1473189192657859,1,-3.25,13312,-57.5,865.7,4.4240007
E28011002000785E57E608E5,1,1473189192665996,1473189192665996,1,-14.625,13312,-54.0,865.7,3.9760783
E2801100200070DE57EA08E5,1,1473189192667330,1473189192667330,1,0.8125,13312,-50.5,865.7,2.2825634
E28011002000719E57EA08E5,1,1473189192668923,1473189192668923,1,2.4375,13312,-46.5,865.7,1.7241944
E28011002000745E57EB08E5,1,1473189192670920,1473189192670920,1,1.625,13312,-48.5,865.7,3.4790685
E28011002000715E57EA08E5,1,1473189192672540,1473189192672540,1,1.625,13312,-38.5,865.7,6.0807
E28011002000709E57EA08E5,1,1473189192673890,1473189192673890,1,0.0,13312,-41.5,865.7,4.466952
E28011002000711E57EA08E5,1,1473189192675456,1473189192675456,1,1.625,13312,-48.0,865.7,2.951379
E28011002000725E57EA08E5,1,1473189192677037,1473189192677037,1,5.6875,13312,-45.5,865.7,1.3867186
E280110020007B1E57E608E5,1,1473189192679365,1473189192679365,1,4.875,13312,-54.0,865.7,4.884195
E280110020007A9E57E608E5,1,1473189192680945,1473189192680945,1,5.6875,13312,-58.5,865.7,4.3687773
E28011002000765E57EB08E5,1,1473189192682296,1473189192682296,1,0.8125,13312,-37.5,865.7,3.4790685
E28011002000775E57E208E5,1,1473189192683606,1473189192683606,1,0.8125,13312,-45.0,865.7,3.202952
E28011002000795E57E608E5,1,1473189192684934,1473189192684934,1,2.4375,13312,-37.0,865.7,0.14112623
E28011002000779E57E208E5,1,1473189192686289,1473189192686289,1,0.0,13312,-45.5,865.7,1.0062914
E2801100200078DE57E608E5,1,1473189192687813,1473189192687813,1,1.625,13312,-41.5,865.7,3.9638064
E280110020007ADE57E608E5,1,1473189192689379,1473189192689379,1,3.25,13312,-39.5,865.7,3.7122335
E28011002000739E57EA08E5,1,1473189192690725,1473189192690725,1,3.25,13312,-37.5,865.7,3.344078
E28011002000799E57E608E5,1,1473189192694429,1473189192694429,1,8.9375,13312,-48.5,865.7,1.1842332
E28011002000791E57E608E5,1,1473189192696149,1473189192696149,1,1.625,13312,-52.5,865.7,1.6566993
E28011002000795E57E608E5,1,1473189192705424,1473189192705424,1,0.8125,13312,-38.0,865.7,0.12271846
E28011002000745E57EB08E5,1,1473189192707083,1473189192707083,1,1.625,13312,-48.5,865.7,3.5404277
E28011002000709E57EA08E5,1,1473189192708932,1473189192708932,1,-0.8125,13312,-41.0,865.7,4.399457
E280110020007A9E57E608E5,1,1473189192710230,1473189192710230,1,8.125,13312,-58.0,865.7,4.2706027
E28011002000775E57E208E5,1,1473189192711622,1473189192711622,1,0.0,13312,-45.5,865.7,3.202952
E2801100200078DE57E608E5,1,1473189192713231,1473189192713231,1,-0.8125,13312,-41.0,865.7,3.9024472
E28011002000785E57E608E5,1,1473189192714840,1473189192714840,1,-0.8125,13312,-52.5,865.7,3.7122335
E28011002000739E57EA08E5,1,1473189192716357,1473189192716357,1,2.4375,13312,-38.0,865.7,3.3011267
E28011002000715E57EA08E5,1,1473189192718858,1473189192718858,1,4.0625,13312,-39.0,865.7,6.05002
E28011002000719E57EA08E5,1,1473189192721216,1473189192721216,1,5.6875,13312,-46.5,865.7,1.7610099
E28011002000765E57EB08E5,1,1473189192722497,1473189192722497,1,0.8125,13312,-38.5,865.7,3.3195345
E28011002000799E57E608E5,1,1473189192724612,1473189192724612,1,8.9375,13312,-49.0,865.7,1.2026409
E280110020007ADE57E608E5,1,1473189192725979,1473189192725979,1,4.875,13312,-39.5,865.7,3.7060976
E28011002000779E57E208E5,1,1473189192727276,1473189192727276,1,0.0,13312,-46.5,865.7,1.0737865
E28011002000725E57EA08E5,1,1473189192729467,1473189192729467,1,0.0,13312,-47.5,865.7,1.601476
E280110020007B1E57E608E5,1,1473189192730763,1473189192730763,1,17.0625,13312,-54.0,865.7,4.859651
E28011002000711E57EA08E5,1,1473189192732126,1473189192732126,1,0.8125,13312,-49.0,865.7,3.031146
E28011002000791E57E608E5,1,1473189192736147,1473189192736147,1,-6.5,13312,-52.5,865.7,1.8469129
E2801100200070DE57EA08E5,1,1473189192737938,1473189192737938,1,6.5,13312,-51.5,865.7,2.2212043
E28011002000739E57EA08E5,1,1473189192746968,1473189192746968,1,3.25,13312,-38.0,865.7,3.2520392
E2801100200070DE57EA08E5,1,1473189192748517,1473189192748517,1,1.625,13312,-52.0,865.7,2.2518837
E28011002000779E57E208E5,1,1473189192750583,1473189192750583,1,2.4375,13312,-46.5,865.7,1.1290098
E280110020007B1E57E608E5,1,1473189192752129,1473189192752129,1,2.4375,13312,-54.0,865.7,4.9087386
E2801100200078DE57E608E5,1,1473189192753539,1473189192753539,1,5.6875,13312,-40.5,865.7,3.749049
E28011002000799E57E608E5,1,1473189192755140,1473189192755140,1,-1.625,13312,-49.0,865.7,1.2946798
E28011002000715E57EA08E5,1,1473189192756494,1473189192756494,1,4.875,13312,-40.0,865.7,6.074564
E28011002000795E57E608E5,1,1473189192758003,1473189192758003,1,1.625,13312,-39.0,865.7,0.12885438
E28011002000725E57EA08E5,1,1473189192760077,1473189192760077,1,-0.8125,13312,-47.5,865.7,1.6935148
E280110020007A9E57E608E5,1,1473189192761421,1473189192761421,1,26.0,13312,-59.5,865.7,4.080389
E28011002000719E57EA08E5,1,1473189192763421,1473189192763421,1,8.125,13312,-46.5,865.7,1.7303303
E280110020007ADE57E608E5,1,1473189192764732,1473189192764732,1,7.3125,13312,-40.0,865.7,3.7122335
E28011002000765E57EB08E5,1,1473189192766058,1473189192766058,1,2.4375,13312,-39.5,865.7,3.2274957
E28011002000775E57E208E5,1,1473189192767580,1473189192767580,1,-0.8125,13312,-45.5,865.7,3.2213597
E28011002000709E57EA08E5,1,1473189192769131,1473189192769131,1,-1.625,13312,-41.5,865.7,4.3565054
E28011002000711E57EA08E5,1,1473189192771519,1473189192771519,1,3.25,13312,-49.5,865.7,3.0863693
E28011002000791E57E608E5,1,1473189192772871,1473189192772871,1,-8.125,13312,-51.5,865.7,1.9757673
E28011002000785E57E608E5,1,1473189192774748,1473189192774748,1,2.4375,13312,-51.5,865.7,3.429981
E28011002000745E57EB08E5,1,1473189192777926,1473189192777926,1,4.0625,13312,-48.0,865.7,3.577243
E28011002000711E57EA08E5,1,1473189192787547,1473189192787547,1,0.0,13312,-49.5,865.7,3.1293209
E28011002000715E57EA08E5,1,1473189192788873,1473189192788873,1,2.4375,13312,-40.5,865.7,6.142059
E28011002000791E57E608E5,1,1473189192790704,1473189192790704,1,-0.8125,13312,-51.0,865.7,1.9450877
E28011002000779E57E208E5,1,1473189192792502,1473189192792502,1,3.25,13312,-46.5,865.7,1.2394565
E28011002000739E57EA08E5,1,1473189192794823,1473189192794823,1,4.875,13312,-38.5,865.7,3.2336316
E28011002000709E57EA08E5,1,1473189192797379,1473189192797379,1,1.625,13312,-42.0,865.7,4.3442335
E28011002000765E57EB08E5,1,1473189192798718,1473189192798718,1,0.8125,13312,-40.5,865.7,3.2090878
E280110020007ADE57E608E5,1,1473189192800342,1473189192800342,1,8.125,13312,-40.0,865.7,3.6999617
E28011002000795E57E608E5,1,1473189192803637,1473189192803637,1,3.25,13312,-39.0,865.7,0.19021362
E2801100200070DE57EA08E5,1,1473189192805016,1473189192805016,1,-0.8125,13312,-53.5,865.7,2.233476
E28011002000775E57E208E5,1,1473189192806737,1473189192806737,1,0.8125,13312,-45.5,865.7,3.2152238
E280110020007A9E57E608E5,1,1473189192808335,1473189192808335,1,29.25,13312,-60.0,865.7,4.0251656
E28011002000725E57EA08E5,1,1473189192809672,1473189192809672,1,6.5,13312,-47.0,865.7,1.6935148
E28011002000799E57E608E5,1,1473189192812554,1473189192812554,1,1.625,13312,-49.0,865.7,1.2026409
E2801100200078DE57E608E5,1,1473189192813921,1473189192813921,1,12.1875,13312,-40.0,865.7,3.6140587
E28011002000719E57EA08E5,1,1473189192815738,1473189192815738,1,1.625,13312,-46.5,865.7,1.7119225
E28011002000785E57E608E5,1,1473189192817913,1473189192817913,1,1.625,13312,-51.5,865.7,3.276583
E280110020007B1E57E608E5,1,1473189192819901,1473189192819901,1,0.8125,13312,-53.5,865.7,5.1357675
E28011002000745E57EB08E5,1,1473189192821290,1473189192821290,1,0.0,13312,-48.5,865.7,3.583379
