%!PS-Adobe-2.0 EPSF-2.0
%%Title: line-plot-phase-vs-coverage.eps
%%Creator: gnuplot 4.6 patchlevel 4
%%CreationDate: Mon Jul 11 17:17:58 2016
%%DocumentFonts: (atend)
%%BoundingBox: 50 50 482 374
%%EndComments
%%BeginProlog
/gnudict 256 dict def
gnudict begin
%
% The following true/false flags may be edited by hand if desired.
% The unit line width and grayscale image gamma correction may also be changed.
%
/Color true def
/Blacktext false def
/Solid false def
/Dashlength 1 def
/Landscape false def
/Level1 false def
/Rounded false def
/ClipToBoundingBox false def
/SuppressPDFMark false def
/TransparentPatterns false def
/gnulinewidth 5.000 def
/userlinewidth gnulinewidth def
/Gamma 1.0 def
/BackgroundColor {-1.000 -1.000 -1.000} def
%
/vshift -93 def
/dl1 {
  10.0 Dashlength mul mul
  Rounded { currentlinewidth 0.75 mul sub dup 0 le { pop 0.01 } if } if
} def
/dl2 {
  10.0 Dashlength mul mul
  Rounded { currentlinewidth 0.75 mul add } if
} def
/hpt_ 31.5 def
/vpt_ 31.5 def
/hpt hpt_ def
/vpt vpt_ def
/doclip {
  ClipToBoundingBox {
    newpath 50 50 moveto 482 50 lineto 482 374 lineto 50 374 lineto closepath
    clip
  } if
} def
%
% Gnuplot Prolog Version 4.6 (September 2012)
%
%/SuppressPDFMark true def
%
/M {moveto} bind def
/L {lineto} bind def
/R {rmoveto} bind def
/V {rlineto} bind def
/N {newpath moveto} bind def
/Z {closepath} bind def
/C {setrgbcolor} bind def
/f {rlineto fill} bind def
/g {setgray} bind def
/Gshow {show} def   % May be redefined later in the file to support UTF-8
/vpt2 vpt 2 mul def
/hpt2 hpt 2 mul def
/Lshow {currentpoint stroke M 0 vshift R 
	Blacktext {gsave 0 setgray show grestore} {show} ifelse} def
/Rshow {currentpoint stroke M dup stringwidth pop neg vshift R
	Blacktext {gsave 0 setgray show grestore} {show} ifelse} def
/Cshow {currentpoint stroke M dup stringwidth pop -2 div vshift R 
	Blacktext {gsave 0 setgray show grestore} {show} ifelse} def
/UP {dup vpt_ mul /vpt exch def hpt_ mul /hpt exch def
  /hpt2 hpt 2 mul def /vpt2 vpt 2 mul def} def
/DL {Color {setrgbcolor Solid {pop []} if 0 setdash}
 {pop pop pop 0 setgray Solid {pop []} if 0 setdash} ifelse} def
/BL {stroke userlinewidth 2 mul setlinewidth
	Rounded {1 setlinejoin 1 setlinecap} if} def
/AL {stroke userlinewidth 2 div setlinewidth
	Rounded {1 setlinejoin 1 setlinecap} if} def
/UL {dup gnulinewidth mul /userlinewidth exch def
	dup 1 lt {pop 1} if 10 mul /udl exch def} def
/PL {stroke userlinewidth setlinewidth
	Rounded {1 setlinejoin 1 setlinecap} if} def
3.8 setmiterlimit
% Default Line colors
/LCw {1 1 1} def
/LCb {0 0 0} def
/LCa {0 0 0} def
/LC0 {1 0 0} def
/LC1 {0 1 0} def
/LC2 {0 0 1} def
/LC3 {1 0 1} def
/LC4 {0 1 1} def
/LC5 {1 1 0} def
/LC6 {0 0 0} def
/LC7 {1 0.3 0} def
/LC8 {0.5 0.5 0.5} def
% Default Line Types
/LTw {PL [] 1 setgray} def
/LTb {BL [] LCb DL} def
/LTa {AL [1 udl mul 2 udl mul] 0 setdash LCa setrgbcolor} def
/LT0 {PL [] LC0 DL} def
/LT1 {PL [4 dl1 2 dl2] LC1 DL} def
/LT2 {PL [2 dl1 3 dl2] LC2 DL} def
/LT3 {PL [1 dl1 1.5 dl2] LC3 DL} def
/LT4 {PL [6 dl1 2 dl2 1 dl1 2 dl2] LC4 DL} def
/LT5 {PL [3 dl1 3 dl2 1 dl1 3 dl2] LC5 DL} def
/LT6 {PL [2 dl1 2 dl2 2 dl1 6 dl2] LC6 DL} def
/LT7 {PL [1 dl1 2 dl2 6 dl1 2 dl2 1 dl1 2 dl2] LC7 DL} def
/LT8 {PL [2 dl1 2 dl2 2 dl1 2 dl2 2 dl1 2 dl2 2 dl1 4 dl2] LC8 DL} def
/Pnt {stroke [] 0 setdash gsave 1 setlinecap M 0 0 V stroke grestore} def
/Dia {stroke [] 0 setdash 2 copy vpt add M
  hpt neg vpt neg V hpt vpt neg V
  hpt vpt V hpt neg vpt V closepath stroke
  Pnt} def
/Pls {stroke [] 0 setdash vpt sub M 0 vpt2 V
  currentpoint stroke M
  hpt neg vpt neg R hpt2 0 V stroke
 } def
/Box {stroke [] 0 setdash 2 copy exch hpt sub exch vpt add M
  0 vpt2 neg V hpt2 0 V 0 vpt2 V
  hpt2 neg 0 V closepath stroke
  Pnt} def
/Crs {stroke [] 0 setdash exch hpt sub exch vpt add M
  hpt2 vpt2 neg V currentpoint stroke M
  hpt2 neg 0 R hpt2 vpt2 V stroke} def
/TriU {stroke [] 0 setdash 2 copy vpt 1.12 mul add M
  hpt neg vpt -1.62 mul V
  hpt 2 mul 0 V
  hpt neg vpt 1.62 mul V closepath stroke
  Pnt} def
/Star {2 copy Pls Crs} def
/BoxF {stroke [] 0 setdash exch hpt sub exch vpt add M
  0 vpt2 neg V hpt2 0 V 0 vpt2 V
  hpt2 neg 0 V closepath fill} def
/TriUF {stroke [] 0 setdash vpt 1.12 mul add M
  hpt neg vpt -1.62 mul V
  hpt 2 mul 0 V
  hpt neg vpt 1.62 mul V closepath fill} def
/TriD {stroke [] 0 setdash 2 copy vpt 1.12 mul sub M
  hpt neg vpt 1.62 mul V
  hpt 2 mul 0 V
  hpt neg vpt -1.62 mul V closepath stroke
  Pnt} def
/TriDF {stroke [] 0 setdash vpt 1.12 mul sub M
  hpt neg vpt 1.62 mul V
  hpt 2 mul 0 V
  hpt neg vpt -1.62 mul V closepath fill} def
/DiaF {stroke [] 0 setdash vpt add M
  hpt neg vpt neg V hpt vpt neg V
  hpt vpt V hpt neg vpt V closepath fill} def
/Pent {stroke [] 0 setdash 2 copy gsave
  translate 0 hpt M 4 {72 rotate 0 hpt L} repeat
  closepath stroke grestore Pnt} def
/PentF {stroke [] 0 setdash gsave
  translate 0 hpt M 4 {72 rotate 0 hpt L} repeat
  closepath fill grestore} def
/Circle {stroke [] 0 setdash 2 copy
  hpt 0 360 arc stroke Pnt} def
/CircleF {stroke [] 0 setdash hpt 0 360 arc fill} def
/C0 {BL [] 0 setdash 2 copy moveto vpt 90 450 arc} bind def
/C1 {BL [] 0 setdash 2 copy moveto
	2 copy vpt 0 90 arc closepath fill
	vpt 0 360 arc closepath} bind def
/C2 {BL [] 0 setdash 2 copy moveto
	2 copy vpt 90 180 arc closepath fill
	vpt 0 360 arc closepath} bind def
/C3 {BL [] 0 setdash 2 copy moveto
	2 copy vpt 0 180 arc closepath fill
	vpt 0 360 arc closepath} bind def
/C4 {BL [] 0 setdash 2 copy moveto
	2 copy vpt 180 270 arc closepath fill
	vpt 0 360 arc closepath} bind def
/C5 {BL [] 0 setdash 2 copy moveto
	2 copy vpt 0 90 arc
	2 copy moveto
	2 copy vpt 180 270 arc closepath fill
	vpt 0 360 arc} bind def
/C6 {BL [] 0 setdash 2 copy moveto
	2 copy vpt 90 270 arc closepath fill
	vpt 0 360 arc closepath} bind def
/C7 {BL [] 0 setdash 2 copy moveto
	2 copy vpt 0 270 arc closepath fill
	vpt 0 360 arc closepath} bind def
/C8 {BL [] 0 setdash 2 copy moveto
	2 copy vpt 270 360 arc closepath fill
	vpt 0 360 arc closepath} bind def
/C9 {BL [] 0 setdash 2 copy moveto
	2 copy vpt 270 450 arc closepath fill
	vpt 0 360 arc closepath} bind def
/C10 {BL [] 0 setdash 2 copy 2 copy moveto vpt 270 360 arc closepath fill
	2 copy moveto
	2 copy vpt 90 180 arc closepath fill
	vpt 0 360 arc closepath} bind def
/C11 {BL [] 0 setdash 2 copy moveto
	2 copy vpt 0 180 arc closepath fill
	2 copy moveto
	2 copy vpt 270 360 arc closepath fill
	vpt 0 360 arc closepath} bind def
/C12 {BL [] 0 setdash 2 copy moveto
	2 copy vpt 180 360 arc closepath fill
	vpt 0 360 arc closepath} bind def
/C13 {BL [] 0 setdash 2 copy moveto
	2 copy vpt 0 90 arc closepath fill
	2 copy moveto
	2 copy vpt 180 360 arc closepath fill
	vpt 0 360 arc closepath} bind def
/C14 {BL [] 0 setdash 2 copy moveto
	2 copy vpt 90 360 arc closepath fill
	vpt 0 360 arc} bind def
/C15 {BL [] 0 setdash 2 copy vpt 0 360 arc closepath fill
	vpt 0 360 arc closepath} bind def
/Rec {newpath 4 2 roll moveto 1 index 0 rlineto 0 exch rlineto
	neg 0 rlineto closepath} bind def
/Square {dup Rec} bind def
/Bsquare {vpt sub exch vpt sub exch vpt2 Square} bind def
/S0 {BL [] 0 setdash 2 copy moveto 0 vpt rlineto BL Bsquare} bind def
/S1 {BL [] 0 setdash 2 copy vpt Square fill Bsquare} bind def
/S2 {BL [] 0 setdash 2 copy exch vpt sub exch vpt Square fill Bsquare} bind def
/S3 {BL [] 0 setdash 2 copy exch vpt sub exch vpt2 vpt Rec fill Bsquare} bind def
/S4 {BL [] 0 setdash 2 copy exch vpt sub exch vpt sub vpt Square fill Bsquare} bind def
/S5 {BL [] 0 setdash 2 copy 2 copy vpt Square fill
	exch vpt sub exch vpt sub vpt Square fill Bsquare} bind def
/S6 {BL [] 0 setdash 2 copy exch vpt sub exch vpt sub vpt vpt2 Rec fill Bsquare} bind def
/S7 {BL [] 0 setdash 2 copy exch vpt sub exch vpt sub vpt vpt2 Rec fill
	2 copy vpt Square fill Bsquare} bind def
/S8 {BL [] 0 setdash 2 copy vpt sub vpt Square fill Bsquare} bind def
/S9 {BL [] 0 setdash 2 copy vpt sub vpt vpt2 Rec fill Bsquare} bind def
/S10 {BL [] 0 setdash 2 copy vpt sub vpt Square fill 2 copy exch vpt sub exch vpt Square fill
	Bsquare} bind def
/S11 {BL [] 0 setdash 2 copy vpt sub vpt Square fill 2 copy exch vpt sub exch vpt2 vpt Rec fill
	Bsquare} bind def
/S12 {BL [] 0 setdash 2 copy exch vpt sub exch vpt sub vpt2 vpt Rec fill Bsquare} bind def
/S13 {BL [] 0 setdash 2 copy exch vpt sub exch vpt sub vpt2 vpt Rec fill
	2 copy vpt Square fill Bsquare} bind def
/S14 {BL [] 0 setdash 2 copy exch vpt sub exch vpt sub vpt2 vpt Rec fill
	2 copy exch vpt sub exch vpt Square fill Bsquare} bind def
/S15 {BL [] 0 setdash 2 copy Bsquare fill Bsquare} bind def
/D0 {gsave translate 45 rotate 0 0 S0 stroke grestore} bind def
/D1 {gsave translate 45 rotate 0 0 S1 stroke grestore} bind def
/D2 {gsave translate 45 rotate 0 0 S2 stroke grestore} bind def
/D3 {gsave translate 45 rotate 0 0 S3 stroke grestore} bind def
/D4 {gsave translate 45 rotate 0 0 S4 stroke grestore} bind def
/D5 {gsave translate 45 rotate 0 0 S5 stroke grestore} bind def
/D6 {gsave translate 45 rotate 0 0 S6 stroke grestore} bind def
/D7 {gsave translate 45 rotate 0 0 S7 stroke grestore} bind def
/D8 {gsave translate 45 rotate 0 0 S8 stroke grestore} bind def
/D9 {gsave translate 45 rotate 0 0 S9 stroke grestore} bind def
/D10 {gsave translate 45 rotate 0 0 S10 stroke grestore} bind def
/D11 {gsave translate 45 rotate 0 0 S11 stroke grestore} bind def
/D12 {gsave translate 45 rotate 0 0 S12 stroke grestore} bind def
/D13 {gsave translate 45 rotate 0 0 S13 stroke grestore} bind def
/D14 {gsave translate 45 rotate 0 0 S14 stroke grestore} bind def
/D15 {gsave translate 45 rotate 0 0 S15 stroke grestore} bind def
/DiaE {stroke [] 0 setdash vpt add M
  hpt neg vpt neg V hpt vpt neg V
  hpt vpt V hpt neg vpt V closepath stroke} def
/BoxE {stroke [] 0 setdash exch hpt sub exch vpt add M
  0 vpt2 neg V hpt2 0 V 0 vpt2 V
  hpt2 neg 0 V closepath stroke} def
/TriUE {stroke [] 0 setdash vpt 1.12 mul add M
  hpt neg vpt -1.62 mul V
  hpt 2 mul 0 V
  hpt neg vpt 1.62 mul V closepath stroke} def
/TriDE {stroke [] 0 setdash vpt 1.12 mul sub M
  hpt neg vpt 1.62 mul V
  hpt 2 mul 0 V
  hpt neg vpt -1.62 mul V closepath stroke} def
/PentE {stroke [] 0 setdash gsave
  translate 0 hpt M 4 {72 rotate 0 hpt L} repeat
  closepath stroke grestore} def
/CircE {stroke [] 0 setdash 
  hpt 0 360 arc stroke} def
/Opaque {gsave closepath 1 setgray fill grestore 0 setgray closepath} def
/DiaW {stroke [] 0 setdash vpt add M
  hpt neg vpt neg V hpt vpt neg V
  hpt vpt V hpt neg vpt V Opaque stroke} def
/BoxW {stroke [] 0 setdash exch hpt sub exch vpt add M
  0 vpt2 neg V hpt2 0 V 0 vpt2 V
  hpt2 neg 0 V Opaque stroke} def
/TriUW {stroke [] 0 setdash vpt 1.12 mul add M
  hpt neg vpt -1.62 mul V
  hpt 2 mul 0 V
  hpt neg vpt 1.62 mul V Opaque stroke} def
/TriDW {stroke [] 0 setdash vpt 1.12 mul sub M
  hpt neg vpt 1.62 mul V
  hpt 2 mul 0 V
  hpt neg vpt -1.62 mul V Opaque stroke} def
/PentW {stroke [] 0 setdash gsave
  translate 0 hpt M 4 {72 rotate 0 hpt L} repeat
  Opaque stroke grestore} def
/CircW {stroke [] 0 setdash 
  hpt 0 360 arc Opaque stroke} def
/BoxFill {gsave Rec 1 setgray fill grestore} def
/Density {
  /Fillden exch def
  currentrgbcolor
  /ColB exch def /ColG exch def /ColR exch def
  /ColR ColR Fillden mul Fillden sub 1 add def
  /ColG ColG Fillden mul Fillden sub 1 add def
  /ColB ColB Fillden mul Fillden sub 1 add def
  ColR ColG ColB setrgbcolor} def
/BoxColFill {gsave Rec PolyFill} def
/PolyFill {gsave Density fill grestore grestore} def
/h {rlineto rlineto rlineto gsave closepath fill grestore} bind def
%
% PostScript Level 1 Pattern Fill routine for rectangles
% Usage: x y w h s a XX PatternFill
%	x,y = lower left corner of box to be filled
%	w,h = width and height of box
%	  a = angle in degrees between lines and x-axis
%	 XX = 0/1 for no/yes cross-hatch
%
/PatternFill {gsave /PFa [ 9 2 roll ] def
  PFa 0 get PFa 2 get 2 div add PFa 1 get PFa 3 get 2 div add translate
  PFa 2 get -2 div PFa 3 get -2 div PFa 2 get PFa 3 get Rec
  TransparentPatterns {} {gsave 1 setgray fill grestore} ifelse
  clip
  currentlinewidth 0.5 mul setlinewidth
  /PFs PFa 2 get dup mul PFa 3 get dup mul add sqrt def
  0 0 M PFa 5 get rotate PFs -2 div dup translate
  0 1 PFs PFa 4 get div 1 add floor cvi
	{PFa 4 get mul 0 M 0 PFs V} for
  0 PFa 6 get ne {
	0 1 PFs PFa 4 get div 1 add floor cvi
	{PFa 4 get mul 0 2 1 roll M PFs 0 V} for
 } if
  stroke grestore} def
%
/languagelevel where
 {pop languagelevel} {1} ifelse
 2 lt
	{/InterpretLevel1 true def}
	{/InterpretLevel1 Level1 def}
 ifelse
%
% PostScript level 2 pattern fill definitions
%
/Level2PatternFill {
/Tile8x8 {/PaintType 2 /PatternType 1 /TilingType 1 /BBox [0 0 8 8] /XStep 8 /YStep 8}
	bind def
/KeepColor {currentrgbcolor [/Pattern /DeviceRGB] setcolorspace} bind def
<< Tile8x8
 /PaintProc {0.5 setlinewidth pop 0 0 M 8 8 L 0 8 M 8 0 L stroke} 
>> matrix makepattern
/Pat1 exch def
<< Tile8x8
 /PaintProc {0.5 setlinewidth pop 0 0 M 8 8 L 0 8 M 8 0 L stroke
	0 4 M 4 8 L 8 4 L 4 0 L 0 4 L stroke}
>> matrix makepattern
/Pat2 exch def
<< Tile8x8
 /PaintProc {0.5 setlinewidth pop 0 0 M 0 8 L
	8 8 L 8 0 L 0 0 L fill}
>> matrix makepattern
/Pat3 exch def
<< Tile8x8
 /PaintProc {0.5 setlinewidth pop -4 8 M 8 -4 L
	0 12 M 12 0 L stroke}
>> matrix makepattern
/Pat4 exch def
<< Tile8x8
 /PaintProc {0.5 setlinewidth pop -4 0 M 8 12 L
	0 -4 M 12 8 L stroke}
>> matrix makepattern
/Pat5 exch def
<< Tile8x8
 /PaintProc {0.5 setlinewidth pop -2 8 M 4 -4 L
	0 12 M 8 -4 L 4 12 M 10 0 L stroke}
>> matrix makepattern
/Pat6 exch def
<< Tile8x8
 /PaintProc {0.5 setlinewidth pop -2 0 M 4 12 L
	0 -4 M 8 12 L 4 -4 M 10 8 L stroke}
>> matrix makepattern
/Pat7 exch def
<< Tile8x8
 /PaintProc {0.5 setlinewidth pop 8 -2 M -4 4 L
	12 0 M -4 8 L 12 4 M 0 10 L stroke}
>> matrix makepattern
/Pat8 exch def
<< Tile8x8
 /PaintProc {0.5 setlinewidth pop 0 -2 M 12 4 L
	-4 0 M 12 8 L -4 4 M 8 10 L stroke}
>> matrix makepattern
/Pat9 exch def
/Pattern1 {PatternBgnd KeepColor Pat1 setpattern} bind def
/Pattern2 {PatternBgnd KeepColor Pat2 setpattern} bind def
/Pattern3 {PatternBgnd KeepColor Pat3 setpattern} bind def
/Pattern4 {PatternBgnd KeepColor Landscape {Pat5} {Pat4} ifelse setpattern} bind def
/Pattern5 {PatternBgnd KeepColor Landscape {Pat4} {Pat5} ifelse setpattern} bind def
/Pattern6 {PatternBgnd KeepColor Landscape {Pat9} {Pat6} ifelse setpattern} bind def
/Pattern7 {PatternBgnd KeepColor Landscape {Pat8} {Pat7} ifelse setpattern} bind def
} def
%
%
%End of PostScript Level 2 code
%
/PatternBgnd {
  TransparentPatterns {} {gsave 1 setgray fill grestore} ifelse
} def
%
% Substitute for Level 2 pattern fill codes with
% grayscale if Level 2 support is not selected.
%
/Level1PatternFill {
/Pattern1 {0.250 Density} bind def
/Pattern2 {0.500 Density} bind def
/Pattern3 {0.750 Density} bind def
/Pattern4 {0.125 Density} bind def
/Pattern5 {0.375 Density} bind def
/Pattern6 {0.625 Density} bind def
/Pattern7 {0.875 Density} bind def
} def
%
% Now test for support of Level 2 code
%
Level1 {Level1PatternFill} {Level2PatternFill} ifelse
%
/Symbol-Oblique /Symbol findfont [1 0 .167 1 0 0] makefont
dup length dict begin {1 index /FID eq {pop pop} {def} ifelse} forall
currentdict end definefont pop
Level1 SuppressPDFMark or 
{} {
/SDict 10 dict def
systemdict /pdfmark known not {
  userdict /pdfmark systemdict /cleartomark get put
} if
SDict begin [
  /Title (line-plot-phase-vs-coverage.eps)
  /Subject (gnuplot plot)
  /Creator (gnuplot 4.6 patchlevel 4)
  /Author (spradhan)
%  /Producer (gnuplot)
%  /Keywords ()
  /CreationDate (Mon Jul 11 17:17:58 2016)
  /DOCINFO pdfmark
end
} ifelse
end
%%EndProlog
%%Page: 1 1
gnudict begin
gsave
doclip
50 50 translate
0.050 0.050 scale
0 setgray
newpath
(Helvetica) findfont 280 scalefont setfont
BackgroundColor 0 lt 3 1 roll 0 lt exch 0 lt or or not {BackgroundColor C 1.000 0 0 8640.00 6480.00 BoxColFill} if
1.000 UL
LTb
LCb setrgbcolor
756 896 M
63 0 V
7316 0 R
-63 0 V
588 896 M
( 0) Rshow
1.000 UL
LTb
LCb setrgbcolor
756 1626 M
63 0 V
7316 0 R
-63 0 V
-7484 0 R
( 1) Rshow
1.000 UL
LTb
LCb setrgbcolor
756 2355 M
63 0 V
7316 0 R
-63 0 V
-7484 0 R
( 2) Rshow
1.000 UL
LTb
LCb setrgbcolor
756 3085 M
63 0 V
7316 0 R
-63 0 V
-7484 0 R
( 3) Rshow
1.000 UL
LTb
LCb setrgbcolor
756 3815 M
63 0 V
7316 0 R
-63 0 V
-7484 0 R
( 4) Rshow
1.000 UL
LTb
LCb setrgbcolor
756 4544 M
63 0 V
7316 0 R
-63 0 V
-7484 0 R
( 5) Rshow
1.000 UL
LTb
LCb setrgbcolor
756 5274 M
63 0 V
7316 0 R
-63 0 V
-7484 0 R
( 6) Rshow
1.000 UL
LTb
LCb setrgbcolor
756 896 M
0 63 V
0 4680 R
0 -63 V
756 616 M
( 0) Cshow
1.000 UL
LTb
LCb setrgbcolor
1494 896 M
0 63 V
0 4680 R
0 -63 V
0 -4960 R
( 1000) Cshow
1.000 UL
LTb
LCb setrgbcolor
2232 896 M
0 63 V
0 4680 R
0 -63 V
0 -4960 R
( 2000) Cshow
1.000 UL
LTb
LCb setrgbcolor
2970 896 M
0 63 V
0 4680 R
0 -63 V
0 -4960 R
( 3000) Cshow
1.000 UL
LTb
LCb setrgbcolor
3708 896 M
0 63 V
0 4680 R
0 -63 V
0 -4960 R
( 4000) Cshow
1.000 UL
LTb
LCb setrgbcolor
4446 896 M
0 63 V
0 4680 R
0 -63 V
0 -4960 R
( 5000) Cshow
1.000 UL
LTb
LCb setrgbcolor
5183 896 M
0 63 V
0 4680 R
0 -63 V
0 -4960 R
( 6000) Cshow
1.000 UL
LTb
LCb setrgbcolor
5921 896 M
0 63 V
0 4680 R
0 -63 V
0 -4960 R
( 7000) Cshow
1.000 UL
LTb
LCb setrgbcolor
6659 896 M
0 63 V
0 4680 R
0 -63 V
0 -4960 R
( 8000) Cshow
1.000 UL
LTb
LCb setrgbcolor
7397 896 M
0 63 V
0 4680 R
0 -63 V
0 -4960 R
( 9000) Cshow
1.000 UL
LTb
LCb setrgbcolor
8135 896 M
0 63 V
0 4680 R
0 -63 V
0 -4960 R
( 10000) Cshow
1.000 UL
LTb
LCb setrgbcolor
1.000 UL
LTb
LCb setrgbcolor
756 5639 N
756 896 L
7379 0 V
0 4743 V
-7379 0 V
Z stroke
LCb setrgbcolor
/Helvetica findfont 280 scalefont setfont
/vshift -93 def
280 3267 M
currentpoint gsave translate -270 rotate 0 0 M
(Phase Difference \(in Radian\)) Cshow
grestore
/Helvetica findfont 280 scalefont setfont
LTb
LCb setrgbcolor
/Helvetica findfont 280 scalefont setfont
4781 196 M
(Time) Cshow
/Helvetica findfont 280 scalefont setfont
LTb
4445 6059 M
(Sliding Window of 0.5 Sec) Cshow
1.000 UP
1.000 UL
LTb
LCb setrgbcolor
% Begin plot #1
4.000 UL
LTb
LCb setrgbcolor
757 2132 M
0 9 V
1 4 V
1 0 V
1 0 V
1 5 V
1 -5 V
1 -4 V
0 13 V
1 -4 V
1 4 V
1 -9 V
0 -4 V
1 4 V
1 9 V
1 -4 V
1 9 V
1 -9 V
1 4 V
1 -4 V
1 0 V
0 18 V
1 -14 V
1 5 V
1 0 V
0 -5 V
1 9 V
1 -4 V
1 0 V
0 4 V
1 -9 V
1 18 V
1 -18 V
0 5 V
1 0 V
1 4 V
1 -9 V
0 9 V
1 0 V
1 -4 V
0 9 V
1 0 V
1 -14 V
1 5 V
0 4 V
1 -9 V
1 9 V
1 0 V
0 -4 V
1 9 V
1 -9 V
1 0 V
0 9 V
1 -9 V
1 9 V
1 -5 V
1 0 V
1 0 V
0 -9 V
1 9 V
1 -4 V
1 4 V
0 -9 V
1 5 V
1 0 V
1 -5 V
0 9 V
1 -4 V
1 4 V
1 -9 V
1 9 V
1 0 V
1 -4 V
0 4 V
1 -4 V
1 -5 V
1 5 V
1 4 V
1 -9 V
1 9 V
1 -4 V
1 -5 V
0 5 V
1 4 V
1 -13 V
1 13 V
0 -4 V
1 -5 V
1 -4 V
1 4 V
0 5 V
1 -5 V
1 0 V
1 0 V
1 5 V
1 -5 V
1 0 V
1 0 V
1 5 V
0 4 V
1 -4 V
1 0 V
1 9 V
0 -14 V
1 9 V
stroke 840 2163 M
1 -9 V
1 0 V
1 -4 V
1 13 V
1 0 V
0 -13 V
1 9 V
1 -5 V
0 -4 V
1 18 V
1 -14 V
1 5 V
0 4 V
1 0 V
1 -9 V
1 5 V
0 -5 V
1 0 V
1 5 V
1 9 V
0 -9 V
1 0 V
1 4 V
1 -4 V
0 4 V
1 -4 V
1 0 V
1 4 V
0 -9 V
1 0 V
1 5 V
1 0 V
1 4 V
1 -4 V
0 -9 V
1 13 V
1 0 V
1 -4 V
1 0 V
1 0 V
1 4 V
1 -4 V
1 4 V
1 0 V
0 -4 V
1 0 V
1 4 V
1 5 V
1 -9 V
1 0 V
0 9 V
1 -5 V
1 -4 V
1 9 V
0 -9 V
1 4 V
1 9 V
1 -13 V
1 4 V
1 0 V
1 0 V
0 9 V
1 5 V
1 -14 V
1 0 V
0 5 V
1 -5 V
1 5 V
0 -9 V
1 4 V
1 -4 V
1 9 V
0 -5 V
1 0 V
1 -4 V
1 9 V
0 -9 V
1 4 V
1 -4 V
1 9 V
0 -9 V
1 9 V
1 -9 V
1 4 V
1 5 V
1 0 V
1 4 V
1 -4 V
1 -5 V
0 -4 V
1 13 V
1 -9 V
1 0 V
1 0 V
1 5 V
1 4 V
1 -4 V
1 -9 V
1 4 V
0 -4 V
1 0 V
1 4 V
1 5 V
1 0 V
stroke 925 2168 M
1 -5 V
0 -4 V
1 4 V
1 -4 V
1 9 V
0 -9 V
1 9 V
1 4 V
1 -4 V
0 -5 V
1 9 V
1 -4 V
1 0 V
0 4 V
1 0 V
1 -4 V
1 -5 V
0 9 V
1 -13 V
1 9 V
0 4 V
1 0 V
1 0 V
1 5 V
0 -5 V
1 -9 V
1 5 V
1 0 V
1 0 V
1 4 V
1 -9 V
0 5 V
1 -9 V
1 13 V
1 -4 V
0 4 V
1 -9 V
1 5 V
0 4 V
1 -4 V
1 -5 V
1 14 V
0 -14 V
1 0 V
1 0 V
1 9 V
0 -9 V
1 5 V
1 -9 V
1 22 V
0 -13 V
1 0 V
1 0 V
1 4 V
0 -4 V
1 4 V
1 -9 V
1 5 V
0 4 V
1 -4 V
1 4 V
0 -9 V
1 5 V
1 0 V
1 -9 V
0 9 V
1 -9 V
1 9 V
1 -5 V
0 9 V
1 5 V
1 -14 V
1 9 V
1 -4 V
1 0 V
1 0 V
1 4 V
1 5 V
1 -5 V
1 0 V
1 -4 V
0 -5 V
1 5 V
1 0 V
1 4 V
0 5 V
1 -9 V
1 -5 V
1 9 V
0 5 V
1 -5 V
1 0 V
1 5 V
0 -9 V
1 0 V
1 17 V
1 -8 V
0 4 V
1 -13 V
1 0 V
0 13 V
1 -18 V
1 0 V
1 9 V
stroke 1005 2172 M
0 9 V
1 -4 V
1 0 V
1 -5 V
1 5 V
1 -9 V
1 13 V
0 -9 V
1 5 V
1 0 V
1 4 V
0 -9 V
1 0 V
1 5 V
0 -9 V
1 9 V
1 4 V
1 -4 V
0 -5 V
1 5 V
1 0 V
1 0 V
0 -5 V
1 5 V
1 4 V
1 -9 V
0 5 V
1 -5 V
1 9 V
1 -4 V
0 8 V
1 0 V
1 0 V
1 -4 V
1 9 V
1 -9 V
0 4 V
1 0 V
1 0 V
1 9 V
0 -13 V
1 4 V
1 0 V
1 5 V
0 -9 V
1 0 V
1 0 V
1 0 V
0 9 V
1 0 V
1 0 V
1 -9 V
1 9 V
1 4 V
0 -9 V
1 0 V
1 5 V
1 4 V
0 -4 V
1 4 V
1 -4 V
1 9 V
0 -9 V
1 0 V
1 4 V
1 -9 V
0 -4 V
1 13 V
1 -4 V
1 0 V
0 -9 V
1 9 V
1 -5 V
0 18 V
1 -13 V
1 0 V
1 9 V
0 -5 V
1 5 V
1 -9 V
1 4 V
0 -9 V
1 9 V
1 -4 V
1 4 V
0 5 V
1 -5 V
1 5 V
1 0 V
0 4 V
1 -9 V
1 5 V
1 -9 V
0 9 V
1 0 V
1 0 V
1 4 V
1 -4 V
1 -5 V
0 5 V
1 0 V
1 0 V
1 0 V
0 -5 V
stroke 1084 2194 M
1 5 V
1 0 V
1 0 V
1 4 V
1 0 V
1 0 V
0 9 V
1 -13 V
1 -5 V
0 5 V
1 9 V
1 -5 V
1 0 V
0 5 V
1 -5 V
1 -4 V
1 0 V
1 4 V
1 0 V
1 -4 V
0 4 V
1 -4 V
1 0 V
1 0 V
0 9 V
1 -9 V
1 4 V
1 -4 V
1 0 V
1 4 V
1 -4 V
1 -5 V
1 5 V
1 4 V
1 0 V
1 -4 V
0 9 V
1 -9 V
1 0 V
1 4 V
1 18 V
1 -22 V
1 4 V
1 0 V
1 -4 V
1 9 V
1 -5 V
1 0 V
0 14 V
1 -18 V
1 4 V
1 5 V
0 -9 V
1 0 V
1 0 V
1 0 V
0 -5 V
1 5 V
1 0 V
1 4 V
0 -4 V
1 4 V
1 5 V
0 -9 V
1 0 V
1 4 V
1 5 V
0 -5 V
1 9 V
1 -13 V
1 0 V
0 13 V
1 -13 V
1 4 V
1 -4 V
0 4 V
1 -4 V
1 4 V
1 0 V
1 0 V
1 0 V
1 -4 V
0 9 V
1 -9 V
1 4 V
0 5 V
1 -5 V
1 5 V
1 0 V
0 4 V
1 -4 V
1 0 V
1 -5 V
0 5 V
1 0 V
1 4 V
1 -9 V
0 -4 V
1 4 V
1 9 V
1 -4 V
1 0 V
1 0 V
1 0 V
stroke 1169 2208 M
1 -5 V
1 5 V
0 9 V
1 -5 V
1 0 V
1 -4 V
1 0 V
1 9 V
1 -5 V
1 9 V
1 -9 V
1 5 V
0 -5 V
1 0 V
1 0 V
1 5 V
1 0 V
1 0 V
0 -5 V
1 14 V
1 -9 V
1 0 V
1 0 V
1 4 V
1 0 V
0 -4 V
1 4 V
1 -4 V
1 0 V
0 4 V
1 0 V
1 9 V
1 -9 V
0 5 V
1 -5 V
1 0 V
0 5 V
1 0 V
1 0 V
1 0 V
0 4 V
1 -4 V
1 4 V
1 0 V
0 -4 V
1 4 V
1 0 V
1 0 V
0 5 V
1 -9 V
1 9 V
1 4 V
0 -4 V
1 4 V
1 0 V
0 -9 V
1 18 V
1 -4 V
1 -9 V
1 -5 V
1 9 V
1 -4 V
0 9 V
1 -14 V
1 5 V
1 0 V
1 -5 V
1 9 V
1 0 V
0 5 V
1 -5 V
1 9 V
1 -13 V
1 9 V
1 -9 V
1 4 V
1 0 V
1 0 V
0 9 V
1 -13 V
1 4 V
1 -4 V
0 9 V
1 -5 V
1 0 V
1 18 V
0 -13 V
1 -5 V
1 5 V
1 0 V
1 9 V
1 -9 V
0 -5 V
1 5 V
1 0 V
1 -5 V
0 -4 V
1 9 V
1 -5 V
1 0 V
1 5 V
1 0 V
1 -5 V
1 0 V
stroke 1254 2239 M
1 5 V
1 0 V
1 0 V
1 4 V
1 -4 V
1 -5 V
1 5 V
1 4 V
1 0 V
1 -4 V
1 0 V
1 4 V
1 0 V
0 -9 V
1 9 V
1 0 V
1 0 V
1 -4 V
1 0 V
1 4 V
1 0 V
1 0 V
1 -4 V
1 4 V
1 0 V
0 -9 V
1 5 V
1 0 V
1 4 V
0 -4 V
1 4 V
1 0 V
1 0 V
1 5 V
1 -5 V
1 0 V
1 0 V
1 0 V
1 0 V
0 5 V
1 -5 V
1 9 V
0 -9 V
1 0 V
1 0 V
1 -9 V
0 9 V
1 0 V
1 5 V
1 -14 V
0 9 V
1 0 V
1 0 V
1 0 V
1 -4 V
1 13 V
1 -9 V
0 5 V
1 -9 V
1 13 V
0 -9 V
1 -4 V
1 0 V
1 18 V
0 -5 V
1 -13 V
1 9 V
1 0 V
0 -5 V
1 0 V
1 0 V
1 -4 V
0 22 V
1 -18 V
1 0 V
1 9 V
0 -9 V
1 0 V
1 -4 V
1 4 V
1 5 V
1 0 V
0 13 V
1 -18 V
1 0 V
1 0 V
0 5 V
1 0 V
1 -5 V
1 5 V
1 -5 V
1 9 V
1 -4 V
0 4 V
1 0 V
1 -4 V
1 -5 V
0 5 V
1 9 V
1 -9 V
0 18 V
1 -9 V
1 -5 V
1 0 V
stroke 1340 2257 M
0 9 V
1 -4 V
1 0 V
1 0 V
0 4 V
1 5 V
1 -9 V
1 0 V
0 13 V
1 -4 V
1 0 V
1 0 V
1 0 V
1 0 V
0 13 V
1 -5 V
1 -4 V
1 9 V
0 -9 V
1 0 V
1 13 V
1 -4 V
1 9 V
1 -9 V
1 0 V
0 4 V
1 0 V
1 5 V
1 0 V
0 4 V
1 5 V
1 0 V
1 4 V
0 -4 V
1 9 V
1 -14 V
0 18 V
1 -13 V
1 0 V
1 9 V
0 -5 V
1 0 V
1 18 V
1 -13 V
0 4 V
1 -9 V
1 5 V
1 4 V
0 -4 V
1 4 V
1 5 V
1 0 V
0 -5 V
1 5 V
1 -5 V
1 9 V
1 -4 V
1 0 V
1 0 V
1 4 V
1 5 V
0 -5 V
1 5 V
1 -5 V
1 5 V
0 9 V
1 -14 V
1 5 V
1 0 V
0 -9 V
1 0 V
1 4 V
0 -4 V
1 9 V
1 -5 V
1 5 V
0 -9 V
1 9 V
1 -5 V
1 -4 V
1 0 V
1 4 V
1 0 V
1 0 V
1 -4 V
1 0 V
0 9 V
1 0 V
1 0 V
1 -9 V
0 4 V
1 5 V
1 0 V
0 -9 V
1 4 V
1 5 V
1 -5 V
1 0 V
1 0 V
1 0 V
1 -4 V
1 0 V
1 9 V
0 -9 V
stroke 1422 2320 M
1 4 V
1 5 V
1 -9 V
1 13 V
1 -9 V
0 -4 V
1 0 V
1 4 V
1 0 V
0 -9 V
1 9 V
1 0 V
1 0 V
0 9 V
1 -9 V
1 5 V
1 -9 V
0 13 V
1 -4 V
1 0 V
1 -5 V
0 5 V
1 -5 V
1 -4 V
1 4 V
1 0 V
1 0 V
0 14 V
1 -9 V
1 4 V
1 -9 V
0 5 V
1 -5 V
1 5 V
1 0 V
1 0 V
1 13 V
1 -18 V
0 5 V
1 4 V
1 -4 V
1 -5 V
0 9 V
1 -4 V
1 0 V
1 -5 V
1 0 V
1 5 V
1 0 V
1 0 V
1 -5 V
0 9 V
1 0 V
1 -4 V
1 9 V
0 -9 V
1 0 V
1 4 V
1 -9 V
0 5 V
1 4 V
1 0 V
1 0 V
1 -4 V
1 0 V
0 9 V
1 -5 V
1 0 V
1 5 V
0 -5 V
1 0 V
1 5 V
1 0 V
0 -5 V
1 5 V
1 0 V
1 13 V
0 -13 V
1 4 V
1 5 V
1 0 V
0 -9 V
1 4 V
1 5 V
0 -9 V
1 9 V
1 -5 V
1 0 V
0 5 V
1 0 V
1 0 V
1 0 V
0 4 V
1 0 V
1 0 V
1 0 V
1 5 V
1 0 V
1 0 V
1 4 V
1 -4 V
0 9 V
1 -5 V
1 14 V
stroke 1505 2374 M
1 -5 V
0 -4 V
1 13 V
1 -18 V
1 9 V
0 13 V
1 -8 V
1 4 V
1 0 V
0 -4 V
1 8 V
1 -4 V
1 -4 V
0 4 V
1 4 V
1 -4 V
1 0 V
0 -4 V
1 4 V
1 9 V
0 -5 V
1 5 V
1 0 V
1 -9 V
1 9 V
1 -9 V
1 4 V
1 5 V
1 -5 V
1 5 V
0 4 V
1 -9 V
1 0 V
1 5 V
1 4 V
1 0 V
0 -9 V
1 0 V
1 9 V
1 0 V
1 0 V
1 5 V
1 0 V
1 -5 V
1 5 V
1 0 V
0 -5 V
1 5 V
1 0 V
1 -5 V
0 5 V
1 9 V
1 -9 V
1 0 V
1 0 V
1 0 V
0 9 V
1 -9 V
1 4 V
1 -9 V
1 14 V
1 -14 V
1 18 V
0 -13 V
1 0 V
1 0 V
1 0 V
0 4 V
1 -4 V
1 -5 V
1 0 V
0 5 V
1 0 V
1 0 V
0 -5 V
1 0 V
1 5 V
1 -5 V
0 5 V
1 0 V
1 -9 V
1 9 V
0 -5 V
1 0 V
1 5 V
1 -9 V
0 9 V
1 -5 V
1 5 V
1 -5 V
1 5 V
1 0 V
1 -5 V
1 0 V
1 5 V
0 4 V
1 -9 V
1 5 V
1 0 V
0 4 V
1 -4 V
1 -5 V
1 0 V
0 5 V
stroke 1588 2396 M
1 -9 V
1 9 V
1 -5 V
0 5 V
1 0 V
1 -9 V
1 0 V
0 4 V
1 9 V
1 -9 V
1 5 V
1 -5 V
1 -4 V
0 9 V
1 -5 V
1 0 V
1 5 V
1 -9 V
1 4 V
1 5 V
0 -9 V
1 0 V
1 9 V
1 -5 V
0 9 V
1 -9 V
1 0 V
1 0 V
1 5 V
1 -5 V
1 5 V
1 -5 V
1 0 V
1 -4 V
1 18 V
1 -14 V
0 -9 V
1 14 V
1 4 V
1 0 V
0 -13 V
1 0 V
1 0 V
1 13 V
1 -9 V
1 0 V
1 -4 V
1 0 V
1 4 V
0 5 V
1 -9 V
1 0 V
1 0 V
0 9 V
1 -5 V
1 5 V
1 -5 V
0 -4 V
1 9 V
1 -5 V
1 0 V
0 5 V
1 4 V
1 -9 V
1 -4 V
1 0 V
1 9 V
1 -9 V
1 9 V
1 0 V
0 -5 V
1 5 V
1 0 V
1 4 V
1 5 V
1 -5 V
1 -4 V
1 4 V
1 5 V
1 -5 V
0 9 V
1 -9 V
1 0 V
1 5 V
1 0 V
1 -5 V
1 0 V
1 5 V
1 0 V
1 4 V
1 -4 V
1 4 V
0 5 V
1 -5 V
1 0 V
1 5 V
0 4 V
1 -4 V
1 0 V
0 9 V
1 -9 V
1 0 V
1 0 V
0 4 V
stroke 1675 2418 M
1 0 V
1 -4 V
1 4 V
1 0 V
1 0 V
1 5 V
0 4 V
1 -4 V
1 4 V
1 0 V
0 9 V
1 -4 V
1 0 V
1 -5 V
1 9 V
1 0 V
1 5 V
1 4 V
1 -4 V
0 13 V
1 -4 V
1 4 V
1 -4 V
0 9 V
1 4 V
1 0 V
1 0 V
0 5 V
1 0 V
1 4 V
1 0 V
0 -4 V
1 4 V
1 9 V
1 4 V
1 0 V
1 0 V
1 9 V
1 -4 V
1 0 V
0 4 V
1 5 V
1 9 V
1 0 V
0 13 V
1 0 V
1 -4 V
1 9 V
1 9 V
1 4 V
0 14 V
1 -14 V
1 9 V
1 9 V
0 14 V
1 -14 V
1 14 V
1 -5 V
0 27 V
1 0 V
1 -14 V
1 14 V
0 13 V
1 -4 V
1 -14 V
1 18 V
0 -9 V
1 23 V
1 -14 V
1 9 V
0 -4 V
1 9 V
1 4 V
0 -9 V
1 9 V
1 -9 V
1 -9 V
0 18 V
1 0 V
1 5 V
1 -5 V
1 9 V
1 -18 V
1 5 V
1 0 V
1 4 V
1 0 V
0 5 V
1 4 V
1 -9 V
1 0 V
1 -4 V
1 9 V
1 0 V
1 4 V
1 9 V
0 5 V
1 -9 V
1 -9 V
1 -5 V
0 9 V
1 0 V
1 -9 V
1 9 V
stroke 1760 2633 M
0 9 V
1 -18 V
1 5 V
0 4 V
1 -9 V
1 5 V
1 4 V
0 -4 V
1 4 V
1 0 V
1 -4 V
0 4 V
1 -9 V
1 18 V
1 -13 V
1 0 V
1 4 V
1 -4 V
1 13 V
1 -13 V
1 13 V
0 -9 V
1 -4 V
1 13 V
0 -4 V
1 -9 V
1 13 V
1 -4 V
0 -5 V
1 -4 V
1 0 V
1 9 V
0 -5 V
1 -9 V
1 5 V
1 9 V
1 -9 V
1 9 V
1 -9 V
0 -5 V
1 5 V
1 13 V
0 -4 V
1 4 V
1 -13 V
1 0 V
0 -5 V
1 18 V
1 -13 V
1 4 V
0 -9 V
1 5 V
1 4 V
1 9 V
0 -13 V
1 4 V
1 5 V
1 -9 V
0 -5 V
1 18 V
1 -4 V
1 0 V
0 -9 V
1 4 V
1 -9 V
0 9 V
1 0 V
1 5 V
1 0 V
0 -9 V
1 0 V
1 4 V
1 5 V
0 -9 V
1 -14 V
1 18 V
1 0 V
0 -4 V
1 0 V
1 9 V
1 -9 V
1 0 V
1 -5 V
0 14 V
1 -9 V
1 4 V
1 9 V
0 -9 V
1 5 V
1 0 V
1 0 V
0 4 V
1 -9 V
1 -4 V
1 4 V
1 14 V
1 -14 V
1 0 V
0 14 V
1 -5 V
1 -13 V
0 4 V
1 9 V
1 -4 V
stroke 1840 2638 M
1 -5 V
0 14 V
1 -5 V
1 0 V
1 5 V
0 -18 V
1 9 V
1 0 V
1 -5 V
1 9 V
1 -9 V
1 5 V
0 4 V
1 5 V
1 4 V
1 0 V
1 -9 V
1 -9 V
0 5 V
1 4 V
1 5 V
1 0 V
0 -9 V
1 4 V
1 0 V
1 9 V
1 -9 V
1 0 V
1 14 V
0 -5 V
1 5 V
1 -9 V
1 4 V
0 -4 V
1 0 V
1 4 V
0 -9 V
1 9 V
1 -9 V
1 18 V
0 -4 V
1 0 V
1 -5 V
1 -13 V
0 18 V
1 -9 V
1 4 V
1 -4 V
0 9 V
1 -14 V
1 0 V
1 9 V
0 -9 V
1 9 V
1 -4 V
1 9 V
1 -9 V
1 4 V
0 -9 V
1 9 V
1 -4 V
1 -5 V
0 -4 V
1 4 V
1 9 V
1 -4 V
0 -5 V
1 9 V
1 0 V
1 -4 V
0 4 V
1 -4 V
1 18 V
1 -18 V
0 4 V
1 -18 V
1 23 V
0 -9 V
1 -5 V
1 18 V
1 -9 V
1 5 V
1 -5 V
1 0 V
1 5 V
1 0 V
1 0 V
0 -5 V
1 14 V
1 0 V
1 -9 V
0 9 V
1 -18 V
1 9 V
1 -9 V
0 4 V
1 0 V
1 9 V
0 5 V
1 -9 V
1 -5 V
1 5 V
0 4 V
1 5 V
stroke 1921 2665 M
1 -9 V
1 4 V
0 -13 V
1 13 V
1 0 V
1 -4 V
0 13 V
1 -13 V
1 9 V
1 -5 V
0 9 V
1 -4 V
1 -5 V
1 9 V
1 9 V
1 -9 V
1 9 V
1 9 V
1 -5 V
0 9 V
1 -4 V
1 -5 V
1 18 V
0 -9 V
1 5 V
1 22 V
1 -18 V
0 18 V
1 0 V
1 -13 V
0 13 V
1 -9 V
1 9 V
1 9 V
0 -4 V
1 -5 V
1 -4 V
1 22 V
1 -9 V
1 14 V
1 4 V
0 -9 V
1 0 V
1 0 V
1 14 V
0 -5 V
1 0 V
1 0 V
1 5 V
0 -5 V
1 5 V
1 -9 V
0 13 V
1 -9 V
1 5 V
1 9 V
0 -9 V
1 -5 V
1 5 V
1 0 V
0 13 V
1 -18 V
1 0 V
1 5 V
0 4 V
1 -4 V
1 0 V
1 -9 V
0 27 V
1 -9 V
1 -9 V
0 -5 V
1 0 V
1 5 V
1 4 V
0 -4 V
1 -9 V
1 9 V
1 9 V
0 -18 V
1 4 V
1 5 V
1 -5 V
0 5 V
1 18 V
1 -18 V
1 4 V
1 -4 V
1 -9 V
1 9 V
1 9 V
1 -18 V
0 4 V
1 -4 V
1 4 V
1 5 V
0 4 V
1 0 V
1 -9 V
1 0 V
0 5 V
1 -5 V
1 5 V
1 -5 V
stroke 2002 2745 M
1 0 V
1 9 V
1 0 V
0 -13 V
1 4 V
1 9 V
0 -9 V
1 18 V
1 -18 V
1 5 V
1 -9 V
1 22 V
1 -9 V
0 -9 V
1 -4 V
1 18 V
1 -14 V
0 5 V
1 0 V
1 -5 V
1 0 V
0 -4 V
1 0 V
1 0 V
0 22 V
1 -13 V
1 0 V
1 -9 V
0 18 V
1 -14 V
1 18 V
1 -9 V
0 -9 V
1 5 V
1 13 V
1 9 V
0 -4 V
1 -18 V
1 13 V
1 -4 V
0 17 V
1 -8 V
1 8 V
1 9 V
0 -4 V
1 4 V
1 -4 V
0 9 V
1 -5 V
1 5 V
1 0 V
0 4 V
1 0 V
1 14 V
1 -5 V
0 18 V
1 -9 V
1 9 V
1 -9 V
1 23 V
1 -9 V
1 0 V
1 13 V
1 0 V
0 -9 V
1 5 V
1 4 V
1 0 V
0 5 V
1 -5 V
1 14 V
1 4 V
1 -9 V
1 9 V
1 5 V
0 9 V
1 0 V
1 0 V
1 0 V
0 8 V
1 -4 V
1 0 V
1 13 V
0 -4 V
1 9 V
1 0 V
0 -5 V
1 5 V
1 18 V
1 -5 V
0 9 V
1 -4 V
1 4 V
1 9 V
0 -9 V
1 14 V
1 0 V
1 -5 V
0 14 V
1 0 V
1 0 V
1 0 V
0 4 V
1 5 V
stroke 2082 2947 M
1 -5 V
1 9 V
1 -4 V
1 9 V
0 4 V
1 9 V
1 -9 V
1 0 V
0 9 V
1 0 V
1 4 V
1 9 V
0 -22 V
1 18 V
1 0 V
1 4 V
0 -4 V
1 4 V
1 0 V
1 -17 V
0 17 V
1 0 V
1 5 V
0 -5 V
1 0 V
1 5 V
1 4 V
0 -4 V
1 0 V
1 -5 V
1 0 V
0 9 V
1 -4 V
1 9 V
1 -5 V
1 -13 V
1 18 V
1 -5 V
1 9 V
1 -13 V
0 9 V
1 -9 V
1 9 V
1 -5 V
1 0 V
1 -4 V
1 -5 V
0 14 V
1 -14 V
1 0 V
1 0 V
0 9 V
1 5 V
1 -9 V
1 0 V
0 -5 V
1 0 V
1 5 V
1 -9 V
1 9 V
1 -5 V
1 0 V
1 5 V
1 0 V
0 -5 V
1 14 V
1 -9 V
1 -9 V
1 9 V
1 -18 V
1 22 V
1 0 V
1 5 V
1 -5 V
0 -9 V
1 -4 V
1 9 V
0 -9 V
1 0 V
1 9 V
1 -5 V
0 -9 V
1 14 V
1 0 V
1 -5 V
0 9 V
1 -9 V
1 -4 V
1 9 V
1 -5 V
1 14 V
1 -9 V
0 -9 V
1 0 V
1 4 V
0 -4 V
1 0 V
1 4 V
1 5 V
0 4 V
1 0 V
1 0 V
1 -9 V
0 5 V
stroke 2165 2987 M
1 4 V
1 0 V
1 -4 V
0 4 V
1 -4 V
1 -9 V
1 9 V
1 4 V
1 -13 V
1 13 V
0 -13 V
1 4 V
1 5 V
1 -5 V
1 9 V
1 -9 V
0 5 V
1 -9 V
1 4 V
1 -9 V
0 14 V
1 0 V
1 -9 V
1 9 V
0 -9 V
1 0 V
1 9 V
1 0 V
1 -22 V
1 17 V
0 -9 V
1 14 V
1 -9 V
1 9 V
0 -5 V
1 -4 V
1 4 V
1 5 V
0 -14 V
1 14 V
1 -9 V
1 0 V
0 9 V
1 -14 V
1 5 V
1 -5 V
0 9 V
1 9 V
1 -13 V
0 -9 V
1 18 V
1 -9 V
1 4 V
0 -13 V
1 0 V
1 -4 V
1 17 V
0 -9 V
1 0 V
1 14 V
1 -5 V
0 -17 V
1 4 V
1 18 V
1 -5 V
1 0 V
1 -9 V
1 9 V
0 -13 V
1 18 V
1 -9 V
0 4 V
1 -4 V
1 4 V
1 -9 V
0 -4 V
1 0 V
1 9 V
1 4 V
0 -22 V
1 9 V
1 9 V
1 -13 V
0 17 V
1 -4 V
1 -13 V
1 8 V
1 -8 V
1 17 V
0 -9 V
1 -4 V
1 4 V
1 -4 V
0 9 V
1 4 V
1 5 V
1 -9 V
0 4 V
1 -4 V
1 4 V
1 -9 V
1 -4 V
1 -4 V
1 4 V
stroke 2247 2969 M
0 4 V
1 -8 V
1 8 V
1 5 V
1 4 V
1 0 V
0 -4 V
1 0 V
1 0 V
1 -5 V
0 9 V
1 -9 V
1 5 V
1 0 V
0 4 V
1 -4 V
1 0 V
1 0 V
1 9 V
1 -5 V
1 0 V
0 -9 V
1 5 V
1 4 V
0 5 V
1 -9 V
1 13 V
1 -18 V
0 5 V
1 -9 V
1 0 V
1 -4 V
0 31 V
1 -14 V
1 -9 V
1 9 V
0 -9 V
1 5 V
1 0 V
1 0 V
0 4 V
1 -9 V
1 5 V
1 0 V
0 13 V
1 -22 V
1 13 V
0 -13 V
1 13 V
1 0 V
1 -4 V
0 9 V
1 -9 V
1 -9 V
1 13 V
0 -13 V
1 0 V
1 4 V
1 9 V
0 -9 V
1 5 V
1 -5 V
1 9 V
1 -4 V
1 -5 V
0 5 V
1 9 V
1 -14 V
1 9 V
0 -4 V
1 0 V
1 -13 V
1 8 V
0 9 V
1 -9 V
1 9 V
1 0 V
0 -4 V
1 -5 V
1 -4 V
1 -4 V
0 17 V
1 -13 V
1 4 V
0 -4 V
1 9 V
1 -9 V
1 13 V
0 -9 V
1 9 V
1 -4 V
1 13 V
0 -18 V
1 5 V
1 4 V
1 0 V
0 -4 V
1 18 V
1 -18 V
1 0 V
0 13 V
1 -9 V
1 -4 V
1 4 V
stroke 2326 2982 M
1 -4 V
1 9 V
1 0 V
1 -9 V
1 4 V
1 18 V
1 -31 V
1 18 V
0 4 V
1 -4 V
1 0 V
1 0 V
0 -9 V
1 -5 V
1 5 V
1 4 V
0 5 V
1 -5 V
1 -4 V
0 9 V
1 4 V
1 5 V
1 -14 V
0 5 V
1 4 V
1 9 V
1 -9 V
0 -4 V
1 -9 V
1 13 V
1 -4 V
1 0 V
1 -5 V
1 -4 V
0 9 V
1 0 V
1 -5 V
1 9 V
0 5 V
1 -18 V
1 4 V
0 -9 V
1 18 V
1 -22 V
1 27 V
0 -18 V
1 -5 V
1 5 V
1 4 V
0 5 V
1 -22 V
1 13 V
1 4 V
0 14 V
1 -5 V
1 -9 V
1 -13 V
0 18 V
1 0 V
1 4 V
1 -18 V
1 14 V
1 4 V
0 -13 V
1 4 V
1 -17 V
1 8 V
0 5 V
1 -5 V
1 5 V
1 13 V
1 -9 V
1 0 V
1 -4 V
1 9 V
1 -14 V
0 -4 V
1 4 V
1 18 V
1 -9 V
0 14 V
1 -5 V
1 0 V
1 -9 V
0 5 V
1 13 V
1 -13 V
1 -14 V
0 5 V
1 4 V
1 5 V
1 -9 V
1 9 V
1 -5 V
1 14 V
0 -5 V
1 -4 V
1 -9 V
0 4 V
1 0 V
1 14 V
1 -9 V
0 -5 V
1 0 V
stroke 2408 2982 M
1 -9 V
1 9 V
0 -4 V
1 9 V
1 0 V
1 -5 V
0 5 V
1 4 V
1 0 V
1 -13 V
0 4 V
1 9 V
1 -9 V
0 9 V
1 5 V
1 -5 V
1 -9 V
0 9 V
1 -9 V
1 0 V
1 0 V
1 18 V
1 -4 V
1 -23 V
0 14 V
1 -5 V
1 14 V
1 -14 V
0 -4 V
1 13 V
1 0 V
1 5 V
0 -5 V
1 -13 V
1 0 V
0 -5 V
1 18 V
1 -9 V
1 0 V
1 14 V
1 -9 V
1 4 V
0 -9 V
1 0 V
1 0 V
1 14 V
0 -5 V
1 0 V
1 -4 V
1 13 V
0 -27 V
1 23 V
1 -18 V
0 9 V
1 -9 V
1 -5 V
1 14 V
0 -5 V
1 -9 V
1 5 V
1 13 V
0 -9 V
1 9 V
1 -4 V
1 4 V
0 -9 V
1 9 V
1 -9 V
1 -13 V
0 18 V
1 -9 V
1 9 V
1 -5 V
0 -4 V
1 4 V
1 -9 V
0 9 V
1 5 V
1 0 V
1 0 V
1 0 V
1 9 V
1 -18 V
1 9 V
1 -9 V
1 0 V
0 9 V
1 -18 V
1 13 V
1 0 V
1 9 V
1 0 V
0 -4 V
1 -5 V
1 -9 V
1 18 V
0 -4 V
1 4 V
1 -13 V
1 18 V
0 -14 V
1 9 V
1 -9 V
1 0 V
stroke 2489 2982 M
0 9 V
1 0 V
1 -4 V
1 0 V
0 -5 V
1 -4 V
1 13 V
0 -9 V
1 0 V
1 9 V
1 -13 V
0 4 V
1 9 V
1 5 V
1 -5 V
0 -9 V
1 0 V
1 14 V
1 -14 V
0 9 V
1 -4 V
1 -5 V
1 5 V
1 0 V
1 0 V
1 0 V
1 0 V
1 -9 V
0 4 V
1 5 V
1 -5 V
1 27 V
0 -13 V
1 -14 V
1 9 V
1 -13 V
0 9 V
1 4 V
1 5 V
1 -14 V
0 5 V
1 -14 V
1 9 V
1 14 V
0 -9 V
1 -5 V
1 0 V
1 5 V
1 9 V
1 -18 V
0 9 V
1 9 V
1 4 V
1 5 V
0 -14 V
1 -13 V
1 22 V
1 -13 V
0 9 V
1 -9 V
1 -5 V
1 14 V
0 -9 V
1 -14 V
1 14 V
1 0 V
0 -5 V
1 0 V
1 5 V
1 4 V
1 -18 V
1 14 V
0 9 V
1 -9 V
1 -5 V
1 0 V
0 18 V
1 -13 V
1 4 V
1 -4 V
0 4 V
1 -9 V
1 5 V
1 9 V
0 -14 V
1 9 V
1 9 V
0 -22 V
1 13 V
1 -13 V
1 4 V
0 14 V
1 -18 V
1 4 V
1 -4 V
0 9 V
1 -5 V
1 0 V
1 -9 V
0 18 V
1 0 V
1 5 V
1 -9 V
0 -14 V
stroke 2568 2973 M
1 14 V
1 4 V
0 -4 V
1 4 V
1 5 V
1 -14 V
0 9 V
1 5 V
1 -14 V
1 5 V
0 4 V
1 -18 V
1 23 V
1 -5 V
0 9 V
1 -4 V
1 0 V
1 -14 V
0 14 V
1 -5 V
1 5 V
1 -5 V
0 -4 V
1 4 V
1 5 V
0 -5 V
1 5 V
1 0 V
1 -14 V
1 9 V
1 5 V
1 -5 V
0 -4 V
1 9 V
1 -5 V
1 -9 V
0 14 V
1 0 V
1 -5 V
1 5 V
1 -9 V
1 4 V
0 5 V
1 0 V
1 0 V
1 -9 V
1 13 V
1 -4 V
1 0 V
0 4 V
1 0 V
1 -9 V
1 0 V
1 5 V
1 4 V
1 0 V
1 0 V
1 -4 V
1 0 V
1 4 V
1 -13 V
0 9 V
1 -9 V
1 4 V
1 18 V
0 -13 V
1 0 V
1 4 V
1 -4 V
0 -9 V
1 13 V
1 9 V
1 -13 V
0 4 V
1 -4 V
1 4 V
1 -18 V
0 23 V
1 -14 V
1 9 V
1 -9 V
1 5 V
1 4 V
0 -4 V
1 -14 V
1 14 V
1 4 V
1 -4 V
1 -9 V
1 -5 V
0 18 V
1 -13 V
1 9 V
1 -9 V
0 4 V
1 -13 V
1 9 V
0 -5 V
1 5 V
1 4 V
1 -4 V
1 9 V
1 0 V
1 -5 V
stroke 2652 2991 M
0 9 V
1 -9 V
1 9 V
1 -4 V
1 -9 V
1 -5 V
1 -4 V
0 13 V
1 5 V
1 0 V
1 -5 V
0 9 V
1 0 V
1 -22 V
0 27 V
1 -9 V
1 9 V
1 0 V
0 -9 V
1 -18 V
1 22 V
1 -9 V
0 -9 V
1 14 V
1 -5 V
1 5 V
0 -9 V
1 0 V
1 0 V
1 4 V
0 14 V
1 -5 V
1 -4 V
1 4 V
1 -9 V
1 9 V
0 -13 V
1 0 V
1 13 V
1 -18 V
0 9 V
1 14 V
1 -5 V
1 -9 V
1 -4 V
1 4 V
1 0 V
0 -9 V
1 5 V
1 0 V
1 -5 V
0 5 V
1 -9 V
1 0 V
1 0 V
1 4 V
1 -9 V
1 5 V
1 -5 V
1 5 V
0 4 V
1 -9 V
1 -8 V
1 4 V
1 9 V
1 -9 V
1 -13 V
0 13 V
1 4 V
1 -4 V
1 -9 V
1 9 V
1 -4 V
0 -9 V
1 4 V
1 5 V
1 8 V
0 -4 V
1 0 V
1 -9 V
1 13 V
0 -17 V
1 17 V
1 0 V
1 -22 V
0 9 V
1 5 V
1 -14 V
1 5 V
0 4 V
1 9 V
1 -4 V
0 -14 V
1 14 V
1 -9 V
1 9 V
0 -5 V
1 0 V
1 -4 V
1 0 V
0 13 V
1 -4 V
1 0 V
1 8 V
stroke 2734 2973 M
0 -17 V
1 13 V
1 -4 V
1 -5 V
0 -4 V
1 13 V
1 -18 V
0 5 V
1 -5 V
1 0 V
1 0 V
0 5 V
1 0 V
1 -5 V
1 14 V
0 8 V
1 -13 V
1 -9 V
1 -4 V
1 13 V
1 -4 V
1 0 V
0 -5 V
1 5 V
1 9 V
0 -14 V
1 14 V
1 -9 V
1 4 V
0 5 V
1 4 V
1 0 V
1 -13 V
0 4 V
1 -4 V
1 9 V
1 -9 V
0 4 V
1 -4 V
1 9 V
1 -9 V
0 9 V
1 0 V
1 -9 V
1 4 V
0 9 V
1 -9 V
1 5 V
0 -5 V
1 -4 V
1 4 V
1 0 V
0 -4 V
1 13 V
1 -13 V
1 0 V
0 4 V
1 -4 V
1 13 V
1 -13 V
1 9 V
1 4 V
1 0 V
0 -9 V
1 13 V
1 -8 V
1 0 V
1 8 V
1 -13 V
1 9 V
1 -9 V
1 9 V
0 4 V
1 0 V
1 -13 V
1 -4 V
0 17 V
1 0 V
1 -4 V
1 4 V
1 -13 V
1 18 V
1 4 V
1 -4 V
1 4 V
0 9 V
1 -4 V
1 -5 V
1 18 V
0 -4 V
1 -5 V
1 18 V
1 -13 V
0 13 V
1 -4 V
1 22 V
1 -13 V
0 4 V
1 5 V
1 -5 V
1 0 V
0 9 V
1 0 V
1 -4 V
stroke 2815 3023 M
0 13 V
1 -4 V
1 -5 V
1 5 V
0 4 V
1 14 V
1 -5 V
1 5 V
1 0 V
1 13 V
1 0 V
0 9 V
1 18 V
1 -31 V
1 13 V
0 13 V
1 -9 V
1 14 V
0 -14 V
1 9 V
1 5 V
1 9 V
0 -5 V
1 5 V
1 9 V
1 9 V
0 -9 V
1 4 V
1 23 V
1 -14 V
1 14 V
1 0 V
1 9 V
0 4 V
1 -9 V
1 14 V
1 -5 V
0 14 V
1 -32 V
1 36 V
0 4 V
1 -17 V
1 0 V
1 4 V
0 5 V
1 -9 V
1 9 V
1 -9 V
1 -5 V
1 14 V
1 -14 V
0 -9 V
1 14 V
1 9 V
1 0 V
0 -5 V
1 9 V
1 -9 V
0 9 V
1 0 V
1 -9 V
1 5 V
0 4 V
1 0 V
1 0 V
1 0 V
0 4 V
1 5 V
1 4 V
1 0 V
0 -4 V
1 0 V
1 0 V
1 9 V
0 4 V
1 -4 V
1 0 V
1 -9 V
0 13 V
1 -4 V
1 4 V
0 5 V
1 -5 V
1 5 V
1 4 V
0 9 V
1 -9 V
1 0 V
1 0 V
0 5 V
1 -5 V
1 0 V
1 0 V
1 18 V
1 -18 V
1 5 V
0 9 V
1 0 V
1 -5 V
0 5 V
1 -5 V
1 0 V
1 0 V
0 5 V
stroke 2894 3211 M
1 -9 V
1 0 V
1 0 V
0 4 V
1 5 V
1 -9 V
1 4 V
0 -9 V
1 18 V
1 -9 V
1 5 V
0 -5 V
1 0 V
1 5 V
1 -9 V
0 9 V
1 0 V
1 -5 V
1 9 V
1 -13 V
1 18 V
0 -14 V
1 0 V
1 0 V
1 0 V
0 -9 V
1 14 V
1 0 V
1 0 V
0 9 V
1 -9 V
1 -9 V
1 9 V
0 -5 V
1 5 V
1 0 V
1 -9 V
1 4 V
1 5 V
0 4 V
1 -13 V
1 4 V
1 0 V
0 -4 V
1 4 V
1 5 V
1 4 V
0 -4 V
1 -9 V
1 9 V
1 -5 V
0 5 V
1 0 V
1 0 V
0 -14 V
1 18 V
1 -18 V
1 9 V
0 -4 V
1 0 V
1 4 V
1 -4 V
0 9 V
1 4 V
1 -9 V
1 5 V
1 0 V
1 -5 V
1 0 V
1 5 V
1 -5 V
1 5 V
1 0 V
1 4 V
0 -4 V
1 0 V
1 -5 V
1 9 V
0 5 V
1 -9 V
1 9 V
1 0 V
0 -9 V
1 4 V
1 5 V
1 -9 V
0 9 V
1 -9 V
1 13 V
1 -4 V
1 0 V
1 0 V
0 -5 V
1 9 V
1 -9 V
1 9 V
0 -9 V
1 5 V
1 4 V
1 -9 V
0 -4 V
1 13 V
1 -9 V
1 5 V
stroke 2976 3220 M
0 -5 V
1 5 V
1 0 V
1 -5 V
0 -4 V
1 9 V
1 -5 V
1 -4 V
0 9 V
1 -9 V
1 13 V
0 -4 V
1 -5 V
1 5 V
1 0 V
1 0 V
1 0 V
1 0 V
0 -5 V
1 9 V
1 9 V
1 -18 V
1 -4 V
1 18 V
1 -9 V
1 -5 V
1 5 V
1 0 V
1 0 V
1 -5 V
1 5 V
1 0 V
1 -9 V
0 9 V
1 -5 V
1 0 V
1 9 V
0 -9 V
1 0 V
1 5 V
1 0 V
1 0 V
1 -5 V
0 5 V
1 -5 V
1 5 V
1 0 V
0 -5 V
1 5 V
1 -9 V
1 9 V
1 0 V
1 -5 V
1 -4 V
0 4 V
1 0 V
1 0 V
1 0 V
1 9 V
1 0 V
1 -4 V
1 4 V
1 -4 V
0 4 V
1 -4 V
1 -5 V
1 9 V
0 -4 V
1 13 V
1 -18 V
1 9 V
1 -4 V
1 0 V
1 0 V
0 4 V
1 5 V
1 -5 V
1 0 V
0 9 V
1 -18 V
1 14 V
0 -9 V
1 4 V
1 9 V
1 -4 V
1 0 V
1 -5 V
1 0 V
1 5 V
1 0 V
1 -5 V
0 9 V
1 -9 V
1 14 V
1 -9 V
1 -5 V
1 5 V
1 -5 V
0 9 V
1 0 V
1 0 V
0 -4 V
1 0 V
1 -5 V
stroke 3062 3224 M
1 5 V
1 0 V
1 0 V
1 -5 V
0 9 V
1 0 V
1 0 V
1 0 V
0 5 V
1 0 V
1 -14 V
1 14 V
0 -5 V
1 5 V
1 -5 V
0 5 V
1 0 V
1 0 V
1 -9 V
0 4 V
1 5 V
1 -5 V
1 9 V
1 -4 V
1 4 V
1 0 V
0 9 V
1 -9 V
1 9 V
1 5 V
0 -9 V
1 4 V
1 0 V
1 9 V
1 5 V
1 0 V
1 4 V
1 -4 V
1 4 V
0 9 V
1 4 V
1 -9 V
1 9 V
0 -4 V
1 0 V
1 0 V
1 0 V
0 4 V
1 5 V
1 -9 V
1 4 V
0 9 V
1 5 V
1 4 V
1 0 V
1 0 V
1 0 V
0 9 V
1 0 V
1 0 V
1 18 V
0 -9 V
1 0 V
1 9 V
1 0 V
0 -9 V
1 -4 V
1 4 V
1 0 V
0 -4 V
1 -5 V
1 -9 V
0 -4 V
1 4 V
1 -4 V
1 -9 V
0 -5 V
1 9 V
1 -9 V
1 -9 V
0 5 V
1 -5 V
1 5 V
1 4 V
0 -9 V
1 14 V
1 -5 V
1 0 V
0 5 V
1 4 V
1 5 V
1 0 V
0 -14 V
1 9 V
1 0 V
0 5 V
1 -5 V
1 5 V
1 -5 V
1 0 V
1 18 V
1 -18 V
0 5 V
1 13 V
stroke 3143 3309 M
1 -9 V
1 9 V
0 -9 V
1 9 V
1 0 V
1 -4 V
0 9 V
1 -9 V
1 0 V
0 9 V
1 4 V
1 -9 V
1 18 V
1 -18 V
1 5 V
1 0 V
0 -9 V
1 4 V
1 5 V
1 0 V
1 9 V
1 -9 V
1 -5 V
0 9 V
1 9 V
1 -9 V
1 -4 V
0 9 V
1 -5 V
1 5 V
0 -5 V
1 0 V
1 0 V
1 -4 V
0 4 V
1 -4 V
1 9 V
1 0 V
0 -9 V
1 -5 V
1 9 V
1 5 V
0 -9 V
1 9 V
1 -18 V
1 13 V
0 -9 V
1 5 V
1 -9 V
0 13 V
1 -13 V
1 9 V
1 -5 V
1 5 V
1 -14 V
1 14 V
0 4 V
1 0 V
1 -9 V
1 0 V
0 5 V
1 0 V
1 -14 V
1 9 V
0 -9 V
1 9 V
1 5 V
1 -9 V
1 9 V
1 4 V
0 -18 V
1 14 V
1 -9 V
1 9 V
0 4 V
1 -18 V
1 5 V
1 0 V
0 4 V
1 5 V
1 -9 V
1 13 V
0 -4 V
1 0 V
1 0 V
1 0 V
0 4 V
1 -9 V
1 -4 V
1 0 V
1 4 V
1 0 V
0 5 V
1 4 V
1 -4 V
1 -9 V
1 0 V
1 9 V
1 0 V
0 -9 V
1 9 V
1 -5 V
1 5 V
0 4 V
stroke 3224 3318 M
1 -13 V
1 0 V
0 9 V
1 -9 V
1 4 V
1 -9 V
1 0 V
1 18 V
1 -9 V
0 5 V
1 0 V
1 -5 V
1 0 V
1 0 V
1 -4 V
1 4 V
0 -4 V
1 0 V
1 -5 V
1 9 V
0 9 V
1 -18 V
1 -4 V
0 13 V
1 5 V
1 -9 V
1 -5 V
0 5 V
1 4 V
1 -4 V
1 4 V
1 5 V
1 -5 V
1 -4 V
0 9 V
1 9 V
1 -5 V
1 -13 V
0 4 V
1 -4 V
1 13 V
0 -18 V
1 9 V
1 -4 V
1 9 V
0 -5 V
1 -4 V
1 4 V
1 -4 V
0 -14 V
1 23 V
1 0 V
1 -9 V
0 9 V
1 -9 V
1 4 V
1 -4 V
0 9 V
1 4 V
1 0 V
1 -9 V
1 5 V
1 0 V
0 -14 V
1 18 V
1 -9 V
1 5 V
0 -9 V
1 -5 V
1 9 V
1 -4 V
1 -5 V
1 9 V
1 0 V
0 -4 V
1 0 V
1 9 V
1 0 V
0 -9 V
1 13 V
1 -4 V
0 -9 V
1 0 V
1 13 V
1 -4 V
0 -9 V
1 4 V
1 9 V
1 -9 V
0 5 V
1 0 V
1 0 V
1 -5 V
0 5 V
1 0 V
1 -5 V
1 -4 V
0 4 V
1 0 V
1 -4 V
0 9 V
1 -5 V
1 0 V
1 5 V
stroke 3305 3314 M
0 -9 V
1 9 V
1 -5 V
1 0 V
0 -4 V
1 0 V
1 -5 V
1 18 V
1 0 V
1 0 V
1 -4 V
0 -5 V
1 0 V
1 0 V
1 0 V
0 5 V
1 -5 V
1 0 V
1 0 V
1 5 V
1 -5 V
1 5 V
1 -5 V
1 0 V
0 -4 V
1 9 V
1 0 V
1 4 V
0 -13 V
1 -5 V
1 9 V
1 -4 V
1 0 V
1 4 V
0 -9 V
1 9 V
1 -4 V
1 -5 V
0 9 V
1 -4 V
1 0 V
1 4 V
0 -9 V
1 14 V
1 -5 V
1 -4 V
1 4 V
1 -4 V
1 -9 V
0 13 V
1 0 V
1 0 V
1 -9 V
0 5 V
1 -5 V
1 -4 V
0 9 V
1 -14 V
1 9 V
1 0 V
0 5 V
1 -5 V
1 9 V
1 -4 V
0 -9 V
1 13 V
1 -9 V
1 0 V
0 -9 V
1 9 V
1 0 V
1 0 V
0 -4 V
1 0 V
1 -9 V
0 13 V
1 0 V
1 -9 V
1 5 V
1 9 V
1 -9 V
1 4 V
1 -9 V
1 5 V
1 -5 V
0 5 V
1 4 V
1 5 V
1 -18 V
0 9 V
1 0 V
1 0 V
0 4 V
1 -9 V
1 5 V
1 0 V
0 4 V
1 -4 V
1 -5 V
1 9 V
0 -4 V
1 4 V
1 -9 V
1 5 V
stroke 3387 3296 M
0 -5 V
1 9 V
1 -4 V
1 4 V
1 -4 V
1 13 V
1 -13 V
0 -9 V
1 13 V
1 -13 V
1 18 V
1 -14 V
1 9 V
0 -9 V
1 5 V
1 9 V
1 -5 V
0 -4 V
1 4 V
1 -4 V
1 -5 V
0 -4 V
1 4 V
1 5 V
1 -9 V
0 9 V
1 -9 V
1 4 V
0 9 V
1 -4 V
1 -5 V
1 0 V
0 5 V
1 4 V
1 -9 V
1 5 V
0 4 V
1 -13 V
1 4 V
1 9 V
0 -9 V
1 5 V
1 -9 V
1 4 V
0 14 V
1 -9 V
1 0 V
1 0 V
0 -5 V
1 5 V
1 0 V
1 -9 V
1 9 V
1 0 V
0 -5 V
1 0 V
1 0 V
1 0 V
0 5 V
1 -9 V
1 9 V
1 0 V
1 13 V
1 -18 V
1 5 V
0 -5 V
1 9 V
1 -13 V
0 4 V
1 -4 V
1 4 V
1 -4 V
0 9 V
1 -5 V
1 5 V
1 4 V
1 -9 V
1 9 V
1 -4 V
0 -9 V
1 9 V
1 0 V
1 -5 V
0 5 V
1 0 V
1 9 V
1 -14 V
0 -4 V
1 9 V
1 -5 V
0 -9 V
1 18 V
1 -4 V
1 0 V
1 -5 V
1 0 V
1 14 V
0 -9 V
1 4 V
1 0 V
1 -13 V
0 9 V
1 4 V
1 -9 V
stroke 3468 3291 M
1 0 V
0 5 V
1 4 V
1 5 V
0 -14 V
1 5 V
1 0 V
1 9 V
0 -14 V
1 9 V
1 -4 V
1 -5 V
0 5 V
1 9 V
1 -18 V
1 13 V
0 -9 V
1 -4 V
1 18 V
1 4 V
0 -18 V
1 0 V
1 14 V
0 -14 V
1 14 V
1 -14 V
1 9 V
0 -9 V
1 0 V
1 -4 V
1 4 V
0 -4 V
1 22 V
1 -13 V
1 0 V
0 -9 V
1 9 V
1 4 V
1 -13 V
0 4 V
1 5 V
1 -9 V
1 18 V
0 -9 V
1 0 V
1 0 V
0 -5 V
1 -4 V
1 4 V
1 0 V
0 -4 V
1 0 V
1 13 V
1 -13 V
0 4 V
1 9 V
1 -13 V
1 9 V
0 -14 V
1 5 V
1 4 V
1 5 V
0 -5 V
1 5 V
1 0 V
0 -5 V
1 -4 V
1 13 V
1 -9 V
1 9 V
1 -9 V
1 -9 V
0 5 V
1 9 V
1 -14 V
1 9 V
0 9 V
1 -9 V
1 5 V
1 -5 V
0 14 V
1 -14 V
1 -9 V
1 5 V
1 9 V
1 -18 V
0 9 V
1 0 V
1 9 V
1 -5 V
0 5 V
1 -14 V
1 5 V
1 -5 V
1 14 V
1 -5 V
1 -4 V
1 4 V
1 -13 V
1 4 V
0 9 V
1 5 V
1 -5 V
0 -4 V
stroke 3547 3287 M
1 0 V
1 -5 V
1 -4 V
0 18 V
1 -5 V
1 -9 V
1 5 V
1 4 V
1 -13 V
1 9 V
0 -5 V
1 5 V
1 9 V
1 -9 V
0 -5 V
1 5 V
1 13 V
0 -13 V
1 -5 V
1 -4 V
1 0 V
0 -5 V
1 18 V
1 0 V
1 -4 V
0 4 V
1 -9 V
1 14 V
1 -14 V
0 5 V
1 9 V
1 -14 V
1 0 V
0 9 V
1 -4 V
1 -5 V
1 9 V
0 -18 V
1 5 V
1 13 V
0 -13 V
1 0 V
1 9 V
1 -9 V
0 13 V
1 -13 V
1 0 V
1 4 V
0 5 V
1 -5 V
1 0 V
1 9 V
0 -9 V
1 5 V
1 0 V
1 0 V
0 -9 V
1 4 V
1 -4 V
1 9 V
1 -5 V
1 -4 V
1 -5 V
1 0 V
1 -4 V
1 13 V
1 0 V
1 -13 V
0 4 V
1 9 V
1 -9 V
1 5 V
0 -9 V
1 -4 V
1 4 V
1 0 V
0 -4 V
1 4 V
1 4 V
0 -8 V
1 4 V
1 -4 V
1 4 V
1 -9 V
1 18 V
1 -9 V
0 -4 V
1 8 V
1 -8 V
1 13 V
0 -5 V
1 0 V
1 5 V
1 -13 V
0 4 V
1 -4 V
1 4 V
0 -9 V
1 9 V
1 -9 V
1 9 V
0 -4 V
1 0 V
1 4 V
stroke 3628 3269 M
1 -4 V
0 -5 V
1 0 V
1 0 V
1 5 V
0 -9 V
1 13 V
1 0 V
1 -9 V
0 -4 V
1 13 V
1 -9 V
0 5 V
1 4 V
1 -13 V
1 9 V
1 0 V
1 -9 V
1 4 V
0 5 V
1 0 V
1 -5 V
1 0 V
1 -9 V
1 5 V
1 0 V
0 4 V
1 13 V
1 -8 V
1 0 V
1 -5 V
1 0 V
0 -4 V
1 0 V
1 9 V
1 -5 V
0 -4 V
1 9 V
1 -14 V
1 18 V
0 4 V
1 -8 V
1 -9 V
1 4 V
1 -4 V
1 4 V
1 9 V
0 -9 V
1 0 V
1 13 V
0 -13 V
1 22 V
1 -31 V
1 18 V
0 -4 V
1 4 V
1 -9 V
1 5 V
0 4 V
1 0 V
1 -9 V
1 5 V
1 0 V
1 0 V
1 0 V
0 4 V
1 0 V
1 0 V
1 4 V
0 -13 V
1 13 V
1 -4 V
1 0 V
1 4 V
1 5 V
1 -13 V
1 0 V
1 0 V
1 8 V
1 -8 V
1 8 V
1 -4 V
1 4 V
1 -4 V
1 4 V
1 0 V
0 -4 V
1 13 V
1 -17 V
1 13 V
1 -81 V
1 -9 V
1 14 V
1 -5 V
1 5 V
1 0 V
0 -9 V
1 13 V
1 -18 V
1 18 V
0 -13 V
1 9 V
1 -5 V
1 9 V
stroke 3714 3206 M
0 -4 V
1 9 V
1 -5 V
0 5 V
1 -5 V
1 -4 V
1 9 V
1 -9 V
1 0 V
1 9 V
0 -9 V
1 9 V
1 -5 V
1 5 V
0 9 V
1 9 V
1 -14 V
1 -13 V
0 9 V
1 9 V
1 4 V
0 -9 V
1 -4 V
1 -5 V
1 0 V
0 14 V
1 -5 V
1 -4 V
1 0 V
1 4 V
1 -9 V
1 5 V
0 4 V
1 0 V
1 -4 V
1 4 V
0 -13 V
1 13 V
1 -4 V
0 4 V
1 -9 V
1 23 V
1 -5 V
0 -13 V
1 13 V
1 -9 V
1 0 V
0 9 V
1 -4 V
1 4 V
1 -4 V
0 4 V
1 9 V
1 -13 V
1 4 V
0 14 V
1 -14 V
1 5 V
1 0 V
1 9 V
1 -5 V
0 -4 V
1 9 V
1 4 V
1 -13 V
0 4 V
1 -4 V
1 9 V
1 -9 V
0 9 V
1 9 V
1 -9 V
1 -9 V
0 9 V
1 0 V
1 -5 V
1 5 V
0 13 V
1 -4 V
1 4 V
0 -18 V
1 14 V
1 0 V
1 -5 V
0 9 V
1 -18 V
1 14 V
1 -14 V
0 5 V
1 -5 V
1 5 V
1 4 V
0 -13 V
1 13 V
1 5 V
1 -9 V
0 4 V
1 -9 V
1 9 V
1 -4 V
0 -9 V
1 18 V
1 -5 V
0 -13 V
stroke 3792 3229 M
1 13 V
1 -9 V
1 14 V
0 -9 V
1 4 V
1 -9 V
1 14 V
0 -14 V
1 0 V
1 5 V
1 4 V
0 -4 V
1 9 V
1 -9 V
1 9 V
0 4 V
1 -13 V
1 0 V
1 4 V
1 0 V
1 0 V
0 -9 V
1 18 V
1 -13 V
1 13 V
0 -4 V
1 -5 V
1 -9 V
1 5 V
1 -5 V
1 9 V
1 5 V
0 -5 V
1 14 V
1 -23 V
0 5 V
1 -5 V
1 5 V
1 -9 V
0 18 V
1 -14 V
1 -4 V
1 0 V
0 9 V
1 13 V
1 -22 V
1 4 V
0 5 V
1 -9 V
1 4 V
1 0 V
0 -13 V
1 22 V
1 0 V
1 -18 V
1 0 V
1 5 V
0 -5 V
1 9 V
1 -4 V
1 4 V
1 -13 V
1 13 V
1 0 V
0 -4 V
1 0 V
1 13 V
1 -9 V
0 -4 V
1 4 V
1 0 V
1 -4 V
0 4 V
1 5 V
1 0 V
0 -5 V
1 5 V
1 -9 V
1 0 V
0 13 V
1 -4 V
1 -14 V
1 14 V
0 -5 V
1 -4 V
1 -9 V
1 13 V
1 0 V
1 -4 V
1 0 V
0 13 V
1 -13 V
1 -9 V
1 4 V
0 5 V
1 0 V
1 -5 V
0 9 V
1 -4 V
1 4 V
1 -9 V
1 5 V
1 0 V
1 -5 V
stroke 3874 3224 M
0 -9 V
1 0 V
1 0 V
1 5 V
1 -5 V
1 0 V
1 0 V
0 -4 V
1 9 V
1 -14 V
0 18 V
1 -13 V
1 -5 V
1 5 V
0 -5 V
1 0 V
1 -4 V
1 -9 V
0 18 V
1 -5 V
1 -4 V
1 -5 V
0 5 V
1 0 V
1 0 V
1 9 V
1 -14 V
1 -4 V
1 18 V
0 -14 V
1 -4 V
1 4 V
1 -4 V
1 4 V
1 -9 V
0 18 V
1 -18 V
1 0 V
1 -4 V
1 13 V
1 -13 V
1 4 V
0 14 V
1 -14 V
1 5 V
1 0 V
0 -5 V
1 9 V
1 -4 V
0 -9 V
1 0 V
1 4 V
1 5 V
0 -9 V
1 -5 V
1 9 V
1 -4 V
0 4 V
1 9 V
1 -18 V
1 -9 V
0 18 V
1 0 V
1 -4 V
1 -18 V
0 22 V
1 0 V
1 5 V
1 -14 V
1 0 V
1 5 V
1 0 V
1 4 V
1 -4 V
0 -5 V
1 5 V
1 0 V
1 13 V
0 -13 V
1 13 V
1 -13 V
1 0 V
0 18 V
1 -5 V
1 -4 V
1 4 V
1 0 V
1 14 V
1 4 V
1 9 V
1 5 V
1 18 V
1 4 V
1 9 V
0 18 V
1 4 V
1 14 V
1 -5 V
0 18 V
1 9 V
1 0 V
1 9 V
0 5 V
1 4 V
stroke 3957 3336 M
1 5 V
0 9 V
1 9 V
1 0 V
1 8 V
1 9 V
1 9 V
1 -4 V
0 9 V
1 4 V
1 -4 V
1 13 V
0 5 V
1 4 V
1 5 V
1 9 V
0 -5 V
1 14 V
1 13 V
1 -13 V
1 4 V
1 5 V
0 4 V
1 9 V
1 5 V
1 -5 V
0 9 V
1 -9 V
1 9 V
1 4 V
0 5 V
1 4 V
1 5 V
1 0 V
1 0 V
1 0 V
1 4 V
0 5 V
1 4 V
1 0 V
0 5 V
1 0 V
1 0 V
1 -9 V
0 18 V
1 -5 V
1 0 V
1 0 V
0 -4 V
1 4 V
1 5 V
1 4 V
0 -4 V
1 0 V
1 4 V
1 5 V
0 -5 V
1 -9 V
1 9 V
0 5 V
1 0 V
1 -5 V
1 0 V
0 -4 V
1 9 V
1 -5 V
1 -4 V
0 13 V
1 5 V
1 -14 V
1 0 V
0 -4 V
1 0 V
1 4 V
1 0 V
0 -4 V
1 4 V
1 0 V
1 -4 V
1 -5 V
1 14 V
0 -9 V
1 4 V
1 0 V
1 0 V
1 0 V
1 0 V
1 0 V
0 -13 V
1 4 V
1 -4 V
1 0 V
1 9 V
1 4 V
1 -9 V
1 -9 V
1 5 V
0 -5 V
1 0 V
1 14 V
1 0 V
1 -5 V
1 -9 V
1 9 V
stroke 4040 3506 M
1 9 V
1 -22 V
1 13 V
1 -9 V
1 5 V
1 0 V
1 0 V
1 0 V
1 0 V
1 4 V
1 -9 V
0 -4 V
1 4 V
1 5 V
1 0 V
1 -5 V
1 0 V
1 -9 V
0 5 V
1 13 V
1 -13 V
1 4 V
1 0 V
1 5 V
1 -9 V
0 13 V
1 -13 V
1 4 V
1 -9 V
1 9 V
1 0 V
1 5 V
1 -14 V
1 5 V
0 -5 V
1 5 V
1 -5 V
1 14 V
0 -9 V
1 0 V
1 4 V
1 -4 V
0 -9 V
1 4 V
1 5 V
1 -5 V
1 0 V
1 -9 V
0 9 V
1 5 V
1 0 V
1 4 V
0 -4 V
1 9 V
1 -14 V
1 5 V
0 -5 V
1 -9 V
1 9 V
1 9 V
0 -13 V
1 0 V
1 4 V
1 -4 V
0 4 V
1 -4 V
1 4 V
1 5 V
1 -9 V
1 9 V
0 -9 V
1 4 V
1 -9 V
1 0 V
0 -4 V
1 13 V
1 -4 V
1 0 V
1 -5 V
1 5 V
1 -5 V
0 5 V
1 0 V
1 0 V
0 -5 V
1 5 V
1 0 V
1 9 V
0 -14 V
1 0 V
1 5 V
1 -5 V
0 5 V
1 -5 V
1 -9 V
1 9 V
1 0 V
1 0 V
1 0 V
0 -9 V
1 9 V
1 -4 V
1 0 V
1 4 V
stroke 4126 3479 M
1 -4 V
0 4 V
1 -13 V
1 9 V
1 4 V
0 -9 V
1 -4 V
1 18 V
1 -14 V
1 -4 V
1 9 V
1 0 V
0 4 V
1 -4 V
1 0 V
1 -5 V
0 5 V
1 0 V
1 -5 V
0 5 V
1 -9 V
1 13 V
1 -9 V
0 -4 V
1 0 V
1 0 V
1 -4 V
0 4 V
1 0 V
1 0 V
1 0 V
1 4 V
1 -8 V
1 8 V
0 -8 V
1 4 V
1 0 V
1 -4 V
0 13 V
1 -5 V
1 -4 V
1 -4 V
1 4 V
1 -4 V
1 0 V
1 4 V
1 0 V
1 -4 V
1 4 V
1 4 V
0 -8 V
1 8 V
1 -8 V
1 0 V
0 4 V
1 -4 V
1 4 V
0 -13 V
1 17 V
1 -8 V
1 0 V
0 -9 V
1 4 V
1 0 V
1 5 V
0 -5 V
1 0 V
1 -4 V
1 4 V
0 -4 V
1 4 V
1 5 V
1 -14 V
0 14 V
1 0 V
1 -9 V
1 0 V
1 -5 V
1 14 V
0 -5 V
1 0 V
1 0 V
1 0 V
1 -4 V
1 0 V
1 4 V
0 -4 V
1 4 V
1 9 V
1 -9 V
1 0 V
1 -4 V
1 0 V
1 4 V
1 5 V
0 -5 V
1 0 V
1 0 V
1 -4 V
0 9 V
1 -5 V
1 0 V
1 0 V
0 5 V
stroke 4209 3462 M
1 -5 V
1 13 V
1 -8 V
0 13 V
1 -9 V
1 -4 V
1 4 V
0 -4 V
1 0 V
1 0 V
0 -5 V
1 5 V
1 4 V
1 0 V
1 -4 V
1 4 V
1 4 V
0 -4 V
1 -4 V
1 0 V
1 8 V
0 5 V
1 -5 V
1 -8 V
1 4 V
0 4 V
1 9 V
1 -9 V
1 0 V
1 -4 V
1 4 V
0 -4 V
1 9 V
1 -13 V
1 8 V
0 -4 V
1 0 V
1 -4 V
1 0 V
0 13 V
1 -9 V
1 0 V
1 0 V
0 4 V
1 -4 V
1 9 V
1 -9 V
0 -4 V
1 -5 V
1 0 V
0 5 V
1 -5 V
1 0 V
1 0 V
1 5 V
1 4 V
1 -4 V
1 -5 V
1 -4 V
1 13 V
0 -4 V
1 -5 V
1 0 V
1 -4 V
0 4 V
1 0 V
1 0 V
1 0 V
1 -4 V
1 0 V
0 4 V
1 -4 V
1 4 V
1 0 V
1 5 V
1 0 V
1 -14 V
0 9 V
1 -9 V
1 5 V
1 0 V
0 -5 V
1 0 V
1 0 V
1 9 V
0 -9 V
1 9 V
1 -4 V
0 4 V
1 -9 V
1 0 V
1 9 V
1 0 V
1 -9 V
1 0 V
1 -4 V
1 0 V
1 9 V
1 0 V
1 4 V
1 -9 V
0 5 V
1 9 V
1 -9 V
stroke 4293 3453 M
0 -5 V
1 0 V
1 9 V
1 -9 V
1 9 V
1 -13 V
1 0 V
0 9 V
1 -5 V
1 0 V
1 5 V
0 -9 V
1 9 V
1 -5 V
1 -4 V
1 4 V
1 0 V
1 9 V
1 -13 V
1 0 V
1 0 V
1 9 V
1 -18 V
0 9 V
1 0 V
1 -5 V
1 -4 V
0 4 V
1 0 V
1 5 V
1 0 V
0 4 V
1 -9 V
1 5 V
1 -5 V
0 -4 V
1 9 V
1 -5 V
0 -4 V
1 0 V
1 4 V
1 -4 V
1 4 V
1 -9 V
1 -4 V
0 4 V
1 0 V
1 9 V
1 5 V
0 -5 V
1 -4 V
1 -9 V
1 13 V
0 -4 V
1 -5 V
1 9 V
1 0 V
0 -4 V
1 -9 V
1 18 V
0 -18 V
1 4 V
1 5 V
1 0 V
0 9 V
1 -18 V
1 4 V
1 5 V
0 4 V
1 -4 V
1 4 V
1 -9 V
0 5 V
1 0 V
1 9 V
1 -9 V
1 9 V
1 -5 V
1 5 V
1 -9 V
1 4 V
1 0 V
1 -4 V
1 0 V
0 4 V
1 -9 V
1 0 V
1 5 V
0 9 V
1 -5 V
1 -4 V
1 0 V
0 -5 V
1 5 V
1 4 V
0 -9 V
1 9 V
1 0 V
1 -4 V
0 -5 V
1 9 V
1 -9 V
1 14 V
0 -5 V
stroke 4375 3439 M
1 9 V
1 -18 V
1 14 V
0 -9 V
1 0 V
1 4 V
1 0 V
0 -4 V
1 0 V
1 -5 V
1 14 V
0 -9 V
1 0 V
1 4 V
1 -9 V
1 0 V
1 9 V
0 -4 V
1 -5 V
1 -9 V
1 9 V
0 9 V
1 -4 V
1 4 V
1 -9 V
1 9 V
1 -4 V
1 -5 V
0 5 V
1 -5 V
1 5 V
1 0 V
1 -5 V
1 -4 V
0 4 V
1 -4 V
1 9 V
1 0 V
0 -9 V
1 9 V
1 0 V
1 -5 V
1 0 V
1 0 V
1 5 V
0 -5 V
1 -4 V
1 0 V
1 0 V
0 -5 V
1 9 V
1 -4 V
1 0 V
1 -9 V
1 9 V
0 4 V
1 -4 V
1 -5 V
1 5 V
0 9 V
1 -9 V
1 0 V
1 4 V
0 -4 V
1 0 V
1 0 V
1 4 V
0 5 V
1 -9 V
1 0 V
0 -5 V
1 5 V
1 4 V
1 0 V
1 -4 V
1 9 V
1 -9 V
0 4 V
1 9 V
1 -13 V
1 4 V
0 -4 V
1 9 V
1 0 V
1 -5 V
0 5 V
1 -14 V
1 9 V
1 0 V
1 -4 V
1 4 V
0 -13 V
1 13 V
1 -4 V
1 4 V
0 -4 V
1 4 V
1 -4 V
1 0 V
1 4 V
1 0 V
1 -4 V
1 4 V
1 -9 V
stroke 4459 3421 M
1 -4 V
0 4 V
1 5 V
1 0 V
1 9 V
1 -14 V
1 -4 V
0 4 V
1 5 V
1 -5 V
1 0 V
0 -4 V
1 0 V
1 0 V
1 9 V
0 -9 V
1 0 V
1 0 V
1 4 V
0 -4 V
1 0 V
1 0 V
0 4 V
1 -4 V
1 0 V
1 4 V
1 -9 V
1 0 V
1 5 V
0 9 V
1 -5 V
1 -9 V
1 -4 V
0 4 V
1 -4 V
1 4 V
1 -4 V
0 4 V
1 -4 V
1 4 V
1 -4 V
1 0 V
1 0 V
0 4 V
1 -13 V
1 9 V
1 0 V
1 -5 V
1 -4 V
1 9 V
0 -9 V
1 0 V
1 -5 V
1 0 V
1 9 V
1 0 V
1 -4 V
1 9 V
1 -14 V
1 -4 V
1 0 V
1 4 V
0 -4 V
1 9 V
1 -5 V
1 0 V
0 -4 V
1 9 V
1 0 V
1 -9 V
0 9 V
1 -5 V
1 -4 V
1 0 V
0 4 V
1 0 V
1 9 V
1 -9 V
1 -4 V
1 0 V
0 9 V
1 -5 V
1 -4 V
1 0 V
0 4 V
1 5 V
1 -9 V
1 0 V
0 13 V
1 -9 V
1 -9 V
1 9 V
1 0 V
1 0 V
1 -4 V
0 4 V
1 -4 V
1 4 V
1 5 V
1 -9 V
1 9 V
0 -14 V
1 9 V
1 5 V
stroke 4543 3399 M
1 -14 V
0 5 V
1 9 V
1 -5 V
1 -4 V
1 9 V
1 -9 V
1 -5 V
0 9 V
1 -4 V
1 0 V
1 -5 V
1 5 V
1 4 V
0 -4 V
1 -5 V
1 0 V
1 5 V
0 -9 V
1 0 V
1 4 V
1 0 V
0 5 V
1 -5 V
1 5 V
1 0 V
1 -9 V
1 9 V
1 0 V
0 4 V
1 -9 V
1 0 V
1 -4 V
1 0 V
1 -5 V
1 0 V
1 5 V
1 13 V
0 -9 V
1 -4 V
1 0 V
1 4 V
0 -13 V
1 13 V
1 -4 V
1 -5 V
1 0 V
1 9 V
0 -4 V
1 -5 V
1 5 V
1 -9 V
1 4 V
1 5 V
1 -5 V
0 -9 V
1 9 V
1 0 V
1 -4 V
0 4 V
1 -4 V
1 4 V
1 -9 V
1 -4 V
1 4 V
1 5 V
0 4 V
1 -4 V
1 0 V
1 -5 V
1 -4 V
1 9 V
0 -5 V
1 0 V
1 0 V
1 0 V
1 0 V
1 -4 V
1 9 V
0 -5 V
1 5 V
1 -5 V
1 5 V
0 -5 V
1 -8 V
1 4 V
1 -4 V
1 4 V
1 4 V
0 -4 V
1 0 V
1 0 V
1 0 V
0 4 V
1 -13 V
1 5 V
1 0 V
0 4 V
1 -9 V
1 0 V
1 5 V
1 0 V
1 0 V
0 -5 V
stroke 4628 3354 M
1 0 V
1 5 V
1 0 V
0 4 V
1 -13 V
1 4 V
1 5 V
0 -9 V
1 0 V
1 0 V
1 4 V
1 0 V
1 -4 V
1 0 V
0 -5 V
1 5 V
1 0 V
1 0 V
0 -5 V
1 5 V
1 -5 V
0 -4 V
1 4 V
1 0 V
1 -4 V
0 -5 V
1 5 V
1 -5 V
1 5 V
0 -5 V
1 -4 V
1 -9 V
1 4 V
0 5 V
1 -5 V
1 0 V
1 0 V
0 -4 V
1 4 V
1 0 V
0 -9 V
1 -4 V
1 0 V
1 0 V
0 9 V
1 -9 V
1 0 V
1 0 V
0 9 V
1 9 V
1 -14 V
1 0 V
1 0 V
1 0 V
1 -9 V
0 5 V
1 4 V
1 -4 V
1 0 V
0 -5 V
1 14 V
1 0 V
0 -5 V
1 5 V
1 -5 V
1 5 V
0 -9 V
1 4 V
1 -9 V
1 5 V
1 0 V
1 0 V
1 0 V
1 0 V
1 4 V
1 0 V
0 -9 V
1 5 V
1 0 V
0 -5 V
1 0 V
1 0 V
1 -4 V
1 4 V
1 -9 V
1 0 V
0 -9 V
1 0 V
1 5 V
1 -14 V
0 -9 V
1 5 V
1 -5 V
1 -4 V
0 -4 V
1 -5 V
1 -4 V
1 -5 V
0 9 V
1 -18 V
1 9 V
0 -9 V
1 -4 V
1 -5 V
stroke 4709 3233 M
1 5 V
0 4 V
1 0 V
1 -9 V
1 -4 V
0 9 V
1 -9 V
1 9 V
1 -5 V
1 0 V
1 0 V
1 -4 V
0 -5 V
1 -4 V
1 9 V
0 -9 V
1 4 V
1 -9 V
1 0 V
1 5 V
1 -5 V
1 -4 V
0 4 V
1 -4 V
1 36 V
1 4 V
0 -4 V
1 -5 V
1 9 V
1 -9 V
0 -4 V
1 13 V
1 5 V
0 -14 V
1 5 V
1 0 V
1 0 V
1 0 V
1 -9 V
1 4 V
1 0 V
1 -4 V
1 0 V
0 4 V
1 -4 V
1 4 V
1 5 V
0 -14 V
1 5 V
1 0 V
1 4 V
1 -9 V
1 5 V
1 -5 V
1 5 V
1 -5 V
0 9 V
1 -9 V
1 5 V
1 0 V
0 -5 V
1 9 V
1 -4 V
1 4 V
0 -9 V
1 5 V
1 4 V
1 -4 V
0 -5 V
1 5 V
1 -9 V
0 4 V
1 5 V
1 -5 V
1 0 V
0 5 V
1 4 V
1 0 V
1 0 V
0 -4 V
1 4 V
1 -4 V
1 4 V
0 -4 V
1 4 V
1 -4 V
1 0 V
0 4 V
1 -9 V
1 9 V
1 0 V
1 -4 V
1 0 V
0 9 V
1 -9 V
1 0 V
1 9 V
0 -5 V
1 -4 V
1 18 V
1 0 V
0 -14 V
1 -9 V
1 9 V
stroke 4791 3242 M
1 0 V
1 -4 V
1 0 V
1 13 V
0 -4 V
1 0 V
1 -9 V
0 13 V
1 -13 V
1 4 V
1 0 V
0 5 V
1 0 V
1 -5 V
1 0 V
0 5 V
1 -5 V
1 5 V
1 4 V
0 -4 V
1 0 V
1 -5 V
1 5 V
0 4 V
1 0 V
1 -9 V
0 9 V
1 -4 V
1 0 V
1 0 V
1 4 V
1 -4 V
1 4 V
1 -4 V
1 13 V
1 -9 V
0 -4 V
1 13 V
1 -4 V
1 -5 V
0 5 V
1 -5 V
1 -4 V
1 9 V
0 -5 V
1 0 V
1 0 V
1 14 V
1 -5 V
1 -9 V
0 5 V
1 -5 V
1 5 V
1 4 V
0 -9 V
1 0 V
1 5 V
1 4 V
0 -4 V
1 0 V
1 0 V
1 9 V
0 -9 V
1 0 V
1 4 V
0 5 V
1 -9 V
1 4 V
1 5 V
1 0 V
1 -9 V
1 4 V
0 9 V
1 -9 V
1 0 V
1 0 V
0 -4 V
1 4 V
1 0 V
1 5 V
0 -9 V
1 9 V
1 -5 V
1 0 V
0 -4 V
1 0 V
1 4 V
0 5 V
1 0 V
1 4 V
1 -4 V
0 8 V
1 -4 V
1 0 V
1 -9 V
0 -4 V
1 9 V
1 -14 V
1 14 V
1 0 V
1 -9 V
1 13 V
0 -9 V
1 -4 V
stroke 4872 3256 M
1 13 V
0 -13 V
1 4 V
1 -4 V
1 4 V
1 5 V
1 -9 V
1 9 V
0 -9 V
1 9 V
1 0 V
1 -5 V
0 9 V
1 -13 V
1 4 V
1 9 V
0 -9 V
1 0 V
1 0 V
1 0 V
0 5 V
1 -5 V
1 0 V
1 9 V
1 -9 V
1 -4 V
0 4 V
1 5 V
1 -5 V
1 -9 V
0 5 V
1 4 V
1 -4 V
1 0 V
0 4 V
1 0 V
1 -4 V
1 0 V
0 9 V
1 -9 V
1 9 V
0 -9 V
1 0 V
1 0 V
1 0 V
0 -5 V
1 5 V
1 9 V
1 -9 V
1 0 V
1 0 V
1 4 V
0 -4 V
1 0 V
1 -5 V
1 5 V
0 4 V
1 -9 V
1 5 V
0 -5 V
1 5 V
1 4 V
1 -4 V
0 -5 V
1 9 V
1 -4 V
1 4 V
0 -13 V
1 9 V
1 13 V
1 -13 V
1 0 V
1 9 V
1 -5 V
0 -4 V
1 -5 V
1 -4 V
1 4 V
0 9 V
1 -9 V
1 0 V
0 5 V
1 9 V
1 -9 V
1 0 V
0 -5 V
1 0 V
1 0 V
1 0 V
0 -4 V
1 4 V
1 0 V
1 5 V
0 -5 V
1 0 V
1 -4 V
1 4 V
0 9 V
1 -4 V
1 -9 V
0 -5 V
1 9 V
1 5 V
1 -9 V
stroke 4952 3247 M
1 4 V
1 -4 V
1 4 V
1 5 V
1 -9 V
1 4 V
0 -4 V
1 13 V
1 -4 V
1 9 V
0 -18 V
1 0 V
1 0 V
1 9 V
0 4 V
1 -13 V
1 4 V
0 -4 V
1 -5 V
1 5 V
1 13 V
0 -13 V
1 0 V
1 4 V
1 5 V
0 -5 V
1 0 V
1 -4 V
1 -5 V
0 9 V
1 0 V
1 0 V
1 5 V
0 4 V
1 -4 V
1 -9 V
1 4 V
1 0 V
1 0 V
0 -4 V
1 0 V
1 9 V
1 -14 V
0 5 V
1 0 V
1 4 V
1 5 V
0 -5 V
1 -4 V
1 4 V
1 -4 V
0 9 V
1 -5 V
1 -4 V
1 4 V
1 -4 V
1 -5 V
0 9 V
1 -4 V
1 -5 V
1 -4 V
0 13 V
1 -13 V
1 9 V
1 -5 V
0 5 V
1 0 V
1 4 V
1 -4 V
0 9 V
1 4 V
1 -18 V
1 5 V
1 -9 V
1 9 V
0 -5 V
1 9 V
1 -9 V
1 9 V
0 -13 V
1 0 V
1 9 V
1 -5 V
0 9 V
1 -9 V
1 0 V
1 -4 V
0 9 V
1 -14 V
1 9 V
1 0 V
1 0 V
1 9 V
0 -9 V
1 9 V
1 -4 V
1 0 V
1 -5 V
1 0 V
1 0 V
0 5 V
1 0 V
1 4 V
1 -13 V
stroke 5034 3238 M
0 9 V
1 0 V
1 9 V
1 -14 V
0 5 V
1 -9 V
1 9 V
1 4 V
0 5 V
1 -9 V
1 4 V
0 -4 V
1 -5 V
1 5 V
1 4 V
1 0 V
1 -9 V
1 0 V
0 5 V
1 -5 V
1 14 V
1 -14 V
0 5 V
1 -5 V
1 5 V
1 0 V
0 -5 V
1 5 V
1 0 V
0 4 V
1 0 V
1 -13 V
1 13 V
0 5 V
1 -5 V
1 5 V
1 -5 V
1 0 V
1 5 V
1 0 V
0 -5 V
1 -4 V
1 9 V
1 -14 V
0 14 V
1 -9 V
1 4 V
1 5 V
0 4 V
1 -9 V
1 5 V
0 -5 V
1 -4 V
1 9 V
1 -5 V
1 9 V
1 -4 V
1 4 V
0 -4 V
1 0 V
1 4 V
1 -4 V
1 4 V
1 -4 V
1 4 V
1 0 V
1 0 V
1 0 V
1 0 V
1 -9 V
0 5 V
1 13 V
1 -9 V
1 -13 V
0 18 V
1 0 V
1 -5 V
1 0 V
1 5 V
1 -5 V
1 -4 V
0 4 V
1 0 V
1 -9 V
0 5 V
1 9 V
1 -14 V
1 9 V
0 -4 V
1 0 V
1 0 V
1 4 V
1 0 V
1 -4 V
1 4 V
1 -4 V
1 17 V
1 -13 V
1 5 V
1 -5 V
1 0 V
0 5 V
1 -5 V
1 9 V
stroke 5118 3269 M
0 4 V
1 -8 V
1 -9 V
1 9 V
0 -5 V
1 5 V
1 -5 V
1 0 V
0 5 V
1 0 V
1 -5 V
1 5 V
0 -5 V
1 0 V
1 -4 V
1 4 V
0 9 V
1 -4 V
1 4 V
1 -4 V
1 -5 V
1 5 V
0 -5 V
1 0 V
1 5 V
1 4 V
0 -9 V
1 9 V
1 -4 V
1 4 V
0 -9 V
1 5 V
1 -5 V
1 5 V
0 -5 V
1 13 V
1 -4 V
1 -4 V
0 -5 V
1 9 V
1 -4 V
0 4 V
1 -9 V
1 9 V
1 -9 V
0 9 V
1 -9 V
1 9 V
1 -4 V
1 -9 V
1 9 V
1 8 V
0 -8 V
1 0 V
1 0 V
1 0 V
0 -5 V
1 0 V
1 18 V
0 -5 V
1 -8 V
1 0 V
1 4 V
0 -4 V
1 4 V
1 9 V
1 -13 V
0 -5 V
1 5 V
1 -5 V
1 0 V
0 18 V
1 -13 V
1 4 V
1 -9 V
0 5 V
1 -5 V
1 9 V
0 4 V
1 -4 V
1 -9 V
1 9 V
1 0 V
1 4 V
1 -4 V
0 4 V
1 0 V
1 -8 V
1 -5 V
0 13 V
1 -8 V
1 0 V
1 8 V
0 -8 V
1 8 V
1 -17 V
1 22 V
0 -22 V
1 13 V
1 -4 V
0 17 V
1 -17 V
1 0 V
1 0 V
stroke 5197 3265 M
0 13 V
1 0 V
1 -13 V
1 8 V
0 5 V
1 0 V
1 -9 V
1 9 V
0 9 V
1 -9 V
1 0 V
1 0 V
1 -9 V
1 9 V
0 -5 V
1 0 V
1 14 V
1 -9 V
1 4 V
1 -4 V
1 0 V
0 -5 V
1 9 V
1 5 V
1 -9 V
0 4 V
1 5 V
1 -9 V
1 9 V
1 -5 V
1 5 V
1 -5 V
0 5 V
1 -5 V
1 5 V
0 -9 V
1 4 V
1 9 V
1 5 V
0 -9 V
1 9 V
1 -9 V
1 0 V
0 4 V
1 5 V
1 -5 V
1 -9 V
1 14 V
1 0 V
1 -14 V
0 5 V
1 -5 V
1 5 V
0 -5 V
1 9 V
1 -9 V
1 0 V
0 5 V
1 0 V
1 -5 V
1 5 V
0 4 V
1 -4 V
1 0 V
1 9 V
0 -5 V
1 9 V
1 -9 V
1 5 V
0 -5 V
1 -9 V
1 5 V
1 0 V
0 4 V
1 0 V
1 0 V
0 5 V
1 -5 V
1 -9 V
1 5 V
0 4 V
1 -4 V
1 9 V
1 -9 V
0 13 V
1 -9 V
1 -4 V
1 -5 V
0 14 V
1 -9 V
1 13 V
1 0 V
0 -4 V
1 -9 V
1 0 V
0 4 V
1 0 V
1 0 V
1 5 V
0 4 V
1 -9 V
1 -4 V
1 0 V
0 13 V
stroke 5276 3300 M
1 -9 V
1 0 V
1 -4 V
0 4 V
1 0 V
1 -4 V
1 0 V
0 4 V
1 5 V
1 0 V
0 4 V
1 9 V
1 -22 V
1 4 V
0 9 V
1 -9 V
1 9 V
1 -4 V
1 4 V
1 -4 V
1 4 V
0 -4 V
1 9 V
1 -5 V
1 -4 V
0 4 V
1 0 V
1 -9 V
1 9 V
1 0 V
1 0 V
1 0 V
1 0 V
1 0 V
1 -4 V
1 13 V
1 -4 V
0 4 V
1 -4 V
1 -5 V
1 18 V
0 -9 V
1 5 V
1 0 V
1 -9 V
0 -5 V
1 18 V
1 -13 V
0 4 V
1 -4 V
1 4 V
1 0 V
0 -4 V
1 0 V
1 13 V
1 0 V
0 -13 V
1 -5 V
1 5 V
1 4 V
1 5 V
1 0 V
1 -5 V
0 -4 V
1 9 V
1 -9 V
1 4 V
1 0 V
1 5 V
0 4 V
1 -9 V
1 14 V
1 -14 V
0 14 V
1 -14 V
1 0 V
1 9 V
1 -9 V
1 -4 V
1 9 V
0 4 V
1 -13 V
1 4 V
1 5 V
1 -9 V
1 4 V
1 -4 V
1 9 V
1 -5 V
1 5 V
1 9 V
1 -14 V
0 5 V
1 -14 V
1 9 V
1 9 V
0 -13 V
1 9 V
1 -5 V
1 5 V
1 -14 V
1 18 V
0 -4 V
1 -5 V
stroke 5361 3309 M
1 0 V
1 5 V
0 -5 V
1 14 V
1 -14 V
1 5 V
1 4 V
1 -9 V
1 5 V
0 -9 V
1 9 V
1 -5 V
1 0 V
1 9 V
1 -4 V
1 4 V
0 5 V
1 -5 V
1 0 V
1 -9 V
1 0 V
1 5 V
1 -5 V
1 14 V
1 -9 V
1 0 V
1 0 V
1 4 V
1 0 V
1 9 V
1 -18 V
0 9 V
1 -4 V
1 0 V
1 -5 V
1 14 V
1 0 V
0 -9 V
1 4 V
1 5 V
1 -9 V
0 -9 V
1 18 V
1 0 V
1 -5 V
0 5 V
1 0 V
1 -5 V
1 5 V
0 -9 V
1 4 V
1 5 V
1 0 V
0 4 V
1 -13 V
1 4 V
0 -4 V
1 4 V
1 -4 V
1 -5 V
0 9 V
1 5 V
1 4 V
1 -18 V
0 5 V
1 9 V
1 0 V
1 -5 V
0 -4 V
1 9 V
1 0 V
1 -5 V
1 5 V
1 0 V
0 -5 V
1 5 V
1 4 V
1 -4 V
1 0 V
1 4 V
1 14 V
0 -14 V
1 5 V
1 -5 V
1 0 V
1 9 V
1 -18 V
1 5 V
0 -5 V
1 0 V
1 5 V
1 9 V
1 4 V
1 -9 V
0 5 V
1 -5 V
1 5 V
1 -9 V
0 9 V
1 -5 V
1 0 V
1 5 V
0 4 V
1 -9 V
stroke 5446 3327 M
1 14 V
1 -9 V
0 -5 V
1 0 V
1 5 V
1 -5 V
1 0 V
1 5 V
1 0 V
1 0 V
1 -5 V
0 14 V
1 -14 V
1 0 V
1 5 V
0 -5 V
1 0 V
1 0 V
1 5 V
1 -5 V
1 9 V
1 -13 V
0 4 V
1 14 V
1 -9 V
1 4 V
1 0 V
1 -4 V
0 4 V
1 -4 V
1 -5 V
1 5 V
0 -5 V
1 5 V
1 -9 V
1 9 V
0 9 V
1 -14 V
1 0 V
1 0 V
0 5 V
1 0 V
1 4 V
1 -4 V
0 4 V
1 -4 V
1 4 V
0 -4 V
1 0 V
1 4 V
1 -9 V
0 5 V
1 -5 V
1 5 V
1 4 V
0 -9 V
1 5 V
1 4 V
1 -4 V
0 4 V
1 -9 V
1 0 V
1 0 V
0 5 V
1 4 V
1 0 V
0 -9 V
1 -4 V
1 13 V
1 0 V
0 -4 V
1 -5 V
1 5 V
1 -5 V
0 5 V
1 4 V
1 0 V
1 -4 V
0 4 V
1 -4 V
1 -5 V
1 0 V
1 5 V
1 -5 V
1 -4 V
0 22 V
1 -18 V
1 9 V
0 -4 V
1 -9 V
1 9 V
1 0 V
0 4 V
1 -9 V
1 5 V
1 4 V
0 -9 V
1 5 V
1 4 V
1 5 V
0 -9 V
1 9 V
1 -5 V
1 5 V
stroke 5527 3341 M
0 -5 V
1 5 V
1 0 V
1 -9 V
1 9 V
1 0 V
1 -9 V
1 4 V
1 9 V
0 -4 V
1 -14 V
1 9 V
1 0 V
0 5 V
1 0 V
1 -5 V
1 5 V
1 -5 V
1 -9 V
0 -4 V
1 18 V
1 -5 V
1 0 V
1 -9 V
1 14 V
1 -5 V
0 -9 V
1 14 V
1 -5 V
1 9 V
0 -9 V
1 0 V
1 9 V
1 -13 V
0 4 V
1 -4 V
1 4 V
1 5 V
1 -9 V
1 9 V
1 -5 V
1 -4 V
1 0 V
0 9 V
1 0 V
1 -5 V
1 5 V
1 4 V
1 0 V
1 -13 V
0 18 V
1 -14 V
1 -4 V
1 4 V
1 0 V
1 -13 V
0 13 V
1 5 V
1 9 V
1 -18 V
0 4 V
1 9 V
1 0 V
1 -9 V
1 5 V
1 -5 V
1 0 V
0 5 V
1 4 V
1 0 V
1 -4 V
0 -5 V
1 14 V
1 0 V
1 -9 V
0 13 V
1 -9 V
1 0 V
0 5 V
1 -14 V
1 5 V
1 4 V
1 -4 V
1 9 V
1 -5 V
1 -4 V
1 13 V
1 -9 V
1 -4 V
1 13 V
1 -9 V
0 -4 V
1 4 V
1 9 V
0 -13 V
1 22 V
1 -18 V
1 5 V
0 9 V
1 -14 V
1 0 V
1 9 V
0 -4 V
1 0 V
stroke 5612 3350 M
1 4 V
1 -4 V
0 -5 V
1 9 V
1 -9 V
1 -9 V
0 9 V
1 -4 V
1 -5 V
0 5 V
1 -5 V
1 0 V
1 0 V
0 9 V
1 -9 V
1 0 V
1 0 V
0 -4 V
1 -9 V
1 22 V
1 -9 V
0 -9 V
1 5 V
1 0 V
1 -5 V
1 5 V
1 4 V
1 -13 V
0 -5 V
1 14 V
1 -9 V
1 4 V
1 14 V
1 -14 V
0 -4 V
1 9 V
1 -5 V
1 0 V
1 -4 V
1 4 V
1 -4 V
1 0 V
1 0 V
1 -5 V
0 9 V
1 -9 V
1 9 V
0 -4 V
1 0 V
1 9 V
1 -9 V
0 4 V
1 -4 V
1 4 V
1 0 V
1 5 V
1 -5 V
1 -9 V
0 14 V
1 -5 V
1 5 V
1 -5 V
0 -9 V
1 14 V
1 0 V
1 0 V
1 -5 V
1 -4 V
0 9 V
1 0 V
1 -14 V
1 18 V
0 -4 V
1 -9 V
1 4 V
1 -4 V
1 9 V
1 -5 V
1 -4 V
1 4 V
1 5 V
1 -14 V
0 5 V
1 4 V
1 0 V
1 0 V
1 5 V
1 -5 V
0 5 V
1 0 V
1 0 V
1 -5 V
1 5 V
1 4 V
1 -13 V
0 4 V
1 5 V
1 -5 V
1 -4 V
1 4 V
1 0 V
1 0 V
0 5 V
1 -5 V
stroke 5697 3327 M
1 -4 V
0 4 V
1 5 V
1 -9 V
1 0 V
1 9 V
1 9 V
1 -18 V
1 4 V
1 0 V
1 -4 V
1 0 V
1 0 V
1 4 V
0 9 V
1 -13 V
1 4 V
0 -9 V
1 14 V
1 -9 V
1 9 V
0 -5 V
1 5 V
1 -5 V
1 0 V
0 5 V
1 -5 V
1 0 V
1 -4 V
1 0 V
1 9 V
1 0 V
0 -5 V
1 -4 V
1 9 V
0 -5 V
1 -9 V
1 14 V
1 -9 V
1 0 V
1 0 V
1 0 V
1 4 V
1 -4 V
1 0 V
1 4 V
1 -4 V
1 9 V
1 -5 V
1 0 V
1 -4 V
1 4 V
1 0 V
1 5 V
1 -5 V
1 5 V
1 0 V
1 -5 V
1 -4 V
1 -5 V
1 5 V
1 4 V
0 -4 V
1 4 V
1 -4 V
1 4 V
1 0 V
1 -4 V
0 4 V
1 0 V
1 -4 V
1 0 V
0 9 V
1 -5 V
1 5 V
1 -5 V
0 9 V
1 0 V
1 -9 V
1 9 V
1 0 V
1 0 V
1 5 V
1 4 V
1 -9 V
1 0 V
0 -4 V
1 13 V
1 -9 V
1 5 V
1 9 V
1 -18 V
0 9 V
1 0 V
1 -9 V
1 4 V
1 5 V
1 0 V
1 -5 V
1 5 V
1 -5 V
1 5 V
1 0 V
1 0 V
stroke 5788 3341 M
0 -5 V
1 5 V
1 -5 V
1 9 V
0 5 V
1 -5 V
1 0 V
1 -4 V
0 -5 V
1 5 V
1 -5 V
1 0 V
0 9 V
1 -4 V
1 -5 V
1 18 V
0 -13 V
1 0 V
1 0 V
0 9 V
1 -9 V
1 9 V
1 -5 V
1 0 V
1 -4 V
1 0 V
0 9 V
1 -9 V
1 4 V
1 -4 V
0 4 V
1 -4 V
1 9 V
1 -5 V
0 5 V
1 0 V
1 -5 V
1 9 V
0 -4 V
1 9 V
1 -9 V
1 0 V
1 0 V
1 4 V
0 5 V
1 4 V
1 -9 V
1 9 V
0 -4 V
1 8 V
1 -4 V
1 9 V
0 -5 V
1 -8 V
1 4 V
1 13 V
0 -13 V
1 4 V
1 5 V
0 -9 V
1 9 V
1 0 V
1 -9 V
0 4 V
1 -4 V
1 4 V
1 -4 V
0 9 V
1 0 V
1 0 V
1 0 V
1 0 V
1 -9 V
1 9 V
0 4 V
1 -4 V
1 4 V
1 -4 V
1 4 V
1 5 V
0 -14 V
1 18 V
1 -9 V
1 -4 V
0 4 V
1 0 V
1 -4 V
1 0 V
1 4 V
1 -4 V
1 -5 V
1 5 V
1 0 V
1 -5 V
0 9 V
1 -17 V
1 4 V
0 9 V
1 -18 V
1 9 V
1 9 V
0 -9 V
1 0 V
1 -9 V
stroke 5869 3354 M
1 0 V
0 9 V
1 -4 V
1 4 V
1 -4 V
1 0 V
1 -9 V
1 4 V
0 9 V
1 -4 V
1 0 V
1 0 V
0 -5 V
1 0 V
1 0 V
0 9 V
1 -13 V
1 13 V
1 -4 V
0 -5 V
1 5 V
1 0 V
1 4 V
0 -4 V
1 -9 V
1 4 V
1 9 V
0 -9 V
1 9 V
1 -9 V
1 -4 V
0 4 V
1 0 V
1 5 V
1 0 V
1 -9 V
1 4 V
0 9 V
1 -9 V
1 9 V
1 -9 V
0 -4 V
1 4 V
1 0 V
1 5 V
0 -9 V
1 13 V
1 -13 V
1 9 V
0 4 V
1 4 V
1 -4 V
0 4 V
1 -4 V
1 0 V
1 -4 V
1 0 V
1 -5 V
1 13 V
0 -8 V
1 0 V
1 -9 V
1 9 V
1 8 V
1 -13 V
1 5 V
0 -14 V
1 9 V
1 -4 V
1 9 V
0 4 V
1 -9 V
1 22 V
0 -22 V
1 0 V
1 5 V
1 0 V
0 -5 V
1 -4 V
1 4 V
1 5 V
0 -9 V
1 0 V
1 0 V
1 -5 V
0 14 V
1 -9 V
1 -5 V
1 0 V
0 5 V
1 0 V
1 -5 V
0 5 V
1 0 V
1 -9 V
1 9 V
0 -5 V
1 0 V
1 0 V
1 0 V
0 -4 V
1 0 V
1 0 V
1 9 V
stroke 5949 3350 M
0 -9 V
1 -5 V
1 5 V
1 0 V
1 0 V
1 9 V
1 -14 V
0 5 V
1 -9 V
1 4 V
0 9 V
1 -9 V
1 -4 V
1 -5 V
0 14 V
1 -9 V
1 0 V
1 4 V
0 -9 V
1 5 V
1 4 V
1 -13 V
0 9 V
1 4 V
1 0 V
1 -9 V
0 9 V
1 -4 V
1 4 V
1 -4 V
1 0 V
1 -5 V
0 5 V
1 0 V
1 0 V
1 -9 V
0 9 V
1 4 V
1 -4 V
1 0 V
0 13 V
1 -13 V
1 0 V
1 13 V
0 -4 V
1 -9 V
1 0 V
0 4 V
1 5 V
1 -9 V
1 0 V
1 0 V
1 0 V
1 4 V
1 5 V
1 -5 V
1 -9 V
0 5 V
1 4 V
1 0 V
1 9 V
0 -9 V
1 0 V
1 0 V
1 -4 V
0 -5 V
1 9 V
1 -4 V
1 18 V
1 -14 V
1 -4 V
0 4 V
1 -4 V
1 0 V
1 4 V
0 -4 V
1 0 V
1 0 V
1 -9 V
1 9 V
1 0 V
1 0 V
0 4 V
1 0 V
1 -9 V
1 0 V
1 14 V
1 -14 V
0 -4 V
1 9 V
1 -5 V
1 9 V
0 -13 V
1 0 V
1 0 V
1 4 V
0 -4 V
1 0 V
1 0 V
1 0 V
1 0 V
1 9 V
1 0 V
0 -9 V
stroke 6031 3323 M
1 0 V
1 0 V
0 4 V
1 0 V
1 0 V
1 -9 V
0 14 V
1 -14 V
1 5 V
1 4 V
0 -13 V
1 22 V
1 -13 V
1 0 V
0 4 V
1 -4 V
1 -5 V
1 0 V
0 5 V
1 -5 V
1 5 V
1 0 V
1 0 V
1 -9 V
1 9 V
1 -5 V
1 -9 V
1 5 V
1 9 V
1 -9 V
0 -5 V
1 5 V
1 4 V
1 0 V
1 -9 V
1 5 V
1 0 V
1 -5 V
1 5 V
0 -9 V
1 9 V
1 0 V
1 -5 V
1 -4 V
1 9 V
1 9 V
0 -9 V
1 4 V
1 0 V
1 0 V
1 -4 V
1 -5 V
1 -4 V
0 9 V
1 -5 V
1 5 V
1 0 V
1 -5 V
1 9 V
0 -9 V
1 5 V
1 4 V
1 -13 V
0 9 V
1 9 V
1 -9 V
1 -5 V
1 5 V
1 0 V
1 4 V
0 -4 V
1 0 V
1 -5 V
0 -4 V
1 4 V
1 5 V
1 4 V
0 -4 V
1 4 V
1 -4 V
1 -5 V
0 5 V
1 0 V
1 0 V
1 9 V
0 -9 V
1 0 V
1 -9 V
1 0 V
0 13 V
1 -13 V
1 4 V
1 -4 V
0 9 V
1 0 V
1 -5 V
1 0 V
1 5 V
1 -5 V
0 5 V
1 0 V
1 -5 V
1 0 V
0 5 V
stroke 6115 3314 M
1 -5 V
1 5 V
1 0 V
1 0 V
1 0 V
1 0 V
1 4 V
1 -18 V
0 9 V
1 -4 V
1 4 V
1 0 V
0 5 V
1 4 V
1 -9 V
1 -4 V
0 4 V
1 -4 V
1 9 V
1 -5 V
1 5 V
1 -9 V
1 9 V
1 0 V
1 -5 V
1 0 V
0 -4 V
1 4 V
1 5 V
0 -9 V
1 9 V
1 -9 V
1 4 V
1 0 V
1 0 V
1 5 V
0 -5 V
1 0 V
1 0 V
1 -4 V
0 -5 V
1 5 V
1 4 V
1 -4 V
1 4 V
1 5 V
1 -5 V
1 0 V
1 0 V
0 -4 V
1 4 V
1 9 V
1 -9 V
1 0 V
1 -4 V
1 4 V
1 -4 V
1 0 V
1 0 V
0 -5 V
1 9 V
1 -4 V
1 4 V
1 0 V
1 0 V
0 -4 V
1 0 V
1 0 V
1 0 V
1 9 V
1 -14 V
1 5 V
1 -5 V
1 0 V
1 5 V
1 0 V
1 -9 V
1 4 V
0 5 V
1 -9 V
1 9 V
0 -5 V
1 5 V
1 -5 V
1 0 V
1 5 V
1 0 V
1 -9 V
0 9 V
1 0 V
1 -14 V
1 14 V
1 4 V
1 -9 V
1 0 V
0 9 V
1 -13 V
1 9 V
0 -5 V
1 5 V
1 -5 V
1 0 V
0 5 V
1 4 V
stroke 6203 3309 M
1 -9 V
1 5 V
1 0 V
1 4 V
1 -4 V
0 -5 V
1 9 V
1 0 V
1 -4 V
0 -5 V
1 0 V
1 -4 V
1 4 V
0 -4 V
1 9 V
1 4 V
0 -9 V
1 -4 V
1 4 V
1 5 V
1 4 V
1 -18 V
1 14 V
1 9 V
1 -5 V
1 5 V
0 -14 V
1 -4 V
1 13 V
1 -9 V
0 -4 V
1 9 V
1 0 V
0 -5 V
1 9 V
1 0 V
1 0 V
0 -4 V
1 0 V
1 0 V
1 -5 V
0 5 V
1 -5 V
1 5 V
1 -5 V
0 5 V
1 4 V
1 0 V
1 -9 V
0 14 V
1 4 V
1 -18 V
1 0 V
0 5 V
1 -5 V
1 9 V
0 -9 V
1 0 V
1 9 V
1 0 V
0 -9 V
1 9 V
1 -4 V
1 9 V
0 -9 V
1 0 V
1 0 V
1 13 V
0 -9 V
1 0 V
1 -9 V
1 0 V
0 9 V
1 -4 V
1 0 V
0 -5 V
1 5 V
1 -5 V
1 5 V
1 -5 V
1 0 V
1 -4 V
1 4 V
1 -4 V
1 -5 V
0 5 V
1 -5 V
1 5 V
1 0 V
1 -14 V
1 5 V
0 4 V
1 -4 V
1 -9 V
1 0 V
0 9 V
1 -9 V
1 4 V
1 0 V
0 -9 V
1 0 V
1 9 V
1 -4 V
0 4 V
stroke 6284 3282 M
1 -4 V
1 -5 V
1 0 V
1 -8 V
1 4 V
1 -4 V
0 -5 V
1 5 V
1 -9 V
0 9 V
1 0 V
1 -5 V
1 5 V
0 -14 V
1 5 V
1 4 V
1 -13 V
1 4 V
1 -9 V
1 5 V
0 4 V
1 -9 V
1 -4 V
1 4 V
0 -13 V
1 9 V
1 -9 V
0 -9 V
1 4 V
1 -9 V
1 5 V
1 -9 V
1 0 V
1 -9 V
1 0 V
1 0 V
1 0 V
0 -9 V
1 -5 V
1 9 V
1 -9 V
1 0 V
1 -9 V
1 5 V
1 -9 V
1 0 V
1 0 V
1 -5 V
1 -4 V
0 4 V
1 0 V
1 -8 V
1 -5 V
1 13 V
1 -13 V
1 0 V
1 0 V
1 -13 V
1 -5 V
0 -4 V
1 13 V
1 14 V
0 -18 V
1 -5 V
1 14 V
1 -9 V
1 4 V
1 -4 V
1 4 V
0 -4 V
1 4 V
1 -4 V
1 4 V
0 -4 V
1 9 V
1 9 V
1 0 V
0 -5 V
1 -18 V
1 5 V
0 -5 V
1 0 V
1 31 V
1 -22 V
0 5 V
1 0 V
1 -14 V
1 5 V
0 18 V
1 -27 V
1 13 V
1 -4 V
0 18 V
1 0 V
1 -18 V
1 4 V
0 -9 V
1 9 V
1 0 V
1 9 V
0 -13 V
1 0 V
1 4 V
0 -4 V
stroke 6368 3144 M
1 -5 V
1 9 V
1 9 V
0 -4 V
1 4 V
1 -9 V
1 5 V
0 4 V
1 5 V
1 -14 V
1 -4 V
0 18 V
1 0 V
1 -14 V
1 9 V
0 -13 V
1 13 V
1 -13 V
0 13 V
1 -4 V
1 9 V
1 -5 V
1 -4 V
1 -5 V
1 9 V
0 -13 V
1 13 V
1 0 V
1 -18 V
0 14 V
1 4 V
1 -22 V
1 27 V
0 -18 V
1 4 V
1 0 V
1 5 V
0 -14 V
1 18 V
1 -18 V
0 5 V
1 -9 V
1 13 V
1 -4 V
0 -23 V
1 23 V
1 -5 V
1 -18 V
0 5 V
1 0 V
1 -9 V
1 4 V
1 -13 V
1 0 V
1 13 V
0 -13 V
1 4 V
1 -4 V
1 4 V
1 0 V
1 -9 V
0 14 V
1 -14 V
1 14 V
1 -23 V
0 14 V
1 0 V
1 -9 V
1 18 V
0 -14 V
1 5 V
1 -5 V
1 5 V
1 13 V
1 0 V
0 -18 V
1 -4 V
1 0 V
1 4 V
0 -9 V
1 18 V
1 0 V
1 -13 V
1 -9 V
1 0 V
1 9 V
0 -9 V
1 -14 V
1 14 V
1 -9 V
0 13 V
1 9 V
1 -13 V
1 18 V
0 -9 V
1 -5 V
1 0 V
0 5 V
1 -5 V
1 9 V
1 -22 V
0 22 V
1 -4 V
1 4 V
stroke 6449 3103 M
1 9 V
0 -22 V
1 9 V
1 -5 V
1 9 V
0 -13 V
1 18 V
1 -14 V
1 5 V
0 -5 V
1 9 V
1 5 V
0 -23 V
1 14 V
1 9 V
1 -9 V
1 22 V
1 -4 V
1 -14 V
0 14 V
1 -27 V
1 31 V
1 -31 V
0 22 V
1 -9 V
1 5 V
1 13 V
0 -22 V
1 18 V
1 -9 V
1 4 V
0 -18 V
1 14 V
1 -18 V
1 13 V
1 -13 V
1 22 V
0 -18 V
1 23 V
1 -14 V
1 14 V
0 -5 V
1 -13 V
1 13 V
1 -4 V
0 13 V
1 -18 V
1 -4 V
1 -9 V
0 13 V
1 0 V
1 0 V
0 -4 V
1 -14 V
1 14 V
1 -9 V
0 13 V
1 -18 V
1 23 V
1 -5 V
1 5 V
1 0 V
1 -9 V
0 -23 V
1 32 V
1 -9 V
1 -23 V
1 9 V
1 -13 V
1 13 V
0 5 V
1 -9 V
1 -13 V
1 0 V
1 13 V
1 -5 V
0 5 V
1 13 V
1 -22 V
1 4 V
0 -4 V
1 -4 V
1 0 V
1 0 V
0 -9 V
1 0 V
1 4 V
1 0 V
0 -18 V
1 14 V
1 -5 V
0 5 V
1 -5 V
1 -4 V
1 -5 V
0 -4 V
1 -14 V
1 5 V
1 0 V
1 0 V
1 -14 V
1 9 V
1 -9 V
1 -9 V
stroke 6531 3009 M
1 9 V
0 -4 V
1 -18 V
1 13 V
0 -13 V
1 -5 V
1 9 V
1 -9 V
0 5 V
1 -5 V
1 -4 V
1 -14 V
0 5 V
1 -13 V
1 4 V
1 4 V
0 -8 V
1 4 V
1 -9 V
1 -4 V
1 -5 V
1 -4 V
1 4 V
0 5 V
1 -14 V
1 -9 V
1 5 V
1 -9 V
1 -5 V
0 -4 V
1 -5 V
1 0 V
1 -9 V
1 5 V
1 -9 V
1 9 V
0 -14 V
1 -9 V
1 0 V
1 9 V
0 -13 V
1 -5 V
1 5 V
0 -9 V
1 0 V
1 4 V
1 -4 V
1 -4 V
1 4 V
1 -9 V
1 5 V
1 0 V
1 0 V
0 4 V
1 -4 V
1 0 V
1 0 V
0 -5 V
1 5 V
1 -5 V
1 0 V
0 5 V
1 -9 V
1 9 V
1 4 V
1 -9 V
1 0 V
1 0 V
1 5 V
1 -5 V
0 -4 V
1 13 V
1 -4 V
1 -9 V
0 4 V
1 0 V
1 5 V
1 -5 V
0 -4 V
1 9 V
1 -5 V
1 -9 V
1 5 V
1 9 V
0 -5 V
1 -4 V
1 4 V
1 0 V
0 -4 V
1 0 V
1 0 V
1 4 V
0 -9 V
1 14 V
1 -5 V
1 0 V
1 9 V
1 -9 V
1 0 V
1 0 V
1 0 V
0 5 V
1 -9 V
1 -5 V
stroke 6615 2857 M
1 9 V
0 5 V
1 -9 V
1 4 V
1 0 V
1 -4 V
1 9 V
1 -5 V
0 -4 V
1 -5 V
1 9 V
1 -4 V
0 -5 V
1 5 V
1 0 V
0 4 V
1 0 V
1 -4 V
1 0 V
1 0 V
1 -5 V
1 -4 V
0 -5 V
1 5 V
1 4 V
1 -4 V
0 -5 V
1 0 V
1 -9 V
1 23 V
0 -5 V
1 -13 V
1 9 V
0 -9 V
1 0 V
1 13 V
1 -4 V
0 4 V
1 -4 V
1 -5 V
1 9 V
0 -4 V
1 4 V
1 5 V
1 4 V
1 13 V
1 -17 V
1 9 V
0 8 V
1 0 V
1 0 V
1 -4 V
0 4 V
1 5 V
1 0 V
0 -9 V
1 9 V
1 4 V
1 0 V
0 5 V
1 0 V
1 -5 V
1 -4 V
0 -5 V
1 9 V
1 -9 V
1 5 V
0 -5 V
1 9 V
1 0 V
1 5 V
0 -14 V
1 14 V
1 -14 V
0 -4 V
1 18 V
1 -5 V
1 -17 V
0 17 V
1 -9 V
1 5 V
1 4 V
1 -17 V
1 0 V
1 13 V
0 4 V
1 -17 V
1 8 V
1 5 V
1 -5 V
1 14 V
1 -18 V
1 0 V
1 4 V
1 9 V
1 -4 V
1 4 V
0 -9 V
1 -4 V
1 9 V
1 -9 V
1 9 V
1 -5 V
1 -13 V
stroke 6698 2866 M
0 18 V
1 -9 V
1 13 V
1 -17 V
1 4 V
1 0 V
0 4 V
1 -13 V
1 13 V
1 5 V
0 -5 V
1 -4 V
1 9 V
1 -18 V
0 9 V
1 0 V
1 4 V
1 -4 V
0 4 V
1 5 V
1 -5 V
1 -13 V
0 13 V
1 -4 V
1 -9 V
0 18 V
1 -5 V
1 -13 V
1 5 V
1 -5 V
1 0 V
1 22 V
0 -22 V
1 5 V
1 -5 V
1 9 V
1 0 V
1 0 V
1 0 V
0 -13 V
1 17 V
1 5 V
1 -13 V
0 -5 V
1 13 V
1 -8 V
0 -9 V
1 13 V
1 0 V
1 -4 V
0 -5 V
1 5 V
1 4 V
1 -9 V
0 9 V
1 -18 V
1 14 V
1 -5 V
0 5 V
1 -5 V
1 5 V
1 -9 V
0 9 V
1 -5 V
1 0 V
0 9 V
1 0 V
1 4 V
1 -17 V
0 4 V
1 9 V
1 0 V
1 9 V
0 -13 V
1 4 V
1 -4 V
1 13 V
0 -18 V
1 0 V
1 9 V
1 -4 V
1 13 V
1 0 V
1 -13 V
0 4 V
1 -4 V
1 13 V
0 -9 V
1 -9 V
1 13 V
1 -4 V
0 -4 V
1 8 V
1 -4 V
1 4 V
0 -4 V
1 9 V
1 -18 V
1 9 V
0 -22 V
1 0 V
1 4 V
1 -4 V
1 4 V
stroke 6778 2857 M
1 5 V
0 -5 V
1 -4 V
1 0 V
1 9 V
0 4 V
1 -9 V
1 -9 V
1 5 V
1 9 V
1 -9 V
1 -5 V
1 5 V
1 -5 V
1 9 V
0 -18 V
1 18 V
1 -4 V
0 -9 V
1 9 V
1 -9 V
1 0 V
1 -5 V
1 0 V
1 -9 V
0 5 V
1 4 V
1 0 V
1 0 V
1 -9 V
1 9 V
1 5 V
0 -14 V
1 5 V
1 0 V
1 -9 V
0 -5 V
1 5 V
1 4 V
0 -4 V
1 9 V
1 -5 V
1 -13 V
0 9 V
1 4 V
1 -4 V
1 9 V
0 -14 V
1 0 V
1 0 V
1 9 V
0 -9 V
1 5 V
1 -9 V
1 9 V
1 -5 V
1 -9 V
0 9 V
1 -9 V
1 9 V
1 -4 V
0 9 V
1 -14 V
1 -4 V
1 9 V
1 0 V
1 -5 V
1 0 V
1 0 V
1 0 V
1 0 V
0 -4 V
1 0 V
1 4 V
1 -4 V
0 -5 V
1 0 V
1 0 V
1 -4 V
1 4 V
1 0 V
1 0 V
1 -9 V
1 0 V
1 5 V
1 0 V
1 0 V
1 9 V
1 -18 V
1 -5 V
1 0 V
1 0 V
1 0 V
1 -4 V
1 4 V
1 -9 V
1 -4 V
1 9 V
0 -5 V
1 0 V
1 -4 V
1 9 V
0 -9 V
1 0 V
stroke 6865 2772 M
1 -9 V
1 0 V
0 9 V
1 -4 V
1 -9 V
1 0 V
0 13 V
1 -18 V
1 -4 V
0 4 V
1 5 V
1 0 V
1 -9 V
0 4 V
1 0 V
1 -13 V
1 0 V
0 4 V
1 5 V
1 -9 V
1 -5 V
0 5 V
1 -9 V
1 13 V
1 -13 V
1 -5 V
1 0 V
1 -9 V
1 14 V
1 -9 V
0 -5 V
1 14 V
1 -14 V
1 -4 V
0 13 V
1 -13 V
1 9 V
1 -18 V
0 4 V
1 5 V
1 -9 V
1 4 V
0 -9 V
1 -13 V
1 4 V
0 9 V
1 -9 V
1 -4 V
1 -13 V
0 13 V
1 9 V
1 0 V
1 -14 V
0 -8 V
1 0 V
1 4 V
1 0 V
0 -22 V
1 4 V
1 5 V
1 0 V
0 -5 V
1 18 V
1 -13 V
1 -5 V
0 -9 V
1 -4 V
1 -5 V
0 5 V
1 4 V
1 -13 V
1 18 V
0 -18 V
1 4 V
1 0 V
1 -4 V
0 13 V
1 -22 V
1 4 V
1 -4 V
1 4 V
1 -4 V
1 18 V
0 -9 V
1 -14 V
1 23 V
0 -23 V
1 0 V
1 5 V
1 0 V
0 -5 V
1 0 V
1 -4 V
1 18 V
0 -14 V
1 9 V
1 0 V
1 -4 V
0 4 V
1 0 V
1 -18 V
1 9 V
0 9 V
1 -9 V
stroke 6944 2624 M
1 14 V
1 -5 V
0 -4 V
1 0 V
1 9 V
0 -5 V
1 0 V
1 0 V
1 -18 V
0 9 V
1 -4 V
1 -5 V
1 -4 V
0 18 V
1 0 V
1 4 V
1 -9 V
0 9 V
1 -13 V
1 9 V
1 -5 V
0 5 V
1 -18 V
1 0 V
0 13 V
1 -13 V
1 22 V
1 -4 V
0 -23 V
1 0 V
1 23 V
1 -18 V
0 9 V
1 4 V
1 -13 V
1 -18 V
0 18 V
1 9 V
1 -5 V
1 -22 V
0 4 V
1 14 V
1 4 V
0 -18 V
1 23 V
1 -18 V
1 13 V
0 -9 V
1 -9 V
1 0 V
1 0 V
0 9 V
1 -18 V
1 0 V
1 0 V
0 9 V
1 14 V
1 -14 V
1 -4 V
0 4 V
1 0 V
1 0 V
1 9 V
0 -9 V
1 0 V
1 -4 V
0 -5 V
1 5 V
1 -14 V
1 14 V
1 -9 V
1 9 V
1 0 V
0 4 V
1 9 V
1 -22 V
1 0 V
0 9 V
1 -9 V
1 13 V
1 -4 V
0 -9 V
1 22 V
1 -4 V
0 -23 V
1 -4 V
1 4 V
1 27 V
0 -22 V
1 13 V
1 5 V
1 -18 V
0 -5 V
1 23 V
1 -9 V
1 0 V
0 13 V
1 -27 V
1 9 V
1 -4 V
0 18 V
1 -23 V
1 5 V
1 18 V
stroke 7022 2602 M
1 0 V
1 9 V
0 -36 V
1 18 V
1 13 V
1 0 V
0 -9 V
1 -13 V
1 0 V
1 9 V
0 -5 V
1 23 V
1 -32 V
1 18 V
0 -13 V
1 0 V
1 0 V
1 0 V
1 4 V
1 14 V
0 -23 V
1 18 V
1 -18 V
1 14 V
0 4 V
1 -13 V
1 9 V
1 -9 V
0 -5 V
1 0 V
1 -8 V
1 26 V
0 -13 V
1 13 V
1 5 V
1 -5 V
0 -18 V
1 5 V
1 13 V
1 -13 V
0 -5 V
1 9 V
1 -4 V
0 9 V
1 0 V
1 -5 V
1 18 V
0 -22 V
1 18 V
1 -9 V
1 -9 V
0 9 V
1 -5 V
1 -4 V
1 22 V
0 -9 V
1 -4 V
1 9 V
1 -5 V
0 -9 V
1 5 V
1 -9 V
1 9 V
1 -5 V
1 -9 V
0 5 V
1 0 V
1 -5 V
1 9 V
1 9 V
1 -4 V
1 -14 V
0 23 V
1 4 V
1 -22 V
1 0 V
1 0 V
1 -5 V
1 14 V
1 -9 V
1 13 V
1 -13 V
1 0 V
1 9 V
1 0 V
1 -9 V
1 -9 V
0 4 V
1 -17 V
1 0 V
1 9 V
0 -5 V
1 -4 V
1 -14 V
1 18 V
0 -18 V
1 9 V
1 -22 V
0 -9 V
1 -5 V
1 5 V
1 0 V
0 -5 V
1 0 V
stroke 7104 2521 M
1 -4 V
1 -5 V
1 0 V
1 -4 V
1 -5 V
0 -4 V
1 4 V
1 -9 V
1 0 V
0 -4 V
1 4 V
1 -4 V
0 -5 V
1 -4 V
1 4 V
1 -4 V
0 -5 V
1 -4 V
1 4 V
1 0 V
0 -4 V
1 -4 V
1 4 V
1 0 V
1 0 V
1 -9 V
1 0 V
1 -9 V
1 0 V
1 0 V
1 -9 V
1 0 V
1 9 V
1 -9 V
1 0 V
1 -4 V
1 0 V
1 0 V
1 -5 V
1 5 V
1 -5 V
0 -4 V
1 4 V
1 0 V
1 -4 V
1 0 V
1 -5 V
1 9 V
1 -9 V
1 0 V
0 -4 V
1 0 V
1 4 V
1 0 V
1 -4 V
1 0 V
1 0 V
0 4 V
1 -9 V
1 9 V
1 -9 V
1 -4 V
1 4 V
0 9 V
1 -4 V
1 -5 V
1 5 V
0 -9 V
1 4 V
1 0 V
1 5 V
0 -5 V
1 0 V
1 0 V
1 -9 V
0 9 V
1 0 V
1 -9 V
1 0 V
0 14 V
1 -14 V
1 0 V
1 9 V
1 -9 V
1 9 V
1 0 V
1 5 V
1 -9 V
0 4 V
1 -9 V
1 9 V
1 -4 V
0 4 V
1 0 V
1 0 V
1 5 V
0 -9 V
1 0 V
1 4 V
1 -4 V
1 0 V
1 9 V
0 -9 V
1 4 V
stroke 7191 2418 M
1 0 V
1 0 V
1 0 V
1 -4 V
1 4 V
0 5 V
1 -5 V
1 5 V
1 -9 V
1 0 V
1 4 V
1 0 V
1 -9 V
1 5 V
1 4 V
0 -4 V
1 9 V
1 -9 V
0 4 V
1 -4 V
1 0 V
1 4 V
0 -4 V
1 -5 V
1 9 V
1 -9 V
1 9 V
1 -4 V
1 0 V
0 4 V
1 -4 V
1 0 V
1 -5 V
1 0 V
1 9 V
0 -9 V
1 14 V
1 -18 V
1 9 V
1 -5 V
1 5 V
1 0 V
1 -5 V
1 5 V
1 0 V
1 4 V
1 -9 V
1 0 V
1 0 V
1 9 V
0 -4 V
1 -5 V
1 0 V
1 -4 V
0 4 V
1 -4 V
1 -5 V
1 9 V
0 -4 V
1 0 V
1 0 V
1 0 V
1 -5 V
1 5 V
1 -5 V
1 0 V
1 0 V
1 0 V
0 5 V
1 4 V
1 -13 V
1 0 V
1 0 V
1 0 V
0 -5 V
1 5 V
1 4 V
1 -9 V
0 5 V
1 0 V
1 -5 V
1 9 V
0 -13 V
1 -5 V
1 5 V
1 0 V
1 0 V
1 0 V
1 -9 V
1 13 V
1 -4 V
0 -9 V
1 9 V
1 -9 V
1 4 V
1 5 V
1 -9 V
1 4 V
1 -4 V
1 0 V
1 9 V
0 -13 V
1 0 V
1 0 V
stroke 7280 2374 M
1 4 V
0 -4 V
1 4 V
1 -4 V
1 4 V
1 0 V
1 9 V
0 -9 V
1 0 V
1 -4 V
1 13 V
0 -13 V
1 0 V
1 0 V
1 4 V
0 -9 V
1 5 V
1 -5 V
1 0 V
0 9 V
1 -4 V
1 0 V
0 -5 V
1 0 V
1 0 V
1 9 V
0 -13 V
1 0 V
1 -5 V
1 5 V
0 -5 V
1 5 V
1 9 V
1 -9 V
1 -5 V
1 0 V
1 0 V
1 -4 V
1 0 V
1 4 V
0 -9 V
1 5 V
1 -5 V
0 -4 V
1 4 V
1 -4 V
1 0 V
0 4 V
1 -13 V
1 0 V
1 0 V
1 0 V
1 -5 V
1 -4 V
0 4 V
1 -4 V
1 0 V
1 0 V
0 -9 V
1 4 V
1 -4 V
0 9 V
1 -9 V
1 -5 V
1 -9 V
0 9 V
1 -4 V
1 0 V
1 4 V
0 -4 V
1 4 V
1 0 V
1 -4 V
0 4 V
1 -4 V
1 4 V
1 5 V
0 -5 V
1 5 V
1 4 V
0 -4 V
1 4 V
1 0 V
1 5 V
0 13 V
1 -9 V
1 5 V
1 13 V
1 14 V
1 13 V
1 9 V
0 22 V
1 14 V
1 27 V
1 26 V
0 32 V
1 45 V
1 67 V
1 27 V
0 9 V
1 58 V
1 -9 V
0 13 V
1 32 V
stroke 7360 2750 M
1 22 V
1 13 V
0 9 V
1 14 V
1 9 V
1 18 V
0 9 V
1 27 V
1 0 V
1 4 V
1 18 V
1 18 V
1 13 V
0 -9 V
1 14 V
1 9 V
0 13 V
1 9 V
1 -4 V
1 -5 V
0 14 V
1 26 V
1 -4 V
1 13 V
1 0 V
1 9 V
1 0 V
1 9 V
1 5 V
1 18 V
0 -14 V
1 14 V
1 18 V
1 -32 V
0 5 V
1 22 V
1 5 V
0 -9 V
1 13 V
1 22 V
1 -13 V
0 18 V
1 0 V
1 -9 V
1 4 V
0 9 V
1 -9 V
1 5 V
1 13 V
0 -4 V
1 0 V
1 0 V
1 -5 V
0 5 V
1 27 V
1 -9 V
1 0 V
1 0 V
1 4 V
0 -9 V
1 9 V
1 9 V
1 0 V
1 14 V
1 -9 V
1 -23 V
0 36 V
1 0 V
1 -4 V
1 9 V
0 -5 V
1 -4 V
1 13 V
0 -13 V
1 9 V
1 -5 V
1 9 V
0 -18 V
1 0 V
1 5 V
1 -9 V
0 4 V
1 9 V
1 -4 V
1 -5 V
1 9 V
1 0 V
1 0 V
0 9 V
1 -9 V
1 -9 V
1 18 V
0 -9 V
1 -4 V
1 4 V
0 -4 V
1 13 V
1 -4 V
1 -5 V
1 5 V
1 4 V
1 -4 V
0 -14 V
1 14 V
stroke 7442 3153 M
1 9 V
1 -27 V
0 18 V
1 -9 V
1 13 V
1 -9 V
0 5 V
1 -5 V
1 0 V
0 5 V
1 0 V
1 -5 V
1 -4 V
1 4 V
1 0 V
1 -9 V
1 0 V
1 9 V
1 5 V
0 -9 V
1 0 V
1 -14 V
1 23 V
0 -27 V
1 22 V
1 -4 V
1 0 V
0 13 V
1 -4 V
1 4 V
0 -27 V
1 18 V
1 5 V
1 -5 V
0 -9 V
1 5 V
1 0 V
1 -5 V
1 -4 V
1 0 V
1 4 V
1 5 V
1 -5 V
1 9 V
0 -4 V
1 0 V
1 4 V
0 9 V
1 -4 V
1 0 V
1 -14 V
0 -9 V
1 27 V
1 9 V
1 -9 V
0 9 V
1 -22 V
1 9 V
1 -23 V
0 18 V
1 0 V
1 22 V
1 -8 V
1 0 V
1 4 V
1 4 V
0 5 V
1 9 V
1 -5 V
0 5 V
1 0 V
1 4 V
1 0 V
0 5 V
1 0 V
1 4 V
1 9 V
1 5 V
1 -5 V
1 5 V
1 4 V
1 5 V
1 -9 V
0 4 V
1 9 V
1 0 V
1 5 V
1 -5 V
1 14 V
0 -5 V
1 0 V
1 -4 V
1 4 V
0 9 V
1 -9 V
1 9 V
1 0 V
1 5 V
1 0 V
1 0 V
1 4 V
1 -4 V
0 4 V
1 -4 V
stroke 7526 3247 M
1 4 V
1 0 V
1 5 V
1 13 V
1 -9 V
1 5 V
1 0 V
1 0 V
0 4 V
1 4 V
1 0 V
1 5 V
0 -5 V
1 0 V
1 9 V
1 -4 V
1 9 V
1 -5 V
0 -4 V
1 4 V
1 5 V
1 0 V
0 4 V
1 0 V
1 0 V
1 0 V
0 9 V
1 -4 V
1 -5 V
1 14 V
0 -5 V
1 -4 V
1 13 V
1 -4 V
1 0 V
1 -9 V
0 4 V
1 5 V
1 0 V
1 -5 V
0 5 V
1 0 V
1 4 V
1 0 V
0 -4 V
1 0 V
1 9 V
1 0 V
0 13 V
1 -4 V
1 -5 V
1 -4 V
0 4 V
1 9 V
1 0 V
1 0 V
0 5 V
1 -5 V
1 9 V
0 -4 V
1 0 V
1 -5 V
1 5 V
0 18 V
1 -14 V
1 5 V
1 4 V
1 0 V
1 -9 V
1 0 V
0 9 V
1 9 V
1 -9 V
1 -4 V
1 9 V
1 -9 V
0 4 V
1 0 V
1 -9 V
1 0 V
0 5 V
1 0 V
1 4 V
1 -4 V
0 -5 V
1 0 V
1 5 V
1 -5 V
0 5 V
1 -5 V
1 14 V
1 -9 V
1 -5 V
1 9 V
0 -4 V
1 9 V
1 4 V
1 -4 V
0 -5 V
1 5 V
1 9 V
1 -5 V
1 18 V
1 -13 V
stroke 7609 3359 M
1 -5 V
0 18 V
1 -9 V
1 -4 V
1 0 V
1 0 V
1 -5 V
1 5 V
0 -9 V
1 9 V
1 4 V
0 -9 V
1 -4 V
1 9 V
1 -18 V
0 4 V
1 -4 V
1 0 V
1 0 V
0 9 V
1 -14 V
1 0 V
1 5 V
1 -9 V
1 -5 V
1 5 V
1 -5 V
1 0 V
0 9 V
1 -13 V
1 9 V
1 -5 V
0 5 V
1 9 V
1 0 V
1 0 V
0 -5 V
1 5 V
1 4 V
1 0 V
0 -4 V
1 4 V
1 5 V
1 4 V
0 -4 V
1 0 V
1 0 V
1 0 V
0 -9 V
1 4 V
1 9 V
1 -4 V
1 -5 V
1 5 V
0 4 V
1 -4 V
1 4 V
1 -4 V
0 -5 V
1 -13 V
1 4 V
1 0 V
0 -4 V
1 4 V
1 -4 V
1 4 V
0 -9 V
1 0 V
1 -4 V
1 -5 V
1 9 V
1 -9 V
0 5 V
1 0 V
1 4 V
1 0 V
0 -4 V
1 0 V
1 0 V
1 0 V
0 -5 V
1 0 V
1 -9 V
1 9 V
1 0 V
1 -4 V
1 4 V
0 -4 V
1 -9 V
1 0 V
0 4 V
1 -13 V
1 4 V
1 5 V
0 -9 V
1 0 V
1 -9 V
1 0 V
0 -9 V
1 9 V
1 0 V
1 -5 V
0 -4 V
1 4 V
stroke 7690 3282 M
1 -9 V
1 5 V
0 -5 V
1 0 V
1 -4 V
0 4 V
1 -8 V
1 4 V
1 4 V
0 14 V
1 -9 V
1 0 V
1 0 V
0 9 V
1 -9 V
1 4 V
1 0 V
0 5 V
1 9 V
1 -5 V
1 5 V
1 -5 V
1 5 V
0 13 V
1 9 V
1 -18 V
1 0 V
1 9 V
1 -4 V
1 4 V
0 -4 V
1 0 V
1 0 V
1 9 V
0 4 V
1 -18 V
1 9 V
1 9 V
0 -13 V
1 -9 V
1 22 V
1 -18 V
0 5 V
1 0 V
1 -9 V
0 9 V
1 -5 V
1 9 V
1 5 V
0 -14 V
1 -4 V
1 0 V
1 0 V
1 -5 V
1 9 V
1 -9 V
0 5 V
1 -5 V
1 9 V
1 0 V
1 5 V
1 4 V
0 -4 V
1 4 V
1 -9 V
1 9 V
0 14 V
1 -14 V
1 9 V
1 -4 V
1 0 V
1 13 V
1 -9 V
0 -4 V
1 0 V
1 4 V
1 -4 V
0 4 V
1 0 V
1 0 V
1 -4 V
0 13 V
1 -13 V
1 0 V
0 4 V
1 5 V
1 -5 V
1 0 V
1 0 V
1 -4 V
1 -5 V
0 14 V
1 -9 V
1 0 V
1 -5 V
1 0 V
1 0 V
1 -4 V
0 4 V
1 -9 V
1 0 V
0 -4 V
1 0 V
1 -9 V
stroke 7772 3287 M
1 0 V
0 9 V
1 -9 V
1 0 V
1 0 V
0 -9 V
1 -5 V
1 5 V
1 0 V
0 -5 V
1 5 V
1 -13 V
1 8 V
0 -4 V
1 0 V
1 -18 V
1 5 V
1 -5 V
1 0 V
1 -4 V
1 0 V
1 0 V
1 4 V
1 -4 V
1 -5 V
1 -4 V
1 9 V
1 -9 V
0 -5 V
1 5 V
1 0 V
1 0 V
1 0 V
1 4 V
1 -4 V
1 4 V
1 -13 V
0 9 V
1 0 V
1 -5 V
1 9 V
0 -4 V
1 0 V
1 0 V
1 0 V
0 9 V
1 -9 V
1 9 V
1 -5 V
0 -4 V
1 0 V
1 0 V
0 9 V
1 0 V
1 -9 V
1 9 V
0 -5 V
1 -9 V
1 14 V
1 -9 V
0 13 V
1 -9 V
1 0 V
1 0 V
1 5 V
1 0 V
1 0 V
0 4 V
1 9 V
1 -13 V
1 -5 V
0 5 V
1 0 V
1 4 V
0 5 V
1 -5 V
1 0 V
1 0 V
1 0 V
1 -4 V
1 4 V
0 -4 V
1 0 V
1 0 V
1 -5 V
1 9 V
1 -4 V
1 -5 V
0 5 V
1 0 V
1 -5 V
0 5 V
1 4 V
1 -9 V
1 9 V
0 -4 V
1 -5 V
1 14 V
1 -18 V
0 9 V
1 -9 V
1 4 V
1 5 V
1 -9 V
stroke 7856 3238 M
1 9 V
1 -9 V
1 0 V
1 0 V
1 -5 V
0 5 V
1 4 V
1 -4 V
1 0 V
1 -5 V
1 0 V
1 5 V
1 -5 V
1 0 V
1 5 V
1 -5 V
1 0 V
0 5 V
% End plot #1
stroke
1.000 UL
LTb
LCb setrgbcolor
756 5639 N
756 896 L
7379 0 V
0 4743 V
-7379 0 V
Z stroke
1.000 UP
1.000 UL
LTb
LCb setrgbcolor
stroke
grestore
end
showpage
%%Trailer
%%DocumentFonts: Helvetica
