-39.5,1.0062913968529805,4.875
-39.5,1.000155473701438,4.875
-39.5,1.0062913968529805,2.4375
-39.5,1.0062913968529805,5.6875
-39.5,1.0185632431560658,4.875
-40.0,1.030835089459151,0.8125
-39.5,1.0062913968529805,5.6875
-40.0,1.043106935762236,-0.8125
-40.0,1.000155473701438,5.6875
-39.5,1.012427320004523,1.625
-39.5,1.012427320004523,4.875
-39.5,0.9878836273983529,8.9375
-40.0,1.012427320004523,6.5
-39.5,1.0062913968529805,7.3125
-39.5,1.0246991663076084,3.25
-40.0,1.0185632431560658,5.6875
-40.0,1.0185632431560658,3.25
-40.0,1.0369710126106935,1.625
-40.0,1.043106935762236,0.8125
-39.5,1.0062913968529805,7.3125
-39.5,1.000155473701438,7.3125
-40.0,1.000155473701438,8.9375
-40.0,1.030835089459151,2.4375
-40.0,1.0246991663076084,6.5
-40.0,1.0246991663076084,5.6875
-40.0,1.0246991663076084,2.4375
-40.0,1.030835089459151,3.25
-40.0,1.0185632431560658,4.875
-40.0,1.030835089459151,2.4375
-40.0,1.012427320004523,6.5
-40.0,1.0185632431560658,6.5
-40.0,1.043106935762236,1.625
-40.0,1.0185632431560658,4.875
-40.0,1.012427320004523,6.5
-39.5,1.0369710126106935,1.625
-39.5,1.0369710126106935,1.625
-40.0,1.043106935762236,2.4375
-40.0,1.043106935762236,1.625
-40.0,1.0185632431560658,5.6875
-40.0,1.043106935762236,2.4375
-40.0,1.0246991663076084,5.6875
-40.0,1.0185632431560658,7.3125
-40.0,1.0246991663076084,6.5
-40.0,1.0185632431560658,5.6875
-39.5,1.043106935762236,0.8125
-40.0,1.0369710126106935,4.875
-40.0,1.030835089459151,4.875
-39.5,1.030835089459151,3.25
-40.0,1.012427320004523,6.5
-40.0,1.0369710126106935,2.4375
-40.0,1.0492428589137786,0.8125
-39.5,1.030835089459151,2.4375
-40.0,1.0185632431560658,4.875
-39.5,1.0369710126106935,4.875
-39.5,1.0062913968529805,8.9375
-40.0,1.012427320004523,7.3125
-39.5,1.0246991663076084,5.6875
-40.0,1.043106935762236,3.25
-40.0,1.0369710126106935,2.4375
-39.5,1.0246991663076084,6.5
-40.0,1.030835089459151,4.875
-40.0,1.030835089459151,5.6875
-39.5,1.0492428589137786,0.8125
-39.5,1.043106935762236,1.625
-39.5,1.0369710126106935,7.3125
-39.5,1.055378782065321,2.4375
-40.0,1.055378782065321,1.625
-40.0,1.0492428589137786,2.4375
-40.0,1.0492428589137786,2.4375
-40.0,1.055378782065321,2.4375
-40.0,1.0185632431560658,8.125
-40.0,1.0492428589137786,5.6875
-40.0,1.0492428589137786,4.875
-40.0,1.0799224746714913,-2.4375
-40.0,1.0615147052168636,2.4375
-40.0,1.0615147052168636,4.875
-40.0,1.0492428589137786,4.875
-40.0,1.0676506283684062,0.8125
-40.0,1.030835089459151,6.5
-40.0,1.0185632431560658,8.9375
-40.0,1.0492428589137786,3.25
-40.0,1.0799224746714913,-1.625
-40.5,1.043106935762236,8.125
-40.0,1.0369710126106935,5.6875
-40.0,1.0492428589137786,1.625
-40.5,1.0246991663076084,9.75
-40.5,1.043106935762236,6.5
-40.5,1.0369710126106935,4.875
-40.5,1.0676506283684062,1.625
-40.5,1.030835089459151,7.3125
-40.5,1.0369710126106935,3.25
-41.0,1.0369710126106935,5.6875
-41.0,1.0492428589137786,1.625
-41.0,1.030835089459151,4.875
-41.0,1.0185632431560658,3.25
-41.0,1.030835089459151,4.875
-41.0,1.0185632431560658,4.875
-41.0,1.0369710126106935,1.625
-41.0,1.0369710126106935,0.8125
-40.5,1.0185632431560658,3.25
-41.0,1.0369710126106935,2.4375
-41.0,1.043106935762236,0.0
-41.0,1.0246991663076084,1.625
-41.0,1.0246991663076084,2.4375
-41.0,1.0185632431560658,2.4375
-41.0,1.012427320004523,4.875
-41.0,1.0369710126106935,0.8125
-41.5,0.9878836273983529,8.125
-41.0,1.012427320004523,1.625
-41.0,1.0062913968529805,4.875
-41.0,1.0062913968529805,2.4375
-41.5,0.9940195505498954,3.25
-41.0,0.9878836273983529,8.125
-41.0,1.030835089459151,0.0
-41.0,1.000155473701438,2.4375
-41.0,0.9817477042468103,6.5
-41.0,1.030835089459151,0.8125
-41.0,0.9510680884890975,8.9375
-41.0,0.9817477042468103,6.5
-41.0,1.012427320004523,1.625
-41.5,1.000155473701438,3.25
-41.5,0.9817477042468103,8.9375
-41.5,0.9940195505498954,6.5
-41.5,1.000155473701438,0.8125
-41.5,0.9756117810952678,6.5
-41.0,0.9878836273983529,5.6875
-41.0,0.9756117810952678,8.125
-41.0,1.0185632431560658,0.0
-41.0,0.9940195505498954,3.25
-41.5,1.000155473701438,0.8125
-41.0,1.0185632431560658,-0.8125
-41.0,0.9817477042468103,6.5
-41.5,1.000155473701438,2.4375
-41.5,1.000155473701438,2.4375
-41.5,0.944932165337555,8.9375
-41.5,0.9878836273983529,0.0
-41.5,0.9572040116406401,8.125
-41.0,0.9510680884890975,6.5
-41.0,0.9633399347921826,6.5
-41.5,0.9694758579437253,4.875
-41.0,0.9633399347921826,6.5
-41.5,0.9756117810952678,4.875
-41.5,0.9756117810952678,4.875
-41.5,0.9817477042468103,3.25
-41.5,0.9756117810952678,2.4375
-41.5,0.9940195505498954,1.625
-41.5,0.9633399347921826,8.125
-41.5,0.9817477042468103,4.875
-41.5,0.9878836273983529,0.0
-41.5,1.000155473701438,1.625
-41.5,1.0062913968529805,-0.8125
-41.5,0.9756117810952678,5.6875
-41.5,0.9756117810952678,3.25
-41.5,0.9694758579437253,7.3125
-41.5,1.0062913968529805,-0.8125
-41.0,0.9878836273983529,3.25
-41.5,0.9694758579437253,6.5
-41.0,1.000155473701438,0.8125
-41.0,0.9756117810952678,6.5
-41.5,0.9817477042468103,2.4375
-41.5,0.9940195505498954,1.625
-41.5,0.9756117810952678,1.625
-41.5,0.9756117810952678,2.4375
-41.5,0.9694758579437253,0.0
-41.5,0.9633399347921826,5.6875
-41.5,0.9265243958829272,6.5
-41.5,0.9326603190344698,5.6875
-41.5,0.9326603190344698,6.5
-41.5,0.9387962421860124,4.875
-41.5,0.9387962421860124,0.8125
-41.5,0.9142525495798421,0.8125
-42.0,0.9081166264282996,2.4375
-41.5,0.8835729338221293,2.4375
-41.5,0.8958447801252144,0.8125
-42.0,0.8897088569736719,0.8125
-42.0,0.8651651643675016,5.6875
-42.0,0.8774370106705868,0.8125
-41.5,0.8774370106705868,-0.8125
-42.0,0.8713010875190442,-1.625
-42.0,0.8651651643675016,1.625
-42.0,0.8467573949128739,1.625
-42.0,0.8467573949128739,2.4375
-42.0,0.8651651643675016,0.0
-42.0,0.8528933180644165,4.875
-42.0,0.8651651643675016,0.8125
-42.0,0.8467573949128739,2.4375
-42.0,0.8713010875190442,2.4375
-42.0,0.8528933180644165,1.625
-42.0,0.8406214717613314,3.25
-42.0,0.8713010875190442,0.0
-42.0,0.8651651643675016,-1.625
-42.0,0.8467573949128739,6.5
-42.0,0.8222137023067037,3.25
-42.5,0.8099418560036186,5.6875
-42.0,0.8344855486097889,-1.625
-42.0,0.859029241215959,0.0
-42.0,0.859029241215959,0.8125
-42.0,0.859029241215959,4.875
-42.0,0.8835729338221293,1.625
-42.0,0.9081166264282996,-3.25
-42.0,0.8651651643675016,7.3125
-42.0,0.9019807032767571,0.8125
-42.0,0.9203884727313847,-0.8125
-42.0,0.8897088569736719,5.6875
-42.0,0.8958447801252144,2.4375
-42.0,0.9142525495798421,1.625
-42.0,0.9081166264282996,3.25
-42.0,0.9019807032767571,3.25
-42.0,0.9203884727313847,0.8125
-42.0,0.9142525495798421,2.4375
-42.0,0.9265243958829272,0.8125
-42.5,0.9265243958829272,-0.8125
-42.5,0.9203884727313847,1.625
-42.5,0.8958447801252144,6.5
-42.5,0.8958447801252144,7.3125
-42.5,0.8897088569736719,3.25
-43.0,0.9081166264282996,-0.8125
-43.0,0.8958447801252144,7.3125
-43.0,0.8835729338221293,7.3125
-43.0,0.9203884727313847,-0.8125
-43.0,0.9203884727313847,0.0
-43.0,0.9019807032767571,5.6875
-43.0,0.9142525495798421,2.4375
-43.5,0.9265243958829272,2.4375
-43.0,0.9326603190344698,5.6875
-43.5,0.9326603190344698,5.6875
-43.0,0.9510680884890975,2.4375
-43.0,0.9633399347921826,5.6875
-43.0,0.9694758579437253,2.4375
-43.0,0.9756117810952678,0.0
-43.0,0.9756117810952678,1.625
-43.0,0.9694758579437253,3.25
-42.5,0.9572040116406401,2.4375
-42.5,0.9572040116406401,7.3125
-42.5,0.9756117810952678,3.25
-42.5,0.9694758579437253,2.4375
-42.0,0.9878836273983529,0.8125
-42.5,0.9694758579437253,2.4375
-42.5,0.9572040116406401,7.3125
-42.0,0.9817477042468103,3.25
-42.0,0.9510680884890975,5.6875
-42.0,0.9694758579437253,1.625
-42.0,0.944932165337555,6.5
-43.0,0.944932165337555,2.4375
-42.5,0.944932165337555,3.25
-43.5,0.9878836273983529,2.4375
-44.5,1.055378782065321,9.75
-45.5,1.7241944055834606,7.3125
-40.5,2.000310947402876,4.875
-40.5,2.000310947402876,2.4375
-40.5,1.9757672547967058,5.6875
-40.0,1.9757672547967058,3.25
-40.5,1.9880391010997909,1.625
-40.0,1.9696313316451632,7.3125
-40.0,1.9819031779482483,5.6875
-40.0,1.9634954084936207,7.3125
-40.0,1.9757672547967058,6.5
-40.5,1.9880391010997909,5.6875
-40.0,1.9696313316451632,3.25
-40.0,1.9941750242513334,-0.8125
-40.0,1.9634954084936207,5.6875
-40.0,1.9757672547967058,4.875
-40.0,1.9634954084936207,5.6875
-40.0,1.9696313316451632,3.25
-40.0,1.9634954084936207,3.25
-40.0,1.9389517158874505,8.9375
-39.5,1.945087639038993,6.5
-40.0,1.9573594853420782,5.6875
-39.5,1.9880391010997909,-0.8125
-39.5,1.945087639038993,6.5
-39.5,1.9573594853420782,3.25
-39.5,1.9573594853420782,2.4375
-40.0,1.9634954084936207,1.625
-39.5,1.9389517158874505,7.3125
-39.5,1.945087639038993,3.25
-39.5,1.9512235621905356,2.4375
-40.0,1.9512235621905356,5.6875
-40.0,1.945087639038993,2.4375
-40.0,1.932815792735908,7.3125
-39.5,1.9696313316451632,0.0
-40.0,1.9512235621905356,3.25
-40.0,1.932815792735908,5.6875
-40.0,1.945087639038993,2.4375
-40.0,1.9389517158874505,4.875
-40.0,1.9205439464328227,8.125
-39.5,1.9389517158874505,5.6875
-39.5,1.945087639038993,3.25
-40.0,1.9573594853420782,-0.8125
-40.0,1.9266798695843652,5.6875
-40.0,1.9266798695843652,6.5
-40.0,1.9389517158874505,4.875
-40.0,1.945087639038993,3.25
-40.0,1.9389517158874505,3.25
-40.0,1.9512235621905356,1.625
-40.0,1.9266798695843652,5.6875
-40.0,1.9389517158874505,4.875
-40.0,1.9144080232812801,8.125
-40.0,1.945087639038993,2.4375
-40.0,1.9389517158874505,5.6875
-40.5,1.9573594853420782,1.625
-40.0,1.932815792735908,7.3125
-40.5,1.945087639038993,2.4375
-40.5,1.9573594853420782,0.0
-40.5,1.945087639038993,4.875
-40.5,1.9634954084936207,1.625
-40.5,1.932815792735908,5.6875
-40.5,1.932815792735908,5.6875
-41.0,1.9573594853420782,0.8125
-41.0,1.9573594853420782,1.625
-41.0,1.945087639038993,4.875
-41.0,1.945087639038993,5.6875
-41.5,1.9512235621905356,3.25
-41.5,1.9266798695843652,8.125
-41.5,1.9266798695843652,7.3125
-41.5,1.9144080232812801,4.875
-41.5,1.932815792735908,2.4375
-41.5,1.9266798695843652,4.875
-41.5,1.9082721001297376,6.5
-41.5,1.88986433067511,8.125
-41.5,1.9082721001297376,7.3125
-41.5,1.902136176978195,6.5
-41.5,1.9266798695843652,1.625
-41.5,1.9144080232812801,3.25
-41.5,1.8960002538266525,7.3125
-42.0,1.9144080232812801,4.875
-41.5,1.9082721001297376,3.25
-41.5,1.8653206380689396,7.3125
-42.0,1.9082721001297376,1.625
-42.0,1.8714565612204823,5.6875
-42.0,1.8960002538266525,3.25
-42.5,1.8837284075235674,1.625
-42.5,1.846912868614312,6.5
-43.0,1.8039614065535141,5.6875
-43.0,1.8039614065535141,6.5
-43.0,1.8100973297050567,3.25
-43.0,1.7732817907958012,4.875
-43.0,1.7855536370988863,3.25
-43.5,1.7426021750380885,9.75
-43.5,1.761009944492716,3.25
-43.5,1.7671458676442586,2.4375
-43.5,1.6935147898257479,9.75
-43.5,1.7303303287350031,2.4375
-44.0,1.718058482431918,0.8125
-44.0,1.6935147898257479,5.6875
-44.0,1.6873788666742053,1.625
-44.0,1.6996507129772904,1.625
-44.0,1.6444274046134073,10.5625
-44.5,1.6566992509164924,4.875
-44.0,1.662835174068035,3.25
-44.5,1.662835174068035,3.25
-44.5,1.6812429435226628,3.25
-44.0,1.6751070203711202,0.8125
-44.0,1.662835174068035,0.0
-44.0,1.6382914814618648,6.5
-44.5,1.6382914814618648,5.6875
-44.5,1.6566992509164924,-0.8125
-44.5,1.5953400194010667,8.125
-44.5,1.6198837120072371,3.25
-44.5,1.5707963267948966,3.25
-45.0,1.607611865704152,-1.625
-44.5,1.5585244804918115,6.5
-44.5,1.564660403643354,5.6875
-44.5,1.521708941582556,10.5625
-45.0,1.533980787885641,7.3125
-44.5,1.564660403643354,0.0
-44.5,1.5401167110371838,2.4375
-44.5,1.5462526341887264,0.8125
-44.5,1.4848934026733007,6.5
-44.5,1.5278448647340985,-1.625
-44.5,1.4542137869155878,9.75
-44.5,1.41126232485479,11.375
-44.5,1.4358060174609601,5.6875
-44.5,1.4419419406125027,0.8125
-44.5,1.3314953238847365,9.75
-44.5,1.337631247036279,3.25
-44.5,1.3130875544301088,6.5
-44.0,1.282407938672396,5.6875
-44.5,1.2640001692177683,9.75
-44.5,1.3008157081270237,-1.625
-44.5,1.2640001692177683,4.875
-44.0,1.1228739367322893,1.625
-43.5,1.141281706186917,0.8125
-44.0,1.141281706186917,1.625
-44.0,1.1106020904292042,2.4375
-43.5,1.1228739367322893,3.25
-43.5,1.0676506283684062,11.375
-44.0,1.0799224746714913,3.25
-43.5,1.0921943209745766,2.4375
-43.5,1.030835089459151,9.75
-43.5,1.043106935762236,5.6875
-43.5,1.0185632431560658,8.125
-43.5,1.0921943209745766,-7.3125
-43.5,1.030835089459151,2.4375
-43.5,0.9756117810952678,9.75
-43.5,1.0185632431560658,3.25
-44.0,1.0062913968529805,1.625
-43.5,1.0062913968529805,7.3125
-44.0,1.000155473701438,8.125
-44.0,1.0062913968529805,8.9375
-43.5,1.012427320004523,4.875
-43.5,1.0369710126106935,3.25
-43.5,1.0799224746714913,-1.625
-44.0,1.043106935762236,6.5
-43.5,1.1106020904292042,-2.4375
-43.5,1.0983302441261191,0.0
-43.5,1.1167380135807468,0.0
-43.5,1.0737865515199487,7.3125
-43.5,1.0921943209745766,6.5
-44.0,1.0983302441261191,-0.8125
-43.5,1.1044661672776617,5.6875
-43.5,1.0737865515199487,5.6875
-43.5,1.0921943209745766,8.125
-43.5,1.1106020904292042,4.875
-43.5,1.086058397823034,5.6875
-43.5,1.1351457830353744,0.8125
-43.5,1.141281706186917,5.6875
-43.0,1.1228739367322893,5.6875
-43.0,1.141281706186917,7.3125
-43.0,1.1474176293384597,5.6875
-43.5,1.1474176293384597,7.3125
-43.0,1.1474176293384597,8.125
-43.5,1.1658253987930873,6.5
-43.5,1.1780972450961724,3.25
-43.5,1.2087768608538851,0.8125
-43.5,1.2026409377023426,6.5
-43.5,1.2026409377023426,5.6875
-43.0,1.2455923997631406,1.625
-43.5,1.2578642460662257,1.625
-43.5,1.2640001692177683,-1.625
-43.5,1.2701360923693108,1.625
-43.0,1.239456476611598,5.6875
-43.5,1.227184630308513,8.9375
-43.0,1.2333205534600555,8.9375
-43.0,1.2578642460662257,6.5
-43.0,1.282407938672396,4.875
-43.0,1.2701360923693108,7.3125
-43.0,1.2885438618239387,7.3125
-43.0,1.325359400733194,1.625
-43.0,1.3008157081270237,6.5
-43.0,1.3192234775816514,6.5
-43.0,1.3130875544301088,8.9375
-43.0,1.368310862793992,-0.8125
-42.5,1.368310862793992,1.625
-43.0,1.3928545554001621,-0.8125
-43.0,1.3437671701878218,5.6875
-43.0,1.3867186322486196,3.25
-43.0,1.3867186322486196,5.6875
-43.0,1.4664856332186729,0.0
-43.0,1.4542137869155878,4.875
-43.0,1.521708941582556,4.875
-43.0,1.5707963267948966,0.0
-42.5,1.5707963267948966,2.4375
-42.5,1.6260196351587797,2.4375
-42.0,1.6260196351587797,2.4375
-41.5,1.6444274046134073,0.0
-41.0,1.6321555583103222,4.875
-41.0,1.6137477888556946,6.5
-41.0,1.6260196351587797,6.5
-41.0,1.6260196351587797,5.6875
-41.0,1.6260196351587797,4.875
-41.0,1.6137477888556946,5.6875
-41.0,1.6260196351587797,5.6875
-40.5,1.6260196351587797,3.25
-40.5,1.6321555583103222,1.625
-41.0,1.6382914814618648,2.4375
-40.5,1.6505633277649499,2.4375
-40.5,1.6566992509164924,4.875
-40.5,1.6260196351587797,8.125
-40.5,1.6566992509164924,0.8125
-40.5,1.6566992509164924,6.5
-40.5,1.6444274046134073,5.6875
-40.5,1.6505633277649499,3.25
-40.5,1.6566992509164924,3.25
-40.5,1.6382914814618648,4.875
-40.5,1.6137477888556946,8.9375
-40.5,1.6444274046134073,6.5
-40.5,1.6505633277649499,4.875
-40.5,1.6444274046134073,8.125
-40.5,1.6689710972195777,4.875
-40.5,1.6812429435226628,6.5
-40.5,1.6751070203711202,2.4375
-40.5,1.6751070203711202,4.875
-40.5,1.6689710972195777,7.3125
-40.5,1.6935147898257479,2.4375
-40.5,1.6566992509164924,7.3125
-40.5,1.6566992509164924,7.3125
-40.5,1.6566992509164924,7.3125
-41.0,1.6751070203711202,3.25
-40.5,1.6751070203711202,2.4375
-40.5,1.662835174068035,6.5
-41.0,1.6812429435226628,4.875
-41.0,1.6873788666742053,4.875
-41.0,1.6996507129772904,0.8125
-41.0,1.6935147898257479,2.4375
-40.5,1.6751070203711202,8.125
-41.0,1.6873788666742053,5.6875
-40.5,1.6873788666742053,5.6875
-40.5,1.7119225592803755,1.625
-40.5,1.6873788666742053,7.3125
-40.5,1.6935147898257479,4.875
-40.5,1.705786636128833,5.6875
-40.5,1.6812429435226628,7.3125
-40.5,1.705786636128833,6.5
-40.5,1.736466251886546,0.0
-40.0,1.718058482431918,3.25
-40.5,1.6873788666742053,6.5
-40.0,1.718058482431918,3.25
-40.5,1.7119225592803755,4.875
-40.5,1.718058482431918,3.25
-40.5,1.705786636128833,8.9375
-40.5,1.748738098189631,0.0
-40.5,1.7119225592803755,8.125
-40.0,1.7303303287350031,4.875
-40.0,1.7241944055834606,3.25
-40.0,1.718058482431918,3.25
-40.0,1.705786636128833,7.3125
-40.5,1.718058482431918,4.875
-40.5,1.718058482431918,3.25
-40.5,1.718058482431918,5.6875
-40.5,1.7119225592803755,6.5
-40.0,1.7303303287350031,4.875
-40.0,1.736466251886546,3.25
-40.5,1.7303303287350031,4.875
-40.0,1.7241944055834606,5.6875
-40.0,1.7241944055834606,2.4375
-40.0,1.7241944055834606,3.25
-40.0,1.7241944055834606,3.25
-40.0,1.736466251886546,6.5
-40.0,1.7241944055834606,6.5
-40.0,1.7303303287350031,2.4375
-40.0,1.7241944055834606,5.6875
-40.0,1.7303303287350031,2.4375
-40.0,1.718058482431918,5.6875
-40.0,1.7241944055834606,4.875
-40.0,1.7303303287350031,2.4375
-40.0,1.718058482431918,5.6875
-40.0,1.748738098189631,2.4375
-40.0,1.7241944055834606,6.5
-40.0,1.748738098189631,2.4375
-40.0,1.736466251886546,3.25
-40.0,1.7241944055834606,8.125
-40.0,1.748738098189631,4.875
-40.0,1.7119225592803755,7.3125
-40.0,1.7119225592803755,8.125
-40.0,1.705786636128833,9.75
-40.0,1.7241944055834606,6.5
-40.0,1.736466251886546,5.6875
-40.0,1.7241944055834606,6.5
-40.0,1.748738098189631,5.6875
-40.0,1.7303303287350031,7.3125
-40.0,1.748738098189631,6.5
-40.0,1.7548740213411735,2.4375
-40.0,1.7548740213411735,5.6875
-39.5,1.7548740213411735,2.4375
-40.0,1.761009944492716,2.4375
-39.5,1.7732817907958012,2.4375
-40.0,1.7426021750380885,3.25
-40.0,1.748738098189631,6.5
-40.0,1.7548740213411735,3.25
-40.0,1.748738098189631,4.875
-40.0,1.736466251886546,5.6875
-40.0,1.748738098189631,6.5
-40.0,1.761009944492716,2.4375
-40.0,1.761009944492716,6.5
-40.0,1.7671458676442586,4.875
-40.0,1.7855536370988863,3.25
-39.5,1.7916895602504288,0.0
-40.0,1.7794177139473437,6.5
-39.5,1.7855536370988863,5.6875
-40.0,1.7855536370988863,3.25
-40.0,1.7794177139473437,7.3125
-39.5,1.7978254834019713,3.25
-39.5,1.7732817907958012,5.6875
-39.5,1.7855536370988863,5.6875
-40.0,1.8039614065535141,3.25
-39.5,1.7978254834019713,2.4375
-39.5,1.7855536370988863,5.6875
-39.5,1.8285050991596843,0.0
-40.0,1.7916895602504288,5.6875
-40.0,1.7916895602504288,6.5
-39.5,1.7916895602504288,8.9375
-39.5,1.8100973297050567,6.5
-39.5,1.8039614065535141,7.3125
-39.5,1.8223691760081417,5.6875
-40.0,1.8285050991596843,4.875
-40.0,1.8100973297050567,11.375
-40.0,1.859184714917397,2.4375
-39.5,1.8346410223112268,5.6875
-39.5,1.846912868614312,2.4375
-39.5,1.8346410223112268,5.6875
-39.5,1.8530487917658545,5.6875
-39.5,1.859184714917397,1.625
-39.5,1.859184714917397,5.6875
-40.0,1.859184714917397,5.6875
-40.0,1.846912868614312,10.5625
-40.0,1.8653206380689396,4.875
-40.0,1.8530487917658545,8.125
-40.0,1.846912868614312,5.6875
-39.5,1.8714565612204823,1.625
-39.5,1.8653206380689396,4.875
-39.5,1.8653206380689396,2.4375
-40.0,1.8714565612204823,3.25
-39.5,1.859184714917397,6.5
-40.0,1.8837284075235674,1.625
-40.0,1.8775924843720249,3.25
-40.0,1.8714565612204823,5.6875
-39.5,1.859184714917397,4.875
-39.5,1.8714565612204823,4.875
-40.0,1.859184714917397,7.3125
-39.5,1.8775924843720249,4.875
-40.0,1.8775924843720249,6.5
-40.0,1.859184714917397,6.5
-39.5,1.8837284075235674,4.875
-39.5,1.8775924843720249,3.25
-39.5,1.8837284075235674,2.4375
-39.5,1.8714565612204823,5.6875
-40.0,1.88986433067511,0.8125
-39.5,1.88986433067511,3.25
-40.0,1.8837284075235674,7.3125
-40.0,1.8714565612204823,6.5
-40.0,1.8837284075235674,4.875
-39.5,1.8714565612204823,6.5
-39.5,1.9082721001297376,0.8125
-40.0,1.8775924843720249,5.6875
-40.0,1.8653206380689396,6.5
-40.0,1.8653206380689396,7.3125
-40.0,1.859184714917397,8.125
-39.5,1.88986433067511,4.875
-40.0,1.8775924843720249,8.125
-39.5,1.8837284075235674,5.6875
-40.0,1.88986433067511,5.6875
-39.5,1.8960002538266525,3.25
-40.0,1.9266798695843652,1.625
-40.0,1.8837284075235674,9.75
-40.0,1.8714565612204823,11.375
-40.0,1.9082721001297376,5.6875
-40.0,1.9144080232812801,5.6875
-40.0,1.9389517158874505,1.625
-40.5,1.9144080232812801,4.875
-40.0,1.932815792735908,2.4375
-40.5,1.9205439464328227,4.875
-40.5,1.9389517158874505,2.4375
-40.0,1.88986433067511,8.125
-40.0,1.9205439464328227,6.5
-40.5,1.88986433067511,8.9375
-40.5,1.902136176978195,6.5
-40.0,1.9266798695843652,6.5
-40.5,1.932815792735908,3.25
-40.0,1.8837284075235674,8.9375
-40.0,1.9144080232812801,8.125
-40.5,1.9205439464328227,6.5
-40.5,1.9205439464328227,5.6875
-40.0,1.8960002538266525,8.9375
-40.5,1.8960002538266525,9.75
-40.0,1.945087639038993,1.625
-40.0,1.9205439464328227,5.6875
-40.5,1.9205439464328227,5.6875
-40.5,1.9082721001297376,5.6875
-40.0,1.9205439464328227,8.9375
-40.5,1.945087639038993,2.4375
-40.0,1.945087639038993,0.0
-40.0,1.9266798695843652,5.6875
-40.0,1.9082721001297376,6.5
-40.0,1.9266798695843652,4.875
-40.0,1.9389517158874505,2.4375
-40.0,1.932815792735908,3.25
-40.0,1.932815792735908,4.875
-40.0,1.9389517158874505,2.4375
-40.0,1.9082721001297376,7.3125
-40.5,1.9266798695843652,6.5
-40.0,1.9144080232812801,5.6875
-40.0,1.9082721001297376,8.125
-40.0,1.9205439464328227,6.5
-40.0,1.932815792735908,2.4375
-40.0,1.9205439464328227,4.875
-40.0,1.902136176978195,8.125
-40.0,1.902136176978195,8.9375
-40.0,1.9266798695843652,2.4375
-40.0,1.9389517158874505,1.625
-40.0,1.9144080232812801,5.6875
-40.0,1.9144080232812801,4.875
-40.0,1.9205439464328227,5.6875
-40.0,1.9144080232812801,5.6875
-40.0,1.9205439464328227,6.5
-40.0,1.9205439464328227,6.5
-40.0,1.9266798695843652,4.875
-40.0,1.902136176978195,8.125
-40.0,1.9144080232812801,5.6875
-40.0,1.9082721001297376,6.5
-40.5,1.902136176978195,6.5
-40.0,1.902136176978195,8.125
-40.0,1.902136176978195,8.125
-40.0,1.902136176978195,6.5
-40.0,1.9266798695843652,2.4375
-40.0,1.9144080232812801,4.875
-40.0,1.8960002538266525,8.125
-40.0,1.9205439464328227,2.4375
-40.0,1.9144080232812801,4.875
-40.0,1.9082721001297376,4.875
-40.0,1.9082721001297376,5.6875
-40.0,1.9144080232812801,4.875
-40.0,1.932815792735908,3.25
-40.0,1.9082721001297376,6.5
-40.0,1.8960002538266525,7.3125
-40.0,1.9144080232812801,8.125
-40.5,1.9144080232812801,5.6875
-40.0,1.8960002538266525,7.3125
-40.5,1.902136176978195,8.125
-40.5,1.9266798695843652,4.875
-40.0,1.9205439464328227,4.875
-40.0,1.9266798695843652,3.25
-40.0,1.8960002538266525,8.9375
-40.0,1.9205439464328227,4.875
-40.0,1.902136176978195,6.5
-40.5,1.9205439464328227,3.25
-40.0,1.9266798695843652,2.4375
-40.0,1.9389517158874505,3.25
-40.0,1.9082721001297376,6.5
-40.0,1.9266798695843652,5.6875
-40.5,1.932815792735908,3.25
-40.0,1.9144080232812801,4.875
-40.5,1.932815792735908,1.625
-40.5,1.9205439464328227,4.875
-40.5,1.9266798695843652,2.4375
-40.0,1.902136176978195,8.125
-40.0,1.902136176978195,8.9375
-40.0,1.9144080232812801,4.875
-40.5,1.9144080232812801,4.875
-40.5,1.932815792735908,3.25
-40.5,1.9266798695843652,4.875
-40.5,1.9266798695843652,5.6875
-40.5,1.9205439464328227,7.3125
-40.5,1.9266798695843652,6.5
-40.5,1.9205439464328227,7.3125
-40.5,1.945087639038993,3.25
-40.5,1.9082721001297376,8.9375
-40.5,1.9205439464328227,7.3125
-40.5,1.945087639038993,0.8125
-40.5,1.902136176978195,8.9375
-40.5,1.932815792735908,5.6875
-41.0,1.945087639038993,1.625
-42.0,1.5830681730979816,3.25
-42.0,1.552388557340269,4.875
-41.5,1.521708941582556,2.4375
-41.5,1.5033011721279284,4.875
-41.5,1.4603497100671303,8.125
-41.5,1.4664856332186729,6.5
-41.0,1.423534171157875,8.9375
-41.0,1.4848934026733007,1.625
-41.0,1.4910293258248433,0.0
-41.0,1.4910293258248433,0.8125
-41.0,1.4971652489763858,4.875
-41.0,1.4910293258248433,5.6875
-41.5,1.4726215563702154,6.5
-41.5,1.4971652489763858,2.4375
-41.5,1.4910293258248433,4.875
-41.5,1.4787574795217582,6.5
-41.5,1.4971652489763858,3.25
-41.0,1.4971652489763858,2.4375
-41.0,1.5155730184310134,-0.8125
-41.0,1.521708941582556,-0.8125
-41.0,1.4542137869155878,9.75
-41.0,1.5033011721279284,2.4375
-41.0,1.4726215563702154,6.5
-41.0,1.4726215563702154,6.5
-41.0,1.4787574795217582,3.25
-41.0,1.4787574795217582,5.6875
-41.0,1.4726215563702154,5.6875
-40.5,1.4848934026733007,2.4375
-40.5,1.4971652489763858,4.875
-41.0,1.5278448647340985,-2.4375
-40.5,1.5155730184310134,-0.8125
-40.5,1.4971652489763858,2.4375
-40.5,1.4726215563702154,7.3125
-40.5,1.4848934026733007,3.25
-40.5,1.4726215563702154,5.6875
-40.5,1.4542137869155878,8.125
-40.5,1.5155730184310134,-1.625
-40.5,1.4971652489763858,4.875
-40.5,1.4787574795217582,6.5
-40.5,1.5033011721279284,3.25
-40.5,1.4726215563702154,2.4375
-41.0,1.4726215563702154,3.25
-41.0,1.4971652489763858,2.4375
-40.5,1.4787574795217582,2.4375
-41.0,1.4480778637640452,8.125
-40.5,1.4603497100671303,5.6875
-40.5,1.4419419406125027,8.9375
-40.5,1.4542137869155878,7.3125
-40.5,1.4726215563702154,0.0
-40.5,1.4603497100671303,5.6875
-40.5,1.4480778637640452,5.6875
-40.5,1.4603497100671303,3.25
-40.5,1.4603497100671303,1.625
-40.5,1.4787574795217582,-0.8125
-40.0,1.4542137869155878,3.25
-40.5,1.423534171157875,7.3125
-40.0,1.4603497100671303,0.8125
-40.5,1.4296700943094176,4.875
-40.5,1.4419419406125027,3.25
-40.0,1.4051264017032472,7.3125
-40.0,1.423534171157875,4.875
-40.0,1.4419419406125027,1.625
-40.0,1.4173982480063325,7.3125
-40.5,1.4296700943094176,5.6875
-40.0,1.4542137869155878,-2.4375
-40.0,1.4051264017032472,5.6875
-40.0,1.4296700943094176,1.625
-40.0,1.41126232485479,6.5
-40.0,1.423534171157875,1.625
-40.0,1.4051264017032472,5.6875
-40.0,1.4051264017032472,7.3125
-40.0,1.4296700943094176,1.625
-40.0,1.4358060174609601,0.8125
-40.0,1.41126232485479,4.875
-40.0,1.4296700943094176,1.625
-40.0,1.4480778637640452,0.8125
-40.0,1.3867186322486196,7.3125
-40.0,1.3989904785517047,6.5
-40.0,1.423534171157875,2.4375
-40.0,1.3928545554001621,7.3125
-40.0,1.4051264017032472,4.875
-40.0,1.3867186322486196,8.125
-40.0,1.3867186322486196,6.5
-40.0,1.3989904785517047,6.5
-40.0,1.4173982480063325,2.4375
-40.0,1.3744467859455345,6.5
-40.0,1.3621749396424494,10.5625
-40.0,1.3989904785517047,5.6875
-40.0,1.3928545554001621,4.875
-40.0,1.3989904785517047,2.4375
-40.0,1.3867186322486196,6.5
-40.0,1.368310862793992,9.75
-40.0,1.380582709097077,7.3125
-40.0,1.3989904785517047,2.4375
-40.0,1.380582709097077,5.6875
-40.0,1.3928545554001621,7.3125
-40.0,1.4173982480063325,0.8125
-40.0,1.4051264017032472,2.4375
-40.0,1.3928545554001621,6.5
-40.0,1.3437671701878218,10.5625
-39.5,1.380582709097077,6.5
-40.0,1.380582709097077,6.5
-40.0,1.380582709097077,7.3125
-40.0,1.380582709097077,7.3125
-40.0,1.3928545554001621,4.875
-40.0,1.3928545554001621,3.25
-40.0,1.380582709097077,6.5
-40.0,1.3621749396424494,8.9375
-40.0,1.3928545554001621,2.4375
-40.0,1.3867186322486196,2.4375
-40.0,1.368310862793992,8.9375
-40.0,1.3744467859455345,3.25
-40.0,1.3989904785517047,3.25
-40.0,1.3867186322486196,5.6875
-40.0,1.368310862793992,7.3125
-40.0,1.380582709097077,4.875
-40.0,1.3621749396424494,8.125
-40.0,1.3867186322486196,5.6875
-40.0,1.3867186322486196,3.25
-40.0,1.3744467859455345,5.6875
-40.0,1.380582709097077,5.6875
-39.5,1.368310862793992,7.3125
-40.0,1.368310862793992,6.5
-39.5,1.3989904785517047,0.8125
-40.0,1.368310862793992,6.5
-40.0,1.3928545554001621,4.875
-40.0,1.3928545554001621,2.4375
-40.0,1.4051264017032472,0.8125
-40.0,1.3560390164909069,8.9375
-40.0,1.3744467859455345,5.6875
-40.0,1.380582709097077,2.4375
-40.0,1.3437671701878218,7.3125
-40.0,1.380582709097077,1.625
-40.0,1.3499030933393643,8.9375
-40.0,1.3621749396424494,7.3125
-40.0,1.3744467859455345,3.25
-40.0,1.3867186322486196,3.25
-39.5,1.3621749396424494,7.3125
-39.5,1.3621749396424494,6.5
-40.0,1.368310862793992,7.3125
-40.0,1.380582709097077,1.625
-40.0,1.3744467859455345,2.4375
-40.0,1.3867186322486196,2.4375
-40.0,1.380582709097077,4.875
-40.0,1.3621749396424494,4.875
-40.0,1.368310862793992,5.6875
-40.0,1.3867186322486196,0.8125
-40.0,1.3499030933393643,7.3125
-40.0,1.380582709097077,3.25
-40.0,1.3499030933393643,6.5
-40.0,1.380582709097077,5.6875
-40.0,1.380582709097077,6.5
-40.0,1.368310862793992,3.25
-40.0,1.368310862793992,4.875
-40.0,1.3499030933393643,9.75
-39.5,1.3560390164909069,6.5
-40.0,1.3437671701878218,6.5
-40.0,1.380582709097077,0.0
-39.5,1.337631247036279,8.125
-39.5,1.3437671701878218,7.3125
-40.0,1.3314953238847365,7.3125
-39.5,1.3437671701878218,7.3125
-40.0,1.337631247036279,6.5
-40.0,1.337631247036279,7.3125
-40.0,1.325359400733194,8.125
-40.0,1.337631247036279,4.875
-40.0,1.368310862793992,1.625
