-43.5,4.06811704947272,-0.8125
-43.5,4.06811704947272,0.0
-44.0,4.0987966652304335,3.25
-43.0,4.460816131171445,0.8125
-42.0,4.405592822807561,2.4375
-42.0,4.3503695144436785,0.8125
-42.5,4.264466590322082,3.25
-42.5,4.2092432819582,2.4375
-42.0,4.111068511533518,0.0
-42.0,4.031301510563465,4.875
-42.0,4.037437433715008,0.0
-42.0,4.037437433715008,-0.8125
-42.0,4.037437433715008,-0.8125
-42.0,3.9392626632903265,-0.8125
-42.0,3.877903431774901,-0.8125
-41.5,3.724505352986337,8.125
-41.5,3.749049045592507,2.4375
-42.0,3.7981364308048478,1.625
-42.5,3.9085830475326135,-1.625
-42.0,3.8533597391687304,-1.625
-42.0,3.767456815047135,3.25
-42.0,3.5956509668039427,8.125
-42.0,3.6263305825616556,-1.625
-42.0,3.5833791205008576,0.0
-42.0,3.6447383520162835,4.875
-43.0,3.77972866135022,2.4375
-43.0,3.9269908169872414,0.8125
-43.0,3.773592738198677,4.875
-42.5,3.749049045592507,0.8125
-43.0,3.706097583531709,3.25
-42.5,3.706097583531709,1.625
-42.5,3.663146121470911,0.0
-42.5,3.7551849687440497,0.0
-43.0,3.7551849687440497,2.4375
-43.5,3.7429131224409646,1.625
-43.0,3.693825737228624,4.875
-44.0,3.724505352986337,4.875
-44.0,3.761320891895592,-5.6875
-43.5,3.6447383520162835,6.5
-43.5,3.6447383520162835,6.5
-43.5,3.6386024288647407,7.3125
-43.5,3.663146121470911,-0.8125
-43.5,3.6324665057131984,4.875
-44.0,3.6570101983193686,-1.625
-44.0,3.6324665057131984,2.4375
-44.0,3.6447383520162835,3.25
-44.0,3.6570101983193686,0.8125
-44.0,3.6692820446224537,0.8125
-44.0,3.6754179677739964,-1.625
-44.5,3.650874275167826,6.5
-44.5,3.6754179677739964,7.3125
-45.0,3.816544200259475,0.8125
-45.5,3.816544200259475,3.25
-45.5,3.834951969714103,3.25
-45.5,3.865631585471816,0.8125
-45.5,3.902447124381071,-2.4375
-46.0,3.834951969714103,5.6875
-45.5,3.8963112012295285,-0.8125
-46.0,3.9085830475326135,-4.875
-46.0,3.8963112012295285,0.8125
-46.0,3.8840393549264434,3.25
-45.5,3.9085830475326135,4.875
-46.0,3.9822141253511245,0.8125
-46.0,3.9576704327449543,5.6875
-46.0,4.000621894805752,1.625
-45.5,4.006757817957295,0.8125
-46.0,4.006757817957295,1.625
-46.0,4.01902966426038,0.0
-46.0,4.061981126321178,-5.6875
-46.0,4.01902966426038,2.4375
-45.5,4.006757817957295,5.6875
-45.5,4.074252972624263,-0.8125
-46.0,4.074252972624263,1.625
-45.5,4.09266074207889,0.8125
-45.5,4.06811704947272,6.5
-45.5,4.0987966652304335,0.0
-45.5,4.074252972624263,3.25
-45.5,4.0987966652304335,0.0
-45.5,4.166291819897402,-7.3125
-45.5,4.0987966652304335,8.125
-45.5,4.1417481272912315,0.0
-45.5,4.129476280988146,2.4375
-45.5,4.154019973594316,-3.25
-46.0,4.123340357836604,2.4375
-45.5,4.0987966652304335,5.6875
-45.0,4.1417481272912315,1.625
-45.5,4.123340357836604,-0.8125
-45.5,4.0987966652304335,0.8125
-45.0,4.0987966652304335,-0.8125
-45.0,4.080388895775806,1.625
-44.5,4.061981126321178,1.625
-44.5,4.104932588381976,1.625
-44.5,4.09266074207889,0.8125
-44.5,4.049709280018092,2.4375
-44.5,4.06811704947272,0.8125
-44.5,4.09266074207889,0.8125
-44.0,4.123340357836604,-4.875
-44.5,4.074252972624263,2.4375
-44.5,4.0987966652304335,-2.4375
-44.0,4.06811704947272,2.4375
-44.0,4.04357335686655,2.4375
-43.0,3.792000507653305,2.4375
-42.5,3.7551849687440497,2.4375
-42.5,3.7551849687440497,1.625
-42.5,3.6999616603801666,5.6875
-42.5,3.706097583531709,2.4375
-42.5,3.6815538909255388,4.875
-42.0,3.6815538909255388,2.4375
-42.5,3.6754179677739964,2.4375
-42.0,3.6570101983193686,2.4375
-42.5,3.663146121470911,3.25
-42.5,3.693825737228624,1.625
-42.5,3.693825737228624,-0.8125
-42.5,3.6876898140770815,2.4375
-42.5,3.6815538909255388,0.8125
-42.5,3.6754179677739964,2.4375
-42.5,3.6999616603801666,0.0
-43.0,3.6876898140770815,0.8125
-43.0,3.6815538909255388,2.4375
-43.0,3.6754179677739964,5.6875
-43.0,3.7122335066832517,0.8125
-43.5,3.6876898140770815,4.875
-43.5,3.706097583531709,5.6875
-43.5,3.7429131224409646,1.625
-43.5,3.7429131224409646,2.4375
-43.5,3.767456815047135,1.625
-44.0,3.761320891895592,2.4375
-44.0,3.810408277107933,0.0
-44.0,3.8288160465625602,0.0
-44.0,3.822680123411018,2.4375
-44.0,3.847223816017188,0.0
-44.5,3.8717675086233583,3.25
-44.5,3.8963112012295285,-1.625
-44.5,3.9085830475326135,-1.625
-44.5,3.9208548938356986,-0.8125
-45.0,3.9085830475326135,1.625
-44.5,3.9269908169872414,1.625
-45.0,3.9453985864418692,2.4375
-44.5,3.9699422790480394,0.0
-45.0,3.9760782021995817,1.625
-44.5,3.988350048502667,1.625
-45.0,4.031301510563465,0.8125
-44.5,4.037437433715008,0.8125
-44.5,4.0558452031696355,2.4375
-45.0,4.04357335686655,5.6875
-44.5,4.06811704947272,0.0
-44.5,4.104932588381976,-1.625
-44.5,4.129476280988146,0.0
-44.5,4.1417481272912315,-0.8125
-45.0,4.178563666200486,-2.4375
-45.0,4.154019973594316,0.8125
-45.0,4.147884050442774,6.5
-45.0,4.196971435655114,-0.8125
-45.0,4.215379205109742,2.4375
-44.5,4.246058820867455,-1.625
-45.0,4.221515128261284,6.5
-45.0,4.276738436625168,3.25
-45.0,4.3074180523828804,2.4375
-45.0,4.325825821837508,-1.625
-45.0,4.319689898685965,1.625
-45.0,4.344233591292136,2.4375
-45.0,4.331961744989051,4.875
-45.0,4.362641360746763,1.625
-44.5,4.374913207049849,2.4375
-45.0,4.442408361716817,1.625
-45.0,4.491495746929157,4.875
-45.0,4.724660826687775,-0.8125
-44.5,4.914874444385594,4.875
-44.5,5.129631754689584,5.6875
-45.0,5.338253141842031,7.3125
-45.5,5.5100589900852235,-1.625
-45.0,5.5714182216006485,-0.8125
-45.0,5.5714182216006485,3.25
-45.5,5.577554144752192,0.0
-46.5,5.50392306693368,-0.8125
-46.5,5.405748296509,1.625
-47.0,5.338253141842031,4.875
-47.5,5.2768939103266055,2.4375
-47.5,5.21553467881118,4.875
-47.5,5.129631754689584,6.5
-48.0,5.043728830567988,6.5
-47.5,4.988505522204105,3.25
