-36.0,0.0,3.25
-36.5,0.0,5.6875
-36.0,0.006135923151542322,5.6875
-36.0,0.024543692606170175,3.25
-36.0,-0.04295146206079803,9.75
-36.0,0.07976700097005374,0.0
-36.0,-0.04295146206079803,5.6875
-36.5,0.018407769454627854,3.25
-36.0,0.0,5.6875
-36.5,0.018407769454627854,3.25
-36.5,-0.024543692606171064,9.75
-36.0,0.030679615757713385,1.625
-36.0,0.0,4.875
-36.5,0.030679615757712497,2.4375
-36.0,0.0,3.25
-36.0,-0.012271846303084644,5.6875
-36.5,0.0,7.3125
-36.5,0.05522330836388267,-2.4375
-36.0,-0.024543692606170175,1.625
-36.5,0.03681553890925571,-1.625
-36.5,-0.024543692606170175,3.25
-36.5,-0.024543692606171064,8.9375
-36.5,0.04908738521234124,3.25
-36.5,-0.018407769454627854,5.6875
-36.5,0.030679615757712497,2.4375
-36.5,-0.012271846303084644,5.6875
-36.5,-6.240233845118788,0.8125
-36.5,6.234097921967245,8.9375
-36.5,0.024543692606170175,6.5
-36.5,-6.270913460876501,4.875
-36.5,0.006135923151542565,4.875
-36.0,-0.006135923151542565,5.6875
-36.5,0.01227184630308513,6.5
-36.5,0.0,5.6875
-36.5,0.0,6.5
-36.5,0.01227184630308513,6.5
-36.0,-0.006135923151542565,6.5
-36.0,0.018407769454627694,7.3125
-36.0,0.0,4.875
-36.5,0.018407769454627694,5.6875
-36.5,0.012271846303085122,3.25
-36.5,-0.012271846303085122,6.5
-36.0,0.012271846303085122,5.6875
-36.0,0.02454369260617026,2.4375
-36.0,-0.018407769454627687,7.3125
-36.0,0.02454369260617026,3.25
-36.0,-0.006135923151542572,8.125
-36.0,0.006135923151542572,7.3125
-36.0,0.03067961575771283,4.875
-36.0,-0.012271846303085143,8.9375
-36.0,0.042951462060797974,4.875
-36.0,-0.012271846303085143,6.5
-36.0,0.02454369260617026,5.6875
-35.5,-0.006135923151542572,5.6875
-35.5,0.012271846303085143,4.875
-36.0,0.05522330836388306,1.625
-36.0,0.006135923151542572,2.4375
-36.0,-0.018407769454627687,8.9375
-35.5,0.006135923151542572,8.125
-36.0,0.04295146206079792,3.25
-36.0,-0.012271846303085088,6.5
-35.5,0.036815538909255374,0.0
-35.5,0.006135923151542544,3.25
-35.5,0.006135923151542599,5.6875
-35.5,0.018407769454627687,5.6875
-36.0,0.0,6.5
-35.5,0.02454369260617023,3.25
-35.5,-0.006135923151542544,8.9375
-35.5,0.006135923151542544,8.9375
-35.5,0.024543692606170286,6.5
-35.5,0.012271846303085143,9.75
-35.5,0.03067961575771283,4.875
-35.5,0.006135923151542544,6.5
-35.5,0.02454369260617023,4.875
-35.5,0.012271846303085143,4.875
-36.0,-0.02454369260617023,9.75
-35.5,0.036815538909255374,8.9375
-36.0,0.006135923151542544,7.3125
-35.5,-0.006135923151542544,13.8125
-35.5,0.04908738521234052,4.875
-36.0,-0.006135923151542544,8.9375
-36.0,0.006135923151542544,8.9375
-35.5,0.01840776945462763,5.6875
-36.0,0.012271846303085199,8.9375
-35.5,0.012271846303085088,7.3125
-36.0,0.006135923151542544,5.6875
-36.0,-0.006135923151542544,9.75
-36.0,0.0674951546669682,1.625
-35.5,-0.055223308363883006,10.5625
-36.0,0.03067961575771283,5.6875
-36.0,0.006135923151542544,8.9375
-36.0,0.006135923151542544,9.75
-36.0,0.05522330836388312,1.625
-36.0,-0.036815538909255374,8.125
-35.5,0.03067961575771272,3.25
-36.0,0.04295146206079803,2.4375
-36.0,-0.04908738521234057,9.75
-36.0,0.036815538909255374,6.5
-36.0,0.012271846303085199,7.3125
-36.5,0.006135923151542544,7.3125
-36.5,-0.018407769454627743,8.125
-36.5,0.036815538909255374,3.25
-36.0,-0.012271846303085088,8.125
-36.5,0.018407769454627743,6.5
-36.0,0.006135923151542544,6.5
-36.5,0.03067961575771283,4.875
-36.5,0.012271846303085088,2.4375
-36.5,0.006135923151542544,5.6875
-36.5,0.036815538909255485,-0.8125
-36.0,-0.024543692606170286,4.875
-36.5,0.0,3.25
-36.0,0.0,6.5
-36.5,0.01840776945462763,4.875
-36.5,-0.01840776945462763,8.125
-36.5,0.04295146206079792,2.4375
-36.5,-0.012271846303085088,4.875
-36.0,0.0,3.25
-36.0,0.006135923151542544,5.6875
-36.0,0.01840776945462763,1.625
-36.0,0.024543692606170286,0.8125
-36.0,-0.03067961575771283,5.6875
-36.0,0.012271846303085199,6.5
-36.5,0.0,4.875
-36.5,0.03067961575771283,2.4375
-36.0,-0.012271846303085199,3.25
-36.5,-0.03067961575771283,7.3125
-36.5,0.036815538909255374,0.8125
-36.5,0.006135923151542655,5.6875
-36.5,0.006135923151542544,3.25
-36.5,0.006135923151542544,5.6875
-36.5,0.006135923151542544,3.25
-36.5,-0.01840776945462763,8.125
-36.5,0.012271846303085088,6.5
-36.0,-0.006135923151542544,8.9375
-36.5,-0.012271846303085199,8.9375
-36.5,0.04908738521234057,4.875
-36.5,0.0,4.875
-36.5,0.01840776945462763,5.6875
-36.0,-0.024543692606170175,7.3125
-36.5,0.012271846303085088,8.125
-36.0,0.018407769454627743,4.875
-36.5,0.006135923151542544,3.25
-36.5,-0.024543692606170286,8.9375
-36.0,0.03067961575771283,3.25
-36.5,-0.012271846303085088,8.125
-36.0,-0.006135923151542655,8.125
-36.5,0.03067961575771283,5.6875
-36.0,0.006135923151542544,2.4375
-36.5,-0.01840776945462763,9.75
-36.5,0.036815538909255485,2.4375
-36.5,-0.03067961575771294,10.5625
-36.5,0.03067961575771294,4.875
-36.5,0.01840776945462763,3.25
-36.5,-0.04908738521234057,10.5625
-36.0,0.024543692606170175,7.3125
-36.5,0.006135923151542766,5.6875
-36.0,0.0,7.3125
-36.5,0.012271846303085088,4.875
-36.5,0.024543692606170175,-0.8125
-36.5,-0.01840776945462763,6.5
-36.5,0.024543692606170175,4.875
-36.5,-0.05522330836388312,11.375
-36.5,0.04908738521234057,4.875
-36.5,0.0,5.6875
-36.5,-0.04295146206079803,14.625
-36.0,0.03067961575771294,6.5
-36.5,-0.006135923151542544,8.125
-36.5,0.024543692606170175,6.5
-36.5,-0.006135923151542544,8.125
-36.5,0.012271846303085088,6.5
-36.0,0.018407769454627854,4.875
-36.5,0.01840776945462763,1.625
-36.5,-0.024543692606170397,3.25
-36.5,0.01227184630308531,5.6875
-37.0,-0.006135923151542544,6.5
-36.5,0.0,8.125
-36.5,0.0,8.9375
-36.5,0.03067961575771272,4.875
-36.5,-0.01840776945462763,8.125
-36.5,0.04295146206079781,2.4375
-37.0,0.0,1.625
-37.0,0.01227184630308531,4.875
-37.0,-0.01227184630308531,7.3125
-37.0,0.006135923151542766,4.875
-37.0,-0.018407769454627854,7.3125
-37.0,0.06135923151542566,0.0
-37.0,-0.01840776945462763,4.875
-37.5,-0.012271846303085088,8.125
-37.0,-0.018407769454627854,12.1875
-37.5,0.01227184630308531,10.5625
-37.5,0.04295146206079781,3.25
-37.5,0.018407769454627854,4.875
-37.0,0.0,4.875
-37.5,-0.024543692606170397,9.75
-38.0,0.03067961575771294,5.6875
-37.5,0.03067961575771272,2.4375
-38.0,0.0,2.4375
-38.0,0.006135923151542544,3.25
-38.5,0.018407769454627854,1.625
-38.5,-0.03067961575771294,8.125
-38.5,0.0,8.9375
-38.5,0.05522330836388312,2.4375
-39.0,-0.01840776945462763,5.6875
-39.0,0.0,6.5
-39.0,0.03681553890925526,1.625
-39.0,-0.04908738521234057,9.75
-39.0,0.01227184630308531,7.3125
-39.0,-0.006135923151542544,7.3125
-39.5,-0.04295146206079803,11.375
-39.5,0.006135923151542544,8.9375
-39.5,-0.012271846303085088,4.875
-39.5,-0.018407769454627854,5.6875
-39.5,0.0,4.875
-40.0,-0.07976700097005329,10.5625
-40.0,-0.01840776945462763,8.9375
-40.0,0.0,4.875
-40.0,-0.01840776945462763,1.625
-40.0,-0.05522330836388312,1.625
-40.5,-0.01840776945462763,0.0
-40.5,-0.08590292412159606,3.25
-40.5,-0.0674951546669682,8.125
-40.5,-0.036815538909255374,5.6875
-41.0,-0.036815538909255374,0.0
-41.0,-0.11044661672776612,8.125
-40.5,-0.0797670009700534,10.5625
-40.5,-0.04295146206079792,6.5
-40.5,-0.07976700097005335,3.25
-40.0,-0.036815538909255374,-2.4375
-40.0,-0.12271846303085127,1.625
-39.5,-0.08590292412159595,5.6875
-39.5,-0.06135923151542563,0.8125
-40.0,-0.0859029241215959,1.625
-39.5,-0.07976700097005335,5.6875
-39.5,6.19728238305799,4.875
-39.0,-0.012271846303084644,-0.8125
-38.5,-0.1349903093339364,14.625
-38.5,0.024543692606170175,2.4375
-38.0,-0.04295146206079803,0.8125
-37.5,-0.04295146206079803,1.625
-37.5,-0.05522330836388267,6.5
-37.5,-0.03681553890925571,2.4375
-37.0,-0.006135923151542322,-1.625
-37.0,-0.024543692606170175,0.8125
-37.0,-0.030679615757713385,-1.625
-36.5,-0.04295146206079803,2.4375
-36.0,-0.030679615757712497,1.625
-36.0,-0.04908738521234035,4.875
-36.0,0.0,2.4375
-36.0,-0.04908738521234035,3.25
-35.5,0.006135923151542322,0.8125
-36.0,-0.012271846303085532,1.625
-35.5,-0.024543692606170175,0.0
-35.5,-0.030679615757712497,1.625
-35.0,-0.024543692606170175,3.25
-35.5,-0.030679615757713385,6.5
-35.0,0.012271846303085532,2.4375
-35.0,-0.030679615757712497,3.25
-35.0,-0.018407769454627854,6.5
-35.0,0.006135923151542322,0.8125
-35.0,-0.012271846303084644,0.8125
-35.0,-0.012271846303085532,0.8125
-34.5,-0.05522330836388267,8.9375
-34.5,0.061359231515424995,-1.625
-35.0,-0.024543692606170175,0.8125
-34.5,0.0,0.0
-34.5,-0.03681553890925482,5.6875
-35.0,0.012271846303084644,1.625
-34.5,-0.006135923151542322,1.625
-34.5,-0.006135923151542322,2.4375
-34.5,-0.030679615757713385,6.5
-34.0,0.03681553890925571,-1.625
-34.0,-0.05522330836388356,5.6875
-34.0,0.024543692606170175,2.4375
-34.0,-0.024543692606170175,5.6875
-34.0,0.012271846303085532,3.25
-34.0,0.030679615757712497,-0.8125
-34.0,-0.012271846303084644,-1.625
-34.0,-0.024543692606170175,2.4375
-34.0,0.012271846303084644,-1.625
-34.0,0.012271846303085532,-1.625
-34.0,-0.024543692606170175,-0.8125
-33.5,-0.012271846303085532,0.0
-34.0,-0.024543692606170175,1.625
-33.5,-0.024543692606170175,6.5
-34.0,0.018407769454627854,5.6875
-33.5,-0.018407769454627854,6.5
-33.5,-0.006135923151542322,5.6875
-33.5,-0.018407769454627854,8.9375
-33.5,-0.006135923151542322,8.9375
-33.0,-0.00613592315154321,8.125
-33.5,-0.006135923151542322,7.3125
-33.0,0.030679615757712497,2.4375
-33.5,-0.018407769454626965,4.875
-33.0,-0.012271846303085532,3.25
-33.0,0.006135923151542322,1.625
-32.5,-0.012271846303084644,1.625
-32.5,-0.018407769454627854,1.625
-32.5,-0.024543692606170175,4.875
-32.5,-0.018407769454627854,4.875
-32.5,0.018407769454627854,0.0
-32.0,-0.04908738521234035,2.4375
-32.0,-0.00613592315154321,3.25
-32.0,-0.018407769454626965,3.25
-32.0,-0.018407769454627854,4.875
-31.5,-0.03681553890925571,4.875
-31.5,-0.006135923151542322,3.25
-31.5,-0.012271846303085532,1.625
-31.0,-0.024543692606170175,3.25
-31.5,-0.006135923151542322,0.8125
-31.0,-0.04295146206079803,2.4375
-31.0,0.0,-3.25
-31.0,-0.04295146206079803,0.8125
-31.0,-0.018407769454627854,0.0
-30.5,-0.024543692606170175,-0.8125
-30.5,-0.018407769454627854,1.625
-30.5,-0.024543692606170175,0.0
-30.0,-0.024543692606170175,1.625
-30.5,-0.018407769454627854,0.8125
-30.0,-0.012271846303084644,-0.8125
-30.0,-0.012271846303085532,-3.25
-30.0,-0.04295146206079803,0.0
-30.0,-0.012271846303084644,0.0
-30.0,-0.018407769454627854,-0.8125
-30.0,-0.018407769454627854,-0.8125
-30.0,-0.012271846303084644,-1.625
-30.0,-0.04295146206079803,0.8125
-30.0,0.0,-1.625
-29.5,0.018407769454626965,-5.6875
-29.5,-0.030679615757712497,-3.25
-29.5,-0.030679615757712497,0.0
-29.0,0.006135923151542322,-4.875
-29.0,-0.030679615757712497,-1.625
-29.0,-0.024543692606170175,-0.8125
-29.0,-0.00613592315154321,0.8125
-29.0,-0.006135923151542322,-1.625
-29.0,-0.018407769454627854,-0.8125
-29.0,-0.012271846303084644,-0.8125
-29.0,-0.012271846303085532,-1.625
-28.5,-0.006135923151542322,-2.4375
-29.0,-0.030679615757713385,0.0
-28.5,0.00613592315154321,-1.625
-28.5,-0.024543692606170175,0.8125
-28.5,0.0,-1.625
-28.5,-0.012271846303085532,-2.4375
-28.5,-0.018407769454627854,0.8125
-28.5,-0.012271846303084644,0.8125
-28.0,0.0,-1.625
-28.0,-0.018407769454627854,-0.8125
-28.5,-0.006135923151542322,-0.8125
-28.0,-0.024543692606170175,1.625
-28.0,0.0,-0.8125
-28.0,0.0,-2.4375
-28.0,-0.018407769454627854,-1.625
-28.0,-0.018407769454627854,0.0
-28.0,-0.012271846303085532,0.8125
-28.0,-0.012271846303084644,0.0
-28.0,-0.012271846303085532,-0.8125
-27.5,0.0,-1.625
-28.0,-0.006135923151542322,-1.625
-28.0,-0.030679615757712497,1.625
-28.0,-0.00613592315154321,0.0
-27.5,0.0,-0.8125
-27.5,-0.018407769454627854,1.625
-27.5,-0.018407769454626965,0.8125
-27.5,-0.00613592315154321,0.0
-27.5,-0.012271846303084644,-1.625
-27.5,-0.012271846303085532,0.8125
-27.5,-0.012271846303084644,0.0
-27.5,-0.012271846303085532,0.8125
-27.5,-0.018407769454627854,1.625
-27.5,-0.006135923151542322,0.0
-27.5,0.0,-0.8125
-27.5,-0.012271846303084644,0.0
-27.5,-0.00613592315154321,0.0
-28.0,0.0,-4.875
-27.5,-0.006135923151542322,-1.625
-28.0,-0.018407769454627854,0.0
-27.5,-0.006135923151542322,-0.8125
-27.5,-0.012271846303085532,0.8125
-27.5,0.0,-0.8125
-27.5,0.0,-1.625
-27.5,-0.018407769454626965,0.8125
-27.5,-0.00613592315154321,-1.625
-27.5,-0.012271846303084644,0.0
-27.5,-0.00613592315154321,0.0
-27.5,0.0,-0.8125
-28.0,0.00613592315154321,-5.6875
-28.0,-0.018407769454627854,-2.4375
-28.0,-0.018407769454627854,-1.625
-28.0,0.006135923151542322,-1.625
-28.0,-0.012271846303084644,-1.625
-27.5,-0.006135923151542322,-0.8125
-28.0,0.006135923151542322,-4.875
-28.0,-0.018407769454627854,-1.625
-28.0,-0.012271846303085088,-1.625
-28.0,-0.006135923151542766,-0.8125
-28.0,-0.006135923151542322,-0.8125
-28.0,-0.006135923151542766,-1.625
-28.0,0.0,-0.8125
-28.0,-0.006135923151542322,-1.625
-28.0,-0.012271846303085088,0.0
-28.0,0.006135923151542322,-2.4375
-28.0,0.0,-3.25
-28.5,-0.012271846303085088,-0.8125
-28.0,-0.006135923151542322,-0.8125
-28.0,0.0,-0.8125
-28.0,0.006135923151542322,-2.4375
-28.0,-0.012271846303085088,-1.625
-28.0,0.0,-2.4375
-28.0,0.0,-0.8125
-28.0,-0.006135923151542766,-2.4375
-28.0,0.0,-2.4375
-28.0,-0.006135923151542322,-1.625
-28.0,-0.006135923151542766,-0.8125
-28.0,0.006135923151542766,-3.25
-28.0,-0.012271846303085088,-0.8125
-28.0,0.006135923151542322,-2.4375
-28.0,-0.006135923151542322,-2.4375
-28.0,0.0,-2.4375
-28.0,-0.006135923151542766,-1.625
-28.0,0.012271846303085088,-4.875
-28.0,-0.01840776945462741,-1.625
-28.0,-0.006135923151542766,-0.8125
-28.5,0.0,-0.8125
-28.0,-0.006135923151542322,-0.8125
-28.0,0.0,-0.8125
-28.0,0.0,-0.8125
-28.0,-0.006135923151542766,-0.8125
-28.0,-0.03067961575771294,3.25
-28.0,0.02454369260617062,-0.8125
-28.0,0.006135923151542322,-2.4375
-28.0,-0.006135923151542322,-1.625
-28.0,-0.006135923151542766,-1.625
-28.0,-0.012271846303085088,0.8125
-28.0,0.0,-0.8125
-28.0,0.006135923151542322,-1.625
-28.0,0.0,-3.25
-28.0,-0.01840776945462741,-0.8125
-28.0,-0.006135923151542766,-0.8125
-28.0,-0.006135923151542322,0.8125
-28.0,0.0,-1.625
-28.0,-0.03067961575771294,1.625
-28.0,0.0,1.625
-28.0,0.0,0.0
-28.0,-0.006135923151542766,1.625
-28.0,0.012271846303085532,-0.8125
-28.0,-0.018407769454627854,1.625
-27.5,-0.006135923151542766,0.8125
-27.5,-0.006135923151542322,0.8125
-28.0,-0.012271846303085088,1.625
-27.5,0.0,0.8125
-27.5,-0.018407769454627854,2.4375
-27.5,0.018407769454627854,-1.625
-27.5,-0.02454369260617062,0.8125
-27.5,0.006135923151542766,0.0
-27.5,-0.012271846303085088,0.0
-27.5,0.0,-0.8125
-27.5,-0.006135923151542766,-0.8125
-28.0,-0.01840776945462741,1.625
-27.5,0.0,1.625
-27.5,-0.012271846303085088,2.4375
-28.0,-0.006135923151542766,0.8125
-27.5,0.006135923151542766,0.0
-27.5,-0.012271846303085088,1.625
-28.0,0.0,0.0
-27.5,-0.006135923151542766,-0.8125
-28.0,-0.012271846303085088,1.625
-28.0,-0.018407769454627854,1.625
-27.5,0.006135923151542766,0.8125
-27.5,-0.012271846303085088,0.8125
-27.5,-0.012271846303085088,2.4375
-27.5,0.0,0.0
-27.5,-0.012271846303085088,3.25
-27.5,0.0,1.625
-27.5,-0.006135923151542766,0.8125
-27.5,0.0,0.0
-27.5,-0.018407769454627854,2.4375
-28.0,0.006135923151542766,0.0
-27.5,-0.012271846303085088,0.8125
-27.5,0.0,0.0
-27.5,-0.012271846303085088,2.4375
-27.5,0.006135923151542322,0.8125
-28.0,0.0,1.625
-27.5,0.0,1.625
-27.5,-0.006135923151542322,2.4375
-27.5,0.006135923151542322,0.8125
-27.5,0.006135923151542766,0.0
-28.0,0.0,0.8125
-27.5,-0.006135923151542766,2.4375
-27.5,0.012271846303085088,-0.8125
-28.0,-0.012271846303085088,0.8125
-27.5,0.0,0.0
-27.5,-0.006135923151542322,0.8125
-27.5,0.006135923151542322,-0.8125
-27.5,-0.006135923151542322,0.0
-27.5,-0.012271846303085088,1.625
-27.5,-0.006135923151542766,2.4375
-27.5,0.0,0.8125
-27.5,0.0,0.0
-27.5,0.0,0.8125
-27.5,-0.006135923151542322,1.625
-27.5,-0.006135923151542766,1.625
-27.5,0.0,0.0
-27.5,-0.006135923151542766,0.8125
-27.5,0.006135923151542766,0.0
-27.5,-0.006135923151542766,1.625
-27.5,-0.006135923151542322,1.625
-27.5,0.0,-0.8125
-27.5,0.0,0.8125
-27.5,-0.018407769454627854,3.25
-28.0,0.018407769454627854,0.0
-28.0,-0.012271846303085088,3.25
-27.5,-0.006135923151542766,1.625
-27.5,0.006135923151542766,0.8125
-27.5,-0.006135923151542766,1.625
-27.5,0.012271846303085088,0.8125
-27.5,0.0,0.0
-27.5,0.0,0.0
-27.5,-0.006135923151542322,1.625
-27.5,0.012271846303085088,0.8125
-27.5,-0.018407769454627854,1.625
-27.5,0.0,1.625
-27.5,0.024543692606170175,-1.625
-27.5,-0.006135923151542322,-0.8125
-27.5,-0.006135923151542766,0.8125
-27.5,0.0,0.8125
-27.5,0.012271846303085088,-0.8125
-27.5,-0.01840776945462741,1.625
-27.5,0.024543692606170175,-1.625
-27.5,-0.018407769454627854,1.625
-27.5,0.012271846303085088,-0.8125
-27.5,-0.012271846303085088,0.8125
-27.5,0.0,1.625
-27.5,0.006135923151542766,0.8125
-27.5,0.006135923151542322,0.8125
-27.5,-0.01840776945462741,2.4375
-27.5,0.01840776945462741,0.8125
-27.5,0.006135923151542766,0.8125
-27.5,0.006135923151542766,-0.8125
-27.5,-0.012271846303085532,2.4375
-27.5,0.0,0.8125
-27.5,0.012271846303085532,0.0
-28.0,0.006135923151542322,0.8125
-27.5,-0.006135923151542322,1.625
-27.5,0.006135923151542322,2.4375
-27.5,0.20862138715244738,3.25
-28.0,0.03681553890925526,5.6875
-28.0,0.07976700097005329,0.8125
-28.0,0.06135923151542588,0.0
-27.5,0.07363107781851097,0.8125
-27.5,0.0674951546669682,0.8125
-27.5,0.061359231515424995,1.625
-27.5,0.05522330836388356,2.4375
-27.5,0.07363107781851053,1.625
-28.0,0.04295146206079803,2.4375
-27.5,0.08590292412159606,-4.875
-28.0,0.03681553890925482,0.8125
-28.0,0.018407769454627854,7.3125
-28.0,0.07363107781851141,2.4375
-28.5,0.0674951546669682,-1.625
-28.5,0.030679615757712497,-0.8125
-29.0,0.012271846303084644,2.4375
-29.0,0.030679615757713385,1.625
-29.0,0.030679615757712497,-1.625
-29.0,0.024543692606170175,-1.625
-29.0,0.012271846303085532,-1.625
-29.0,0.024543692606170175,-1.625
-29.0,0.006135923151542322,0.8125
-29.0,0.024543692606170175,0.0
-29.0,0.012271846303085532,0.8125
-29.0,0.03681553890925482,-0.8125
-29.5,0.0,1.625
-29.5,0.024543692606171064,0.8125
-29.0,0.030679615757712497,0.8125
-29.0,0.030679615757712497,0.0
-29.5,0.00613592315154321,1.625
-29.5,0.030679615757712497,2.4375
-29.5,0.04908738521234035,-2.4375
-29.5,0.006135923151542322,0.8125
-29.5,0.012271846303085532,3.25
-30.0,0.03681553890925571,0.0
-30.0,0.018407769454626965,0.0
-30.0,0.018407769454627854,0.0
-30.0,0.00613592315154321,1.625
-30.0,0.030679615757712497,-1.625
-30.0,-0.018407769454627854,2.4375
-30.0,0.018407769454627854,1.625
-30.5,0.024543692606170175,-2.4375
-30.0,-0.006135923151542322,2.4375
-30.0,0.006135923151542322,0.8125
-30.5,0.018407769454627854,1.625
-30.5,0.006135923151542322,0.8125
-30.5,-0.006135923151542322,2.4375
-30.5,0.0,3.25
-30.5,0.006135923151542322,2.4375
-30.5,0.018407769454627854,-0.8125
-30.5,0.006135923151542322,-0.8125
-30.5,0.0,0.0
-30.5,0.006135923151542322,-0.8125
-30.5,0.0,-0.8125
-30.5,0.00613592315154321,1.625
-30.5,-0.012271846303085532,3.25
-30.5,0.012271846303085532,2.4375
-31.0,-0.018407769454627854,4.875
-30.5,0.006135923151542322,3.25
-30.5,0.006135923151542322,1.625
-30.5,0.00613592315154321,1.625
-30.5,-0.00613592315154321,2.4375
-30.5,0.00613592315154321,1.625
-31.0,-0.012271846303085532,4.875
-30.5,-0.006135923151542322,5.6875
-30.5,0.006135923151542322,2.4375
-30.5,0.0,5.6875
-30.5,0.03681553890925571,-1.625
-30.5,-0.012271846303085532,-0.8125
-30.5,-0.018407769454627854,2.4375
-30.5,0.0,0.8125
-30.5,-0.024543692606170175,3.25
-30.5,0.012271846303085532,1.625
-31.0,0.006135923151542322,0.0
-30.5,0.0,1.625
-30.5,-0.006135923151542322,2.4375
-30.5,0.024543692606170175,-1.625
-30.5,-0.024543692606170175,1.625
-30.5,-0.018407769454627854,4.875
-30.5,0.018407769454627854,2.4375
-30.5,0.012271846303084644,0.8125
-30.5,-0.006135923151542322,3.25
-30.5,0.024543692606170175,0.0
-30.5,0.018407769454627854,-0.8125
-30.5,-0.018407769454627854,1.625
-31.0,0.012271846303085532,1.625
-30.5,0.006135923151542322,1.625
-31.0,0.0,2.4375
-31.0,0.012271846303085532,0.8125
-31.0,-0.012271846303085532,3.25
-31.0,0.012271846303085532,5.6875
-31.0,0.018407769454626965,1.625
-31.0,0.018407769454627854,0.0
-31.0,0.012271846303085532,0.8125
-31.0,-0.03681553890925571,7.3125
-31.5,0.04908738521234035,-0.8125
-31.5,0.00613592315154321,0.8125
-31.5,-0.00613592315154321,4.875
-31.5,0.05522330836388356,-2.4375
-31.5,0.012271846303084644,-0.8125
-32.0,0.00613592315154321,2.4375
-32.0,0.006135923151542322,0.8125
-32.0,0.012271846303084644,0.8125
-32.0,-0.012271846303084644,1.625
-32.0,0.0,1.625
-32.0,-0.006135923151542322,1.625
-32.0,-0.018407769454627854,3.25
-31.5,0.030679615757712497,-2.4375
-32.0,-0.006135923151542322,-2.4375
-32.0,0.024543692606170175,-1.625
-32.0,-0.030679615757712497,4.875
-32.5,0.04295146206079803,-0.8125
-32.5,0.006135923151542322,-0.8125
-32.5,-0.018407769454627854,0.8125
-32.0,-0.012271846303085532,2.4375
-32.0,0.018407769454627854,-1.625
-32.0,-0.024543692606170175,0.0
-32.5,-0.006135923151542322,2.4375
-32.0,0.030679615757712497,-0.8125
-32.0,-0.012271846303084644,0.8125
-32.5,0.0,1.625
-33.0,0.0,3.25
-32.5,0.030679615757712497,0.0
-32.5,0.0,0.0
-33.0,0.030679615757712497,0.8125
-33.0,0.0,0.8125
-33.0,0.024543692606171064,0.0
-33.5,0.03681553890925482,-0.8125
-33.5,0.018407769454627854,-4.875
-33.5,0.006135923151542322,-0.8125
-34.0,0.018407769454627854,-1.625
-34.0,0.0,0.0
