-41.5,3.988350048502667,-0.8125
-41.5,4.025165587411922,-3.25
-41.0,4.0558452031696355,-3.25
-40.5,4.28287435977671,1.625
-41.0,4.331961744989051,1.625
-40.5,4.387185053352934,-2.4375
-41.0,4.387185053352934,0.0
-40.5,4.411728745959104,-0.8125
-41.0,4.454680208019902,-3.25
-41.0,4.448544284868359,-2.4375
-41.0,4.466952054322987,-0.8125
-41.0,4.479223900626073,-1.625
-41.0,4.454680208019902,2.4375
-41.0,4.485359823777615,-1.625
-41.5,4.4976316700806995,-0.8125
-41.5,4.534447208989955,-3.25
-41.0,4.509903516383785,2.4375
-41.0,4.558990901596125,-0.8125
-41.0,4.589670517353839,-3.25
-41.0,4.589670517353839,-4.875
-41.0,4.571262747899211,-0.8125
-41.0,4.589670517353839,-1.625
-41.0,4.595806440505381,-1.625
-41.0,4.620350133111551,-0.8125
-41.0,4.632621979414636,-1.625
-41.5,4.632621979414636,-1.625
-41.0,4.632621979414636,-1.625
-41.0,4.509903516383785,-0.8125
-40.5,4.405592822807561,-3.25
-40.0,4.362641360746763,-2.4375
-40.0,4.344233591292136,-2.4375
-39.5,4.319689898685965,-1.625
-39.5,4.3074180523828804,0.8125
-38.5,4.295146206079795,-0.8125
-38.5,4.295146206079795,-1.625
-38.0,4.276738436625168,-1.625
-38.0,4.227651051412827,-0.8125
-37.5,4.246058820867455,-2.4375
-37.5,4.252194744018997,-2.4375
