-54.5,0.0,-12.1875
-54.5,0.1472621556370215,-34.125
-54.0,-0.3313398501832987,27.625
-54.5,0.1963495408493623,-6.5
-54.0,0.03681553890925526,6.5
-54.5,0.0,1.625
-54.5,0.1349903093339364,-26.0
-54.0,0.03067961575771294,-33.3125
-54.5,-0.47246608266877743,48.8125
-54.5,0.1656699250916489,-0.8125
-54.0,0.1349903093339364,-9.75
-54.0,0.10431069357622391,-11.375
-53.0,0.11658253987930856,-16.25
-55.5,-0.3742913122440963,5.6875
-53.5,0.2883883881225002,-41.5
-53.0,-0.47860200582031975,52.0625
-54.5,0.2147573103039897,24.375
-55.0,0.3067961575771281,-35.75
-54.5,-0.5767767762450009,60.1875
-54.0,0.4417864669110645,-15.4375
-54.0,0.006135923151542766,-18.6875
-54.0,-0.1840776945462772,8.9375
-53.5,0.28838838812250067,-34.125
-53.5,-0.2270291566070748,18.6875
-55.0,-0.1288543861823941,15.4375
-53.5,-0.08590292412159561,42.3125
-55.0,0.006135923151542322,36.5625
-54.5,0.22089323345553247,8.9375
-54.0,-0.012271846303085088,10.5625
-55.5,0.41110685115335155,-50.4375
-54.0,-0.558369006790373,18.6875
-55.0,0.1472621556370215,6.5
-54.5,-0.05522330836388312,27.625
-54.0,0.05522330836388312,12.1875
-54.0,-0.08590292412159606,15.4375
-54.0,0.2761165418194156,-29.25
-54.0,-0.006135923151542766,-11.375
-53.5,0.22089323345553247,-60.1875
-53.5,-0.39269908169872414,-10.5625
-55.5,-0.31293208072867085,61.0
-54.0,0.36815538909255396,-18.6875
-54.0,0.04908738521234035,-7.3125
-54.5,0.12271846303085132,-30.875
-53.0,-0.2822524649709579,1.625
-53.0,0.30066023442558576,-23.5625
-54.0,-0.25770877236478773,5.6875
-54.0,-0.049087385212340795,8.125
-54.5,0.20248546400090506,-40.6875
-53.0,-0.22702915660707523,17.0625
-55.0,0.09203884727313882,5.6875
-54.0,0.01840776945462741,0.8125
-54.0,-0.14112623248547873,14.625
-55.0,0.3742913122440963,-32.5
-54.0,-0.5645049299419158,51.25
-53.5,0.06135923151542544,41.5
-54.0,0.1349903093339364,15.4375
-54.0,-0.17180584824319167,51.25
-53.5,0.17794177139473444,26.0
-55.0,0.4417864669110645,-37.375
-55.0,-0.4663301595172351,23.5625
-54.0,0.23316507975861755,-25.1875
-54.0,-0.3497476196379261,28.4375
-54.5,0.20862138715244738,0.0
-53.5,0.14112623248547873,2.4375
-54.5,-0.34361169648638334,37.375
-54.0,0.26384469551633005,1.625
-53.5,-0.25157284921324496,34.9375
-54.0,0.38042723539563905,-25.1875
-54.0,-0.24543692606170264,30.875
-54.5,-0.1472621556370215,43.9375
-54.0,0.33133985018329826,-15.4375
-54.5,-0.14112623248547873,5.6875
-55.0,0.09203884727313838,6.5
-54.5,-0.2270291566070748,34.9375
-54.5,0.31906800388021317,-26.0
-54.0,0.12271846303085132,-24.375
-54.0,0.024543692606170175,-35.75
-54.0,-0.4417864669110645,26.0
-54.5,0.16566992509164935,13.8125
-53.5,0.06135923151542544,-8.9375
-54.0,0.06135923151542544,-3.25
-54.5,-0.11658253987930856,-4.875
-54.5,0.22089323345553247,-26.0
-54.0,0.1656699250916489,-44.75
-54.5,-0.6504078540635114,38.1875
-54.0,0.34361169648638334,-8.125
-54.5,-0.07976700097005329,16.25
-55.0,-0.12885438618239364,-9.75
-54.5,0.0674951546669682,9.75
-54.5,-0.04295146206079803,-5.6875
-54.5,-0.024543692606170175,8.125
-54.5,-0.4233786974564371,61.8125
-55.5,0.2699806186678728,53.6875
-54.0,0.19021361769781953,-3.25
-53.5,0.012271846303085088,-5.6875
-54.5,0.08590292412159606,-26.0
-54.0,-0.116582539879309,20.3125
-55.5,0.1349903093339364,13.8125
-53.5,-0.3497476196379261,36.5625
-54.5,0.3620194659410112,-27.625
-54.5,-0.337475773334841,24.375
-54.0,0.1349903093339364,9.75
-55.0,0.15953400194010703,-16.25
-53.5,-0.14726215563702194,8.9375
-55.5,0.3067961575771285,-27.625
-55.0,-0.018407769454627854,-39.875
-55.0,-0.2822524649709579,14.625
-54.5,-0.2761165418194156,43.9375
-53.5,0.36201946594101164,-15.4375
-54.0,0.1656699250916489,-24.375
-54.5,-0.10431069357622347,8.9375
-53.5,-0.12885438618239364,17.0625
-54.5,-0.12271846303085132,26.8125
-55.5,0.12885438618239364,16.25
-54.0,0.2024854640009046,-17.0625
-54.0,0.03681553890925526,-31.6875
-55.5,-0.3497476196379261,16.25
-55.5,0.10431069357622391,9.75
-54.0,-0.03681553890925571,5.6875
-54.0,0.11044661672776623,6.5
-53.5,-0.2699806186678728,18.6875
-53.0,0.3497476196379261,-20.3125
-54.5,-0.4172427743048943,48.8125
-55.5,0.3558835427894689,3.25
-54.5,-0.3190680038802136,52.875
-54.0,0.06135923151542588,30.875
-55.5,0.25157284921324496,-4.875
-56.0,0.3558835427894689,-60.1875
-55.0,-0.6994952392758522,40.6875
-55.0,0.3497476196379261,-26.0
-54.5,0.11044661672776623,-10.5625
-54.5,-0.116582539879309,5.6875
-54.5,0.006135923151542766,-8.9375
-55.0,0.23316507975861755,-32.5
-55.0,-0.22702915660707523,4.875
-54.0,0.10431069357622391,-34.9375
-55.0,-0.07976700097005329,-10.5625
-55.0,0.0674951546669682,-10.5625
-53.5,-0.23316507975861755,10.5625
-55.5,0.25157284921324496,-31.6875
-54.5,-0.01840776945462741,-15.4375
-55.0,0.33133985018329826,-60.1875
-55.0,-0.6565437772150542,25.1875
-56.0,0.006135923151542322,31.6875
-54.0,0.2638446955163305,-5.6875
-54.5,-0.09817477042468115,-16.25
-55.5,0.2270291566070748,-23.5625
-55.0,-0.12271846303085132,-24.375
-53.5,0.10431069357622347,-26.8125
-53.0,0.05522330836388312,-23.5625
-55.0,-0.26384469551633005,1.625
-55.0,-0.07976700097005329,13.8125
-54.0,0.1349903093339364,1.625
-54.5,-0.2147573103039897,28.4375
-54.0,0.4049709280018092,-37.375
-54.0,-0.17794177139473444,5.6875
-55.0,-0.1288543861823941,17.0625
-54.5,0.28225246497095835,-13.8125
-53.5,0.09203884727313838,-23.5625
-55.0,-0.15339807878856426,-9.75
-53.5,-0.19634954084936185,21.125
-53.5,0.11658253987930856,26.0
-54.0,-0.3742913122440963,74.8125
-55.5,0.662679700366597,-31.6875
-55.5,-0.36815538909255396,23.5625
-53.5,0.07363107781851053,0.8125
-54.5,-0.0674951546669682,44.75
-53.5,0.30066023442558576,-23.5625
-54.0,0.3436116964863838,-69.9375
-54.5,-0.2147573103039897,-44.75
-55.0,-0.411106851153352,17.875
-53.5,0.19021361769781953,-3.25
-54.5,-0.39269908169872414,55.3125
-53.5,0.47246608266877743,0.8125
-54.0,-0.2024854640009046,21.125
-53.0,0.11658253987930856,-15.4375
-54.5,-0.2822524649709579,49.625
-54.5,0.3865631585471818,-27.625
-54.0,-0.2822524649709579,21.125
-54.5,-0.07363107781851097,30.875
-53.0,0.5092816215780327,-33.3125
-54.0,-0.2822524649709579,2.4375
-54.0,0.17794177139473444,-30.875
-53.5,0.05522330836388312,-5.6875
-53.0,-0.5951845456996288,69.125
-53.0,0.30066023442558576,15.4375
-53.5,0.3865631585471814,-29.25
-53.0,-0.39883500485026646,11.375
-53.5,-0.116582539879309,49.625
-54.0,0.04295146206079803,40.6875
-53.5,0.17180584824319167,1.625
-53.0,0.19021361769781953,-17.875
-53.0,-0.1349903093339364,0.0
-53.5,-0.01840776945462741,12.1875
-54.0,0.39269908169872414,-43.9375
-54.0,-0.411106851153352,17.0625
-53.0,-0.16566992509164935,38.1875
-53.5,0.116582539879309,27.625
-54.0,0.4417864669110645,-38.1875
-53.0,-0.11658253987930856,-23.5625
-54.0,-0.748582624488193,94.375
-53.5,0.337475773334841,45.5625
-54.0,0.5951845456996288,-39.875
-53.5,-0.22089323345553247,-14.625
-53.0,-0.11044661672776579,-2.4375
-53.5,-0.16566992509164935,32.5
-54.0,0.0,24.375
-53.5,0.23930100291015988,-30.875
-54.5,-0.27611654181941514,17.0625
-53.0,0.177941771394734,24.375
-53.0,0.37429131224409673,-34.125
-53.0,-0.4049709280018092,-0.8125
-54.0,0.2883883881225002,-33.3125
-53.5,-0.4847379289718625,43.9375
-54.0,0.3558835427894689,-11.375
-53.0,-0.012271846303085088,4.875
-53.0,0.22089323345553202,-40.6875
-53.0,-0.2454369260617022,-7.3125
-53.0,-0.1349903093339364,24.375
-53.0,0.19021361769781908,-0.8125
-52.5,0.15339807878856426,-11.375
-52.5,-0.23316507975861755,19.5
-52.0,0.03067961575771294,18.6875
-53.5,0.1288543861823941,-5.6875
-52.5,-0.012271846303085088,-5.6875
-54.0,0.07363107781851053,-27.625
-53.5,-0.07363107781851053,-0.8125
-53.0,-0.22089323345553247,14.625
-53.0,0.30066023442558576,-30.875
-53.0,-0.2699806186678728,40.6875
-53.0,-0.03681553890925571,33.3125
-53.0,0.23930100291016032,0.0
-53.5,0.03681553890925526,-3.25
-52.5,-0.20862138715244738,32.5
-53.0,-0.01840776945462741,34.9375
-52.0,0.42337869745643664,-29.25
-53.5,-0.2331650797586171,-1.625
-52.5,0.012271846303085088,12.1875
-53.5,0.2024854640009046,-27.625
-52.5,-0.2515728492132454,13.8125
-51.5,0.24543692606170264,-20.3125
-53.0,0.16566992509164935,-42.3125
-52.5,-0.25770877236478773,-17.0625
-53.5,-0.14112623248547917,15.4375
-53.0,0.03681553890925571,14.625
-52.5,0.2699806186678728,-18.6875
-53.5,-0.23930100291016032,-3.25
-53.5,0.17180584824319212,-8.125
-53.5,-0.36815538909255396,43.9375
-53.0,0.47246608266877743,-12.1875
-53.5,-0.11044661672776623,-25.1875
-53.0,-0.012271846303085088,-17.0625
-54.0,-0.32520392703175593,28.4375
-53.0,0.44178646691106493,-31.6875
-53.5,-0.1840776945462772,-7.3125
-52.5,-0.17180584824319167,24.375
-53.0,0.2024854640009046,15.4375
-53.0,0.24543692606170264,-26.8125
-53.0,-0.049087385212340795,-4.875
-53.0,-0.2699806186678728,2.4375
-54.0,0.1472621556370215,3.25
-53.0,-0.09203884727313838,22.75
-54.0,0.3620194659410112,-19.5
-52.5,-0.27611654181941514,4.875
-52.5,0.04908738521234035,10.5625
-53.0,0.16566992509164935,-17.875
-52.5,-0.11044661672776623,-6.5
-52.5,-0.03681553890925526,4.875
-51.5,0.0674951546669682,4.875
-53.5,0.0674951546669682,-11.375
-52.5,0.08590292412159606,-4.875
-52.5,-0.07363107781851097,-17.875
-51.5,0.0,14.625
-53.5,-0.15339807878856426,14.625
-53.5,-0.10431069357622347,37.375
-52.0,0.2270291566070748,-2.4375
-53.5,0.20862138715244738,-12.1875
-52.0,-0.08590292412159606,-0.8125
-52.0,0.03681553890925526,-2.4375
-53.5,-0.012271846303085088,-8.125
-52.5,-0.10431069357622347,-1.625
-52.5,0.3067961575771281,-27.625
-53.5,-0.3804272353956386,8.9375
-53.0,-0.09817477042468115,37.375
-53.0,0.16566992509164935,20.3125
-52.0,0.17180584824319167,-15.4375
-53.0,-0.3620194659410112,47.1875
-52.5,0.23930100291015988,-7.3125
-52.5,0.05522330836388312,15.4375
-53.0,0.01840776945462741,18.6875
-51.5,0.10431069357622391,-12.1875
-51.5,-0.05522330836388312,15.4375
-53.0,-0.09817477042468115,17.0625
-52.5,0.09817477042468115,-12.1875
-52.5,0.07363107781851053,0.0
-53.0,-0.030679615757712497,2.4375
-52.5,-0.05522330836388312,18.6875
-52.0,0.0981747704246807,16.25
-53.0,0.15339807878856426,-17.0625
-52.5,0.11658253987930856,-31.6875
-53.5,-0.27611654181941514,3.25
-52.5,-0.10431069357622347,27.625
-52.5,0.19634954084936185,-6.5
-53.0,0.07363107781851097,-12.1875
-52.5,-0.17794177139473444,6.5
-53.0,-0.0674951546669682,7.3125
-53.0,0.337475773334841,-27.625
-53.0,-0.17180584824319167,7.3125
-52.5,0.177941771394734,-32.5
-53.0,-0.23930100291015988,0.8125
-51.5,0.03067961575771294,1.625
-51.5,0.18407769454627676,-13.8125
-52.0,-0.0981747704246807,-6.5
-53.0,-0.13499030933393685,11.375
-53.5,-0.12271846303085088,31.6875
-53.0,0.2699806186678728,-5.6875
-53.5,-0.03681553890925571,0.0
-53.5,0.07976700097005329,-15.4375
-54.0,-0.07363107781851053,2.4375
-52.5,0.03681553890925526,4.875
-52.5,0.03067961575771294,5.6875
-54.0,-0.16566992509164935,19.5
-53.0,0.3252039270317564,-30.875
-54.0,-0.2638446955163305,14.625
-52.5,0.03681553890925526,7.3125
-52.0,0.14112623248547873,-16.25
-53.5,-0.04908738521234035,7.3125
-52.0,0.05522330836388312,-8.9375
-52.5,-0.07976700097005329,12.1875
-53.0,0.03067961575771294,1.625
-54.0,0.11658253987930856,-26.0
-53.0,-0.1349903093339364,-6.5
-52.5,0.15339807878856426,-17.875
-54.0,-0.17794177139473444,8.9375
-52.5,-0.1288543861823941,22.75
-53.0,0.19021361769781953,6.5
-54.0,0.20248546400090506,-34.125
-53.5,-0.14112623248547962,-8.125
-54.0,-0.024543692606170175,-6.5
-52.5,0.00613592315154321,-2.4375
-52.5,0.0674951546669682,1.625
-53.0,-0.116582539879309,13.8125
-53.5,0.03681553890925526,6.5
-54.0,0.10431069357622391,-9.75
-52.5,-0.14112623248547917,19.5
-53.0,-0.06135923151542588,25.1875
-53.0,0.3067961575771281,-17.0625
-52.5,0.08590292412159606,-26.0
-54.5,-0.03681553890925571,-32.5
-53.0,-0.21475731030398926,5.6875
-53.0,0.08590292412159606,4.875
-53.5,0.17794177139473444,-34.9375
-52.0,-0.22089323345553247,20.3125
-53.0,0.0981747704246807,-11.375
-52.5,-0.1288543861823941,13.8125
-52.5,0.08590292412159606,14.625
-53.0,0.14112623248547962,-28.4375
-53.5,-0.07363107781851141,4.875
-53.5,-0.05522330836388267,2.4375
-52.5,-0.006135923151542322,2.4375
-53.5,0.0674951546669682,-5.6875
-53.0,-0.06135923151542588,8.9375
-53.5,0.34974761963792567,-49.625
-53.0,-0.34974761963792567,0.0
-54.5,0.024543692606170175,16.25
-53.5,0.018407769454627854,1.625
-55.0,-0.14112623248547962,12.1875
-53.0,0.3620194659410121,-23.5625
-52.5,-0.2577087723647882,9.75
-52.0,0.03681553890925571,12.1875
-53.0,0.1288543861823932,-17.875
-53.5,-0.09203884727313838,5.6875
-52.0,0.07363107781851141,-17.0625
-53.0,-0.1288543861823941,-6.5
-53.5,0.03681553890925571,4.875
-54.0,-0.11658253987930944,24.375
-52.5,0.17794177139473444,3.25
-52.5,-0.2024854640009046,27.625
-54.5,0.2577087723647882,-17.0625
-53.5,0.024543692606170175,2.4375
-53.5,-0.08590292412159606,-4.875
-53.0,-0.20862138715244694,19.5
-53.5,0.4049709280018092,-35.75
-54.0,-0.28225246497095835,16.25
-52.5,0.024543692606170175,8.125
-53.0,-0.006135923151542322,14.625
-54.0,-0.14112623248547873,34.125
-54.5,0.15953400194010658,-8.125
-53.0,-0.10431069357622391,22.75
-54.0,0.06135923151542588,17.875
-54.5,0.11658253987930856,-26.0
-54.0,-0.11658253987930856,5.6875
-55.0,0.06135923151542588,3.25
-53.0,-0.024543692606170175,5.6875
-53.5,0.05522330836388267,-20.3125
-54.0,0.10431069357622391,-17.875
-54.0,-0.31293208072867085,25.1875
-54.5,-0.05522330836388356,26.0
-54.0,0.23930100291016032,-7.3125
-55.0,0.04908738521234035,-49.625
-53.0,-0.2270291566070748,13.8125
-55.0,0.25157284921324496,-19.5
-54.0,-0.2577087723647873,35.75
-54.0,0.2270291566070748,-11.375
-54.5,-0.11658253987930856,0.8125
-53.0,-0.11658253987930944,16.25
-54.5,0.1288543861823941,7.3125
-53.5,0.018407769454627854,12.1875
-54.5,0.05522330836388267,-12.1875
-55.5,-0.07976700097005285,9.75
-55.0,-0.07976700097005374,8.125
-54.5,0.10431069357622391,-11.375
-53.5,0.012271846303085532,-3.25
-54.5,-0.2208932334555329,28.4375
-53.5,0.5092816215780327,-45.5625
-54.5,-0.4908738521234044,38.1875
-53.5,0.2883883881224998,-17.0625
-52.5,-0.1349903093339364,12.1875
-54.5,0.28225246497095835,-36.5625
-55.0,-0.15339807878856426,-13.8125
-54.5,0.09203884727313838,-19.5
-53.5,0.030679615757713385,-29.25
-54.0,-0.04908738521234124,-23.5625
-53.5,-0.355883542789468,39.875
-54.5,0.25157284921324496,-8.9375
-54.5,-0.1288543861823941,2.4375
-53.5,0.11658253987930856,9.75
-55.5,0.07363107781851053,6.5
-54.5,0.05522330836388356,-14.625
-53.0,0.024543692606170175,-10.5625
-54.0,-0.07976700097005374,-3.25
-53.5,0.2577087723647882,-29.25
-53.5,-0.15339807878856426,-4.875
-54.5,0.018407769454627854,8.9375
-53.0,-0.1349903093339364,16.25
-54.5,0.28838838812250067,-45.5625
-54.0,-0.6933593161243099,84.625
-53.5,0.48473792897186296,-0.8125
-53.0,0.04295146206079714,8.125
-54.5,0.00613592315154321,10.5625
-54.0,0.018407769454627854,2.4375
-54.0,0.0674951546669682,-8.9375
-53.5,0.0981747704246807,-32.5
-54.0,-0.23930100291016032,14.625
-53.0,0.0,21.125
-53.0,0.09817477042468159,9.75
-53.0,-0.012271846303085532,20.3125
-54.0,-0.012271846303084644,8.125
-52.5,0.3681553890925535,-43.125
-52.5,-0.3006602344255853,5.6875
-53.0,0.14112623248547873,-4.875
-53.5,-0.11044661672776623,13.8125
-51.5,-0.006135923151542322,6.5
-53.0,0.030679615757712497,8.125
-53.0,0.018407769454627854,0.8125
-52.0,-0.10431069357622391,17.875
-54.0,0.14726215563702194,12.1875
-54.0,-0.012271846303085532,-2.4375
-53.0,0.06135923151542588,-9.75
-54.5,-0.07363107781851053,-3.25
-53.5,0.04295146206079803,-4.875
-52.5,-0.18407769454627765,9.75
-53.5,0.11044661672776623,5.6875
-53.5,0.04908738521234035,-17.0625
-52.5,0.024543692606171064,4.875
-54.0,-0.14112623248547962,26.0
-53.5,0.24543692606170264,-18.6875
-52.0,-0.14112623248547873,8.125
-54.0,-0.12271846303085177,30.875
-52.0,0.28838838812250067,-26.0
-53.0,-0.15339807878856426,-0.8125
-53.5,-0.17180584824319123,30.875
-53.5,0.28225246497095746,-6.5
-52.5,-0.15339807878856337,14.625
-52.0,0.04908738521234035,8.125
-53.0,0.07976700097005285,-13.8125
-52.0,-0.10431069357622302,2.4375
-53.5,-0.17180584824319212,30.875
-52.0,0.3252039270317555,-18.6875
-51.5,-0.15339807878856337,-7.3125
-52.5,0.018407769454626965,-17.0625
-53.0,0.23930100291016032,-52.0625
-52.0,-0.34361169648638334,16.25
-52.0,0.07363107781851053,2.4375
-51.5,-0.030679615757712497,2.4375
-51.5,-0.030679615757713385,10.5625
-52.0,-0.10431069357622302,18.6875
-53.5,0.11658253987930856,-3.25
-52.5,0.012271846303084644,17.875
-51.5,0.05522330836388356,-3.25
-51.5,-0.0981747704246807,4.875
-52.0,-0.07363107781851141,6.5
-52.5,-0.012271846303084644,13.8125
-51.0,0.04295146206079803,3.25
-51.0,-0.14112623248547962,18.6875
-52.0,0.11658253987930944,17.0625
-52.5,-0.07363107781851141,23.5625
-51.5,0.11044661672776623,0.8125
-52.0,-0.05522330836388267,-0.8125
-52.0,0.006135923151542322,16.25
-51.5,0.21475731030399015,-16.25
-50.5,0.006135923151542322,-34.125
-51.0,-0.23930100291016032,8.9375
-52.5,-0.08590292412159606,22.75
-52.5,0.03681553890925571,1.625
-51.0,0.0674951546669682,-5.6875
-51.0,-0.11658253987930856,10.5625
-50.5,0.15953400194010658,-9.75
-51.0,-0.2024854640009046,11.375
-51.0,0.09203884727313838,1.625
-51.0,0.024543692606170175,-8.9375
-51.5,-0.07976700097005374,2.4375
-50.5,-0.05522330836388267,8.9375
-51.5,0.07976700097005374,-12.1875
-50.5,-0.030679615757713385,9.75
-51.5,0.06135923151542588,-6.5
-51.0,-0.1288543861823941,9.75
-50.5,0.19021361769781997,-23.5625
-50.5,-0.1963495408493623,8.125
-49.5,-0.04295146206079803,12.1875
-50.5,-0.006135923151542322,15.4375
-49.5,-0.0674951546669682,21.125
-50.5,0.05522330836388267,18.6875
-50.0,0.030679615757713385,-9.75
-51.0,-0.10431069357622391,15.4375
-50.5,0.07363107781851053,2.4375
-50.0,0.07976700097005374,-7.3125
-50.0,-0.08590292412159606,8.125
-49.5,0.12271846303085088,-20.3125
-49.5,-0.20862138715244694,8.9375
-50.0,0.05522330836388356,11.375
-50.5,-0.00613592315154321,4.875
-50.0,0.1288543861823941,-26.8125
-49.5,-0.0674951546669682,-12.1875
-50.0,-0.23316507975861755,28.4375
-49.0,0.17180584824319167,-0.8125
-49.5,-0.2883883881225002,26.8125
-50.0,0.14112623248547873,8.125
-50.5,0.12271846303085132,-16.25
-50.5,-0.07976700097005285,-6.5
-50.0,-0.10431069357622391,4.875
-50.5,-0.04908738521234035,0.0
-49.5,0.05522330836388312,-5.6875
-49.0,0.012271846303085088,4.875
-50.0,0.1656699250916489,-20.3125
-49.5,-0.030679615757712497,-11.375
-50.5,-0.11044661672776623,-1.625
-50.5,0.03681553890925571,-6.5
-50.0,-0.233165079758618,27.625
-49.5,0.16566992509164935,1.625
-51.0,-0.03681553890925526,7.3125
-50.0,-0.018407769454627854,12.1875
-50.0,0.0,17.875
-50.0,0.17180584824319212,-15.4375
-49.5,-0.06749515466696865,-0.8125
-49.0,-0.0674951546669682,13.8125
-49.5,0.0859029241215965,-6.5
-49.5,-0.030679615757713385,0.0
-50.5,-0.10431069357622347,17.0625
-49.5,0.07976700097005329,8.125
-50.0,0.006135923151542766,-1.625
-50.0,-0.15339807878856426,27.625
-49.0,0.12271846303085132,0.8125
-50.0,0.03067961575771294,-3.25
-50.0,-0.06135923151542588,8.9375
-50.5,0.049087385212340795,-7.3125
-49.5,-0.07363107781851097,19.5
-50.0,0.06135923151542588,2.4375
-49.5,0.07363107781851097,-12.1875
-50.0,-0.012271846303085532,-16.25
-49.5,0.0,-9.75
-50.0,-0.11044661672776623,8.125
-50.0,0.04295146206079803,6.5
-50.5,-0.018407769454627854,4.875
-49.5,0.012271846303085088,1.625
-50.0,0.03067961575771294,-8.9375
-50.0,-0.19021361769781953,22.75
-50.0,0.2024854640009046,-3.25
-49.5,0.018407769454627854,-5.6875
-49.5,-0.03681553890925526,-0.8125
-49.0,0.0981747704246807,-16.25
-50.0,-0.14112623248547873,-3.25
-49.0,0.0981747704246807,-11.375
-49.0,-0.06135923151542544,0.0
-50.0,0.07363107781851097,-6.5
-49.0,0.018407769454627854,-17.0625
-49.5,-0.116582539879309,7.3125
-50.0,-0.15953400194010658,20.3125
-49.0,0.2454369260617022,-5.6875
-50.0,-0.0981747704246807,2.4375
-49.0,0.03681553890925526,-1.625
-49.0,-0.06135923151542544,8.125
-50.0,0.17794177139473444,-23.5625
-49.5,-0.20248546400090506,3.25
-49.0,0.03681553890925571,1.625
-49.5,-0.012271846303085088,0.8125
-49.5,-0.21475731030399015,31.6875
-50.0,0.15953400194010703,-0.8125
-49.0,-0.018407769454627854,11.375
-49.0,0.03681553890925526,0.8125
-49.5,0.0,-3.25
-49.0,0.03067961575771294,-2.4375
-49.5,-0.12885438618239364,8.125
-50.0,0.03681553890925526,0.0
-48.5,0.03067961575771294,0.0
-50.0,-0.04295146206079803,-1.625
-49.5,-0.018407769454627854,0.0
-49.0,-0.08590292412159606,12.1875
-48.5,0.09203884727313882,-2.4375
-49.5,-0.09817477042468115,-6.5
-49.0,0.05522330836388312,-1.625
-49.0,0.09817477042468115,-12.1875
-48.5,-0.15339807878856426,-3.25
-49.5,0.0,-9.75
-49.0,-0.018407769454627854,-4.875
-49.0,-0.2024854640009046,13.8125
-48.5,0.049087385212340795,18.6875
-48.5,0.11658253987930856,0.0
-49.0,-0.09203884727313838,8.9375
-49.0,0.09817477042468115,-7.3125
-48.5,0.0,-8.9375
-48.5,-0.07363107781851097,5.6875
-49.0,0.08590292412159606,-10.5625
-48.5,-0.04295146206079803,-6.5
-48.5,-0.012271846303085088,-7.3125
-48.5,0.01840776945462741,-6.5
-48.5,-0.11044661672776579,0.8125
-49.5,-0.09203884727313882,16.25
-49.5,0.06135923151542588,3.25
-48.0,0.006135923151542322,5.6875
-49.5,0.03067961575771294,-7.3125
-49.0,-0.018407769454627854,6.5
-49.0,0.0,2.4375
-49.0,0.07976700097005374,-10.5625
-49.5,-0.31293208072867085,32.5
-49.5,0.3006602344255853,-21.125
-49.5,-0.12885438618239364,4.875
-49.5,-0.0674951546669682,10.5625
-49.5,0.07976700097005329,0.8125
-49.0,0.1349903093339364,-8.125
-49.5,-0.14112623248547873,10.5625
-48.5,0.15953400194010658,-15.4375
-49.0,-0.15953400194010658,8.9375
-48.5,0.1472621556370215,-16.25
-48.5,-0.049087385212340795,-4.875
-49.5,0.018407769454627854,-11.375
-48.5,-0.09817477042468115,-1.625
-48.0,0.018407769454627854,-6.5
-48.5,0.012271846303085088,0.0
-49.0,0.07976700097005329,-12.1875
-48.5,-0.12271846303085132,11.375
-48.5,0.006135923151542766,1.625
-48.5,0.0,0.8125
-49.0,-0.08590292412159606,11.375
-49.0,0.15339807878856426,-12.1875
-49.5,-0.06135923151542588,-2.4375
-49.0,-0.1349903093339364,15.4375
-48.5,0.03681553890925526,7.3125
-48.5,0.14112623248547917,-8.9375
-49.0,-0.08590292412159606,-4.875
-48.5,-0.06135923151542544,18.6875
-49.0,0.03067961575771294,7.3125
-48.5,0.07976700097005329,-4.875
-48.5,-0.1963495408493623,26.8125
-49.5,0.19021361769781953,-7.3125
-48.5,-0.09203884727313838,-1.625
-48.5,0.2024854640009046,-24.375
-49.0,-0.17794177139473444,8.125
-49.5,0.116582539879309,-12.1875
-49.0,0.03681553890925526,-10.5625
-50.0,-0.116582539879309,-15.4375
-48.0,0.03067961575771294,-0.8125
-48.5,-0.01840776945462741,-5.6875
-49.0,0.12271846303085088,-21.125
-49.0,-0.2147573103039897,0.8125
-49.0,-0.10431069357622347,16.25
-49.0,0.07363107781851097,10.5625
-48.5,0.0,7.3125
-49.0,-0.11044661672776623,17.0625
-49.5,0.22089323345553202,-7.3125
-49.0,-0.17180584824319167,18.6875
-50.0,0.17180584824319167,-17.0625
-49.5,-0.3006602344255853,36.5625
-48.5,0.18407769454627676,11.375
-49.0,0.024543692606170175,7.3125
-49.5,0.11044661672776623,-21.125
-48.0,0.024543692606170175,-8.9375
-48.5,-0.14112623248547873,8.9375
-49.0,0.08590292412159561,-8.125
-49.0,-0.006135923151542322,-17.0625
-48.5,0.05522330836388312,-13.8125
-49.0,-0.049087385212340795,-7.3125
-49.5,0.05522330836388312,-16.25
-49.5,-0.12885438618239364,-6.5
-49.0,-0.116582539879309,13.8125
-49.5,0.04295146206079803,13.8125
-49.5,0.16566992509164935,-8.9375
-50.0,-0.1349903093339364,5.6875
-48.5,-0.024543692606170175,13.8125
-50.0,-0.012271846303085088,13.8125
-49.0,0.006135923151542322,10.5625
-49.5,0.1963495408493623,-21.125
-49.0,-0.32520392703175593,17.875
-49.5,0.17180584824319167,-4.875
-49.5,0.09203884727313838,-14.625
-49.5,-0.030679615757712497,-1.625
-49.5,-0.07363107781851097,1.625
-49.5,0.05522330836388312,-12.1875
-49.0,-0.09203884727313838,0.8125
-49.0,0.0674951546669682,-5.6875
-49.5,0.006135923151542322,3.25
-49.0,-0.14112623248547873,9.75
-49.0,0.07976700097005329,-8.125
-49.0,0.07976700097005329,-7.3125
-49.5,-0.07363107781851097,-1.625
-49.5,0.024543692606170175,-8.9375
-48.5,0.07363107781851097,-10.5625
-49.0,-0.22089323345553247,22.75
-49.5,0.2761165418194156,-17.0625
-49.5,-0.17794177139473444,2.4375
-49.0,0.1349903093339364,-23.5625
-49.5,-0.0674951546669682,-6.5
-49.5,-0.2147573103039897,27.625
-49.5,0.4049709280018092,-43.125
-49.5,-0.20862138715244738,-7.3125
-49.5,-0.2454369260617022,31.6875
-49.5,0.2147573103039897,1.625
-49.5,0.1472621556370215,-29.25
-49.0,-0.1472621556370215,-6.5
-50.0,0.18407769454627676,-30.875
-50.0,-0.33133985018329826,17.0625
-50.0,0.23930100291015988,-18.6875
-49.5,-0.03681553890925526,-15.4375
-50.0,-0.049087385212340795,-10.5625
-49.5,0.03067961575771294,-8.125
-50.0,0.1349903093339364,-30.875
-49.5,-0.07976700097005329,-23.5625
-49.0,-0.20862138715244738,15.4375
-50.0,0.23930100291016032,-27.625
-49.5,-0.23316507975861755,5.6875
-49.0,0.12271846303085132,-7.3125
-49.5,-0.06135923151542588,0.8125
-49.5,-0.042951462060797585,0.8125
-49.5,0.2270291566070748,-18.6875
-50.0,-0.24543692606170264,7.3125
-49.5,0.15339807878856426,-10.5625
-49.5,0.024543692606170175,-17.875
-49.5,0.012271846303085088,-28.4375
-49.5,-0.04295146206079803,-16.25
-49.0,-0.08590292412159606,6.5
-50.0,-0.04908738521234035,2.4375
-50.0,0.006135923151542766,-6.5
-49.0,0.1656699250916489,-22.75
-50.0,-0.10431069357622347,-2.4375
-49.5,-0.1472621556370215,12.1875
-49.5,0.06135923151542544,-3.25
-49.5,-0.1472621556370215,31.6875
-50.0,0.1349903093339364,7.3125
-50.0,0.14112623248547917,-4.875
-50.5,-0.19021361769781953,13.8125
-49.5,0.19021361769781953,-5.6875
-50.0,-0.018407769454627854,-5.6875
-50.0,0.1349903093339364,-28.4375
-50.0,-0.17180584824319167,-17.0625
-50.0,-0.17180584824319167,18.6875
-50.0,0.19634954084936185,4.875
-50.0,0.10431069357622347,-26.0
-50.0,-0.20862138715244694,-8.9375
-50.0,0.0674951546669682,-2.4375
-49.5,0.07363107781851053,-17.0625
-50.0,-0.0674951546669682,-3.25
-50.0,-0.11044661672776579,7.3125
-49.5,0.19021361769781908,-23.5625
-49.5,0.04295146206079803,-27.625
-49.5,-0.2883883881225002,20.3125
-49.5,0.3681553890925535,-48.8125
-49.5,-0.14112623248547873,-12.1875
-50.0,-0.116582539879309,-0.8125
-50.0,-0.12885438618239364,19.5
-50.0,0.19021361769781953,-12.1875
-49.5,-0.2761165418194156,31.6875
-50.0,0.29452431127404344,-12.1875
-50.0,-0.0674951546669682,-2.4375
-50.5,0.1349903093339364,-17.875
-50.5,-0.1840776945462772,-8.125
-49.5,0.09817477042468115,-15.4375
-50.0,-0.30066023442558576,29.25
-50.0,0.1472621556370215,-3.25
-50.5,0.09817477042468115,-15.4375
-50.0,-0.1349903093339364,6.5
-50.5,-0.024543692606170175,9.75
-50.5,0.25770877236478773,-27.625
-49.0,-0.07976700097005329,-8.9375
-49.5,0.04908738521234035,-19.5
-50.5,-0.18407769454627676,4.875
-50.0,-0.05522330836388312,11.375
-50.5,0.06135923151542544,0.8125
-50.0,0.06135923151542588,-15.4375
-50.0,-0.17794177139473444,26.0
-50.5,0.31906800388021317,-18.6875
-50.0,-0.12271846303085132,-21.125
-50.5,-0.1472621556370215,15.4375
-50.5,0.12271846303085132,-0.8125
-50.5,0.018407769454627854,-8.9375
-50.5,-0.09203884727313838,5.6875
-50.5,-0.03067961575771294,17.0625
-51.0,0.337475773334841,-34.9375
-50.5,-0.08590292412159606,-30.875
-50.5,-0.2024854640009046,9.75
-50.0,0.018407769454627854,4.875
-49.5,0.10431069357622347,-8.125
-51.0,0.0674951546669682,-31.6875
-50.5,-0.1472621556370215,-26.0
-50.0,-0.09203884727313838,-1.625
-50.0,-0.06135923151542588,17.0625
-50.0,0.12271846303085132,-8.9375
-50.5,0.0,-8.9375
-50.5,0.1349903093339364,-16.25
-50.5,-0.1472621556370215,-3.25
-50.5,-0.04295146206079803,-13.8125
-50.0,0.10431069357622391,-8.9375
-50.5,-0.12271846303085132,-6.5
-50.0,-0.03067961575771294,7.3125
-51.0,-0.03681553890925526,6.5
-49.5,-0.06135923151542588,17.875
-50.0,-0.04908738521234035,6.5
-49.5,0.0674951546669682,20.3125
-50.5,0.07976700097005329,8.125
-50.5,0.07976700097005329,-8.125
-51.0,-0.10431069357622347,-5.6875
-50.0,0.11658253987930856,-7.3125
-50.0,-0.1472621556370215,11.375
-50.5,-0.07976700097005329,17.875
-50.0,0.16566992509164935,-16.25
-50.0,-0.049087385212340795,5.6875
-50.5,-0.01840776945462741,-2.4375
-50.0,-0.17794177139473444,21.125
-50.5,0.12885438618239364,6.5
-50.5,0.04295146206079803,6.5
-50.0,0.006135923151542766,-10.5625
-50.0,0.042951462060797585,-19.5
-50.5,-0.22089323345553202,24.375
-50.0,0.2822524649709579,-13.8125
-50.0,-0.2147573103039897,15.4375
-50.0,-0.06135923151542588,23.5625
-50.5,-0.03681553890925526,30.875
-50.0,0.3865631585471818,-26.0
-49.5,-0.07976700097005374,-8.125
-50.0,0.11044661672776623,-31.6875
-50.5,-0.030679615757712497,-31.6875
-49.5,-0.28838838812250067,21.125
-50.5,0.1472621556370215,-1.625
-51.0,-0.04908738521234035,2.4375
-51.0,-0.14726215563702194,12.1875
-50.0,0.21475731030399015,-9.75
-50.5,-0.3067961575771285,26.8125
-50.0,0.06135923151542588,17.0625
-50.0,0.15339807878856382,6.5
-50.0,-0.2454369260617022,31.6875
-50.5,0.3252039270317555,-8.9375
-50.5,-0.2270291566070748,27.625
-50.0,0.05522330836388312,0.0
-51.0,-0.17180584824319167,32.5
-50.5,-0.15339807878856426,53.6875
-51.0,0.15953400194010658,19.5
-50.5,0.16566992509164935,-7.3125
-52.0,-0.20862138715244694,13.8125
-51.0,0.2331650797586171,-17.0625
-51.0,-0.12271846303085132,10.5625
-51.0,0.09817477042468115,-4.875
-51.0,-0.04908738521234035,-3.25
-51.0,0.08590292412159561,-19.5
-50.5,-0.14112623248547873,-0.8125
-51.5,0.024543692606170175,0.0
-51.0,0.15953400194010658,-27.625
-51.5,-0.07363107781851053,-7.3125
-51.0,-0.15953400194010658,18.6875
-51.0,0.2331650797586171,-25.1875
-52.0,-0.14112623248547873,-13.8125
-51.5,-0.23930100291016032,24.375
-51.0,0.2515728492132454,-13.8125
-52.0,0.04908738521234035,-9.75
-51.5,-0.3620194659410112,34.125
-51.0,-0.006135923151542766,33.3125
-52.0,-0.05522330836388312,52.0625
-52.0,0.28225246497095835,0.8125
-51.0,0.15339807878856382,-27.625
-51.0,-0.15339807878856382,0.0
-51.0,-0.16566992509164935,23.5625
-51.5,0.012271846303085088,11.375
-51.5,0.2699806186678728,-26.8125
-52.0,-0.2822524649709579,11.375
-52.0,0.17794177139473444,-2.4375
-51.5,-0.10431069357622391,0.8125
-51.5,-0.14112623248547873,34.9375
-51.0,0.19021361769781953,4.875
-52.5,0.06135923151542544,-4.875
-52.0,0.2515728492132454,-41.5
-51.5,-0.23930100291016032,-10.5625
-52.0,-0.25157284921324496,28.4375
-52.0,0.12271846303085132,15.4375
-51.0,-0.006135923151542766,13.8125
-51.5,-0.04908738521234035,11.375
-51.5,0.23930100291015988,-11.375
-51.5,0.03067961575771294,-22.75
-52.0,-0.3067961575771281,24.375
-51.5,0.3865631585471814,-27.625
-51.5,-0.31906800388021317,4.875
-51.0,-0.018407769454627854,24.375
-52.0,0.1349903093339364,-2.4375
-51.5,-0.3620194659410112,46.375
-52.5,0.14112623248547873,22.75
-52.0,-0.01840776945462741,26.0
-51.0,0.07976700097005329,8.125
-51.0,0.22089323345553247,-12.1875
-51.5,-0.04295146206079803,-11.375
-52.5,0.11044661672776623,-27.625
-52.5,-0.1963495408493623,0.8125
-52.5,0.05522330836388312,0.8125
-51.5,-0.3067961575771281,38.1875
-51.5,0.04908738521234035,14.625
-52.0,0.15339807878856426,6.5
-51.5,0.07363107781851053,0.0
-52.0,0.07976700097005329,-17.875
-51.5,-0.25157284921324496,26.0
-53.5,0.024543692606170175,19.5
-52.5,-0.03681553890925526,15.4375
-52.0,0.3742913122440963,-32.5
-52.0,0.018407769454627854,-42.3125
-52.5,-0.07976700097005329,-16.25
-52.0,-0.22089323345553247,-4.875
-52.0,-0.26384469551633005,39.875
-52.0,0.17180584824319167,7.3125
-52.5,0.39883500485026646,-43.9375
-52.0,-0.25770877236478773,17.875
-52.0,0.2024854640009046,-32.5
-52.5,-0.32520392703175593,15.4375
-51.5,0.04295146206079803,7.3125
-52.5,-0.15339807878856382,38.1875
-52.0,0.294524311274043,-26.0
-52.0,-0.4233786974564371,44.75
-52.0,0.4172427743048943,-10.5625
-52.5,-0.05522330836388312,-5.6875
-52.0,0.049087385212340795,0.0
-52.0,-0.0674951546669682,0.0
-52.5,-0.012271846303085088,-5.6875
-51.0,-0.1349903093339364,5.6875
-51.5,0.20862138715244694,-5.6875
-53.0,0.06135923151542588,-12.1875
-52.5,-0.04295146206079803,-7.3125
-52.0,0.03067961575771294,-15.4375
-52.5,-0.4724660826687779,49.625
-53.0,0.36201946594101164,-6.5
-52.5,-0.07976700097005329,2.4375
-52.0,-0.006135923151542766,13.8125
-52.0,-0.25770877236478773,48.8125
-52.5,0.2515728492132454,12.1875
-51.5,0.14112623248547873,-23.5625
-51.5,-0.32520392703175593,34.125
-51.5,0.2761165418194156,-9.75
-52.0,-0.2822524649709579,42.3125
-52.5,0.31906800388021317,-14.625
-52.0,-0.09817477042468115,-1.625
-52.5,-0.04908738521234035,7.3125
-51.5,-0.2270291566070748,39.875
-52.0,0.32520392703175593,1.625
-53.0,0.17794177139473444,-33.3125
-52.0,-0.3436116964863838,26.8125
-52.5,0.24543692606170264,-13.8125
-52.0,-0.22089323345553247,16.25
-53.5,0.3742913122440963,-36.5625
-52.0,-0.2331650797586171,-10.5625
-52.0,0.15339807878856382,-25.1875
-52.5,-0.08590292412159561,-2.4375
-52.5,-0.14112623248547917,8.9375
-52.0,0.03067961575771294,9.75
-53.0,-0.024543692606170175,14.625
-52.0,-0.31293208072867085,49.625
-52.0,0.24543692606170264,8.9375
-51.5,0.11044661672776579,-8.9375
-52.5,-0.2270291566070748,36.5625
-52.5,0.3313398501832987,-16.25
-52.5,-0.2024854640009046,17.0625
-52.5,-0.20862138715244738,37.375
-51.5,0.4233786974564371,-34.9375
-52.5,-0.4847379289718625,53.6875
-51.5,0.337475773334841,-4.875
-51.5,-0.23930100291016032,34.125
-52.0,-0.01840776945462741,26.0
-51.5,0.01840776945462741,44.75
-52.0,0.03067961575771294,26.0
-52.0,0.17794177139473444,-7.3125
-51.5,-0.23930100291015988,38.1875
-52.0,0.20862138715244694,-2.4375
-51.5,-0.006135923151542322,8.9375
-52.0,-0.05522330836388312,11.375
-53.0,0.3620194659410112,-40.6875
-52.5,-0.2699806186678728,0.8125
-52.0,-0.25157284921324496,43.125
-52.0,0.0981747704246807,35.75
-51.5,0.17180584824319212,-3.25
-51.5,-0.03067961575771294,8.9375
-51.0,0.03067961575771294,8.125
-52.5,0.024543692606170175,-4.875
-52.0,-0.17180584824319167,16.25
-52.0,0.2454369260617022,-16.25
-52.5,-0.3067961575771281,41.5
-52.0,0.5154175447295755,-49.625
-51.5,-0.3988350048502669,2.4375
-52.0,-0.04908738521234035,18.6875
-51.5,0.30066023442558576,-17.875
-51.5,-0.1349903093339364,-11.375
-52.0,-0.03681553890925526,-11.375
-52.5,-0.15953400194010703,23.5625
-51.5,-0.12271846303085132,40.6875
-51.5,0.116582539879309,17.875
-52.5,0.1349903093339364,3.25
-52.5,0.0,13.8125
-51.5,0.17794177139473444,-29.25
-52.0,-0.47246608266877743,49.625
-52.0,0.25157284921324496,2.4375
-52.5,-0.1349903093339364,32.5
-52.0,0.3558835427894689,-19.5
-51.0,-0.46019423636569234,37.375
-52.0,0.24543692606170264,14.625
-52.0,0.012271846303085088,0.8125
-51.5,0.042951462060797585,-3.25
-51.5,-0.22089323345553202,26.0
-52.0,0.01840776945462741,24.375
-52.0,-0.012271846303085088,37.375
-52.0,0.3313398501832987,-14.625
-52.0,-0.024543692606170175,-8.9375
-52.0,-0.006135923151542766,-30.875
-52.5,-0.337475773334841,47.1875
-52.0,0.2147573103039897,0.0
-51.5,-0.12271846303085132,17.875
-52.0,0.1288543861823941,-16.25
-51.0,-0.05522330836388312,18.6875
-51.0,0.08590292412159561,-5.6875
-51.5,-0.15339807878856382,15.4375
-52.0,0.14112623248547873,-8.9375
-51.0,-0.25770877236478773,34.9375
-51.5,-0.01840776945462741,46.375
-52.5,0.32520392703175593,-12.1875
-52.0,-0.23930100291016032,22.75
-52.5,0.2761165418194156,-18.6875
-52.5,-0.5276893910326605,71.5625
-53.0,0.5154175447295755,-13.8125
-51.5,0.012271846303085088,-18.6875
-52.0,-0.07363107781851097,1.625
-52.0,-0.11658253987930856,22.75
-52.5,0.05522330836388312,3.25
-52.5,-0.09203884727313838,15.4375
-52.0,0.1472621556370215,-8.125
-52.5,-0.09817477042468115,13.8125
-51.0,0.09817477042468115,-0.8125
-52.0,0.03067961575771294,9.75
-51.0,0.2331650797586171,-42.3125
-51.5,-0.12271846303085088,-20.3125
-51.5,-0.33747577333484147,20.3125
-52.5,0.14726215563702194,11.375
-52.0,-0.12271846303085132,19.5
-51.0,-0.02454369260617062,17.0625
-51.5,0.31293208072867085,0.8125
-51.5,-0.01840776945462741,-20.3125
-52.0,-0.4233786974564371,43.9375
-53.0,0.25157284921324496,4.875
-52.5,0.05522330836388312,9.75
-51.0,-0.18407769454627676,27.625
-51.0,0.14112623248547873,1.625
-52.0,0.012271846303085532,-4.875
-52.5,0.20862138715244694,-19.5
-52.0,-0.15953400194010658,3.25
-53.0,0.05522330836388312,0.0
-53.0,-0.14112623248547917,18.6875
-52.5,-0.06135923151542544,17.0625
-52.0,0.3742913122440963,-32.5
