-28.0,1.846912868614312,5.6875
-28.0,1.8653206380689396,2.4375
-28.0,1.8714565612204823,2.4375
-28.0,1.859184714917397,4.875
-28.0,1.859184714917397,4.875
-28.0,1.859184714917397,5.6875
-28.5,1.8653206380689396,4.875
-28.5,1.8714565612204823,1.625
-28.0,1.8837284075235674,2.4375
-28.0,1.8775924843720249,4.0625
-28.0,1.8653206380689396,4.0625
-28.0,1.8837284075235674,2.4375
-28.0,1.8775924843720249,4.0625
-28.5,1.8775924843720249,4.0625
-28.5,1.8714565612204823,4.0625
-28.0,1.8960002538266525,0.0
-28.0,1.8714565612204823,4.0625
-28.0,1.8714565612204823,2.4375
-28.0,1.8653206380689396,4.875
-28.0,1.8714565612204823,4.875
-28.0,1.8837284075235674,0.8125
-28.0,1.8653206380689396,5.6875
-28.0,1.8714565612204823,2.4375
-28.5,1.8775924843720249,4.0625
-28.5,1.8960002538266525,0.8125
-28.0,1.8837284075235674,1.625
-28.0,1.8775924843720249,4.0625
-28.0,1.88986433067511,4.875
-28.0,1.8775924843720249,2.4375
-28.0,1.8714565612204823,5.6875
-28.5,1.8775924843720249,4.0625
-28.0,1.8653206380689396,5.6875
-28.0,1.88986433067511,4.0625
-28.0,1.8837284075235674,2.4375
-28.0,1.8714565612204823,4.875
-28.0,1.8714565612204823,5.6875
-28.0,1.8960002538266525,1.625
-28.0,1.8837284075235674,0.8125
-28.0,1.8714565612204823,5.6875
-28.0,1.8653206380689396,7.3125
-28.0,1.902136176978195,-0.8125
-28.5,1.8714565612204823,2.4375
-28.0,1.8714565612204823,4.875
-28.0,1.8837284075235674,2.4375
-28.0,1.8775924843720249,2.4375
-28.0,1.8960002538266525,0.8125
-28.0,1.8714565612204823,5.6875
-28.0,1.88986433067511,0.8125
-28.5,1.8960002538266525,1.625
-28.5,1.8714565612204823,4.0625
-28.5,1.88986433067511,2.4375
-28.0,1.88986433067511,0.8125
-28.0,1.8837284075235674,1.625
-28.0,1.8775924843720249,1.625
-28.0,1.8837284075235674,2.4375
-28.0,1.8714565612204823,4.875
-28.5,1.8714565612204823,4.875
-28.5,1.8775924843720249,2.4375
-28.0,1.8714565612204823,2.4375
-28.5,1.8775924843720249,1.625
-28.5,1.8775924843720249,1.625
-28.0,1.8837284075235674,4.0625
-28.5,1.8653206380689396,4.875
-28.0,1.8837284075235674,1.625
-28.5,1.8653206380689396,4.875
-28.0,1.8653206380689396,4.875
-28.5,1.8837284075235674,1.625
-28.5,1.8775924843720249,0.0
-28.0,1.859184714917397,4.0625
-28.0,1.846912868614312,5.6875
-28.5,1.8407769454627694,4.875
-28.0,1.846912868614312,4.0625
-28.5,1.859184714917397,1.625
-28.5,1.8407769454627694,5.6875
-28.5,1.8407769454627694,2.4375
-28.5,1.8407769454627694,2.4375
-28.0,1.8407769454627694,1.625
-28.0,1.8346410223112268,2.4375
-28.5,1.8407769454627694,0.8125
-28.0,1.846912868614312,0.0
-28.5,1.8285050991596843,1.625
-28.5,1.8162332528565992,2.4375
-28.5,1.8039614065535141,5.6875
-28.5,1.7978254834019713,6.5
-28.5,1.8039614065535141,4.875
-28.5,1.8039614065535141,2.4375
-28.5,1.7978254834019713,4.0625
-28.5,1.8223691760081417,0.8125
-28.5,1.8223691760081417,0.8125
-28.5,1.8162332528565992,0.8125
-28.5,1.8039614065535141,1.625
-28.5,1.7916895602504288,5.6875
-28.5,1.7916895602504288,4.875
-28.5,1.7916895602504288,4.0625
-28.5,1.8100973297050567,0.8125
-28.5,1.8162332528565992,0.0
-28.5,1.8162332528565992,1.625
-28.5,1.7978254834019713,1.625
-28.5,1.8223691760081417,-1.625
-28.5,1.7794177139473437,5.6875
-28.5,1.7916895602504288,4.875
-28.5,1.7978254834019713,0.0
-28.5,1.7732817907958012,4.875
-28.5,1.7671458676442586,5.6875
-28.5,1.7794177139473437,1.625
-28.5,1.7671458676442586,4.0625
-28.5,1.7855536370988863,0.8125
-28.5,1.7671458676442586,2.4375
-28.5,1.748738098189631,4.0625
-28.5,1.7303303287350031,5.6875
-28.5,1.748738098189631,1.625
-28.5,1.7119225592803755,6.5
-29.0,1.718058482431918,4.875
-28.5,1.748738098189631,-1.625
-28.5,1.7119225592803755,1.625
-28.5,1.7241944055834606,0.8125
-29.0,1.6935147898257479,2.4375
-29.0,1.6935147898257479,4.0625
-29.0,1.6689710972195777,4.875
-29.0,1.6689710972195777,4.0625
-29.0,1.6444274046134073,8.125
-29.0,1.6505633277649499,4.875
-29.0,1.6505633277649499,1.625
-29.0,1.6382914814618648,4.0625
-29.0,1.6444274046134073,2.4375
-29.0,1.6260196351587797,4.0625
-29.0,1.6260196351587797,2.4375
-29.0,1.607611865704152,4.875
-29.0,1.6137477888556946,1.625
-29.0,1.6198837120072371,4.0625
-29.0,1.6137477888556946,2.4375
-29.0,1.607611865704152,4.0625
-29.0,1.6260196351587797,0.0
-29.0,1.607611865704152,2.4375
-29.0,1.5892040962495242,4.875
-29.0,1.5953400194010667,4.875
-29.0,1.607611865704152,2.4375
-29.0,1.6137477888556946,1.625
-29.0,1.6137477888556946,1.625
-29.0,1.607611865704152,1.625
-29.0,1.5953400194010667,5.6875
-29.0,1.6137477888556946,0.8125
-29.0,1.6014759425526093,2.4375
-29.0,1.5892040962495242,2.4375
-29.0,1.6137477888556946,1.625
-29.0,1.6014759425526093,2.4375
-29.0,1.5953400194010667,5.6875
-29.0,1.607611865704152,1.625
-29.0,1.6198837120072371,-0.8125
-29.0,1.607611865704152,2.4375
-29.0,1.6137477888556946,2.4375
-29.0,1.6260196351587797,1.625
-29.0,1.6444274046134073,1.625
-29.0,1.6444274046134073,0.8125
-29.0,1.6566992509164924,1.625
-29.0,1.6566992509164924,1.625
-29.0,1.6505633277649499,4.0625
-29.0,1.6689710972195777,0.8125
-29.0,1.6566992509164924,4.0625
-29.0,1.6505633277649499,4.875
-29.0,1.6751070203711202,0.8125
-29.5,1.6751070203711202,2.4375
-29.5,1.6873788666742053,1.625
-29.0,1.6935147898257479,1.625
-29.0,1.6935147898257479,0.8125
-29.0,1.6873788666742053,1.625
-29.0,1.6689710972195777,6.5
-29.5,1.6935147898257479,2.4375
-29.0,1.705786636128833,1.625
-29.0,1.6996507129772904,4.0625
-29.0,1.718058482431918,-0.8125
-29.5,1.6812429435226628,6.5
-29.5,1.705786636128833,4.0625
-29.5,1.718058482431918,0.8125
-29.5,1.718058482431918,0.0
-29.0,1.6873788666742053,7.3125
-29.5,1.7241944055834606,0.8125
-29.0,1.718058482431918,1.625
-29.5,1.7303303287350031,0.8125
-29.5,1.705786636128833,5.6875
-29.0,1.7119225592803755,4.875
-29.0,1.718058482431918,4.875
-29.0,1.736466251886546,2.4375
-29.5,1.748738098189631,0.8125
-29.0,1.736466251886546,0.8125
-29.5,1.7426021750380885,0.0
-29.5,1.748738098189631,1.625
-29.0,1.7303303287350031,2.4375
-29.5,1.748738098189631,0.8125
-29.5,1.7548740213411735,-0.8125
-29.0,1.748738098189631,1.625
-29.0,1.736466251886546,4.0625
-29.5,1.748738098189631,4.0625
-29.0,1.7548740213411735,4.0625
-29.0,1.7671458676442586,1.625
-29.5,1.7794177139473437,0.0
-29.5,1.761009944492716,2.4375
-29.5,1.7794177139473437,0.8125
-29.0,1.7548740213411735,5.6875
-29.0,1.7916895602504288,-1.625
-29.0,1.761009944492716,4.0625
-29.5,1.7855536370988863,2.4375
-29.0,1.7916895602504288,2.4375
-29.0,1.7978254834019713,2.4375
-29.5,1.7978254834019713,4.0625
-29.5,1.8100973297050567,1.625
-29.0,1.8223691760081417,0.0
-29.5,1.8285050991596843,0.8125
-29.5,1.8346410223112268,1.625
-29.0,1.846912868614312,1.625
-29.5,1.8346410223112268,4.0625
-29.0,1.846912868614312,1.625
-29.5,1.8653206380689396,0.8125
-29.5,1.8653206380689396,2.4375
-29.5,1.8714565612204823,1.625
-29.5,1.859184714917397,4.875
-29.0,1.8653206380689396,4.0625
-29.0,1.88986433067511,0.8125
-29.5,1.8775924843720249,2.4375
-29.5,1.8837284075235674,4.0625
-29.0,1.88986433067511,-0.8125
-29.0,1.8775924843720249,4.875
-29.0,1.8960002538266525,0.0
-29.5,1.8775924843720249,5.6875
-29.0,1.8775924843720249,2.4375
-29.0,1.88986433067511,0.0
-29.0,1.88986433067511,0.0
-29.0,1.8775924843720249,2.4375
-29.0,1.8714565612204823,4.0625
-29.0,1.8960002538266525,0.0
-29.5,1.8960002538266525,0.8125
-29.0,1.8837284075235674,2.4375
-29.0,1.88986433067511,1.625
-29.0,1.8837284075235674,1.625
-29.0,1.8837284075235674,0.8125
-29.5,1.8960002538266525,2.4375
-29.0,1.8775924843720249,4.0625
-29.5,1.8653206380689396,5.6875
-29.5,1.88986433067511,1.625
-29.0,1.8775924843720249,4.0625
-29.0,1.8837284075235674,1.625
-29.5,1.88986433067511,2.4375
-29.0,1.88986433067511,0.8125
-29.5,1.8837284075235674,4.0625
-29.0,1.8837284075235674,2.4375
-29.0,1.88986433067511,2.4375
-29.5,1.8714565612204823,4.875
-29.0,1.902136176978195,1.625
-29.0,1.8837284075235674,4.875
-29.5,1.9144080232812801,0.0
-29.0,1.8960002538266525,0.0
-29.0,1.88986433067511,1.625
-29.0,1.8837284075235674,4.0625
-29.0,1.902136176978195,0.8125
-29.0,1.9082721001297376,0.0
-29.0,1.8960002538266525,1.625
-29.0,1.902136176978195,0.8125
-29.0,1.88986433067511,2.4375
-29.0,1.9144080232812801,0.0
-29.0,1.88986433067511,2.4375
-29.0,1.8775924843720249,5.6875
-29.0,1.88986433067511,2.4375
-29.0,1.8714565612204823,5.6875
-29.0,1.8837284075235674,2.4375
-29.0,1.88986433067511,2.4375
-29.0,1.88986433067511,1.625
-29.0,1.8837284075235674,4.0625
-29.0,1.8960002538266525,0.8125
-29.0,1.8775924843720249,4.875
-29.0,1.8960002538266525,4.875
-29.0,1.88986433067511,4.0625
-29.0,1.8960002538266525,4.0625
-29.0,1.8960002538266525,2.4375
-29.0,1.8837284075235674,5.6875
-29.0,1.9082721001297376,0.8125
-29.0,1.902136176978195,2.4375
-29.0,1.902136176978195,2.4375
-29.0,1.8960002538266525,1.625
-29.0,1.902136176978195,0.0
-29.0,1.9144080232812801,0.0
-29.0,1.902136176978195,4.0625
-29.0,1.902136176978195,2.4375
-29.0,1.88986433067511,4.875
-29.0,1.9144080232812801,0.8125
-29.0,1.902136176978195,1.625
-29.0,1.88986433067511,2.4375
-29.0,1.9144080232812801,-0.8125
-29.0,1.8960002538266525,1.625
-29.0,1.8775924843720249,7.3125
-29.0,1.902136176978195,4.0625
-29.0,1.9144080232812801,1.625
-29.0,1.88986433067511,4.875
-29.0,1.8837284075235674,4.875
-29.0,1.9082721001297376,1.625
-29.0,1.9082721001297376,1.625
-29.0,1.9082721001297376,4.0625
-29.0,1.9205439464328227,1.625
-29.0,1.9082721001297376,1.625
-29.0,1.9205439464328227,1.625
-29.0,1.8960002538266525,5.6875
-29.0,1.9205439464328227,1.625
-29.0,1.902136176978195,5.6875
-29.0,1.9144080232812801,1.625
-29.0,1.9082721001297376,4.0625
-29.0,1.9205439464328227,4.0625
-29.0,1.9144080232812801,5.6875
-29.0,1.9205439464328227,2.4375
-29.0,1.9205439464328227,4.0625
-29.0,1.9389517158874505,1.625
-29.0,1.932815792735908,1.625
-29.0,1.9389517158874505,1.625
-29.0,1.9266798695843652,4.875
-29.0,1.945087639038993,0.8125
-29.0,1.9573594853420782,0.0
-29.0,1.945087639038993,2.4375
-29.0,1.932815792735908,4.875
-29.0,1.9512235621905356,4.0625
-29.0,1.9512235621905356,4.875
-29.0,1.9573594853420782,1.625
-29.0,1.9512235621905356,2.4375
-29.0,1.9573594853420782,2.4375
-29.0,1.9819031779482483,0.0
-29.0,1.9757672547967058,0.8125
-28.5,1.9757672547967058,2.4375
-29.0,1.9696313316451632,4.875
-28.5,1.9880391010997909,2.4375
-29.0,1.9880391010997909,4.0625
-29.0,1.9941750242513334,1.625
-28.5,1.9880391010997909,4.0625
-29.0,2.0064468705544187,1.625
-29.0,2.0064468705544187,4.0625
-28.5,2.0064468705544187,4.0625
-29.0,2.0064468705544187,2.4375
-29.0,2.024854640009046,0.8125
-28.5,2.012582793705961,4.875
-29.0,2.000310947402876,4.875
-29.0,2.012582793705961,4.875
-29.0,2.012582793705961,4.0625
-29.0,2.024854640009046,4.875
-29.0,2.018718716857504,4.875
-28.5,2.043262409463674,0.8125
-28.5,2.024854640009046,2.4375
-28.5,2.0371264863121317,1.625
-29.0,2.0371264863121317,0.8125
-29.0,2.030990563160589,4.0625
-28.5,2.0371264863121317,2.4375
-28.5,2.0493983326152168,0.8125
-28.5,2.043262409463674,2.4375
-28.5,2.043262409463674,2.4375
-29.0,2.043262409463674,0.8125
-28.5,2.043262409463674,2.4375
-28.5,2.0371264863121317,4.875
-28.5,2.043262409463674,4.875
-28.5,2.061670178918302,0.8125
-28.5,2.061670178918302,0.0
-29.0,2.067806102069844,0.8125
-29.0,2.061670178918302,1.625
-29.0,2.061670178918302,1.625
-28.5,2.061670178918302,1.625
-28.5,2.0800779483729293,0.8125
-29.0,2.055534255766759,2.4375
-28.5,2.0493983326152168,4.875
-28.5,2.067806102069844,2.4375
-28.5,2.061670178918302,4.0625
-28.5,2.0800779483729293,0.8125
-28.5,2.073942025221387,2.4375
-28.5,2.0800779483729293,1.625
-28.5,2.086213871524472,2.4375
-29.0,2.073942025221387,2.4375
-28.5,2.0923497946760143,0.8125
-28.5,2.073942025221387,4.875
-28.5,2.086213871524472,1.625
-28.5,2.0800779483729293,2.4375
-28.5,2.086213871524472,4.0625
-29.0,2.0800779483729293,1.625
-29.0,2.098485717827557,-1.625
-28.5,2.073942025221387,2.4375
-29.0,2.067806102069844,2.4375
-28.5,2.0800779483729293,0.8125
-29.0,2.0923497946760143,0.0
-29.0,2.073942025221387,1.625
-28.5,2.061670178918302,5.6875
-29.0,2.098485717827557,0.0
-29.0,2.0800779483729293,2.4375
-29.0,2.0800779483729293,1.625
-28.5,2.073942025221387,4.875
-29.0,2.086213871524472,4.0625
-29.0,2.086213871524472,4.0625
-29.0,2.0923497946760143,1.625
-28.5,2.110757564130642,1.625
-29.0,2.098485717827557,1.625
-29.0,2.110757564130642,0.8125
-29.0,2.116893487282185,2.4375
-29.0,2.116893487282185,0.8125
-29.0,2.1046216409791,4.875
-29.0,2.12916533358527,2.4375
-29.0,2.1230294104337273,0.8125
-29.0,2.141437179888355,-0.8125
-29.0,2.12916533358527,1.625
-29.0,2.1353012567368124,4.0625
-29.0,2.12916533358527,2.4375
-29.0,2.1475731030398975,1.625
-29.0,2.1475731030398975,0.8125
-29.0,2.1475731030398975,4.875
-29.0,2.141437179888355,4.0625
-29.0,2.1537090261914402,4.0625
-29.0,2.172116795646068,0.8125
-29.0,2.172116795646068,0.0
-29.0,2.172116795646068,1.625
-29.0,2.172116795646068,2.4375
-29.0,2.172116795646068,4.0625
-29.0,2.184388641949153,1.625
-29.0,2.1905245651006955,1.625
-29.0,2.1905245651006955,2.4375
-29.0,2.2027964114037806,0.8125
-29.0,2.1905245651006955,4.0625
-29.0,2.2027964114037806,1.625
-29.0,2.2150682577068657,0.0
-29.0,2.2150682577068657,0.8125
-29.0,2.2150682577068657,1.625
-29.0,2.2150682577068657,1.625
-29.0,2.2334760271614935,1.625
-29.0,2.2212041808584084,4.0625
-29.0,2.2150682577068657,2.4375
-29.0,2.2150682577068657,4.0625
-29.0,2.227340104009951,0.8125
-29.0,2.2580197197676637,-1.625
-29.0,2.2334760271614935,4.0625
-29.0,2.2396119503130363,0.8125
-29.0,2.2580197197676637,-0.8125
-29.0,2.2518837966161214,0.0
-29.0,2.2457478734645786,0.0
-29.0,2.2518837966161214,0.8125
-29.0,2.2457478734645786,0.8125
-29.0,2.2457478734645786,0.0
-29.0,2.2518837966161214,1.625
-29.0,2.2518837966161214,0.8125
-29.0,2.2580197197676637,0.0
-29.0,2.2334760271614935,4.875
-29.0,2.2641556429192065,0.0
-29.0,2.2764274892222915,-1.625
-29.0,2.2518837966161214,2.4375
-29.0,2.2641556429192065,0.0
-29.0,2.2457478734645786,2.4375
-29.0,2.270291566070749,0.0
-29.0,2.2580197197676637,0.8125
-29.0,2.270291566070749,0.0
-29.0,2.2580197197676637,1.625
-29.0,2.2764274892222915,0.8125
-29.0,2.2948352586769194,-1.625
-29.0,2.270291566070749,4.0625
-29.0,2.2886993355253766,0.0
-29.0,2.2886993355253766,2.4375
-29.0,2.3009711818284617,0.0
-29.0,2.3071071049800045,0.0
-29.0,2.3009711818284617,0.0
-29.0,2.325514874434632,-2.4375
-29.0,2.325514874434632,-1.625
-29.0,2.3439226438892597,-4.0625
-29.0,2.325514874434632,0.0
-29.0,2.325514874434632,0.8125
-28.5,2.337786720737717,-1.625
-28.5,2.337786720737717,0.8125
-29.0,2.3439226438892597,0.0
-28.5,2.356194490192345,-0.8125
-28.5,2.36846633649543,0.0
-28.5,2.3623304133438876,0.0
-28.5,2.3746022596469727,-0.8125
-28.5,2.3746022596469727,-0.8125
-28.5,2.3623304133438876,2.4375
-28.5,2.399145952253143,-0.8125
-28.5,2.3746022596469727,4.0625
-28.5,2.3930100291016,-1.625
-28.5,2.3623304133438876,0.8125
-28.5,2.3623304133438876,0.0
-28.5,2.356194490192345,-1.625
-28.5,2.3193789512830896,0.8125
-28.5,2.2948352586769194,0.0
-29.0,2.2580197197676637,4.0625
-29.0,2.270291566070749,-1.625
-28.5,2.2212041808584084,2.4375
-29.0,2.2089323345553233,2.4375
-29.0,2.1966604882522383,1.625
-29.0,2.2027964114037806,1.625
-29.0,2.2027964114037806,2.4375
-29.0,2.2027964114037806,1.625
-29.0,2.2150682577068657,0.8125
-29.0,2.2089323345553233,1.625
-29.0,2.2150682577068657,1.625
-29.0,2.2027964114037806,2.4375
-29.0,2.2150682577068657,2.4375
-29.0,2.2150682577068657,0.8125
-29.0,2.2089323345553233,1.625
-29.0,2.227340104009951,0.0
-29.0,2.2089323345553233,2.4375
-29.0,2.1966604882522383,4.0625
-28.5,2.2089323345553233,1.625
-28.5,2.2212041808584084,0.0
-28.5,2.227340104009951,-0.8125
-28.5,2.2150682577068657,0.8125
-28.5,2.2089323345553233,1.625
-28.5,2.2089323345553233,5.6875
-28.0,2.2089323345553233,5.6875
-28.5,2.2334760271614935,2.4375
-28.5,2.2334760271614935,5.6875
-28.5,2.2641556429192065,0.8125
-28.0,2.2641556429192065,2.4375
-28.0,2.2886993355253766,-1.625
-28.0,2.2886993355253766,0.0
-28.0,2.2948352586769194,1.625
-28.0,2.313243028131547,1.625
-28.0,2.337786720737717,-0.8125
-28.0,2.350058567040802,0.0
-28.0,2.3623304133438876,0.0
-28.0,2.3746022596469727,0.0
-27.5,2.36846633649543,0.8125
-27.5,2.3930100291016,-0.8125
-27.5,2.405281875404685,0.0
-27.5,2.399145952253143,0.0
-27.5,2.405281875404685,0.8125
-27.5,2.405281875404685,0.8125
-27.5,2.3930100291016,1.625
-27.5,2.405281875404685,1.625
-27.5,2.423689644859313,0.0
-27.5,2.405281875404685,1.625
-27.5,2.399145952253143,4.0625
-27.5,2.3930100291016,5.6875
-27.5,2.399145952253143,0.8125
-27.5,2.386874105950058,2.4375
-27.5,2.405281875404685,-0.8125
-27.5,2.386874105950058,0.8125
-27.5,2.3930100291016,-1.625
-27.5,2.3746022596469727,0.8125
-27.5,2.380738182798515,0.8125
-27.5,2.380738182798515,0.8125
-27.5,2.3746022596469727,1.625
-27.5,2.3746022596469727,0.8125
-27.5,2.36846633649543,1.625
-27.5,2.380738182798515,0.0
-27.5,2.380738182798515,-0.8125
-27.5,2.3746022596469727,0.0
-27.5,2.3930100291016,-0.8125
-27.5,2.380738182798515,0.8125
-27.0,2.4605051837685683,0.8125
-27.0,2.4727770300716534,1.625
-27.0,2.497320722677824,0.0
-27.0,2.497320722677824,2.4375
-27.0,2.497320722677824,2.4375
-27.0,2.5280003384355365,0.8125
-27.0,2.5280003384355365,4.875
-26.5,2.564815877344792,2.4375
-26.5,2.5832236467994196,4.875
-26.5,2.6384469551633027,-0.8125
-26.5,2.6691265709210157,0.8125
-26.5,2.6998061866787286,2.4375
-26.5,2.742757648739526,2.4375
-26.0,2.767301341345697,4.0625
-26.0,2.8102528034064944,4.0625
-26.5,2.834796496012665,4.875
-26.5,2.859340188618835,4.875
-26.5,2.9022916506796332,1.625
-26.5,2.9206994201342606,5.6875
-26.5,2.9759227284981438,1.625
-26.5,3.018874190558942,-1.625
-26.5,3.018874190558942,0.8125
-27.0,3.055689729468197,-4.0625
-26.5,3.031146036862027,1.625
-26.5,3.0250101137104846,0.8125
-26.5,3.031146036862027,0.8125
-26.5,3.031146036862027,-0.8125
-27.0,3.043417883165112,-1.625
-26.5,2.9943304979527716,4.0625
-26.5,3.0250101137104846,-1.625
-26.5,2.9943304979527716,2.4375
-27.0,2.9820586516496865,4.875
-26.5,3.018874190558942,-0.8125
-26.5,3.000466421104314,0.8125
-26.5,2.988194574801229,1.625
-26.5,3.000466421104314,0.8125
-27.0,3.000466421104314,0.8125
-26.5,2.9943304979527716,4.0625
-26.5,2.9820586516496865,4.0625
-26.5,3.0250101137104846,-1.625
-26.5,3.018874190558942,-0.8125
-27.0,3.0127382674073995,0.8125
-27.0,3.0250101137104846,0.8125
-27.0,3.043417883165112,-0.8125
-26.5,3.0495538063166547,-2.4375
-26.5,3.0495538063166547,0.0
-26.5,3.067961575771282,-2.4375
-26.5,3.067961575771282,-0.8125
-27.0,3.074097498922825,-1.625
-26.5,3.0802334220743677,-0.8125
-27.0,3.0802334220743677,-0.8125
-27.0,3.104777114680538,-0.8125
-27.0,3.098641191528995,1.625
-27.0,3.104777114680538,8.125
-26.5,3.141592653589793,0.8125
-26.5,3.1354567304382504,2.4375
-26.5,3.1661363461959633,1.625
-26.5,3.1906800388021335,0.0
-26.5,3.2090878082567613,-0.8125
-26.5,3.227495577711389,-0.8125
-26.5,3.2397674240144743,0.0
-26.0,3.2459033471660166,4.0625
-26.0,3.2704470397721868,1.625
-26.0,3.2827188860752723,4.0625
-26.0,3.313398501832985,0.8125
-26.0,3.3318062712876126,1.625
-26.0,3.356349963893783,0.8125
-26.0,3.380893656499953,-0.8125
-25.5,3.380893656499953,0.8125
-25.5,3.4054373491061236,2.4375
-25.5,3.423845118560751,0.8125
-25.5,3.436116964863836,0.8125
-25.5,3.448388811166921,1.625
-25.0,3.4606606574700063,1.625
-25.5,3.472932503773092,1.625
-25.5,3.4913402732277192,0.0
-25.5,3.4913402732277192,1.625
-25.5,3.497476196379262,1.625
-25.5,3.497476196379262,1.625
-25.5,3.5036121195308043,1.625
-25.0,3.5158839658338894,2.4375
-25.0,3.5158839658338894,1.625
-25.0,3.509748042682347,4.0625
-25.0,3.522019888985432,1.625
-25.0,3.54042765844006,-0.8125
-25.5,3.5342917352885173,0.8125
-25.0,3.54042765844006,0.8125
-25.5,3.54042765844006,1.625
-25.0,3.54042765844006,1.625
-25.0,3.552699504743145,0.0
-25.5,3.54042765844006,1.625
-25.5,3.5465635815916023,0.0
-25.0,3.54042765844006,0.8125
-25.0,3.5465635815916023,0.0
-25.0,3.54042765844006,0.8125
-25.5,3.5465635815916023,0.0
-25.0,3.5465635815916023,0.8125
-25.5,3.5588354278946874,2.4375
-25.0,3.56497135104623,0.8125
-25.0,3.5711072741977725,0.8125
-25.0,3.5833791205008576,2.4375
-25.0,3.5956509668039427,0.0
-25.0,3.6079228131070282,2.4375
-25.0,3.6324665057131984,0.8125
-25.0,3.6447383520162835,1.625
-25.0,3.6447383520162835,2.4375
-25.0,3.6815538909255388,1.625
-25.0,3.6876898140770815,1.625
-25.0,3.706097583531709,0.0
-25.0,3.718369429834794,1.625
-25.0,3.730641276137879,-0.8125
-25.0,3.730641276137879,-0.8125
-25.0,3.749049045592507,-2.4375
-25.0,3.730641276137879,1.625
-25.5,3.7429131224409646,0.0
-25.0,3.7551849687440497,0.0
-25.5,3.7429131224409646,1.625
-25.5,3.749049045592507,1.625
-25.5,3.761320891895592,-1.625
-25.5,3.761320891895592,0.8125
-25.5,3.767456815047135,0.8125
-25.5,3.761320891895592,2.4375
-25.5,3.761320891895592,1.625
-25.5,3.77972866135022,0.0
-25.5,3.767456815047135,0.8125
-25.5,3.77972866135022,0.8125
-25.5,3.77972866135022,0.0
-25.5,3.77972866135022,0.0
-25.5,3.773592738198677,0.0
-25.5,3.767456815047135,0.8125
-25.5,3.767456815047135,0.8125
-25.5,3.77972866135022,-0.8125
-26.0,3.767456815047135,-0.8125
-25.5,3.761320891895592,1.625
-25.5,3.773592738198677,-0.8125
-25.5,3.7551849687440497,1.625
-25.5,3.7551849687440497,2.4375
-25.5,3.761320891895592,1.625
-25.5,3.761320891895592,1.625
-25.5,3.767456815047135,0.8125
-25.5,3.77972866135022,0.0
-26.0,3.761320891895592,0.0
-25.5,3.749049045592507,4.875
-26.0,3.77972866135022,0.8125
-25.5,3.767456815047135,4.0625
-25.5,3.785864584501762,0.0
-26.0,3.785864584501762,0.0
-26.0,3.7981364308048478,-2.4375
-25.5,3.792000507653305,0.0
-26.0,3.792000507653305,0.0
-26.0,3.77972866135022,0.8125
-26.0,3.785864584501762,0.0
-26.0,3.77972866135022,0.8125
-26.0,3.785864584501762,0.0
-25.5,3.792000507653305,0.8125
-26.0,3.7981364308048478,-0.8125
-26.0,3.785864584501762,0.8125
-26.0,3.7981364308048478,-0.8125
-26.0,3.792000507653305,0.8125
-26.0,3.792000507653305,0.0
-26.0,3.80427235395639,0.0
-26.0,3.816544200259475,-0.8125
-26.0,3.822680123411018,-1.625
-26.0,3.8288160465625602,-2.4375
-26.0,3.8288160465625602,-1.625
-26.0,3.834951969714103,-2.4375
-26.0,3.822680123411018,1.625
-26.0,3.834951969714103,-0.8125
-26.0,3.847223816017188,-2.4375
-26.0,3.8288160465625602,0.0
-26.0,3.8533597391687304,-4.0625
-26.5,3.847223816017188,-0.8125
-26.0,3.847223816017188,-2.4375
-26.0,3.859495662320273,-1.625
-26.0,3.8410878928656453,0.0
-26.0,3.859495662320273,-1.625
-26.0,3.8410878928656453,2.4375
-26.0,3.865631585471816,-1.625
-26.0,3.8717675086233583,-4.0625
-26.0,3.8717675086233583,-2.4375
-26.0,3.859495662320273,0.0
-26.0,3.8717675086233583,-1.625
-26.5,3.877903431774901,-4.0625
-26.0,3.8533597391687304,1.625
-26.5,3.865631585471816,-1.625
-26.5,3.877903431774901,-2.4375
-26.0,3.8717675086233583,0.0
-26.5,3.877903431774901,-0.8125
-26.5,3.877903431774901,-1.625
-26.5,3.877903431774901,-0.8125
-26.5,3.877903431774901,-0.8125
-26.5,3.8840393549264434,-2.4375
-26.5,3.8840393549264434,-0.8125
-26.5,3.8963112012295285,-1.625
-26.5,3.9085830475326135,-2.4375
-26.5,3.9147189706841563,-2.4375
-26.5,3.9147189706841563,-1.625
-26.5,3.9269908169872414,-4.875
-27.0,3.9085830475326135,-0.8125
-26.5,3.9208548938356986,-4.0625
-26.5,3.902447124381071,-0.8125
-26.5,3.8963112012295285,0.8125
-26.5,3.9147189706841563,-4.0625
-26.5,3.9147189706841563,-4.0625
-26.5,3.902447124381071,-1.625
-26.5,3.902447124381071,-0.8125
-26.5,3.8963112012295285,-0.8125
-26.5,3.902447124381071,-0.8125
-26.5,3.8963112012295285,-0.8125
-26.5,3.9147189706841563,-4.875
-26.5,3.890175278077986,0.0
-26.5,3.902447124381071,-0.8125
-26.5,3.9147189706841563,-1.625
-26.5,3.9147189706841563,-1.625
-27.0,3.933126740138784,-4.0625
-26.5,3.9269908169872414,-1.625
-26.5,3.933126740138784,-2.4375
-26.5,3.9453985864418692,-4.875
-27.0,3.9515345095934116,-2.4375
-26.5,3.9515345095934116,-1.625
-26.5,3.9576704327449543,-0.8125
-26.5,3.9760782021995817,-4.0625
-26.5,3.9822141253511245,-4.0625
-27.0,3.988350048502667,-1.625
-27.0,3.9944859716542096,-0.8125
-27.0,4.025165587411922,-4.0625
-27.0,4.037437433715008,-2.4375
-27.0,4.049709280018092,-0.8125
-27.0,4.074252972624263,-1.625
-27.0,4.0987966652304335,-0.8125
-27.5,4.104932588381976,-0.8125
-27.5,4.1417481272912315,-0.8125
-27.5,4.1601558967458585,0.0
-27.5,4.184699589352029,-1.625
-27.5,4.2031073588066565,-1.625
-27.5,4.2092432819582,-2.4375
-27.5,4.2092432819582,-0.8125
-27.5,4.215379205109742,-4.0625
-27.5,4.2092432819582,-2.4375
-27.5,4.23378697456437,-6.5
-27.5,4.215379205109742,-1.625
-28.0,4.227651051412827,-4.0625
-28.0,4.227651051412827,-2.4375
-28.0,4.239922897715912,-2.4375
-28.0,4.23378697456437,0.0
-28.0,4.252194744018997,-1.625
-28.0,4.264466590322082,-2.4375
-28.0,4.264466590322082,-0.8125
-28.0,4.246058820867455,1.625
-28.0,4.301282129231338,-4.875
-28.5,4.289010282928253,-0.8125
-28.0,4.301282129231338,-1.625
-28.0,4.319689898685965,-4.0625
-28.5,4.313553975534423,-0.8125
-28.5,4.319689898685965,-4.0625
-28.5,4.319689898685965,-0.8125
-28.5,4.338097668140593,-0.8125
-28.5,4.331961744989051,0.0
-29.0,4.338097668140593,-1.625
-28.5,4.3503695144436785,-1.625
-28.5,4.338097668140593,0.8125
-28.5,4.325825821837508,0.0
-28.5,4.344233591292136,-2.4375
-29.0,4.344233591292136,-4.875
-28.5,4.338097668140593,-2.4375
-28.5,4.331961744989051,-1.625
-28.5,4.325825821837508,0.0
-29.0,4.338097668140593,-1.625
-28.5,4.3503695144436785,-1.625
-28.5,4.338097668140593,0.0
-29.0,4.344233591292136,-4.0625
-29.0,4.338097668140593,-0.8125
-29.0,4.3503695144436785,-2.4375
-29.0,4.331961744989051,0.0
-29.0,4.344233591292136,-4.0625
-28.5,4.331961744989051,0.0
-29.0,4.338097668140593,-0.8125
-29.0,4.338097668140593,-1.625
-29.0,4.338097668140593,-0.8125
-29.0,4.338097668140593,-1.625
-29.0,4.319689898685965,0.8125
-28.5,4.338097668140593,-2.4375
-28.5,4.319689898685965,-0.8125
-29.0,4.319689898685965,0.0
-28.5,4.344233591292136,-5.6875
-29.0,4.325825821837508,-1.625
-28.5,4.344233591292136,-2.4375
-29.0,4.338097668140593,-1.625
-29.0,4.338097668140593,-2.4375
-29.0,4.325825821837508,-2.4375
-29.0,4.325825821837508,-0.8125
-29.0,4.313553975534423,0.8125
-29.0,4.319689898685965,0.0
-29.0,4.325825821837508,-0.8125
-29.0,4.325825821837508,-0.8125
-29.0,4.338097668140593,-4.0625
-29.0,4.331961744989051,-1.625
-29.0,4.338097668140593,-4.0625
-29.0,4.344233591292136,-5.6875
-29.0,4.338097668140593,-4.0625
-29.0,4.338097668140593,-4.0625
-29.0,4.325825821837508,-0.8125
-29.0,4.3074180523828804,0.8125
-29.0,4.313553975534423,-1.625
-29.5,4.313553975534423,-2.4375
-29.0,4.3074180523828804,-1.625
-29.0,4.289010282928253,-0.8125
-29.0,4.289010282928253,-1.625
-28.5,4.276738436625168,-0.8125
-29.0,4.264466590322082,-0.8125
-29.0,4.252194744018997,-1.625
-28.5,4.252194744018997,0.8125
-28.5,4.264466590322082,-4.875
-28.5,4.264466590322082,-1.625
-28.5,4.264466590322082,-2.4375
-28.5,4.25833066717054,0.0
-28.5,4.25833066717054,-1.625
-28.5,4.227651051412827,4.875
-28.0,4.25833066717054,-1.625
-28.0,4.270602513473625,-0.8125
-28.0,4.252194744018997,0.8125
-28.0,4.25833066717054,-0.8125
-28.0,4.270602513473625,-2.4375
-28.0,4.252194744018997,0.0
-28.0,4.246058820867455,-0.8125
-28.0,4.239922897715912,-1.625
-28.0,4.227651051412827,-1.625
-27.5,4.221515128261284,1.625
-27.5,4.215379205109742,-2.4375
-27.5,4.221515128261284,-4.0625
-27.5,4.215379205109742,-4.0625
-27.5,4.184699589352029,0.0
-27.5,4.184699589352029,-0.8125
-27.5,4.178563666200486,-0.8125
-27.5,4.172427743048944,0.0
-27.5,4.178563666200486,0.0
-27.5,4.166291819897402,0.8125
-27.5,4.184699589352029,-4.0625
-27.5,4.172427743048944,-0.8125
-27.5,4.172427743048944,-2.4375
-27.5,4.1601558967458585,0.0
-27.5,4.172427743048944,-2.4375
-27.5,4.178563666200486,-2.4375
-27.5,4.178563666200486,-0.8125
-27.5,4.178563666200486,-1.625
-27.5,4.178563666200486,-4.0625
-27.5,4.172427743048944,-0.8125
-27.5,4.178563666200486,-1.625
-27.5,4.166291819897402,0.0
-27.5,4.166291819897402,-1.625
-27.5,4.1601558967458585,0.0
-27.5,4.166291819897402,-1.625
-27.5,4.1601558967458585,-4.0625
-27.5,4.1601558967458585,-0.8125
-27.0,4.147884050442774,-0.8125
-27.5,4.1417481272912315,-2.4375
-27.0,4.123340357836604,0.8125
-27.0,4.129476280988146,-4.0625
-27.0,4.0987966652304335,1.625
-27.0,4.09266074207889,0.8125
-27.0,4.080388895775806,-0.8125
-27.0,4.074252972624263,-1.625
-27.0,4.074252972624263,-2.4375
-27.0,4.06811704947272,-4.0625
-27.0,4.04357335686655,-0.8125
-27.0,4.025165587411922,-0.8125
-27.0,4.025165587411922,0.0
-26.5,4.031301510563465,-0.8125
-26.5,4.037437433715008,-2.4375
-27.0,4.025165587411922,-0.8125
-27.0,4.037437433715008,-0.8125
-27.0,4.01902966426038,-0.8125
-26.5,4.037437433715008,-4.0625
-27.0,4.031301510563465,0.0
-27.0,4.025165587411922,-1.625
-27.0,4.0558452031696355,-5.6875
-26.5,4.031301510563465,-2.4375
-27.0,4.037437433715008,-4.875
-27.0,4.031301510563465,-0.8125
-26.5,4.0128937411088375,-1.625
-27.0,3.9822141253511245,-2.4375
-27.0,3.9576704327449543,0.0
-26.5,3.9453985864418692,-0.8125
-26.5,3.9085830475326135,-0.8125
-26.5,3.8840393549264434,-2.4375
-26.5,3.847223816017188,-0.8125
-26.0,3.816544200259475,-4.0625
-26.0,3.773592738198677,-0.8125
-26.0,3.718369429834794,0.8125
-26.0,3.693825737228624,0.0
-26.0,3.6692820446224537,0.8125
-26.0,3.6386024288647407,1.625
-26.0,3.6324665057131984,0.8125
-26.0,3.6140587362585705,2.4375
-26.0,3.6079228131070282,4.875
-26.0,3.5956509668039427,2.4375
-26.0,3.5895150436524004,4.0625
-26.0,3.5956509668039427,2.4375
-26.0,3.5895150436524004,2.4375
-26.0,3.5956509668039427,0.8125
-26.0,3.6079228131070282,0.0
-26.0,3.5833791205008576,2.4375
-26.0,3.5833791205008576,2.4375
-26.0,3.5833791205008576,-1.625
-26.0,3.56497135104623,2.4375
-26.0,3.5465635815916023,4.0625
-26.0,3.54042765844006,2.4375
-26.0,3.522019888985432,2.4375
-26.0,3.5158839658338894,0.0
-26.0,3.4913402732277192,2.4375
-26.0,3.485204350076177,2.4375
-26.0,3.472932503773092,2.4375
-26.5,3.448388811166921,2.4375
-26.5,3.436116964863836,1.625
-26.0,3.4177091954092087,4.0625
-26.0,3.423845118560751,2.4375
-26.5,3.411573272257666,0.8125
-26.5,3.399301425954581,1.625
-26.5,3.393165502803038,2.4375
-26.5,3.393165502803038,0.0
-26.5,3.3747577333484107,4.0625
-26.5,3.3747577333484107,2.4375
-26.5,3.368621810196868,1.625
-26.5,3.356349963893783,2.4375
-26.5,3.3440781175906977,2.4375
-26.5,3.3440781175906977,0.8125
-26.5,3.3195344249845276,4.0625
-27.0,3.3072625786814425,1.625
-27.0,3.2888548092268146,1.625
-27.0,3.2643111166206444,2.4375
-27.0,3.2397674240144743,0.8125
-27.5,3.215223731408304,0.8125
-27.5,3.1784081924990484,4.875
-27.5,3.153864499892878,1.625
-28.0,3.098641191528995,4.875
-28.0,3.0925052683774528,4.0625
-28.0,3.074097498922825,1.625
-28.0,3.055689729468197,0.8125
-28.0,3.043417883165112,2.4375
-28.0,3.0250101137104846,2.4375
-28.0,3.0250101137104846,0.8125
-28.0,3.018874190558942,0.8125
-28.0,3.0250101137104846,0.0
-28.0,2.988194574801229,4.0625
-28.0,2.9759227284981438,6.5
-28.0,3.000466421104314,2.4375
-28.0,3.0127382674073995,0.8125
-28.0,2.9759227284981438,5.6875
-28.0,3.0066023442558567,1.625
-28.0,2.9943304979527716,4.0625
-28.0,2.9943304979527716,4.0625
-28.0,3.0250101137104846,0.0
-28.0,3.0127382674073995,0.8125
-28.5,3.018874190558942,1.625
-28.0,3.0250101137104846,0.8125
-28.0,3.031146036862027,0.0
-28.0,3.018874190558942,4.875
-28.0,3.0127382674073995,4.0625
-28.5,3.018874190558942,4.875
-28.0,3.0250101137104846,2.4375
-28.0,3.0250101137104846,4.875
-28.0,3.0372819600135696,1.625
-28.0,3.0127382674073995,5.6875
-28.0,3.0372819600135696,0.8125
-28.5,3.0250101137104846,4.0625
-28.0,3.031146036862027,0.8125
-28.0,2.9943304979527716,6.5
-28.5,2.9820586516496865,6.5
-28.0,3.0066023442558567,2.4375
-28.0,3.0066023442558567,1.625
-28.5,2.9636508821950587,4.875
-28.5,2.9145634969827183,4.0625
-28.5,2.8716120349219203,4.875
-29.0,2.816388726558037,5.6875
-29.0,2.7857091108003242,4.875
-29.0,2.742757648739526,4.875
-29.0,2.7120780329818137,5.6875
-29.5,2.662990647769473,7.3125
-29.5,2.650718801466388,6.5
-30.0,2.6384469551633027,2.4375
-30.0,2.6200391857086753,4.0625
-30.0,2.5893595699509624,6.5
-30.5,2.5770877236478773,6.5
-30.5,2.5709518004963345,6.5
-30.5,2.5832236467994196,4.875
-30.5,2.5770877236478773,6.5
-30.5,2.5770877236478773,6.5
-30.5,2.564815877344792,6.5
-30.5,2.552544031041707,7.3125
-31.0,2.564815877344792,5.6875
-30.5,2.564815877344792,5.6875
-30.5,2.5464081078901644,7.3125
-30.5,2.5709518004963345,5.6875
-30.5,2.5709518004963345,5.6875
-30.5,2.5709518004963345,4.0625
-30.5,2.5464081078901644,8.9375
-30.5,2.564815877344792,5.6875
-30.5,2.564815877344792,6.5
-30.5,2.5709518004963345,2.4375
-30.5,2.552544031041707,4.875
-30.5,2.5341362615870793,9.75
-31.0,2.552544031041707,5.6875
-31.0,2.5586799541932495,4.875
-30.5,2.5586799541932495,4.875
-30.5,2.5464081078901644,8.125
-31.0,2.5341362615870793,7.3125
-31.0,2.5586799541932495,4.0625
-31.0,2.5341362615870793,7.3125
-31.0,2.5586799541932495,4.0625
-31.0,2.552544031041707,4.0625
-30.5,2.5341362615870793,7.3125
-31.0,2.5586799541932495,1.625
-30.5,2.5709518004963345,4.0625
-31.0,2.5464081078901644,7.3125
-30.5,2.5280003384355365,9.75
-30.5,2.5464081078901644,7.3125
-30.5,2.5709518004963345,4.0625
-31.0,2.5464081078901644,6.5
-30.5,2.5341362615870793,7.3125
-31.0,2.5341362615870793,6.5
-31.0,2.5402721847386216,2.4375
-31.5,2.497320722677824,4.875
-31.5,2.4911847995262812,5.6875
-32.0,2.448233337465483,6.5
-32.0,2.429825568010856,8.125
-32.5,2.435961491162398,1.625
-32.5,2.429825568010856,1.625
-32.5,2.411417798556228,4.875
-32.5,2.3746022596469727,7.3125
-33.0,2.3930100291016,6.5
-33.0,2.386874105950058,4.875
-33.0,2.411417798556228,1.625
-33.0,2.4175537217077703,2.4375
-33.0,2.405281875404685,2.4375
-33.0,2.405281875404685,4.875
-33.0,2.405281875404685,2.4375
-33.0,2.411417798556228,4.0625
-33.0,2.3930100291016,6.5
-33.0,2.3930100291016,6.5
-33.0,2.405281875404685,5.6875
-33.0,2.399145952253143,4.0625
-33.0,2.3930100291016,6.5
-33.0,2.411417798556228,1.625
-33.0,2.411417798556228,0.8125
-32.5,2.4175537217077703,0.0
-32.5,2.423689644859313,0.8125
-32.5,2.442097414313941,-4.0625
-32.5,2.399145952253143,4.875
-32.5,2.405281875404685,2.4375
-32.0,2.405281875404685,2.4375
-32.0,2.429825568010856,-0.8125
-32.5,2.4175537217077703,1.625
-32.0,2.4175537217077703,0.8125
-32.0,2.411417798556228,4.0625
-32.0,2.442097414313941,0.0
-32.0,2.435961491162398,1.625
-31.5,2.442097414313941,1.625
-31.5,2.466641106920111,0.0
-31.5,2.448233337465483,0.8125
-31.5,2.466641106920111,0.8125
-31.5,2.466641106920111,0.0
-31.0,2.466641106920111,1.625
-31.0,2.466641106920111,1.625
-31.5,2.4850488763747385,2.4375
-31.0,2.4850488763747385,1.625
-31.0,2.4911847995262812,4.0625
-31.0,2.521864415283994,-0.8125
-30.5,2.509592568980909,4.0625
-30.5,2.5341362615870793,2.4375
-30.5,2.521864415283994,4.875
-30.5,2.5464081078901644,2.4375
-30.5,2.5341362615870793,4.875
-30.5,2.5280003384355365,4.875
-30.5,2.5402721847386216,0.8125
-31.0,2.509592568980909,1.625
-31.0,2.5034566458293663,0.0
-31.5,2.478912953223196,-1.625
-31.5,2.429825568010856,0.0
-32.0,2.399145952253143,4.875
-32.5,2.386874105950058,2.4375
-32.5,2.386874105950058,0.0
-32.5,2.3623304133438876,-0.8125
-33.0,2.350058567040802,-1.625
-33.0,2.3439226438892597,0.0
-33.0,2.3316507975861747,0.0
-33.0,2.3071071049800045,1.625
-33.5,2.3071071049800045,2.4375
-33.0,2.325514874434632,-0.8125
-33.0,2.337786720737717,-0.8125
-33.0,2.3316507975861747,1.625
-33.0,2.350058567040802,-1.625
-33.0,2.325514874434632,0.8125
-33.0,2.36846633649543,-4.0625
-33.0,2.350058567040802,0.8125
-33.0,2.356194490192345,-1.625
-33.0,2.350058567040802,0.0
-33.0,2.350058567040802,0.0
-33.0,2.3439226438892597,1.625
-33.0,2.380738182798515,-4.0625
-33.0,2.36846633649543,0.8125
-33.0,2.3746022596469727,0.8125
-33.0,2.3746022596469727,0.8125
-33.0,2.3746022596469727,0.8125
-33.0,2.386874105950058,-1.625
-33.0,2.3930100291016,-0.8125
-32.5,2.36846633649543,0.8125
-33.0,2.386874105950058,0.8125
-33.0,2.386874105950058,-0.8125
-33.0,2.3746022596469727,4.0625
-33.0,2.3623304133438876,1.625
-33.0,2.380738182798515,-2.4375
-33.0,2.3439226438892597,4.0625
-33.0,2.356194490192345,-0.8125
-33.0,2.3193789512830896,2.4375
-33.0,2.337786720737717,-4.875
-33.5,2.2948352586769194,0.8125
-33.5,2.282563412373834,0.8125
-33.5,2.3009711818284617,-2.4375
-33.5,2.2948352586769194,-4.0625
-33.5,2.2641556429192065,-0.8125
-33.5,2.270291566070749,-0.8125
-33.5,2.2518837966161214,2.4375
-33.5,2.2457478734645786,1.625
-33.5,2.2212041808584084,5.6875
-33.5,2.227340104009951,1.625
-33.5,2.2396119503130363,0.0
-33.5,2.2150682577068657,4.875
-33.5,2.2089323345553233,4.875
-33.5,2.2089323345553233,4.875
-33.5,2.2518837966161214,-1.625
-33.5,2.2150682577068657,4.875
-33.5,2.2396119503130363,0.0
-33.5,2.2457478734645786,-1.625
-33.5,2.2150682577068657,5.6875
-33.5,2.2027964114037806,6.5
-34.0,2.2212041808584084,4.0625
-33.5,2.2212041808584084,4.0625
-33.5,2.2150682577068657,4.0625
-33.5,2.2089323345553233,6.5
-33.5,2.2212041808584084,4.875
-33.5,2.2396119503130363,2.4375
-33.5,2.2396119503130363,1.625
-34.0,2.2518837966161214,-0.8125
-33.5,2.270291566070749,-0.8125
-33.5,2.270291566070749,0.0
-33.5,2.2212041808584084,6.5
-33.5,2.2457478734645786,1.625
-33.5,2.2334760271614935,1.625
-33.5,2.2457478734645786,1.625
-33.5,2.227340104009951,0.8125
-33.5,2.1905245651006955,8.9375
-33.5,2.2089323345553233,2.4375
-33.5,2.2150682577068657,2.4375
-33.5,2.2089323345553233,4.875
-33.5,2.184388641949153,7.3125
-33.5,2.2150682577068657,0.8125
-33.5,2.1782527187976104,8.125
-33.5,2.2089323345553233,1.625
-33.5,2.227340104009951,1.625
-33.5,2.2027964114037806,4.0625
-33.5,2.1966604882522383,4.0625
-34.0,2.2150682577068657,4.0625
-33.5,2.1905245651006955,4.875
-33.5,2.2150682577068657,2.4375
-33.5,2.2089323345553233,2.4375
-33.5,2.2027964114037806,4.0625
-33.5,2.2457478734645786,-1.625
-33.5,2.2027964114037806,4.875
-33.5,2.1966604882522383,6.5
-33.5,2.1905245651006955,7.3125
-33.5,2.2089323345553233,4.0625
-33.5,2.2027964114037806,4.0625
-33.5,2.2518837966161214,-1.625
-33.5,2.2518837966161214,-0.8125
-33.5,2.2457478734645786,-0.8125
-33.5,2.2150682577068657,1.625
-33.5,2.2089323345553233,4.875
-33.5,2.1966604882522383,7.3125
-33.5,2.2457478734645786,-0.8125
-33.5,2.2457478734645786,0.0
-33.5,2.2089323345553233,4.875
-33.5,2.2027964114037806,5.6875
-33.5,2.2089323345553233,4.875
-33.0,2.1905245651006955,8.125
-33.5,2.227340104009951,1.625
-33.5,2.2027964114037806,6.5
-33.5,2.2212041808584084,2.4375
-33.5,2.2580197197676637,-4.0625
-33.5,2.2150682577068657,4.0625
-33.5,2.1966604882522383,5.6875
-33.5,2.2027964114037806,2.4375
-33.5,2.1966604882522383,0.8125
-33.5,2.1782527187976104,1.625
-33.5,2.1537090261914402,4.0625
-33.5,2.1537090261914402,1.625
-33.5,2.12916533358527,8.125
-33.5,2.116893487282185,4.875
-33.5,2.141437179888355,0.8125
-33.5,2.1230294104337273,2.4375
-33.5,2.12916533358527,0.8125
-33.5,2.0923497946760143,4.875
-34.0,2.116893487282185,1.625
-34.0,2.086213871524472,4.875
-34.0,2.0800779483729293,4.0625
-34.0,2.073942025221387,6.5
-34.0,2.086213871524472,4.0625
-34.0,2.0800779483729293,2.4375
-33.5,2.067806102069844,5.6875
-33.5,2.086213871524472,1.625
-33.5,2.073942025221387,5.6875
-34.0,2.0923497946760143,2.4375
-34.0,2.0923497946760143,2.4375
-34.0,2.0923497946760143,2.4375
-34.0,2.0923497946760143,2.4375
-34.0,2.0800779483729293,4.875
-34.0,2.086213871524472,4.0625
-33.5,2.0800779483729293,4.0625
-34.0,2.116893487282185,-0.8125
-34.0,2.086213871524472,0.8125
-34.0,2.0923497946760143,2.4375
-34.0,2.1046216409791,0.8125
-34.0,2.073942025221387,4.0625
-34.0,2.073942025221387,5.6875
-34.0,2.110757564130642,-0.8125
-34.0,2.061670178918302,6.5
-34.0,2.0800779483729293,4.0625
-34.0,2.0923497946760143,1.625
-34.0,2.110757564130642,0.0
-34.0,2.0800779483729293,2.4375
-34.0,2.073942025221387,5.6875
-34.0,2.098485717827557,-0.8125
-34.0,2.055534255766759,4.875
-34.0,2.043262409463674,4.0625
-34.0,2.0371264863121317,4.0625
-34.0,2.0064468705544187,7.3125
-34.0,2.000310947402876,5.6875
-34.0,2.012582793705961,1.625
-34.0,2.018718716857504,0.8125
-34.0,2.000310947402876,1.625
-34.0,2.018718716857504,-0.8125
-34.0,1.9696313316451632,7.3125
-34.0,2.0064468705544187,1.625
-34.0,1.9819031779482483,4.0625
-34.0,1.9880391010997909,1.625
-34.0,2.012582793705961,-0.8125
-34.0,1.9757672547967058,4.0625
-34.0,1.9757672547967058,5.6875
-34.0,1.9880391010997909,2.4375
-34.0,1.9880391010997909,4.0625
-34.0,1.9941750242513334,1.625
-34.0,1.9696313316451632,4.875
-34.0,1.9634954084936207,8.125
-34.0,2.0064468705544187,0.0
-34.0,1.9634954084936207,5.6875
-34.0,1.9880391010997909,4.0625
-34.0,2.0064468705544187,0.0
-34.0,1.9757672547967058,6.5
-34.0,1.9819031779482483,4.875
-34.0,2.000310947402876,4.0625
-34.0,1.9819031779482483,4.875
-34.0,2.0064468705544187,0.8125
-34.0,1.9696313316451632,6.5
-34.0,1.9880391010997909,2.4375
-34.0,2.012582793705961,-0.8125
-34.0,2.000310947402876,0.8125
-34.0,1.9941750242513334,1.625
-34.0,1.9757672547967058,5.6875
-34.0,1.9819031779482483,4.0625
-34.0,1.9880391010997909,1.625
-34.0,1.9757672547967058,2.4375
-34.0,1.9880391010997909,0.8125
-34.0,1.9880391010997909,4.875
-34.0,1.9941750242513334,2.4375
-34.0,1.9819031779482483,5.6875
-34.0,1.9880391010997909,2.4375
-34.0,1.9757672547967058,4.875
-34.0,1.9757672547967058,4.875
-34.0,1.9880391010997909,2.4375
-34.0,1.9880391010997909,2.4375
-34.0,2.018718716857504,-2.4375
-34.0,2.000310947402876,0.8125
-34.0,2.0064468705544187,0.0
-34.0,1.9880391010997909,1.625
-34.0,2.0064468705544187,0.8125
-34.0,2.000310947402876,1.625
-34.0,2.000310947402876,-0.8125
-34.0,1.9696313316451632,5.6875
-34.0,1.9819031779482483,4.0625
-34.0,1.9941750242513334,0.8125
-34.0,1.9757672547967058,4.875
-34.0,1.9757672547967058,4.875
-34.0,1.9941750242513334,2.4375
-34.0,1.9757672547967058,4.0625
-34.0,1.9880391010997909,0.8125
-34.0,2.000310947402876,-0.8125
-34.0,1.9512235621905356,4.0625
-34.0,1.945087639038993,4.0625
-34.0,1.945087639038993,0.8125
-34.0,1.932815792735908,2.4375
-34.0,1.902136176978195,4.875
-34.0,1.9205439464328227,2.4375
-34.0,1.9205439464328227,0.8125
-34.0,1.9082721001297376,4.0625
-34.0,1.9082721001297376,4.875
-34.0,1.9082721001297376,2.4375
-34.0,1.9082721001297376,2.4375
-34.0,1.88986433067511,4.875
-34.0,1.9144080232812801,0.0
-34.0,1.902136176978195,1.625
-34.0,1.902136176978195,0.8125
-34.0,1.9082721001297376,0.8125
-34.0,1.88986433067511,2.4375
-34.0,1.9082721001297376,0.0
-34.0,1.8714565612204823,6.5
-34.0,1.902136176978195,1.625
-34.0,1.88986433067511,2.4375
-34.0,1.9082721001297376,0.0
-34.0,1.8775924843720249,4.875
-34.0,1.902136176978195,4.0625
-34.0,1.88986433067511,2.4375
-34.0,1.88986433067511,2.4375
-34.0,1.8714565612204823,5.6875
-34.0,1.8775924843720249,4.875
-34.0,1.8837284075235674,2.4375
-34.0,1.902136176978195,0.0
-34.0,1.9205439464328227,-1.625
-34.0,1.9144080232812801,0.8125
-34.0,1.902136176978195,1.625
-34.0,1.902136176978195,1.625
-34.5,1.9082721001297376,0.0
-34.0,1.8775924843720249,4.875
-34.0,1.8837284075235674,4.0625
-34.0,1.902136176978195,0.8125
-34.0,1.8960002538266525,1.625
-34.0,1.902136176978195,1.625
-34.0,1.902136176978195,0.8125
-34.0,1.8960002538266525,2.4375
-34.0,1.902136176978195,4.0625
-34.0,1.902136176978195,2.4375
-34.0,1.9082721001297376,0.8125
-34.0,1.9082721001297376,0.8125
-34.0,1.9144080232812801,0.8125
-34.0,1.9144080232812801,4.0625
-34.0,1.8960002538266525,5.6875
-34.0,1.932815792735908,0.8125
-34.0,1.9144080232812801,4.0625
-33.5,1.9205439464328227,1.625
-33.5,1.945087639038993,-0.8125
-33.5,1.945087639038993,0.8125
-33.5,1.9266798695843652,4.0625
-33.5,1.932815792735908,0.8125
-33.5,1.9266798695843652,4.0625
-33.5,1.932815792735908,4.0625
-33.5,1.9389517158874505,2.4375
-33.5,1.932815792735908,2.4375
-33.5,1.9389517158874505,2.4375
-33.5,1.9389517158874505,4.0625
-33.5,1.9512235621905356,2.4375
-33.5,1.9696313316451632,0.8125
-33.5,1.932815792735908,4.0625
-33.5,1.9266798695843652,6.5
-33.5,1.9696313316451632,0.8125
-33.5,1.9389517158874505,2.4375
-33.5,1.9512235621905356,1.625
-33.5,1.9389517158874505,0.8125
-33.5,1.945087639038993,0.0
-33.5,1.9082721001297376,4.0625
-33.5,1.8960002538266525,4.0625
-33.5,1.8960002538266525,1.625
-33.5,1.902136176978195,1.625
-33.5,1.8837284075235674,2.4375
-33.5,1.9082721001297376,1.625
-33.5,1.8775924843720249,1.625
-33.5,1.8714565612204823,4.875
-33.5,1.8775924843720249,1.625
-33.5,1.8775924843720249,2.4375
-33.5,1.8714565612204823,1.625
-33.5,1.859184714917397,1.625
-33.5,1.8714565612204823,4.0625
-33.5,1.8653206380689396,1.625
-33.5,1.8714565612204823,0.8125
-33.5,1.8653206380689396,2.4375
-33.5,1.8530487917658545,4.0625
-34.0,1.846912868614312,6.5
-34.0,1.8407769454627694,5.6875
-33.5,1.8530487917658545,4.0625
-33.5,1.8775924843720249,0.8125
-33.5,1.8407769454627694,4.875
-33.5,1.8714565612204823,2.4375
-34.0,1.8653206380689396,2.4375
-33.5,1.8653206380689396,2.4375
-33.5,1.8775924843720249,0.0
-34.0,1.8530487917658545,4.0625
-33.5,1.8714565612204823,-0.8125
-33.5,1.846912868614312,4.0625
-34.0,1.8714565612204823,0.8125
-33.5,1.846912868614312,4.0625
-33.5,1.859184714917397,0.8125
-34.0,1.8530487917658545,2.4375
-33.5,1.8407769454627694,4.875
-33.5,1.846912868614312,2.4375
-33.5,1.8530487917658545,4.0625
-33.5,1.8714565612204823,1.625
-33.5,1.859184714917397,4.0625
-33.5,1.8653206380689396,4.0625
-33.5,1.859184714917397,4.875
-33.5,1.8775924843720249,0.8125
-34.0,1.859184714917397,4.875
-33.5,1.88986433067511,0.8125
-33.5,1.8775924843720249,1.625
-33.5,1.8837284075235674,0.8125
-33.5,1.8960002538266525,0.8125
-33.5,1.8653206380689396,5.6875
-33.5,1.88986433067511,1.625
-33.5,1.8653206380689396,4.875
-33.5,1.9082721001297376,-0.8125
-33.5,1.8714565612204823,2.4375
-33.5,1.88986433067511,0.8125
-33.5,1.8837284075235674,0.8125
-34.0,1.8653206380689396,5.6875
-33.5,1.8714565612204823,4.0625
-33.5,1.8775924843720249,0.8125
-33.5,1.8960002538266525,0.8125
-33.5,1.8775924843720249,1.625
-33.5,1.8653206380689396,2.4375
-33.5,1.8714565612204823,4.875
-33.5,1.8714565612204823,4.875
-33.5,1.8837284075235674,0.0
-33.5,1.859184714917397,5.6875
-33.5,1.8775924843720249,2.4375
-33.5,1.8775924843720249,4.0625
-33.5,1.8653206380689396,4.0625
-33.5,1.8653206380689396,4.875
-33.5,1.8837284075235674,2.4375
-33.5,1.8714565612204823,4.875
-33.5,1.859184714917397,5.6875
-33.5,1.8653206380689396,4.875
-33.5,1.8775924843720249,1.625
-33.5,1.859184714917397,6.5
-33.5,1.8775924843720249,0.8125
-33.5,1.88986433067511,1.625
-33.5,1.8714565612204823,2.4375
-33.5,1.8714565612204823,4.875
-33.5,1.88986433067511,0.0
-33.5,1.8960002538266525,0.8125
-33.5,1.8837284075235674,4.0625
-33.5,1.88986433067511,0.8125
-33.5,1.902136176978195,0.8125
-33.5,1.8960002538266525,0.8125
-33.5,1.8837284075235674,1.625
-33.5,1.9082721001297376,-0.8125
-33.5,1.8837284075235674,1.625
-33.5,1.8653206380689396,5.6875
-33.5,1.8775924843720249,4.0625
-33.5,1.902136176978195,-1.625
-33.5,1.8714565612204823,2.4375
-33.5,1.8714565612204823,4.875
-33.5,1.8960002538266525,0.0
-33.5,1.9082721001297376,-1.625
-33.5,1.8775924843720249,2.4375
-33.5,1.8960002538266525,0.8125
-33.5,1.8653206380689396,5.6875
-33.5,1.9144080232812801,-2.4375
-33.5,1.8775924843720249,4.0625
-33.5,1.9082721001297376,0.8125
-33.5,1.88986433067511,1.625
-33.5,1.902136176978195,0.0
-33.5,1.8960002538266525,0.0
-33.5,1.8775924843720249,2.4375
-33.5,1.9144080232812801,-1.625
-33.5,1.8775924843720249,4.875
-33.5,1.9082721001297376,-0.8125
-33.5,1.9205439464328227,-2.4375
-33.5,1.9205439464328227,-1.625
-33.5,1.9082721001297376,-0.8125
-33.5,1.8775924843720249,2.4375
-33.5,1.902136176978195,0.8125
-33.5,1.8837284075235674,2.4375
-33.5,1.88986433067511,2.4375
-33.5,1.8960002538266525,2.4375
-33.5,1.88986433067511,4.875
-33.5,1.8837284075235674,6.5
-33.5,1.8960002538266525,4.875
-33.5,1.88986433067511,4.875
-33.5,1.9144080232812801,1.625
-33.5,1.9082721001297376,1.625
-33.5,1.9205439464328227,2.4375
-33.5,1.9082721001297376,1.625
-33.5,1.9205439464328227,0.8125
-33.5,1.902136176978195,4.0625
-33.5,1.9205439464328227,0.0
-33.5,1.8960002538266525,4.875
-33.5,1.88986433067511,4.875
-33.5,1.8960002538266525,4.0625
-33.5,1.8837284075235674,2.4375
-33.5,1.8960002538266525,2.4375
-33.5,1.8960002538266525,4.0625
-33.5,1.9082721001297376,0.0
-33.5,1.932815792735908,-1.625
-33.5,1.902136176978195,4.0625
-33.5,1.88986433067511,4.0625
-33.5,1.9144080232812801,0.0
-33.5,1.8775924843720249,4.875
-33.5,1.8960002538266525,0.8125
-33.5,1.8837284075235674,4.875
-33.5,1.902136176978195,-0.8125
-33.5,1.902136176978195,0.8125
-33.5,1.9205439464328227,0.0
-33.5,1.88986433067511,4.875
-33.5,1.8775924843720249,6.5
-33.5,1.8775924843720249,4.875
-33.5,1.9082721001297376,-0.8125
-33.5,1.8714565612204823,5.6875
-33.5,1.8837284075235674,2.4375
-33.5,1.8960002538266525,-0.8125
-33.5,1.8775924843720249,1.625
-33.5,1.902136176978195,0.8125
-33.5,1.8837284075235674,4.0625
-33.5,1.902136176978195,0.0
-33.5,1.88986433067511,0.8125
-33.5,1.8775924843720249,1.625
-33.5,1.8714565612204823,2.4375
-33.5,1.8775924843720249,4.875
-33.5,1.9144080232812801,0.0
-33.5,1.9082721001297376,0.0
-33.5,1.8837284075235674,2.4375
-33.5,1.88986433067511,1.625
-33.5,1.8960002538266525,4.0625
-33.5,1.9144080232812801,-0.8125
-33.5,1.902136176978195,1.625
-33.5,1.8960002538266525,0.8125
-33.0,1.8837284075235674,4.0625
-33.5,1.8960002538266525,2.4375
-33.0,1.8960002538266525,4.0625
-33.5,1.8960002538266525,1.625
-33.5,1.9082721001297376,0.0
-33.5,1.902136176978195,1.625
-33.5,1.902136176978195,1.625
-33.5,1.9266798695843652,-1.625
-33.5,1.8960002538266525,4.875
-33.5,1.9266798695843652,-1.625
-33.0,1.8960002538266525,4.0625
-33.5,1.9144080232812801,0.0
-33.0,1.9144080232812801,0.0
-33.0,1.8960002538266525,4.875
-33.0,1.902136176978195,2.4375
-33.0,1.9389517158874505,-2.4375
-33.0,1.9082721001297376,1.625
-33.0,1.902136176978195,4.0625
-33.0,1.9205439464328227,1.625
-33.5,1.88986433067511,5.6875
-33.0,1.9266798695843652,0.0
-33.0,1.9266798695843652,0.0
-33.0,1.9144080232812801,2.4375
-33.0,1.9266798695843652,0.8125
-33.0,1.9144080232812801,0.8125
-33.0,1.8960002538266525,6.5
-33.0,1.9144080232812801,1.625
-33.0,1.932815792735908,0.0
-33.0,1.902136176978195,4.0625
-33.5,1.9144080232812801,2.4375
-33.0,1.9082721001297376,2.4375
-33.0,1.9144080232812801,1.625
-33.5,1.9205439464328227,0.0
-33.5,1.9082721001297376,0.0
-33.5,1.902136176978195,2.4375
-33.0,1.9082721001297376,4.0625
-33.5,1.9082721001297376,0.8125
-33.0,1.902136176978195,0.8125
-33.0,1.9144080232812801,1.625
-33.0,1.9144080232812801,0.0
-33.0,1.8960002538266525,1.625
-33.0,1.8960002538266525,1.625
-33.0,1.8775924843720249,4.875
-33.0,1.8960002538266525,1.625
-33.0,1.9205439464328227,0.0
-33.0,1.902136176978195,0.8125
-33.0,1.902136176978195,0.0
-33.0,1.8960002538266525,4.0625
-33.0,1.88986433067511,4.0625
-33.0,1.902136176978195,2.4375
-33.0,1.9389517158874505,-4.875
-33.0,1.9144080232812801,-1.625
-33.0,1.9144080232812801,0.8125
-33.0,1.9205439464328227,-0.8125
-33.0,1.88986433067511,4.0625
-33.0,1.859184714917397,1.625
-33.0,1.8407769454627694,4.0625
-33.0,1.846912868614312,4.0625
-33.0,1.8346410223112268,4.0625
-33.0,1.8223691760081417,5.6875
-33.0,1.8346410223112268,2.4375
-33.0,1.8285050991596843,4.0625
-33.0,1.8346410223112268,2.4375
-33.0,1.846912868614312,0.8125
-33.0,1.846912868614312,0.8125
-33.0,1.8162332528565992,5.6875
-33.0,1.8223691760081417,5.6875
-33.0,1.8346410223112268,2.4375
-33.0,1.8407769454627694,0.8125
-33.5,1.8162332528565992,7.3125
-33.0,1.846912868614312,4.0625
-33.0,1.8285050991596843,2.4375
-33.0,1.8407769454627694,1.625
-33.5,1.846912868614312,0.8125
-33.0,1.8346410223112268,4.875
-33.0,1.8407769454627694,0.8125
-33.0,1.8653206380689396,-1.625
-33.0,1.859184714917397,-0.8125
-33.0,1.859184714917397,0.0
-33.0,1.8346410223112268,2.4375
-33.0,1.8407769454627694,4.0625
-33.0,1.8530487917658545,2.4375
-33.0,1.846912868614312,2.4375
-33.0,1.8346410223112268,5.6875
-33.0,1.8407769454627694,4.875
-33.0,1.8530487917658545,2.4375
-33.0,1.859184714917397,1.625
-33.0,1.8530487917658545,0.8125
-33.0,1.8407769454627694,2.4375
-33.0,1.8285050991596843,6.5
-33.0,1.846912868614312,2.4375
-33.0,1.8346410223112268,2.4375
-33.0,1.846912868614312,2.4375
-33.0,1.846912868614312,1.625
-33.0,1.859184714917397,1.625
-33.0,1.846912868614312,4.0625
-33.0,1.859184714917397,4.0625
-33.0,1.859184714917397,4.0625
-32.5,1.8714565612204823,0.8125
-33.0,1.8530487917658545,4.0625
-33.0,1.8407769454627694,4.875
-33.0,1.8346410223112268,5.6875
-33.0,1.8653206380689396,0.8125
-32.5,1.8407769454627694,1.625
-33.0,1.8407769454627694,5.6875
-32.5,1.8407769454627694,0.8125
-33.0,1.8346410223112268,4.875
-32.5,1.8653206380689396,-0.8125
-33.0,1.8653206380689396,0.0
-33.0,1.8407769454627694,4.0625
-33.0,1.859184714917397,-0.8125
-32.5,1.8407769454627694,4.875
-33.0,1.8530487917658545,2.4375
-33.0,1.846912868614312,4.875
-32.5,1.8653206380689396,0.8125
-33.0,1.846912868614312,4.875
-33.0,1.8346410223112268,7.3125
-33.0,1.8407769454627694,5.6875
-32.5,1.8530487917658545,0.8125
-32.5,1.8775924843720249,0.0
-33.0,1.859184714917397,2.4375
-33.0,1.8714565612204823,-0.8125
-32.5,1.846912868614312,4.0625
-33.0,1.8714565612204823,2.4375
-32.5,1.859184714917397,1.625
-32.5,1.8530487917658545,2.4375
-32.5,1.8960002538266525,-2.4375
-32.5,1.859184714917397,1.625
-32.5,1.8714565612204823,1.625
-32.5,1.859184714917397,4.875
-32.5,1.8775924843720249,2.4375
-32.5,1.8714565612204823,4.0625
-33.0,1.8775924843720249,4.0625
-32.5,1.8775924843720249,1.625
-32.5,1.8653206380689396,4.875
-32.5,1.902136176978195,0.8125
-32.5,1.902136176978195,0.0
-32.5,1.8775924843720249,1.625
-32.5,1.8837284075235674,0.0
-32.5,1.8960002538266525,-0.8125
-32.5,1.8714565612204823,4.875
-32.5,1.88986433067511,0.8125
-32.5,1.8837284075235674,4.875
-32.5,1.8837284075235674,4.875
-32.5,1.8775924843720249,6.5
-32.5,1.902136176978195,0.8125
-32.5,1.902136176978195,1.625
-32.5,1.8960002538266525,1.625
-32.5,1.8837284075235674,4.0625
-32.5,1.9205439464328227,0.0
-32.5,1.8960002538266525,1.625
-32.5,1.8960002538266525,1.625
-32.5,1.88986433067511,1.625
-32.5,1.8775924843720249,5.6875
-32.5,1.8837284075235674,4.0625
-32.5,1.8837284075235674,0.8125
-32.5,1.8714565612204823,5.6875
-32.5,1.8837284075235674,1.625
-32.5,1.8775924843720249,0.8125
-32.5,1.8714565612204823,2.4375
-32.5,1.8960002538266525,0.8125
-32.5,1.8653206380689396,4.0625
-32.5,1.8960002538266525,0.8125
-32.5,1.8837284075235674,0.0
-32.5,1.8837284075235674,1.625
-32.5,1.8960002538266525,0.8125
-32.5,1.8837284075235674,1.625
-32.5,1.8714565612204823,4.0625
-32.5,1.859184714917397,5.6875
-32.5,1.8960002538266525,-0.8125
-32.5,1.8960002538266525,-0.8125
-32.5,1.8714565612204823,2.4375
-32.5,1.8960002538266525,0.8125
-32.5,1.8775924843720249,2.4375
-32.5,1.8960002538266525,0.8125
-32.5,1.8653206380689396,4.0625
-32.5,1.8714565612204823,4.875
-32.5,1.859184714917397,5.6875
-32.5,1.8653206380689396,4.875
-32.5,1.8714565612204823,2.4375
-32.5,1.8775924843720249,0.8125
-33.0,1.88986433067511,0.8125
-32.5,1.8653206380689396,4.875
-32.5,1.88986433067511,0.0
-32.5,1.8775924843720249,2.4375
-32.5,1.8837284075235674,1.625
-32.5,1.8775924843720249,2.4375
-32.5,1.8714565612204823,2.4375
-32.5,1.8653206380689396,2.4375
-32.5,1.859184714917397,4.875
-32.5,1.902136176978195,-1.625
-32.5,1.8714565612204823,2.4375
-32.5,1.8714565612204823,0.8125
-32.5,1.8960002538266525,-1.625
-32.5,1.8530487917658545,4.875
-32.5,1.8960002538266525,0.0
-32.5,1.8407769454627694,6.5
-33.0,1.8530487917658545,2.4375
-32.5,1.859184714917397,1.625
-32.5,1.8653206380689396,1.625
-32.5,1.8653206380689396,4.0625
-32.5,1.8714565612204823,1.625
-33.0,1.8653206380689396,4.875
-32.5,1.8714565612204823,2.4375
-32.5,1.8960002538266525,-0.8125
-33.0,1.8775924843720249,2.4375
-32.5,1.8653206380689396,4.875
-33.0,1.8775924843720249,2.4375
-32.5,1.8714565612204823,1.625
-32.5,1.8653206380689396,4.875
-32.5,1.8653206380689396,4.875
-33.0,1.902136176978195,-2.4375
-32.5,1.8530487917658545,6.5
-32.5,1.8775924843720249,2.4375
-32.5,1.8837284075235674,0.8125
-32.5,1.902136176978195,0.0
-33.0,1.859184714917397,4.0625
-32.5,1.8714565612204823,4.875
-32.5,1.8714565612204823,2.4375
-33.0,1.8775924843720249,2.4375
-33.0,1.88986433067511,0.0
-32.5,1.8837284075235674,-1.625
-32.5,1.8837284075235674,0.0
-33.0,1.859184714917397,2.4375
-32.5,1.8530487917658545,4.0625
-33.0,1.8653206380689396,4.0625
-32.5,1.8530487917658545,2.4375
-32.5,1.8653206380689396,2.4375
-33.0,1.8714565612204823,4.0625
-32.5,1.8530487917658545,2.4375
-33.0,1.859184714917397,2.4375
-33.0,1.8530487917658545,4.875
-32.5,1.8960002538266525,-2.4375
-32.5,1.859184714917397,5.6875
-32.5,1.8714565612204823,-0.8125
-32.5,1.859184714917397,4.0625
-32.5,1.859184714917397,4.0625
-32.5,1.846912868614312,4.875
-33.0,1.8530487917658545,4.875
-33.0,1.8530487917658545,2.4375
-33.0,1.8653206380689396,4.0625
-33.0,1.859184714917397,2.4375
-33.0,1.8530487917658545,1.625
-32.5,1.8530487917658545,4.0625
-32.5,1.8530487917658545,2.4375
-33.0,1.8530487917658545,4.0625
-32.5,1.846912868614312,4.875
-33.0,1.859184714917397,2.4375
-32.5,1.859184714917397,2.4375
-32.5,1.8775924843720249,0.0
-33.0,1.8837284075235674,0.8125
-33.0,1.8714565612204823,1.625
-33.0,1.8837284075235674,-0.8125
-32.5,1.8775924843720249,0.0
-32.5,1.846912868614312,2.4375
-32.5,1.859184714917397,2.4375
-33.0,1.859184714917397,1.625
-33.0,1.8346410223112268,4.875
-33.0,1.8346410223112268,5.6875
-33.0,1.8714565612204823,0.8125
-33.0,1.8285050991596843,5.6875
-33.0,1.8407769454627694,5.6875
-33.0,1.8530487917658545,0.8125
-33.0,1.8407769454627694,4.0625
-33.0,1.8346410223112268,4.0625
-33.0,1.8346410223112268,2.4375
-33.0,1.8285050991596843,4.875
-33.0,1.8346410223112268,4.875
-33.0,1.8346410223112268,4.0625
-33.0,1.8407769454627694,1.625
-33.0,1.8346410223112268,4.0625
-33.0,1.8223691760081417,2.4375
-33.0,1.8162332528565992,4.0625
-33.0,1.8346410223112268,1.625
-33.0,1.8223691760081417,4.875
-33.0,1.8285050991596843,1.625
-33.0,1.8346410223112268,0.8125
-33.0,1.8162332528565992,4.0625
-33.0,1.8223691760081417,4.875
-33.0,1.8162332528565992,2.4375
-33.0,1.8223691760081417,2.4375
-33.0,1.8285050991596843,0.8125
-33.0,1.8346410223112268,2.4375
-33.0,1.859184714917397,-2.4375
-33.0,1.846912868614312,0.0
-33.0,1.8407769454627694,4.0625
-33.0,1.8530487917658545,1.625
-33.0,1.859184714917397,0.8125
-33.0,1.8407769454627694,4.875
-33.0,1.8223691760081417,5.6875
-33.0,1.846912868614312,2.4375
-33.0,1.8285050991596843,5.6875
-33.0,1.8530487917658545,2.4375
-33.0,1.846912868614312,0.8125
-33.0,1.8530487917658545,4.0625
-33.0,1.8346410223112268,6.5
-33.0,1.8714565612204823,-1.625
-33.0,1.846912868614312,2.4375
-33.0,1.846912868614312,2.4375
-33.0,1.8346410223112268,4.0625
-33.0,1.8407769454627694,0.8125
-33.0,1.8530487917658545,1.625
-33.0,1.8223691760081417,5.6875
-33.0,1.8407769454627694,4.875
-33.0,1.8285050991596843,6.5
-33.0,1.8346410223112268,2.4375
-33.0,1.8346410223112268,1.625
-33.0,1.8407769454627694,4.0625
-33.0,1.8162332528565992,5.6875
-33.0,1.8285050991596843,4.0625
-33.0,1.846912868614312,0.0
-33.0,1.8407769454627694,0.8125
-33.0,1.8162332528565992,4.0625
-33.0,1.8407769454627694,0.8125
-33.0,1.8100973297050567,2.4375
-33.0,1.8346410223112268,0.8125
-33.0,1.8100973297050567,4.875
-33.0,1.8039614065535141,6.5
-33.0,1.8223691760081417,0.8125
-33.0,1.8223691760081417,2.4375
-33.0,1.8162332528565992,4.875
-33.0,1.8285050991596843,1.625
-33.0,1.8162332528565992,2.4375
-33.0,1.8223691760081417,4.0625
-33.0,1.8223691760081417,4.0625
-33.0,1.8285050991596843,4.0625
-33.0,1.8223691760081417,4.0625
-33.0,1.8285050991596843,2.4375
-33.0,1.8285050991596843,1.625
-33.0,1.8223691760081417,4.0625
-33.0,1.8285050991596843,4.0625
-33.0,1.8285050991596843,4.0625
-33.0,1.859184714917397,-1.625
-33.0,1.8223691760081417,4.875
-33.0,1.8346410223112268,4.875
-33.0,1.8346410223112268,2.4375
-33.0,1.846912868614312,0.8125
-33.0,1.8346410223112268,1.625
-33.0,1.8223691760081417,4.0625
-33.0,1.8223691760081417,5.6875
-33.0,1.8407769454627694,4.875
-33.0,1.846912868614312,1.625
-33.0,1.8285050991596843,5.6875
-33.0,1.8407769454627694,0.8125
-33.0,1.8530487917658545,0.0
-33.0,1.8223691760081417,5.6875
-33.0,1.8407769454627694,1.625
-33.0,1.846912868614312,2.4375
-33.0,1.8407769454627694,2.4375
-33.0,1.8285050991596843,2.4375
-33.0,1.8346410223112268,5.6875
-33.0,1.8407769454627694,5.6875
-33.0,1.8346410223112268,5.6875
-33.0,1.8346410223112268,5.6875
-33.0,1.8407769454627694,4.875
-33.0,1.8407769454627694,2.4375
-33.0,1.8346410223112268,5.6875
-33.0,1.8223691760081417,5.6875
-33.0,1.8285050991596843,5.6875
-33.0,1.8285050991596843,4.875
-33.0,1.8407769454627694,2.4375
-33.0,1.8530487917658545,0.8125
-33.0,1.8346410223112268,2.4375
-33.0,1.8530487917658545,0.0
-33.0,1.8407769454627694,4.0625
-33.0,1.846912868614312,1.625
-33.0,1.8223691760081417,7.3125
-33.0,1.8407769454627694,4.0625
-33.0,1.8346410223112268,4.0625
-33.0,1.8407769454627694,2.4375
