40000000000000000000CC00,865.7,0.7731263,4.875
40000000000000000000CC00,865.7,0.8099418,0.0
40000000000000000000CC00,865.7,0.7853982,6.5
40000000000000000000CC00,865.7,0.7731263,5.6875
40000000000000000000CC00,865.7,0.79767,1.625
40000000000000000000CC00,865.7,0.79153407,4.875
40000000000000000000CC00,865.7,0.7853982,4.875
40000000000000000000CC00,865.7,0.79153407,2.4375
40000000000000000000CC00,865.7,0.77926224,4.875
40000000000000000000CC00,865.7,0.79153407,0.8125
40000000000000000000CC00,865.7,0.7669904,4.875
40000000000000000000CC00,865.7,0.7669904,5.6875
40000000000000000000CC00,865.7,0.7731263,5.6875
40000000000000000000CC00,865.7,0.7669904,4.875
40000000000000000000CC00,865.7,0.7669904,0.0
40000000000000000000CC00,865.7,0.7669904,1.625
40000000000000000000CC00,865.7,0.7117671,11.375
40000000000000000000CC00,865.7,0.75471854,2.4375
40000000000000000000CC00,865.7,0.7424467,3.25
40000000000000000000CC00,865.7,0.7485826,-1.625
40000000000000000000CC00,865.7,0.73017484,1.625
40000000000000000000CC00,865.7,0.7117671,7.3125
40000000000000000000CC00,865.7,0.72403896,2.4375
40000000000000000000CC00,865.7,0.69949526,5.6875
40000000000000000000CC00,865.7,0.73017484,4.875
40000000000000000000CC00,865.7,0.717903,4.875
40000000000000000000CC00,865.7,0.7363108,2.4375
40000000000000000000CC00,865.7,0.7424467,0.8125
40000000000000000000CC00,865.7,0.717903,6.5
40000000000000000000CC00,865.7,0.7363108,3.25
40000000000000000000CC00,865.7,0.73017484,4.875
40000000000000000000CC00,865.7,0.7424467,3.25
40000000000000000000CC00,865.7,0.72403896,5.6875
40000000000000000000CC00,865.7,0.72403896,4.875
40000000000000000000CC00,865.7,0.73017484,6.5
40000000000000000000CC00,865.7,0.7363108,5.6875
40000000000000000000CC00,865.7,0.7731263,-0.8125
40000000000000000000CC00,865.7,0.7363108,6.5
40000000000000000000CC00,865.7,0.73017484,4.875
40000000000000000000CC00,865.7,0.7363108,5.6875
40000000000000000000CC00,865.7,0.73017484,3.25
40000000000000000000CC00,865.7,0.72403896,6.5
40000000000000000000CC00,865.7,0.7363108,1.625
40000000000000000000CC00,865.7,0.717903,7.3125
40000000000000000000CC00,865.7,0.717903,3.25
40000000000000000000CC00,865.7,0.7363108,3.25
40000000000000000000CC00,865.7,0.72403896,4.875
40000000000000000000CC00,865.7,0.7117671,6.5
40000000000000000000CC00,865.7,0.717903,4.875
40000000000000000000CC00,865.7,0.717903,8.125
40000000000000000000CC00,865.7,0.73017484,4.875
40000000000000000000CC00,865.7,0.70563114,8.125
40000000000000000000CC00,865.7,0.69949526,6.5
40000000000000000000CC00,865.7,0.7363108,0.0
40000000000000000000CC00,865.7,0.717903,0.8125
40000000000000000000CC00,865.7,0.6688156,8.125
40000000000000000000CC00,865.7,0.6810875,3.25
40000000000000000000CC00,865.7,0.6626797,7.3125
40000000000000000000CC00,865.7,0.6442719,7.3125
40000000000000000000CC00,865.7,0.638136,8.125
40000000000000000000CC00,865.7,0.6688156,4.875
40000000000000000000CC00,865.7,0.65040785,7.3125
40000000000000000000CC00,865.7,0.6565438,2.4375
40000000000000000000CC00,865.7,0.6442719,6.5
40000000000000000000CC00,865.7,0.6320001,6.5
40000000000000000000CC00,865.7,0.6442719,2.4375
40000000000000000000CC00,865.7,0.6320001,-1.625
40000000000000000000CC00,865.7,0.60132045,4.875
40000000000000000000CC00,865.7,0.558369,6.5
40000000000000000000CC00,865.7,0.53382534,8.9375
40000000000000000000CC00,865.7,0.52155346,8.125
40000000000000000000CC00,865.7,0.50928164,6.5
40000000000000000000CC00,865.7,0.53382534,0.0
40000000000000000000CC00,865.7,0.47246608,8.125
40000000000000000000CC00,865.7,0.46019423,9.75
40000000000000000000CC00,865.7,0.45405832,6.5
40000000000000000000CC00,865.7,0.47246608,3.25
40000000000000000000CC00,865.7,0.46633017,4.875
40000000000000000000CC00,865.7,0.44178647,2.4375
40000000000000000000CC00,865.7,0.42951462,6.5
40000000000000000000CC00,865.7,0.42951462,-0.8125
40000000000000000000CC00,865.7,0.3926991,3.25
40000000000000000000CC00,865.7,0.3681554,5.6875
40000000000000000000CC00,865.7,0.3436117,5.6875
40000000000000000000CC00,865.7,0.319068,6.5
40000000000000000000CC00,865.7,0.319068,2.4375
40000000000000000000CC00,865.7,0.27611655,5.6875
40000000000000000000CC00,865.7,0.25157285,5.6875
40000000000000000000CC00,865.7,0.24543692,1.625
40000000000000000000CC00,865.7,0.22702916,-0.8125
40000000000000000000CC00,865.7,0.1840777,5.6875
40000000000000000000CC00,865.7,0.1840777,3.25
40000000000000000000CC00,865.7,0.15339808,4.875
40000000000000000000CC00,865.7,0.14112623,6.5
40000000000000000000CC00,865.7,0.1349903,5.6875
40000000000000000000CC00,865.7,0.12885438,2.4375
40000000000000000000CC00,865.7,0.11044662,6.5
40000000000000000000CC00,865.7,0.11044662,5.6875
40000000000000000000CC00,865.7,0.08590292,4.875
40000000000000000000CC00,865.7,0.07363108,1.625
40000000000000000000CC00,865.7,0.024543693,4.875
40000000000000000000CC00,865.7,6.2647777,5.6875
40000000000000000000CC00,865.7,6.227962,3.25
40000000000000000000CC00,865.7,6.221826,0.8125
40000000000000000000CC00,865.7,6.1788745,1.625
40000000000000000000CC00,865.7,6.1543307,0.8125
40000000000000000000CC00,865.7,6.1052437,3.25
40000000000000000000CC00,865.7,6.086836,2.4375
40000000000000000000CC00,865.7,6.0807,1.625
40000000000000000000CC00,865.7,6.0316124,5.6875
40000000000000000000CC00,865.7,5.988661,4.875
40000000000000000000CC00,865.7,5.9641175,4.875
40000000000000000000CC00,865.7,5.9457097,7.3125
40000000000000000000CC00,865.7,5.9518456,0.0
40000000000000000000CC00,865.7,5.927302,2.4375
40000000000000000000CC00,865.7,5.8843503,6.5
40000000000000000000CC00,865.7,5.8598065,7.3125
40000000000000000000CC00,865.7,5.8720784,1.625
40000000000000000000CC00,865.7,5.8659425,1.625
40000000000000000000CC00,865.7,5.8413987,4.875
40000000000000000000CC00,865.7,5.810719,6.5
40000000000000000000CC00,865.7,5.810719,2.4375
40000000000000000000CC00,865.7,5.7923117,4.875
40000000000000000000CC00,865.7,5.7861757,3.25
40000000000000000000CC00,865.7,5.78004,3.25
40000000000000000000CC00,865.7,5.7861757,2.4375
40000000000000000000CC00,865.7,5.78004,2.4375
40000000000000000000CC00,865.7,5.743224,7.3125
40000000000000000000CC00,865.7,5.74936,5.6875
40000000000000000000CC00,865.7,5.767768,-0.8125
40000000000000000000CC00,865.7,5.7309523,1.625
40000000000000000000CC00,865.7,5.7186804,6.5
40000000000000000000CC00,865.7,5.7186804,5.6875
40000000000000000000CC00,865.7,5.7064085,4.875
40000000000000000000CC00,865.7,5.7248163,1.625
40000000000000000000CC00,865.7,5.7248163,2.4375
40000000000000000000CC00,865.7,5.7125444,2.4375
40000000000000000000CC00,865.7,5.7186804,4.875
40000000000000000000CC00,865.7,5.7186804,2.4375
40000000000000000000CC00,865.7,5.7002726,4.875
40000000000000000000CC00,865.7,5.6941366,8.125
40000000000000000000CC00,865.7,5.7248163,1.625
40000000000000000000CC00,865.7,5.7309523,2.4375
40000000000000000000CC00,865.7,5.7125444,5.6875
40000000000000000000CC00,865.7,5.7248163,3.25
40000000000000000000CC00,865.7,5.743224,2.4375
40000000000000000000CC00,865.7,5.755496,1.625
40000000000000000000CC00,865.7,5.755496,2.4375
40000000000000000000CC00,865.7,5.755496,3.25
40000000000000000000CC00,865.7,5.755496,6.5
40000000000000000000CC00,865.7,5.7923117,4.875
40000000000000000000CC00,865.7,5.804583,5.6875
40000000000000000000CC00,865.7,5.8659425,-4.875
40000000000000000000CC00,865.7,5.822991,6.5
40000000000000000000CC00,865.7,5.896622,-3.25
40000000000000000000CC00,865.7,5.8720784,7.3125
40000000000000000000CC00,865.7,5.921166,2.4375
40000000000000000000CC00,865.7,5.91503,7.3125
40000000000000000000CC00,865.7,5.939574,4.875
40000000000000000000CC00,865.7,5.9579816,4.875
40000000000000000000CC00,865.7,5.9579816,8.125
40000000000000000000CC00,865.7,6.0132046,5.6875
40000000000000000000CC00,865.7,6.0254765,5.6875
40000000000000000000CC00,865.7,6.0991077,-1.625
40000000000000000000CC00,865.7,6.062292,7.3125
40000000000000000000CC00,865.7,6.092972,5.6875
40000000000000000000CC00,865.7,6.142059,3.25
40000000000000000000CC00,865.7,6.1727386,3.25
40000000000000000000CC00,865.7,6.1788745,4.875
40000000000000000000CC00,865.7,6.2586417,0.8125
40000000000000000000CC00,865.7,6.2586417,2.4375
40000000000000000000CC00,865.7,6.2770495,3.25
40000000000000000000CC00,865.7,0.024543693,2.4375
40000000000000000000CC00,865.7,0.03681554,5.6875
40000000000000000000CC00,865.7,0.03681554,8.9375
40000000000000000000CC00,865.7,0.07363108,7.3125
40000000000000000000CC00,865.7,0.11044662,4.875
40000000000000000000CC00,865.7,0.14112623,5.6875
40000000000000000000CC00,865.7,0.14112623,7.3125
40000000000000000000CC00,865.7,0.17180584,8.125
40000000000000000000CC00,865.7,0.22702916,-1.625
40000000000000000000CC00,865.7,0.22702916,2.4375
40000000000000000000CC00,865.7,0.239301,6.5
40000000000000000000CC00,865.7,0.25770876,8.125
40000000000000000000CC00,865.7,0.27611655,7.3125
40000000000000000000CC00,865.7,0.31293207,4.875
40000000000000000000CC00,865.7,0.319068,4.875
40000000000000000000CC00,865.7,0.33747578,7.3125
40000000000000000000CC00,865.7,0.398835,0.0
40000000000000000000CC00,865.7,0.3742913,7.3125
40000000000000000000CC00,865.7,0.3926991,5.6875
40000000000000000000CC00,865.7,0.4233787,0.8125
40000000000000000000CC00,865.7,0.41110685,5.6875
40000000000000000000CC00,865.7,0.43565056,4.875
40000000000000000000CC00,865.7,0.44178647,6.5
40000000000000000000CC00,865.7,0.44792238,8.9375
40000000000000000000CC00,865.7,0.49087384,3.25
40000000000000000000CC00,865.7,0.48473793,6.5
40000000000000000000CC00,865.7,0.50928164,3.25
40000000000000000000CC00,865.7,0.5031457,8.9375
40000000000000000000CC00,865.7,0.5522331,2.4375
40000000000000000000CC00,865.7,0.5399612,8.125
40000000000000000000CC00,865.7,0.5645049,6.5
40000000000000000000CC00,865.7,0.57064086,7.3125
40000000000000000000CC00,865.7,0.5767768,8.125
40000000000000000000CC00,865.7,0.5890486,8.125
40000000000000000000CC00,865.7,0.6074564,8.125
40000000000000000000CC00,865.7,0.61972827,6.5
40000000000000000000CC00,865.7,0.62586415,6.5
40000000000000000000CC00,865.7,0.638136,8.125
40000000000000000000CC00,865.7,0.6320001,8.9375
40000000000000000000CC00,865.7,0.65040785,5.6875
40000000000000000000CC00,865.7,0.638136,9.75
40000000000000000000CC00,865.7,0.69949526,4.875
40000000000000000000CC00,865.7,0.69949526,0.8125
40000000000000000000CC00,865.7,0.69949526,4.875
40000000000000000000CC00,865.7,0.7117671,5.6875
40000000000000000000CC00,865.7,0.72403896,5.6875
40000000000000000000CC00,865.7,0.7485826,2.4375
40000000000000000000CC00,865.7,0.75471854,2.4375
40000000000000000000CC00,865.7,0.7485826,7.3125
40000000000000000000CC00,865.7,0.7608545,4.875
40000000000000000000CC00,865.7,0.79153407,0.0
40000000000000000000CC00,865.7,0.80380595,2.4375
40000000000000000000CC00,865.7,0.8099418,3.25
40000000000000000000CC00,865.7,0.81607777,5.6875
40000000000000000000CC00,865.7,0.83448553,0.8125
40000000000000000000CC00,865.7,0.82834965,5.6875
40000000000000000000CC00,865.7,0.8222137,2.4375
40000000000000000000CC00,865.7,0.8467574,5.6875
40000000000000000000CC00,865.7,0.8528933,5.6875
40000000000000000000CC00,865.7,0.82834965,7.3125
40000000000000000000CC00,865.7,0.8467574,5.6875
40000000000000000000CC00,865.7,0.8651652,2.4375
40000000000000000000CC00,865.7,0.8651652,5.6875
40000000000000000000CC00,865.7,0.8713011,2.4375
40000000000000000000CC00,865.7,0.877437,3.25
40000000000000000000CC00,865.7,0.85902923,8.125
40000000000000000000CC00,865.7,0.8651652,10.5625
40000000000000000000CC00,865.7,0.90811664,1.625
40000000000000000000CC00,865.7,0.9019807,5.6875
40000000000000000000CC00,865.7,0.9142526,4.875
40000000000000000000CC00,865.7,0.90811664,6.5
40000000000000000000CC00,865.7,0.94493216,0.0
40000000000000000000CC00,865.7,0.957204,2.4375
40000000000000000000CC00,865.7,0.94493216,6.5
40000000000000000000CC00,865.7,0.9756118,1.625
40000000000000000000CC00,865.7,0.9817477,0.8125
40000000000000000000CC00,865.7,0.9817477,1.625
40000000000000000000CC00,865.7,1.0001554,1.625
40000000000000000000CC00,865.7,0.99401957,3.25
40000000000000000000CC00,865.7,0.9878836,8.9375
40000000000000000000CC00,865.7,0.9878836,8.9375
40000000000000000000CC00,865.7,1.0062914,8.9375
40000000000000000000CC00,865.7,1.0246992,6.5
40000000000000000000CC00,865.7,1.0062914,10.5625
40000000000000000000CC00,865.7,1.036971,7.3125
40000000000000000000CC00,865.7,1.0492429,5.6875
40000000000000000000CC00,865.7,1.0553788,5.6875
40000000000000000000CC00,865.7,1.0676507,4.875
40000000000000000000CC00,865.7,1.0615147,6.5
40000000000000000000CC00,865.7,1.0676507,7.3125
40000000000000000000CC00,865.7,1.0860584,8.125
40000000000000000000CC00,865.7,1.1044662,4.875
40000000000000000000CC00,865.7,1.1106021,5.6875
40000000000000000000CC00,865.7,1.1044662,7.3125
40000000000000000000CC00,865.7,1.1044662,8.9375
40000000000000000000CC00,865.7,1.1658254,-0.8125
40000000000000000000CC00,865.7,1.1535536,1.625
40000000000000000000CC00,865.7,1.1228739,7.3125
40000000000000000000CC00,865.7,1.1290098,7.3125
40000000000000000000CC00,865.7,1.1719613,3.25
40000000000000000000CC00,865.7,1.1412817,6.5
40000000000000000000CC00,865.7,1.1474177,10.5625
40000000000000000000CC00,865.7,1.1535536,8.125
40000000000000000000CC00,865.7,1.1780972,5.6875
40000000000000000000CC00,865.7,1.1903691,8.9375
40000000000000000000CC00,865.7,1.1842332,6.5
40000000000000000000CC00,865.7,1.1965051,7.3125
40000000000000000000CC00,865.7,1.2026409,8.125
40000000000000000000CC00,865.7,1.2271847,3.25
40000000000000000000CC00,865.7,1.1842332,7.3125
40000000000000000000CC00,865.7,1.1903691,11.375
40000000000000000000CC00,865.7,1.1965051,8.9375
40000000000000000000CC00,865.7,1.2026409,8.125
40000000000000000000CC00,865.7,1.2394565,1.625
40000000000000000000CC00,865.7,1.2149128,8.9375
40000000000000000000CC00,865.7,1.2578642,2.4375
40000000000000000000CC00,865.7,1.2149128,8.9375
40000000000000000000CC00,865.7,1.2210487,7.3125
40000000000000000000CC00,865.7,1.2455924,4.875
40000000000000000000CC00,865.7,1.2517283,7.3125
40000000000000000000CC00,865.7,1.2640002,5.6875
40000000000000000000CC00,865.7,1.2333206,10.5625
40000000000000000000CC00,865.7,1.2210487,11.375
40000000000000000000CC00,865.7,1.2517283,8.9375
40000000000000000000CC00,865.7,1.2885438,0.0
40000000000000000000CC00,865.7,1.2701361,6.5
40000000000000000000CC00,865.7,1.2640002,6.5
40000000000000000000CC00,865.7,1.2946798,0.8125
40000000000000000000CC00,865.7,1.2824079,3.25
40000000000000000000CC00,865.7,1.2946798,4.875
40000000000000000000CC00,865.7,1.2946798,3.25
40000000000000000000CC00,865.7,1.276272,7.3125
40000000000000000000CC00,865.7,1.2946798,6.5
40000000000000000000CC00,865.7,1.3008157,5.6875
40000000000000000000CC00,865.7,1.3008157,4.875
40000000000000000000CC00,865.7,1.3130876,3.25
40000000000000000000CC00,865.7,1.3069516,3.25
40000000000000000000CC00,865.7,1.3192235,0.8125
40000000000000000000CC00,865.7,1.2885438,8.125
40000000000000000000CC00,865.7,1.3130876,7.3125
40000000000000000000CC00,865.7,1.3069516,6.5
40000000000000000000CC00,865.7,1.2824079,6.5
40000000000000000000CC00,865.7,1.3253593,5.6875
40000000000000000000CC00,865.7,1.3192235,4.875
40000000000000000000CC00,865.7,1.3314953,2.4375
40000000000000000000CC00,865.7,1.3008157,8.9375
40000000000000000000CC00,865.7,1.3253593,6.5
40000000000000000000CC00,865.7,1.3069516,6.5
40000000000000000000CC00,865.7,1.3376312,3.25
40000000000000000000CC00,865.7,1.3008157,8.9375
40000000000000000000CC00,865.7,1.3069516,7.3125
40000000000000000000CC00,865.7,1.3192235,7.3125
40000000000000000000CC00,865.7,1.3008157,7.3125
40000000000000000000CC00,865.7,1.3314953,4.875
40000000000000000000CC00,865.7,1.3130876,7.3125
40000000000000000000CC00,865.7,1.3069516,9.75
40000000000000000000CC00,865.7,1.3008157,10.5625
40000000000000000000CC00,865.7,1.3867186,-2.4375
40000000000000000000CC00,865.7,1.3130876,8.9375
40000000000000000000CC00,865.7,1.3437672,5.6875
40000000000000000000CC00,865.7,1.3437672,2.4375
40000000000000000000CC00,865.7,1.3437672,5.6875
40000000000000000000CC00,865.7,1.3989905,-2.4375
40000000000000000000CC00,865.7,1.3253593,10.5625
40000000000000000000CC00,865.7,1.3499031,8.125
40000000000000000000CC00,865.7,1.356039,5.6875
40000000000000000000CC00,865.7,1.3683108,7.3125
40000000000000000000CC00,865.7,1.3989905,1.625
40000000000000000000CC00,865.7,1.3805827,5.6875
40000000000000000000CC00,865.7,1.3989905,5.6875
40000000000000000000CC00,865.7,1.3928546,6.5
40000000000000000000CC00,865.7,1.3989905,5.6875
40000000000000000000CC00,865.7,1.3805827,8.125
40000000000000000000CC00,865.7,1.3867186,8.9375
40000000000000000000CC00,865.7,1.4296701,0.0
40000000000000000000CC00,865.7,1.4480779,2.4375
40000000000000000000CC00,865.7,1.4542137,2.4375
40000000000000000000CC00,865.7,1.4112623,10.5625
40000000000000000000CC00,865.7,1.4603497,4.875
40000000000000000000CC00,865.7,1.4664856,4.875
40000000000000000000CC00,865.7,1.4726216,2.4375
40000000000000000000CC00,865.7,1.4480779,7.3125
40000000000000000000CC00,865.7,1.4603497,7.3125
40000000000000000000CC00,865.7,1.4848934,3.25
40000000000000000000CC00,865.7,1.441942,10.5625
40000000000000000000CC00,865.7,1.4296701,10.5625
40000000000000000000CC00,865.7,1.4848934,6.5
40000000000000000000CC00,865.7,1.515573,-2.4375
40000000000000000000CC00,865.7,1.4848934,3.25
40000000000000000000CC00,865.7,1.4910294,0.8125
40000000000000000000CC00,865.7,1.5278449,-1.625
40000000000000000000CC00,865.7,1.515573,2.4375
40000000000000000000CC00,865.7,1.4848934,6.5
40000000000000000000CC00,865.7,1.5278449,0.0
40000000000000000000CC00,865.7,1.4664856,8.125
40000000000000000000CC00,865.7,1.4787575,6.5
40000000000000000000CC00,865.7,1.4910294,3.25
40000000000000000000CC00,865.7,1.4910294,4.875
40000000000000000000CC00,865.7,1.4848934,4.875
40000000000000000000CC00,865.7,1.5033011,2.4375
40000000000000000000CC00,865.7,1.4726216,4.875
40000000000000000000CC00,865.7,1.515573,-3.25
40000000000000000000CC00,865.7,1.4848934,4.875
40000000000000000000CC00,865.7,1.4603497,5.6875
40000000000000000000CC00,865.7,1.4726216,1.625
40000000000000000000CC00,865.7,1.4848934,-0.8125
40000000000000000000CC00,865.7,1.4235342,6.5
40000000000000000000CC00,865.7,1.4235342,4.875
40000000000000000000CC00,865.7,1.4173982,4.875
40000000000000000000CC00,865.7,1.3989905,5.6875
40000000000000000000CC00,865.7,1.3867186,8.125
40000000000000000000CC00,865.7,1.4480779,-1.625
40000000000000000000CC00,865.7,1.3744467,4.875
40000000000000000000CC00,865.7,1.356039,7.3125
40000000000000000000CC00,865.7,1.3499031,8.125
40000000000000000000CC00,865.7,1.3314953,4.875
40000000000000000000CC00,865.7,1.3376312,0.8125
40000000000000000000CC00,865.7,1.2946798,7.3125
40000000000000000000CC00,865.7,1.276272,10.5625
40000000000000000000CC00,865.7,1.2885438,2.4375
40000000000000000000CC00,865.7,1.3253593,-2.4375
40000000000000000000CC00,865.7,1.2701361,7.3125
40000000000000000000CC00,865.7,1.2394565,6.5
40000000000000000000CC00,865.7,1.2087768,8.9375
40000000000000000000CC00,865.7,1.2087768,6.5
40000000000000000000CC00,865.7,1.2087768,4.875
40000000000000000000CC00,865.7,1.1658254,7.3125
40000000000000000000CC00,865.7,1.2087768,-0.8125
40000000000000000000CC00,865.7,1.1474177,1.625
40000000000000000000CC00,865.7,1.1044662,6.5
40000000000000000000CC00,865.7,1.1106021,3.25
40000000000000000000CC00,865.7,1.0921943,0.8125
40000000000000000000CC00,865.7,1.0676507,0.0
40000000000000000000CC00,865.7,1.030835,0.8125
40000000000000000000CC00,865.7,0.9756118,5.6875
40000000000000000000CC00,865.7,0.9756118,-1.625
40000000000000000000CC00,865.7,0.93266034,1.625
40000000000000000000CC00,865.7,0.8713011,4.875
40000000000000000000CC00,865.7,0.8467574,7.3125
40000000000000000000CC00,865.7,0.8222137,2.4375
40000000000000000000CC00,865.7,0.8222137,-1.625
40000000000000000000CC00,865.7,0.7608545,1.625
40000000000000000000CC00,865.7,0.73017484,3.25
40000000000000000000CC00,865.7,0.717903,2.4375
40000000000000000000CC00,865.7,0.638136,8.9375
40000000000000000000CC00,865.7,0.61972827,6.5
40000000000000000000CC00,865.7,0.6320001,-1.625
40000000000000000000CC00,865.7,0.5767768,0.8125
40000000000000000000CC00,865.7,0.5767768,0.0
40000000000000000000CC00,865.7,0.5154175,6.5
40000000000000000000CC00,865.7,0.5154175,1.625
40000000000000000000CC00,865.7,0.47246608,5.6875
40000000000000000000CC00,865.7,0.46019423,2.4375
40000000000000000000CC00,865.7,0.45405832,0.8125
40000000000000000000CC00,865.7,0.4049709,7.3125
40000000000000000000CC00,865.7,0.4049709,1.625
40000000000000000000CC00,865.7,0.3926991,1.625
40000000000000000000CC00,865.7,0.35588354,2.4375
40000000000000000000CC00,865.7,0.33133984,3.25
40000000000000000000CC00,865.7,0.32520393,0.0
40000000000000000000CC00,865.7,0.2883884,2.4375
40000000000000000000CC00,865.7,0.27611655,2.4375
40000000000000000000CC00,865.7,0.2699806,0.8125
40000000000000000000CC00,865.7,0.23316509,3.25
40000000000000000000CC00,865.7,0.24543692,-2.4375
40000000000000000000CC00,865.7,0.1840777,5.6875
40000000000000000000CC00,865.7,0.17794177,1.625
40000000000000000000CC00,865.7,0.159534,2.4375
40000000000000000000CC00,865.7,0.17180584,-0.8125
40000000000000000000CC00,865.7,0.11658254,3.25
40000000000000000000CC00,865.7,0.12885438,-1.625
40000000000000000000CC00,865.7,0.09203885,0.8125
40000000000000000000CC00,865.7,0.07363108,0.8125
40000000000000000000CC00,865.7,0.05522331,0.8125
40000000000000000000CC00,865.7,0.024543693,1.625
40000000000000000000CC00,865.7,0.01840777,0.0
40000000000000000000CC00,865.7,6.252506,5.6875
40000000000000000000CC00,865.7,6.227962,4.875
40000000000000000000CC00,865.7,6.2034183,4.875
40000000000000000000CC00,865.7,6.1972823,1.625
40000000000000000000CC00,865.7,6.1850104,1.625
40000000000000000000CC00,865.7,6.1604667,2.4375
40000000000000000000CC00,865.7,6.1543307,0.0
40000000000000000000CC00,865.7,6.1113796,2.4375
40000000000000000000CC00,865.7,6.0991077,4.875
40000000000000000000CC00,865.7,6.092972,0.8125
40000000000000000000CC00,865.7,6.062292,4.875
40000000000000000000CC00,865.7,6.068428,1.625
40000000000000000000CC00,865.7,6.0316124,5.6875
40000000000000000000CC00,865.7,6.05002,0.8125
40000000000000000000CC00,865.7,6.0438843,-2.4375
40000000000000000000CC00,865.7,6.0193405,0.8125
40000000000000000000CC00,865.7,5.976389,4.875
40000000000000000000CC00,865.7,5.988661,-0.8125
40000000000000000000CC00,865.7,5.9579816,2.4375
40000000000000000000CC00,865.7,5.9457097,1.625
40000000000000000000CC00,865.7,5.91503,4.875
40000000000000000000CC00,865.7,5.921166,0.8125
40000000000000000000CC00,865.7,5.908894,-0.8125
40000000000000000000CC00,865.7,5.8843503,0.8125
40000000000000000000CC00,865.7,5.8598065,1.625
40000000000000000000CC00,865.7,5.8413987,3.25
40000000000000000000CC00,865.7,5.835263,0.8125
40000000000000000000CC00,865.7,5.829127,-1.625
40000000000000000000CC00,865.7,5.7984476,0.0
40000000000000000000CC00,865.7,5.773904,1.625
40000000000000000000CC00,865.7,5.761632,0.8125
40000000000000000000CC00,865.7,5.755496,0.0
40000000000000000000CC00,865.7,5.7248163,2.4375
40000000000000000000CC00,865.7,5.7064085,2.4375
40000000000000000000CC00,865.7,5.7002726,0.8125
40000000000000000000CC00,865.7,5.6880007,0.0
40000000000000000000CC00,865.7,5.669593,1.625
40000000000000000000CC00,865.7,5.669593,-0.8125
40000000000000000000CC00,865.7,5.651185,-0.8125
40000000000000000000CC00,865.7,5.6327777,0.8125
40000000000000000000CC00,865.7,5.608234,2.4375
40000000000000000000CC00,865.7,5.61437,0.0
40000000000000000000CC00,865.7,5.58369,0.8125
40000000000000000000CC00,865.7,5.5468745,3.25
40000000000000000000CC00,865.7,5.5714183,-2.4375
40000000000000000000CC00,865.7,5.5284667,1.625
40000000000000000000CC00,865.7,5.5223308,-0.8125
40000000000000000000CC00,865.7,5.485515,3.25
40000000000000000000CC00,865.7,5.485515,0.0
40000000000000000000CC00,865.7,5.460972,0.8125
40000000000000000000CC00,865.7,5.4487,0.0
40000000000000000000CC00,865.7,5.4118843,1.625
40000000000000000000CC00,865.7,5.4057484,1.625
40000000000000000000CC00,865.7,5.3812046,2.4375
40000000000000000000CC00,865.7,5.3873405,1.625
40000000000000000000CC00,865.7,5.350525,5.6875
40000000000000000000CC00,865.7,5.344389,3.25
40000000000000000000CC00,865.7,5.332117,3.25
40000000000000000000CC00,865.7,5.3137093,4.875
40000000000000000000CC00,865.7,5.325981,0.8125
40000000000000000000CC00,865.7,5.3137093,0.0
40000000000000000000CC00,865.7,5.3075733,0.8125
40000000000000000000CC00,865.7,5.3014374,0.0
40000000000000000000CC00,865.7,5.276894,3.25
40000000000000000000CC00,865.7,5.295302,-0.8125
40000000000000000000CC00,865.7,5.28303,0.0
40000000000000000000CC00,865.7,5.2523503,4.875
40000000000000000000CC00,865.7,5.2584863,1.625
40000000000000000000CC00,865.7,5.2400784,3.25
40000000000000000000CC00,865.7,5.2400784,6.5
40000000000000000000CC00,865.7,5.2400784,1.625
40000000000000000000CC00,865.7,5.2216706,4.875
40000000000000000000CC00,865.7,5.2216706,3.25
40000000000000000000CC00,865.7,5.2339425,0.0
40000000000000000000CC00,865.7,5.2155347,2.4375
40000000000000000000CC00,865.7,5.2216706,0.0
40000000000000000000CC00,865.7,5.190991,3.25
40000000000000000000CC00,865.7,5.190991,0.8125
40000000000000000000CC00,865.7,5.2093987,-1.625
40000000000000000000CC00,865.7,5.172583,1.625
40000000000000000000CC00,865.7,5.160311,2.4375
40000000000000000000CC00,865.7,5.1480393,2.4375
40000000000000000000CC00,865.7,5.1357675,3.25
40000000000000000000CC00,865.7,5.1357675,2.4375
40000000000000000000CC00,865.7,5.1357675,0.8125
40000000000000000000CC00,865.7,5.11736,1.625
40000000000000000000CC00,865.7,5.111224,1.625
40000000000000000000CC00,865.7,5.0928164,2.4375
40000000000000000000CC00,865.7,5.0989523,0.8125
40000000000000000000CC00,865.7,5.0805445,5.6875
40000000000000000000CC00,865.7,5.0744085,3.25
40000000000000000000CC00,865.7,5.0989523,-2.4375
40000000000000000000CC00,865.7,5.0621367,1.625
40000000000000000000CC00,865.7,5.0560007,2.4375
40000000000000000000CC00,865.7,5.0621367,-0.8125
40000000000000000000CC00,865.7,5.037593,0.8125
40000000000000000000CC00,865.7,4.9148746,0.0
40000000000000000000CC00,865.7,4.884195,4.875
40000000000000000000CC00,865.7,4.884195,2.4375
40000000000000000000CC00,865.7,4.9026027,0.0
40000000000000000000CC00,865.7,4.8964667,-1.625
40000000000000000000CC00,865.7,4.871923,0.0
40000000000000000000CC00,865.7,4.859651,0.0
40000000000000000000CC00,865.7,4.859651,0.0
40000000000000000000CC00,865.7,4.847379,0.0
40000000000000000000CC00,865.7,4.847379,0.0
40000000000000000000CC00,865.7,4.8166995,2.4375
40000000000000000000CC00,865.7,4.8166995,3.25
40000000000000000000CC00,865.7,4.8412433,-3.25
40000000000000000000CC00,865.7,4.8044276,1.625
40000000000000000000CC00,865.7,4.8044276,0.0
40000000000000000000CC00,865.7,4.792156,-0.8125
40000000000000000000CC00,865.7,4.7860203,0.0
40000000000000000000CC00,865.7,4.7860203,-2.4375
40000000000000000000CC00,865.7,4.7614765,1.625
40000000000000000000CC00,865.7,4.7676125,0.0
40000000000000000000CC00,865.7,4.7430687,0.0
40000000000000000000CC00,865.7,4.730797,0.8125
40000000000000000000CC00,865.7,4.712389,2.4375
40000000000000000000CC00,865.7,4.700117,1.625
40000000000000000000CC00,865.7,4.693981,0.0
40000000000000000000CC00,865.7,4.693981,-0.8125
40000000000000000000CC00,865.7,4.6694374,0.8125
40000000000000000000CC00,865.7,4.6817093,-1.625
40000000000000000000CC00,865.7,4.6817093,-4.875
40000000000000000000CC00,865.7,4.6571655,0.0
40000000000000000000CC00,865.7,4.6571655,-2.4375
40000000000000000000CC00,865.7,4.6510296,-2.4375
40000000000000000000CC00,865.7,4.626486,-1.625
40000000000000000000CC00,865.7,4.6387577,-3.25
40000000000000000000CC00,865.7,4.6203504,-1.625
40000000000000000000CC00,865.7,4.5896707,0.8125
40000000000000000000CC00,865.7,4.6080785,-1.625
40000000000000000000CC00,865.7,4.5896707,-1.625
40000000000000000000CC00,865.7,4.577399,0.0
40000000000000000000CC00,865.7,4.565127,-0.8125
40000000000000000000CC00,865.7,4.5283113,3.25
40000000000000000000CC00,865.7,4.5221753,1.625
40000000000000000000CC00,865.7,4.5221753,1.625
40000000000000000000CC00,865.7,4.4976315,2.4375
40000000000000000000CC00,865.7,4.5221753,-2.4375
40000000000000000000CC00,865.7,4.5099034,-1.625
40000000000000000000CC00,865.7,4.473088,0.8125
40000000000000000000CC00,865.7,4.4546804,1.625
40000000000000000000CC00,865.7,4.460816,0.8125
40000000000000000000CC00,865.7,4.4362726,1.625
40000000000000000000CC00,865.7,4.4301367,0.0
40000000000000000000CC00,865.7,4.411729,2.4375
40000000000000000000CC00,865.7,4.411729,-0.8125
40000000000000000000CC00,865.7,4.399457,0.0
40000000000000000000CC00,865.7,4.387185,0.8125
40000000000000000000CC00,865.7,4.374913,0.0
40000000000000000000CC00,865.7,4.3565054,1.625
40000000000000000000CC00,865.7,4.3626413,-1.625
40000000000000000000CC00,865.7,4.3258257,1.625
40000000000000000000CC00,865.7,4.3258257,0.8125
40000000000000000000CC00,865.7,4.3258257,-0.8125
40000000000000000000CC00,865.7,4.307418,0.0
40000000000000000000CC00,865.7,4.307418,0.0
40000000000000000000CC00,865.7,4.2828746,2.4375
40000000000000000000CC00,865.7,4.28901,-1.625
40000000000000000000CC00,865.7,4.264467,0.8125
40000000000000000000CC00,865.7,4.258331,-0.8125
40000000000000000000CC00,865.7,4.239923,0.8125
40000000000000000000CC00,865.7,4.227651,2.4375
40000000000000000000CC00,865.7,4.233787,0.0
40000000000000000000CC00,865.7,4.2031074,3.25
40000000000000000000CC00,865.7,4.2092433,0.0
40000000000000000000CC00,865.7,4.1969714,1.625
40000000000000000000CC00,865.7,4.1908355,-0.8125
40000000000000000000CC00,865.7,4.1908355,0.0
40000000000000000000CC00,865.7,4.1785636,-0.8125
40000000000000000000CC00,865.7,4.1662917,1.625
40000000000000000000CC00,865.7,4.1724277,-0.8125
40000000000000000000CC00,865.7,4.147884,0.8125
40000000000000000000CC00,865.7,4.147884,-0.8125
40000000000000000000CC00,865.7,4.12334,1.625
40000000000000000000CC00,865.7,4.1172047,1.625
40000000000000000000CC00,865.7,4.1172047,0.0
40000000000000000000CC00,865.7,4.104933,0.0
40000000000000000000CC00,865.7,4.092661,0.8125
40000000000000000000CC00,865.7,4.080389,1.625
40000000000000000000CC00,865.7,4.086525,0.8125
40000000000000000000CC00,865.7,4.092661,-1.625
40000000000000000000CC00,865.7,4.061981,2.4375
40000000000000000000CC00,865.7,4.061981,1.625
40000000000000000000CC00,865.7,4.0558453,1.625
40000000000000000000CC00,865.7,4.061981,0.8125
40000000000000000000CC00,865.7,4.0374374,1.625
40000000000000000000CC00,865.7,4.0497093,-0.8125
40000000000000000000CC00,865.7,4.0374374,0.0
40000000000000000000CC00,865.7,4.0313015,0.8125
40000000000000000000CC00,865.7,4.0190296,1.625
40000000000000000000CC00,865.7,4.0251656,0.0
40000000000000000000CC00,865.7,4.0190296,0.8125
40000000000000000000CC00,865.7,4.0190296,0.8125
40000000000000000000CC00,865.7,4.0313015,-2.4375
40000000000000000000CC00,865.7,4.0190296,0.0
40000000000000000000CC00,865.7,4.0190296,0.0
40000000000000000000CC00,865.7,4.0128937,1.625
40000000000000000000CC00,865.7,4.0251656,-0.8125
40000000000000000000CC00,865.7,4.0251656,0.0
40000000000000000000CC00,865.7,4.0374374,-1.625
40000000000000000000CC00,865.7,4.0251656,-0.8125
40000000000000000000CC00,865.7,4.0251656,-0.8125
40000000000000000000CC00,865.7,4.0128937,1.625
40000000000000000000CC00,865.7,4.0374374,0.0
40000000000000000000CC00,865.7,4.0374374,-0.8125
40000000000000000000CC00,865.7,4.0313015,0.8125
40000000000000000000CC00,865.7,4.0313015,0.0
40000000000000000000CC00,865.7,4.0313015,0.8125
40000000000000000000CC00,865.7,4.0558453,-1.625
40000000000000000000CC00,865.7,4.0558453,0.8125
40000000000000000000CC00,865.7,4.0497093,0.8125
40000000000000000000CC00,865.7,4.0558453,0.8125
40000000000000000000CC00,865.7,4.068117,-0.8125
40000000000000000000CC00,865.7,4.068117,0.8125
40000000000000000000CC00,865.7,4.080389,-0.8125
40000000000000000000CC00,865.7,4.080389,0.8125
40000000000000000000CC00,865.7,4.074253,1.625
40000000000000000000CC00,865.7,4.104933,-0.8125
40000000000000000000CC00,865.7,4.104933,0.8125
40000000000000000000CC00,865.7,4.1110687,1.625
40000000000000000000CC00,865.7,4.135612,0.0
40000000000000000000CC00,865.7,4.147884,0.0
40000000000000000000CC00,865.7,4.1662917,0.0
40000000000000000000CC00,865.7,4.1785636,-0.8125
40000000000000000000CC00,865.7,4.1969714,-0.8125
40000000000000000000CC00,865.7,4.215379,-0.8125
40000000000000000000CC00,865.7,4.246059,-2.4375
40000000000000000000CC00,865.7,4.252195,-0.8125
40000000000000000000CC00,865.7,4.252195,3.25
40000000000000000000CC00,865.7,4.301282,-0.8125
40000000000000000000CC00,865.7,4.3319616,-0.8125
40000000000000000000CC00,865.7,4.3503695,0.8125
40000000000000000000CC00,865.7,4.3687773,1.625
40000000000000000000CC00,865.7,4.405593,1.625
40000000000000000000CC00,865.7,4.4485445,-0.8125
40000000000000000000CC00,865.7,4.4853597,-0.8125
40000000000000000000CC00,865.7,4.5221753,0.0
40000000000000000000CC00,865.7,4.546719,2.4375
40000000000000000000CC00,865.7,4.5958066,0.0
40000000000000000000CC00,865.7,4.6571655,-1.625
40000000000000000000CC00,865.7,4.700117,-1.625
40000000000000000000CC00,865.7,4.7369328,1.625
40000000000000000000CC00,865.7,4.7982917,0.0
40000000000000000000CC00,865.7,4.853515,1.625
40000000000000000000CC00,865.7,4.9148746,2.4375
40000000000000000000CC00,865.7,4.9946413,3.25
40000000000000000000CC00,865.7,5.0928164,2.4375
40000000000000000000CC00,865.7,5.1541753,3.25
40000000000000000000CC00,865.7,5.2339425,0.0
40000000000000000000CC00,865.7,5.276894,1.625
40000000000000000000CC00,865.7,5.3075733,2.4375
40000000000000000000CC00,865.7,5.344389,3.25
40000000000000000000CC00,865.7,5.3996124,-1.625
40000000000000000000CC00,865.7,5.424156,0.8125
40000000000000000000CC00,865.7,5.442564,1.625
40000000000000000000CC00,865.7,5.485515,1.625
40000000000000000000CC00,865.7,5.5407386,-0.8125
40000000000000000000CC00,865.7,5.5530105,2.4375
40000000000000000000CC00,865.7,5.595962,1.625
40000000000000000000CC00,865.7,5.6327777,0.8125
40000000000000000000CC00,865.7,5.675729,0.0
40000000000000000000CC00,865.7,5.6818647,0.8125
40000000000000000000CC00,865.7,5.7186804,0.8125
40000000000000000000CC00,865.7,5.761632,-1.625
40000000000000000000CC00,865.7,5.773904,0.0
40000000000000000000CC00,865.7,5.7861757,0.0
40000000000000000000CC00,865.7,5.829127,-1.625
40000000000000000000CC00,865.7,5.829127,1.625
40000000000000000000CC00,865.7,5.8536706,0.8125
40000000000000000000CC00,865.7,5.8843503,0.8125
40000000000000000000CC00,865.7,5.896622,0.8125
40000000000000000000CC00,865.7,5.921166,-0.8125
40000000000000000000CC00,865.7,5.939574,0.0
40000000000000000000CC00,865.7,5.9579816,0.0
40000000000000000000CC00,865.7,5.976389,-0.8125
40000000000000000000CC00,865.7,5.970253,2.4375
40000000000000000000CC00,865.7,6.0070686,-0.8125
40000000000000000000CC00,865.7,6.0193405,-0.8125
40000000000000000000CC00,865.7,6.0070686,2.4375
40000000000000000000CC00,865.7,6.0438843,-2.4375
40000000000000000000CC00,865.7,6.056156,-2.4375
40000000000000000000CC00,865.7,6.0316124,0.8125
40000000000000000000CC00,865.7,6.0438843,2.4375
40000000000000000000CC00,865.7,6.074564,-2.4375
40000000000000000000CC00,865.7,6.068428,-0.8125
40000000000000000000CC00,865.7,6.0807,-1.625
40000000000000000000CC00,865.7,6.068428,0.0
40000000000000000000CC00,865.7,6.068428,-0.8125
40000000000000000000CC00,865.7,6.0991077,-4.875
40000000000000000000CC00,865.7,6.062292,0.8125
40000000000000000000CC00,865.7,6.092972,-0.8125
40000000000000000000CC00,865.7,6.086836,-2.4375
40000000000000000000CC00,865.7,6.0807,-1.625
40000000000000000000CC00,865.7,6.074564,-0.8125
40000000000000000000CC00,865.7,6.074564,-0.8125
40000000000000000000CC00,865.7,6.0807,-0.8125
40000000000000000000CC00,865.7,6.086836,-2.4375
40000000000000000000CC00,865.7,6.0807,0.8125
40000000000000000000CC00,865.7,6.086836,1.625
40000000000000000000CC00,865.7,6.092972,0.8125
40000000000000000000CC00,865.7,6.1052437,0.0
40000000000000000000CC00,865.7,6.1297874,-1.625
40000000000000000000CC00,865.7,6.1236515,0.8125
40000000000000000000CC00,865.7,6.148195,-1.625
40000000000000000000CC00,865.7,6.1604667,-2.4375
40000000000000000000CC00,865.7,6.1850104,-5.6875
40000000000000000000CC00,865.7,6.1543307,0.8125
40000000000000000000CC00,865.7,6.1727386,-0.8125
40000000000000000000CC00,865.7,6.1788745,-1.625
40000000000000000000CC00,865.7,6.1850104,-0.8125
40000000000000000000CC00,865.7,6.1788745,-0.8125
40000000000000000000CC00,865.7,6.1911464,-0.8125
40000000000000000000CC00,865.7,6.2034183,-2.4375
40000000000000000000CC00,865.7,6.21569,-3.25
40000000000000000000CC00,865.7,6.1911464,0.8125
40000000000000000000CC00,865.7,6.252506,-7.3125
40000000000000000000CC00,865.7,6.227962,-1.625
40000000000000000000CC00,865.7,6.21569,0.8125
40000000000000000000CC00,865.7,6.234098,0.0
40000000000000000000CC00,865.7,6.227962,0.8125
40000000000000000000CC00,865.7,6.24637,-0.8125
40000000000000000000CC00,865.7,6.240234,-1.625
40000000000000000000CC00,865.7,6.2586417,-3.25
40000000000000000000CC00,865.7,6.2647777,-3.25
40000000000000000000CC00,865.7,6.252506,0.0
40000000000000000000CC00,865.7,6.240234,1.625
40000000000000000000CC00,865.7,6.2770495,-1.625
40000000000000000000CC00,865.7,6.2586417,1.625
40000000000000000000CC00,865.7,6.252506,1.625
40000000000000000000CC00,865.7,6.2709136,0.8125
40000000000000000000CC00,865.7,6.2586417,4.875
40000000000000000000CC00,865.7,6.2770495,0.8125
40000000000000000000CC00,865.7,0.0,0.8125
40000000000000000000CC00,865.7,0.0,3.25
40000000000000000000CC00,865.7,0.01840777,0.8125
40000000000000000000CC00,865.7,0.012271847,1.625
40000000000000000000CC00,865.7,6.2709136,5.6875
40000000000000000000CC00,865.7,0.030679615,0.8125
40000000000000000000CC00,865.7,0.024543693,0.8125
40000000000000000000CC00,865.7,0.03681554,1.625
40000000000000000000CC00,865.7,0.06135923,-0.8125
40000000000000000000CC00,865.7,0.06749515,-1.625
40000000000000000000CC00,865.7,0.07363108,-0.8125
40000000000000000000CC00,865.7,0.06749515,1.625
40000000000000000000CC00,865.7,0.05522331,3.25
40000000000000000000CC00,865.7,0.07363108,1.625
40000000000000000000CC00,865.7,0.079767,3.25
40000000000000000000CC00,865.7,0.079767,3.25
40000000000000000000CC00,865.7,0.08590292,3.25
40000000000000000000CC00,865.7,0.08590292,2.4375
40000000000000000000CC00,865.7,0.11658254,0.0
40000000000000000000CC00,865.7,0.11044662,3.25
40000000000000000000CC00,865.7,0.12271846,0.8125
40000000000000000000CC00,865.7,0.14726216,1.625
40000000000000000000CC00,865.7,0.1349903,2.4375
40000000000000000000CC00,865.7,0.15339808,2.4375
