-35.5,0.7731263170943632,4.875
-35.5,0.8099418560036186,0.0
-35.5,0.7853981633974483,6.5
-35.5,0.7731263170943632,5.6875
-35.5,0.7976700097005334,1.625
-35.5,0.7915340865489908,4.875
-35.5,0.7853981633974483,4.875
-35.5,0.7915340865489908,2.4375
-35.5,0.7792622402459057,4.875
-35.5,0.7915340865489908,0.8125
-35.5,0.7669903939428205,4.875
-35.5,0.7669903939428205,5.6875
-35.5,0.7731263170943632,5.6875
-35.5,0.7669903939428205,4.875
-35.5,0.7669903939428205,0.0
-35.5,0.7669903939428205,1.625
-35.0,0.7117670855789375,11.375
-35.5,0.7547185476397354,2.4375
-35.5,0.7424467013366504,3.25
-35.5,0.7485826244881929,-1.625
-35.5,0.7301748550335652,1.625
-35.0,0.7117670855789375,7.3125
-35.5,0.7240389318820226,2.4375
-35.0,0.6994952392758523,5.6875
-35.0,0.7301748550335652,4.875
-35.0,0.7179030087304801,4.875
-35.0,0.7363107781851077,2.4375
-35.0,0.7424467013366504,0.8125
-35.5,0.7179030087304801,6.5
-35.0,0.7363107781851077,3.25
-35.0,0.7301748550335652,4.875
-35.5,0.7424467013366504,3.25
-35.5,0.7240389318820226,5.6875
-35.0,0.7240389318820226,4.875
-35.5,0.7301748550335652,6.5
-35.0,0.7363107781851077,5.6875
-35.0,0.7731263170943632,-0.8125
-35.5,0.7363107781851077,6.5
-35.5,0.7301748550335652,4.875
-35.0,0.7363107781851077,5.6875
-35.5,0.7301748550335652,3.25
-35.5,0.7240389318820226,6.5
-35.0,0.7363107781851077,1.625
-35.0,0.7179030087304801,7.3125
-35.0,0.7179030087304801,3.25
-35.0,0.7363107781851077,3.25
-35.0,0.7240389318820226,4.875
-35.0,0.7117670855789375,6.5
-35.0,0.7179030087304801,4.875
-35.0,0.7179030087304801,8.125
-35.0,0.7301748550335652,4.875
-35.0,0.705631162427395,8.125
-35.0,0.6994952392758523,6.5
-35.0,0.7363107781851077,0.0
-34.5,0.7179030087304801,0.8125
-34.5,0.6688156235181395,8.125
-35.0,0.6810874698212247,3.25
-34.5,0.662679700366597,7.3125
-35.0,0.6442719309119693,7.3125
-35.0,0.6381360077604268,8.125
-34.5,0.6688156235181395,4.875
-35.0,0.6504078540635119,7.3125
-35.0,0.6565437772150544,2.4375
-34.5,0.6442719309119693,6.5
-34.5,0.6320000846088841,6.5
-34.5,0.6442719309119693,2.4375
-34.0,0.6320000846088841,-1.625
-34.0,0.6013204688511713,4.875
-34.0,0.5583690067903734,6.5
-34.0,0.5338253141842031,8.9375
-34.0,0.521553467881118,8.125
-34.0,0.5092816215780329,6.5
-34.0,0.5338253141842031,0.0
-34.0,0.4724660826687775,8.125
-34.0,0.46019423636569234,9.75
-33.5,0.4540583132141498,6.5
-33.5,0.4724660826687775,3.25
-33.5,0.4663301595172349,4.875
-33.5,0.44178646691106466,2.4375
-33.5,0.4295146206079795,6.5
-33.0,0.4295146206079795,-0.8125
-33.5,0.39269908169872414,3.25
-33.5,0.36815538909255385,5.6875
-33.5,0.3436116964863836,5.6875
-33.5,0.3190680038802134,6.5
-33.0,0.3190680038802134,2.4375
-33.0,0.2761165418194154,5.6875
-33.5,0.25157284921324513,5.6875
-33.5,0.2454369260617026,1.625
-33.0,0.2270291566070749,-0.8125
-33.5,0.18407769454627693,5.6875
-33.5,0.18407769454627693,3.25
-33.0,0.15339807878856412,4.875
-33.0,0.14112623248547898,6.5
-33.0,0.1349903093339364,5.6875
-33.5,0.12885438618239387,2.4375
-33.5,0.11044661672776616,6.5
-33.5,0.11044661672776616,5.6875
-33.5,0.0859029241215959,4.875
-33.5,0.07363107781851078,1.625
-33.5,0.02454369260617026,4.875
-33.5,6.264777537724958,5.6875
-34.0,6.227961998815704,3.25
-34.0,6.22182607566416,0.8125
-33.5,6.178874613603362,1.625
-33.5,6.154330920997192,0.8125
-33.5,6.105243535784852,3.25
-33.5,6.086835766330224,2.4375
-33.5,6.080699843178682,1.625
-33.5,6.031612457966341,5.6875
-33.0,5.988660995905543,4.875
-33.5,5.964117303299373,4.875
-33.5,5.945709533844745,7.3125
-33.5,5.9518454569962875,0.0
-33.5,5.927301764390117,2.4375
-33.5,5.884350302329319,6.5
-33.5,5.859806609723149,7.3125
-33.5,5.872078456026235,1.625
-33.5,5.8659425328746915,1.625
-33.5,5.841398840268521,4.875
-33.5,5.810719224510809,6.5
-34.0,5.810719224510809,2.4375
-34.0,5.792311455056181,4.875
-33.5,5.786175531904639,3.25
-34.0,5.780039608753096,3.25
-33.5,5.786175531904639,2.4375
-33.5,5.780039608753096,2.4375
-34.0,5.743224069843841,7.3125
-33.5,5.749359992995383,5.6875
-34.0,5.767767762450011,-0.8125
-34.0,5.730952223540755,1.625
-34.0,5.71868037723767,6.5
-34.0,5.71868037723767,5.6875
-34.0,5.706408530934585,4.875
-34.5,5.724816300389213,1.625
-34.0,5.724816300389213,2.4375
-34.5,5.712544454086128,2.4375
-34.0,5.71868037723767,4.875
-34.5,5.71868037723767,2.4375
-34.0,5.700272607783043,4.875
-34.5,5.6941366846315,8.125
-34.5,5.724816300389213,1.625
-34.0,5.730952223540755,2.4375
-34.5,5.712544454086128,5.6875
-34.0,5.724816300389213,3.25
-34.5,5.743224069843841,2.4375
-34.5,5.755495916146925,1.625
-34.5,5.755495916146925,2.4375
-34.5,5.755495916146925,3.25
-34.5,5.755495916146925,6.5
-34.0,5.792311455056181,4.875
-34.5,5.8045833013592665,5.6875
-34.5,5.8659425328746915,-4.875
-34.0,5.822991070813893,6.5
-34.5,5.896622148632405,-3.25
-34.0,5.872078456026235,7.3125
-34.0,5.921165841238575,2.4375
-34.0,5.915029918087033,7.3125
-34.5,5.939573610693203,4.875
-34.5,5.957981380147831,4.875
-34.5,5.957981380147831,8.125
-34.5,6.013204688511713,5.6875
-34.5,6.025476534814799,5.6875
-34.5,6.0991076126333095,-1.625
-34.5,6.062292073724054,7.3125
-34.5,6.092971689481767,5.6875
-34.5,6.1420590746941075,3.25
-34.5,6.17273869045182,3.25
-34.5,6.178874613603362,4.875
-34.5,6.258641614573416,0.8125
-34.5,6.258641614573416,2.4375
-34.5,6.277049384028044,3.25
-34.5,0.02454369260617026,2.4375
-34.5,0.03681553890925539,5.6875
-34.5,0.03681553890925539,8.9375
-34.5,0.07363107781851078,7.3125
-34.0,0.11044661672776616,4.875
-34.5,0.14112623248547898,5.6875
-34.5,0.14112623248547898,7.3125
-34.0,0.1718058482431918,8.125
-34.0,0.2270291566070749,-1.625
-34.0,0.2270291566070749,2.4375
-34.0,0.23930100291016002,6.5
-34.0,0.25770877236478773,8.125
-34.0,0.2761165418194154,7.3125
-34.0,0.3129320807286708,4.875
-34.0,0.3190680038802134,4.875
-34.0,0.3374757733348411,7.3125
-34.0,0.3988350048502667,0.0
-34.0,0.37429131224409645,7.3125
-34.0,0.39269908169872414,5.6875
-34.0,0.42337869745643697,0.8125
-34.0,0.4111068511533518,5.6875
-34.0,0.4356505437595221,4.875
-34.0,0.44178646691106466,6.5
-33.5,0.4479223900626072,8.9375
-34.5,0.4908738521234052,3.25
-34.0,0.48473792897186263,6.5
-34.0,0.5092816215780329,3.25
-34.5,0.5031456984264903,8.9375
-34.0,0.5522330836388308,2.4375
-34.0,0.5399612373357456,8.125
-34.5,0.5645049299419159,6.5
-34.0,0.5706408530934585,7.3125
-34.5,0.5767767762450011,8.125
-34.5,0.5890486225480862,8.125
-34.5,0.607456392002714,8.125
-34.5,0.619728238305799,6.5
-34.0,0.6258641614573416,6.5
-34.5,0.6381360077604268,8.125
-34.5,0.6320000846088841,8.9375
-34.5,0.6504078540635119,5.6875
-34.5,0.6381360077604268,9.75
-34.5,0.6994952392758523,4.875
-34.5,0.6994952392758523,0.8125
-34.5,0.6994952392758523,4.875
-34.5,0.7117670855789375,5.6875
-34.5,0.7240389318820226,5.6875
-35.0,0.7485826244881929,2.4375
-35.0,0.7547185476397354,2.4375
-34.5,0.7485826244881929,7.3125
-34.5,0.760854470791278,4.875
-34.5,0.7915340865489908,0.0
-35.0,0.803805932852076,2.4375
-34.5,0.8099418560036186,3.25
-34.5,0.8160777791551611,5.6875
-34.5,0.8344855486097889,0.8125
-34.5,0.8283496254582462,5.6875
-34.5,0.8222137023067037,2.4375
-34.5,0.8467573949128739,5.6875
-34.5,0.8528933180644165,5.6875
-34.5,0.8283496254582462,7.3125
-35.0,0.8467573949128739,5.6875
-34.5,0.8651651643675016,2.4375
-34.5,0.8651651643675016,5.6875
-34.5,0.8713010875190442,2.4375
-34.5,0.8774370106705868,3.25
-34.5,0.859029241215959,8.125
-34.5,0.8651651643675016,10.5625
-34.5,0.9081166264282996,1.625
-34.5,0.9019807032767571,5.6875
-34.5,0.9142525495798421,4.875
-34.5,0.9081166264282996,6.5
-34.5,0.944932165337555,0.0
-34.5,0.9572040116406401,2.4375
-35.0,0.944932165337555,6.5
-34.5,0.9756117810952678,1.625
-35.0,0.9817477042468103,0.8125
-35.0,0.9817477042468103,1.625
-34.5,1.000155473701438,1.625
-34.5,0.9940195505498954,3.25
-34.5,0.9878836273983529,8.9375
-34.5,0.9878836273983529,8.9375
-35.0,1.0062913968529805,8.9375
-34.5,1.0246991663076084,6.5
-35.0,1.0062913968529805,10.5625
-35.0,1.0369710126106935,7.3125
-34.5,1.0492428589137786,5.6875
-35.0,1.055378782065321,5.6875
-34.5,1.0676506283684062,4.875
-34.5,1.0615147052168636,6.5
-34.5,1.0676506283684062,7.3125
-35.0,1.086058397823034,8.125
-35.0,1.1044661672776617,4.875
-34.5,1.1106020904292042,5.6875
-35.0,1.1044661672776617,7.3125
-35.0,1.1044661672776617,8.9375
-35.0,1.1658253987930873,-0.8125
-35.0,1.1535535524900022,1.625
-35.0,1.1228739367322893,7.3125
-35.0,1.1290098598838318,7.3125
-35.0,1.1719613219446299,3.25
-35.0,1.141281706186917,6.5
-35.0,1.1474176293384597,10.5625
-35.0,1.1535535524900022,8.125
-35.0,1.1780972450961724,5.6875
-35.0,1.1903690913992575,8.9375
-35.0,1.184233168247715,6.5
-35.0,1.1965050145508,7.3125
-35.0,1.2026409377023426,8.125
-35.0,1.227184630308513,3.25
-35.0,1.184233168247715,7.3125
-35.5,1.1903690913992575,11.375
-35.5,1.1965050145508,8.9375
-35.0,1.2026409377023426,8.125
-35.5,1.239456476611598,1.625
-35.5,1.214912784005428,8.9375
-35.5,1.2578642460662257,2.4375
-35.5,1.214912784005428,8.9375
-35.5,1.2210487071569704,7.3125
-35.5,1.2455923997631406,4.875
-35.5,1.2517283229146832,7.3125
-35.5,1.2640001692177683,5.6875
-35.5,1.2333205534600555,10.5625
-35.5,1.2210487071569704,11.375
-35.5,1.2517283229146832,8.9375
-35.5,1.2885438618239387,0.0
-35.5,1.2701360923693108,6.5
-35.5,1.2640001692177683,6.5
-35.5,1.2946797849754812,0.8125
-36.0,1.282407938672396,3.25
-35.5,1.2946797849754812,4.875
-36.0,1.2946797849754812,3.25
-35.5,1.2762720155208536,7.3125
-36.0,1.2946797849754812,6.5
-35.5,1.3008157081270237,5.6875
-36.0,1.3008157081270237,4.875
-36.0,1.3130875544301088,3.25
-36.0,1.3069516312785663,3.25
-35.5,1.3192234775816514,0.8125
-36.0,1.2885438618239387,8.125
-36.0,1.3130875544301088,7.3125
-36.0,1.3069516312785663,6.5
-36.0,1.282407938672396,6.5
-36.0,1.325359400733194,5.6875
-36.0,1.3192234775816514,4.875
-36.0,1.3314953238847365,2.4375
-36.0,1.3008157081270237,8.9375
-36.0,1.325359400733194,6.5
-36.0,1.3069516312785663,6.5
-36.0,1.337631247036279,3.25
-36.0,1.3008157081270237,8.9375
-36.0,1.3069516312785663,7.3125
-36.0,1.3192234775816514,7.3125
-36.0,1.3008157081270237,7.3125
-36.0,1.3314953238847365,4.875
-36.0,1.3130875544301088,7.3125
-36.0,1.3069516312785663,9.75
-36.0,1.3008157081270237,10.5625
-36.0,1.3867186322486196,-2.4375
-36.0,1.3130875544301088,8.9375
-36.5,1.3437671701878218,5.6875
-36.5,1.3437671701878218,2.4375
-36.5,1.3437671701878218,5.6875
-36.0,1.3989904785517047,-2.4375
-36.5,1.325359400733194,10.5625
-36.5,1.3499030933393643,8.125
-36.5,1.3560390164909069,5.6875
-36.5,1.368310862793992,7.3125
-36.5,1.3989904785517047,1.625
-36.5,1.380582709097077,5.6875
-36.5,1.3989904785517047,5.6875
-36.5,1.3928545554001621,6.5
-37.0,1.3989904785517047,5.6875
-37.0,1.380582709097077,8.125
-37.0,1.3867186322486196,8.9375
-37.0,1.4296700943094176,0.0
-37.0,1.4480778637640452,2.4375
-37.0,1.4542137869155878,2.4375
-37.0,1.41126232485479,10.5625
-37.5,1.4603497100671303,4.875
-37.0,1.4664856332186729,4.875
-37.5,1.4726215563702154,2.4375
-37.5,1.4480778637640452,7.3125
-37.5,1.4603497100671303,7.3125
-37.5,1.4848934026733007,3.25
-37.5,1.4419419406125027,10.5625
-37.5,1.4296700943094176,10.5625
-37.5,1.4848934026733007,6.5
-38.0,1.5155730184310134,-2.4375
-38.0,1.4848934026733007,3.25
-38.0,1.4910293258248433,0.8125
-38.0,1.5278448647340985,-1.625
-37.5,1.5155730184310134,2.4375
-38.0,1.4848934026733007,6.5
-38.0,1.5278448647340985,0.0
-38.0,1.4664856332186729,8.125
-38.0,1.4787574795217582,6.5
-38.0,1.4910293258248433,3.25
-38.0,1.4910293258248433,4.875
-38.5,1.4848934026733007,4.875
-38.0,1.5033011721279284,2.4375
-38.0,1.4726215563702154,4.875
-38.0,1.5155730184310134,-3.25
-38.0,1.4848934026733007,4.875
-38.5,1.4603497100671303,5.6875
-38.5,1.4726215563702154,1.625
-38.5,1.4848934026733007,-0.8125
-38.5,1.423534171157875,6.5
-38.5,1.423534171157875,4.875
-38.5,1.4173982480063325,4.875
-38.5,1.3989904785517047,5.6875
-38.0,1.3867186322486196,8.125
-38.0,1.4480778637640452,-1.625
-38.5,1.3744467859455345,4.875
-38.5,1.3560390164909069,7.3125
-38.5,1.3499030933393643,8.125
-38.5,1.3314953238847365,4.875
-38.5,1.337631247036279,0.8125
-38.5,1.2946797849754812,7.3125
-38.5,1.2762720155208536,10.5625
-38.5,1.2885438618239387,2.4375
-38.5,1.325359400733194,-2.4375
-38.5,1.2701360923693108,7.3125
-38.5,1.239456476611598,6.5
-38.5,1.2087768608538851,8.9375
-38.5,1.2087768608538851,6.5
-38.5,1.2087768608538851,4.875
-39.0,1.1658253987930873,7.3125
-38.5,1.2087768608538851,-0.8125
-39.0,1.1474176293384597,1.625
-38.5,1.1044661672776617,6.5
-38.5,1.1106020904292042,3.25
-39.0,1.0921943209745766,0.8125
-38.5,1.0676506283684062,0.0
-39.0,1.030835089459151,0.8125
-39.0,0.9756117810952678,5.6875
-38.5,0.9756117810952678,-1.625
-38.5,0.9326603190344698,1.625
-38.5,0.8713010875190442,4.875
-39.0,0.8467573949128739,7.3125
-38.5,0.8222137023067037,2.4375
-38.5,0.8222137023067037,-1.625
-39.0,0.760854470791278,1.625
-39.0,0.7301748550335652,3.25
-39.0,0.7179030087304801,2.4375
-38.5,0.6381360077604268,8.9375
-38.5,0.619728238305799,6.5
-38.5,0.6320000846088841,-1.625
-38.0,0.5767767762450011,0.8125
-38.0,0.5767767762450011,0.0
-38.0,0.5154175447295755,6.5
-38.0,0.5154175447295755,1.625
-37.5,0.4724660826687775,5.6875
-37.5,0.46019423636569234,2.4375
-37.5,0.4540583132141498,0.8125
-37.5,0.4049709280018093,7.3125
-37.5,0.4049709280018093,1.625
-37.5,0.39269908169872414,1.625
-37.5,0.35588354278946877,2.4375
-37.0,0.3313398501832985,3.25
-37.0,0.32520392703175593,0.0
-37.0,0.28838838812250056,2.4375
-37.0,0.2761165418194154,2.4375
-37.0,0.2699806186678728,0.8125
-36.5,0.23316507975861744,3.25
-36.5,0.2454369260617026,-2.4375
-36.5,0.18407769454627693,5.6875
-36.5,0.17794177139473438,1.625
-36.5,0.1595340019401067,2.4375
-36.5,0.1718058482431918,-0.8125
-36.5,0.11658253987930872,3.25
-36.5,0.12885438618239387,-1.625
-36.5,0.09203884727313846,0.8125
-36.0,0.07363107781851078,0.8125
-36.5,0.05522330836388308,0.8125
-36.0,0.02454369260617026,1.625
-36.0,0.018407769454627694,0.0
-36.0,6.252505691421874,5.6875
-36.0,6.227961998815704,4.875
-36.0,6.2034183062095325,4.875
-35.5,6.19728238305799,1.625
-35.5,6.1850105367549055,1.625
-35.5,6.160466844148735,2.4375
-35.5,6.154330920997192,0.0
-35.0,6.111379458936394,2.4375
-34.5,6.0991076126333095,4.875
-35.0,6.092971689481767,0.8125
-34.5,6.062292073724054,4.875
-34.5,6.068427996875596,1.625
-34.5,6.031612457966341,5.6875
-34.0,6.050020227420969,0.8125
-34.0,6.043884304269426,-2.4375
-34.0,6.019340611663256,0.8125
-34.0,5.976389149602458,4.875
-34.0,5.988660995905543,-0.8125
-33.5,5.957981380147831,2.4375
-33.5,5.945709533844745,1.625
-33.5,5.915029918087033,4.875
-33.5,5.921165841238575,0.8125
-33.5,5.9088939949354895,-0.8125
-33.0,5.884350302329319,0.8125
-33.0,5.859806609723149,1.625
-32.5,5.841398840268521,3.25
-33.0,5.835262917116979,0.8125
-33.0,5.829126993965437,-1.625
-33.0,5.798447378207723,0.0
-32.5,5.773903685601553,1.625
-32.5,5.7616318392984684,0.8125
-32.0,5.755495916146925,0.0
-32.5,5.724816300389213,2.4375
-32.5,5.706408530934585,2.4375
-32.0,5.700272607783043,0.8125
-32.0,5.688000761479957,0.0
-32.0,5.66959299202533,1.625
-32.0,5.66959299202533,-0.8125
-31.5,5.651185222570702,-0.8125
-32.0,5.632777453116074,0.8125
-31.5,5.608233760509904,2.4375
-32.0,5.6143696836614465,0.0
-32.0,5.583690067903734,0.8125
-31.5,5.546874528994478,3.25
-32.0,5.5714182216006485,-2.4375
-31.5,5.5284667595398505,1.625
-31.5,5.522330836388308,-0.8125
-31.0,5.485515297479052,3.25
-31.0,5.485515297479052,0.0
-31.0,5.460971604872882,0.8125
-31.0,5.448699758569798,0.0
-31.0,5.411884219660542,1.625
-30.5,5.405748296509,1.625
-30.5,5.381204603902829,2.4375
-30.5,5.387340527054372,1.625
-30.5,5.350524988145116,5.6875
-30.0,5.344389064993574,3.25
-30.0,5.332117218690489,3.25
-30.5,5.313709449235861,4.875
-30.5,5.325981295538946,0.8125
-30.0,5.313709449235861,0.0
-30.0,5.307573526084319,0.8125
-30.0,5.301437602932776,0.0
-30.0,5.2768939103266055,3.25
-30.0,5.295301679781233,-0.8125
-30.0,5.283029833478148,0.0
-30.0,5.252350217720435,4.875
-29.5,5.258486140871978,1.625
-30.0,5.240078371417351,3.25
-30.0,5.240078371417351,6.5
-30.0,5.240078371417351,1.625
-29.5,5.221670601962723,4.875
-29.5,5.221670601962723,3.25
-29.5,5.2339424482658075,0.0
-29.5,5.21553467881118,2.4375
-29.5,5.221670601962723,0.0
-29.5,5.190990986205009,3.25
-29.5,5.190990986205009,0.8125
-29.5,5.209398755659637,-1.625
-29.0,5.1725832167503825,1.625
-29.0,5.160311370447297,2.4375
-29.5,5.148039524144211,2.4375
-29.0,5.135767677841127,3.25
-29.0,5.135767677841127,2.4375
-29.0,5.135767677841127,0.8125
-29.0,5.117359908386499,1.625
-29.0,5.111223985234957,1.625
-29.0,5.092816215780329,2.4375
-29.0,5.098952138931871,0.8125
-29.0,5.080544369477243,5.6875
-29.0,5.074408446325701,3.25
-29.0,5.098952138931871,-2.4375
-29.0,5.062136600022616,1.625
-28.5,5.056000676871073,2.4375
-28.5,5.062136600022616,-0.8125
-28.5,5.037592907416445,0.8125
-28.5,4.914874444385594,0.0
-28.5,4.884194828627882,4.875
-28.5,4.884194828627882,2.4375
-28.5,4.902602598082509,0.0
-28.5,4.896466674930966,-1.625
-28.5,4.871922982324796,0.0
-28.5,4.859651136021712,0.0
-29.0,4.859651136021712,0.0
-28.5,4.847379289718626,0.0
-28.5,4.847379289718626,0.0
-28.5,4.816699673960914,2.4375
-28.5,4.816699673960914,3.25
-28.5,4.841243366567084,-3.25
-28.5,4.804427827657828,1.625
-28.5,4.804427827657828,0.0
-28.5,4.792155981354743,-0.8125
-28.5,4.7860200582032,0.0
-28.5,4.7860200582032,-2.4375
-28.5,4.76147636559703,1.625
-28.5,4.767612288748572,0.0
-28.5,4.743068596142402,0.0
-28.5,4.7307967498393175,0.8125
-28.5,4.71238898038469,2.4375
-28.5,4.700117134081604,1.625
-28.5,4.693981210930062,0.0
-29.0,4.693981210930062,-0.8125
-29.0,4.669437518323892,0.8125
-28.5,4.681709364626977,-1.625
-28.5,4.681709364626977,-4.875
-28.5,4.657165672020807,0.0
-28.5,4.657165672020807,-2.4375
-28.5,4.651029748869264,-2.4375
-28.5,4.626486056263094,-1.625
-28.0,4.638757902566179,-3.25
-28.0,4.620350133111551,-1.625
-28.0,4.589670517353839,0.8125
-28.0,4.608078286808466,-1.625
-28.5,4.589670517353839,-1.625
-28.0,4.577398671050753,0.0
-28.0,4.565126824747668,-0.8125
-28.0,4.528311285838413,3.25
-28.0,4.522175362686871,1.625
-28.0,4.522175362686871,1.625
-28.0,4.4976316700806995,2.4375
-28.0,4.522175362686871,-2.4375
-28.0,4.509903516383785,-1.625
-28.0,4.473087977474529,0.8125
-28.0,4.454680208019902,1.625
-28.0,4.460816131171445,0.8125
-27.5,4.4362724385652745,1.625
-27.5,4.430136515413731,0.0
-27.5,4.411728745959104,2.4375
-27.5,4.411728745959104,-0.8125
-27.5,4.399456899656019,0.0
-27.5,4.387185053352934,0.8125
-27.5,4.374913207049849,0.0
-27.5,4.356505437595221,1.625
-27.5,4.362641360746763,-1.625
-28.0,4.325825821837508,1.625
-27.5,4.325825821837508,0.8125
-27.5,4.325825821837508,-0.8125
-27.5,4.3074180523828804,0.0
-27.5,4.3074180523828804,0.0
-27.5,4.28287435977671,2.4375
-28.0,4.289010282928253,-1.625
-27.5,4.264466590322082,0.8125
-27.5,4.25833066717054,-0.8125
-27.5,4.239922897715912,0.8125
-27.5,4.227651051412827,2.4375
-27.5,4.23378697456437,0.0
-28.0,4.2031073588066565,3.25
-27.5,4.2092432819582,0.0
-27.5,4.196971435655114,1.625
-27.5,4.190835512503572,-0.8125
-27.5,4.190835512503572,0.0
-27.5,4.178563666200486,-0.8125
-28.0,4.166291819897402,1.625
-27.5,4.172427743048944,-0.8125
-27.5,4.147884050442774,0.8125
-27.5,4.147884050442774,-0.8125
-27.5,4.123340357836604,1.625
-27.5,4.1172044346850605,1.625
-27.5,4.1172044346850605,0.0
-28.0,4.104932588381976,0.0
-27.5,4.09266074207889,0.8125
-27.5,4.080388895775806,1.625
-28.0,4.086524818927348,0.8125
-28.0,4.09266074207889,-1.625
-27.5,4.061981126321178,2.4375
-28.0,4.061981126321178,1.625
-27.5,4.0558452031696355,1.625
-27.5,4.061981126321178,0.8125
-28.0,4.037437433715008,1.625
-28.0,4.049709280018092,-0.8125
-28.0,4.037437433715008,0.0
-28.0,4.031301510563465,0.8125
-28.0,4.01902966426038,1.625
-28.0,4.025165587411922,0.0
-28.0,4.01902966426038,0.8125
-28.0,4.01902966426038,0.8125
-28.0,4.031301510563465,-2.4375
-28.0,4.01902966426038,0.0
-28.0,4.01902966426038,0.0
-28.0,4.0128937411088375,1.625
-28.0,4.025165587411922,-0.8125
-28.0,4.025165587411922,0.0
-28.0,4.037437433715008,-1.625
-28.0,4.025165587411922,-0.8125
-28.0,4.025165587411922,-0.8125
-28.0,4.0128937411088375,1.625
-28.0,4.037437433715008,0.0
-28.0,4.037437433715008,-0.8125
-27.5,4.031301510563465,0.8125
-28.0,4.031301510563465,0.0
-28.0,4.031301510563465,0.8125
-28.0,4.0558452031696355,-1.625
-27.5,4.0558452031696355,0.8125
-28.0,4.049709280018092,0.8125
-28.0,4.0558452031696355,0.8125
-27.5,4.06811704947272,-0.8125
-28.0,4.06811704947272,0.8125
-28.0,4.080388895775806,-0.8125
-28.0,4.080388895775806,0.8125
-28.0,4.074252972624263,1.625
-27.5,4.104932588381976,-0.8125
-28.0,4.104932588381976,0.8125
-27.5,4.111068511533518,1.625
-27.5,4.135612204139688,0.0
-27.5,4.147884050442774,0.0
-27.5,4.166291819897402,0.0
-28.0,4.178563666200486,-0.8125
-27.5,4.196971435655114,-0.8125
-27.5,4.215379205109742,-0.8125
-27.5,4.246058820867455,-2.4375
-27.5,4.252194744018997,-0.8125
-27.5,4.252194744018997,3.25
-27.5,4.301282129231338,-0.8125
-27.5,4.331961744989051,-0.8125
-27.5,4.3503695144436785,0.8125
-27.5,4.368777283898306,1.625
-27.5,4.405592822807561,1.625
-27.5,4.448544284868359,-0.8125
-28.0,4.485359823777615,-0.8125
-27.5,4.522175362686871,0.0
-28.0,4.546719055293041,2.4375
-28.0,4.595806440505381,0.0
-28.0,4.657165672020807,-1.625
-28.0,4.700117134081604,-1.625
-28.0,4.73693267299086,1.625
-28.0,4.798291904506286,0.0
-28.0,4.853515212870168,1.625
-28.0,4.914874444385594,2.4375
-28.0,4.994641445355648,3.25
-28.0,5.092816215780329,2.4375
-28.5,5.154175447295755,3.25
-28.5,5.2339424482658075,0.0
-28.5,5.2768939103266055,1.625
-29.0,5.307573526084319,2.4375
-29.5,5.344389064993574,3.25
-29.0,5.399612373357457,-1.625
-29.5,5.424156065963627,0.8125
-29.5,5.442563835418255,1.625
-30.0,5.485515297479052,1.625
-30.0,5.540738605842936,-0.8125
-30.0,5.553010452146021,2.4375
-30.0,5.595961914206819,1.625
-30.0,5.632777453116074,0.8125
-30.0,5.675728915176872,0.0
-30.0,5.681864838328415,0.8125
-30.5,5.71868037723767,0.8125
-30.0,5.7616318392984684,-1.625
-30.5,5.773903685601553,0.0
-30.5,5.786175531904639,0.0
-31.0,5.829126993965437,-1.625
-30.5,5.829126993965437,1.625
-30.5,5.853670686571607,0.8125
-31.0,5.884350302329319,0.8125
-31.0,5.896622148632405,0.8125
-31.0,5.921165841238575,-0.8125
-31.0,5.939573610693203,0.0
-31.5,5.957981380147831,0.0
-31.5,5.976389149602458,-0.8125
-31.5,5.970253226450915,2.4375
-31.5,6.007068765360171,-0.8125
-32.0,6.019340611663256,-0.8125
-32.0,6.007068765360171,2.4375
-32.0,6.043884304269426,-2.4375
-32.0,6.056156150572511,-2.4375
-32.0,6.031612457966341,0.8125
-32.0,6.043884304269426,2.4375
-32.5,6.074563920027139,-2.4375
-32.5,6.068427996875596,-0.8125
-32.5,6.080699843178682,-1.625
-32.5,6.068427996875596,0.0
-32.5,6.068427996875596,-0.8125
-33.0,6.0991076126333095,-4.875
-32.5,6.062292073724054,0.8125
-32.5,6.092971689481767,-0.8125
-32.5,6.086835766330224,-2.4375
-32.5,6.080699843178682,-1.625
-33.0,6.074563920027139,-0.8125
-32.5,6.074563920027139,-0.8125
-32.5,6.080699843178682,-0.8125
-33.0,6.086835766330224,-2.4375
-32.5,6.080699843178682,0.8125
-33.0,6.086835766330224,1.625
-33.0,6.092971689481767,0.8125
-33.0,6.105243535784852,0.0
-33.0,6.129787228391022,-1.625
-33.5,6.12365130523948,0.8125
-33.5,6.14819499784565,-1.625
-33.5,6.160466844148735,-2.4375
-33.5,6.1850105367549055,-5.6875
-33.5,6.154330920997192,0.8125
-33.5,6.17273869045182,-0.8125
-33.5,6.178874613603362,-1.625
-34.0,6.1850105367549055,-0.8125
-34.0,6.178874613603362,-0.8125
-34.5,6.191146459906448,-0.8125
-34.5,6.2034183062095325,-2.4375
-34.5,6.215690152512618,-3.25
-34.5,6.191146459906448,0.8125
-34.5,6.252505691421874,-7.3125
-34.5,6.227961998815704,-1.625
-35.0,6.215690152512618,0.8125
-35.0,6.234097921967246,0.0
-35.0,6.227961998815704,0.8125
-35.0,6.2463697682703305,-0.8125
-35.0,6.240233845118788,-1.625
-35.0,6.258641614573416,-3.25
-35.5,6.264777537724958,-3.25
-35.5,6.252505691421874,0.0
-35.5,6.240233845118788,1.625
-35.5,6.277049384028044,-1.625
-36.0,6.258641614573416,1.625
-35.5,6.252505691421874,1.625
-36.0,6.270913460876501,0.8125
-36.0,6.258641614573416,4.875
-36.0,6.277049384028044,0.8125
-36.5,0.0,0.8125
-36.5,0.0,3.25
-36.5,0.018407769454627694,0.8125
-36.0,0.01227184630308513,1.625
-36.5,6.270913460876501,5.6875
-36.5,0.030679615757712823,0.8125
-36.5,0.02454369260617026,0.8125
-36.5,0.03681553890925539,1.625
-37.0,0.06135923151542565,-0.8125
-36.5,0.0674951546669682,-1.625
-37.0,0.07363107781851078,-0.8125
-37.0,0.0674951546669682,1.625
-37.0,0.05522330836388308,3.25
-37.0,0.07363107781851078,1.625
-37.0,0.07976700097005335,3.25
-37.0,0.07976700097005335,3.25
-37.0,0.0859029241215959,3.25
-37.0,0.0859029241215959,2.4375
-37.0,0.11658253987930872,0.0
-37.0,0.11044661672776616,3.25
-37.5,0.1227184630308513,0.8125
-37.5,0.14726215563702155,1.625
-37.5,0.1349903093339364,2.4375
-37.5,0.15339807878856412,2.4375
