E200303121120053136087CF,1,1479083297485981,1479083297485981,1,6.5,12288,-47.0,865.7,5.78004
E200303121120053136087CF,1,1479083297496460,1479083297496460,1,3.25,12288,-47.0,865.7,5.7923117
E200303121120053136087CF,1,1479083297508628,1479083297508628,1,20.3125,12288,-47.0,865.7,5.7309523
E200303121120053136087CF,1,1479083297519357,1479083297519357,1,4.875,12288,-47.0,865.7,5.7923117
E200303121120053136087CF,1,1479083297529984,1479083297529984,1,8.125,12288,-47.0,865.7,5.7923117
E200303121120053136087CF,1,1479083297540418,1479083297540418,1,0.0,12288,-47.0,865.7,5.816855
E200303121120053136087CF,1,1479083297551264,1479083297551264,1,-8.125,12288,-47.0,865.7,5.816855
E200303121120053136087CF,1,1479083297561696,1479083297561696,1,3.25,12288,-47.0,865.7,5.7861757
E200303121120053136087CF,1,1479083297573803,1479083297573803,1,-6.5,12288,-46.5,865.7,5.804583
E200303121120053136087CF,1,1479083297584463,1479083297584463,1,15.4375,12288,-46.5,865.7,5.761632
E200303121120053136087CF,1,1479083297595338,1479083297595338,1,-1.625,12288,-47.0,865.7,5.7984476
E200303121120053136087CF,1,1479083297606091,1479083297606091,1,3.25,12288,-46.5,865.7,5.810719
E200303121120053136087CF,1,1479083297617953,1479083297617953,1,1.625,12288,-46.5,865.7,5.7984476
E200303121120053136087CF,1,1479083297628795,1479083297628795,1,8.125,12288,-46.5,865.7,5.773904
E200303121120053136087CF,1,1479083297642573,1479083297642573,1,-3.25,12288,-47.0,865.7,5.816855
E200303121120053136087CF,1,1479083297653113,1479083297653113,1,3.25,12288,-47.0,865.7,5.810719
E200303121120053136087CF,1,1479083297663739,1479083297663739,1,-13.8125,12288,-46.5,865.7,5.8720784
E200303121120053136087CF,1,1479083297676208,1479083297676208,1,11.375,12288,-46.5,865.7,5.7984476
E200303121120053136087CF,1,1479083297686756,1479083297686756,1,17.0625,12288,-46.5,865.7,5.773904
E200303121120053136087CF,1,1479083297698551,1479083297698551,1,-8.125,12288,-47.0,865.7,5.829127
E200303121120053136087CF,1,1479083297709384,1479083297709384,1,8.125,12288,-47.0,865.7,5.7984476
E200303121120053136087CF,1,1479083297720288,1479083297720288,1,9.75,12288,-47.0,865.7,5.7984476
E200303121120053136087CF,1,1479083297730988,1479083297730988,1,-13.0,12288,-47.0,865.7,5.8904862
E200303121120053136087CF,1,1479083297741490,1479083297741490,1,4.875,12288,-47.0,865.7,5.822991
E200303121120053136087CF,1,1479083297752346,1479083297752346,1,3.25,12288,-47.0,865.7,5.804583
E200303121120053136087CF,1,1479083297762740,1479083297762740,1,11.375,12288,-46.5,865.7,5.7861757
E200303121120053136087CF,1,1479083297773604,1479083297773604,1,8.125,12288,-47.0,865.7,5.7861757
E200303121120053136087CF,1,1479083297784012,1479083297784012,1,8.125,12288,-47.0,865.7,5.7984476
E200303121120053136087CF,1,1479083297794851,1479083297794851,1,-6.5,12288,-46.5,865.7,5.8413987
E200303121120053136087CF,1,1479083297805356,1479083297805356,1,13.0,12288,-47.0,865.7,5.767768
E200303121120053136087CF,1,1479083297816152,1479083297816152,1,1.625,12288,-46.5,865.7,5.822991
E200303121120053136087CF,1,1479083297827245,1479083297827245,1,0.0,12288,-46.5,865.7,5.822991
E200303121120053136087CF,1,1479083297837962,1479083297837962,1,8.125,12288,-47.0,865.7,5.7923117
E200303121120053136087CF,1,1479083297848412,1479083297848412,1,13.0,12288,-46.5,865.7,5.7861757
E200303121120053136087CF,1,1479083297859012,1479083297859012,1,-4.875,12288,-46.5,865.7,5.829127
E200303121120053136087CF,1,1479083297872135,1479083297872135,1,-9.75,12288,-46.5,865.7,5.8475347
E200303121120053136087CF,1,1479083297884484,1479083297884484,1,-3.25,12288,-47.0,865.7,5.829127
E200303121120053136087CF,1,1479083297895087,1479083297895087,1,9.75,12288,-47.0,865.7,5.7923117
E200303121120053136087CF,1,1479083297906718,1479083297906718,1,13.8125,12288,-46.5,865.7,5.773904
E200303121120053136087CF,1,1479083297917432,1479083297917432,1,6.5,12288,-46.5,865.7,5.804583
E200303121120053136087CF,1,1479083297928056,1479083297928056,1,-11.375,12288,-46.5,865.7,5.8413987
E200303121120053136087CF,1,1479083297939601,1479083297939601,1,-6.5,12288,-46.5,865.7,5.8475347
E200303121120053136087CF,1,1479083297951665,1479083297951665,1,3.25,12288,-46.5,865.7,5.810719
E200303121120053136087CF,1,1479083297962387,1479083297962387,1,-17.0625,12288,-47.0,865.7,5.896622
E200303121120053136087CF,1,1479083297973315,1479083297973315,1,15.4375,12288,-46.5,865.7,5.773904
E200303121120053136087CF,1,1479083297983965,1479083297983965,1,-1.625,12288,-47.0,865.7,5.8475347
E200303121120053136087CF,1,1479083297995900,1479083297995900,1,6.5,12288,-46.5,865.7,5.816855
E200303121120053136087CF,1,1479083298006791,1479083298006791,1,9.75,12288,-47.0,865.7,5.804583
E200303121120053136087CF,1,1479083298017429,1479083298017429,1,13.0,12288,-47.0,865.7,5.78004
E200303121120053136087CF,1,1479083298027768,1479083298027768,1,-3.25,12288,-46.5,865.7,5.816855
E200303121120053136087CF,1,1479083298038509,1479083298038509,1,9.75,12288,-46.5,865.7,5.7984476
E200303121120053136087CF,1,1479083298049171,1479083298049171,1,13.8125,12288,-47.0,865.7,5.755496
E200303121120053136087CF,1,1479083298060033,1479083298060033,1,8.125,12288,-46.5,865.7,5.810719
E200303121120053136087CF,1,1479083298071836,1479083298071836,1,9.75,12288,-47.0,865.7,5.7923117
E200303121120053136087CF,1,1479083298082687,1479083298082687,1,1.625,12288,-46.5,865.7,5.822991
E200303121120053136087CF,1,1479083298094836,1479083298094836,1,13.0,12288,-47.0,865.7,5.7984476
E200303121120053136087CF,1,1479083298105464,1479083298105464,1,6.5,12288,-46.5,865.7,5.7923117
E200303121120053136087CF,1,1479083298116989,1479083298116989,1,3.25,12288,-46.5,865.7,5.816855
E200303121120053136087CF,1,1479083298127636,1479083298127636,1,6.5,12288,-46.5,865.7,5.7984476
E200303121120053136087CF,1,1479083298138569,1479083298138569,1,-3.25,12288,-46.5,865.7,5.8475347
E200303121120053136087CF,1,1479083298149233,1479083298149233,1,6.5,12288,-47.0,865.7,5.804583
E200303121120053136087CF,1,1479083298159737,1479083298159737,1,11.375,12288,-47.0,865.7,5.810719
E200303121120053136087CF,1,1479083298170649,1479083298170649,1,-4.875,12288,-47.0,865.7,5.8413987
E200303121120053136087CF,1,1479083298181027,1479083298181027,1,13.0,12288,-47.0,865.7,5.78004
E200303121120053136087CF,1,1479083298192888,1479083298192888,1,-4.875,12288,-46.5,865.7,5.835263
E200303121120053136087CF,1,1479083298203332,1479083298203332,1,13.8125,12288,-47.0,865.7,5.761632
E200303121120053136087CF,1,1479083298217099,1479083298217099,1,1.625,12288,-46.5,865.7,5.822991
E200303121120053136087CF,1,1479083298228034,1479083298228034,1,4.875,12288,-47.0,865.7,5.804583
E200303121120053136087CF,1,1479083298238710,1479083298238710,1,15.4375,12288,-47.0,865.7,5.773904
E200303121120053136087CF,1,1479083298249294,1479083298249294,1,1.625,12288,-46.5,865.7,5.822991
E200303121120053136087CF,1,1479083298260023,1479083298260023,1,17.0625,12288,-47.0,865.7,5.767768
E200303121120053136087CF,1,1479083298270898,1479083298270898,1,3.25,12288,-46.5,865.7,5.7923117
E200303121120053136087CF,1,1479083298281564,1479083298281564,1,4.875,12288,-47.0,865.7,5.829127
E200303121120053136087CF,1,1479083298292328,1479083298292328,1,-3.25,12288,-46.5,865.7,5.829127
E200303121120053136087CF,1,1479083298304385,1479083298304385,1,-13.0,12288,-46.5,865.7,5.8598065
E200303121120053136087CF,1,1479083298316716,1479083298316716,1,8.125,12288,-46.5,865.7,5.7984476
E200303121120053136087CF,1,1479083298327169,1479083298327169,1,20.3125,12288,-46.5,865.7,5.74936
E200303121120053136087CF,1,1479083298337902,1479083298337902,1,-4.875,12288,-47.0,865.7,5.8475347
E200303121120053136087CF,1,1479083298350274,1479083298350274,1,-3.25,12288,-46.5,865.7,5.829127
E200303121120053136087CF,1,1479083298361236,1479083298361236,1,13.0,12288,-46.5,865.7,5.767768
E200303121120053136087CF,1,1479083298371816,1479083298371816,1,18.6875,12288,-47.0,865.7,5.767768
E200303121120053136087CF,1,1479083298382390,1479083298382390,1,-11.375,12288,-46.5,865.7,5.822991
E200303121120053136087CF,1,1479083298393248,1479083298393248,1,4.875,12288,-46.5,865.7,5.810719
E200303121120053136087CF,1,1479083298403555,1479083298403555,1,4.875,12288,-46.5,865.7,5.78004
E200303121120053136087CF,1,1479083298414396,1479083298414396,1,13.0,12288,-47.0,865.7,5.761632
E200303121120053136087CF,1,1479083298424715,1479083298424715,1,13.0,12288,-46.5,865.7,5.7984476
E200303121120053136087CF,1,1479083298435556,1479083298435556,1,1.625,12288,-47.0,865.7,5.804583
E200303121120053136087CF,1,1479083298446280,1479083298446280,1,13.0,12288,-46.5,865.7,5.78004
E200303121120053136087CF,1,1479083298460608,1479083298460608,1,-6.5,12288,-46.5,865.7,5.8475347
E200303121120053136087CF,1,1479083298471156,1479083298471156,1,6.5,12288,-47.0,865.7,5.810719
E200303121120053136087CF,1,1479083298483515,1479083298483515,1,11.375,12288,-47.0,865.7,5.78004
E200303121120053136087CF,1,1479083298494135,1479083298494135,1,8.125,12288,-46.5,865.7,5.810719
E200303121120053136087CF,1,1479083298505059,1479083298505059,1,-1.625,12288,-46.5,865.7,5.810719
E200303121120053136087CF,1,1479083298515493,1479083298515493,1,-8.125,12288,-47.0,865.7,5.8413987
E200303121120053136087CF,1,1479083298526448,1479083298526448,1,13.0,12288,-47.0,865.7,5.767768
E200303121120053136087CF,1,1479083298538371,1479083298538371,1,11.375,12288,-46.5,865.7,5.7923117
E200303121120053136087CF,1,1479083298548988,1479083298548988,1,-4.875,12288,-46.5,865.7,5.8475347
E200303121120053136087CF,1,1479083298559585,1479083298559585,1,6.5,12288,-46.5,865.7,5.804583
E200303121120053136087CF,1,1479083298573682,1479083298573682,1,6.5,12288,-46.5,865.7,5.804583
E200303121120053136087CF,1,1479083298584295,1479083298584295,1,-1.625,12288,-47.0,865.7,5.829127
E200303121120053136087CF,1,1479083298594682,1479083298594682,1,18.6875,12288,-46.5,865.7,5.773904
E200303121120053136087CF,1,1479083298605582,1479083298605582,1,-8.125,12288,-46.5,865.7,5.8536706
E200303121120053136087CF,1,1479083298617450,1479083298617450,1,8.125,12288,-46.5,865.7,5.804583
E200303121120053136087CF,1,1479083298628328,1479083298628328,1,-13.8125,12288,-47.0,865.7,5.8536706
E200303121120053136087CF,1,1479083298639245,1479083298639245,1,-4.875,12288,-47.0,865.7,5.835263
E200303121120053136087CF,1,1479083298650077,1479083298650077,1,-8.125,12288,-46.5,865.7,5.8536706
E200303121120053136087CF,1,1479083298660450,1479083298660450,1,3.25,12288,-47.0,865.7,5.7984476
E200303121120053136087CF,1,1479083298671524,1479083298671524,1,4.875,12288,-47.0,865.7,5.7984476
E200303121120053136087CF,1,1479083298682189,1479083298682189,1,1.625,12288,-47.0,865.7,5.810719
E200303121120053136087CF,1,1479083298693237,1479083298693237,1,1.625,12288,-46.5,865.7,5.816855
E200303121120053136087CF,1,1479083298703636,1479083298703636,1,11.375,12288,-47.0,865.7,5.7923117
E200303121120053136087CF,1,1479083298714270,1479083298714270,1,-3.25,12288,-46.5,865.7,5.829127
E200303121120053136087CF,1,1479083298726331,1479083298726331,1,1.625,12288,-46.5,865.7,5.810719
E200303121120053136087CF,1,1479083298738430,1479083298738430,1,0.0,12288,-46.5,865.7,5.822991
E200303121120053136087CF,1,1479083298749117,1479083298749117,1,-13.8125,12288,-46.5,865.7,5.8598065
E200303121120053136087CF,1,1479083298762821,1479083298762821,1,8.125,12288,-47.0,865.7,5.7923117
E200303121120053136087CF,1,1479083298773705,1479083298773705,1,0.0,12288,-47.0,865.7,5.804583
E200303121120053136087CF,1,1479083298784042,1479083298784042,1,4.875,12288,-46.5,865.7,5.810719
E200303121120053136087CF,1,1479083298795017,1479083298795017,1,13.8125,12288,-46.5,865.7,5.761632
E200303121120053136087CF,1,1479083298807262,1479083298807262,1,-1.625,12288,-47.0,865.7,5.7923117
E200303121120053136087CF,1,1479083298817967,1479083298817967,1,9.75,12288,-46.5,865.7,5.7861757
E200303121120053136087CF,1,1479083298830018,1479083298830018,1,3.25,12288,-46.5,865.7,5.7984476
E200303121120053136087CF,1,1479083298840934,1479083298840934,1,-8.125,12288,-47.0,865.7,5.8536706
E200303121120053136087CF,1,1479083298853130,1479083298853130,1,21.9375,12288,-46.5,865.7,5.7248163
E200303121120053136087CF,1,1479083298864211,1479083298864211,1,0.0,12288,-46.5,865.7,5.804583
E200303121120053136087CF,1,1479083298874864,1479083298874864,1,-6.5,12288,-46.5,865.7,5.835263
E200303121120053136087CF,1,1479083298885639,1479083298885639,1,-8.125,12288,-46.5,865.7,5.829127
E200303121120053136087CF,1,1479083298896065,1479083298896065,1,6.5,12288,-46.5,865.7,5.7984476
E200303121120053136087CF,1,1479083298909515,1479083298909515,1,3.25,12288,-46.5,865.7,5.804583
E200303121120053136087CF,1,1479083298922000,1479083298922000,1,4.875,12288,-47.0,865.7,5.773904
E200303121120053136087CF,1,1479083298932654,1479083298932654,1,0.0,12288,-46.5,865.7,5.810719
E200303121120053136087CF,1,1479083298944668,1479083298944668,1,4.875,12288,-47.0,865.7,5.822991
E200303121120053136087CF,1,1479083298955252,1479083298955252,1,13.8125,12288,-46.5,865.7,5.773904
E200303121120053136087CF,1,1479083298965979,1479083298965979,1,-3.25,12288,-46.5,865.7,5.822991
E200303121120053136087CF,1,1479083298976685,1479083298976685,1,-6.5,12288,-47.0,865.7,5.835263
E200303121120053136087CF,1,1479083298987460,1479083298987460,1,13.0,12288,-47.0,865.7,5.773904
E200303121120053136087CF,1,1479083298997907,1479083298997907,1,4.875,12288,-46.5,865.7,5.7984476
E200303121120053136087CF,1,1479083299010244,1479083299010244,1,15.4375,12288,-46.5,865.7,5.767768
E200303121120053136087CF,1,1479083299020938,1479083299020938,1,4.875,12288,-46.5,865.7,5.810719
E200303121120053136087CF,1,1479083299031552,1479083299031552,1,6.5,12288,-47.0,865.7,5.804583
E200303121120053136087CF,1,1479083299041926,1479083299041926,1,13.0,12288,-46.5,865.7,5.767768
E200303121120053136087CF,1,1479083299052593,1479083299052593,1,4.875,12288,-46.5,865.7,5.7984476
E200303121120053136087CF,1,1479083299063349,1479083299063349,1,18.6875,12288,-47.0,865.7,5.755496
E200303121120053136087CF,1,1479083299074374,1479083299074374,1,-8.125,12288,-47.0,865.7,5.822991
E200303121120053136087CF,1,1479083299084805,1479083299084805,1,6.5,12288,-47.0,865.7,5.804583
E200303121120053136087CF,1,1479083299095653,1479083299095653,1,3.25,12288,-46.5,865.7,5.810719
E200303121120053136087CF,1,1479083299106664,1479083299106664,1,11.375,12288,-46.5,865.7,5.7923117
E200303121120053136087CF,1,1479083299118590,1479083299118590,1,9.75,12288,-46.5,865.7,5.7984476
E200303121120053136087CF,1,1479083299129502,1479083299129502,1,6.5,12288,-46.5,865.7,5.804583
E200303121120053136087CF,1,1479083299139980,1479083299139980,1,-1.625,12288,-47.0,865.7,5.816855
E200303121120053136087CF,1,1479083299150836,1479083299150836,1,-1.625,12288,-46.5,865.7,5.822991
E200303121120053136087CF,1,1479083299161211,1479083299161211,1,1.625,12288,-46.5,865.7,5.822991
E200303121120053136087CF,1,1479083299171897,1479083299171897,1,13.8125,12288,-46.5,865.7,5.7923117
E200303121120053136087CF,1,1479083299182823,1479083299182823,1,8.125,12288,-46.5,865.7,5.7923117
E200303121120053136087CF,1,1479083299193570,1479083299193570,1,13.0,12288,-46.5,865.7,5.78004
E200303121120053136087CF,1,1479083299203952,1479083299203952,1,6.5,12288,-46.5,865.7,5.816855
E200303121120053136087CF,1,1479083299214669,1479083299214669,1,1.625,12288,-46.5,865.7,5.8659425
E200303121120053136087CF,1,1479083299225260,1479083299225260,1,-3.25,12288,-46.0,865.7,5.8659425
E200303121120053136087CF,1,1479083299236183,1479083299236183,1,8.125,12288,-46.5,865.7,5.8413987
E200303121120053136087CF,1,1479083299246881,1479083299246881,1,6.5,12288,-46.0,865.7,5.8475347
E200303121120053136087CF,1,1479083299257368,1479083299257368,1,-6.5,12288,-46.0,865.7,5.896622
E200303121120053136087CF,1,1479083299268106,1479083299268106,1,-3.25,12288,-46.0,865.7,5.8843503
E200303121120053136087CF,1,1479083299279047,1479083299279047,1,8.125,12288,-46.0,865.7,5.8475347
E200303121120053136087CF,1,1479083299291045,1479083299291045,1,9.75,12288,-45.5,865.7,5.8413987
E200303121120053136087CF,1,1479083299301790,1479083299301790,1,-3.25,12288,-45.5,865.7,5.8904862
E200303121120053136087CF,1,1479083299312714,1479083299312714,1,9.75,12288,-46.0,865.7,5.8475347
E200303121120053136087CF,1,1479083299323091,1479083299323091,1,1.625,12288,-46.0,865.7,5.8782144
E200303121120053136087CF,1,1479083299333967,1479083299333967,1,13.0,12288,-45.5,865.7,5.822991
E200303121120053136087CF,1,1479083299344222,1479083299344222,1,9.75,12288,-46.0,865.7,5.835263
E200303121120053136087CF,1,1479083299354796,1479083299354796,1,15.4375,12288,-46.0,865.7,5.835263
E200303121120053136087CF,1,1479083299366811,1479083299366811,1,6.5,12288,-45.5,865.7,5.8536706
E200303121120053136087CF,1,1479083299377371,1479083299377371,1,8.125,12288,-45.5,865.7,5.8598065
E200303121120053136087CF,1,1479083299387787,1479083299387787,1,6.5,12288,-45.5,865.7,5.8598065
E200303121120053136087CF,1,1479083299398493,1479083299398493,1,15.4375,12288,-45.5,865.7,5.829127
E200303121120053136087CF,1,1479083299409430,1479083299409430,1,6.5,12288,-46.0,865.7,5.8475347
E200303121120053136087CF,1,1479083299419799,1479083299419799,1,9.75,12288,-46.0,865.7,5.835263
E200303121120053136087CF,1,1479083299430656,1479083299430656,1,-11.375,12288,-46.0,865.7,5.908894
E200303121120053136087CF,1,1479083299441438,1479083299441438,1,6.5,12288,-45.5,865.7,5.8413987
E200303121120053136087CF,1,1479083299452214,1479083299452214,1,-3.25,12288,-46.0,865.7,5.8782144
E200303121120053136087CF,1,1479083299463034,1479083299463034,1,1.625,12288,-46.0,865.7,5.8659425
E200303121120053136087CF,1,1479083299473444,1479083299473444,1,9.75,12288,-46.0,865.7,5.829127
E200303121120053136087CF,1,1479083299484458,1479083299484458,1,3.25,12288,-46.0,865.7,5.8475347
E200303121120053136087CF,1,1479083299495009,1479083299495009,1,4.875,12288,-46.0,865.7,5.8475347
E200303121120053136087CF,1,1479083299505528,1479083299505528,1,0.0,12288,-46.0,865.7,5.8659425
E200303121120053136087CF,1,1479083299516498,1479083299516498,1,1.625,12288,-45.5,865.7,5.8475347
E200303121120053136087CF,1,1479083299526910,1479083299526910,1,6.5,12288,-46.0,865.7,5.8413987
E200303121120053136087CF,1,1479083299537919,1479083299537919,1,-13.0,12288,-46.0,865.7,5.908894
E200303121120053136087CF,1,1479083299548303,1479083299548303,1,0.0,12288,-46.0,865.7,5.8782144
E200303121120053136087CF,1,1479083299559166,1479083299559166,1,11.375,12288,-46.0,865.7,5.816855
E200303121120053136087CF,1,1479083299569587,1479083299569587,1,9.75,12288,-46.0,865.7,5.822991
E200303121120053136087CF,1,1479083299580455,1479083299580455,1,3.25,12288,-45.5,865.7,5.829127
E200303121120053136087CF,1,1479083299591069,1479083299591069,1,6.5,12288,-46.0,865.7,5.8475347
E200303121120053136087CF,1,1479083299601761,1479083299601761,1,3.25,12288,-46.0,865.7,5.8598065
E200303121120053136087CF,1,1479083299612454,1479083299612454,1,6.5,12288,-46.0,865.7,5.8536706
E200303121120053136087CF,1,1479083299622954,1479083299622954,1,-3.25,12288,-46.0,865.7,5.8782144
E200303121120053136087CF,1,1479083299634035,1479083299634035,1,3.25,12288,-46.0,865.7,5.8598065
E200303121120053136087CF,1,1479083299644573,1479083299644573,1,6.5,12288,-46.0,865.7,5.835263
E200303121120053136087CF,1,1479083299655120,1479083299655120,1,6.5,12288,-46.0,865.7,5.8475347
E200303121120053136087CF,1,1479083299665780,1479083299665780,1,13.8125,12288,-46.0,865.7,5.816855
E200303121120053136087CF,1,1479083299676717,1479083299676717,1,9.75,12288,-46.0,865.7,5.8659425
E200303121120053136087CF,1,1479083299687296,1479083299687296,1,0.0,12288,-46.0,865.7,5.8720784
E200303121120053136087CF,1,1479083299699772,1479083299699772,1,13.0,12288,-46.0,865.7,5.835263
E200303121120053136087CF,1,1479083299710254,1479083299710254,1,3.25,12288,-46.0,865.7,5.8720784
E200303121120053136087CF,1,1479083299721079,1479083299721079,1,6.5,12288,-46.0,865.7,5.8659425
E200303121120053136087CF,1,1479083299732069,1479083299732069,1,6.5,12288,-46.0,865.7,5.8843503
E200303121120053136087CF,1,1479083299742744,1479083299742744,1,-3.25,12288,-46.0,865.7,5.902758
E200303121120053136087CF,1,1479083299753114,1479083299753114,1,13.8125,12288,-46.0,865.7,5.8536706
E200303121120053136087CF,1,1479083299763882,1479083299763882,1,6.5,12288,-46.0,865.7,5.8598065
E200303121120053136087CF,1,1479083299774859,1479083299774859,1,11.375,12288,-46.0,865.7,5.8536706
E200303121120053136087CF,1,1479083299785464,1479083299785464,1,0.0,12288,-46.0,865.7,5.8904862
E200303121120053136087CF,1,1479083299796395,1479083299796395,1,8.125,12288,-46.5,865.7,5.8536706
E200303121120053136087CF,1,1479083299807153,1479083299807153,1,13.8125,12288,-46.0,865.7,5.8720784
E200303121120053136087CF,1,1479083299817584,1479083299817584,1,3.25,12288,-46.0,865.7,5.8782144
E200303121120053136087CF,1,1479083299829868,1479083299829868,1,-1.625,12288,-46.5,865.7,5.908894
E200303121120053136087CF,1,1479083299840661,1479083299840661,1,15.4375,12288,-46.0,865.7,5.8598065
E200303121120053136087CF,1,1479083299853058,1479083299853058,1,3.25,12288,-46.5,865.7,5.896622
E200303121120053136087CF,1,1479083299863514,1479083299863514,1,8.125,12288,-46.5,865.7,5.8782144
E200303121120053136087CF,1,1479083299874446,1479083299874446,1,8.125,12288,-46.5,865.7,5.8536706
E200303121120053136087CF,1,1479083299885096,1479083299885096,1,8.125,12288,-46.0,865.7,5.8598065
E200303121120053136087CF,1,1479083299895835,1479083299895835,1,-3.25,12288,-46.5,865.7,5.896622
E200303121120053136087CF,1,1479083299906269,1479083299906269,1,9.75,12288,-46.5,865.7,5.8659425
E200303121120053136087CF,1,1479083299916950,1479083299916950,1,6.5,12288,-46.5,865.7,5.896622
E200303121120053136087CF,1,1479083299928048,1479083299928048,1,9.75,12288,-46.5,865.7,5.8659425
E200303121120053136087CF,1,1479083299938765,1479083299938765,1,13.0,12288,-46.0,865.7,5.8536706
E200303121120053136087CF,1,1479083299949553,1479083299949553,1,13.8125,12288,-46.5,865.7,5.8536706
E200303121120053136087CF,1,1479083299960109,1479083299960109,1,9.75,12288,-46.5,865.7,5.8598065
E200303121120053136087CF,1,1479083299970646,1479083299970646,1,6.5,12288,-46.5,865.7,5.8659425
E200303121120053136087CF,1,1479083299981250,1479083299981250,1,-4.875,12288,-46.5,865.7,5.908894
E200303121120053136087CF,1,1479083299992105,1479083299992105,1,11.375,12288,-46.0,865.7,5.8598065
E200303121120053136087CF,1,1479083300004330,1479083300004330,1,6.5,12288,-46.5,865.7,5.8659425
E200303121120053136087CF,1,1479083300014958,1479083300014958,1,3.25,12288,-46.5,865.7,5.902758
E200303121120053136087CF,1,1479083300025335,1479083300025335,1,1.625,12288,-46.5,865.7,5.902758
E200303121120053136087CF,1,1479083300036283,1479083300036283,1,-6.5,12288,-46.5,865.7,5.921166
E200303121120053136087CF,1,1479083300046704,1479083300046704,1,4.875,12288,-46.5,865.7,5.8659425
E200303121120053136087CF,1,1479083300057446,1479083300057446,1,-13.0,12288,-46.5,865.7,5.9579816
E200303121120053136087CF,1,1479083300068101,1479083300068101,1,13.8125,12288,-46.5,865.7,5.8475347
E200303121120053136087CF,1,1479083300078814,1479083300078814,1,6.5,12288,-46.5,865.7,5.8843503
E200303121120053136087CF,1,1479083300089339,1479083300089339,1,8.125,12288,-47.0,865.7,5.8720784
E200303121120053136087CF,1,1479083300100425,1479083300100425,1,9.75,12288,-47.0,865.7,5.8598065
E200303121120053136087CF,1,1479083300110963,1479083300110963,1,4.875,12288,-46.5,865.7,5.8782144
E200303121120053136087CF,1,1479083300122828,1479083300122828,1,17.0625,12288,-47.0,865.7,5.829127
E200303121120053136087CF,1,1479083300133819,1479083300133819,1,-4.875,12288,-46.5,865.7,5.927302
E200303121120053136087CF,1,1479083300144508,1479083300144508,1,-4.875,12288,-46.5,865.7,5.921166
E200303121120053136087CF,1,1479083300154935,1479083300154935,1,-1.625,12288,-46.5,865.7,5.8843503
E200303121120053136087CF,1,1479083300165839,1479083300165839,1,-1.625,12288,-46.5,865.7,5.8843503
E200303121120053136087CF,1,1479083300177717,1479083300177717,1,15.4375,12288,-46.5,865.7,5.829127
E200303121120053136087CF,1,1479083300188556,1479083300188556,1,-11.375,12288,-46.5,865.7,5.908894
E200303121120053136087CF,1,1479083300199140,1479083300199140,1,6.5,12288,-47.0,865.7,5.8598065
E200303121120053136087CF,1,1479083300209576,1479083300209576,1,0.0,12288,-47.0,865.7,5.902758
E200303121120053136087CF,1,1479083300220199,1479083300220199,1,8.125,12288,-47.0,865.7,5.8475347
E200303121120053136087CF,1,1479083300230768,1479083300230768,1,-3.25,12288,-47.0,865.7,5.902758
E200303121120053136087CF,1,1479083300241556,1479083300241556,1,-3.25,12288,-46.5,865.7,5.8782144
E200303121120053136087CF,1,1479083300252262,1479083300252262,1,6.5,12288,-46.5,865.7,5.8720784
E200303121120053136087CF,1,1479083300262978,1479083300262978,1,0.0,12288,-46.5,865.7,5.8782144
E200303121120053136087CF,1,1479083300273650,1479083300273650,1,-3.25,12288,-46.5,865.7,5.8782144
E200303121120053136087CF,1,1479083300284636,1479083300284636,1,6.5,12288,-46.5,865.7,5.8536706
E200303121120053136087CF,1,1479083300296862,1479083300296862,1,1.625,12288,-46.5,865.7,5.8659425
E200303121120053136087CF,1,1479083300307632,1479083300307632,1,-17.0625,12288,-47.0,865.7,5.91503
E200303121120053136087CF,1,1479083300318004,1479083300318004,1,-4.875,12288,-46.5,865.7,5.8782144
E200303121120053136087CF,1,1479083300329042,1479083300329042,1,20.3125,12288,-47.0,865.7,5.7861757
E200303121120053136087CF,1,1479083300339526,1479083300339526,1,0.0,12288,-47.0,865.7,5.8413987
E200303121120053136087CF,1,1479083300350157,1479083300350157,1,13.8125,12288,-47.0,865.7,5.7861757
E200303121120053136087CF,1,1479083300361083,1479083300361083,1,11.375,12288,-47.0,865.7,5.7923117
E200303121120053136087CF,1,1479083300373269,1479083300373269,1,1.625,12288,-46.5,865.7,5.7984476
E200303121120053136087CF,1,1479083300385469,1479083300385469,1,9.75,12288,-46.5,865.7,5.804583
E200303121120053136087CF,1,1479083300395903,1479083300395903,1,3.25,12288,-46.5,865.7,5.773904
E200303121120053136087CF,1,1479083300406928,1479083300406928,1,-3.25,12288,-46.5,865.7,5.816855
E200303121120053136087CF,1,1479083300417383,1479083300417383,1,-6.5,12288,-47.0,865.7,5.8413987
E200303121120053136087CF,1,1479083300428177,1479083300428177,1,-3.25,12288,-47.0,865.7,5.810719
E200303121120053136087CF,1,1479083300438540,1479083300438540,1,13.0,12288,-46.5,865.7,5.74936
E200303121120053136087CF,1,1479083300449213,1479083300449213,1,4.875,12288,-46.5,865.7,5.7923117
E200303121120053136087CF,1,1479083300459895,1479083300459895,1,0.0,12288,-46.5,865.7,5.804583
E200303121120053136087CF,1,1479083300470673,1479083300470673,1,-3.25,12288,-46.5,865.7,5.773904
E200303121120053136087CF,1,1479083300481307,1479083300481307,1,17.0625,12288,-46.5,865.7,5.743224
E200303121120053136087CF,1,1479083300491873,1479083300491873,1,1.625,12288,-46.5,865.7,5.78004
E200303121120053136087CF,1,1479083300502465,1479083300502465,1,13.0,12288,-46.5,865.7,5.737088
E200303121120053136087CF,1,1479083300512935,1479083300512935,1,1.625,12288,-47.0,865.7,5.773904
E200303121120053136087CF,1,1479083300525442,1479083300525442,1,-1.625,12288,-46.5,865.7,5.7861757
E200303121120053136087CF,1,1479083300535825,1479083300535825,1,6.5,12288,-46.5,865.7,5.767768
E200303121120053136087CF,1,1479083300546957,1479083300546957,1,13.8125,12288,-46.5,865.7,5.737088
E200303121120053136087CF,1,1479083300557400,1479083300557400,1,6.5,12288,-46.5,865.7,5.761632
E200303121120053136087CF,1,1479083300568053,1479083300568053,1,0.0,12288,-46.5,865.7,5.767768
E200303121120053136087CF,1,1479083300578940,1479083300578940,1,17.0625,12288,-46.5,865.7,5.7125444
E200303121120053136087CF,1,1479083300589513,1479083300589513,1,1.625,12288,-47.0,865.7,5.767768
E200303121120053136087CF,1,1479083300600072,1479083300600072,1,-26.8125,12288,-46.5,865.7,5.8782144
E200303121120053136087CF,1,1479083300610346,1479083300610346,1,-11.375,12288,-46.5,865.7,5.804583
E200303121120053136087CF,1,1479083300621062,1479083300621062,1,6.5,12288,-47.0,865.7,5.7248163
E200303121120053136087CF,1,1479083300631730,1479083300631730,1,1.625,12288,-46.5,865.7,5.74936
E200303121120053136087CF,1,1479083300642519,1479083300642519,1,-9.75,12288,-46.5,865.7,5.804583
E200303121120053136087CF,1,1479083300653430,1479083300653430,1,0.0,12288,-47.0,865.7,5.74936
E200303121120053136087CF,1,1479083300664072,1479083300664072,1,0.0,12288,-46.5,865.7,5.767768
E200303121120053136087CF,1,1479083300674573,1479083300674573,1,-1.625,12288,-46.5,865.7,5.7861757
E200303121120053136087CF,1,1479083300684995,1479083300684995,1,6.5,12288,-46.5,865.7,5.743224
E200303121120053136087CF,1,1479083300697352,1479083300697352,1,9.75,12288,-47.0,865.7,5.7186804
E200303121120053136087CF,1,1479083300708155,1479083300708155,1,-4.875,12288,-46.5,865.7,5.767768
E200303121120053136087CF,1,1479083300718774,1479083300718774,1,4.875,12288,-46.5,865.7,5.7309523
E200303121120053136087CF,1,1479083300729263,1479083300729263,1,4.875,12288,-47.0,865.7,5.7186804
E200303121120053136087CF,1,1479083300739695,1479083300739695,1,-13.0,12288,-46.5,865.7,5.7984476
E200303121120053136087CF,1,1479083300753408,1479083300753408,1,-9.75,12288,-46.5,865.7,5.761632
E200303121120053136087CF,1,1479083300765438,1479083300765438,1,3.25,12288,-46.5,865.7,5.7125444
E200303121120053136087CF,1,1479083300777599,1479083300777599,1,-6.5,12288,-47.0,865.7,5.773904
E200303121120053136087CF,1,1479083300790380,1479083300790380,1,-6.5,12288,-47.0,865.7,5.761632
E200303121120053136087CF,1,1479083300800969,1479083300800969,1,9.75,12288,-46.5,865.7,5.7064085
E200303121120053136087CF,1,1479083300811534,1479083300811534,1,-6.5,12288,-46.5,865.7,5.737088
E200303121120053136087CF,1,1479083300822018,1479083300822018,1,-4.875,12288,-47.0,865.7,5.743224
E200303121120053136087CF,1,1479083300832801,1479083300832801,1,6.5,12288,-46.5,865.7,5.7125444
E200303121120053136087CF,1,1479083300843441,1479083300843441,1,4.875,12288,-46.5,865.7,5.7002726
E200303121120053136087CF,1,1479083300854275,1479083300854275,1,13.0,12288,-47.0,865.7,5.669593
E200303121120053136087CF,1,1479083300864878,1479083300864878,1,3.25,12288,-46.5,865.7,5.7002726
E200303121120053136087CF,1,1479083300875617,1479083300875617,1,1.625,12288,-46.5,865.7,5.7064085
E200303121120053136087CF,1,1479083300887475,1479083300887475,1,0.0,12288,-46.5,865.7,5.7002726
E200303121120053136087CF,1,1479083300898406,1479083300898406,1,-8.125,12288,-46.5,865.7,5.737088
E200303121120053136087CF,1,1479083300909106,1479083300909106,1,1.625,12288,-47.0,865.7,5.7186804
E200303121120053136087CF,1,1479083300919865,1479083300919865,1,-4.875,12288,-46.5,865.7,5.7125444
E200303121120053136087CF,1,1479083300930577,1479083300930577,1,0.0,12288,-46.5,865.7,5.7064085
E200303121120053136087CF,1,1479083300942889,1479083300942889,1,3.25,12288,-46.5,865.7,5.7064085
E200303121120053136087CF,1,1479083300954973,1479083300954973,1,6.5,12288,-46.5,865.7,5.6941366
E200303121120053136087CF,1,1479083300965627,1479083300965627,1,-3.25,12288,-46.5,865.7,5.7064085
E200303121120053136087CF,1,1479083300976078,1479083300976078,1,13.8125,12288,-46.5,865.7,5.651185
E200303121120053136087CF,1,1479083300986828,1479083300986828,1,-3.25,12288,-46.5,865.7,5.7002726
E200303121120053136087CF,1,1479083300997608,1479083300997608,1,-1.625,12288,-47.0,865.7,5.6941366
E200303121120053136087CF,1,1479083301008343,1479083301008343,1,6.5,12288,-46.5,865.7,5.7002726
E200303121120053136087CF,1,1479083301020469,1479083301020469,1,-8.125,12288,-46.5,865.7,5.7125444
E200303121120053136087CF,1,1479083301030888,1479083301030888,1,-11.375,12288,-46.5,865.7,5.7248163
E200303121120053136087CF,1,1479083301041698,1479083301041698,1,11.375,12288,-47.0,865.7,5.669593
E200303121120053136087CF,1,1479083301052120,1479083301052120,1,4.875,12288,-47.0,865.7,5.675729
E200303121120053136087CF,1,1479083301062857,1479083301062857,1,17.0625,12288,-47.0,865.7,5.6327777
E200303121120053136087CF,1,1479083301075013,1479083301075013,1,0.0,12288,-46.5,865.7,5.6818647
E200303121120053136087CF,1,1479083301085628,1479083301085628,1,-4.875,12288,-47.0,865.7,5.6818647
E200303121120053136087CF,1,1479083301096422,1479083301096422,1,13.0,12288,-47.0,865.7,5.6266418
E200303121120053136087CF,1,1479083301107175,1479083301107175,1,-4.875,12288,-47.0,865.7,5.7125444
E200303121120053136087CF,1,1479083301122968,1479083301122968,1,0.0,12288,-46.5,865.7,5.657321
E200303121120053136087CF,1,1479083301133847,1479083301133847,1,-1.625,12288,-46.5,865.7,5.657321
E200303121120053136087CF,1,1479083301144067,1479083301144067,1,-25.1875,12288,-47.0,865.7,5.761632
E200303121120053136087CF,1,1479083301154746,1479083301154746,1,-6.5,12288,-46.5,865.7,5.6818647
E200303121120053136087CF,1,1479083301165288,1479083301165288,1,-8.125,12288,-47.0,865.7,5.7002726
E200303121120053136087CF,1,1479083301176071,1479083301176071,1,13.0,12288,-47.0,865.7,5.602098
E200303121120053136087CF,1,1479083301186534,1479083301186534,1,-8.125,12288,-47.0,865.7,5.638913
E200303121120053136087CF,1,1479083301198132,1479083301198132,1,0.0,12288,-47.0,865.7,5.61437
E200303121120053136087CF,1,1479083301208905,1479083301208905,1,-13.0,12288,-46.5,865.7,5.6880007
E200303121120053136087CF,1,1479083301219528,1479083301219528,1,8.125,12288,-47.0,865.7,5.589826
E200303121120053136087CF,1,1479083301231988,1479083301231988,1,-8.125,12288,-47.0,865.7,5.61437
E200303121120053136087CF,1,1479083301242418,1479083301242418,1,13.8125,12288,-47.0,865.7,5.5652823
E200303121120053136087CF,1,1479083301253366,1479083301253366,1,13.0,12288,-47.0,865.7,5.5591464
E200303121120053136087CF,1,1479083301263745,1479083301263745,1,-28.4375,12288,-47.0,865.7,5.657321
E200303121120053136087CF,1,1479083301382727,1479083301382727,1,-15.4375,12288,-47.5,865.7,5.5346026
E200303121120053136087CF,1,1479083301393342,1479083301393342,1,-20.3125,12288,-47.5,865.7,5.5591464
E200303121120053136087CF,1,1479083301404182,1479083301404182,1,4.875,12288,-47.5,865.7,5.485515
E200303121120053136087CF,1,1479083301415097,1479083301415097,1,-9.75,12288,-47.5,865.7,5.5468745
E200303121120053136087CF,1,1479083301427240,1479083301427240,1,1.625,12288,-47.5,865.7,5.491651
E200303121120053136087CF,1,1479083301439198,1479083301439198,1,0.0,12288,-47.5,865.7,5.5284667
E200303121120053136087CF,1,1479083301450200,1479083301450200,1,13.8125,12288,-47.5,865.7,5.4671073
E200303121120053136087CF,1,1479083301460689,1479083301460689,1,0.0,12288,-47.5,865.7,5.5407386
E200303121120053136087CF,1,1479083301471642,1479083301471642,1,-13.0,12288,-47.5,865.7,5.5714183
E200303121120053136087CF,1,1479083301482342,1479083301482342,1,-8.125,12288,-47.5,865.7,5.5652823
E200303121120053136087CF,1,1479083301493104,1479083301493104,1,-8.125,12288,-47.5,865.7,5.589826
E200303121120053136087CF,1,1479083301505058,1479083301505058,1,0.0,12288,-47.5,865.7,5.595962
E200303121120053136087CF,1,1479083301515796,1479083301515796,1,-13.8125,12288,-47.5,865.7,5.638913
E200303121120053136087CF,1,1479083301527625,1479083301527625,1,-21.9375,12288,-47.5,865.7,5.6818647
E200303121120053136087CF,1,1479083301538292,1479083301538292,1,-3.25,12288,-47.5,865.7,5.589826
E200303121120053136087CF,1,1479083301549105,1479083301549105,1,3.25,12288,-48.0,865.7,5.595962
E200303121120053136087CF,1,1479083301559671,1479083301559671,1,-8.125,12288,-47.5,865.7,5.651185
E200303121120053136087CF,1,1479083301570655,1479083301570655,1,6.5,12288,-47.5,865.7,5.589826
E200303121120053136087CF,1,1479083301581319,1479083301581319,1,-13.8125,12288,-47.5,865.7,5.6327777
E200303121120053136087CF,1,1479083301593153,1479083301593153,1,-21.9375,12288,-47.5,865.7,5.7002726
E200303121120053136087CF,1,1479083301603948,1479083301603948,1,4.875,12288,-48.0,865.7,5.595962
E200303121120053136087CF,1,1479083301614412,1479083301614412,1,-18.6875,12288,-47.5,865.7,5.6941366
E200303121120053136087CF,1,1479083301626792,1479083301626792,1,-25.1875,12288,-47.5,865.7,5.6941366
E200303121120053136087CF,1,1479083301637449,1479083301637449,1,-1.625,12288,-48.0,865.7,5.645049
E200303121120053136087CF,1,1479083301647900,1479083301647900,1,8.125,12288,-48.0,865.7,5.620506
E200303121120053136087CF,1,1479083301658801,1479083301658801,1,13.0,12288,-48.0,865.7,5.620506
E200303121120053136087CF,1,1479083301669445,1479083301669445,1,-15.4375,12288,-48.0,865.7,5.6818647
E200303121120053136087CF,1,1479083301680085,1479083301680085,1,-1.625,12288,-48.0,865.7,5.651185
E200303121120053136087CF,1,1479083301690702,1479083301690702,1,1.625,12288,-48.0,865.7,5.645049
E200303121120053136087CF,1,1479083301701388,1479083301701388,1,6.5,12288,-48.0,865.7,5.645049
E200303121120053136087CF,1,1479083301712092,1479083301712092,1,13.0,12288,-48.0,865.7,5.669593
E200303121120053136087CF,1,1479083301722520,1479083301722520,1,-1.625,12288,-48.0,865.7,5.7186804
E200303121120053136087CF,1,1479083301733461,1479083301733461,1,-6.5,12288,-48.0,865.7,5.7309523
E200303121120053136087CF,1,1479083301743820,1479083301743820,1,-13.0,12288,-48.5,865.7,5.761632
E200303121120053136087CF,1,1479083301754765,1479083301754765,1,-13.0,12288,-48.0,865.7,5.7984476
E200303121120053136087CF,1,1479083301766454,1479083301766454,1,-28.4375,12288,-48.5,865.7,5.8598065
E200303121120053136087CF,1,1479083301776865,1479083301776865,1,-1.625,12288,-48.5,865.7,5.755496
E200303121120053136087CF,1,1479083301789409,1479083301789409,1,-13.8125,12288,-48.0,865.7,5.804583
E200303121120053136087CF,1,1479083301799900,1479083301799900,1,13.8125,12288,-48.0,865.7,5.7186804
E200303121120053136087CF,1,1479083301810519,1479083301810519,1,-1.625,12288,-48.0,865.7,5.816855
E200303121120053136087CF,1,1479083301821389,1479083301821389,1,1.625,12288,-48.0,865.7,5.816855
E200303121120053136087CF,1,1479083301831916,1479083301831916,1,0.0,12288,-48.0,865.7,5.810719
E200303121120053136087CF,1,1479083301842494,1479083301842494,1,-20.3125,12288,-48.0,865.7,5.908894
E200303121120053136087CF,1,1479083301853001,1479083301853001,1,-11.375,12288,-48.0,865.7,5.8782144
E200303121120053136087CF,1,1479083301863706,1479083301863706,1,-1.625,12288,-48.0,865.7,5.8475347
E200303121120053136087CF,1,1479083301874320,1479083301874320,1,-3.25,12288,-48.0,865.7,5.8843503
E200303121120053136087CF,1,1479083301885066,1479083301885066,1,-20.3125,12288,-47.5,865.7,5.9579816
E200303121120053136087CF,1,1479083301897376,1479083301897376,1,4.875,12288,-48.5,865.7,5.8843503
E200303121120053136087CF,1,1479083301908374,1479083301908374,1,-11.375,12288,-48.0,865.7,5.9518456
E200303121120053136087CF,1,1479083301919104,1479083301919104,1,-4.875,12288,-47.5,865.7,5.933438
E200303121120053136087CF,1,1479083301931161,1479083301931161,1,-6.5,12288,-48.0,865.7,5.970253
E200303121120053136087CF,1,1479083301941863,1479083301941863,1,3.25,12288,-48.0,865.7,5.933438
E200303121120053136087CF,1,1479083301952545,1479083301952545,1,-6.5,12288,-47.5,865.7,5.970253
E200303121120053136087CF,1,1479083301963206,1479083301963206,1,0.0,12288,-48.0,865.7,5.9579816
E200303121120053136087CF,1,1479083301973883,1479083301973883,1,0.0,12288,-48.0,865.7,5.927302
E200303121120053136087CF,1,1479083301984638,1479083301984638,1,4.875,12288,-48.0,865.7,5.9518456
E200303121120053136087CF,1,1479083301995293,1479083301995293,1,-8.125,12288,-48.0,865.7,6.0009327
E200303121120053136087CF,1,1479083302005934,1479083302005934,1,-8.125,12288,-47.5,865.7,5.970253
E200303121120053136087CF,1,1479083302016384,1479083302016384,1,-13.8125,12288,-48.0,865.7,6.0132046
E200303121120053136087CF,1,1479083302028108,1479083302028108,1,0.0,12288,-48.0,865.7,5.976389
E200303121120053136087CF,1,1479083302039852,1479083302039852,1,-21.9375,12288,-47.5,865.7,6.05002
E200303121120053136087CF,1,1479083302050531,1479083302050531,1,-3.25,12288,-48.0,865.7,5.970253
E200303121120053136087CF,1,1479083302061404,1479083302061404,1,4.875,12288,-48.0,865.7,5.9457097
E200303121120053136087CF,1,1479083302071751,1479083302071751,1,-11.375,12288,-48.0,865.7,5.982525
E200303121120053136087CF,1,1479083302082327,1479083302082327,1,-3.25,12288,-48.0,865.7,5.976389
E200303121120053136087CF,1,1479083302093276,1479083302093276,1,9.75,12288,-47.5,865.7,5.9579816
E200303121120053136087CF,1,1479083302104012,1479083302104012,1,-23.5625,12288,-48.0,865.7,6.056156
E200303121120053136087CF,1,1479083302114597,1479083302114597,1,9.75,12288,-48.0,865.7,5.9641175
E200303121120053136087CF,1,1479083302125171,1479083302125171,1,-4.875,12288,-48.0,865.7,6.0070686
E200303121120053136087CF,1,1479083302135962,1479083302135962,1,1.625,12288,-48.0,865.7,5.988661
E200303121120053136087CF,1,1479083302147506,1479083302147506,1,0.0,12288,-48.0,865.7,5.9947968
E200303121120053136087CF,1,1479083302158202,1479083302158202,1,9.75,12288,-48.0,865.7,5.970253
E200303121120053136087CF,1,1479083302168899,1479083302168899,1,4.875,12288,-48.0,865.7,5.988661
E200303121120053136087CF,1,1479083302179873,1479083302179873,1,-1.625,12288,-47.5,865.7,6.0193405
E200303121120053136087CF,1,1479083302190304,1479083302190304,1,3.25,12288,-48.0,865.7,6.0132046
E200303121120053136087CF,1,1479083302201193,1479083302201193,1,1.625,12288,-48.5,865.7,6.0316124
E200303121120053136087CF,1,1479083302213151,1479083302213151,1,6.5,12288,-48.0,865.7,6.0132046
E200303121120053136087CF,1,1479083302224076,1479083302224076,1,-3.25,12288,-48.0,865.7,6.0438843
E200303121120053136087CF,1,1479083302234735,1479083302234735,1,-1.625,12288,-48.0,865.7,6.0193405
E200303121120053136087CF,1,1479083302245329,1479083302245329,1,-6.5,12288,-48.0,865.7,6.0377483
E200303121120053136087CF,1,1479083302256162,1479083302256162,1,-4.875,12288,-48.5,865.7,6.0377483
E200303121120053136087CF,1,1479083302267220,1479083302267220,1,-3.25,12288,-48.0,865.7,6.0193405
E200303121120053136087CF,1,1479083302277714,1479083302277714,1,-11.375,12288,-48.5,865.7,6.0438843
E200303121120053136087CF,1,1479083302288198,1479083302288198,1,-8.125,12288,-48.0,865.7,6.0193405
E200303121120053136087CF,1,1479083302299098,1479083302299098,1,-1.625,12288,-48.0,865.7,6.0254765
E200303121120053136087CF,1,1479083302309387,1479083302309387,1,-11.375,12288,-48.0,865.7,6.0316124
E200303121120053136087CF,1,1479083302320160,1479083302320160,1,-8.125,12288,-48.5,865.7,6.056156
E200303121120053136087CF,1,1479083302331250,1479083302331250,1,-4.875,12288,-48.0,865.7,6.0193405
E200303121120053136087CF,1,1479083302341723,1479083302341723,1,0.0,12288,-48.0,865.7,6.0132046
E200303121120053136087CF,1,1479083302352299,1479083302352299,1,0.0,12288,-48.5,865.7,6.0009327
E200303121120053136087CF,1,1479083302364836,1479083302364836,1,-13.8125,12288,-48.0,865.7,6.056156
E200303121120053136087CF,1,1479083302375358,1479083302375358,1,6.5,12288,-48.5,865.7,5.988661
E200303121120053136087CF,1,1479083302389272,1479083302389272,1,-4.875,12288,-48.0,865.7,6.0254765
E200303121120053136087CF,1,1479083302400339,1479083302400339,1,-11.375,12288,-48.5,865.7,6.0377483
E200303121120053136087CF,1,1479083302411055,1479083302411055,1,-3.25,12288,-48.5,865.7,6.0193405
E200303121120053136087CF,1,1479083302421703,1479083302421703,1,0.0,12288,-48.0,865.7,5.988661
E200303121120053136087CF,1,1479083302433666,1479083302433666,1,9.75,12288,-48.5,865.7,5.982525
E200303121120053136087CF,1,1479083302444282,1479083302444282,1,4.875,12288,-48.5,865.7,5.9641175
E200303121120053136087CF,1,1479083302455363,1479083302455363,1,3.25,12288,-48.5,865.7,5.982525
E200303121120053136087CF,1,1479083302465690,1479083302465690,1,-15.4375,12288,-48.5,865.7,6.068428
E200303121120053136087CF,1,1479083302476701,1479083302476701,1,0.0,12288,-48.5,865.7,6.0009327
E200303121120053136087CF,1,1479083302487046,1479083302487046,1,-3.25,12288,-48.5,865.7,6.0070686
E200303121120053136087CF,1,1479083302498011,1479083302498011,1,-6.5,12288,-48.5,865.7,6.0070686
E200303121120053136087CF,1,1479083302509441,1479083302509441,1,1.625,12288,-49.0,865.7,5.988661
E200303121120053136087CF,1,1479083302520399,1479083302520399,1,3.25,12288,-49.0,865.7,6.0070686
E200303121120053136087CF,1,1479083302530813,1479083302530813,1,-4.875,12288,-49.0,865.7,6.0132046
E200303121120053136087CF,1,1479083302541467,1479083302541467,1,-13.0,12288,-48.5,865.7,6.0316124
E200303121120053136087CF,1,1479083302552390,1479083302552390,1,-3.25,12288,-48.5,865.7,6.0132046
E200303121120053136087CF,1,1479083302562797,1479083302562797,1,-9.75,12288,-49.0,865.7,6.0070686
E200303121120053136087CF,1,1479083302573656,1479083302573656,1,4.875,12288,-48.5,865.7,5.988661
E200303121120053136087CF,1,1479083302584033,1479083302584033,1,-3.25,12288,-49.0,865.7,5.9947968
E200303121120053136087CF,1,1479083302594731,1479083302594731,1,-4.875,12288,-48.5,865.7,6.0254765
E200303121120053136087CF,1,1479083302605603,1479083302605603,1,0.0,12288,-49.0,865.7,6.0070686
E200303121120053136087CF,1,1479083302615837,1479083302615837,1,-3.25,12288,-49.0,865.7,5.9947968
E200303121120053136087CF,1,1479083302626773,1479083302626773,1,1.625,12288,-49.0,865.7,6.0009327
E200303121120053136087CF,1,1479083302637055,1479083302637055,1,1.625,12288,-49.0,865.7,6.0009327
E200303121120053136087CF,1,1479083302647671,1479083302647671,1,-8.125,12288,-49.0,865.7,6.0070686
E200303121120053136087CF,1,1479083302658450,1479083302658450,1,-8.125,12288,-49.0,865.7,6.0254765
E200303121120053136087CF,1,1479083302669060,1479083302669060,1,-15.4375,12288,-48.5,865.7,6.062292
E200303121120053136087CF,1,1479083302679968,1479083302679968,1,-1.625,12288,-49.0,865.7,6.0132046
E200303121120053136087CF,1,1479083302690531,1479083302690531,1,-13.0,12288,-49.0,865.7,6.05002
E200303121120053136087CF,1,1479083302701075,1479083302701075,1,4.875,12288,-49.0,865.7,5.982525
E200303121120053136087CF,1,1479083302711853,1479083302711853,1,-8.125,12288,-49.0,865.7,6.05002
E200303121120053136087CF,1,1479083302722295,1479083302722295,1,-1.625,12288,-49.0,865.7,6.0009327
E200303121120053136087CF,1,1479083302733034,1479083302733034,1,-4.875,12288,-49.0,865.7,6.0132046
E200303121120053136087CF,1,1479083302743742,1479083302743742,1,-13.0,12288,-49.0,865.7,6.0193405
E200303121120053136087CF,1,1479083302754699,1479083302754699,1,-1.625,12288,-49.0,865.7,6.0132046
E200303121120053136087CF,1,1479083302765315,1479083302765315,1,-13.0,12288,-49.0,865.7,6.056156
E200303121120053136087CF,1,1479083302775665,1479083302775665,1,4.875,12288,-49.5,865.7,5.982525
E200303121120053136087CF,1,1479083302786547,1479083302786547,1,11.375,12288,-49.5,865.7,5.982525
E200303121120053136087CF,1,1479083302797308,1479083302797308,1,-8.125,12288,-49.0,865.7,6.0254765
E200303121120053136087CF,1,1479083302808006,1479083302808006,1,-1.625,12288,-49.5,865.7,6.0254765
E200303121120053136087CF,1,1479083302818639,1479083302818639,1,-13.8125,12288,-49.0,865.7,6.086836
E200303121120053136087CF,1,1479083302828984,1479083302828984,1,-17.0625,12288,-49.5,865.7,6.0377483
E200303121120053136087CF,1,1479083302839750,1479083302839750,1,-13.0,12288,-49.5,865.7,6.05002
E200303121120053136087CF,1,1479083302850068,1479083302850068,1,-8.125,12288,-49.5,865.7,6.0316124
E200303121120053136087CF,1,1479083302860763,1479083302860763,1,-11.375,12288,-49.5,865.7,6.056156
E200303121120053136087CF,1,1479083302871291,1479083302871291,1,-3.25,12288,-49.5,865.7,6.0070686
E200303121120053136087CF,1,1479083302883427,1479083302883427,1,4.875,12288,-49.0,865.7,5.982525
E200303121120053136087CF,1,1479083302893760,1479083302893760,1,-13.8125,12288,-49.5,865.7,6.0807
E200303121120053136087CF,1,1479083302904414,1479083302904414,1,-18.6875,12288,-50.0,865.7,6.05002
E200303121120053136087CF,1,1479083302915423,1479083302915423,1,13.8125,12288,-49.5,865.7,5.9518456
E200303121120053136087CF,1,1479083302926061,1479083302926061,1,-8.125,12288,-50.0,865.7,6.05002
E200303121120053136087CF,1,1479083302938033,1479083302938033,1,-13.8125,12288,-49.5,865.7,6.05002
E200303121120053136087CF,1,1479083302948696,1479083302948696,1,-4.875,12288,-50.5,865.7,5.9947968
E200303121120053136087CF,1,1479083302959460,1479083302959460,1,-17.0625,12288,-50.5,865.7,6.0377483
E200303121120053136087CF,1,1479083302970031,1479083302970031,1,-13.8125,12288,-50.5,865.7,6.0132046
E200303121120053136087CF,1,1479083302980414,1479083302980414,1,0.0,12288,-51.0,865.7,5.939574
E200303121120053136087CF,1,1479083302991371,1479083302991371,1,-34.9375,12288,-50.5,865.7,6.062292
E200303121120053136087CF,1,1479083303002047,1479083303002047,1,-20.3125,12288,-51.0,865.7,6.0009327
E200303121120053136087CF,1,1479083303012618,1479083303012618,1,-4.875,12288,-51.0,865.7,5.970253
E200303121120053136087CF,1,1479083303023200,1479083303023200,1,-3.25,12288,-51.0,865.7,5.9518456
E200303121120053136087CF,1,1479083303033745,1479083303033745,1,-8.125,12288,-51.5,865.7,5.927302
E200303121120053136087CF,1,1479083303044327,1479083303044327,1,6.5,12288,-51.5,865.7,5.8598065
E200303121120053136087CF,1,1479083303054745,1479083303054745,1,11.375,12288,-51.5,865.7,5.8598065
E200303121120053136087CF,1,1479083303068289,1479083303068289,1,4.875,12288,-52.0,865.7,5.835263
E200303121120053136087CF,1,1479083303079322,1479083303079322,1,-25.1875,12288,-52.0,865.7,5.9518456
E200303121120053136087CF,1,1479083303089878,1479083303089878,1,15.4375,12288,-52.5,865.7,5.7923117
E200303121120053136087CF,1,1479083303100555,1479083303100555,1,1.625,12288,-52.0,865.7,5.816855
E200303121120053136087CF,1,1479083303111382,1479083303111382,1,13.0,12288,-52.5,865.7,5.804583
E200303121120053136087CF,1,1479083303121911,1479083303121911,1,-1.625,12288,-52.0,865.7,5.8659425
E200303121120053136087CF,1,1479083303132792,1479083303132792,1,-33.3125,12288,-52.5,865.7,5.927302
E200303121120053136087CF,1,1479083303143470,1479083303143470,1,-34.9375,12288,-52.5,865.7,5.939574
E200303121120053136087CF,1,1479083303154149,1479083303154149,1,-13.0,12288,-52.5,865.7,5.8843503
E200303121120053136087CF,1,1479083303165828,1479083303165828,1,-23.5625,12288,-52.5,865.7,5.9518456
E200303121120053136087CF,1,1479083303176239,1479083303176239,1,-20.3125,12288,-52.5,865.7,5.8782144
E200303121120053136087CF,1,1479083303187022,1479083303187022,1,-1.625,12288,-53.0,865.7,5.8475347
E200303121120053136087CF,1,1479083303197634,1479083303197634,1,-8.125,12288,-53.5,865.7,5.8904862
E200303121120053136087CF,1,1479083303208513,1479083303208513,1,-17.0625,12288,-53.0,865.7,5.896622
E200303121120053136087CF,1,1479083303218791,1479083303218791,1,-40.6875,12288,-53.0,865.7,5.908894
E200303121120053136087CF,1,1479083303229591,1479083303229591,1,-43.9375,12288,-53.0,865.7,5.988661
E200303121120053136087CF,1,1479083303240246,1479083303240246,1,-28.4375,12288,-53.5,865.7,5.927302
E200303121120053136087CF,1,1479083303250555,1479083303250555,1,-36.5625,12288,-53.0,865.7,5.970253
E200303121120053136087CF,1,1479083303262556,1479083303262556,1,-23.5625,12288,-53.0,865.7,5.988661
E200303121120053136087CF,1,1479083303272955,1479083303272955,1,-17.0625,12288,-53.0,865.7,5.921166
E200303121120053136087CF,1,1479083303283844,1479083303283844,1,-13.0,12288,-53.0,865.7,5.896622
E200303121120053136087CF,1,1479083303295631,1479083303295631,1,-28.4375,12288,-53.0,865.7,5.908894
E200303121120053136087CF,1,1479083303306235,1479083303306235,1,-17.0625,12288,-53.0,865.7,5.8782144
E200303121120053136087CF,1,1479083303318083,1479083303318083,1,-8.125,12288,-53.5,865.7,5.902758
E200303121120053136087CF,1,1479083303328982,1479083303328982,1,-18.6875,12288,-52.5,865.7,5.908894
E200303121120053136087CF,1,1479083303339697,1479083303339697,1,-45.5625,12288,-53.0,865.7,5.9947968
E200303121120053136087CF,1,1479083303350201,1479083303350201,1,-26.8125,12288,-53.0,865.7,5.9457097
E200303121120053136087CF,1,1479083303360749,1479083303360749,1,-30.0625,12288,-53.0,865.7,5.939574
E200303121120053136087CF,1,1479083303373060,1479083303373060,1,-31.6875,12288,-53.0,865.7,5.902758
E200303121120053136087CF,1,1479083303383592,1479083303383592,1,-31.6875,12288,-53.0,865.7,5.9579816
E200303121120053136087CF,1,1479083303394477,1479083303394477,1,-31.6875,12288,-53.0,865.7,5.939574
E200303121120053136087CF,1,1479083303405191,1479083303405191,1,-38.1875,12288,-53.0,865.7,5.976389
E200303121120053136087CF,1,1479083303415952,1479083303415952,1,-31.6875,12288,-53.0,865.7,5.988661
E200303121120053136087CF,1,1479083303426211,1479083303426211,1,-8.125,12288,-53.0,865.7,5.91503
E200303121120053136087CF,1,1479083303437061,1479083303437061,1,-25.1875,12288,-53.5,865.7,5.8598065
E200303121120053136087CF,1,1479083303448801,1479083303448801,1,-18.6875,12288,-53.5,865.7,5.902758
E200303121120053136087CF,1,1479083303459376,1479083303459376,1,-25.1875,12288,-53.0,865.7,6.0009327
E200303121120053136087CF,1,1479083303469672,1479083303469672,1,-13.0,12288,-53.5,865.7,5.8782144
E200303121120053136087CF,1,1479083303480684,1479083303480684,1,0.0,12288,-52.5,865.7,5.8475347
E200303121120053136087CF,1,1479083303491200,1479083303491200,1,-30.0625,12288,-53.0,865.7,5.9579816
E200303121120053136087CF,1,1479083303502076,1479083303502076,1,-8.125,12288,-53.5,865.7,5.8782144
E200303121120053136087CF,1,1479083303512969,1479083303512969,1,8.125,12288,-53.5,865.7,5.8413987
E200303121120053136087CF,1,1479083303525102,1479083303525102,1,4.875,12288,-53.0,865.7,5.8782144
E200303121120053136087CF,1,1479083303535640,1479083303535640,1,-13.0,12288,-53.0,865.7,5.921166
E200303121120053136087CF,1,1479083303546297,1479083303546297,1,-11.375,12288,-53.0,865.7,5.8720784
E200303121120053136087CF,1,1479083303556927,1479083303556927,1,-31.6875,12288,-53.0,865.7,5.9641175
E200303121120053136087CF,1,1479083303567817,1479083303567817,1,-8.125,12288,-53.0,865.7,5.8904862
E200303121120053136087CF,1,1479083303578218,1479083303578218,1,-11.375,12288,-53.0,865.7,5.91503
E200303121120053136087CF,1,1479083303588827,1479083303588827,1,-13.8125,12288,-53.0,865.7,5.91503
E200303121120053136087CF,1,1479083303599505,1479083303599505,1,-8.125,12288,-53.5,865.7,5.908894
E200303121120053136087CF,1,1479083303610193,1479083303610193,1,-6.5,12288,-53.0,865.7,5.8782144
E200303121120053136087CF,1,1479083303622493,1479083303622493,1,20.3125,12288,-53.5,865.7,5.816855
E200303121120053136087CF,1,1479083303633107,1479083303633107,1,20.3125,12288,-53.5,865.7,5.755496
E200303121120053136087CF,1,1479083303644092,1479083303644092,1,-6.5,12288,-53.5,865.7,5.8720784
E200303121120053136087CF,1,1479083303654723,1479083303654723,1,-11.375,12288,-53.0,865.7,5.8904862
E200303121120053136087CF,1,1479083303667374,1479083303667374,1,-30.0625,12288,-53.0,865.7,5.970253
E200303121120053136087CF,1,1479083303678106,1479083303678106,1,-3.25,12288,-53.5,865.7,5.8598065
E200303121120053136087CF,1,1479083303688597,1479083303688597,1,-43.9375,12288,-53.0,865.7,6.0254765
E200303121120053136087CF,1,1479083303701024,1479083303701024,1,-13.0,12288,-53.5,865.7,5.908894
E200303121120053136087CF,1,1479083303711528,1479083303711528,1,6.5,12288,-53.5,865.7,5.8720784
E200303121120053136087CF,1,1479083303724003,1479083303724003,1,13.8125,12288,-53.5,865.7,5.8475347
E200303121120053136087CF,1,1479083303734726,1479083303734726,1,0.0,12288,-52.5,865.7,5.8598065
E200303121120053136087CF,1,1479083303745165,1479083303745165,1,-20.3125,12288,-53.5,865.7,5.933438
E200303121120053136087CF,1,1479083303755898,1479083303755898,1,-23.5625,12288,-53.0,865.7,5.970253
E200303121120053136087CF,1,1479083303766806,1479083303766806,1,13.0,12288,-53.5,865.7,5.816855
E200303121120053136087CF,1,1479083303777292,1479083303777292,1,-13.0,12288,-53.5,865.7,5.9518456
E200303121120053136087CF,1,1479083303788072,1479083303788072,1,-26.8125,12288,-53.0,865.7,5.9641175
E200303121120053136087CF,1,1479083303798676,1479083303798676,1,-36.5625,12288,-53.5,865.7,6.0070686
E200303121120053136087CF,1,1479083303809207,1479083303809207,1,-9.75,12288,-53.0,865.7,5.927302
E200303121120053136087CF,1,1479083303819909,1479083303819909,1,-26.8125,12288,-54.0,865.7,5.988661
E200303121120053136087CF,1,1479083303830391,1479083303830391,1,-42.3125,12288,-53.0,865.7,6.0193405
E200303121120053136087CF,1,1479083303841148,1479083303841148,1,-21.9375,12288,-53.0,865.7,5.927302
E200303121120053136087CF,1,1479083303851831,1479083303851831,1,-23.5625,12288,-53.0,865.7,5.970253
E200303121120053136087CF,1,1479083303862659,1479083303862659,1,-8.125,12288,-54.0,865.7,5.91503
E200303121120053136087CF,1,1479083303873169,1479083303873169,1,-6.5,12288,-53.5,865.7,5.939574
E200303121120053136087CF,1,1479083303884196,1479083303884196,1,-13.8125,12288,-53.5,865.7,5.91503
E200303121120053136087CF,1,1479083303894999,1479083303894999,1,-33.3125,12288,-53.5,865.7,6.0193405
E200303121120053136087CF,1,1479083303905752,1479083303905752,1,-25.1875,12288,-52.5,865.7,5.9518456
E200303121120053136087CF,1,1479083303916452,1479083303916452,1,-1.625,12288,-54.0,865.7,5.896622
E200303121120053136087CF,1,1479083303927352,1479083303927352,1,-15.4375,12288,-53.5,865.7,5.927302
E200303121120053136087CF,1,1479083303938092,1479083303938092,1,-25.1875,12288,-53.5,865.7,6.0009327
E200303121120053136087CF,1,1479083303948586,1479083303948586,1,1.625,12288,-53.5,865.7,5.8843503
E200303121120053136087CF,1,1479083303959550,1479083303959550,1,-20.3125,12288,-54.0,865.7,6.0070686
E200303121120053136087CF,1,1479083303969965,1479083303969965,1,-25.1875,12288,-53.0,865.7,6.0316124
E200303121120053136087CF,1,1479083303980592,1479083303980592,1,-18.6875,12288,-53.0,865.7,6.0009327
E200303121120053136087CF,1,1479083303991466,1479083303991466,1,-13.0,12288,-53.0,865.7,5.982525
E200303121120053136087CF,1,1479083304002057,1479083304002057,1,-13.0,12288,-53.5,865.7,5.988661
E200303121120053136087CF,1,1479083304012460,1479083304012460,1,-15.4375,12288,-53.5,865.7,6.0070686
E200303121120053136087CF,1,1479083304023401,1479083304023401,1,13.8125,12288,-53.5,865.7,5.8720784
E200303121120053136087CF,1,1479083304034148,1479083304034148,1,-20.3125,12288,-53.0,865.7,6.0193405
E200303121120053136087CF,1,1479083304044788,1479083304044788,1,-18.6875,12288,-53.0,865.7,5.982525
E200303121120053136087CF,1,1479083304055194,1479083304055194,1,-26.8125,12288,-53.5,865.7,6.05002
E200303121120053136087CF,1,1479083304066866,1479083304066866,1,-4.875,12288,-54.0,865.7,5.9518456
E200303121120053136087CF,1,1479083304077736,1479083304077736,1,-18.6875,12288,-53.0,865.7,6.0193405
E200303121120053136087CF,1,1479083304088107,1479083304088107,1,-21.9375,12288,-53.0,865.7,6.0132046
E200303121120053136087CF,1,1479083304099112,1479083304099112,1,-4.875,12288,-53.5,865.7,5.9457097
E200303121120053136087CF,1,1479083304110595,1479083304110595,1,-11.375,12288,-53.0,865.7,5.9641175
E200303121120053136087CF,1,1479083304121198,1479083304121198,1,-28.4375,12288,-53.5,865.7,6.0377483
E200303121120053136087CF,1,1479083304131803,1479083304131803,1,-4.875,12288,-53.5,865.7,5.970253
E200303121120053136087CF,1,1479083304142707,1479083304142707,1,-20.3125,12288,-53.5,865.7,6.0132046
E200303121120053136087CF,1,1479083304153574,1479083304153574,1,-6.5,12288,-53.5,865.7,5.976389
E200303121120053136087CF,1,1479083304164085,1479083304164085,1,-13.8125,12288,-54.0,865.7,5.976389
E200303121120053136087CF,1,1479083304174944,1479083304174944,1,-11.375,12288,-54.0,865.7,5.9457097
E200303121120053136087CF,1,1479083304185586,1479083304185586,1,-25.1875,12288,-54.0,865.7,6.0377483
E200303121120053136087CF,1,1479083304195967,1479083304195967,1,-6.5,12288,-53.5,865.7,5.9518456
E200303121120053136087CF,1,1479083304206782,1479083304206782,1,-33.3125,12288,-53.5,865.7,6.068428
E200303121120053136087CF,1,1479083304217234,1479083304217234,1,-23.5625,12288,-53.0,865.7,6.0438843
E200303121120053136087CF,1,1479083304228115,1479083304228115,1,-25.1875,12288,-53.0,865.7,5.9947968
E200303121120053136087CF,1,1479083304238570,1479083304238570,1,4.875,12288,-53.0,865.7,5.9457097
E200303121120053136087CF,1,1479083304250596,1479083304250596,1,-34.9375,12288,-53.0,865.7,6.0316124
E200303121120053136087CF,1,1479083304261374,1479083304261374,1,-53.6875,12288,-53.0,865.7,6.0807
E200303121120053136087CF,1,1479083304271702,1479083304271702,1,-4.875,12288,-54.0,865.7,5.9579816
E200303121120053136087CF,1,1479083304282580,1479083304282580,1,-23.5625,12288,-53.0,865.7,6.0132046
E200303121120053136087CF,1,1479083304293150,1479083304293150,1,-1.625,12288,-53.5,865.7,5.982525
E200303121120053136087CF,1,1479083304303832,1479083304303832,1,-48.8125,12288,-54.0,865.7,6.074564
E200303121120053136087CF,1,1479083304314811,1479083304314811,1,-6.5,12288,-54.0,865.7,5.988661
E200303121120053136087CF,1,1479083304325126,1479083304325126,1,-25.1875,12288,-54.0,865.7,6.056156
E200303121120053136087CF,1,1479083304336046,1479083304336046,1,-34.9375,12288,-53.5,865.7,6.062292
E200303121120053136087CF,1,1479083304346857,1479083304346857,1,-30.0625,12288,-53.5,865.7,6.0438843
E200303121120053136087CF,1,1479083304357388,1479083304357388,1,-17.0625,12288,-53.5,865.7,6.056156
E200303121120053136087CF,1,1479083304369030,1479083304369030,1,-31.6875,12288,-53.5,865.7,6.1175156
E200303121120053136087CF,1,1479083304379687,1479083304379687,1,0.0,12288,-54.0,865.7,6.0009327
E200303121120053136087CF,1,1479083304390159,1479083304390159,1,26.8125,12288,-54.0,865.7,5.8843503
E200303121120053136087CF,1,1479083304400969,1479083304400969,1,-30.0625,12288,-53.5,865.7,6.0438843
E200303121120053136087CF,1,1479083304411997,1479083304411997,1,-26.8125,12288,-53.5,865.7,6.0438843
E200303121120053136087CF,1,1479083304422524,1479083304422524,1,-36.5625,12288,-53.5,865.7,6.1727386
E200303121120053136087CF,1,1479083304433170,1479083304433170,1,-9.75,12288,-53.5,865.7,6.0193405
E200303121120053136087CF,1,1479083304443776,1479083304443776,1,-18.6875,12288,-54.0,865.7,6.074564
E200303121120053136087CF,1,1479083304456096,1479083304456096,1,-3.25,12288,-53.5,865.7,6.074564
E200303121120053136087CF,1,1479083304466561,1479083304466561,1,-11.375,12288,-54.0,865.7,6.068428
E200303121120053136087CF,1,1479083304477094,1479083304477094,1,-31.6875,12288,-53.5,865.7,6.0991077
E200303121120053136087CF,1,1479083304487848,1479083304487848,1,-15.4375,12288,-53.5,865.7,6.074564
E200303121120053136087CF,1,1479083304498764,1479083304498764,1,-9.75,12288,-53.5,865.7,6.062292
E200303121120053136087CF,1,1479083304509330,1479083304509330,1,6.5,12288,-54.0,865.7,5.988661
E200303121120053136087CF,1,1479083304520068,1479083304520068,1,1.625,12288,-53.5,865.7,6.0438843
E200303121120053136087CF,1,1479083304530584,1479083304530584,1,-34.9375,12288,-53.5,865.7,6.142059
E200303121120053136087CF,1,1479083304541181,1479083304541181,1,0.0,12288,-53.0,865.7,6.0377483
E200303121120053136087CF,1,1479083304551900,1479083304551900,1,-17.0625,12288,-53.5,865.7,6.0009327
E200303121120053136087CF,1,1479083304562905,1479083304562905,1,6.5,12288,-54.0,865.7,5.933438
E200303121120053136087CF,1,1479083304573685,1479083304573685,1,-1.625,12288,-54.0,865.7,5.9457097
E200303121120053136087CF,1,1479083304584205,1479083304584205,1,-26.8125,12288,-53.5,865.7,6.0193405
E200303121120053136087CF,1,1479083304595190,1479083304595190,1,8.125,12288,-53.5,865.7,5.91503
E200303121120053136087CF,1,1479083304605924,1479083304605924,1,-9.75,12288,-53.5,865.7,5.9457097
E200303121120053136087CF,1,1479083304617940,1479083304617940,1,-1.625,12288,-53.5,865.7,5.8720784
E200303121120053136087CF,1,1479083304628354,1479083304628354,1,-18.6875,12288,-53.0,865.7,5.988661
E200303121120053136087CF,1,1479083304639061,1479083304639061,1,-6.5,12288,-53.5,865.7,5.908894
E200303121120053136087CF,1,1479083304651370,1479083304651370,1,-6.5,12288,-53.0,865.7,5.939574
E200303121120053136087CF,1,1479083304661839,1479083304661839,1,-9.75,12288,-53.0,865.7,5.91503
E200303121120053136087CF,1,1479083304672196,1479083304672196,1,-23.5625,12288,-53.5,865.7,5.976389
E200303121120053136087CF,1,1479083304683161,1479083304683161,1,-6.5,12288,-54.0,865.7,5.927302
E200303121120053136087CF,1,1479083304693870,1479083304693870,1,-1.625,12288,-53.5,865.7,5.8720784
E200303121120053136087CF,1,1479083304704320,1479083304704320,1,-9.75,12288,-53.0,865.7,5.91503
E200303121120053136087CF,1,1479083304715131,1479083304715131,1,-15.4375,12288,-53.0,865.7,5.908894
E200303121120053136087CF,1,1479083304725633,1479083304725633,1,4.875,12288,-53.5,865.7,5.939574
E200303121120053136087CF,1,1479083304736404,1479083304736404,1,-15.4375,12288,-53.5,865.7,5.8720784
E200303121120053136087CF,1,1479083304747019,1479083304747019,1,1.625,12288,-53.5,865.7,5.835263
E200303121120053136087CF,1,1479083304757919,1479083304757919,1,-26.8125,12288,-52.5,865.7,5.9579816
E200303121120053136087CF,1,1479083304768377,1479083304768377,1,-39.875,12288,-53.0,865.7,5.988661
E200303121120053136087CF,1,1479083304779411,1479083304779411,1,-36.5625,12288,-53.0,865.7,5.9457097
E200303121120053136087CF,1,1479083304790087,1479083304790087,1,-11.375,12288,-52.5,865.7,5.8475347
E200303121120053136087CF,1,1479083304800502,1479083304800502,1,-3.25,12288,-53.0,865.7,5.8536706
E200303121120053136087CF,1,1479083304811244,1479083304811244,1,-13.0,12288,-52.5,865.7,5.8536706
E200303121120053136087CF,1,1479083304823445,1479083304823445,1,-9.75,12288,-53.0,865.7,5.8475347
E200303121120053136087CF,1,1479083304835297,1479083304835297,1,-8.125,12288,-53.0,865.7,5.804583
E200303121120053136087CF,1,1479083304845970,1479083304845970,1,-4.875,12288,-53.0,865.7,5.767768
E200303121120053136087CF,1,1479083304856719,1479083304856719,1,-17.0625,12288,-53.0,865.7,5.7923117
E200303121120053136087CF,1,1479083304867508,1479083304867508,1,-1.625,12288,-53.0,865.7,5.74936
E200303121120053136087CF,1,1479083304878061,1479083304878061,1,-4.875,12288,-53.0,865.7,5.78004
E200303121120053136087CF,1,1479083304889201,1479083304889201,1,-1.625,12288,-53.0,865.7,5.74936
E200303121120053136087CF,1,1479083304900124,1479083304900124,1,-20.3125,12288,-53.0,865.7,5.743224
E200303121120053136087CF,1,1479083304910932,1479083304910932,1,-31.6875,12288,-52.5,865.7,5.767768
E200303121120053136087CF,1,1479083304921526,1479083304921526,1,1.625,12288,-52.5,865.7,5.669593
E200303121120053136087CF,1,1479083304932508,1479083304932508,1,9.75,12288,-52.5,865.7,5.651185
E200303121120053136087CF,1,1479083304944094,1479083304944094,1,-40.6875,12288,-52.5,865.7,5.7984476
E200303121120053136087CF,1,1479083304954629,1479083304954629,1,-28.4375,12288,-52.5,865.7,5.7186804
E200303121120053136087CF,1,1479083304965754,1479083304965754,1,-6.5,12288,-52.5,865.7,5.663457
E200303121120053136087CF,1,1479083304976372,1479083304976372,1,-25.1875,12288,-52.5,865.7,5.7125444
E200303121120053136087CF,1,1479083304986794,1479083304986794,1,-21.9375,12288,-52.5,865.7,5.7125444
E200303121120053136087CF,1,1479083304997488,1479083304997488,1,-43.9375,12288,-52.0,865.7,5.74936
E200303121120053136087CF,1,1479083305008220,1479083305008220,1,0.0,12288,-52.5,865.7,5.5591464
E200303121120053136087CF,1,1479083305019188,1479083305019188,1,-13.0,12288,-52.5,865.7,5.6327777
E200303121120053136087CF,1,1479083305029926,1479083305029926,1,-25.1875,12288,-52.5,865.7,5.669593
E200303121120053136087CF,1,1479083305041532,1479083305041532,1,-21.9375,12288,-52.5,865.7,5.6327777
E200303121120053136087CF,1,1479083305052407,1479083305052407,1,-25.1875,12288,-52.5,865.7,5.6880007
E200303121120053136087CF,1,1479083305062876,1479083305062876,1,-1.625,12288,-52.0,865.7,5.5530105
E200303121120053136087CF,1,1479083305073873,1479083305073873,1,1.625,12288,-52.5,865.7,5.510059
E200303121120053136087CF,1,1479083305084618,1479083305084618,1,-25.1875,12288,-52.5,865.7,5.61437
E200303121120053136087CF,1,1479083305096383,1479083305096383,1,9.75,12288,-52.5,865.7,5.485515
E200303121120053136087CF,1,1479083305107250,1479083305107250,1,-1.625,12288,-52.5,865.7,5.5284667
E200303121120053136087CF,1,1479083305117953,1479083305117953,1,-15.4375,12288,-52.0,865.7,5.5407386
E200303121120053136087CF,1,1479083305128614,1479083305128614,1,-21.9375,12288,-52.5,865.7,5.5468745
E200303121120053136087CF,1,1479083305139028,1479083305139028,1,-31.6875,12288,-51.5,865.7,5.589826
E200303121120053136087CF,1,1479083305149641,1479083305149641,1,-47.1875,12288,-52.0,865.7,5.638913
E200303121120053136087CF,1,1479083305160354,1479083305160354,1,9.75,12288,-52.0,865.7,5.4118843
E200303121120053136087CF,1,1479083305171007,1479083305171007,1,-33.3125,12288,-52.0,865.7,5.510059
E200303121120053136087CF,1,1479083305296129,1479083305296129,1,6.5,12288,-51.0,865.7,5.2584863
E200303121120053136087CF,1,1479083305306649,1479083305306649,1,-11.375,12288,-51.5,865.7,5.3075733
E200303121120053136087CF,1,1479083305317207,1479083305317207,1,9.75,12288,-51.5,865.7,5.2523503
E200303121120053136087CF,1,1479083305327652,1479083305327652,1,1.625,12288,-51.0,865.7,5.203263
E200303121120053136087CF,1,1479083305339818,1479083305339818,1,6.5,12288,-51.0,865.7,5.197127
E200303121120053136087CF,1,1479083305350356,1479083305350356,1,-8.125,12288,-51.0,865.7,5.270758
E200303121120053136087CF,1,1479083305362630,1479083305362630,1,-9.75,12288,-50.5,865.7,5.2584863
E200303121120053136087CF,1,1479083305373161,1479083305373161,1,23.5625,12288,-51.0,865.7,5.1296315
E200303121120053136087CF,1,1479083305384173,1479083305384173,1,-9.75,12288,-51.0,865.7,5.184855
E200303121120053136087CF,1,1479083305394599,1479083305394599,1,-13.0,12288,-51.0,865.7,5.2278066
E200303121120053136087CF,1,1479083305405319,1479083305405319,1,13.0,12288,-50.5,865.7,5.1357675
E200303121120053136087CF,1,1479083305416341,1479083305416341,1,21.9375,12288,-51.0,865.7,5.0744085
E200303121120053136087CF,1,1479083305426976,1479083305426976,1,-23.5625,12288,-50.5,865.7,5.203263
E200303121120053136087CF,1,1479083305437321,1479083305437321,1,-11.375,12288,-50.5,865.7,5.160311
E200303121120053136087CF,1,1479083305448228,1479083305448228,1,-3.25,12288,-50.5,865.7,5.1419034
E200303121120053136087CF,1,1479083305458583,1479083305458583,1,0.0,12288,-50.5,865.7,5.0866804
E200303121120053136087CF,1,1479083305469198,1479083305469198,1,21.9375,12288,-50.5,865.7,5.025321
E200303121120053136087CF,1,1479083305480022,1479083305480022,1,26.8125,12288,-50.0,865.7,5.019185
E200303121120053136087CF,1,1479083305490387,1479083305490387,1,-1.625,12288,-50.5,865.7,5.0560007
E200303121120053136087CF,1,1479083305500961,1479083305500961,1,13.8125,12288,-50.5,865.7,4.9700975
E200303121120053136087CF,1,1479083305511663,1479083305511663,1,-13.0,12288,-50.5,865.7,5.043729
E200303121120053136087CF,1,1479083305522398,1479083305522398,1,-9.75,12288,-50.0,865.7,5.043729
E200303121120053136087CF,1,1479083305533340,1479083305533340,1,-18.6875,12288,-50.0,865.7,5.0682726
E200303121120053136087CF,1,1479083305543952,1479083305543952,1,9.75,12288,-50.5,865.7,5.006913
E200303121120053136087CF,1,1479083305554744,1479083305554744,1,0.0,12288,-50.0,865.7,5.006913
E200303121120053136087CF,1,1479083305565042,1479083305565042,1,9.75,12288,-50.0,865.7,4.9210105
E200303121120053136087CF,1,1479083305576051,1479083305576051,1,-8.125,12288,-50.0,865.7,4.957826
E200303121120053136087CF,1,1479083305586890,1479083305586890,1,-3.25,12288,-50.0,865.7,4.9332824
E200303121120053136087CF,1,1479083305597482,1479083305597482,1,34.9375,12288,-50.0,865.7,4.8044276
E200303121120053136087CF,1,1479083305608201,1479083305608201,1,13.0,12288,-50.0,865.7,4.8412433
E200303121120053136087CF,1,1479083305619152,1479083305619152,1,1.625,12288,-50.0,865.7,4.9087386
E200303121120053136087CF,1,1479083305629393,1479083305629393,1,11.375,12288,-50.0,865.7,4.8412433
E200303121120053136087CF,1,1479083305639942,1479083305639942,1,-25.1875,12288,-50.0,865.7,4.9332824
E200303121120053136087CF,1,1479083305652071,1479083305652071,1,-17.0625,12288,-50.0,865.7,4.9026027
E200303121120053136087CF,1,1479083305662663,1479083305662663,1,18.6875,12288,-50.0,865.7,4.7737484
E200303121120053136087CF,1,1479083305673278,1479083305673278,1,-18.6875,12288,-50.0,865.7,4.8228354
E200303121120053136087CF,1,1479083305684039,1479083305684039,1,23.5625,12288,-50.0,865.7,4.706253
E200303121120053136087CF,1,1479083305694905,1479083305694905,1,-42.3125,12288,-50.5,865.7,4.890331
E200303121120053136087CF,1,1479083305706756,1479083305706756,1,-15.4375,12288,-50.5,865.7,4.8228354
E200303121120053136087CF,1,1479083305717679,1479083305717679,1,3.25,12288,-49.5,865.7,4.7369328
E200303121120053136087CF,1,1479083305727996,1479083305727996,1,-8.125,12288,-50.0,865.7,4.792156
E200303121120053136087CF,1,1479083305738735,1479083305738735,1,-17.0625,12288,-50.0,865.7,4.7798843
E200303121120053136087CF,1,1479083305749671,1479083305749671,1,-4.875,12288,-50.0,865.7,4.7553406
E200303121120053136087CF,1,1479083305760003,1479083305760003,1,6.5,12288,-49.5,865.7,4.6817093
E200303121120053136087CF,1,1479083305770888,1479083305770888,1,15.4375,12288,-49.5,865.7,4.626486
E200303121120053136087CF,1,1479083305781510,1479083305781510,1,8.125,12288,-49.5,865.7,4.6694374
E200303121120053136087CF,1,1479083305792047,1479083305792047,1,8.125,12288,-49.5,865.7,4.6448936
E200303121120053136087CF,1,1479083305804003,1479083305804003,1,11.375,12288,-50.0,865.7,4.6387577
E200303121120053136087CF,1,1479083305815815,1479083305815815,1,-18.6875,12288,-49.5,865.7,4.712389
E200303121120053136087CF,1,1479083305826610,1479083305826610,1,-11.375,12288,-49.5,865.7,4.693981
E200303121120053136087CF,1,1479083305836988,1479083305836988,1,-6.5,12288,-49.5,865.7,4.6694374
E200303121120053136087CF,1,1479083305847843,1479083305847843,1,-13.8125,12288,-49.5,865.7,4.706253
E200303121120053136087CF,1,1479083305858430,1479083305858430,1,0.0,12288,-49.5,865.7,4.626486
E200303121120053136087CF,1,1479083305869117,1479083305869117,1,11.375,12288,-49.5,865.7,4.565127
E200303121120053136087CF,1,1479083305879319,1479083305879319,1,1.625,12288,-49.5,865.7,4.626486
E200303121120053136087CF,1,1479083305890034,1479083305890034,1,-1.625,12288,-49.5,865.7,4.626486
E200303121120053136087CF,1,1479083305901007,1479083305901007,1,-11.375,12288,-49.5,865.7,4.693981
E200303121120053136087CF,1,1479083305911699,1479083305911699,1,-1.625,12288,-49.5,865.7,4.632622
E200303121120053136087CF,1,1479083305922119,1479083305922119,1,6.5,12288,-49.0,865.7,4.6019425
E200303121120053136087CF,1,1479083305933054,1479083305933054,1,-4.875,12288,-49.5,865.7,4.6387577
E200303121120053136087CF,1,1479083305945037,1479083305945037,1,13.8125,12288,-49.0,865.7,4.565127
E200303121120053136087CF,1,1479083305957215,1479083305957215,1,8.125,12288,-49.5,865.7,4.5958066
E200303121120053136087CF,1,1479083305969100,1479083305969100,1,6.5,12288,-49.0,865.7,4.632622
E200303121120053136087CF,1,1479083305981403,1479083305981403,1,-9.75,12288,-49.5,865.7,4.6755733
E200303121120053136087CF,1,1479083305992174,1479083305992174,1,1.625,12288,-49.5,865.7,4.626486
E200303121120053136087CF,1,1479083306002975,1479083306002975,1,15.4375,12288,-49.0,865.7,4.558991
E200303121120053136087CF,1,1479083306013470,1479083306013470,1,3.25,12288,-49.5,865.7,4.6142144
E200303121120053136087CF,1,1479083306024297,1479083306024297,1,6.5,12288,-49.0,865.7,4.6142144
E200303121120053136087CF,1,1479083306034587,1479083306034587,1,-18.6875,12288,-49.0,865.7,4.687845
E200303121120053136087CF,1,1479083306045548,1479083306045548,1,8.125,12288,-49.5,865.7,4.577399
E200303121120053136087CF,1,1479083306056079,1479083306056079,1,4.875,12288,-49.0,865.7,4.5958066
E200303121120053136087CF,1,1479083306067152,1479083306067152,1,-1.625,12288,-49.5,865.7,4.626486
E200303121120053136087CF,1,1479083306077795,1479083306077795,1,-20.3125,12288,-49.5,865.7,4.6694374
E200303121120053136087CF,1,1479083306088265,1479083306088265,1,-9.75,12288,-49.0,865.7,4.6633015
E200303121120053136087CF,1,1479083306099207,1479083306099207,1,-9.75,12288,-49.5,865.7,4.6694374
E200303121120053136087CF,1,1479083306109847,1479083306109847,1,6.5,12288,-49.5,865.7,4.6387577
E200303121120053136087CF,1,1479083306120472,1479083306120472,1,25.1875,12288,-49.0,865.7,4.546719
E200303121120053136087CF,1,1479083306130899,1479083306130899,1,-6.5,12288,-49.5,865.7,4.6571655
E200303121120053136087CF,1,1479083306142646,1479083306142646,1,-11.375,12288,-49.5,865.7,4.6755733
E200303121120053136087CF,1,1479083306155239,1479083306155239,1,-55.3125,12288,-49.5,865.7,4.871923
E200303121120053136087CF,1,1479083306166006,1479083306166006,1,8.125,12288,-49.5,865.7,4.632622
E200303121120053136087CF,1,1479083306176503,1479083306176503,1,-11.375,12288,-49.5,865.7,4.718525
E200303121120053136087CF,1,1479083306187335,1479083306187335,1,11.375,12288,-49.5,865.7,4.626486
E200303121120053136087CF,1,1479083306197715,1479083306197715,1,6.5,12288,-49.5,865.7,4.6633015
E200303121120053136087CF,1,1479083306208496,1479083306208496,1,0.0,12288,-49.5,865.7,4.6571655
E200303121120053136087CF,1,1479083306219962,1479083306219962,1,-13.0,12288,-49.0,865.7,4.718525
E200303121120053136087CF,1,1479083306230649,1479083306230649,1,-4.875,12288,-49.5,865.7,4.6633015
E200303121120053136087CF,1,1479083306243743,1479083306243743,1,-6.5,12288,-49.0,865.7,4.6817093
E200303121120053136087CF,1,1479083306254252,1479083306254252,1,-8.125,12288,-49.5,865.7,4.6755733
E200303121120053136087CF,1,1479083306266740,1479083306266740,1,11.375,12288,-49.5,865.7,4.6510296
E200303121120053136087CF,1,1479083306277087,1479083306277087,1,9.75,12288,-49.5,865.7,4.626486
E200303121120053136087CF,1,1479083306289427,1479083306289427,1,-8.125,12288,-49.5,865.7,4.712389
E200303121120053136087CF,1,1479083306301343,1479083306301343,1,3.25,12288,-49.5,865.7,4.693981
E200303121120053136087CF,1,1479083306312232,1479083306312232,1,-1.625,12288,-49.5,865.7,4.6755733
E200303121120053136087CF,1,1479083306322747,1479083306322747,1,3.25,12288,-49.5,865.7,4.6510296
E200303121120053136087CF,1,1479083306333570,1479083306333570,1,3.25,12288,-49.5,865.7,4.706253
E200303121120053136087CF,1,1479083306344248,1479083306344248,1,8.125,12288,-49.5,865.7,4.6633015
E200303121120053136087CF,1,1479083306354660,1479083306354660,1,-21.9375,12288,-49.5,865.7,4.7676125
E200303121120053136087CF,1,1479083306366952,1479083306366952,1,17.0625,12288,-50.0,865.7,4.6510296
E200303121120053136087CF,1,1479083306377578,1479083306377578,1,1.625,12288,-50.0,865.7,4.700117
E200303121120053136087CF,1,1479083306389756,1479083306389756,1,20.3125,12288,-50.0,865.7,4.6448936
E200303121120053136087CF,1,1479083306400647,1479083306400647,1,1.625,12288,-50.0,865.7,4.6755733
E200303121120053136087CF,1,1479083306411115,1479083306411115,1,3.25,12288,-50.0,865.7,4.7369328
E200303121120053136087CF,1,1479083306422115,1479083306422115,1,-26.8125,12288,-50.0,865.7,4.8166995
E200303121120053136087CF,1,1479083306432739,1479083306432739,1,-17.0625,12288,-50.0,865.7,4.7982917
E200303121120053136087CF,1,1479083306443469,1479083306443469,1,-1.625,12288,-50.0,865.7,4.7369328
E200303121120053136087CF,1,1479083306454269,1479083306454269,1,-13.0,12288,-50.0,865.7,4.7737484
E200303121120053136087CF,1,1479083306465339,1479083306465339,1,-13.8125,12288,-50.5,865.7,4.7798843
E200303121120053136087CF,1,1479083306475776,1479083306475776,1,-1.625,12288,-50.5,865.7,4.730797
E200303121120053136087CF,1,1479083306486462,1479083306486462,1,-15.4375,12288,-50.0,865.7,4.7737484
E200303121120053136087CF,1,1479083306497224,1479083306497224,1,-23.5625,12288,-50.5,865.7,4.8228354
E200303121120053136087CF,1,1479083306507728,1479083306507728,1,1.625,12288,-50.5,865.7,4.724661
E200303121120053136087CF,1,1479083306519623,1479083306519623,1,-1.625,12288,-50.5,865.7,4.7553406
E200303121120053136087CF,1,1479083306531703,1479083306531703,1,-1.625,12288,-50.5,865.7,4.718525
E200303121120053136087CF,1,1479083306542299,1479083306542299,1,1.625,12288,-50.5,865.7,4.724661
E200303121120053136087CF,1,1479083306553257,1479083306553257,1,-20.3125,12288,-50.5,865.7,4.8166995
E200303121120053136087CF,1,1479083306563784,1479083306563784,1,8.125,12288,-50.5,865.7,4.7369328
E200303121120053136087CF,1,1479083306576032,1479083306576032,1,-8.125,12288,-50.5,865.7,4.7614765
E200303121120053136087CF,1,1479083306587829,1479083306587829,1,-20.3125,12288,-50.5,865.7,4.8105636
E200303121120053136087CF,1,1479083306599943,1479083306599943,1,4.875,12288,-50.5,865.7,4.7430687
E200303121120053136087CF,1,1479083306611129,1479083306611129,1,8.125,12288,-50.5,865.7,4.706253
E200303121120053136087CF,1,1479083306621539,1479083306621539,1,-4.875,12288,-51.0,865.7,4.7492046
E200303121120053136087CF,1,1479083306632438,1479083306632438,1,-25.1875,12288,-50.5,865.7,4.8105636
E200303121120053136087CF,1,1479083306643235,1479083306643235,1,-3.25,12288,-51.0,865.7,4.7430687
E200303121120053136087CF,1,1479083306655087,1479083306655087,1,4.875,12288,-51.0,865.7,4.7614765
E200303121120053136087CF,1,1479083306666070,1479083306666070,1,-15.4375,12288,-51.0,865.7,4.7798843
E200303121120053136087CF,1,1479083306676701,1479083306676701,1,-25.1875,12288,-51.0,865.7,4.8412433
E200303121120053136087CF,1,1479083306687111,1479083306687111,1,-9.75,12288,-51.5,865.7,4.7369328
E200303121120053136087CF,1,1479083306697780,1479083306697780,1,1.625,12288,-51.5,865.7,4.700117
E200303121120053136087CF,1,1479083306708344,1479083306708344,1,25.1875,12288,-51.0,865.7,4.5958066
E200303121120053136087CF,1,1479083306719033,1479083306719033,1,30.0625,12288,-50.5,865.7,4.6387577
E200303121120053136087CF,1,1479083306729830,1479083306729830,1,-3.25,12288,-51.0,865.7,4.724661
E200303121120053136087CF,1,1479083306740440,1479083306740440,1,-4.875,12288,-51.5,865.7,4.7614765
E200303121120053136087CF,1,1479083306751037,1479083306751037,1,20.3125,12288,-51.5,865.7,4.626486
E200303121120053136087CF,1,1479083306761910,1479083306761910,1,13.8125,12288,-51.0,865.7,4.6694374
E200303121120053136087CF,1,1479083306772725,1479083306772725,1,8.125,12288,-51.0,865.7,4.6755733
E200303121120053136087CF,1,1479083306783186,1479083306783186,1,20.3125,12288,-51.5,865.7,4.6080785
E200303121120053136087CF,1,1479083306793925,1479083306793925,1,-9.75,12288,-51.5,865.7,4.693981
E200303121120053136087CF,1,1479083306804804,1479083306804804,1,8.125,12288,-51.5,865.7,4.6817093
E200303121120053136087CF,1,1479083306815539,1479083306815539,1,-21.9375,12288,-52.0,865.7,4.7798843
E200303121120053136087CF,1,1479083306826166,1479083306826166,1,-9.75,12288,-51.5,865.7,4.7430687
E200303121120053136087CF,1,1479083306836823,1479083306836823,1,15.4375,12288,-51.5,865.7,4.6571655
E200303121120053136087CF,1,1479083306847193,1479083306847193,1,9.75,12288,-52.0,865.7,4.6387577
E200303121120053136087CF,1,1479083306857863,1479083306857863,1,-28.4375,12288,-52.0,865.7,4.7430687
E200303121120053136087CF,1,1479083306868537,1479083306868537,1,-11.375,12288,-52.0,865.7,4.687845
E200303121120053136087CF,1,1479083306880990,1479083306880990,1,1.625,12288,-52.0,865.7,4.6755733
E200303121120053136087CF,1,1479083306891789,1479083306891789,1,-1.625,12288,-52.0,865.7,4.6448936
E200303121120053136087CF,1,1479083306902245,1479083306902245,1,15.4375,12288,-52.5,865.7,4.565127
E200303121120053136087CF,1,1479083306912849,1479083306912849,1,17.0625,12288,-52.5,865.7,4.558991
E200303121120053136087CF,1,1479083306923433,1479083306923433,1,6.5,12288,-52.5,865.7,4.6142144
E200303121120053136087CF,1,1479083306934410,1479083306934410,1,-4.875,12288,-52.5,865.7,4.6633015
E200303121120053136087CF,1,1479083306944940,1479083306944940,1,11.375,12288,-52.5,865.7,4.577399
E200303121120053136087CF,1,1479083306957186,1479083306957186,1,-34.9375,12288,-52.5,865.7,4.706253
E200303121120053136087CF,1,1479083306967617,1479083306967617,1,-11.375,12288,-52.0,865.7,4.6203504
E200303121120053136087CF,1,1479083306978406,1479083306978406,1,-9.75,12288,-52.5,865.7,4.626486
E200303121120053136087CF,1,1479083306988919,1479083306988919,1,-23.5625,12288,-53.0,865.7,4.6448936
E200303121120053136087CF,1,1479083306999773,1479083306999773,1,30.0625,12288,-52.0,865.7,4.460816
E200303121120053136087CF,1,1479083307010354,1479083307010354,1,-13.0,12288,-53.5,865.7,4.5896707
E200303121120053136087CF,1,1479083307020783,1479083307020783,1,-13.8125,12288,-53.5,865.7,4.6080785
E200303121120053136087CF,1,1479083307031521,1479083307031521,1,13.0,12288,-53.0,865.7,4.473088
E200303121120053136087CF,1,1479083307042213,1479083307042213,1,-9.75,12288,-52.5,865.7,4.5958066
E200303121120053136087CF,1,1479083307052913,1479083307052913,1,3.25,12288,-53.0,865.7,4.534447
E200303121120053136087CF,1,1479083307063979,1479083307063979,1,-4.875,12288,-52.5,865.7,4.534447
E200303121120053136087CF,1,1479083307074774,1479083307074774,1,11.375,12288,-53.0,865.7,4.466952
E200303121120053136087CF,1,1479083307085292,1479083307085292,1,-4.875,12288,-53.5,865.7,4.552855
E200303121120053136087CF,1,1479083307097281,1479083307097281,1,15.4375,12288,-52.5,865.7,4.4424086
E200303121120053136087CF,1,1479083307107927,1479083307107927,1,-1.625,12288,-53.0,865.7,4.4853597
E200303121120053136087CF,1,1479083307118337,1479083307118337,1,-31.6875,12288,-53.0,865.7,4.552855
E200303121120053136087CF,1,1479083307130648,1479083307130648,1,13.0,12288,-53.5,865.7,4.4853597
E200303121120053136087CF,1,1479083307141578,1479083307141578,1,-3.25,12288,-53.0,865.7,4.473088
E200303121120053136087CF,1,1479083307153369,1479083307153369,1,6.5,12288,-53.5,865.7,4.4546804
E200303121120053136087CF,1,1479083307163768,1479083307163768,1,-13.0,12288,-53.0,865.7,4.534447
E200303121120053136087CF,1,1479083307174708,1479083307174708,1,-23.5625,12288,-54.0,865.7,4.571263
E200303121120053136087CF,1,1479083307185378,1479083307185378,1,15.4375,12288,-53.0,865.7,4.3626413
E200303121120053136087CF,1,1479083307195882,1479083307195882,1,3.25,12288,-53.0,865.7,4.405593
E200303121120053136087CF,1,1479083307206473,1479083307206473,1,1.625,12288,-53.5,865.7,4.411729
E200303121120053136087CF,1,1479083307217005,1479083307217005,1,-17.0625,12288,-53.5,865.7,4.4853597
E200303121120053136087CF,1,1479083307227914,1479083307227914,1,-13.0,12288,-53.5,865.7,4.4792237
E200303121120053136087CF,1,1479083307238682,1479083307238682,1,-17.0625,12288,-54.0,865.7,4.4240007
E200303121120053136087CF,1,1479083307249024,1479083307249024,1,21.9375,12288,-54.0,865.7,4.264467
E200303121120053136087CF,1,1479083307259652,1479083307259652,1,3.25,12288,-54.0,865.7,4.313554
E200303121120053136087CF,1,1479083307270265,1479083307270265,1,-18.6875,12288,-54.0,865.7,4.3258257
E200303121120053136087CF,1,1479083307280949,1479083307280949,1,-21.9375,12288,-54.0,865.7,4.3380976
E200303121120053136087CF,1,1479083307291626,1479083307291626,1,-23.5625,12288,-54.5,865.7,4.3565054
E200303121120053136087CF,1,1479083307302662,1479083307302662,1,1.625,12288,-54.5,865.7,4.295146
E200303121120053136087CF,1,1479083307313272,1479083307313272,1,-20.3125,12288,-54.5,865.7,4.3565054
E200303121120053136087CF,1,1479083307323809,1479083307323809,1,-8.125,12288,-54.0,865.7,4.301282
E200303121120053136087CF,1,1479083307334477,1479083307334477,1,9.75,12288,-53.5,865.7,4.233787
E200303121120053136087CF,1,1479083307345100,1479083307345100,1,1.625,12288,-54.0,865.7,4.252195
E200303121120053136087CF,1,1479083307355887,1479083307355887,1,-36.5625,12288,-54.5,865.7,4.313554
E200303121120053136087CF,1,1479083307366568,1479083307366568,1,9.75,12288,-54.5,865.7,4.1969714
E200303121120053136087CF,1,1479083307377307,1479083307377307,1,-18.6875,12288,-54.0,865.7,4.307418
E200303121120053136087CF,1,1479083307388305,1479083307388305,1,-36.5625,12288,-54.5,865.7,4.3503695
E200303121120053136087CF,1,1479083307398813,1479083307398813,1,-8.125,12288,-53.5,865.7,4.2706027
E200303121120053136087CF,1,1479083307409262,1479083307409262,1,-33.3125,12288,-55.0,865.7,4.3258257
E200303121120053136087CF,1,1479083307420316,1479083307420316,1,-15.4375,12288,-54.5,865.7,4.2706027
E200303121120053136087CF,1,1479083307430634,1479083307430634,1,-4.875,12288,-54.5,865.7,4.233787
E200303121120053136087CF,1,1479083307441498,1479083307441498,1,0.0,12288,-54.5,865.7,4.2706027
E200303121120053136087CF,1,1479083307452273,1479083307452273,1,-11.375,12288,-54.5,865.7,4.215379
E200303121120053136087CF,1,1479083307462925,1479083307462925,1,-15.4375,12288,-54.5,865.7,4.2031074
E200303121120053136087CF,1,1479083307473742,1479083307473742,1,25.1875,12288,-54.0,865.7,4.1172047
E200303121120053136087CF,1,1479083307484550,1479083307484550,1,-15.4375,12288,-55.5,865.7,4.15402
E200303121120053136087CF,1,1479083307494974,1479083307494974,1,26.8125,12288,-55.0,865.7,4.086525
E200303121120053136087CF,1,1479083307507239,1479083307507239,1,23.5625,12288,-55.0,865.7,4.0558453
E200303121120053136087CF,1,1479083307518145,1479083307518145,1,-26.8125,12288,-55.0,865.7,4.2031074
E200303121120053136087CF,1,1479083307528871,1479083307528871,1,-9.75,12288,-54.5,865.7,4.098797
E200303121120053136087CF,1,1479083307539368,1479083307539368,1,6.5,12288,-55.0,865.7,4.0190296
E200303121120053136087CF,1,1479083307550009,1479083307550009,1,1.625,12288,-55.0,865.7,4.080389
E200303121120053136087CF,1,1479083307560666,1479083307560666,1,-39.875,12288,-55.5,865.7,4.2092433
E200303121120053136087CF,1,1479083307571361,1479083307571361,1,0.0,12288,-56.0,865.7,4.0374374
E200303121120053136087CF,1,1479083307582225,1479083307582225,1,-13.0,12288,-55.0,865.7,4.0497093
E200303121120053136087CF,1,1479083307592989,1479083307592989,1,-18.6875,12288,-55.5,865.7,4.104933
E200303121120053136087CF,1,1479083307603411,1479083307603411,1,-9.75,12288,-55.0,865.7,4.0497093
E200303121120053136087CF,1,1479083307614176,1479083307614176,1,-47.1875,12288,-55.0,865.7,4.098797
E200303121120053136087CF,1,1479083307625105,1479083307625105,1,11.375,12288,-55.5,865.7,3.8656316
E200303121120053136087CF,1,1479083307635527,1479083307635527,1,3.25,12288,-55.5,865.7,3.8410878
E200303121120053136087CF,1,1479083307646510,1479083307646510,1,-33.3125,12288,-55.0,865.7,3.9576705
E200303121120053136087CF,1,1479083307656842,1479083307656842,1,0.0,12288,-56.5,865.7,3.8533597
E200303121120053136087CF,1,1479083307667729,1479083307667729,1,-17.0625,12288,-56.0,865.7,3.9085832
E200303121120053136087CF,1,1479083307678082,1479083307678082,1,-28.4375,12288,-56.0,865.7,3.9147189
E200303121120053136087CF,1,1479083307688741,1479083307688741,1,-31.6875,12288,-56.5,865.7,3.9515345
E200303121120053136087CF,1,1479083307699359,1479083307699359,1,3.25,12288,-55.0,865.7,3.8042724
E200303121120053136087CF,1,1479083307710091,1479083307710091,1,-21.9375,12288,-56.0,865.7,3.8472238
E200303121120053136087CF,1,1479083307721013,1479083307721013,1,26.8125,12288,-56.5,865.7,3.6999617
E200303121120053136087CF,1,1479083307731396,1479083307731396,1,-17.0625,12288,-56.5,865.7,3.8533597
E200303121120053136087CF,1,1479083307741995,1479083307741995,1,-28.4375,12288,-56.5,865.7,3.7735927
E200303121120053136087CF,1,1479083307752923,1479083307752923,1,-21.9375,12288,-56.5,865.7,3.8349519
E200303121120053136087CF,1,1479083307763532,1479083307763532,1,-21.9375,12288,-56.0,865.7,3.8165443
E200303121120053136087CF,1,1479083307773942,1479083307773942,1,3.25,12288,-56.5,865.7,3.7367773
E200303121120053136087CF,1,1479083307784674,1479083307784674,1,-28.4375,12288,-56.0,865.7,3.828816
E200303121120053136087CF,1,1479083307795594,1479083307795594,1,25.1875,12288,-56.5,865.7,3.6140587
E200303121120053136087CF,1,1479083307805890,1479083307805890,1,-13.8125,12288,-56.0,865.7,3.7735927
E200303121120053136087CF,1,1479083307816423,1479083307816423,1,-1.625,12288,-56.5,865.7,3.7613208
E200303121120053136087CF,1,1479083307827337,1479083307827337,1,-30.0625,12288,-56.0,865.7,3.7920005
E200303121120053136087CF,1,1479083307837772,1479083307837772,1,11.375,12288,-56.5,865.7,3.577243
E200303121120053136087CF,1,1479083307850248,1479083307850248,1,9.75,12288,-56.5,865.7,3.5526996
E200303121120053136087CF,1,1479083307860950,1479083307860950,1,-56.9375,12288,-57.0,865.7,3.742913
E200303121120053136087CF,1,1479083307871532,1479083307871532,1,-20.3125,12288,-57.0,865.7,3.6386025
E200303121120053136087CF,1,1479083307882307,1479083307882307,1,-13.8125,12288,-56.5,865.7,3.6017869
E200303121120053136087CF,1,1479083307893179,1479083307893179,1,-25.1875,12288,-56.5,865.7,3.4545248
E200303121120053136087CF,1,1479083307903802,1479083307903802,1,0.0,12288,-57.0,865.7,3.5220199
E200303121120053136087CF,1,1479083307914505,1479083307914505,1,1.625,12288,-57.5,865.7,3.5342917
E200303121120053136087CF,1,1479083307925331,1479083307925331,1,1.625,12288,-57.5,865.7,3.4667966
E200303121120053136087CF,1,1479083307935895,1479083307935895,1,-1.625,12288,-57.0,865.7,3.4913402
E200303121120053136087CF,1,1479083307946500,1479083307946500,1,-26.8125,12288,-56.5,865.7,3.5465636
E200303121120053136087CF,1,1479083307957268,1479083307957268,1,-36.5625,12288,-56.5,865.7,3.595651
E200303121120053136087CF,1,1479083307967656,1479083307967656,1,6.5,12288,-57.0,865.7,3.4422529
E200303121120053136087CF,1,1479083307978337,1479083307978337,1,9.75,12288,-56.0,865.7,3.3870296
E200303121120053136087CF,1,1479083307989618,1479083307989618,1,-1.625,12288,-57.0,865.7,3.4422529
E200303121120053136087CF,1,1479083308000713,1479083308000713,1,-48.8125,12288,-57.5,865.7,3.5342917
E200303121120053136087CF,1,1479083308011460,1479083308011460,1,-1.625,12288,-56.0,865.7,3.429981
E200303121120053136087CF,1,1479083308021863,1479083308021863,1,-56.9375,12288,-56.0,865.7,3.6079228
E200303121120053136087CF,1,1479083308032685,1479083308032685,1,-9.75,12288,-57.0,865.7,3.417709
E200303121120053136087CF,1,1479083308043252,1479083308043252,1,-1.625,12288,-56.5,865.7,3.4790685
E200303121120053136087CF,1,1479083308053914,1479083308053914,1,-8.125,12288,-56.0,865.7,3.4483888
E200303121120053136087CF,1,1479083308066162,1479083308066162,1,13.8125,12288,-56.5,865.7,3.3747578
E200303121120053136087CF,1,1479083308078545,1479083308078545,1,-30.0625,12288,-56.5,865.7,3.5342917
E200303121120053136087CF,1,1479083308089218,1479083308089218,1,-56.9375,12288,-56.0,865.7,3.6079228
E200303121120053136087CF,1,1479083308099872,1479083308099872,1,-70.75,12288,-57.0,865.7,3.6570103
E200303121120053136087CF,1,1479083308110357,1479083308110357,1,18.6875,12288,-57.5,865.7,3.362486
E200303121120053136087CF,1,1479083308121350,1479083308121350,1,4.875,12288,-57.0,865.7,3.3931656
E200303121120053136087CF,1,1479083308131733,1479083308131733,1,-8.125,12288,-57.0,865.7,3.5404277
E200303121120053136087CF,1,1479083308142768,1479083308142768,1,13.0,12288,-56.5,865.7,3.3993015
E200303121120053136087CF,1,1479083308153309,1479083308153309,1,28.4375,12288,-56.5,865.7,3.3072627
E200303121120053136087CF,1,1479083308164553,1479083308164553,1,4.875,12288,-58.5,865.7,3.4667966
E200303121120053136087CF,1,1479083308175026,1479083308175026,1,-20.3125,12288,-57.0,865.7,3.5281558
E200303121120053136087CF,1,1479083308185905,1479083308185905,1,8.125,12288,-56.5,865.7,3.362486
E200303121120053136087CF,1,1479083308199322,1479083308199322,1,-17.0625,12288,-56.0,865.7,3.5404277
E200303121120053136087CF,1,1479083308209843,1479083308209843,1,-33.3125,12288,-56.5,865.7,3.5649714
E200303121120053136087CF,1,1479083308220567,1479083308220567,1,18.6875,12288,-57.5,865.7,3.4422529
E200303121120053136087CF,1,1479083308231333,1479083308231333,1,-3.25,12288,-55.5,865.7,3.4483888
E200303121120053136087CF,1,1479083308241925,1479083308241925,1,-23.5625,12288,-57.0,865.7,3.4852045
E200303121120053136087CF,1,1479083308252733,1479083308252733,1,-15.4375,12288,-56.5,865.7,3.4545248
E200303121120053136087CF,1,1479083308263321,1479083308263321,1,47.1875,12288,-57.0,865.7,3.276583
E200303121120053136087CF,1,1479083308273793,1479083308273793,1,-4.875,12288,-57.0,865.7,3.4545248
E200303121120053136087CF,1,1479083308284491,1479083308284491,1,-74.0,12288,-56.5,865.7,3.669282
E200303121120053136087CF,1,1479083308295390,1479083308295390,1,6.5,12288,-56.5,865.7,3.3747578
E200303121120053136087CF,1,1479083308306016,1479083308306016,1,-18.6875,12288,-55.5,865.7,3.5281558
E200303121120053136087CF,1,1479083308316342,1479083308316342,1,-30.0625,12288,-57.0,865.7,3.5526996
E200303121120053136087CF,1,1479083308327215,1479083308327215,1,-21.9375,12288,-56.5,865.7,3.4545248
E200303121120053136087CF,1,1479083308337561,1479083308337561,1,13.8125,12288,-57.0,865.7,3.4115732
E200303121120053136087CF,1,1479083308348246,1479083308348246,1,-45.5625,12288,-56.0,865.7,3.503612
E200303121120053136087CF,1,1479083308358784,1479083308358784,1,9.75,12288,-57.5,865.7,3.4115732
E200303121120053136087CF,1,1479083308369654,1479083308369654,1,34.9375,12288,-57.0,865.7,3.3195345
E200303121120053136087CF,1,1479083308380434,1479083308380434,1,1.625,12288,-56.5,865.7,3.4667966
E200303121120053136087CF,1,1479083308390775,1479083308390775,1,-3.25,12288,-57.0,865.7,3.417709
E200303121120053136087CF,1,1479083308401572,1479083308401572,1,-43.9375,12288,-57.5,865.7,3.5711074
E200303121120053136087CF,1,1479083308412238,1479083308412238,1,11.375,12288,-57.0,865.7,3.4054372
E200303121120053136087CF,1,1479083308423012,1479083308423012,1,-15.4375,12288,-56.0,865.7,3.417709
E200303121120053136087CF,1,1479083308433572,1479083308433572,1,13.8125,12288,-57.0,865.7,3.35635
E200303121120053136087CF,1,1479083308444206,1479083308444206,1,-23.5625,12288,-56.5,865.7,3.4729326
E200303121120053136087CF,1,1479083308454867,1479083308454867,1,-8.125,12288,-57.0,865.7,3.4054372
E200303121120053136087CF,1,1479083308465493,1479083308465493,1,17.0625,12288,-56.5,865.7,3.3993015
E200303121120053136087CF,1,1479083308476118,1479083308476118,1,15.4375,12288,-56.5,865.7,3.362486
E200303121120053136087CF,1,1479083308486674,1479083308486674,1,-20.3125,12288,-57.0,865.7,3.4852045
E200303121120053136087CF,1,1479083308497560,1479083308497560,1,18.6875,12288,-57.0,865.7,3.3931656
E200303121120053136087CF,1,1479083308508060,1479083308508060,1,-1.625,12288,-56.5,865.7,3.429981
E200303121120053136087CF,1,1479083308518676,1479083308518676,1,-21.9375,12288,-56.5,865.7,3.4545248
E200303121120053136087CF,1,1479083308529628,1479083308529628,1,20.3125,12288,-56.5,865.7,3.4115732
E200303121120053136087CF,1,1479083308540129,1479083308540129,1,-39.875,12288,-56.5,865.7,3.5711074
E200303121120053136087CF,1,1479083308550923,1479083308550923,1,-20.3125,12288,-56.5,865.7,3.4483888
E200303121120053136087CF,1,1479083308561721,1479083308561721,1,-23.5625,12288,-57.0,865.7,3.5220199
E200303121120053136087CF,1,1479083308573543,1479083308573543,1,-13.0,12288,-57.5,865.7,3.4606607
E200303121120053136087CF,1,1479083308584448,1479083308584448,1,11.375,12288,-57.5,865.7,3.3686218
E200303121120053136087CF,1,1479083308594846,1479083308594846,1,-43.9375,12288,-56.5,865.7,3.5281558
E200303121120053136087CF,1,1479083308605452,1479083308605452,1,3.25,12288,-56.5,865.7,3.4054372
E200303121120053136087CF,1,1479083308616310,1479083308616310,1,-13.8125,12288,-56.0,865.7,3.436117
E200303121120053136087CF,1,1479083308626817,1479083308626817,1,-3.25,12288,-56.5,865.7,3.4483888
E200303121120053136087CF,1,1479083308637426,1479083308637426,1,13.0,12288,-57.0,865.7,3.3993015
E200303121120053136087CF,1,1479083308648427,1479083308648427,1,8.125,12288,-56.5,865.7,3.4054372
E200303121120053136087CF,1,1479083308659068,1479083308659068,1,-30.0625,12288,-57.5,865.7,3.5404277
E200303121120053136087CF,1,1479083308669675,1479083308669675,1,-34.9375,12288,-56.5,865.7,3.5588355
E200303121120053136087CF,1,1479083308680019,1479083308680019,1,-33.3125,12288,-56.5,865.7,3.5711074
E200303121120053136087CF,1,1479083308690808,1479083308690808,1,-45.5625,12288,-56.5,865.7,3.577243
E200303121120053136087CF,1,1479083308701500,1479083308701500,1,-97.625,12288,-56.5,865.7,3.7981365
E200303121120053136087CF,1,1479083308712071,1479083308712071,1,-21.9375,12288,-56.5,865.7,3.4852045
E200303121120053136087CF,1,1479083308722467,1479083308722467,1,15.4375,12288,-56.5,865.7,3.35635
E200303121120053136087CF,1,1479083308733046,1479083308733046,1,-52.0625,12288,-56.5,865.7,3.6140587
E200303121120053136087CF,1,1479083308743748,1479083308743748,1,26.8125,12288,-57.5,865.7,3.3256702
