-41.5,0.2638446955163303,4.875
-41.0,0.28838838812250056,4.875
-41.0,0.2945243112740431,0.8125
-41.5,0.28838838812250056,4.875
-41.0,0.25157284921324513,6.5
-41.5,0.25770877236478773,7.3125
-41.0,0.2454369260617026,8.9375
-41.5,0.2761165418194154,2.4375
-41.5,0.2454369260617026,8.9375
-41.5,0.25157284921324513,7.3125
-41.5,0.25157284921324513,4.875
-41.0,0.2454369260617026,8.9375
-41.5,0.25157284921324513,7.3125
-41.0,0.30679615757712825,0.0
-41.5,0.2699806186678728,6.5
-41.5,0.25770877236478773,6.5
-41.5,0.2761165418194154,0.8125
-41.5,0.2761165418194154,2.4375
-41.5,0.23316507975861744,8.9375
-41.5,0.28225246497095796,1.625
-41.5,0.25770877236478773,4.875
-41.5,0.25770877236478773,5.6875
-41.5,0.28225246497095796,4.875
-41.5,0.2699806186678728,3.25
-41.0,0.25157284921324513,9.75
-41.5,0.28225246497095796,1.625
-41.5,0.2454369260617026,6.5
-41.5,0.25157284921324513,7.3125
-41.5,0.25157284921324513,7.3125
-41.5,0.2761165418194154,3.25
-41.5,0.28838838812250056,4.875
-41.5,0.25157284921324513,7.3125
-41.0,0.2761165418194154,4.875
-41.5,0.30066023442558565,1.625
-41.0,0.2945243112740431,0.0
-41.5,0.2761165418194154,3.25
-41.0,0.28838838812250056,1.625
-41.5,0.2699806186678728,5.6875
-41.5,0.25157284921324513,7.3125
-41.0,0.2699806186678728,3.25
-41.5,0.2761165418194154,4.875
-41.0,0.23930100291016002,8.125
-41.5,0.2638446955163303,7.3125
-41.5,0.2699806186678728,7.3125
-41.0,0.2638446955163303,5.6875
-41.5,0.30679615757712825,0.8125
-41.0,0.25157284921324513,8.125
-41.5,0.3129320807286708,1.625
-41.0,0.2761165418194154,4.875
-41.0,0.2761165418194154,4.875
-41.5,0.2761165418194154,8.125
-41.5,0.28225246497095796,3.25
-41.5,0.30679615757712825,0.0
-41.5,0.2638446955163303,7.3125
-41.5,0.2761165418194154,4.875
-41.5,0.25770877236478773,8.125
-41.0,0.2638446955163303,6.5
-41.0,0.2761165418194154,2.4375
-41.5,0.28225246497095796,3.25
-41.0,0.2638446955163303,5.6875
-41.0,0.3313398501832985,-2.4375
-41.0,0.2638446955163303,4.875
-41.0,0.28838838812250056,3.25
-41.5,0.30679615757712825,0.8125
-41.0,0.2761165418194154,4.875
-41.5,0.2699806186678728,5.6875
-41.0,0.28838838812250056,1.625
-41.0,0.28838838812250056,3.25
-41.5,0.2699806186678728,6.5
-41.5,0.2699806186678728,5.6875
-41.5,0.2638446955163303,4.875
-41.0,0.28838838812250056,2.4375
-41.5,0.28838838812250056,4.875
-41.5,0.2761165418194154,2.4375
-41.5,0.28838838812250056,3.25
-41.5,0.2699806186678728,6.5
-41.5,0.2454369260617026,8.9375
-41.5,0.2945243112740431,3.25
-41.5,0.28838838812250056,1.625
-41.0,0.25770877236478773,7.3125
-41.5,0.2699806186678728,5.6875
-41.5,0.2699806186678728,8.125
-41.5,0.2699806186678728,7.3125
-41.0,0.28838838812250056,3.25
-41.5,0.2761165418194154,4.875
-41.5,0.2638446955163303,8.125
-41.5,0.28838838812250056,3.25
-41.0,0.32520392703175593,-2.4375
-41.0,0.2699806186678728,2.4375
-41.0,0.2761165418194154,3.25
-41.5,0.25157284921324513,7.3125
-41.0,0.2699806186678728,4.875
-41.5,0.28838838812250056,1.625
-41.5,0.2638446955163303,3.25
-41.5,0.2761165418194154,5.6875
-41.5,0.30066023442558565,0.0
-41.0,0.28838838812250056,0.8125
-41.5,0.2945243112740431,0.8125
-41.0,0.28838838812250056,3.25
-41.5,0.25770877236478773,5.6875
-41.5,0.2454369260617026,9.75
-41.5,0.25770877236478773,6.5
-41.5,0.2638446955163303,8.9375
-41.5,0.30679615757712825,-0.8125
-41.5,0.2638446955163303,4.875
-41.5,0.28225246497095796,3.25
-41.5,0.25770877236478773,7.3125
-41.5,0.2699806186678728,5.6875
-41.0,0.2638446955163303,7.3125
-41.5,0.30066023442558565,2.4375
-41.5,0.28225246497095796,6.5
-41.5,0.30066023442558565,1.625
-41.5,0.30679615757712825,0.8125
-41.0,0.2945243112740431,2.4375
-41.5,0.28225246497095796,5.6875
-41.5,0.25157284921324513,7.3125
-41.5,0.2699806186678728,8.9375
-41.0,0.2699806186678728,5.6875
-41.5,0.30066023442558565,3.25
-41.0,0.3129320807286708,0.8125
-41.5,0.3129320807286708,1.625
-41.0,0.30066023442558565,6.5
-41.0,0.3190680038802134,0.8125
-41.0,0.3129320807286708,2.4375
-41.0,0.28225246497095796,7.3125
-41.0,0.28225246497095796,8.9375
-41.5,0.3190680038802134,3.25
-41.0,0.28838838812250056,8.125
-41.0,0.3313398501832985,3.25
-41.0,0.3374757733348411,1.625
-41.0,0.3129320807286708,5.6875
-41.0,0.3129320807286708,5.6875
-41.0,0.3374757733348411,4.875
-41.0,0.3313398501832985,2.4375
-41.0,0.3436116964863836,0.0
-41.0,0.3374757733348411,2.4375
-40.5,0.3313398501832985,7.3125
-41.0,0.3129320807286708,7.3125
-41.0,0.32520392703175593,8.125
-41.0,0.34974761963792617,1.625
-41.0,0.3313398501832985,6.5
-41.0,0.30066023442558565,10.5625
-41.0,0.3374757733348411,3.25
-41.0,0.3436116964863836,3.25
-41.0,0.3129320807286708,8.9375
-41.0,0.3129320807286708,8.9375
-41.0,0.3129320807286708,8.125
-41.0,0.32520392703175593,4.875
-41.5,0.3374757733348411,4.875
-41.0,0.3313398501832985,4.875
-41.0,0.3313398501832985,4.875
-41.0,0.32520392703175593,6.5
-41.5,0.32520392703175593,3.25
-41.5,0.3190680038802134,6.5
-41.5,0.3129320807286708,6.5
-41.5,0.30679615757712825,5.6875
-41.5,0.3436116964863836,1.625
-41.5,0.32520392703175593,6.5
-41.5,0.3190680038802134,5.6875
-41.5,0.32520392703175593,2.4375
-41.5,0.28838838812250056,8.9375
-41.5,0.32520392703175593,2.4375
-41.5,0.3374757733348411,0.8125
-42.0,0.30679615757712825,6.5
-41.5,0.3129320807286708,6.5
-42.0,0.30066023442558565,8.125
-41.5,0.3436116964863836,0.8125
-42.0,0.3190680038802134,5.6875
-42.0,0.3374757733348411,0.0
-41.5,0.30066023442558565,6.5
-42.0,0.32520392703175593,2.4375
-42.0,0.3374757733348411,2.4375
-42.0,0.32520392703175593,1.625
-42.0,0.3129320807286708,6.5
-42.0,0.35588354278946877,-4.875
-42.0,0.3313398501832985,4.875
-42.0,0.3313398501832985,4.875
-42.0,0.32520392703175593,4.875
-42.0,0.3190680038802134,1.625
-42.0,0.32520392703175593,6.5
-42.0,0.3374757733348411,1.625
-42.0,0.28838838812250056,10.5625
-42.0,0.3313398501832985,3.25
-42.0,0.3313398501832985,2.4375
-42.0,0.36815538909255385,-0.8125
-42.0,0.3190680038802134,7.3125
-42.5,0.3620194659410113,2.4375
-42.5,0.30679615757712825,8.9375
-42.0,0.3313398501832985,5.6875
-42.0,0.3436116964863836,3.25
-42.5,0.34974761963792617,5.6875
-42.5,0.32520392703175593,5.6875
-42.5,0.32520392703175593,5.6875
-42.5,0.3436116964863836,4.875
-42.5,0.37429131224409645,-0.8125
-42.5,0.34974761963792617,4.875
-42.0,0.3436116964863836,7.3125
-42.5,0.3436116964863836,5.6875
-42.5,0.3374757733348411,5.6875
-42.5,0.35588354278946877,2.4375
-42.5,0.3436116964863836,7.3125
-43.0,0.36815538909255385,4.875
-42.5,0.35588354278946877,7.3125
-42.5,0.36815538909255385,7.3125
-42.5,0.34974761963792617,8.9375
-43.0,0.37429131224409645,8.9375
-42.5,0.37429131224409645,8.9375
-43.0,0.37429131224409645,7.3125
-42.5,0.380427235395639,8.125
-43.0,0.380427235395639,6.5
-43.0,0.4172427743048944,4.875
-43.0,0.39269908169872414,8.125
-43.0,0.39269908169872414,8.125
-43.0,0.3865631585471816,10.5625
-43.0,0.44178646691106466,2.4375
-42.5,0.4111068511533518,7.3125
-43.0,0.42337869745643697,5.6875
-43.0,0.4049709280018093,8.9375
-43.0,0.4356505437595221,3.25
-42.5,0.4356505437595221,2.4375
-43.0,0.4111068511533518,10.5625
-43.0,0.42337869745643697,8.125
-43.0,0.47860200582032003,2.4375
-43.0,0.4295146206079795,9.75
-43.0,0.4908738521234052,-0.8125
-43.0,0.4970097752749477,-1.625
-43.0,0.4295146206079795,8.9375
-43.0,0.4479223900626072,4.875
-43.0,0.4540583132141498,5.6875
-43.0,0.4970097752749477,1.625
-43.0,0.48473792897186263,4.875
-43.0,0.48473792897186263,4.875
-43.5,0.4663301595172349,6.5
-43.0,0.48473792897186263,4.875
-43.0,0.46019423636569234,6.5
-43.5,0.5890486225480862,-10.5625
-43.0,0.4663301595172349,9.75
-43.5,0.4908738521234052,6.5
-43.5,0.4663301595172349,8.9375
-43.5,0.5092816215780329,6.5
-43.5,0.48473792897186263,7.3125
-43.5,0.5338253141842031,2.4375
-43.5,0.4970097752749477,3.25
-43.5,0.5276893910326605,1.625
-43.5,0.5276893910326605,2.4375
-43.5,0.4970097752749477,7.3125
-43.5,0.5645049299419159,-0.8125
-43.5,0.5154175447295755,7.3125
-43.0,0.5276893910326605,9.75
-43.5,0.5338253141842031,9.75
-43.5,0.607456392002714,-6.5
-43.5,0.5276893910326605,7.3125
-43.5,0.5645049299419159,5.6875
-43.5,0.5829126993965437,2.4375
-43.5,0.5583690067903734,7.3125
-43.5,0.5890486225480862,1.625
-43.5,0.619728238305799,2.4375
-43.5,0.5951845456996288,6.5
-43.5,0.5399612373357456,16.25
-43.5,0.5829126993965437,8.125
-43.5,0.6320000846088841,0.8125
-43.5,0.5767767762450011,11.375
-43.5,0.5583690067903734,12.1875
-43.5,0.5890486225480862,8.125
-43.5,0.5951845456996288,5.6875
-43.5,0.6258641614573416,3.25
-44.0,0.6013204688511713,8.125
-43.5,0.6135923151542565,5.6875
-43.5,0.6258641614573416,3.25
-43.5,0.6258641614573416,3.25
-43.5,0.5951845456996288,7.3125
-43.5,0.6013204688511713,10.5625
-44.0,0.6933593161243098,-2.4375
-44.0,0.619728238305799,7.3125
-44.0,0.6320000846088841,3.25
-44.0,0.6258641614573416,7.3125
-43.5,0.6320000846088841,7.3125
-44.0,0.607456392002714,10.5625
-44.0,0.6381360077604268,8.125
-44.0,0.6688156235181395,4.875
-44.0,0.6933593161243098,-1.625
-43.5,0.6810874698212247,2.4375
-44.0,0.6872233929727672,1.625
-44.0,0.6504078540635119,8.9375
-44.0,0.6442719309119693,8.125
-44.0,0.6749515466696822,4.875
-44.0,0.7117670855789375,0.0
-44.0,0.7363107781851077,0.0
-44.0,0.7301748550335652,-0.8125
-44.0,0.705631162427395,2.4375
-44.0,0.7424467013366504,-1.625
-44.5,0.7240389318820226,1.625
-44.0,0.7301748550335652,0.8125
-44.5,0.6933593161243098,8.9375
-44.5,0.7301748550335652,2.4375
-44.5,0.7363107781851077,3.25
-44.5,0.7731263170943632,-4.875
-44.5,0.760854470791278,1.625
-44.5,0.7363107781851077,1.625
-44.5,0.7424467013366504,7.3125
-44.5,0.7424467013366504,3.25
-44.5,0.7731263170943632,-1.625
-44.5,0.7485826244881929,5.6875
-45.0,0.7731263170943632,2.4375
-44.5,0.7731263170943632,3.25
-45.0,0.7853981633974483,2.4375
-44.5,0.7424467013366504,8.9375
-45.0,0.803805932852076,0.8125
-44.5,0.7792622402459057,5.6875
-45.0,0.7547185476397354,8.125
-45.0,0.8344855486097889,-0.8125
-45.0,0.8528933180644165,-4.875
-45.0,0.8344855486097889,-3.25
-45.0,0.8406214717613314,0.8125
-45.0,0.8528933180644165,2.4375
-45.0,0.8344855486097889,2.4375
-45.0,0.8222137023067037,5.6875
-45.5,0.8774370106705868,0.8125
-45.5,0.8835729338221293,0.8125
-45.0,0.859029241215959,7.3125
-45.5,0.9019807032767571,4.875
-45.5,0.9019807032767571,0.8125
-45.5,0.9387962421860124,0.0
-45.5,0.9510680884890975,-0.8125
-45.5,0.9019807032767571,8.9375
-45.5,0.9019807032767571,7.3125
-45.5,0.9081166264282996,8.125
-45.5,0.9756117810952678,-0.8125
-45.5,0.9510680884890975,1.625
-45.5,0.9081166264282996,9.75
-45.5,0.9387962421860124,3.25
-45.5,0.9572040116406401,3.25
-45.5,0.9756117810952678,1.625
-45.5,0.9878836273983529,-0.8125
-45.5,0.9694758579437253,3.25
-45.5,0.9203884727313847,10.5625
-45.5,0.9572040116406401,1.625
-45.5,0.9510680884890975,1.625
-45.5,0.9510680884890975,6.5
-45.5,0.9572040116406401,-0.8125
-45.5,0.944932165337555,0.8125
-45.5,0.9326603190344698,0.0
-45.5,0.8651651643675016,10.5625
-45.5,0.9387962421860124,-2.4375
-45.5,0.9081166264282996,1.625
-45.5,0.8774370106705868,4.875
-45.5,0.9081166264282996,-2.4375
-45.5,0.9142525495798421,-1.625
-45.0,0.8222137023067037,8.125
-45.0,0.8160777791551611,8.125
-45.0,0.8283496254582462,6.5
-45.0,0.8283496254582462,2.4375
-45.0,0.7853981633974483,7.3125
-45.0,0.8344855486097889,-2.4375
-44.5,0.7669903939428205,6.5
-44.5,0.7792622402459057,3.25
-44.5,0.7731263170943632,0.0
-44.5,0.7669903939428205,3.25
-44.5,0.7669903939428205,0.0
-44.5,0.7240389318820226,4.875
-44.0,0.7547185476397354,2.4375
-44.0,0.7240389318820226,0.8125
-44.0,0.7424467013366504,0.8125
-43.5,0.6994952392758523,3.25
-43.5,0.7179030087304801,1.625
-43.5,0.7179030087304801,0.0
-43.5,0.6749515466696822,4.875
-43.0,0.6994952392758523,0.0
-43.0,0.6994952392758523,2.4375
-42.5,0.6872233929727672,3.25
-42.5,0.6688156235181395,4.875
-42.5,0.6688156235181395,5.6875
-42.0,0.6258641614573416,10.5625
-42.0,0.662679700366597,4.875
-41.5,0.6688156235181395,5.6875
-41.5,0.6933593161243098,3.25
-41.5,0.6810874698212247,7.3125
-41.0,0.6994952392758523,4.875
-41.0,0.7669903939428205,-4.875
-40.5,0.7363107781851077,2.4375
-40.5,0.7485826244881929,5.6875
-40.5,0.7731263170943632,5.6875
-40.0,0.803805932852076,0.0
-39.5,0.8406214717613314,4.875
-39.5,0.8467573949128739,7.3125
-39.0,0.8897088569736719,5.6875
-39.0,0.9326603190344698,4.875
-38.5,0.9694758579437253,6.5
-38.5,1.0062913968529805,5.6875
-38.0,1.0615147052168636,4.875
-38.0,1.1228739367322893,0.8125
-38.0,1.1719613219446299,0.0
-38.0,1.1903690913992575,4.875
-38.0,1.214912784005428,4.875
-38.0,1.2517283229146832,4.875
-38.0,1.2701360923693108,4.875
-38.0,1.3130875544301088,3.25
-38.0,1.3069516312785663,5.6875
-38.0,1.3314953238847365,2.4375
-38.0,1.3499030933393643,1.625
-38.0,1.3437671701878218,3.25
-38.0,1.3499030933393643,4.875
-38.0,1.3437671701878218,4.875
-38.0,1.3437671701878218,5.6875
-38.0,1.3437671701878218,5.6875
-38.0,1.3437671701878218,5.6875
-38.0,1.423534171157875,-4.875
-38.0,1.368310862793992,4.875
-38.0,1.3744467859455345,4.875
-38.5,1.3867186322486196,0.8125
-38.5,1.3621749396424494,8.9375
-38.0,1.3867186322486196,3.25
-38.0,1.4051264017032472,3.25
-38.5,1.3989904785517047,3.25
-38.5,1.3928545554001621,8.125
-38.5,1.423534171157875,3.25
-38.5,1.4358060174609601,3.25
-38.5,1.4542137869155878,1.625
-38.5,1.4419419406125027,3.25
-38.5,1.4480778637640452,4.875
-38.5,1.4419419406125027,6.5
-38.5,1.4726215563702154,0.8125
-38.5,1.4664856332186729,2.4375
-39.0,1.4726215563702154,1.625
-39.0,1.4664856332186729,4.875
-39.0,1.4787574795217582,2.4375
-38.5,1.4848934026733007,3.25
-39.0,1.533980787885641,-3.25
-39.0,1.4787574795217582,3.25
-39.0,1.4664856332186729,8.125
-39.0,1.4848934026733007,5.6875
-39.0,1.5033011721279284,3.25
-39.0,1.4787574795217582,7.3125
-39.0,1.5155730184310134,0.8125
-39.0,1.5462526341887264,-1.625
-39.0,1.5278448647340985,2.4375
-39.0,1.521708941582556,6.5
-39.0,1.521708941582556,7.3125
-39.0,1.5401167110371838,7.3125
-39.0,1.5585244804918115,6.5
-39.0,1.5953400194010667,0.0
-39.0,1.5707963267948966,5.6875
-39.0,1.5953400194010667,5.6875
-39.0,1.6014759425526093,6.5
-39.0,1.6260196351587797,2.4375
-39.0,1.6137477888556946,6.5
-39.5,1.6382914814618648,2.4375
-39.5,1.6444274046134073,3.25
-39.5,1.6566992509164924,1.625
-39.5,1.6566992509164924,4.875
-39.5,1.6812429435226628,-1.625
-40.0,1.6444274046134073,3.25
-40.0,1.662835174068035,2.4375
-40.0,1.6444274046134073,6.5
-40.0,1.6321555583103222,5.6875
-40.0,1.6505633277649499,1.625
-40.0,1.6321555583103222,6.5
-40.0,1.6382914814618648,4.875
-40.0,1.6444274046134073,2.4375
-39.5,1.6382914814618648,2.4375
-39.5,1.6260196351587797,2.4375
-39.0,1.6137477888556946,2.4375
-39.0,1.5830681730979816,4.875
-39.0,1.576932249946439,4.875
-38.5,1.5892040962495242,0.0
-38.5,1.5401167110371838,4.875
-38.0,1.4971652489763858,9.75
-38.0,1.521708941582556,0.0
-37.0,1.4848934026733007,0.8125
-37.0,1.4603497100671303,1.625
-36.5,1.4603497100671303,-2.4375
-36.5,1.4296700943094176,-1.625
-36.0,1.4051264017032472,3.25
-35.5,1.3867186322486196,3.25
-35.5,1.3744467859455345,3.25
-35.0,1.3621749396424494,3.25
-35.0,1.3499030933393643,4.875
-35.0,1.3437671701878218,4.875
-34.5,1.3437671701878218,1.625
-34.0,1.3314953238847365,3.25
-34.5,1.3192234775816514,3.25
-34.0,1.3192234775816514,2.4375
-33.5,1.3130875544301088,4.875
-33.5,1.3008157081270237,3.25
-33.5,1.2885438618239387,4.875
-33.0,1.3130875544301088,0.0
-33.0,1.2885438618239387,3.25
-33.0,1.2885438618239387,5.6875
-32.5,1.2762720155208536,3.25
-32.5,1.2946797849754812,1.625
-32.0,1.282407938672396,3.25
-32.0,1.2701360923693108,3.25
-32.0,1.282407938672396,1.625
-31.5,1.2640001692177683,4.875
-31.5,1.2701360923693108,2.4375
-31.0,1.2885438618239387,0.8125
-30.5,1.2762720155208536,4.875
-30.5,1.282407938672396,2.4375
-30.5,1.2946797849754812,2.4375
-29.5,1.3130875544301088,4.875
-29.5,1.3437671701878218,0.8125
-29.0,1.325359400733194,3.25
-29.5,1.3560390164909069,0.8125
-29.0,1.337631247036279,1.625
-29.0,1.325359400733194,3.25
-29.0,1.3130875544301088,5.6875
-29.0,1.337631247036279,0.8125
-29.0,1.3437671701878218,1.625
-29.0,1.337631247036279,2.4375
-28.5,1.3314953238847365,2.4375
-29.0,1.337631247036279,0.8125
-28.5,1.3314953238847365,1.625
-28.5,1.3314953238847365,2.4375
-28.5,1.325359400733194,3.25
-28.5,1.337631247036279,3.25
-28.5,1.3314953238847365,2.4375
-28.0,1.337631247036279,1.625
-28.5,1.3314953238847365,4.875
-28.5,1.337631247036279,1.625
-28.5,1.3192234775816514,5.6875
-28.5,1.3192234775816514,5.6875
-28.0,1.3192234775816514,3.25
-28.0,1.3130875544301088,2.4375
-28.0,1.2946797849754812,4.875
-28.0,1.2885438618239387,6.5
-28.0,1.282407938672396,3.25
-27.5,1.2885438618239387,2.4375
-27.5,1.2701360923693108,4.875
-28.0,1.2701360923693108,1.625
-27.5,1.2640001692177683,4.875
-27.5,1.2455923997631406,3.25
-27.5,1.239456476611598,2.4375
-27.5,1.214912784005428,5.6875
-27.5,1.2210487071569704,0.0
-27.0,1.1780972450961724,3.25
-27.5,1.1658253987930873,2.4375
-27.0,1.1351457830353744,5.6875
-27.0,1.1351457830353744,4.875
-27.0,1.1106020904292042,4.875
-27.0,1.0983302441261191,2.4375
-27.0,1.0737865515199487,4.875
-27.0,1.055378782065321,4.875
-27.0,1.0492428589137786,4.875
-27.0,1.0246991663076084,5.6875
-27.0,1.012427320004523,5.6875
-26.5,0.8467573949128739,2.4375
-26.5,0.8467573949128739,0.8125
-26.0,0.8344855486097889,1.625
-26.0,0.8222137023067037,1.625
-26.0,0.8222137023067037,1.625
-26.0,0.8222137023067037,0.8125
-26.0,0.8160777791551611,-1.625
-26.0,0.8099418560036186,-1.625
-26.0,0.803805932852076,0.8125
-26.0,0.7915340865489908,1.625
-26.5,0.7853981633974483,1.625
-26.0,0.7853981633974483,-0.8125
-26.0,0.7731263170943632,0.0
-26.5,0.760854470791278,0.0
-26.0,0.7424467013366504,2.4375
-26.0,0.7424467013366504,1.625
-25.5,0.7240389318820226,0.8125
-25.5,0.7179030087304801,-0.8125
-25.5,0.6994952392758523,-0.8125
-25.5,0.6688156235181395,-0.8125
-25.5,0.6258641614573416,3.25
-25.0,0.6013204688511713,1.625
-25.0,0.5829126993965437,0.0
-25.0,0.5338253141842031,3.25
-25.0,0.521553467881118,0.8125
-24.5,0.47860200582032003,1.625
-24.5,0.44178646691106466,1.625
-24.5,0.3988350048502667,2.4375
-24.5,0.3620194659410113,0.8125
-25.0,0.3190680038802134,1.625
-25.0,0.2761165418194154,3.25
-25.0,0.23930100291016002,1.625
-25.0,0.2086213871524472,0.8125
-25.5,0.1595340019401067,1.625
-25.5,0.12885438618239387,0.8125
-25.5,0.0859029241215959,-0.8125
-26.0,0.030679615757712823,1.625
-26.0,0.006135923151542565,1.625
-26.5,6.258641614573416,1.625
-26.0,6.264777537724958,-2.4375
-26.0,6.240233845118788,-1.625
-26.0,6.215690152512618,-1.625
-26.0,6.2034183062095325,-1.625
-26.0,6.191146459906448,-0.8125
-26.0,6.17273869045182,-1.625
-26.0,6.129787228391022,2.4375
-26.0,6.12365130523948,0.0
-26.0,6.0991076126333095,1.625
-26.0,6.080699843178682,1.625
-26.0,6.068427996875596,0.8125
-26.0,6.025476534814799,2.4375
-26.0,6.000932842208628,2.4375
-26.5,5.970253226450915,2.4375
-26.5,5.9518454569962875,1.625
-26.5,5.921165841238575,2.4375
-26.0,5.921165841238575,0.0
-26.5,5.902758071783947,1.625
-26.5,5.896622148632405,2.4375
-26.0,5.896622148632405,1.625
-26.5,5.890486225480862,2.4375
-26.0,5.896622148632405,0.8125
-26.5,5.896622148632405,2.4375
-26.0,5.9088939949354895,2.4375
-26.0,5.939573610693203,1.625
-26.0,5.957981380147831,3.25
-26.0,6.000932842208628,0.8125
-25.5,6.037748381117884,2.4375
-25.5,6.080699843178682,3.25
-25.5,6.0991076126333095,2.4375
-26.0,6.129787228391022,2.4375
-26.0,6.1850105367549055,-2.4375
-25.5,6.166602767300278,-0.8125
-25.5,6.12365130523948,3.25
-25.5,6.105243535784852,0.0
-25.5,6.025476534814799,1.625
-25.5,5.976389149602458,0.0
-25.5,5.896622148632405,1.625
-26.0,5.829126993965437,0.0
-26.0,5.773903685601553,1.625
-26.5,5.724816300389213,2.4375
-26.5,5.681864838328415,2.4375
-26.5,5.64504929941916,2.4375
-26.5,5.6143696836614465,2.4375
-27.0,5.589825991055276,2.4375
-27.0,5.577554144752192,0.8125
-27.0,5.534602682691394,5.6875
-27.5,5.540738605842936,0.8125
-27.0,5.534602682691394,-0.8125
-27.5,5.50392306693368,2.4375
-27.5,5.50392306693368,2.4375
-27.5,5.491651220630596,0.8125
-28.0,5.485515297479052,1.625
-27.5,5.47937937432751,2.4375
-27.5,5.47937937432751,0.8125
-27.5,5.4671075280244255,1.625
-27.5,5.460971604872882,1.625
-28.0,5.473243451175968,-0.8125
-27.5,5.460971604872882,0.8125
-27.5,5.45483568172134,0.8125
-27.5,5.45483568172134,0.8125
-28.0,5.45483568172134,0.0
-27.5,5.442563835418255,1.625
-27.5,5.448699758569798,1.625
-27.5,5.442563835418255,1.625
-27.5,5.448699758569798,1.625
-27.5,5.448699758569798,0.8125
-27.5,5.442563835418255,2.4375
-27.5,5.442563835418255,2.4375
-27.0,5.424156065963627,4.875
-27.0,5.43029198911517,4.875
-27.5,5.436427912266712,3.25
-27.0,5.43029198911517,3.25
-27.0,5.448699758569798,1.625
-27.0,5.448699758569798,0.8125
-27.0,5.436427912266712,1.625
-26.5,5.436427912266712,3.25
-27.0,5.43029198911517,2.4375
-26.5,5.43029198911517,2.4375
-26.5,5.43029198911517,0.8125
-26.5,5.418020142812084,3.25
-26.5,5.411884219660542,1.625
-26.5,5.399612373357457,3.25
-26.5,5.411884219660542,1.625
-26.5,5.405748296509,1.625
-26.5,5.387340527054372,4.875
-26.5,5.387340527054372,3.25
-26.5,5.387340527054372,3.25
-26.5,5.387340527054372,2.4375
-26.5,5.368932757599744,3.25
-26.5,5.3627968344482015,5.6875
-26.5,5.368932757599744,4.875
-26.5,5.368932757599744,3.25
-26.5,5.375068680751287,3.25
-26.5,5.356660911296659,5.6875
-26.5,5.368932757599744,2.4375
-26.5,5.368932757599744,3.25
-26.5,5.368932757599744,3.25
-26.5,5.3627968344482015,3.25
-26.0,5.356660911296659,3.25
-26.5,5.356660911296659,3.25
-26.5,5.368932757599744,1.625
-26.5,5.3627968344482015,3.25
-26.0,5.350524988145116,3.25
-26.5,5.338253141842031,6.5
-26.0,5.344389064993574,4.875
-26.5,5.338253141842031,5.6875
-26.5,5.338253141842031,6.5
-26.0,5.356660911296659,1.625
-26.0,5.338253141842031,5.6875
-26.5,5.332117218690489,4.875
-26.0,5.350524988145116,1.625
-26.0,5.338253141842031,3.25
-26.0,5.338253141842031,3.25
-26.0,5.338253141842031,3.25
-26.0,5.325981295538946,4.875
-26.0,5.313709449235861,6.5
-26.5,5.332117218690489,3.25
-26.0,5.3198453723874035,4.875
-26.0,5.332117218690489,3.25
-26.0,5.332117218690489,4.875
-26.5,5.338253141842031,2.4375
-26.5,5.313709449235861,5.6875
-26.0,5.3198453723874035,5.6875
-26.0,5.313709449235861,5.6875
-26.5,5.307573526084319,5.6875
-26.0,5.307573526084319,6.5
-26.0,5.313709449235861,4.875
-26.5,5.3198453723874035,4.875
-26.0,5.313709449235861,4.875
-26.0,5.3198453723874035,2.4375
-26.0,5.307573526084319,5.6875
-26.0,5.313709449235861,3.25
-26.0,5.307573526084319,4.875
-26.0,5.307573526084319,4.875
-26.0,5.301437602932776,5.6875
-26.0,5.301437602932776,5.6875
-26.0,5.295301679781233,4.875
-26.0,5.295301679781233,5.6875
-26.0,5.295301679781233,3.25
-26.0,5.295301679781233,2.4375
-26.0,5.295301679781233,2.4375
-26.0,5.295301679781233,3.25
-26.0,5.295301679781233,2.4375
-26.0,5.283029833478148,3.25
-26.0,5.270757987175063,3.25
-26.0,5.2768939103266055,3.25
-26.0,5.270757987175063,3.25
-26.5,5.264622064023521,3.25
-26.5,5.264622064023521,2.4375
-26.0,5.258486140871978,3.25
-26.5,5.246214294568893,5.6875
-26.5,5.240078371417351,5.6875
-26.0,5.240078371417351,4.875
-26.0,5.240078371417351,4.875
-26.0,5.2339424482658075,4.875
-26.0,5.246214294568893,2.4375
-26.0,5.2339424482658075,2.4375
-26.0,5.221670601962723,5.6875
-26.0,5.221670601962723,5.6875
-26.0,5.221670601962723,5.6875
-26.0,5.221670601962723,3.25
-26.0,5.221670601962723,3.25
-26.0,5.209398755659637,7.3125
-26.0,5.21553467881118,3.25
-26.0,5.227806525114265,1.625
-26.0,5.21553467881118,4.875
-26.0,5.221670601962723,3.25
-26.0,5.209398755659637,4.875
-26.0,5.221670601962723,1.625
-26.5,5.209398755659637,3.25
-26.5,5.197126909356553,5.6875
-26.0,5.203262832508095,4.875
-26.0,5.197126909356553,3.25
-26.0,5.197126909356553,5.6875
-26.0,5.197126909356553,4.875
-26.0,5.197126909356553,2.4375
-26.0,5.190990986205009,4.875
-26.5,5.190990986205009,5.6875
-26.0,5.203262832508095,1.625
-26.0,5.184855063053467,5.6875
-26.0,5.190990986205009,3.25
-26.0,5.184855063053467,4.875
-26.0,5.184855063053467,3.25
-26.5,5.184855063053467,4.875
-26.0,5.184855063053467,2.4375
-26.0,5.1725832167503825,5.6875
-26.0,5.178719139901925,5.6875
-26.0,5.1725832167503825,6.5
-26.0,5.1725832167503825,5.6875
-26.5,5.1725832167503825,5.6875
-26.0,5.1725832167503825,4.875
-26.0,5.184855063053467,2.4375
-26.0,5.160311370447297,5.6875
-26.0,5.1725832167503825,3.25
-26.5,5.184855063053467,1.625
-26.0,5.166447293598839,4.875
-26.0,5.1725832167503825,3.25
-26.0,5.166447293598839,4.875
-26.5,5.166447293598839,4.875
-26.0,5.166447293598839,3.25
-26.0,5.166447293598839,3.25
-26.5,5.1725832167503825,1.625
-26.0,5.160311370447297,4.875
-26.5,5.166447293598839,4.875
-26.0,5.166447293598839,4.875
-26.0,5.154175447295755,6.5
-26.5,5.166447293598839,3.25
-26.0,5.160311370447297,6.5
-26.0,5.1725832167503825,3.25
-26.5,5.1725832167503825,3.25
-26.0,5.166447293598839,4.875
-26.5,5.166447293598839,3.25
-26.0,5.166447293598839,4.875
-26.0,5.178719139901925,1.625
-26.5,5.178719139901925,1.625
-26.5,5.166447293598839,3.25
-26.0,5.166447293598839,5.6875
-26.0,5.166447293598839,4.875
-26.0,5.1725832167503825,3.25
-26.5,5.1725832167503825,4.875
-26.5,5.166447293598839,4.875
-26.0,5.178719139901925,1.625
-26.0,5.1725832167503825,3.25
-26.0,5.1725832167503825,4.875
-26.0,5.1725832167503825,4.875
-26.0,5.184855063053467,3.25
-26.0,5.197126909356553,0.8125
-26.0,5.190990986205009,2.4375
-26.5,5.190990986205009,3.25
-26.0,5.178719139901925,6.5
-26.0,5.203262832508095,2.4375
-26.5,5.190990986205009,3.25
-26.0,5.190990986205009,4.875
-26.0,5.190990986205009,3.25
-26.0,5.190990986205009,5.6875
-26.0,5.197126909356553,3.25
-26.0,5.197126909356553,4.875
-26.0,5.197126909356553,4.875
-26.5,5.190990986205009,4.875
-26.0,5.203262832508095,3.25
-26.0,5.209398755659637,2.4375
-26.0,5.197126909356553,5.6875
-26.0,5.203262832508095,3.25
-26.0,5.203262832508095,5.6875
-26.0,5.21553467881118,3.25
-26.0,5.221670601962723,2.4375
-26.0,5.203262832508095,6.5
-26.0,5.221670601962723,2.4375
-26.0,5.2339424482658075,1.625
-26.0,5.21553467881118,5.6875
-26.0,5.227806525114265,3.25
-26.5,5.227806525114265,4.875
-26.0,5.2339424482658075,4.875
-26.5,5.240078371417351,3.25
-26.0,5.246214294568893,4.875
-26.5,5.258486140871978,4.875
-26.0,5.2768939103266055,2.4375
-26.0,5.295301679781233,2.4375
-26.0,5.295301679781233,5.6875
-26.0,5.3198453723874035,4.875
-26.0,5.338253141842031,5.6875
-26.0,5.399612373357457,1.625
-26.5,5.43029198911517,2.4375
-26.5,5.473243451175968,2.4375
-26.0,5.516194913236766,4.875
-26.0,5.5714182216006485,2.4375
-26.0,5.6143696836614465,2.4375
-26.0,5.651185222570702,4.875
-25.5,5.675728915176872,5.6875
-25.5,5.712544454086128,2.4375
-25.5,5.724816300389213,2.4375
-25.5,5.743224069843841,2.4375
-25.5,5.737088146692298,3.25
-25.5,5.737088146692298,2.4375
-25.5,5.737088146692298,3.25
-25.5,5.730952223540755,2.4375
-25.5,5.71868037723767,3.25
-25.5,5.730952223540755,1.625
-25.5,5.724816300389213,2.4375
-25.5,5.71868037723767,3.25
-25.5,5.724816300389213,3.25
-25.5,5.737088146692298,2.4375
-25.5,5.755495916146925,3.25
-25.5,5.780039608753096,2.4375
-25.5,5.798447378207723,4.875
-25.0,5.822991070813893,3.25
-25.5,5.841398840268521,4.875
-25.5,5.8659425328746915,1.625
-25.0,5.884350302329319,2.4375
-25.5,5.896622148632405,3.25
-25.0,5.927301764390117,0.8125
-25.0,5.939573610693203,2.4375
-25.5,5.970253226450915,1.625
-25.5,5.994796919057086,2.4375
-25.5,6.043884304269426,3.25
-25.5,6.080699843178682,3.25
-25.5,6.17273869045182,2.4375
-26.0,0.0,0.8125
-25.5,0.11658253987930872,0.8125
-25.0,0.25770877236478773,2.4375
-25.0,0.37429131224409645,3.25
-25.0,0.5031456984264903,1.625
-25.5,0.5951845456996288,3.25
-25.5,0.6565437772150544,3.25
-26.0,0.7240389318820226,0.8125
-26.0,0.7731263170943632,0.0
-26.0,0.7976700097005334,-0.8125
-26.0,0.8099418560036186,0.0
-26.0,0.8099418560036186,1.625
-26.5,0.8222137023067037,1.625
-26.0,0.8344855486097889,0.8125
-26.0,0.8528933180644165,1.625
-26.5,0.8528933180644165,1.625
-26.5,0.859029241215959,0.8125
-26.0,0.859029241215959,2.4375
-26.5,0.859029241215959,2.4375
-26.5,0.8713010875190442,1.625
-26.0,0.8651651643675016,1.625
-26.5,0.8528933180644165,3.25
-26.5,0.859029241215959,3.25
-26.5,0.8651651643675016,0.8125
-26.0,0.8651651643675016,0.8125
-26.0,0.8651651643675016,0.8125
-26.5,0.8713010875190442,0.8125
-26.5,0.8528933180644165,2.4375
-26.0,0.8528933180644165,1.625
-26.5,0.859029241215959,1.625
-26.5,0.859029241215959,0.8125
-26.5,0.859029241215959,1.625
-26.5,0.8528933180644165,1.625
-26.5,0.8528933180644165,1.625
-26.5,0.8467573949128739,3.25
-26.5,0.8528933180644165,1.625
-26.5,0.8651651643675016,0.8125
-26.0,0.8467573949128739,3.25
-26.5,0.8651651643675016,0.8125
-26.5,0.8651651643675016,0.8125
-26.0,0.8528933180644165,2.4375
-26.0,0.8651651643675016,0.8125
-26.5,0.8713010875190442,1.625
-26.0,0.8528933180644165,2.4375
-26.5,0.8651651643675016,0.8125
-26.5,0.8713010875190442,1.625
-26.5,0.8774370106705868,1.625
-26.5,0.8897088569736719,0.8125
-26.5,0.9019807032767571,0.8125
-26.5,0.9019807032767571,0.8125
-26.5,0.9142525495798421,0.8125
-26.5,0.9142525495798421,2.4375
-26.5,0.9203884727313847,1.625
-26.5,0.9265243958829272,2.4375
-26.5,0.944932165337555,0.8125
-26.5,0.944932165337555,1.625
-26.5,0.9387962421860124,3.25
-26.5,0.9387962421860124,4.875
-26.5,0.9510680884890975,2.4375
-26.5,0.9572040116406401,0.8125
-26.5,0.9572040116406401,0.8125
-26.5,0.9510680884890975,2.4375
-26.5,0.944932165337555,3.25
-26.5,0.9510680884890975,1.625
-26.5,0.944932165337555,3.25
-26.5,0.9387962421860124,2.4375
-26.5,0.9510680884890975,0.8125
-26.5,0.9326603190344698,2.4375
-26.5,0.9387962421860124,1.625
-26.5,0.9387962421860124,0.8125
-26.5,0.9326603190344698,1.625
-26.5,0.9326603190344698,1.625
-26.5,0.9265243958829272,1.625
-26.5,0.9265243958829272,1.625
-26.5,0.9387962421860124,0.0
-26.5,0.9265243958829272,0.8125
-26.5,0.9265243958829272,0.8125
-26.5,0.9203884727313847,2.4375
-26.5,0.9203884727313847,1.625
-26.5,0.9081166264282996,4.875
-26.5,0.9326603190344698,-0.8125
-26.5,0.9142525495798421,2.4375
-26.5,0.9081166264282996,1.625
-26.5,0.9203884727313847,0.8125
-26.5,0.9081166264282996,3.25
-26.5,0.9081166264282996,3.25
-26.5,0.9142525495798421,2.4375
-26.5,0.9326603190344698,0.8125
-26.5,0.9326603190344698,0.0
-26.5,0.9203884727313847,0.8125
-26.5,0.9203884727313847,1.625
-26.5,0.9265243958829272,-0.8125
-26.5,0.9081166264282996,2.4375
-26.5,0.9142525495798421,1.625
-26.5,0.9081166264282996,3.25
-26.5,0.9265243958829272,0.8125
-26.5,0.9142525495798421,1.625
-26.5,0.9142525495798421,1.625
-26.5,0.9142525495798421,1.625
-26.5,0.9387962421860124,-2.4375
-26.5,0.9203884727313847,0.8125
-26.5,0.9203884727313847,0.8125
-26.5,0.9081166264282996,2.4375
-26.5,0.9203884727313847,1.625
-26.5,0.9203884727313847,0.8125
-26.5,0.9203884727313847,2.4375
-26.5,0.9081166264282996,3.25
-26.5,0.9203884727313847,2.4375
-26.5,0.9326603190344698,0.8125
-26.5,0.9142525495798421,2.4375
-26.5,0.9142525495798421,2.4375
-26.5,0.9142525495798421,2.4375
-26.5,0.9265243958829272,1.625
