-33.0,0.0,0.1875
-28.5,4.718524903536232,0.375
-35.5,0.15953400194010658,0.125
-39.5,-1.4051264017032468,0.25
-33.0,-2.932971266437346,0.5
-28.5,4.166291819897402,0.25
-35.0,-2.3623304133438876,0.25
-39.5,1.1658253987930873,0.0625
-33.5,-3.454524734318464,0.25
-43.0,0.0,0.25
-35.5,-5.853670686571607,0.1875
-56.0,4.865787059173254,0.25
-40.5,-4.816699673960914,0.1875
-37.5,-0.14726215563702155,0.375
-54.0,5.773903685601553,0.0625
-56.5,-5.872078456026235,0.625
-52.0,0.0,0.1875
-34.5,0.0,0.0625
-43.0,0.3067961575771283,0.1875
-37.5,4.301282129231337,0.0625
-41.0,-0.5399612373357456,0.125
-47.0,0.632000084608884,0.4375
-40.0,-3.0618256526197394,0.375
-52.5,0.4295146206079794,0.1875
-49.0,-1.3928545554001621,0.0
-49.5,0.0,-0.125
-43.0,3.239767424014474,0.5625
-50.0,0.674951546669682,0.125
-42.5,-1.748738098189631,0.125
-50.0,0.0,0.0625
-55.5,3.6386024288647416,0.25
-55.0,-3.233631500862932,0.0
-46.0,0.0,0.1875
-52.0,-4.2031073588066565,0.125
-57.5,0.0,-0.125
-59.0,-2.3009711818284617,-0.9375
-48.0,0.0,0.1875
-41.0,0.30066023442558576,0.25
-55.5,4.344233591292135,-0.125
-37.5,-0.5522330836388303,0.0
-46.0,0.024543692606170175,0.125
-39.5,-2.9268353432858034,0.125
-42.5,-1.380582709097077,0.125
-34.5,-0.12271846303085132,0.0625
-52.5,0.0,0.5625
-41.0,4.135612204139689,0.125
-40.5,-4.565126824747669,0.4375
-50.0,1.7671458676442586,0.125
-44.0,0.0,0.25
-49.0,-2.215068257706866,0.5
-53.5,1.9573594853420782,0.25
-37.0,-3.0250101137104846,0.125
-34.0,5.0253210611133605,0.1875
-40.0,0.0,0.375
-48.0,-1.270136092369311,0.375
-43.5,4.693981210930062,0.375
-41.5,-4.6878452877785195,0.25
-42.0,1.3867186322486198,-0.0625
-41.5,-1.0062913968529807,0.25
-45.5,1.8653206380689398,0.25
-44.5,1.5278448647340985,0.5
-48.0,1.325359400733194,-0.0625
-50.0,0.23930100291016032,0.1875
-53.5,0.0,-0.125
-43.5,3.4054373491061236,0.125
-28.5,0.0,0.25
-35.0,3.1661363461959633,0.25
-36.5,0.10431069357622347,0.25
-34.5,1.9880391010997913,0.0625
-46.0,-4.908738521234052,0.125
-35.5,0.5031456984264904,0.5625
-35.5,3.7551849687440497,0.625
-49.5,-4.117204434685061,0.125
-40.0,-0.8099418560036185,0.25
-35.0,0.0,0.125
-47.5,4.816699673960914,0.0625
-43.0,-3.5465635815916023,-0.0625
-38.0,-0.6872233929727674,0.25
-42.0,4.031301510563465,0.25
-46.0,0.34361169648638334,0.1875
-48.0,-0.14112623248547873,-0.375
-43.0,0.0,0.0625
-53.0,-1.5707963267948966,-0.125
-35.0,4.344233591292136,0.5625
-58.5,-4.534447208989955,0.25
-57.5,0.0,0.8125
-35.0,0.0,0.0625
-40.0,-0.7179030087304801,0.375
-33.5,-2.2027964114037806,0.4375
-33.5,-2.270291566070749,0.375
-41.0,3.472932503773091,0.5
-38.5,1.9021361769781953,-0.5625
-43.0,0.0,0.0
-38.0,-1.6935147898257479,0.125
-46.0,4.166291819897401,0.125
-48.5,-3.5526995047431447,0.5
-50.0,0.1902136176978193,1.625
-43.5,-1.2087768608538851,0.75
-48.0,3.4177091954092087,-0.5625
-59.5,0.0,0.125
-35.0,-0.779262240245906,1.25
-36.5,1.2701360923693112,0.1875
-42.5,-4.362641360746764,-0.0625
-47.0,-0.9449321653375549,-0.25
-38.5,0.0,0.25
-47.5,3.3011266555298997,0.0
-55.5,0.3681553890925544,0.8125
-51.5,-4.767612288748573,-0.5
-51.5,4.718524903536232,-0.125
-46.0,-0.12271846303085088,-0.25
-58.0,0.0,0.25
-48.5,4.7921559813547425,-0.0625
-50.0,-2.828660572861122,-0.5625
-44.5,2.7979809571034093,0.375
-50.5,-1.9021361769781953,0.375
-58.0,0.0,1.5625
-49.0,0.14726215563702155,-0.25
-36.5,0.0,0.1875
-39.5,-4.896466674930967,0.125
-44.5,2.030990563160589,0.1875
-41.5,1.264000169217768,-0.0625
-51.5,-2.5218644152839937,0.1875
-40.0,0.0,0.5
-47.5,3.3563499638937833,0.125
-47.0,-1.4480778637640452,0.0625
-52.0,-0.6565437772150546,-1.125
-48.0,4.147884050442773,0.0625
-49.0,0.0,0.25
-48.5,-2.8961557275280905,0.125
-44.5,-0.44792239006260726,0.625
-59.5,1.6873788666742051,0.1875
-57.0,0.0,0.25
-47.0,0.0,0.375
-54.5,0.0920388472731386,0.25
-40.5,0.8651651643675016,-0.0625
-47.0,-1.055378782065321,0.0
-44.0,4.374913207049849,-0.0625
-45.5,-5.240078371417351,0.0
-48.5,0.0,-0.0625
-50.0,-0.03681553890925482,0.0
-60.5,-5.338253141842031,0.0
-57.0,0.521553467881118,-0.125
-56.0,0.730174855033565,-0.5625
-58.0,0.0,0.0
-29.5,-3.6815538909255388,0.25
-35.0,4.037437433715008,0.25
-45.0,0.07363107781851053,0.0625
-31.0,1.1106020904292047,0.5
-35.0,-3.0679615757712826,0.8125
-47.0,-2.362330413343887,-0.25
-35.0,0.0,0.125
-37.5,0.6504078540635119,0.25
-35.0,-4.988505522204106,0.4375
-38.0,2.7488935718910694,0.25
-37.5,-3.558835427894688,-0.5625
-38.5,0.36201946594101136,0.125
-43.5,-0.09817477042468103,-0.5
-41.0,0.006135923151542544,0.1875
-55.5,-0.23316507975861744,0.4375
-50.0,0.43565054375952206,0.125
-46.0,-0.3436116964863836,0.0
-53.0,0.0,-0.1875
-57.5,0.0,0.0625
-57.5,1.5953400194010667,0.8125
-56.0,-3.405437349106123,0.125
-36.0,0.0,0.25
-46.5,-4.6448938257177215,0.1875
-36.5,-0.17180584824319184,0.125
-41.0,5.915029918087033,0.25
-37.0,0.0,0.1875
-45.5,-0.3252039270317555,0.1875
-34.0,0.5154175447295755,0.4375
-50.0,-5.7616318392984684,0.0
-51.0,1.4603497100671305,-0.125
-43.5,-0.9081166264282997,0.5
-51.5,5.14190360099267,-0.4375
-57.5,0.0,0.75
-43.0,-5.227806525114265,0.5625
-39.0,0.5951845456996288,-0.0625
-49.0,4.098796665230433,0.0625
-41.0,-5.092816215780329,0.0625
-33.5,5.7616318392984684,0.5625
-42.5,-4.196971435655114,0.25
-50.5,-0.17794177139473444,0.1875
-44.5,0.0,0.0625
-50.5,3.5342917352885177,-0.625
-45.0,0.5154175447295755,0.625
-43.0,0.41110685115335155,0.0625
-54.0,0.0,0.0
-52.0,4.319689898685965,1.75
-44.5,-2.5954954931025047,0.1875
-52.0,0.0,0.125
-54.5,-0.23930100291016032,-0.125
-58.0,0.0,0.0625
-60.5,-2.994330497952771,-0.125
-36.5,0.0,0.1875
-45.5,-2.1721167956460676,-0.0625
-53.5,3.380893656499953,0.0
-40.5,-1.4419419406125025,0.25
-54.5,-0.3067961575771281,0.25
-36.5,2.245747873464578,-0.25
-45.0,-0.7731263170943627,0.125
-47.5,-4.0128937411088375,-0.1875
-48.0,0.0,0.0
-51.0,-2.528000338435537,0.5
-62.5,0.8467573949128737,-0.625
-36.5,0.0,-0.0625
-39.0,0.9142525495798424,0.25
-46.5,-5.1725832167503825,0.1875
-41.5,-0.7240389318820226,0.0625
-40.5,0.39269908169872414,0.25
-44.0,4.681709364626977,0.0
-48.5,-4.3074180523828804,0.125
-52.0,-0.8651651643675016,0.125
-49.5,4.043573356866551,0.25
-47.0,2.1598449493429825,-0.125
-61.5,0.0,0.625
-34.5,0.0,0.125
-50.5,0.37429131224409584,0.25
-41.5,-3.368621810196868,0.25
-41.5,-1.7548740213411733,0.0625
-37.0,0.607456392002714,0.5625
-37.5,4.810563750809371,0.1875
-49.5,0.12271846303085088,0.25
-35.0,-0.28225246497095835,-0.0625
-41.0,-2.89615572752809,0.25
-50.0,3.356349963893783,0.0625
-44.0,-3.693825737228624,0.125
-53.0,-0.1472621556370215,-0.125
-48.5,0.08590292412159561,0.0
-30.5,3.7735927381986776,0.125
-36.5,-5.602097837358362,0.625
-42.0,0.0,0.0625
-54.0,2.0064468705544183,-1.875
-34.5,0.0,0.1875
-55.5,0.0,-0.5
-59.0,-1.3989904785517049,-2.625
-37.5,0.0,0.1875
-30.5,-0.6688156235181395,0.0625
-38.5,1.1780972450961722,0.5
-41.0,2.699806186678729,0.25
-60.5,1.429670094309417,-1.3125
-33.5,-0.7976700097005329,0.125
-40.5,-0.6810874698212253,0.1875
-31.0,-3.8901752780779857,0.1875
-34.0,4.9394181369917645,-0.125
-43.0,-0.012271846303084644,0.125
-38.0,-3.7920005076533054,0.5
-37.0,2.7611654181941545,0.0
-55.0,0.0,-0.1875
-55.5,-4.190835512503572,0.25
-40.0,0.0,0.4375
-44.0,3.1661363461959633,0.0625
-42.5,0.0,0.125
-36.0,2.8470683423157497,0.4375
-44.5,-3.730641276137879,0.4375
-46.0,5.546874528994478,0.0
-42.0,-0.17794177139473355,0.0625
-51.5,-5.829126993965437,0.125
-39.5,2.7120780329818137,0.1875
-47.5,-2.356194490192345,0.25
-50.0,-0.39269908169872414,0.125
-51.5,0.0,0.0625
-58.0,5.2768939103266055,-0.1875
-63.0,-5.737088146692297,0.125
-59.5,0.09203884727313844,0.0625
-64.5,0.0,0.75
-45.5,0.0,0.1875
-45.0,-3.8410878928656453,0.0625
-57.0,3.534291735288517,0.125
-39.0,-0.6504078540635119,0.1875
-42.5,-3.7183694298347936,0.1875
-39.5,0.0,0.0
-45.0,3.847223816017188,0.375
-58.0,-4.221515128261284,-0.0625
-51.0,3.9822141253511245,-0.375
-36.0,-5.1296317546895835,0.0625
-50.0,4.6448938257177215,0.1875
-42.0,-2.89615572752809,-0.0625
-39.0,0.0,0.5
-54.5,-0.055223308363883075,0.0
-61.0,4.098796665230433,0.625
-62.5,0.0,-0.5625
-54.5,0.6013204688511715,-0.1875
-46.5,0.0,0.25
-41.5,0.5092816215780329,0.25
-35.5,-1.8346410223112268,0.25
-50.0,5.3627968344482015,0.0625
-39.5,-3.988350048502667,0.25
-47.5,0.0,0.1875
-42.5,0.4847379289718625,0.1875
-51.0,-0.2515728492132451,0.4375
-50.0,3.282718886075272,0.0625
-57.0,2.0309905631605893,-0.25
-59.0,0.0,0.1875
-55.5,0.0,0.0625
