40000000000000000000CC00,1,1477505788178836,1477505788178836,1,6.5,13312,-40.0,865.7,3.595651
40000000000000000000CC00,1,1477505788185687,1477505788185687,1,7.3125,13312,-40.0,865.7,3.583379
40000000000000000000CC00,1,1477505788192977,1477505788192977,1,-2.4375,13312,-40.0,865.7,3.6570103
40000000000000000000CC00,1,1477505788199912,1477505788199912,1,1.625,13312,-40.0,865.7,3.6140587
40000000000000000000CC00,1,1477505788206832,1477505788206832,1,3.25,13312,-40.0,865.7,3.6140587
40000000000000000000CC00,1,1477505788215288,1477505788215288,1,-7.3125,13312,-40.0,865.7,3.6876898
40000000000000000000CC00,1,1477505788222315,1477505788222315,1,8.125,13312,-40.0,865.7,3.6017869
40000000000000000000CC00,1,1477505788229189,1477505788229189,1,1.625,13312,-40.0,865.7,3.6324666
40000000000000000000CC00,1,1477505788236134,1477505788236134,1,2.4375,13312,-40.0,865.7,3.6386025
40000000000000000000CC00,1,1477505788242876,1477505788242876,1,-0.8125,13312,-40.0,865.7,3.6508744
40000000000000000000CC00,1,1477505788249906,1477505788249906,1,7.3125,13312,-40.0,865.7,3.6324666
40000000000000000000CC00,1,1477505788256845,1477505788256845,1,5.6875,13312,-40.0,865.7,3.6324666
40000000000000000000CC00,1,1477505788264039,1477505788264039,1,-0.8125,13312,-40.0,865.7,3.669282
40000000000000000000CC00,1,1477505788270999,1477505788270999,1,-2.4375,13312,-40.0,865.7,3.669282
40000000000000000000CC00,1,1477505788277687,1477505788277687,1,4.875,13312,-40.0,865.7,3.6386025
40000000000000000000CC00,1,1477505788284855,1477505788284855,1,9.75,13312,-40.0,865.7,3.6079228
40000000000000000000CC00,1,1477505788291568,1477505788291568,1,8.9375,13312,-40.0,865.7,3.6017869
40000000000000000000CC00,1,1477505788298677,1477505788298677,1,4.875,13312,-40.0,865.7,3.6201947
40000000000000000000CC00,1,1477505788305399,1477505788305399,1,10.5625,13312,-40.0,865.7,3.6017869
40000000000000000000CC00,1,1477505788312614,1477505788312614,1,7.3125,13312,-40.0,865.7,3.6324666
40000000000000000000CC00,1,1477505788319388,1477505788319388,1,5.6875,13312,-40.0,865.7,3.6263306
40000000000000000000CC00,1,1477505788326611,1477505788326611,1,3.25,13312,-40.0,865.7,3.6324666
40000000000000000000CC00,1,1477505788333581,1477505788333581,1,8.9375,13312,-40.0,865.7,3.6079228
40000000000000000000CC00,1,1477505788340225,1477505788340225,1,0.8125,13312,-40.0,865.7,3.669282
40000000000000000000CC00,1,1477505788347158,1477505788347158,1,8.9375,13312,-40.0,865.7,3.6017869
40000000000000000000CC00,1,1477505788354127,1477505788354127,1,8.9375,13312,-40.0,865.7,3.6324666
40000000000000000000CC00,1,1477505788361282,1477505788361282,1,4.875,13312,-40.5,865.7,3.6201947
40000000000000000000CC00,1,1477505788368215,1477505788368215,1,8.9375,13312,-40.0,865.7,3.6017869
40000000000000000000CC00,1,1477505788375055,1477505788375055,1,-5.6875,13312,-40.0,865.7,3.6876898
40000000000000000000CC00,1,1477505788382302,1477505788382302,1,6.5,13312,-40.5,865.7,3.6201947
40000000000000000000CC00,1,1477505788389343,1477505788389343,1,11.375,13312,-40.0,865.7,3.6017869
40000000000000000000CC00,1,1477505788397886,1477505788397886,1,2.4375,13312,-40.0,865.7,3.663146
40000000000000000000CC00,1,1477505788404841,1477505788404841,1,2.4375,13312,-40.0,865.7,3.6386025
40000000000000000000CC00,1,1477505788413343,1477505788413343,1,6.5,13312,-40.0,865.7,3.6447384
40000000000000000000CC00,1,1477505788420254,1477505788420254,1,7.3125,13312,-40.0,865.7,3.6447384
40000000000000000000CC00,1,1477505788427167,1477505788427167,1,4.875,13312,-40.0,865.7,3.669282
40000000000000000000CC00,1,1477505788435343,1477505788435343,1,-6.5,13312,-40.0,865.7,3.7183695
40000000000000000000CC00,1,1477505788442552,1477505788442552,1,9.75,13312,-40.0,865.7,3.6201947
40000000000000000000CC00,1,1477505788449269,1477505788449269,1,2.4375,13312,-40.5,865.7,3.6508744
40000000000000000000CC00,1,1477505788456485,1477505788456485,1,8.9375,13312,-40.0,865.7,3.6263306
40000000000000000000CC00,1,1477505788463254,1477505788463254,1,5.6875,13312,-40.5,865.7,3.663146
40000000000000000000CC00,1,1477505788470199,1477505788470199,1,-0.8125,13312,-40.0,865.7,3.6815538
40000000000000000000CC00,1,1477505788477152,1477505788477152,1,6.5,13312,-40.0,865.7,3.6447384
40000000000000000000CC00,1,1477505788484425,1477505788484425,1,7.3125,13312,-40.5,865.7,3.6263306
40000000000000000000CC00,1,1477505788491353,1477505788491353,1,7.3125,13312,-40.5,865.7,3.6263306
40000000000000000000CC00,1,1477505788498089,1477505788498089,1,4.875,13312,-40.0,865.7,3.6570103
40000000000000000000CC00,1,1477505788505327,1477505788505327,1,8.9375,13312,-40.0,865.7,3.6263306
40000000000000000000CC00,1,1477505788512279,1477505788512279,1,-2.4375,13312,-40.0,865.7,3.6999617
40000000000000000000CC00,1,1477505788519023,1477505788519023,1,7.3125,13312,-40.0,865.7,3.6508744
40000000000000000000CC00,1,1477505788526223,1477505788526223,1,8.125,13312,-40.0,865.7,3.6508744
40000000000000000000CC00,1,1477505788532927,1477505788532927,1,-0.8125,13312,-40.0,865.7,3.6999617
40000000000000000000CC00,1,1477505788539858,1477505788539858,1,3.25,13312,-40.0,865.7,3.6570103
40000000000000000000CC00,1,1477505788547116,1477505788547116,1,10.5625,13312,-40.5,865.7,3.6386025
40000000000000000000CC00,1,1477505788553818,1477505788553818,1,5.6875,13312,-40.5,865.7,3.675418
40000000000000000000CC00,1,1477505788561019,1477505788561019,1,1.625,13312,-40.5,865.7,3.6938257
40000000000000000000CC00,1,1477505788567727,1477505788567727,1,5.6875,13312,-40.5,865.7,3.669282
40000000000000000000CC00,1,1477505788574726,1477505788574726,1,-3.25,13312,-40.5,865.7,3.7245054
40000000000000000000CC00,1,1477505788581929,1477505788581929,1,7.3125,13312,-40.5,865.7,3.663146
40000000000000000000CC00,1,1477505788588875,1477505788588875,1,0.0,13312,-40.5,865.7,3.7060976
40000000000000000000CC00,1,1477505788595579,1477505788595579,1,5.6875,13312,-40.5,865.7,3.675418
40000000000000000000CC00,1,1477505788602879,1477505788602879,1,-1.625,13312,-40.5,865.7,3.7367773
40000000000000000000CC00,1,1477505788611221,1477505788611221,1,1.625,13312,-40.5,865.7,3.6999617
40000000000000000000CC00,1,1477505788618361,1477505788618361,1,5.6875,13312,-41.0,865.7,3.6938257
40000000000000000000CC00,1,1477505788625066,1477505788625066,1,6.5,13312,-40.0,865.7,3.7306414
40000000000000000000CC00,1,1477505788632270,1477505788632270,1,-1.625,13312,-40.5,865.7,3.7367773
40000000000000000000CC00,1,1477505788638933,1477505788638933,1,8.125,13312,-40.5,865.7,3.7060976
40000000000000000000CC00,1,1477505788645938,1477505788645938,1,-3.25,13312,-40.5,865.7,3.7674568
40000000000000000000CC00,1,1477505788653930,1477505788653930,1,10.5625,13312,-40.5,865.7,3.6815538
40000000000000000000CC00,1,1477505788660959,1477505788660959,1,0.8125,13312,-40.5,865.7,3.742913
40000000000000000000CC00,1,1477505788668272,1477505788668272,1,0.0,13312,-41.0,865.7,3.7674568
40000000000000000000CC00,1,1477505788675052,1477505788675052,1,-0.8125,13312,-40.5,865.7,3.749049
40000000000000000000CC00,1,1477505788682039,1477505788682039,1,4.875,13312,-40.5,865.7,3.7367773
40000000000000000000CC00,1,1477505788690784,1477505788690784,1,9.75,13312,-40.5,865.7,3.7122335
40000000000000000000CC00,1,1477505788697467,1477505788697467,1,11.375,13312,-40.5,865.7,3.6938257
40000000000000000000CC00,1,1477505788704401,1477505788704401,1,7.3125,13312,-40.5,865.7,3.742913
40000000000000000000CC00,1,1477505788711561,1477505788711561,1,5.6875,13312,-40.5,865.7,3.7613208
40000000000000000000CC00,1,1477505788718280,1477505788718280,1,8.9375,13312,-41.0,865.7,3.742913
40000000000000000000CC00,1,1477505788725467,1477505788725467,1,8.125,13312,-40.5,865.7,3.742913
40000000000000000000CC00,1,1477505788732474,1477505788732474,1,12.1875,13312,-41.0,865.7,3.7060976
40000000000000000000CC00,1,1477505788739437,1477505788739437,1,10.5625,13312,-40.5,865.7,3.7183695
40000000000000000000CC00,1,1477505788746387,1477505788746387,1,0.8125,13312,-40.5,865.7,3.7797287
40000000000000000000CC00,1,1477505788753037,1477505788753037,1,-1.625,13312,-41.0,865.7,3.828816
40000000000000000000CC00,1,1477505788761077,1477505788761077,1,7.3125,13312,-41.0,865.7,3.7613208
40000000000000000000CC00,1,1477505788768037,1477505788768037,1,4.875,13312,-40.5,865.7,3.7735927
40000000000000000000CC00,1,1477505788776859,1477505788776859,1,8.125,13312,-40.5,865.7,3.7735927
40000000000000000000CC00,1,1477505788783846,1477505788783846,1,6.5,13312,-40.5,865.7,3.7981365
40000000000000000000CC00,1,1477505788790575,1477505788790575,1,-7.3125,13312,-41.0,865.7,3.8656316
40000000000000000000CC00,1,1477505788797852,1477505788797852,1,8.9375,13312,-41.0,865.7,3.755185
40000000000000000000CC00,1,1477505788804564,1477505788804564,1,2.4375,13312,-40.5,865.7,3.8349519
40000000000000000000CC00,1,1477505788811494,1477505788811494,1,2.4375,13312,-41.0,865.7,3.8104084
40000000000000000000CC00,1,1477505788818719,1477505788818719,1,7.3125,13312,-41.0,865.7,3.8104084
40000000000000000000CC00,1,1477505788825723,1477505788825723,1,0.8125,13312,-40.5,865.7,3.8349519
40000000000000000000CC00,1,1477505788832717,1477505788832717,1,9.75,13312,-41.0,865.7,3.7981365
40000000000000000000CC00,1,1477505788839623,1477505788839623,1,0.0,13312,-40.5,865.7,3.8594956
40000000000000000000CC00,1,1477505788846578,1477505788846578,1,-4.875,13312,-40.5,865.7,3.8840394
40000000000000000000CC00,1,1477505788853559,1477505788853559,1,0.8125,13312,-40.5,865.7,3.8594956
40000000000000000000CC00,1,1477505788860314,1477505788860314,1,7.3125,13312,-40.5,865.7,3.8533597
40000000000000000000CC00,1,1477505788867526,1477505788867526,1,9.75,13312,-40.5,865.7,3.8104084
40000000000000000000CC00,1,1477505788874214,1477505788874214,1,-5.6875,13312,-41.0,865.7,3.9269907
40000000000000000000CC00,1,1477505788881151,1477505788881151,1,-1.625,13312,-41.0,865.7,3.9208548
40000000000000000000CC00,1,1477505788888130,1477505788888130,1,11.375,13312,-40.5,865.7,3.8226802
40000000000000000000CC00,1,1477505788895100,1477505788895100,1,-0.8125,13312,-41.0,865.7,3.9208548
40000000000000000000CC00,1,1477505788902279,1477505788902279,1,0.8125,13312,-41.0,865.7,3.8963113
40000000000000000000CC00,1,1477505788909015,1477505788909015,1,7.3125,13312,-41.0,865.7,3.8656316
40000000000000000000CC00,1,1477505788915911,1477505788915911,1,-2.4375,13312,-41.0,865.7,3.9208548
40000000000000000000CC00,1,1477505788923126,1477505788923126,1,0.8125,13312,-41.0,865.7,3.8963113
40000000000000000000CC00,1,1477505788929867,1477505788929867,1,5.6875,13312,-41.0,865.7,3.8840394
40000000000000000000CC00,1,1477505788937064,1477505788937064,1,-11.375,13312,-40.5,865.7,3.9760783
40000000000000000000CC00,1,1477505788944038,1477505788944038,1,1.625,13312,-41.0,865.7,3.9269907
40000000000000000000CC00,1,1477505788950997,1477505788950997,1,8.9375,13312,-40.5,865.7,3.8717675
40000000000000000000CC00,1,1477505788957735,1477505788957735,1,0.8125,13312,-41.0,865.7,3.9024472
40000000000000000000CC00,1,1477505788966341,1477505788966341,1,-1.625,13312,-41.0,865.7,3.9515345
40000000000000000000CC00,1,1477505788973082,1477505788973082,1,-5.6875,13312,-41.0,865.7,3.9822142
40000000000000000000CC00,1,1477505788980224,1477505788980224,1,0.8125,13312,-41.0,865.7,3.9392626
40000000000000000000CC00,1,1477505788986967,1477505788986967,1,-10.5625,13312,-41.0,865.7,4.000622
40000000000000000000CC00,1,1477505788995314,1477505788995314,1,0.8125,13312,-41.0,865.7,3.9515345
40000000000000000000CC00,1,1477505789002578,1477505789002578,1,5.6875,13312,-41.0,865.7,3.9147189
40000000000000000000CC00,1,1477505789009557,1477505789009557,1,4.875,13312,-40.5,865.7,3.9331267
40000000000000000000CC00,1,1477505789016201,1477505789016201,1,0.0,13312,-41.0,865.7,3.9699423
40000000000000000000CC00,1,1477505789023173,1477505789023173,1,-0.8125,13312,-41.0,865.7,4.000622
40000000000000000000CC00,1,1477505789030368,1477505789030368,1,-9.75,13312,-40.5,865.7,4.0128937
40000000000000000000CC00,1,1477505789037077,1477505789037077,1,13.8125,13312,-41.0,865.7,3.8840394
40000000000000000000CC00,1,1477505789043975,1477505789043975,1,-9.75,13312,-41.0,865.7,4.0128937
40000000000000000000CC00,1,1477505789051158,1477505789051158,1,12.1875,13312,-40.5,865.7,3.9085832
40000000000000000000CC00,1,1477505789057916,1477505789057916,1,0.8125,13312,-41.0,865.7,3.9638064
40000000000000000000CC00,1,1477505789064915,1477505789064915,1,8.9375,13312,-41.0,865.7,3.9269907
40000000000000000000CC00,1,1477505789071880,1477505789071880,1,-3.25,13312,-40.5,865.7,4.0067577
40000000000000000000CC00,1,1477505789079115,1477505789079115,1,1.625,13312,-40.5,865.7,3.9760783
40000000000000000000CC00,1,1477505789086073,1477505789086073,1,-0.8125,13312,-40.5,865.7,3.9883502
40000000000000000000CC00,1,1477505789093033,1477505789093033,1,-2.4375,13312,-41.0,865.7,4.0128937
40000000000000000000CC00,1,1477505789099783,1477505789099783,1,-8.9375,13312,-40.5,865.7,4.0313015
40000000000000000000CC00,1,1477505789106957,1477505789106957,1,-8.9375,13312,-41.0,865.7,4.061981
40000000000000000000CC00,1,1477505789113946,1477505789113946,1,9.75,13312,-41.0,865.7,3.9331267
40000000000000000000CC00,1,1477505789120671,1477505789120671,1,0.8125,13312,-40.5,865.7,3.9944859
40000000000000000000CC00,1,1477505789127604,1477505789127604,1,5.6875,13312,-40.5,865.7,3.9883502
40000000000000000000CC00,1,1477505789134557,1477505789134557,1,0.0,13312,-40.5,865.7,4.0190296
40000000000000000000CC00,1,1477505789141526,1477505789141526,1,0.8125,13312,-40.5,865.7,3.9883502
40000000000000000000CC00,1,1477505789148478,1477505789148478,1,-1.625,13312,-40.5,865.7,4.0313015
40000000000000000000CC00,1,1477505789155422,1477505789155422,1,1.625,13312,-40.5,865.7,4.000622
40000000000000000000CC00,1,1477505789162631,1477505789162631,1,0.8125,13312,-40.5,865.7,4.0128937
40000000000000000000CC00,1,1477505789169594,1477505789169594,1,-6.5,13312,-40.5,865.7,4.0558453
40000000000000000000CC00,1,1477505789176279,1477505789176279,1,-1.625,13312,-40.5,865.7,4.0313015
40000000000000000000CC00,1,1477505789183365,1477505789183365,1,-2.4375,13312,-40.5,865.7,4.0251656
40000000000000000000CC00,1,1477505789192054,1477505789192054,1,3.25,13312,-40.5,865.7,4.000622
40000000000000000000CC00,1,1477505789198737,1477505789198737,1,-0.8125,13312,-40.5,865.7,4.0190296
40000000000000000000CC00,1,1477505789205653,1477505789205653,1,4.875,13312,-40.5,865.7,3.9944859
40000000000000000000CC00,1,1477505789212956,1477505789212956,1,0.0,13312,-40.5,865.7,4.0251656
40000000000000000000CC00,1,1477505789219871,1477505789219871,1,0.0,13312,-40.0,865.7,4.0190296
40000000000000000000CC00,1,1477505789226568,1477505789226568,1,0.0,13312,-40.5,865.7,4.0435734
40000000000000000000CC00,1,1477505789233869,1477505789233869,1,9.75,13312,-40.5,865.7,3.9822142
40000000000000000000CC00,1,1477505789240572,1477505789240572,1,3.25,13312,-40.5,865.7,4.0067577
40000000000000000000CC00,1,1477505789247763,1477505789247763,1,1.625,13312,-40.0,865.7,4.0497093
40000000000000000000CC00,1,1477505789254516,1477505789254516,1,0.8125,13312,-40.5,865.7,4.0067577
40000000000000000000CC00,1,1477505789261428,1477505789261428,1,6.5,13312,-40.0,865.7,3.9944859
40000000000000000000CC00,1,1477505789268706,1477505789268706,1,-6.5,13312,-40.5,865.7,4.0558453
40000000000000000000CC00,1,1477505789275606,1477505789275606,1,-8.9375,13312,-40.5,865.7,4.092661
40000000000000000000CC00,1,1477505789282530,1477505789282530,1,5.6875,13312,-40.5,865.7,4.000622
40000000000000000000CC00,1,1477505789289263,1477505789289263,1,-5.6875,13312,-40.0,865.7,4.092661
40000000000000000000CC00,1,1477505789296193,1477505789296193,1,6.5,13312,-40.5,865.7,4.0067577
40000000000000000000CC00,1,1477505789303336,1477505789303336,1,-8.125,13312,-40.5,865.7,4.080389
40000000000000000000CC00,1,1477505789310296,1477505789310296,1,-3.25,13312,-40.5,865.7,4.061981
40000000000000000000CC00,1,1477505789317276,1477505789317276,1,-5.6875,13312,-40.0,865.7,4.068117
40000000000000000000CC00,1,1477505789324303,1477505789324303,1,-4.875,13312,-40.5,865.7,4.0558453
40000000000000000000CC00,1,1477505789331002,1477505789331002,1,2.4375,13312,-40.0,865.7,4.0128937
40000000000000000000CC00,1,1477505789338244,1477505789338244,1,5.6875,13312,-40.5,865.7,4.0067577
40000000000000000000CC00,1,1477505789344961,1477505789344961,1,2.4375,13312,-40.5,865.7,4.0435734
40000000000000000000CC00,1,1477505789351877,1477505789351877,1,3.25,13312,-40.0,865.7,4.0251656
40000000000000000000CC00,1,1477505789359105,1477505789359105,1,4.875,13312,-40.5,865.7,4.0190296
40000000000000000000CC00,1,1477505789365794,1477505789365794,1,-6.5,13312,-40.0,865.7,4.080389
40000000000000000000CC00,1,1477505789373005,1477505789373005,1,-0.8125,13312,-40.5,865.7,4.0374374
40000000000000000000CC00,1,1477505789379959,1477505789379959,1,0.8125,13312,-40.5,865.7,4.0497093
40000000000000000000CC00,1,1477505789386757,1477505789386757,1,5.6875,13312,-40.5,865.7,4.0128937
40000000000000000000CC00,1,1477505789393738,1477505789393738,1,11.375,13312,-40.0,865.7,3.9883502
40000000000000000000CC00,1,1477505789400681,1477505789400681,1,-8.9375,13312,-40.0,865.7,4.098797
40000000000000000000CC00,1,1477505789407656,1477505789407656,1,5.6875,13312,-40.5,865.7,4.0067577
40000000000000000000CC00,1,1477505789414882,1477505789414882,1,-7.3125,13312,-40.5,865.7,4.086525
40000000000000000000CC00,1,1477505789421602,1477505789421602,1,0.0,13312,-40.0,865.7,4.0374374
40000000000000000000CC00,1,1477505789428583,1477505789428583,1,1.625,13312,-40.5,865.7,4.0313015
40000000000000000000CC00,1,1477505789435797,1477505789435797,1,5.6875,13312,-40.0,865.7,4.0128937
40000000000000000000CC00,1,1477505789442608,1477505789442608,1,-4.875,13312,-40.0,865.7,4.074253
40000000000000000000CC00,1,1477505789449731,1477505789449731,1,-1.625,13312,-40.5,865.7,4.0313015
40000000000000000000CC00,1,1477505789456688,1477505789456688,1,6.5,13312,-40.0,865.7,3.9944859
40000000000000000000CC00,1,1477505789463873,1477505789463873,1,3.25,13312,-40.0,865.7,4.0067577
40000000000000000000CC00,1,1477505789470589,1477505789470589,1,1.625,13312,-40.0,865.7,4.0190296
40000000000000000000CC00,1,1477505789477532,1477505789477532,1,5.6875,13312,-40.0,865.7,4.000622
40000000000000000000CC00,1,1477505789484446,1477505789484446,1,6.5,13312,-40.0,865.7,3.9944859
40000000000000000000CC00,1,1477505789491654,1477505789491654,1,3.25,13312,-40.0,865.7,4.0067577
40000000000000000000CC00,1,1477505789498610,1477505789498610,1,0.8125,13312,-40.5,865.7,4.0374374
40000000000000000000CC00,1,1477505789507074,1477505789507074,1,0.8125,13312,-40.0,865.7,3.9944859
40000000000000000000CC00,1,1477505789514119,1477505789514119,1,-7.3125,13312,-40.0,865.7,4.080389
40000000000000000000CC00,1,1477505789520913,1477505789520913,1,4.875,13312,-40.0,865.7,4.000622
40000000000000000000CC00,1,1477505789527857,1477505789527857,1,-4.875,13312,-40.0,865.7,4.0435734
40000000000000000000CC00,1,1477505789535038,1477505789535038,1,-4.875,13312,-40.0,865.7,4.0435734
40000000000000000000CC00,1,1477505789541950,1477505789541950,1,-0.8125,13312,-40.0,865.7,4.0313015
40000000000000000000CC00,1,1477505789548681,1477505789548681,1,-3.25,13312,-40.0,865.7,4.061981
40000000000000000000CC00,1,1477505789555581,1477505789555581,1,-2.4375,13312,-40.0,865.7,4.0313015
40000000000000000000CC00,1,1477505789562674,1477505789562674,1,2.4375,13312,-40.0,865.7,4.0128937
40000000000000000000CC00,1,1477505789569681,1477505789569681,1,-3.25,13312,-40.0,865.7,4.0497093
40000000000000000000CC00,1,1477505789576900,1477505789576900,1,6.5,13312,-40.5,865.7,4.0067577
40000000000000000000CC00,1,1477505789583868,1477505789583868,1,-8.125,13312,-40.0,865.7,4.086525
40000000000000000000CC00,1,1477505789590572,1477505789590572,1,-1.625,13312,-40.0,865.7,4.0558453
40000000000000000000CC00,1,1477505789597788,1477505789597788,1,-6.5,13312,-40.0,865.7,4.061981
40000000000000000000CC00,1,1477505789604730,1477505789604730,1,4.875,13312,-40.0,865.7,4.0128937
40000000000000000000CC00,1,1477505789611650,1477505789611650,1,-7.3125,13312,-40.0,865.7,4.0497093
40000000000000000000CC00,1,1477505789618593,1477505789618593,1,0.0,13312,-39.5,865.7,4.0190296
40000000000000000000CC00,1,1477505789625283,1477505789625283,1,-0.8125,13312,-40.0,865.7,4.0190296
40000000000000000000CC00,1,1477505789632529,1477505789632529,1,-2.4375,13312,-40.0,865.7,4.0558453
40000000000000000000CC00,1,1477505789639492,1477505789639492,1,-6.5,13312,-40.0,865.7,4.074253
40000000000000000000CC00,1,1477505789646264,1477505789646264,1,3.25,13312,-40.0,865.7,4.0190296
40000000000000000000CC00,1,1477505789653267,1477505789653267,1,-3.25,13312,-40.0,865.7,4.0374374
40000000000000000000CC00,1,1477505789660236,1477505789660236,1,-5.6875,13312,-39.5,865.7,4.0558453
40000000000000000000CC00,1,1477505789667146,1477505789667146,1,5.6875,13312,-40.0,865.7,4.0067577
40000000000000000000CC00,1,1477505789674100,1477505789674100,1,0.8125,13312,-40.0,865.7,4.0374374
40000000000000000000CC00,1,1477505789682850,1477505789682850,1,9.75,13312,-39.5,865.7,3.9883502
40000000000000000000CC00,1,1477505789689558,1477505789689558,1,-1.625,13312,-40.0,865.7,4.0374374
40000000000000000000CC00,1,1477505789696493,1477505789696493,1,0.0,13312,-40.0,865.7,4.0313015
40000000000000000000CC00,1,1477505789703501,1477505789703501,1,4.875,13312,-40.0,865.7,4.0128937
40000000000000000000CC00,1,1477505789710493,1477505789710493,1,-4.875,13312,-39.5,865.7,4.0497093
40000000000000000000CC00,1,1477505789717694,1477505789717694,1,-0.8125,13312,-39.5,865.7,4.0251656
40000000000000000000CC00,1,1477505789724403,1477505789724403,1,-0.8125,13312,-39.5,865.7,4.068117
40000000000000000000CC00,1,1477505789731330,1477505789731330,1,-3.25,13312,-40.0,865.7,4.068117
40000000000000000000CC00,1,1477505789738471,1477505789738471,1,-6.5,13312,-39.5,865.7,4.092661
40000000000000000000CC00,1,1477505789745440,1477505789745440,1,-8.9375,13312,-40.0,865.7,4.086525
40000000000000000000CC00,1,1477505789752190,1477505789752190,1,-0.8125,13312,-40.0,865.7,4.0558453
40000000000000000000CC00,1,1477505789759325,1477505789759325,1,-5.6875,13312,-40.0,865.7,4.080389
40000000000000000000CC00,1,1477505789766043,1477505789766043,1,-0.8125,13312,-40.0,865.7,4.0435734
40000000000000000000CC00,1,1477505789773239,1477505789773239,1,1.625,13312,-39.5,865.7,4.0190296
40000000000000000000CC00,1,1477505789780131,1477505789780131,1,1.625,13312,-40.0,865.7,4.0313015
40000000000000000000CC00,1,1477505789787097,1477505789787097,1,0.8125,13312,-39.5,865.7,4.0435734
40000000000000000000CC00,1,1477505789793823,1477505789793823,1,9.75,13312,-40.0,865.7,3.9944859
40000000000000000000CC00,1,1477505789800797,1477505789800797,1,9.75,13312,-40.0,865.7,3.9699423
40000000000000000000CC00,1,1477505789808903,1477505789808903,1,-5.6875,13312,-39.5,865.7,4.074253
40000000000000000000CC00,1,1477505789816033,1477505789816033,1,5.6875,13312,-39.5,865.7,4.0067577
40000000000000000000CC00,1,1477505789822858,1477505789822858,1,-6.5,13312,-40.0,865.7,4.074253
40000000000000000000CC00,1,1477505789830063,1477505789830063,1,-2.4375,13312,-40.0,865.7,4.0558453
40000000000000000000CC00,1,1477505789836782,1477505789836782,1,0.0,13312,-39.5,865.7,4.0251656
40000000000000000000CC00,1,1477505789843711,1477505789843711,1,0.8125,13312,-39.5,865.7,4.0497093
40000000000000000000CC00,1,1477505789850556,1477505789850556,1,-3.25,13312,-39.5,865.7,4.0435734
40000000000000000000CC00,1,1477505789857524,1477505789857524,1,2.4375,13312,-40.0,865.7,4.0251656
40000000000000000000CC00,1,1477505789864807,1477505789864807,1,-1.625,13312,-40.0,865.7,4.0435734
40000000000000000000CC00,1,1477505789871511,1477505789871511,1,4.875,13312,-39.5,865.7,4.0190296
40000000000000000000CC00,1,1477505789878461,1477505789878461,1,1.625,13312,-40.0,865.7,4.0128937
40000000000000000000CC00,1,1477505789885708,1477505789885708,1,6.5,13312,-40.0,865.7,4.0067577
40000000000000000000CC00,1,1477505789892421,1477505789892421,1,1.625,13312,-40.0,865.7,4.0251656
40000000000000000000CC00,1,1477505789899657,1477505789899657,1,-4.875,13312,-40.0,865.7,4.061981
40000000000000000000CC00,1,1477505789906329,1477505789906329,1,0.0,13312,-39.5,865.7,4.0435734
40000000000000000000CC00,1,1477505789913291,1477505789913291,1,4.875,13312,-40.0,865.7,4.0067577
40000000000000000000CC00,1,1477505789920220,1477505789920220,1,0.0,13312,-40.0,865.7,4.0128937
40000000000000000000CC00,1,1477505789927401,1477505789927401,1,-0.8125,13312,-40.0,865.7,4.0374374
40000000000000000000CC00,1,1477505789934377,1477505789934377,1,-2.4375,13312,-40.0,865.7,4.0435734
40000000000000000000CC00,1,1477505789941308,1477505789941308,1,0.8125,13312,-40.0,865.7,4.0190296
40000000000000000000CC00,1,1477505789948003,1477505789948003,1,-2.4375,13312,-40.0,865.7,4.0497093
40000000000000000000CC00,1,1477505789955243,1477505789955243,1,-2.4375,13312,-40.0,865.7,4.0374374
40000000000000000000CC00,1,1477505789962127,1477505789962127,1,-5.6875,13312,-39.5,865.7,4.0497093
40000000000000000000CC00,1,1477505789969083,1477505789969083,1,-1.625,13312,-39.5,865.7,4.0190296
40000000000000000000CC00,1,1477505789975788,1477505789975788,1,-5.6875,13312,-40.0,865.7,4.0435734
40000000000000000000CC00,1,1477505789983097,1477505789983097,1,2.4375,13312,-40.0,865.7,4.0067577
40000000000000000000CC00,1,1477505789989797,1477505789989797,1,-0.8125,13312,-40.0,865.7,4.0067577
40000000000000000000CC00,1,1477505789996737,1477505789996737,1,0.0,13312,-39.5,865.7,4.0435734
40000000000000000000CC00,1,1477505790003688,1477505790003688,1,6.5,13312,-39.5,865.7,3.9699423
40000000000000000000CC00,1,1477505790010687,1477505790010687,1,-6.5,13312,-40.0,865.7,4.0497093
40000000000000000000CC00,1,1477505790017614,1477505790017614,1,0.8125,13312,-39.5,865.7,4.0251656
40000000000000000000CC00,1,1477505790024589,1477505790024589,1,-3.25,13312,-40.0,865.7,4.0313015
40000000000000000000CC00,1,1477505790031792,1477505790031792,1,-2.4375,13312,-39.5,865.7,4.0374374
40000000000000000000CC00,1,1477505790038475,1477505790038475,1,-4.875,13312,-39.5,865.7,4.0435734
40000000000000000000CC00,1,1477505790045361,1477505790045361,1,-3.25,13312,-40.0,865.7,4.0374374
40000000000000000000CC00,1,1477505790052548,1477505790052548,1,2.4375,13312,-40.0,865.7,4.0067577
40000000000000000000CC00,1,1477505790059480,1477505790059480,1,2.4375,13312,-40.0,865.7,4.0128937
40000000000000000000CC00,1,1477505790066435,1477505790066435,1,-3.25,13312,-39.5,865.7,4.061981
40000000000000000000CC00,1,1477505790074533,1477505790074533,1,-0.8125,13312,-40.0,865.7,4.0251656
40000000000000000000CC00,1,1477505790081243,1477505790081243,1,0.8125,13312,-40.0,865.7,4.0067577
40000000000000000000CC00,1,1477505790088189,1477505790088189,1,3.25,13312,-40.0,865.7,3.9822142
40000000000000000000CC00,1,1477505790095109,1477505790095109,1,-4.875,13312,-40.0,865.7,4.0190296
40000000000000000000CC00,1,1477505790102026,1477505790102026,1,2.4375,13312,-40.0,865.7,3.9944859
40000000000000000000CC00,1,1477505790108972,1477505790108972,1,-6.5,13312,-40.0,865.7,4.0251656
40000000000000000000CC00,1,1477505790115910,1477505790115910,1,0.0,13312,-40.0,865.7,4.0128937
40000000000000000000CC00,1,1477505790123096,1477505790123096,1,-2.4375,13312,-40.0,865.7,4.0313015
40000000000000000000CC00,1,1477505790131095,1477505790131095,1,-2.4375,13312,-40.0,865.7,4.0067577
40000000000000000000CC00,1,1477505790138053,1477505790138053,1,-1.625,13312,-40.0,865.7,4.0067577
40000000000000000000CC00,1,1477505790144745,1477505790144745,1,-0.8125,13312,-40.0,865.7,4.000622
40000000000000000000CC00,1,1477505790151665,1477505790151665,1,-1.625,13312,-40.0,865.7,4.000622
40000000000000000000CC00,1,1477505790158866,1477505790158866,1,-7.3125,13312,-40.0,865.7,4.0435734
40000000000000000000CC00,1,1477505790165879,1477505790165879,1,-2.4375,13312,-40.0,865.7,4.000622
40000000000000000000CC00,1,1477505790172894,1477505790172894,1,3.25,13312,-40.0,865.7,3.9576705
40000000000000000000CC00,1,1477505790179552,1477505790179552,1,4.875,13312,-40.0,865.7,3.9638064
40000000000000000000CC00,1,1477505790186820,1477505790186820,1,2.4375,13312,-40.0,865.7,3.9515345
40000000000000000000CC00,1,1477505790193547,1477505790193547,1,-7.3125,13312,-40.0,865.7,4.0128937
40000000000000000000CC00,1,1477505790200761,1477505790200761,1,3.25,13312,-40.0,865.7,3.9699423
40000000000000000000CC00,1,1477505790207473,1477505790207473,1,0.8125,13312,-40.0,865.7,3.9699423
40000000000000000000CC00,1,1477505790214667,1477505790214667,1,-0.8125,13312,-40.0,865.7,3.9883502
40000000000000000000CC00,1,1477505790221666,1477505790221666,1,1.625,13312,-40.0,865.7,3.9699423
40000000000000000000CC00,1,1477505790228551,1477505790228551,1,-4.875,13312,-40.0,865.7,4.000622
40000000000000000000CC00,1,1477505790235560,1477505790235560,1,-1.625,13312,-40.0,865.7,3.9944859
40000000000000000000CC00,1,1477505790242516,1477505790242516,1,0.8125,13312,-40.0,865.7,3.9638064
40000000000000000000CC00,1,1477505790249488,1477505790249488,1,2.4375,13312,-40.0,865.7,3.9699423
40000000000000000000CC00,1,1477505790256457,1477505790256457,1,-5.6875,13312,-40.0,865.7,4.0128937
40000000000000000000CC00,1,1477505790263361,1477505790263361,1,-2.4375,13312,-40.0,865.7,3.9760783
40000000000000000000CC00,1,1477505790270308,1477505790270308,1,-5.6875,13312,-40.0,865.7,4.0067577
40000000000000000000CC00,1,1477505790277027,1477505790277027,1,0.8125,13312,-40.0,865.7,3.9638064
40000000000000000000CC00,1,1477505790284030,1477505790284030,1,4.875,13312,-40.0,865.7,3.9453986
40000000000000000000CC00,1,1477505790291005,1477505790291005,1,-2.4375,13312,-40.0,865.7,3.9822142
40000000000000000000CC00,1,1477505790297982,1477505790297982,1,-3.25,13312,-40.0,865.7,4.0067577
40000000000000000000CC00,1,1477505790304978,1477505790304978,1,-0.8125,13312,-40.0,865.7,3.9699423
40000000000000000000CC00,1,1477505790311910,1477505790311910,1,-8.9375,13312,-40.0,865.7,4.0128937
40000000000000000000CC00,1,1477505790318859,1477505790318859,1,2.4375,13312,-40.0,865.7,3.9515345
40000000000000000000CC00,1,1477505790325796,1477505790325796,1,-0.8125,13312,-40.0,865.7,3.9515345
40000000000000000000CC00,1,1477505790333060,1477505790333060,1,3.25,13312,-40.0,865.7,3.9453986
40000000000000000000CC00,1,1477505790339749,1477505790339749,1,-2.4375,13312,-40.0,865.7,3.9822142
40000000000000000000CC00,1,1477505790346938,1477505790346938,1,8.125,13312,-40.0,865.7,3.9024472
40000000000000000000CC00,1,1477505790353628,1477505790353628,1,-5.6875,13312,-40.0,865.7,3.9638064
40000000000000000000CC00,1,1477505790360806,1477505790360806,1,0.8125,13312,-39.5,865.7,3.9515345
40000000000000000000CC00,1,1477505790367776,1477505790367776,1,-3.25,13312,-40.0,865.7,3.9883502
40000000000000000000CC00,1,1477505790374757,1477505790374757,1,-3.25,13312,-40.0,865.7,3.9760783
40000000000000000000CC00,1,1477505790381474,1477505790381474,1,-3.25,13312,-40.0,865.7,3.9699423
40000000000000000000CC00,1,1477505790388429,1477505790388429,1,3.25,13312,-39.5,865.7,3.9453986
40000000000000000000CC00,1,1477505790395657,1477505790395657,1,3.25,13312,-40.0,865.7,3.9331267
40000000000000000000CC00,1,1477505790402602,1477505790402602,1,-1.625,13312,-40.0,865.7,3.9515345
40000000000000000000CC00,1,1477505790409395,1477505790409395,1,-1.625,13312,-40.0,865.7,3.9515345
40000000000000000000CC00,1,1477505790416329,1477505790416329,1,0.0,13312,-39.5,865.7,3.9331267
40000000000000000000CC00,1,1477505790423294,1477505790423294,1,5.6875,13312,-40.0,865.7,3.9269907
40000000000000000000CC00,1,1477505790430495,1477505790430495,1,-8.125,13312,-40.0,865.7,3.9883502
40000000000000000000CC00,1,1477505790437517,1477505790437517,1,-4.875,13312,-40.0,865.7,3.9453986
40000000000000000000CC00,1,1477505790444479,1477505790444479,1,-3.25,13312,-39.5,865.7,3.9576705
40000000000000000000CC00,1,1477505790451158,1477505790451158,1,-2.4375,13312,-39.5,865.7,3.9576705
40000000000000000000CC00,1,1477505790458235,1477505790458235,1,4.875,13312,-40.0,865.7,3.9147189
40000000000000000000CC00,1,1477505790465294,1477505790465294,1,1.625,13312,-40.0,865.7,3.9147189
40000000000000000000CC00,1,1477505790472477,1477505790472477,1,3.25,13312,-40.0,865.7,3.9208548
40000000000000000000CC00,1,1477505790479445,1477505790479445,1,-8.125,13312,-40.0,865.7,3.9699423
40000000000000000000CC00,1,1477505790486131,1477505790486131,1,-1.625,13312,-39.5,865.7,3.9269907
40000000000000000000CC00,1,1477505790493186,1477505790493186,1,-0.8125,13312,-39.5,865.7,3.9269907
40000000000000000000CC00,1,1477505790500363,1477505790500363,1,-0.8125,13312,-40.0,865.7,3.9392626
40000000000000000000CC00,1,1477505790507309,1477505790507309,1,0.0,13312,-39.5,865.7,3.9147189
40000000000000000000CC00,1,1477505790514049,1477505790514049,1,1.625,13312,-40.0,865.7,3.9147189
40000000000000000000CC00,1,1477505790521238,1477505790521238,1,-5.6875,13312,-39.5,865.7,3.9453986
40000000000000000000CC00,1,1477505790529636,1477505790529636,1,-2.4375,13312,-39.5,865.7,3.9392626
40000000000000000000CC00,1,1477505790536336,1477505790536336,1,0.8125,13312,-39.5,865.7,3.9208548
40000000000000000000CC00,1,1477505790543479,1477505790543479,1,0.8125,13312,-40.0,865.7,3.9147189
40000000000000000000CC00,1,1477505790550137,1477505790550137,1,1.625,13312,-39.5,865.7,3.9269907
40000000000000000000CC00,1,1477505790557384,1477505790557384,1,0.8125,13312,-39.5,865.7,3.9085832
40000000000000000000CC00,1,1477505790564331,1477505790564331,1,1.625,13312,-40.0,865.7,3.9085832
40000000000000000000CC00,1,1477505790571231,1477505790571231,1,-5.6875,13312,-39.5,865.7,3.9331267
40000000000000000000CC00,1,1477505790577952,1477505790577952,1,-4.875,13312,-40.0,865.7,3.9392626
40000000000000000000CC00,1,1477505790585120,1477505790585120,1,-3.25,13312,-39.5,865.7,3.9269907
40000000000000000000CC00,1,1477505790591796,1477505790591796,1,0.8125,13312,-39.5,865.7,3.9085832
40000000000000000000CC00,1,1477505790598977,1477505790598977,1,-3.25,13312,-39.5,865.7,3.9208548
40000000000000000000CC00,1,1477505790605702,1477505790605702,1,3.25,13312,-39.5,865.7,3.8779035
40000000000000000000CC00,1,1477505790612720,1477505790612720,1,-5.6875,13312,-39.5,865.7,3.9331267
40000000000000000000CC00,1,1477505790619894,1477505790619894,1,3.25,13312,-39.5,865.7,3.8963113
40000000000000000000CC00,1,1477505790626825,1477505790626825,1,-4.875,13312,-40.0,865.7,3.9331267
40000000000000000000CC00,1,1477505790633810,1477505790633810,1,-0.8125,13312,-40.0,865.7,3.9024472
40000000000000000000CC00,1,1477505790640501,1477505790640501,1,1.625,13312,-39.5,865.7,3.9085832
40000000000000000000CC00,1,1477505790647421,1477505790647421,1,-0.8125,13312,-39.5,865.7,3.9024472
40000000000000000000CC00,1,1477505790654665,1477505790654665,1,-2.4375,13312,-40.0,865.7,3.9085832
40000000000000000000CC00,1,1477505790661369,1477505790661369,1,-6.5,13312,-40.0,865.7,3.9269907
40000000000000000000CC00,1,1477505790668329,1477505790668329,1,2.4375,13312,-39.5,865.7,3.8901753
40000000000000000000CC00,1,1477505790675270,1477505790675270,1,0.8125,13312,-39.5,865.7,3.8840394
40000000000000000000CC00,1,1477505790682457,1477505790682457,1,-1.625,13312,-39.5,865.7,3.8963113
40000000000000000000CC00,1,1477505790689211,1477505790689211,1,2.4375,13312,-39.5,865.7,3.8717675
40000000000000000000CC00,1,1477505790696165,1477505790696165,1,-2.4375,13312,-39.5,865.7,3.8840394
40000000000000000000CC00,1,1477505790703183,1477505790703183,1,-8.9375,13312,-39.5,865.7,3.9269907
40000000000000000000CC00,1,1477505790710397,1477505790710397,1,-0.8125,13312,-39.5,865.7,3.8963113
40000000000000000000CC00,1,1477505790717062,1477505790717062,1,-5.6875,13312,-39.5,865.7,3.9085832
40000000000000000000CC00,1,1477505790724007,1477505790724007,1,0.0,13312,-39.5,865.7,3.8717675
40000000000000000000CC00,1,1477505790730985,1477505790730985,1,1.625,13312,-39.5,865.7,3.8656316
40000000000000000000CC00,1,1477505790737925,1477505790737925,1,-6.5,13312,-39.5,865.7,3.9085832
40000000000000000000CC00,1,1477505790745156,1477505790745156,1,1.625,13312,-39.5,865.7,3.8594956
40000000000000000000CC00,1,1477505790752093,1477505790752093,1,0.8125,13312,-39.5,865.7,3.8656316
40000000000000000000CC00,1,1477505790759030,1477505790759030,1,0.8125,13312,-39.5,865.7,3.8656316
40000000000000000000CC00,1,1477505790765746,1477505790765746,1,2.4375,13312,-39.5,865.7,3.8533597
40000000000000000000CC00,1,1477505790773044,1477505790773044,1,1.625,13312,-39.5,865.7,3.8533597
40000000000000000000CC00,1,1477505790779796,1477505790779796,1,0.8125,13312,-39.5,865.7,3.8779035
40000000000000000000CC00,1,1477505790787013,1477505790787013,1,-4.875,13312,-39.5,865.7,3.8963113
40000000000000000000CC00,1,1477505790794013,1477505790794013,1,0.0,13312,-39.5,865.7,3.8594956
40000000000000000000CC00,1,1477505790800982,1477505790800982,1,-1.625,13312,-39.5,865.7,3.8717675
40000000000000000000CC00,1,1477505790807648,1477505790807648,1,7.3125,13312,-39.5,865.7,3.8165443
40000000000000000000CC00,1,1477505790814531,1477505790814531,1,0.0,13312,-39.5,865.7,3.8656316
40000000000000000000CC00,1,1477505790821472,1477505790821472,1,4.875,13312,-39.5,865.7,3.8349519
40000000000000000000CC00,1,1477505790828381,1477505790828381,1,0.8125,13312,-39.5,865.7,3.8410878
40000000000000000000CC00,1,1477505790835313,1477505790835313,1,-3.25,13312,-39.5,865.7,3.8779035
40000000000000000000CC00,1,1477505790842304,1477505790842304,1,-2.4375,13312,-39.5,865.7,3.8594956
40000000000000000000CC00,1,1477505790849519,1477505790849519,1,-0.8125,13312,-39.5,865.7,3.8472238
40000000000000000000CC00,1,1477505790856216,1477505790856216,1,-0.8125,13312,-39.5,865.7,3.8656316
40000000000000000000CC00,1,1477505790863397,1477505790863397,1,3.25,13312,-39.5,865.7,3.8104084
40000000000000000000CC00,1,1477505790870356,1477505790870356,1,4.875,13312,-39.5,865.7,3.7920005
40000000000000000000CC00,1,1477505790877084,1477505790877084,1,6.5,13312,-39.5,865.7,3.8104084
40000000000000000000CC00,1,1477505790884247,1477505790884247,1,4.875,13312,-39.0,865.7,3.8042724
40000000000000000000CC00,1,1477505790891198,1477505790891198,1,0.8125,13312,-39.5,865.7,3.8410878
40000000000000000000CC00,1,1477505790898195,1477505790898195,1,-1.625,13312,-39.5,865.7,3.8594956
40000000000000000000CC00,1,1477505790904945,1477505790904945,1,-5.6875,13312,-39.5,865.7,3.8656316
40000000000000000000CC00,1,1477505790911865,1477505790911865,1,9.75,13312,-39.5,865.7,3.7858646
40000000000000000000CC00,1,1477505790918893,1477505790918893,1,1.625,13312,-39.5,865.7,3.8410878
40000000000000000000CC00,1,1477505790925810,1477505790925810,1,-2.4375,13312,-39.5,865.7,3.8594956
40000000000000000000CC00,1,1477505790933140,1477505790933140,1,1.625,13312,-39.0,865.7,3.8594956
40000000000000000000CC00,1,1477505790939911,1477505790939911,1,-1.625,13312,-40.0,865.7,3.8533597
40000000000000000000CC00,1,1477505790947091,1477505790947091,1,-3.25,13312,-39.5,865.7,3.8533597
40000000000000000000CC00,1,1477505790954003,1477505790954003,1,4.875,13312,-39.5,865.7,3.8226802
40000000000000000000CC00,1,1477505790960699,1477505790960699,1,-3.25,13312,-39.5,865.7,3.8533597
40000000000000000000CC00,1,1477505790967600,1477505790967600,1,-7.3125,13312,-39.5,865.7,3.8840394
40000000000000000000CC00,1,1477505790974792,1477505790974792,1,0.0,13312,-39.5,865.7,3.828816
40000000000000000000CC00,1,1477505790981423,1477505790981423,1,-0.8125,13312,-39.5,865.7,3.8410878
40000000000000000000CC00,1,1477505790988377,1477505790988377,1,1.625,13312,-39.5,865.7,3.8104084
40000000000000000000CC00,1,1477505790995532,1477505790995532,1,-2.4375,13312,-39.5,865.7,3.8349519
40000000000000000000CC00,1,1477505791002482,1477505791002482,1,3.25,13312,-39.5,865.7,3.7674568
40000000000000000000CC00,1,1477505791009377,1477505791009377,1,-1.625,13312,-39.5,865.7,3.8165443
40000000000000000000CC00,1,1477505791016048,1477505791016048,1,1.625,13312,-39.5,865.7,3.8042724
40000000000000000000CC00,1,1477505791023204,1477505791023204,1,-0.8125,13312,-39.5,865.7,3.8165443
40000000000000000000CC00,1,1477505791030204,1477505791030204,1,0.8125,13312,-39.5,865.7,3.8104084
40000000000000000000CC00,1,1477505791036851,1477505791036851,1,-5.6875,13312,-39.5,865.7,3.828816
40000000000000000000CC00,1,1477505791043852,1477505791043852,1,5.6875,13312,-39.5,865.7,3.7735927
40000000000000000000CC00,1,1477505791050814,1477505791050814,1,4.875,13312,-39.5,865.7,3.7735927
40000000000000000000CC00,1,1477505791057764,1477505791057764,1,-4.875,13312,-39.5,865.7,3.8226802
40000000000000000000CC00,1,1477505791064975,1477505791064975,1,8.125,13312,-39.5,865.7,3.755185
40000000000000000000CC00,1,1477505791071694,1477505791071694,1,-0.8125,13312,-39.5,865.7,3.8104084
40000000000000000000CC00,1,1477505791078882,1477505791078882,1,4.875,13312,-39.0,865.7,3.7797287
40000000000000000000CC00,1,1477505791085573,1477505791085573,1,4.875,13312,-39.5,865.7,3.7858646
40000000000000000000CC00,1,1477505791092595,1477505791092595,1,-9.75,13312,-39.5,865.7,3.8779035
40000000000000000000CC00,1,1477505791099550,1477505791099550,1,5.6875,13312,-39.5,865.7,3.7858646
40000000000000000000CC00,1,1477505791106456,1477505791106456,1,4.875,13312,-39.5,865.7,3.7797287
40000000000000000000CC00,1,1477505791113366,1477505791113366,1,-1.625,13312,-39.5,865.7,3.828816
40000000000000000000CC00,1,1477505791120235,1477505791120235,1,-2.4375,13312,-39.5,865.7,3.8165443
40000000000000000000CC00,1,1477505791127502,1477505791127502,1,-1.625,13312,-40.0,865.7,3.828816
40000000000000000000CC00,1,1477505791134255,1477505791134255,1,6.5,13312,-39.5,865.7,3.7858646
40000000000000000000CC00,1,1477505791141447,1477505791141447,1,-4.875,13312,-39.5,865.7,3.8349519
40000000000000000000CC00,1,1477505791148380,1477505791148380,1,3.25,13312,-39.5,865.7,3.7674568
40000000000000000000CC00,1,1477505791155107,1477505791155107,1,2.4375,13312,-39.0,865.7,3.7858646
40000000000000000000CC00,1,1477505791162279,1477505791162279,1,2.4375,13312,-39.5,865.7,3.7797287
40000000000000000000CC00,1,1477505791169011,1477505791169011,1,3.25,13312,-39.5,865.7,3.7920005
40000000000000000000CC00,1,1477505791176153,1477505791176153,1,2.4375,13312,-39.5,865.7,3.7735927
40000000000000000000CC00,1,1477505791183186,1477505791183186,1,8.125,13312,-39.5,865.7,3.7674568
40000000000000000000CC00,1,1477505791190149,1477505791190149,1,4.875,13312,-39.5,865.7,3.7674568
40000000000000000000CC00,1,1477505791196866,1477505791196866,1,1.625,13312,-39.5,865.7,3.7858646
40000000000000000000CC00,1,1477505791204044,1477505791204044,1,4.875,13312,-39.0,865.7,3.7797287
40000000000000000000CC00,1,1477505791210779,1477505791210779,1,2.4375,13312,-39.5,865.7,3.7920005
40000000000000000000CC00,1,1477505791217969,1477505791217969,1,1.625,13312,-39.5,865.7,3.7920005
40000000000000000000CC00,1,1477505791224702,1477505791224702,1,-0.8125,13312,-39.5,865.7,3.8042724
40000000000000000000CC00,1,1477505791231660,1477505791231660,1,6.5,13312,-39.5,865.7,3.7858646
40000000000000000000CC00,1,1477505791238630,1477505791238630,1,4.875,13312,-39.5,865.7,3.7981365
40000000000000000000CC00,1,1477505791245604,1477505791245604,1,2.4375,13312,-39.0,865.7,3.8042724
40000000000000000000CC00,1,1477505791252703,1477505791252703,1,-5.6875,13312,-39.5,865.7,3.8656316
40000000000000000000CC00,1,1477505791260664,1477505791260664,1,-5.6875,13312,-39.5,865.7,3.8656316
40000000000000000000CC00,1,1477505791267607,1477505791267607,1,3.25,13312,-39.5,865.7,3.8226802
40000000000000000000CC00,1,1477505791274552,1477505791274552,1,-1.625,13312,-40.0,865.7,3.8472238
40000000000000000000CC00,1,1477505791281707,1477505791281707,1,2.4375,13312,-39.5,865.7,3.8226802
40000000000000000000CC00,1,1477505791288626,1477505791288626,1,1.625,13312,-39.5,865.7,3.8533597
40000000000000000000CC00,1,1477505791295509,1477505791295509,1,0.8125,13312,-40.0,865.7,3.8410878
40000000000000000000CC00,1,1477505791302436,1477505791302436,1,0.0,13312,-39.5,865.7,3.8533597
40000000000000000000CC00,1,1477505791309380,1477505791309380,1,0.0,13312,-40.0,865.7,3.8533597
40000000000000000000CC00,1,1477505791316325,1477505791316325,1,0.0,13312,-40.0,865.7,3.8533597
40000000000000000000CC00,1,1477505791323019,1477505791323019,1,-1.625,13312,-39.5,865.7,3.8717675
40000000000000000000CC00,1,1477505791330211,1477505791330211,1,0.8125,13312,-40.0,865.7,3.8840394
40000000000000000000CC00,1,1477505791337211,1477505791337211,1,-8.9375,13312,-40.0,865.7,3.9269907
40000000000000000000CC00,1,1477505791343897,1477505791343897,1,0.8125,13312,-40.0,865.7,3.8656316
40000000000000000000CC00,1,1477505791350910,1477505791350910,1,5.6875,13312,-40.0,865.7,3.8472238
40000000000000000000CC00,1,1477505791358095,1477505791358095,1,0.8125,13312,-40.0,865.7,3.8779035
40000000000000000000CC00,1,1477505791365023,1477505791365023,1,0.8125,13312,-40.0,865.7,3.8656316
40000000000000000000CC00,1,1477505791371685,1477505791371685,1,2.4375,13312,-40.0,865.7,3.8533597
40000000000000000000CC00,1,1477505791378870,1477505791378870,1,-0.8125,13312,-40.0,865.7,3.8840394
40000000000000000000CC00,1,1477505791385676,1477505791385676,1,0.0,13312,-40.0,865.7,3.8717675
40000000000000000000CC00,1,1477505791393096,1477505791393096,1,2.4375,13312,-40.0,865.7,3.8594956
40000000000000000000CC00,1,1477505791400122,1477505791400122,1,5.6875,13312,-40.0,865.7,3.8533597
40000000000000000000CC00,1,1477505791406969,1477505791406969,1,-4.875,13312,-40.0,865.7,3.9024472
40000000000000000000CC00,1,1477505791414009,1477505791414009,1,-1.625,13312,-40.0,865.7,3.8901753
40000000000000000000CC00,1,1477505791421024,1477505791421024,1,4.875,13312,-40.0,865.7,3.8594956
40000000000000000000CC00,1,1477505791428060,1477505791428060,1,1.625,13312,-40.0,865.7,3.8840394
40000000000000000000CC00,1,1477505791435093,1477505791435093,1,7.3125,13312,-40.0,865.7,3.8410878
40000000000000000000CC00,1,1477505791442371,1477505791442371,1,1.625,13312,-40.0,865.7,3.8779035
40000000000000000000CC00,1,1477505791449405,1477505791449405,1,0.8125,13312,-40.0,865.7,3.8779035
40000000000000000000CC00,1,1477505791456452,1477505791456452,1,3.25,13312,-40.5,865.7,3.8779035
40000000000000000000CC00,1,1477505791463188,1477505791463188,1,3.25,13312,-40.0,865.7,3.8656316
40000000000000000000CC00,1,1477505791470453,1477505791470453,1,-3.25,13312,-40.5,865.7,3.9147189
40000000000000000000CC00,1,1477505791477496,1477505791477496,1,3.25,13312,-40.0,865.7,3.8717675
40000000000000000000CC00,1,1477505791484272,1477505791484272,1,-6.5,13312,-40.0,865.7,3.9208548
40000000000000000000CC00,1,1477505791491610,1477505791491610,1,-0.8125,13312,-40.5,865.7,3.8840394
40000000000000000000CC00,1,1477505791498699,1477505791498699,1,0.8125,13312,-40.5,865.7,3.8717675
40000000000000000000CC00,1,1477505791505662,1477505791505662,1,2.4375,13312,-40.5,865.7,3.8656316
40000000000000000000CC00,1,1477505791512792,1477505791512792,1,-0.8125,13312,-40.5,865.7,3.8779035
40000000000000000000CC00,1,1477505791519834,1477505791519834,1,1.625,13312,-40.5,865.7,3.8717675
40000000000000000000CC00,1,1477505791526617,1477505791526617,1,5.6875,13312,-40.5,865.7,3.8349519
40000000000000000000CC00,1,1477505791533695,1477505791533695,1,0.8125,13312,-40.5,865.7,3.8779035
40000000000000000000CC00,1,1477505791540990,1477505791540990,1,-4.875,13312,-40.0,865.7,3.8963113
40000000000000000000CC00,1,1477505791548012,1477505791548012,1,0.0,13312,-40.5,865.7,3.8594956
40000000000000000000CC00,1,1477505791554824,1477505791554824,1,3.25,13312,-40.5,865.7,3.8656316
40000000000000000000CC00,1,1477505791562082,1477505791562082,1,-1.625,13312,-40.0,865.7,3.8779035
40000000000000000000CC00,1,1477505791568843,1477505791568843,1,2.4375,13312,-40.5,865.7,3.8656316
40000000000000000000CC00,1,1477505791576135,1477505791576135,1,-3.25,13312,-40.5,865.7,3.8963113
40000000000000000000CC00,1,1477505791582901,1477505791582901,1,-5.6875,13312,-41.0,865.7,3.9085832
40000000000000000000CC00,1,1477505791589887,1477505791589887,1,0.0,13312,-40.5,865.7,3.8840394
40000000000000000000CC00,1,1477505791596805,1477505791596805,1,1.625,13312,-40.5,865.7,3.8717675
40000000000000000000CC00,1,1477505791603992,1477505791603992,1,0.8125,13312,-40.5,865.7,3.8656316
40000000000000000000CC00,1,1477505791610652,1477505791610652,1,-2.4375,13312,-40.5,865.7,3.8717675
40000000000000000000CC00,1,1477505791617635,1477505791617635,1,0.0,13312,-40.5,865.7,3.8594956
40000000000000000000CC00,1,1477505791624778,1477505791624778,1,1.625,13312,-40.5,865.7,3.8533597
40000000000000000000CC00,1,1477505791631450,1477505791631450,1,2.4375,13312,-40.5,865.7,3.8349519
40000000000000000000CC00,1,1477505791638376,1477505791638376,1,2.4375,13312,-40.5,865.7,3.8349519
40000000000000000000CC00,1,1477505791645378,1477505791645378,1,7.3125,13312,-40.5,865.7,3.7858646
40000000000000000000CC00,1,1477505791652536,1477505791652536,1,1.625,13312,-40.5,865.7,3.8042724
40000000000000000000CC00,1,1477505791659451,1477505791659451,1,1.625,13312,-40.5,865.7,3.7920005
40000000000000000000CC00,1,1477505791666369,1477505791666369,1,-1.625,13312,-40.0,865.7,3.8042724
40000000000000000000CC00,1,1477505791673038,1477505791673038,1,1.625,13312,-40.0,865.7,3.7613208
40000000000000000000CC00,1,1477505791680011,1477505791680011,1,0.8125,13312,-40.5,865.7,3.742913
40000000000000000000CC00,1,1477505791687183,1477505791687183,1,1.625,13312,-40.0,865.7,3.7367773
40000000000000000000CC00,1,1477505791693879,1477505791693879,1,8.125,13312,-40.0,865.7,3.6815538
40000000000000000000CC00,1,1477505791701066,1477505791701066,1,-1.625,13312,-40.0,865.7,3.7245054
40000000000000000000CC00,1,1477505791707732,1477505791707732,1,0.0,13312,-40.0,865.7,3.6938257
40000000000000000000CC00,1,1477505791714708,1477505791714708,1,3.25,13312,-40.0,865.7,3.669282
40000000000000000000CC00,1,1477505791721848,1477505791721848,1,-0.8125,13312,-39.5,865.7,3.669282
40000000000000000000CC00,1,1477505791728815,1477505791728815,1,2.4375,13312,-39.5,865.7,3.6263306
40000000000000000000CC00,1,1477505791735701,1477505791735701,1,1.625,13312,-39.5,865.7,3.6447384
40000000000000000000CC00,1,1477505791742654,1477505791742654,1,-0.8125,13312,-39.5,865.7,3.6386025
40000000000000000000CC00,1,1477505791749572,1477505791749572,1,0.0,13312,-39.0,865.7,3.6140587
40000000000000000000CC00,1,1477505791756342,1477505791756342,1,0.8125,13312,-39.0,865.7,3.595651
40000000000000000000CC00,1,1477505791763574,1477505791763574,1,-0.8125,13312,-39.0,865.7,3.6017869
40000000000000000000CC00,1,1477505791770532,1477505791770532,1,-0.8125,13312,-39.0,865.7,3.577243
40000000000000000000CC00,1,1477505791777227,1477505791777227,1,1.625,13312,-38.5,865.7,3.5711074
40000000000000000000CC00,1,1477505791784165,1477505791784165,1,2.4375,13312,-39.0,865.7,3.5342917
40000000000000000000CC00,1,1477505791791351,1477505791791351,1,4.875,13312,-39.0,865.7,3.515884
40000000000000000000CC00,1,1477505791798324,1477505791798324,1,2.4375,13312,-39.0,865.7,3.515884
40000000000000000000CC00,1,1477505791804998,1477505791804998,1,0.8125,13312,-39.0,865.7,3.5220199
40000000000000000000CC00,1,1477505791811958,1477505791811958,1,2.4375,13312,-38.5,865.7,3.4913402
40000000000000000000CC00,1,1477505791818917,1477505791818917,1,1.625,13312,-39.0,865.7,3.4667966
40000000000000000000CC00,1,1477505791825842,1477505791825842,1,-2.4375,13312,-38.5,865.7,3.4790685
40000000000000000000CC00,1,1477505791833125,1477505791833125,1,-2.4375,13312,-39.0,865.7,3.4790685
40000000000000000000CC00,1,1477505791839823,1477505791839823,1,0.0,13312,-39.0,865.7,3.436117
40000000000000000000CC00,1,1477505791846772,1477505791846772,1,4.875,13312,-39.0,865.7,3.4115732
40000000000000000000CC00,1,1477505791853970,1477505791853970,1,2.4375,13312,-39.0,865.7,3.3993015
40000000000000000000CC00,1,1477505791860883,1477505791860883,1,-4.875,13312,-39.0,865.7,3.429981
40000000000000000000CC00,1,1477505791867613,1477505791867613,1,3.25,13312,-39.0,865.7,3.3747578
40000000000000000000CC00,1,1477505791874770,1477505791874770,1,-1.625,13312,-39.0,865.7,3.3931656
40000000000000000000CC00,1,1477505791881453,1477505791881453,1,-0.8125,13312,-39.0,865.7,3.3686218
40000000000000000000CC00,1,1477505791888380,1477505791888380,1,2.4375,13312,-39.0,865.7,3.350214
40000000000000000000CC00,1,1477505791895375,1477505791895375,1,1.625,13312,-39.5,865.7,3.3318062
40000000000000000000CC00,1,1477505791902538,1477505791902538,1,0.8125,13312,-39.5,865.7,3.3379421
40000000000000000000CC00,1,1477505791909506,1477505791909506,1,1.625,13312,-39.5,865.7,3.3072627
40000000000000000000CC00,1,1477505791916200,1477505791916200,1,4.875,13312,-39.5,865.7,3.282719
40000000000000000000CC00,1,1477505791923142,1477505791923142,1,-0.8125,13312,-40.0,865.7,3.3011267
40000000000000000000CC00,1,1477505791930283,1477505791930283,1,-1.625,13312,-39.5,865.7,3.2888548
40000000000000000000CC00,1,1477505791937269,1477505791937269,1,4.875,13312,-40.0,865.7,3.2459033
40000000000000000000CC00,1,1477505791943974,1477505791943974,1,-1.625,13312,-40.0,865.7,3.264311
40000000000000000000CC00,1,1477505791951200,1477505791951200,1,-0.8125,13312,-40.0,865.7,3.2459033
40000000000000000000CC00,1,1477505791957890,1477505791957890,1,5.6875,13312,-40.0,865.7,3.202952
