-55.0,0.28838838812250056,-8.125
-54.0,0.11658253987930872,21.125
-50.0,0.4295146206079795,5.6875
-49.5,0.4663301595172349,10.5625
-49.5,0.5645049299419159,5.6875
-50.5,0.7731263170943632,0.0
-51.5,0.9756117810952678,0.8125
-51.5,0.944932165337555,3.25
-51.0,0.9878836273983529,2.4375
-51.0,1.0369710126106935,-1.625
-51.0,1.0369710126106935,-8.9375
-50.5,0.9817477042468103,0.0
-50.5,1.0062913968529805,1.625
-49.5,1.0185632431560658,-4.875
-50.0,0.9633399347921826,1.625
-49.5,0.9817477042468103,3.25
-48.5,1.2946797849754812,0.8125
-48.0,1.4480778637640452,2.4375
-47.5,1.5585244804918115,-6.5
-47.5,1.576932249946439,-5.6875
-47.5,1.5830681730979816,-0.8125
-47.0,1.5830681730979816,3.25
-47.0,1.5707963267948966,4.875
-47.0,1.5707963267948966,2.4375
-47.0,1.5830681730979816,-0.8125
-47.0,1.607611865704152,-3.25
-47.5,1.5707963267948966,5.6875
