-62.5,4.9394181369917645,-20.3125
-62.0,4.503767593232243,34.125
-62.5,4.970097752749477,-17.875
-59.5,4.503767593232243,43.9375
-62.0,4.651029748869264,0.8125
-59.5,4.828971520263998,-1.625
-62.5,4.73693267299086,9.75
-61.5,4.608078286808466,30.875
-63.0,4.460816131171445,39.875
-61.0,4.700117134081604,6.5
-63.0,4.601942363656923,32.5
-62.5,4.743068596142402,15.4375
-61.0,4.822835597112456,10.5625
-63.0,4.626486056263094,8.9375
-63.5,4.473087977474529,42.3125
-63.0,4.767612288748572,8.125
-61.5,4.460816131171445,26.0
-61.5,4.522175362686871,57.75
-59.5,4.718524903536232,9.75
-61.0,4.743068596142402,-32.5
-59.5,4.632621979414636,9.75
-61.5,4.601942363656923,7.3125
-62.5,5.013049214810275,-56.9375
-61.0,4.706253057233147,11.375
-62.0,4.657165672020807,26.0
-60.0,4.534447208989955,-7.3125
-61.5,4.71238898038469,28.4375
-61.0,4.534447208989955,40.6875
-61.0,4.681709364626977,6.5
-61.5,4.914874444385594,-27.625
-61.0,4.706253057233147,8.125
-62.0,4.908738521234052,-23.5625
-59.5,4.994641445355648,-49.625
-62.5,4.921010367537137,-19.5
-60.0,4.81056375080937,-29.25
-61.5,4.700117134081604,19.5
-62.5,4.902602598082509,-30.875
-61.0,4.614214209960009,7.3125
-62.5,4.632621979414636,6.5
-59.5,4.632621979414636,18.6875
-61.5,4.767612288748572,-8.9375
-60.5,4.914874444385594,-13.8125
-63.5,4.595806440505381,43.9375
-60.0,4.7860200582032,-0.8125
-62.5,4.6878452877785195,-13.8125
-61.5,5.098952138931871,-41.5
-61.5,4.914874444385594,-1.625
-63.5,4.693981210930062,11.375
-62.5,4.779884135051658,11.375
-62.0,4.816699673960914,6.5
-63.5,4.681709364626977,13.8125
-60.0,4.95168998329485,-16.25
-63.0,4.822835597112456,16.25
-62.5,4.73693267299086,15.4375
-62.0,4.331961744989051,52.0625
-60.5,4.798291904506286,0.8125
-62.0,5.307573526084319,-66.6875
-63.0,4.798291904506286,-2.4375
-62.5,4.743068596142402,5.6875
-61.5,4.804427827657828,-2.4375
-62.0,4.540583132141498,29.25
-62.0,4.798291904506286,1.625
-62.0,4.878058905476339,-13.8125
-60.0,4.595806440505381,34.9375
-62.5,5.240078371417351,-74.8125
-62.5,4.129476280988146,102.5
-60.0,4.798291904506286,4.875
-59.0,5.141903600992669,-47.1875
-62.5,4.76147636559703,14.625
-62.0,4.534447208989955,32.5
-60.5,4.595806440505381,35.75
-60.0,4.675573441475434,7.3125
-63.0,4.816699673960914,21.125
-62.0,4.871922982324796,-0.8125
-59.5,4.675573441475434,22.75
-61.0,4.908738521234052,-15.4375
-61.0,4.97623367590102,-49.625
-63.0,5.160311370447297,-36.5625
-62.0,5.019185137961818,-43.9375
-61.0,4.657165672020807,13.8125
-62.0,4.896466674930966,-8.125
-63.5,4.743068596142402,22.75
-62.0,4.755340442445488,17.0625
-63.0,5.013049214810275,-27.625
-62.0,4.767612288748572,14.625
-63.0,4.822835597112456,-6.5
-64.0,4.724660826687775,9.75
-62.0,4.822835597112456,-21.125
-63.5,4.865787059173254,-18.6875
-63.0,4.8351074434155406,6.5
-64.0,4.779884135051658,37.375
-64.0,5.190990986205009,-51.25
-62.0,4.896466674930966,25.1875
-61.5,5.129631754689584,-32.5
-61.5,4.841243366567084,26.0
-63.5,4.963961829597935,-22.75
-63.5,4.724660826687775,21.125
-65.0,4.9394181369917645,12.1875
-62.5,4.657165672020807,40.6875
-61.5,4.657165672020807,15.4375
-64.5,4.847379289718626,26.8125
-62.0,4.97623367590102,20.3125
-61.5,4.914874444385594,13.8125
-64.0,4.399456899656019,126.9375
