%!PS-Adobe-2.0 EPSF-2.0
%%Title: 8touch.eps
%%Creator: gnuplot 5.0 patchlevel 3
%%CreationDate: Wed Nov 16 13:02:55 2016
%%DocumentFonts: (atend)
%%BoundingBox: 50 50 510 395
%%EndComments
%%BeginProlog
/gnudict 256 dict def
gnudict begin
%
% The following true/false flags may be edited by hand if desired.
% The unit line width and grayscale image gamma correction may also be changed.
%
/Color true def
/Blacktext false def
/Solid false def
/Dashlength 1 def
/Landscape false def
/Level1 false def
/Level3 false def
/Rounded false def
/ClipToBoundingBox false def
/SuppressPDFMark false def
/TransparentPatterns false def
/gnulinewidth 5.000 def
/userlinewidth gnulinewidth def
/Gamma 1.0 def
/BackgroundColor {-1.000 -1.000 -1.000} def
%
/vshift -150 def
/dl1 {
  10.0 Dashlength userlinewidth gnulinewidth div mul mul mul
  Rounded { currentlinewidth 0.75 mul sub dup 0 le { pop 0.01 } if } if
} def
/dl2 {
  10.0 Dashlength userlinewidth gnulinewidth div mul mul mul
  Rounded { currentlinewidth 0.75 mul add } if
} def
/hpt_ 31.5 def
/vpt_ 31.5 def
/hpt hpt_ def
/vpt vpt_ def
/doclip {
  ClipToBoundingBox {
    newpath 50 50 moveto 510 50 lineto 510 395 lineto 50 395 lineto closepath
    clip
  } if
} def
%
% Gnuplot Prolog Version 5.1 (Oct 2015)
%
%/SuppressPDFMark true def
%
/M {moveto} bind def
/L {lineto} bind def
/R {rmoveto} bind def
/V {rlineto} bind def
/N {newpath moveto} bind def
/Z {closepath} bind def
/C {setrgbcolor} bind def
/f {rlineto fill} bind def
/g {setgray} bind def
/Gshow {show} def   % May be redefined later in the file to support UTF-8
/vpt2 vpt 2 mul def
/hpt2 hpt 2 mul def
/Lshow {currentpoint stroke M 0 vshift R 
	Blacktext {gsave 0 setgray textshow grestore} {textshow} ifelse} def
/Rshow {currentpoint stroke M dup stringwidth pop neg vshift R
	Blacktext {gsave 0 setgray textshow grestore} {textshow} ifelse} def
/Cshow {currentpoint stroke M dup stringwidth pop -2 div vshift R 
	Blacktext {gsave 0 setgray textshow grestore} {textshow} ifelse} def
/UP {dup vpt_ mul /vpt exch def hpt_ mul /hpt exch def
  /hpt2 hpt 2 mul def /vpt2 vpt 2 mul def} def
/DL {Color {setrgbcolor Solid {pop []} if 0 setdash}
 {pop pop pop 0 setgray Solid {pop []} if 0 setdash} ifelse} def
/BL {stroke userlinewidth 2 mul setlinewidth
	Rounded {1 setlinejoin 1 setlinecap} if} def
/AL {stroke userlinewidth 2 div setlinewidth
	Rounded {1 setlinejoin 1 setlinecap} if} def
/UL {dup gnulinewidth mul /userlinewidth exch def
	dup 1 lt {pop 1} if 10 mul /udl exch def} def
/PL {stroke userlinewidth setlinewidth
	Rounded {1 setlinejoin 1 setlinecap} if} def
3.8 setmiterlimit
% Classic Line colors (version 5.0)
/LCw {1 1 1} def
/LCb {0 0 0} def
/LCa {0 0 0} def
/LC0 {1 0 0} def
/LC1 {0 1 0} def
/LC2 {0 0 1} def
/LC3 {1 0 1} def
/LC4 {0 1 1} def
/LC5 {1 1 0} def
/LC6 {0 0 0} def
/LC7 {1 0.3 0} def
/LC8 {0.5 0.5 0.5} def
% Default dash patterns (version 5.0)
/LTB {BL [] LCb DL} def
/LTw {PL [] 1 setgray} def
/LTb {PL [] LCb DL} def
/LTa {AL [1 udl mul 2 udl mul] 0 setdash LCa setrgbcolor} def
/LT0 {PL [] LC0 DL} def
/LT1 {PL [2 dl1 3 dl2] LC1 DL} def
/LT2 {PL [1 dl1 1.5 dl2] LC2 DL} def
/LT3 {PL [6 dl1 2 dl2 1 dl1 2 dl2] LC3 DL} def
/LT4 {PL [1 dl1 2 dl2 6 dl1 2 dl2 1 dl1 2 dl2] LC4 DL} def
/LT5 {PL [4 dl1 2 dl2] LC5 DL} def
/LT6 {PL [1.5 dl1 1.5 dl2 1.5 dl1 1.5 dl2 1.5 dl1 6 dl2] LC6 DL} def
/LT7 {PL [3 dl1 3 dl2 1 dl1 3 dl2] LC7 DL} def
/LT8 {PL [2 dl1 2 dl2 2 dl1 6 dl2] LC8 DL} def
/SL {[] 0 setdash} def
/Pnt {stroke [] 0 setdash gsave 1 setlinecap M 0 0 V stroke grestore} def
/Dia {stroke [] 0 setdash 2 copy vpt add M
  hpt neg vpt neg V hpt vpt neg V
  hpt vpt V hpt neg vpt V closepath stroke
  Pnt} def
/Pls {stroke [] 0 setdash vpt sub M 0 vpt2 V
  currentpoint stroke M
  hpt neg vpt neg R hpt2 0 V stroke
 } def
/Box {stroke [] 0 setdash 2 copy exch hpt sub exch vpt add M
  0 vpt2 neg V hpt2 0 V 0 vpt2 V
  hpt2 neg 0 V closepath stroke
  Pnt} def
/Crs {stroke [] 0 setdash exch hpt sub exch vpt add M
  hpt2 vpt2 neg V currentpoint stroke M
  hpt2 neg 0 R hpt2 vpt2 V stroke} def
/TriU {stroke [] 0 setdash 2 copy vpt 1.12 mul add M
  hpt neg vpt -1.62 mul V
  hpt 2 mul 0 V
  hpt neg vpt 1.62 mul V closepath stroke
  Pnt} def
/Star {2 copy Pls Crs} def
/BoxF {stroke [] 0 setdash exch hpt sub exch vpt add M
  0 vpt2 neg V hpt2 0 V 0 vpt2 V
  hpt2 neg 0 V closepath fill} def
/TriUF {stroke [] 0 setdash vpt 1.12 mul add M
  hpt neg vpt -1.62 mul V
  hpt 2 mul 0 V
  hpt neg vpt 1.62 mul V closepath fill} def
/TriD {stroke [] 0 setdash 2 copy vpt 1.12 mul sub M
  hpt neg vpt 1.62 mul V
  hpt 2 mul 0 V
  hpt neg vpt -1.62 mul V closepath stroke
  Pnt} def
/TriDF {stroke [] 0 setdash vpt 1.12 mul sub M
  hpt neg vpt 1.62 mul V
  hpt 2 mul 0 V
  hpt neg vpt -1.62 mul V closepath fill} def
/DiaF {stroke [] 0 setdash vpt add M
  hpt neg vpt neg V hpt vpt neg V
  hpt vpt V hpt neg vpt V closepath fill} def
/Pent {stroke [] 0 setdash 2 copy gsave
  translate 0 hpt M 4 {72 rotate 0 hpt L} repeat
  closepath stroke grestore Pnt} def
/PentF {stroke [] 0 setdash gsave
  translate 0 hpt M 4 {72 rotate 0 hpt L} repeat
  closepath fill grestore} def
/Circle {stroke [] 0 setdash 2 copy
  hpt 0 360 arc stroke Pnt} def
/CircleF {stroke [] 0 setdash hpt 0 360 arc fill} def
/C0 {BL [] 0 setdash 2 copy moveto vpt 90 450 arc} bind def
/C1 {BL [] 0 setdash 2 copy moveto
	2 copy vpt 0 90 arc closepath fill
	vpt 0 360 arc closepath} bind def
/C2 {BL [] 0 setdash 2 copy moveto
	2 copy vpt 90 180 arc closepath fill
	vpt 0 360 arc closepath} bind def
/C3 {BL [] 0 setdash 2 copy moveto
	2 copy vpt 0 180 arc closepath fill
	vpt 0 360 arc closepath} bind def
/C4 {BL [] 0 setdash 2 copy moveto
	2 copy vpt 180 270 arc closepath fill
	vpt 0 360 arc closepath} bind def
/C5 {BL [] 0 setdash 2 copy moveto
	2 copy vpt 0 90 arc
	2 copy moveto
	2 copy vpt 180 270 arc closepath fill
	vpt 0 360 arc} bind def
/C6 {BL [] 0 setdash 2 copy moveto
	2 copy vpt 90 270 arc closepath fill
	vpt 0 360 arc closepath} bind def
/C7 {BL [] 0 setdash 2 copy moveto
	2 copy vpt 0 270 arc closepath fill
	vpt 0 360 arc closepath} bind def
/C8 {BL [] 0 setdash 2 copy moveto
	2 copy vpt 270 360 arc closepath fill
	vpt 0 360 arc closepath} bind def
/C9 {BL [] 0 setdash 2 copy moveto
	2 copy vpt 270 450 arc closepath fill
	vpt 0 360 arc closepath} bind def
/C10 {BL [] 0 setdash 2 copy 2 copy moveto vpt 270 360 arc closepath fill
	2 copy moveto
	2 copy vpt 90 180 arc closepath fill
	vpt 0 360 arc closepath} bind def
/C11 {BL [] 0 setdash 2 copy moveto
	2 copy vpt 0 180 arc closepath fill
	2 copy moveto
	2 copy vpt 270 360 arc closepath fill
	vpt 0 360 arc closepath} bind def
/C12 {BL [] 0 setdash 2 copy moveto
	2 copy vpt 180 360 arc closepath fill
	vpt 0 360 arc closepath} bind def
/C13 {BL [] 0 setdash 2 copy moveto
	2 copy vpt 0 90 arc closepath fill
	2 copy moveto
	2 copy vpt 180 360 arc closepath fill
	vpt 0 360 arc closepath} bind def
/C14 {BL [] 0 setdash 2 copy moveto
	2 copy vpt 90 360 arc closepath fill
	vpt 0 360 arc} bind def
/C15 {BL [] 0 setdash 2 copy vpt 0 360 arc closepath fill
	vpt 0 360 arc closepath} bind def
/Rec {newpath 4 2 roll moveto 1 index 0 rlineto 0 exch rlineto
	neg 0 rlineto closepath} bind def
/Square {dup Rec} bind def
/Bsquare {vpt sub exch vpt sub exch vpt2 Square} bind def
/S0 {BL [] 0 setdash 2 copy moveto 0 vpt rlineto BL Bsquare} bind def
/S1 {BL [] 0 setdash 2 copy vpt Square fill Bsquare} bind def
/S2 {BL [] 0 setdash 2 copy exch vpt sub exch vpt Square fill Bsquare} bind def
/S3 {BL [] 0 setdash 2 copy exch vpt sub exch vpt2 vpt Rec fill Bsquare} bind def
/S4 {BL [] 0 setdash 2 copy exch vpt sub exch vpt sub vpt Square fill Bsquare} bind def
/S5 {BL [] 0 setdash 2 copy 2 copy vpt Square fill
	exch vpt sub exch vpt sub vpt Square fill Bsquare} bind def
/S6 {BL [] 0 setdash 2 copy exch vpt sub exch vpt sub vpt vpt2 Rec fill Bsquare} bind def
/S7 {BL [] 0 setdash 2 copy exch vpt sub exch vpt sub vpt vpt2 Rec fill
	2 copy vpt Square fill Bsquare} bind def
/S8 {BL [] 0 setdash 2 copy vpt sub vpt Square fill Bsquare} bind def
/S9 {BL [] 0 setdash 2 copy vpt sub vpt vpt2 Rec fill Bsquare} bind def
/S10 {BL [] 0 setdash 2 copy vpt sub vpt Square fill 2 copy exch vpt sub exch vpt Square fill
	Bsquare} bind def
/S11 {BL [] 0 setdash 2 copy vpt sub vpt Square fill 2 copy exch vpt sub exch vpt2 vpt Rec fill
	Bsquare} bind def
/S12 {BL [] 0 setdash 2 copy exch vpt sub exch vpt sub vpt2 vpt Rec fill Bsquare} bind def
/S13 {BL [] 0 setdash 2 copy exch vpt sub exch vpt sub vpt2 vpt Rec fill
	2 copy vpt Square fill Bsquare} bind def
/S14 {BL [] 0 setdash 2 copy exch vpt sub exch vpt sub vpt2 vpt Rec fill
	2 copy exch vpt sub exch vpt Square fill Bsquare} bind def
/S15 {BL [] 0 setdash 2 copy Bsquare fill Bsquare} bind def
/D0 {gsave translate 45 rotate 0 0 S0 stroke grestore} bind def
/D1 {gsave translate 45 rotate 0 0 S1 stroke grestore} bind def
/D2 {gsave translate 45 rotate 0 0 S2 stroke grestore} bind def
/D3 {gsave translate 45 rotate 0 0 S3 stroke grestore} bind def
/D4 {gsave translate 45 rotate 0 0 S4 stroke grestore} bind def
/D5 {gsave translate 45 rotate 0 0 S5 stroke grestore} bind def
/D6 {gsave translate 45 rotate 0 0 S6 stroke grestore} bind def
/D7 {gsave translate 45 rotate 0 0 S7 stroke grestore} bind def
/D8 {gsave translate 45 rotate 0 0 S8 stroke grestore} bind def
/D9 {gsave translate 45 rotate 0 0 S9 stroke grestore} bind def
/D10 {gsave translate 45 rotate 0 0 S10 stroke grestore} bind def
/D11 {gsave translate 45 rotate 0 0 S11 stroke grestore} bind def
/D12 {gsave translate 45 rotate 0 0 S12 stroke grestore} bind def
/D13 {gsave translate 45 rotate 0 0 S13 stroke grestore} bind def
/D14 {gsave translate 45 rotate 0 0 S14 stroke grestore} bind def
/D15 {gsave translate 45 rotate 0 0 S15 stroke grestore} bind def
/DiaE {stroke [] 0 setdash vpt add M
  hpt neg vpt neg V hpt vpt neg V
  hpt vpt V hpt neg vpt V closepath stroke} def
/BoxE {stroke [] 0 setdash exch hpt sub exch vpt add M
  0 vpt2 neg V hpt2 0 V 0 vpt2 V
  hpt2 neg 0 V closepath stroke} def
/TriUE {stroke [] 0 setdash vpt 1.12 mul add M
  hpt neg vpt -1.62 mul V
  hpt 2 mul 0 V
  hpt neg vpt 1.62 mul V closepath stroke} def
/TriDE {stroke [] 0 setdash vpt 1.12 mul sub M
  hpt neg vpt 1.62 mul V
  hpt 2 mul 0 V
  hpt neg vpt -1.62 mul V closepath stroke} def
/PentE {stroke [] 0 setdash gsave
  translate 0 hpt M 4 {72 rotate 0 hpt L} repeat
  closepath stroke grestore} def
/CircE {stroke [] 0 setdash 
  hpt 0 360 arc stroke} def
/Opaque {gsave closepath 1 setgray fill grestore 0 setgray closepath} def
/DiaW {stroke [] 0 setdash vpt add M
  hpt neg vpt neg V hpt vpt neg V
  hpt vpt V hpt neg vpt V Opaque stroke} def
/BoxW {stroke [] 0 setdash exch hpt sub exch vpt add M
  0 vpt2 neg V hpt2 0 V 0 vpt2 V
  hpt2 neg 0 V Opaque stroke} def
/TriUW {stroke [] 0 setdash vpt 1.12 mul add M
  hpt neg vpt -1.62 mul V
  hpt 2 mul 0 V
  hpt neg vpt 1.62 mul V Opaque stroke} def
/TriDW {stroke [] 0 setdash vpt 1.12 mul sub M
  hpt neg vpt 1.62 mul V
  hpt 2 mul 0 V
  hpt neg vpt -1.62 mul V Opaque stroke} def
/PentW {stroke [] 0 setdash gsave
  translate 0 hpt M 4 {72 rotate 0 hpt L} repeat
  Opaque stroke grestore} def
/CircW {stroke [] 0 setdash 
  hpt 0 360 arc Opaque stroke} def
/BoxFill {gsave Rec 1 setgray fill grestore} def
/Density {
  /Fillden exch def
  currentrgbcolor
  /ColB exch def /ColG exch def /ColR exch def
  /ColR ColR Fillden mul Fillden sub 1 add def
  /ColG ColG Fillden mul Fillden sub 1 add def
  /ColB ColB Fillden mul Fillden sub 1 add def
  ColR ColG ColB setrgbcolor} def
/BoxColFill {gsave Rec PolyFill} def
/PolyFill {gsave Density fill grestore grestore} def
/h {rlineto rlineto rlineto gsave closepath fill grestore} bind def
%
% PostScript Level 1 Pattern Fill routine for rectangles
% Usage: x y w h s a XX PatternFill
%	x,y = lower left corner of box to be filled
%	w,h = width and height of box
%	  a = angle in degrees between lines and x-axis
%	 XX = 0/1 for no/yes cross-hatch
%
/PatternFill {gsave /PFa [ 9 2 roll ] def
  PFa 0 get PFa 2 get 2 div add PFa 1 get PFa 3 get 2 div add translate
  PFa 2 get -2 div PFa 3 get -2 div PFa 2 get PFa 3 get Rec
  TransparentPatterns {} {gsave 1 setgray fill grestore} ifelse
  clip
  currentlinewidth 0.5 mul setlinewidth
  /PFs PFa 2 get dup mul PFa 3 get dup mul add sqrt def
  0 0 M PFa 5 get rotate PFs -2 div dup translate
  0 1 PFs PFa 4 get div 1 add floor cvi
	{PFa 4 get mul 0 M 0 PFs V} for
  0 PFa 6 get ne {
	0 1 PFs PFa 4 get div 1 add floor cvi
	{PFa 4 get mul 0 2 1 roll M PFs 0 V} for
 } if
  stroke grestore} def
%
/languagelevel where
 {pop languagelevel} {1} ifelse
dup 2 lt
	{/InterpretLevel1 true def
	 /InterpretLevel3 false def}
	{/InterpretLevel1 Level1 def
	 2 gt
	    {/InterpretLevel3 Level3 def}
	    {/InterpretLevel3 false def}
	 ifelse }
 ifelse
%
% PostScript level 2 pattern fill definitions
%
/Level2PatternFill {
/Tile8x8 {/PaintType 2 /PatternType 1 /TilingType 1 /BBox [0 0 8 8] /XStep 8 /YStep 8}
	bind def
/KeepColor {currentrgbcolor [/Pattern /DeviceRGB] setcolorspace} bind def
<< Tile8x8
 /PaintProc {0.5 setlinewidth pop 0 0 M 8 8 L 0 8 M 8 0 L stroke} 
>> matrix makepattern
/Pat1 exch def
<< Tile8x8
 /PaintProc {0.5 setlinewidth pop 0 0 M 8 8 L 0 8 M 8 0 L stroke
	0 4 M 4 8 L 8 4 L 4 0 L 0 4 L stroke}
>> matrix makepattern
/Pat2 exch def
<< Tile8x8
 /PaintProc {0.5 setlinewidth pop 0 0 M 0 8 L
	8 8 L 8 0 L 0 0 L fill}
>> matrix makepattern
/Pat3 exch def
<< Tile8x8
 /PaintProc {0.5 setlinewidth pop -4 8 M 8 -4 L
	0 12 M 12 0 L stroke}
>> matrix makepattern
/Pat4 exch def
<< Tile8x8
 /PaintProc {0.5 setlinewidth pop -4 0 M 8 12 L
	0 -4 M 12 8 L stroke}
>> matrix makepattern
/Pat5 exch def
<< Tile8x8
 /PaintProc {0.5 setlinewidth pop -2 8 M 4 -4 L
	0 12 M 8 -4 L 4 12 M 10 0 L stroke}
>> matrix makepattern
/Pat6 exch def
<< Tile8x8
 /PaintProc {0.5 setlinewidth pop -2 0 M 4 12 L
	0 -4 M 8 12 L 4 -4 M 10 8 L stroke}
>> matrix makepattern
/Pat7 exch def
<< Tile8x8
 /PaintProc {0.5 setlinewidth pop 8 -2 M -4 4 L
	12 0 M -4 8 L 12 4 M 0 10 L stroke}
>> matrix makepattern
/Pat8 exch def
<< Tile8x8
 /PaintProc {0.5 setlinewidth pop 0 -2 M 12 4 L
	-4 0 M 12 8 L -4 4 M 8 10 L stroke}
>> matrix makepattern
/Pat9 exch def
/Pattern1 {PatternBgnd KeepColor Pat1 setpattern} bind def
/Pattern2 {PatternBgnd KeepColor Pat2 setpattern} bind def
/Pattern3 {PatternBgnd KeepColor Pat3 setpattern} bind def
/Pattern4 {PatternBgnd KeepColor Landscape {Pat5} {Pat4} ifelse setpattern} bind def
/Pattern5 {PatternBgnd KeepColor Landscape {Pat4} {Pat5} ifelse setpattern} bind def
/Pattern6 {PatternBgnd KeepColor Landscape {Pat9} {Pat6} ifelse setpattern} bind def
/Pattern7 {PatternBgnd KeepColor Landscape {Pat8} {Pat7} ifelse setpattern} bind def
} def
%
%
%End of PostScript Level 2 code
%
/PatternBgnd {
  TransparentPatterns {} {gsave 1 setgray fill grestore} ifelse
} def
%
% Substitute for Level 2 pattern fill codes with
% grayscale if Level 2 support is not selected.
%
/Level1PatternFill {
/Pattern1 {0.250 Density} bind def
/Pattern2 {0.500 Density} bind def
/Pattern3 {0.750 Density} bind def
/Pattern4 {0.125 Density} bind def
/Pattern5 {0.375 Density} bind def
/Pattern6 {0.625 Density} bind def
/Pattern7 {0.875 Density} bind def
} def
%
% Now test for support of Level 2 code
%
Level1 {Level1PatternFill} {Level2PatternFill} ifelse
%
/Symbol-Oblique /Symbol findfont [1 0 .167 1 0 0] makefont
dup length dict begin {1 index /FID eq {pop pop} {def} ifelse} forall
currentdict end definefont pop
%
/MFshow {
   { dup 5 get 3 ge
     { 5 get 3 eq {gsave} {grestore} ifelse }
     {dup dup 0 get findfont exch 1 get scalefont setfont
     [ currentpoint ] exch dup 2 get 0 exch R dup 5 get 2 ne {dup dup 6
     get exch 4 get {textshow} {stringwidth pop 0 R} ifelse }if dup 5 get 0 eq
     {dup 3 get {2 get neg 0 exch R pop} {pop aload pop M} ifelse} {dup 5
     get 1 eq {dup 2 get exch dup 3 get exch 6 get stringwidth pop -2 div
     dup 0 R} {dup 6 get stringwidth pop -2 div 0 R 6 get
     textshow 2 index {aload pop M neg 3 -1 roll neg R pop pop} {pop pop pop
     pop aload pop M} ifelse }ifelse }ifelse }
     ifelse }
   forall} def
/Gswidth {dup type /stringtype eq {stringwidth} {pop (n) stringwidth} ifelse} def
/MFwidth {0 exch { dup 5 get 3 ge { 5 get 3 eq { 0 } { pop } ifelse }
 {dup 3 get{dup dup 0 get findfont exch 1 get scalefont setfont
     6 get Gswidth pop add} {pop} ifelse} ifelse} forall} def
/MLshow { currentpoint stroke M
  0 exch R
  Blacktext {gsave 0 setgray MFshow grestore} {MFshow} ifelse } bind def
/MRshow { currentpoint stroke M
  exch dup MFwidth neg 3 -1 roll R
  Blacktext {gsave 0 setgray MFshow grestore} {MFshow} ifelse } bind def
/MCshow { currentpoint stroke M
  exch dup MFwidth -2 div 3 -1 roll R
  Blacktext {gsave 0 setgray MFshow grestore} {MFshow} ifelse } bind def
/XYsave    { [( ) 1 2 true false 3 ()] } bind def
/XYrestore { [( ) 1 2 true false 4 ()] } bind def
Level1 SuppressPDFMark or 
{} {
/SDict 10 dict def
systemdict /pdfmark known not {
  userdict /pdfmark systemdict /cleartomark get put
} if
SDict begin [
  /Title (8touch.eps)
  /Subject (gnuplot plot)
  /Creator (gnuplot 5.0 patchlevel 3)
  /Author (swadhin)
%  /Producer (gnuplot)
%  /Keywords ()
  /CreationDate (Wed Nov 16 13:02:55 2016)
  /DOCINFO pdfmark
end
} ifelse
%
% Support for boxed text - Ethan A Merritt May 2005
%
/InitTextBox { userdict /TBy2 3 -1 roll put userdict /TBx2 3 -1 roll put
           userdict /TBy1 3 -1 roll put userdict /TBx1 3 -1 roll put
	   /Boxing true def } def
/ExtendTextBox { Boxing
    { gsave dup false charpath pathbbox
      dup TBy2 gt {userdict /TBy2 3 -1 roll put} {pop} ifelse
      dup TBx2 gt {userdict /TBx2 3 -1 roll put} {pop} ifelse
      dup TBy1 lt {userdict /TBy1 3 -1 roll put} {pop} ifelse
      dup TBx1 lt {userdict /TBx1 3 -1 roll put} {pop} ifelse
      grestore } if } def
/PopTextBox { newpath TBx1 TBxmargin sub TBy1 TBymargin sub M
               TBx1 TBxmargin sub TBy2 TBymargin add L
	       TBx2 TBxmargin add TBy2 TBymargin add L
	       TBx2 TBxmargin add TBy1 TBymargin sub L closepath } def
/DrawTextBox { PopTextBox stroke /Boxing false def} def
/FillTextBox { gsave PopTextBox 1 1 1 setrgbcolor fill grestore /Boxing false def} def
0 0 0 0 InitTextBox
/TBxmargin 20 def
/TBymargin 20 def
/Boxing false def
/textshow { ExtendTextBox Gshow } def
%
% redundant definitions for compatibility with prologue.ps older than 5.0.2
/LTB {BL [] LCb DL} def
/LTb {PL [] LCb DL} def
end
%%EndProlog
%%Page: 1 1
gnudict begin
gsave
doclip
50 50 translate
0.050 0.050 scale
0 setgray
newpath
(Helvetica) findfont 450 scalefont setfont
BackgroundColor 0 lt 3 1 roll 0 lt exch 0 lt or or not {BackgroundColor C 1.000 0 0 9216.00 6912.00 BoxColFill} if
1.000 UL
LTb
LCb setrgbcolor
1755 1786 M
63 0 V
6421 0 R
-63 0 V
stroke
1485 1786 M
[ [(Helvetica) 450.0 0.0 true true 0 ( 0)]
] -150.0 MRshow
1.000 UL
LTb
LCb setrgbcolor
1755 2245 M
63 0 V
6421 0 R
-63 0 V
stroke
1485 2245 M
[ [(Helvetica) 450.0 0.0 true true 0 ( 0.1)]
] -150.0 MRshow
1.000 UL
LTb
LCb setrgbcolor
1755 2703 M
63 0 V
6421 0 R
-63 0 V
stroke
1485 2703 M
[ [(Helvetica) 450.0 0.0 true true 0 ( 0.2)]
] -150.0 MRshow
1.000 UL
LTb
LCb setrgbcolor
1755 3162 M
63 0 V
6421 0 R
-63 0 V
stroke
1485 3162 M
[ [(Helvetica) 450.0 0.0 true true 0 ( 0.3)]
] -150.0 MRshow
1.000 UL
LTb
LCb setrgbcolor
1755 3620 M
63 0 V
6421 0 R
-63 0 V
stroke
1485 3620 M
[ [(Helvetica) 450.0 0.0 true true 0 ( 0.4)]
] -150.0 MRshow
1.000 UL
LTb
LCb setrgbcolor
1755 4079 M
63 0 V
6421 0 R
-63 0 V
stroke
1485 4079 M
[ [(Helvetica) 450.0 0.0 true true 0 ( 0.5)]
] -150.0 MRshow
1.000 UL
LTb
LCb setrgbcolor
1755 4537 M
63 0 V
6421 0 R
-63 0 V
stroke
1485 4537 M
[ [(Helvetica) 450.0 0.0 true true 0 ( 0.6)]
] -150.0 MRshow
1.000 UL
LTb
LCb setrgbcolor
1755 4996 M
63 0 V
6421 0 R
-63 0 V
stroke
1485 4996 M
[ [(Helvetica) 450.0 0.0 true true 0 ( 0.7)]
] -150.0 MRshow
1.000 UL
LTb
LCb setrgbcolor
1755 5454 M
63 0 V
6421 0 R
-63 0 V
stroke
1485 5454 M
[ [(Helvetica) 450.0 0.0 true true 0 ( 0.8)]
] -150.0 MRshow
1.000 UL
LTb
LCb setrgbcolor
1755 5913 M
63 0 V
6421 0 R
-63 0 V
stroke
1485 5913 M
[ [(Helvetica) 450.0 0.0 true true 0 ( 0.9)]
] -150.0 MRshow
1.000 UL
LTb
LCb setrgbcolor
1755 6371 M
63 0 V
6421 0 R
-63 0 V
stroke
1485 6371 M
[ [(Helvetica) 450.0 0.0 true true 0 ( 1)]
] -150.0 MRshow
1.000 UL
LTb
LCb setrgbcolor
2344 1786 M
0 63 V
0 4522 R
0 -63 V
stroke
2344 1516 M
currentpoint gsave translate -45 rotate 0 0 moveto
[ [(Helvetica) 450.0 0.0 true true 0 (Digit 0)]
] -150.0 MLshow
grestore
1.000 UL
LTb
LCb setrgbcolor
2934 1786 M
0 63 V
0 4522 R
0 -63 V
stroke
2934 1516 M
currentpoint gsave translate -45 rotate 0 0 moveto
[ [(Helvetica) 450.0 0.0 true true 0 (Digit 1)]
] -150.0 MLshow
grestore
1.000 UL
LTb
LCb setrgbcolor
3523 1786 M
0 63 V
0 4522 R
0 -63 V
stroke
3523 1516 M
currentpoint gsave translate -45 rotate 0 0 moveto
[ [(Helvetica) 450.0 0.0 true true 0 (Digit 2)]
] -150.0 MLshow
grestore
1.000 UL
LTb
LCb setrgbcolor
4113 1786 M
0 63 V
0 4522 R
0 -63 V
stroke
4113 1516 M
currentpoint gsave translate -45 rotate 0 0 moveto
[ [(Helvetica) 450.0 0.0 true true 0 (Digit 3)]
] -150.0 MLshow
grestore
1.000 UL
LTb
LCb setrgbcolor
4702 1786 M
0 63 V
0 4522 R
0 -63 V
stroke
4702 1516 M
currentpoint gsave translate -45 rotate 0 0 moveto
[ [(Helvetica) 450.0 0.0 true true 0 (Digit 4)]
] -150.0 MLshow
grestore
1.000 UL
LTb
LCb setrgbcolor
5292 1786 M
0 63 V
0 4522 R
0 -63 V
stroke
5292 1516 M
currentpoint gsave translate -45 rotate 0 0 moveto
[ [(Helvetica) 450.0 0.0 true true 0 (Digit 5)]
] -150.0 MLshow
grestore
1.000 UL
LTb
LCb setrgbcolor
5881 1786 M
0 63 V
0 4522 R
0 -63 V
stroke
5881 1516 M
currentpoint gsave translate -45 rotate 0 0 moveto
[ [(Helvetica) 450.0 0.0 true true 0 (Digit 6)]
] -150.0 MLshow
grestore
1.000 UL
LTb
LCb setrgbcolor
6471 1786 M
0 63 V
0 4522 R
0 -63 V
stroke
6471 1516 M
currentpoint gsave translate -45 rotate 0 0 moveto
[ [(Helvetica) 450.0 0.0 true true 0 (Digit 7)]
] -150.0 MLshow
grestore
1.000 UL
LTb
LCb setrgbcolor
7060 1786 M
0 63 V
0 4522 R
0 -63 V
stroke
7060 1516 M
currentpoint gsave translate -45 rotate 0 0 moveto
[ [(Helvetica) 450.0 0.0 true true 0 (Digit 8)]
] -150.0 MLshow
grestore
1.000 UL
LTb
LCb setrgbcolor
7650 1786 M
0 63 V
0 4522 R
0 -63 V
stroke
7650 1516 M
currentpoint gsave translate -45 rotate 0 0 moveto
[ [(Helvetica) 450.0 0.0 true true 0 (Digit 9)]
] -150.0 MLshow
grestore
1.000 UL
LTb
LCb setrgbcolor
1.000 UL
LTB
LCb setrgbcolor
1755 6371 N
0 -4585 V
6484 0 V
0 4585 V
-6484 0 V
Z stroke
1.000 UP
1.000 UL
LTb
LCb setrgbcolor
LCb setrgbcolor
450 4078 M
currentpoint gsave translate -270 rotate 0 0 moveto
[ [(Helvetica) 450.0 0.0 true true 0 (Value)]
] -150.0 MCshow
grestore
LTb
LCb setrgbcolor
LTb
LCb setrgbcolor
% Begin plot #1
1.000 UL
LTb
1.00 0.00 0.00 C LCb setrgbcolor
6286 6083 M
[ [(Helvetica) 450.0 0.0 true true 0 (False Positive)]
] -150.0 MRshow
1.000 UL
LTb
1.00 0.00 0.00 C 1.000 6556 5971 1143 225 BoxColFill
LCa setrgbcolor
6556 5971 N
1143 0 V
0 224 V
-1143 0 V
0 -224 V
Z stroke
1.000 UL
LTb
1.00 0.00 0.00 C 1.000 2260 1786 85 47 BoxColFill
LCa setrgbcolor
2260 1786 N
0 46 V
84 0 V
0 -46 V
-84 0 V
Z stroke
1.000 UL
LTb
1.00 0.00 0.00 C 1.000 2850 1786 85 139 BoxColFill
LCa setrgbcolor
2850 1786 N
0 138 V
84 0 V
0 -138 V
-84 0 V
Z stroke
1.000 UL
LTb
1.00 0.00 0.00 C 1.000 3439 1786 85 460 BoxColFill
LCa setrgbcolor
3439 1786 N
0 459 V
84 0 V
0 -459 V
-84 0 V
Z stroke
1.000 UL
LTb
1.00 0.00 0.00 C 1.000 4029 1786 85 460 BoxColFill
LCa setrgbcolor
4029 1786 N
0 459 V
84 0 V
0 -459 V
-84 0 V
Z stroke
1.000 UL
LTb
1.00 0.00 0.00 C 1.000 4618 1786 85 276 BoxColFill
LCa setrgbcolor
4618 1786 N
0 275 V
84 0 V
0 -275 V
-84 0 V
Z stroke
1.000 UL
LTb
1.00 0.00 0.00 C 1.000 5208 1786 85 368 BoxColFill
LCa setrgbcolor
5208 1786 N
0 367 V
84 0 V
0 -367 V
-84 0 V
Z stroke
1.000 UL
LTb
1.00 0.00 0.00 C 1.000 5797 1786 85 276 BoxColFill
LCa setrgbcolor
5797 1786 N
0 275 V
84 0 V
0 -275 V
-84 0 V
Z stroke
1.000 UL
LTb
1.00 0.00 0.00 C 1.000 6386 1786 86 460 BoxColFill
LCa setrgbcolor
6386 1786 N
0 459 V
85 0 V
0 -459 V
-85 0 V
Z stroke
1.000 UL
LTb
1.00 0.00 0.00 C 1.000 6976 1786 85 689 BoxColFill
LCa setrgbcolor
6976 1786 N
0 688 V
84 0 V
0 -688 V
-84 0 V
Z stroke
1.000 UL
LTb
1.00 0.00 0.00 C 1.000 7565 1786 86 414 BoxColFill
LCa setrgbcolor
7565 1786 N
0 413 V
85 0 V
0 -413 V
-85 0 V
Z stroke
1.000 UL
LTb
1.00 0.00 0.00 C 2.000 UL
PL LCa setrgbcolor
2302 1832 M
-31 0 R
62 0 V
-62 0 R
62 0 V
559 46 R
0 91 V
-31 -91 R
62 0 V
-62 91 R
62 0 V
558 184 R
0 183 V
-31 -183 R
62 0 V
-62 183 R
62 0 V
559 -183 R
0 183 V
-31 -183 R
62 0 V
-62 183 R
62 0 V
558 -367 R
0 184 V
-31 -184 R
62 0 V
-62 184 R
62 0 V
559 -184 R
0 367 V
-31 -367 R
62 0 V
-62 367 R
62 0 V
558 -367 R
0 184 V
-31 -184 R
62 0 V
-62 184 R
62 0 V
559 -138 R
0 459 V
-31 -459 R
62 0 V
-62 459 R
62 0 V
558 -459 R
0 917 V
-31 -917 R
62 0 V
-62 917 R
62 0 V
558 -825 R
0 183 V
-31 -183 R
62 0 V
-62 183 R
62 0 V
stroke
1.000 UL
LTb
1.00 0.00 0.00 C % End plot #1
% Begin plot #2
1.000 UL
LTb
0.00 1.00 0.00 C LCb setrgbcolor
6286 5633 M
[ [(Helvetica) 450.0 0.0 true true 0 (False Negative)]
] -150.0 MRshow
1.000 UL
LTb
0.00 1.00 0.00 C 1.000 6556 5521 1143 225 BoxColFill
LCa setrgbcolor
6556 5521 N
1143 0 V
0 224 V
-1143 0 V
0 -224 V
Z stroke
1.000 UL
LTb
0.00 1.00 0.00 C 1.000 2344 1786 86 47 BoxColFill
LCa setrgbcolor
2344 1786 N
0 46 V
85 0 V
0 -46 V
-85 0 V
Z stroke
1.000 UL
LTb
0.00 1.00 0.00 C 1.000 2934 1786 85 139 BoxColFill
LCa setrgbcolor
2934 1786 N
0 138 V
84 0 V
0 -138 V
-84 0 V
Z stroke
1.000 UL
LTb
0.00 1.00 0.00 C 1.000 3523 1786 86 460 BoxColFill
LCa setrgbcolor
3523 1786 N
0 459 V
85 0 V
0 -459 V
-85 0 V
Z stroke
1.000 UL
LTb
0.00 1.00 0.00 C 1.000 4113 1786 85 460 BoxColFill
LCa setrgbcolor
4113 1786 N
0 459 V
84 0 V
0 -459 V
-84 0 V
Z stroke
1.000 UL
LTb
0.00 1.00 0.00 C 1.000 4702 1786 85 276 BoxColFill
LCa setrgbcolor
4702 1786 N
0 275 V
84 0 V
0 -275 V
-84 0 V
Z stroke
1.000 UL
LTb
0.00 1.00 0.00 C 1.000 5292 1786 85 368 BoxColFill
LCa setrgbcolor
5292 1786 N
0 367 V
84 0 V
0 -367 V
-84 0 V
Z stroke
1.000 UL
LTb
0.00 1.00 0.00 C 1.000 5881 1786 85 230 BoxColFill
LCa setrgbcolor
5881 1786 N
0 229 V
84 0 V
0 -229 V
-84 0 V
Z stroke
1.000 UL
LTb
0.00 1.00 0.00 C 1.000 6471 1786 85 551 BoxColFill
LCa setrgbcolor
6471 1786 N
0 550 V
84 0 V
0 -550 V
-84 0 V
Z stroke
1.000 UL
LTb
0.00 1.00 0.00 C 1.000 7060 1786 85 689 BoxColFill
LCa setrgbcolor
7060 1786 N
0 688 V
84 0 V
0 -688 V
-84 0 V
Z stroke
1.000 UL
LTb
0.00 1.00 0.00 C 1.000 7650 1786 85 368 BoxColFill
LCa setrgbcolor
7650 1786 N
0 367 V
84 0 V
0 -367 V
-84 0 V
Z stroke
1.000 UL
LTb
0.00 1.00 0.00 C 2.000 UL
PL LCa setrgbcolor
2387 1832 M
-31 0 R
62 0 V
-62 0 R
62 0 V
558 46 R
0 91 V
-31 -91 R
62 0 V
-62 91 R
62 0 V
558 46 R
0 459 V
-31 -459 R
62 0 V
-62 459 R
62 0 V
559 -459 R
0 459 V
-31 -459 R
62 0 V
-62 459 R
62 0 V
558 -505 R
0 184 V
-31 -184 R
62 0 V
-62 184 R
62 0 V
559 -229 R
0 458 V
-31 -458 R
62 0 V
-62 458 R
62 0 V
558 -504 R
0 275 V
-31 -275 R
62 0 V
-62 275 R
62 0 V
559 92 R
0 183 V
-31 -183 R
62 0 V
-62 183 R
62 0 V
558 -367 R
0 825 V
-31 -825 R
62 0 V
-62 825 R
62 0 V
559 -871 R
0 275 V
-31 -275 R
62 0 V
-62 275 R
62 0 V
stroke
1.000 UL
LTb
0.00 1.00 0.00 C % End plot #2
% Begin plot #3
1.000 UL
LTb
0.00 0.00 1.00 C LCb setrgbcolor
6286 5183 M
[ [(Helvetica) 450.0 0.0 true true 0 (Accuracy)]
] -150.0 MRshow
1.000 UL
LTb
0.00 0.00 1.00 C 1.000 6556 5071 1143 225 BoxColFill
LCa setrgbcolor
6556 5071 N
1143 0 V
0 224 V
-1143 0 V
0 -224 V
Z stroke
1.000 UL
LTb
0.00 0.00 1.00 C 1.000 2429 1786 85 4540 BoxColFill
LCa setrgbcolor
2429 1786 N
0 4539 V
84 0 V
0 -4539 V
-84 0 V
Z stroke
1.000 UL
LTb
0.00 0.00 1.00 C 1.000 3018 1786 85 4448 BoxColFill
LCa setrgbcolor
3018 1786 N
0 4447 V
84 0 V
0 -4447 V
-84 0 V
Z stroke
1.000 UL
LTb
0.00 0.00 1.00 C 1.000 3608 1786 85 4128 BoxColFill
LCa setrgbcolor
3608 1786 N
0 4127 V
84 0 V
0 -4127 V
-84 0 V
Z stroke
1.000 UL
LTb
0.00 0.00 1.00 C 1.000 4197 1786 85 4128 BoxColFill
LCa setrgbcolor
4197 1786 N
0 4127 V
84 0 V
0 -4127 V
-84 0 V
Z stroke
1.000 UL
LTb
0.00 0.00 1.00 C 1.000 4786 1786 86 4311 BoxColFill
LCa setrgbcolor
4786 1786 N
0 4310 V
85 0 V
0 -4310 V
-85 0 V
Z stroke
1.000 UL
LTb
0.00 0.00 1.00 C 1.000 5376 1786 85 4219 BoxColFill
LCa setrgbcolor
5376 1786 N
0 4218 V
84 0 V
0 -4218 V
-84 0 V
Z stroke
1.000 UL
LTb
0.00 0.00 1.00 C 1.000 5965 1786 86 4311 BoxColFill
LCa setrgbcolor
5965 1786 N
0 4310 V
85 0 V
0 -4310 V
-85 0 V
Z stroke
1.000 UL
LTb
0.00 0.00 1.00 C 1.000 6555 1786 85 3990 BoxColFill
LCa setrgbcolor
6555 1786 N
0 3989 V
84 0 V
0 -3989 V
-84 0 V
Z stroke
1.000 UL
LTb
0.00 0.00 1.00 C 1.000 7144 1786 86 3761 BoxColFill
LCa setrgbcolor
7144 1786 N
0 3760 V
85 0 V
0 -3760 V
-85 0 V
Z stroke
1.000 UL
LTb
0.00 0.00 1.00 C 1.000 7734 1786 85 4082 BoxColFill
LCa setrgbcolor
7734 1786 N
0 4081 V
84 0 V
0 -4081 V
-84 0 V
Z stroke
1.000 UL
LTb
0.00 0.00 1.00 C 2.000 UL
PL LCa setrgbcolor
2471 6325 M
-31 0 R
62 0 V
-62 0 R
62 0 V
558 -229 R
0 275 V
-31 -275 R
62 0 V
-62 275 R
62 0 V
559 -917 R
0 917 V
-31 -917 R
62 0 V
-62 917 R
62 0 V
558 -917 R
0 917 V
-31 -917 R
62 0 V
-62 917 R
62 0 V
559 -550 R
0 550 V
-31 -550 R
62 0 V
-62 550 R
62 0 V
558 -688 R
0 642 V
-31 -642 R
62 0 V
-62 642 R
62 0 V
558 -458 R
0 458 V
-31 -458 R
62 0 V
-62 458 R
62 0 V
6597 5225 M
0 1100 V
6566 5225 M
62 0 V
-62 1100 R
62 0 V
7186 4858 M
0 1375 V
7155 4858 M
62 0 V
-62 1375 R
62 0 V
559 -596 R
0 459 V
-31 -459 R
62 0 V
-62 459 R
62 0 V
stroke
1.000 UL
LTb
0.00 0.00 1.00 C % End plot #3
2.000 UL
LTb
LCb setrgbcolor
1.000 UL
LTB
LCb setrgbcolor
1755 6371 N
0 -4585 V
6484 0 V
0 4585 V
-6484 0 V
Z stroke
1.000 UP
1.000 UL
LTb
LCb setrgbcolor
stroke
grestore
end
showpage
%%Trailer
%%DocumentFonts: Helvetica
