%!PS-Adobe-2.0 EPSF-2.0
%%Title: phase_pattern_door.eps
%%Creator: gnuplot 5.0 patchlevel 3
%%CreationDate: Mon Nov 14 00:24:17 2016
%%DocumentFonts: (atend)
%%BoundingBox: 50 50 510 395
%%EndComments
%%BeginProlog
/gnudict 256 dict def
gnudict begin
%
% The following true/false flags may be edited by hand if desired.
% The unit line width and grayscale image gamma correction may also be changed.
%
/Color true def
/Blacktext false def
/Solid false def
/Dashlength 1 def
/Landscape false def
/Level1 false def
/Level3 false def
/Rounded false def
/ClipToBoundingBox false def
/SuppressPDFMark false def
/TransparentPatterns false def
/gnulinewidth 5.000 def
/userlinewidth gnulinewidth def
/Gamma 1.0 def
/BackgroundColor {-1.000 -1.000 -1.000} def
%
/vshift -150 def
/dl1 {
  10.0 Dashlength userlinewidth gnulinewidth div mul mul mul
  Rounded { currentlinewidth 0.75 mul sub dup 0 le { pop 0.01 } if } if
} def
/dl2 {
  10.0 Dashlength userlinewidth gnulinewidth div mul mul mul
  Rounded { currentlinewidth 0.75 mul add } if
} def
/hpt_ 31.5 def
/vpt_ 31.5 def
/hpt hpt_ def
/vpt vpt_ def
/doclip {
  ClipToBoundingBox {
    newpath 50 50 moveto 510 50 lineto 510 395 lineto 50 395 lineto closepath
    clip
  } if
} def
%
% Gnuplot Prolog Version 5.1 (Oct 2015)
%
%/SuppressPDFMark true def
%
/M {moveto} bind def
/L {lineto} bind def
/R {rmoveto} bind def
/V {rlineto} bind def
/N {newpath moveto} bind def
/Z {closepath} bind def
/C {setrgbcolor} bind def
/f {rlineto fill} bind def
/g {setgray} bind def
/Gshow {show} def   % May be redefined later in the file to support UTF-8
/vpt2 vpt 2 mul def
/hpt2 hpt 2 mul def
/Lshow {currentpoint stroke M 0 vshift R 
	Blacktext {gsave 0 setgray textshow grestore} {textshow} ifelse} def
/Rshow {currentpoint stroke M dup stringwidth pop neg vshift R
	Blacktext {gsave 0 setgray textshow grestore} {textshow} ifelse} def
/Cshow {currentpoint stroke M dup stringwidth pop -2 div vshift R 
	Blacktext {gsave 0 setgray textshow grestore} {textshow} ifelse} def
/UP {dup vpt_ mul /vpt exch def hpt_ mul /hpt exch def
  /hpt2 hpt 2 mul def /vpt2 vpt 2 mul def} def
/DL {Color {setrgbcolor Solid {pop []} if 0 setdash}
 {pop pop pop 0 setgray Solid {pop []} if 0 setdash} ifelse} def
/BL {stroke userlinewidth 2 mul setlinewidth
	Rounded {1 setlinejoin 1 setlinecap} if} def
/AL {stroke userlinewidth 2 div setlinewidth
	Rounded {1 setlinejoin 1 setlinecap} if} def
/UL {dup gnulinewidth mul /userlinewidth exch def
	dup 1 lt {pop 1} if 10 mul /udl exch def} def
/PL {stroke userlinewidth setlinewidth
	Rounded {1 setlinejoin 1 setlinecap} if} def
3.8 setmiterlimit
% Classic Line colors (version 5.0)
/LCw {1 1 1} def
/LCb {0 0 0} def
/LCa {0 0 0} def
/LC0 {1 0 0} def
/LC1 {0 1 0} def
/LC2 {0 0 1} def
/LC3 {1 0 1} def
/LC4 {0 1 1} def
/LC5 {1 1 0} def
/LC6 {0 0 0} def
/LC7 {1 0.3 0} def
/LC8 {0.5 0.5 0.5} def
% Default dash patterns (version 5.0)
/LTB {BL [] LCb DL} def
/LTw {PL [] 1 setgray} def
/LTb {PL [] LCb DL} def
/LTa {AL [1 udl mul 2 udl mul] 0 setdash LCa setrgbcolor} def
/LT0 {PL [] LC0 DL} def
/LT1 {PL [2 dl1 3 dl2] LC1 DL} def
/LT2 {PL [1 dl1 1.5 dl2] LC2 DL} def
/LT3 {PL [6 dl1 2 dl2 1 dl1 2 dl2] LC3 DL} def
/LT4 {PL [1 dl1 2 dl2 6 dl1 2 dl2 1 dl1 2 dl2] LC4 DL} def
/LT5 {PL [4 dl1 2 dl2] LC5 DL} def
/LT6 {PL [1.5 dl1 1.5 dl2 1.5 dl1 1.5 dl2 1.5 dl1 6 dl2] LC6 DL} def
/LT7 {PL [3 dl1 3 dl2 1 dl1 3 dl2] LC7 DL} def
/LT8 {PL [2 dl1 2 dl2 2 dl1 6 dl2] LC8 DL} def
/SL {[] 0 setdash} def
/Pnt {stroke [] 0 setdash gsave 1 setlinecap M 0 0 V stroke grestore} def
/Dia {stroke [] 0 setdash 2 copy vpt add M
  hpt neg vpt neg V hpt vpt neg V
  hpt vpt V hpt neg vpt V closepath stroke
  Pnt} def
/Pls {stroke [] 0 setdash vpt sub M 0 vpt2 V
  currentpoint stroke M
  hpt neg vpt neg R hpt2 0 V stroke
 } def
/Box {stroke [] 0 setdash 2 copy exch hpt sub exch vpt add M
  0 vpt2 neg V hpt2 0 V 0 vpt2 V
  hpt2 neg 0 V closepath stroke
  Pnt} def
/Crs {stroke [] 0 setdash exch hpt sub exch vpt add M
  hpt2 vpt2 neg V currentpoint stroke M
  hpt2 neg 0 R hpt2 vpt2 V stroke} def
/TriU {stroke [] 0 setdash 2 copy vpt 1.12 mul add M
  hpt neg vpt -1.62 mul V
  hpt 2 mul 0 V
  hpt neg vpt 1.62 mul V closepath stroke
  Pnt} def
/Star {2 copy Pls Crs} def
/BoxF {stroke [] 0 setdash exch hpt sub exch vpt add M
  0 vpt2 neg V hpt2 0 V 0 vpt2 V
  hpt2 neg 0 V closepath fill} def
/TriUF {stroke [] 0 setdash vpt 1.12 mul add M
  hpt neg vpt -1.62 mul V
  hpt 2 mul 0 V
  hpt neg vpt 1.62 mul V closepath fill} def
/TriD {stroke [] 0 setdash 2 copy vpt 1.12 mul sub M
  hpt neg vpt 1.62 mul V
  hpt 2 mul 0 V
  hpt neg vpt -1.62 mul V closepath stroke
  Pnt} def
/TriDF {stroke [] 0 setdash vpt 1.12 mul sub M
  hpt neg vpt 1.62 mul V
  hpt 2 mul 0 V
  hpt neg vpt -1.62 mul V closepath fill} def
/DiaF {stroke [] 0 setdash vpt add M
  hpt neg vpt neg V hpt vpt neg V
  hpt vpt V hpt neg vpt V closepath fill} def
/Pent {stroke [] 0 setdash 2 copy gsave
  translate 0 hpt M 4 {72 rotate 0 hpt L} repeat
  closepath stroke grestore Pnt} def
/PentF {stroke [] 0 setdash gsave
  translate 0 hpt M 4 {72 rotate 0 hpt L} repeat
  closepath fill grestore} def
/Circle {stroke [] 0 setdash 2 copy
  hpt 0 360 arc stroke Pnt} def
/CircleF {stroke [] 0 setdash hpt 0 360 arc fill} def
/C0 {BL [] 0 setdash 2 copy moveto vpt 90 450 arc} bind def
/C1 {BL [] 0 setdash 2 copy moveto
	2 copy vpt 0 90 arc closepath fill
	vpt 0 360 arc closepath} bind def
/C2 {BL [] 0 setdash 2 copy moveto
	2 copy vpt 90 180 arc closepath fill
	vpt 0 360 arc closepath} bind def
/C3 {BL [] 0 setdash 2 copy moveto
	2 copy vpt 0 180 arc closepath fill
	vpt 0 360 arc closepath} bind def
/C4 {BL [] 0 setdash 2 copy moveto
	2 copy vpt 180 270 arc closepath fill
	vpt 0 360 arc closepath} bind def
/C5 {BL [] 0 setdash 2 copy moveto
	2 copy vpt 0 90 arc
	2 copy moveto
	2 copy vpt 180 270 arc closepath fill
	vpt 0 360 arc} bind def
/C6 {BL [] 0 setdash 2 copy moveto
	2 copy vpt 90 270 arc closepath fill
	vpt 0 360 arc closepath} bind def
/C7 {BL [] 0 setdash 2 copy moveto
	2 copy vpt 0 270 arc closepath fill
	vpt 0 360 arc closepath} bind def
/C8 {BL [] 0 setdash 2 copy moveto
	2 copy vpt 270 360 arc closepath fill
	vpt 0 360 arc closepath} bind def
/C9 {BL [] 0 setdash 2 copy moveto
	2 copy vpt 270 450 arc closepath fill
	vpt 0 360 arc closepath} bind def
/C10 {BL [] 0 setdash 2 copy 2 copy moveto vpt 270 360 arc closepath fill
	2 copy moveto
	2 copy vpt 90 180 arc closepath fill
	vpt 0 360 arc closepath} bind def
/C11 {BL [] 0 setdash 2 copy moveto
	2 copy vpt 0 180 arc closepath fill
	2 copy moveto
	2 copy vpt 270 360 arc closepath fill
	vpt 0 360 arc closepath} bind def
/C12 {BL [] 0 setdash 2 copy moveto
	2 copy vpt 180 360 arc closepath fill
	vpt 0 360 arc closepath} bind def
/C13 {BL [] 0 setdash 2 copy moveto
	2 copy vpt 0 90 arc closepath fill
	2 copy moveto
	2 copy vpt 180 360 arc closepath fill
	vpt 0 360 arc closepath} bind def
/C14 {BL [] 0 setdash 2 copy moveto
	2 copy vpt 90 360 arc closepath fill
	vpt 0 360 arc} bind def
/C15 {BL [] 0 setdash 2 copy vpt 0 360 arc closepath fill
	vpt 0 360 arc closepath} bind def
/Rec {newpath 4 2 roll moveto 1 index 0 rlineto 0 exch rlineto
	neg 0 rlineto closepath} bind def
/Square {dup Rec} bind def
/Bsquare {vpt sub exch vpt sub exch vpt2 Square} bind def
/S0 {BL [] 0 setdash 2 copy moveto 0 vpt rlineto BL Bsquare} bind def
/S1 {BL [] 0 setdash 2 copy vpt Square fill Bsquare} bind def
/S2 {BL [] 0 setdash 2 copy exch vpt sub exch vpt Square fill Bsquare} bind def
/S3 {BL [] 0 setdash 2 copy exch vpt sub exch vpt2 vpt Rec fill Bsquare} bind def
/S4 {BL [] 0 setdash 2 copy exch vpt sub exch vpt sub vpt Square fill Bsquare} bind def
/S5 {BL [] 0 setdash 2 copy 2 copy vpt Square fill
	exch vpt sub exch vpt sub vpt Square fill Bsquare} bind def
/S6 {BL [] 0 setdash 2 copy exch vpt sub exch vpt sub vpt vpt2 Rec fill Bsquare} bind def
/S7 {BL [] 0 setdash 2 copy exch vpt sub exch vpt sub vpt vpt2 Rec fill
	2 copy vpt Square fill Bsquare} bind def
/S8 {BL [] 0 setdash 2 copy vpt sub vpt Square fill Bsquare} bind def
/S9 {BL [] 0 setdash 2 copy vpt sub vpt vpt2 Rec fill Bsquare} bind def
/S10 {BL [] 0 setdash 2 copy vpt sub vpt Square fill 2 copy exch vpt sub exch vpt Square fill
	Bsquare} bind def
/S11 {BL [] 0 setdash 2 copy vpt sub vpt Square fill 2 copy exch vpt sub exch vpt2 vpt Rec fill
	Bsquare} bind def
/S12 {BL [] 0 setdash 2 copy exch vpt sub exch vpt sub vpt2 vpt Rec fill Bsquare} bind def
/S13 {BL [] 0 setdash 2 copy exch vpt sub exch vpt sub vpt2 vpt Rec fill
	2 copy vpt Square fill Bsquare} bind def
/S14 {BL [] 0 setdash 2 copy exch vpt sub exch vpt sub vpt2 vpt Rec fill
	2 copy exch vpt sub exch vpt Square fill Bsquare} bind def
/S15 {BL [] 0 setdash 2 copy Bsquare fill Bsquare} bind def
/D0 {gsave translate 45 rotate 0 0 S0 stroke grestore} bind def
/D1 {gsave translate 45 rotate 0 0 S1 stroke grestore} bind def
/D2 {gsave translate 45 rotate 0 0 S2 stroke grestore} bind def
/D3 {gsave translate 45 rotate 0 0 S3 stroke grestore} bind def
/D4 {gsave translate 45 rotate 0 0 S4 stroke grestore} bind def
/D5 {gsave translate 45 rotate 0 0 S5 stroke grestore} bind def
/D6 {gsave translate 45 rotate 0 0 S6 stroke grestore} bind def
/D7 {gsave translate 45 rotate 0 0 S7 stroke grestore} bind def
/D8 {gsave translate 45 rotate 0 0 S8 stroke grestore} bind def
/D9 {gsave translate 45 rotate 0 0 S9 stroke grestore} bind def
/D10 {gsave translate 45 rotate 0 0 S10 stroke grestore} bind def
/D11 {gsave translate 45 rotate 0 0 S11 stroke grestore} bind def
/D12 {gsave translate 45 rotate 0 0 S12 stroke grestore} bind def
/D13 {gsave translate 45 rotate 0 0 S13 stroke grestore} bind def
/D14 {gsave translate 45 rotate 0 0 S14 stroke grestore} bind def
/D15 {gsave translate 45 rotate 0 0 S15 stroke grestore} bind def
/DiaE {stroke [] 0 setdash vpt add M
  hpt neg vpt neg V hpt vpt neg V
  hpt vpt V hpt neg vpt V closepath stroke} def
/BoxE {stroke [] 0 setdash exch hpt sub exch vpt add M
  0 vpt2 neg V hpt2 0 V 0 vpt2 V
  hpt2 neg 0 V closepath stroke} def
/TriUE {stroke [] 0 setdash vpt 1.12 mul add M
  hpt neg vpt -1.62 mul V
  hpt 2 mul 0 V
  hpt neg vpt 1.62 mul V closepath stroke} def
/TriDE {stroke [] 0 setdash vpt 1.12 mul sub M
  hpt neg vpt 1.62 mul V
  hpt 2 mul 0 V
  hpt neg vpt -1.62 mul V closepath stroke} def
/PentE {stroke [] 0 setdash gsave
  translate 0 hpt M 4 {72 rotate 0 hpt L} repeat
  closepath stroke grestore} def
/CircE {stroke [] 0 setdash 
  hpt 0 360 arc stroke} def
/Opaque {gsave closepath 1 setgray fill grestore 0 setgray closepath} def
/DiaW {stroke [] 0 setdash vpt add M
  hpt neg vpt neg V hpt vpt neg V
  hpt vpt V hpt neg vpt V Opaque stroke} def
/BoxW {stroke [] 0 setdash exch hpt sub exch vpt add M
  0 vpt2 neg V hpt2 0 V 0 vpt2 V
  hpt2 neg 0 V Opaque stroke} def
/TriUW {stroke [] 0 setdash vpt 1.12 mul add M
  hpt neg vpt -1.62 mul V
  hpt 2 mul 0 V
  hpt neg vpt 1.62 mul V Opaque stroke} def
/TriDW {stroke [] 0 setdash vpt 1.12 mul sub M
  hpt neg vpt 1.62 mul V
  hpt 2 mul 0 V
  hpt neg vpt -1.62 mul V Opaque stroke} def
/PentW {stroke [] 0 setdash gsave
  translate 0 hpt M 4 {72 rotate 0 hpt L} repeat
  Opaque stroke grestore} def
/CircW {stroke [] 0 setdash 
  hpt 0 360 arc Opaque stroke} def
/BoxFill {gsave Rec 1 setgray fill grestore} def
/Density {
  /Fillden exch def
  currentrgbcolor
  /ColB exch def /ColG exch def /ColR exch def
  /ColR ColR Fillden mul Fillden sub 1 add def
  /ColG ColG Fillden mul Fillden sub 1 add def
  /ColB ColB Fillden mul Fillden sub 1 add def
  ColR ColG ColB setrgbcolor} def
/BoxColFill {gsave Rec PolyFill} def
/PolyFill {gsave Density fill grestore grestore} def
/h {rlineto rlineto rlineto gsave closepath fill grestore} bind def
%
% PostScript Level 1 Pattern Fill routine for rectangles
% Usage: x y w h s a XX PatternFill
%	x,y = lower left corner of box to be filled
%	w,h = width and height of box
%	  a = angle in degrees between lines and x-axis
%	 XX = 0/1 for no/yes cross-hatch
%
/PatternFill {gsave /PFa [ 9 2 roll ] def
  PFa 0 get PFa 2 get 2 div add PFa 1 get PFa 3 get 2 div add translate
  PFa 2 get -2 div PFa 3 get -2 div PFa 2 get PFa 3 get Rec
  TransparentPatterns {} {gsave 1 setgray fill grestore} ifelse
  clip
  currentlinewidth 0.5 mul setlinewidth
  /PFs PFa 2 get dup mul PFa 3 get dup mul add sqrt def
  0 0 M PFa 5 get rotate PFs -2 div dup translate
  0 1 PFs PFa 4 get div 1 add floor cvi
	{PFa 4 get mul 0 M 0 PFs V} for
  0 PFa 6 get ne {
	0 1 PFs PFa 4 get div 1 add floor cvi
	{PFa 4 get mul 0 2 1 roll M PFs 0 V} for
 } if
  stroke grestore} def
%
/languagelevel where
 {pop languagelevel} {1} ifelse
dup 2 lt
	{/InterpretLevel1 true def
	 /InterpretLevel3 false def}
	{/InterpretLevel1 Level1 def
	 2 gt
	    {/InterpretLevel3 Level3 def}
	    {/InterpretLevel3 false def}
	 ifelse }
 ifelse
%
% PostScript level 2 pattern fill definitions
%
/Level2PatternFill {
/Tile8x8 {/PaintType 2 /PatternType 1 /TilingType 1 /BBox [0 0 8 8] /XStep 8 /YStep 8}
	bind def
/KeepColor {currentrgbcolor [/Pattern /DeviceRGB] setcolorspace} bind def
<< Tile8x8
 /PaintProc {0.5 setlinewidth pop 0 0 M 8 8 L 0 8 M 8 0 L stroke} 
>> matrix makepattern
/Pat1 exch def
<< Tile8x8
 /PaintProc {0.5 setlinewidth pop 0 0 M 8 8 L 0 8 M 8 0 L stroke
	0 4 M 4 8 L 8 4 L 4 0 L 0 4 L stroke}
>> matrix makepattern
/Pat2 exch def
<< Tile8x8
 /PaintProc {0.5 setlinewidth pop 0 0 M 0 8 L
	8 8 L 8 0 L 0 0 L fill}
>> matrix makepattern
/Pat3 exch def
<< Tile8x8
 /PaintProc {0.5 setlinewidth pop -4 8 M 8 -4 L
	0 12 M 12 0 L stroke}
>> matrix makepattern
/Pat4 exch def
<< Tile8x8
 /PaintProc {0.5 setlinewidth pop -4 0 M 8 12 L
	0 -4 M 12 8 L stroke}
>> matrix makepattern
/Pat5 exch def
<< Tile8x8
 /PaintProc {0.5 setlinewidth pop -2 8 M 4 -4 L
	0 12 M 8 -4 L 4 12 M 10 0 L stroke}
>> matrix makepattern
/Pat6 exch def
<< Tile8x8
 /PaintProc {0.5 setlinewidth pop -2 0 M 4 12 L
	0 -4 M 8 12 L 4 -4 M 10 8 L stroke}
>> matrix makepattern
/Pat7 exch def
<< Tile8x8
 /PaintProc {0.5 setlinewidth pop 8 -2 M -4 4 L
	12 0 M -4 8 L 12 4 M 0 10 L stroke}
>> matrix makepattern
/Pat8 exch def
<< Tile8x8
 /PaintProc {0.5 setlinewidth pop 0 -2 M 12 4 L
	-4 0 M 12 8 L -4 4 M 8 10 L stroke}
>> matrix makepattern
/Pat9 exch def
/Pattern1 {PatternBgnd KeepColor Pat1 setpattern} bind def
/Pattern2 {PatternBgnd KeepColor Pat2 setpattern} bind def
/Pattern3 {PatternBgnd KeepColor Pat3 setpattern} bind def
/Pattern4 {PatternBgnd KeepColor Landscape {Pat5} {Pat4} ifelse setpattern} bind def
/Pattern5 {PatternBgnd KeepColor Landscape {Pat4} {Pat5} ifelse setpattern} bind def
/Pattern6 {PatternBgnd KeepColor Landscape {Pat9} {Pat6} ifelse setpattern} bind def
/Pattern7 {PatternBgnd KeepColor Landscape {Pat8} {Pat7} ifelse setpattern} bind def
} def
%
%
%End of PostScript Level 2 code
%
/PatternBgnd {
  TransparentPatterns {} {gsave 1 setgray fill grestore} ifelse
} def
%
% Substitute for Level 2 pattern fill codes with
% grayscale if Level 2 support is not selected.
%
/Level1PatternFill {
/Pattern1 {0.250 Density} bind def
/Pattern2 {0.500 Density} bind def
/Pattern3 {0.750 Density} bind def
/Pattern4 {0.125 Density} bind def
/Pattern5 {0.375 Density} bind def
/Pattern6 {0.625 Density} bind def
/Pattern7 {0.875 Density} bind def
} def
%
% Now test for support of Level 2 code
%
Level1 {Level1PatternFill} {Level2PatternFill} ifelse
%
/Symbol-Oblique /Symbol findfont [1 0 .167 1 0 0] makefont
dup length dict begin {1 index /FID eq {pop pop} {def} ifelse} forall
currentdict end definefont pop
%
/MFshow {
   { dup 5 get 3 ge
     { 5 get 3 eq {gsave} {grestore} ifelse }
     {dup dup 0 get findfont exch 1 get scalefont setfont
     [ currentpoint ] exch dup 2 get 0 exch R dup 5 get 2 ne {dup dup 6
     get exch 4 get {textshow} {stringwidth pop 0 R} ifelse }if dup 5 get 0 eq
     {dup 3 get {2 get neg 0 exch R pop} {pop aload pop M} ifelse} {dup 5
     get 1 eq {dup 2 get exch dup 3 get exch 6 get stringwidth pop -2 div
     dup 0 R} {dup 6 get stringwidth pop -2 div 0 R 6 get
     textshow 2 index {aload pop M neg 3 -1 roll neg R pop pop} {pop pop pop
     pop aload pop M} ifelse }ifelse }ifelse }
     ifelse }
   forall} def
/Gswidth {dup type /stringtype eq {stringwidth} {pop (n) stringwidth} ifelse} def
/MFwidth {0 exch { dup 5 get 3 ge { 5 get 3 eq { 0 } { pop } ifelse }
 {dup 3 get{dup dup 0 get findfont exch 1 get scalefont setfont
     6 get Gswidth pop add} {pop} ifelse} ifelse} forall} def
/MLshow { currentpoint stroke M
  0 exch R
  Blacktext {gsave 0 setgray MFshow grestore} {MFshow} ifelse } bind def
/MRshow { currentpoint stroke M
  exch dup MFwidth neg 3 -1 roll R
  Blacktext {gsave 0 setgray MFshow grestore} {MFshow} ifelse } bind def
/MCshow { currentpoint stroke M
  exch dup MFwidth -2 div 3 -1 roll R
  Blacktext {gsave 0 setgray MFshow grestore} {MFshow} ifelse } bind def
/XYsave    { [( ) 1 2 true false 3 ()] } bind def
/XYrestore { [( ) 1 2 true false 4 ()] } bind def
Level1 SuppressPDFMark or 
{} {
/SDict 10 dict def
systemdict /pdfmark known not {
  userdict /pdfmark systemdict /cleartomark get put
} if
SDict begin [
  /Title (phase_pattern_door.eps)
  /Subject (gnuplot plot)
  /Creator (gnuplot 5.0 patchlevel 3)
  /Author (swadhin)
%  /Producer (gnuplot)
%  /Keywords ()
  /CreationDate (Mon Nov 14 00:24:17 2016)
  /DOCINFO pdfmark
end
} ifelse
%
% Support for boxed text - Ethan A Merritt May 2005
%
/InitTextBox { userdict /TBy2 3 -1 roll put userdict /TBx2 3 -1 roll put
           userdict /TBy1 3 -1 roll put userdict /TBx1 3 -1 roll put
	   /Boxing true def } def
/ExtendTextBox { Boxing
    { gsave dup false charpath pathbbox
      dup TBy2 gt {userdict /TBy2 3 -1 roll put} {pop} ifelse
      dup TBx2 gt {userdict /TBx2 3 -1 roll put} {pop} ifelse
      dup TBy1 lt {userdict /TBy1 3 -1 roll put} {pop} ifelse
      dup TBx1 lt {userdict /TBx1 3 -1 roll put} {pop} ifelse
      grestore } if } def
/PopTextBox { newpath TBx1 TBxmargin sub TBy1 TBymargin sub M
               TBx1 TBxmargin sub TBy2 TBymargin add L
	       TBx2 TBxmargin add TBy2 TBymargin add L
	       TBx2 TBxmargin add TBy1 TBymargin sub L closepath } def
/DrawTextBox { PopTextBox stroke /Boxing false def} def
/FillTextBox { gsave PopTextBox 1 1 1 setrgbcolor fill grestore /Boxing false def} def
0 0 0 0 InitTextBox
/TBxmargin 20 def
/TBymargin 20 def
/Boxing false def
/textshow { ExtendTextBox Gshow } def
%
% redundant definitions for compatibility with prologue.ps older than 5.0.2
/LTB {BL [] LCb DL} def
/LTb {PL [] LCb DL} def
end
%%EndProlog
%%Page: 1 1
gnudict begin
gsave
doclip
50 50 translate
0.050 0.050 scale
0 setgray
newpath
(Helvetica) findfont 450 scalefont setfont
BackgroundColor 0 lt 3 1 roll 0 lt exch 0 lt or or not {BackgroundColor C 1.000 0 0 9216.00 6912.00 BoxColFill} if
1.000 UL
LTb
LCb setrgbcolor
0.500 UL
LTa
LCa setrgbcolor
1755 1440 M
6650 0 V
stroke
1.000 UL
LTb
LCb setrgbcolor
1755 1440 M
63 0 V
6587 0 R
-63 0 V
stroke
1485 1440 M
[ [(Helvetica) 450.0 0.0 true true 0 ( 1.2)]
] -150.0 MRshow
1.000 UL
LTb
LCb setrgbcolor
0.500 UL
LTa
LCa setrgbcolor
1755 1888 M
6650 0 V
stroke
1.000 UL
LTb
LCb setrgbcolor
1755 1888 M
63 0 V
6587 0 R
-63 0 V
stroke
1485 1888 M
[ [(Helvetica) 450.0 0.0 true true 0 ( 1.4)]
] -150.0 MRshow
1.000 UL
LTb
LCb setrgbcolor
0.500 UL
LTa
LCa setrgbcolor
1755 2337 M
6650 0 V
stroke
1.000 UL
LTb
LCb setrgbcolor
1755 2337 M
63 0 V
6587 0 R
-63 0 V
stroke
1485 2337 M
[ [(Helvetica) 450.0 0.0 true true 0 ( 1.6)]
] -150.0 MRshow
1.000 UL
LTb
LCb setrgbcolor
0.500 UL
LTa
LCa setrgbcolor
1755 2785 M
6650 0 V
stroke
1.000 UL
LTb
LCb setrgbcolor
1755 2785 M
63 0 V
6587 0 R
-63 0 V
stroke
1485 2785 M
[ [(Helvetica) 450.0 0.0 true true 0 ( 1.8)]
] -150.0 MRshow
1.000 UL
LTb
LCb setrgbcolor
0.500 UL
LTa
LCa setrgbcolor
1755 3233 M
6650 0 V
stroke
1.000 UL
LTb
LCb setrgbcolor
1755 3233 M
63 0 V
6587 0 R
-63 0 V
stroke
1485 3233 M
[ [(Helvetica) 450.0 0.0 true true 0 ( 2)]
] -150.0 MRshow
1.000 UL
LTb
LCb setrgbcolor
0.500 UL
LTa
LCa setrgbcolor
1755 3681 M
6650 0 V
stroke
1.000 UL
LTb
LCb setrgbcolor
1755 3681 M
63 0 V
6587 0 R
-63 0 V
stroke
1485 3681 M
[ [(Helvetica) 450.0 0.0 true true 0 ( 2.2)]
] -150.0 MRshow
1.000 UL
LTb
LCb setrgbcolor
0.500 UL
LTa
LCa setrgbcolor
1755 4130 M
6650 0 V
stroke
1.000 UL
LTb
LCb setrgbcolor
1755 4130 M
63 0 V
6587 0 R
-63 0 V
stroke
1485 4130 M
[ [(Helvetica) 450.0 0.0 true true 0 ( 2.4)]
] -150.0 MRshow
1.000 UL
LTb
LCb setrgbcolor
0.500 UL
LTa
LCa setrgbcolor
1755 4578 M
6650 0 V
stroke
1.000 UL
LTb
LCb setrgbcolor
1755 4578 M
63 0 V
6587 0 R
-63 0 V
stroke
1485 4578 M
[ [(Helvetica) 450.0 0.0 true true 0 ( 2.6)]
] -150.0 MRshow
1.000 UL
LTb
LCb setrgbcolor
0.500 UL
LTa
LCa setrgbcolor
1755 5026 M
6650 0 V
stroke
1.000 UL
LTb
LCb setrgbcolor
1755 5026 M
63 0 V
6587 0 R
-63 0 V
stroke
1485 5026 M
[ [(Helvetica) 450.0 0.0 true true 0 ( 2.8)]
] -150.0 MRshow
1.000 UL
LTb
LCb setrgbcolor
0.500 UL
LTa
LCa setrgbcolor
1755 5474 M
6650 0 V
stroke
1.000 UL
LTb
LCb setrgbcolor
1755 5474 M
63 0 V
6587 0 R
-63 0 V
stroke
1485 5474 M
[ [(Helvetica) 450.0 0.0 true true 0 ( 3)]
] -150.0 MRshow
1.000 UL
LTb
LCb setrgbcolor
0.500 UL
LTa
LCa setrgbcolor
1755 5923 M
6650 0 V
stroke
1.000 UL
LTb
LCb setrgbcolor
1755 5923 M
63 0 V
6587 0 R
-63 0 V
stroke
1485 5923 M
[ [(Helvetica) 450.0 0.0 true true 0 ( 3.2)]
] -150.0 MRshow
1.000 UL
LTb
LCb setrgbcolor
0.500 UL
LTa
LCa setrgbcolor
1755 6371 M
6650 0 V
stroke
1.000 UL
LTb
LCb setrgbcolor
1755 6371 M
63 0 V
6587 0 R
-63 0 V
stroke
1485 6371 M
[ [(Helvetica) 450.0 0.0 true true 0 ( 3.4)]
] -150.0 MRshow
1.000 UL
LTb
LCb setrgbcolor
0.500 UL
LTa
LCa setrgbcolor
1755 1440 M
0 4931 V
stroke
1.000 UL
LTb
LCb setrgbcolor
1755 1440 M
0 63 V
0 4868 R
0 -63 V
stroke
1755 990 M
[ [(Helvetica) 450.0 0.0 true true 0 ( 0)]
] -150.0 MCshow
1.000 UL
LTb
LCb setrgbcolor
0.500 UL
LTa
LCa setrgbcolor
2420 1440 M
0 4868 V
0 63 V
stroke
1.000 UL
LTb
LCb setrgbcolor
2420 1440 M
0 63 V
0 4868 R
0 -63 V
stroke
2420 990 M
[ [(Helvetica) 450.0 0.0 true true 0 ( 1)]
] -150.0 MCshow
1.000 UL
LTb
LCb setrgbcolor
0.500 UL
LTa
LCa setrgbcolor
3085 1440 M
0 4868 V
0 63 V
stroke
1.000 UL
LTb
LCb setrgbcolor
3085 1440 M
0 63 V
0 4868 R
0 -63 V
stroke
3085 990 M
[ [(Helvetica) 450.0 0.0 true true 0 ( 2)]
] -150.0 MCshow
1.000 UL
LTb
LCb setrgbcolor
0.500 UL
LTa
LCa setrgbcolor
3750 1440 M
0 4931 V
stroke
1.000 UL
LTb
LCb setrgbcolor
3750 1440 M
0 63 V
0 4868 R
0 -63 V
stroke
3750 990 M
[ [(Helvetica) 450.0 0.0 true true 0 ( 3)]
] -150.0 MCshow
1.000 UL
LTb
LCb setrgbcolor
0.500 UL
LTa
LCa setrgbcolor
4415 1440 M
0 4931 V
stroke
1.000 UL
LTb
LCb setrgbcolor
4415 1440 M
0 63 V
0 4868 R
0 -63 V
stroke
4415 990 M
[ [(Helvetica) 450.0 0.0 true true 0 ( 4)]
] -150.0 MCshow
1.000 UL
LTb
LCb setrgbcolor
0.500 UL
LTa
LCa setrgbcolor
5080 1440 M
0 4931 V
stroke
1.000 UL
LTb
LCb setrgbcolor
5080 1440 M
0 63 V
0 4868 R
0 -63 V
stroke
5080 990 M
[ [(Helvetica) 450.0 0.0 true true 0 ( 5)]
] -150.0 MCshow
1.000 UL
LTb
LCb setrgbcolor
0.500 UL
LTa
LCa setrgbcolor
5745 1440 M
0 4931 V
stroke
1.000 UL
LTb
LCb setrgbcolor
5745 1440 M
0 63 V
0 4868 R
0 -63 V
stroke
5745 990 M
[ [(Helvetica) 450.0 0.0 true true 0 ( 6)]
] -150.0 MCshow
1.000 UL
LTb
LCb setrgbcolor
0.500 UL
LTa
LCa setrgbcolor
6410 1440 M
0 4931 V
stroke
1.000 UL
LTb
LCb setrgbcolor
6410 1440 M
0 63 V
0 4868 R
0 -63 V
stroke
6410 990 M
[ [(Helvetica) 450.0 0.0 true true 0 ( 7)]
] -150.0 MCshow
1.000 UL
LTb
LCb setrgbcolor
0.500 UL
LTa
LCa setrgbcolor
7075 1440 M
0 4931 V
stroke
1.000 UL
LTb
LCb setrgbcolor
7075 1440 M
0 63 V
0 4868 R
0 -63 V
stroke
7075 990 M
[ [(Helvetica) 450.0 0.0 true true 0 ( 8)]
] -150.0 MCshow
1.000 UL
LTb
LCb setrgbcolor
0.500 UL
LTa
LCa setrgbcolor
7740 1440 M
0 4931 V
stroke
1.000 UL
LTb
LCb setrgbcolor
7740 1440 M
0 63 V
0 4868 R
0 -63 V
stroke
7740 990 M
[ [(Helvetica) 450.0 0.0 true true 0 ( 9)]
] -150.0 MCshow
1.000 UL
LTb
LCb setrgbcolor
0.500 UL
LTa
LCa setrgbcolor
8405 1440 M
0 4931 V
stroke
1.000 UL
LTb
LCb setrgbcolor
8405 1440 M
0 63 V
0 4868 R
0 -63 V
stroke
8405 990 M
[ [(Helvetica) 450.0 0.0 true true 0 ( 10)]
] -150.0 MCshow
1.000 UL
LTb
LCb setrgbcolor
1.000 UL
LTB
LCb setrgbcolor
1755 6371 N
0 -4931 V
6650 0 V
0 4931 V
-6650 0 V
Z stroke
1.000 UP
1.000 UL
LTb
LCb setrgbcolor
LCb setrgbcolor
450 3905 M
currentpoint gsave translate -270 rotate 0 0 moveto
[ [(Helvetica) 450.0 0.0 true true 0 (Phase \(in radian\))]
] -150.0 MCshow
grestore
LTb
LCb setrgbcolor
5080 315 M
[ [(Helvetica) 450.0 0.0 true true 0 (Position on the tag)]
] -150.0 MCshow
LTb
LCb setrgbcolor
% Begin plot #1
1.000 UP
4.000 UL
LTb
0.58 0.00 0.83 C 1755 1927 M
5 -5 V
5 -6 V
5 -5 V
8 17 V
13 -5 V
15 -4 V
5 -5 V
5 18 V
22 -5 V
5 -4 V
4 -4 V
10 -4 V
5 -4 V
6 19 V
15 -4 V
33 -3 V
5 -3 V
4 -4 V
5 -3 V
45 -3 V
7 -2 V
12 -3 V
5 -2 V
52 -3 V
5 -2 V
5 -2 V
5 -2 V
6 -2 V
4 -1 V
22 -2 V
5 -1 V
6 -2 V
14 -1 V
5 -1 V
5 -1 V
5 0 V
6 -1 V
5 0 V
7 -1 V
31 0 V
7 0 V
25 0 V
21 1 V
20 0 V
11 1 V
21 11 V
49 3 V
13 15 V
12 19 V
12 -14 V
39 -10 V
33 -13 V
15 -4 V
7 17 V
23 27 V
6 -1 V
5 6 V
7 21 V
20 16 V
8 12 V
6 -22 V
7 23 V
5 -13 V
5 -8 V
14 -4 V
6 8 V
5 -14 V
6 -8 V
13 17 V
5 4 V
6 -4 V
5 0 V
4 1 V
7 25 V
4 20 V
12 13 V
9 15 V
32 13 V
13 7 V
5 -6 V
12 10 V
5 29 V
5 5 V
5 -13 V
6 10 V
6 15 V
40 17 V
16 6 V
4 0 V
6 -5 V
5 4 V
23 21 V
33 29 V
5 1 V
5 21 V
5 10 V
5 -2 V
12 10 V
5 13 V
19 7 V
5 -3 V
12 6 V
14 17 V
4 19 V
stroke 2967 2282 M
5 17 V
5 12 V
6 11 V
20 3 V
5 27 V
5 -8 V
5 -5 V
15 27 V
4 11 V
5 1 V
6 11 V
5 -16 V
5 6 V
18 0 V
14 31 V
5 46 V
5 1 V
4 2 V
5 10 V
5 -25 V
5 2 V
5 -5 V
5 9 V
8 21 V
7 -2 V
14 3 V
11 5 V
7 0 V
11 21 V
5 9 V
5 0 V
5 1 V
12 38 V
5 22 V
4 -16 V
5 -12 V
5 29 V
5 16 V
5 7 V
5 12 V
5 19 V
5 -7 V
5 10 V
5 21 V
13 10 V
5 -6 V
5 3 V
5 26 V
5 4 V
8 -8 V
14 15 V
4 13 V
12 3 V
5 23 V
5 39 V
5 -9 V
4 1 V
5 3 V
12 16 V
6 -7 V
12 -6 V
5 25 V
4 6 V
7 21 V
5 14 V
5 15 V
5 24 V
5 24 V
10 21 V
5 31 V
5 20 V
4 3 V
5 8 V
5 3 V
6 13 V
5 14 V
4 33 V
5 29 V
5 25 V
5 -3 V
5 31 V
4 -9 V
14 18 V
4 23 V
5 14 V
5 0 V
4 2 V
6 18 V
4 22 V
25 13 V
4 -12 V
6 20 V
5 17 V
5 -16 V
4 32 V
5 20 V
5 20 V
6 11 V
5 14 V
4 9 V
5 0 V
5 0 V
4 29 V
6 6 V
stroke 3638 3375 M
5 17 V
5 -6 V
5 1 V
4 25 V
5 23 V
12 11 V
5 13 V
4 14 V
7 17 V
12 0 V
8 -1 V
5 11 V
5 9 V
4 33 V
5 -1 V
5 12 V
5 17 V
5 21 V
5 2 V
14 -10 V
4 -5 V
5 14 V
4 8 V
5 -2 V
5 18 V
5 43 V
5 -9 V
5 8 V
4 -16 V
5 16 V
5 -20 V
5 28 V
4 7 V
5 -11 V
4 -11 V
5 5 V
6 5 V
4 2 V
5 -7 V
4 -13 V
5 -6 V
5 -37 V
5 37 V
5 13 V
5 8 V
5 36 V
5 24 V
12 15 V
4 5 V
5 27 V
7 21 V
4 -9 V
5 4 V
5 17 V
6 4 V
4 -5 V
5 8 V
5 11 V
12 21 V
4 26 V
6 24 V
6 16 V
5 25 V
5 18 V
5 4 V
4 1 V
5 26 V
5 -16 V
12 33 V
12 11 V
4 -8 V
6 16 V
5 9 V
4 14 V
6 15 V
5 -2 V
5 36 V
5 4 V
4 -2 V
5 18 V
5 17 V
5 8 V
5 -22 V
4 7 V
5 11 V
5 -17 V
8 3 V
7 11 V
7 7 V
5 -7 V
4 41 V
7 -1 V
5 22 V
5 24 V
12 18 V
7 19 V
5 14 V
5 21 V
5 31 V
4 15 V
5 51 V
5 38 V
5 45 V
20 44 V
stroke 4234 4505 M
14 14 V
5 36 V
5 27 V
5 24 V
6 18 V
4 57 V
87 16 V
4 30 V
31 34 V
6 47 V
4 39 V
5 15 V
5 -1 V
5 43 V
5 19 V
5 52 V
4 25 V
5 30 V
6 -5 V
13 36 V
5 42 V
5 48 V
8 34 V
5 24 V
5 37 V
5 39 V
21 42 V
22 45 V
8 56 V
6 32 V
5 24 V
5 51 V
5 28 V
5 34 V
4 42 V
10 47 V
5 16 V
5 28 V
6 56 V
12 14 V
4 19 V
5 25 V
5 31 V
5 20 V
5 34 V
6 21 V
5 3 V
14 12 V
4 13 V
5 21 V
5 1 V
5 0 V
4 -9 V
6 0 V
4 8 V
7 -8 V
5 -6 V
6 10 V
7 -8 V
5 -16 V
5 -6 V
5 -3 V
5 2 V
6 -43 V
4 0 V
5 -3 V
5 -19 V
5 1 V
5 -25 V
4 7 V
5 -6 V
5 -10 V
5 -2 V
5 -23 V
5 -6 V
4 6 V
5 16 V
11 -8 V
5 -4 V
7 -4 V
5 -3 V
5 5 V
4 -2 V
5 0 V
5 -3 V
4 -17 V
5 -9 V
5 -16 V
5 -8 V
5 -7 V
5 -29 V
4 -11 V
5 5 V
5 -4 V
5 -4 V
6 2 V
5 -16 V
4 12 V
5 6 V
5 -2 V
5 -11 V
4 -14 V
5 -1 V
5 8 V
stroke 4944 5722 M
5 3 V
5 -1 V
5 11 V
4 0 V
5 12 V
5 18 V
4 10 V
5 -3 V
5 -6 V
4 -4 V
5 15 V
5 2 V
5 14 V
5 3 V
5 -1 V
5 -4 V
4 -23 V
5 16 V
5 -8 V
5 -8 V
5 -4 V
5 1 V
4 -15 V
5 1 V
5 -19 V
5 49 V
4 0 V
5 -2 V
5 19 V
5 -60 V
5 -4 V
5 -13 V
4 -7 V
5 -13 V
4 19 V
5 -40 V
5 -13 V
4 -4 V
5 -5 V
5 4 V
5 -6 V
4 16 V
5 -35 V
5 -21 V
5 -9 V
5 -22 V
5 4 V
6 -17 V
4 -4 V
5 -15 V
5 8 V
5 -13 V
4 -7 V
5 -21 V
5 -9 V
5 -12 V
5 -40 V
4 -22 V
5 -18 V
5 -18 V
4 -14 V
5 -14 V
5 -28 V
4 -19 V
5 -37 V
5 -19 V
4 -17 V
5 -19 V
5 -13 V
5 -9 V
4 -18 V
5 -32 V
5 -15 V
4 -12 V
5 -19 V
5 -23 V
4 -14 V
5 2 V
4 -17 V
5 -6 V
5 -11 V
4 -14 V
5 -19 V
5 -13 V
4 -14 V
5 -10 V
4 -17 V
5 4 V
5 4 V
4 -7 V
5 -5 V
5 -9 V
4 -3 V
5 -11 V
5 -11 V
4 -15 V
5 -23 V
5 -22 V
4 -14 V
5 -11 V
4 -10 V
5 -17 V
5 -7 V
4 -9 V
stroke 5436 4794 M
5 0 V
5 -16 V
4 7 V
5 -4 V
5 -13 V
4 2 V
5 -5 V
5 10 V
4 -11 V
5 -10 V
5 -2 V
4 5 V
5 -8 V
4 9 V
5 -1 V
5 3 V
4 2 V
5 -13 V
4 7 V
5 8 V
5 15 V
4 5 V
5 -15 V
6 -7 V
5 0 V
4 -4 V
5 3 V
5 3 V
4 0 V
5 -5 V
4 -12 V
5 -2 V
4 1 V
5 -10 V
5 8 V
4 3 V
5 -3 V
5 -18 V
4 13 V
5 -11 V
4 -12 V
5 -20 V
5 -16 V
4 9 V
5 -20 V
5 -14 V
5 -12 V
4 -16 V
5 4 V
5 -1 V
4 -7 V
5 -1 V
4 3 V
5 -3 V
5 -14 V
4 -17 V
5 -17 V
5 -9 V
5 -2 V
5 -14 V
4 -22 V
5 -9 V
4 -11 V
5 -17 V
4 -23 V
5 -8 V
5 -31 V
4 -18 V
5 -24 V
4 -18 V
5 -11 V
5 -7 V
5 -27 V
4 -15 V
5 -31 V
4 -23 V
5 -19 V
5 -29 V
4 -10 V
5 -25 V
5 -31 V
4 -13 V
5 -19 V
4 -14 V
5 0 V
5 -6 V
4 -13 V
5 2 V
5 -2 V
4 -1 V
5 -20 V
5 -18 V
4 -8 V
5 -20 V
4 -5 V
5 -3 V
5 -8 V
5 -8 V
4 -20 V
5 5 V
4 -9 V
5 0 V
5 -1 V
4 -7 V
stroke 5920 3952 M
5 -12 V
5 -2 V
4 -17 V
5 -1 V
5 3 V
4 -5 V
5 -9 V
5 -11 V
4 -17 V
5 -11 V
5 8 V
5 -6 V
4 5 V
5 -6 V
5 -2 V
5 -5 V
4 0 V
5 -11 V
4 -15 V
5 1 V
5 4 V
5 -9 V
4 -26 V
5 -10 V
5 4 V
5 -34 V
5 -8 V
5 -8 V
5 -10 V
5 -12 V
4 -13 V
5 -18 V
5 -13 V
4 -11 V
5 -9 V
6 -15 V
4 -13 V
5 -34 V
5 -7 V
4 -27 V
5 -26 V
5 -6 V
4 -22 V
5 -26 V
4 -24 V
5 -24 V
5 -28 V
5 -17 V
4 -34 V
5 -8 V
5 -21 V
4 -24 V
5 -24 V
4 -20 V
5 -18 V
5 1 V
4 -14 V
5 -23 V
4 -32 V
5 -14 V
5 -11 V
4 -12 V
5 -25 V
5 -11 V
4 -18 V
5 -12 V
4 -17 V
5 -16 V
5 -19 V
4 -9 V
5 1 V
5 -4 V
4 -18 V
5 -11 V
5 -23 V
4 -13 V
5 -34 V
4 -5 V
5 -8 V
5 4 V
4 -13 V
5 -6 V
5 -5 V
4 -12 V
5 -1 V
5 -22 V
4 -19 V
5 9 V
5 -10 V
4 -19 V
5 -7 V
4 -5 V
5 -7 V
5 -11 V
4 -16 V
5 -13 V
4 -18 V
5 -4 V
5 -21 V
5 1 V
4 -6 V
5 -17 V
5 -21 V
4 -23 V
stroke 6407 2639 M
5 -24 V
5 -15 V
4 -10 V
5 -13 V
4 -12 V
5 -10 V
5 -23 V
4 -23 V
5 -20 V
5 -15 V
4 -11 V
5 -23 V
5 -1 V
4 -23 V
5 -18 V
4 -4 V
5 -19 V
4 -29 V
5 -3 V
5 -4 V
4 -10 V
5 -13 V
5 -13 V
4 -14 V
5 -4 V
5 -14 V
4 -7 V
5 -13 V
5 -25 V
4 -10 V
5 -9 V
5 -8 V
4 -18 V
5 6 V
4 -19 V
5 7 V
5 -6 V
5 -4 V
4 -7 V
5 -11 V
4 -3 V
5 2 V
5 -12 V
4 -1 V
5 3 V
5 3 V
5 -8 V
5 -8 V
4 -4 V
5 5 V
5 -6 V
4 -2 V
5 -12 V
4 5 V
5 -3 V
5 10 V
4 2 V
5 -1 V
5 -5 V
4 -7 V
5 7 V
6 -7 V
4 5 V
5 20 V
4 -8 V
5 -1 V
4 -15 V
5 9 V
5 -11 V
4 -3 V
5 -3 V
5 -3 V
5 9 V
4 -2 V
5 -28 V
4 -12 V
5 -9 V
4 -7 V
5 -8 V
6 -9 V
5 -2 V
4 -1 V
5 -10 V
4 -14 V
5 -16 V
6 -3 V
4 -29 V
5 -6 V
5 -2 V
5 -8 V
5 0 V
4 0 V
5 -3 V
5 -10 V
4 -12 V
5 -7 V
5 -6 V
4 -9 V
5 -15 V
77 1 V
4 -8 V
5 -16 V
5 -2 V
5 -6 V
stroke 6967 1845 M
4 -13 V
5 -6 V
5 -7 V
5 6 V
5 0 V
4 -11 V
5 -14 V
5 -15 V
4 1 V
5 -3 V
4 0 V
5 2 V
5 -15 V
4 -10 V
5 5 V
5 2 V
4 5 V
5 1 V
5 -6 V
4 5 V
5 -9 V
5 -3 V
5 -1 V
4 -2 V
5 -1 V
4 1 V
6 8 V
4 9 V
5 0 V
4 -3 V
5 7 V
5 -7 V
5 2 V
4 -4 V
5 9 V
4 4 V
5 0 V
5 5 V
5 4 V
4 4 V
5 -9 V
5 11 V
4 6 V
5 10 V
4 -3 V
5 -10 V
5 1 V
4 1 V
5 10 V
5 -5 V
4 -6 V
5 4 V
5 -4 V
4 -3 V
5 -12 V
5 7 V
4 -6 V
5 -1 V
4 -15 V
5 -1 V
5 -2 V
6 18 V
5 -12 V
4 11 V
5 0 V
4 -5 V
5 -4 V
5 -4 V
5 -10 V
4 0 V
6 6 V
4 4 V
5 10 V
5 7 V
5 5 V
4 6 V
5 9 V
5 -6 V
4 -11 V
5 -7 V
4 0 V
5 0 V
5 -2 V
5 1 V
4 -4 V
5 0 V
5 4 V
4 7 V
5 7 V
4 -5 V
5 -39 V
5 21 V
4 -9 V
5 -7 V
5 -2 V
5 11 V
4 -10 V
5 -22 V
5 14 V
4 -4 V
5 2 V
4 -15 V
6 18 V
4 -14 V
stroke 7455 1737 M
5 -1 V
5 -21 V
4 13 V
5 -19 V
4 1 V
5 21 V
5 -10 V
4 -6 V
5 5 V
5 9 V
4 -4 V
5 -35 V
4 18 V
5 -18 V
5 10 V
5 0 V
4 -30 V
5 9 V
4 -7 V
5 4 V
5 -10 V
4 -3 V
5 -16 V
5 3 V
5 9 V
4 -22 V
5 -5 V
5 -11 V
5 15 V
4 -3 V
5 4 V
4 -12 V
5 -5 V
5 12 V
4 2 V
5 -17 V
5 -1 V
5 0 V
5 -3 V
5 0 V
4 4 V
5 -8 V
5 -21 V
5 2 V
4 -13 V
5 0 V
5 6 V
4 -2 V
6 -3 V
5 0 V
4 5 V
5 -6 V
4 19 V
5 -25 V
5 1 V
5 -12 V
5 6 V
4 -11 V
5 3 V
5 0 V
4 -6 V
1755 1927 Pls
1760 1922 Pls
1765 1916 Pls
1770 1911 Pls
1778 1928 Pls
1791 1923 Pls
1806 1919 Pls
1811 1914 Pls
1816 1932 Pls
1838 1927 Pls
1843 1923 Pls
1847 1919 Pls
1857 1915 Pls
1862 1911 Pls
1868 1930 Pls
1883 1926 Pls
1916 1923 Pls
1921 1920 Pls
1925 1916 Pls
1930 1913 Pls
1975 1910 Pls
1982 1908 Pls
1994 1905 Pls
1999 1903 Pls
2051 1900 Pls
2056 1898 Pls
2061 1896 Pls
2066 1894 Pls
2072 1892 Pls
2076 1891 Pls
2098 1889 Pls
2103 1888 Pls
2109 1886 Pls
2123 1885 Pls
2128 1884 Pls
2133 1883 Pls
2138 1883 Pls
2144 1882 Pls
2149 1882 Pls
2156 1881 Pls
2187 1881 Pls
2194 1881 Pls
2219 1881 Pls
2240 1882 Pls
2260 1882 Pls
2271 1883 Pls
2292 1894 Pls
2341 1897 Pls
2354 1912 Pls
2366 1931 Pls
2378 1917 Pls
2417 1907 Pls
2450 1894 Pls
2465 1890 Pls
2472 1907 Pls
2495 1934 Pls
2501 1933 Pls
2506 1939 Pls
2513 1960 Pls
2533 1976 Pls
2541 1988 Pls
2547 1966 Pls
2554 1989 Pls
2559 1976 Pls
2564 1968 Pls
2578 1964 Pls
2584 1972 Pls
2589 1958 Pls
2595 1950 Pls
2608 1967 Pls
2613 1971 Pls
2619 1967 Pls
2624 1967 Pls
2628 1968 Pls
2635 1993 Pls
2639 2013 Pls
2651 2026 Pls
2660 2041 Pls
2692 2054 Pls
2705 2061 Pls
2710 2055 Pls
2722 2065 Pls
2727 2094 Pls
2732 2099 Pls
2737 2086 Pls
2743 2096 Pls
2749 2111 Pls
2789 2128 Pls
2805 2134 Pls
2809 2134 Pls
2815 2129 Pls
2820 2133 Pls
2843 2154 Pls
2876 2183 Pls
2881 2184 Pls
2886 2205 Pls
2891 2215 Pls
2896 2213 Pls
2908 2223 Pls
2913 2236 Pls
2932 2243 Pls
2937 2240 Pls
2949 2246 Pls
2963 2263 Pls
2967 2282 Pls
2972 2299 Pls
2977 2311 Pls
2983 2322 Pls
3003 2325 Pls
3008 2352 Pls
3013 2344 Pls
3018 2339 Pls
3033 2366 Pls
3037 2377 Pls
3042 2378 Pls
3048 2389 Pls
3053 2373 Pls
3058 2379 Pls
3076 2379 Pls
3090 2410 Pls
3095 2456 Pls
3100 2457 Pls
3104 2459 Pls
3109 2469 Pls
3114 2444 Pls
3119 2446 Pls
3124 2441 Pls
3129 2450 Pls
3137 2471 Pls
3144 2469 Pls
3158 2472 Pls
3169 2477 Pls
3176 2477 Pls
3187 2498 Pls
3192 2507 Pls
3197 2507 Pls
3202 2508 Pls
3214 2546 Pls
3219 2568 Pls
3223 2552 Pls
3228 2540 Pls
3233 2569 Pls
3238 2585 Pls
3243 2592 Pls
3248 2604 Pls
3253 2623 Pls
3258 2616 Pls
3263 2626 Pls
3268 2647 Pls
3281 2657 Pls
3286 2651 Pls
3291 2654 Pls
3296 2680 Pls
3301 2684 Pls
3309 2676 Pls
3323 2691 Pls
3327 2704 Pls
3339 2707 Pls
3344 2730 Pls
3349 2769 Pls
3354 2760 Pls
3358 2761 Pls
3363 2764 Pls
3375 2780 Pls
3381 2773 Pls
3393 2767 Pls
3398 2792 Pls
3402 2798 Pls
3409 2819 Pls
3414 2833 Pls
3419 2848 Pls
3424 2872 Pls
3429 2896 Pls
3439 2917 Pls
3444 2948 Pls
3449 2968 Pls
3453 2971 Pls
3458 2979 Pls
3463 2982 Pls
3469 2995 Pls
3474 3009 Pls
3478 3042 Pls
3483 3071 Pls
3488 3096 Pls
3493 3093 Pls
3498 3124 Pls
3502 3115 Pls
3516 3133 Pls
3520 3156 Pls
3525 3170 Pls
3530 3170 Pls
3534 3172 Pls
3540 3190 Pls
3544 3212 Pls
3569 3225 Pls
3573 3213 Pls
3579 3233 Pls
3584 3250 Pls
3589 3234 Pls
3593 3266 Pls
3598 3286 Pls
3603 3306 Pls
3609 3317 Pls
3614 3331 Pls
3618 3340 Pls
3623 3340 Pls
3628 3340 Pls
3632 3369 Pls
3638 3375 Pls
3643 3392 Pls
3648 3386 Pls
3653 3387 Pls
3657 3412 Pls
3662 3435 Pls
3674 3446 Pls
3679 3459 Pls
3683 3473 Pls
3690 3490 Pls
3702 3490 Pls
3710 3489 Pls
3715 3500 Pls
3720 3509 Pls
3724 3542 Pls
3729 3541 Pls
3734 3553 Pls
3739 3570 Pls
3744 3591 Pls
3749 3593 Pls
3763 3583 Pls
3767 3578 Pls
3772 3592 Pls
3776 3600 Pls
3781 3598 Pls
3786 3616 Pls
3791 3659 Pls
3796 3650 Pls
3801 3658 Pls
3805 3642 Pls
3810 3658 Pls
3815 3638 Pls
3820 3666 Pls
3824 3673 Pls
3829 3662 Pls
3833 3651 Pls
3838 3656 Pls
3844 3661 Pls
3848 3663 Pls
3853 3656 Pls
3857 3643 Pls
3862 3637 Pls
3867 3600 Pls
3872 3637 Pls
3877 3650 Pls
3882 3658 Pls
3887 3694 Pls
3892 3718 Pls
3904 3733 Pls
3908 3738 Pls
3913 3765 Pls
3920 3786 Pls
3924 3777 Pls
3929 3781 Pls
3934 3798 Pls
3940 3802 Pls
3944 3797 Pls
3949 3805 Pls
3954 3816 Pls
3966 3837 Pls
3970 3863 Pls
3976 3887 Pls
3982 3903 Pls
3987 3928 Pls
3992 3946 Pls
3997 3950 Pls
4001 3951 Pls
4006 3977 Pls
4011 3961 Pls
4023 3994 Pls
4035 4005 Pls
4039 3997 Pls
4045 4013 Pls
4050 4022 Pls
4054 4036 Pls
4060 4051 Pls
4065 4049 Pls
4070 4085 Pls
4075 4089 Pls
4079 4087 Pls
4084 4105 Pls
4089 4122 Pls
4094 4130 Pls
4099 4108 Pls
4103 4115 Pls
4108 4126 Pls
4113 4109 Pls
4121 4112 Pls
4128 4123 Pls
4135 4130 Pls
4140 4123 Pls
4144 4164 Pls
4151 4163 Pls
4156 4185 Pls
4161 4209 Pls
4173 4227 Pls
4180 4246 Pls
4185 4260 Pls
4190 4281 Pls
4195 4312 Pls
4199 4327 Pls
4204 4378 Pls
4209 4416 Pls
4214 4461 Pls
4234 4505 Pls
4248 4519 Pls
4253 4555 Pls
4258 4582 Pls
4263 4606 Pls
4269 4624 Pls
4273 4681 Pls
4360 4697 Pls
4364 4727 Pls
4395 4761 Pls
4401 4808 Pls
4405 4847 Pls
4410 4862 Pls
4415 4861 Pls
4420 4904 Pls
4425 4923 Pls
4430 4975 Pls
4434 5000 Pls
4439 5030 Pls
4445 5025 Pls
4458 5061 Pls
4463 5103 Pls
4468 5151 Pls
4476 5185 Pls
4481 5209 Pls
4486 5246 Pls
4491 5285 Pls
4512 5327 Pls
4534 5372 Pls
4542 5428 Pls
4548 5460 Pls
4553 5484 Pls
4558 5535 Pls
4563 5563 Pls
4568 5597 Pls
4572 5639 Pls
4582 5686 Pls
4587 5702 Pls
4592 5730 Pls
4598 5786 Pls
4610 5800 Pls
4614 5819 Pls
4619 5844 Pls
4624 5875 Pls
4629 5895 Pls
4634 5929 Pls
4640 5950 Pls
4645 5953 Pls
4659 5965 Pls
4663 5978 Pls
4668 5999 Pls
4673 6000 Pls
4678 6000 Pls
4682 5991 Pls
4688 5991 Pls
4692 5999 Pls
4699 5991 Pls
4704 5985 Pls
4710 5995 Pls
4717 5987 Pls
4722 5971 Pls
4727 5965 Pls
4732 5962 Pls
4737 5964 Pls
4743 5921 Pls
4747 5921 Pls
4752 5918 Pls
4757 5899 Pls
4762 5900 Pls
4767 5875 Pls
4771 5882 Pls
4776 5876 Pls
4781 5866 Pls
4786 5864 Pls
4791 5841 Pls
4796 5835 Pls
4800 5841 Pls
4805 5857 Pls
4816 5849 Pls
4821 5845 Pls
4828 5841 Pls
4833 5838 Pls
4838 5843 Pls
4842 5841 Pls
4847 5841 Pls
4852 5838 Pls
4856 5821 Pls
4861 5812 Pls
4866 5796 Pls
4871 5788 Pls
4876 5781 Pls
4881 5752 Pls
4885 5741 Pls
4890 5746 Pls
4895 5742 Pls
4900 5738 Pls
4906 5740 Pls
4911 5724 Pls
4915 5736 Pls
4920 5742 Pls
4925 5740 Pls
4930 5729 Pls
4934 5715 Pls
4939 5714 Pls
4944 5722 Pls
4949 5725 Pls
4954 5724 Pls
4959 5735 Pls
4963 5735 Pls
4968 5747 Pls
4973 5765 Pls
4977 5775 Pls
4982 5772 Pls
4987 5766 Pls
4991 5762 Pls
4996 5777 Pls
5001 5779 Pls
5006 5793 Pls
5011 5796 Pls
5016 5795 Pls
5021 5791 Pls
5025 5768 Pls
5030 5784 Pls
5035 5776 Pls
5040 5768 Pls
5045 5764 Pls
5050 5765 Pls
5054 5750 Pls
5059 5751 Pls
5064 5732 Pls
5069 5781 Pls
5073 5781 Pls
5078 5779 Pls
5083 5798 Pls
5088 5738 Pls
5093 5734 Pls
5098 5721 Pls
5102 5714 Pls
5107 5701 Pls
5111 5720 Pls
5116 5680 Pls
5121 5667 Pls
5125 5663 Pls
5130 5658 Pls
5135 5662 Pls
5140 5656 Pls
5144 5672 Pls
5149 5637 Pls
5154 5616 Pls
5159 5607 Pls
5164 5585 Pls
5169 5589 Pls
5175 5572 Pls
5179 5568 Pls
5184 5553 Pls
5189 5561 Pls
5194 5548 Pls
5198 5541 Pls
5203 5520 Pls
5208 5511 Pls
5213 5499 Pls
5218 5459 Pls
5222 5437 Pls
5227 5419 Pls
5232 5401 Pls
5236 5387 Pls
5241 5373 Pls
5246 5345 Pls
5250 5326 Pls
5255 5289 Pls
5260 5270 Pls
5264 5253 Pls
5269 5234 Pls
5274 5221 Pls
5279 5212 Pls
5283 5194 Pls
5288 5162 Pls
5293 5147 Pls
5297 5135 Pls
5302 5116 Pls
5307 5093 Pls
5311 5079 Pls
5316 5081 Pls
5320 5064 Pls
5325 5058 Pls
5330 5047 Pls
5334 5033 Pls
5339 5014 Pls
5344 5001 Pls
5348 4987 Pls
5353 4977 Pls
5357 4960 Pls
5362 4964 Pls
5367 4968 Pls
5371 4961 Pls
5376 4956 Pls
5381 4947 Pls
5385 4944 Pls
5390 4933 Pls
5395 4922 Pls
5399 4907 Pls
5404 4884 Pls
5409 4862 Pls
5413 4848 Pls
5418 4837 Pls
5422 4827 Pls
5427 4810 Pls
5432 4803 Pls
5436 4794 Pls
5441 4794 Pls
5446 4778 Pls
5450 4785 Pls
5455 4781 Pls
5460 4768 Pls
5464 4770 Pls
5469 4765 Pls
5474 4775 Pls
5478 4764 Pls
5483 4754 Pls
5488 4752 Pls
5492 4757 Pls
5497 4749 Pls
5501 4758 Pls
5506 4757 Pls
5511 4760 Pls
5515 4762 Pls
5520 4749 Pls
5524 4756 Pls
5529 4764 Pls
5534 4779 Pls
5538 4784 Pls
5543 4769 Pls
5549 4762 Pls
5554 4762 Pls
5558 4758 Pls
5563 4761 Pls
5568 4764 Pls
5572 4764 Pls
5577 4759 Pls
5581 4747 Pls
5586 4745 Pls
5590 4746 Pls
5595 4736 Pls
5600 4744 Pls
5604 4747 Pls
5609 4744 Pls
5614 4726 Pls
5618 4739 Pls
5623 4728 Pls
5627 4716 Pls
5632 4696 Pls
5637 4680 Pls
5641 4689 Pls
5646 4669 Pls
5651 4655 Pls
5656 4643 Pls
5660 4627 Pls
5665 4631 Pls
5670 4630 Pls
5674 4623 Pls
5679 4622 Pls
5683 4625 Pls
5688 4622 Pls
5693 4608 Pls
5697 4591 Pls
5702 4574 Pls
5707 4565 Pls
5712 4563 Pls
5717 4549 Pls
5721 4527 Pls
5726 4518 Pls
5730 4507 Pls
5735 4490 Pls
5739 4467 Pls
5744 4459 Pls
5749 4428 Pls
5753 4410 Pls
5758 4386 Pls
5762 4368 Pls
5767 4357 Pls
5772 4350 Pls
5777 4323 Pls
5781 4308 Pls
5786 4277 Pls
5790 4254 Pls
5795 4235 Pls
5800 4206 Pls
5804 4196 Pls
5809 4171 Pls
5814 4140 Pls
5818 4127 Pls
5823 4108 Pls
5827 4094 Pls
5832 4094 Pls
5837 4088 Pls
5841 4075 Pls
5846 4077 Pls
5851 4075 Pls
5855 4074 Pls
5860 4054 Pls
5865 4036 Pls
5869 4028 Pls
5874 4008 Pls
5878 4003 Pls
5883 4000 Pls
5888 3992 Pls
5893 3984 Pls
5897 3964 Pls
5902 3969 Pls
5906 3960 Pls
5911 3960 Pls
5916 3959 Pls
5920 3952 Pls
5925 3940 Pls
5930 3938 Pls
5934 3921 Pls
5939 3920 Pls
5944 3923 Pls
5948 3918 Pls
5953 3909 Pls
5958 3898 Pls
5962 3881 Pls
5967 3870 Pls
5972 3878 Pls
5977 3872 Pls
5981 3877 Pls
5986 3871 Pls
5991 3869 Pls
5996 3864 Pls
6000 3864 Pls
6005 3853 Pls
6009 3838 Pls
6014 3839 Pls
6019 3843 Pls
6024 3834 Pls
6028 3808 Pls
6033 3798 Pls
6038 3802 Pls
6043 3768 Pls
6048 3760 Pls
6053 3752 Pls
6058 3742 Pls
6063 3730 Pls
6067 3717 Pls
6072 3699 Pls
6077 3686 Pls
6081 3675 Pls
6086 3666 Pls
6092 3651 Pls
6096 3638 Pls
6101 3604 Pls
6106 3597 Pls
6110 3570 Pls
6115 3544 Pls
6120 3538 Pls
6124 3516 Pls
6129 3490 Pls
6133 3466 Pls
6138 3442 Pls
6143 3414 Pls
6148 3397 Pls
6152 3363 Pls
6157 3355 Pls
6162 3334 Pls
6166 3310 Pls
6171 3286 Pls
6175 3266 Pls
6180 3248 Pls
6185 3249 Pls
6189 3235 Pls
6194 3212 Pls
6198 3180 Pls
6203 3166 Pls
6208 3155 Pls
6212 3143 Pls
6217 3118 Pls
6222 3107 Pls
6226 3089 Pls
6231 3077 Pls
6235 3060 Pls
6240 3044 Pls
6245 3025 Pls
6249 3016 Pls
6254 3017 Pls
6259 3013 Pls
6263 2995 Pls
6268 2984 Pls
6273 2961 Pls
6277 2948 Pls
6282 2914 Pls
6286 2909 Pls
6291 2901 Pls
6296 2905 Pls
6300 2892 Pls
6305 2886 Pls
6310 2881 Pls
6314 2869 Pls
6319 2868 Pls
6324 2846 Pls
6328 2827 Pls
6333 2836 Pls
6338 2826 Pls
6342 2807 Pls
6347 2800 Pls
6351 2795 Pls
6356 2788 Pls
6361 2777 Pls
6365 2761 Pls
6370 2748 Pls
6374 2730 Pls
6379 2726 Pls
6384 2705 Pls
6389 2706 Pls
6393 2700 Pls
6398 2683 Pls
6403 2662 Pls
6407 2639 Pls
6412 2615 Pls
6417 2600 Pls
6421 2590 Pls
6426 2577 Pls
6430 2565 Pls
6435 2555 Pls
6440 2532 Pls
6444 2509 Pls
6449 2489 Pls
6454 2474 Pls
6458 2463 Pls
6463 2440 Pls
6468 2439 Pls
6472 2416 Pls
6477 2398 Pls
6481 2394 Pls
6486 2375 Pls
6490 2346 Pls
6495 2343 Pls
6500 2339 Pls
6504 2329 Pls
6509 2316 Pls
6514 2303 Pls
6518 2289 Pls
6523 2285 Pls
6528 2271 Pls
6532 2264 Pls
6537 2251 Pls
6542 2226 Pls
6546 2216 Pls
6551 2207 Pls
6556 2199 Pls
6560 2181 Pls
6565 2187 Pls
6569 2168 Pls
6574 2175 Pls
6579 2169 Pls
6584 2165 Pls
6588 2158 Pls
6593 2147 Pls
6597 2144 Pls
6602 2146 Pls
6607 2134 Pls
6611 2133 Pls
6616 2136 Pls
6621 2139 Pls
6626 2131 Pls
6631 2123 Pls
6635 2119 Pls
6640 2124 Pls
6645 2118 Pls
6649 2116 Pls
6654 2104 Pls
6658 2109 Pls
6663 2106 Pls
6668 2116 Pls
6672 2118 Pls
6677 2117 Pls
6682 2112 Pls
6686 2105 Pls
6691 2112 Pls
6697 2105 Pls
6701 2110 Pls
6706 2130 Pls
6710 2122 Pls
6715 2121 Pls
6719 2106 Pls
6724 2115 Pls
6729 2104 Pls
6733 2101 Pls
6738 2098 Pls
6743 2095 Pls
6748 2104 Pls
6752 2102 Pls
6757 2074 Pls
6761 2062 Pls
6766 2053 Pls
6770 2046 Pls
6775 2038 Pls
6781 2029 Pls
6786 2027 Pls
6790 2026 Pls
6795 2016 Pls
6799 2002 Pls
6804 1986 Pls
6810 1983 Pls
6814 1954 Pls
6819 1948 Pls
6824 1946 Pls
6829 1938 Pls
6834 1938 Pls
6838 1938 Pls
6843 1935 Pls
6848 1925 Pls
6852 1913 Pls
6857 1906 Pls
6862 1900 Pls
6866 1891 Pls
6871 1876 Pls
6948 1877 Pls
6952 1869 Pls
6957 1853 Pls
6962 1851 Pls
6967 1845 Pls
6971 1832 Pls
6976 1826 Pls
6981 1819 Pls
6986 1825 Pls
6991 1825 Pls
6995 1814 Pls
7000 1800 Pls
7005 1785 Pls
7009 1786 Pls
7014 1783 Pls
7018 1783 Pls
7023 1785 Pls
7028 1770 Pls
7032 1760 Pls
7037 1765 Pls
7042 1767 Pls
7046 1772 Pls
7051 1773 Pls
7056 1767 Pls
7060 1772 Pls
7065 1763 Pls
7070 1760 Pls
7075 1759 Pls
7079 1757 Pls
7084 1756 Pls
7088 1757 Pls
7094 1765 Pls
7098 1774 Pls
7103 1774 Pls
7107 1771 Pls
7112 1778 Pls
7117 1771 Pls
7122 1773 Pls
7126 1769 Pls
7131 1778 Pls
7135 1782 Pls
7140 1782 Pls
7145 1787 Pls
7150 1791 Pls
7154 1795 Pls
7159 1786 Pls
7164 1797 Pls
7168 1803 Pls
7173 1813 Pls
7177 1810 Pls
7182 1800 Pls
7187 1801 Pls
7191 1802 Pls
7196 1812 Pls
7201 1807 Pls
7205 1801 Pls
7210 1805 Pls
7215 1801 Pls
7219 1798 Pls
7224 1786 Pls
7229 1793 Pls
7233 1787 Pls
7238 1786 Pls
7242 1771 Pls
7247 1770 Pls
7252 1768 Pls
7258 1786 Pls
7263 1774 Pls
7267 1785 Pls
7272 1785 Pls
7276 1780 Pls
7281 1776 Pls
7286 1772 Pls
7291 1762 Pls
7295 1762 Pls
7301 1768 Pls
7305 1772 Pls
7310 1782 Pls
7315 1789 Pls
7320 1794 Pls
7324 1800 Pls
7329 1809 Pls
7334 1803 Pls
7338 1792 Pls
7343 1785 Pls
7347 1785 Pls
7352 1785 Pls
7357 1783 Pls
7362 1784 Pls
7366 1780 Pls
7371 1780 Pls
7376 1784 Pls
7380 1791 Pls
7385 1798 Pls
7389 1793 Pls
7394 1754 Pls
7399 1775 Pls
7403 1766 Pls
7408 1759 Pls
7413 1757 Pls
7418 1768 Pls
7422 1758 Pls
7427 1736 Pls
7432 1750 Pls
7436 1746 Pls
7441 1748 Pls
7445 1733 Pls
7451 1751 Pls
7455 1737 Pls
7460 1736 Pls
7465 1715 Pls
7469 1728 Pls
7474 1709 Pls
7478 1710 Pls
7483 1731 Pls
7488 1721 Pls
7492 1715 Pls
7497 1720 Pls
7502 1729 Pls
7506 1725 Pls
7511 1690 Pls
7515 1708 Pls
7520 1690 Pls
7525 1700 Pls
7530 1700 Pls
7534 1670 Pls
7539 1679 Pls
7543 1672 Pls
7548 1676 Pls
7553 1666 Pls
7557 1663 Pls
7562 1647 Pls
7567 1650 Pls
7572 1659 Pls
7576 1637 Pls
7581 1632 Pls
7586 1621 Pls
7591 1636 Pls
7595 1633 Pls
7600 1637 Pls
7604 1625 Pls
7609 1620 Pls
7614 1632 Pls
7618 1634 Pls
7623 1617 Pls
7628 1616 Pls
7633 1616 Pls
7638 1613 Pls
7643 1613 Pls
7647 1617 Pls
7652 1609 Pls
7657 1588 Pls
7662 1590 Pls
7666 1577 Pls
7671 1577 Pls
7676 1583 Pls
7680 1581 Pls
7686 1578 Pls
7691 1578 Pls
7695 1583 Pls
7700 1577 Pls
7704 1596 Pls
7709 1571 Pls
7714 1572 Pls
7719 1560 Pls
7724 1566 Pls
7728 1555 Pls
7733 1558 Pls
7738 1558 Pls
7742 1552 Pls
% End plot #1
2.000 UL
LTb
LCb setrgbcolor
1.000 UL
LTB
LCb setrgbcolor
1755 6371 N
0 -4931 V
6650 0 V
0 4931 V
-6650 0 V
Z stroke
1.000 UP
1.000 UL
LTb
LCb setrgbcolor
stroke
grestore
end
showpage
%%Trailer
%%DocumentFonts: Helvetica
