-50.0,0.0,-4.0625
-39.5,0.8958447801252145,4.875
-36.0,-0.012271846303085088,4.875
-47.5,0.17180584824319212,4.0625
-35.0,-3.215223731408304,4.875
-44.5,2.816388726558037,0.0
-41.0,1.0553787820653215,3.25
-55.5,0.4540583132141496,8.9375
-47.0,-2.3623304133438876,-2.4375
-56.5,3.067961575771282,-5.6875
-56.5,-1.1106020904292038,-4.875
-46.0,-3.190680038802134,8.9375
-49.5,-0.04908738521234057,4.0625
-41.5,3.644738352016284,7.3125
-47.0,-2.386874105950058,-0.8125
-46.5,-1.1780972450961724,6.5
-47.5,2.435961491162398,4.875
-36.0,-0.15339807878856426,4.875
-35.0,-3.043417883165112,3.25
-44.5,2.816388726558037,0.8125
-50.0,-0.2699806186678728,12.1875
-57.0,1.3253594007331944,0.8125
-50.0,-1.7487380981896314,4.0625
-39.0,0.9326603190344698,3.25
-55.5,1.1965050145507998,15.4375
-41.0,-0.3865631585471814,3.25
-42.5,-3.5895150436524004,5.6875
-57.5,4.779884135051658,-4.0625
-47.0,-3.896311201229528,5.6875
-49.0,-0.4908738521234053,7.3125
-38.5,-0.43565054375952206,4.875
-41.0,3.657010198319368,0.8125
-48.0,-0.6626797003665965,2.4375
-46.0,-2.442097414313941,2.4375
-35.0,-0.7792622402459057,3.25
-47.0,1.9389517158874503,0.8125
-50.5,0.2638446955163305,-8.125
-57.5,2.816388726558037,8.125
-38.5,-4.7860200582032,4.875
-47.0,0.8958447801252144,7.3125
-50.0,1.454213786915588,2.4375
-36.0,0.4540583132141496,6.5
-39.0,0.012271846303085088,3.25
-56.5,0.9019807032767568,-9.75
-42.5,-3.675417967773996,4.875
-44.5,2.5341362615870793,0.8125
-49.5,-2.1537090261914402,5.6875
-55.0,3.6876898140770815,-1.625
-41.0,0.006135923151542322,5.6875
-50.0,-2.2089323345553233,2.4375
-55.5,2.221204180858409,-6.5
-44.5,-1.5769322499464393,4.875
-39.0,-2.5402721847386216,2.4375
-36.0,2.7979809571034098,3.25
-46.0,-2.2764274892222915,2.4375
-43.0,-0.48473792897186263,4.875
-34.5,-0.28838838812250056,6.5
-41.0,3.896311201229529,0.0
-39.0,-0.8467573949128742,4.875
-57.5,1.9941750242513336,14.625
-41.5,-0.6810874698212253,2.4375
-49.5,-1.7855536370988858,2.4375
-57.0,1.2455923997631402,5.6875
-48.0,-0.589048622548086,-2.4375
-49.5,-2.5586799541932495,7.3125
-47.0,1.2885438618239387,-0.8125
-47.0,-0.8222137023067038,4.875
-41.0,3.221359654559846,6.5
-39.0,-1.3130875544301084,4.875
-50.0,-0.4847379289718625,11.375
-43.0,-2.2702915660707492,2.4375
-35.0,-0.28838838812250056,6.5
-41.0,3.8901752780779866,0.8125
-46.0,-3.135456730438251,5.6875
-46.5,0.4049709280018092,4.0625
-55.5,3.1661363461959633,-0.8125
-36.0,-1.2824079386723959,6.5
-44.5,-0.2515728492132454,2.4375
-58.5,2.4482333374654837,-0.8125
-39.0,-5.00077736850719,5.6875
-56.5,3.6079228131070282,5.6875
-47.0,-1.9021361769781953,0.0
-48.0,1.2394564766115979,6.5
-50.0,-1.055378782065321,0.0
-49.5,-1.4726215563702154,5.6875
-35.0,-0.6258641614573416,0.8125
-49.5,2.528000338435537,8.125
-41.0,1.8100973297050564,1.625
-39.0,-1.325359400733194,5.6875
-44.5,-0.2699806186678728,8.125
-36.0,0.25770877236478773,6.5
-48.0,0.22089323345553202,-1.625
-49.5,-2.5280003384355365,-2.4375
-43.0,-0.4417864669110646,4.875
-46.5,0.8344855486097887,8.9375
-55.5,3.239767424014474,-8.9375
-41.0,-0.4601942363656919,0.0
-39.0,-3.6324665057131984,0.8125
-56.5,3.6815538909255388,-15.4375
-47.0,-2.0064468705544187,1.625
-50.0,0.2024854640009046,-0.8125
-46.0,-1.3744467859455343,4.875
-57.5,4.52217536268687,-13.0
-57.0,-0.04908738521234035,4.875
-42.5,-4.963961829597935,6.5
-50.0,1.8530487917658545,2.4375
-56.5,1.7671458676442588,4.875
-39.5,-0.8528933180644165,3.25
-47.0,-1.14741762933846,8.125
-36.0,1.14741762933846,3.25
-44.5,-0.2638446955163305,3.25
-35.0,-2.773437264497239,5.6875
-41.0,3.8779034317749006,1.625
-49.5,-3.2274955777113887,8.125
-38.5,-0.42337869745643697,5.6875
-49.5,2.3193789512830896,5.6875
-41.5,1.8162332528565992,3.25
-46.5,-3.2397674240144743,8.125
-55.5,3.1170489609836225,7.3125
-46.0,-3.4974761963792615,6.5
-48.0,2.485048876374739,0.8125
-36.0,-0.2024854640009046,7.3125
-46.0,-2.2948352586769194,9.75
-39.5,2.3316507975861747,0.0
-47.0,-1.902136176978195,0.0
-43.0,-0.8713010875190442,4.875
-47.0,1.662835174068035,0.8125
-35.0,-1.9389517158874505,2.4375
-49.0,0.6749515466696822,3.25
-49.5,1.8837284075235672,4.875
-55.5,1.6321555583103224,9.75
-35.0,-4.18469958935203,6.5
-41.5,4.331961744989051,4.875
-39.5,-1.306951631278566,4.875
-47.0,-1.9328157927359078,10.5625
-41.5,2.7673013413456964,-1.625
-49.0,-3.1845441156505907,1.625
-46.0,0.05522330836388312,6.5
-50.0,1.368310862793992,-1.625
-49.5,0.4417864669110645,7.3125
-44.5,0.23316507975861755,3.25
-57.0,1.0062913968529807,17.875
-47.5,-1.8469128686143121,1.625
-48.0,1.2271846303085128,6.5
-43.0,-2.8532042654672924,0.0
-36.0,2.718213956133356,4.875
-57.5,2.215068257706866,1.625
-39.0,-5.00077736850719,4.0625
-58.5,5.0682725231741586,-2.4375
-57.0,-1.4910293258248437,10.5625
-39.0,-3.577243197349315,5.6875
-49.5,2.313243028131547,2.4375
-49.0,-1.8837284075235672,3.25
-39.5,2.3500585670408025,7.3125
-35.0,-3.0127382674073995,2.4375
-46.0,0.7301748550335653,8.9375
-41.5,3.141592653589793,-0.8125
-55.0,0.337475773334841,1.625
-42.5,-3.9515345095934116,5.6875
-48.0,2.9575149590435164,-1.625
-47.0,-2.067806102069844,5.6875
-41.0,3.196815961953676,4.875
-36.0,-1.3192234775816511,4.875
-50.0,-0.9449321653375549,-0.8125
-44.5,0.6994952392758522,0.8125
-47.5,-0.8344855486097886,2.4375
-45.0,0.7915340865489906,14.625
-41.0,1.589204096249524,4.875
-47.0,-2.3930100291015997,6.5
-39.5,1.0983302441261187,2.4375
-35.0,-3.037281960013569,4.875
-46.0,0.71790300873048,10.5625
-49.5,1.846912868614312,0.8125
-36.0,0.46019423636569234,5.6875
-48.0,0.1963495408493623,-0.8125
-49.0,-2.5893595699509624,8.9375
-41.0,3.2274955777113887,5.6875
-57.0,-0.006135923151542322,4.875
-47.0,-2.6875343403756435,1.625
-38.5,-0.9142525495798421,2.4375
-43.0,0.012271846303085199,3.25
-50.0,1.7978254834019713,2.4375
-58.5,3.2827188860752727,10.5625
-55.5,-1.012427320004524,-8.9375
-41.5,-0.4540583132141496,0.8125
-44.5,-1.0860583978230336,1.625
-47.5,-0.8406214717613314,0.0
-41.0,2.3807381827985146,6.5
-49.5,-3.644738352016283,0.8125
-47.0,0.47246608266877743,1.625
-38.5,-0.8897088569736719,1.625
-36.0,2.748893571891069,6.5
-48.0,0.19634954084936185,-0.8125
-43.0,-2.9513790358919736,4.875
-50.0,1.8285050991596843,0.0
-46.0,-1.349903093339364,6.5
-49.5,1.8162332528565992,1.625
-55.0,1.6812429435226623,-3.25
-58.5,0.9326603190344702,21.125
-35.0,-5.1725832167503825,6.5
-57.0,3.951534509593411,-10.5625
-39.0,-0.9019807032767568,-0.8125
-41.0,1.3008157081270237,3.25
-38.5,-4.098796665230433,2.4375
-49.0,0.46019423636569234,-0.8125
-43.0,-0.42337869745643686,1.625
-48.0,2.932971266437346,0.0
-46.5,-2.0923497946760143,7.3125
-47.5,0.816077779155161,0.8125
-49.5,0.5767767762450009,6.5
-50.0,-0.4295146206079794,-0.8125
-35.0,-2.0923497946760143,4.875
-44.5,2.804116880254952,1.625
-57.0,0.9940195505498957,14.625
-46.0,-3.080233422074368,8.125
-36.0,2.3071071049800045,7.3125
-39.5,0.006135923151542766,2.4375
-41.5,0.852893318064416,2.4375
-54.5,0.31293208072867085,12.1875
-59.5,1.0983302441261191,6.5
-49.5,-4.614214209960008,3.25
-46.5,0.43565054375952195,9.75
-47.5,0.8467573949128742,0.8125
-39.5,1.0676506283684062,3.25
-44.5,-0.2270291566070748,2.4375
-41.5,1.5707963267948961,1.625
-46.0,-3.644738352016283,8.9375
-35.0,-0.7301748550335653,8.125
-36.0,3.025010113710484,7.3125
-48.0,0.16566992509164935,1.625
-50.0,-1.1044661672776614,-1.625
-43.0,-1.8162332528565992,2.4375
-42.0,3.61405873625857,3.25
-38.5,-3.626330582561655,5.6875
-49.5,2.2580197197676637,8.125
-55.0,1.7303303287350036,-1.625
-57.5,1.0615147052168634,5.6875
-57.5,-1.497165248976386,2.4375
-44.5,-1.0062913968529803,1.625
-47.0,-0.9019807032767573,8.9375
-36.0,1.116738013580747,7.3125
-38.5,-2.761165418194154,4.0625
-41.5,4.104932588381976,1.625
-57.0,-0.5767767762450013,14.625
-48.0,-0.6135923151542566,7.3125
-35.0,-3.1784081924990484,8.125
-47.0,1.1351457830353744,8.125
-41.5,2.7488935718910685,2.4375
-55.0,0.28225246497095835,16.25
-50.0,-2.0555342557667595,0.8125
-46.0,-1.3683108627939917,5.6875
-43.0,-0.466330159517235,3.25
-50.0,2.2641556429192065,4.875
-39.0,0.4970097752749476,3.25
-49.0,-2.411417798556228,13.0
-58.5,4.6878452877785195,15.4375
-50.0,-3.202951885105219,-4.0625
-41.5,2.251883796616121,5.6875
-38.5,-4.111068511533518,2.4375
-39.0,2.7918450339518666,3.25
-48.0,0.17180584824319212,0.8125
-49.5,-0.6994952392758527,7.3125
-35.0,-2.4973207226778236,1.625
-45.0,2.7979809571034093,0.8125
-49.5,-2.1659808724945253,8.125
-43.0,-0.34361169648638357,0.0
-55.0,3.896311201229528,8.9375
-41.5,-0.294524311274043,1.625
-36.0,-0.8651651643675016,3.25
-57.0,0.6994952392758527,17.875
-47.5,-1.8162332528565992,5.6875
-46.0,-1.2026409377023428,8.125
-46.5,0.4663301595172349,-0.8125
-58.5,4.344233591292136,-14.625
-39.0,-2.4911847995262817,3.25
-49.5,-0.969475857943725,2.4375
-41.5,1.8407769454627698,0.8125
-49.5,-1.3989904785517053,4.875
-49.5,-1.828505099159684,1.625
-48.0,2.5034566458293668,4.0625
-35.0,-3.1661363461959637,3.25
-36.0,3.0127382674073995,6.5
-47.5,-1.104466167277662,7.3125
-41.5,2.4298255680108554,5.6875
-55.0,-0.2024854640009046,15.4375
-46.0,-3.4299810417122933,7.3125
-45.0,2.073942025221387,4.875
-38.5,-2.5280003384355365,2.4375
-47.0,0.8713010875190442,6.5
-43.0,-0.8467573949128739,2.4375
-57.0,3.595650966803943,-0.8125
-58.5,1.515573018431013,-5.6875
-41.5,-1.0185632431560654,-1.625
-43.0,-4.129476280988146,6.5
-35.0,-0.2515728492132452,6.5
-49.5,2.4911847995262812,10.5625
-47.5,-0.546097160487288,4.875
-55.5,2.245747873464578,-2.4375
-39.0,-1.1412817061869167,0.8125
-57.0,0.7731263170943632,8.125
-36.0,-0.791534086548991,6.5
-44.5,-0.2270291566070748,5.6875
-48.0,0.3988350048502669,0.0
-38.5,-2.932971266437346,2.4375
-41.5,3.6447383520162835,3.25
-49.5,-3.2888548092268146,13.0
-49.5,1.4480778637640452,0.8125
-46.5,-0.9203884727313847,7.3125
-46.0,-0.3988350048502667,0.8125
-58.5,4.71238898038469,-2.4375
-48.0,-2.313243028131547,9.75
-49.0,-2.5034566458293663,3.25
-41.5,3.7122335066832517,4.875
-49.5,-2.1966604882522383,-13.0
-38.5,-1.8898643306751097,1.625
-36.0,2.7673013413456964,2.4375
-39.0,-0.012271846303085088,4.875
-49.5,-0.5276893910326605,7.3125
-35.5,-2.4911847995262812,5.6875
-41.5,3.9147189706841568,2.4375
-43.0,-3.626330582561656,2.4375
-47.5,1.6505633277649499,0.8125
-44.5,0.8713010875190443,0.0
-58.5,2.5464081078901644,22.75
-57.0,-1.497165248976386,-1.625
-47.0,-2.761165418194154,9.75
-46.0,-0.3988350048502667,8.9375
-55.0,3.4422528880153793,-4.0625
-36.5,-1.129009859883832,8.125
-41.5,1.3253594007331935,6.5
-41.5,-0.41110685115335155,2.4375
-35.5,-3.9331267401387837,5.6875
-49.5,2.1230294104337273,-15.4375
-44.5,0.705631162427395,0.8125
-39.5,0.20862138715244694,3.25
-47.5,-1.0983302441261187,3.25
-49.0,0.5829126993965437,4.0625
-59.0,2.8838838812250054,10.5625
-49.0,-4.773748211900116,12.1875
-38.5,-0.36815538909255385,2.4375
-55.0,3.8288160465625602,15.4375
-43.0,-3.8042723539563896,1.625
-47.0,0.8528933180644165,7.3125
-57.0,2.7304858024364407,3.25
-46.0,-3.1845441156505907,10.5625
-48.0,2.4727770300716534,4.875
-47.0,-2.000310947402876,1.625
-46.0,-0.42337869745643686,7.3125
-41.5,3.221359654559846,-0.8125
-38.5,-3.693825737228624,2.4375
-58.0,5.080544369477243,8.9375
-49.5,-2.8716120349219203,8.9375
-43.0,-2.1966604882522383,4.875
-49.0,0.35588354278946865,8.9375
-45.0,2.1905245651006955,0.8125
-35.5,-2.8286605728611223,6.5
-36.5,3.043417883165112,6.5
-39.5,-0.01840776945462741,5.6875
-54.5,1.14741762933846,-2.4375
-57.5,-0.28838838812250067,8.125
-41.5,0.4540583132141496,7.3125
-48.0,-1.1535535524900022,-1.625
-47.5,-1.2455923997631406,2.4375
-49.5,0.1349903093339364,-1.625
-43.0,-1.7855536370988863,4.875
-59.0,5.092816215780328,0.8125
-46.0,-4.626486056263094,3.25
-47.5,1.1596894756415448,8.9375
-49.5,0.12271846303085132,-2.4375
-47.0,-0.8713010875190443,6.5
-36.5,1.8653206380689396,8.125
-35.5,-3.018874190558942,6.5
-57.0,3.792000507653305,8.9375
-39.0,-3.5465635815916023,4.875
-49.0,0.4111068511533519,3.25
-41.5,3.313398501832985,-1.625
-41.5,0.38042723539563905,1.625
-39.5,-1.3192234775816516,4.875
-45.0,-0.23930100291015988,7.3125
-47.5,0.30066023442558576,8.125
-55.5,1.116738013580747,-1.625
-49.5,-1.736466251886546,8.9375
-36.0,0.5645049299419158,4.875
-39.0,-0.018407769454627854,4.875
-49.0,-0.9756117810952678,0.0
-47.5,1.129009859883832,-2.4375
-38.5,-2.9268353432858034,4.875
-45.0,2.564815877344792,3.25
-58.5,2.601631416254047,-13.0
-41.5,-1.0799224746714913,5.6875
-57.0,-0.5215534678811178,11.375
-55.0,0.3252039270317555,6.5
-35.0,-4.129476280988145,5.6875
-48.0,1.9266798695843654,3.25
-46.5,-0.791534086548991,6.5
-49.0,-0.5092816215780329,9.75
-41.5,3.3379421944391554,0.0
-46.0,-3.2336315008629315,1.625
-43.0,-0.4786020058203201,7.3125
-49.5,2.215068257706866,8.125
-41.5,1.484893402673301,4.875
-47.5,-0.8344855486097891,6.5
-58.5,2.0248546400090466,13.8125
-48.0,-3.233631500862932,0.0
-43.0,-1.6321555583103222,3.25
-36.5,2.742757648739526,5.6875
-55.0,1.159689475641545,8.125
-42.0,0.14726215563702105,5.6875
-35.5,-4.325825821837508,2.4375
-39.5,3.018874190558942,3.25
-46.0,-2.313243028131547,6.5
-39.0,-0.466330159517235,5.6875
-46.5,0.8713010875190442,8.125
-49.0,1.3437671701878218,9.75
-56.5,1.4603497100671303,0.8125
-44.5,-1.1228739367322893,6.5
-49.0,-2.147573103039898,4.0625
-49.0,1.392854555400162,0.0
-45.0,0.748582624488193,7.3125
-41.5,1.5585244804918115,3.25
-43.0,-4.0987966652304335,5.6875
-49.0,1.8469128686143117,-8.9375
-35.5,-2.098485717827557,8.125
-38.5,0.2393010029101601,4.875
-48.0,1.6505633277649499,7.3125
-57.0,2.0064468705544187,-17.875
-46.0,-3.178408192499049,6.5
-58.5,4.362641360746764,10.5625
-47.5,-1.9573594853420784,0.0
-41.5,0.8651651643675016,1.625
-39.5,-0.9633399347921827,5.6875
-55.0,1.1474176293384595,8.125
-36.0,-1.1351457830353744,3.25
-49.0,-0.5706408530934586,9.75
-49.0,-1.7978254834019713,3.25
-47.0,0.4847379289718625,4.875
-36.0,1.8775924843720246,4.875
-41.5,0.9878836273983529,-4.875
-39.5,-0.9940195505498952,3.25
-46.0,-2.270291566070749,0.0
-41.5,3.577243197349315,6.5
-58.5,0.9019807032767568,-23.5625
-47.0,-4.06811704947272,4.0625
-35.5,-1.1658253987930873,5.6875
-43.0,0.26998061866787293,0.8125
-49.5,0.38042723539563905,8.9375
-47.5,2.448233337465483,2.4375
-38.5,-2.8347964960126646,-1.625
-55.0,3.957670432744954,12.1875
-49.0,-1.7364662518865455,8.9375
-48.0,-0.5522330836388307,0.0
-49.0,0.08590292412159561,-1.625
-44.5,0.7976700097005334,3.25
-57.0,1.043106935762236,3.25
-41.5,0.1656699250916498,-0.8125
-47.0,-0.9265243958829279,4.0625
-42.0,1.2394564766115979,4.875
-46.5,-3.6079228131070273,3.25
-39.5,2.294835258676919,3.25
-39.0,-2.7857091108003242,4.0625
-49.0,2.251883796616121,5.6875
-49.0,-1.8407769454627692,6.5
-35.5,-0.6565437772150545,4.875
-46.5,1.1228739367322893,9.75
-57.0,2.6691265709210157,13.8125
-36.5,-0.7547185476397358,6.5
-44.5,-0.20862138715244694,6.5
-58.0,2.1598449493429825,15.4375
-55.0,-0.779262240245906,8.9375
-43.0,-3.9085830475326135,-0.8125
-49.0,1.7119225592803755,1.625
-48.5,-0.08590292412159561,2.4375
-57.0,2.0371264863121317,-11.375
-45.0,-1.116738013580747,1.625
-39.5,0.18407769454627676,4.875
-46.5,-1.88986433067511,7.3125
-48.5,0.7485826244881928,9.75
-43.0,-1.6076118657041518,2.4375
-36.5,2.767301341345697,1.625
-41.5,1.3130875544301084,1.625
-41.5,-0.30679615757712764,-1.625
-49.0,-1.9880391010997913,-5.6875
-35.5,-2.067806102069844,5.6875
-49.0,0.619728238305799,12.1875
-46.0,0.1349903093339364,-0.8125
-38.5,-0.4970097752749477,2.4375
-49.0,2.251883796616121,7.3125
-58.0,2.521864415283994,-8.125
-55.0,-0.8344855486097886,8.125
-47.5,-1.1106020904292042,4.0625
-44.5,-0.2515728492132454,3.25
-39.0,-2.589359569950962,4.875
-48.5,2.2212041808584084,11.375
-46.0,-1.736466251886546,3.25
-41.5,3.6201946594101133,5.6875
-43.0,-4.080388895775806,3.25
-36.5,2.761165418194154,7.3125
-36.0,-3.031146036862027,4.875
-46.5,1.1596894756415446,7.3125
-55.0,3.0556897294681975,8.9375
-48.5,-2.2948352586769194,5.6875
-39.5,1.1167380135807465,5.6875
-41.5,0.9878836273983529,4.875
-49.0,-1.9634954084936203,-4.875
-58.5,2.804116880254952,0.8125
-49.0,-4.2460588208674555,10.5625
-47.0,2.466641106920111,4.0625
-57.0,0.748582624488193,2.4375
-49.0,-3.184544115650591,4.0625
-57.0,3.3011266555298997,-16.25
-48.0,-2.0371264863121317,3.25
-46.5,-0.7608544707912779,12.1875
-43.0,-0.8897088569736719,7.3125
-41.5,4.104932588381976,2.4375
-36.5,-1.3253594007331944,5.6875
-38.5,-2.804116880254952,4.875
-47.0,2.8286605728611223,5.6875
-46.0,-2.362330413343887,8.125
-35.5,-0.7240389318820225,6.5
-49.0,2.5157284921324514,5.6875
-45.0,0.3558835427894689,5.6875
-57.0,1.9880391010997913,-2.4375
-42.0,-0.7853981633974483,0.0
-39.5,-0.9940195505498957,0.0
-55.0,1.17196132194463,8.9375
-49.0,-2.202796411403781,0.0
-55.0,2.17825271879761,5.6875
-45.0,-1.3437671701878213,4.875
-49.0,-0.3620194659410112,0.8125
-57.0,2.3009711818284617,-1.625
-36.0,-4.822835597112456,5.6875
-46.0,0.7547185476397354,0.8125
-36.5,2.3009711818284613,5.6875
-38.5,-2.8102528034064944,6.5
-39.5,2.7979809571034093,8.9375
-43.0,-2.742757648739526,3.25
-47.5,2.804116880254952,4.875
-48.5,-1.1965050145508003,10.5625
-42.0,2.4727770300716534,4.875
-41.5,-0.337475773334841,4.875
-46.5,-2.8470683423157497,8.125
-49.0,-0.5154175447295755,5.6875
-56.5,3.209087808256761,-2.4375
-48.5,-1.8162332528565988,-4.875
-36.0,-2.073942025221387,6.5
-48.5,2.018718716857504,-5.6875
-46.5,-0.8344855486097889,8.125
-43.0,-0.8774370106705867,0.0
-57.0,4.442408361716817,4.875
-41.5,-0.6810874698212253,0.0
-39.5,-1.0001554737014375,0.8125
-36.5,-0.02454369260617062,8.9375
-38.5,-2.7857091108003242,1.625
-42.0,4.129476280988147,3.25
-46.0,-3.681553890925539,9.75
-45.0,2.172116795646068,2.4375
-48.5,-0.411106851153352,11.375
-55.0,1.8591847149173972,-10.5625
-47.0,-1.2394564766115983,4.875
-57.0,0.7731263170943632,4.875
-48.5,-1.8162332528565992,-0.8125
-49.0,-1.3683108627939917,9.75
-38.5,-0.4295146206079796,4.0625
-49.0,0.4049709280018092,8.9375
-57.0,3.184544115650591,10.5625
-55.5,0.4233786974564371,5.6875
-47.0,-1.17196132194463,5.6875
-36.5,-0.03681553890925526,7.3125
-45.5,-2.3071071049800045,2.4375
-45.0,2.1414371798883547,7.3125
-46.0,-1.705786636128833,8.125
-49.0,0.779262240245906,7.3125
-48.5,0.10431069357622347,-0.8125
-36.0,-2.061670178918302,4.875
-39.5,3.06182565261974,4.875
-42.0,1.3008157081270233,8.125
-49.0,-1.8591847149173968,5.6875
-56.0,2.1659808724945253,2.4375
-43.0,-4.356505437595221,1.625
-41.5,3.749049045592507,0.8125
-41.5,0.0,-1.625
-46.0,-2.8409324191642074,4.0625
-46.0,-0.5092816215780329,8.9375
-49.0,1.2946797849754812,0.8125
-55.5,2.6813984172241008,1.625
-36.0,-4.681709364626977,5.6875
-39.5,3.043417883165112,7.3125
-39.0,-2.8286605728611223,8.9375
-37.0,2.8409324191642074,5.6875
-45.0,-0.15953400194010658,4.875
-43.0,-2.60776733940559,4.875
-49.0,0.3313398501832985,14.625
-63.5,0.8713010875190443,42.3125
-42.0,2.8716120349219203,8.125
-55.0,-0.012271846303085532,-8.9375
-48.5,-2.2886993355253766,-3.25
-57.5,1.7364662518865464,20.3125
-48.5,-1.3130875544301093,9.75
-47.0,0.5706408530934586,2.4375
-47.0,-0.006135923151542766,4.875
-43.0,-2.7488935718910685,3.25
-55.0,4.374913207049849,3.25
-41.5,-0.6504078540635119,0.0
-48.5,-1.5585244804918115,8.125
-48.5,-0.41724277430489476,4.875
-46.0,-1.3314953238847365,4.875
-49.0,-0.08590292412159584,7.3125
-39.5,2.411417798556228,3.25
-36.5,0.0,8.125
-45.0,-0.15339807878856426,6.5
-42.0,1.4910293258248437,5.6875
-46.5,-3.202951885105219,5.6875
-57.5,2.7120780329818137,8.9375
-36.0,-3.859495662320273,4.875
-39.0,0.20862138715244716,5.6875
-49.5,1.7119225592803757,4.875
-55.0,2.3193789512830896,4.875
-61.5,-2.7918450339518674,-17.0625
-41.5,2.5402721847386216,-0.8125
-55.5,0.27611654181941603,0.0
-49.0,-2.2212041808584084,1.625
-49.0,-1.4235341711578753,6.5
-39.5,2.405281875404685,4.875
-45.0,-0.16566992509164935,8.9375
-49.5,-0.9387962421860121,0.8125
-42.0,2.435961491162398,6.5
-55.0,0.4970097752749476,-21.125
-48.5,-2.3930100291016,5.6875
-39.0,-2.2641556429192065,4.0625
-37.0,2.8286605728611223,3.25
-46.0,-2.319378951283089,4.875
-57.0,3.1661363461959633,0.8125
-59.0,-2.63231103201176,-1.625
-46.5,-0.07976700097005329,4.875
-47.0,1.8714565612204823,4.0625
-43.0,-2.779573187648782,4.875
-36.5,-0.2515728492132451,5.6875
-48.5,2.043262409463674,5.6875
-37.0,0.9878836273983529,7.3125
-39.5,0.0,1.625
-46.5,-1.8653206380689398,1.625
-45.0,1.7119225592803755,3.25
-36.5,-2.84706834231575,2.4375
-43.0,0.2515728492132451,3.25
-46.5,2.718213956133356,6.5
-41.5,0.9817477042468101,-3.25
-55.0,0.294524311274043,5.6875
-38.5,-4.09266074207889,4.875
-49.0,0.4417864669110646,4.0625
-45.5,0.0674951546669682,8.125
-50.0,1.2762720155208536,2.4375
-54.5,2.6998061866787286,13.0
-42.5,-0.31906800388021317,5.6875
-48.5,-1.896000253826653,7.3125
-58.5,-1.4358060174609601,6.5
-57.0,2.8286605728611223,12.1875
-55.0,0.3620194659410112,9.75
-36.5,-4.172427743048944,1.625
-49.0,2.000310947402876,0.0
-57.0,1.7916895602504286,15.4375
-46.5,-2.6813984172241003,6.5
-43.0,-0.8774370106705867,5.6875
-50.0,1.6996507129772904,0.8125
-41.0,2.012582793705961,-0.8125
-38.5,-3.785864584501762,4.0625
-39.0,2.8409324191642074,3.25
-45.5,-2.3500585670408025,6.5
-47.0,2.3316507975861747,-0.8125
-48.5,-0.5951845456996288,13.0
-58.0,-1.5646604036433538,8.9375
-37.0,2.1905245651006955,6.5
-53.5,1.6076118657041518,-4.875
-42.0,-0.28225246497095746,2.4375
-44.5,-1.5155730184310139,8.125
-49.5,-2.270291566070749,8.125
-42.5,3.7981364308048473,0.8125
-48.5,-1.9205439464328227,7.3125
-36.5,-2.423689644859313,5.6875
-49.0,0.5583690067903734,5.6875
-55.0,3.650874275167826,-1.625
-56.5,-3.5465635815916023,16.25
-39.0,-0.5215534678811181,2.4375
-37.0,2.8716120349219203,5.6875
-41.5,0.9019807032767568,0.0
-46.5,-2.8102528034064944,6.5
-43.0,-0.859029241215959,2.4375
-39.5,2.730485802436441,6.5
-47.0,-0.042951462060797585,4.0625
-45.5,-2.270291566070749,5.6875
-51.0,1.3253594007331937,9.75
-45.0,0.8344855486097891,6.5
-49.0,-0.7547185476397353,-8.125
-53.0,2.448233337465483,1.625
-57.5,-0.7424467013366502,13.8125
-46.5,-2.650718801466388,2.4375
-37.0,1.88986433067511,4.875
-46.5,-0.05522330836388312,2.4375
-38.5,-2.8409324191642074,3.25
-37.0,-0.11044661672776623,5.6875
-43.0,0.23930100291016,1.625
-55.0,3.99448597165421,-0.8125
-48.0,-1.8285050991596847,7.3125
-45.0,0.4295146206079794,6.5
-45.0,-2.1721167956460676,4.0625
-42.0,3.632466505713198,5.6875
-41.0,-0.44178646691106405,5.6875
-49.0,-3.288854809226815,0.8125
-39.0,2.405281875404685,7.3125
-48.5,-0.9326603190344698,2.4375
-57.0,1.7119225592803757,20.3125
-52.5,0.6933593161243099,2.4375
-52.0,-2.2702915660707492,-1.625
-54.0,-1.9082721001297376,8.9375
-39.0,-0.15339807878856404,0.0
-49.5,0.3988350048502666,8.9375
-37.0,-0.5154175447295753,7.3125
-41.5,4.325825821837507,1.625
-43.0,-4.080388895775805,1.625
-52.0,1.9205439464328227,7.3125
-45.0,-1.5155730184310134,3.25
-47.0,2.2702915660707492,7.3125
-37.0,0.11044661672776579,4.875
-39.5,-0.04908738521234035,5.6875
-51.5,1.4051264017032472,-0.8125
-55.0,-0.2577087723647873,15.4375
-41.0,-0.28838838812250067,5.6875
-46.5,-2.7304858024364416,5.6875
-48.5,1.000155473701438,0.8125
-44.5,0.748582624488193,0.8125
-48.5,-0.46019423636569234,7.3125
-52.5,-2.2273401040099507,8.125
-57.0,3.73064127613788,-0.8125
-42.0,0.4049709280018092,5.6875
-46.5,-1.3683108627939924,2.4375
-37.5,0.09817477042468115,5.6875
-52.0,-2.8716120349219203,3.25
-41.5,3.669282044622454,3.25
-53.0,-1.4787574795217586,-3.25
-37.5,-2.3746022596469727,9.75
-39.5,3.0188741905589422,4.875
-57.5,0.9449321653375544,-6.5
-42.5,-3.7183694298347936,7.3125
-49.0,0.30066023442558576,7.3125
-39.0,-0.44792239006260737,4.0625
-48.5,2.3623304133438876,1.625
-44.5,0.4049709280018092,6.5
-50.0,1.441941940612503,8.9375
-49.0,-2.147573103039898,0.8125
-46.5,-1.0369710126106935,4.0625
-54.5,3.1661363461959633,-10.5625
-45.0,-3.6386024288647407,6.5
-44.5,2.233476027161494,4.875
-41.0,0.95720401164064,2.4375
-39.0,-0.8222137023067035,5.6875
-45.0,-2.3255148744346323,1.625
-49.0,-0.16566992509164935,8.125
-43.0,-0.23316507975861744,-1.625
-46.5,0.8406214717613315,0.8125
-38.5,-1.0676506283684064,0.0
-37.0,2.994330497952771,7.3125
-38.0,-3.055689729468197,5.6875
-50.0,0.19634954084936207,2.4375
-49.5,4.1172044346850605,1.625
-42.0,-0.006135923151542322,5.6875
-46.5,-1.368310862793992,1.625
-57.5,0.9878836273983529,1.625
-48.5,-1.8100973297050564,2.4375
-54.5,2.1291653335852696,0.8125
-54.5,-1.8039614065535137,5.6875
-48.0,-0.03067961575771294,8.125
-39.5,0.6197282383057989,5.6875
-48.5,-0.6013204688511711,7.3125
-44.5,0.44792239006260726,6.5
-38.5,-2.834796496012665,1.625
-48.5,2.043262409463674,7.3125
-37.5,0.95720401164064,8.9375
-42.0,1.276272015520854,5.6875
-38.0,-4.344233591292136,5.6875
-54.5,2.5280003384355365,-6.5
-46.5,0.43565054375952217,0.0
-45.0,-2.2886993355253766,7.3125
-49.0,-0.17180584824319167,13.0
-57.0,3.3686218101968683,5.6875
-49.0,0.4295146206079794,0.0
-46.5,-3.184544115650591,8.125
-49.0,-0.8160777791551611,8.125
-55.0,3.9208548938356986,6.5
-43.0,-3.9331267401387837,3.25
-40.5,3.583379120500858,1.625
-48.5,-1.7241944055834613,-2.4375
-38.5,-2.0739420252213865,-0.8125
-45.0,2.8347964960126646,2.4375
-39.5,0.15953400194010658,4.875
-45.0,-2.350058567040802,0.8125
-40.5,3.1722722693475056,-0.8125
-42.5,-3.5833791205008576,1.625
-54.0,2.190524565100696,8.125
-38.0,-2.4911847995262812,2.4375
-48.5,2.4359614911623986,6.5
-48.5,1.7978254834019713,7.3125
-49.5,-3.6570101983193686,4.0625
-37.5,2.509592568980909,4.875
-46.5,-1.988039101099791,8.9375
-55.0,3.1906800388021335,-1.625
-42.0,0.04295146206079803,6.5
-46.5,-1.4173982480063323,2.4375
-49.0,-2.5341362615870793,5.6875
-57.5,3.558835427894688,1.625
-54.0,-1.423534171157875,0.0
-37.5,0.558369006790373,6.5
-42.0,1.2578642460662257,5.6875
-48.5,-0.10431069357622302,-0.8125
-39.0,-1.1535535524900027,6.5
-38.5,-3.0802334220743672,5.6875
-42.5,0.3067961575771282,0.8125
-39.0,-0.2822524649709579,5.6875
-45.0,0.6933593161243098,6.5
-46.0,0.4049709280018092,4.875
-44.5,1.791689560250429,3.25
-48.0,-0.4786020058203202,5.6875
-46.5,0.5092816215780327,-1.625
-40.5,0.9449321653375549,2.4375
-48.0,-1.8653206380689396,2.4375
-57.5,2.0739420252213874,-25.1875
-48.5,-3.6324665057131984,4.875
-49.0,0.04908738521234057,8.125
-55.0,3.792000507653305,6.5
-37.5,-1.2210487071569704,4.875
-46.5,-0.18407769454627676,6.5
-45.5,-2.172116795646068,-0.8125
-48.0,3.423845118560751,0.8125
-38.5,-4.154019973594316,5.6875
-43.0,0.30066023442558565,3.25
-57.5,3.6447383520162835,-2.4375
-49.0,-3.411573272257666,6.5
-48.5,1.4726215563702156,0.0
-46.5,-0.8713010875190443,8.125
-39.0,-1.1290098598838318,6.5
-39.0,3.0863693452259104,5.6875
-44.5,-0.15339807878856426,1.625
-49.0,-2.399145952253143,5.6875
-48.5,1.8898643306751102,4.875
-40.5,1.4910293258248433,0.8125
-42.5,0.4356505437595217,6.5
-56.0,-0.11658253987930856,17.875
-54.0,-1.834641022311227,8.9375
-37.5,0.674951546669682,5.6875
-43.0,-2.7795731876487815,4.875
-45.5,0.4295146206079795,3.25
-40.5,3.215223731408304,-2.4375
-48.5,-1.9696313316451635,-6.5
-54.5,0.4786020058203202,-1.625
-44.5,0.46633015951723467,6.5
-46.0,-1.7978254834019713,4.0625
-39.0,-1.1290098598838318,5.6875
-38.5,0.006135923151542544,8.125
-39.0,3.098641191528995,7.3125
-42.0,1.2517283229146834,7.3125
-55.5,-0.0674951546669682,4.875
-46.5,-1.380582709097077,5.6875
-47.5,1.1596894756415446,2.4375
-57.0,-0.15339807878856426,4.875
-49.0,-3.3993014259545804,11.375
-48.0,1.88986433067511,7.3125
-49.0,-1.7241944055834608,0.8125
-46.5,2.227340104009951,0.8125
-44.5,0.03681553890925526,2.4375
-40.5,0.9940195505498952,0.0
-56.0,0.337475773334841,5.6875
-49.0,-3.730641276137879,7.3125
-49.5,0.1595340019401068,8.9375
-39.5,2.423689644859313,5.6875
-38.5,-3.1047771146805374,3.25
-37.0,3.0618256526197394,5.6875
-38.5,-3.1170489609836225,7.3125
-42.0,4.411728745959104,4.875
-56.5,-0.5092816215780331,11.375
-43.0,-3.5711072741977725,3.25
-54.0,2.000310947402876,13.8125
-46.0,-1.153553552490002,2.4375
-48.0,0.7301748550335654,0.0
-48.0,0.5399612373357456,6.5
-46.0,-1.6505633277649499,-0.8125
-47.5,3.264311116620644,-4.875
-46.0,-1.1412817061869167,4.0625
-50.0,-2.147573103039898,6.5
-48.0,1.0799224746714915,4.875
-57.5,2.172116795646068,-3.25
-44.5,-1.0369710126106937,0.8125
-39.0,0.16566992509164935,7.3125
-40.5,0.8283496254582463,-0.8125
-42.0,0.4356505437595217,1.625
-38.5,-4.405592822807561,4.0625
-46.0,1.1412817061869172,5.6875
-38.5,-1.073786551519949,1.625
-48.5,2.350058567040802,8.125
-48.5,-1.8100973297050564,0.8125
-46.5,3.3563499638937833,0.8125
-37.0,-0.8590292412159597,5.6875
-54.0,-0.6442719309119691,-2.4375
-46.0,-1.67510702037112,0.8125
-56.5,3.626330582561655,-4.875
-43.5,-4.098796665230433,4.875
-38.5,-0.25770877236478773,0.0
-46.0,0.6688156235181396,8.9375
-44.5,2.251883796616121,5.6875
-48.0,-1.129009859883832,-0.8125
-46.0,1.0799224746714917,1.625
-46.0,0.9940195505498957,7.3125
-40.5,0.04908738521234035,0.8125
-37.5,-0.8774370106705871,3.25
-39.5,0.06135923151542588,4.875
-42.0,1.2394564766115983,3.25
-43.5,-4.086524818927348,5.6875
-38.5,-0.3190680038802133,-0.8125
-53.5,2.4175537217077703,-1.625
-48.0,0.07363107781851097,3.25
-50.0,-1.6444274046134075,2.4375
-45.5,0.3067961575771283,5.6875
-57.0,3.2520392703175593,2.4375
-57.0,-0.4295146206079794,4.875
-49.0,-3.3993014259545813,8.125
-40.5,3.4054373491061236,-0.8125
-39.5,-0.822213702306704,8.125
-46.0,-2.043262409463674,8.9375
-54.0,1.3069516312785665,-3.25
-46.0,0.5154175447295755,-0.8125
-48.0,-0.5092816215780331,9.75
-56.5,1.632155558310322,-23.5625
-43.5,-3.718369429834794,1.625
-48.0,1.540116711037184,-4.0625
-37.5,1.22104870715697,4.875
-57.0,1.3130875544301088,13.0
-38.5,-4.362641360746763,1.625
-38.5,-0.08590292412159584,5.6875
-46.0,0.8099418560036185,3.25
-44.5,2.215068257706866,2.4375
-42.0,1.3928545554001621,4.875
-45.5,-0.527689391032661,6.5
-48.5,-3.282718886075272,3.25
-49.5,0.337475773334841,0.0
-46.0,2.0125827937059615,-0.8125
-48.5,-2.3623304133438876,8.125
-40.5,3.423845118560751,-0.8125
-37.0,-0.9019807032767568,5.6875
-39.0,0.0674951546669682,7.3125
-53.5,-0.8344855486097891,0.8125
-48.5,-0.5215534678811178,0.8125
-48.5,0.6688156235181397,8.125
-38.5,-2.5034566458293668,5.6875
-42.0,4.424000592262189,4.875
-38.5,-4.362641360746764,6.5
-43.5,0.3190680038802133,2.4375
-57.5,4.09266074207889,15.4375
-46.5,-3.6754179677739964,8.125
-49.5,0.16566992509164935,1.625
-44.5,2.0555342557667586,7.3125
-46.0,0.8344855486097886,4.875
-46.0,-2.6813984172241003,0.0
-57.0,2.82252464970958,-8.125
-48.5,-1.4603497100671308,0.0
-44.5,0.49700977527494805,7.3125
-43.5,-2.6445828783148455,1.625
-38.5,-0.28838838812250045,0.0
-46.0,1.0615147052168639,4.0625
-37.5,1.9634954084936207,3.25
-45.5,0.6872233929727676,5.6875
-39.0,-0.5951845456996292,3.25
-53.5,-0.8774370106705867,1.625
-42.5,2.0739420252213865,7.3125
-48.5,-2.546408107890164,-12.1875
-38.5,-1.8837284075235674,5.6875
-57.5,4.614214209960009,4.0625
-40.5,-0.570640853093459,0.8125
-46.5,-3.202951885105219,6.5
-49.5,0.1718058482431919,4.875
-48.5,-0.36815538909255396,0.8125
-56.5,3.344078117590698,-4.875
-46.0,-1.0369710126106937,1.625
-45.0,0.8467573949128737,0.0
-40.5,0.21475731030399015,5.6875
-53.5,-1.7119225592803757,11.375
-39.0,0.9449321653375549,4.875
-38.5,-3.270447039772187,4.875
-37.5,3.141592653589793,8.9375
-48.5,-0.6074563920027143,8.9375
-38.5,-2.399145952253143,2.4375
-47.0,0.7669903939428206,0.8125
-48.5,-0.2945243112740432,4.0625
-45.5,2.337786720737717,5.6875
-48.5,-1.1412817061869172,-1.625
-44.0,-1.3928545554001621,7.3125
-57.0,4.246058820867455,19.5
-44.5,-1.5523885573402687,5.6875
-42.0,1.3314953238847362,5.6875
-46.0,-3.276582962923729,5.6875
-48.5,-0.12271846303085132,7.3125
-56.5,2.9145634969827183,8.125
-41.0,0.1288543861823941,-0.8125
-48.5,-3.0679615757712826,10.5625
-46.0,0.1472621556370215,4.875
-48.5,1.4051264017032472,4.875
-38.5,-2.5954954931025047,4.0625
-56.0,3.951534509593412,10.5625
-39.0,-0.6381360077604272,4.875
-48.5,-2.6813984172241008,7.3125
-44.0,2.509592568980909,3.25
-47.5,-2.2027964114037806,3.25
-44.5,2.7857091108003242,5.6875
-42.5,0.7301748550335656,1.625
-45.5,-1.4787574795217582,0.0
-53.5,-0.5706408530934586,1.625
-48.0,-0.662679700366597,4.875
-44.0,-1.2762720155208533,3.25
-57.5,4.430136515413732,4.0625
-39.0,-4.76147636559703,5.6875
-37.5,3.055689729468197,4.875
-38.5,-3.2336315008629315,4.0625
-45.5,2.9575149590435164,7.3125
-45.5,-1.7180584824319183,0.8125
-44.0,2.4789129532231957,8.125
-44.0,-3.1906800388021335,-0.8125
-37.5,2.718213956133356,2.4375
-44.5,-0.08590292412159561,8.125
-38.5,-2.9820586516496865,1.625
-47.5,0.7976700097005334,11.375
-48.0,0.1718058482431919,3.25
-39.0,2.2457478734645786,0.0
-42.5,0.9940195505498957,8.9375
-40.5,-0.294524311274043,4.875
-48.5,-2.3071071049800045,-0.8125
-54.0,0.705631162427395,0.0
-57.5,2.626175108860218,-0.8125
-48.0,-4.491495746929157,8.9375
-48.5,1.9880391010997909,6.5
-56.0,1.3744467859455343,8.9375
-47.0,-2.7918450339518666,4.875
-38.5,-1.2455923997631406,1.625
-39.0,0.2331650797586175,0.0
-37.5,3.0495538063166547,5.6875
-44.5,-2.7120780329818137,3.25
-44.5,2.650718801466388,3.25
-43.5,0.5031456984264899,0.8125
-45.5,-0.7608544707912777,8.125
-48.5,-1.8960002538266525,7.3125
-56.0,2.9636508821950587,14.625
-40.0,0.10431069357622391,0.0
-48.5,-2.3255148744346323,3.25
-48.5,-1.1351457830353744,3.25
-46.0,0.5767767762450009,1.625
-38.5,2.1905245651006955,4.875
-42.0,0.9633399347921832,5.6875
-54.0,-1.8285050991596847,14.625
-48.5,0.07976700097005329,5.6875
-57.5,2.478912953223196,12.1875
-55.0,-2.478912953223196,5.6875
-48.5,0.012271846303085532,4.875
-42.0,1.7732817907958007,-1.625
-48.5,-3.7551849687440493,0.0
-44.0,-0.0920388472731386,0.8125
-39.0,2.8532042654672924,0.8125
-38.0,-3.5281558121369745,2.4375
-38.0,3.3808936564999534,4.875
-39.0,-3.0679615757712826,2.4375
-45.5,2.742757648739526,0.0
-57.5,2.251883796616121,6.5
-39.5,-1.1596894756415441,5.6875
-45.5,-2.6445828783148455,0.0
-48.0,0.41110685115335177,0.8125
-49.0,-0.7547185476397353,5.6875
-44.0,2.110757564130642,1.625
-56.0,0.8774370106705871,-0.8125
-42.5,-0.34974761963792655,5.6875
-45.5,-2.5157284921324514,4.0625
-44.0,1.969631331645163,3.25
-38.0,-3.2888548092268146,1.625
-39.0,4.147884050442774,3.25
-48.5,-3.423845118560751,6.5
-44.0,-0.01227184630308531,-0.8125
-38.0,2.7243498792848984,3.25
-48.5,-2.2457478734645786,5.6875
-38.5,2.3500585670408025,6.5
-46.0,-2.2273401040099507,6.5
-42.0,2.5586799541932495,1.625
-48.5,-1.9021361769781953,4.0625
-56.0,2.190524565100696,8.125
-48.5,-1.4296700943094178,12.1875
-38.5,-2.3193789512830896,3.25
-42.5,4.111068511533519,4.0625
-45.5,-1.484893402673301,2.4375
-55.5,0.2147573103039897,-7.3125
-56.5,1.9880391010997913,13.0
-44.0,-3.7490490455925074,4.875
-38.5,2.0371264863121317,0.8125
-43.5,-0.30066023442558576,0.0
-56.0,0.9326603190344702,9.75
-46.0,-1.1351457830353748,4.0625
-48.5,-1.8714565612204823,0.8125
-49.0,-0.4295146206079794,4.0625
-44.0,-0.0797670009700534,3.25
-55.5,2.7243498792848984,-4.875
-37.5,-2.994330497952771,2.4375
-57.0,4.847379289718626,5.6875
-46.0,-3.933126740138784,1.625
-41.5,2.5954954931025047,5.6875
-37.5,-0.4847379289718625,5.6875
-38.0,-3.509748042682347,0.0
-48.5,2.184388641949153,-0.8125
-37.0,1.8775924843720246,2.4375
-41.5,0.5338253141842033,2.4375
-43.5,-3.08636934522591,4.875
-49.0,1.349903093339364,1.625
-41.0,1.1351457830353744,7.3125
-37.0,-0.5154175447295755,4.875
-38.5,0.07976700097005374,4.875
-44.0,-2.12916533358527,8.125
-48.0,0.7547185476397353,0.0
-49.0,-1.0492428589137786,8.125
-43.5,-0.44792239006260715,4.875
-49.0,0.15339807878856415,8.9375
-49.0,2.0309905631605885,3.25
-56.0,1.3437671701878218,14.625
-46.5,-2.8593401886188348,10.5625
-37.0,2.570951800496334,-0.8125
-55.0,-0.2331650797586171,-4.875
-37.5,-3.77972866135022,0.8125
-36.0,0.4111068511533519,3.25
-41.0,4.239922897715912,-1.625
-56.0,0.5829126993965437,-15.4375
-47.0,-1.8898643306751102,0.8125
-43.5,-0.15339807878856426,3.25
