-37.0,5.706408530934585,4.875
-37.0,5.6941366846315,4.875
-37.0,5.730952223540755,-1.625
-37.0,5.724816300389213,0.8125
-36.5,5.730952223540755,1.625
-36.5,5.700272607783043,6.5
-37.0,5.71868037723767,3.25
-36.5,5.724816300389213,0.8125
-36.5,5.730952223540755,2.4375
-37.0,5.724816300389213,0.8125
-37.0,5.743224069843841,-1.625
-36.5,5.730952223540755,3.25
-37.0,5.749359992995383,-1.625
-37.0,5.737088146692298,0.8125
-37.0,5.724816300389213,0.8125
-37.0,5.724816300389213,3.25
-37.0,5.737088146692298,2.4375
-37.0,5.743224069843841,0.8125
-37.0,5.706408530934585,4.875
-37.0,5.730952223540755,2.4375
-37.0,5.749359992995383,0.0
-36.5,5.724816300389213,4.875
-36.5,5.71868037723767,2.4375
-36.5,5.730952223540755,2.4375
-36.5,5.730952223540755,2.4375
-37.0,5.730952223540755,3.25
-36.5,5.737088146692298,0.8125
-37.0,5.712544454086128,4.875
-37.0,5.743224069843841,-0.8125
-37.0,5.724816300389213,1.625
-37.0,5.730952223540755,1.625
-37.0,5.724816300389213,0.8125
-37.0,5.724816300389213,2.4375
-37.0,5.724816300389213,1.625
-37.0,5.724816300389213,0.8125
-37.0,5.730952223540755,1.625
-37.0,5.737088146692298,2.4375
-37.0,5.724816300389213,2.4375
-37.0,5.706408530934585,2.4375
-37.0,5.724816300389213,0.0
-37.0,5.706408530934585,4.875
-37.5,5.700272607783043,3.25
-37.0,5.712544454086128,2.4375
-37.0,5.724816300389213,0.0
-37.0,5.706408530934585,3.25
-37.0,5.712544454086128,3.25
-37.0,5.706408530934585,1.625
-37.0,5.724816300389213,1.625
-37.0,5.6941366846315,4.875
-37.0,5.712544454086128,0.0
-37.0,5.706408530934585,2.4375
-37.0,5.700272607783043,3.25
-37.0,5.700272607783043,4.875
-37.0,5.724816300389213,0.0
-37.0,5.712544454086128,1.625
-37.0,5.706408530934585,2.4375
-37.0,5.712544454086128,2.4375
-37.5,5.712544454086128,1.625
-37.0,5.6941366846315,5.6875
-37.0,5.700272607783043,4.875
-37.0,5.700272607783043,2.4375
-37.5,5.688000761479957,7.3125
-37.0,5.700272607783043,1.625
-37.0,5.681864838328415,6.5
-37.0,5.700272607783043,3.25
-37.5,5.71868037723767,1.625
-37.0,5.737088146692298,-1.625
-37.0,5.706408530934585,3.25
-37.5,5.706408530934585,1.625
-37.0,5.688000761479957,4.875
-37.5,5.700272607783043,4.875
-37.0,5.6941366846315,3.25
-37.0,5.681864838328415,7.3125
-37.0,5.71868037723767,-0.8125
-37.5,5.700272607783043,3.25
-37.5,5.712544454086128,0.8125
-37.0,5.71868037723767,1.625
-37.0,5.688000761479957,5.6875
-37.5,5.681864838328415,6.5
-37.0,5.700272607783043,3.25
-37.5,5.712544454086128,2.4375
-37.0,5.681864838328415,6.5
-37.0,5.681864838328415,6.5
-37.0,5.706408530934585,3.25
-37.0,5.6941366846315,4.875
-37.0,5.706408530934585,3.25
-37.0,5.681864838328415,6.5
-37.0,5.700272607783043,3.25
-37.0,5.71868037723767,1.625
-37.0,5.712544454086128,0.8125
-37.5,5.706408530934585,2.4375
-37.0,5.706408530934585,2.4375
-37.5,5.6941366846315,3.25
-37.5,5.712544454086128,0.0
-37.0,5.6941366846315,3.25
-37.0,5.700272607783043,1.625
-37.5,5.700272607783043,0.0
-37.5,5.6941366846315,3.25
-37.5,5.681864838328415,2.4375
-37.5,5.675728915176872,5.6875
-37.5,5.681864838328415,5.6875
-37.5,5.688000761479957,2.4375
-37.5,5.681864838328415,4.875
-37.5,5.66959299202533,3.25
-37.5,5.66959299202533,5.6875
-37.5,5.681864838328415,2.4375
-37.5,5.675728915176872,3.25
-37.5,5.66959299202533,6.5
-37.5,5.663457068873787,7.3125
-37.5,5.663457068873787,6.5
-37.5,5.66959299202533,5.6875
-37.5,5.663457068873787,5.6875
-37.5,5.681864838328415,1.625
-37.5,5.675728915176872,5.6875
-38.0,5.6573211457222445,8.125
-38.0,5.675728915176872,4.875
-38.0,5.675728915176872,1.625
-37.5,5.66959299202533,4.875
-37.5,5.66959299202533,2.4375
-38.0,5.6941366846315,0.0
-37.5,5.66959299202533,5.6875
-37.5,5.66959299202533,3.25
-38.0,5.675728915176872,3.25
-37.5,5.6573211457222445,5.6875
-38.0,5.688000761479957,0.0
-38.0,5.66959299202533,5.6875
-37.5,5.681864838328415,0.8125
-37.5,5.66959299202533,4.875
-37.5,5.688000761479957,1.625
-38.0,5.66959299202533,4.875
-37.5,5.6941366846315,0.0
-37.5,5.688000761479957,2.4375
-38.0,5.66959299202533,3.25
-37.5,5.681864838328415,1.625
-37.5,5.675728915176872,3.25
-37.5,5.706408530934585,0.8125
-38.0,5.6941366846315,0.8125
-37.5,5.6573211457222445,8.125
-37.5,5.6941366846315,1.625
-37.5,5.700272607783043,0.8125
-37.5,5.681864838328415,4.875
-37.5,5.706408530934585,0.8125
-37.5,5.681864838328415,4.875
-37.5,5.663457068873787,6.5
-37.5,5.681864838328415,1.625
-37.5,5.663457068873787,5.6875
-38.0,5.688000761479957,2.4375
-37.5,5.688000761479957,1.625
-38.0,5.6573211457222445,6.5
-37.5,5.6573211457222445,6.5
-37.5,5.66959299202533,5.6875
-37.5,5.700272607783043,0.8125
-38.0,5.688000761479957,1.625
-38.0,5.663457068873787,7.3125
-38.0,5.681864838328415,0.8125
-37.5,5.675728915176872,5.6875
-37.5,5.651185222570702,6.5
-37.5,5.66959299202533,3.25
-37.5,5.675728915176872,2.4375
-37.5,5.66959299202533,6.5
-38.0,5.6573211457222445,6.5
-38.0,5.681864838328415,3.25
-37.5,5.675728915176872,6.5
-37.5,5.688000761479957,5.6875
-37.5,5.700272607783043,0.8125
-37.5,5.700272607783043,2.4375
-38.0,5.700272607783043,1.625
-38.0,5.700272607783043,2.4375
-37.5,5.688000761479957,3.25
-37.5,5.675728915176872,3.25
-37.5,5.675728915176872,5.6875
-38.0,5.675728915176872,4.875
-38.0,5.66959299202533,4.875
-37.5,5.688000761479957,1.625
-37.5,5.675728915176872,4.875
-38.0,5.681864838328415,2.4375
-38.0,5.6941366846315,0.8125
-38.0,5.66959299202533,5.6875
-37.5,5.681864838328415,2.4375
-38.0,5.675728915176872,4.875
-37.5,5.663457068873787,6.5
-38.0,5.675728915176872,4.875
-38.0,5.700272607783043,-0.8125
-38.0,5.663457068873787,5.6875
-38.0,5.651185222570702,6.5
-38.0,5.66959299202533,-0.8125
-38.0,5.66959299202533,1.625
-38.0,5.663457068873787,1.625
-38.0,5.638913376267617,7.3125
-38.0,5.651185222570702,3.25
-38.0,5.638913376267617,4.875
-38.0,5.6573211457222445,0.8125
-38.0,5.6573211457222445,1.625
-38.0,5.632777453116074,6.5
-38.5,5.651185222570702,3.25
-38.5,5.638913376267617,4.875
-38.5,5.651185222570702,0.8125
-38.5,5.6143696836614465,4.875
-38.5,5.638913376267617,0.8125
-38.5,5.608233760509904,4.875
-38.5,5.608233760509904,5.6875
-38.5,5.620505606812989,3.25
-38.5,5.589825991055276,6.5
-38.5,5.6143696836614465,2.4375
-38.5,5.626641529964532,0.8125
-39.0,5.6143696836614465,4.875
-39.0,5.626641529964532,0.8125
-38.5,5.602097837358362,2.4375
-38.5,5.595961914206819,5.6875
-38.5,5.602097837358362,4.875
-39.0,5.583690067903734,3.25
-39.0,5.589825991055276,4.875
-39.0,5.577554144752192,3.25
-39.0,5.595961914206819,0.0
-39.0,5.577554144752192,2.4375
-39.0,5.577554144752192,0.8125
-39.0,5.577554144752192,2.4375
-39.5,5.565282298449106,4.875
-39.5,5.5714182216006485,1.625
-39.0,5.565282298449106,3.25
-39.5,5.553010452146021,1.625
-39.0,5.540738605842936,0.8125
-39.5,5.540738605842936,3.25
-39.5,5.522330836388308,3.25
-39.5,5.50392306693368,6.5
-39.5,5.516194913236766,2.4375
-39.5,5.497787143782138,3.25
-40.0,5.5284667595398505,-1.625
-39.5,5.491651220630596,1.625
-40.0,5.460971604872882,0.8125
-39.5,5.43029198911517,5.6875
-40.0,5.43029198911517,1.625
-40.0,5.387340527054372,9.75
-40.0,5.393476450205914,4.875
-40.0,5.344389064993574,10.5625
-40.0,5.381204603902829,5.6875
-40.0,5.375068680751287,0.8125
-39.5,5.313709449235861,9.75
-40.0,5.325981295538946,3.25
-40.0,5.283029833478148,4.875
-40.0,5.264622064023521,3.25
-39.5,5.2339424482658075,3.25
-40.0,5.227806525114265,-0.8125
-39.5,5.1725832167503825,5.6875
-39.5,5.197126909356553,-1.625
-39.5,5.148039524144211,4.875
-39.5,5.141903600992669,2.4375
-39.5,5.111223985234957,5.6875
-39.5,5.098952138931871,6.5
-39.5,5.117359908386499,0.0
-40.0,5.111223985234957,-0.8125
-39.5,5.098952138931871,1.625
-39.5,5.074408446325701,1.625
-39.5,5.080544369477243,0.8125
-39.5,5.056000676871073,1.625
-39.5,5.037592907416445,4.875
-39.5,5.019185137961818,7.3125
-39.5,5.074408446325701,-0.8125
-39.5,5.037592907416445,6.5
-39.5,5.086680292628786,-2.4375
-39.5,5.062136600022616,2.4375
-39.5,5.013049214810275,8.9375
-39.5,5.056000676871073,2.4375
-39.5,5.062136600022616,2.4375
-39.5,5.043728830567988,5.6875
-39.5,5.0682725231741586,2.4375
-39.5,5.074408446325701,0.8125
-39.5,5.062136600022616,3.25
-39.5,5.037592907416445,7.3125
-39.5,5.037592907416445,8.125
-39.5,5.0682725231741586,3.25
-39.5,5.074408446325701,3.25
-39.5,5.074408446325701,0.8125
-39.5,5.056000676871073,4.875
-39.5,5.074408446325701,1.625
-39.5,5.080544369477243,3.25
-39.5,5.080544369477243,3.25
-39.5,5.092816215780329,5.6875
-40.0,5.117359908386499,0.8125
-40.0,5.123495831538041,2.4375
-40.0,5.135767677841127,1.625
-39.5,5.098952138931871,7.3125
-39.5,5.117359908386499,2.4375
-39.5,5.092816215780329,6.5
-39.5,5.098952138931871,7.3125
-39.5,5.141903600992669,4.875
-40.0,5.1725832167503825,0.0
-40.0,5.111223985234957,11.375
-40.0,5.166447293598839,1.625
-40.0,5.135767677841127,9.75
-40.0,5.1725832167503825,1.625
-40.0,5.135767677841127,9.75
-39.5,5.141903600992669,8.125
-40.0,5.123495831538041,10.5625
-40.0,5.190990986205009,3.25
-40.0,5.178719139901925,5.6875
-40.0,5.1725832167503825,8.125
-40.0,5.178719139901925,5.6875
-40.0,5.190990986205009,7.3125
-40.0,5.160311370447297,9.75
-40.0,5.197126909356553,6.5
-39.5,5.166447293598839,10.5625
-40.0,5.190990986205009,6.5
-40.0,5.141903600992669,14.625
-40.0,5.203262832508095,5.6875
-39.5,5.160311370447297,10.5625
-40.0,5.160311370447297,13.8125
-40.0,5.190990986205009,6.5
-40.0,5.258486140871978,-3.25
-40.0,5.203262832508095,6.5
-40.0,5.203262832508095,7.3125
-40.0,5.227806525114265,8.125
-40.0,5.246214294568893,6.5
-40.0,5.283029833478148,1.625
-40.0,5.264622064023521,5.6875
-40.0,5.246214294568893,8.9375
-39.5,5.246214294568893,11.375
-40.0,5.240078371417351,11.375
-40.5,5.2768939103266055,10.5625
-40.0,5.344389064993574,10.5625
-40.0,5.442563835418255,6.5
-40.0,5.50392306693368,9.75
-39.5,5.577554144752192,7.3125
-39.5,5.595961914206819,9.75
-39.5,5.620505606812989,7.3125
-39.0,5.632777453116074,6.5
-39.0,5.6573211457222445,6.5
-38.5,5.700272607783043,3.25
-38.5,5.712544454086128,1.625
-38.0,5.706408530934585,5.6875
-37.5,5.688000761479957,8.125
-38.0,5.6941366846315,5.6875
-37.5,5.712544454086128,7.3125
-37.5,5.688000761479957,8.9375
-37.5,5.681864838328415,9.75
-37.5,5.688000761479957,8.125
-37.0,5.688000761479957,8.9375
-37.5,5.737088146692298,1.625
-37.0,5.71868037723767,3.25
-37.5,5.706408530934585,4.875
-37.0,5.712544454086128,7.3125
-37.0,5.71868037723767,3.25
-37.0,5.712544454086128,5.6875
-37.0,5.700272607783043,7.3125
-37.0,5.706408530934585,6.5
-37.0,5.712544454086128,6.5
-37.0,5.724816300389213,3.25
-37.0,5.724816300389213,5.6875
-37.0,5.730952223540755,1.625
-36.5,5.724816300389213,4.875
-37.0,5.724816300389213,1.625
-37.0,5.712544454086128,7.3125
-36.5,5.71868037723767,1.625
-37.0,5.724816300389213,3.25
-36.5,5.7616318392984684,0.0
-37.0,5.706408530934585,7.3125
-36.5,5.71868037723767,3.25
-36.5,5.712544454086128,5.6875
-36.5,5.730952223540755,3.25
-36.5,5.71868037723767,2.4375
-36.5,5.712544454086128,4.875
-36.5,5.706408530934585,6.5
-36.5,5.71868037723767,4.875
-36.5,5.71868037723767,3.25
-36.5,5.724816300389213,2.4375
-36.5,5.712544454086128,5.6875
-36.5,5.724816300389213,3.25
-36.5,5.700272607783043,7.3125
-36.5,5.6941366846315,8.9375
-36.5,5.706408530934585,6.5
-36.0,5.712544454086128,4.875
-36.0,5.730952223540755,3.25
-36.5,5.71868037723767,6.5
-36.5,5.712544454086128,5.6875
-36.0,5.71868037723767,5.6875
-36.5,5.724816300389213,1.625
-36.0,5.712544454086128,4.875
-36.0,5.700272607783043,5.6875
-36.5,5.730952223540755,2.4375
-36.0,5.6941366846315,5.6875
-36.0,5.706408530934585,5.6875
-36.0,5.6941366846315,7.3125
-36.0,5.700272607783043,7.3125
-36.0,5.700272607783043,6.5
-36.0,5.712544454086128,5.6875
-36.0,5.712544454086128,4.875
-35.5,5.688000761479957,7.3125
-36.0,5.737088146692298,0.8125
-36.0,5.71868037723767,2.4375
-35.5,5.688000761479957,8.125
-36.0,5.706408530934585,2.4375
-36.0,5.712544454086128,2.4375
-35.5,5.688000761479957,7.3125
-35.5,5.700272607783043,5.6875
-35.5,5.706408530934585,4.875
-35.5,5.71868037723767,1.625
-35.5,5.700272607783043,4.875
-35.5,5.688000761479957,5.6875
-35.5,5.6941366846315,5.6875
-35.0,5.681864838328415,6.5
-35.0,5.681864838328415,7.3125
-35.0,5.675728915176872,5.6875
-35.0,5.6941366846315,6.5
-35.0,5.6941366846315,5.6875
-35.0,5.700272607783043,2.4375
-34.5,5.688000761479957,6.5
-34.5,5.688000761479957,7.3125
-35.0,5.712544454086128,1.625
-34.5,5.700272607783043,4.875
-34.5,5.6941366846315,4.875
-34.5,5.712544454086128,0.8125
-34.5,5.6941366846315,4.875
-34.0,5.6941366846315,5.6875
-34.0,5.712544454086128,1.625
-34.0,5.675728915176872,5.6875
-34.0,5.700272607783043,2.4375
-33.5,5.681864838328415,6.5
-33.5,5.6941366846315,4.875
-33.5,5.688000761479957,4.875
-33.5,5.688000761479957,3.25
-33.0,5.706408530934585,2.4375
-33.0,5.688000761479957,5.6875
-33.0,5.700272607783043,2.4375
-32.5,5.700272607783043,4.875
-32.5,5.730952223540755,3.25
-32.5,5.810719224510809,4.875
-35.5,6.019340611663256,8.9375
-37.0,5.675728915176872,4.875
-37.0,5.577554144752192,3.25
-37.0,5.485515297479052,8.125
-37.0,5.43029198911517,5.6875
-37.0,5.411884219660542,1.625
-36.5,5.356660911296659,5.6875
-36.5,5.283029833478148,9.75
-36.5,5.258486140871978,9.75
-36.5,5.246214294568893,6.5
-36.0,5.21553467881118,4.875
-36.0,5.166447293598839,8.125
-36.0,5.141903600992669,6.5
-36.0,5.129631754689584,7.3125
-36.0,5.123495831538041,5.6875
-36.0,5.117359908386499,4.875
-36.0,5.105088062083414,4.875
-36.0,5.098952138931871,5.6875
-36.5,5.098952138931871,3.25
-36.0,5.086680292628786,2.4375
-36.0,5.013049214810275,7.3125
-36.0,4.988505522204105,3.25
-36.0,4.9394181369917645,5.6875
-36.0,4.902602598082509,3.25
-36.0,4.853515212870168,3.25
-36.0,4.822835597112456,1.625
-36.0,4.767612288748572,3.25
-36.0,4.71238898038469,6.5
-36.0,4.675573441475434,5.6875
-36.0,4.601942363656923,8.125
-35.5,4.614214209960009,0.0
-35.5,4.534447208989955,4.875
-35.0,4.528311285838413,0.8125
-35.0,4.442408361716817,9.75
-35.0,4.4362724385652745,6.5
-35.0,4.448544284868359,-1.625
-34.5,4.4362724385652745,-0.8125
-34.5,4.3933209765044765,0.8125
-34.5,4.3933209765044765,-4.875
-34.5,4.362641360746763,-0.8125
-34.5,4.319689898685965,0.8125
-34.5,4.295146206079795,0.0
-34.0,4.264466590322082,1.625
-34.5,4.252194744018997,0.8125
-34.0,4.2031073588066565,3.25
-34.0,4.196971435655114,-0.8125
-34.0,4.135612204139688,2.4375
-34.0,4.037437433715008,0.8125
-34.0,4.031301510563465,-5.6875
-34.0,3.9515345095934116,-1.625
-34.0,3.9085830475326135,-3.25
-33.5,3.792000507653305,0.0
-33.0,3.736777199289422,0.8125
-33.0,3.6815538909255388,4.875
-32.5,3.6017868899554855,3.25
-32.5,3.5711072741977725,0.8125
-32.0,3.466796580621549,0.8125
-32.0,3.4054373491061236,0.0
-32.0,3.3072625786814425,0.8125
-32.5,3.1661363461959633,-0.8125
-32.0,3.055689729468197,0.0
-32.0,2.9329712664373457,3.25
-31.5,2.9022916506796332,2.4375
-31.5,2.9022916506796332,1.625
-31.5,2.84706834231575,4.875
-31.5,2.804116880254952,6.5
-32.0,2.804116880254952,1.625
-31.5,2.761165418194154,5.6875
-31.5,2.718213956133356,2.4375
-32.5,2.6139032625571326,2.4375
-32.5,2.5586799541932495,4.875
-32.5,2.5341362615870793,0.8125
-32.5,2.5586799541932495,2.4375
-32.0,2.60776733940559,0.8125
-32.5,2.60776733940559,2.4375
-32.5,2.6139032625571326,2.4375
-32.0,2.6200391857086753,3.25
-32.0,2.6323110320117604,1.625
-32.5,2.6384469551633027,-0.8125
-32.5,2.6200391857086753,1.625
-32.0,2.6323110320117604,1.625
-32.5,2.662990647769473,0.0
-32.0,2.6691265709210157,2.4375
-32.0,2.650718801466388,4.875
-32.0,2.6445828783148455,2.4375
-33.0,2.5586799541932495,1.625
-33.0,2.4911847995262812,3.25
-34.0,2.380738182798515,3.25
-34.0,2.3623304133438876,3.25
-34.5,2.325514874434632,1.625
-34.5,2.086213871524472,-0.8125
-37.0,1.705786636128833,-3.25
-37.0,1.3499030933393643,2.4375
-36.5,1.2210487071569704,5.6875
-36.5,1.1351457830353744,-2.4375
-37.0,1.0246991663076084,0.0
-37.0,0.9142525495798421,7.3125
-36.5,0.9572040116406401,-2.4375
-36.5,0.9326603190344698,0.8125
-36.0,1.012427320004523,0.0
-35.5,1.0246991663076084,6.5
-35.5,1.0799224746714913,5.6875
-35.5,1.0799224746714913,8.9375
-35.0,1.141281706186917,0.8125
-34.5,1.1474176293384597,6.5
-34.5,1.2333205534600555,-0.8125
-34.5,1.227184630308513,7.3125
-34.0,1.3008157081270237,0.8125
-34.0,1.2701360923693108,4.875
-34.0,1.2762720155208536,6.5
-34.0,1.325359400733194,1.625
-34.0,1.3192234775816514,6.5
-34.0,1.337631247036279,7.3125
-34.0,1.337631247036279,6.5
-34.0,1.3621749396424494,6.5
-34.0,1.4173982480063325,1.625
-34.0,1.4173982480063325,5.6875
-34.0,1.4910293258248433,-1.625
-34.0,1.5401167110371838,-1.625
-34.0,1.564660403643354,-0.8125
-34.0,1.5585244804918115,2.4375
-34.0,1.6014759425526093,0.8125
-33.5,1.6321555583103222,0.0
-33.5,1.6505633277649499,2.4375
-33.5,1.6812429435226628,1.625
-33.5,1.6996507129772904,0.8125
-33.0,1.7241944055834606,1.625
-33.0,1.7548740213411735,2.4375
-33.0,1.7732817907958012,1.625
-33.0,1.7978254834019713,0.8125
-33.0,1.8346410223112268,0.8125
-33.0,1.8407769454627694,3.25
-32.5,1.88986433067511,0.8125
-32.5,1.9266798695843652,0.0
-32.5,1.932815792735908,0.0
-32.0,1.9512235621905356,3.25
-32.5,1.9941750242513334,2.4375
-32.0,2.024854640009046,2.4375
-32.0,2.024854640009046,5.6875
-32.0,2.0493983326152168,4.875
-32.0,2.055534255766759,4.875
-32.0,2.067806102069844,4.875
-32.0,2.067806102069844,1.625
-32.0,2.0923497946760143,3.25
-32.0,2.086213871524472,3.25
-32.0,2.098485717827557,3.25
-32.0,2.1230294104337273,3.25
-32.0,2.1353012567368124,7.3125
-32.0,2.1598449493429825,1.625
-32.0,2.1782527187976104,4.875
-32.0,2.1966604882522383,4.875
-32.0,2.270291566070749,0.0
-32.0,2.2948352586769194,0.0
-32.0,2.313243028131547,2.4375
-32.0,2.313243028131547,1.625
-32.0,2.337786720737717,0.8125
-32.0,2.350058567040802,0.8125
-32.0,2.350058567040802,0.0
-32.0,2.3439226438892597,1.625
-32.0,2.3439226438892597,2.4375
-32.0,2.3746022596469727,0.8125
-31.5,2.399145952253143,-0.8125
-31.5,2.399145952253143,0.0
-31.5,2.405281875404685,1.625
-31.5,2.405281875404685,3.25
-31.0,2.423689644859313,2.4375
-31.5,2.448233337465483,3.25
-31.5,2.478912953223196,0.8125
-31.5,2.4911847995262812,7.3125
-31.0,2.5341362615870793,-0.8125
-31.5,2.5464081078901644,0.0
-31.0,2.5586799541932495,5.6875
-31.5,2.5832236467994196,2.4375
-31.5,2.6016314162540475,1.625
-31.0,2.6261751088602177,1.625
-31.0,2.6445828783148455,1.625
-31.0,2.6691265709210157,0.8125
-30.5,2.7120780329818137,2.4375
-30.5,2.7120780329818137,3.25
-30.5,2.730485802436441,4.875
-30.5,2.767301341345697,2.4375
-30.5,2.773437264497239,3.25
-30.5,2.7979809571034093,2.4375
-30.0,2.816388726558037,2.4375
-30.5,2.834796496012665,2.4375
-30.0,2.859340188618835,1.625
-30.5,2.8532042654672924,3.25
-30.0,2.890019804376548,-2.4375
-30.5,2.8716120349219203,2.4375
-30.0,2.8716120349219203,5.6875
-30.0,2.8838838812250054,3.25
-30.5,2.8961557275280905,1.625
-30.0,2.9084275738311756,0.8125
-30.0,2.890019804376548,5.6875
-30.0,2.9084275738311756,3.25
-30.0,3.104777114680538,2.4375
-30.0,3.098641191528995,3.25
-30.0,3.1231848841351653,1.625
-30.0,3.147728576741336,0.0
-30.0,3.153864499892878,1.625
-30.0,3.160000423044421,1.625
-30.0,3.172272269347506,3.25
-29.5,3.2029518851052186,2.4375
-29.5,3.2213596545598464,2.4375
-29.5,3.2459033471660166,2.4375
-29.0,3.313398501832985,2.4375
-29.0,3.3502140407422405,1.625
-29.0,3.3870295796514958,3.25
-29.0,3.429981041712294,1.625
-29.0,3.4606606574700063,3.25
-29.0,3.509748042682347,3.25
-29.0,3.56497135104623,3.25
-29.0,3.6017868899554855,2.4375
-29.5,3.6570101983193686,2.4375
-29.5,3.6692820446224537,6.5
-29.5,3.7122335066832517,6.5
-30.0,3.749049045592507,5.6875
-30.0,3.785864584501762,4.875
-30.5,3.865631585471816,0.0
-30.5,3.9147189706841563,0.8125
-30.5,3.9638063558964967,0.8125
-31.0,4.025165587411922,0.8125
-31.0,4.061981126321178,6.5
-31.5,4.1417481272912315,2.4375
-32.0,4.190835512503572,2.4375
-32.0,4.252194744018997,3.25
-32.5,4.3074180523828804,2.4375
-33.0,4.338097668140593,0.8125
-33.5,4.374913207049849,3.25
-34.0,4.3933209765044765,4.875
-34.5,4.424000592262189,4.875
-34.5,4.430136515413731,5.6875
-35.5,4.460816131171445,8.125
-35.5,4.4976316700806995,0.8125
-36.0,4.479223900626073,6.5
-36.5,4.479223900626073,8.9375
-37.0,4.509903516383785,2.4375
-37.5,4.4976316700806995,3.25
-37.5,4.466952054322987,6.5
-38.0,4.485359823777615,3.25
-38.5,4.466952054322987,4.875
-38.5,4.479223900626073,1.625
-39.5,4.417864669110647,5.6875
-40.0,4.387185053352934,7.3125
-40.5,4.381049130201391,-0.8125
-40.5,4.319689898685965,2.4375
-41.0,4.270602513473625,4.875
-41.0,4.252194744018997,-1.625
-41.5,4.154019973594316,8.125
-41.5,4.1417481272912315,6.5
-41.5,4.104932588381976,5.6875
-41.5,4.09266074207889,5.6875
-41.5,4.006757817957295,15.4375
-41.5,4.086524818927348,-2.4375
-41.5,4.025165587411922,5.6875
-42.0,3.9760782021995817,7.3125
-42.0,4.000621894805752,-0.8125
-42.0,3.988350048502667,1.625
-42.0,4.000621894805752,-6.5
-42.0,3.9515345095934116,2.4375
-42.0,3.9392626632903265,-0.8125
-42.0,3.9269908169872414,-0.8125
-42.0,3.8533597391687304,10.5625
-42.0,3.890175278077986,6.5
-42.0,3.9269908169872414,-2.4375
-42.0,3.9392626632903265,-5.6875
-42.5,3.933126740138784,-5.6875
-42.5,3.8533597391687304,2.4375
-42.5,3.792000507653305,9.75
-42.5,3.749049045592507,10.5625
-42.0,3.7551849687440497,-0.8125
-42.0,3.6999616603801666,0.8125
-42.0,3.6324665057131984,0.8125
-42.0,3.5833791205008576,9.75
-42.5,3.5895150436524004,8.125
-42.0,3.5772431973493153,13.8125
-42.5,3.6140587362585705,8.9375
-42.5,3.5588354278946874,16.25
-42.5,3.6447383520162835,7.3125
-42.5,3.6386024288647407,8.125
-42.5,3.6079228131070282,8.9375
-42.5,3.6447383520162835,2.4375
-42.5,3.6017868899554855,9.75
-42.5,3.5895150436524004,9.75
-42.5,3.5588354278946874,7.3125
-42.5,3.4606606574700063,13.8125
-42.5,3.3624858870453256,4.875
-42.5,3.2888548092268146,3.25
-42.5,3.215223731408304,6.5
-43.0,3.160000423044421,6.5
-43.0,3.0802334220743677,3.25
-42.5,2.9513790358919736,12.1875
-42.5,2.9513790358919736,5.6875
-42.0,2.8654761117703775,7.3125
-41.5,2.8102528034064944,7.3125
-41.5,2.724349879284899,7.3125
-41.0,2.662990647769473,8.125
-41.0,2.650718801466388,-0.8125
-40.5,2.5832236467994196,2.4375
-40.5,2.5709518004963345,-2.4375
-40.5,2.5280003384355365,0.8125
-40.5,2.5034566458293663,2.4375
-41.0,2.466641106920111,3.25
-41.0,2.478912953223196,0.8125
-40.5,2.423689644859313,3.25
-40.5,2.399145952253143,-1.625
-40.5,2.36846633649543,-1.625
-40.5,2.313243028131547,0.0
-40.0,2.2518837966161214,-4.875
-40.0,2.1353012567368124,6.5
-39.5,2.061670178918302,6.5
-39.5,2.0493983326152168,3.25
-39.5,1.9512235621905356,5.6875
-39.5,1.8837284075235674,8.125
-39.5,1.859184714917397,0.8125
-39.5,1.7855536370988863,3.25
-40.0,1.7303303287350031,4.875
-39.5,1.6751070203711202,1.625
-40.0,1.5892040962495242,5.6875
-40.0,1.509437095279471,9.75
-40.0,1.4787574795217582,1.625
-40.0,1.368310862793992,12.1875
-40.0,1.380582709097077,0.8125
-40.0,1.3437671701878218,-0.8125
-39.5,1.2578642460662257,4.875
-39.5,1.1903690913992575,10.5625
-39.5,1.1535535524900022,11.375
-39.5,1.1290098598838318,10.5625
-39.5,1.184233168247715,-4.875
-39.5,1.1044661672776617,2.4375
-39.5,1.0369710126106935,7.3125
-39.0,0.9817477042468103,11.375
-39.5,1.012427320004523,0.0
-39.0,0.9387962421860124,5.6875
-39.0,0.9265243958829272,3.25
-39.5,0.9019807032767571,5.6875
-39.5,0.8713010875190442,5.6875
-39.5,0.8344855486097889,5.6875
-39.5,0.8344855486097889,0.0
-39.5,0.7853981633974483,7.3125
-39.0,0.7853981633974483,0.0
-39.0,0.7117670855789375,7.3125
-39.0,0.7179030087304801,0.0
-39.0,0.6565437772150544,8.9375
-39.0,0.705631162427395,-1.625
-39.0,0.5890486225480862,12.1875
-39.0,0.6013204688511713,10.5625
-39.0,0.5706408530934585,11.375
-39.0,0.619728238305799,0.0
-39.0,0.5645049299419159,5.6875
-39.0,0.5583690067903734,2.4375
-38.5,0.5276893910326605,5.6875
-38.5,0.5092816215780329,8.125
-38.5,0.5031456984264903,2.4375
-38.5,0.5092816215780329,0.8125
-38.5,0.4479223900626072,8.125
-38.5,0.4663301595172349,3.25
-38.0,0.4540583132141498,4.875
-38.0,0.4540583132141498,4.875
-38.0,0.4724660826687775,-1.625
-38.0,0.4295146206079795,7.3125
-38.0,0.4172427743048944,12.1875
-38.0,0.4111068511533518,9.75
-38.0,0.42337869745643697,7.3125
-38.0,0.4111068511533518,8.125
-38.0,0.44178646691106466,-0.8125
-38.0,0.4049709280018093,8.125
-38.0,0.4172427743048944,1.625
-38.0,0.36815538909255385,7.3125
-38.0,0.3865631585471816,5.6875
-38.0,0.3436116964863836,7.3125
-38.0,0.3436116964863836,8.125
-38.0,0.35588354278946877,4.875
-38.0,0.3436116964863836,3.25
-38.0,0.36815538909255385,-1.625
-38.0,0.3190680038802134,5.6875
-38.0,0.3129320807286708,8.125
-38.0,0.3190680038802134,7.3125
-38.0,0.28838838812250056,8.125
-38.0,0.2945243112740431,6.5
-38.0,0.30679615757712825,0.8125
-38.0,0.2638446955163303,6.5
-38.0,0.2761165418194154,0.8125
-38.0,0.25157284921324513,5.6875
-38.0,0.2699806186678728,0.0
-38.0,0.23930100291016002,5.6875
-38.0,0.22089323345553233,11.375
-38.0,0.28838838812250056,0.0
-38.0,0.25157284921324513,2.4375
-38.0,0.2638446955163303,1.625
-38.0,0.25157284921324513,2.4375
-38.0,0.25770877236478773,6.5
-38.0,0.25770877236478773,5.6875
-38.0,0.25770877236478773,3.25
-38.0,0.23930100291016002,-1.625
-38.0,0.20248546400090464,7.3125
-38.0,0.22089323345553233,0.8125
-38.0,0.17794177139473438,5.6875
-37.5,0.16566992509164924,2.4375
-38.0,0.11658253987930872,8.125
-38.0,0.1227184630308513,3.25
-37.5,0.1227184630308513,0.0
-38.0,0.09817477042468103,4.875
-38.0,0.11658253987930872,1.625
-38.0,0.11044661672776616,1.625
-38.0,0.11658253987930872,0.8125
-38.0,0.07363107781851078,9.75
-38.0,0.07363107781851078,9.75
-38.0,0.0859029241215959,4.875
-38.0,0.09203884727313846,0.8125
-38.0,0.07363107781851078,5.6875
-38.0,0.07976700097005335,1.625
-38.0,0.0674951546669682,3.25
-38.0,0.06135923151542565,4.875
-38.0,0.07976700097005335,1.625
-38.0,0.05522330836388308,8.125
-38.0,0.04908738521234052,7.3125
-38.0,0.04908738521234052,8.9375
-38.0,0.0674951546669682,3.25
-38.0,0.07363107781851078,0.0
-38.0,0.05522330836388308,2.4375
-38.0,0.0859029241215959,-1.625
-38.0,0.04908738521234052,4.875
-38.0,0.06135923151542565,1.625
-38.5,0.06135923151542565,2.4375
-38.5,0.06135923151542565,5.6875
-38.0,0.05522330836388308,5.6875
-38.5,0.04295146206079795,6.5
-38.0,0.09817477042468103,-4.875
-38.5,0.05522330836388308,5.6875
-38.0,0.0674951546669682,2.4375
-38.0,0.07363107781851078,2.4375
-38.5,0.04908738521234052,5.6875
-38.5,0.11044661672776616,-2.4375
-38.5,0.05522330836388308,8.125
-38.5,0.07363107781851078,5.6875
-38.5,0.07976700097005335,1.625
-38.5,0.06135923151542565,4.875
-38.5,0.06135923151542565,7.3125
-38.0,0.07976700097005335,3.25
-38.0,0.07363107781851078,6.5
-38.0,0.0859029241215959,4.875
-38.5,0.0674951546669682,4.875
-38.5,0.09203884727313846,0.8125
-38.5,0.09203884727313846,2.4375
-38.5,0.0674951546669682,1.625
-38.5,0.07363107781851078,1.625
-38.5,0.06135923151542565,2.4375
-38.0,0.06135923151542565,4.875
-38.5,0.1043106935762236,-1.625
-38.5,0.05522330836388308,3.25
-38.0,0.06135923151542565,3.25
-38.5,0.04295146206079795,6.5
-38.0,0.07976700097005335,0.8125
-38.5,0.06135923151542565,4.875
-38.5,0.04295146206079795,4.875
-38.5,0.05522330836388308,2.4375
-38.5,0.06135923151542565,1.625
-38.5,0.06135923151542565,4.875
-38.5,0.07363107781851078,0.0
-38.5,0.04908738521234052,5.6875
-38.5,0.03681553890925539,3.25
-38.5,0.04295146206079795,4.875
-38.5,0.0674951546669682,1.625
-38.5,0.018407769454627694,10.5625
-38.5,0.05522330836388308,1.625
-38.5,0.06135923151542565,0.8125
-38.5,0.06135923151542565,3.25
-38.5,0.02454369260617026,5.6875
-38.5,0.03681553890925539,6.5
-38.5,0.07363107781851078,-0.8125
-38.5,0.04908738521234052,3.25
-38.5,0.07363107781851078,-0.8125
-38.5,0.03681553890925539,6.5
-38.5,0.04295146206079795,5.6875
-38.5,0.06135923151542565,2.4375
-38.5,0.06135923151542565,0.8125
-38.5,0.04908738521234052,1.625
-38.5,0.04908738521234052,3.25
-38.5,0.07363107781851078,-3.25
-38.5,0.07976700097005335,0.8125
-38.5,0.04295146206079795,4.875
-38.5,0.0859029241215959,-1.625
-38.0,0.030679615757712823,5.6875
-38.5,0.03681553890925539,5.6875
-38.5,0.04295146206079795,7.3125
-38.5,0.05522330836388308,0.8125
-38.5,0.05522330836388308,2.4375
-38.5,0.04908738521234052,3.25
-38.5,0.04908738521234052,3.25
-38.5,0.07976700097005335,-1.625
-38.5,0.04295146206079795,7.3125
-38.5,0.04908738521234052,3.25
-38.5,0.06135923151542565,1.625
-38.5,0.04908738521234052,5.6875
-38.5,0.0674951546669682,2.4375
-38.5,0.04908738521234052,5.6875
-38.5,0.06135923151542565,0.8125
-38.5,0.05522330836388308,4.875
-38.5,0.0859029241215959,0.0
-38.5,0.04295146206079795,2.4375
-38.5,0.06135923151542565,-0.8125
-38.5,0.018407769454627694,5.6875
-38.5,0.02454369260617026,4.875
-38.0,0.006135923151542565,5.6875
-38.5,0.006135923151542565,3.25
-38.5,0.04908738521234052,0.8125
-38.5,6.270913460876501,6.5
-38.5,0.018407769454627694,3.25
-38.0,0.030679615757712823,0.8125
-38.5,0.018407769454627694,5.6875
-38.5,0.006135923151542565,3.25
-38.5,0.04295146206079795,0.0
-38.5,0.006135923151542565,4.875
-38.0,6.277049384028044,5.6875
-38.5,0.01227184630308513,5.6875
-38.0,6.277049384028044,7.3125
-38.5,0.03681553890925539,0.0
-38.5,0.0,1.625
-38.5,0.006135923151542565,3.25
-38.5,0.0,4.875
-38.0,0.006135923151542565,4.875
-38.0,0.0,5.6875
-38.0,0.006135923151542565,5.6875
-38.5,0.02454369260617026,0.0
-38.5,0.018407769454627694,4.875
-38.5,0.030679615757712823,4.875
-38.5,6.277049384028044,6.5
-38.5,0.03681553890925539,0.0
-38.5,0.04295146206079795,-1.625
-38.0,0.006135923151542565,5.6875
-38.0,0.01227184630308513,4.875
-38.5,0.006135923151542565,6.5
-38.0,0.018407769454627694,2.4375
-38.5,0.02454369260617026,1.625
-38.0,0.01227184630308513,4.875
-38.0,0.018407769454627694,4.875
-38.5,0.02454369260617026,0.8125
-38.5,0.006135923151542565,4.875
-38.5,0.006135923151542565,1.625
-38.5,0.030679615757712823,1.625
-38.0,0.0,3.25
-38.0,0.0,3.25
-38.0,0.018407769454627694,0.8125
-38.5,0.0,4.875
-38.0,6.258641614573416,8.9375
-38.5,0.030679615757712823,-0.8125
-38.5,6.258641614573416,10.5625
-38.0,6.277049384028044,7.3125
-38.0,0.006135923151542565,7.3125
-38.0,6.277049384028044,5.6875
-38.0,0.02454369260617026,1.625
-38.0,0.0,3.25
-38.5,6.264777537724958,8.125
-38.0,6.264777537724958,8.125
-38.0,0.018407769454627694,0.0
-38.0,6.264777537724958,4.875
-38.0,6.264777537724958,4.875
-38.0,6.264777537724958,4.875
-38.0,6.258641614573416,2.4375
-38.0,6.2463697682703305,7.3125
-38.0,6.264777537724958,1.625
-38.0,0.0,1.625
-38.0,0.006135923151542565,0.0
-38.0,6.252505691421874,6.5
-38.0,6.258641614573416,5.6875
-38.0,6.277049384028044,0.8125
-38.0,6.264777537724958,4.875
-38.0,6.270913460876501,2.4375
-38.0,6.277049384028044,2.4375
-38.0,6.264777537724958,3.25
-38.0,6.264777537724958,6.5
-38.0,6.270913460876501,3.25
-38.0,6.264777537724958,3.25
-38.0,6.270913460876501,3.25
-38.0,0.0,1.625
-38.0,6.264777537724958,4.875
-38.0,0.02454369260617026,-3.25
-38.0,0.006135923151542565,0.0
-38.0,6.240233845118788,9.75
-38.0,6.234097921967246,10.5625
-38.0,6.264777537724958,3.25
-38.0,6.270913460876501,2.4375
-38.0,6.270913460876501,2.4375
-38.0,6.270913460876501,5.6875
-38.0,0.006135923151542565,-1.625
-38.0,6.252505691421874,5.6875
-38.0,6.258641614573416,3.25
-38.0,6.270913460876501,3.25
-38.0,0.006135923151542565,1.625
-38.0,0.006135923151542565,-0.8125
-38.0,6.234097921967246,8.9375
-38.5,6.264777537724958,4.875
-38.0,6.240233845118788,7.3125
-38.0,6.264777537724958,5.6875
-38.0,6.277049384028044,2.4375
-38.0,0.0,3.25
-38.0,6.258641614573416,5.6875
-38.5,6.270913460876501,1.625
-38.5,0.006135923151542565,1.625
-38.5,0.0,2.4375
-38.0,0.0,5.6875
-38.0,6.252505691421874,8.9375
-38.0,0.0,2.4375
-38.0,0.01227184630308513,1.625
-38.0,6.270913460876501,8.125
-38.0,6.277049384028044,2.4375
-38.5,0.01227184630308513,2.4375
-38.0,6.258641614573416,5.6875
-38.0,6.252505691421874,7.3125
-38.0,6.277049384028044,2.4375
-38.5,6.264777537724958,2.4375
-38.0,6.264777537724958,7.3125
-38.0,6.277049384028044,1.625
-38.5,0.0,3.25
-38.0,6.270913460876501,3.25
-38.0,6.270913460876501,3.25
-38.0,0.01227184630308513,0.8125
-38.0,6.264777537724958,5.6875
-38.0,6.2463697682703305,8.9375
-38.0,0.0,3.25
-38.0,6.258641614573416,4.875
-38.5,6.258641614573416,8.9375
-38.0,0.02454369260617026,-1.625
-38.0,6.277049384028044,2.4375
-38.0,0.006135923151542565,5.6875
-38.0,6.277049384028044,2.4375
-38.0,0.006135923151542565,1.625
-38.0,6.258641614573416,7.3125
-38.0,0.018407769454627694,0.0
-38.0,6.277049384028044,2.4375
-38.0,0.0,2.4375
-38.0,0.0,2.4375
-38.0,0.006135923151542565,0.8125
-38.0,0.006135923151542565,4.875
-38.0,0.006135923151542565,4.875
-38.0,0.006135923151542565,4.875
-38.0,0.01227184630308513,6.5
-37.5,0.02454369260617026,5.6875
-37.5,0.04295146206079795,0.8125
-38.0,0.06135923151542565,-0.8125
-37.5,0.05522330836388308,4.875
-37.5,0.04908738521234052,0.8125
-37.5,0.06135923151542565,2.4375
-37.5,0.07363107781851078,4.875
-37.5,0.07363107781851078,4.875
-37.5,0.0859029241215959,5.6875
-37.5,0.1349903093339364,1.625
-37.5,0.12885438618239387,6.5
-37.0,0.15339807878856412,1.625
-37.5,0.1349903093339364,3.25
-37.0,0.14726215563702155,5.6875
-37.5,0.15339807878856412,2.4375
-37.5,0.15339807878856412,5.6875
-37.0,0.16566992509164924,5.6875
-37.0,0.16566992509164924,6.5
-37.0,0.19634954084936207,4.875
-37.0,0.21475731030398976,0.0
-37.0,0.23316507975861744,4.875
-36.5,0.2761165418194154,0.0
-36.5,0.25770877236478773,6.5
-36.5,0.2945243112740431,5.6875
-36.5,0.30679615757712825,8.9375
-36.5,0.3620194659410113,0.8125
-36.5,0.39269908169872414,-0.8125
-36.5,0.380427235395639,3.25
-36.5,0.380427235395639,3.25
-36.5,0.3865631585471816,2.4375
-36.5,0.3620194659410113,2.4375
-36.5,0.35588354278946877,5.6875
-36.0,0.39269908169872414,1.625
-36.5,0.4049709280018093,-1.625
-36.5,0.39269908169872414,3.25
-36.5,0.3988350048502667,2.4375
-36.0,0.4295146206079795,0.8125
-36.0,0.4111068511533518,5.6875
-36.5,0.4049709280018093,6.5
-36.5,0.4356505437595221,3.25
-36.0,0.4479223900626072,7.3125
-36.0,0.48473792897186263,4.875
-36.0,0.47860200582032003,2.4375
-36.5,0.4908738521234052,0.0
-36.5,0.4970097752749477,0.0
-36.5,0.48473792897186263,1.625
-36.5,0.46019423636569234,6.5
-36.5,0.48473792897186263,0.8125
-36.5,0.46019423636569234,6.5
-36.5,0.46019423636569234,5.6875
-36.5,0.4540583132141498,7.3125
-36.5,0.46019423636569234,6.5
-36.5,0.4663301595172349,2.4375
-36.0,0.4663301595172349,6.5
-36.5,0.4663301595172349,6.5
-36.5,0.4663301595172349,2.4375
-36.0,0.4663301595172349,5.6875
-36.5,0.4724660826687775,2.4375
-36.5,0.4724660826687775,6.5
-36.0,0.4663301595172349,8.125
-36.5,0.48473792897186263,2.4375
-36.5,0.48473792897186263,4.875
-36.0,0.47860200582032003,7.3125
-36.0,0.48473792897186263,2.4375
-36.0,0.4908738521234052,2.4375
-36.0,0.4970097752749477,5.6875
-36.0,0.4970097752749477,2.4375
-36.0,0.4970097752749477,2.4375
-36.0,0.4970097752749477,2.4375
-36.5,0.4970097752749477,4.875
-36.0,0.4908738521234052,4.875
-36.0,0.4970097752749477,3.25
-36.5,0.47860200582032003,6.5
-36.0,0.47860200582032003,7.3125
-36.5,0.4908738521234052,3.25
-36.5,0.521553467881118,2.4375
-36.0,0.48473792897186263,6.5
-36.0,0.47860200582032003,6.5
-36.5,0.4908738521234052,4.875
-36.0,0.4908738521234052,2.4375
-36.0,0.4970097752749477,4.875
-36.0,0.4908738521234052,1.625
-36.0,0.5031456984264903,1.625
-36.0,0.47860200582032003,7.3125
-36.5,0.48473792897186263,5.6875
-36.0,0.4724660826687775,8.125
-36.5,0.4724660826687775,6.5
-36.5,0.4970097752749477,4.875
-36.0,0.5092816215780329,6.5
-36.0,0.5399612373357456,3.25
-36.0,0.5338253141842031,8.125
-36.0,0.5829126993965437,7.3125
-36.5,0.7179030087304801,2.4375
-36.0,0.803805932852076,0.0
-35.5,0.9510680884890975,5.6875
-35.5,1.0676506283684062,5.6875
-35.0,1.1535535524900022,8.9375
-35.0,1.1965050145508,6.5
-35.0,1.2455923997631406,1.625
-35.0,1.282407938672396,5.6875
-35.0,1.3130875544301088,4.875
-35.5,1.4296700943094176,0.0
-35.0,1.4296700943094176,8.9375
-35.0,1.4971652489763858,0.0
-35.5,1.5033011721279284,9.75
-35.5,1.5707963267948966,1.625
-35.0,1.5892040962495242,4.875
-35.0,1.6382914814618648,0.8125
-35.0,1.662835174068035,4.875
-34.5,1.7119225592803755,1.625
-34.5,1.748738098189631,3.25
-34.5,1.7916895602504288,2.4375
-34.0,1.7978254834019713,1.625
-34.5,1.761009944492716,7.3125
-34.5,1.7855536370988863,3.25
-34.5,1.7855536370988863,3.25
-34.5,1.7732817907958012,3.25
-34.5,1.7671458676442586,3.25
-34.5,1.7732817907958012,1.625
-34.5,1.748738098189631,3.25
-34.5,1.7303303287350031,5.6875
-34.5,1.7426021750380885,4.875
-34.5,1.7119225592803755,7.3125
-34.5,1.748738098189631,0.8125
-34.5,1.7119225592803755,1.625
-34.5,1.7119225592803755,2.4375
-34.5,1.7119225592803755,0.8125
-35.0,1.6812429435226628,7.3125
-35.0,1.6812429435226628,5.6875
-35.0,1.6996507129772904,1.625
-35.0,1.6996507129772904,0.8125
-34.5,1.6812429435226628,4.875
-34.5,1.6751070203711202,4.875
-35.0,1.6812429435226628,3.25
-35.0,1.6812429435226628,4.875
-34.5,1.6873788666742053,2.4375
-34.5,1.6566992509164924,7.3125
-35.0,1.662835174068035,8.9375
-35.0,1.6566992509164924,7.3125
-35.0,1.6566992509164924,4.875
-35.0,1.662835174068035,4.875
-35.0,1.6751070203711202,4.875
-35.0,1.6812429435226628,2.4375
-35.0,1.6689710972195777,3.25
-35.0,1.6689710972195777,1.625
-35.0,1.6382914814618648,4.875
-35.0,1.6260196351587797,4.875
-35.0,1.6137477888556946,4.875
-35.0,1.6198837120072371,0.8125
-35.0,1.6014759425526093,1.625
-35.0,1.576932249946439,2.4375
-35.5,1.5585244804918115,1.625
-35.5,1.5462526341887264,4.875
-35.5,1.5462526341887264,3.25
-35.5,1.552388557340269,1.625
-35.5,1.509437095279471,5.6875
-35.5,1.5278448647340985,2.4375
-35.5,1.521708941582556,3.25
-35.0,1.5278448647340985,0.8125
-35.0,1.5033011721279284,1.625
-35.0,1.4971652489763858,3.25
-35.0,1.4726215563702154,6.5
-35.5,1.509437095279471,0.0
-35.5,1.4910293258248433,5.6875
-35.5,1.4971652489763858,3.25
-35.0,1.5033011721279284,2.4375
-35.0,1.5033011721279284,0.0
-35.0,1.4971652489763858,3.25
-35.0,1.4787574795217582,2.4375
-35.5,1.4848934026733007,3.25
-35.5,1.4971652489763858,1.625
-35.0,1.4971652489763858,3.25
-35.5,1.5155730184310134,1.625
-35.5,1.552388557340269,0.0
-35.0,1.521708941582556,3.25
-35.0,1.5401167110371838,5.6875
-35.0,1.552388557340269,5.6875
-35.5,1.5462526341887264,0.8125
-35.0,1.576932249946439,-1.625
-35.5,1.521708941582556,3.25
-35.5,1.4971652489763858,6.5
-35.0,1.5462526341887264,1.625
-35.0,1.533980787885641,0.8125
-35.5,1.533980787885641,2.4375
-35.0,1.5155730184310134,5.6875
-35.0,1.5155730184310134,4.875
-35.5,1.509437095279471,2.4375
-35.5,1.509437095279471,3.25
-35.5,1.509437095279471,1.625
-35.0,1.4910293258248433,4.875
-35.5,1.5278448647340985,-1.625
-35.5,1.509437095279471,1.625
-35.5,1.5155730184310134,2.4375
-35.5,1.4971652489763858,4.875
-35.5,1.521708941582556,1.625
-35.5,1.4542137869155878,10.5625
-35.0,1.4910293258248433,5.6875
-35.5,1.4910293258248433,2.4375
-35.0,1.4726215563702154,7.3125
-35.0,1.509437095279471,2.4375
-35.5,1.509437095279471,5.6875
-35.0,1.533980787885641,6.5
-35.0,1.576932249946439,2.4375
-35.0,1.662835174068035,6.5
-34.5,1.761009944492716,5.6875
-34.0,2.184388641949153,8.125
-34.0,2.761165418194154,6.5
-35.5,3.104777114680538,1.625
-36.0,3.2949907323783574,9.75
-36.5,3.485204350076177,4.875
-37.5,3.6324665057131984,7.3125
-38.0,3.749049045592507,1.625
-38.0,3.785864584501762,5.6875
-38.5,3.834951969714103,-2.4375
-38.5,3.773592738198677,8.125
-38.5,3.773592738198677,7.3125
-38.5,3.8410878928656453,-1.625
-38.5,3.767456815047135,8.9375
-38.5,3.822680123411018,0.8125
-38.5,3.761320891895592,9.75
-38.5,3.77972866135022,8.9375
-38.5,3.8288160465625602,4.875
-38.5,3.847223816017188,0.8125
-38.5,3.80427235395639,8.9375
-38.5,3.865631585471816,-3.25
-38.5,3.847223816017188,3.25
-38.5,3.816544200259475,10.5625
-38.5,3.810408277107933,8.125
-38.5,3.877903431774901,-3.25
-38.5,3.902447124381071,-1.625
-39.0,3.9453985864418692,-6.5
-38.5,3.9085830475326135,8.9375
-38.5,4.025165587411922,1.625
-38.5,4.037437433715008,5.6875
