200000000000000000007700,1,1479871567790547,1479871567790547,1,-8.9375,12288,-48.0,865.7,5.043729
200000000000000000007700,1,1479871567800369,1479871567800369,1,5.6875,12288,-48.0,865.7,4.9823694
200000000000000000007700,1,1479871567810559,1479871567810559,1,-5.6875,12288,-48.0,865.7,5.0007772
200000000000000000007700,1,1479871567821549,1479871567821549,1,5.6875,12288,-48.0,865.7,5.0007772
200000000000000000007700,1,1479871567831658,1479871567831658,1,-4.875,12288,-48.0,865.7,5.037593
200000000000000000007700,1,1479871567842054,1479871567842054,1,-7.3125,12288,-48.0,865.7,5.037593
200000000000000000007700,1,1479871567852076,1479871567852076,1,-4.875,12288,-48.0,865.7,5.025321
200000000000000000007700,1,1479871567862019,1479871567862019,1,-7.3125,12288,-48.0,865.7,5.031457
200000000000000000007700,1,1479871567872428,1479871567872428,1,4.875,12288,-48.0,865.7,4.9946413
200000000000000000007700,1,1479871567882586,1479871567882586,1,-10.5625,12288,-48.0,865.7,5.049865
200000000000000000007700,1,1479871567892851,1479871567892851,1,0.0,12288,-48.0,865.7,5.006913
200000000000000000007700,1,1479871567902678,1479871567902678,1,-7.3125,12288,-48.0,865.7,5.013049
200000000000000000007700,1,1479871567913072,1479871567913072,1,-5.6875,12288,-48.0,865.7,5.025321
200000000000000000007700,1,1479871567923167,1479871567923167,1,-3.25,12288,-48.0,865.7,5.013049
200000000000000000007700,1,1479871567932944,1479871567932944,1,4.875,12288,-48.0,865.7,4.9762335
200000000000000000007700,1,1479871567942960,1479871567942960,1,-8.9375,12288,-48.0,865.7,5.049865
200000000000000000007700,1,1479871567953361,1479871567953361,1,-1.625,12288,-48.0,865.7,5.013049
200000000000000000007700,1,1479871567963128,1479871567963128,1,-4.875,12288,-48.0,865.7,5.025321
200000000000000000007700,1,1479871567974173,1479871567974173,1,-3.25,12288,-48.0,865.7,5.025321
200000000000000000007700,1,1479871567984246,1479871567984246,1,4.875,12288,-48.0,865.7,5.0007772
200000000000000000007700,1,1479871567994591,1479871567994591,1,3.25,12288,-48.0,865.7,4.9946413
200000000000000000007700,1,1479871568004529,1479871568004529,1,-12.1875,12288,-48.0,865.7,5.049865
200000000000000000007700,1,1479871568014682,1479871568014682,1,4.875,12288,-48.0,865.7,4.9762335
200000000000000000007700,1,1479871568025124,1479871568025124,1,1.625,12288,-48.0,865.7,4.9762335
200000000000000000007700,1,1479871568035080,1479871568035080,1,-4.875,12288,-48.0,865.7,5.006913
200000000000000000007700,1,1479871568045365,1479871568045365,1,3.25,12288,-48.0,865.7,4.9762335
200000000000000000007700,1,1479871568055446,1479871568055446,1,-3.25,12288,-48.0,865.7,5.013049
200000000000000000007700,1,1479871568065521,1479871568065521,1,-16.25,12288,-48.0,865.7,5.0560007
200000000000000000007700,1,1479871568075659,1479871568075659,1,-12.1875,12288,-48.0,865.7,5.037593
200000000000000000007700,1,1479871568086021,1479871568086021,1,-10.5625,12288,-48.0,865.7,5.025321
200000000000000000007700,1,1479871568095749,1479871568095749,1,-3.25,12288,-48.5,865.7,4.9885054
200000000000000000007700,1,1479871568106249,1479871568106249,1,-4.875,12288,-48.0,865.7,5.0007772
200000000000000000007700,1,1479871568116333,1479871568116333,1,3.25,12288,-48.0,865.7,4.9823694
200000000000000000007700,1,1479871568126133,1479871568126133,1,-8.9375,12288,-48.0,865.7,5.0007772
200000000000000000007700,1,1479871568136317,1479871568136317,1,-5.6875,12288,-48.0,865.7,4.9700975
200000000000000000007700,1,1479871568146146,1479871568146146,1,-3.25,12288,-48.0,865.7,4.9639616
200000000000000000007700,1,1479871568156538,1479871568156538,1,-14.625,12288,-48.0,865.7,5.019185
200000000000000000007700,1,1479871568166606,1479871568166606,1,-3.25,12288,-48.0,865.7,4.9700975
200000000000000000007700,1,1479871568176877,1479871568176877,1,-5.6875,12288,-48.5,865.7,4.9332824
200000000000000000007700,1,1479871568187046,1479871568187046,1,8.9375,12288,-48.0,865.7,4.9087386
200000000000000000007700,1,1479871568196812,1479871568196812,1,0.0,12288,-48.0,865.7,4.9394183
200000000000000000007700,1,1479871568206798,1479871568206798,1,-4.875,12288,-48.0,865.7,4.957826
200000000000000000007700,1,1479871568217119,1479871568217119,1,1.625,12288,-48.0,865.7,4.9148746
200000000000000000007700,1,1479871568227329,1479871568227329,1,-4.875,12288,-48.5,865.7,4.9394183
200000000000000000007700,1,1479871568237793,1479871568237793,1,5.6875,12288,-48.0,865.7,4.9026027
200000000000000000007700,1,1479871568247737,1479871568247737,1,3.25,12288,-48.0,865.7,4.9455543
200000000000000000007700,1,1479871568257751,1479871568257751,1,-7.3125,12288,-48.0,865.7,4.9639616
200000000000000000007700,1,1479871568268172,1479871568268172,1,-4.875,12288,-48.0,865.7,4.95169
200000000000000000007700,1,1479871568278421,1479871568278421,1,-4.875,12288,-48.0,865.7,4.9455543
200000000000000000007700,1,1479871568288462,1479871568288462,1,0.0,12288,-48.0,865.7,4.9455543
200000000000000000007700,1,1479871568298805,1479871568298805,1,-7.3125,12288,-48.5,865.7,4.957826
200000000000000000007700,1,1479871568308706,1479871568308706,1,0.0,12288,-48.0,865.7,4.9332824
200000000000000000007700,1,1479871568319598,1479871568319598,1,-14.625,12288,-48.0,865.7,4.9823694
200000000000000000007700,1,1479871568329924,1479871568329924,1,3.25,12288,-48.0,865.7,4.9271464
200000000000000000007700,1,1479871568339896,1479871568339896,1,-7.3125,12288,-48.0,865.7,4.957826
200000000000000000007700,1,1479871568349871,1479871568349871,1,4.875,12288,-48.0,865.7,4.9332824
200000000000000000007700,1,1479871568360127,1479871568360127,1,4.875,12288,-48.0,865.7,4.9087386
200000000000000000007700,1,1479871568370215,1479871568370215,1,-7.3125,12288,-48.0,865.7,4.9639616
200000000000000000007700,1,1479871568380237,1479871568380237,1,-7.3125,12288,-48.5,865.7,4.9885054
200000000000000000007700,1,1479871568390402,1479871568390402,1,-1.625,12288,-48.0,865.7,4.9394183
200000000000000000007700,1,1479871568400708,1479871568400708,1,1.625,12288,-48.0,865.7,4.9394183
200000000000000000007700,1,1479871568410794,1479871568410794,1,-3.25,12288,-48.5,865.7,4.9700975
200000000000000000007700,1,1479871568420504,1479871568420504,1,-8.9375,12288,-48.0,865.7,4.9762335
200000000000000000007700,1,1479871568430976,1479871568430976,1,7.3125,12288,-48.5,865.7,4.9148746
200000000000000000007700,1,1479871568440895,1479871568440895,1,0.0,12288,-48.0,865.7,4.957826
200000000000000000007700,1,1479871568451411,1479871568451411,1,-7.3125,12288,-48.5,865.7,4.9639616
200000000000000000007700,1,1479871568463085,1479871568463085,1,-3.25,12288,-48.5,865.7,4.9639616
200000000000000000007700,1,1479871568472944,1479871568472944,1,-4.875,12288,-48.5,865.7,4.9762335
200000000000000000007700,1,1479871568483066,1479871568483066,1,-7.3125,12288,-48.5,865.7,4.9823694
200000000000000000007700,1,1479871568493326,1479871568493326,1,3.25,12288,-48.0,865.7,4.9455543
200000000000000000007700,1,1479871568504575,1479871568504575,1,0.0,12288,-48.5,865.7,4.9700975
200000000000000000007700,1,1479871568514672,1479871568514672,1,1.625,12288,-48.5,865.7,4.95169
200000000000000000007700,1,1479871568524881,1479871568524881,1,-10.5625,12288,-48.5,865.7,4.9823694
200000000000000000007700,1,1479871568535296,1479871568535296,1,-1.625,12288,-48.5,865.7,4.9885054
200000000000000000007700,1,1479871568545483,1479871568545483,1,1.625,12288,-48.5,865.7,4.9700975
200000000000000000007700,1,1479871568555677,1479871568555677,1,1.625,12288,-48.5,865.7,4.95169
200000000000000000007700,1,1479871568565833,1479871568565833,1,0.0,12288,-49.0,865.7,4.95169
200000000000000000007700,1,1479871568576010,1479871568576010,1,4.875,12288,-49.0,865.7,4.957826
200000000000000000007700,1,1479871568586163,1479871568586163,1,1.625,12288,-48.5,865.7,4.9700975
200000000000000000007700,1,1479871568596029,1479871568596029,1,-19.5,12288,-49.0,865.7,5.043729
200000000000000000007700,1,1479871568606291,1479871568606291,1,1.625,12288,-49.0,865.7,4.9639616
200000000000000000007700,1,1479871568616361,1479871568616361,1,-7.3125,12288,-48.5,865.7,5.0007772
200000000000000000007700,1,1479871568626641,1479871568626641,1,4.875,12288,-49.0,865.7,4.9762335
200000000000000000007700,1,1479871568637890,1479871568637890,1,-13.0,12288,-49.0,865.7,5.037593
200000000000000000007700,1,1479871568648247,1479871568648247,1,-1.625,12288,-49.0,865.7,5.0007772
200000000000000000007700,1,1479871568658494,1479871568658494,1,5.6875,12288,-49.0,865.7,4.9946413
200000000000000000007700,1,1479871568668687,1479871568668687,1,-8.9375,12288,-49.0,865.7,5.037593
200000000000000000007700,1,1479871568678732,1479871568678732,1,-12.1875,12288,-49.0,865.7,5.0744085
200000000000000000007700,1,1479871568688796,1479871568688796,1,-3.25,12288,-49.0,865.7,5.019185
200000000000000000007700,1,1479871568698670,1479871568698670,1,-4.875,12288,-49.0,865.7,5.043729
200000000000000000007700,1,1479871568708776,1479871568708776,1,10.5625,12288,-49.0,865.7,4.9885054
200000000000000000007700,1,1479871568718896,1479871568718896,1,5.6875,12288,-49.0,865.7,5.025321
200000000000000000007700,1,1479871568729143,1479871568729143,1,-8.9375,12288,-49.0,865.7,5.0682726
200000000000000000007700,1,1479871568739546,1479871568739546,1,-1.625,12288,-49.0,865.7,5.013049
200000000000000000007700,1,1479871568749633,1479871568749633,1,0.0,12288,-49.0,865.7,5.006913
200000000000000000007700,1,1479871568759549,1479871568759549,1,-5.6875,12288,-49.5,865.7,5.031457
200000000000000000007700,1,1479871568769597,1479871568769597,1,-1.625,12288,-49.0,865.7,5.031457
200000000000000000007700,1,1479871568779934,1479871568779934,1,0.0,12288,-49.0,865.7,5.049865
200000000000000000007700,1,1479871568789917,1479871568789917,1,10.5625,12288,-49.0,865.7,5.006913
200000000000000000007700,1,1479871568800128,1479871568800128,1,-8.9375,12288,-49.0,865.7,5.0744085
200000000000000000007700,1,1479871568810287,1479871568810287,1,-13.0,12288,-49.0,865.7,5.0682726
200000000000000000007700,1,1479871568820309,1479871568820309,1,1.625,12288,-49.0,865.7,5.037593
200000000000000000007700,1,1479871568830698,1479871568830698,1,-8.9375,12288,-49.0,865.7,5.0560007
200000000000000000007700,1,1479871568840609,1479871568840609,1,-7.3125,12288,-49.0,865.7,5.0621367
200000000000000000007700,1,1479871568850773,1479871568850773,1,1.625,12288,-49.0,865.7,5.049865
200000000000000000007700,1,1479871568861167,1479871568861167,1,-7.3125,12288,-49.0,865.7,5.0805445
200000000000000000007700,1,1479871568871225,1479871568871225,1,-3.25,12288,-49.0,865.7,5.031457
200000000000000000007700,1,1479871568881462,1479871568881462,1,0.0,12288,-49.0,865.7,5.049865
200000000000000000007700,1,1479871568891604,1479871568891604,1,-12.1875,12288,-49.0,865.7,5.111224
200000000000000000007700,1,1479871568901742,1479871568901742,1,-1.625,12288,-49.0,865.7,5.049865
200000000000000000007700,1,1479871568911953,1479871568911953,1,1.625,12288,-49.0,865.7,5.025321
200000000000000000007700,1,1479871568922072,1479871568922072,1,-10.5625,12288,-49.5,865.7,5.0928164
200000000000000000007700,1,1479871568932247,1479871568932247,1,-8.9375,12288,-49.0,865.7,5.0866804
200000000000000000007700,1,1479871568942581,1479871568942581,1,-4.875,12288,-49.0,865.7,5.0682726
200000000000000000007700,1,1479871568952886,1479871568952886,1,1.625,12288,-49.0,865.7,5.037593
200000000000000000007700,1,1479871568962729,1479871568962729,1,-3.25,12288,-49.5,865.7,5.043729
200000000000000000007700,1,1479871568973067,1479871568973067,1,-14.625,12288,-49.0,865.7,5.11736
200000000000000000007700,1,1479871568982991,1479871568982991,1,-12.1875,12288,-49.0,865.7,5.0744085
200000000000000000007700,1,1479871568993463,1479871568993463,1,8.9375,12288,-49.5,865.7,5.031457
200000000000000000007700,1,1479871569004736,1479871569004736,1,0.0,12288,-49.5,865.7,5.043729
200000000000000000007700,1,1479871569014621,1479871569014621,1,4.875,12288,-49.0,865.7,5.037593
200000000000000000007700,1,1479871569024687,1479871569024687,1,1.625,12288,-49.5,865.7,5.0560007
200000000000000000007700,1,1479871569034810,1479871569034810,1,-1.625,12288,-49.0,865.7,5.0682726
200000000000000000007700,1,1479871569044921,1479871569044921,1,-4.875,12288,-49.5,865.7,5.0805445
200000000000000000007700,1,1479871569055163,1479871569055163,1,-1.625,12288,-49.0,865.7,5.0805445
200000000000000000007700,1,1479871569065358,1479871569065358,1,1.625,12288,-49.0,865.7,5.0682726
200000000000000000007700,1,1479871569075267,1479871569075267,1,0.0,12288,-49.0,865.7,5.0560007
200000000000000000007700,1,1479871569085590,1479871569085590,1,-4.875,12288,-49.5,865.7,5.0744085
200000000000000000007700,1,1479871569095623,1479871569095623,1,-10.5625,12288,-49.0,865.7,5.0928164
200000000000000000007700,1,1479871569105777,1479871569105777,1,3.25,12288,-49.0,865.7,5.0621367
200000000000000000007700,1,1479871569115699,1479871569115699,1,1.625,12288,-49.5,865.7,5.0621367
200000000000000000007700,1,1479871569126164,1479871569126164,1,8.9375,12288,-49.0,865.7,5.013049
200000000000000000007700,1,1479871569136433,1479871569136433,1,1.625,12288,-49.0,865.7,5.0560007
200000000000000000007700,1,1479871569146588,1479871569146588,1,-7.3125,12288,-49.5,865.7,5.0805445
200000000000000000007700,1,1479871569156479,1479871569156479,1,-3.25,12288,-49.0,865.7,5.0744085
200000000000000000007700,1,1479871569166808,1479871569166808,1,-5.6875,12288,-49.0,865.7,5.0682726
200000000000000000007700,1,1479871569176923,1479871569176923,1,-10.5625,12288,-49.5,865.7,5.0682726
200000000000000000007700,1,1479871569186882,1479871569186882,1,1.625,12288,-49.5,865.7,5.031457
200000000000000000007700,1,1479871569197023,1479871569197023,1,1.625,12288,-49.5,865.7,5.025321
200000000000000000007700,1,1479871569207377,1479871569207377,1,7.3125,12288,-49.0,865.7,5.025321
200000000000000000007700,1,1479871569217553,1479871569217553,1,8.9375,12288,-49.5,865.7,5.019185
200000000000000000007700,1,1479871569227541,1479871569227541,1,0.0,12288,-49.5,865.7,5.037593
200000000000000000007700,1,1479871569237422,1479871569237422,1,-8.9375,12288,-49.5,865.7,5.0744085
200000000000000000007700,1,1479871569247742,1479871569247742,1,-5.6875,12288,-49.0,865.7,5.0744085
200000000000000000007700,1,1479871569257913,1479871569257913,1,-1.625,12288,-49.5,865.7,5.049865
200000000000000000007700,1,1479871569267865,1479871569267865,1,1.625,12288,-49.0,865.7,5.043729
200000000000000000007700,1,1479871569278360,1479871569278360,1,-3.25,12288,-49.5,865.7,5.0560007
200000000000000000007700,1,1479871569288290,1479871569288290,1,-1.625,12288,-49.5,865.7,5.0560007
200000000000000000007700,1,1479871569298396,1479871569298396,1,16.25,12288,-49.5,865.7,5.013049
200000000000000000007700,1,1479871569308850,1479871569308850,1,-3.25,12288,-49.5,865.7,5.049865
200000000000000000007700,1,1479871569318868,1479871569318868,1,14.625,12288,-49.0,865.7,5.0007772
200000000000000000007700,1,1479871569329275,1479871569329275,1,-4.875,12288,-49.5,865.7,5.031457
200000000000000000007700,1,1479871569339238,1479871569339238,1,-3.25,12288,-49.5,865.7,5.037593
200000000000000000007700,1,1479871569349388,1479871569349388,1,-3.25,12288,-49.0,865.7,5.0682726
200000000000000000007700,1,1479871569359434,1479871569359434,1,10.5625,12288,-49.5,865.7,5.0007772
200000000000000000007700,1,1479871569369787,1479871569369787,1,-4.875,12288,-49.5,865.7,5.0928164
200000000000000000007700,1,1479871569379663,1479871569379663,1,-7.3125,12288,-49.5,865.7,5.037593
200000000000000000007700,1,1479871569390043,1479871569390043,1,-4.875,12288,-49.5,865.7,5.025321
200000000000000000007700,1,1479871569399952,1479871569399952,1,14.625,12288,-49.5,865.7,4.95169
200000000000000000007700,1,1479871569410281,1479871569410281,1,7.3125,12288,-49.5,865.7,4.9823694
200000000000000000007700,1,1479871569420312,1479871569420312,1,-3.25,12288,-49.5,865.7,5.019185
200000000000000000007700,1,1479871569430385,1479871569430385,1,-1.625,12288,-49.5,865.7,5.0007772
200000000000000000007700,1,1479871569440421,1479871569440421,1,1.625,12288,-50.0,865.7,5.0007772
200000000000000000007700,1,1479871569450796,1479871569450796,1,4.875,12288,-49.5,865.7,4.9762335
200000000000000000007700,1,1479871569460744,1479871569460744,1,-1.625,12288,-49.5,865.7,5.019185
200000000000000000007700,1,1479871569471053,1479871569471053,1,-5.6875,12288,-49.5,865.7,4.9946413
200000000000000000007700,1,1479871569481120,1479871569481120,1,-10.5625,12288,-50.0,865.7,5.025321
200000000000000000007700,1,1479871569491535,1479871569491535,1,-1.625,12288,-49.5,865.7,4.9885054
200000000000000000007700,1,1479871569501599,1479871569501599,1,1.625,12288,-50.0,865.7,4.9639616
200000000000000000007700,1,1479871569511751,1479871569511751,1,-3.25,12288,-50.0,865.7,4.9823694
200000000000000000007700,1,1479871569521966,1479871569521966,1,-14.625,12288,-50.0,865.7,5.037593
200000000000000000007700,1,1479871569532890,1479871569532890,1,4.875,12288,-49.5,865.7,4.9700975
200000000000000000007700,1,1479871569543063,1479871569543063,1,-4.875,12288,-50.0,865.7,4.9639616
200000000000000000007700,1,1479871569553317,1479871569553317,1,-12.1875,12288,-49.5,865.7,5.0007772
200000000000000000007700,1,1479871569563730,1479871569563730,1,-8.9375,12288,-49.5,865.7,4.9946413
200000000000000000007700,1,1479871569574014,1479871569574014,1,-7.3125,12288,-50.0,865.7,4.9762335
200000000000000000007700,1,1479871569584018,1479871569584018,1,0.0,12288,-49.5,865.7,4.95169
200000000000000000007700,1,1479871569594427,1479871569594427,1,3.25,12288,-47.5,865.7,4.957826
200000000000000000007700,1,1479871569604435,1479871569604435,1,-7.3125,12288,-49.5,865.7,5.0007772
200000000000000000007700,1,1479871569614626,1479871569614626,1,-7.3125,12288,-50.0,865.7,4.9639616
200000000000000000007700,1,1479871569626170,1479871569626170,1,-1.625,12288,-49.5,865.7,4.9455543
200000000000000000007700,1,1479871569636245,1479871569636245,1,0.0,12288,-50.0,865.7,4.957826
200000000000000000007700,1,1479871569646703,1479871569646703,1,4.875,12288,-50.0,865.7,4.9271464
200000000000000000007700,1,1479871569656610,1479871569656610,1,-1.625,12288,-50.0,865.7,4.9455543
200000000000000000007700,1,1479871569666754,1479871569666754,1,-4.875,12288,-49.5,865.7,4.9271464
200000000000000000007700,1,1479871569676853,1479871569676853,1,0.0,12288,-50.0,865.7,4.9332824
200000000000000000007700,1,1479871569687006,1479871569687006,1,-10.5625,12288,-50.0,865.7,4.957826
200000000000000000007700,1,1479871569697140,1479871569697140,1,-8.9375,12288,-50.0,865.7,4.9639616
200000000000000000007700,1,1479871569707498,1479871569707498,1,-3.25,12288,-50.0,865.7,4.9271464
200000000000000000007700,1,1479871569719312,1479871569719312,1,-12.1875,12288,-50.0,865.7,4.957826
200000000000000000007700,1,1479871569729331,1479871569729331,1,3.25,12288,-50.0,865.7,4.8964667
200000000000000000007700,1,1479871569740541,1479871569740541,1,-8.9375,12288,-50.0,865.7,4.9394183
200000000000000000007700,1,1479871569750683,1479871569750683,1,-8.9375,12288,-50.0,865.7,4.9455543
200000000000000000007700,1,1479871569760824,1479871569760824,1,0.0,12288,-50.0,865.7,4.9087386
200000000000000000007700,1,1479871569770988,1479871569770988,1,-14.625,12288,-50.0,865.7,4.9639616
200000000000000000007700,1,1479871569781040,1479871569781040,1,0.0,12288,-50.0,865.7,4.8964667
200000000000000000007700,1,1479871569791007,1479871569791007,1,-7.3125,12288,-50.0,865.7,4.9332824
200000000000000000007700,1,1479871569801301,1479871569801301,1,-13.0,12288,-50.0,865.7,4.957826
200000000000000000007700,1,1479871569813295,1479871569813295,1,-7.3125,12288,-50.0,865.7,4.95169
200000000000000000007700,1,1479871569823366,1479871569823366,1,-7.3125,12288,-49.5,865.7,4.9026027
200000000000000000007700,1,1479871569833431,1479871569833431,1,-4.875,12288,-50.0,865.7,4.9394183
200000000000000000007700,1,1479871569843202,1479871569843202,1,1.625,12288,-50.0,865.7,4.9026027
200000000000000000007700,1,1479871569853593,1479871569853593,1,5.6875,12288,-50.0,865.7,4.9087386
200000000000000000007700,1,1479871569863690,1479871569863690,1,-7.3125,12288,-49.5,865.7,4.9271464
200000000000000000007700,1,1479871569873505,1479871569873505,1,17.875,12288,-50.0,865.7,4.847379
200000000000000000007700,1,1479871569883888,1479871569883888,1,-5.6875,12288,-50.0,865.7,4.9332824
200000000000000000007700,1,1479871569894139,1479871569894139,1,-16.25,12288,-50.0,865.7,4.95169
200000000000000000007700,1,1479871569904284,1479871569904284,1,4.875,12288,-50.0,865.7,4.8964667
200000000000000000007700,1,1479871569914115,1479871569914115,1,8.9375,12288,-49.5,865.7,4.859651
200000000000000000007700,1,1479871569924454,1479871569924454,1,1.625,12288,-49.5,865.7,4.8964667
200000000000000000007700,1,1479871569934992,1479871569934992,1,5.6875,12288,-50.0,865.7,4.871923
200000000000000000007700,1,1479871569944875,1479871569944875,1,-12.1875,12288,-50.0,865.7,4.9332824
200000000000000000007700,1,1479871569955249,1479871569955249,1,1.625,12288,-50.0,865.7,4.878059
200000000000000000007700,1,1479871569965004,1479871569965004,1,-1.625,12288,-49.5,865.7,4.9148746
200000000000000000007700,1,1479871569975352,1479871569975352,1,0.0,12288,-50.0,865.7,4.890331
200000000000000000007700,1,1479871569985130,1479871569985130,1,1.625,12288,-50.0,865.7,4.9087386
200000000000000000007700,1,1479871569995215,1479871569995215,1,0.0,12288,-50.0,865.7,4.878059
200000000000000000007700,1,1479871570005654,1479871570005654,1,-4.875,12288,-50.0,865.7,4.9332824
200000000000000000007700,1,1479871570015732,1479871570015732,1,5.6875,12288,-50.0,865.7,4.8964667
200000000000000000007700,1,1479871570025765,1479871570025765,1,-3.25,12288,-50.0,865.7,4.9026027
200000000000000000007700,1,1479871570036167,1479871570036167,1,-13.0,12288,-49.5,865.7,4.95169
200000000000000000007700,1,1479871570046122,1479871570046122,1,-1.625,12288,-49.5,865.7,4.8964667
200000000000000000007700,1,1479871570057883,1479871570057883,1,-7.3125,12288,-49.5,865.7,4.957826
200000000000000000007700,1,1479871570067770,1479871570067770,1,-14.625,12288,-49.5,865.7,4.9639616
200000000000000000007700,1,1479871570077864,1479871570077864,1,4.875,12288,-50.0,865.7,4.9210105
200000000000000000007700,1,1479871570087982,1479871570087982,1,-1.625,12288,-49.0,865.7,4.9026027
200000000000000000007700,1,1479871570098275,1479871570098275,1,3.25,12288,-49.5,865.7,4.9026027
200000000000000000007700,1,1479871570108384,1479871570108384,1,-4.875,12288,-49.5,865.7,4.9087386
200000000000000000007700,1,1479871570118252,1479871570118252,1,-1.625,12288,-49.0,865.7,4.9271464
200000000000000000007700,1,1479871570128436,1479871570128436,1,-3.25,12288,-49.0,865.7,4.95169
200000000000000000007700,1,1479871570138593,1479871570138593,1,3.25,12288,-49.5,865.7,4.9271464
200000000000000000007700,1,1479871570148915,1479871570148915,1,3.25,12288,-49.0,865.7,4.9210105
200000000000000000007700,1,1479871570159156,1479871570159156,1,-3.25,12288,-49.0,865.7,4.9455543
200000000000000000007700,1,1479871570169150,1479871570169150,1,10.5625,12288,-49.0,865.7,4.9271464
200000000000000000007700,1,1479871570179355,1479871570179355,1,-4.875,12288,-48.5,865.7,4.9639616
200000000000000000007700,1,1479871570189286,1479871570189286,1,-4.875,12288,-49.0,865.7,4.9639616
200000000000000000007700,1,1479871570199559,1479871570199559,1,10.5625,12288,-48.5,865.7,4.9148746
200000000000000000007700,1,1479871570209570,1479871570209570,1,-4.875,12288,-48.5,865.7,4.95169
200000000000000000007700,1,1479871570219404,1479871570219404,1,-3.25,12288,-48.5,865.7,4.9762335
200000000000000000007700,1,1479871570229571,1479871570229571,1,-8.9375,12288,-48.5,865.7,5.006913
200000000000000000007700,1,1479871570239823,1479871570239823,1,5.6875,12288,-48.5,865.7,4.9394183
200000000000000000007700,1,1479871570249684,1479871570249684,1,3.25,12288,-48.0,865.7,4.9394183
200000000000000000007700,1,1479871570260050,1479871570260050,1,4.875,12288,-48.0,865.7,4.9455543
200000000000000000007700,1,1479871570270397,1479871570270397,1,-12.1875,12288,-48.0,865.7,5.0007772
200000000000000000007700,1,1479871570280263,1479871570280263,1,-3.25,12288,-48.0,865.7,4.9823694
200000000000000000007700,1,1479871570290626,1479871570290626,1,0.0,12288,-48.0,865.7,5.013049
200000000000000000007700,1,1479871570300487,1479871570300487,1,3.25,12288,-48.0,865.7,5.019185
200000000000000000007700,1,1479871570310927,1479871570310927,1,0.0,12288,-47.5,865.7,5.0007772
200000000000000000007700,1,1479871570320953,1479871570320953,1,-7.3125,12288,-47.5,865.7,5.037593
200000000000000000007700,1,1479871570332985,1479871570332985,1,-4.875,12288,-47.0,865.7,5.031457
200000000000000000007700,1,1479871570342977,1479871570342977,1,0.0,12288,-47.0,865.7,5.031457
200000000000000000007700,1,1479871570363224,1479871570363224,1,5.6875,12288,-47.0,865.7,5.031457
200000000000000000007700,1,1479871570373509,1479871570373509,1,1.625,12288,-46.5,865.7,5.0621367
200000000000000000007700,1,1479871570384800,1479871570384800,1,5.6875,12288,-46.5,865.7,5.043729
200000000000000000007700,1,1479871570396228,1479871570396228,1,-8.9375,12288,-47.0,865.7,5.11736
200000000000000000007700,1,1479871570406225,1479871570406225,1,3.25,12288,-46.5,865.7,5.0928164
200000000000000000007700,1,1479871570416417,1479871570416417,1,4.875,12288,-46.5,865.7,5.0866804
200000000000000000007700,1,1479871570426670,1479871570426670,1,-3.25,12288,-46.0,865.7,5.0989523
200000000000000000007700,1,1479871570436630,1479871570436630,1,-3.25,12288,-46.5,865.7,5.123496
200000000000000000007700,1,1479871570446988,1479871570446988,1,3.25,12288,-46.0,865.7,5.0989523
200000000000000000007700,1,1479871570457085,1479871570457085,1,7.3125,12288,-46.0,865.7,5.0928164
200000000000000000007700,1,1479871570467195,1479871570467195,1,-1.625,12288,-46.0,865.7,5.1419034
200000000000000000007700,1,1479871570477168,1479871570477168,1,5.6875,12288,-46.0,865.7,5.111224
200000000000000000007700,1,1479871570487422,1479871570487422,1,7.3125,12288,-45.5,865.7,5.11736
200000000000000000007700,1,1479871570497729,1479871570497729,1,0.0,12288,-45.5,865.7,5.160311
200000000000000000007700,1,1479871570507656,1479871570507656,1,4.875,12288,-45.5,865.7,5.1480393
200000000000000000007700,1,1479871570517746,1479871570517746,1,3.25,12288,-45.0,865.7,5.184855
200000000000000000007700,1,1479871570528125,1479871570528125,1,12.1875,12288,-45.0,865.7,5.160311
200000000000000000007700,1,1479871570538119,1479871570538119,1,5.6875,12288,-44.5,865.7,5.184855
200000000000000000007700,1,1479871570548608,1479871570548608,1,0.0,12288,-44.5,865.7,5.197127
200000000000000000007700,1,1479871570558692,1479871570558692,1,1.625,12288,-44.0,865.7,5.2278066
200000000000000000007700,1,1479871570568885,1479871570568885,1,3.25,12288,-43.5,865.7,5.2400784
200000000000000000007700,1,1479871570579033,1479871570579033,1,7.3125,12288,-43.5,865.7,5.264622
200000000000000000007700,1,1479871570589253,1479871570589253,1,0.0,12288,-43.0,865.7,5.295302
200000000000000000007700,1,1479871570599061,1479871570599061,1,1.625,12288,-43.0,865.7,5.3075733
200000000000000000007700,1,1479871570609112,1479871570609112,1,4.875,12288,-43.0,865.7,5.3075733
200000000000000000007700,1,1479871570619302,1479871570619302,1,-5.6875,12288,-42.5,865.7,5.338253
200000000000000000007700,1,1479871570630482,1479871570630482,1,4.875,12288,-43.0,865.7,5.3014374
200000000000000000007700,1,1479871570640833,1479871570640833,1,-3.25,12288,-42.5,865.7,5.325981
200000000000000000007700,1,1479871570652572,1479871570652572,1,-4.875,12288,-43.0,865.7,5.344389
200000000000000000007700,1,1479871570662829,1479871570662829,1,10.5625,12288,-42.5,865.7,5.264622
200000000000000000007700,1,1479871570674182,1479871570674182,1,-1.625,12288,-42.5,865.7,5.3075733
200000000000000000007700,1,1479871570684601,1479871570684601,1,8.9375,12288,-43.0,865.7,5.276894
200000000000000000007700,1,1479871570694705,1479871570694705,1,1.625,12288,-43.0,865.7,5.3137093
200000000000000000007700,1,1479871570704834,1479871570704834,1,-3.25,12288,-42.5,865.7,5.319845
200000000000000000007700,1,1479871570714932,1479871570714932,1,7.3125,12288,-42.5,865.7,5.289166
200000000000000000007700,1,1479871570725037,1479871570725037,1,5.6875,12288,-42.5,865.7,5.295302
200000000000000000007700,1,1479871570735322,1479871570735322,1,0.0,12288,-43.0,865.7,5.325981
200000000000000000007700,1,1479871570745179,1479871570745179,1,8.9375,12288,-42.5,865.7,5.289166
200000000000000000007700,1,1479871570755488,1479871570755488,1,4.875,12288,-42.5,865.7,5.3014374
200000000000000000007700,1,1479871570765569,1479871570765569,1,4.875,12288,-42.5,865.7,5.3137093
200000000000000000007700,1,1479871570775700,1479871570775700,1,1.625,12288,-42.5,865.7,5.325981
200000000000000000007700,1,1479871570785558,1479871570785558,1,10.5625,12288,-42.5,865.7,5.295302
200000000000000000007700,1,1479871570796109,1479871570796109,1,7.3125,12288,-42.5,865.7,5.325981
200000000000000000007700,1,1479871570806016,1479871570806016,1,-3.25,12288,-42.0,865.7,5.3812046
200000000000000000007700,1,1479871570816450,1479871570816450,1,0.0,12288,-42.0,865.7,5.3934765
200000000000000000007700,1,1479871570826499,1479871570826499,1,4.875,12288,-43.0,865.7,5.4118843
200000000000000000007700,1,1479871570836856,1479871570836856,1,0.0,12288,-43.5,865.7,5.479379
200000000000000000007700,1,1479871570846692,1479871570846692,1,-7.3125,12288,-43.0,865.7,5.6327777
200000000000000000007700,1,1479871570858545,1479871570858545,1,1.625,12288,-42.0,865.7,5.6266418
200000000000000000007700,1,1479871570868511,1479871570868511,1,0.0,12288,-41.0,865.7,5.620506
200000000000000000007700,1,1479871570878638,1479871570878638,1,4.875,12288,-40.5,865.7,5.61437
200000000000000000007700,1,1479871570888867,1479871570888867,1,1.625,12288,-39.5,865.7,5.61437
200000000000000000007700,1,1479871570899063,1479871570899063,1,5.6875,12288,-39.0,865.7,5.61437
200000000000000000007700,1,1479871570909513,1479871570909513,1,-5.6875,12288,-38.5,865.7,5.651185
200000000000000000007700,1,1479871570919866,1479871570919866,1,-1.625,12288,-38.0,865.7,5.657321
200000000000000000007700,1,1479871570929753,1479871570929753,1,1.625,12288,-38.0,865.7,5.651185
200000000000000000007700,1,1479871570941638,1479871570941638,1,7.3125,12288,-38.0,865.7,5.645049
200000000000000000007700,1,1479871570953167,1479871570953167,1,-1.625,12288,-38.0,865.7,5.663457
200000000000000000007700,1,1479871570963335,1479871570963335,1,5.6875,12288,-38.0,865.7,5.657321
200000000000000000007700,1,1479871570973134,1479871570973134,1,7.3125,12288,-38.0,865.7,5.651185
200000000000000000007700,1,1479871570983560,1479871570983560,1,0.0,12288,-38.0,865.7,5.669593
200000000000000000007700,1,1479871570993477,1479871570993477,1,-1.625,12288,-38.0,865.7,5.669593
200000000000000000007700,1,1479871571004087,1479871571004087,1,0.0,12288,-38.0,865.7,5.675729
200000000000000000007700,1,1479871571014130,1479871571014130,1,0.0,12288,-38.0,865.7,5.669593
200000000000000000007700,1,1479871571024673,1479871571024673,1,0.0,12288,-38.0,865.7,5.675729
200000000000000000007700,1,1479871571034934,1479871571034934,1,1.625,12288,-38.0,865.7,5.657321
200000000000000000007700,1,1479871571046563,1479871571046563,1,3.25,12288,-38.0,865.7,5.657321
200000000000000000007700,1,1479871571058039,1479871571058039,1,1.625,12288,-38.0,865.7,5.657321
200000000000000000007700,1,1479871571068586,1479871571068586,1,-1.625,12288,-37.5,865.7,5.675729
200000000000000000007700,1,1479871571079556,1479871571079556,1,3.25,12288,-38.0,865.7,5.669593
200000000000000000007700,1,1479871571090046,1479871571090046,1,0.0,12288,-37.5,865.7,5.675729
200000000000000000007700,1,1479871571101673,1479871571101673,1,-5.6875,12288,-37.5,865.7,5.6941366
200000000000000000007700,1,1479871571112081,1479871571112081,1,8.9375,12288,-37.5,865.7,5.657321
200000000000000000007700,1,1479871571122369,1479871571122369,1,3.25,12288,-37.5,865.7,5.6818647
200000000000000000007700,1,1479871571134139,1479871571134139,1,0.0,12288,-37.5,865.7,5.7002726
200000000000000000007700,1,1479871571144546,1479871571144546,1,1.625,12288,-37.5,865.7,5.7002726
200000000000000000007700,1,1479871571154494,1479871571154494,1,0.0,12288,-37.0,865.7,5.7064085
200000000000000000007700,1,1479871571164683,1479871571164683,1,-1.625,12288,-37.0,865.7,5.7309523
200000000000000000007700,1,1479871571175895,1479871571175895,1,5.6875,12288,-37.0,865.7,5.7064085
200000000000000000007700,1,1479871571186006,1479871571186006,1,3.25,12288,-37.0,865.7,5.7248163
200000000000000000007700,1,1479871571196264,1479871571196264,1,0.0,12288,-36.5,865.7,5.7309523
200000000000000000007700,1,1479871571206250,1479871571206250,1,-4.875,12288,-36.5,865.7,5.74936
200000000000000000007700,1,1479871571216639,1479871571216639,1,4.875,12288,-37.0,865.7,5.743224
200000000000000000007700,1,1479871571226573,1479871571226573,1,3.25,12288,-36.5,865.7,5.737088
200000000000000000007700,1,1479871571236851,1479871571236851,1,-3.25,12288,-36.5,865.7,5.767768
200000000000000000007700,1,1479871571246664,1479871571246664,1,0.0,12288,-36.5,865.7,5.773904
200000000000000000007700,1,1479871571256927,1479871571256927,1,4.875,12288,-36.5,865.7,5.773904
200000000000000000007700,1,1479871571266860,1479871571266860,1,3.25,12288,-36.5,865.7,5.773904
200000000000000000007700,1,1479871571276921,1479871571276921,1,3.25,12288,-36.5,865.7,5.773904
200000000000000000007700,1,1479871571286953,1479871571286953,1,0.0,12288,-36.5,865.7,5.804583
200000000000000000007700,1,1479871571297401,1479871571297401,1,3.25,12288,-36.5,865.7,5.7923117
200000000000000000007700,1,1479871571307642,1479871571307642,1,0.0,12288,-36.5,865.7,5.816855
200000000000000000007700,1,1479871571317558,1479871571317558,1,-1.625,12288,-36.5,865.7,5.829127
200000000000000000007700,1,1479871571327930,1479871571327930,1,-1.625,12288,-36.5,865.7,5.835263
200000000000000000007700,1,1479871571337873,1479871571337873,1,3.25,12288,-36.5,865.7,5.829127
200000000000000000007700,1,1479871571347895,1479871571347895,1,-3.25,12288,-36.5,865.7,5.8598065
200000000000000000007700,1,1479871571358189,1479871571358189,1,1.625,12288,-36.5,865.7,5.8536706
200000000000000000007700,1,1479871571368314,1479871571368314,1,-1.625,12288,-36.0,865.7,5.8659425
200000000000000000007700,1,1479871571378928,1479871571378928,1,1.625,12288,-36.5,865.7,5.8720784
200000000000000000007700,1,1479871571389924,1479871571389924,1,0.0,12288,-36.5,865.7,5.8904862
200000000000000000007700,1,1479871571401318,1479871571401318,1,4.875,12288,-36.0,865.7,5.896622
200000000000000000007700,1,1479871571411451,1479871571411451,1,3.25,12288,-36.5,865.7,5.896622
200000000000000000007700,1,1479871571421693,1479871571421693,1,1.625,12288,-36.5,865.7,5.91503
200000000000000000007700,1,1479871571431603,1479871571431603,1,5.6875,12288,-36.5,865.7,5.902758
200000000000000000007700,1,1479871571441676,1479871571441676,1,4.875,12288,-36.5,865.7,5.91503
200000000000000000007700,1,1479871571451617,1479871571451617,1,1.625,12288,-38.0,865.7,5.908894
200000000000000000007700,1,1479871571463516,1479871571463516,1,5.6875,12288,-36.5,865.7,5.921166
200000000000000000007700,1,1479871571475219,1479871571475219,1,7.3125,12288,-36.5,865.7,5.927302
200000000000000000007700,1,1479871571485229,1479871571485229,1,4.875,12288,-36.5,865.7,5.9457097
200000000000000000007700,1,1479871571495145,1479871571495145,1,0.0,12288,-37.0,865.7,5.976389
200000000000000000007700,1,1479871571505602,1479871571505602,1,-7.3125,12288,-36.5,865.7,6.0009327
200000000000000000007700,1,1479871571516997,1479871571516997,1,0.0,12288,-36.5,865.7,5.982525
200000000000000000007700,1,1479871571527365,1479871571527365,1,-4.875,12288,-36.5,865.7,6.0132046
200000000000000000007700,1,1479871571537218,1479871571537218,1,4.875,12288,-37.0,865.7,6.0009327
200000000000000000007700,1,1479871571549088,1479871571549088,1,3.25,12288,-37.0,865.7,6.0316124
200000000000000000007700,1,1479871571559302,1479871571559302,1,7.3125,12288,-37.0,865.7,6.0193405
200000000000000000007700,1,1479871571569109,1479871571569109,1,5.6875,12288,-37.0,865.7,6.0438843
200000000000000000007700,1,1479871571579299,1479871571579299,1,3.25,12288,-37.0,865.7,6.062292
200000000000000000007700,1,1479871571698260,1479871571698260,1,-7.3125,12288,-37.5,865.7,6.227962
200000000000000000007700,1,1479871571708036,1479871571708036,1,0.0,12288,-37.5,865.7,6.221826
200000000000000000007700,1,1479871571718426,1479871571718426,1,-4.875,12288,-37.5,865.7,6.24637
200000000000000000007700,1,1479871571728419,1479871571728419,1,7.3125,12288,-37.5,865.7,6.221826
200000000000000000007700,1,1479871571738248,1479871571738248,1,4.875,12288,-38.0,865.7,6.2586417
200000000000000000007700,1,1479871571748588,1479871571748588,1,3.25,12288,-38.0,865.7,6.2770495
200000000000000000007700,1,1479871571760129,1479871571760129,1,3.25,12288,-37.5,865.7,0.0061359233
200000000000000000007700,1,1479871571772661,1479871571772661,1,0.0,12288,-37.5,865.7,0.030679615
200000000000000000007700,1,1479871571783200,1479871571783200,1,0.0,12288,-37.5,865.7,0.05522331
200000000000000000007700,1,1479871571793396,1479871571793396,1,0.0,12288,-37.5,865.7,0.05522331
200000000000000000007700,1,1479871571804352,1479871571804352,1,1.625,12288,-37.5,865.7,0.079767
200000000000000000007700,1,1479871571814354,1479871571814354,1,-3.25,12288,-37.5,865.7,0.10431069
200000000000000000007700,1,1479871571825971,1479871571825971,1,-1.625,12288,-37.5,865.7,0.11044662
200000000000000000007700,1,1479871571836502,1479871571836502,1,1.625,12288,-37.5,865.7,0.11658254
200000000000000000007700,1,1479871571846494,1479871571846494,1,-1.625,12288,-37.5,865.7,0.12271846
200000000000000000007700,1,1479871571856845,1479871571856845,1,-1.625,12288,-37.5,865.7,0.1349903
200000000000000000007700,1,1479871571866765,1479871571866765,1,1.625,12288,-37.5,865.7,0.14112623
200000000000000000007700,1,1479871571876888,1479871571876888,1,8.9375,12288,-37.5,865.7,0.1349903
200000000000000000007700,1,1479871571888548,1479871571888548,1,4.875,12288,-37.0,865.7,0.16566992
200000000000000000007700,1,1479871571898607,1479871571898607,1,0.0,12288,-37.5,865.7,0.19634955
200000000000000000007700,1,1479871571908909,1479871571908909,1,3.25,12288,-37.5,865.7,0.20862138
200000000000000000007700,1,1479871571918933,1479871571918933,1,7.3125,12288,-37.5,865.7,0.22089323
200000000000000000007700,1,1479871571929356,1479871571929356,1,0.0,12288,-37.0,865.7,0.24543692
200000000000000000007700,1,1479871571940583,1479871571940583,1,4.875,12288,-37.5,865.7,0.25157285
200000000000000000007700,1,1479871571950725,1479871571950725,1,0.0,12288,-37.0,865.7,0.28225246
200000000000000000007700,1,1479871571962158,1479871571962158,1,-1.625,12288,-37.0,865.7,0.30679616
200000000000000000007700,1,1479871571973449,1479871571973449,1,4.875,12288,-37.0,865.7,0.30066022
200000000000000000007700,1,1479871571985049,1479871571985049,1,1.625,12288,-37.5,865.7,0.33133984
200000000000000000007700,1,1479871571996496,1479871571996496,1,-1.625,12288,-37.5,865.7,0.36201948
200000000000000000007700,1,1479871572006680,1479871572006680,1,5.6875,12288,-37.5,865.7,0.35588354
200000000000000000007700,1,1479871572016394,1479871572016394,1,5.6875,12288,-37.5,865.7,0.38042724
200000000000000000007700,1,1479871572026562,1479871572026562,1,0.0,12288,-37.5,865.7,0.4049709
200000000000000000007700,1,1479871572036699,1479871572036699,1,-1.625,12288,-37.5,865.7,0.42951462
200000000000000000007700,1,1479871572046835,1479871572046835,1,3.25,12288,-37.5,865.7,0.43565056
200000000000000000007700,1,1479871572056653,1479871572056653,1,1.625,12288,-37.5,865.7,0.44792238
200000000000000000007700,1,1479871572066920,1479871572066920,1,0.0,12288,-38.0,865.7,0.48473793
200000000000000000007700,1,1479871572078325,1479871572078325,1,8.9375,12288,-38.0,865.7,0.49700978
200000000000000000007700,1,1479871572088425,1479871572088425,1,4.875,12288,-38.0,865.7,0.53382534
200000000000000000007700,1,1479871572098804,1479871572098804,1,4.875,12288,-38.0,865.7,0.5645049
200000000000000000007700,1,1479871572108968,1479871572108968,1,4.875,12288,-38.0,865.7,0.5890486
200000000000000000007700,1,1479871572118895,1479871572118895,1,5.6875,12288,-38.5,865.7,0.6135923
200000000000000000007700,1,1479871572129041,1479871572129041,1,7.3125,12288,-38.0,865.7,0.6135923
200000000000000000007700,1,1479871572139273,1479871572139273,1,3.25,12288,-38.5,865.7,0.638136
200000000000000000007700,1,1479871572150982,1479871572150982,1,5.6875,12288,-38.5,865.7,0.638136
200000000000000000007700,1,1479871572160777,1479871572160777,1,0.0,12288,-38.5,865.7,0.6565438
200000000000000000007700,1,1479871572170945,1479871572170945,1,-1.625,12288,-38.5,865.7,0.6626797
200000000000000000007700,1,1479871572181314,1479871572181314,1,0.0,12288,-38.5,865.7,0.6442719
200000000000000000007700,1,1479871572191427,1479871572191427,1,3.25,12288,-38.5,865.7,0.62586415
200000000000000000007700,1,1479871572203276,1479871572203276,1,4.875,12288,-38.5,865.7,0.61972827
200000000000000000007700,1,1479871572213177,1479871572213177,1,3.25,12288,-38.5,865.7,0.61972827
200000000000000000007700,1,1479871572223597,1479871572223597,1,0.0,12288,-38.5,865.7,0.61972827
200000000000000000007700,1,1479871572233536,1479871572233536,1,4.875,12288,-38.5,865.7,0.60132045
200000000000000000007700,1,1479871572243968,1479871572243968,1,0.0,12288,-38.5,865.7,0.6074564
200000000000000000007700,1,1479871572253854,1479871572253854,1,8.9375,12288,-39.0,865.7,0.5645049
200000000000000000007700,1,1479871572264249,1479871572264249,1,5.6875,12288,-38.5,865.7,0.5645049
200000000000000000007700,1,1479871572275586,1479871572275586,1,3.25,12288,-39.0,865.7,0.5645049
200000000000000000007700,1,1479871572285991,1479871572285991,1,7.3125,12288,-39.0,865.7,0.5399612
200000000000000000007700,1,1479871572295942,1479871572295942,1,7.3125,12288,-39.0,865.7,0.53382534
200000000000000000007700,1,1479871572306247,1479871572306247,1,5.6875,12288,-39.0,865.7,0.54609716
200000000000000000007700,1,1479871572316322,1479871572316322,1,5.6875,12288,-39.5,865.7,0.54609716
200000000000000000007700,1,1479871572326210,1479871572326210,1,0.0,12288,-39.0,865.7,0.54609716
200000000000000000007700,1,1479871572336338,1479871572336338,1,1.625,12288,-39.5,865.7,0.558369
200000000000000000007700,1,1479871572348294,1479871572348294,1,1.625,12288,-39.5,865.7,0.5645049
200000000000000000007700,1,1479871572358127,1479871572358127,1,3.25,12288,-40.0,865.7,0.5767768
200000000000000000007700,1,1479871572368554,1479871572368554,1,-1.625,12288,-40.5,865.7,0.57064086
200000000000000000007700,1,1479871572378861,1479871572378861,1,8.9375,12288,-40.5,865.7,0.5767768
200000000000000000007700,1,1479871572388737,1479871572388737,1,1.625,12288,-40.5,865.7,0.5890486
200000000000000000007700,1,1479871572399136,1479871572399136,1,1.625,12288,-40.5,865.7,0.6074564
200000000000000000007700,1,1479871572409272,1479871572409272,1,13.0,12288,-41.0,865.7,0.5767768
200000000000000000007700,1,1479871572419205,1479871572419205,1,7.3125,12288,-41.0,865.7,0.60132045
200000000000000000007700,1,1479871572429474,1479871572429474,1,4.875,12288,-41.0,865.7,0.6135923
200000000000000000007700,1,1479871572439760,1479871572439760,1,8.9375,12288,-41.0,865.7,0.60132045
200000000000000000007700,1,1479871572451918,1479871572451918,1,7.3125,12288,-41.0,865.7,0.6074564
200000000000000000007700,1,1479871572461973,1479871572461973,1,7.3125,12288,-41.0,865.7,0.59518456
200000000000000000007700,1,1479871572473561,1479871572473561,1,4.875,12288,-41.5,865.7,0.6074564
200000000000000000007700,1,1479871572483690,1479871572483690,1,8.9375,12288,-41.5,865.7,0.5829127
200000000000000000007700,1,1479871572495772,1479871572495772,1,4.875,12288,-41.5,865.7,0.5829127
200000000000000000007700,1,1479871572505908,1479871572505908,1,3.25,12288,-41.5,865.7,0.5767768
200000000000000000007700,1,1479871572517490,1479871572517490,1,0.0,12288,-41.5,865.7,0.5645049
200000000000000000007700,1,1479871572527874,1479871572527874,1,0.0,12288,-41.5,865.7,0.5399612
200000000000000000007700,1,1479871572537895,1479871572537895,1,8.9375,12288,-41.5,865.7,0.5031457
200000000000000000007700,1,1479871572548064,1479871572548064,1,1.625,12288,-41.5,865.7,0.49087384
200000000000000000007700,1,1479871572557924,1479871572557924,1,0.0,12288,-41.5,865.7,0.49087384
200000000000000000007700,1,1479871572569815,1479871572569815,1,5.6875,12288,-41.5,865.7,0.4233787
200000000000000000007700,1,1479871572579905,1479871572579905,1,3.25,12288,-42.0,865.7,0.398835
200000000000000000007700,1,1479871572590132,1479871572590132,1,3.25,12288,-42.0,865.7,0.38656315
200000000000000000007700,1,1479871572600068,1479871572600068,1,1.625,12288,-42.0,865.7,0.33747578
200000000000000000007700,1,1479871572611867,1479871572611867,1,4.875,12288,-42.0,865.7,0.2699806
200000000000000000007700,1,1479871572621738,1479871572621738,1,-4.875,12288,-42.0,865.7,0.239301
200000000000000000007700,1,1479871572633325,1479871572633325,1,1.625,12288,-42.0,865.7,0.15339808
200000000000000000007700,1,1479871572643399,1479871572643399,1,-5.6875,12288,-42.0,865.7,0.1349903
200000000000000000007700,1,1479871572653545,1479871572653545,1,3.25,12288,-42.0,865.7,0.06135923
200000000000000000007700,1,1479871572665040,1479871572665040,1,-3.25,12288,-42.0,865.7,0.04295146
200000000000000000007700,1,1479871572674873,1479871572674873,1,1.625,12288,-42.0,865.7,6.2709136
200000000000000000007700,1,1479871572685142,1479871572685142,1,0.0,12288,-41.5,865.7,6.221826
200000000000000000007700,1,1479871572695446,1479871572695446,1,0.0,12288,-41.0,865.7,6.1666026
200000000000000000007700,1,1479871572705411,1479871572705411,1,13.0,12288,-41.0,865.7,6.0807
200000000000000000007700,1,1479871572715604,1479871572715604,1,0.0,12288,-41.0,865.7,6.0807
200000000000000000007700,1,1479871572725978,1479871572725978,1,1.625,12288,-40.5,865.7,6.056156
200000000000000000007700,1,1479871572736114,1479871572736114,1,5.6875,12288,-40.0,865.7,6.0070686
200000000000000000007700,1,1479871572746372,1479871572746372,1,-3.25,12288,-40.0,865.7,6.0132046
200000000000000000007700,1,1479871572756421,1479871572756421,1,-7.3125,12288,-40.0,865.7,6.0070686
200000000000000000007700,1,1479871572766422,1479871572766422,1,7.3125,12288,-39.5,865.7,5.927302
200000000000000000007700,1,1479871572776608,1479871572776608,1,7.3125,12288,-39.5,865.7,5.902758
200000000000000000007700,1,1479871572786813,1479871572786813,1,-3.25,12288,-38.5,865.7,5.908894
200000000000000000007700,1,1479871572796931,1479871572796931,1,3.25,12288,-38.5,865.7,5.896622
200000000000000000007700,1,1479871572807038,1479871572807038,1,1.625,12288,-38.5,865.7,5.8782144
200000000000000000007700,1,1479871572817039,1479871572817039,1,0.0,12288,-38.5,865.7,5.8904862
200000000000000000007700,1,1479871572827491,1479871572827491,1,4.875,12288,-38.5,865.7,5.8598065
200000000000000000007700,1,1479871572837634,1479871572837634,1,4.875,12288,-38.0,865.7,5.8659425
200000000000000000007700,1,1479871572847837,1479871572847837,1,3.25,12288,-38.0,865.7,5.8720784
200000000000000000007700,1,1479871572857615,1479871572857615,1,7.3125,12288,-38.0,865.7,5.8475347
200000000000000000007700,1,1479871572867939,1479871572867939,1,-3.25,12288,-38.0,865.7,5.8782144
200000000000000000007700,1,1479871572879125,1479871572879125,1,-4.875,12288,-38.0,865.7,5.8720784
200000000000000000007700,1,1479871572889032,1479871572889032,1,-1.625,12288,-38.0,865.7,5.8598065
200000000000000000007700,1,1479871572899359,1479871572899359,1,-1.625,12288,-38.0,865.7,5.8536706
200000000000000000007700,1,1479871572909250,1479871572909250,1,-1.625,12288,-38.0,865.7,5.8413987
200000000000000000007700,1,1479871572919221,1479871572919221,1,-1.625,12288,-38.0,865.7,5.8536706
200000000000000000007700,1,1479871572929715,1479871572929715,1,4.875,12288,-38.0,865.7,5.822991
200000000000000000007700,1,1479871572939576,1479871572939576,1,1.625,12288,-38.0,865.7,5.822991
200000000000000000007700,1,1479871572949737,1479871572949737,1,3.25,12288,-38.0,865.7,5.822991
200000000000000000007700,1,1479871572960145,1479871572960145,1,3.25,12288,-38.0,865.7,5.822991
200000000000000000007700,1,1479871572970094,1479871572970094,1,1.625,12288,-38.0,865.7,5.816855
200000000000000000007700,1,1479871572980226,1479871572980226,1,1.625,12288,-38.0,865.7,5.835263
200000000000000000007700,1,1479871572990437,1479871572990437,1,0.0,12288,-38.0,865.7,5.829127
200000000000000000007700,1,1479871573000706,1479871573000706,1,0.0,12288,-38.0,865.7,5.822991
200000000000000000007700,1,1479871573010902,1479871573010902,1,7.3125,12288,-38.0,865.7,5.7923117
200000000000000000007700,1,1479871573020816,1479871573020816,1,-3.25,12288,-38.5,865.7,5.816855
200000000000000000007700,1,1479871573032456,1479871573032456,1,0.0,12288,-38.0,865.7,5.810719
200000000000000000007700,1,1479871573042897,1479871573042897,1,5.6875,12288,-38.0,865.7,5.7984476
200000000000000000007700,1,1479871573053020,1479871573053020,1,4.875,12288,-38.0,865.7,5.7861757
200000000000000000007700,1,1479871573063018,1479871573063018,1,-1.625,12288,-38.0,865.7,5.804583
200000000000000000007700,1,1479871573073069,1479871573073069,1,3.25,12288,-38.0,865.7,5.804583
200000000000000000007700,1,1479871573083043,1479871573083043,1,4.875,12288,-38.5,865.7,5.773904
200000000000000000007700,1,1479871573093226,1479871573093226,1,-1.625,12288,-38.5,865.7,5.7923117
200000000000000000007700,1,1479871573103403,1479871573103403,1,3.25,12288,-38.5,865.7,5.7923117
200000000000000000007700,1,1479871573113879,1479871573113879,1,1.625,12288,-38.5,865.7,5.7861757
200000000000000000007700,1,1479871573125262,1479871573125262,1,-1.625,12288,-38.5,865.7,5.7861757
200000000000000000007700,1,1479871573135675,1479871573135675,1,3.25,12288,-38.0,865.7,5.767768
200000000000000000007700,1,1479871573145624,1479871573145624,1,0.0,12288,-38.5,865.7,5.78004
200000000000000000007700,1,1479871573155821,1479871573155821,1,5.6875,12288,-38.5,865.7,5.74936
200000000000000000007700,1,1479871573167724,1479871573167724,1,7.3125,12288,-38.5,865.7,5.737088
200000000000000000007700,1,1479871573177793,1479871573177793,1,-1.625,12288,-38.5,865.7,5.773904
200000000000000000007700,1,1479871573187645,1479871573187645,1,3.25,12288,-38.5,865.7,5.737088
200000000000000000007700,1,1479871573197949,1479871573197949,1,1.625,12288,-38.5,865.7,5.7248163
200000000000000000007700,1,1479871573207799,1479871573207799,1,-1.625,12288,-38.5,865.7,5.737088
200000000000000000007700,1,1479871573218301,1479871573218301,1,0.0,12288,-38.5,865.7,5.7248163
200000000000000000007700,1,1479871573228179,1479871573228179,1,8.9375,12288,-39.0,865.7,5.669593
200000000000000000007700,1,1479871573238652,1479871573238652,1,1.625,12288,-39.0,865.7,5.669593
200000000000000000007700,1,1479871573249551,1479871573249551,1,4.875,12288,-39.0,865.7,5.651185
200000000000000000007700,1,1479871573259761,1479871573259761,1,1.625,12288,-39.5,865.7,5.6327777
200000000000000000007700,1,1479871573270050,1479871573270050,1,-3.25,12288,-39.5,865.7,5.620506
200000000000000000007700,1,1479871573280244,1479871573280244,1,-4.875,12288,-39.5,865.7,5.6266418
200000000000000000007700,1,1479871573290696,1479871573290696,1,0.0,12288,-39.5,865.7,5.602098
200000000000000000007700,1,1479871573300760,1479871573300760,1,-1.625,12288,-40.0,865.7,5.608234
200000000000000000007700,1,1479871573310513,1479871573310513,1,3.25,12288,-40.0,865.7,5.577554
200000000000000000007700,1,1479871573320662,1479871573320662,1,-4.875,12288,-40.0,865.7,5.595962
200000000000000000007700,1,1479871573330835,1479871573330835,1,-1.625,12288,-40.0,865.7,5.58369
200000000000000000007700,1,1479871573341916,1479871573341916,1,0.0,12288,-40.0,865.7,5.577554
200000000000000000007700,1,1479871573351950,1479871573351950,1,1.625,12288,-40.0,865.7,5.5714183
200000000000000000007700,1,1479871573362347,1479871573362347,1,0.0,12288,-40.0,865.7,5.577554
200000000000000000007700,1,1479871573372522,1479871573372522,1,10.5625,12288,-40.0,865.7,5.5407386
200000000000000000007700,1,1479871573382651,1479871573382651,1,3.25,12288,-40.0,865.7,5.5714183
200000000000000000007700,1,1479871573392848,1479871573392848,1,-3.25,12288,-40.0,865.7,5.577554
200000000000000000007700,1,1479871573403196,1479871573403196,1,1.625,12288,-40.0,865.7,5.5652823
200000000000000000007700,1,1479871573413142,1479871573413142,1,-8.9375,12288,-40.0,865.7,5.602098
200000000000000000007700,1,1479871573425346,1479871573425346,1,1.625,12288,-40.0,865.7,5.5714183
200000000000000000007700,1,1479871573435757,1479871573435757,1,3.25,12288,-40.0,865.7,5.5530105
200000000000000000007700,1,1479871573445773,1479871573445773,1,-3.25,12288,-40.0,865.7,5.5652823
200000000000000000007700,1,1479871573455908,1479871573455908,1,5.6875,12288,-40.0,865.7,5.5346026
200000000000000000007700,1,1479871573467739,1479871573467739,1,7.3125,12288,-40.0,865.7,5.5346026
200000000000000000007700,1,1479871573478065,1479871573478065,1,3.25,12288,-40.5,865.7,5.5468745
200000000000000000007700,1,1479871573488262,1479871573488262,1,0.0,12288,-40.5,865.7,5.5468745
200000000000000000007700,1,1479871573498342,1479871573498342,1,3.25,12288,-40.0,865.7,5.5530105
200000000000000000007700,1,1479871573508391,1479871573508391,1,3.25,12288,-40.0,865.7,5.5407386
200000000000000000007700,1,1479871573519689,1479871573519689,1,5.6875,12288,-40.5,865.7,5.5284667
200000000000000000007700,1,1479871573530126,1479871573530126,1,-3.25,12288,-40.5,865.7,5.5591464
200000000000000000007700,1,1479871573540011,1479871573540011,1,-5.6875,12288,-40.5,865.7,5.5652823
200000000000000000007700,1,1479871573550136,1479871573550136,1,-1.625,12288,-40.0,865.7,5.5468745
200000000000000000007700,1,1479871573560132,1479871573560132,1,0.0,12288,-40.5,865.7,5.5407386
200000000000000000007700,1,1479871573571371,1479871573571371,1,0.0,12288,-40.5,865.7,5.5468745
200000000000000000007700,1,1479871573581452,1479871573581452,1,-4.875,12288,-40.5,865.7,5.5714183
200000000000000000007700,1,1479871573593106,1479871573593106,1,3.25,12288,-40.5,865.7,5.5468745
200000000000000000007700,1,1479871573603317,1479871573603317,1,0.0,12288,-40.5,865.7,5.5468745
200000000000000000007700,1,1479871573613204,1479871573613204,1,-1.625,12288,-40.5,865.7,5.5346026
200000000000000000007700,1,1479871573624391,1479871573624391,1,-1.625,12288,-40.5,865.7,5.5468745
200000000000000000007700,1,1479871573634448,1479871573634448,1,3.25,12288,-40.5,865.7,5.5346026
200000000000000000007700,1,1479871573644863,1479871573644863,1,1.625,12288,-40.5,865.7,5.5346026
200000000000000000007700,1,1479871573654871,1479871573654871,1,-3.25,12288,-41.0,865.7,5.5407386
200000000000000000007700,1,1479871573665272,1479871573665272,1,0.0,12288,-40.5,865.7,5.516195
200000000000000000007700,1,1479871573675391,1479871573675391,1,4.875,12288,-41.0,865.7,5.510059
200000000000000000007700,1,1479871573685526,1479871573685526,1,-3.25,12288,-40.5,865.7,5.5223308
200000000000000000007700,1,1479871573695531,1479871573695531,1,4.875,12288,-41.0,865.7,5.503923
200000000000000000007700,1,1479871573707282,1479871573707282,1,-5.6875,12288,-41.0,865.7,5.5284667
200000000000000000007700,1,1479871573718749,1479871573718749,1,1.625,12288,-40.5,865.7,5.503923
200000000000000000007700,1,1479871573728816,1479871573728816,1,-4.875,12288,-41.0,865.7,5.491651
200000000000000000007700,1,1479871573739730,1479871573739730,1,0.0,12288,-41.0,865.7,5.491651
200000000000000000007700,1,1479871573751238,1479871573751238,1,0.0,12288,-41.0,865.7,5.479379
200000000000000000007700,1,1479871573761499,1479871573761499,1,0.0,12288,-41.0,865.7,5.479379
200000000000000000007700,1,1479871573771718,1479871573771718,1,0.0,12288,-41.0,865.7,5.485515
200000000000000000007700,1,1479871573781838,1479871573781838,1,1.625,12288,-41.0,865.7,5.442564
200000000000000000007700,1,1479871573791971,1479871573791971,1,0.0,12288,-41.0,865.7,5.460972
200000000000000000007700,1,1479871573802187,1479871573802187,1,-1.625,12288,-41.0,865.7,5.454836
200000000000000000007700,1,1479871573812206,1479871573812206,1,-3.25,12288,-41.5,865.7,5.454836
200000000000000000007700,1,1479871573822648,1479871573822648,1,3.25,12288,-41.5,865.7,5.436428
200000000000000000007700,1,1479871573832908,1479871573832908,1,3.25,12288,-41.5,865.7,5.4118843
200000000000000000007700,1,1479871573842830,1479871573842830,1,1.625,12288,-41.5,865.7,5.424156
200000000000000000007700,1,1479871573853307,1479871573853307,1,-4.875,12288,-41.5,865.7,5.436428
200000000000000000007700,1,1479871573863353,1479871573863353,1,-4.875,12288,-41.5,865.7,5.430292
200000000000000000007700,1,1479871573873630,1479871573873630,1,-3.25,12288,-42.0,865.7,5.436428
200000000000000000007700,1,1479871573883895,1479871573883895,1,8.9375,12288,-42.0,865.7,5.3750687
200000000000000000007700,1,1479871573894005,1479871573894005,1,0.0,12288,-42.0,865.7,5.4057484
200000000000000000007700,1,1479871573903807,1479871573903807,1,4.875,12288,-41.5,865.7,5.3812046
200000000000000000007700,1,1479871573913885,1479871573913885,1,3.25,12288,-42.0,865.7,5.3750687
200000000000000000007700,1,1479871573924035,1479871573924035,1,13.0,12288,-42.0,865.7,5.344389
200000000000000000007700,1,1479871573935626,1479871573935626,1,0.0,12288,-42.0,865.7,5.3873405
200000000000000000007700,1,1479871573945739,1479871573945739,1,-5.6875,12288,-42.5,865.7,5.3996124
200000000000000000007700,1,1479871573956228,1479871573956228,1,-5.6875,12288,-42.5,865.7,5.4057484
200000000000000000007700,1,1479871573966065,1479871573966065,1,7.3125,12288,-42.0,865.7,5.350525
200000000000000000007700,1,1479871573976250,1479871573976250,1,5.6875,12288,-42.0,865.7,5.356661
200000000000000000007700,1,1479871573986130,1479871573986130,1,5.6875,12288,-42.0,865.7,5.344389
200000000000000000007700,1,1479871573996405,1479871573996405,1,7.3125,12288,-42.5,865.7,5.332117
200000000000000000007700,1,1479871574006299,1479871574006299,1,5.6875,12288,-42.0,865.7,5.332117
200000000000000000007700,1,1479871574019626,1479871574019626,1,1.625,12288,-42.5,865.7,5.344389
200000000000000000007700,1,1479871574031008,1479871574031008,1,3.25,12288,-42.5,865.7,5.350525
200000000000000000007700,1,1479871574041308,1479871574041308,1,4.875,12288,-42.5,865.7,5.325981
200000000000000000007700,1,1479871574051483,1479871574051483,1,-1.625,12288,-42.5,865.7,5.344389
200000000000000000007700,1,1479871574061400,1479871574061400,1,5.6875,12288,-42.5,865.7,5.325981
200000000000000000007700,1,1479871574071780,1479871574071780,1,12.1875,12288,-42.5,865.7,5.3075733
200000000000000000007700,1,1479871574081743,1479871574081743,1,0.0,12288,-42.0,865.7,5.356661
200000000000000000007700,1,1479871574091962,1479871574091962,1,-3.25,12288,-42.5,865.7,5.362797
200000000000000000007700,1,1479871574102560,1479871574102560,1,5.6875,12288,-42.5,865.7,5.319845
200000000000000000007700,1,1479871574112435,1479871574112435,1,1.625,12288,-42.0,865.7,5.332117
200000000000000000007700,1,1479871574122523,1479871574122523,1,4.875,12288,-42.5,865.7,5.325981
200000000000000000007700,1,1479871574132912,1479871574132912,1,5.6875,12288,-42.0,865.7,5.325981
200000000000000000007700,1,1479871574142893,1479871574142893,1,3.25,12288,-42.0,865.7,5.325981
200000000000000000007700,1,1479871574153020,1479871574153020,1,23.5625,12288,-42.5,865.7,5.2400784
200000000000000000007700,1,1479871574163083,1479871574163083,1,4.875,12288,-42.5,865.7,5.3137093
200000000000000000007700,1,1479871574173031,1479871574173031,1,4.875,12288,-42.5,865.7,5.319845
200000000000000000007700,1,1479871574184909,1479871574184909,1,1.625,12288,-42.5,865.7,5.319845
200000000000000000007700,1,1479871574195201,1479871574195201,1,7.3125,12288,-42.5,865.7,5.3137093
200000000000000000007700,1,1479871574205010,1479871574205010,1,3.25,12288,-42.5,865.7,5.3075733
200000000000000000007700,1,1479871574215394,1479871574215394,1,3.25,12288,-42.5,865.7,5.3014374
200000000000000000007700,1,1479871574225362,1479871574225362,1,1.625,12288,-42.5,865.7,5.319845
200000000000000000007700,1,1479871574235582,1479871574235582,1,3.25,12288,-42.5,865.7,5.3014374
200000000000000000007700,1,1479871574245484,1479871574245484,1,7.3125,12288,-42.5,865.7,5.3014374
200000000000000000007700,1,1479871574255478,1479871574255478,1,3.25,12288,-42.5,865.7,5.3075733
200000000000000000007700,1,1479871574265502,1479871574265502,1,1.625,12288,-42.5,865.7,5.3075733
200000000000000000007700,1,1479871574275545,1479871574275545,1,1.625,12288,-42.5,865.7,5.3137093
200000000000000000007700,1,1479871574285578,1479871574285578,1,3.25,12288,-42.5,865.7,5.295302
200000000000000000007700,1,1479871574295574,1479871574295574,1,7.3125,12288,-42.5,865.7,5.295302
200000000000000000007700,1,1479871574305633,1479871574305633,1,13.0,12288,-43.0,865.7,5.276894
200000000000000000007700,1,1479871574315596,1479871574315596,1,3.25,12288,-42.5,865.7,5.3137093
200000000000000000007700,1,1479871574325985,1479871574325985,1,5.6875,12288,-42.5,865.7,5.289166
200000000000000000007700,1,1479871574336056,1479871574336056,1,4.875,12288,-42.5,865.7,5.295302
200000000000000000007700,1,1479871574346179,1479871574346179,1,3.25,12288,-42.5,865.7,5.3075733
200000000000000000007700,1,1479871574356493,1479871574356493,1,3.25,12288,-43.0,865.7,5.295302
200000000000000000007700,1,1479871574366302,1479871574366302,1,8.9375,12288,-42.5,865.7,5.28303
200000000000000000007700,1,1479871574376641,1479871574376641,1,5.6875,12288,-42.5,865.7,5.289166
200000000000000000007700,1,1479871574386828,1479871574386828,1,3.25,12288,-42.5,865.7,5.3014374
200000000000000000007700,1,1479871574396773,1479871574396773,1,8.9375,12288,-42.5,865.7,5.270758
200000000000000000007700,1,1479871574406860,1479871574406860,1,7.3125,12288,-42.5,865.7,5.264622
200000000000000000007700,1,1479871574417063,1479871574417063,1,0.0,12288,-42.5,865.7,5.3014374
200000000000000000007700,1,1479871574427016,1479871574427016,1,3.25,12288,-42.5,865.7,5.295302
200000000000000000007700,1,1479871574437092,1479871574437092,1,0.0,12288,-42.5,865.7,5.3014374
200000000000000000007700,1,1479871574447326,1479871574447326,1,4.875,12288,-42.5,865.7,5.270758
200000000000000000007700,1,1479871574457460,1479871574457460,1,10.5625,12288,-42.5,865.7,5.264622
200000000000000000007700,1,1479871574467521,1479871574467521,1,3.25,12288,-42.5,865.7,5.28303
200000000000000000007700,1,1479871574478004,1479871574478004,1,8.9375,12288,-42.5,865.7,5.2584863
200000000000000000007700,1,1479871574488207,1479871574488207,1,8.9375,12288,-42.5,865.7,5.270758
200000000000000000007700,1,1479871574498184,1479871574498184,1,5.6875,12288,-42.5,865.7,5.270758
200000000000000000007700,1,1479871574508572,1479871574508572,1,7.3125,12288,-43.0,865.7,5.264622
200000000000000000007700,1,1479871574519656,1479871574519656,1,0.0,12288,-42.5,865.7,5.289166
200000000000000000007700,1,1479871574530013,1479871574530013,1,1.625,12288,-42.5,865.7,5.28303
200000000000000000007700,1,1479871574540193,1479871574540193,1,1.625,12288,-42.5,865.7,5.276894
200000000000000000007700,1,1479871574550241,1479871574550241,1,8.9375,12288,-42.5,865.7,5.276894
200000000000000000007700,1,1479871574560535,1479871574560535,1,4.875,12288,-42.5,865.7,5.270758
200000000000000000007700,1,1479871574571820,1479871574571820,1,0.0,12288,-42.5,865.7,5.28303
200000000000000000007700,1,1479871574582201,1479871574582201,1,4.875,12288,-42.5,865.7,5.264622
200000000000000000007700,1,1479871574592002,1479871574592002,1,12.1875,12288,-42.5,865.7,5.2400784
200000000000000000007700,1,1479871574602618,1479871574602618,1,10.5625,12288,-43.0,865.7,5.264622
200000000000000000007700,1,1479871574612701,1479871574612701,1,8.9375,12288,-42.5,865.7,5.2584863
200000000000000000007700,1,1479871574622989,1479871574622989,1,0.0,12288,-42.5,865.7,5.276894
200000000000000000007700,1,1479871574633259,1479871574633259,1,5.6875,12288,-42.5,865.7,5.264622
200000000000000000007700,1,1479871574643416,1479871574643416,1,5.6875,12288,-42.5,865.7,5.270758
200000000000000000007700,1,1479871574654462,1479871574654462,1,5.6875,12288,-42.5,865.7,5.270758
200000000000000000007700,1,1479871574664725,1479871574664725,1,3.25,12288,-42.5,865.7,5.270758
200000000000000000007700,1,1479871574674927,1479871574674927,1,-1.625,12288,-42.5,865.7,5.276894
200000000000000000007700,1,1479871574685453,1479871574685453,1,3.25,12288,-42.5,865.7,5.264622
200000000000000000007700,1,1479871574695334,1479871574695334,1,7.3125,12288,-42.5,865.7,5.2584863
200000000000000000007700,1,1479871574707122,1479871574707122,1,4.875,12288,-42.5,865.7,5.2462144
200000000000000000007700,1,1479871574717056,1479871574717056,1,5.6875,12288,-42.5,865.7,5.2523503
200000000000000000007700,1,1479871574727413,1479871574727413,1,0.0,12288,-42.5,865.7,5.276894
200000000000000000007700,1,1479871574739030,1479871574739030,1,4.875,12288,-42.5,865.7,5.264622
200000000000000000007700,1,1479871574749199,1479871574749199,1,12.1875,12288,-42.5,865.7,5.2216706
200000000000000000007700,1,1479871574759604,1479871574759604,1,7.3125,12288,-42.5,865.7,5.2462144
200000000000000000007700,1,1479871574769690,1479871574769690,1,0.0,12288,-43.0,865.7,5.270758
200000000000000000007700,1,1479871574779587,1479871574779587,1,0.0,12288,-42.5,865.7,5.2523503
200000000000000000007700,1,1479871574790051,1479871574790051,1,10.5625,12288,-43.0,865.7,5.2462144
200000000000000000007700,1,1479871574800292,1479871574800292,1,7.3125,12288,-43.0,865.7,5.2584863
200000000000000000007700,1,1479871574810375,1479871574810375,1,5.6875,12288,-42.5,865.7,5.2462144
200000000000000000007700,1,1479871574820306,1479871574820306,1,4.875,12288,-42.5,865.7,5.264622
200000000000000000007700,1,1479871574830553,1479871574830553,1,4.875,12288,-42.5,865.7,5.2462144
200000000000000000007700,1,1479871574840429,1479871574840429,1,3.25,12288,-43.0,865.7,5.270758
200000000000000000007700,1,1479871574850563,1479871574850563,1,13.0,12288,-42.5,865.7,5.2155347
200000000000000000007700,1,1479871574861058,1479871574861058,1,-3.25,12288,-42.5,865.7,5.289166
200000000000000000007700,1,1479871574871315,1479871574871315,1,4.875,12288,-42.5,865.7,5.2523503
200000000000000000007700,1,1479871574881430,1479871574881430,1,13.0,12288,-42.5,865.7,5.2216706
200000000000000000007700,1,1479871574892746,1479871574892746,1,0.0,12288,-43.0,865.7,5.2523503
200000000000000000007700,1,1479871574902608,1479871574902608,1,1.625,12288,-42.5,865.7,5.2523503
200000000000000000007700,1,1479871574913673,1479871574913673,1,7.3125,12288,-42.5,865.7,5.2278066
200000000000000000007700,1,1479871574924048,1479871574924048,1,-7.3125,12288,-43.0,865.7,5.289166
200000000000000000007700,1,1479871574934226,1479871574934226,1,-1.625,12288,-42.5,865.7,5.264622
200000000000000000007700,1,1479871574944176,1479871574944176,1,-1.625,12288,-42.5,865.7,5.270758
200000000000000000007700,1,1479871574954377,1479871574954377,1,1.625,12288,-42.5,865.7,5.2462144
200000000000000000007700,1,1479871574964730,1479871574964730,1,4.875,12288,-42.5,865.7,5.2278066
200000000000000000007700,1,1479871574974926,1479871574974926,1,7.3125,12288,-42.5,865.7,5.2216706
200000000000000000007700,1,1479871574984771,1479871574984771,1,5.6875,12288,-43.0,865.7,5.2400784
200000000000000000007700,1,1479871574995217,1479871574995217,1,5.6875,12288,-42.5,865.7,5.2400784
200000000000000000007700,1,1479871575005064,1479871575005064,1,4.875,12288,-42.5,865.7,5.2278066
200000000000000000007700,1,1479871575015481,1479871575015481,1,-1.625,12288,-42.5,865.7,5.270758
200000000000000000007700,1,1479871575025274,1479871575025274,1,4.875,12288,-42.5,865.7,5.2400784
200000000000000000007700,1,1479871575035682,1479871575035682,1,12.1875,12288,-42.5,865.7,5.2093987
200000000000000000007700,1,1479871575045584,1479871575045584,1,1.625,12288,-43.0,865.7,5.2339425
200000000000000000007700,1,1479871575055911,1479871575055911,1,-1.625,12288,-43.0,865.7,5.2400784
200000000000000000007700,1,1479871575066008,1479871575066008,1,7.3125,12288,-42.5,865.7,5.2278066
200000000000000000007700,1,1479871575076027,1479871575076027,1,1.625,12288,-43.0,865.7,5.2339425
200000000000000000007700,1,1479871575086222,1479871575086222,1,7.3125,12288,-42.5,865.7,5.2093987
200000000000000000007700,1,1479871575096070,1479871575096070,1,4.875,12288,-43.0,865.7,5.2400784
200000000000000000007700,1,1479871575106167,1479871575106167,1,3.25,12288,-42.5,865.7,5.2462144
200000000000000000007700,1,1479871575116481,1479871575116481,1,3.25,12288,-43.0,865.7,5.2400784
200000000000000000007700,1,1479871575126283,1479871575126283,1,8.9375,12288,-42.5,865.7,5.2155347
200000000000000000007700,1,1479871575136628,1479871575136628,1,13.0,12288,-42.5,865.7,5.197127
200000000000000000007700,1,1479871575146592,1479871575146592,1,8.9375,12288,-42.5,865.7,5.2155347
200000000000000000007700,1,1479871575156923,1479871575156923,1,7.3125,12288,-42.5,865.7,5.2216706
200000000000000000007700,1,1479871575167154,1479871575167154,1,14.625,12288,-43.0,865.7,5.203263
200000000000000000007700,1,1479871575177545,1479871575177545,1,7.3125,12288,-42.5,865.7,5.2093987
200000000000000000007700,1,1479871575189230,1479871575189230,1,4.875,12288,-42.5,865.7,5.2216706
200000000000000000007700,1,1479871575199406,1479871575199406,1,10.5625,12288,-42.5,865.7,5.203263
200000000000000000007700,1,1479871575209621,1479871575209621,1,0.0,12288,-42.5,865.7,5.2400784
200000000000000000007700,1,1479871575219503,1479871575219503,1,0.0,12288,-43.0,865.7,5.2155347
200000000000000000007700,1,1479871575229553,1479871575229553,1,3.25,12288,-43.0,865.7,5.2093987
200000000000000000007700,1,1479871575240070,1479871575240070,1,4.875,12288,-42.5,865.7,5.2093987
200000000000000000007700,1,1479871575249994,1479871575249994,1,5.6875,12288,-43.0,865.7,5.2216706
200000000000000000007700,1,1479871575260374,1479871575260374,1,5.6875,12288,-42.5,865.7,5.2216706
200000000000000000007700,1,1479871575270364,1479871575270364,1,4.875,12288,-42.5,865.7,5.2093987
200000000000000000007700,1,1479871575280424,1479871575280424,1,7.3125,12288,-43.0,865.7,5.2093987
200000000000000000007700,1,1479871575290305,1479871575290305,1,8.9375,12288,-43.0,865.7,5.2093987
200000000000000000007700,1,1479871575300418,1479871575300418,1,1.625,12288,-43.0,865.7,5.2155347
200000000000000000007700,1,1479871575310545,1479871575310545,1,-3.25,12288,-42.5,865.7,5.2523503
200000000000000000007700,1,1479871575320737,1479871575320737,1,0.0,12288,-42.5,865.7,5.2278066
200000000000000000007700,1,1479871575330996,1479871575330996,1,8.9375,12288,-43.0,865.7,5.2093987
200000000000000000007700,1,1479871575341161,1479871575341161,1,1.625,12288,-43.0,865.7,5.2278066
200000000000000000007700,1,1479871575351143,1479871575351143,1,1.625,12288,-43.0,865.7,5.203263
200000000000000000007700,1,1479871575361420,1479871575361420,1,-1.625,12288,-43.0,865.7,5.2400784
200000000000000000007700,1,1479871575371581,1479871575371581,1,0.0,12288,-43.0,865.7,5.2278066
200000000000000000007700,1,1479871575383257,1479871575383257,1,5.6875,12288,-42.5,865.7,5.203263
200000000000000000007700,1,1479871575393346,1479871575393346,1,12.1875,12288,-42.5,865.7,5.190991
200000000000000000007700,1,1479871575403491,1479871575403491,1,7.3125,12288,-42.5,865.7,5.2093987
200000000000000000007700,1,1479871575413876,1479871575413876,1,5.6875,12288,-42.5,865.7,5.203263
200000000000000000007700,1,1479871575423948,1479871575423948,1,5.6875,12288,-42.5,865.7,5.203263
200000000000000000007700,1,1479871575434234,1479871575434234,1,8.9375,12288,-43.0,865.7,5.197127
200000000000000000007700,1,1479871575444387,1479871575444387,1,1.625,12288,-43.0,865.7,5.2278066
200000000000000000007700,1,1479871575454534,1479871575454534,1,5.6875,12288,-42.5,865.7,5.197127
200000000000000000007700,1,1479871575464650,1479871575464650,1,3.25,12288,-42.5,865.7,5.2278066
200000000000000000007700,1,1479871575474559,1479871575474559,1,3.25,12288,-43.0,865.7,5.190991
200000000000000000007700,1,1479871575484774,1479871575484774,1,1.625,12288,-43.0,865.7,5.197127
200000000000000000007700,1,1479871575503243,1479871575503243,1,1.625,12288,-43.0,865.7,5.2093987
200000000000000000007700,1,1479871575513124,1479871575513124,1,1.625,12288,-43.0,865.7,5.2155347
200000000000000000007700,1,1479871575523352,1479871575523352,1,0.0,12288,-43.0,865.7,5.2278066
200000000000000000007700,1,1479871575533756,1479871575533756,1,3.25,12288,-42.5,865.7,5.190991
200000000000000000007700,1,1479871575543929,1479871575543929,1,7.3125,12288,-43.0,865.7,5.190991
200000000000000000007700,1,1479871575553857,1479871575553857,1,4.875,12288,-42.5,865.7,5.197127
200000000000000000007700,1,1479871575564183,1479871575564183,1,3.25,12288,-42.5,865.7,5.203263
200000000000000000007700,1,1479871575574249,1479871575574249,1,4.875,12288,-42.5,865.7,5.197127
200000000000000000007700,1,1479871575584589,1479871575584589,1,-1.625,12288,-43.0,865.7,5.203263
200000000000000000007700,1,1479871575594673,1479871575594673,1,5.6875,12288,-42.5,865.7,5.178719
200000000000000000007700,1,1479871575604536,1479871575604536,1,7.3125,12288,-43.0,865.7,5.184855
200000000000000000007700,1,1479871575614652,1479871575614652,1,1.625,12288,-42.5,865.7,5.190991
200000000000000000007700,1,1479871575624961,1479871575624961,1,5.6875,12288,-42.5,865.7,5.190991
200000000000000000007700,1,1479871575636863,1479871575636863,1,3.25,12288,-43.0,865.7,5.203263
200000000000000000007700,1,1479871575646730,1479871575646730,1,4.875,12288,-42.5,865.7,5.184855
200000000000000000007700,1,1479871575656878,1479871575656878,1,0.0,12288,-43.0,865.7,5.184855
200000000000000000007700,1,1479871575668601,1479871575668601,1,5.6875,12288,-42.5,865.7,5.190991
200000000000000000007700,1,1479871575678318,1479871575678318,1,7.3125,12288,-42.5,865.7,5.1541753
200000000000000000007700,1,1479871575688450,1479871575688450,1,1.625,12288,-42.5,865.7,5.190991
200000000000000000007700,1,1479871575698546,1479871575698546,1,4.875,12288,-43.0,865.7,5.172583
200000000000000000007700,1,1479871575708777,1479871575708777,1,4.875,12288,-42.5,865.7,5.166447
200000000000000000007700,1,1479871575718910,1479871575718910,1,7.3125,12288,-42.5,865.7,5.166447
200000000000000000007700,1,1479871575729084,1479871575729084,1,7.3125,12288,-42.5,865.7,5.160311
200000000000000000007700,1,1479871575739246,1479871575739246,1,3.25,12288,-43.0,865.7,5.178719
200000000000000000007700,1,1479871575749549,1479871575749549,1,14.625,12288,-43.0,865.7,5.1419034
200000000000000000007700,1,1479871575759442,1479871575759442,1,7.3125,12288,-43.0,865.7,5.160311
200000000000000000007700,1,1479871575769774,1479871575769774,1,1.625,12288,-42.5,865.7,5.172583
200000000000000000007700,1,1479871575779667,1479871575779667,1,8.9375,12288,-42.5,865.7,5.1480393
200000000000000000007700,1,1479871575789838,1479871575789838,1,3.25,12288,-43.0,865.7,5.166447
200000000000000000007700,1,1479871575800312,1479871575800312,1,-3.25,12288,-42.5,865.7,5.190991
200000000000000000007700,1,1479871575810381,1479871575810381,1,4.875,12288,-42.5,865.7,5.166447
200000000000000000007700,1,1479871575820473,1479871575820473,1,1.625,12288,-42.5,865.7,5.178719
200000000000000000007700,1,1479871575830356,1479871575830356,1,21.9375,12288,-42.5,865.7,5.111224
200000000000000000007700,1,1479871575840687,1479871575840687,1,7.3125,12288,-42.5,865.7,5.178719
200000000000000000007700,1,1479871575850955,1479871575850955,1,10.5625,12288,-42.5,865.7,5.1480393
200000000000000000007700,1,1479871575860952,1479871575860952,1,1.625,12288,-42.5,865.7,5.190991
200000000000000000007700,1,1479871575871316,1479871575871316,1,4.875,12288,-43.0,865.7,5.166447
200000000000000000007700,1,1479871575883100,1479871575883100,1,13.0,12288,-43.0,865.7,5.1541753
200000000000000000007700,1,1479871575893108,1479871575893108,1,5.6875,12288,-42.5,865.7,5.184855
200000000000000000007700,1,1479871575903435,1479871575903435,1,7.3125,12288,-42.5,865.7,5.178719
200000000000000000007700,1,1479871575913530,1479871575913530,1,5.6875,12288,-42.5,865.7,5.166447
200000000000000000007700,1,1479871575923722,1479871575923722,1,5.6875,12288,-42.5,865.7,5.166447
200000000000000000007700,1,1479871575933931,1479871575933931,1,4.875,12288,-42.5,865.7,5.166447
200000000000000000007700,1,1479871575943831,1479871575943831,1,5.6875,12288,-42.5,865.7,5.1480393
200000000000000000007700,1,1479871575954328,1479871575954328,1,1.625,12288,-42.5,865.7,5.172583
200000000000000000007700,1,1479871575964361,1479871575964361,1,12.1875,12288,-42.5,865.7,5.1296315
200000000000000000007700,1,1479871575974249,1479871575974249,1,-1.625,12288,-42.5,865.7,5.178719
200000000000000000007700,1,1479871575984651,1479871575984651,1,3.25,12288,-42.5,865.7,5.166447
200000000000000000007700,1,1479871575994716,1479871575994716,1,4.875,12288,-42.5,865.7,5.178719
200000000000000000007700,1,1479871576006741,1479871576006741,1,3.25,12288,-43.0,865.7,5.172583
200000000000000000007700,1,1479871576018541,1479871576018541,1,1.625,12288,-42.5,865.7,5.184855
200000000000000000007700,1,1479871576028642,1479871576028642,1,3.25,12288,-42.5,865.7,5.178719
200000000000000000007700,1,1479871576040248,1479871576040248,1,8.9375,12288,-42.5,865.7,5.1541753
200000000000000000007700,1,1479871576050473,1479871576050473,1,5.6875,12288,-42.5,865.7,5.160311
200000000000000000007700,1,1479871576060439,1479871576060439,1,7.3125,12288,-42.5,865.7,5.166447
200000000000000000007700,1,1479871576070541,1479871576070541,1,3.25,12288,-42.5,865.7,5.172583
200000000000000000007700,1,1479871576081005,1479871576081005,1,4.875,12288,-42.5,865.7,5.166447
200000000000000000007700,1,1479871576091084,1479871576091084,1,3.25,12288,-42.5,865.7,5.172583
200000000000000000007700,1,1479871576101015,1479871576101015,1,0.0,12288,-42.5,865.7,5.178719
200000000000000000007700,1,1479871576111166,1479871576111166,1,7.3125,12288,-42.5,865.7,5.1480393
200000000000000000007700,1,1479871576121269,1479871576121269,1,1.625,12288,-42.5,865.7,5.184855
200000000000000000007700,1,1479871576131612,1479871576131612,1,0.0,12288,-42.0,865.7,5.184855
200000000000000000007700,1,1479871576141449,1479871576141449,1,8.9375,12288,-42.5,865.7,5.1541753
200000000000000000007700,1,1479871576151809,1479871576151809,1,8.9375,12288,-42.0,865.7,5.1541753
200000000000000000007700,1,1479871576161626,1479871576161626,1,8.9375,12288,-42.5,865.7,5.1541753
200000000000000000007700,1,1479871576171694,1479871576171694,1,5.6875,12288,-42.5,865.7,5.1541753
200000000000000000007700,1,1479871576182176,1479871576182176,1,1.625,12288,-42.5,865.7,5.190991
200000000000000000007700,1,1479871576192171,1479871576192171,1,4.875,12288,-42.0,865.7,5.166447
200000000000000000007700,1,1479871576202538,1479871576202538,1,4.875,12288,-42.5,865.7,5.166447
200000000000000000007700,1,1479871576212999,1479871576212999,1,12.1875,12288,-42.5,865.7,5.1419034
200000000000000000007700,1,1479871576223053,1479871576223053,1,0.0,12288,-42.5,865.7,5.178719
200000000000000000007700,1,1479871576233073,1479871576233073,1,3.25,12288,-42.0,865.7,5.172583
200000000000000000007700,1,1479871576243542,1479871576243542,1,12.1875,12288,-42.5,865.7,5.1480393
200000000000000000007700,1,1479871576253518,1479871576253518,1,3.25,12288,-42.5,865.7,5.172583
200000000000000000007700,1,1479871576264113,1479871576264113,1,-3.25,12288,-42.0,865.7,5.197127
200000000000000000007700,1,1479871576274365,1479871576274365,1,0.0,12288,-42.5,865.7,5.197127
200000000000000000007700,1,1479871576284353,1479871576284353,1,0.0,12288,-42.5,865.7,5.190991
200000000000000000007700,1,1479871576295962,1479871576295962,1,10.5625,12288,-42.5,865.7,5.160311
200000000000000000007700,1,1479871576306362,1479871576306362,1,4.875,12288,-42.0,865.7,5.178719
200000000000000000007700,1,1479871576316772,1479871576316772,1,0.0,12288,-42.0,865.7,5.197127
200000000000000000007700,1,1479871576326704,1479871576326704,1,5.6875,12288,-42.0,865.7,5.178719
200000000000000000007700,1,1479871576336777,1479871576336777,1,8.9375,12288,-41.0,865.7,5.264622
200000000000000000007700,1,1479871576347179,1479871576347179,1,4.875,12288,-39.5,865.7,5.479379
200000000000000000007700,1,1479871576357317,1479871576357317,1,-1.625,12288,-37.0,865.7,5.835263
200000000000000000007700,1,1479871576368367,1479871576368367,1,4.875,12288,-36.5,865.7,5.970253
200000000000000000007700,1,1479871576380085,1479871576380085,1,5.6875,12288,-36.0,865.7,5.976389
200000000000000000007700,1,1479871576391485,1479871576391485,1,1.625,12288,-36.5,865.7,6.0377483
200000000000000000007700,1,1479871576401579,1479871576401579,1,0.0,12288,-36.5,865.7,6.05002
200000000000000000007700,1,1479871576411725,1479871576411725,1,-1.625,12288,-36.0,865.7,6.062292
200000000000000000007700,1,1479871576421914,1479871576421914,1,1.625,12288,-36.5,865.7,6.0438843
200000000000000000007700,1,1479871576431759,1479871576431759,1,3.25,12288,-36.0,865.7,6.0316124
200000000000000000007700,1,1479871576441960,1479871576441960,1,-4.875,12288,-36.5,865.7,6.0438843
200000000000000000007700,1,1479871576452064,1479871576452064,1,0.0,12288,-36.0,865.7,6.0254765
200000000000000000007700,1,1479871576463347,1479871576463347,1,4.875,12288,-36.5,865.7,6.0193405
200000000000000000007700,1,1479871576474789,1479871576474789,1,0.0,12288,-36.0,865.7,6.0193405
200000000000000000007700,1,1479871576484882,1479871576484882,1,3.25,12288,-36.5,865.7,6.0254765
200000000000000000007700,1,1479871576497829,1479871576497829,1,4.875,12288,-36.5,865.7,6.0070686
200000000000000000007700,1,1479871576509617,1479871576509617,1,4.875,12288,-36.5,865.7,6.0132046
200000000000000000007700,1,1479871576520060,1479871576520060,1,0.0,12288,-36.5,865.7,6.0132046
200000000000000000007700,1,1479871576530025,1479871576530025,1,1.625,12288,-36.0,865.7,6.0193405
200000000000000000007700,1,1479871576541844,1479871576541844,1,4.875,12288,-36.0,865.7,6.0070686
200000000000000000007700,1,1479871576552105,1479871576552105,1,3.25,12288,-36.0,865.7,6.0193405
200000000000000000007700,1,1479871576562106,1479871576562106,1,0.0,12288,-36.0,865.7,6.0254765
200000000000000000007700,1,1479871576573482,1479871576573482,1,0.0,12288,-36.0,865.7,6.0254765
200000000000000000007700,1,1479871576583790,1479871576583790,1,-1.625,12288,-36.0,865.7,6.0377483
200000000000000000007700,1,1479871576594728,1479871576594728,1,-4.875,12288,-36.0,865.7,6.056156
200000000000000000007700,1,1479871576604834,1479871576604834,1,3.25,12288,-36.5,865.7,6.0254765
200000000000000000007700,1,1479871576615035,1479871576615035,1,-4.875,12288,-36.0,865.7,6.05002
200000000000000000007700,1,1479871576625425,1479871576625425,1,-7.3125,12288,-36.0,865.7,6.062292
200000000000000000007700,1,1479871576635285,1479871576635285,1,4.875,12288,-36.5,865.7,6.0193405
200000000000000000007700,1,1479871576645399,1479871576645399,1,-4.875,12288,-36.5,865.7,6.0377483
200000000000000000007700,1,1479871576655509,1479871576655509,1,4.875,12288,-36.5,865.7,6.0132046
200000000000000000007700,1,1479871576667320,1479871576667320,1,-3.25,12288,-36.5,865.7,6.0316124
200000000000000000007700,1,1479871576677539,1479871576677539,1,1.625,12288,-36.5,865.7,6.0132046
200000000000000000007700,1,1479871576687358,1479871576687358,1,4.875,12288,-36.0,865.7,6.0254765
200000000000000000007700,1,1479871576697702,1479871576697702,1,-3.25,12288,-36.5,865.7,6.0377483
200000000000000000007700,1,1479871576707902,1479871576707902,1,1.625,12288,-36.5,865.7,6.0316124
200000000000000000007700,1,1479871576718039,1479871576718039,1,3.25,12288,-36.0,865.7,6.0254765
200000000000000000007700,1,1479871576728224,1479871576728224,1,0.0,12288,-36.5,865.7,6.0316124
200000000000000000007700,1,1479871576739147,1479871576739147,1,-1.625,12288,-36.0,865.7,6.0438843
200000000000000000007700,1,1479871576750294,1479871576750294,1,-3.25,12288,-36.5,865.7,6.0377483
200000000000000000007700,1,1479871576760399,1479871576760399,1,-5.6875,12288,-36.5,865.7,6.056156
200000000000000000007700,1,1479871576772410,1479871576772410,1,0.0,12288,-36.5,865.7,6.0377483
200000000000000000007700,1,1479871576782349,1479871576782349,1,0.0,12288,-36.5,865.7,6.0377483
