-39.5,0.6442719309119693,5.6875
-40.0,0.662679700366597,1.625
-40.0,0.6442719309119693,7.3125
-40.0,0.6810874698212247,0.0
-40.0,0.6933593161243098,0.0
-40.0,0.6872233929727672,0.8125
-40.0,0.6749515466696822,0.8125
-40.0,0.6749515466696822,2.4375
-40.0,0.6810874698212247,0.8125
-40.0,0.6872233929727672,-0.8125
-40.0,0.662679700366597,1.625
-40.0,0.6994952392758523,-2.4375
-40.0,0.6565437772150544,4.875
-40.0,0.6504078540635119,5.6875
-40.0,0.6810874698212247,2.4375
-40.0,0.6749515466696822,1.625
-40.0,0.6749515466696822,4.875
-40.0,0.6565437772150544,6.5
-39.5,0.6933593161243098,0.0
-40.0,0.6504078540635119,5.6875
-40.0,0.6749515466696822,3.25
-39.5,0.6442719309119693,2.4375
-39.5,0.6381360077604268,5.6875
-39.5,0.662679700366597,1.625
-39.5,0.6381360077604268,3.25
-39.5,0.607456392002714,8.125
-39.5,0.662679700366597,-2.4375
-39.5,0.6381360077604268,2.4375
-39.5,0.6381360077604268,0.8125
-39.5,0.6381360077604268,3.25
-39.5,0.6504078540635119,2.4375
-39.5,0.6320000846088841,4.875
-40.0,0.6504078540635119,1.625
-40.0,0.6504078540635119,4.875
-40.0,0.6749515466696822,0.8125
-40.0,0.662679700366597,5.6875
-40.5,0.6994952392758523,0.8125
-40.5,0.705631162427395,3.25
-40.5,0.705631162427395,5.6875
-40.5,0.7424467013366504,1.625
-40.5,0.7731263170943632,-0.8125
-40.5,0.7669903939428205,3.25
-41.0,0.7915340865489908,2.4375
-41.0,0.7976700097005334,1.625
-41.0,0.7976700097005334,0.8125
-41.0,0.7792622402459057,1.625
-40.5,0.7485826244881929,1.625
-41.0,0.7547185476397354,1.625
-40.5,0.7363107781851077,2.4375
-40.5,0.7363107781851077,2.4375
-40.5,0.7363107781851077,-0.8125
-40.5,0.6749515466696822,8.125
-40.5,0.6933593161243098,2.4375
-40.0,0.6442719309119693,7.3125
-40.5,0.6320000846088841,5.6875
-40.0,0.6504078540635119,3.25
-40.0,0.6258641614573416,7.3125
-40.0,0.6320000846088841,4.875
-40.0,0.6381360077604268,4.875
-40.5,0.6381360077604268,7.3125
-40.5,0.6994952392758523,1.625
-40.5,0.7117670855789375,3.25
-41.0,0.7179030087304801,5.6875
-41.0,0.7547185476397354,1.625
-41.0,0.760854470791278,3.25
-41.0,0.7669903939428205,-1.625
-40.5,0.7547185476397354,0.0
-40.5,0.7301748550335652,0.8125
-40.5,0.6933593161243098,0.8125
-40.5,0.662679700366597,6.5
-40.0,0.6320000846088841,6.5
-40.0,0.619728238305799,6.5
-40.0,0.607456392002714,6.5
-40.0,0.6135923151542565,2.4375
-40.0,0.6013204688511713,4.875
-39.5,0.5890486225480862,4.875
-39.5,0.5951845456996288,2.4375
-39.5,0.5829126993965437,4.875
-39.5,0.5522330836388308,11.375
-39.5,0.5706408530934585,6.5
-39.0,0.5890486225480862,2.4375
-39.0,0.5829126993965437,2.4375
-39.0,0.5829126993965437,0.8125
-39.0,0.5583690067903734,4.875
-39.0,0.5583690067903734,5.6875
-39.0,0.5767767762450011,3.25
-39.0,0.5460971604872883,4.875
-39.0,0.5645049299419159,2.4375
-38.5,0.5399612373357456,4.875
-38.5,0.5522330836388308,1.625
-38.5,0.5583690067903734,2.4375
-38.5,0.5399612373357456,4.875
-38.5,0.5522330836388308,3.25
-38.5,0.5460971604872883,2.4375
-38.5,0.5338253141842031,5.6875
-38.5,0.5338253141842031,4.875
-38.5,0.521553467881118,6.5
-38.5,0.5399612373357456,4.875
-38.0,0.5338253141842031,3.25
-38.5,0.5399612373357456,3.25
-38.5,0.5338253141842031,4.875
-38.5,0.5399612373357456,1.625
-38.5,0.5338253141842031,4.875
-38.5,0.5338253141842031,2.4375
-38.5,0.5522330836388308,0.8125
-38.5,0.5706408530934585,-1.625
-38.5,0.5276893910326605,4.875
-38.5,0.5338253141842031,1.625
-38.5,0.5276893910326605,5.6875
-38.5,0.5276893910326605,4.875
-38.5,0.5460971604872883,2.4375
-38.5,0.5338253141842031,3.25
-38.5,0.5276893910326605,6.5
-38.5,0.5154175447295755,4.875
-38.5,0.5154175447295755,4.875
-38.5,0.5338253141842031,2.4375
-38.0,0.5276893910326605,2.4375
-38.0,0.5092816215780329,6.5
-38.0,0.5154175447295755,6.5
-38.0,0.521553467881118,4.875
-38.0,0.5276893910326605,0.8125
-38.5,0.521553467881118,4.875
-38.0,0.5092816215780329,6.5
-38.0,0.5092816215780329,6.5
-38.0,0.5154175447295755,6.5
-38.5,0.521553467881118,5.6875
-38.5,0.5154175447295755,4.875
-38.5,0.5092816215780329,5.6875
-38.0,0.5399612373357456,0.8125
-38.0,0.5276893910326605,3.25
-38.0,0.5338253141842031,2.4375
-38.0,0.5338253141842031,3.25
-38.0,0.5338253141842031,0.8125
-38.0,0.5338253141842031,2.4375
-38.0,0.5338253141842031,3.25
-38.0,0.5338253141842031,2.4375
-38.0,0.5092816215780329,7.3125
-38.0,0.5338253141842031,2.4375
-38.5,0.521553467881118,5.6875
-38.0,0.5092816215780329,6.5
-38.0,0.5276893910326605,4.875
-38.0,0.5276893910326605,1.625
-38.5,0.5522330836388308,0.0
-38.0,0.5276893910326605,4.875
-38.5,0.5583690067903734,-1.625
-38.0,0.5154175447295755,8.125
-38.5,0.521553467881118,4.875
-38.5,0.5399612373357456,3.25
-38.5,0.5645049299419159,-1.625
-38.0,0.5522330836388308,0.8125
-38.5,0.5154175447295755,4.875
-38.0,0.5399612373357456,0.8125
-38.5,0.5522330836388308,1.625
-38.0,0.521553467881118,5.6875
-38.5,0.5276893910326605,5.6875
-38.5,0.5338253141842031,5.6875
-38.5,0.5460971604872883,3.25
-38.0,0.5276893910326605,5.6875
-38.5,0.5399612373357456,4.875
-38.5,0.521553467881118,6.5
-38.5,0.5706408530934585,-1.625
-38.5,0.5522330836388308,1.625
-38.5,0.5276893910326605,3.25
-38.0,0.5399612373357456,3.25
-38.5,0.5338253141842031,4.875
-38.0,0.5583690067903734,0.8125
-38.0,0.5092816215780329,10.5625
-38.5,0.5276893910326605,6.5
-38.0,0.5276893910326605,5.6875
-38.0,0.5276893910326605,3.25
-38.0,0.5460971604872883,1.625
-38.5,0.5154175447295755,8.125
-38.5,0.5583690067903734,1.625
-38.5,0.5338253141842031,4.875
-38.5,0.5338253141842031,3.25
-38.5,0.5583690067903734,0.8125
-38.5,0.5399612373357456,2.4375
-38.5,0.5399612373357456,4.875
-38.0,0.5399612373357456,3.25
-38.5,0.521553467881118,6.5
-38.0,0.5399612373357456,4.875
-38.5,0.521553467881118,6.5
-38.0,0.521553467881118,7.3125
-38.5,0.5399612373357456,3.25
-38.5,0.5276893910326605,4.875
-38.5,0.5154175447295755,6.5
-38.0,0.5276893910326605,6.5
-38.5,0.5338253141842031,4.875
-38.0,0.5583690067903734,-0.8125
-38.5,0.5338253141842031,3.25
-38.5,0.5583690067903734,1.625
-38.0,0.5399612373357456,1.625
-38.0,0.5460971604872883,0.8125
-38.5,0.5399612373357456,3.25
-38.0,0.5460971604872883,2.4375
-38.0,0.5276893910326605,4.875
-38.5,0.5399612373357456,3.25
-38.5,0.5338253141842031,3.25
-38.0,0.5522330836388308,2.4375
-38.5,0.5276893910326605,6.5
-38.0,0.5338253141842031,2.4375
-38.5,0.5399612373357456,3.25
-38.5,0.5338253141842031,4.875
-38.5,0.5399612373357456,5.6875
-38.0,0.521553467881118,4.875
-38.0,0.5031456984264903,8.125
-38.0,0.5338253141842031,4.875
-38.0,0.5031456984264903,7.3125
-38.0,0.5338253141842031,4.875
-38.0,0.5338253141842031,2.4375
-38.0,0.521553467881118,3.25
-38.0,0.5399612373357456,1.625
-38.5,0.521553467881118,2.4375
-38.0,0.5276893910326605,5.6875
-38.0,0.5154175447295755,6.5
-38.0,0.5399612373357456,2.4375
-38.5,0.521553467881118,4.875
-38.0,0.5276893910326605,3.25
-38.0,0.5645049299419159,-1.625
-38.0,0.5460971604872883,2.4375
-38.5,0.5338253141842031,3.25
-38.0,0.5399612373357456,4.875
-38.0,0.5338253141842031,2.4375
-38.0,0.5460971604872883,2.4375
-38.5,0.5276893910326605,3.25
-38.5,0.521553467881118,3.25
-38.5,0.5460971604872883,0.0
-38.5,0.521553467881118,5.6875
-38.0,0.5460971604872883,1.625
-38.5,0.5092816215780329,7.3125
-38.5,0.5522330836388308,0.8125
-38.0,0.5276893910326605,7.3125
-38.0,0.5522330836388308,2.4375
-38.0,0.5460971604872883,1.625
-38.5,0.5338253141842031,4.875
-38.0,0.521553467881118,5.6875
-38.5,0.5154175447295755,5.6875
-38.5,0.5276893910326605,3.25
-38.5,0.5399612373357456,1.625
-38.5,0.5154175447295755,7.3125
-38.0,0.5583690067903734,0.8125
-38.5,0.5276893910326605,3.25
-38.5,0.5276893910326605,4.875
-38.5,0.5460971604872883,1.625
-38.5,0.521553467881118,4.875
-38.0,0.5460971604872883,2.4375
-38.5,0.521553467881118,5.6875
-38.5,0.521553467881118,4.875
-38.5,0.5338253141842031,5.6875
-38.5,0.521553467881118,6.5
-38.0,0.5338253141842031,3.25
-38.5,0.5522330836388308,2.4375
-38.5,0.5338253141842031,5.6875
-38.5,0.5460971604872883,1.625
-38.0,0.5338253141842031,4.875
-38.5,0.5460971604872883,5.6875
-38.0,0.521553467881118,5.6875
-38.5,0.521553467881118,6.5
-38.0,0.5460971604872883,2.4375
-38.5,0.521553467881118,5.6875
-38.0,0.5338253141842031,3.25
-38.0,0.5522330836388308,0.8125
-38.0,0.5583690067903734,0.0
-38.5,0.5338253141842031,4.875
-38.0,0.5460971604872883,2.4375
-38.5,0.5276893910326605,4.875
-38.5,0.5399612373357456,3.25
-38.0,0.5399612373357456,4.875
-38.0,0.5460971604872883,3.25
-38.0,0.521553467881118,8.125
-38.5,0.5522330836388308,0.8125
-38.5,0.5399612373357456,3.25
-38.0,0.521553467881118,6.5
-38.5,0.5276893910326605,6.5
-38.5,0.521553467881118,5.6875
-38.0,0.5338253141842031,3.25
-38.5,0.5399612373357456,4.875
-38.5,0.5399612373357456,3.25
-38.5,0.5338253141842031,4.875
-38.5,0.5460971604872883,0.8125
-38.5,0.5583690067903734,0.0
-38.5,0.5399612373357456,3.25
-38.5,0.5276893910326605,7.3125
-38.5,0.521553467881118,7.3125
-38.0,0.5399612373357456,4.875
-38.5,0.5399612373357456,5.6875
-38.5,0.5522330836388308,2.4375
-38.5,0.5522330836388308,2.4375
-38.5,0.5583690067903734,0.0
-38.0,0.5338253141842031,2.4375
-38.0,0.5522330836388308,0.8125
-38.5,0.5399612373357456,3.25
-38.0,0.5399612373357456,6.5
-38.5,0.5460971604872883,1.625
-38.0,0.521553467881118,5.6875
-38.0,0.5338253141842031,3.25
-38.0,0.5460971604872883,3.25
-38.5,0.5460971604872883,4.875
-38.0,0.5583690067903734,0.0
-38.0,0.521553467881118,5.6875
-38.5,0.5338253141842031,6.5
-38.5,0.5399612373357456,2.4375
-38.5,0.521553467881118,6.5
-38.0,0.5460971604872883,3.25
-38.5,0.5460971604872883,3.25
-38.5,0.5399612373357456,2.4375
-38.5,0.5399612373357456,4.875
-38.5,0.5399612373357456,4.875
-38.5,0.5276893910326605,6.5
-38.5,0.5460971604872883,0.8125
-38.5,0.5399612373357456,4.875
-38.5,0.5460971604872883,2.4375
-38.0,0.5522330836388308,1.625
-38.5,0.5399612373357456,2.4375
-38.0,0.5276893910326605,6.5
-38.5,0.5276893910326605,5.6875
-38.5,0.5522330836388308,2.4375
-38.5,0.5338253141842031,2.4375
-38.5,0.5399612373357456,3.25
-38.0,0.5399612373357456,1.625
-38.5,0.5399612373357456,3.25
-38.0,0.521553467881118,6.5
-38.5,0.521553467881118,5.6875
-38.5,0.5399612373357456,2.4375
-38.5,0.5522330836388308,2.4375
-38.5,0.5276893910326605,7.3125
-38.5,0.5460971604872883,4.875
-38.5,0.5276893910326605,5.6875
-38.5,0.521553467881118,7.3125
-38.0,0.5399612373357456,2.4375
-38.5,0.5399612373357456,2.4375
-38.5,0.5460971604872883,0.8125
-38.0,0.5276893910326605,6.5
-38.5,0.5338253141842031,3.25
-38.5,0.5460971604872883,1.625
-38.5,0.5399612373357456,2.4375
-38.5,0.5460971604872883,2.4375
-38.0,0.521553467881118,6.5
-38.0,0.5338253141842031,4.875
-38.0,0.5276893910326605,5.6875
-38.0,0.5583690067903734,0.8125
-38.5,0.5338253141842031,4.875
-38.0,0.5399612373357456,3.25
-38.5,0.5399612373357456,3.25
-38.0,0.5399612373357456,1.625
-38.5,0.5338253141842031,3.25
-38.5,0.5399612373357456,2.4375
-38.5,0.5399612373357456,3.25
-38.5,0.5338253141842031,4.875
-38.5,0.5399612373357456,0.8125
-38.5,0.5399612373357456,2.4375
-38.0,0.5583690067903734,1.625
-38.0,0.5276893910326605,3.25
-38.0,0.521553467881118,5.6875
-38.0,0.5522330836388308,0.8125
-38.0,0.5276893910326605,6.5
-38.5,0.5460971604872883,0.8125
-38.0,0.5276893910326605,4.875
-38.5,0.5276893910326605,5.6875
-38.5,0.521553467881118,5.6875
-38.0,0.5399612373357456,1.625
-38.5,0.5276893910326605,3.25
-38.5,0.5338253141842031,2.4375
-38.5,0.5338253141842031,3.25
-38.5,0.5338253141842031,3.25
-38.5,0.5276893910326605,4.875
-38.5,0.5399612373357456,2.4375
-38.5,0.521553467881118,7.3125
-38.0,0.5399612373357456,3.25
-38.5,0.5399612373357456,2.4375
-38.0,0.5154175447295755,7.3125
-38.5,0.521553467881118,4.875
-38.5,0.5399612373357456,2.4375
-38.0,0.5460971604872883,1.625
-38.5,0.5276893910326605,4.875
-38.5,0.5338253141842031,4.875
-38.0,0.5399612373357456,4.875
-38.5,0.5276893910326605,5.6875
-38.5,0.5583690067903734,0.8125
-38.0,0.5276893910326605,7.3125
-38.5,0.5276893910326605,5.6875
-38.5,0.5645049299419159,0.0
-38.5,0.5399612373357456,6.5
-38.5,0.5154175447295755,7.3125
-38.0,0.5338253141842031,4.875
-38.5,0.5399612373357456,5.6875
-38.5,0.5399612373357456,4.875
-38.5,0.5399612373357456,5.6875
-38.5,0.5583690067903734,1.625
-38.5,0.5276893910326605,4.875
-38.5,0.521553467881118,6.5
-38.5,0.5460971604872883,3.25
-38.5,0.5460971604872883,2.4375
-38.0,0.521553467881118,6.5
-38.0,0.5276893910326605,6.5
-38.5,0.5338253141842031,4.875
-38.5,0.5399612373357456,2.4375
-38.0,0.5399612373357456,2.4375
-38.0,0.5522330836388308,0.0
-38.5,0.5276893910326605,5.6875
-38.0,0.5399612373357456,5.6875
-38.0,0.5460971604872883,1.625
-38.5,0.5338253141842031,4.875
-38.5,0.5399612373357456,4.875
-38.5,0.5460971604872883,2.4375
-38.5,0.5399612373357456,1.625
-38.5,0.5338253141842031,3.25
-38.0,0.5338253141842031,3.25
-38.0,0.5338253141842031,3.25
-38.0,0.5399612373357456,2.4375
-38.5,0.521553467881118,7.3125
-38.0,0.5460971604872883,0.0
-38.0,0.5338253141842031,1.625
-38.5,0.5276893910326605,4.875
-38.0,0.5338253141842031,6.5
-38.0,0.5460971604872883,1.625
-38.0,0.5276893910326605,6.5
-38.5,0.5276893910326605,4.875
-38.0,0.5460971604872883,1.625
-38.0,0.5460971604872883,1.625
-38.5,0.5399612373357456,3.25
-38.5,0.521553467881118,6.5
-38.5,0.5276893910326605,3.25
-38.5,0.5276893910326605,4.875
-38.5,0.5276893910326605,5.6875
-38.5,0.5399612373357456,3.25
-38.5,0.521553467881118,6.5
-38.5,0.5522330836388308,2.4375
-38.5,0.5522330836388308,3.25
-38.5,0.5460971604872883,2.4375
-38.5,0.5399612373357456,2.4375
-38.5,0.5522330836388308,1.625
-38.5,0.5338253141842031,5.6875
-38.5,0.5645049299419159,0.0
-38.5,0.5276893910326605,3.25
-38.5,0.5645049299419159,0.8125
-38.5,0.5460971604872883,2.4375
-38.5,0.5338253141842031,4.875
-38.5,0.5338253141842031,4.875
-38.5,0.5338253141842031,3.25
-38.5,0.5645049299419159,-0.8125
-38.5,0.5399612373357456,2.4375
-38.5,0.5706408530934585,0.0
-38.5,0.5460971604872883,1.625
-38.5,0.5460971604872883,2.4375
-38.5,0.5338253141842031,6.5
-38.5,0.5276893910326605,4.875
-38.5,0.5276893910326605,5.6875
-38.5,0.5399612373357456,2.4375
-38.5,0.5338253141842031,5.6875
-38.5,0.5276893910326605,6.5
-38.5,0.5460971604872883,1.625
-38.5,0.5276893910326605,4.875
-38.5,0.5399612373357456,3.25
-38.0,0.5276893910326605,3.25
-38.0,0.5399612373357456,5.6875
-38.5,0.5522330836388308,0.8125
-38.0,0.5399612373357456,4.875
-38.0,0.5276893910326605,3.25
-38.0,0.5583690067903734,0.8125
-38.0,0.5399612373357456,3.25
-38.0,0.5460971604872883,1.625
-38.0,0.5399612373357456,3.25
-38.5,0.5338253141842031,5.6875
-38.5,0.5338253141842031,4.875
-38.0,0.5522330836388308,2.4375
-38.0,0.5154175447295755,7.3125
-38.0,0.5767767762450011,0.0
-38.0,0.5522330836388308,0.8125
-38.0,0.5583690067903734,0.8125
-38.0,0.5338253141842031,4.875
-38.0,0.5399612373357456,5.6875
-38.0,0.521553467881118,8.125
-38.0,0.5276893910326605,5.6875
-38.0,0.5154175447295755,8.125
-38.0,0.5399612373357456,4.875
-38.0,0.5399612373357456,4.875
-38.0,0.5399612373357456,2.4375
-38.0,0.5460971604872883,0.8125
-38.0,0.5399612373357456,6.5
-38.0,0.5276893910326605,6.5
-38.0,0.5951845456996288,4.875
-38.0,0.6135923151542565,3.25
-37.5,0.5890486225480862,5.6875
-37.5,0.5706408530934585,6.5
-37.5,0.6013204688511713,1.625
-37.5,0.6013204688511713,4.875
-37.5,0.6013204688511713,5.6875
-37.5,0.5890486225480862,5.6875
-37.5,0.607456392002714,1.625
-37.5,0.6013204688511713,4.875
-37.5,0.5829126993965437,7.3125
-37.5,0.607456392002714,2.4375
-37.5,0.6013204688511713,3.25
-37.0,0.6135923151542565,2.4375
-37.5,0.6013204688511713,3.25
-37.5,0.5890486225480862,4.875
-37.0,0.5767767762450011,6.5
-37.0,0.5706408530934585,8.125
-37.5,0.5890486225480862,5.6875
-37.5,0.5890486225480862,4.875
-37.5,0.6013204688511713,0.0
-37.0,0.5890486225480862,2.4375
-37.5,0.5706408530934585,4.875
-37.5,0.5706408530934585,5.6875
-37.5,0.5890486225480862,0.8125
-37.5,0.5767767762450011,2.4375
-37.5,0.5767767762450011,3.25
-37.5,0.5767767762450011,4.875
-37.0,0.5829126993965437,3.25
-37.0,0.5767767762450011,3.25
-37.5,0.5645049299419159,3.25
-37.5,0.5767767762450011,2.4375
-37.0,0.5645049299419159,4.875
-37.0,0.5583690067903734,4.875
-37.0,0.5522330836388308,5.6875
-37.0,0.5767767762450011,1.625
-37.0,0.5583690067903734,5.6875
-37.0,0.5583690067903734,5.6875
-37.0,0.5645049299419159,2.4375
-37.0,0.5522330836388308,5.6875
-37.0,0.5522330836388308,3.25
-37.0,0.5522330836388308,4.875
-37.0,0.5522330836388308,2.4375
-37.0,0.5399612373357456,4.875
-37.0,0.5338253141842031,3.25
-37.0,0.5399612373357456,4.875
-37.0,0.5399612373357456,4.875
-37.0,0.5460971604872883,2.4375
-37.0,0.5522330836388308,2.4375
-37.0,0.5583690067903734,2.4375
-37.0,0.5767767762450011,-2.4375
-37.0,0.5583690067903734,0.8125
-37.0,0.5399612373357456,3.25
-37.0,0.5338253141842031,4.875
-37.0,0.5460971604872883,3.25
-37.0,0.5276893910326605,3.25
-36.5,0.5522330836388308,2.4375
-36.5,0.5154175447295755,7.3125
-37.0,0.521553467881118,4.875
-36.5,0.5338253141842031,1.625
-36.5,0.5154175447295755,5.6875
-36.5,0.5154175447295755,5.6875
-36.5,0.4908738521234052,6.5
-36.5,0.5031456984264903,2.4375
-36.5,0.4970097752749477,3.25
-36.5,0.5092816215780329,3.25
-36.5,0.5092816215780329,4.875
-36.5,0.521553467881118,2.4375
-36.5,0.5276893910326605,1.625
-36.5,0.5276893910326605,3.25
-36.5,0.5338253141842031,1.625
-36.5,0.5154175447295755,4.875
-36.5,0.5276893910326605,2.4375
-36.5,0.5092816215780329,2.4375
-36.5,0.4970097752749477,6.5
-36.5,0.5399612373357456,-0.8125
-36.5,0.5092816215780329,3.25
-36.5,0.4970097752749477,6.5
-36.5,0.5031456984264903,3.25
-36.5,0.5092816215780329,2.4375
-36.5,0.5154175447295755,1.625
-36.5,0.4908738521234052,4.875
-36.5,0.4908738521234052,5.6875
-36.5,0.4908738521234052,3.25
-36.5,0.4970097752749477,2.4375
-36.5,0.4970097752749477,4.875
-36.5,0.4970097752749477,2.4375
-36.5,0.4724660826687775,4.875
-36.5,0.4724660826687775,4.875
-36.5,0.48473792897186263,0.8125
-36.5,0.4663301595172349,3.25
-36.5,0.4663301595172349,1.625
-36.5,0.4479223900626072,7.3125
-36.5,0.4724660826687775,2.4375
-36.5,0.4540583132141498,5.6875
-36.5,0.4724660826687775,2.4375
-36.5,0.48473792897186263,1.625
-36.5,0.48473792897186263,1.625
-36.5,0.4724660826687775,4.875
-36.5,0.4908738521234052,3.25
-36.5,0.47860200582032003,4.875
-36.5,0.48473792897186263,0.8125
-36.5,0.5092816215780329,-1.625
-36.5,0.4663301595172349,4.875
-36.5,0.4540583132141498,3.25
-36.5,0.46019423636569234,3.25
-36.5,0.4540583132141498,3.25
-36.5,0.42337869745643697,8.9375
-36.5,0.4663301595172349,2.4375
-36.5,0.44178646691106466,5.6875
-36.5,0.4479223900626072,5.6875
-36.5,0.46019423636569234,3.25
-36.5,0.46019423636569234,7.3125
-36.5,0.47860200582032003,4.875
-36.5,0.47860200582032003,5.6875
-36.5,0.46019423636569234,7.3125
-36.5,0.4663301595172349,2.4375
-36.5,0.4663301595172349,2.4375
-36.0,0.4356505437595221,1.625
-36.0,0.4172427743048944,5.6875
-36.0,0.4111068511533518,3.25
-36.0,0.4111068511533518,3.25
-35.5,0.4111068511533518,3.25
-36.0,0.4111068511533518,3.25
-36.0,0.4111068511533518,2.4375
-36.0,0.39269908169872414,3.25
-36.0,0.39269908169872414,3.25
-35.5,0.39269908169872414,2.4375
-35.5,0.35588354278946877,7.3125
-35.5,0.3988350048502667,0.8125
-35.5,0.3620194659410113,7.3125
-35.5,0.36815538909255385,5.6875
-35.5,0.36815538909255385,4.875
-35.5,0.3620194659410113,1.625
-35.5,0.3436116964863836,6.5
-35.0,0.34974761963792617,0.0
-35.0,0.3374757733348411,2.4375
-35.0,0.3374757733348411,1.625
-35.0,0.3436116964863836,0.0
-35.0,0.3129320807286708,4.875
-35.5,0.3129320807286708,4.875
-35.0,0.3129320807286708,4.875
-35.0,0.3129320807286708,5.6875
-35.0,0.30066023442558565,5.6875
-35.0,0.3374757733348411,0.0
-35.0,0.30679615757712825,3.25
-35.0,0.3129320807286708,4.875
-35.0,0.3313398501832985,2.4375
-35.0,0.32520392703175593,5.6875
-35.0,0.3313398501832985,3.25
-35.0,0.32520392703175593,1.625
-35.0,0.3313398501832985,-0.8125
-35.0,0.28838838812250056,3.25
-34.5,0.28225246497095796,1.625
-34.5,0.2638446955163303,4.875
-34.5,0.25770877236478773,3.25
-34.5,0.25770877236478773,2.4375
-34.5,0.2454369260617026,2.4375
-34.5,0.2454369260617026,1.625
-34.5,0.23316507975861744,1.625
-34.5,0.23316507975861744,1.625
-34.0,0.21475731030398976,1.625
-34.5,0.21475731030398976,1.625
-34.0,0.19634954084936207,4.875
-34.0,0.20248546400090464,2.4375
-34.0,0.19634954084936207,3.25
-34.0,0.17794177139473438,3.25
-34.0,0.18407769454627693,2.4375
-34.0,0.17794177139473438,0.8125
-34.0,0.18407769454627693,0.8125
-34.0,0.16566992509164924,2.4375
-34.0,0.1718058482431918,1.625
-34.0,0.1718058482431918,0.8125
-34.0,0.16566992509164924,1.625
-34.0,0.1595340019401067,2.4375
-34.0,0.16566992509164924,0.8125
-34.0,0.1595340019401067,1.625
-33.5,0.11658253987930872,1.625
-33.5,0.1227184630308513,0.0
-34.0,0.11658253987930872,-0.8125
-34.0,0.09817477042468103,0.8125
-33.5,0.09203884727313846,0.8125
-33.5,0.07976700097005335,3.25
-33.5,0.07976700097005335,0.8125
-33.5,0.07976700097005335,-0.8125
-33.5,0.03681553890925539,3.25
-33.5,0.04295146206079795,0.0
-33.0,0.018407769454627694,0.8125
-33.5,0.03681553890925539,-1.625
-33.5,0.006135923151542565,1.625
-33.5,0.01227184630308513,2.4375
-33.5,0.018407769454627694,0.8125
-33.5,0.0,2.4375
-33.5,0.0,0.8125
-33.5,6.264777537724958,2.4375
-33.5,6.270913460876501,1.625
-33.5,0.02454369260617026,1.625
-33.5,0.03681553890925539,1.625
-34.0,0.05522330836388308,0.8125
-34.0,0.07363107781851078,0.0
-33.5,0.11658253987930872,-0.8125
-34.0,0.11044661672776616,0.0
-34.0,0.1227184630308513,0.8125
-34.5,0.14112623248547898,3.25
-34.0,0.15339807878856412,3.25
-34.5,0.14726215563702155,4.875
-34.5,0.1595340019401067,1.625
-34.5,0.1595340019401067,1.625
-34.0,0.1595340019401067,2.4375
-34.5,0.1718058482431918,3.25
-34.0,0.1595340019401067,4.875
-34.5,0.20248546400090464,2.4375
-34.5,0.19634954084936207,4.875
-34.5,0.21475731030398976,3.25
-34.5,0.22089323345553233,2.4375
-34.5,0.2270291566070749,1.625
-34.5,0.25770877236478773,0.0
-34.5,0.25770877236478773,3.25
-34.5,0.25770877236478773,2.4375
-34.5,0.2761165418194154,1.625
-35.0,0.28225246497095796,1.625
-34.5,0.2761165418194154,6.5
-35.0,0.30066023442558565,2.4375
-35.0,0.3129320807286708,2.4375
-35.0,0.30679615757712825,5.6875
-34.5,0.3190680038802134,1.625
-35.0,0.3190680038802134,2.4375
-35.0,0.30679615757712825,2.4375
-34.5,0.2945243112740431,4.875
-35.0,0.30679615757712825,4.875
-35.0,0.30679615757712825,3.25
-35.0,0.3374757733348411,5.6875
-35.0,0.3313398501832985,6.5
-35.0,0.35588354278946877,5.6875
-35.0,0.39269908169872414,0.0
-35.5,0.4049709280018093,4.875
-35.5,0.4479223900626072,0.0
-35.5,0.46019423636569234,5.6875
-36.0,0.4540583132141498,6.5
-36.0,0.5031456984264903,0.8125
-36.5,0.521553467881118,1.625
-36.5,0.5522330836388308,3.25
-37.0,0.5767767762450011,8.9375
-37.0,0.6320000846088841,5.6875
-37.5,0.7117670855789375,2.4375
-37.5,0.7240389318820226,4.875
-37.0,0.7547185476397354,2.4375
-37.5,0.760854470791278,2.4375
-37.5,0.7976700097005334,1.625
-37.5,0.8467573949128739,0.0
-37.5,0.8713010875190442,-0.8125
-38.0,0.8713010875190442,2.4375
-38.0,0.8897088569736719,5.6875
-37.5,0.9326603190344698,1.625
-37.5,0.944932165337555,2.4375
-38.0,0.9572040116406401,2.4375
-38.0,0.9633399347921826,2.4375
-38.0,0.9572040116406401,3.25
-38.0,0.9694758579437253,6.5
-38.0,1.000155473701438,1.625
-38.0,1.012427320004523,1.625
-38.0,1.043106935762236,1.625
-38.0,1.055378782065321,2.4375
-38.0,1.0492428589137786,2.4375
-38.0,1.086058397823034,0.8125
-38.0,1.0737865515199487,6.5
-38.0,1.086058397823034,3.25
-38.0,1.1106020904292042,0.8125
-38.0,1.1106020904292042,2.4375
-38.0,1.1106020904292042,4.875
-38.0,1.1474176293384597,-0.8125
-38.0,1.1106020904292042,4.875
-38.0,1.1290098598838318,1.625
-38.0,1.1290098598838318,0.0
-37.5,1.1228739367322893,3.25
-38.0,1.1290098598838318,4.875
-37.5,1.1228739367322893,3.25
-38.0,1.1167380135807468,6.5
-38.0,1.1351457830353744,4.875
-38.0,1.1228739367322893,8.125
-38.0,1.1474176293384597,4.875
-38.0,1.1596894756415448,4.875
-37.5,1.1596894756415448,2.4375
-38.0,1.1780972450961724,0.8125
-38.0,1.184233168247715,3.25
-38.0,1.1658253987930873,6.5
-38.0,1.1658253987930873,3.25
-38.0,1.1903690913992575,2.4375
-38.0,1.184233168247715,2.4375
-38.0,1.184233168247715,5.6875
-38.0,1.184233168247715,3.25
-38.0,1.1903690913992575,2.4375
-38.0,1.2026409377023426,1.625
-38.0,1.1903690913992575,3.25
-38.0,1.1596894756415448,5.6875
-38.0,1.1474176293384597,4.875
-38.5,1.1290098598838318,2.4375
-38.5,1.1044661672776617,1.625
-38.5,1.1044661672776617,2.4375
-38.5,1.1228739367322893,3.25
-38.5,1.1474176293384597,3.25
-38.5,1.1719613219446299,1.625
-38.5,1.1535535524900022,5.6875
-38.5,1.2026409377023426,0.0
-38.5,1.2087768608538851,0.8125
-38.0,1.227184630308513,0.0
-38.5,1.2210487071569704,1.625
-38.5,1.2210487071569704,0.0
-38.5,1.2026409377023426,3.25
-38.5,1.1780972450961724,4.875
-38.0,1.1965050145508,2.4375
-38.5,1.2210487071569704,0.0
-38.5,1.1903690913992575,3.25
-38.5,1.1903690913992575,5.6875
-38.5,1.227184630308513,-0.8125
-38.5,1.1965050145508,3.25
-38.5,1.2333205534600555,-2.4375
-38.5,1.2087768608538851,0.0
-38.5,1.1596894756415448,6.5
-39.0,1.1719613219446299,2.4375
-38.5,1.1658253987930873,1.625
-38.5,1.1658253987930873,-0.8125
-38.5,1.1228739367322893,1.625
-39.0,1.1351457830353744,-0.8125
-38.5,1.0983302441261191,3.25
-38.5,1.0983302441261191,-1.625
-38.5,1.030835089459151,6.5
-38.5,1.0492428589137786,1.625
-38.5,1.0246991663076084,3.25
-38.5,1.0246991663076084,2.4375
-38.0,1.043106935762236,2.4375
-38.0,1.012427320004523,5.6875
-38.0,1.030835089459151,3.25
-38.0,1.0062913968529805,6.5
-38.0,1.030835089459151,2.4375
-38.0,1.030835089459151,3.25
-38.0,1.0615147052168636,0.0
-37.5,1.0615147052168636,1.625
-37.5,1.055378782065321,2.4375
-37.0,1.0369710126106935,5.6875
-37.5,1.055378782065321,8.125
-37.5,1.043106935762236,7.3125
-37.5,1.0615147052168636,3.25
-37.0,1.0799224746714913,0.8125
-37.0,1.0676506283684062,3.25
-37.5,1.0799224746714913,0.8125
-37.5,1.0615147052168636,3.25
-37.0,1.086058397823034,0.8125
-37.0,1.0492428589137786,6.5
-37.5,1.055378782065321,3.25
-37.0,1.0369710126106935,5.6875
-37.0,1.030835089459151,6.5
-37.0,1.043106935762236,3.25
-37.0,1.0369710126106935,4.875
-37.5,1.043106935762236,2.4375
-37.0,1.0615147052168636,0.8125
-37.0,1.0246991663076084,5.6875
-37.0,1.0185632431560658,6.5
-37.0,1.043106935762236,1.625
-37.0,1.0246991663076084,6.5
-37.0,1.043106935762236,3.25
-37.0,1.000155473701438,8.125
-37.0,1.030835089459151,1.625
-37.0,1.012427320004523,2.4375
-37.0,1.012427320004523,3.25
-37.0,1.0185632431560658,1.625
-37.0,1.000155473701438,4.875
-37.0,1.000155473701438,2.4375
-37.0,0.9878836273983529,4.875
-37.0,0.9878836273983529,3.25
-37.0,0.9878836273983529,0.8125
-37.0,0.9817477042468103,2.4375
-37.0,0.9756117810952678,3.25
-37.0,0.9817477042468103,3.25
-37.0,0.9694758579437253,3.25
-37.0,0.9817477042468103,3.25
-37.0,0.9756117810952678,4.875
-37.0,0.9756117810952678,2.4375
-37.0,0.9756117810952678,3.25
-37.0,1.0062913968529805,0.0
-37.0,0.9817477042468103,3.25
-37.0,0.9878836273983529,4.875
-37.0,1.000155473701438,2.4375
-37.0,1.0062913968529805,0.8125
-37.0,0.9756117810952678,4.875
-37.0,0.9940195505498954,3.25
-37.0,0.9817477042468103,4.875
-37.0,0.9878836273983529,5.6875
-37.0,1.000155473701438,0.0
-36.5,0.9817477042468103,3.25
-37.0,0.9940195505498954,0.8125
-37.0,0.9878836273983529,2.4375
-37.0,0.9940195505498954,1.625
-37.0,0.9694758579437253,6.5
-37.0,0.9940195505498954,0.8125
-37.0,1.0062913968529805,0.0
-37.0,0.9817477042468103,4.875
-37.0,0.9694758579437253,5.6875
-37.0,0.9817477042468103,4.875
-37.0,0.9817477042468103,4.875
-37.0,0.9940195505498954,4.875
-37.0,1.000155473701438,1.625
-37.0,0.9878836273983529,3.25
-37.0,0.9817477042468103,4.875
-37.0,1.0062913968529805,1.625
-37.0,0.9940195505498954,3.25
-37.0,0.9878836273983529,3.25
-37.0,1.012427320004523,0.0
-37.0,0.9878836273983529,2.4375
-37.0,0.9817477042468103,4.875
-37.0,0.9817477042468103,4.875
-37.0,1.000155473701438,1.625
-37.0,1.012427320004523,-0.8125
-37.0,0.9940195505498954,2.4375
-37.0,1.0062913968529805,1.625
-37.0,0.9940195505498954,4.875
-37.0,0.9940195505498954,3.25
-37.0,0.9878836273983529,4.875
-37.0,0.9878836273983529,2.4375
-37.0,0.9817477042468103,4.875
-37.0,1.012427320004523,2.4375
-37.0,0.9633399347921826,8.125
-37.0,0.9756117810952678,6.5
-37.0,0.9878836273983529,3.25
-37.0,0.9817477042468103,3.25
-37.0,1.000155473701438,2.4375
-37.0,1.000155473701438,1.625
-37.0,0.9817477042468103,4.875
-37.0,0.9940195505498954,0.8125
-37.0,0.9817477042468103,3.25
-37.0,0.9756117810952678,5.6875
-37.0,0.9817477042468103,3.25
-37.0,0.9878836273983529,2.4375
-37.0,0.9694758579437253,6.5
-37.0,0.9878836273983529,5.6875
-37.0,0.9878836273983529,2.4375
-37.0,0.9878836273983529,3.25
-37.0,0.9817477042468103,4.875
-37.0,0.9940195505498954,2.4375
-37.0,1.000155473701438,1.625
-37.0,0.9940195505498954,2.4375
-37.0,0.9756117810952678,3.25
-37.0,0.9817477042468103,3.25
-37.0,0.9756117810952678,5.6875
-37.0,0.9940195505498954,0.8125
-37.0,0.9940195505498954,1.625
-37.0,0.9878836273983529,3.25
-37.0,0.9878836273983529,2.4375
-37.0,1.000155473701438,0.0
-37.0,0.9756117810952678,3.25
-37.0,0.9694758579437253,4.875
-37.0,0.9817477042468103,3.25
-37.0,0.9878836273983529,1.625
-37.0,0.9817477042468103,4.875
-37.0,0.9756117810952678,4.875
-37.0,0.9878836273983529,1.625
-37.0,0.9756117810952678,4.875
-37.0,0.9817477042468103,2.4375
-37.0,0.9756117810952678,5.6875
-37.0,0.9878836273983529,2.4375
-37.0,0.9756117810952678,5.6875
-37.0,0.9694758579437253,5.6875
-37.0,0.9694758579437253,5.6875
-37.0,0.9817477042468103,3.25
-37.0,0.9817477042468103,0.8125
-37.0,0.9817477042468103,3.25
-37.0,0.9756117810952678,3.25
-37.0,0.9817477042468103,2.4375
-37.0,0.9817477042468103,1.625
-37.0,0.9940195505498954,-0.8125
-37.0,0.9940195505498954,-0.8125
-37.0,0.9694758579437253,4.875
-37.0,0.9817477042468103,2.4375
-37.0,0.9633399347921826,5.6875
-37.0,0.9633399347921826,3.25
-37.0,0.9817477042468103,1.625
-37.0,0.9633399347921826,2.4375
-37.0,0.9756117810952678,1.625
-37.0,0.9817477042468103,1.625
-37.0,0.9633399347921826,5.6875
-37.0,0.9817477042468103,0.8125
-37.0,0.9756117810952678,1.625
-37.0,0.9633399347921826,2.4375
-37.0,0.9756117810952678,0.8125
-37.0,0.9633399347921826,2.4375
-37.0,0.9633399347921826,1.625
-37.0,0.9817477042468103,1.625
-37.0,0.9633399347921826,3.25
-37.0,0.9572040116406401,3.25
-37.0,0.9572040116406401,3.25
-37.0,0.9572040116406401,4.875
-37.0,0.9633399347921826,1.625
-37.0,0.9510680884890975,3.25
-37.0,0.9756117810952678,0.0
-37.0,0.9510680884890975,4.875
-37.0,0.944932165337555,5.6875
-37.0,0.944932165337555,5.6875
-37.0,0.9203884727313847,6.5
-37.0,0.9572040116406401,2.4375
-37.0,0.9326603190344698,4.875
-37.0,0.9510680884890975,1.625
-37.0,0.9756117810952678,-1.625
-37.5,0.944932165337555,4.875
-37.0,0.944932165337555,3.25
-37.0,0.9510680884890975,2.4375
-37.0,0.9694758579437253,-1.625
-37.0,0.9510680884890975,3.25
-37.0,0.944932165337555,4.875
-37.0,0.9326603190344698,1.625
-37.0,0.9510680884890975,0.8125
-37.0,0.944932165337555,1.625
-37.0,0.9265243958829272,5.6875
-37.0,0.9326603190344698,4.875
-37.0,0.944932165337555,0.8125
-37.0,0.9387962421860124,2.4375
-37.0,0.9203884727313847,4.875
-37.0,0.9203884727313847,5.6875
-37.0,0.9265243958829272,5.6875
-37.0,0.9387962421860124,1.625
-37.0,0.9265243958829272,5.6875
-37.0,0.9265243958829272,4.875
-37.0,0.944932165337555,0.8125
-37.0,0.9265243958829272,1.625
-37.0,0.9081166264282996,4.875
-37.0,0.9019807032767571,8.125
-37.0,0.9203884727313847,3.25
-37.0,0.9265243958829272,3.25
-37.0,0.9203884727313847,5.6875
-37.0,0.9326603190344698,2.4375
-37.0,0.9265243958829272,1.625
-37.0,0.9081166264282996,5.6875
-37.0,0.9265243958829272,2.4375
-37.0,0.9142525495798421,3.25
-37.0,0.9142525495798421,3.25
-37.0,0.9142525495798421,4.875
-37.0,0.9142525495798421,2.4375
-37.0,0.9265243958829272,0.0
-37.0,0.9019807032767571,4.875
-37.5,0.9142525495798421,3.25
-37.0,0.8835729338221293,8.125
-37.0,0.9326603190344698,0.0
-37.0,0.9142525495798421,3.25
-37.0,0.9019807032767571,6.5
-37.0,0.9265243958829272,0.8125
-37.0,0.9203884727313847,0.8125
-37.0,0.9203884727313847,0.8125
-37.0,0.9081166264282996,2.4375
-37.0,0.9081166264282996,2.4375
-37.0,0.9142525495798421,1.625
-37.5,0.8958447801252144,3.25
-37.0,0.9081166264282996,3.25
-37.0,0.9142525495798421,1.625
-37.0,0.9265243958829272,0.0
-37.0,0.9203884727313847,0.8125
-37.0,0.9081166264282996,0.8125
-37.0,0.9203884727313847,0.8125
-37.5,0.9203884727313847,0.8125
-37.5,0.8958447801252144,4.875
-37.0,0.8835729338221293,4.875
-37.0,0.9081166264282996,1.625
-37.0,0.9019807032767571,2.4375
-37.0,0.9019807032767571,0.8125
-37.0,0.8897088569736719,5.6875
-37.0,0.9203884727313847,0.8125
-37.5,0.9081166264282996,3.25
-37.0,0.9142525495798421,0.0
-37.0,0.9019807032767571,3.25
-37.0,0.9142525495798421,0.8125
-37.0,0.9265243958829272,-2.4375
-37.5,0.8958447801252144,3.25
-37.0,0.8835729338221293,3.25
-37.0,0.8897088569736719,4.875
-37.0,0.8774370106705868,3.25
-37.0,0.8958447801252144,0.0
-37.5,0.8835729338221293,0.8125
-37.0,0.8713010875190442,4.875
-37.0,0.8835729338221293,2.4375
-37.5,0.8958447801252144,0.0
-37.5,0.8713010875190442,4.875
-37.0,0.9019807032767571,0.0
-37.5,0.8835729338221293,3.25
-37.0,0.8835729338221293,3.25
-37.5,0.9019807032767571,0.8125
-37.0,0.9019807032767571,0.8125
-37.0,0.8713010875190442,3.25
-37.5,0.8774370106705868,3.25
-37.5,0.8835729338221293,1.625
-37.5,0.8897088569736719,2.4375
-37.0,0.8713010875190442,2.4375
-37.0,0.8835729338221293,1.625
-37.0,0.9019807032767571,-0.8125
-37.0,0.8774370106705868,0.8125
-37.0,0.8835729338221293,0.0
-37.0,0.8651651643675016,4.875
-37.0,0.8897088569736719,0.8125
-37.5,0.8774370106705868,2.4375
-37.5,0.8713010875190442,3.25
-37.0,0.8897088569736719,0.8125
-37.5,0.8897088569736719,1.625
-37.0,0.8835729338221293,0.8125
-37.5,0.8774370106705868,0.0
-37.5,0.8528933180644165,7.3125
-37.5,0.8713010875190442,1.625
-37.0,0.8651651643675016,3.25
-37.5,0.8835729338221293,-0.8125
-37.5,0.859029241215959,4.875
-37.0,0.8774370106705868,-0.8125
-37.5,0.859029241215959,2.4375
-37.0,0.8406214717613314,7.3125
-37.5,0.8528933180644165,2.4375
-37.5,0.859029241215959,1.625
-37.0,0.8713010875190442,0.8125
-37.5,0.8713010875190442,1.625
-37.5,0.8344855486097889,3.25
-37.5,0.8528933180644165,1.625
-37.5,0.8406214717613314,2.4375
-37.5,0.8528933180644165,2.4375
-37.5,0.859029241215959,1.625
-37.5,0.8467573949128739,2.4375
-37.5,0.8651651643675016,0.0
-37.0,0.8344855486097889,5.6875
-37.5,0.8344855486097889,3.25
-37.5,0.8651651643675016,-0.8125
-37.0,0.8467573949128739,0.8125
-37.5,0.8344855486097889,4.875
-37.5,0.8528933180644165,-0.8125
-37.0,0.8406214717613314,2.4375
-37.0,0.8467573949128739,1.625
-37.0,0.8344855486097889,3.25
-37.5,0.8713010875190442,-2.4375
-37.5,0.8467573949128739,0.8125
-37.5,0.859029241215959,0.0
-37.5,0.8467573949128739,3.25
-37.5,0.8406214717613314,1.625
-37.5,0.8528933180644165,0.8125
-37.5,0.8222137023067037,5.6875
-37.5,0.859029241215959,-0.8125
-37.5,0.8344855486097889,3.25
-37.5,0.8283496254582462,4.875
-37.5,0.8528933180644165,0.8125
-37.5,0.8283496254582462,1.625
-37.5,0.8467573949128739,0.0
-37.5,0.8344855486097889,3.25
-37.5,0.8222137023067037,4.875
-37.5,0.8406214717613314,2.4375
-37.5,0.8222137023067037,3.25
-37.5,0.8467573949128739,1.625
-37.5,0.8651651643675016,-2.4375
-37.5,0.8283496254582462,1.625
-37.5,0.8344855486097889,0.8125
-37.5,0.8222137023067037,1.625
-37.5,0.8222137023067037,2.4375
