-38.0,0.0,-2.4375
-38.0,-0.09203884727313838,9.75
-38.0,0.07363107781851053,1.625
-38.0,-0.042951462060797585,5.6875
-38.0,0.0,5.6875
-38.0,0.006135923151542322,4.875
-38.0,0.0674951546669682,-8.125
-38.0,-0.0674951546669682,3.25
-38.0,-0.03067961575771294,10.5625
-38.0,0.05522330836388312,4.875
-38.0,-0.04295146206079803,7.3125
-38.0,0.006135923151542766,5.6875
-38.5,0.03067961575771294,2.4375
-38.0,0.030679615757712497,-1.625
-38.0,-0.07363107781851053,9.75
-38.5,0.006135923151542322,8.9375
-38.5,0.018407769454627854,4.875
-38.0,0.006135923151542766,5.6875
-38.0,-0.012271846303085088,8.125
-38.0,0.08590292412159561,-6.5
-38.0,-0.01840776945462741,-1.625
-38.0,-0.03681553890925571,3.25
-38.0,0.0,1.625
-38.0,-0.04295146206079803,10.5625
-38.5,0.04295146206079803,4.875
-38.0,-0.07363107781851053,13.8125
-38.0,0.07363107781851053,4.875
-38.0,-0.024543692606170175,2.4375
-38.0,0.006135923151542766,6.5
-38.5,-0.018407769454627854,6.5
-38.0,0.03067961575771294,1.625
-38.0,-0.03067961575771294,6.5
-38.0,-0.018407769454627854,8.125
-38.5,0.049087385212340795,0.8125
-38.0,-0.049087385212340795,7.3125
-38.0,0.05522330836388312,-1.625
-38.0,0.006135923151542766,-3.25
-38.0,-0.09203884727313838,9.75
-38.0,0.01840776945462741,9.75
-38.0,-0.006135923151542322,8.125
-38.5,0.06135923151542544,-1.625
-38.5,-0.04295146206079803,3.25
-38.5,-0.006135923151542322,5.6875
-38.5,0.0,6.5
-38.0,0.06135923151542544,-3.25
-38.0,-0.012271846303085088,-2.4375
-38.0,-0.03681553890925526,2.4375
-38.0,0.012271846303085088,0.0
-38.0,-0.018407769454627854,6.5
-38.0,-0.01840776945462741,8.125
-38.0,-0.03067961575771294,10.5625
-38.5,0.024543692606170175,5.6875
-38.0,-0.012271846303085088,6.5
-38.0,0.012271846303085088,4.875
-38.0,0.012271846303085088,1.625
-38.0,0.012271846303085088,-1.625
-38.0,0.03067961575771294,-5.6875
-38.0,-0.10431069357622347,9.75
-38.5,0.0674951546669682,-2.4375
-38.0,-0.05522330836388312,7.3125
-38.5,0.04908738521234035,0.0
-38.5,-0.006135923151542322,0.0
-38.5,-0.012271846303085088,1.625
-38.0,-0.02454369260617062,6.5
-38.0,0.05522330836388312,-4.875
-38.5,-0.06135923151542544,8.125
-38.5,0.0,6.5
-38.0,0.04295146206079803,0.0
-38.0,-0.049087385212340795,8.125
-38.0,0.018407769454627854,5.6875
-38.5,0.006135923151542766,1.625
-38.0,-0.018407769454627854,6.5
-38.0,0.018407769454627854,1.625
-38.0,0.01840776945462741,-0.8125
-38.0,-0.04295146206079803,4.875
-38.0,-0.006135923151542322,8.9375
-38.5,-0.012271846303085088,8.9375
-38.5,-0.012271846303085088,12.1875
-38.5,0.024543692606170175,5.6875
-38.5,0.01840776945462741,5.6875
-38.5,-0.012271846303085088,4.875
-38.5,-0.012271846303085088,8.9375
-38.5,0.049087385212340795,0.0
-38.0,-0.018407769454627854,4.875
-38.5,0.024543692606170175,0.8125
-38.0,-0.04295146206079803,7.3125
-38.5,0.018407769454627854,2.4375
-38.5,-0.012271846303085088,5.6875
-38.5,-0.012271846303085088,7.3125
-38.5,0.06135923151542544,-2.4375
-38.5,-0.012271846303085088,-2.4375
-38.5,0.006135923151542766,-1.625
-38.5,0.012271846303085088,-6.5
-38.5,-0.06135923151542588,3.25
-38.5,0.012271846303085088,5.6875
-38.5,0.049087385212340795,-4.875
-38.5,-0.03681553890925526,1.625
-38.0,0.0,5.6875
-38.5,0.03681553890925526,-4.875
-38.5,-0.018407769454627854,1.625
-38.5,0.012271846303085088,-2.4375
-38.5,-0.01840776945462741,-0.8125
-38.5,0.01840776945462741,-2.4375
-38.5,-0.05522330836388312,4.875
-38.5,0.03067961575771294,3.25
-38.5,-0.04295146206079803,8.9375
-38.5,0.03067961575771294,2.4375
-38.5,0.006135923151542766,4.875
-38.5,0.006135923151542322,3.25
-38.5,-0.018407769454627854,5.6875
-38.5,0.05522330836388312,-3.25
-38.5,-0.05522330836388312,6.5
-38.5,0.05522330836388312,0.0
-38.5,0.006135923151542766,-0.8125
-38.5,-0.05522330836388312,9.75
-38.5,-0.006135923151542766,7.3125
-38.5,0.08590292412159606,-7.3125
-38.5,-0.09203884727313838,9.75
-38.5,0.11044661672776623,-8.125
-38.5,-0.07976700097005329,5.6875
-38.5,0.04908738521234035,-3.25
-38.5,-0.006135923151542766,-0.8125
-39.0,-0.042951462060797585,4.875
-38.5,0.012271846303085088,3.25
-38.5,0.0,5.6875
-38.5,0.024543692606170175,-2.4375
-38.5,-0.0674951546669682,11.375
-38.5,0.04908738521234035,2.4375
-38.5,-0.01840776945462741,6.5
-38.5,0.012271846303085088,4.875
-39.0,0.012271846303085088,0.8125
-38.5,0.03067961575771294,-0.8125
-39.0,-0.02454369260617062,2.4375
-38.5,-0.030679615757712497,4.875
-38.5,0.09203884727313838,-9.75
-38.5,-0.09203884727313838,7.3125
-38.5,0.04908738521234035,-0.8125
-39.0,-0.006135923151542766,0.0
-38.5,0.006135923151542766,0.8125
-39.0,-0.04908738521234035,8.125
-38.5,0.024543692606170175,5.6875
-39.0,0.006135923151542322,3.25
-38.5,0.012271846303085088,-1.625
-38.5,-0.042951462060797585,8.125
-38.5,0.05522330836388312,-0.8125
-38.5,-0.049087385212340795,9.75
-38.5,0.04295146206079803,-0.8125
-38.5,0.018407769454627854,0.0
-39.0,-0.0674951546669682,8.9375
-39.0,0.024543692606170175,2.4375
-38.5,0.0,6.5
-39.0,0.04908738521234035,-1.625
-38.5,-0.04908738521234035,4.875
-39.0,0.03067961575771294,3.25
-39.0,0.042951462060797585,-6.5
-38.5,-0.042951462060797585,2.4375
-38.5,-0.049087385212340795,5.6875
-38.5,0.04295146206079803,1.625
-39.0,0.03067961575771294,-2.4375
-38.5,-0.006135923151542766,-5.6875
-39.0,-0.01840776945462741,3.25
-39.0,0.030679615757712497,-0.8125
-39.0,-0.024543692606170175,0.8125
-39.0,-0.024543692606170175,5.6875
-39.0,0.018407769454627854,0.8125
-39.0,-0.03681553890925571,6.5
-39.0,0.006135923151542766,7.3125
-39.0,0.006135923151542322,6.5
-39.0,0.0674951546669682,-0.8125
-39.0,-0.006135923151542322,-4.875
-39.0,-0.04295146206079803,4.875
-38.5,0.012271846303085088,3.25
-39.0,0.03681553890925526,-3.25
-39.0,-0.01840776945462741,-2.4375
-39.0,-0.006135923151542766,2.4375
-39.0,0.0,1.625
-39.0,-0.03681553890925526,8.125
-39.0,0.0674951546669682,-4.875
-39.0,-0.024543692606170175,0.0
-39.0,-0.006135923151542766,0.8125
-39.0,-0.006135923151542322,1.625
-39.0,-0.02454369260617062,7.3125
-39.0,0.03681553890925571,1.625
-39.0,0.030679615757712497,-3.25
-39.0,-0.09203884727313838,11.375
-39.0,0.03681553890925571,7.3125
-39.0,0.07976700097005329,-4.875
-39.0,-0.049087385212340795,0.8125
-39.0,-0.05522330836388312,8.9375
-39.0,0.05522330836388312,2.4375
-39.5,-0.01840776945462741,2.4375
-39.0,0.030679615757712497,4.875
-39.0,-0.024543692606170175,5.6875
-39.0,0.006135923151542766,5.6875
-39.0,-0.012271846303085088,4.875
-39.0,0.05522330836388312,-2.4375
-39.0,-0.03681553890925571,2.4375
-39.5,0.018407769454627854,-0.8125
-39.0,-0.03067961575771294,4.875
-39.0,0.0674951546669682,-4.875
-39.0,-0.03067961575771294,4.875
-39.0,0.0,2.4375
-39.0,-0.012271846303085088,2.4375
-39.5,0.03681553890925571,-3.25
-39.0,-0.018407769454627854,0.8125
-39.5,-0.03067961575771294,5.6875
-39.5,0.006135923151542766,8.125
-39.5,0.03681553890925526,2.4375
-39.5,-0.03681553890925526,6.5
-39.5,0.06135923151542544,-1.625
-39.0,-0.04295146206079803,6.5
-39.5,-0.012271846303085088,8.125
-39.5,0.05522330836388312,0.0
-39.5,-0.012271846303085088,-0.8125
-39.0,-0.03067961575771294,8.125
-39.5,0.03681553890925571,0.0
-39.5,-0.03681553890925571,6.5
-39.5,0.02454369260617062,5.6875
-39.5,0.030679615757712497,-1.625
-39.5,0.012271846303085088,-2.4375
-39.5,-0.012271846303085088,2.4375
-39.5,-0.01840776945462741,0.8125
-39.5,0.030679615757712497,1.625
-39.5,-0.0674951546669682,7.3125
-39.5,0.05522330836388312,0.0
-39.5,-0.006135923151542322,0.8125
-39.5,-0.012271846303085088,2.4375
-39.5,-0.03681553890925571,8.125
-39.5,0.006135923151542766,7.3125
-39.5,0.04295146206079803,2.4375
-39.5,-0.006135923151542766,0.0
-40.0,0.0,0.8125
-39.5,-0.01840776945462741,6.5
-39.5,-0.006135923151542766,7.3125
-39.5,0.006135923151542766,5.6875
-39.5,0.03681553890925526,-1.625
-39.5,-0.012271846303085088,-1.625
-39.5,0.012271846303085088,-2.4375
-39.5,-0.04295146206079803,2.4375
-39.5,0.03681553890925526,-0.8125
-39.5,-0.006135923151542322,-0.8125
-39.5,0.04295146206079803,-6.5
-39.5,-0.018407769454627854,-4.875
-39.5,0.03067961575771294,-8.9375
-39.5,-0.07363107781851097,0.8125
-39.5,0.03067961575771294,-4.875
-39.5,-0.024543692606170175,0.0
-39.5,-0.049087385212340795,7.3125
-39.5,0.0674951546669682,0.0
-39.5,0.012271846303085088,-5.6875
-39.5,-0.04908738521234035,4.875
-39.5,0.03681553890925526,-2.4375
-39.5,0.02454369260617062,-4.875
-39.5,-0.07363107781851097,4.875
-39.5,0.05522330836388312,-3.25
-40.0,-0.024543692606170175,1.625
-40.0,0.03681553890925526,-2.4375
-39.5,-0.03067961575771294,3.25
-39.5,0.012271846303085088,-2.4375
-39.5,-0.024543692606170175,0.0
-39.5,0.03681553890925526,-0.8125
-40.0,0.0,-4.875
-39.5,-0.012271846303085088,-1.625
-39.5,0.02454369260617062,-6.5
-40.0,0.024543692606170175,-5.6875
-40.0,-0.06135923151542588,1.625
-40.0,0.0,0.8125
-39.5,-0.006135923151542322,2.4375
-39.5,-0.018407769454627854,4.875
-39.5,0.0,8.125
-39.5,-0.006135923151542322,5.6875
-39.5,0.042951462060797585,0.8125
-39.5,0.0,1.625
-40.0,-0.01840776945462741,1.625
-40.0,0.04908738521234035,-5.6875
-40.0,-0.018407769454627854,-2.4375
-40.0,-0.04908738521234035,7.3125
-40.0,0.0,5.6875
-40.0,0.012271846303085088,5.6875
-40.0,-0.012271846303085088,6.5
-40.0,0.06135923151542588,-1.625
-40.0,-0.02454369260617062,0.8125
-40.0,-0.006135923151542322,0.0
-40.0,-0.006135923151542766,1.625
-40.0,-0.030679615757712497,8.125
-40.0,0.10431069357622347,-9.75
-40.0,-0.018407769454627854,-6.5
-40.0,-0.03067961575771294,1.625
-40.0,0.02454369260617062,-5.6875
-40.0,-0.02454369260617062,1.625
-40.0,0.03681553890925571,-4.875
-40.5,-0.049087385212340795,1.625
-40.0,0.018407769454627854,0.8125
-40.0,0.006135923151542766,-0.8125
-40.5,-0.03067961575771294,1.625
-40.5,0.012271846303085088,3.25
-40.5,0.006135923151542322,1.625
-40.5,0.04295146206079803,0.0
-40.5,-0.01840776945462741,1.625
-40.5,0.0,1.625
-40.5,-0.03067961575771294,5.6875
-40.0,0.03681553890925526,1.625
-40.5,0.012271846303085088,-0.8125
-40.5,0.049087385212340795,-6.5
-40.5,-0.05522330836388312,3.25
-40.5,0.030679615757712497,0.0
-40.5,0.03681553890925571,-2.4375
-40.5,-0.049087385212340795,2.4375
-40.5,0.03067961575771294,1.625
-41.0,0.03067961575771294,-4.875
-40.5,0.024543692606170175,-6.5
-41.0,-0.03681553890925526,3.25
-41.0,-0.03681553890925571,7.3125
-41.0,0.03681553890925571,3.25
-41.0,0.04908738521234035,-5.6875
-41.0,0.018407769454627854,-7.3125
-41.0,-0.06135923151542588,5.6875
-41.0,0.049087385212340795,-2.4375
-41.0,-0.024543692606170175,2.4375
-41.0,-0.012271846303085532,5.6875
-41.0,0.018407769454627854,3.25
-41.0,0.012271846303085088,4.875
-41.0,0.08590292412159606,-8.9375
-41.5,-0.06135923151542588,-0.8125
-41.5,0.02454369260617062,0.8125
-41.0,0.042951462060797585,-8.125
-41.5,-0.030679615757712497,0.0
-41.0,0.0,-0.8125
-41.5,0.01840776945462741,-3.25
-41.5,-0.01840776945462741,3.25
-41.0,0.0674951546669682,-7.3125
-41.0,0.006135923151542322,-5.6875
-41.5,-0.01840776945462741,-0.8125
-41.0,0.0,2.4375
-41.0,0.01840776945462741,2.4375
-41.0,0.024543692606170175,-0.8125
-40.5,0.012271846303085088,1.625
-40.5,-0.030679615757712497,3.25
-40.5,0.006135923151542322,7.3125
-40.5,0.018407769454627854,2.4375
-40.5,0.012271846303085088,-3.25
-40.5,-0.018407769454627854,2.4375
-40.5,0.04908738521234035,-4.875
-40.5,-0.08590292412159561,4.875
-40.0,0.018407769454627854,3.25
-40.0,-0.012271846303085088,3.25
-40.0,0.042951462060797585,-2.4375
-40.0,0.018407769454628298,-1.625
-40.0,-0.06135923151542588,5.6875
-40.0,0.012271846303085088,0.0
-40.0,0.042951462060797585,-4.875
-40.0,-0.012271846303085088,-2.4375
-40.0,0.012271846303085088,-6.5
-40.0,-0.05522330836388267,2.4375
-40.0,0.030679615757712497,0.8125
-40.0,0.012271846303085088,-3.25
-40.0,0.006135923151542766,-6.5
-40.0,-0.018407769454627854,-2.4375
-39.5,0.04295146206079803,-8.9375
-40.0,-0.012271846303084644,-7.3125
-40.0,0.012271846303084644,-8.125
-40.0,-0.06135923151542544,1.625
-40.0,0.01840776945462741,-3.25
-39.5,-0.01840776945462741,1.625
-40.0,0.06749515466696776,-10.5625
-39.5,-0.07363107781851053,2.4375
-40.0,0.03067961575771294,-4.875
-40.0,0.012271846303085088,-3.25
-40.0,-0.024543692606170175,0.0
-40.0,0.006135923151542322,-1.625
-39.5,-0.006135923151542322,2.4375
-40.0,0.03681553890925571,-1.625
-40.0,0.018407769454626965,-3.25
-40.0,-0.04908738521234035,-0.8125
-40.0,-0.012271846303085088,2.4375
-39.5,0.024543692606170175,-1.625
-39.5,0.03681553890925526,-3.25
-40.0,-0.030679615757712497,-1.625
-40.0,0.0,-0.8125
-40.0,-0.03681553890925526,4.875
-39.5,0.05522330836388312,-4.875
-39.5,0.006135923151542322,-2.4375
-39.5,0.04295146206079803,-11.375
-39.5,-0.024543692606170175,-7.3125
-39.5,-0.006135923151542322,-1.625
-39.5,-0.018407769454627854,-1.625
-39.5,-0.006135923151542322,3.25
-39.5,0.006135923151542322,0.0
-39.5,-0.02454369260617062,0.8125
-39.5,0.012271846303085088,0.8125
-39.5,0.018407769454627854,-2.4375
-39.5,-0.024543692606170175,0.8125
-39.5,0.0674951546669682,-8.125
-39.5,-0.04295146206079803,-4.875
-39.5,-0.018407769454627854,0.8125
-39.5,0.04908738521234035,-4.875
-39.5,-0.05522330836388267,1.625
-39.5,0.0,0.8125
-39.5,-0.006135923151542766,2.4375
-39.5,0.018407769454628298,0.0
-39.5,0.024543692606170175,-4.875
-39.5,-0.024543692606170175,-0.8125
-39.0,0.012271846303084644,-2.4375
-39.0,0.006135923151542322,-1.625
-39.0,0.00613592315154321,-5.6875
-39.5,-0.00613592315154321,0.0
-39.5,0.024543692606170175,-7.3125
-39.5,-0.018407769454626965,-2.4375
-39.5,-0.030679615757713385,-0.8125
-39.5,0.030679615757713385,-5.6875
-39.0,0.012271846303084644,-7.3125
-39.0,-0.024543692606170175,-1.625
-39.5,0.0,-2.4375
-39.5,-0.012271846303084644,-0.8125
-39.0,0.024543692606170175,-6.5
-39.5,-0.03681553890925571,-0.8125
-39.5,0.024543692606170175,-4.875
-39.0,-0.012271846303084644,-2.4375
-39.5,0.012271846303084644,-2.4375
-39.5,-0.024543692606170175,0.0
-39.0,0.04908738521234035,-6.5
-39.0,-0.04908738521234035,-1.625
-39.0,0.0,0.0
-39.0,0.04295146206079803,-5.6875
-39.5,-0.012271846303085532,-4.875
-39.0,-0.006135923151542322,-5.6875
-39.0,0.024543692606170175,-4.875
-39.0,-0.05522330836388312,-0.8125
-39.0,0.012271846303085088,-1.625
-39.0,-0.01840776945462741,0.8125
-39.0,0.05522330836388312,-7.3125
-39.0,-0.030679615757712497,-3.25
-39.0,0.024543692606170175,-5.6875
-39.0,-0.03681553890925571,0.0
-39.0,0.024543692606170175,-4.875
-39.0,0.0,-2.4375
-39.0,-0.006135923151542322,-2.4375
-39.0,-0.02454369260617062,-1.625
-39.0,0.0,1.625
-39.0,0.0,2.4375
-39.0,0.012271846303085088,-0.8125
-39.0,-0.012271846303085088,1.625
-39.0,0.018407769454628298,-0.8125
-39.0,0.0,0.0
-39.0,0.012271846303084644,-1.625
-39.0,0.030679615757712497,-6.5
-39.0,-0.04908738521234035,1.625
-39.0,0.012271846303085532,0.0
-39.0,0.04295146206079803,-5.6875
-39.0,-0.018407769454627854,-0.8125
-39.0,-0.006135923151542322,-0.8125
-39.0,-0.012271846303085532,1.625
-39.0,0.04295146206079803,-2.4375
-39.0,-0.024543692606170175,-0.8125
-39.0,0.024543692606170175,-0.8125
-39.0,0.0,0.0
-39.0,-0.018407769454627854,3.25
-39.0,0.012271846303085532,3.25
-39.0,0.006135923151542322,1.625
-39.0,-0.006135923151542322,5.6875
-39.0,0.05522330836388267,-1.625
-39.0,-0.012271846303084644,0.8125
-39.0,0.006135923151542322,2.4375
-39.0,0.04295146206079803,-1.625
-39.5,0.018407769454627854,-3.25
-39.0,-0.018407769454627854,3.25
-39.5,0.024543692606170175,1.625
-39.5,0.030679615757712497,5.6875
-40.0,0.00613592315154321,7.3125
-40.0,0.012271846303084644,0.8125
-40.0,-0.006135923151542322,5.6875
-40.5,0.030679615757712497,-3.25
-40.5,-0.012271846303084644,0.0
-40.5,-0.00613592315154321,2.4375
-40.5,-0.012271846303084644,0.8125
-40.5,-0.030679615757713385,4.875
-40.5,0.00613592315154321,3.25
-41.0,-0.00613592315154321,1.625
-41.0,0.024543692606171064,-1.625
-41.0,-0.018407769454627854,-2.4375
-41.0,-0.012271846303085532,1.625
-41.5,-0.05522330836388267,9.75
-41.0,0.024543692606170175,0.8125
-41.0,0.018407769454627854,-5.6875
-41.0,0.012271846303084644,-7.3125
-41.0,-0.05522330836388267,0.0
-41.0,0.012271846303084644,-2.4375
-41.5,-0.024543692606170175,0.8125
-41.5,0.030679615757713385,-5.6875
-41.5,-0.04908738521234124,0.8125
-41.5,0.024543692606170175,-4.875
-41.5,-0.04908738521234035,3.25
-41.5,0.05522330836388356,-3.25
-41.5,-0.03681553890925571,-1.625
-42.0,0.03681553890925571,-9.75
-41.5,-0.024543692606170175,-6.5
-41.5,-0.04908738521234124,3.25
-41.5,0.0,2.4375
-41.5,0.030679615757713385,-1.625
-41.5,-0.024543692606170175,2.4375
-42.0,-0.00613592315154321,0.8125
-41.5,0.03681553890925571,-6.5
-41.5,-0.05522330836388267,3.25
-42.0,0.05522330836388267,-6.5
-42.0,-0.07363107781851053,4.875
-42.0,0.09203884727313838,-8.125
-41.5,-0.07976700097005374,0.0
-41.5,0.0,2.4375
-41.5,0.012271846303085532,-1.625
-42.0,0.0,-1.625
-41.5,-0.024543692606170175,-2.4375
-42.0,-0.012271846303085532,-5.6875
-42.0,-0.03681553890925526,1.625
-42.5,-0.03681553890925526,1.625
-41.5,0.006135923151542766,-3.25
-42.0,-0.049087385212340795,0.0
-41.5,0.018407769454627854,-4.875
-42.0,-0.0674951546669682,-2.4375
-41.5,-0.049087385212340795,4.875
-41.5,0.05522330836388312,-8.125
-41.0,-0.08590292412159561,1.625
-41.0,0.024543692606170175,-6.5
-40.5,-0.04295146206079803,-0.8125
-40.5,-0.08590292412159606,8.125
-40.5,0.05522330836388312,-1.625
-40.5,-0.05522330836388312,3.25
-40.0,0.018407769454627854,-3.25
-40.0,-0.07976700097005329,7.3125
-40.0,0.04295146206079803,-3.25
-39.5,-0.06135923151542588,1.625
-39.5,-0.01840776945462741,1.625
-39.5,0.006135923151542322,-2.4375
-39.5,-0.05522330836388312,4.875
-39.0,0.0674951546669682,-8.125
-39.0,-0.10431069357622347,3.25
-39.0,0.03067961575771294,-1.625
-39.0,-0.024543692606170175,-0.8125
-38.5,-0.018407769454627854,0.0
-39.0,-0.012271846303085088,-0.8125
-39.0,-0.024543692606170175,0.0
-39.0,-0.049087385212340795,7.3125
-39.0,0.03681553890925571,-2.4375
-39.5,-0.018407769454627854,-0.8125
-38.5,-0.018407769454627854,5.6875
-40.0,-0.2024854640009046,6.5
-40.5,0.018407769454627854,6.5
-40.5,0.006135923151542322,4.875
-40.5,0.006135923151542766,6.5
