-39.0,0.0,0.875
-29.5,-0.6994952392758524,1.1875
-58.5,-0.5031456984264903,-0.25
-44.5,1.0921943209745764,0.25
-40.0,4.3074180523828804,0.0
-49.0,-1.5462526341887264,0.75
-57.0,-4.252194744018997,0.75
-49.5,3.699961660380166,0.25
-42.5,-2.951379035891973,0.125
-48.5,2.7979809571034098,0.5625
-46.0,-3.399301425954581,0.4375
-42.0,5.062136600022616,0.875
-52.5,-2.890019804376548,-0.125
-60.5,-1.1474176293384595,0.25
-62.0,0.9203884727313847,0.125
-53.5,3.1661363461959633,0.5625
-50.5,-4.76147636559703,0.5625
-61.0,4.957825906446392,-0.875
-53.0,-0.34974761963792655,-0.25
-55.5,-0.6994952392758522,-0.125
-61.0,-0.0981747704246807,0.125
-53.5,0.9142525495798424,0.0
-55.5,-3.963806355896497,0.4375
-44.5,3.331806271287612,0.125
-60.0,0.8344855486097895,-0.125
-62.0,-0.3252039270317564,1.8125
-30.0,-4.190835512503572,0.75
-58.0,-0.7179030087304801,0.0
-42.0,5.019185137961818,0.5625
-39.0,-0.4295146206079794,0.25
-49.5,-4.3074180523828804,0.125
-53.0,4.773748211900116,-0.125
-42.5,-4.577398671050753,0.25
-58.5,-0.4111068511533518,-0.125
-50.5,0.2454369260617026,0.0
-49.0,0.5583690067903735,0.875
-40.0,1.5892040962495242,0.75
-45.5,-2.4727770300716534,0.25
-48.0,0.2699806186678728,0.4375
-52.5,5.080544369477243,0.125
-53.5,-0.7669903939428204,0.5625
-57.0,-4.381049130201391,-0.5625
-57.0,3.669282044622453,0.875
-49.0,-2.165980872494525,0.5625
-47.5,-1.8714565612204823,0.125
-61.0,6.111379458936395,1.3125
-39.5,-1.0185632431560663,0.25
-45.5,-4.295146206079795,0.5625
-51.5,3.7551849687440493,1.0625
-43.0,-3.4299810417122933,-0.125
-54.5,-0.07363107781851075,-0.4375
-49.5,4.970097752749478,0.5625
-52.5,-4.558990901596125,-0.125
-52.5,2.9452431127404313,0.4375
-50.0,-2.245747873464579,-0.25
-60.5,2.3561944901923453,0.125
-60.5,-2.3623304133438876,1.5
-65.5,3.3011266555298993,1.8125
-45.5,-4.626486056263094,0.875
-52.0,3.583379120500858,-0.125
-59.5,-0.024543692606170175,0.4375
-57.5,-3.552699504743145,0.75
-49.0,1.0615147052168636,0.0
-57.5,1.3621749396424494,0.5625
-51.0,1.1780972450961724,1.1875
-40.0,-2.5402721847386216,0.875
-49.0,3.8410878928656453,0.4375
-49.5,-0.47860200582031975,0.25
-52.5,-0.5645049299419158,-0.125
-47.5,-4.792155981354743,0.25
-43.5,1.2517283229146832,0.125
-54.5,3.7122335066832512,0.4375
-62.0,1.1106020904292047,1.0625
-68.0,-0.4970097752749476,0.25
-60.5,-0.04908738521234124,1.0625
-55.0,-1.1965050145507998,0.125
-55.5,1.2701360923693112,0.125
-41.0,-5.479379374327511,0.5625
-39.0,0.0674951546669682,0.875
-34.5,0.5460971604872882,0.875
-34.5,0.012271846303085199,0.75
-51.5,4.147884050442774,0.25
-46.5,-4.6878452877785195,0.5625
-49.5,4.663301595172349,0.0
-52.5,-4.417864669110647,0.4375
-46.5,4.442408361716817,-0.125
-41.5,0.613592315154257,0.4375
-39.5,-4.479223900626073,0.5625
-43.5,4.374913207049849,0.4375
-47.0,0.2638446955163305,0.5625
-57.0,0.4233786974564371,-1.1875
-64.5,-0.5645049299419167,0.4375
-54.5,-0.4601942363656919,0.5625
-39.5,-4.0128937411088375,0.875
-64.5,4.466952054322987,0.0
-49.5,-3.8533597391687304,0.125
-41.0,-1.6014759425526095,0.5625
-46.5,4.81056375080937,0.75
-41.0,0.570640853093459,0.5625
-35.0,-4.6448938257177215,0.25
-39.0,-0.6381360077604268,0.125
-47.5,5.767767762450011,0.875
-57.0,0.17794177139473444,0.4375
-34.5,-5.3812046039028285,0.75
-46.5,-0.5460971604872882,0.0
-53.0,4.706253057233147,0.25
-44.0,-2.6077673394055902,0.25
-54.0,-0.3067961575771281,0.25
-54.5,3.749049045592507,0.0
-53.5,-5.375068680751286,0.0
-53.0,5.037592907416445,0.4375
-38.5,-3.6692820446224537,0.5625
-59.0,2.9084275738311756,0.25
-44.5,-3.9085830475326135,0.25
-50.0,-0.2270291566070749,1.0625
-52.5,5.141903600992669,0.125
-47.5,-2.1659808724945253,0.875
-44.5,1.0676506283684062,0.75
-40.0,1.3314953238847362,0.75
-30.0,-1.72419440558346,0.5625
-41.5,1.2026409377023421,1.0625
-48.0,-4.945554060143307,0.125
-56.0,0.19634954084936207,-0.125
-49.5,0.5583690067903735,0.875
-63.5,1.1780972450961724,1.1875
-59.0,-0.705631162427395,0.125
-63.0,3.2643111166206444,1.625
-55.0,0.7485826244881926,0.4375
-45.5,-5.516194913236766,0.125
-62.0,0.3865631585471816,1.3125
-63.0,4.196971435655114,-0.125
-45.0,-3.0495538063166547,0.5625
-52.5,3.9453985864418692,0.875
-48.0,-5.221670601962723,0.75
-39.5,2.3439226438892597,0.75
-39.0,2.1475731030398975,0.5625
-30.0,-3.9085830475326135,1.1875
-50.0,-0.44792239006260715,0.4375
-41.0,-0.07976700097005335,1.3125
-41.5,4.828971520263999,0.75
-65.5,0.09203884727313838,0.25
-48.5,-1.0185632431560663,0.75
-63.0,-3.3440781175906977,-0.4375
-58.5,0.10431069357622369,0.4375
-63.5,-0.8099418560036186,0.5625
-54.5,4.9823695990525625,0.25
-49.0,-4.430136515413732,0.75
-59.0,4.657165672020806,0.5625
-45.5,-5.399612373357457,0.75
-58.0,4.933282213840222,0.5625
-50.5,0.22089323345553247,0.125
-39.5,-3.3195344249845276,0.75
-52.0,-0.6074563920027141,0.4375
-53.5,0.3067961575771283,-0.125
-43.0,-0.5583690067903735,0.75
-55.0,0.0920388472731386,0.125
-50.5,0.294524311274043,0.125
-46.0,2.595495493102505,0.875
-48.0,-0.705631162427395,0.25
-59.5,1.9082721001297371,1.0625
-48.5,-5.154175447295754,0.25
-48.5,4.878058905476339,1.1875
-50.5,-0.7117670855789378,1.0625
-67.0,1.583068173097982,2.25
-56.0,-1.619883712007237,1.0625
-58.5,-3.8042723539563905,0.0
-63.0,-0.09817477042468103,0.5625
-59.5,4.319689898685965,1.3125
-64.0,-4.448544284868359,0.4375
-51.0,4.0558452031696355,0.875
-48.0,-3.9944859716542096,0.5625
-56.0,4.037437433715008,0.5625
-51.0,-2.9452431127404313,0.75
-43.0,-0.2024854640009046,0.5625
-40.0,0.8651651643675016,0.4375
-49.5,3.135456730438251,-0.125
-48.5,-5.0682725231741586,0.5625
-53.5,4.779884135051658,0.25
-60.0,0.6442719309119695,0.5625
-58.5,-4.9639618295979355,0.0
-45.5,0.3190680038802133,0.75
-51.0,3.7920005076533054,0.0
-60.0,-3.1047771146805383,-0.125
-65.5,-1.086058397823034,-0.75
-48.5,4.528311285838413,0.125
-64.0,-4.589670517353839,-1.1875
-54.5,3.8840393549264434,0.125
-69.0,1.7180584824319185,-1.8125
-55.0,-4.227651051412828,0.0
-39.0,-1.5707963267948966,0.25
-49.5,4.95168998329485,0.0
-39.0,-4.123340357836604,1.0625
-46.5,-0.9326603190344699,0.4375
-41.0,5.47937937432751,0.5625
-44.0,-0.25157284921324496,1.1875
-45.5,-0.674951546669682,0.4375
-41.0,-4.595806440505381,0.75
-50.0,4.908738521234051,1.1875
-51.5,-1.3744467859455343,0.4375
-52.5,1.8162332528565992,0.75
-34.5,-4.724660826687774,1.1875
-34.5,0.0674951546669682,0.5625
-57.0,5.062136600022615,0.5625
-68.5,-5.21553467881118,0.4375
-54.0,1.3499030933393643,-0.4375
-55.0,3.055689729468197,0.0
-39.0,-3.9638063558964967,1.0625
-47.0,-1.0062913968529805,1.0625
-54.0,1.902136176978195,-0.5625
-34.5,-1.2455923997631406,1.1875
-46.5,3.9699422790480394,0.75
-39.0,-4.583534594202296,0.75
-57.0,5.767767762450011,0.0
-34.5,-5.117359908386499,1.0625
-41.5,4.853515212870169,0.0
-49.5,-3.724505352986337,0.75
-49.0,3.35021404074224,0.75
-51.5,-4.773748211900116,0.125
-53.0,1.8653206380689396,0.25
-44.0,3.0311460368620273,0.5625
-41.0,0.9203884727313847,0.5625
-67.5,-0.09817477042468159,0.125
-62.5,-5.767767762450011,0.75
-39.5,5.47937937432751,0.4375
-45.5,-5.816855147662351,0.125
-42.0,0.5092816215780329,0.875
-64.5,4.4546802080199015,1.0625
-49.5,-4.4976316700806995,0.25
-52.5,1.8530487917658545,0.125
-60.0,2.7120780329818133,0.0
-49.5,-4.663301595172348,0.5625
-30.0,0.6013204688511714,1.0625
-39.0,0.7240389318820226,0.875
-49.0,-1.4971652489763858,0.4375
-49.5,1.0062913968529805,0.0
-57.0,3.098641191528995,0.75
-45.5,0.23930100291016032,1.0625
-53.5,1.055378782065321,0.25
-55.0,-0.4295146206079803,0.4375
-57.5,-4.81056375080937,0.0
-61.5,1.4971652489763858,0.5625
-41.5,3.429981041712294,0.875
-46.5,0.9387962421860117,1.3125
-52.5,-4.086524818927348,0.4375
-50.0,1.4848934026733005,0.125
-45.5,0.9817477042468101,0.25
-29.5,-3.687689814077081,0.5625
-60.5,0.8713010875190442,0.875
-41.5,3.522019888985432,0.5625
-50.0,-0.9817477042468106,0.4375
-39.0,0.47860200582031975,0.5625
-39.0,-2.2027964114037806,0.875
-57.0,1.3805827090970775,-0.125
-42.5,-0.4479223900626077,0.5625
-48.5,-3.399301425954581,0.125
-54.5,1.988039101099791,0.25
-57.5,-1.920543946432823,0.75
-53.0,5.3627968344482015,0.75
-50.0,-5.148039524144211,0.875
-62.5,4.154019973594316,0.125
-64.0,-4.270602513473625,1.8125
-62.5,4.718524903536232,0.25
-59.5,-4.577398671050753,0.125
-48.0,1.3867186322486198,0.5625
-48.5,-1.368310862793992,-0.4375
-50.0,1.5707963267948963,0.0
-53.5,2.939107189588889,0.25
-50.0,-0.8713010875190443,0.4375
-48.5,-3.9453985864418692,0.4375
-54.0,0.9387962421860123,0.25
-45.5,2.902291650679633,0.875
-44.5,-2.902291650679633,0.125
-40.5,4.0742529726242624,1.0625
-60.0,-3.282718886075272,0.75
-59.5,2.7120780329818137,0.125
-52.0,-0.14112623248547873,0.5625
-56.0,-0.2024854640009046,0.0
-51.5,-2.7918450339518674,0.25
-67.0,4.356505437595221,0.5625
-52.5,-0.8897088569736713,0.25
-49.0,-4.828971520263998,0.75
-48.0,0.1533980787885641,0.75
-54.0,0.8406214717613313,0.4375
-52.0,3.32567034813607,-0.5625
-50.5,0.7485826244881926,-0.125
-55.0,-1.0001554737014375,0.4375
-40.5,1.0369710126106932,0.75
-45.5,-4.3933209765044765,0.875
-44.0,0.24543692606170264,0.875
-59.0,3.4606606574700063,0.4375
-51.5,0.05522330836388356,0.4375
-48.5,-2.767301341345697,0.25
-56.0,4.092660742078891,0.5625
-51.5,-2.2764274892222915,-0.125
-34.5,-2.988194574801229,0.5625
-41.0,4.853515212870169,0.75
-34.5,-4.786020058203201,0.5625
-46.0,0.7853981633974482,0.25
-38.5,-1.4296700943094174,0.75
-54.0,4.921010367537137,0.125
-48.0,0.34361169648638334,-0.25
-44.0,-0.024543692606170175,0.25
-49.5,-0.47246608266877743,0.75
-39.5,-3.8410878928656453,0.25
-40.5,-1.0062913968529807,0.5625
-54.5,5.178719139901925,0.125
-47.5,-5.056000676871073,0.75
-54.5,1.736466251886546,0.25
-40.5,-1.846912868614312,0.125
-45.5,4.59580644050538,0.25
-35.0,-0.7485826244881926,0.5625
-34.5,-3.2336315008629315,1.0625
-56.0,5.295301679781233,1.0625
-54.5,-0.6994952392758522,0.25
-41.5,0.337475773334841,0.25
-39.5,-4.552854978444583,0.0
-39.0,-0.9081166264282996,1.0625
-47.5,5.098952138931872,0.5625
-52.0,-4.7307967498393175,0.125
-47.5,-0.2699806186678728,-0.25
-44.0,5.098952138931871,1.1875
-50.0,-0.41724277430489476,-0.125
-53.5,0.11658253987930944,-0.125
-55.0,0.030679615757712497,0.25
-54.5,0.05522330836388356,0.4375
-47.0,-4.798291904506286,0.25
-38.0,1.4051264017032472,0.5625
-41.5,3.6754179677739964,1.1875
-42.5,-4.767612288748572,0.875
-44.5,3.890175278077986,1.0625
-64.5,-2.63231103201176,1.5
-56.0,-1.5278448647340988,0.25
-29.5,0.6442719309119693,0.125
-52.0,1.300815708127024,0.125
-39.0,3.5342917352885173,0.875
-56.5,-4.9394181369917645,0.25
-50.0,-0.45405831321414974,0.5625
-45.0,-0.39883500485026674,0.5625
-62.5,0.5460971604872883,2.4375
-50.0,0.7731263170943632,0.0
-49.5,-0.8774370106705869,0.5625
-60.0,1.5033011721279284,0.5625
-52.5,3.6079228131070282,0.875
-62.5,-3.761320891895592,-0.875
-50.0,2.6507188014663883,0.5625
-52.5,0.926524395882927,0.25
-42.5,-1.6751070203711205,0.5625
-45.0,2.5218644152839946,0.5625
-60.5,-1.0062913968529807,0.25
-64.0,-3.485204350076177,2.125
-47.0,-1.466485633218673,0.5625
-41.5,5.080544369477244,0.75
-39.5,0.44792239006260637,0.4375
-30.0,-4.921010367537137,1.3125
-45.5,0.4172427743048943,0.5625
-38.5,3.4667965806215486,0.875
-57.0,-3.773592738198677,0.125
-49.5,-0.5460971604872882,-0.125
-55.5,4.528311285838413,0.0
-50.0,-4.503767593232243,0.0
-61.0,0.1472621556370216,0.4375
-56.0,-0.14112623248547906,-0.125
-52.5,5.013049214810276,0.875
-63.0,-0.4295146206079803,0.0
-61.5,1.030835089459151,1.1875
-44.0,-4.9394181369917645,0.4375
-40.5,0.9694758579437253,0.75
-61.0,-0.8160777791551612,1.8125
-49.5,-1.141281706186917,-0.25
-48.5,-0.018407769454627687,0.25
-49.0,1.7119225592803757,0.25
-51.5,2.362330413343887,1.0625
-56.5,-3.0802334220743672,-0.25
-45.5,-0.2761165418194155,0.5625
-51.5,4.049709280018093,0.125
-49.5,-2.761165418194154,0.25
-54.0,-0.9019807032767573,0.75
-52.0,3.5649713510462298,0.75
-52.0,-3.3011266555298997,-0.4375
-60.0,1.8346410223112268,0.5625
-60.0,2.1168934872821845,-0.125
-68.0,0.44178646691106493,2.4375
-52.0,-4.25833066717054,0.0
-49.0,-1.5707963267948966,0.5625
-43.5,1.0369710126106932,0.75
-40.5,0.9878836273983529,0.25
-48.5,2.9697868053466014,0.125
-51.5,-3.6140587362585705,0.0
-51.5,2.8777479580734626,0.5625
-49.0,-4.25833066717054,0.4375
-45.5,0.7547185476397354,1.3125
-53.5,3.4606606574700063,0.125
-49.5,-2.239611950313036,0.0
-60.5,2.4666411069201106,0.4375
-60.5,-2.350058567040802,0.875
-51.5,2.5525440310417067,0.0
-55.0,-0.4847379289718621,0.125
-59.5,-3.7858645845017627,0.4375
-61.5,5.706408530934585,-0.75
-67.0,-0.30679615757712764,1.5
-39.0,-2.552544031041707,0.125
-41.0,2.1782527187976104,0.5625
-56.5,0.4233786974564371,0.125
-44.0,-0.6013204688511715,0.125
-46.5,-5.154175447295755,0.75
-65.0,2.000310947402876,1.9375
-34.5,-1.4358060174609601,1.0625
-39.5,0.31293208072867085,0.0
-34.5,-0.31293208072867085,1.0625
-40.5,-0.6381360077604267,0.4375
-45.5,4.706253057233147,0.4375
-48.5,-2.5586799541932495,0.5625
-52.0,-1.7610099444927163,-0.25
-50.0,4.454680208019902,0.75
-54.5,-3.0495538063166547,0.25
-53.5,0.07363107781851075,0.875
-55.0,3.4483888111669216,-0.125
-53.0,-0.3067961575771285,0.875
-55.0,0.3006602344255862,0.75
-40.5,-5.3627968344482015,0.25
-39.0,0.12271846303085131,0.4375
-41.0,5.350524988145117,0.125
-34.5,-4.810563750809371,0.875
-34.5,0.036815538909255374,0.4375
-48.5,4.595806440505381,0.4375
-49.5,-0.3926990816987246,0.125
-56.5,1.0492428589137788,0.0
-47.0,-5.8045833013592665,0.75
-39.5,0.859029241215959,0.4375
-46.0,0.6135923151542564,0.4375
-54.5,0.2024854640009046,1.0625
-44.0,3.491340273227719,0.25
-52.0,-4.896466674930966,0.25
-66.0,4.663301595172349,1.0625
-42.0,-4.565126824747668,0.75
-38.5,4.239922897715912,0.75
-49.5,-4.276738436625168,0.125
-59.5,4.614214209960009,0.25
-30.0,-1.0431069357622365,0.5625
-52.0,1.3437671701878218,0.5625
-53.0,0.12271846303085088,0.5625
-50.0,-5.031456984264903,0.75
-56.5,0.04295146206079792,0.0
-39.5,5.307573526084319,0.4375
-42.0,-0.4970097752749476,0.875
-49.5,-0.9326603190344702,0.5625
-55.0,0.6258641614573417,-0.25
-61.5,-4.663301595172349,0.4375
-45.5,-0.30066023442558565,0.25
-45.0,1.3130875544301088,0.75
-47.0,-1.0124273200045233,0.4375
-56.0,3.6938257372286243,-0.125
-63.5,1.0246991663076077,0.75
-64.0,-0.41724277430489387,1.625
-45.5,-4.571262747899211,0.125
-42.5,0.46019423636569234,0.4375
-47.0,-0.17180584824319178,0.875
-30.0,0.521553467881118,0.875
-45.0,3.6324665057131984,0.4375
-50.0,-4.04357335686655,0.75
-64.0,4.166291819897401,1.1875
-52.5,0.7731263170943636,0.4375
-54.5,-0.3620194659410112,0.125
-42.0,0.28225246497095746,0.875
-39.5,0.47246608266877743,0.875
-60.0,-0.7117670855789369,1.8125
-49.5,-4.608078286808467,0.0
-64.0,1.4664856332186726,1.1875
-38.5,-0.3374757733348408,0.5625
-56.0,-0.6688156235181397,0.5625
-50.0,0.2945243112740432,0.875
-56.0,-0.7608544707912781,0.75
-61.0,-0.11044661672776612,0.25
-53.0,5.154175447295755,0.25
-43.5,-4.442408361716817,0.5625
-49.5,-1.0185632431560656,-0.125
-56.0,1.0185632431560656,0.4375
-49.0,0.7731263170943632,0.25
-45.5,2.0739420252213865,0.5625
-62.0,-3.6263305825616556,1.5
-49.5,4.871922982324796,0.125
-40.5,-3.11091303783208,0.75
-49.0,-2.0064468705544187,0.125
-51.5,4.620350133111551,0.25
-51.5,-0.3988350048502669,0.125
-60.5,-2.988194574801229,0.75
-62.0,4.7860200582032,-0.4375
-52.0,-1.2026409377023421,-0.25
-52.0,-3.393165502803038,1.9375
-60.5,0.7669903939428206,0.125
-54.0,2.0555342557667586,0.25
-66.5,1.4235341711578755,0.75
-52.0,-1.0860583978230345,0.75
-52.0,0.2024854640009046,0.75
-40.5,0.3681553890925544,0.125
-50.0,-5.166447293598839,0.25
-49.5,2.0125827937059615,0.875
-60.5,0.2270291566070748,0.875
-54.0,2.0064468705544187,0.0
-51.5,-3.1906800388021335,0.5625
-49.0,3.8840393549264434,0.5625
-66.5,0.6626797003665965,1.1875
-62.0,0.44792239006260726,1.1875
-55.0,-1.9205439464328222,0.4375
-49.5,-0.9510680884890976,0.125
-51.5,1.466485633218673,1.1875
-45.5,-3.920854893835699,1.1875
-60.5,-0.2822524649709579,-0.875
-61.0,0.7853981633974482,0.75
-43.5,-0.15953400194010658,0.25
-34.5,-0.43565054375952217,0.25
-40.5,-0.6872233929727671,0.25
-39.5,0.9756117810952678,0.75
-38.5,-0.8651651643675017,0.75
-34.5,3.736777199289422,0.75
-46.5,-3.706097583531709,0.0
-54.5,5.184855063053468,0.25
-49.5,-0.41724277430489476,0.4375
-51.5,-4.503767593232243,0.0
-48.0,4.9394181369917645,0.875
-45.5,-0.632000084608884,0.5625
-41.0,-2.411417798556228,1.0625
-44.0,-0.17180584824319167,0.125
-56.0,3.859495662320273,0.125
-53.0,-0.9449321653375549,0.4375
-54.5,-0.07363107781851053,0.5625
-34.5,-4.331961744989051,1.5
-56.0,5.344389064993574,0.25
-53.0,-4.074252972624263,-0.125
-44.0,3.393165502803038,0.0
-34.0,-1.4971652489763856,0.4375
-40.5,-3.8104082771079324,0.5625
-38.5,0.09817477042468103,1.0625
-39.5,0.8958447801252145,1.1875
-41.0,4.448544284868359,0.4375
-49.5,-0.5706408530934581,0.0
-48.0,-2.6813984172241008,-0.125
-54.5,3.08636934522591,0.5625
-46.0,-0.5767767762450013,0.5625
-51.5,-4.295146206079795,0.25
-54.5,4.608078286808466,-0.5625
-46.5,-4.896466674930966,0.125
-49.5,0.34361169648638357,0.4375
-57.0,-0.01840776945462763,0.25
-55.0,4.675573441475434,0.4375
-46.0,-5.006913291658733,0.25
-40.0,5.749359992995383,0.25
-50.0,-5.344389064993574,0.4375
-38.5,1.1351457830353744,1.0625
-47.5,1.9205439464328227,0.4375
-42.5,0.08590292412159606,0.25
-30.0,-2.736621725587984,1.1875
-45.5,3.644738352016283,0.75
-56.0,-3.4606606574700063,0.25
-50.0,0.07976700097005329,0.875
-60.5,3.957670432744954,-0.125
-61.5,-4.902602598082509,1.5
-42.5,5.068272523174158,1.0625
-64.0,-0.18407769454627676,0.0
-63.5,-3.5281558121369745,-0.5625
-53.5,3.9699422790480394,0.4375
-52.5,-3.2397674240144743,0.125
-42.5,2.9943304979527716,0.875
-45.5,-3.896311201229529,1.1875
-47.5,-0.9940195505498954,0.25
-42.5,0.11044661672776618,0.25
-64.0,1.4296700943094174,-0.75
-53.5,3.607922813107028,0.0
-52.5,-3.239767424014474,0.5625
-38.5,-0.6688156235181395,0.4375
-50.5,-1.1351457830353744,0.125
-30.0,0.39269908169872414,1.1875
-40.0,4.921010367537137,0.25
-55.0,-3.8472238160171877,0.4375
-61.0,-1.7671458676442586,0.875
-50.0,0.9694758579437253,0.5625
-63.5,3.4545247343184635,2.6875
-49.5,-1.0369710126106932,0.25
-46.0,-3.4974761963792615,0.0
-60.5,4.95168998329485,1.625
-56.0,-3.957670432744954,0.4375
-57.0,-0.6872233929727674,-0.4375
-49.5,-0.3436116964863836,0.75
-49.5,1.9512235621905354,-0.25
-59.0,-1.5953400194010667,-0.5625
-40.5,1.6260196351587797,0.4375
-43.5,-0.9326603190344698,0.75
-62.5,5.031456984264903,0.25
-48.5,-1.116738013580747,0.5625
-51.5,-0.674951546669682,0.5625
-55.5,-0.07363107781851053,1.0625
-45.5,-0.3313398501832987,0.4375
-52.0,0.5706408530934581,0.25
-51.5,0.09817477042468159,-0.4375
-54.0,-0.41724277430489476,0.0
-49.5,1.8100973297050569,0.0
-60.0,-4.031301510563465,-0.25
-52.0,2.8716120349219203,0.25
-64.5,-4.6448938257177215,-0.125
-61.0,1.030835089459151,-1.3125
-67.5,4.632621979414636,-1.625
-68.0,-0.2699806186678728,5.1875
-59.5,-3.5895150436524,-0.25
-45.5,-1.2087768608538854,0.75
-43.5,0.30066023442558576,0.25
-49.5,-0.9756117810952678,0.125
-40.0,5.056000676871074,0.75
-49.0,0.9572040116406395,0.25
-60.5,-1.8223691760081415,1.625
-51.5,-0.17794177139473444,1.3125
-49.0,1.030835089459151,0.125
-56.5,-4.147884050442773,0.125
-52.0,3.8717675086233583,-0.125
-51.5,-0.337475773334841,1.9375
-51.5,0.11658253987930856,0.5625
-48.5,0.24543692606170264,1.1875
-61.0,-4.479223900626073,-0.875
-54.0,3.7981364308048478,0.4375
-66.0,-3.9699422790480394,0.25
-63.0,5.773903685601553,-0.25
-48.0,-3.8779034317749006,0.125
-51.5,-1.736466251886546,0.75
-45.5,4.270602513473625,0.75
-39.0,-4.595806440505381,0.5625
-44.0,5.19099098620501,1.1875
-40.0,-4.295146206079796,0.4375
-41.0,4.405592822807562,0.5625
-49.5,-0.5215534678811187,0.125
-34.5,-1.0983302441261187,1.0625
-55.0,1.104466167277662,0.75
-34.5,-4.215379205109742,1.0625
-53.0,4.362641360746763,0.875
-40.5,-5.037592907416445,0.4375
-54.0,5.283029833478148,-0.5625
-47.0,-5.209398755659637,-0.125
-56.5,2.8102528034064944,-0.875
-39.0,0.36815538909255396,0.5625
-48.5,2.0800779483729293,0.75
-40.5,-5.325981295538946,0.25
-45.5,4.718524903536232,0.5625
-34.5,-4.04357335686655,0.25
-49.5,4.18469958935203,0.875
-41.0,0.5338253141842024,0.5625
-40.0,-4.436272438565274,0.125
-34.0,-0.2945243112740432,1.0625
-44.0,4.5835345942022965,0.875
-46.5,-5.160311370447297,0.125
-54.5,1.6996507129772904,0.0
-53.0,3.2704470397721868,0.4375
-54.0,0.25157284921324585,0.4375
-51.5,-4.9210103675371375,0.5625
-56.5,5.5959619142068195,0.5625
-56.5,-1.730330328735004,0.25
-45.0,-2.8777479580734626,-0.25
-30.0,-0.4908738521234052,0.0
-64.5,0.6442719309119692,0.875
-39.5,4.246058820867455,-0.125
-38.5,-1.0246991663076077,0.5625
-50.0,-3.5097480426823475,1.3125
-41.5,4.025165587411923,0.5625
-43.0,-1.558524480491812,1.0625
-60.0,1.3008157081270237,0.4375
-53.0,0.47860200582031975,-0.4375
-47.5,-5.1296317546895835,0.0
-46.0,-0.30066023442558565,0.5625
-50.0,0.3742913122440964,0.25
-63.5,4.700117134081605,1.8125
-54.5,-0.10431069357622391,0.125
-50.0,-4.614214209960009,1.0625
-52.0,1.8530487917658547,0.0
-59.5,-2.043262409463674,-0.125
-56.0,0.1349903093339364,0.125
-46.0,-0.28838838812250056,0.125
-30.0,0.803805932852076,1.3125
-38.5,3.877903431774901,0.4375
-50.0,-4.344233591292136,0.25
-41.5,4.847379289718626,0.4375
-45.0,-3.920854893835699,0.5625
-53.0,4.154019973594316,0.125
-54.5,-0.4601942363656919,0.5625
-52.0,0.37429131224409673,0.4375
-56.5,-1.221048707156971,0.4375
-39.5,1.583068173097982,0.125
-43.5,-2.0555342557667595,0.75
-60.0,-3.4913402732277192,1.0625
-50.0,0.2086213871524472,0.125
-60.0,4.608078286808466,1.0625
-47.5,-4.6878452877785195,-0.125
-56.0,0.036815538909255374,0.25
-64.0,4.2031073588066565,1.8125
-50.5,-3.313398501832985,0.5625
-64.0,0.7301748550335652,0.75
-53.5,2.215068257706866,0.5625
-49.0,1.9941750242513336,0.5625
-61.0,-4.871922982324797,-0.125
-61.5,-0.9265243958829272,0.4375
-52.0,4.166291819897402,0.0
-48.5,-2.675262494072558,0.125
-40.5,3.307262578681442,1.0625
-55.0,-4.080388895775806,0.0
-61.0,4.0558452031696355,1.3125
-52.0,-0.3252039270317555,0.4375
-45.5,-4.049709280018093,0.5625
-43.5,0.24543692606170253,0.75
-49.5,4.061981126321178,0.25
-50.0,-5.074408446325701,0.4375
-63.0,6.037748381117884,0.75
-52.0,-1.4051264017032477,0.0
-51.0,-0.294524311274043,0.25
-66.5,1.3192234775816516,0.0
-41.0,-3.650874275167826,0.875
-50.0,1.1535535524900018,0.5625
-49.0,-3.11091303783208,0.4375
-49.0,5.037592907416446,0.0
-45.5,-4.313553975534424,0.5625
-52.0,3.8349519697141026,0.125
-60.0,-0.21475731030398926,1.1875
-48.5,0.6135923151542562,0.0
-43.5,-3.9638063558964967,0.125
-52.0,3.7920005076533045,0.0
-60.5,-4.558990901596125,0.75
-53.5,3.902447124381071,0.25
-51.0,0.11658253987930856,0.125
-66.5,1.4296700943094178,0.25
-62.0,0.2638446955163305,0.4375
-55.0,-1.7548740213411733,0.4375
-52.0,0.355883542789468,0.125
-60.5,-2.620039185708675,0.25
-44.0,0.14726215563702194,0.25
-54.5,3.1354567304382504,0.25
-34.5,-1.5033011721279284,0.875
-48.5,-1.5646604036433538,0.4375
-40.5,-2.2212041808584084,0.4375
-54.5,4.970097752749478,-0.4375
-47.0,-1.7119225592803757,-0.875
-34.5,-2.5893595699509624,0.875
-39.0,-0.5767767762450011,0.875
-41.5,5.313709449235861,0.75
-57.0,0.5399612373357456,0.5625
-53.5,-0.9387962421860125,-0.125
-39.5,-4.031301510563464,0.25
-45.5,3.706097583531709,0.75
-49.5,-2.932971266437346,0.125
-51.5,-1.3130875544301088,0.0
-45.5,4.270602513473625,0.4375
-53.5,-2.82252464970958,0.25
-34.5,1.8960002538266523,1.0625
-38.5,-3.687689814077081,0.875
-54.5,5.184855063053467,0.125
-49.5,-0.4049709280018092,0.5625
-57.0,1.1044661672776623,0.25
-34.5,-5.3014376029327765,0.5625
-54.5,4.270602513473626,0.5625
-47.0,-1.7426021750380887,0.0
-48.5,2.1843886419491527,0.4375
-39.5,-4.417864669110646,0.5625
-41.0,4.442408361716817,0.25
-51.5,-4.988505522204105,0.4375
-40.5,-0.41724277430489437,0.4375
-44.0,5.258486140871978,1.0625
-53.0,0.27611654181941514,0.0
-41.5,-0.2699806186678728,0.4375
-38.5,-0.5399612373357456,0.75
-39.5,1.0185632431560654,0.125
-57.0,-1.6996507129772898,0.125
-50.0,-2.8163887265580376,1.0625
-55.0,0.6504078540635119,-0.25
-45.5,4.313553975534423,0.75
-50.0,-5.773903685601553,0.0
-64.5,1.4910293258248433,1.1875
-30.0,-1.043106935762236,0.75
-45.0,3.5956509668039427,0.4375
-60.5,0.5645049299419167,0.75
-47.0,-4.755340442445488,0.0
-64.0,1.282407938672396,0.125
-43.0,-0.9694758579437253,1.0625
-56.0,-0.25157284921324513,0.4375
-52.0,4.988505522204106,0.0
-49.5,-4.92714629068868,0.875
-60.0,-0.05522330836388306,-0.4375
-47.0,-0.07976700097005335,0.4375
-53.0,5.246214294568893,0.125
-50.0,-4.264466590322082,0.5625
-52.0,4.098796665230433,0.75
-60.0,-5.0007773685071895,0.875
-50.0,0.04908738521234046,0.75
-38.5,1.184233168247715,1.0625
-43.5,-0.9878836273983529,0.5625
-30.0,0.282252464970958,0.5625
-39.5,1.736466251886546,0.4375
-64.5,-0.6135923151542566,0.25
-45.0,-0.674951546669682,0.75
-41.5,3.9269908169872414,1.3125
-55.0,-3.3747577333484102,0.5625
-45.5,-1.9266798695843654,1.0625
-59.5,5.062136600022615,0.0
-56.5,-0.926524395882927,1.0625
-55.5,-3.730641276137879,0.75
-50.0,0.07976700097005329,0.25
-64.0,0.8283496254582462,1.5
-61.0,0.9387962421860123,0.4375
-52.0,-0.5522330836388307,-0.125
-61.0,-0.3190680038802134,0.125
-45.5,2.5648158773447918,0.75
-52.5,0.7117670855789373,0.125
-40.5,-2.5525440310417067,0.75
-52.0,2.626175108860218,0.4375
-43.5,-3.6324665057131984,0.5625
-45.5,2.8532042654672924,0.75
-40.5,1.2946797849754814,0.5625
-48.5,-5.148039524144212,0.25
-61.0,5.344389064993574,0.4375
-49.0,-0.398835004850266,0.125
-52.5,-0.41110685115335244,0.75
-49.0,-4.534447208989955,0.125
-50.0,5.148039524144212,0.125
-51.5,-1.0369710126106941,0.75
-62.5,1.6935147898257483,-0.4375
-43.5,-4.822835597112456,0.4375
-60.5,0.16566992509164913,0.5625
-67.0,4.313553975534424,3.1875
-52.0,-3.9147189706841568,0.25
-63.0,-1.1167380135807465,-1.0625
-54.0,0.7301748550335653,-0.25
-67.0,-0.8651651643675018,0.875
-51.5,4.331961744989051,0.25
-56.5,-0.337475773334841,-0.125
-49.5,-1.1474176293384595,0.75
-62.5,2.7243498792848992,-0.25
-40.5,-3.841087892865646,0.125
-61.5,0.19021361769781953,0.25
-60.5,-1.0676506283684064,-0.125
-45.5,-0.42337869745643686,0.75
-43.5,3.405437349106123,0.75
-52.5,-2.7120780329818137,-0.125
-49.0,-1.4112623248547898,0.25
-51.5,0.9756117810952678,-0.4375
-52.0,3.6570101983193686,0.25
-50.0,-2.6384469551633027,0.5625
-62.5,-1.6689710972195777,1.9375
-52.0,1.2026409377023426,0.875
-54.0,2.705942109830271,0.5625
-66.5,1.1351457830353748,1.8125
-49.0,-3.6079228131070282,0.0
-56.5,2.4175537217077707,0.125
-67.0,-3.865631585471816,0.75
-52.0,0.11658253987930872,0.0
-41.0,4.988505522204105,-0.125
-34.5,-4.76147636559703,0.4375
-44.0,4.54671905529304,0.875
-53.5,-3.319534424984527,0.25
-39.5,-0.9878836273983529,0.5625
-50.0,3.988350048502667,0.0
-49.0,0.41110685115335155,0.25
-34.5,-4.663301595172348,0.75
-54.5,1.1842331682477152,0.4375
-39.0,-1.7426021750380885,0.75
-40.5,-0.07363107781851078,0.25
-45.5,4.6878452877785195,0.75
-46.5,-4.638757902566178,0.4375
-54.0,2.030990563160589,0.875
-57.0,3.877903431774901,-0.4375
-41.0,-0.5645049299419158,0.75
-39.5,-4.4976316700807,0.4375
-44.0,4.301282129231337,0.75
-54.5,-3.3747577333484102,-0.4375
-39.0,-1.736466251886546,0.25
-49.0,2.0616701789183014,0.25
-34.5,-1.5217089415825558,0.5625
-34.5,0.01840776945462763,0.4375
-54.0,4.571262747899211,0.25
-53.5,-0.20862138715244694,0.4375
-52.0,-4.577398671050753,0.75
-50.0,4.417864669110646,0.75
-40.5,-4.865787059173253,0.5625
-45.5,4.718524903536232,0.5625
-46.5,-4.638757902566179,0.5625
-57.0,5.878214379177777,0.25
-49.5,-5.553010452146021,0.5625
-52.0,4.976233675901019,0.25
-45.5,-5.405748296508999,1.0625
-39.0,5.773903685601553,0.5625
-64.5,-3.853359739168731,1.3125
-55.5,-1.4848934026733005,0.5625
-53.0,5.074408446325701,0.25
-59.0,-0.3252039270317555,-0.4375
-44.5,-0.6688156235181397,0.25
-50.0,-0.1288543861823941,0.25
-43.0,-0.705631162427395,0.75
-47.0,-3.356349963893783,0.125
-29.5,0.5522330836388307,1.0625
-54.0,4.135612204139688,0.25
-41.5,0.3067961575771285,0.75
-49.5,-4.890330751779424,0.25
-60.5,-0.012271846303085199,0.875
-63.0,0.8406214717613313,0.4375
-55.5,2.896155727528091,0.5625
-38.5,0.589048622548086,0.4375
-43.0,-4.196971435655114,0.4375
-38.5,1.030835089459151,0.875
-52.0,0.6626797003665972,0.125
-44.5,2.239611950313036,0.4375
-41.5,0.822213702306704,0.75
-49.5,-4.859651136021712,0.0
-59.0,4.693981210930062,0.0
-63.0,-3.7674568150471344,1.1875
-54.5,0.46019423636569234,0.125
-53.0,3.6140587362585705,0.25
-29.5,-4.558990901596125,0.5625
-50.0,3.5036121195308043,0.4375
-64.5,-2.380738182798515,0.0
-39.0,3.749049045592507,0.125
-47.0,-5.460971604872882,0.5625
-49.5,0.12271846303085127,0.0
-45.5,-0.44178646691106466,0.5625
-60.5,0.36201946594101136,-0.125
-55.5,0.7056311624273949,0.75
-55.5,-0.6872233929727671,0.0
-45.5,0.4111068511533518,0.75
-44.0,0.30066023442558576,0.5625
-52.5,3.7981364308048473,0.125
-49.5,-4.828971520263998,-0.125
-52.0,4.6448938257177215,0.0
-51.5,0.018407769454627854,0.4375
-40.5,-2.6384469551633027,0.25
-66.5,-1.8960002538266525,-2.125
-53.5,4.104932588381976,0.0
-48.5,-2.405281875404685,0.25
-49.5,0.2024854640009044,0.5625
-51.5,2.2089323345553233,0.25
-54.5,-3.184544115650591,0.5625
-49.0,-0.9326603190344699,0.125
-62.5,5.878214379177777,0.4375
-60.5,-4.90260259808251,0.4375
-61.0,4.190835512503572,0.0
-67.0,0.34361169648638334,0.875
-45.5,-4.896466674930966,0.75
-48.5,1.0983302441261191,0.5625
-40.5,0.2024854640009046,0.25
-49.5,-1.9696313316451632,0.5625
-44.0,0.9510680884890974,0.875
-52.0,0.46019423636569234,0.25
-60.5,3.816544200259475,-0.4375
-53.5,-4.233786974564369,0.0
-52.0,3.571107274197773,0.125
-49.5,0.5399612373357456,0.125
-48.5,-5.2584861408719785,0.4375
-52.5,4.908738521234052,0.4375
-63.0,1.0799224746714913,0.75
-52.0,-1.644427404613407,0.25
-54.5,-0.07976700097005374,0.875
-66.5,1.5769322499464398,1.625
-61.0,-4.589670517353839,0.4375
-65.0,-1.073786551519949,-0.5625
-39.0,-0.05522330836388309,0.875
-40.0,0.901980703276757,0.25
-46.0,3.773592738198677,0.25
-49.0,0.4908738521234053,0.25
-40.5,-5.258486140871978,0.125
-54.0,5.2339424482658075,0.25
-34.5,-4.546719055293041,0.75
-56.5,5.221670601962723,0.875
-44.0,-3.792000507653305,1.1875
-34.5,-1.4480778637640452,0.875
-49.5,4.190835512503572,0.25
-46.5,-4.7921559813547425,0.4375
-51.5,3.522019888985432,0.4375
-41.0,1.8530487917658545,0.125
-53.5,-0.37429131224409584,0.0
-54.5,-3.264311116620645,0.0
-53.5,0.10431069357622369,0.5625
-40.5,-1.8775924843720249,0.25
-52.0,0.42337869745643697,0.125
-34.5,0.22089323345553225,0.75
-49.0,4.583534594202296,0.125
-34.5,-4.601942363656923,0.75
-39.5,0.32520392703175593,0.25
-54.0,1.1658253987930873,0.125
-50.0,2.705942109830271,0.875
-54.5,-3.037281960013569,0.4375
-39.0,-1.6996507129772904,0.5625
-46.0,4.626486056263094,0.75
-41.0,0.6810874698212244,0.5625
-44.0,-0.15953400194010658,1.1875
-57.0,0.6565437772150551,0.125
-46.5,-5.780039608753096,0.75
-52.5,5.098952138931871,-0.125
-55.5,-0.24543692606170264,0.0
-42.5,-1.4235341711578746,0.875
-30.0,-2.736621725587984,1.1875
-38.5,3.877903431774901,0.4375
-50.0,-4.331961744989051,0.5625
-45.5,-0.4356505437595221,0.75
-45.5,1.3621749396424494,0.25
-41.5,3.9453985864418692,0.4375
-56.0,-5.086680292628786,0.125
-50.0,0.2270291566070749,0.5625
-39.5,5.350524988145117,0.125
-60.5,-3.853359739168731,0.25
-53.5,3.577243197349315,-0.5625
-56.5,-1.386718632248619,-0.125
-47.5,-0.6810874698212253,0.25
-49.5,-2.1598449493429825,0.75
-60.0,-1.0246991663076084,1.1875
-64.5,4.669437518323892,0.875
-63.5,-3.0495538063166543,0.25
-56.5,-0.944932165337555,0.125
-49.5,0.3865631585471815,0.25
-50.0,-0.8958447801252143,0.75
-45.5,5.835262917116979,0.75
-38.5,-1.5094370952794716,1.0625
-52.0,0.5951845456996292,0.75
-42.5,-1.619883712007237,0.5625
-60.0,1.3928545554001621,1.3125
-30.0,-4.196971435655114,1.0625
-45.5,3.583379120500858,0.5625
-49.5,-4.080388895775806,0.5625
-53.0,1.9082721001297374,0.875
-41.5,2.982058651649687,0.5625
-55.0,-3.4115732722576664,0.0
-39.5,3.9024471243810708,0.4375
-47.0,-5.510058990085223,0.4375
-56.0,0.05522330836388306,0.875
-61.5,0.04908738521234057,0.75
-63.0,1.337631247036279,1.9375
-63.5,3.1047771146805383,0.75
-62.0,1.1228739367322893,0.875
-51.5,-1.687378866674206,0.5625
-53.5,-3.1047771146805374,0.25
-43.5,-0.05522330836388312,0.4375
-45.5,-0.27611654181941536,0.5625
-49.0,1.073786551519949,0.5625
-51.5,2.865476111770378,0.0
-40.5,-2.693670263527186,0.4375
-51.5,2.570951800496334,0.25
-52.0,0.1288543861823941,0.0
-55.5,-0.5031456984264899,0.125
-49.0,0.969475857943725,0.875
-50.0,0.883572933822129,0.25
-60.5,-3.7797286613502195,0.5625
-49.5,-2.0371264863121317,0.125
-61.0,0.9817477042468103,0.875
-65.0,4.675573441475434,0.125
-51.5,-4.822835597112456,0.125
-49.5,0.93266031903447,0.5625
-40.5,3.178408192499048,0.0
-45.5,-1.2824079386723959,0.75
-53.5,0.38656315854718226,0.0
-49.0,1.7426021750380878,0.5625
-56.0,-1.791689560250429,0.25
-50.0,-4.025165587411922,0.25
-43.5,0.8344855486097889,0.875
-68.0,4.6878452877785195,-1.3125
-51.5,-1.1535535524900018,-0.125
-60.0,0.7915340865489906,-0.75
-52.0,-3.853359739168731,0.4375
-52.5,3.3563499638937833,0.125
-48.5,0.006135923151542322,1.0625
-48.5,0.34361169648638334,0.125
-39.5,-4.289010282928253,0.4375
-39.0,-0.8774370106705868,0.75
-35.0,3.7306412761378795,0.25
-34.5,-3.160000423044421,0.75
-40.5,-0.6381360077604267,0.875
-41.5,5.460971604872882,0.75
-47.0,-5.26462206402352,0.4375
-46.0,4.460816131171445,1.0625
-44.0,-2.5341362615870797,0.875
-54.0,-0.11044661672776579,0.125
-49.5,2.7857091108003242,0.875
-52.0,-4.417864669110647,0.25
-55.0,1.4051264017032474,0.4375
-56.5,4.055845203169635,0.4375
-53.5,-0.9142525495798415,0.0
-39.5,-3.976078202199582,0.5625
-46.0,3.6692820446224537,0.75
-34.5,-3.9944859716542096,0.75
-41.5,4.859651136021712,0.125
-40.5,-2.3684663364954304,0.25
-50.0,-1.41126232485479,0.5625
-35.0,2.073942025221387,0.75
-44.0,1.4910293258248433,0.75
-56.5,0.6013204688511715,0.75
-39.0,-5.798447378207724,1.1875
-51.5,3.5342917352885173,0.4375
-48.0,-3.485204350076177,0.4375
-48.5,5.197126909356552,0.25
-55.0,-0.1288543861823941,0.5625
-54.5,-0.31906800388021317,0.125
-53.5,-2.902291650679633,0.125
-62.5,2.945243112740431,0.875
-53.0,-2.644582878314845,0.0
-43.0,-1.7732817907958014,0.125
-50.0,-0.07976700097005329,0.75
-45.0,0.9633399347921825,0.4375
-56.0,2.6139032625571326,-0.125
-40.0,1.7426021750380887,0.875
-30.5,-4.865787059173254,0.875
-64.5,3.5281558121369745,2.4375
-55.5,0.527689391032661,0.75
-60.5,-4.816699673960914,0.875
-39.0,4.608078286808466,0.4375
-49.0,-4.4976316700806995,1.0625
-41.5,5.037592907416445,0.875
-50.0,-4.012893741108837,0.25
-47.5,-1.000155473701438,0.25
-45.5,5.921165841238575,0.4375
-53.5,-3.834951969714103,-0.25
-60.5,2.8286605728611223,0.5625
-57.5,-4.804427827657828,0.0
-53.0,4.988505522204105,0.4375
-45.5,0.7976700097005338,0.75
-42.0,-5.773903685601553,-0.125
-50.0,0.7915340865489908,1.0625
-45.5,3.3563499638937824,0.5625
-55.5,0.47246608266877743,0.4375
-47.5,-1.6566992509164922,0.75
-50.0,0.2761165418194156,0.25
-30.5,-2.736621725587984,0.875
-49.5,-0.521553467881118,0.5625
-59.0,0.1288543861823938,0.75
-56.5,0.7669903939428205,-0.5625
-63.5,3.3502140407422405,-0.125
-40.0,-2.0248546400090466,0.75
-60.5,2.7427576487395267,-0.125
-39.0,-0.6013204688511715,0.125
-61.5,-2.9145634969827183,0.125
-62.5,-1.6321555583103222,0.5625
-41.5,5.080544369477243,1.1875
-53.5,0.19021361769781908,0.25
-58.5,-5.350524988145116,0.25
-40.5,1.9021361769781948,0.4375
-51.0,3.1170489609836234,0.4375
-63.0,0.9142525495798415,0.25
-49.0,-4.215379205109741,0.4375
-48.5,1.6076118657041518,0.4375
-49.0,-3.411573272257666,0.5625
-52.0,1.073786551519949,0.5625
-54.0,0.07976700097005329,0.5625
-45.0,-0.337475773334841,0.875
-51.0,3.736777199289422,0.5625
-53.0,-2.6691265709210157,0.25
-51.5,2.1843886419491527,0.125
-44.0,0.06135923151542588,0.5625
-58.5,-0.8160777791551608,0.25
-53.5,0.9940195505498952,0.875
-59.5,0.337475773334841,0.5625
-59.5,-2.8286605728611223,0.4375
-48.5,-1.7978254834019713,0.25
-44.0,4.080388895775806,0.5625
-45.0,-3.227495577711389,0.4375
-41.0,4.221515128261284,1.3125
-51.5,-3.2336315008629315,0.25
-51.0,-1.0492428589137786,0.4375
-48.5,-0.48473792897186263,0.4375
-49.0,1.3744467859455343,0.0
-51.5,-0.6442719309119691,0.5625
-53.0,3.9944859716542096,-0.125
-58.0,-4.902602598082509,0.4375
-54.0,1.0369710126106935,0.4375
-51.0,0.2638446955163303,0.125
-59.5,0.3742913122440963,0.875
-59.0,-1.3928545554001621,0.5625
-55.5,3.773592738198677,0.4375
-59.5,-2.7243498792848984,1.3125
-62.0,-1.368310862793992,1.1875
-41.0,5.381204603902829,0.75
-54.0,-3.6631461214709113,0.125
-39.5,-0.8283496254582461,0.4375
-40.5,-0.987883627398353,0.75
-50.5,4.902602598082509,0.125
-53.0,-3.1722722693475056,-0.125
-34.5,-1.043106935762236,0.875
-47.0,-0.7915340865489908,0.125
-34.5,0.6688156235181395,0.25
-57.5,5.47937937432751,0.875
-38.5,-2.82252464970958,0.125
-53.0,-1.4419419406125025,0.0
-43.5,3.4238451185607515,0.4375
-51.0,-4.6878452877785195,0.125
-66.0,3.9576704327449543,0.4375
-45.5,0.10431069357622391,0.25
-48.5,0.8713010875190434,0.25
-41.0,0.03681553890925571,-0.25
-45.5,-0.9081166264282992,0.5625
-34.5,-0.7731263170943636,0.75
-56.5,2.2886993355253766,0.5625
-53.0,-4.270602513473625,0.0
-34.5,1.8837284075235676,1.1875
-44.0,1.472621556370215,1.1875
-39.5,-4.190835512503571,0.4375
-40.5,-1.030835089459151,0.5625
-50.5,1.8100973297050567,0.4375
-48.5,3.632466505713198,0.125
-38.5,-5.356660911296658,0.5625
-51.0,0.4356505437595221,0.0
-47.0,5.6941366846315,0.0
-54.5,-4.411728745959104,0.0
-55.0,0.06749515466696843,0.25
-53.0,3.601786889955486,0.4375
-45.0,-0.9449321653375549,0.5625
-41.5,0.7976700097005329,0.4375
-50.0,-1.0246991663076086,0.125
-50.0,-3.82881604656256,1.0625
-30.0,0.4663301595172349,1.0625
-55.5,0.14726215563702172,-0.5625
-42.5,-0.6626797003665971,0.25
-58.5,0.1349903093339364,0.0
-49.5,-0.17180584824319184,0.0
-62.5,0.12271846303085127,-1.5
-38.5,1.0615147052168639,0.4375
-53.5,0.6994952392758524,0.25
-39.5,3.436116964863836,0.4375
-54.5,-0.6626797003665965,0.5625
-48.0,-4.743068596142403,0.125
-46.0,-0.30679615757712825,0.875
-65.5,4.608078286808467,1.8125
-64.0,-3.0495538063166547,0.4375
-60.5,0.662679700366597,0.75
-41.5,3.0802334220743677,1.0625
-65.0,-0.6872233929727676,1.9375
-38.5,0.1349903093339364,0.4375
-50.0,-4.25833066717054,0.25
-39.5,5.233942448265808,1.0625
-46.0,-5.712544454086128,0.0
-45.0,1.41126232485479,0.0
-54.5,3.669282044622453,0.125
-49.5,-4.7860200582032,0.75
-55.5,0.6504078540635118,0.125
-50.0,0.23316507975861755,0.875
-48.5,-0.9019807032767571,0.125
-30.0,0.6565437772150544,1.1875
-60.5,4.3319617449890515,0.125
-54.0,-2.926835343285804,0.4375
-58.0,-1.7610099444927159,0.4375
-53.5,1.859184714917397,0.25
-64.5,-0.7915340865489908,0.875
-42.5,-1.1965050145508,1.3125
-62.0,0.09817477042468103,0.125
-49.5,-0.47246608266877754,-0.4375
-59.5,0.08590292412159592,0.75
-55.0,1.0615147052168639,-0.25
-51.5,3.4361169648638366,0.25
-45.0,-3.877903431774901,0.5625
-57.5,-0.012271846303085088,0.4375
-52.0,3.3808936564999534,0.25
-48.5,0.8344855486097886,0.125
-50.5,-4.755340442445488,0.5625
-63.5,5.583690067903734,0.0
-60.5,-0.6872233929727676,0.25
-44.0,-3.9944859716542096,0.875
-59.5,3.6386024288647407,-0.25
-40.5,-2.6813984172241003,0.75
-51.5,2.890019804376548,0.25
-52.5,-0.5031456984264908,0.5625
-51.0,0.7608544707912781,-0.25
-59.5,-2.067806102069844,0.4375
-59.5,0.20862138715244738,-0.125
-56.5,-2.521864415283994,0.75
-48.5,0.9019807032767571,0.875
-50.0,-1.4787574795217582,0.5625
-52.0,0.6320000846088842,0.25
-51.5,3.6631461214709113,1.0625
-41.0,0.6381360077604263,1.0625
-62.0,0.6565437772150542,-1.0625
-59.0,-4.233786974564369,-0.125
-44.0,-0.564504929941916,1.0625
-49.0,-1.000155473701438,0.25
-60.0,1.8530487917658545,0.4375
-52.0,0.006135923151542544,0.75
-52.0,0.1595340019401068,0.5625
-45.0,-1.2517283229146832,0.75
-53.0,0.36815538909255374,0.875
-55.5,0.04908738521234057,0.125
-59.0,-1.239456476611598,0.5625
-55.5,1.9880391010997909,0.125
-34.5,1.7303303287350036,0.875
-39.5,-2.7182139561333565,0.4375
-48.0,4.430136515413732,0.125
-50.0,-0.5460971604872888,0.75
-34.5,-4.215379205109742,1.0625
-38.5,-0.5829126993965437,0.875
-47.0,-0.14112623248547898,0.4375
-44.0,5.289165756629691,1.1875
-51.5,-4.749204519293945,0.25
-40.5,-0.521553467881118,0.5625
-45.5,1.491029325824843,0.4375
-41.5,4.037437433715008,0.25
-54.5,-0.5767767762450005,0.4375
-52.0,-3.1538644998928786,0.125
-56.5,4.344233591292136,0.75
-64.5,-1.2149127840054286,0.5625
-34.5,-4.246058820867455,1.9375
-51.5,4.239922897715912,0.4375
-41.5,0.613592315154257,0.25
-44.0,-0.25157284921324585,0.75
-47.5,0.1656699250916498,0.125
-39.5,-4.417864669110647,1.0625
-34.5,2.7120780329818137,1.1875
-38.5,-3.607922813107028,0.75
-47.0,-0.07976700097005335,0.125
-45.5,1.441941940612503,0.25
-51.0,-1.0062913968529807,0.4375
-64.0,4.473087977474529,0.4375
-41.0,-4.963961829597935,0.75
-54.5,1.8346410223112268,0.25
-56.0,3.3747577333484102,0.4375
-56.5,0.9326603190344702,0.4375
-50.0,-1.2271846303085132,0.5625
-42.5,-4.442408361716817,0.5625
-47.0,-0.13499030933393646,0.125
-39.0,4.411728745959104,0.4375
-50.0,-4.239922897715912,0.4375
-53.0,5.019185137961817,0.125
-54.5,-0.632000084608884,0.75
-65.5,-0.1963495408493623,2.4375
-30.5,-3.7367771992894214,0.75
-41.5,4.313553975534423,1.0625
-53.0,0.25157284921324496,-0.5625
-40.0,0.18407769454627676,1.0625
-50.5,-4.466952054322986,0.125
-49.5,-0.9449321653375551,0.125
-44.5,1.0124273200045233,0.5625
-56.0,-0.6872233929727674,0.0
-45.0,-0.6442719309119692,0.75
-61.0,0.1718058482431918,0.125
-60.0,5.141903600992669,-0.125
-56.0,-1.0983302441261191,0.875
-64.0,-2.5402721847386216,0.0
-65.5,3.0250101137104846,1.625
-50.0,-0.31293208072867085,0.25
-47.0,-4.0558452031696355,1.0625
-40.0,5.418020142812084,0.4375
-41.5,-0.44178646691106405,0.5625
-45.0,-5.307573526084319,1.0625
-60.0,5.246214294568893,0.5625
-42.5,-4.73693267299086,0.5625
-61.0,-0.3620194659410113,0.5625
-56.0,4.111068511533518,-0.25
-44.5,-2.9268353432858034,0.4375
-49.5,2.1230294104337273,0.4375
-50.0,-3.3318062712876126,0.25
-60.0,6.105243535784852,0.125
-52.0,-4.381049130201392,0.25
-58.5,-1.7180584824319183,0.125
-52.0,1.4173982480063325,0.125
-52.0,2.742757648739526,0.5625
-41.0,-2.1782527187976104,0.875
-44.0,-0.9387962421860123,0.875
-49.0,3.853359739168731,0.25
-57.5,-0.9387962421860125,0.4375
-52.0,0.6381360077604272,0.5625
-45.0,-3.884039354926444,0.5625
-50.0,1.3069516312785665,1.0625
-61.5,2.9575149590435164,2.125
-54.5,-0.8344855486097895,0.4375
-60.0,0.4908738521234053,0.25
-49.0,-4.552854978444583,0.75
-59.5,4.516039439535328,0.4375
-54.5,-3.5895150436524004,0.4375
-61.5,0.859029241215959,1.625
-49.5,-1.8775924843720249,0.0
-57.5,0.859029241215959,0.125
-50.0,4.325825821837508,0.125
-45.0,-4.4546802080199015,0.875
-52.0,3.8901752780779857,0.0
-52.0,-0.06135923151542588,0.125
-44.0,-3.4974761963792615,0.75
-41.0,4.098796665230433,0.4375
-49.0,-3.411573272257666,0.25
-49.0,-1.6566992509164926,0.4375
-52.0,0.9387962421860124,0.25
-60.0,-1.1596894756415448,-0.125
-58.5,0.141126232485479,-1.1875
-52.0,1.748738098189631,0.5625
-34.5,-1.1596894756415446,1.3125
-50.0,4.2092432819582,0.25
-39.5,-3.877903431774901,0.25
-34.5,-0.4540583132141497,1.0625
-63.5,4.258330667170539,-0.25
-55.5,-2.87161203492192,0.5625
-43.5,0.17180584824319167,0.75
-48.0,3.3563499638937833,0.125
-38.5,-5.381204603902829,1.0625
-41.5,5.448699758569798,0.125
-41.0,-5.577554144752192,0.25
-56.5,6.17273869045182,1.0625
-45.5,-1.5217089415825562,0.0
-52.0,0.3681553890925544,0.0
-54.5,-0.00613592315154321,0.875
-47.0,-4.970097752749477,0.125
-51.0,3.6079228131070282,0.5625
-41.5,1.9082721001297376,0.5625
-38.5,-5.424156065963627,0.875
-44.0,5.178719139901925,0.0
-52.0,-3.4238451185607515,0.0
-63.5,-0.19021361769781953,-0.25
-34.5,-1.1044661672776614,1.1875
-45.5,4.037437433715008,0.4375
-39.5,-3.571107274197773,-0.125
-34.5,-0.33747577333484113,0.5625
-54.5,4.28287435977671,-0.125
-48.0,0.5522330836388312,-0.4375
-40.5,-5.559146375297564,0.25
-50.5,4.9394181369917645,0.4375
-51.5,-4.3933209765044765,0.25
-47.0,-0.5399612373357456,0.125
-55.5,5.160311370447297,-0.4375
-57.0,1.0492428589137788,0.75
-41.5,-0.9081166264282992,1.1875
-39.0,-0.5522330836388312,0.125
-65.0,0.0,0.0
-45.0,-4.767612288748572,0.875
-49.0,0.43565054375952206,0.0
-39.5,5.283029833478148,0.75
-56.0,-4.485359823777614,0.5625
-44.5,3.2397674240144743,0.125
-50.0,-3.9392626632903265,0.75
-30.5,0.44792239006260715,1.0625
-60.0,4.301282129231338,0.875
-57.5,-4.724660826687775,-0.25
-53.5,4.847379289718626,0.125
-49.5,-1.1106020904292038,0.4375
-64.0,-2.8838838812250054,2.875
-42.0,-0.8958447801252145,0.875
-61.5,-0.3313398501832985,1.3125
-53.0,5.405748296509,0.25
-47.5,-5.203262832508095,0.25
-54.0,1.3499030933393643,0.5625
-47.5,-1.3499030933393643,0.4375
-58.5,-0.03067961575771283,0.75
-53.0,1.7241944055834604,0.75
-45.0,-2.0187187168575034,0.5625
-41.5,5.270757987175063,0.0
-41.5,-4.7860200582032,0.125
-49.5,0.0674951546669682,0.5625
-30.0,0.3742913122440964,1.5
-49.5,-0.4172427743048943,0.0
-40.0,5.172583216750382,0.4375
-44.0,-1.2333205534600546,0.75
-39.0,0.2883883881224998,0.75
-57.5,-0.3252039270317555,0.875
-53.0,1.159689475641545,-0.5625
-60.5,-0.5460971604872888,-0.125
-54.0,-0.20862138715244694,0.0
-65.0,-0.11044661672776623,1.1875
-49.5,-3.497476196379262,0.875
-61.5,3.644738352016284,0.25
-62.5,-4.5835345942022965,0.0
-48.5,1.3130875544301088,0.125
-50.0,2.448233337465483,0.5625
-44.0,-2.9022916506796332,0.5625
-48.5,-0.9940195505498954,0.4375
-45.5,0.662679700366597,1.0625
-40.5,4.387185053352933,0.75
-52.0,-0.5583690067903735,0.25
-50.5,0.0674951546669682,0.125
-67.5,-4.614214209960008,-0.875
-59.5,1.2517283229146832,0.875
-52.0,3.571107274197773,-0.125
-61.0,0.2577087723647873,0.75
-55.0,-0.9510680884890972,0.4375
-57.5,-3.160000423044421,0.25
-47.5,-0.9449321653375549,0.5625
-49.5,1.9082721001297376,0.25
-57.5,-1.7855536370988863,0.0
-48.0,-0.08590292412159589,0.5625
-55.0,4.098796665230433,0.5625
-57.0,-0.10431069357622302,-0.4375
-47.5,-2.4298255680108563,0.5625
-40.5,0.2515728492132452,0.25
-52.5,2.564815877344792,0.875
-48.5,-4.509903516383785,-0.125
-59.0,1.4787574795217582,0.4375
-67.0,-1.2640001692177685,-2.125
-60.5,0.042951462060797974,0.5625
-45.5,0.521553467881118,1.1875
-50.5,3.736777199289422,0.875
-50.0,-3.436116964863836,-1.9375
-50.5,4.196971435655114,0.4375
-60.0,-0.1349903093339364,0.5625
-43.5,-3.9392626632903265,0.5625
-54.5,0.8774370106705867,0.4375
-51.5,-2.018718716857504,0.4375
-40.5,5.3627968344482015,0.0
-40.0,-5.344389064993575,0.4375
-39.0,0.8958447801252144,0.4375
-34.5,-0.31293208072867074,1.0625
-34.0,0.0,0.25
-38.0,2.5954954931025047,0.5625
-58.0,2.8777479580734626,0.125
-46.0,-1.368310862793992,0.5625
-49.5,0.6688156235181397,0.875
-46.5,-5.24007837141735,0.0
-54.5,1.718058482431918,0.875
-52.5,-0.30066023442558554,0.25
-58.0,4.344233591292135,0.25
-44.0,-0.7424467013366502,0.25
-49.5,-0.2024854640009046,0.75
-54.0,-3.448388811166921,-0.25
-39.0,-1.6137477888556944,0.875
-34.0,3.810408277107933,0.75
-55.0,-1.8162332528565992,0.5625
-39.0,-0.9510680884890976,0.25
-44.0,4.2031073588066565,0.875
-34.5,-4.577398671050753,1.3125
-46.5,2.6568547246179306,0.25
-38.0,-3.3072625786814425,1.0625
-51.0,0.3865631585471816,0.5625
-41.0,5.080544369477243,0.4375
-56.5,0.5767767762450013,0.125
-46.0,-1.264000169217769,0.125
-50.0,0.9019807032767577,0.4375
-50.0,-0.613592315154257,0.0
-55.0,0.4295146206079794,0.0
-47.0,-5.418020142812084,0.5625
-44.0,0.6565437772150544,0.125
-61.0,-0.2270291566070749,0.125
-39.0,4.252194744018998,0.5625
-30.0,-0.6565437772150551,0.875
-41.0,1.0921943209745768,1.0625
-52.0,-0.6994952392758522,0.125
-39.5,1.1842331682477152,0.5625
-49.0,-2.2948352586769194,1.3125
-59.5,1.3008157081270233,1.3125
-57.5,-3.1600004230444205,-0.4375
-52.0,-1.380582709097077,0.0
-44.5,1.3989904785517047,0.875
-54.0,3.75518496874405,-0.125
-52.5,0.09203884727313838,0.4375
-58.0,-0.018407769454627854,-0.25
-50.0,0.7731263170943627,0.4375
-48.5,-0.5338253141842024,0.125
-50.0,-5.154175447295755,0.4375
-48.5,-0.1656699250916493,1.0625
-44.5,4.387185053352933,0.75
-40.0,0.9572040116406404,0.875
-53.5,-0.34974761963792655,-0.125
-51.5,-0.7363107781851079,0.25
-30.0,-3.607922813107028,1.0625
-44.0,-0.19634954084936196,0.4375
-39.0,4.006757817957294,1.3125
-50.5,1.4664856332186735,0.875
-59.0,-0.9510680884890981,0.125
-50.0,-4.798291904506286,0.4375
-46.5,-0.337475773334841,0.5625
-52.5,5.313709449235861,0.25
-41.0,-0.2699806186678728,1.0625
-48.0,-2.8654761117703775,0.875
-52.0,-2.36846633649543,0.4375
-62.5,1.552388557340269,0.4375
-58.5,0.14112623248547895,0.5625
-61.5,-1.1719613219446299,0.4375
-51.0,1.0737865515199487,0.125
-65.5,-1.2640001692177683,1.9375
-46.0,3.626330582561656,0.75
-50.0,1.423534171157875,0.25
-39.5,-3.3624858870453256,0.875
-43.0,-0.8651651643675016,0.875
-54.5,3.11091303783208,0.75
-47.5,-4.154019973594316,0.25
-51.0,1.2271846303085128,-1.0625
-44.5,-1.0676506283684062,0.25
-58.0,4.000621894805752,0.0
-48.5,0.8897088569736722,0.5625
-55.0,-0.2024854640009046,0.5625
-59.0,-2.6445828783148455,0.4375
-58.5,-2.141437179888355,0.25
-53.0,1.3744467859455345,0.4375
-60.5,1.3928545554001621,-0.125
-59.0,1.7855536370988867,0.5625
