-30.0,4.663301595172349,0.8125
-30.0,4.669437518323892,0.0
-30.5,4.675573441475434,0.0
-30.5,4.675573441475434,-0.8125
-30.5,4.6448938257177215,5.6875
-30.5,4.663301595172349,2.4375
-30.5,4.675573441475434,0.8125
-30.5,4.681709364626977,0.8125
-30.5,4.681709364626977,0.8125
-30.5,4.693981210930062,-1.625
-30.5,4.681709364626977,0.0
-30.5,4.700117134081604,-1.625
-30.5,4.681709364626977,2.4375
-30.5,4.693981210930062,0.0
-30.5,4.681709364626977,1.625
-30.5,4.675573441475434,1.625
-30.5,4.700117134081604,0.0
-30.5,4.706253057233147,-1.625
-30.5,4.663301595172349,5.6875
-30.5,4.706253057233147,-1.625
-30.5,4.675573441475434,2.4375
-30.5,4.6878452877785195,2.4375
-30.5,4.700117134081604,-0.8125
-30.5,4.693981210930062,0.0
-30.5,4.6878452877785195,0.8125
-30.5,4.6878452877785195,1.625
-30.5,4.657165672020807,4.875
-30.5,4.6878452877785195,1.625
-30.5,4.681709364626977,0.8125
-30.5,4.681709364626977,1.625
-30.5,4.693981210930062,-0.8125
-30.5,4.6878452877785195,1.625
-30.5,4.675573441475434,1.625
-30.5,4.693981210930062,1.625
-30.5,4.675573441475434,1.625
-30.5,4.6878452877785195,-0.8125
-30.5,4.675573441475434,2.4375
-30.5,4.6878452877785195,0.8125
-30.5,4.675573441475434,1.625
-30.5,4.693981210930062,1.625
-30.5,4.681709364626977,0.8125
-30.5,4.663301595172349,4.875
-30.5,4.663301595172349,4.875
-30.5,4.681709364626977,0.8125
-30.5,4.675573441475434,2.4375
-30.5,4.693981210930062,0.0
-30.5,4.693981210930062,0.0
-30.5,4.669437518323892,2.4375
-30.5,4.693981210930062,0.0
-30.5,4.669437518323892,4.875
-30.5,4.6878452877785195,0.8125
-30.5,4.669437518323892,2.4375
-30.5,4.663301595172349,2.4375
-30.5,4.6878452877785195,0.0
-30.5,4.693981210930062,0.0
-30.5,4.663301595172349,4.875
-30.5,4.632621979414636,9.75
-30.5,4.675573441475434,0.8125
-30.5,4.6878452877785195,0.0
-30.5,4.663301595172349,4.0625
-30.5,4.681709364626977,0.8125
-30.5,4.693981210930062,-0.8125
-30.5,4.663301595172349,4.0625
-30.5,4.681709364626977,0.8125
-30.0,4.675573441475434,1.625
-30.5,4.675573441475434,0.0
-30.0,4.657165672020807,2.4375
-30.5,4.669437518323892,2.4375
-30.0,4.681709364626977,0.8125
-30.0,4.669437518323892,1.625
-30.5,4.6878452877785195,0.0
-30.5,4.675573441475434,1.625
-30.5,4.693981210930062,-0.8125
-30.5,4.693981210930062,-0.8125
-30.5,4.669437518323892,2.4375
-30.5,4.6878452877785195,-0.8125
-30.0,4.657165672020807,2.4375
-30.0,4.6878452877785195,-0.8125
-30.5,4.675573441475434,1.625
-30.5,4.681709364626977,0.8125
-30.0,4.663301595172349,1.625
-30.0,4.681709364626977,0.8125
-30.5,4.681709364626977,-0.8125
-30.5,4.6878452877785195,0.8125
-30.5,4.669437518323892,0.8125
-30.5,4.681709364626977,0.8125
-30.5,4.651029748869264,5.6875
-30.0,4.681709364626977,0.0
-30.0,4.681709364626977,-0.8125
-30.5,4.681709364626977,-1.625
-30.5,4.669437518323892,0.0
-30.0,4.675573441475434,0.8125
-30.0,4.681709364626977,-0.8125
-30.5,4.693981210930062,-2.4375
-30.5,4.681709364626977,-0.8125
-30.5,4.693981210930062,-2.4375
-30.5,4.681709364626977,0.8125
-30.0,4.6878452877785195,-0.8125
-30.5,4.663301595172349,0.8125
-30.0,4.6878452877785195,-0.8125
-30.0,4.663301595172349,2.4375
-30.5,4.6878452877785195,-2.4375
-30.0,4.675573441475434,-0.8125
-30.0,4.675573441475434,0.0
-30.5,4.675573441475434,-0.8125
-30.5,4.669437518323892,-0.8125
-30.0,4.693981210930062,-2.4375
-30.0,4.693981210930062,-4.0625
-30.5,4.6878452877785195,-1.625
-30.5,4.6878452877785195,-1.625
-30.0,4.669437518323892,0.0
-30.0,4.681709364626977,-0.8125
-30.0,4.669437518323892,-0.8125
-30.0,4.675573441475434,0.8125
-30.0,4.681709364626977,-1.625
-30.0,4.675573441475434,0.0
-30.0,4.6878452877785195,-1.625
-30.5,4.663301595172349,2.4375
-30.0,4.651029748869264,1.625
-30.0,4.675573441475434,-0.8125
-30.5,4.669437518323892,1.625
-30.0,4.663301595172349,0.8125
-30.0,4.675573441475434,-0.8125
-30.0,4.657165672020807,1.625
-30.5,4.638757902566179,4.875
-30.5,4.663301595172349,1.625
-30.5,4.669437518323892,-0.8125
-30.0,4.638757902566179,4.0625
-30.0,4.669437518323892,0.0
-30.5,4.675573441475434,-1.625
-30.5,4.675573441475434,-1.625
-30.0,4.669437518323892,0.0
-30.0,4.638757902566179,1.625
-30.0,4.657165672020807,0.8125
-30.0,4.6448938257177215,2.4375
-30.0,4.651029748869264,0.0
-30.0,4.657165672020807,-1.625
-30.0,4.663301595172349,-1.625
-30.0,4.663301595172349,-0.8125
-30.0,4.663301595172349,-1.625
-30.0,4.657165672020807,0.8125
-30.0,4.638757902566179,2.4375
-30.0,4.6448938257177215,1.625
-30.0,4.669437518323892,-4.0625
-30.0,4.663301595172349,-2.4375
-30.0,4.669437518323892,-4.0625
-30.0,4.657165672020807,-0.8125
-30.0,4.6448938257177215,0.0
-30.0,4.638757902566179,2.4375
-30.0,4.6448938257177215,1.625
-30.0,4.675573441475434,-4.875
-30.0,4.657165672020807,0.0
-30.0,4.626486056263094,4.875
-30.5,4.657165672020807,-4.0625
-30.0,4.669437518323892,-4.0625
-30.0,4.638757902566179,0.8125
-30.0,4.632621979414636,2.4375
-30.0,4.657165672020807,-0.8125
-30.0,4.638757902566179,0.8125
-30.0,4.638757902566179,0.8125
-30.5,4.6448938257177215,-0.8125
-30.0,4.669437518323892,-4.0625
-30.5,4.632621979414636,1.625
-30.0,4.651029748869264,-0.8125
-30.0,4.669437518323892,-2.4375
-30.0,4.6448938257177215,0.0
-30.0,4.638757902566179,0.8125
-30.5,4.669437518323892,-4.0625
-30.0,4.6448938257177215,-0.8125
-30.0,4.657165672020807,-1.625
-30.0,4.651029748869264,-1.625
-30.0,4.6448938257177215,0.0
-30.0,4.651029748869264,-1.625
-30.0,4.651029748869264,-2.4375
-30.0,4.657165672020807,-2.4375
-30.0,4.6448938257177215,0.0
-30.0,4.638757902566179,0.0
-30.0,4.663301595172349,-2.4375
-30.0,4.651029748869264,-1.625
-30.0,4.6448938257177215,-1.625
-30.0,4.614214209960009,4.875
-30.0,4.651029748869264,-2.4375
-30.0,4.6448938257177215,0.0
-30.0,4.638757902566179,-0.8125
-30.0,4.620350133111551,4.0625
-30.0,4.6448938257177215,-0.8125
-30.0,4.651029748869264,-1.625
-30.0,4.6448938257177215,-1.625
-30.0,4.6448938257177215,-1.625
-30.0,4.651029748869264,-1.625
-30.0,4.651029748869264,0.0
-30.0,4.638757902566179,-1.625
-30.0,4.626486056263094,0.8125
-30.0,4.6448938257177215,-1.625
-30.0,4.6448938257177215,-1.625
-30.0,4.638757902566179,0.0
-30.0,4.632621979414636,0.0
-30.0,4.651029748869264,-1.625
-30.0,4.6448938257177215,-2.4375
-30.0,4.651029748869264,-1.625
-30.0,4.626486056263094,0.8125
-30.0,4.626486056263094,2.4375
-30.0,4.626486056263094,0.8125
-30.0,4.632621979414636,0.0
-30.0,4.632621979414636,-1.625
-30.0,4.638757902566179,0.0
-30.0,4.6448938257177215,-2.4375
-30.0,4.638757902566179,0.0
-30.0,4.6448938257177215,-2.4375
-30.0,4.651029748869264,-4.0625
-30.0,4.620350133111551,0.8125
-30.0,4.638757902566179,-0.8125
-30.0,4.632621979414636,-0.8125
-30.0,4.638757902566179,0.0
-30.0,4.6448938257177215,-1.625
-30.0,4.6448938257177215,-4.0625
-30.0,4.6448938257177215,-2.4375
-30.0,4.632621979414636,-1.625
-30.5,4.614214209960009,1.625
-30.0,4.638757902566179,-1.625
-30.0,4.626486056263094,0.0
-30.0,4.626486056263094,1.625
-30.0,4.632621979414636,-0.8125
-30.0,4.6448938257177215,-2.4375
-30.0,4.608078286808466,2.4375
-30.0,4.632621979414636,-1.625
-30.0,4.638757902566179,-1.625
-30.0,4.6448938257177215,-0.8125
-30.0,4.6448938257177215,-0.8125
-30.0,4.632621979414636,-1.625
-30.0,4.626486056263094,0.0
-30.0,4.626486056263094,1.625
-30.0,4.595806440505381,2.4375
-30.0,4.626486056263094,-0.8125
-30.0,4.614214209960009,2.4375
-30.0,4.632621979414636,-1.625
-30.0,4.614214209960009,0.0
-30.0,4.632621979414636,-0.8125
-30.0,4.626486056263094,1.625
-30.0,4.638757902566179,-1.625
-30.0,4.651029748869264,-4.875
-30.0,4.626486056263094,-0.8125
-30.0,4.626486056263094,-1.625
-30.0,4.620350133111551,-0.8125
-30.0,4.632621979414636,-1.625
-30.0,4.626486056263094,-0.8125
-30.0,4.626486056263094,-0.8125
-30.0,4.614214209960009,0.0
-30.0,4.608078286808466,0.0
-30.0,4.638757902566179,-4.0625
-30.0,4.638757902566179,-1.625
-30.0,4.626486056263094,-1.625
-30.0,4.632621979414636,-2.4375
-30.0,4.632621979414636,-1.625
-30.0,4.626486056263094,-1.625
-30.0,4.601942363656923,1.625
-30.0,4.601942363656923,2.4375
-30.0,4.620350133111551,0.0
-30.0,4.589670517353839,4.0625
-30.0,4.608078286808466,-1.625
-30.0,4.626486056263094,-2.4375
-30.5,4.626486056263094,-1.625
-30.0,4.620350133111551,-2.4375
-30.0,4.608078286808466,2.4375
-30.0,4.614214209960009,-0.8125
-30.0,4.620350133111551,-0.8125
-30.0,4.626486056263094,-2.4375
-30.0,4.583534594202296,4.875
-30.0,4.589670517353839,2.4375
-30.0,4.632621979414636,-2.4375
-30.0,4.614214209960009,-0.8125
-30.0,4.601942363656923,0.0
-30.5,4.595806440505381,0.8125
-30.0,4.595806440505381,1.625
-30.0,4.589670517353839,1.625
-30.0,4.614214209960009,-0.8125
-30.0,4.608078286808466,-1.625
-30.0,4.614214209960009,0.0
-30.0,4.589670517353839,1.625
-30.0,4.626486056263094,-2.4375
-30.0,4.601942363656923,0.8125
-30.0,4.608078286808466,-1.625
-30.0,4.608078286808466,-0.8125
-30.0,4.608078286808466,-0.8125
-30.0,4.601942363656923,0.0
-30.0,4.571262747899211,4.0625
-30.5,4.583534594202296,2.4375
-30.0,4.601942363656923,-0.8125
-30.0,4.583534594202296,2.4375
-30.0,4.614214209960009,-2.4375
-30.0,4.577398671050753,4.0625
-30.0,4.595806440505381,0.0
-30.0,4.583534594202296,2.4375
-30.0,4.589670517353839,2.4375
-30.0,4.608078286808466,-1.625
-30.0,4.583534594202296,1.625
-30.0,4.589670517353839,1.625
-30.0,4.601942363656923,-0.8125
-30.0,4.614214209960009,-0.8125
-30.0,4.626486056263094,-4.0625
-30.5,4.589670517353839,2.4375
-30.0,4.608078286808466,0.0
-30.0,4.583534594202296,4.0625
-30.0,4.583534594202296,0.8125
-30.5,4.620350133111551,-4.0625
-30.0,4.614214209960009,-0.8125
-30.5,4.620350133111551,-4.0625
-30.0,4.614214209960009,-1.625
-30.5,4.614214209960009,-0.8125
-30.0,4.583534594202296,2.4375
-30.0,4.626486056263094,-2.4375
-30.0,4.626486056263094,-1.625
-30.0,4.626486056263094,-2.4375
-30.0,4.620350133111551,-1.625
-30.5,4.626486056263094,-2.4375
-30.5,4.638757902566179,-2.4375
-30.5,4.620350133111551,-0.8125
-30.5,4.620350133111551,-0.8125
-30.0,4.608078286808466,0.8125
-30.0,4.608078286808466,0.8125
-30.5,4.601942363656923,0.8125
-30.0,4.632621979414636,-1.625
-30.5,4.608078286808466,0.0
-30.5,4.614214209960009,0.0
-30.5,4.595806440505381,1.625
-30.5,4.601942363656923,1.625
-30.0,4.595806440505381,1.625
-30.5,4.614214209960009,-0.8125
-30.5,4.614214209960009,-0.8125
-30.0,4.626486056263094,-2.4375
-30.5,4.608078286808466,0.0
-30.5,4.608078286808466,-2.4375
-30.0,4.620350133111551,0.0
-30.5,4.589670517353839,4.0625
-30.0,4.614214209960009,-2.4375
-30.0,4.583534594202296,1.625
-30.5,4.620350133111551,-2.4375
-30.0,4.595806440505381,1.625
-30.5,4.601942363656923,-0.8125
-30.5,4.571262747899211,2.4375
-30.0,4.589670517353839,2.4375
-30.0,4.577398671050753,2.4375
-30.0,4.620350133111551,-4.0625
-30.5,4.595806440505381,0.8125
-30.5,4.608078286808466,0.0
-30.5,4.595806440505381,1.625
-30.5,4.577398671050753,4.0625
-30.5,4.595806440505381,1.625
-30.5,4.614214209960009,-1.625
-30.5,4.595806440505381,0.8125
-30.5,4.614214209960009,-2.4375
-30.5,4.601942363656923,-1.625
-30.5,4.583534594202296,2.4375
-30.0,4.595806440505381,0.8125
-30.0,4.608078286808466,-2.4375
-30.0,4.595806440505381,-1.625
-30.5,4.571262747899211,4.875
-30.0,4.601942363656923,-0.8125
-30.5,4.589670517353839,0.8125
-30.5,4.565126824747668,4.875
-30.5,4.571262747899211,4.0625
-30.5,4.577398671050753,4.0625
-30.5,4.608078286808466,-2.4375
-30.0,4.595806440505381,-0.8125
-30.5,4.595806440505381,-0.8125
-30.5,4.552854978444583,5.6875
-30.5,4.558990901596125,4.875
-30.5,4.608078286808466,-1.625
-30.5,4.601942363656923,-1.625
-30.5,4.565126824747668,2.4375
-30.5,4.577398671050753,0.8125
-30.5,4.558990901596125,4.875
-30.5,4.577398671050753,1.625
-30.5,4.577398671050753,2.4375
-30.5,4.589670517353839,-0.8125
-30.5,4.577398671050753,0.8125
-30.5,4.577398671050753,-0.8125
-30.5,4.595806440505381,-2.4375
-30.5,4.595806440505381,-2.4375
-30.5,4.589670517353839,-0.8125
-30.5,4.577398671050753,-0.8125
-30.5,4.601942363656923,-0.8125
-30.5,4.558990901596125,4.0625
-30.5,4.595806440505381,-1.625
-30.5,4.571262747899211,1.625
-30.5,4.571262747899211,2.4375
-30.5,4.601942363656923,-4.875
-30.5,4.601942363656923,-2.4375
-30.5,4.546719055293041,5.6875
-30.5,4.601942363656923,-4.0625
-30.5,4.565126824747668,4.0625
-30.5,4.608078286808466,-4.875
-30.5,4.571262747899211,1.625
-30.5,4.571262747899211,2.4375
-30.5,4.571262747899211,1.625
-30.5,4.558990901596125,1.625
-30.5,4.601942363656923,-4.0625
-30.5,4.552854978444583,4.875
-30.5,4.571262747899211,1.625
-30.5,4.577398671050753,0.0
-30.5,4.595806440505381,-1.625
-30.5,4.583534594202296,-0.8125
-30.5,4.558990901596125,1.625
-30.5,4.571262747899211,0.8125
-30.5,4.540583132141498,5.6875
-30.5,4.589670517353839,-4.0625
-30.5,4.614214209960009,-5.6875
-30.5,4.595806440505381,-1.625
-30.5,4.552854978444583,2.4375
-30.5,4.595806440505381,-2.4375
-30.5,4.571262747899211,-0.8125
-30.5,4.577398671050753,0.0
-30.5,4.565126824747668,0.8125
-30.5,4.571262747899211,0.8125
-30.5,4.595806440505381,-5.6875
-30.5,4.601942363656923,-4.875
-30.5,4.552854978444583,4.0625
-30.5,4.571262747899211,0.8125
-30.5,4.583534594202296,-1.625
-30.5,4.595806440505381,-4.0625
-30.5,4.601942363656923,-4.875
-30.5,4.589670517353839,-0.8125
-30.5,4.589670517353839,-0.8125
-30.5,4.565126824747668,2.4375
-30.5,4.595806440505381,-1.625
-30.5,4.552854978444583,2.4375
-30.5,4.608078286808466,-5.6875
-30.5,4.571262747899211,-0.8125
-30.5,4.571262747899211,1.625
-30.5,4.595806440505381,-2.4375
-30.5,4.571262747899211,0.8125
-30.5,4.583534594202296,-1.625
-30.5,4.558990901596125,2.4375
-30.5,4.595806440505381,-2.4375
-30.5,4.589670517353839,-1.625
-30.5,4.558990901596125,0.8125
-30.5,4.577398671050753,-2.4375
-30.5,4.595806440505381,-2.4375
-30.5,4.558990901596125,0.8125
-30.5,4.577398671050753,-0.8125
-30.5,4.583534594202296,-1.625
-30.5,4.546719055293041,2.4375
-30.5,4.595806440505381,-4.0625
-30.5,4.552854978444583,1.625
-30.5,4.565126824747668,0.8125
-30.5,4.546719055293041,0.8125
-30.5,4.558990901596125,1.625
-30.5,4.558990901596125,0.8125
-30.5,4.558990901596125,0.0
-30.5,4.552854978444583,4.0625
-30.5,4.583534594202296,-2.4375
-30.5,4.546719055293041,2.4375
-30.5,4.571262747899211,-1.625
-30.5,4.577398671050753,0.0
-30.5,4.571262747899211,0.8125
-30.5,4.565126824747668,-0.8125
-30.5,4.552854978444583,0.8125
-30.5,4.577398671050753,-0.8125
-30.5,4.552854978444583,2.4375
-30.5,4.546719055293041,4.0625
-30.5,4.558990901596125,0.8125
-30.5,4.583534594202296,-1.625
-30.5,4.583534594202296,-2.4375
-30.5,4.552854978444583,2.4375
-30.5,4.552854978444583,2.4375
-30.5,4.565126824747668,1.625
-30.5,4.540583132141498,2.4375
-30.5,4.565126824747668,-0.8125
-30.5,4.565126824747668,1.625
-30.5,4.534447208989955,4.0625
-30.5,4.595806440505381,-4.0625
-30.5,4.546719055293041,2.4375
-30.5,4.540583132141498,1.625
-30.5,4.528311285838413,6.5
-30.5,4.540583132141498,4.0625
-30.5,4.540583132141498,2.4375
-30.5,4.522175362686871,5.6875
-30.5,4.552854978444583,1.625
-30.5,4.552854978444583,-1.625
-30.5,4.565126824747668,-1.625
-30.5,4.540583132141498,1.625
-30.5,4.558990901596125,-2.4375
-30.5,4.571262747899211,-2.4375
-30.5,4.552854978444583,-0.8125
-30.5,4.540583132141498,1.625
-30.5,4.509903516383785,8.125
-30.5,4.540583132141498,1.625
-30.5,4.571262747899211,-1.625
-30.5,4.546719055293041,2.4375
-30.5,4.558990901596125,-1.625
-30.5,4.565126824747668,-1.625
-30.5,4.565126824747668,-1.625
-30.5,4.546719055293041,2.4375
-30.5,4.528311285838413,1.625
-30.5,4.522175362686871,2.4375
-30.5,4.522175362686871,5.6875
-30.5,4.540583132141498,0.8125
-30.5,4.534447208989955,0.8125
-30.5,4.540583132141498,1.625
-30.5,4.546719055293041,0.0
-30.5,4.552854978444583,0.0
-30.5,4.546719055293041,0.8125
-30.5,4.540583132141498,0.8125
-30.5,4.540583132141498,1.625
-30.5,4.534447208989955,2.4375
-31.0,4.534447208989955,1.625
-30.5,4.534447208989955,0.0
-31.0,4.552854978444583,0.0
-30.5,4.522175362686871,4.875
-31.0,4.528311285838413,1.625
-31.0,4.540583132141498,0.0
-30.5,4.528311285838413,0.0
-30.5,4.528311285838413,0.8125
-30.5,4.516039439535327,1.625
-30.5,4.528311285838413,1.625
-31.0,4.540583132141498,0.0
-31.0,4.509903516383785,4.0625
-30.5,4.540583132141498,0.0
-30.5,4.546719055293041,-2.4375
-30.5,4.528311285838413,0.8125
-30.5,4.534447208989955,0.0
-30.5,4.509903516383785,5.6875
-30.5,4.558990901596125,-2.4375
-31.0,4.546719055293041,-1.625
-30.5,4.522175362686871,4.875
-31.0,4.540583132141498,0.0
-30.5,4.516039439535327,4.875
-31.0,4.546719055293041,0.8125
-30.5,4.540583132141498,-0.8125
-30.5,4.552854978444583,-2.4375
-30.5,4.528311285838413,2.4375
-30.5,4.540583132141498,0.0
-30.5,4.534447208989955,2.4375
-30.5,4.540583132141498,0.8125
-30.5,4.540583132141498,0.8125
-30.5,4.534447208989955,1.625
-30.5,4.558990901596125,-2.4375
-30.5,4.546719055293041,-2.4375
-30.5,4.552854978444583,0.0
-30.5,4.546719055293041,1.625
-30.5,4.534447208989955,0.0
-30.5,4.546719055293041,0.0
-30.5,4.571262747899211,-2.4375
-30.5,4.534447208989955,1.625
-30.5,4.528311285838413,0.8125
-30.5,4.509903516383785,2.4375
-30.5,4.534447208989955,0.0
-30.5,4.540583132141498,-1.625
-30.5,4.522175362686871,0.8125
-30.5,4.528311285838413,0.8125
-30.5,4.516039439535327,4.0625
-30.5,4.522175362686871,0.8125
-30.5,4.546719055293041,-2.4375
-30.5,4.522175362686871,0.0
-30.5,4.509903516383785,2.4375
-30.5,4.522175362686871,0.8125
-30.5,4.528311285838413,0.8125
-30.5,4.546719055293041,-4.0625
-30.5,4.503767593232243,4.0625
-30.5,4.522175362686871,0.8125
-30.5,4.528311285838413,0.0
-30.5,4.528311285838413,-0.8125
-30.5,4.491495746929157,4.0625
-30.5,4.516039439535327,0.8125
-30.5,4.516039439535327,1.625
-30.5,4.503767593232243,0.8125
-30.5,4.503767593232243,2.4375
-30.5,4.516039439535327,0.0
-30.5,4.516039439535327,-0.8125
-30.5,4.516039439535327,1.625
-30.5,4.503767593232243,1.625
-30.5,4.4976316700806995,0.8125
-30.5,4.509903516383785,0.8125
-30.5,4.516039439535327,-0.8125
-30.5,4.509903516383785,0.0
-30.5,4.503767593232243,1.625
-30.5,4.4976316700806995,1.625
-30.5,4.509903516383785,0.8125
-30.5,4.4976316700806995,2.4375
-30.5,4.4976316700806995,1.625
-30.5,4.503767593232243,2.4375
-30.5,4.503767593232243,0.0
-30.5,4.4976316700806995,0.8125
-30.5,4.503767593232243,0.8125
-30.5,4.479223900626073,4.0625
-30.0,4.485359823777615,1.625
-30.5,4.4976316700806995,0.0
-30.5,4.473087977474529,2.4375
-30.5,4.491495746929157,0.0
-30.5,4.460816131171445,4.875
-30.0,4.485359823777615,0.8125
-30.5,4.473087977474529,2.4375
-30.5,4.454680208019902,4.875
-30.5,4.485359823777615,0.0
-30.0,4.479223900626073,0.0
-30.5,4.491495746929157,-2.4375
-30.0,4.454680208019902,4.0625
-30.5,4.430136515413731,5.6875
-30.0,4.454680208019902,0.0
-30.5,4.479223900626073,-1.625
-30.0,4.460816131171445,0.0
-30.5,4.442408361716817,1.625
-30.5,4.448544284868359,0.8125
-30.0,4.442408361716817,2.4375
-30.5,4.448544284868359,0.8125
-30.0,4.448544284868359,0.0
-30.5,4.4362724385652745,0.0
-30.0,4.4362724385652745,0.8125
-30.0,4.454680208019902,-2.4375
-30.0,4.448544284868359,0.0
-30.5,4.430136515413731,0.8125
-30.0,4.4362724385652745,2.4375
-30.5,4.442408361716817,0.0
-30.0,4.442408361716817,0.0
-30.0,4.4362724385652745,1.625
-30.5,4.442408361716817,0.0
-30.0,4.4362724385652745,-0.8125
-30.0,4.4362724385652745,0.0
-30.0,4.424000592262189,1.625
-30.5,4.442408361716817,-0.8125
-30.5,4.442408361716817,-0.8125
-30.0,4.430136515413731,0.8125
-30.0,4.4362724385652745,-1.625
-30.5,4.4362724385652745,0.8125
-30.5,4.442408361716817,-1.625
-30.5,4.442408361716817,-1.625
-30.5,4.442408361716817,-1.625
-30.5,4.430136515413731,0.0
-30.5,4.424000592262189,0.0
-30.5,4.417864669110647,1.625
-30.5,4.411728745959104,0.8125
-30.5,4.417864669110647,2.4375
-30.0,4.4362724385652745,-1.625
-30.5,4.4362724385652745,-0.8125
-30.0,4.430136515413731,-0.8125
-30.5,4.411728745959104,2.4375
-30.0,4.405592822807561,1.625
-30.5,4.430136515413731,-0.8125
-30.0,4.4362724385652745,-4.0625
-30.5,4.411728745959104,0.8125
-30.5,4.399456899656019,1.625
-30.5,4.417864669110647,-2.4375
-30.5,4.4362724385652745,-1.625
-30.5,4.405592822807561,0.0
-30.5,4.417864669110647,0.0
-30.5,4.405592822807561,4.0625
-30.5,4.430136515413731,-0.8125
-30.5,4.442408361716817,-4.0625
-30.0,4.411728745959104,0.8125
-30.5,4.417864669110647,-0.8125
-30.5,4.405592822807561,1.625
-30.5,4.417864669110647,0.0
-30.5,4.3933209765044765,1.625
-30.5,4.387185053352934,4.0625
-30.5,4.3933209765044765,4.0625
-30.5,4.417864669110647,-0.8125
-30.5,4.399456899656019,1.625
-30.5,4.417864669110647,-0.8125
-30.5,4.417864669110647,-1.625
-30.5,4.399456899656019,0.8125
-30.5,4.417864669110647,0.0
-30.5,4.411728745959104,0.0
-30.5,4.387185053352934,1.625
-30.0,4.417864669110647,-1.625
-30.5,4.399456899656019,0.0
-30.5,4.417864669110647,-4.875
-30.5,4.417864669110647,-2.4375
-30.5,4.399456899656019,0.8125
-30.5,4.411728745959104,-1.625
-30.5,4.411728745959104,-0.8125
-30.0,4.399456899656019,-0.8125
-30.5,4.411728745959104,-0.8125
-30.5,4.387185053352934,1.625
-30.5,4.3933209765044765,1.625
-30.5,4.411728745959104,-0.8125
-30.5,4.411728745959104,-0.8125
-30.5,4.3933209765044765,1.625
-30.5,4.387185053352934,0.0
-30.5,4.3933209765044765,0.0
-30.5,4.4362724385652745,-5.6875
-30.5,4.411728745959104,-2.4375
-30.5,4.381049130201391,4.0625
-30.5,4.399456899656019,0.0
-30.5,4.381049130201391,1.625
-30.5,4.399456899656019,-1.625
-30.5,4.387185053352934,1.625
-30.5,4.405592822807561,-0.8125
-30.5,4.405592822807561,0.0
-30.5,4.399456899656019,-0.8125
-30.5,4.405592822807561,-0.8125
-30.5,4.405592822807561,-1.625
-30.5,4.405592822807561,-4.0625
-30.5,4.411728745959104,-2.4375
-30.5,4.399456899656019,0.0
-30.5,4.399456899656019,0.0
-30.5,4.387185053352934,0.8125
-30.5,4.3933209765044765,0.8125
-30.5,4.405592822807561,-4.875
-30.5,4.411728745959104,-4.0625
-30.5,4.387185053352934,1.625
-30.5,4.387185053352934,1.625
-30.5,4.387185053352934,1.625
-30.5,4.374913207049849,2.4375
-30.5,4.405592822807561,-0.8125
-30.5,4.399456899656019,-2.4375
-30.5,4.399456899656019,-0.8125
-30.5,4.3933209765044765,0.8125
-30.5,4.381049130201391,-0.8125
-30.5,4.3933209765044765,-0.8125
-30.5,4.405592822807561,-2.4375
-30.5,4.399456899656019,-1.625
-30.5,4.381049130201391,1.625
-30.5,4.3933209765044765,0.0
-30.5,4.399456899656019,-2.4375
-30.5,4.399456899656019,0.0
-30.5,4.3933209765044765,-0.8125
-30.5,4.399456899656019,0.8125
-30.5,4.411728745959104,-1.625
-30.5,4.411728745959104,-2.4375
-30.5,4.387185053352934,0.0
-30.5,4.3933209765044765,1.625
-30.5,4.405592822807561,0.8125
-30.5,4.417864669110647,-4.875
-30.5,4.405592822807561,0.0
-30.5,4.387185053352934,2.4375
-30.5,4.424000592262189,-2.4375
-30.5,4.381049130201391,4.875
-30.5,4.430136515413731,-0.8125
-30.5,4.411728745959104,1.625
-30.5,4.405592822807561,1.625
-30.5,4.430136515413731,-4.0625
-30.5,4.417864669110647,0.8125
-30.5,4.424000592262189,0.8125
-30.5,4.417864669110647,-0.8125
-30.5,4.424000592262189,0.8125
-30.5,4.448544284868359,-4.875
-30.5,4.430136515413731,-2.4375
-30.5,4.417864669110647,0.8125
-30.5,4.417864669110647,-0.8125
-30.5,4.4362724385652745,0.0
-30.5,4.4362724385652745,-0.8125
-30.5,4.4362724385652745,0.0
-30.5,4.4362724385652745,-1.625
-30.5,4.442408361716817,0.0
-30.5,4.460816131171445,-4.875
-30.5,4.4362724385652745,1.625
-30.5,4.442408361716817,0.8125
-30.5,4.387185053352934,8.9375
-30.5,4.4362724385652745,0.0
-30.5,4.454680208019902,-0.8125
-30.5,4.460816131171445,-2.4375
-30.5,4.460816131171445,-2.4375
-30.5,4.454680208019902,0.8125
-30.5,4.448544284868359,1.625
-30.5,4.460816131171445,-2.4375
-30.5,4.448544284868359,0.8125
-30.5,4.460816131171445,0.0
-30.5,4.473087977474529,-0.8125
-30.5,4.448544284868359,2.4375
-30.5,4.473087977474529,0.8125
-30.5,4.466952054322987,0.0
-30.5,4.473087977474529,0.0
-30.5,4.485359823777615,0.0
-30.5,4.479223900626073,0.8125
-30.5,4.473087977474529,2.4375
-30.5,4.491495746929157,0.0
-30.5,4.4976316700806995,-1.625
-30.5,4.4976316700806995,-2.4375
-30.5,4.479223900626073,0.0
-30.5,4.466952054322987,4.0625
-30.5,4.479223900626073,0.8125
-30.5,4.485359823777615,1.625
-30.5,4.479223900626073,1.625
-30.5,4.491495746929157,0.8125
-30.5,4.4976316700806995,0.0
-30.5,4.491495746929157,0.0
-30.5,4.503767593232243,0.0
-30.5,4.485359823777615,0.8125
-30.0,4.491495746929157,1.625
-30.5,4.503767593232243,0.0
-30.5,4.516039439535327,-0.8125
-30.0,4.509903516383785,-1.625
-30.5,4.503767593232243,0.0
-30.0,4.4976316700806995,0.8125
-30.5,4.516039439535327,-0.8125
-30.5,4.4976316700806995,0.8125
-30.0,4.509903516383785,-0.8125
-30.5,4.509903516383785,0.0
-30.5,4.4976316700806995,2.4375
-30.5,4.491495746929157,2.4375
-30.5,4.522175362686871,0.0
-30.0,4.509903516383785,0.8125
-30.5,4.522175362686871,-0.8125
-30.0,4.522175362686871,1.625
-30.0,4.516039439535327,1.625
-30.0,4.509903516383785,1.625
-30.0,4.503767593232243,2.4375
-30.0,4.509903516383785,1.625
-30.5,4.509903516383785,2.4375
-30.0,4.522175362686871,0.8125
-30.0,4.516039439535327,1.625
-30.5,4.540583132141498,-1.625
-30.0,4.516039439535327,4.0625
-30.0,4.540583132141498,0.0
-30.0,4.528311285838413,0.8125
-30.0,4.516039439535327,1.625
-30.0,4.522175362686871,4.0625
-30.0,4.534447208989955,-0.8125
-30.0,4.522175362686871,1.625
-30.0,4.528311285838413,0.8125
-30.0,4.534447208989955,0.0
-30.0,4.534447208989955,0.8125
-30.0,4.528311285838413,0.8125
-30.0,4.540583132141498,-0.8125
-30.0,4.516039439535327,4.0625
-30.0,4.546719055293041,-1.625
-30.0,4.503767593232243,5.6875
-30.0,4.528311285838413,0.8125
-30.0,4.540583132141498,1.625
-30.0,4.534447208989955,0.8125
-30.0,4.516039439535327,4.0625
-30.0,4.528311285838413,0.0
-30.0,4.528311285838413,0.8125
-30.0,4.546719055293041,0.0
-30.0,4.534447208989955,0.8125
-30.0,4.534447208989955,0.0
-30.0,4.558990901596125,-2.4375
-30.0,4.528311285838413,2.4375
-30.0,4.552854978444583,-0.8125
-30.0,4.540583132141498,1.625
-30.0,4.528311285838413,4.0625
-30.0,4.528311285838413,4.0625
-30.0,4.540583132141498,0.8125
-30.0,4.540583132141498,0.0
-30.0,4.552854978444583,0.8125
-30.0,4.528311285838413,4.0625
-30.0,4.540583132141498,0.8125
-30.0,4.552854978444583,-0.8125
-30.0,4.558990901596125,-2.4375
-30.0,4.546719055293041,-0.8125
-30.0,4.546719055293041,0.0
-30.0,4.558990901596125,-1.625
-30.0,4.546719055293041,1.625
-30.0,4.552854978444583,0.8125
-30.0,4.522175362686871,4.875
-30.0,4.534447208989955,2.4375
-30.0,4.534447208989955,2.4375
-30.0,4.522175362686871,5.6875
-30.0,4.552854978444583,0.8125
-30.0,4.546719055293041,0.8125
-30.0,4.558990901596125,0.0
-30.0,4.534447208989955,2.4375
-30.0,4.534447208989955,2.4375
-30.0,4.534447208989955,1.625
-30.0,4.571262747899211,-2.4375
-30.0,4.577398671050753,-1.625
-30.0,4.546719055293041,0.8125
-30.0,4.540583132141498,1.625
-30.0,4.546719055293041,0.8125
-30.0,4.571262747899211,-2.4375
-30.0,4.558990901596125,0.0
-30.0,4.540583132141498,2.4375
-30.0,4.546719055293041,2.4375
-30.0,4.558990901596125,0.8125
-30.0,4.528311285838413,4.875
-30.0,4.540583132141498,2.4375
-30.0,4.552854978444583,0.0
-30.0,4.552854978444583,0.0
-30.0,4.571262747899211,-1.625
-30.0,4.571262747899211,-0.8125
-30.0,4.558990901596125,0.8125
-30.0,4.552854978444583,0.0
-30.0,4.534447208989955,2.4375
-30.0,4.565126824747668,0.0
-30.0,4.571262747899211,-0.8125
-30.0,4.546719055293041,2.4375
-30.0,4.583534594202296,-4.875
-30.0,4.565126824747668,-0.8125
-30.0,4.528311285838413,5.6875
-30.0,4.571262747899211,0.0
-30.0,4.546719055293041,0.8125
-30.0,4.552854978444583,1.625
-30.0,4.565126824747668,-1.625
-30.0,4.589670517353839,-4.0625
-30.0,4.583534594202296,-1.625
-30.0,4.558990901596125,0.8125
-30.0,4.583534594202296,-2.4375
-30.0,4.589670517353839,-4.875
-30.0,4.552854978444583,2.4375
-30.0,4.583534594202296,-0.8125
-30.0,4.552854978444583,0.8125
-30.0,4.552854978444583,2.4375
-30.0,4.601942363656923,-4.0625
-30.0,4.571262747899211,-0.8125
-30.0,4.565126824747668,0.0
-30.0,4.558990901596125,1.625
-30.0,4.565126824747668,1.625
-30.0,4.546719055293041,2.4375
-30.0,4.595806440505381,-4.875
-30.0,4.583534594202296,-1.625
-30.0,4.540583132141498,4.0625
-30.0,4.589670517353839,-2.4375
-30.0,4.552854978444583,0.8125
-30.0,4.565126824747668,0.8125
-30.0,4.589670517353839,-2.4375
-30.0,4.571262747899211,0.0
-30.0,4.565126824747668,0.8125
-30.0,4.571262747899211,0.0
-30.0,4.577398671050753,-1.625
-30.0,4.577398671050753,-0.8125
-30.0,4.577398671050753,0.0
-30.0,4.565126824747668,0.0
-30.0,4.577398671050753,-2.4375
-30.0,4.571262747899211,-0.8125
-30.0,4.558990901596125,2.4375
-30.0,4.577398671050753,1.625
-30.0,4.571262747899211,0.0
-30.0,4.577398671050753,-4.0625
-30.0,4.565126824747668,-0.8125
-30.0,4.552854978444583,2.4375
-30.0,4.546719055293041,1.625
-30.0,4.577398671050753,-0.8125
-30.0,4.577398671050753,-0.8125
-30.0,4.583534594202296,-1.625
-30.0,4.571262747899211,0.0
-30.0,4.571262747899211,0.0
-30.0,4.589670517353839,-4.0625
-30.0,4.571262747899211,0.0
-30.0,4.546719055293041,4.0625
-30.0,4.565126824747668,0.8125
-30.0,4.558990901596125,0.8125
-30.0,4.558990901596125,0.0
-30.0,4.571262747899211,0.8125
-30.0,4.552854978444583,1.625
-30.0,4.595806440505381,-4.875
-30.0,4.577398671050753,0.0
-30.0,4.577398671050753,-0.8125
-30.0,4.565126824747668,0.0
-30.0,4.577398671050753,-1.625
-30.0,4.540583132141498,4.0625
-30.0,4.571262747899211,-0.8125
-30.0,4.583534594202296,-2.4375
-30.0,4.558990901596125,1.625
-30.0,4.595806440505381,-4.0625
-30.0,4.577398671050753,-0.8125
-30.0,4.565126824747668,0.8125
-30.0,4.583534594202296,-2.4375
-30.0,4.589670517353839,-4.0625
-30.0,4.552854978444583,1.625
-30.0,4.552854978444583,2.4375
-30.0,4.565126824747668,0.0
-30.0,4.558990901596125,0.0
-30.0,4.583534594202296,-1.625
-30.0,4.546719055293041,2.4375
-30.0,4.558990901596125,1.625
-30.0,4.565126824747668,0.8125
-30.0,4.565126824747668,-0.8125
-30.0,4.546719055293041,4.0625
-30.0,4.577398671050753,-0.8125
-30.0,4.577398671050753,-0.8125
-30.0,4.540583132141498,6.5
-30.0,4.577398671050753,0.0
-30.0,4.589670517353839,-0.8125
-30.0,4.565126824747668,0.8125
-30.0,4.595806440505381,-4.0625
-30.0,4.565126824747668,2.4375
-30.0,4.571262747899211,0.0
-30.0,4.577398671050753,-0.8125
-30.0,4.583534594202296,-1.625
-30.0,4.540583132141498,4.0625
-30.0,4.571262747899211,0.0
-30.0,4.583534594202296,-0.8125
-30.0,4.558990901596125,2.4375
-30.0,4.595806440505381,-4.0625
-30.0,4.577398671050753,-1.625
-30.0,4.601942363656923,-5.6875
-30.0,4.552854978444583,2.4375
-30.0,4.565126824747668,4.0625
-30.0,4.577398671050753,-0.8125
-30.0,4.546719055293041,4.0625
-30.0,4.565126824747668,1.625
-30.0,4.546719055293041,2.4375
-30.0,4.583534594202296,-0.8125
-30.0,4.583534594202296,-1.625
-30.0,4.571262747899211,0.8125
-29.5,4.577398671050753,0.0
-30.0,4.540583132141498,5.6875
-30.0,4.577398671050753,0.0
-30.0,4.589670517353839,-2.4375
-30.0,4.583534594202296,-1.625
-30.0,4.589670517353839,-1.625
-30.0,4.571262747899211,-0.8125
-30.0,4.601942363656923,-6.5
-30.0,4.558990901596125,2.4375
-30.0,4.565126824747668,1.625
-30.0,4.583534594202296,-2.4375
-30.0,4.552854978444583,4.0625
-30.0,4.546719055293041,2.4375
-30.0,4.601942363656923,-4.0625
-30.0,4.595806440505381,-4.0625
-30.0,4.558990901596125,1.625
-30.0,4.589670517353839,-1.625
-30.0,4.589670517353839,-0.8125
-30.0,4.565126824747668,1.625
-30.0,4.589670517353839,-2.4375
-30.0,4.571262747899211,0.0
-30.0,4.577398671050753,0.0
-30.0,4.589670517353839,-0.8125
-30.0,4.583534594202296,-2.4375
-30.0,4.565126824747668,0.8125
-30.0,4.577398671050753,-0.8125
-30.0,4.558990901596125,2.4375
-30.0,4.583534594202296,0.0
-30.0,4.565126824747668,0.8125
-30.0,4.577398671050753,0.0
-30.0,4.583534594202296,-0.8125
-30.0,4.571262747899211,0.0
-30.0,4.583534594202296,-1.625
-30.0,4.558990901596125,1.625
-30.0,4.571262747899211,0.8125
-30.0,4.589670517353839,-1.625
-30.0,4.589670517353839,-4.0625
-30.0,4.595806440505381,-2.4375
-30.0,4.595806440505381,-4.0625
-30.0,4.571262747899211,-0.8125
-30.0,4.558990901596125,2.4375
-30.0,4.540583132141498,4.0625
-30.0,4.571262747899211,0.0
-30.0,4.565126824747668,0.8125
-30.0,4.589670517353839,-1.625
-30.0,4.571262747899211,0.8125
-30.0,4.589670517353839,-1.625
-30.0,4.565126824747668,0.8125
-30.0,4.601942363656923,-4.0625
-30.0,4.583534594202296,0.0
-30.0,4.558990901596125,1.625
-30.0,4.595806440505381,-4.0625
-30.0,4.583534594202296,-1.625
-30.0,4.558990901596125,0.8125
-30.0,4.577398671050753,0.0
-30.0,4.577398671050753,0.0
-30.0,4.571262747899211,0.8125
-30.0,4.565126824747668,0.8125
-30.0,4.558990901596125,0.8125
-29.5,4.565126824747668,0.8125
-30.0,4.565126824747668,4.0625
-30.0,4.583534594202296,-0.8125
-30.0,4.601942363656923,-4.0625
-30.0,4.583534594202296,-0.8125
-30.0,4.577398671050753,-0.8125
-30.0,4.583534594202296,-0.8125
-30.0,4.571262747899211,1.625
-30.0,4.595806440505381,-4.0625
-30.0,4.577398671050753,-0.8125
-29.5,4.601942363656923,-4.0625
-30.0,4.589670517353839,-1.625
-30.0,4.577398671050753,0.8125
-30.0,4.571262747899211,0.0
-30.0,4.522175362686871,9.75
-29.5,4.571262747899211,0.8125
-30.0,4.589670517353839,-0.8125
-30.0,4.558990901596125,4.0625
-30.0,4.571262747899211,1.625
-30.0,4.608078286808466,-4.875
-30.0,4.583534594202296,-0.8125
-30.0,4.595806440505381,-4.0625
-30.0,4.595806440505381,-1.625
-30.0,4.601942363656923,-1.625
-30.0,4.571262747899211,1.625
-30.0,4.595806440505381,-2.4375
-30.0,4.595806440505381,-2.4375
-30.0,4.571262747899211,1.625
-30.0,4.577398671050753,0.8125
-30.0,4.614214209960009,-5.6875
-30.0,4.558990901596125,2.4375
-30.0,4.589670517353839,-1.625
-30.0,4.577398671050753,0.0
-30.0,4.595806440505381,-1.625
-30.0,4.577398671050753,0.8125
-30.0,4.595806440505381,-2.4375
-30.0,4.571262747899211,2.4375
-30.0,4.614214209960009,-5.6875
-30.0,4.583534594202296,0.0
-30.0,4.595806440505381,-2.4375
-30.0,4.571262747899211,1.625
-30.0,4.583534594202296,-0.8125
-30.0,4.577398671050753,0.8125
-30.0,4.571262747899211,2.4375
-30.0,4.595806440505381,-1.625
-30.0,4.589670517353839,-0.8125
-30.0,4.577398671050753,0.8125
-30.0,4.565126824747668,2.4375
-30.0,4.565126824747668,4.0625
-30.0,4.558990901596125,4.875
-30.0,4.565126824747668,2.4375
-30.0,4.558990901596125,4.0625
-30.0,4.565126824747668,4.0625
-30.0,4.577398671050753,0.0
-30.0,4.558990901596125,4.0625
-30.0,4.558990901596125,4.0625
-30.0,4.577398671050753,0.8125
-30.0,4.589670517353839,-0.8125
-30.0,4.608078286808466,-2.4375
-30.0,4.589670517353839,0.8125
-30.0,4.577398671050753,1.625
-30.0,4.595806440505381,0.0
-30.0,4.589670517353839,-0.8125
-30.0,4.589670517353839,-0.8125
-30.0,4.589670517353839,0.0
-30.0,4.565126824747668,4.0625
-30.0,4.614214209960009,-4.0625
-30.0,4.583534594202296,0.8125
-30.0,4.589670517353839,0.8125
-30.0,4.601942363656923,-0.8125
-30.0,4.595806440505381,-0.8125
-30.0,4.589670517353839,0.0
-30.0,4.558990901596125,4.875
-30.0,4.608078286808466,-1.625
-30.0,4.595806440505381,0.8125
-30.0,4.608078286808466,-1.625
-30.0,4.608078286808466,-2.4375
-30.0,4.608078286808466,-0.8125
-30.0,4.608078286808466,-0.8125
-30.0,4.601942363656923,0.8125
-30.0,4.608078286808466,-0.8125
-30.0,4.595806440505381,0.8125
-30.0,4.608078286808466,0.0
-30.0,4.620350133111551,-2.4375
-30.0,4.614214209960009,-1.625
-30.0,4.614214209960009,-2.4375
-30.0,4.614214209960009,-1.625
-30.0,4.608078286808466,-0.8125
-30.0,4.608078286808466,0.0
-30.0,4.632621979414636,-4.0625
-30.0,4.614214209960009,0.0
-30.0,4.601942363656923,-0.8125
-30.0,4.589670517353839,2.4375
-30.0,4.608078286808466,0.0
-30.0,4.614214209960009,-0.8125
-30.0,4.608078286808466,0.0
-30.0,4.626486056263094,-2.4375
-30.0,4.614214209960009,-1.625
-30.0,4.620350133111551,-4.875
-30.0,4.626486056263094,-2.4375
-30.0,4.589670517353839,4.0625
-30.0,4.614214209960009,-0.8125
-30.0,4.583534594202296,1.625
-30.0,4.608078286808466,0.8125
-30.0,4.608078286808466,0.0
-30.0,4.589670517353839,2.4375
-30.0,4.614214209960009,-0.8125
-30.0,4.620350133111551,-1.625
-30.0,4.626486056263094,-1.625
-30.0,4.601942363656923,2.4375
-30.0,4.620350133111551,-1.625
-30.0,4.614214209960009,0.0
-30.0,4.601942363656923,2.4375
-30.0,4.626486056263094,-1.625
-30.0,4.626486056263094,-0.8125
-30.0,4.626486056263094,-1.625
-30.0,4.608078286808466,1.625
-30.0,4.614214209960009,1.625
-30.0,4.638757902566179,-2.4375
-30.0,4.614214209960009,0.8125
-30.0,4.620350133111551,0.8125
-30.0,4.632621979414636,-1.625
-30.0,4.608078286808466,0.8125
-30.0,4.620350133111551,0.0
-30.0,4.626486056263094,-0.8125
-30.0,4.638757902566179,-4.0625
-30.0,4.632621979414636,-0.8125
-30.0,4.614214209960009,1.625
-30.0,4.632621979414636,-1.625
-30.0,4.620350133111551,0.0
-30.0,4.632621979414636,-1.625
-30.0,4.608078286808466,2.4375
-30.0,4.620350133111551,0.0
-30.0,4.626486056263094,-0.8125
-30.0,4.632621979414636,-1.625
-30.0,4.626486056263094,0.0
-30.0,4.626486056263094,-1.625
-30.0,4.620350133111551,0.8125
-30.0,4.632621979414636,-0.8125
-30.0,4.6448938257177215,-4.0625
-30.0,4.626486056263094,0.8125
-30.0,4.632621979414636,0.0
-30.0,4.620350133111551,-0.8125
-30.0,4.638757902566179,-1.625
-30.0,4.638757902566179,-1.625
-30.0,4.6448938257177215,-4.0625
-30.0,4.632621979414636,-1.625
-30.0,4.620350133111551,1.625
-30.0,4.620350133111551,0.8125
-30.0,4.626486056263094,-0.8125
-30.0,4.6448938257177215,-1.625
-30.0,4.626486056263094,0.8125
-30.0,4.632621979414636,0.0
-30.0,4.614214209960009,2.4375
-30.0,4.632621979414636,0.0
-30.0,4.614214209960009,1.625
-30.0,4.620350133111551,2.4375
-30.0,4.651029748869264,-4.0625
-30.0,4.632621979414636,0.0
-30.0,4.632621979414636,1.625
-30.0,4.6448938257177215,-2.4375
-30.5,4.651029748869264,-4.0625
-30.5,4.6448938257177215,-1.625
-30.0,4.632621979414636,0.0
-30.0,4.6448938257177215,-4.0625
-30.5,4.620350133111551,2.4375
-30.0,4.632621979414636,-0.8125
-30.5,4.620350133111551,0.8125
-30.5,4.620350133111551,1.625
-30.0,4.638757902566179,-0.8125
-30.0,4.608078286808466,4.0625
-30.0,4.626486056263094,0.0
-30.0,4.632621979414636,-0.8125
-30.5,4.638757902566179,-2.4375
-30.0,4.601942363656923,2.4375
-30.5,4.638757902566179,-1.625
-30.5,4.620350133111551,0.0
-30.0,4.614214209960009,2.4375
-30.5,4.632621979414636,-1.625
-30.5,4.614214209960009,1.625
-30.0,4.638757902566179,-1.625
-30.5,4.638757902566179,-1.625
-30.5,4.614214209960009,1.625
-30.0,4.614214209960009,1.625
-30.0,4.626486056263094,-0.8125
-30.0,4.626486056263094,0.8125
-30.5,4.601942363656923,4.875
-30.5,4.632621979414636,0.8125
-30.5,4.626486056263094,0.0
-30.0,4.626486056263094,0.0
-30.5,4.614214209960009,0.0
-30.5,4.614214209960009,0.0
-30.5,4.595806440505381,2.4375
-30.5,4.601942363656923,0.0
-30.5,4.601942363656923,-1.625
-30.5,4.601942363656923,-0.8125
-30.0,4.620350133111551,-4.875
-30.5,4.589670517353839,1.625
-30.5,4.571262747899211,4.0625
-30.5,4.608078286808466,-1.625
-30.5,4.595806440505381,-0.8125
-30.5,4.552854978444583,6.5
-30.5,4.595806440505381,-0.8125
-30.5,4.589670517353839,0.8125
-30.5,4.595806440505381,-1.625
-30.5,4.571262747899211,2.4375
-30.0,4.577398671050753,2.4375
-30.0,4.583534594202296,0.8125
-30.5,4.546719055293041,5.6875
-30.5,4.583534594202296,0.8125
-30.5,4.589670517353839,0.8125
-30.5,4.583534594202296,1.625
-30.5,4.601942363656923,-1.625
-30.5,4.577398671050753,0.0
-30.0,4.571262747899211,4.875
-30.0,4.614214209960009,-4.0625
-30.5,4.577398671050753,1.625
-30.5,4.614214209960009,-2.4375
-30.5,4.571262747899211,1.625
-30.5,4.601942363656923,-1.625
-30.5,4.577398671050753,4.875
-30.5,4.571262747899211,4.0625
-30.0,4.608078286808466,-0.8125
-30.5,4.595806440505381,0.8125
-30.5,4.614214209960009,-2.4375
-30.5,4.595806440505381,0.8125
-30.5,4.608078286808466,0.0
-30.5,4.632621979414636,-5.6875
-30.0,4.595806440505381,2.4375
-30.0,4.626486056263094,-4.0625
-30.5,4.632621979414636,-1.625
-30.5,4.620350133111551,-0.8125
-30.5,4.595806440505381,1.625
-30.5,4.620350133111551,0.0
-30.0,4.601942363656923,4.0625
-30.5,4.601942363656923,1.625
-30.5,4.632621979414636,-4.875
-30.5,4.620350133111551,-0.8125
-30.5,4.632621979414636,-1.625
-30.5,4.626486056263094,-1.625
-30.5,4.626486056263094,-2.4375
-30.5,4.595806440505381,2.4375
-30.5,4.608078286808466,0.8125
-30.5,4.614214209960009,0.0
-30.5,4.601942363656923,2.4375
-30.5,4.614214209960009,0.0
-30.5,4.6448938257177215,-2.4375
-30.5,4.608078286808466,0.8125
-30.0,4.6448938257177215,-0.8125
-30.0,4.638757902566179,-1.625
-30.5,4.638757902566179,-0.8125
-30.5,4.651029748869264,-2.4375
-30.5,4.608078286808466,2.4375
-30.0,4.632621979414636,-1.625
-30.5,4.632621979414636,0.8125
-30.5,4.638757902566179,-0.8125
-30.0,4.6448938257177215,-4.0625
-30.5,4.626486056263094,1.625
-30.0,4.626486056263094,0.8125
-30.0,4.626486056263094,0.8125
-30.5,4.620350133111551,0.8125
-30.5,4.6448938257177215,-2.4375
-30.5,4.626486056263094,0.0
-30.5,4.620350133111551,2.4375
-30.0,4.614214209960009,4.875
-30.0,4.632621979414636,0.0
-30.0,4.632621979414636,-1.625
-30.0,4.626486056263094,-0.8125
-30.5,4.608078286808466,1.625
-30.5,4.614214209960009,2.4375
-30.5,4.601942363656923,4.875
-30.5,4.638757902566179,-1.625
-30.5,4.626486056263094,-1.625
-30.5,4.614214209960009,0.0
-30.5,4.626486056263094,0.8125
-30.0,4.620350133111551,0.0
-30.5,4.620350133111551,0.0
-30.5,4.638757902566179,-4.0625
-30.5,4.626486056263094,-0.8125
-30.0,4.620350133111551,0.0
-30.5,4.626486056263094,-1.625
-30.5,4.608078286808466,0.0
-30.5,4.620350133111551,-1.625
-30.5,4.583534594202296,1.625
-30.5,4.589670517353839,4.0625
-30.0,4.626486056263094,-2.4375
-30.5,4.620350133111551,-2.4375
-30.0,4.595806440505381,0.8125
-30.5,4.608078286808466,-1.625
-30.5,4.620350133111551,-2.4375
-30.5,4.608078286808466,-1.625
-30.0,4.620350133111551,-5.6875
-30.5,4.583534594202296,1.625
-30.0,4.583534594202296,0.0
-30.5,4.546719055293041,2.4375
-30.5,4.571262747899211,0.8125
-30.0,4.558990901596125,2.4375
-30.0,4.583534594202296,-1.625
-30.5,4.552854978444583,1.625
-30.0,4.577398671050753,0.0
-30.0,4.583534594202296,-2.4375
-30.0,4.589670517353839,-2.4375
-30.0,4.552854978444583,2.4375
-30.5,4.558990901596125,2.4375
-30.0,4.540583132141498,4.0625
-30.5,4.540583132141498,4.875
-30.0,4.546719055293041,2.4375
-30.0,4.583534594202296,-1.625
-30.0,4.540583132141498,2.4375
-30.0,4.546719055293041,2.4375
-30.5,4.534447208989955,4.875
-30.0,4.571262747899211,-2.4375
-30.0,4.552854978444583,2.4375
-30.0,4.540583132141498,4.0625
-30.0,4.565126824747668,-0.8125
-30.0,4.558990901596125,0.0
-30.5,4.546719055293041,2.4375
-30.0,4.552854978444583,1.625
-30.0,4.534447208989955,5.6875
-30.5,4.558990901596125,0.8125
-30.0,4.546719055293041,2.4375
-30.5,4.558990901596125,0.8125
-30.5,4.546719055293041,2.4375
-30.5,4.583534594202296,-1.625
-30.5,4.546719055293041,2.4375
-30.0,4.552854978444583,1.625
-30.5,4.558990901596125,0.8125
-30.0,4.565126824747668,0.8125
-30.0,4.540583132141498,4.875
-30.5,4.571262747899211,0.8125
-30.0,4.577398671050753,0.0
-30.5,4.595806440505381,-2.4375
-30.5,4.595806440505381,-2.4375
-30.5,4.552854978444583,4.0625
-30.0,4.589670517353839,-0.8125
-30.0,4.565126824747668,1.625
-30.0,4.601942363656923,-4.875
-30.0,4.565126824747668,2.4375
-30.0,4.571262747899211,0.8125
-30.0,4.552854978444583,4.875
-30.0,4.540583132141498,5.6875
-30.5,4.589670517353839,-0.8125
-30.0,4.583534594202296,-0.8125
-30.0,4.571262747899211,1.625
-30.5,4.595806440505381,-0.8125
-30.0,4.577398671050753,1.625
-30.0,4.552854978444583,4.875
-30.5,4.565126824747668,2.4375
-30.0,4.583534594202296,0.0
-30.0,4.558990901596125,2.4375
-30.0,4.595806440505381,-1.625
-30.0,4.565126824747668,2.4375
-30.5,4.558990901596125,1.625
-30.0,4.589670517353839,-0.8125
-30.5,4.565126824747668,1.625
-30.0,4.546719055293041,4.875
-30.0,4.552854978444583,4.875
-30.0,4.558990901596125,2.4375
-30.5,4.589670517353839,0.0
-30.0,4.565126824747668,2.4375
-30.0,4.565126824747668,2.4375
-30.0,4.528311285838413,6.5
-30.5,4.552854978444583,2.4375
-30.5,4.558990901596125,4.0625
-30.0,4.595806440505381,-1.625
-30.0,4.565126824747668,2.4375
-30.0,4.558990901596125,2.4375
-30.0,4.571262747899211,4.0625
-30.0,4.552854978444583,4.0625
-30.0,4.577398671050753,0.0
-30.0,4.601942363656923,-2.4375
-30.0,4.589670517353839,-0.8125
-30.0,4.577398671050753,0.8125
-30.0,4.558990901596125,2.4375
-30.0,4.558990901596125,4.0625
-30.0,4.589670517353839,-1.625
-30.0,4.577398671050753,0.8125
-30.0,4.608078286808466,-4.875
-30.0,4.552854978444583,4.0625
-30.0,4.571262747899211,4.0625
-30.0,4.595806440505381,-2.4375
-30.0,4.571262747899211,0.8125
-30.0,4.577398671050753,0.8125
-30.0,4.577398671050753,-0.8125
-30.0,4.577398671050753,0.0
-30.0,4.546719055293041,4.875
-30.0,4.565126824747668,0.8125
-30.0,4.577398671050753,-0.8125
-30.0,4.571262747899211,0.8125
-30.0,4.565126824747668,0.8125
-30.0,4.540583132141498,4.875
-30.0,4.565126824747668,0.0
-30.0,4.552854978444583,1.625
-30.0,4.546719055293041,1.625
-30.0,4.534447208989955,4.0625
-30.0,4.546719055293041,1.625
-30.0,4.558990901596125,0.0
-30.0,4.540583132141498,4.0625
-30.0,4.528311285838413,4.875
-30.0,4.534447208989955,1.625
-30.0,4.522175362686871,4.0625
-30.0,4.540583132141498,0.0
-30.0,4.528311285838413,4.0625
-30.0,4.528311285838413,2.4375
-30.0,4.546719055293041,-0.8125
-30.0,4.540583132141498,1.625
-30.0,4.534447208989955,-0.8125
-30.0,4.522175362686871,2.4375
-30.0,4.516039439535327,4.0625
-30.0,4.540583132141498,-0.8125
-30.0,4.540583132141498,-0.8125
-30.0,4.540583132141498,-0.8125
-30.0,4.528311285838413,0.8125
-30.0,4.491495746929157,4.875
-30.0,4.516039439535327,1.625
-30.0,4.528311285838413,0.0
-30.0,4.522175362686871,1.625
-30.0,4.503767593232243,4.0625
-30.0,4.534447208989955,-1.625
-30.0,4.4976316700806995,4.0625
-30.0,4.503767593232243,2.4375
-30.0,4.528311285838413,0.0
-30.0,4.516039439535327,0.8125
-30.0,4.509903516383785,1.625
-30.0,4.528311285838413,-1.625
-30.0,4.516039439535327,-0.8125
-30.0,4.503767593232243,1.625
-30.0,4.516039439535327,0.8125
-30.0,4.528311285838413,-0.8125
-30.0,4.516039439535327,0.0
-30.0,4.516039439535327,1.625
-30.0,4.509903516383785,1.625
-30.0,4.516039439535327,-0.8125
-30.0,4.479223900626073,4.875
-30.0,4.491495746929157,4.0625
-30.0,4.485359823777615,4.0625
-30.0,4.516039439535327,-1.625
-30.0,4.509903516383785,-0.8125
-30.0,4.485359823777615,2.4375
-30.0,4.485359823777615,4.0625
-30.0,4.4976316700806995,0.8125
-30.0,4.479223900626073,4.0625
-30.0,4.485359823777615,2.4375
-30.0,4.479223900626073,4.0625
-30.0,4.485359823777615,2.4375
-30.0,4.479223900626073,4.0625
-30.0,4.491495746929157,0.0
-30.0,4.479223900626073,0.8125
-30.0,4.4976316700806995,-0.8125
-30.0,4.4976316700806995,-0.8125
-30.0,4.4976316700806995,0.8125
-30.0,4.491495746929157,0.0
-30.0,4.460816131171445,5.6875
-30.0,4.466952054322987,4.875
-30.0,4.509903516383785,-2.4375
-30.0,4.473087977474529,1.625
-30.0,4.485359823777615,1.625
-30.0,4.454680208019902,4.0625
-30.0,4.473087977474529,2.4375
-30.0,4.491495746929157,-0.8125
-30.0,4.479223900626073,1.625
-30.0,4.473087977474529,4.875
-30.0,4.473087977474529,2.4375
-30.0,4.485359823777615,-0.8125
-30.0,4.466952054322987,4.0625
-30.0,4.491495746929157,0.0
-30.0,4.485359823777615,0.0
-30.0,4.460816131171445,4.875
-30.0,4.485359823777615,0.8125
-30.0,4.473087977474529,2.4375
-30.0,4.473087977474529,0.8125
-30.0,4.466952054322987,2.4375
-30.0,4.473087977474529,1.625
-30.0,4.485359823777615,0.0
-30.0,4.485359823777615,1.625
-30.0,4.491495746929157,-0.8125
-30.0,4.473087977474529,2.4375
-30.0,4.485359823777615,0.0
-30.0,4.479223900626073,1.625
-30.0,4.485359823777615,0.8125
-30.0,4.466952054322987,4.875
-30.0,4.479223900626073,1.625
-30.0,4.466952054322987,4.0625
-30.0,4.516039439535327,-4.0625
-30.0,4.473087977474529,4.0625
-30.0,4.491495746929157,0.8125
-30.0,4.485359823777615,2.4375
-30.0,4.503767593232243,0.0
-30.0,4.485359823777615,1.625
-30.0,4.4976316700806995,0.0
-30.0,4.4976316700806995,0.0
-30.0,4.509903516383785,-0.8125
-30.0,4.491495746929157,0.8125
-30.0,4.479223900626073,2.4375
-30.0,4.503767593232243,-0.8125
-30.0,4.491495746929157,0.8125
-30.0,4.4976316700806995,-0.8125
-30.0,4.491495746929157,1.625
-30.0,4.516039439535327,-1.625
-30.0,4.466952054322987,4.875
-30.0,4.509903516383785,-0.8125
-30.0,4.485359823777615,1.625
