-34.0,3.9392626632903265,2.4375
-34.5,3.9638063558964967,-1.625
-34.5,3.9392626632903265,3.25
-34.5,3.9453985864418692,2.4375
-34.5,3.9638063558964967,-1.625
-34.5,3.9515345095934116,3.25
-34.5,3.9515345095934116,1.625
-34.5,3.9576704327449543,0.8125
-34.5,3.9576704327449543,1.625
-34.5,3.9699422790480394,0.0
-34.5,3.9576704327449543,0.8125
-34.5,3.9638063558964967,1.625
-34.5,3.9638063558964967,0.0
-34.5,3.9515345095934116,2.4375
-34.5,3.9515345095934116,2.4375
-34.5,3.9453985864418692,5.6875
-34.5,3.9576704327449543,0.0
-34.5,3.9453985864418692,4.875
-34.5,3.9453985864418692,1.625
-34.5,3.9392626632903265,4.875
-34.5,3.9760782021995817,-2.4375
-34.5,3.9699422790480394,-1.625
-34.5,3.9453985864418692,3.25
-34.5,3.9453985864418692,1.625
-34.5,3.9269908169872414,2.4375
-34.5,3.9822141253511245,-4.875
-34.5,3.9392626632903265,3.25
-34.5,3.9453985864418692,1.625
-34.5,3.9453985864418692,0.8125
-34.5,3.9269908169872414,7.3125
-34.5,3.9515345095934116,0.0
-34.5,3.9453985864418692,0.0
-34.5,3.9515345095934116,0.0
-34.5,3.9638063558964967,-0.8125
-34.5,3.9208548938356986,4.875
-34.5,3.9515345095934116,-1.625
-34.5,3.9269908169872414,4.875
-34.5,3.9453985864418692,0.0
-34.5,3.9638063558964967,-2.4375
-34.5,3.9453985864418692,-3.25
-34.5,3.933126740138784,3.25
-34.5,3.9392626632903265,0.8125
-34.5,3.9699422790480394,-4.875
-34.5,3.9576704327449543,-0.8125
-34.5,3.9638063558964967,-1.625
-34.5,3.9208548938356986,4.875
-34.5,3.9392626632903265,3.25
-34.5,3.9638063558964967,-4.875
-34.5,3.9515345095934116,-2.4375
-34.5,3.933126740138784,2.4375
-34.5,3.9269908169872414,3.25
-34.5,3.9147189706841563,6.5
-34.5,3.933126740138784,0.8125
-34.5,3.9392626632903265,0.8125
-34.5,3.9208548938356986,3.25
-34.5,3.9392626632903265,4.875
-34.5,3.9208548938356986,3.25
-34.5,3.933126740138784,-0.8125
-34.5,3.933126740138784,1.625
-34.5,3.9515345095934116,-2.4375
-34.5,3.933126740138784,1.625
-34.5,3.933126740138784,0.0
-35.0,3.9208548938356986,2.4375
-34.5,3.933126740138784,2.4375
-34.5,3.9392626632903265,2.4375
-34.5,3.9392626632903265,0.0
-34.5,3.9453985864418692,-1.625
-34.5,3.9147189706841563,3.25
-34.5,3.9515345095934116,-1.625
-34.5,3.9515345095934116,-0.8125
-35.0,3.933126740138784,0.8125
-34.5,3.9392626632903265,0.0
-34.5,3.9392626632903265,2.4375
-34.5,3.933126740138784,1.625
-35.0,3.9638063558964967,-3.25
-34.5,3.9392626632903265,-1.625
-35.0,3.9269908169872414,2.4375
-35.0,3.9208548938356986,1.625
-34.5,3.9453985864418692,-2.4375
-34.5,3.9515345095934116,-0.8125
-35.0,3.9269908169872414,1.625
-34.5,3.9453985864418692,-1.625
-35.0,3.9392626632903265,-2.4375
-35.0,3.9208548938356986,1.625
-35.0,3.9515345095934116,-1.625
-35.0,3.9515345095934116,-0.8125
-34.5,3.9147189706841563,2.4375
-34.5,3.9269908169872414,0.8125
-35.0,3.9392626632903265,-0.8125
-34.5,3.9147189706841563,1.625
-35.0,3.9147189706841563,3.25
-35.0,3.9269908169872414,0.8125
-34.5,3.9269908169872414,0.8125
-34.5,3.8963112012295285,3.25
-35.0,3.9085830475326135,0.0
-34.5,3.9147189706841563,0.0
-34.5,3.8963112012295285,0.8125
-34.5,3.877903431774901,4.875
-35.0,3.8840393549264434,1.625
-34.5,3.8717675086233583,0.8125
-35.0,3.8963112012295285,-5.6875
-34.5,3.865631585471816,1.625
-34.5,3.8717675086233583,-3.25
-34.5,3.834951969714103,0.0
-34.5,3.834951969714103,3.25
-34.5,3.8288160465625602,0.8125
-34.5,3.8533597391687304,0.8125
-34.5,3.816544200259475,2.4375
-34.5,3.834951969714103,1.625
-35.0,3.8717675086233583,-0.8125
-35.0,3.9208548938356986,3.25
-35.0,3.9392626632903265,1.625
-35.0,3.9147189706841563,-0.8125
-35.0,3.8963112012295285,-0.8125
-35.0,3.8717675086233583,3.25
-35.0,3.865631585471816,1.625
-35.0,3.8533597391687304,0.0
-35.0,3.816544200259475,3.25
-34.5,3.773592738198677,7.3125
-35.0,3.761320891895592,4.875
-34.5,3.773592738198677,0.8125
-35.0,3.792000507653305,-2.4375
-34.5,3.724505352986337,6.5
-34.5,3.7122335066832517,7.3125
-34.5,3.724505352986337,1.625
-34.5,3.7429131224409646,-0.8125
-34.5,3.724505352986337,-0.8125
-34.5,3.6999616603801666,4.875
-34.0,3.693825737228624,6.5
-34.5,3.6754179677739964,6.5
-34.5,3.6754179677739964,3.25
-34.0,3.706097583531709,-0.8125
-34.5,3.6876898140770815,0.8125
-34.5,3.6692820446224537,4.875
-34.5,3.6570101983193686,5.6875
-34.5,3.650874275167826,5.6875
-34.5,3.6447383520162835,4.875
-34.5,3.6692820446224537,-0.8125
-34.5,3.6692820446224537,-0.8125
-34.5,3.650874275167826,1.625
-34.5,3.6324665057131984,5.6875
-34.5,3.6447383520162835,4.875
-34.5,3.6201946594101133,4.875
-34.5,3.6324665057131984,2.4375
-34.5,3.6386024288647407,0.8125
-34.0,3.6570101983193686,-2.4375
-34.5,3.6079228131070282,6.5
-34.5,3.6386024288647407,0.0
-34.5,3.5833791205008576,8.9375
-34.5,3.5895150436524004,7.3125
-34.5,3.6263305825616556,2.4375
-34.5,3.6140587362585705,1.625
-34.5,3.6263305825616556,2.4375
-34.5,3.6079228131070282,0.0
-34.5,3.5895150436524004,5.6875
-34.5,3.6017868899554855,1.625
-34.5,3.6140587362585705,0.8125
-34.0,3.6079228131070282,1.625
-34.5,3.6079228131070282,0.0
-34.5,3.6201946594101133,0.0
-34.5,3.5833791205008576,1.625
-34.5,3.6079228131070282,0.0
-34.5,3.6079228131070282,-0.8125
-34.5,3.6017868899554855,-0.8125
-34.5,3.5772431973493153,4.875
-34.5,3.5895150436524004,6.5
-34.5,3.5772431973493153,4.875
-34.5,3.6017868899554855,1.625
-34.5,3.5772431973493153,0.8125
-34.5,3.6017868899554855,-0.8125
-34.5,3.56497135104623,6.5
-34.5,3.5833791205008576,0.8125
-34.5,3.5588354278946874,5.6875
-34.5,3.5772431973493153,2.4375
-34.5,3.5833791205008576,1.625
-34.5,3.5833791205008576,0.0
-34.5,3.5588354278946874,7.3125
-34.0,3.56497135104623,6.5
-34.5,3.552699504743145,4.875
-34.5,3.5588354278946874,6.5
-34.5,3.56497135104623,2.4375
-34.5,3.5711072741977725,0.8125
-34.5,3.5342917352885173,7.3125
-34.0,3.522019888985432,8.125
-34.5,3.5281558121369745,6.5
-34.5,3.5711072741977725,2.4375
-34.5,3.522019888985432,8.125
-34.5,3.54042765844006,0.8125
-34.5,3.552699504743145,0.8125
-34.5,3.5342917352885173,2.4375
-34.5,3.5036121195308043,7.3125
-34.5,3.5281558121369745,5.6875
-34.5,3.5342917352885173,0.8125
-34.5,3.5036121195308043,5.6875
-34.5,3.509748042682347,6.5
-34.5,3.5158839658338894,5.6875
-34.5,3.5281558121369745,1.625
-34.5,3.5281558121369745,4.875
-34.5,3.5036121195308043,6.5
-34.5,3.509748042682347,6.5
-34.5,3.5036121195308043,6.5
-35.0,3.5342917352885173,-0.8125
-34.5,3.5036121195308043,3.25
-34.5,3.54042765844006,-0.8125
-34.5,3.522019888985432,4.875
-34.5,3.5342917352885173,-0.8125
-34.5,3.5342917352885173,0.0
-34.5,3.522019888985432,5.6875
-35.0,3.54042765844006,1.625
-35.0,3.5158839658338894,6.5
-35.0,3.509748042682347,7.3125
-34.5,3.5036121195308043,9.75
-35.0,3.552699504743145,-1.625
-35.0,3.5588354278946874,-2.4375
-35.0,3.54042765844006,1.625
-35.0,3.522019888985432,3.25
-35.0,3.54042765844006,1.625
-34.5,3.5342917352885173,0.8125
-35.0,3.5465635815916023,-1.625
-35.0,3.4913402732277192,8.125
-35.0,3.479068426924634,8.125
-35.0,3.479068426924634,6.5
-34.5,3.509748042682347,-1.625
-35.0,3.4913402732277192,3.25
-35.0,3.448388811166921,7.3125
-35.0,3.448388811166921,5.6875
-35.0,3.4606606574700063,5.6875
-35.0,3.429981041712294,8.125
-35.0,3.479068426924634,-1.625
-35.0,3.4606606574700063,0.8125
-35.0,3.423845118560751,5.6875
-35.0,3.436116964863836,3.25
-35.0,3.423845118560751,2.4375
-35.0,3.429981041712294,2.4375
-35.0,3.429981041712294,2.4375
-35.0,3.4054373491061236,2.4375
-35.0,3.411573272257666,0.8125
-35.0,3.368621810196868,6.5
-35.0,3.3747577333484107,2.4375
-35.0,3.399301425954581,-0.8125
-35.0,3.380893656499953,2.4375
-35.0,3.3502140407422405,3.25
-35.0,3.3747577333484107,0.0
-35.0,3.3318062712876126,3.25
-35.5,3.32567034813607,6.5
-35.5,3.32567034813607,4.875
-35.5,3.3072625786814425,3.25
-35.5,3.3379421944391554,2.4375
-35.5,3.3318062712876126,-0.8125
-35.5,3.3318062712876126,-0.8125
-35.5,3.2888548092268146,4.875
-35.5,3.2888548092268146,2.4375
-35.5,3.2704470397721868,4.875
-35.5,3.2827188860752723,2.4375
-35.5,3.2704470397721868,0.8125
-35.5,3.2581751934691017,4.875
-35.5,3.2520392703175593,2.4375
-35.5,3.2704470397721868,1.625
-35.5,3.2090878082567613,7.3125
-36.0,3.2397674240144743,2.4375
-36.0,3.227495577711389,4.875
-36.0,3.2090878082567613,5.6875
-36.0,3.2029518851052186,4.875
-36.0,3.1968159619536762,6.5
-36.0,3.1661363461959633,7.3125
-36.0,3.1906800388021335,2.4375
-36.0,3.184544115650591,0.8125
-36.0,3.172272269347506,0.8125
-36.0,3.153864499892878,2.4375
-36.5,3.160000423044421,3.25
-36.5,3.1661363461959633,-1.625
-36.0,3.1354567304382504,2.4375
-36.5,3.141592653589793,0.8125
-36.5,3.1231848841351653,0.0
-36.5,3.141592653589793,-2.4375
-36.5,3.104777114680538,0.0
-36.5,3.0925052683774528,0.8125
-36.5,3.08636934522591,2.4375
-36.5,3.0925052683774528,0.0
-37.0,3.067961575771282,2.4375
-36.5,3.067961575771282,1.625
-36.5,3.043417883165112,4.875
-36.5,3.0802334220743677,-1.625
-36.5,3.055689729468197,1.625
-36.5,3.055689729468197,0.8125
-36.5,3.0250101137104846,1.625
-36.5,3.018874190558942,0.8125
-36.5,3.031146036862027,0.8125
-36.5,2.9943304979527716,3.25
-36.5,2.988194574801229,0.0
-36.5,2.9636508821950587,4.875
-37.0,2.9636508821950587,0.0
-36.5,2.9759227284981438,0.0
-37.0,2.945243112740431,2.4375
-37.0,2.945243112740431,-0.8125
-36.5,2.945243112740431,0.8125
-36.5,2.9145634969827183,3.25
-37.0,2.9022916506796332,1.625
-37.0,2.9145634969827183,-2.4375
-36.5,2.9084275738311756,1.625
-37.0,2.8961557275280905,0.8125
-37.0,2.9022916506796332,-4.875
-36.5,2.84706834231575,6.5
-37.0,2.8286605728611223,6.5
-37.0,2.816388726558037,5.6875
-37.0,2.82252464970958,2.4375
-37.5,2.8102528034064944,0.8125
-37.5,2.773437264497239,5.6875
-37.5,2.773437264497239,2.4375
-37.5,2.779573187648782,0.0
-37.5,2.742757648739526,2.4375
-37.5,2.7120780329818137,4.875
-37.5,2.6998061866787286,5.6875
-37.0,2.718213956133356,-0.8125
-37.5,2.6875343403756435,2.4375
-37.5,2.6998061866787286,-0.8125
-37.5,2.6691265709210157,4.875
-37.5,2.650718801466388,3.25
-37.5,2.6568547246179306,-0.8125
-37.5,2.6323110320117604,2.4375
-37.5,2.6445828783148455,-0.8125
-37.0,2.6200391857086753,3.25
-37.0,2.6139032625571326,2.4375
-37.0,2.6016314162540475,4.875
-37.5,2.60776733940559,0.8125
-37.0,2.60776733940559,0.8125
-37.0,2.5893595699509624,3.25
-37.5,2.5770877236478773,1.625
-37.0,2.6016314162540475,0.8125
-37.0,2.564815877344792,8.9375
-37.0,2.5954954931025047,0.8125
-37.0,2.5893595699509624,1.625
-37.0,2.5709518004963345,4.875
-37.0,2.60776733940559,0.8125
-37.0,2.6016314162540475,6.5
-37.0,2.6016314162540475,6.5
-37.0,2.6261751088602177,5.6875
-37.0,2.6384469551633027,4.875
-37.0,2.6384469551633027,6.5
-37.0,2.650718801466388,2.4375
-37.0,2.6691265709210157,4.875
-37.0,2.675262494072558,3.25
-37.0,2.6998061866787286,1.625
-37.5,2.705942109830271,4.875
-37.5,2.7120780329818137,2.4375
-37.5,2.724349879284899,1.625
-37.5,2.730485802436441,0.0
-37.5,2.718213956133356,3.25
-37.5,2.730485802436441,0.0
-37.5,2.705942109830271,4.875
-37.5,2.730485802436441,0.0
-38.0,2.705942109830271,3.25
-38.0,2.6998061866787286,0.8125
-38.0,2.705942109830271,0.0
-38.0,2.7120780329818137,0.8125
-38.5,2.693670263527186,-0.8125
-38.5,2.705942109830271,-2.4375
-38.5,2.7120780329818137,-0.8125
-38.5,2.705942109830271,-1.625
-38.5,2.705942109830271,0.0
-39.0,2.693670263527186,-0.8125
-38.5,2.6568547246179306,2.4375
-39.0,2.675262494072558,2.4375
-39.0,2.6445828783148455,6.5
-39.0,2.6813984172241008,3.25
-39.5,2.6568547246179306,5.6875
-39.5,2.6998061866787286,-4.875
-39.5,2.675262494072558,0.8125
-39.5,2.6813984172241008,0.0
-40.0,2.705942109830271,-3.25
-40.0,2.718213956133356,-0.8125
-40.0,2.742757648739526,-6.5
-40.0,2.6998061866787286,2.4375
-40.5,2.724349879284899,1.625
-40.5,2.724349879284899,1.625
-41.0,2.742757648739526,0.8125
-41.0,2.779573187648782,-1.625
-41.5,2.761165418194154,2.4375
-41.5,2.779573187648782,2.4375
-42.0,2.8102528034064944,-1.625
-41.5,2.7979809571034093,1.625
-41.5,2.8716120349219203,-5.6875
-42.0,2.890019804376548,-6.5
-42.5,2.84706834231575,3.25
-42.5,2.890019804376548,1.625
-43.5,2.9145634969827183,1.625
-43.5,2.9391071895888885,0.8125
-43.5,3.0066023442558567,-5.6875
-44.5,3.0066023442558567,0.0
-44.5,3.067961575771282,-1.625
-45.0,3.1231848841351653,-5.6875
-45.0,3.160000423044421,-1.625
-45.5,3.184544115650591,4.875
-45.5,3.3011266555298997,-2.4375
-45.5,3.368621810196868,-0.8125
-46.0,3.5588354278946874,-14.625
-46.0,3.5158839658338894,7.3125
-45.5,3.6079228131070282,10.5625
-46.0,3.650874275167826,17.0625
-46.0,3.767456815047135,8.9375
-46.0,3.902447124381071,3.25
-45.5,3.9760782021995817,3.25
-45.5,4.09266074207889,-1.625
-44.5,4.0987966652304335,8.9375
-44.5,4.166291819897402,0.0
-44.0,4.252194744018997,-3.25
-43.5,4.196971435655114,13.8125
-43.5,4.331961744989051,-3.25
-43.5,4.344233591292136,0.8125
-43.5,4.319689898685965,5.6875
-43.0,4.399456899656019,3.25
-43.0,4.424000592262189,6.5
-43.0,4.417864669110647,9.75
-42.5,4.473087977474529,8.125
-42.5,4.509903516383785,0.8125
-42.0,4.503767593232243,5.6875
-42.0,4.565126824747668,0.8125
-42.0,4.589670517353839,0.8125
-42.0,4.565126824747668,10.5625
-42.0,4.638757902566179,0.8125
-42.0,4.663301595172349,2.4375
-42.0,4.614214209960009,12.1875
-41.5,4.71238898038469,-0.8125
-41.0,4.706253057233147,6.5
-41.0,4.73693267299086,2.4375
-40.5,4.773748211900116,0.0
-40.0,4.7307967498393175,7.3125
-40.0,4.76147636559703,7.3125
-40.0,4.792155981354743,2.4375
-39.5,4.847379289718626,-1.625
-39.5,4.81056375080937,3.25
-39.5,4.828971520263998,2.4375
-39.0,4.8351074434155406,1.625
-39.0,4.8351074434155406,3.25
-38.5,4.865787059173254,3.25
-38.5,4.871922982324796,3.25
-38.0,4.865787059173254,5.6875
-38.0,4.884194828627882,1.625
-38.0,4.884194828627882,4.875
-38.0,4.865787059173254,7.3125
-38.0,4.884194828627882,2.4375
-37.5,4.902602598082509,0.0
-37.0,4.902602598082509,0.8125
-37.0,4.884194828627882,2.4375
-37.5,4.896466674930966,0.0
-37.0,4.878058905476339,3.25
-36.5,4.884194828627882,1.625
-37.0,4.890330751779424,2.4375
-37.0,4.884194828627882,1.625
-36.5,4.878058905476339,3.25
-36.5,4.878058905476339,2.4375
-36.0,4.878058905476339,3.25
-36.5,4.871922982324796,2.4375
-36.0,4.896466674930966,-0.8125
-36.0,4.884194828627882,2.4375
-36.0,4.884194828627882,0.8125
-36.0,4.884194828627882,0.0
-36.0,4.878058905476339,3.25
-35.5,4.871922982324796,2.4375
-35.5,4.865787059173254,3.25
-35.5,4.878058905476339,0.8125
-35.5,4.878058905476339,2.4375
-35.0,4.871922982324796,1.625
-35.0,4.884194828627882,2.4375
-35.0,4.896466674930966,0.0
-35.0,4.896466674930966,0.0
-35.0,4.884194828627882,1.625
-35.0,4.884194828627882,2.4375
-35.0,4.896466674930966,0.0
-35.0,4.890330751779424,0.8125
-34.5,4.896466674930966,0.8125
-34.5,4.902602598082509,0.0
-34.5,4.884194828627882,3.25
-34.5,4.878058905476339,3.25
-34.5,4.890330751779424,1.625
-34.5,4.890330751779424,2.4375
-34.0,4.902602598082509,0.0
-34.0,4.890330751779424,3.25
-34.0,4.890330751779424,0.0
-33.5,4.908738521234052,0.0
-34.0,4.902602598082509,2.4375
-34.0,4.890330751779424,2.4375
-33.5,4.908738521234052,0.0
-33.5,4.914874444385594,1.625
-33.5,4.908738521234052,0.8125
-33.5,4.914874444385594,-0.8125
-33.5,4.914874444385594,-0.8125
-33.0,4.908738521234052,0.8125
-33.0,4.890330751779424,2.4375
-33.0,4.890330751779424,1.625
-33.0,4.890330751779424,0.0
-33.0,4.878058905476339,3.25
-33.0,4.865787059173254,2.4375
-33.0,4.878058905476339,0.0
-33.0,4.878058905476339,1.625
-33.0,4.853515212870168,5.6875
-32.5,4.871922982324796,1.625
-33.0,4.865787059173254,3.25
-32.5,4.884194828627882,0.8125
-32.5,4.890330751779424,-1.625
-32.5,4.871922982324796,2.4375
-32.0,4.871922982324796,2.4375
-32.5,4.878058905476339,0.0
-32.5,4.884194828627882,0.0
-32.5,4.871922982324796,0.0
-32.5,4.878058905476339,1.625
-32.0,4.878058905476339,-0.8125
-32.0,4.859651136021712,2.4375
-32.0,4.865787059173254,-0.8125
-32.0,4.859651136021712,0.8125
-32.0,4.853515212870168,0.0
-32.0,4.828971520263998,1.625
-32.0,4.828971520263998,2.4375
-32.0,4.822835597112456,0.0
-32.0,4.81056375080937,1.625
-32.0,4.81056375080937,0.0
-32.0,4.792155981354743,0.8125
-32.0,4.792155981354743,-0.8125
-32.0,4.76147636559703,2.4375
-32.0,4.767612288748572,-1.625
-31.5,4.749204519293945,0.8125
-31.5,4.749204519293945,-0.8125
-31.5,4.7307967498393175,1.625
-31.5,4.724660826687775,0.0
-32.0,4.718524903536232,1.625
-31.5,4.724660826687775,-2.4375
-31.5,4.693981210930062,0.8125
-31.5,4.706253057233147,-1.625
-31.5,4.706253057233147,-3.25
-31.5,4.706253057233147,-0.8125
-31.5,4.663301595172349,1.625
-31.0,4.681709364626977,0.0
-31.5,4.693981210930062,-4.875
-31.5,4.651029748869264,2.4375
-31.0,4.675573441475434,0.0
-31.0,4.6878452877785195,-3.25
-31.0,4.675573441475434,-2.4375
-31.0,4.675573441475434,-3.25
-31.0,4.663301595172349,-2.4375
-31.0,4.675573441475434,-4.875
-31.0,4.681709364626977,-6.5
-30.5,4.638757902566179,-1.625
-30.5,4.632621979414636,0.0
-30.5,4.657165672020807,-4.875
-30.5,4.638757902566179,0.0
-30.5,4.6448938257177215,-2.4375
-30.5,4.651029748869264,-3.25
-30.5,4.638757902566179,-0.8125
-30.5,4.620350133111551,1.625
-30.5,4.638757902566179,-0.8125
-30.0,4.620350133111551,0.0
-30.5,4.626486056263094,0.0
-30.0,4.620350133111551,-0.8125
-30.0,4.620350133111551,-1.625
-30.0,4.608078286808466,-0.8125
-29.5,4.601942363656923,0.0
-29.5,4.595806440505381,0.0
-30.0,4.577398671050753,0.8125
-30.0,4.577398671050753,1.625
-30.0,4.589670517353839,-1.625
-30.0,4.583534594202296,-1.625
-29.5,4.577398671050753,0.0
-29.5,4.589670517353839,-2.4375
-29.5,4.583534594202296,-0.8125
-30.0,4.565126824747668,0.0
-29.5,4.565126824747668,0.8125
-29.5,4.552854978444583,0.0
-29.5,4.558990901596125,0.0
-29.5,4.558990901596125,1.625
-29.5,4.565126824747668,-1.625
-29.5,4.540583132141498,3.25
-29.5,4.528311285838413,4.875
-29.5,4.522175362686871,7.3125
-29.5,4.552854978444583,1.625
-29.5,4.565126824747668,-0.8125
-29.5,4.552854978444583,1.625
-30.0,4.540583132141498,3.25
-30.0,4.571262747899211,1.625
-29.5,4.571262747899211,2.4375
-30.0,4.577398671050753,1.625
-30.5,4.620350133111551,0.0
-30.5,4.657165672020807,-2.4375
-30.5,4.681709364626977,-0.8125
-31.5,4.681709364626977,1.625
-31.5,4.718524903536232,-1.625
-32.5,4.743068596142402,3.25
-33.5,4.76147636559703,0.8125
-35.0,4.749204519293945,3.25
-37.0,4.6448938257177215,3.25
-37.5,4.485359823777615,0.8125
-38.0,4.295146206079795,6.5
-38.0,4.129476280988146,7.3125
-38.0,4.025165587411922,3.25
-38.5,3.9269908169872414,1.625
-38.0,3.816544200259475,2.4375
-37.5,3.693825737228624,8.125
-37.5,3.6263305825616556,3.25
-37.5,3.552699504743145,2.4375
-37.0,3.5036121195308043,3.25
-37.0,3.442252888015379,5.6875
-37.0,3.411573272257666,1.625
-36.5,3.3379421944391554,7.3125
-36.5,3.313398501832985,4.875
-36.5,3.2643111166206444,5.6875
-36.5,3.2520392703175593,1.625
-36.5,3.2029518851052186,3.25
-36.5,3.1784081924990484,0.8125
-36.5,3.141592653589793,0.0
-36.0,3.074097498922825,2.4375
-36.0,3.06182565261974,0.8125
-35.5,3.0372819600135696,0.0
-35.5,3.0066023442558567,1.625
-35.0,2.9820586516496865,2.4375
-35.5,2.9697868053466014,2.4375
-35.5,2.9268353432858034,4.875
-35.5,2.9022916506796332,6.5
-35.5,2.9145634969827183,0.8125
-35.5,2.9329712664373457,2.4375
-35.5,2.9636508821950587,3.25
-35.5,3.000466421104314,0.8125
-35.5,3.031146036862027,1.625
-36.0,3.06182565261974,0.8125
-36.0,3.08636934522591,0.0
-36.0,3.117048960983623,-0.8125
-36.5,3.141592653589793,2.4375
-36.0,3.1661363461959633,2.4375
-36.5,3.1906800388021335,3.25
-36.5,3.2213596545598464,0.0
-36.5,3.2643111166206444,0.8125
-36.5,3.2704470397721868,1.625
-36.5,3.3011266555298997,2.4375
-36.5,3.32567034813607,0.8125
-36.5,3.32567034813607,2.4375
-36.5,3.356349963893783,0.0
-36.5,3.356349963893783,2.4375
-37.0,3.380893656499953,1.625
-37.0,3.3870295796514958,1.625
-37.0,3.3624858870453256,6.5
-37.0,3.393165502803038,0.8125
-37.0,3.393165502803038,2.4375
-37.0,3.3747577333484107,7.3125
-37.0,3.3624858870453256,7.3125
-37.0,3.3747577333484107,5.6875
-37.0,3.356349963893783,8.125
-37.0,3.380893656499953,1.625
-37.5,3.3747577333484107,1.625
-37.5,3.368621810196868,5.6875
-37.5,3.3502140407422405,3.25
-37.5,3.3318062712876126,8.125
-37.5,3.3379421944391554,4.875
-37.5,3.3195344249845276,5.6875
-38.0,3.3195344249845276,6.5
-37.5,3.313398501832985,7.3125
-38.0,3.3318062712876126,2.4375
-38.0,3.3072625786814425,7.3125
-38.0,3.3379421944391554,-0.8125
-38.0,3.3318062712876126,0.8125
-38.0,3.3195344249845276,2.4375
-38.5,3.2581751934691017,9.75
-38.0,3.2704470397721868,9.75
-38.5,3.2581751934691017,8.9375
-38.5,3.2643111166206444,8.125
-39.0,3.2643111166206444,6.5
-38.5,3.2765829629237295,4.875
-39.0,3.2459033471660166,7.3125
-38.5,3.2643111166206444,3.25
-39.0,3.2581751934691017,2.4375
-39.0,3.2336315008629315,7.3125
-39.0,3.1906800388021335,12.1875
-39.5,3.227495577711389,7.3125
-39.5,3.2336315008629315,5.6875
-39.5,3.2090878082567613,10.5625
-39.5,3.2643111166206444,0.8125
-39.5,3.227495577711389,6.5
-39.0,3.172272269347506,17.0625
-39.5,3.2397674240144743,4.875
-39.5,3.2459033471660166,4.875
-39.5,3.2090878082567613,12.1875
-39.5,3.2643111166206444,3.25
-39.5,3.2643111166206444,5.6875
-39.5,3.2581751934691017,7.3125
-39.5,3.227495577711389,11.375
-40.0,3.3195344249845276,-3.25
-39.5,3.2520392703175593,9.75
-40.0,3.2765829629237295,8.9375
-39.5,3.2827188860752723,6.5
-40.0,3.2643111166206444,8.125
-40.0,3.2827188860752723,2.4375
-40.0,3.2520392703175593,12.1875
-40.0,3.3195344249845276,3.25
-39.5,3.2827188860752723,8.125
-40.0,3.3011266555298997,7.3125
-39.5,3.356349963893783,-2.4375
-40.0,3.3072625786814425,9.75
-39.5,3.313398501832985,5.6875
-39.5,3.2704470397721868,14.625
-39.5,3.2704470397721868,17.0625
-40.0,3.313398501832985,4.875
-39.5,3.3440781175906977,6.5
-40.0,3.368621810196868,3.25
-39.5,3.3379421944391554,7.3125
-39.5,3.32567034813607,8.9375
-39.5,3.32567034813607,13.8125
-39.5,3.3318062712876126,11.375
-39.5,3.313398501832985,16.25
-39.5,3.3624858870453256,8.9375
-39.5,3.368621810196868,6.5
-39.5,3.3747577333484107,2.4375
-39.5,3.2949907323783574,17.0625
-39.5,3.3195344249845276,10.5625
-39.5,3.380893656499953,4.875
-39.5,3.3318062712876126,8.125
-39.5,3.368621810196868,4.875
-39.5,3.380893656499953,3.25
-39.5,3.32567034813607,11.375
-39.5,3.429981041712294,-4.875
-39.5,3.3318062712876126,8.9375
-39.5,3.3195344249845276,9.75
-39.5,3.3502140407422405,6.5
-39.5,3.3318062712876126,9.75
-39.5,3.3318062712876126,7.3125
-39.5,3.3195344249845276,10.5625
-39.5,3.380893656499953,4.875
-39.5,3.3379421944391554,4.875
-39.5,3.3502140407422405,8.9375
-39.5,3.3747577333484107,4.875
-39.5,3.380893656499953,0.8125
-39.5,3.4054373491061236,-4.875
-39.5,3.3440781175906977,8.125
-40.0,3.3747577333484107,2.4375
-39.5,3.2888548092268146,14.625
-39.5,3.3379421944391554,10.5625
-39.5,3.3747577333484107,4.875
-39.5,3.3440781175906977,6.5
-39.5,3.3440781175906977,6.5
-39.5,3.368621810196868,4.875
-39.5,3.3379421944391554,7.3125
-39.5,3.32567034813607,11.375
-39.5,3.368621810196868,5.6875
-39.5,3.393165502803038,-1.625
-39.5,3.4054373491061236,-1.625
-39.5,3.356349963893783,4.875
-39.5,3.3011266555298997,14.625
-39.5,3.3318062712876126,11.375
-39.5,3.32567034813607,8.125
-39.5,3.32567034813607,13.8125
-39.5,3.32567034813607,9.75
-39.0,3.3440781175906977,12.1875
-39.5,3.4054373491061236,0.8125
-39.5,3.32567034813607,12.1875
-39.5,3.3440781175906977,10.5625
-39.5,3.393165502803038,-2.4375
-39.5,3.399301425954581,-2.4375
-39.5,3.313398501832985,13.8125
-39.5,3.32567034813607,10.5625
-39.5,3.313398501832985,15.4375
-39.5,3.4054373491061236,0.0
-39.5,3.429981041712294,-3.25
-39.5,3.3318062712876126,12.1875
-39.5,3.4054373491061236,0.0
-39.5,3.356349963893783,9.75
-39.5,3.399301425954581,1.625
-39.5,3.3624858870453256,9.75
-39.5,3.3502140407422405,13.8125
-39.5,3.368621810196868,7.3125
-39.5,3.393165502803038,3.25
-39.5,3.3870295796514958,8.9375
-39.5,3.368621810196868,4.875
-39.5,3.368621810196868,6.5
-39.5,3.3624858870453256,9.75
-39.5,3.3502140407422405,13.8125
-39.5,3.436116964863836,-1.625
-39.5,3.3747577333484107,6.5
-39.5,3.3502140407422405,11.375
-39.5,3.368621810196868,4.875
-40.0,3.368621810196868,7.3125
-39.5,3.442252888015379,-5.6875
-39.5,3.429981041712294,-1.625
-39.5,3.3195344249845276,16.25
-39.5,3.399301425954581,1.625
-39.5,3.3624858870453256,11.375
-39.5,3.399301425954581,4.875
-39.5,3.423845118560751,-2.4375
-40.0,3.3011266555298997,17.875
-40.0,3.3624858870453256,9.75
-40.0,3.32567034813607,12.1875
-40.0,3.368621810196868,6.5
-39.5,3.3870295796514958,5.6875
-39.5,3.3502140407422405,8.125
-40.0,3.411573272257666,-0.8125
-40.0,3.3072625786814425,15.4375
-39.5,3.3379421944391554,9.75
-40.0,3.313398501832985,13.8125
-39.5,3.3870295796514958,1.625
-39.5,3.3379421944391554,12.1875
-39.5,3.368621810196868,5.6875
-40.0,3.356349963893783,5.6875
-40.0,3.3011266555298997,16.25
-40.0,3.3870295796514958,1.625
-40.0,3.380893656499953,6.5
-40.0,3.3440781175906977,8.125
-39.5,3.411573272257666,-2.4375
-39.5,3.2949907323783574,13.8125
-40.0,3.32567034813607,12.1875
-39.5,3.411573272257666,-0.8125
-40.0,3.3318062712876126,14.625
-40.0,3.2888548092268146,17.875
-39.5,3.313398501832985,13.8125
-40.0,3.3870295796514958,-2.4375
-40.0,3.3318062712876126,11.375
-39.5,3.3747577333484107,0.8125
-40.0,3.3195344249845276,11.375
-40.0,3.3072625786814425,13.8125
-39.5,3.3747577333484107,3.25
-39.5,3.3072625786814425,13.8125
-40.0,3.3379421944391554,8.9375
-40.0,3.368621810196868,1.625
-40.0,3.32567034813607,8.9375
-40.0,3.3195344249845276,10.5625
-40.0,3.32567034813607,9.75
-40.0,3.368621810196868,0.8125
-40.0,3.3624858870453256,4.875
-40.0,3.2949907323783574,12.1875
-40.0,3.3195344249845276,11.375
-40.0,3.2643111166206444,18.6875
-40.0,3.2704470397721868,17.875
-39.5,3.2949907323783574,14.625
-40.0,3.3072625786814425,6.5
-40.0,3.2949907323783574,10.5625
-40.0,3.368621810196868,3.25
-40.0,3.3502140407422405,2.4375
-40.0,3.2397674240144743,21.125
-40.0,3.2581751934691017,17.875
-40.0,3.3502140407422405,2.4375
-40.0,3.2459033471660166,18.6875
-40.0,3.3011266555298997,5.6875
-40.0,3.3502140407422405,-1.625
-40.0,3.2827188860752723,15.4375
-40.0,3.3747577333484107,-0.8125
-40.0,3.3747577333484107,-3.25
-40.0,3.2949907323783574,12.1875
-39.5,3.3502140407422405,0.0
-40.0,3.313398501832985,6.5
-40.0,3.356349963893783,1.625
-40.0,3.3747577333484107,-3.25
-39.5,3.2459033471660166,17.875
-40.0,3.2827188860752723,12.1875
-40.0,3.411573272257666,-9.75
-40.0,3.32567034813607,3.25
-39.5,3.2704470397721868,13.8125
-40.0,3.2765829629237295,14.625
-40.0,3.3011266555298997,7.3125
-40.5,3.2765829629237295,14.625
-40.0,3.2765829629237295,14.625
-40.5,3.3318062712876126,4.875
-40.0,3.3440781175906977,6.5
-40.5,3.32567034813607,8.9375
-40.0,3.3318062712876126,3.25
-40.0,3.3624858870453256,2.4375
-40.0,3.2827188860752723,14.625
-40.0,3.2888548092268146,11.375
-40.0,3.2459033471660166,20.3125
-40.0,3.356349963893783,-0.8125
-40.0,3.2827188860752723,11.375
-40.0,3.3318062712876126,8.125
-40.5,3.368621810196868,-4.875
-40.0,3.2581751934691017,13.8125
-40.0,3.2827188860752723,12.1875
-40.0,3.2336315008629315,20.3125
-40.0,3.2888548092268146,10.5625
-40.0,3.2397674240144743,19.5
-40.0,3.2949907323783574,15.4375
-40.0,3.3318062712876126,8.9375
-40.0,3.2397674240144743,17.875
-40.5,3.3072625786814425,8.9375
-40.0,3.3379421944391554,1.625
-40.0,3.2643111166206444,14.625
-40.0,3.2888548092268146,8.9375
-40.0,3.3624858870453256,-0.8125
-40.5,3.313398501832985,7.3125
-40.5,3.32567034813607,3.25
-40.5,3.2949907323783574,9.75
-40.0,3.2827188860752723,10.5625
-40.5,3.2643111166206444,12.1875
-40.0,3.3072625786814425,3.25
-40.0,3.32567034813607,2.4375
-40.0,3.2090878082567613,23.5625
