E28011606000020612B000DD,907.25,3.282719,0.375
E28011606000020612AFC4CD,907.25,4.8964667,0.125
E28011606000020612B0006D,907.25,0.558369,0.125
E28011606000020612B0008D,907.25,4.5835347,0.0
E28011606000020612B000CD,907.25,4.6448936,0.25
E28011606000020612AFC4DD,907.25,6.252506,0.0
E28011606000020612AF528C,907.25,0.81607777,0.1875
E28011606000020612B0002D,907.25,5.773904,0.375
E28011606000020612AF527C,907.25,2.4236896,0.125
E28011606000020612B0005D,907.25,4.8105636,-0.0625
E28011606000020612AFC4FD,907.25,1.8039614,0.125
E28011606000020612B0007D,907.25,2.9268353,0.1875
E28011606000020612B000AD,907.25,5.6327777,0.375
E28011606000020612B0001D,907.25,1.0676507,0.625
E28011606000020612AFC4ED,907.25,6.086836,0.0625
E28011606000020612B0007D,913.75,1.7241944,0.5
E28011606000020612AF528C,904.25,1.276272,0.0
E28011606000020612B0000D,904.25,1.3376312,0.0625
E28011606000020612B0009D,904.25,5.0621367,0.25
E28011606000020612B0001D,904.25,4.8351073,0.1875
E28011606000020612AFC4ED,904.25,0.49700978,0.0625
E28011606000020612B0005D,904.25,5.332117,0.25
E28011606000020612AF527C,904.25,5.8659425,0.1875
E28011606000020612AFC4DD,904.25,0.41110685,0.0
E28011606000020612B0006D,904.25,1.1965051,0.5
E28011606000020612B000CD,904.25,5.1419034,0.25
E28011606000020612B0008D,904.25,5.123496,0.375
E28011606000020612B0002D,904.25,0.030679615,0.8125
E28011606000020612B000DD,904.25,3.8779035,0.5625
E28011606000020612AFC4CD,904.25,5.7064085,0.125
E28011606000020612B000AD,917.25,1.2394565,0.125
E28011606000020612AFC4FD,917.25,5.835263,0.5625
E28011606000020612AF540B,917.25,6.2034183,0.0625
E28011606000020612B000BD,917.25,1.2885438,0.1875
E28011606000020612B0000D,915.75,5.6266418,0.375
E28011606000020612B0001D,915.75,5.737088,0.0
E28011606000020612B000CD,915.75,6.2586417,0.125
E28011606000020612B0008D,915.75,5.9947968,0.25
E28011606000020612B0007D,915.75,1.356039,0.0625
E28011606000020612B0006D,915.75,5.503923,0.1875
E28011606000020612AF528C,915.75,5.982525,0.4375
E28011606000020612B000DD,915.75,4.9271464,0.5
E28011606000020612AFC4ED,915.75,1.3008157,0.125
E28011606000020612B0002D,915.75,1.1903691,0.375
E28011606000020612B0009D,915.75,5.91503,0.0625
E28011606000020612AF527C,915.75,1.3130876,0.25
E28011606000020612AFC4DD,915.75,4.571263,0.25
E28011606000020612AFC4CD,915.75,5.908894,0.125
E28011606000020612AFC4FD,915.75,0.08590292,0.0
E28011606000020612B000BD,908.25,5.970253,0.125
E28011606000020612B0005D,908.25,4.7369328,-0.125
E28011606000020612B000AD,908.25,5.3873405,0.0625
E28011606000020612AF540B,908.25,1.030835,0.5
E28011606000020612B0009D,908.25,3.6938257,0.625
E28011606000020612B000CD,908.25,0.85902923,0.25
E28011606000020612AFC4FD,909.25,2.1659808,0.1875
E28011606000020612B0005D,909.25,0.6565438,0.125
E28011606000020612B0006D,909.25,0.46019423,0.1875
E28011606000020612B0001D,909.25,0.72403896,0.5625
E28011606000020612AFC4CD,909.25,5.479379,0.1875
E28011606000020612B0007D,909.25,6.0377483,0.25
E28011606000020612B0002D,909.25,6.1359234,-0.0625
E28011606000020612AFC4DD,909.25,5.9518456,0.0
E28011606000020612B000BD,909.25,0.33133984,0.125
E28011606000020612AF528C,909.25,0.36201948,0.5
E28011606000020612B000AD,909.25,5.3014374,0.5
E28011606000020612B0000D,909.25,1.3499031,0.0625
E28011606000020612B0008D,925.25,5.4180202,0.25
E28011606000020612AFC4ED,925.25,0.80380595,0.1875
E28011606000020612B000DD,925.25,5.2155347,0.25
E28011606000020612AF527C,925.25,5.675729,-0.0625
E28011606000020612AF523C,915.25,4.6633015,-0.125
E28011606000020612B0004D,915.25,4.9087386,0.125
E28011606000020612AF540B,915.25,1.2087768,0.25
E28011606000020612AFC4CD,918.25,4.381049,0.375
E28011606000020612AFC4ED,918.25,5.7923117,-0.0625
E28011606000020612B0001D,918.25,5.0744085,0.0625
E28011606000020612B0006D,918.25,1.3008157,0.1875
E28011606000020612B0008D,918.25,0.70563114,0.1875
E28011606000020612AFC4FD,918.25,0.53382534,0.5
E28011606000020612B0005D,918.25,4.890331,0.0
E28011606000020612B0009D,918.25,1.1535536,0.1875
E28011606000020612B000AD,918.25,2.3071072,0.625
E28011606000020612AFC4DD,918.25,0.93266034,0.0625
E28011606000020612B000DD,918.25,0.9817477,-0.1875
E28011606000020612B0007D,903.25,1.3928546,0.0
E28011606000020612AF528C,903.25,5.460972,-0.1875
E28011606000020612B0002D,903.25,1.4112623,-0.125
E28011606000020612B000BD,903.25,1.356039,0.5
E28011606000020612AF527C,903.25,5.319845,-0.5625
E28011606000020612AF523C,903.25,0.7485826,0.125
E28011606000020612B0004D,903.25,5.2093987,1.625
E28011606000020612B0000D,923.25,4.473088,0.25
E28011606000020612AF528C,923.25,5.019185,0.5
E28011606000020612B0007D,923.25,6.24637,0.125
E28011606000020612B000AD,923.25,0.03681554,0.125
E28011606000020612B0001D,921.75,4.7798843,0.1875
E28011606000020612B0008D,921.75,1.8285052,0.0
E28011606000020612B0002D,921.75,0.24543692,0.375
E28011606000020612B000DD,921.75,0.70563114,0.75
E28011606000020612AFC4FD,921.75,4.718525,0.25
E28011606000020612B000CD,921.75,1.9880391,0.375
E28011606000020612AFC4ED,921.75,0.12271846,0.125
E28011606000020612AF527C,921.75,0.22089323,0.1875
E28011606000020612B0005D,921.75,1.6260196,0.4375
E28011606000020612AFC4DD,921.75,0.32520393,0.25
E28011606000020612B0006D,921.75,1.1965051,0.5
E28011606000020612B0009D,921.75,1.7057866,0.25
E28011606000020612B0004D,921.75,4.546719,0.125
E28011606000020612AF52FC,921.75,6.1543307,0.125
E28011606000020612AFC4CD,912.75,0.239301,0.25
E28011606000020612B000BD,912.75,5.049865,-0.125
E28011606000020612AF540B,912.75,0.5829127,0.1875
E28011606000020612B0000D,919.75,1.8898643,0.5
E28011606000020612B0001D,919.75,5.0560007,0.5
E28011606000020612B000CD,919.75,5.442564,0.375
E28011606000020612B0007D,919.75,0.5767768,0.8125
E28011606000020612B0006D,919.75,4.792156,0.125
E28011606000020612B0005D,919.75,2.073942,0.125
E28011606000020612B000DD,919.75,1.0799224,0.25
E28011606000020612B0002D,919.75,0.53382534,0.0625
E28011606000020612B000BD,919.75,4.381049,0.1875
E28011606000020612AF528C,919.75,5.497787,0.0625
E28011606000020612AF527C,919.75,0.478602,0.1875
E28011606000020612B0009D,919.75,1.9328158,0.25
E28011606000020612B0008D,919.75,2.1782527,0.0
E28011606000020612AFC4FD,925.75,4.147884,0.375
E28011606000020612AFC4CD,925.75,4.0374374,0.0
E28011606000020612AFC4ED,925.75,5.638913,0.1875
E28011606000020612AF540B,925.75,4.233787,0.375
E28011606000020612AFC4DD,925.75,6.0254765,0.125
E28011606000020612B000AD,925.75,5.91503,0.1875
E28011606000020612B0004D,925.75,0.17794177,0.125
E28011606000020612AF52FC,925.75,5.479379,-0.0625
E28011606000020612AFC4ED,925.75,0.69949526,0.0625
E28011606000020612B0006D,916.75,1.7119225,-0.0625
E28011606000020612AFC4FD,916.75,0.8406215,0.375
E28011606000020612B0009D,916.75,1.521709,0.125
E28011606000020612AFC4CD,916.75,1.5585245,0.125
E28011606000020612AF528C,916.75,5.3812046,0.0625
E28011606000020612B0005D,916.75,5.2400784,0.125
E28011606000020612AFC4DD,916.75,1.2026409,-0.0625
E28011606000020612AF527C,916.75,2.3071072,0.1875
E28011606000020612B0002D,916.75,0.9817477,0.375
E28011606000020612B000CD,916.75,5.4118843,0.375
E28011606000020612B0004D,916.75,4.4976315,0.0
E28011606000020612AF523C,916.75,4.411729,0.25
E28011606000020612B000DD,916.75,1.2701361,0.1875
E28011606000020612B000BD,907.75,0.6320001,0.5625
E28011606000020612B0007D,907.75,0.31293207,0.0625
E28011606000020612AF540B,907.75,4.227651,0.25
E28011606000020612B0001D,907.75,1.1719613,0.0625
E28011606000020612B0008D,907.75,6.227962,0.5
E28011606000020612B000AD,911.75,4.7614765,0.1875
E28011606000020612B0005D,911.75,0.06749515,0.5
E28011606000020612B0001D,911.75,0.024543693,0.0625
E28011606000020612B000CD,911.75,0.2699806,0.375
E28011606000020612B0009D,911.75,5.9518456,0.1875
E28011606000020612B0006D,914.75,5.3750687,0.75
E28011606000020612AFC4FD,914.75,1.2149128,0.5
E28011606000020612B0007D,914.75,4.374913,0.0625
E28011606000020612AFC4CD,914.75,1.8898643,0.125
E28011606000020612AFC4ED,914.75,0.5399612,0.1875
E28011606000020612B000BD,914.75,5.663457,0.125
E28011606000020612B0002D,914.75,4.5896707,0.0625
E28011606000020612B0008D,914.75,4.632622,0.125
E28011606000020612AF528C,914.75,5.7248163,-0.0625
E28011606000020612AF527C,914.75,2.9084275,0.125
E28011606000020612AF540B,914.75,1.4173982,0.0
E28011606000020612B0004D,914.75,5.0621367,0.125
E28011606000020612B000DD,924.25,5.5530105,0.1875
E28011606000020612AF523C,924.25,6.148195,0.0
E28011606000020612AFC4DD,924.25,5.602098,1.25
E28011606000020612B000AD,924.25,5.7309523,-0.25
E28011606000020612B0001D,924.25,1.2517283,0.1875
E28011606000020612B0000D,924.25,4.301282,0.75
E28011606000020612B0007D,921.25,0.2883884,0.375
E28011606000020612B000DD,921.25,0.81607777,0.375
E28011606000020612AFC4DD,921.25,0.41110685,0.625
E28011606000020612B0006D,921.25,4.4546804,0.1875
E28011606000020612AF528C,921.25,5.28303,0.1875
E28011606000020612B0008D,921.25,1.8469129,0.25
E28011606000020612AFC4ED,921.25,0.23316509,0.0625
E28011606000020612AF527C,921.25,0.28225246,0.0
E28011606000020612B0009D,921.25,1.754874,0.1875
E28011606000020612B000CD,921.25,5.2155347,0.1875
E28011606000020612B0004D,921.25,1.5769322,0.0
E28011606000020612AF540B,921.25,5.4118843,-0.0625
E28011606000020612AFC4CD,921.25,4.7614765,-0.4375
E28011606000020612B0005D,921.25,1.7671459,0.0625
E28011606000020612B0002D,918.75,0.6626797,0.75
E28011606000020612B000BD,918.75,4.4301367,-0.1875
E28011606000020612AF52FC,918.75,0.43565056,-0.1875
E28011606000020612AFC4FD,918.75,5.497787,0.25
E28011606000020612B000AD,918.75,4.135612,0.25
E28011606000020612B000CD,904.75,5.006913,0.5
E28011606000020612B0000D,904.75,1.2333206,0.5625
E28011606000020612B0001D,904.75,1.5892041,0.25
E28011606000020612B0007D,904.75,0.11044662,0.5
E28011606000020612AF528C,904.75,1.1780972,0.4375
E28011606000020612AFC4DD,904.75,0.28225246,0.1875
E28011606000020612B0006D,904.75,1.0921943,0.1875
E28011606000020612B000DD,904.75,3.7060976,0.625
E28011606000020612AFC4ED,904.75,3.503612,0.625
E28011606000020612B0008D,904.75,5.037593,0.0
E28011606000020612B0002D,904.75,6.1788745,0.25
E28011606000020612AF52FC,904.75,0.53382534,0.0625
E28011606000020612B0005D,904.75,5.338253,0.1875
E28011606000020612B000BD,904.75,0.17794177,0.125
E28011606000020612AFC4FD,904.75,2.1291654,0.125
E28011606000020612AFC4CD,904.75,5.638913,-0.0625
E28011606000020612AF527C,909.75,2.0984857,0.125
E28011606000020612B0009D,909.75,4.0251656,0.1875
E28011606000020612B000AD,909.75,5.0928164,0.0625
E28011606000020612AF540B,909.75,0.96947587,-0.125
E28011606000020612B0004D,909.75,3.6508744,0.25
E28011606000020612B0009D,909.75,3.3195345,0.5
E28011606000020612AFC4FD,909.75,2.1046216,0.125
E28011606000020612B0001D,909.75,0.57064086,0.5
E28011606000020612B000CD,909.75,0.6442719,0.375
E28011606000020612B0007D,909.75,6.0193405,0.375
E28011606000020612AF528C,909.75,0.3681554,0.25
E28011606000020612B0006D,909.75,0.35588354,0.0
E28011606000020612AF523C,910.75,5.61437,-0.5625
E28011606000020612B0008D,910.75,5.7186804,0.125
E28011606000020612B000BD,910.75,0.0,0.25
E28011606000020612AFC4CD,910.75,5.424156,0.1875
E28011606000020612B0005D,910.75,0.2883884,0.25
E28011606000020612B0002D,910.75,5.6266418,0.0
E28011606000020612B0004D,910.75,0.20248546,0.0625
E28011606000020612AF527C,926.75,5.2093987,0.4375
E28011606000020612B0000D,926.75,4.080389,0.5625
E28011606000020612AFC4ED,926.75,0.5031457,0.0625
E28011606000020612B000DD,926.75,5.006913,0.375
E28011606000020612AFC4DD,926.75,5.190991,0.625
E28011606000020612B000AD,926.75,1.5769322,-0.125
E28011606000020612AF540B,913.25,5.197127,0.125
E28011606000020612B0009D,913.25,2.4236896,0.0625
E28011606000020612AFC4FD,913.25,1.5401167,0.25
E28011606000020612B0008D,914.25,1.6505634,-0.125
E28011606000020612B0005D,914.25,5.761632,0.5625
E28011606000020612B0001D,914.25,5.7186804,0.0
E28011606000020612B0002D,914.25,4.706253,0.1875
E28011606000020612B000BD,914.25,5.761632,0.4375
E28011606000020612AFC4CD,914.25,1.9634954,0.5625
E28011606000020612AFC4DD,914.25,4.6203504,0.25
E28011606000020612B000CD,914.25,5.927302,0.1875
E28011606000020612B0006D,914.25,5.5714183,0.0625
E28011606000020612AF528C,914.25,5.8659425,0.0
E28011606000020612AF527C,914.25,6.1911464,0.1875
E28011606000020612AF523C,914.25,4.9271464,-0.5
E28011606000020612B000DD,919.25,0.59518456,0.0625
E28011606000020612B0004D,919.25,3.8104084,-0.125
E28011606000020612AFC4ED,919.25,5.479379,0.25
E28011606000020612AF540B,906.75,4.5835347,0.125
E28011606000020612B000AD,906.75,5.921166,0.625
E28011606000020612B0001D,906.75,1.1780972,0.5
E28011606000020612AF528C,906.75,0.877437,0.4375
E28011606000020612B0000D,906.75,0.92038846,0.1875
E28011606000020612B000CD,906.75,1.5401167,0.1875
E28011606000020612B0006D,906.75,0.6442719,0.25
E28011606000020612B0007D,906.75,6.056156,0.375
E28011606000020612B000DD,906.75,3.3318062,0.0625
E28011606000020612AF527C,902.75,6.056156,0.0
E28011606000020612AFC4ED,902.75,0.80380595,0.625
E28011606000020612B0002D,902.75,3.5220199,0.125
E28011606000020612AFC4CD,902.75,6.062292,0.125
E28011606000020612B000AD,902.75,0.30066022,0.0625
E28011606000020612B0005D,902.75,5.8904862,0.1875
E28011606000020612B0008D,902.75,5.3689327,0.1875
E28011606000020612B000BD,902.75,0.30679616,0.0625
E28011606000020612AF523C,902.75,5.3689327,0.0625
E28011606000020612AFC4DD,902.75,0.59518456,0.5625
E28011606000020612AF52FC,902.75,0.96947587,-0.25
E28011606000020612AFC4FD,902.75,5.6266418,0.1875
E28011606000020612AF540B,902.75,1.5339808,0.25
E28011606000020612B0004D,902.75,0.35588354,0.125
E28011606000020612B0009D,903.75,5.1419034,0.0
E28011606000020612B0001D,903.75,4.9271464,0.0
E28011606000020612AF528C,903.75,1.3130876,0.1875
E28011606000020612B0000D,903.75,1.3989905,0.625
E28011606000020612B0007D,903.75,0.2699806,0.1875
E28011606000020612AF527C,903.75,5.9947968,0.0
E28011606000020612B0002D,903.75,0.11658254,0.25
E28011606000020612B000DD,903.75,3.9085832,0.0625
E28011606000020612AFC4ED,903.75,3.7306414,0.1875
E28011606000020612B0008D,903.75,5.2216706,0.0
E28011606000020612B0009D,903.75,5.1480393,0.125
E28011606000020612B000CD,903.75,5.197127,0.0
E28011606000020612AF540B,903.75,1.3683108,0.75
E28011606000020612B0006D,903.75,1.2885438,0.1875
E28011606000020612AFC4FD,926.25,1.030835,0.25
E28011606000020612B0005D,926.25,0.8222137,0.125
E28011606000020612B000BD,926.25,0.17794177,0.125
E28011606000020612AFC4DD,926.25,5.921166,0.0625
E28011606000020612AF52FC,926.25,2.2764275,0.0
E28011606000020612B000AD,926.25,2.7857091,-0.1875
E28011606000020612AFC4CD,926.25,0.79767,0.4375
E28011606000020612B0004D,926.25,0.04295146,0.25
E28011606000020612AFC4CD,926.25,5.7002726,0.0625
E28011606000020612B0006D,926.25,5.7125444,0.1875
E28011606000020612AFC4FD,926.25,5.28303,0.25
E28011606000020612B0005D,926.25,0.21475731,0.125
E28011606000020612B000DD,926.25,4.8964667,0.5625
E28011606000020612AF528C,926.25,3.417709,0.0625
E28011606000020612B0008D,926.25,5.325981,-0.125
E28011606000020612B000AD,917.75,5.743224,-0.5625
E28011606000020612B0009D,917.75,1.276272,0.25
E28011606000020612B000CD,917.75,2.1230295,-0.0625
E28011606000020612B0007D,917.75,3.3256702,0.125
E28011606000020612B000BD,917.75,5.0928164,0.4375
E28011606000020612AFC4ED,917.75,5.91503,0.1875
E28011606000020612B0001D,917.75,5.1419034,0.25
E28011606000020612AF527C,917.75,1.9512236,0.1875
E28011606000020612B0002D,917.75,0.877437,0.5625
E28011606000020612B0004D,922.25,0.04295146,0.125
E28011606000020612AFC4DD,922.25,6.2034183,0.0
E28011606000020612AFC4CD,911.25,2.2457478,0.0625
E28011606000020612B000CD,911.25,0.4049709,0.0625
E28011606000020612B0009D,911.25,2.9268353,0.5
E28011606000020612B0005D,911.25,0.1840777,0.0625
E28011606000020612AFC4FD,911.25,1.9082721,0.125
E28011606000020612B0006D,911.25,0.06135923,0.1875
E28011606000020612B000BD,911.25,6.148195,0.0625
E28011606000020612B0002D,911.25,5.442564,0.1875
E28011606000020612B0008D,911.25,5.5652823,0.125
E28011606000020612B0007D,908.75,6.21569,0.375
E28011606000020612AF528C,908.75,0.45405832,0.5
E28011606000020612AF527C,908.75,4.7676125,0.0625
E28011606000020612B0001D,908.75,0.8897089,0.125
E28011606000020612B0004D,908.75,0.6135923,0.0
E28011606000020612AFC4DD,908.75,6.1175156,0.0625
E28011606000020612B000AD,908.75,5.325981,0.25
E28011606000020612B0000D,908.75,0.52155346,0.75
E28011606000020612B0007D,923.75,6.1727386,0.0
E28011606000020612AF528C,923.75,4.9639616,0.25
E28011606000020612B0002D,923.75,6.2586417,0.25
E28011606000020612B000CD,923.75,1.6628351,0.1875
E28011606000020612B0001D,923.75,1.3376312,0.25
E28011606000020612AF527C,923.75,6.1727386,0.1875
E28011606000020612B0006D,923.75,3.9208548,0.1875
E28011606000020612AFC4FD,923.75,4.252195,0.1875
E28011606000020612AFC4DD,923.75,0.08590292,0.25
E28011606000020612AF540B,923.75,4.7982917,0.5
E28011606000020612B000AD,923.75,6.1911464,0.5
E28011606000020612B000DD,923.75,0.3742913,0.0625
E28011606000020612B0008D,923.75,4.6203504,0.375
E28011606000020612B0009D,923.75,1.5462526,0.25
E28011606000020612AFC4CD,920.75,4.865787,0.1875
E28011606000020612AFC4ED,920.75,0.32520393,0.25
E28011606000020612B000BD,920.75,4.3626413,0.0625
E28011606000020612B0004D,920.75,4.890331,-0.0625
E28011606000020612AF52FC,920.75,0.04295146,0.0625
E28011606000020612B0005D,920.75,4.9700975,0.5
E28011606000020612B000CD,920.25,2.233476,0.1875
E28011606000020612B0007D,920.25,0.48473793,0.5625
E28011606000020612B0001D,920.25,4.9885054,0.25
E28011606000020612B0000D,920.25,4.9639616,0.5
E28011606000020612AF528C,920.25,5.3996124,0.4375
E28011606000020612B0006D,920.25,4.6694374,0.375
E28011606000020612B0002D,920.25,0.45405832,0.1875
E28011606000020612AFC4ED,920.25,0.41724277,0.4375
E28011606000020612B0008D,920.25,2.0555344,0.0
E28011606000020612B000DD,920.25,1.0124273,-0.0625
E28011606000020612AFC4FD,920.25,5.160311,-0.0625
E28011606000020612AFC4DD,920.25,0.61972827,0.125
E28011606000020612AF540B,920.25,5.602098,0.1875
E28011606000020612B000AD,920.25,0.6320001,0.1875
E28011606000020612B0005D,922.75,1.4542137,0.1875
E28011606000020612B000BD,922.75,1.0124273,0.5
E28011606000020612B0009D,922.75,1.6198837,0.375
E28011606000020612AF527C,922.75,0.09203885,0.1875
E28011606000020612AF52FC,922.75,6.0009327,0.125
E28011606000020612B0004D,922.75,1.116738,0.1875
E28011606000020612AFC4CD,922.75,4.4546804,-0.1875
E28011606000020612B0009D,910.25,0.06749515,0.25
E28011606000020612B0006D,910.25,0.28225246,0.0625
E28011606000020612B0005D,910.25,0.3926991,0.4375
E28011606000020612AFC4FD,910.25,2.0432625,0.125
E28011606000020612AFC4CD,910.25,5.436428,0.0625
E28011606000020612B0001D,910.25,0.43565056,0.25
E28011606000020612B0004D,910.25,0.33747578,-0.375
E28011606000020612B000CD,910.25,0.61972827,0.375
E28011606000020612B0007D,910.25,5.620506,-0.0625
E28011606000020612AF527C,910.25,4.6633015,0.0625
E28011606000020612AF528C,910.25,0.21475731,0.0625
E28011606000020612B000AD,910.25,1.7426022,0.1875
E28011606000020612AF540B,905.75,4.95169,-0.0625
E28011606000020612B000BD,905.75,0.88357294,0.125
E28011606000020612AFC4DD,905.75,0.79767,-0.1875
E28011606000020612B0008D,905.75,0.09203885,-0.0625
E28011606000020612B0002D,905.75,0.69949526,0.25
E28011606000020612AF523C,906.25,0.20248546,0.0625
E28011606000020612AFC4ED,912.25,4.135612,0.1875
E28011606000020612B000DD,912.25,5.356661,-0.625
E28011606000020612B0009D,912.25,2.6507187,0.0625
E28011606000020612B0006D,912.25,6.0254765,0.5625
E28011606000020612B0005D,912.25,6.24637,0.125
E28011606000020612AFC4CD,912.25,5.28303,0.1875
E28011606000020612AF528C,912.25,0.030679615,0.1875
E28011606000020612AFC4FD,912.25,1.754874,0.1875
E28011606000020612B0001D,912.25,6.234098,0.0
E28011606000020612B000CD,912.25,0.09203885,0.375
E28011606000020612B0002D,912.25,5.2339425,-0.25
E28011606000020612B0008D,924.75,5.497787,0.0
E28011606000020612AFC4ED,924.75,0.8897089,0.125
E28011606000020612B000DD,924.75,5.4671073,0.0
E28011606000020612B0007D,924.75,1.2333206,0.0
E28011606000020612AF527C,924.75,5.8782144,0.0
E28011606000020612B000AD,924.75,5.516195,0.0625
E28011606000020612AFC4DD,927.25,5.105088,0.125
E28011606000020612B000BD,927.25,0.12271846,0.1875
E28011606000020612B0000D,927.25,0.70563114,0.5625
E28011606000020612AFC4ED,927.25,5.3075733,0.5
E28011606000020612AF528C,927.25,4.4546804,0.75
E28011606000020612B000CD,927.25,0.94493216,0.25
E28011606000020612B0007D,927.25,5.503923,0.5625
E28011606000020612B0001D,927.25,0.79767,0.5
E28011606000020612B0006D,927.25,0.09817477,0.375
E28011606000020612B0008D,905.25,5.049865,-0.0625
E28011606000020612AF52FC,905.25,0.33747578,-0.125
E28011606000020612AF523C,905.25,1.4664856,0.5
E28011606000020612B000DD,905.25,3.6447384,0.375
E28011606000020612AFC4DD,905.25,0.2638447,0.0
E28011606000020612AFC4FD,905.25,5.2584863,0.125
E28011606000020612B0005D,905.25,5.025321,0.125
E28011606000020612B000AD,905.25,6.086836,0.375
E28011606000020612B0009D,905.25,4.865787,0.125
E28011606000020612B0002D,905.25,6.1052437,0.375
E28011606000020612AF540B,905.25,1.1903691,0.0
E28011606000020612AF527C,905.25,2.5709517,0.4375
E28011606000020612AFC4CD,916.25,5.8598065,0.125
E28011606000020612B0004D,916.25,0.16566992,0.25
E28011606000020612B000BD,916.25,1.3437672,0.1875
E28011606000020612B0007D,907.25,2.9145634,0.5
E28011606000020612B0000D,907.25,0.82834965,0.125
E28011606000020612AF527C,907.25,5.510059,0.0625
E28011606000020612B0001D,907.25,4.2092433,0.25
E28011606000020612AFC4ED,907.25,6.092972,0.0
E28011606000020612B0002D,907.25,5.761632,0.25
E28011606000020612AF528C,907.25,0.8099418,0.1875
E28011606000020612B0009D,907.25,4.466952,0.1875
E28011606000020612AFC4FD,907.25,1.8407769,0.1875
E28011606000020612B000CD,907.25,1.5094371,0.0
E28011606000020612B000BD,907.25,6.1175156,0.0
E28011606000020612B000AD,907.25,5.663457,0.125
E28011606000020612B0005D,907.25,4.7369328,0.1875
E28011606000020612AFC4DD,907.25,0.012271847,0.1875
E28011606000020612B0006D,907.25,0.5522331,0.5625
E28011606000020612AFC4CD,907.25,4.878059,0.1875
E28011606000020612B0008D,907.25,4.632622,0.5
E28011606000020612AF52FC,913.75,1.4480779,-0.1875
E28011606000020612B000DD,913.75,2.1353014,0.1875
E28011606000020612AF523C,913.75,5.61437,-0.0625
E28011606000020612AF540B,913.75,0.35588354,-0.0625
E28011606000020612B0004D,904.25,0.2699806,-0.125
E28011606000020612AFC4CD,904.25,6.1236515,0.25
E28011606000020612AFC4FD,904.25,0.030679615,-0.0625
E28011606000020612B0001D,904.25,1.9328158,0.25
E28011606000020612B000CD,904.25,1.6935148,0.25
E28011606000020612B0005D,904.25,4.712389,0.4375
E28011606000020612B000BD,904.25,1.1351458,0.1875
E28011606000020612B0008D,904.25,0.22702916,0.125
E28011606000020612B0006D,917.25,4.693981,0.1875
E28011606000020612AFC4ED,917.25,6.0377483,0.0
E28011606000020612B0002D,917.25,4.1110687,0.125
E28011606000020612B0009D,917.25,1.3744467,0.25
E28011606000020612B000AD,917.25,5.816855,0.375
E28011606000020612B000DD,917.25,1.3069516,0.5
E28011606000020612B0004D,917.25,4.221515,0.0
E28011606000020612AF540B,915.75,0.9756118,0.0625
E28011606000020612AF528C,915.75,5.595962,-0.0625
E28011606000020612AFC4DD,915.75,1.3928546,-0.1875
E28011606000020612B0007D,915.75,0.7117671,0.375
E28011606000020612AF527C,915.75,2.5893595,0.0625
E28011606000020612AF523C,908.25,5.8843503,0.0625
E28011606000020612B0006D,908.25,0.62586415,0.375
E28011606000020612B0005D,908.25,0.8467574,0.125
E28011606000020612B0009D,908.25,3.675418,0.1875
E28011606000020612B0001D,909.25,0.7485826,0.5
E28011606000020612B0007D,909.25,6.1359234,-0.0625
E28011606000020612B0008D,909.25,5.822991,0.1875
E28011606000020612AFC4CD,909.25,5.442564,0.375
E28011606000020612AF523C,909.25,5.6818647,0.5
E28011606000020612AFC4FD,909.25,2.1659808,0.1875
E28011606000020612B0004D,909.25,0.5276894,-0.1875
E28011606000020612B000CD,909.25,0.67495155,0.375
E28011606000020612AFC4DD,925.25,5.503923,0.5
E28011606000020612B000DD,925.25,5.332117,0.25
E28011606000020612B0002D,925.25,1.0860584,0.1875
E28011606000020612AF528C,925.25,0.5645049,0.5
E28011606000020612B000AD,925.25,2.0923498,-0.5
E28011606000020612AFC4ED,925.25,0.79767,-0.0625
E28011606000020612AF527C,925.25,5.7861757,0.0625
E28011606000020612AF540B,915.25,1.2394565,0.0625
E28011606000020612B0007D,915.25,1.441942,0.1875
E28011606000020612B000CD,915.25,0.05522331,0.375
E28011606000020612AFC4ED,915.25,1.3867186,0.25
E28011606000020612B0000D,915.25,5.7186804,0.375
E28011606000020612B0008D,915.25,6.2034183,0.1875
E28011606000020612AF528C,915.25,6.068428,0.125
E28011606000020612B0002D,915.25,1.2701361,0.125
E28011606000020612B0001D,915.25,5.7923117,0.25
E28011606000020612AF527C,918.25,0.7424467,0.0625
E28011606000020612AFC4FD,918.25,5.5652823,0.5
E28011606000020612AFC4DD,918.25,0.9817477,0.5625
E28011606000020612B0009D,918.25,2.2150683,0.25
E28011606000020612B000DD,918.25,1.3069516,0.5
E28011606000020612B0006D,918.25,5.0989523,0.1875
E28011606000020612B000AD,918.25,4.2092433,0.4375
E28011606000020612B0004D,918.25,5.7861757,-0.1875
E28011606000020612B0005D,918.25,5.595962,0.0
E28011606000020612AF523C,918.25,4.6080785,-0.0625
E28011606000020612AF540B,918.25,5.9641175,0.8125
E28011606000020612AFC4CD,918.25,5.436428,-0.0625
E28011606000020612AF52FC,918.25,0.558369,0.125
E28011606000020612B000BD,903.25,0.07363108,0.4375
E28011606000020612B000CD,903.25,5.3075733,0.1875
E28011606000020612B0000D,903.25,1.5278449,0.125
E28011606000020612B0001D,903.25,5.013049,0.0
E28011606000020612B0006D,903.25,1.4296701,0.0625
E28011606000020612AF527C,903.25,5.908894,0.0625
E28011606000020612B0007D,903.25,3.4483888,0.25
E28011606000020612AF528C,903.25,1.3867186,0.4375
E28011606000020612B0002D,903.25,0.25770876,0.1875
E28011606000020612B000AD,903.25,0.22089323,0.0625
E28011606000020612AF540B,903.25,1.435806,0.125
E28011606000020612AFC4ED,903.25,0.70563114,0.125
E28011606000020612B000DD,923.25,0.43565056,0.5625
E28011606000020612B0008D,923.25,1.6260196,0.125
E28011606000020612B0009D,923.25,1.5707964,0.125
E28011606000020612B0005D,923.25,1.2946798,0.125
E28011606000020612AFC4DD,923.25,0.17180584,0.25
E28011606000020612AFC4CD,923.25,1.4296701,-0.0625
E28011606000020612AFC4FD,923.25,4.2828746,0.25
E28011606000020612B000BD,923.25,3.9515345,0.1875
E28011606000020612B0004D,923.25,4.12334,0.0
E28011606000020612AF52FC,923.25,5.902758,0.0625
E28011606000020612AF528C,923.25,4.215379,0.1875
E28011606000020612AFC4CD,921.75,0.478602,0.1875
E28011606000020612B0001D,921.75,4.565127,0.1875
E28011606000020612AFC4FD,921.75,6.1052437,-0.0625
E28011606000020612B0005D,921.75,4.147884,0.125
E28011606000020612B0006D,921.75,0.49087384,0.25
E28011606000020612B0009D,921.75,0.30679616,0.5
E28011606000020612B000DD,921.75,6.0193405,-0.375
E28011606000020612AF527C,921.75,0.717903,0.125
E28011606000020612B0008D,921.75,6.1175156,0.125
E28011606000020612B0007D,921.75,1.5707964,-0.0625
E28011606000020612B000CD,912.75,6.2586417,0.1875
E28011606000020612B000AD,912.75,4.1908355,0.1875
E28011606000020612B0002D,912.75,5.0621367,-0.0625
E28011606000020612AFC4DD,912.75,1.8837284,0.0
E28011606000020612B000BD,912.75,5.8720784,0.125
E28011606000020612B0004D,912.75,5.6880007,0.0625
E28011606000020612AFC4ED,919.75,2.1291654,0.1875
E28011606000020612AFC4CD,919.75,0.9878836,0.25
E28011606000020612B0005D,919.75,4.540583,0.25
E28011606000020612B0009D,925.75,6.0009327,0.125
E28011606000020612B0006D,925.75,5.896622,0.125
E28011606000020612AF528C,925.75,0.478602,0.4375
E28011606000020612AFC4FD,925.75,5.362797,0.5
E28011606000020612B000DD,925.75,1.9450877,0.0625
E28011606000020612B0007D,925.75,0.80380595,-0.0625
E28011606000020612B000CD,925.75,0.60132045,-0.0625
E28011606000020612AFC4ED,925.75,0.6442719,0.125
E28011606000020612AFC4DD,925.75,5.3750687,0.125
E28011606000020612B0001D,925.75,4.1110687,0.0625
E28011606000020612B0008D,916.75,0.79153407,0.25
E28011606000020612B0004D,916.75,4.3565054,-0.1875
E28011606000020612AF527C,916.75,2.2825634,0.125
E28011606000020612B000BD,916.75,5.4118843,0.0
E28011606000020612B0002D,916.75,4.1785636,0.5
E28011606000020612B000AD,916.75,6.086836,-0.1875
E28011606000020612B0000D,907.75,0.7363108,0.375
E28011606000020612B000CD,907.75,4.571263,0.125
E28011606000020612B0007D,907.75,5.982525,0.1875
E28011606000020612B0001D,907.75,0.9633399,0.1875
E28011606000020612B0009D,907.75,4.387185,0.125
E28011606000020612AF528C,907.75,0.7424467,0.25
E28011606000020612AFC4ED,907.75,5.9457097,0.25
E28011606000020612B0005D,907.75,4.6694374,0.125
E28011606000020612B0008D,907.75,4.565127,0.0625
E28011606000020612AF527C,911.75,1.7610099,0.5
E28011606000020612AFC4DD,911.75,5.460972,0.1875
E28011606000020612AFC4FD,911.75,1.0921943,0.125
E28011606000020612B000DD,911.75,2.4420974,0.5
E28011606000020612B0002D,911.75,5.0928164,0.375
E28011606000020612B0006D,911.75,5.982525,0.375
E28011606000020612B000AD,911.75,4.7430687,0.4375
E28011606000020612AFC4CD,911.75,0.49087384,0.1875
E28011606000020612AF52FC,911.75,1.9021362,-0.0625
E28011606000020612AF523C,911.75,6.068428,0.4375
E28011606000020612AF540B,914.75,0.23316509,0.0
E28011606000020612B000BD,914.75,4.6817093,0.0625
E28011606000020612B0004D,914.75,0.34974763,-0.1875
E28011606000020612B0000D,914.75,5.804583,0.375
E28011606000020612B0006D,914.75,5.61437,0.0625
E28011606000020612B0001D,914.75,5.896622,0.1875
E28011606000020612B0007D,914.75,1.5401167,0.5
E28011606000020612B000CD,924.25,1.5769322,0.25
E28011606000020612B000DD,924.25,0.2699806,0.375
E28011606000020612B0009D,924.25,1.4726216,0.0
E28011606000020612AF528C,924.25,4.9210105,0.5
E28011606000020612B0002D,924.25,6.234098,0.0625
E28011606000020612AF527C,924.25,6.0438843,0.4375
E28011606000020612B0008D,924.25,1.356039,0.625
E28011606000020612AFC4ED,924.25,5.927302,0.1875
E28011606000020612AFC4DD,924.25,0.03681554,0.0
E28011606000020612AFC4FD,924.25,4.147884,0.25
E28011606000020612AF540B,924.25,4.6633015,0.1875
E28011606000020612B000AD,924.25,6.068428,0.0
E28011606000020612B0004D,924.25,0.6442719,0.0625
E28011606000020612AF52FC,924.25,5.74936,0.1875
E28011606000020612B0005D,921.25,1.7671459,0.1875
E28011606000020612AFC4CD,921.25,1.5769322,-0.5625
E28011606000020612B000BD,921.25,4.3380976,0.125
E28011606000020612B0005D,921.25,1.0799224,0.25
E28011606000020612B0009D,921.25,0.43565056,0.125
E28011606000020612AFC4DD,921.25,0.17794177,0.0625
E28011606000020612B0006D,921.25,0.6135923,0.125
E28011606000020612B0008D,921.25,0.030679615,-0.0625
E28011606000020612B0007D,918.75,6.1175156,-0.25
E28011606000020612AFC4ED,918.75,2.4727771,0.125
E28011606000020612AFC4FD,918.75,0.43565056,0.375
E28011606000020612AF528C,918.75,5.013049,0.125
E28011606000020612AFC4CD,918.75,1.1842332,0.375
E28011606000020612B000DD,918.75,0.7424467,0.5
E28011606000020612AF527C,918.75,1.6076119,0.5625
E28011606000020612B000CD,918.75,5.049865,0.375
E28011606000020612B0001D,918.75,5.013049,0.0625
E28011606000020612B0002D,904.75,0.9878836,0.0625
E28011606000020612AF540B,904.75,5.3075733,-0.1875
E28011606000020612B000BD,904.75,1.0921943,0.0
E28011606000020612B000AD,904.75,0.11044662,0.0625
E28011606000020612AF523C,904.75,0.5399612,0.375
E28011606000020612B0004D,904.75,1.6935148,-0.375
E28011606000020612B0000D,909.75,1.1780972,-0.25
E28011606000020612AFC4FD,909.75,2.1107576,0.125
E28011606000020612B0009D,909.75,0.1840777,0.5
E28011606000020612B0001D,909.75,0.57064086,0.625
E28011606000020612B0007D,909.75,5.8598065,0.1875
E28011606000020612B0008D,909.75,6.0132046,0.125
E28011606000020612B0006D,910.75,0.12885438,0.375
E28011606000020612AFC4DD,910.75,5.602098,-0.1875
E28011606000020612B0005D,910.75,0.27611655,0.1875
E28011606000020612B000CD,910.75,0.49700978,0.1875
E28011606000020612AFC4CD,910.75,5.4118843,0.125
E28011606000020612B0004D,910.75,0.23316509,0.0
E28011606000020612AF540B,910.75,6.1236515,0.0
E28011606000020612AF528C,910.75,0.22702916,0.25
E28011606000020612B0002D,910.75,5.61437,0.375
E28011606000020612B000BD,910.75,6.252506,0.0625
E28011606000020612B000AD,926.75,1.515573,0.4375
E28011606000020612AFC4ED,926.75,0.48473793,0.0625
E28011606000020612AF527C,926.75,5.2155347,0.4375
E28011606000020612B0000D,926.75,4.104933,0.125
E28011606000020612B000DD,926.75,5.0007772,0.375
E28011606000020612AF523C,913.25,1.9880391,-0.125
E28011606000020612B0000D,913.25,6.0254765,0.375
E28011606000020612AF528C,913.25,0.030679615,0.125
E28011606000020612B0007D,913.25,1.8285052,0.375
E28011606000020612B000DD,913.25,2.1659808,0.5625
E28011606000020612B0006D,913.25,5.8536706,-0.0625
E28011606000020612AF52FC,913.25,4.718525,-0.0625
E28011606000020612B0001D,914.25,6.0316124,0.0625
E28011606000020612B0008D,914.25,0.024543693,0.25
E28011606000020612B0005D,914.25,0.21475731,0.125
E28011606000020612AFC4DD,914.25,4.8964667,0.25
E28011606000020612B0009D,914.25,6.252506,0.375
E28011606000020612B000CD,914.25,0.2638447,0.125
E28011606000020612AF527C,914.25,1.601476,0.1875
E28011606000020612B000BD,914.25,4.6387577,0.125
E28011606000020612AFC4ED,914.25,4.700117,0.0625
E28011606000020612B0002D,914.25,1.4664856,0.375
E28011606000020612AF540B,914.25,0.33133984,0.25
E28011606000020612AFC4CD,914.25,6.21569,0.1875
E28011606000020612AFC4FD,919.25,5.350525,0.5625
E28011606000020612B000AD,919.25,3.9576705,0.25
E28011606000020612B0004D,919.25,5.4057484,0.0
E28011606000020612AF528C,919.25,5.5591464,0.125
E28011606000020612AFC4DD,919.25,0.8222137,0.4375
E28011606000020612B0000D,919.25,5.11736,0.375
E28011606000020612AFC4FD,919.25,5.3689327,0.1875
E28011606000020612B0002D,919.25,0.6135923,0.125
E28011606000020612B0007D,919.25,0.6688156,0.0625
E28011606000020612B0001D,906.75,4.313554,0.625
E28011606000020612B000AD,906.75,5.7309523,0.0625
E28011606000020612B0006D,906.75,0.6442719,0.0
E28011606000020612AFC4ED,906.75,6.1850104,0.1875
E28011606000020612B0008D,906.75,4.687845,0.625
E28011606000020612B0005D,906.75,4.957826,0.0625
E28011606000020612B000CD,906.75,1.5401167,0.5
E28011606000020612B000DD,906.75,0.21475731,0.0625
E28011606000020612AF527C,906.75,5.6941366,0.125
E28011606000020612AF540B,906.75,4.2767386,0.25
E28011606000020612B0009D,906.75,4.632622,0.375
E28011606000020612AFC4CD,906.75,5.0866804,0.125
E28011606000020612B000BD,902.75,3.3747578,0.5
E28011606000020612B0004D,902.75,0.3742913,-0.25
E28011606000020612AF52FC,902.75,0.9387962,-0.125
E28011606000020612AFC4FD,902.75,3.4729326,0.125
E28011606000020612B0009D,902.75,4.7676125,0.1875
E28011606000020612B0008D,902.75,0.6810875,-0.25
E28011606000020612B0005D,902.75,1.8100973,0.125
E28011606000020612B0006D,902.75,5.0805445,-0.0625
E28011606000020612B0002D,902.75,1.5523885,0.125
E28011606000020612B0001D,902.75,2.2089324,0.0
E28011606000020612B000BD,902.75,4.6142144,0.0
E28011606000020612B0007D,903.75,1.2455924,0.5625
E28011606000020612AF540B,903.75,5.516195,0.75
E28011606000020612B000CD,903.75,5.006913,0.0625
E28011606000020612AF528C,903.75,2.1721168,0.25
E28011606000020612AFC4CD,903.75,6.1788745,0.5
E28011606000020612AF523C,903.75,0.7363108,-0.1875
E28011606000020612AF527C,903.75,5.2155347,-0.5625
E28011606000020612B000DD,926.25,4.957826,0.0
E28011606000020612AFC4DD,926.25,5.197127,0.5625
E28011606000020612AFC4ED,926.25,0.61972827,0.125
E28011606000020612B000AD,926.25,1.9389517,-0.875
E28011606000020612B0000D,917.75,5.8782144,-0.1875
E28011606000020612B0004D,917.75,4.086525,0.0625
E28011606000020612AFC4CD,917.75,1.3744467,0.125
E28011606000020612AFC4FD,922.25,6.1052437,0.0625
E28011606000020612B0009D,922.25,0.24543692,0.25
E28011606000020612AFC4ED,922.25,1.5523885,0.125
E28011606000020612AF528C,922.25,4.135612,0.25
E28011606000020612B000DD,922.25,5.8598065,-0.125
E28011606000020612AF527C,922.25,0.30066022,0.625
E28011606000020612B0001D,922.25,4.4914956,0.0625
E28011606000020612B000CD,922.25,1.4848934,0.0625
E28011606000020612B0004D,922.25,6.062292,0.625
E28011606000020612B0007D,922.25,1.6873789,0.0625
E28011606000020612B0000D,922.25,4.890331,0.0625
E28011606000020612B0008D,922.25,0.30066022,0.125
E28011606000020612B000BD,911.25,6.05002,0.0
E28011606000020612AFC4DD,911.25,5.577554,-0.1875
E28011606000020612B000AD,911.25,1.4971652,0.125
E28011606000020612AF528C,908.75,0.60132045,0.25
E28011606000020612AFC4ED,908.75,2.5648158,0.25
E28011606000020612B0006D,908.75,0.22089323,0.125
E28011606000020612B0007D,908.75,5.816855,0.375
E28011606000020612B0001D,908.75,0.75471854,0.75
E28011606000020612B0005D,908.75,4.632622,0.0625
E28011606000020612B0009D,908.75,4.160156,0.375
E28011606000020612B0000D,908.75,0.5522331,0.75
E28011606000020612B000DD,908.75,6.092972,0.5
E28011606000020612B0008D,908.75,4.2767386,0.25
E28011606000020612B000CD,908.75,1.2517283,0.25
E28011606000020612B000BD,908.75,5.976389,0.125
E28011606000020612B0002D,908.75,5.5652823,0.25
E28011606000020612AFC4FD,908.75,1.515573,0.1875
E28011606000020612AFC4DD,923.75,0.14726216,0.25
E28011606000020612AF540B,923.75,4.853515,0.1875
E28011606000020612AF527C,923.75,5.976389,0.25
E28011606000020612B000AD,923.75,2.9329712,0.125
E28011606000020612B0004D,923.75,0.6872234,0.25
E28011606000020612AF52FC,923.75,5.8536706,-0.0625
E28011606000020612AFC4CD,923.75,1.1842332,0.5
E28011606000020612B0000D,923.75,1.2517283,0.75
E28011606000020612B0002D,920.75,3.577243,0.25
E28011606000020612B0001D,920.75,1.7855537,0.1875
E28011606000020612AF528C,920.75,5.3689327,0.0625
E28011606000020612B0007D,920.75,0.3681554,0.75
E28011606000020612B000CD,920.75,5.3075733,-0.0625
E28011606000020612B000DD,920.75,0.89584476,0.0
E28011606000020612B000BD,920.75,4.3258257,0.8125
E28011606000020612AF527C,920.75,0.1840777,0.25
E28011606000020612B0006D,920.75,1.3989905,0.1875
E28011606000020612AFC4ED,920.75,0.33747578,0.125
E28011606000020612B000AD,920.75,3.6201947,0.5
E28011606000020612B0008D,920.75,1.9512236,0.5
E28011606000020612B0004D,920.75,4.718525,0.1875
E28011606000020612B0009D,920.75,1.8039614,0.0
E28011606000020612AFC4CD,920.25,4.9394183,0.0
E28011606000020612AFC4DD,920.25,0.62586415,0.375
E28011606000020612AFC4FD,920.25,5.0560007,0.0625
E28011606000020612B0005D,920.25,1.9941751,0.1875
E28011606000020612AF540B,920.25,5.645049,0.125
E28011606000020612AF52FC,920.25,0.14726216,-0.5625
E28011606000020612AFC4FD,920.25,0.17794177,0.5
E28011606000020612B0009D,922.75,0.17180584,0.125
E28011606000020612AFC4CD,922.75,0.22089323,0.25
E28011606000020612B0005D,922.75,0.61972827,0.5625
E28011606000020612AF528C,922.75,3.9760783,0.4375
E28011606000020612AFC4ED,922.75,1.3989905,0.5
E28011606000020612B0006D,922.75,0.42951462,0.25
E28011606000020612B0007D,922.75,1.521709,0.125
E28011606000020612B0001D,922.75,4.4301367,0.0
E28011606000020612B000CD,922.75,1.3253593,0.25
E28011606000020612B000DD,922.75,5.6880007,0.1875
E28011606000020612B0008D,922.75,0.09817477,0.0625
E28011606000020612AF527C,922.75,0.20248546,0.5
E28011606000020612B0002D,910.25,5.74936,0.1875
E28011606000020612B0004D,910.25,0.25770876,0.0
E28011606000020612B000AD,910.25,5.006913,0.125
E28011606000020612B000BD,910.25,0.06135923,0.0
E28011606000020612AFC4DD,910.25,5.8475347,0.0625
E28011606000020612AF540B,910.25,0.36201948,0.5
E28011606000020612AF523C,905.75,0.4049709,-0.4375
E28011606000020612B0009D,905.75,4.301282,0.5
E28011606000020612B000BD,905.75,0.90811664,0.1875
E28011606000020612B0008D,905.75,6.092972,0.375
E28011606000020612B0005D,906.25,4.399457,0.0625
E28011606000020612B0006D,906.25,1.3069516,0.25
E28011606000020612AFC4CD,906.25,5.91503,0.1875
E28011606000020612B000CD,906.25,1.2210487,0.0625
E28011606000020612B0007D,906.25,0.9265244,0.125
E28011606000020612B0002D,906.25,0.46633017,0.375
E28011606000020612AFC4FD,906.25,5.8720784,0.125
E28011606000020612AF540B,906.25,4.8964667,0.125
E28011606000020612B0004D,912.25,5.8598065,0.375
E28011606000020612B0001D,912.25,6.1543307,0.1875
E28011606000020612B000AD,912.25,4.264467,0.25
E28011606000020612AFC4DD,912.25,2.0309906,0.0625
E28011606000020612AF523C,912.25,2.2396119,0.1875
E28011606000020612B0000D,924.75,4.252195,0.0625
E28011606000020612B0009D,924.75,1.441942,0.0
E28011606000020612B0007D,924.75,5.9947968,0.375
E28011606000020612B0001D,924.75,1.1842332,0.4375
E28011606000020612AF540B,924.75,4.577399,0.5
E28011606000020612B0002D,924.75,6.068428,0.1875
E28011606000020612AFC4ED,924.75,5.8413987,0.125
E28011606000020612AF528C,924.75,4.853515,0.4375
E28011606000020612B000DD,924.75,0.17794177,0.375
E28011606000020612B000BD,924.75,3.755185,0.1875
E28011606000020612B0004D,924.75,0.38042724,-0.125
E28011606000020612B0006D,927.25,0.10431069,0.5
E28011606000020612AF527C,927.25,5.356661,0.25
E28011606000020612B000CD,927.25,0.9265244,0.5625
E28011606000020612B0005D,927.25,0.67495155,0.1875
E28011606000020612B0008D,927.25,0.8528933,0.125
E28011606000020612AFC4DD,927.25,5.743224,0.1875
E28011606000020612AFC4FD,927.25,4.068117,0.1875
E28011606000020612B000AD,927.25,5.8536706,0.5
E28011606000020612AF52FC,927.25,2.080078,0.0
E28011606000020612B0000D,927.25,3.8717675,0.5
E28011606000020612B0006D,927.25,0.12885438,0.125
E28011606000020612B0007D,905.25,0.159534,0.25
E28011606000020612B0001D,905.25,4.626486,0.1875
E28011606000020612B000CD,905.25,4.9026027,0.8125
E28011606000020612B000DD,905.25,3.6263306,0.375
E28011606000020612AFC4DD,905.25,0.30679616,-0.125
E28011606000020612AFC4ED,905.25,0.2699806,0.25
E28011606000020612AF528C,905.25,1.1412817,0.25
E28011606000020612B0002D,905.25,6.1359234,0.375
E28011606000020612AF527C,905.25,2.6568546,0.1875
E28011606000020612B0009D,905.25,4.871923,0.25
E28011606000020612B0008D,905.25,4.9332824,0.0625
E28011606000020612AF540B,905.25,1.2026409,0.1875
E28011606000020612B0005D,905.25,5.184855,0.125
E28011606000020612AFC4FD,905.25,2.06167,0.125
E28011606000020612B000BD,905.25,0.20862138,0.0625
E28011606000020612AF52FC,916.25,0.92038846,0.8125
E28011606000020612B0004D,916.25,6.0254765,0.625
E28011606000020612B000AD,916.25,4.4362726,0.4375
E28011606000020612AFC4FD,916.25,0.94493216,0.1875
E28011606000020612B0009D,916.25,1.6137478,0.5
E28011606000020612B0006D,916.25,5.0560007,0.1875
E28011606000020612AFC4CD,916.25,1.6628351,0.0
E28011606000020612B0005D,916.25,5.2278066,0.25
E28011606000020612B000CD,907.25,4.15402,0.125
E28011606000020612B000BD,907.25,0.6442719,0.5
E28011606000020612B0002D,907.25,0.17794177,-0.0625
E28011606000020612B0007D,907.25,0.36201948,0.125
E28011606000020612B0004D,907.25,1.0185633,-0.625
E28011606000020612B0008D,907.25,5.8904862,0.25
E28011606000020612AF540B,907.25,4.4792237,0.375
E28011606000020612AF527C,913.75,0.049087387,0.0625
E28011606000020612AFC4ED,913.75,3.9147189,0.0625
E28011606000020612B0001D,913.75,5.7861757,0.4375
E28011606000020612AFC4DD,913.75,1.6076119,-0.1875
E28011606000020612B0000D,913.75,0.35588354,-0.125
E28011606000020612AF528C,913.75,5.8904862,0.0625
E28011606000020612B000AD,913.75,0.70563114,0.1875
E28011606000020612B0009D,904.25,4.626486,0.25
E28011606000020612B0006D,904.25,4.9455543,0.1875
E28011606000020612AFC4CD,904.25,6.221826,0.1875
E28011606000020612B000CD,917.25,5.3873405,0.25
E28011606000020612B0005D,917.25,5.025321,0.25
E28011606000020612AFC4FD,917.25,0.7608545,0.25
E28011606000020612B0001D,917.25,5.1541753,0.0
E28011606000020612B0008D,917.25,1.0246992,0.0
E28011606000020612AFC4ED,917.25,6.0991077,0.125
E28011606000020612B0007D,917.25,3.583379,0.0
E28011606000020612AF527C,917.25,2.1843886,0.5
E28011606000020612AFC4DD,917.25,1.0737865,-0.0625
E28011606000020612B0002D,915.75,4.1908355,-0.1875
E28011606000020612AF528C,915.75,5.3812046,0.0
E28011606000020612B0000D,915.75,6.2034183,0.25
E28011606000020612B000AD,915.75,0.11658254,-0.4375
E28011606000020612AF540B,915.75,1.4051265,0.25
E28011606000020612B0004D,915.75,4.6142144,0.1875
E28011606000020612B0000D,908.25,0.6442719,0.625
E28011606000020612AF527C,908.25,2.2948353,0.1875
E28011606000020612AF528C,908.25,0.6688156,0.25
E28011606000020612B0007D,908.25,5.91503,0.625
E28011606000020612AFC4FD,908.25,1.59534,0.0625
E28011606000020612B0005D,908.25,4.693981,0.1875
E28011606000020612B000CD,908.25,4.466952,0.5625
E28011606000020612B000DD,908.25,6.1911464,0.375
E28011606000020612B0006D,908.25,0.3436117,0.125
E28011606000020612B000BD,908.25,6.0132046,0.125
E28011606000020612AFC4CD,909.25,4.1908355,-0.0625
E28011606000020612B0008D,909.25,4.1969714,0.1875
E28011606000020612AFC4ED,909.25,5.6327777,-0.125
E28011606000020612B0009D,909.25,4.080389,0.25
E28011606000020612B0001D,909.25,0.67495155,0.625
E28011606000020612B0002D,909.25,5.485515,0.5
E28011606000020612AFC4DD,909.25,5.9641175,0.0625
E28011606000020612B000AD,909.25,5.0560007,0.0
E28011606000020612AF52FC,909.25,5.669593,0.5625
E28011606000020612AF540B,909.25,4.160156,0.1875
E28011606000020612B0004D,925.25,0.20248546,0.1875
E28011606000020612B0007D,925.25,5.902758,0.125
E28011606000020612B000CD,925.25,1.3744467,0.0
E28011606000020612B0000D,925.25,4.160156,0.5625
E28011606000020612B0009D,925.25,1.3130876,0.0625
E28011606000020612B000DD,925.25,0.10431069,0.0
E28011606000020612B0006D,925.25,0.48473793,0.5
E28011606000020612B0008D,925.25,1.1965051,0.5625
E28011606000020612AFC4ED,925.25,5.755496,0.1875
E28011606000020612AF528C,925.25,4.792156,0.25
E28011606000020612B0001D,925.25,1.1044662,0.4375
E28011606000020612AFC4FD,915.25,0.07363108,0.125
E28011606000020612B0005D,915.25,0.0,0.125
E28011606000020612AF527C,915.25,1.356039,0.125
E28011606000020612AFC4DD,915.25,4.693981,0.1875
E28011606000020612B0002D,915.25,1.2946798,0.5625
E28011606000020612B000AD,915.25,4.4546804,0.0
E28011606000020612AF52FC,915.25,4.295146,0.5625
E28011606000020612AFC4CD,915.25,5.927302,0.0
E28011606000020612AF540B,915.25,0.2883884,0.0
E28011606000020612B000BD,915.25,1.3253593,0.0625
E28011606000020612B0004D,918.25,5.5468745,0.1875
E28011606000020612B0006D,918.25,1.4051265,0.1875
E28011606000020612AFC4CD,918.25,1.2333206,0.75
E28011606000020612B0009D,918.25,1.1535536,0.25
E28011606000020612AF527C,918.25,1.8285052,0.125
E28011606000020612B0000D,918.25,5.810719,0.0
E28011606000020612B000CD,918.25,5.184855,-0.0625
E28011606000020612AF528C,918.25,4.9210105,0.4375
E28011606000020612B0008D,903.25,3.5281558,0.125
E28011606000020612B000BD,903.25,1.362175,0.25
E28011606000020612B0005D,903.25,1.7794178,0.0
E28011606000020612AFC4FD,903.25,3.3379421,0.0625
E28011606000020612B0007D,903.25,1.4542137,0.125
E28011606000020612B0001D,903.25,2.0555344,0.1875
E28011606000020612B0002D,903.25,1.4173982,0.0625
E28011606000020612AFC4DD,903.25,4.884195,0.0625
E28011606000020612AF540B,903.25,5.7064085,0.125
E28011606000020612B000DD,903.25,1.6321555,0.25
E28011606000020612AFC4ED,923.25,1.2640002,0.25
E28011606000020612B000AD,923.25,6.0009327,0.4375
E28011606000020612B0004D,923.25,6.21569,0.1875
E28011606000020612AF523C,921.75,0.42951462,-0.25
E28011606000020612B0006D,921.75,0.65040785,0.0
E28011606000020612B0009D,921.75,0.31293207,0.375
E28011606000020612AFC4CD,921.75,0.46633017,0.125
E28011606000020612B0007D,921.75,4.9762335,0.1875
E28011606000020612AFC4ED,921.75,1.6996508,-0.0625
E28011606000020612B0008D,921.75,0.31293207,0.375
E28011606000020612AF528C,921.75,4.2092433,0.25
E28011606000020612B000DD,921.75,5.9579816,0.0
E28011606000020612AF527C,921.75,0.6565438,0.1875
E28011606000020612B0005D,921.75,0.8222137,0.25
E28011606000020612AFC4FD,921.75,6.1911464,0.0625
E28011606000020612B000CD,912.75,6.252506,0.5625
E28011606000020612B0001D,912.75,6.0254765,0.125
E28011606000020612B0002D,912.75,4.9394183,-0.0625
E28011606000020612B000BD,912.75,5.8598065,0.125
E28011606000020612AFC4DD,912.75,1.8837284,0.0
E28011606000020612AF540B,919.75,0.17180584,-0.125
E28011606000020612B000AD,919.75,1.4848934,0.25
E28011606000020612B0004D,919.75,0.43565056,-0.0625
E28011606000020612B0000D,919.75,5.516195,0.0625
E28011606000020612B0007D,919.75,0.57064086,0.0625
E28011606000020612B0000D,925.75,4.092661,0.1875
E28011606000020612B000CD,925.75,1.2517283,0.25
E28011606000020612AF528C,925.75,4.706253,0.25
E28011606000020612B0001D,925.75,1.036971,0.0625
E28011606000020612B0002D,925.75,5.8720784,0.25
E28011606000020612AFC4DD,925.75,6.05002,0.4375
E28011606000020612B0006D,925.75,0.4049709,0.1875
E28011606000020612AFC4ED,925.75,5.657321,0.1875
E28011606000020612AF527C,925.75,5.651185,0.0625
E28011606000020612B0009D,925.75,1.2149128,0.0625
E28011606000020612B000AD,925.75,5.927302,0.1875
E28011606000020612B000DD,925.75,6.2709136,0.375
E28011606000020612B0008D,925.75,1.1474177,0.0625
E28011606000020612AFC4FD,925.75,0.90811664,0.125
E28011606000020612AF540B,925.75,4.307418,0.5
E28011606000020612B0005D,916.75,6.05002,0.0
E28011606000020612B000BD,916.75,1.116738,0.125
E28011606000020612AF52FC,916.75,4.0128937,0.0625
E28011606000020612AFC4CD,916.75,5.577554,0.1875
E28011606000020612B0004D,916.75,5.9947968,-0.5625
E28011606000020612AF523C,907.75,0.53382534,0.0625
E28011606000020612B000CD,907.75,4.534447,0.625
E28011606000020612B0001D,907.75,0.96947587,0.5625
E28011606000020612B0007D,907.75,2.8470683,0.5625
E28011606000020612B0000D,907.75,0.7363108,0.1875
E28011606000020612AF528C,907.75,0.7485826,0.25
E28011606000020612B0002D,907.75,5.7248163,0.0625
E28011606000020612AF52FC,907.75,6.0254765,-0.25
E28011606000020612B000AD,907.75,5.3934765,0.1875
E28011606000020612B000DD,907.75,0.0,0.5
E28011606000020612AFC4ED,907.75,5.976389,0.0
E28011606000020612B0006D,907.75,0.44178647,0.375
E28011606000020612AFC4DD,907.75,6.234098,0.0625
E28011606000020612B0005D,911.75,4.000622,0.0625
E28011606000020612B0008D,911.75,0.398835,0.375
E28011606000020612AF527C,911.75,1.7916895,0.1875
E28011606000020612B000BD,911.75,5.276894,-0.0625
E28011606000020612B0004D,911.75,6.0070686,-0.25
E28011606000020612AF540B,911.75,0.9142526,0.125
E28011606000020612B0009D,911.75,0.50928164,0.5
E28011606000020612AFC4FD,911.75,0.9633399,0.125
E28011606000020612AFC4CD,911.75,0.30066022,0.125
E28011606000020612B0009D,914.75,2.0248547,0.0
E28011606000020612AFC4CD,914.75,1.8591847,0.4375
E28011606000020612B000CD,914.75,5.773904,0.5
E28011606000020612B0005D,914.75,5.5468745,0.0625
E28011606000020612B0006D,914.75,5.4671073,0.25
E28011606000020612B0001D,914.75,5.5468745,0.125
E28011606000020612AFC4FD,914.75,1.2394565,0.0625
E28011606000020612AFC4ED,924.25,1.0246992,0.25
E28011606000020612B000DD,924.25,2.1721168,0.5
E28011606000020612B0000D,924.25,4.5221753,0.125
E28011606000020612AF528C,924.25,0.57064086,0.1875
E28011606000020612AFC4DD,924.25,5.7002726,0.0625
E28011606000020612B0008D,924.25,6.0377483,0.0625
E28011606000020612B000AD,921.25,0.77926224,0.1875
E28011606000020612B0004D,921.25,0.0,0.0
E28011606000020612AF527C,921.25,0.8099418,0.0
E28011606000020612B0007D,921.25,2.1414373,0.0625
E28011606000020612B000BD,921.25,0.44792238,-0.125
E28011606000020612AF540B,918.75,0.43565056,0.0625
E28011606000020612B0002D,918.75,0.53382534,0.5625
E28011606000020612AFC4CD,918.75,1.1474177,0.25
E28011606000020612B0009D,918.75,1.030835,-0.0625
E28011606000020612B0005D,918.75,4.6387577,0.1875
E28011606000020612B0008D,918.75,0.67495155,0.0
E28011606000020612AFC4ED,918.75,5.61437,0.1875
E28011606000020612AFC4FD,904.75,6.1911464,0.1875
E28011606000020612B0006D,904.75,4.8166995,0.1875
E28011606000020612B000CD,904.75,1.5339808,0.125
E28011606000020612AF528C,904.75,4.9210105,0.1875
E28011606000020612AFC4DD,904.75,4.246059,0.5
E28011606000020612B0007D,904.75,1.036971,-0.125
E28011606000020612B000BD,904.75,1.0615147,0.5
E28011606000020612B0001D,904.75,1.7916895,0.0625
E28011606000020612B0002D,904.75,0.9142526,0.125
E28011606000020612B0004D,909.75,0.38656315,0.0625
E28011606000020612B0000D,909.75,1.276272,0.0
E28011606000020612B000AD,909.75,1.7732818,-0.0625
E28011606000020612AF527C,909.75,4.381049,-0.125
E28011606000020612AF540B,909.75,0.41724277,0.0625
E28011606000020612B0000D,910.75,0.22089323,0.875
E28011606000020612B0007D,910.75,5.460972,0.375
E28011606000020612B0008D,910.75,0.5767768,0.1875
E28011606000020612B0001D,910.75,0.38042724,0.25
E28011606000020612B0009D,910.75,3.8165443,0.25
E28011606000020612AFC4CD,910.75,0.6933593,0.125
E28011606000020612AF527C,910.75,1.834641,0.625
E28011606000020612B000DD,910.75,2.6077673,0.75
E28011606000020612AF528C,910.75,0.36201948,0.875
E28011606000020612B0002D,910.75,5.3137093,0.125
E28011606000020612AFC4ED,910.75,2.1721168,0.125
E28011606000020612B0006D,910.75,6.1297874,0.1875
E28011606000020612AFC4DD,910.75,5.6880007,0.125
E28011606000020612B000CD,910.75,4.0435734,0.5
E28011606000020612AFC4FD,910.75,1.1106021,0.125
E28011606000020612B0005D,926.75,0.6565438,0.1875
E28011606000020612AF540B,926.75,4.068117,0.1875
E28011606000020612B000AD,926.75,5.835263,0.1875
E28011606000020612B000BD,926.75,6.1788745,0.1875
E28011606000020612AF52FC,926.75,5.2400784,0.25
E28011606000020612B0004D,926.75,6.1911464,-0.1875
E28011606000020612B0000D,926.75,3.9331267,0.1875
E28011606000020612B0001D,926.75,0.8713011,0.5
E28011606000020612AF540B,926.75,4.0558453,0.25
E28011606000020612B0007D,926.75,5.602098,0.625
E28011606000020612B0008D,913.25,0.159534,0.0
E28011606000020612AFC4CD,913.25,0.09203885,0.125
E28011606000020612B000DD,913.25,2.1414373,0.5625
E28011606000020612B0006D,913.25,5.7923117,0.125
E28011606000020612B000CD,913.25,0.45405832,0.5
E28011606000020612AF528C,913.25,0.030679615,0.5
E28011606000020612B0009D,913.25,0.17794177,0.1875
E28011606000020612B0002D,913.25,4.8351073,0.375
E28011606000020612AFC4DD,913.25,2.000311,0.5
E28011606000020612B0004D,913.25,0.024543693,0.9375
E28011606000020612AF527C,913.25,1.59534,0.5
E28011606000020612AFC4ED,913.25,1.7119225,0.25
E28011606000020612B0005D,913.25,0.42951462,0.0625
E28011606000020612AFC4FD,913.25,0.60132045,0.1875
E28011606000020612B000AD,913.25,4.4853597,0.0625
E28011606000020612AF52FC,913.25,4.6571655,0.1875
E28011606000020612B000BD,914.25,1.6076119,0.0625
E28011606000020612B000CD,914.25,5.902758,0.25
E28011606000020612B0005D,914.25,5.7923117,0.0625
E28011606000020612AFC4FD,914.25,1.3192235,0.5625
E28011606000020612B0007D,914.25,1.3253593,0.0
E28011606000020612B0001D,914.25,5.7248163,0.1875
E28011606000020612B0006D,914.25,2.3868742,0.125
E28011606000020612B0009D,914.25,2.0984857,0.5625
E28011606000020612AFC4CD,914.25,5.1419034,0.0625
E28011606000020612AFC4ED,914.25,3.7306414,0.0625
E28011606000020612AF528C,919.25,5.0007772,0.125
E28011606000020612B0008D,919.25,0.54609716,0.0625
E28011606000020612B0004D,919.25,0.398835,0.25
E28011606000020612B000AD,919.25,5.1541753,0.25
E28011606000020612AF527C,919.25,1.515573,0.0625
E28011606000020612AF540B,919.25,6.24637,0.0
E28011606000020612B000BD,906.75,0.82834965,0.125
E28011606000020612B0002D,906.75,0.4233787,0.0
E28011606000020612AF523C,906.75,6.252506,0.0
E28011606000020612AFC4DD,906.75,0.2699806,-0.125
E28011606000020612B0006D,902.75,5.0682726,0.1875
E28011606000020612B000CD,902.75,1.9880391,0.1875
E28011606000020612B0002D,902.75,1.601476,-0.0625
E28011606000020612AFC4FD,902.75,3.423845,0.75
E28011606000020612AFC4CD,903.75,6.24637,0.1875
E28011606000020612B0005D,903.75,1.6628351,0.4375
E28011606000020612B0009D,903.75,4.6510296,0.0625
E28011606000020612AF528C,903.75,5.276894,0.1875
E28011606000020612B0001D,903.75,1.9941751,0.125
E28011606000020612AF523C,903.75,0.7485826,0.125
E28011606000020612B0007D,903.75,1.3008157,0.1875
E28011606000020612AFC4DD,903.75,4.6203504,0.0625
E28011606000020612AFC4ED,926.25,0.60132045,0.0625
E28011606000020612AF527C,926.25,5.485515,0.0625
E28011606000020612B000AD,926.25,1.7855537,0.1875
E28011606000020612B0000D,926.25,0.8713011,0.5
E28011606000020612AFC4ED,926.25,5.516195,0.25
E28011606000020612B0006D,926.25,0.2945243,0.125
E28011606000020612AF528C,926.25,4.6203504,0.4375
E28011606000020612AFC4FD,917.75,5.663457,0.5
E28011606000020612B000CD,917.75,5.8536706,0.25
E28011606000020612B0007D,917.75,0.9510681,0.125
E28011606000020612B0002D,917.75,0.8406215,0.125
E28011606000020612B0005D,917.75,5.7125444,0.1875
E28011606000020612B0009D,917.75,2.3316507,0.1875
E28011606000020612AF527C,917.75,0.8406215,0.1875
E28011606000020612B000DD,917.75,1.4173982,0.375
E28011606000020612AFC4CD,917.75,5.5284667,0.0625
E28011606000020612B0008D,917.75,5.669593,0.1875
E28011606000020612B000AD,917.75,1.1780972,0.1875
E28011606000020612AF540B,917.75,6.1236515,-0.1875
E28011606000020612B0001D,917.75,5.3996124,0.0625
E28011606000020612B000BD,922.25,4.147884,0.4375
E28011606000020612AFC4DD,922.25,0.2883884,0.5625
E28011606000020612B0004D,922.25,4.387185,0.375
E28011606000020612AF52FC,922.25,6.068428,-0.1875
E28011606000020612AF528C,922.25,5.1357675,0.5
E28011606000020612B000CD,911.25,0.80380595,0.625
E28011606000020612B0007D,911.25,2.2518837,0.0625
E28011606000020612B0006D,911.25,6.056156,0.125
E28011606000020612AFC4ED,911.25,5.197127,0.4375
E28011606000020612B0009D,911.25,3.755185,0.0625
E28011606000020612B000AD,911.25,4.8166995,0.25
E28011606000020612AFC4DD,911.25,5.5346026,0.4375
E28011606000020612B0000D,911.25,0.12271846,0.25
E28011606000020612B0001D,911.25,0.31293207,0.0
E28011606000020612AF527C,911.25,1.834641,0.125
E28011606000020612AF540B,911.25,0.77926224,0.125
E28011606000020612B0002D,911.25,2.06167,0.125
E28011606000020612B0008D,911.25,0.52155346,0.25
E28011606000020612AFC4FD,911.25,1.0921943,0.0625
E28011606000020612AFC4CD,911.25,0.6074564,0.1875
E28011606000020612B0005D,911.25,0.9510681,0.125
E28011606000020612B000DD,911.25,5.6941366,0.375
E28011606000020612AF52FC,911.25,5.160311,-0.1875
E28011606000020612B000BD,908.75,5.835263,0.0
E28011606000020612B0004D,908.75,0.62586415,2.125
E28011606000020612B0009D,908.75,0.41110685,0.25
E28011606000020612B0001D,908.75,0.8713011,0.125
E28011606000020612B0006D,908.75,0.54609716,0.25
E28011606000020612AFC4CD,908.75,5.503923,0.5
E28011606000020612AFC4DD,908.75,6.05002,0.25
E28011606000020612B000CD,908.75,3.8656316,0.0625
E28011606000020612B0008D,908.75,5.927302,0.25
E28011606000020612AFC4FD,908.75,5.424156,0.25
E28011606000020612B0005D,908.75,0.7485826,0.1875
E28011606000020612AFC4ED,923.75,1.1044662,0.5625
E28011606000020612B0007D,923.75,0.9510681,-0.0625
E28011606000020612AF528C,923.75,4.0313015,0.125
E28011606000020612B000DD,923.75,5.3750687,0.0
E28011606000020612AF527C,923.75,0.06135923,0.125
