-35.5,0.0,6.5
-35.5,0.0,5.6875
-35.5,0.03681553890925571,2.4375
-36.0,0.0,1.625
-36.0,0.006135923151542322,0.8125
-36.0,-0.04908738521234035,6.5
-35.5,0.024543692606170175,1.625
-36.0,-0.006135923151542322,4.875
-36.0,0.024543692606170175,0.0
-36.0,-0.024543692606170175,5.6875
-36.0,0.07363107781851053,-6.5
-35.5,-0.07363107781851053,4.875
-36.0,0.030679615757712497,0.0
-36.0,-0.04908738521234035,6.5
-36.0,0.0,8.125
-35.5,0.04908738521234035,1.625
-36.0,-0.024543692606170175,4.875
-35.5,-0.012271846303085532,6.5
-36.0,0.030679615757713385,1.625
-36.0,-0.024543692606170175,4.875
-35.5,0.012271846303084644,4.875
-36.0,0.0,4.875
-35.5,-0.024543692606170175,8.9375
-35.5,0.04295146206079803,0.8125
-36.0,-0.030679615757712497,5.6875
-35.5,0.030679615757712497,-0.8125
-35.5,-0.006135923151542322,4.875
-35.5,0.006135923151542322,0.8125
-35.5,-0.030679615757712497,5.6875
-35.5,0.006135923151542322,7.3125
-35.5,0.0,6.5
-35.5,-0.006135923151542322,7.3125
-35.5,0.030679615757712497,4.875
-35.5,0.006135923151542322,4.875
-35.5,-0.006135923151542322,3.25
-35.5,-0.012271846303085532,7.3125
-35.5,0.024543692606170175,1.625
-35.5,-0.018407769454626965,6.5
-35.5,0.006135923151542322,3.25
-35.5,-0.012271846303085532,8.125
-35.5,0.030679615757713385,1.625
-35.5,-0.024543692606170175,8.125
-35.5,0.006135923151542322,7.3125
-35.5,0.030679615757712497,2.4375
-35.5,-0.04295146206079803,8.125
-35.5,0.030679615757713385,4.875
-35.5,0.012271846303084644,1.625
-35.5,-0.006135923151542322,5.6875
-35.5,-0.018407769454627854,7.3125
-35.5,0.03681553890925571,2.4375
-35.5,-0.030679615757713385,4.875
-35.5,0.00613592315154321,6.5
-35.5,0.04908738521234035,0.0
-35.5,-0.06135923151542588,7.3125
-35.5,0.030679615757713385,4.875
-35.5,0.012271846303084644,0.0
-35.5,-0.03681553890925571,7.3125
-35.5,0.00613592315154321,4.875
-35.5,-0.00613592315154321,8.125
-35.5,0.024543692606171064,3.25
-35.5,-0.018407769454627854,4.875
-35.5,0.006135923151542322,4.875
-35.5,0.006135923151542322,3.25
-35.5,-0.018407769454627854,5.6875
-36.0,0.024543692606171064,0.8125
-35.5,-0.030679615757713385,7.3125
-36.0,-0.018407769454627854,6.5
-35.5,0.03681553890925571,0.8125
-35.5,-0.012271846303085532,5.6875
-35.5,-0.006135923151542322,3.25
-36.0,0.018407769454627854,2.4375
-35.5,-0.012271846303085532,5.6875
-35.5,0.00613592315154321,3.25
-35.5,0.0,5.6875
-35.5,0.024543692606170175,2.4375
-35.5,-0.024543692606170175,2.4375
-35.5,-0.018407769454627854,6.5
-35.5,0.04295146206079803,1.625
-35.5,-0.006135923151542322,1.625
-35.5,-0.00613592315154321,4.875
-35.5,0.012271846303085532,1.625
-35.5,-0.018407769454627854,2.4375
-35.5,0.018407769454627854,0.0
-35.5,-0.030679615757713385,8.9375
-35.5,0.018407769454627854,3.25
-35.5,0.024543692606170175,2.4375
-35.5,-0.012271846303084644,4.875
-35.5,0.006135923151542322,3.25
-35.5,0.012271846303085532,0.8125
-35.5,-0.03681553890925571,8.9375
-35.5,0.024543692606170175,5.6875
-35.5,-0.024543692606170175,8.125
-35.5,0.018407769454627854,7.3125
-35.5,0.03681553890925482,0.8125
-35.5,-0.018407769454626965,3.25
-35.5,0.024543692606170175,2.4375
-35.0,-0.018407769454627854,6.5
-35.5,0.006135923151542322,5.6875
-35.5,0.006135923151542322,6.5
-35.5,0.0,5.6875
-35.0,0.00613592315154321,4.875
-35.5,0.0,8.125
-35.5,0.024543692606170175,3.25
-35.5,-0.018407769454627854,3.25
-35.5,0.018407769454627854,3.25
-35.5,0.0,3.25
-35.5,-0.024543692606170175,8.125
-35.5,0.024543692606170175,8.125
-35.5,0.030679615757712497,3.25
-35.5,0.012271846303085532,2.4375
-35.5,0.012271846303084644,0.8125
-35.5,-0.006135923151542322,2.4375
-35.5,0.006135923151542322,2.4375
-35.5,-0.012271846303084644,5.6875
-35.5,0.030679615757712497,1.625
-35.5,-0.006135923151542322,5.6875
-35.5,0.0,4.875
-35.5,0.018407769454627854,2.4375
-35.5,0.012271846303084644,2.4375
-35.5,-0.006135923151542322,8.125
-35.5,0.0,6.5
-36.0,0.012271846303084644,4.875
-35.5,0.024543692606171064,3.25
-35.5,0.018407769454626965,3.25
-35.5,0.018407769454627854,0.0
-35.5,-0.03681553890925482,7.3125
-35.5,0.030679615757712497,5.6875
-35.5,0.012271846303085532,6.5
-35.5,0.030679615757712497,1.625
-35.5,-0.024543692606170175,8.9375
-35.5,0.030679615757712497,7.3125
-35.5,0.024543692606170175,5.6875
-35.5,-0.012271846303084644,7.3125
-36.0,0.04908738521234035,3.25
-35.5,0.0,3.25
-35.5,0.018407769454627854,4.875
-36.0,0.024543692606170175,1.625
-35.5,-0.012271846303085532,6.5
-36.0,0.04908738521234035,0.0
-36.0,-0.024543692606170175,6.5
-36.0,0.030679615757713385,5.6875
-36.0,0.024543692606170175,2.4375
-36.0,0.04908738521234035,1.625
-36.0,0.0,0.8125
-36.0,0.006135923151542322,2.4375
-36.5,-0.012271846303084644,6.5
-36.0,0.03681553890925482,4.875
-36.0,-6.240233845118788,0.0
-36.0,6.252505691421874,5.6875
-36.0,-6.2463697682703305,0.8125
-36.0,-0.01227184630308513,8.125
-36.0,0.030679615757712823,3.25
-36.0,0.006135923151542565,4.875
-36.0,0.01227184630308513,4.875
-36.0,0.018407769454627687,3.25
-36.0,-0.012271846303085122,6.5
-36.0,-0.01227184630308513,7.3125
-36.0,0.0,6.5
-36.5,-0.018407769454627694,8.9375
-36.0,0.018407769454627694,4.875
-36.5,0.0,8.125
-36.0,0.018407769454627694,6.5
-36.0,0.0184077694546277,1.625
-36.5,-0.012271846303085143,5.6875
-36.5,0.006135923151542572,3.25
-36.5,0.01227184630308513,1.625
-36.5,0.0,5.6875
-36.5,0.0,5.6875
-36.0,0.006135923151542558,1.625
-36.5,-0.006135923151542558,7.3125
-36.5,0.006135923151542558,6.5
-36.0,0.0,4.875
-36.5,0.0,2.4375
-36.0,0.006135923151542572,2.4375
-36.0,-0.006135923151542572,3.25
-36.0,-0.018407769454627687,8.125
-36.0,0.02454369260617026,1.625
-36.5,-0.018407769454627687,6.5
-36.0,0.0,3.25
-36.5,0.006135923151542558,5.6875
-36.0,-0.006135923151542558,8.125
-36.0,0.018407769454627687,4.875
-36.0,0.01227184630308513,2.4375
-36.0,-0.0184077694546277,6.5
-36.0,0.02454369260617026,2.4375
-36.0,0.0,4.875
-36.0,-0.012271846303085115,5.6875
-36.0,0.012271846303085115,7.3125
-36.0,-0.012271846303085115,7.3125
-36.0,0.018407769454627687,6.5
-36.0,0.02454369260617026,3.25
-36.0,-0.006135923151542572,6.5
-36.0,0.012271846303085143,5.6875
-35.5,0.012271846303085115,5.6875
-35.5,0.0,8.125
-35.5,0.006135923151542572,8.125
-36.0,0.0,9.75
-35.5,0.03067961575771283,6.5
-35.5,0.012271846303085115,7.3125
-36.0,0.012271846303085143,8.9375
-35.5,0.02454369260617023,4.875
-35.5,0.006135923151542599,8.125
-35.5,0.03067961575771283,4.875
-35.5,0.006135923151542544,4.875
-35.5,0.0,7.3125
-35.5,0.03067961575771283,7.3125
-35.5,0.006135923151542544,8.125
-35.5,0.018407769454627687,7.3125
-35.0,0.012271846303085143,8.125
-35.5,0.018407769454627687,3.25
-35.0,0.006135923151542599,3.25
-35.0,0.0,9.75
-35.5,0.02454369260617023,5.6875
-35.5,0.012271846303085143,7.3125
-35.5,0.006135923151542544,8.125
-35.0,0.018407769454627687,5.6875
-35.5,-0.012271846303085088,10.5625
-35.5,0.04908738521234052,0.8125
-35.0,-0.012271846303085143,6.5
-35.0,0.006135923151542544,6.5
-35.5,0.006135923151542599,6.5
-35.0,0.006135923151542544,8.9375
-35.5,0.024543692606170286,5.6875
-35.0,0.006135923151542544,6.5
-35.5,-0.018407769454627743,9.75
-35.5,0.03067961575771283,6.5
-35.5,-0.012271846303085088,9.75
-35.5,0.03067961575771283,2.4375
-35.0,0.006135923151542544,5.6875
-35.5,-0.006135923151542544,6.5
-35.5,0.012271846303085088,5.6875
-35.5,-0.006135923151542544,7.3125
-35.5,0.0,10.5625
-35.5,-0.006135923151542544,8.9375
-35.5,0.006135923151542544,9.75
-35.0,0.03067961575771283,7.3125
-35.5,0.006135923151542544,5.6875
-35.0,0.024543692606170286,3.25
-35.5,-0.012271846303085088,4.875
-35.5,0.024543692606170175,2.4375
-35.5,-0.01840776945462763,5.6875
-35.0,0.006135923151542544,8.125
-35.0,0.0,8.125
-35.0,0.03067961575771283,3.25
-35.5,0.0,2.4375
-35.5,-0.018407769454627743,7.3125
-35.0,-0.006135923151542544,9.75
-35.5,0.006135923151542544,9.75
-35.5,0.036815538909255374,4.875
-35.5,-0.036815538909255374,9.75
-35.5,0.018407769454627743,7.3125
-35.5,0.036815538909255374,2.4375
-35.5,-0.018407769454627743,5.6875
-35.5,0.006135923151542655,6.5
-35.5,0.01840776945462763,4.875
-35.0,-0.006135923151542544,2.4375
-35.5,0.006135923151542544,7.3125
-35.5,0.04295146206079792,-0.8125
-35.5,-0.055223308363883006,8.125
-35.0,0.04908738521234046,0.8125
-35.5,-0.01840776945462763,5.6875
-35.0,0.03067961575771283,2.4375
-35.5,-0.024543692606170286,7.3125
-35.5,0.006135923151542544,3.25
-35.5,-0.012271846303085088,8.125
-35.5,0.03067961575771283,2.4375
-35.5,0.012271846303085088,0.8125
-35.5,0.018407769454627743,-0.8125
-35.5,-0.04295146206079803,6.5
-35.5,0.024543692606170286,1.625
-35.5,0.018407769454627743,2.4375
-35.5,0.012271846303085088,0.0
-35.5,-0.012271846303085088,4.875
-35.5,0.04295146206079792,-0.8125
-35.5,-0.018407769454627743,3.25
-35.5,0.0,6.5
-35.5,0.03067961575771283,3.25
-35.5,0.006135923151542655,5.6875
-35.0,0.036815538909255374,0.8125
-35.0,-0.012271846303085199,4.875
-35.0,0.012271846303085199,3.25
-35.0,0.006135923151542544,6.5
-35.0,0.03067961575771283,4.875
-35.0,0.04295146206079792,0.0
-35.0,0.012271846303085088,4.875
-35.0,-0.006135923151542544,7.3125
-35.0,0.04295146206079792,7.3125
-35.0,0.024543692606170397,5.6875
-35.0,0.03067961575771272,4.875
-35.0,0.024543692606170175,4.875
-35.0,0.006135923151542766,3.25
-34.5,0.024543692606170175,6.5
-35.0,0.024543692606170175,3.25
-35.0,0.01227184630308531,7.3125
-35.0,0.01840776945462763,8.125
-35.0,0.0,10.5625
-35.0,0.06135923151542566,2.4375
-35.0,0.006135923151542544,5.6875
-35.0,-0.006135923151542544,9.75
-35.5,0.024543692606170175,6.5
-35.5,0.0,7.3125
-35.5,0.036815538909255485,8.125
-35.5,0.024543692606170175,3.25
-35.5,-0.03681553890925526,8.9375
-35.5,0.04908738521234035,5.6875
-35.5,0.0,3.25
-35.5,0.018407769454627854,3.25
-35.5,-0.03067961575771294,9.75
-35.5,0.04908738521234057,5.6875
-35.5,-0.01840776945462763,7.3125
-35.5,0.012271846303085088,6.5
-36.0,0.006135923151542544,3.25
-36.0,0.006135923151542544,8.125
-36.0,0.01840776945462763,5.6875
-36.0,-0.012271846303085088,7.3125
-36.0,0.024543692606170175,5.6875
-36.0,0.006135923151542544,4.875
-36.0,-0.01840776945462763,8.125
-36.0,0.03067961575771294,7.3125
-36.0,-0.01227184630308531,8.9375
-36.0,0.018407769454627854,5.6875
-36.0,-0.006135923151542544,8.125
-36.0,0.07363107781851075,-2.4375
-36.5,-0.05522330836388312,8.125
-36.5,0.024543692606170175,5.6875
-36.5,0.006135923151542544,8.125
-36.5,0.036815538909255485,3.25
-36.5,-0.036815538909255485,10.5625
-36.5,0.07976700097005351,-0.8125
-37.0,-0.01227184630308531,1.625
-37.0,-0.0674951546669682,11.375
-37.0,0.04295146206079803,8.125
-37.0,0.01840776945462763,5.6875
-37.0,0.018407769454627854,5.6875
-37.0,0.0,7.3125
-37.0,0.01840776945462763,5.6875
-37.5,0.006135923151542544,6.5
-37.0,-0.012271846303085088,7.3125
-37.5,0.04295146206079781,6.5
-37.5,-0.006135923151542544,7.3125
-37.5,0.018407769454627854,3.25
-37.5,0.03681553890925526,3.25
-37.5,0.03067961575771294,-0.8125
-37.5,-0.03067961575771294,3.25
-37.5,0.012271846303085088,5.6875
-38.0,-0.012271846303085088,8.9375
-38.0,0.04295146206079803,4.875
-38.0,0.03067961575771272,3.25
-38.0,-0.055223308363882895,12.1875
-38.0,0.04908738521234035,7.3125
-38.0,0.0,8.125
-38.0,0.024543692606170397,7.3125
-38.0,0.0,5.6875
-38.0,0.0,8.9375
-38.5,0.01840776945462763,7.3125
-38.5,0.04295146206079803,1.625
-38.5,0.0,0.0
-39.0,-0.04295146206079803,10.5625
-38.5,0.04908738521234057,2.4375
-39.0,-0.01227184630308531,4.875
-38.5,-0.012271846303085088,5.6875
-39.0,0.03067961575771294,5.6875
-39.0,-0.006135923151542544,6.5
-39.0,0.012271846303085088,4.875
-39.0,0.006135923151542544,4.875
-39.0,-0.01840776945462763,6.5
-39.5,0.024543692606170175,1.625
-39.5,-0.024543692606170175,3.25
-39.0,-0.018407769454627854,3.25
-39.5,0.024543692606170397,2.4375
-39.5,0.006135923151542544,-0.8125
-39.5,-0.036815538909255485,2.4375
-40.0,-0.04295146206079781,8.9375
-40.0,0.07363107781851075,-0.8125
-40.0,-0.04908738521234057,3.25
-40.0,-0.036815538909255485,3.25
-40.0,-0.012271846303085088,4.875
-40.5,-0.024543692606170175,2.4375
-40.5,-0.03067961575771294,4.875
-40.5,-0.03681553890925526,2.4375
-40.5,-0.01840776945462763,0.8125
-41.0,-0.08590292412159606,4.875
-41.0,-0.03681553890925526,8.125
-40.5,-0.01227184630308531,0.0
-40.5,-0.1227184630308511,7.3125
-40.0,-0.01227184630308531,-1.625
-40.0,-0.14112623248547895,6.5
-40.0,-0.05522330836388312,8.9375
-40.0,-0.06135923151542566,6.5
-39.5,-0.0674951546669682,5.6875
-40.0,-0.0674951546669681,0.8125
-40.5,-0.07363107781851075,-4.875
-40.0,-0.12885438618239387,0.8125
-39.5,-0.1472621556370216,1.625
-39.5,-0.08590292412159584,4.875
-39.0,-0.061359231515425716,-1.625
-38.5,-0.10431069357622358,2.4375
-38.5,-0.0674951546669682,1.625
-38.5,-0.09203884727313849,2.4375
-38.0,-0.07363107781851076,0.8125
-38.0,-0.0859029241215959,1.625
-37.5,-0.02454369260617026,-0.8125
-37.0,6.240233845118788,-1.625
-36.5,-0.018407769454627854,-3.25
-36.5,-0.07363107781851053,1.625
-36.0,-0.012271846303085532,-0.8125
-35.5,-0.04295146206079714,6.5
-35.0,-0.018407769454627854,5.6875
-35.0,-0.024543692606170175,5.6875
-35.0,0.0,4.875
-34.5,0.012271846303084644,0.0
-34.5,-0.04295146206079803,4.875
-34.5,0.0,3.25
-34.0,0.00613592315154321,0.0
-34.0,-0.04295146206079803,4.875
-34.0,-0.00613592315154321,2.4375
-33.5,-0.018407769454626965,1.625
-33.5,-0.030679615757713385,3.25
-33.5,0.012271846303085532,1.625
-33.5,-0.018407769454627854,4.875
-33.0,-0.006135923151542322,0.8125
-33.0,-0.012271846303085532,1.625
-33.0,-0.024543692606170175,1.625
-33.0,0.006135923151542322,0.0
-32.5,-0.03681553890925482,2.4375
-32.5,-0.018407769454627854,3.25
-32.5,-0.00613592315154321,0.8125
-32.5,-0.018407769454626965,1.625
-32.0,-0.024543692606170175,0.8125
-31.5,-0.00613592315154321,-0.8125
-31.5,-0.024543692606170175,0.0
-31.5,-0.006135923151542322,-1.625
-31.5,-0.06135923151542588,4.875
-31.5,0.0,-0.8125
-31.5,-0.006135923151542322,-2.4375
-31.0,-0.0674951546669682,2.4375
-31.5,0.0,2.4375
-31.0,-0.024543692606170175,1.625
-31.0,-0.006135923151542322,0.8125
-31.0,-0.030679615757713385,0.0
-31.0,-0.018407769454627854,-0.8125
-31.0,-0.018407769454626965,0.0
-31.0,-0.012271846303085532,-0.8125
-30.5,-0.03681553890925571,0.8125
-30.5,-0.012271846303084644,0.8125
-30.5,-0.006135923151542322,-0.8125
-30.5,-0.030679615757713385,1.625
-30.0,0.0,0.0
-30.0,-0.012271846303084644,0.8125
-30.0,-0.024543692606170175,2.4375
-30.0,-0.00613592315154321,0.8125
-30.0,-0.012271846303084644,2.4375
-30.0,-0.00613592315154321,1.625
-29.5,-0.006135923151542322,2.4375
-30.0,-0.012271846303084644,2.4375
-29.5,-0.012271846303085532,4.875
-29.5,0.0,3.25
-29.5,0.030679615757712497,-0.8125
-29.5,-0.03681553890925482,4.875
-30.0,0.018407769454627854,1.625
-30.0,-0.018407769454627854,4.875
-29.5,-0.012271846303085532,4.875
-29.5,0.00613592315154321,1.625
-29.5,0.0,2.4375
-29.5,0.006135923151542322,1.625
-30.0,0.0,0.8125
-29.5,-0.006135923151542322,3.25
-29.5,0.0,3.25
-29.5,-0.00613592315154321,2.4375
-29.5,-0.018407769454627854,5.6875
-30.0,0.012271846303085532,3.25
-29.5,0.0,3.25
-29.5,-0.006135923151542322,4.875
-29.5,-0.00613592315154321,6.5
-29.5,0.018407769454627854,1.625
-29.5,0.00613592315154321,1.625
-29.5,0.0,0.8125
-29.5,-0.012271846303085532,2.4375
-29.5,-0.006135923151542322,3.25
-29.5,0.024543692606170175,-0.8125
-29.5,-0.018407769454627854,1.625
-29.5,0.0,1.625
-29.5,-0.018407769454627854,3.25
-29.5,0.012271846303085532,0.8125
-29.5,-0.012271846303085532,2.4375
-29.5,-0.018407769454627854,4.875
-29.5,-0.006135923151542322,4.875
-29.0,-0.012271846303084644,6.5
-29.5,0.018407769454626965,2.4375
-29.5,-0.006135923151542322,1.625
-29.5,-0.024543692606170175,5.6875
-29.0,-0.012271846303085532,5.6875
-29.0,0.00613592315154321,3.25
-29.0,-0.012271846303085532,2.4375
-29.0,0.006135923151542322,1.625
-29.0,-0.024543692606170175,2.4375
-29.0,-0.006135923151542322,3.25
-29.0,-0.012271846303084644,5.6875
-29.0,-0.012271846303085532,1.625
-28.5,-0.018407769454627854,2.4375
-28.5,-0.024543692606170175,3.25
-28.5,-0.018407769454627854,4.875
-28.5,-0.012271846303084644,3.25
-28.5,-0.018407769454627854,3.25
-28.5,-0.024543692606170175,2.4375
-28.0,-0.00613592315154321,0.8125
-28.0,-0.03681553890925482,1.625
-28.0,0.0,-0.8125
-28.5,-0.03681553890925571,1.625
-28.0,-0.006135923151542322,1.625
-28.0,-0.024543692606170175,2.4375
-28.0,-0.012271846303085532,0.8125
-28.5,-0.006135923151542322,0.8125
-28.0,-0.018407769454627854,0.8125
-28.0,-0.018407769454627854,1.625
-28.0,0.0,-2.4375
-28.0,-0.024543692606170175,-0.8125
-28.0,-0.024543692606170175,-0.8125
-28.0,-0.012271846303084644,0.0
-28.0,-0.018407769454627854,0.0
-28.0,0.0,-2.4375
-28.0,-0.03681553890925571,2.4375
-28.0,0.006135923151542322,0.0
-28.0,-0.006135923151542322,0.0
-28.0,-0.018407769454627854,0.8125
-28.0,0.00613592315154321,-0.8125
-28.0,-0.012271846303085532,0.0
-28.0,0.0,-0.8125
-28.0,-0.018407769454627854,0.8125
-28.5,-0.006135923151542322,-0.8125
-28.5,-0.024543692606170175,0.8125
-28.5,0.0,-0.8125
-28.0,0.0,-2.4375
-28.5,-0.012271846303085532,-1.625
-28.5,-0.012271846303084644,0.0
-28.0,0.0,-1.625
-28.0,-0.006135923151542322,-1.625
-28.0,-0.018407769454627854,0.0
-28.0,0.0,-1.625
-28.0,-0.00613592315154321,-1.625
-28.0,0.00613592315154321,-2.4375
-28.0,-0.00613592315154321,-2.4375
-28.0,-0.012271846303084644,-3.25
-28.0,-0.006135923151542322,-3.25
-28.0,-0.00613592315154321,-1.625
-27.5,-0.14726215563702105,-0.8125
-27.5,-0.024543692606170175,2.4375
-27.5,-0.00613592315154321,0.8125
-27.5,-0.006135923151542322,1.625
-27.5,-0.018407769454627854,1.625
-27.5,0.024543692606170175,-2.4375
-27.5,-0.018407769454626965,-1.625
-27.5,0.0,-0.8125
-28.0,-0.018407769454627854,0.0
-27.5,0.0,0.0
-27.5,-0.006135923151542322,0.0
-27.5,-0.00613592315154321,0.8125
-27.5,0.0,0.8125
-27.5,-0.012271846303084644,1.625
-27.5,0.0,0.8125
-27.5,0.006135923151542322,-1.625
-27.5,-0.012271846303085532,0.0
-27.5,-0.024543692606170175,2.4375
-27.5,0.018407769454627854,1.625
-27.5,-0.006135923151542322,0.8125
-27.5,-0.024543692606170175,2.4375
-27.5,0.012271846303084644,1.625
-27.5,0.0,0.0
-27.5,-0.006135923151542322,1.625
-27.5,0.0,0.0
-27.5,-0.006135923151542322,1.625
-27.5,-0.012271846303085532,2.4375
-27.5,0.018407769454627854,0.0
-27.5,-0.018407769454627854,2.4375
-27.5,0.012271846303085532,0.8125
-27.5,0.006135923151542322,-0.8125
-27.5,-0.006135923151542322,-0.8125
-27.5,0.012271846303084644,-1.625
-27.5,-0.006135923151542322,0.0
-27.5,0.006135923151542322,-2.4375
-27.5,-0.018407769454627854,0.8125
-27.5,0.0,0.8125
-27.5,-0.012271846303084644,3.25
-27.5,0.024543692606170175,-0.8125
-27.5,-0.024543692606170175,1.625
-27.5,0.012271846303084644,0.8125
-27.5,-0.006135923151542322,0.8125
-27.5,0.0,0.8125
-27.5,-0.006135923151542322,0.8125
-27.5,0.0,0.8125
-27.5,0.0,1.625
-27.5,-0.012271846303085532,2.4375
-27.5,0.0,0.8125
-27.5,0.00613592315154321,0.0
-27.5,0.0,-0.8125
-28.0,-0.00613592315154321,0.0
-27.5,0.00613592315154321,0.8125
-27.5,0.0,0.0
-27.5,-0.018407769454627854,1.625
-27.5,0.006135923151542322,0.8125
-27.5,-0.018407769454627854,4.875
-27.5,0.012271846303085532,0.8125
-27.5,-0.012271846303085532,3.25
-27.5,0.030679615757713385,-2.4375
-27.5,-0.018407769454627854,0.0
-27.5,-0.006135923151542322,0.0
-27.5,0.012271846303084644,-2.4375
-27.5,-0.024543692606170175,1.625
-27.5,0.0,0.0
-27.5,-0.012271846303085532,0.8125
-27.5,0.00613592315154321,0.0
-27.5,-0.012271846303085532,-0.8125
-27.5,0.0,2.4375
-27.5,0.0,-0.8125
-27.5,-0.012271846303084644,0.8125
-27.5,0.0,-0.8125
-27.5,-0.018407769454627854,1.625
-27.5,0.012271846303084644,0.0
-27.5,0.0,-1.625
-27.5,-0.006135923151542322,0.0
-27.5,-0.006135923151542322,0.8125
-27.5,-0.006135923151542322,0.8125
-27.5,0.006135923151542322,0.0
-27.5,-0.006135923151542322,0.8125
-27.5,-0.00613592315154321,0.8125
-27.5,0.0,0.0
-27.5,-0.006135923151542322,-0.8125
-27.5,0.006135923151542322,-2.4375
-27.5,-0.018407769454627854,2.4375
-27.5,-0.012271846303084644,0.0
-27.5,0.0,2.4375
-27.5,0.012271846303084644,-1.625
-27.5,-0.006135923151542322,-0.8125
-27.5,-0.012271846303084644,0.8125
-27.5,-0.00613592315154321,0.0
-27.5,0.0,1.625
-27.5,0.0,1.625
-27.5,0.00613592315154321,-0.8125
-27.5,-0.024543692606170175,0.8125
-27.5,0.006135923151542322,0.8125
-28.0,0.012271846303084644,-0.8125
-27.5,0.0,-1.625
-27.5,-0.006135923151542322,-0.8125
-27.5,0.006135923151542322,-2.4375
-27.5,-0.024543692606170175,0.8125
-27.5,0.018407769454627854,1.625
-27.5,0.006135923151542322,0.0
-27.5,-0.024543692606170175,4.875
-27.5,0.018407769454627854,0.8125
-27.5,0.006135923151542322,0.8125
-27.5,0.00613592315154321,0.0
-27.5,0.006135923151542322,-0.8125
-27.5,0.0,-0.8125
-28.0,0.0,0.0
-27.5,0.0,0.0
-27.5,0.0,-0.8125
-27.5,0.012271846303084644,-0.8125
-27.5,-0.012271846303084644,2.4375
-27.5,0.012271846303084644,-0.8125
-27.5,0.00613592315154321,0.0
-27.5,-0.00613592315154321,0.8125
-27.5,0.030679615757713385,-2.4375
-28.0,-0.030679615757713385,2.4375
-27.5,0.018407769454627854,1.625
-27.5,-0.006135923151542322,1.625
-27.5,0.0,0.8125
-27.5,0.024543692606170175,-2.4375
-27.5,-0.012271846303084644,-0.8125
-27.5,0.0,0.0
-27.5,0.018407769454626965,-0.8125
-27.5,-0.012271846303084644,1.625
-27.5,-0.006135923151542322,2.4375
-27.5,0.012271846303084644,1.625
-27.5,0.012271846303085532,-1.625
-27.5,-0.024543692606170175,2.4375
-27.5,0.006135923151542322,1.625
-27.5,0.012271846303084644,0.0
-27.5,0.0,-1.625
-27.5,-0.018407769454626965,3.25
-27.5,0.012271846303084644,0.0
-27.5,-0.006135923151542322,1.625
-27.5,0.0,0.8125
-27.5,0.012271846303084644,0.0
-27.5,-0.006135923151542322,1.625
-28.0,0.006135923151542322,-2.4375
-27.5,-0.006135923151542322,1.625
-27.5,0.006135923151542322,0.0
-27.5,-0.006135923151542322,0.8125
-27.5,-0.006135923151542322,0.8125
-27.5,-0.006135923151542322,2.4375
-27.5,0.0,2.4375
-27.5,0.012271846303084644,-0.8125
-27.5,0.006135923151542322,-1.625
-27.5,0.0,-2.4375
-27.5,-0.006135923151542322,0.0
-27.5,-0.006135923151542322,-0.8125
-27.5,-0.006135923151542322,0.8125
-27.5,0.0,1.625
-27.5,0.0,0.8125
-27.5,0.0,2.4375
-27.5,0.024543692606170175,-0.8125
-27.5,-0.012271846303085532,1.625
-27.5,0.012271846303085532,0.0
-27.5,0.0,0.0
-27.5,0.018407769454626965,-0.8125
-27.5,-0.018407769454626965,2.4375
-27.5,0.006135923151542322,3.25
-27.5,0.006135923151542322,0.8125
-27.5,0.024543692606170175,-1.625
-27.5,-0.012271846303084644,0.8125
-27.5,0.006135923151542322,-0.8125
-27.5,0.0,-0.8125
-27.5,-0.006135923151542322,2.4375
-27.5,0.012271846303084644,-0.8125
-27.5,-0.012271846303084644,2.4375
-27.5,0.006135923151542322,1.625
-27.5,-0.006135923151542322,2.4375
-27.5,0.012271846303084644,0.0
-27.5,0.012271846303085532,0.8125
-27.5,-0.006135923151542322,0.0
-27.5,-0.012271846303085532,1.625
-27.5,0.018407769454627854,2.4375
-27.5,-0.006135923151542322,3.25
-27.5,-0.00613592315154321,1.625
-27.5,0.018407769454627854,0.0
-27.5,-0.006135923151542322,1.625
-27.5,0.0,4.875
-27.5,0.018407769454627854,-0.8125
-27.5,0.012271846303084644,-1.625
-27.5,-0.018407769454627854,1.625
-27.5,0.018407769454627854,1.625
-27.5,0.006135923151542322,1.625
-27.5,0.0,2.4375
-27.5,0.012271846303085532,0.8125
-27.5,0.0,2.4375
-27.5,0.0,2.4375
-27.5,0.018407769454627854,0.8125
-27.5,0.006135923151542322,0.8125
-27.5,0.012271846303085532,0.0
-27.5,0.006135923151542322,-0.8125
-27.5,0.0,1.625
-27.5,0.006135923151542322,0.8125
-27.5,0.012271846303085532,0.8125
-27.5,0.024543692606170175,-0.8125
-27.5,0.006135923151542322,-1.625
-28.0,0.006135923151542322,0.0
-27.5,0.024543692606171064,-0.8125
-27.5,-0.00613592315154321,3.25
-27.5,0.03681553890925571,1.625
-28.0,0.030679615757712497,-0.8125
-28.0,0.03681553890925571,-3.25
-28.0,0.012271846303084644,0.0
-28.0,0.06135923151542588,-1.625
-28.0,0.018407769454627854,0.8125
-28.5,0.0674951546669682,-0.8125
-28.0,0.04908738521234035,0.8125
-28.0,0.0674951546669682,0.0
-28.0,0.06135923151542588,3.25
-28.0,0.0674951546669682,3.25
-28.0,0.09203884727313838,3.25
-28.0,0.0981747704246807,0.8125
-28.0,0.06135923151542588,3.25
-28.5,0.06135923151542588,5.6875
-29.0,0.0674951546669682,2.4375
-29.0,0.05522330836388267,4.875
-29.5,0.05522330836388356,2.4375
-29.5,0.04295146206079803,2.4375
-29.5,0.04908738521234035,-1.625
-29.5,0.04908738521234035,-4.875
-29.5,-0.006135923151542322,2.4375
-30.0,0.030679615757712497,0.0
-29.5,0.030679615757713385,-0.8125
-30.0,0.018407769454626965,0.0
-30.0,0.030679615757713385,-0.8125
-30.0,0.006135923151542322,1.625
-30.0,0.030679615757712497,1.625
-30.0,0.030679615757713385,-0.8125
-30.0,0.012271846303084644,0.0
-30.5,0.04295146206079803,-2.4375
-30.5,0.018407769454627854,-0.8125
-30.5,0.018407769454627854,-2.4375
-30.5,0.018407769454627854,-0.8125
-30.5,0.018407769454626965,-0.8125
-30.5,0.018407769454627854,-1.625
-31.0,0.0,0.0
-31.0,0.024543692606170175,-2.4375
-31.0,0.018407769454627854,-2.4375
-31.0,0.00613592315154321,-1.625
-31.0,0.012271846303084644,-3.25
-31.5,-0.006135923151542322,0.0
-31.0,0.018407769454627854,0.0
-31.0,0.0,0.0
-31.0,0.006135923151542322,0.8125
-31.0,0.012271846303084644,-2.4375
-31.0,0.00613592315154321,-1.625
-31.5,-0.00613592315154321,-0.8125
-31.0,-0.012271846303084644,0.0
-31.0,0.024543692606170175,-2.4375
-31.5,-0.006135923151542322,-3.25
-31.0,-0.012271846303085532,-1.625
-31.5,0.006135923151542322,-1.625
-31.5,0.0,-0.8125
-31.5,-0.012271846303084644,0.8125
-31.5,0.018407769454627854,0.0
-31.5,0.018407769454627854,-1.625
-31.5,0.006135923151542322,-0.8125
-31.5,0.024543692606170175,-3.25
-31.5,-0.012271846303085532,-2.4375
-31.5,-0.006135923151542322,-0.8125
-31.5,0.018407769454627854,-3.25
-31.5,-0.006135923151542322,-2.4375
-32.0,-0.012271846303085532,-0.8125
-31.5,-0.012271846303084644,1.625
-31.5,0.018407769454626965,-4.875
-31.5,-0.006135923151542322,-1.625
-31.5,-0.012271846303084644,0.0
-31.5,0.012271846303084644,-1.625
-31.5,-0.012271846303084644,-0.8125
-31.5,0.006135923151542322,-1.625
-31.5,0.0,-0.8125
-31.5,-0.018407769454627854,0.8125
-31.5,0.0,-0.8125
-31.5,0.018407769454627854,-1.625
-31.5,-0.006135923151542322,-2.4375
-31.5,-0.012271846303085532,0.0
-31.5,-0.012271846303085532,0.0
-31.5,0.012271846303085532,-1.625
-31.5,0.0,-2.4375
-31.5,0.0,-0.8125
-31.5,-0.018407769454627854,0.0
-31.5,0.012271846303085532,-1.625
-31.0,-0.012271846303085532,0.0
-31.5,0.006135923151542322,-1.625
-31.5,0.00613592315154321,-1.625
-31.0,-0.012271846303085532,0.0
