000000000000000000AAAAAA,1,1473450866872678,1473450866872678,1,-4.0625,13312,-45.5,865.7,3.3072627
00000000000000000000AAAA,1,1473450866876123,1473450866876123,1,4.875,13312,-38.0,865.7,1.515573
000000AAAAAAAAAAAAAAAA00,1,1473450866877803,1473450866877803,1,1.625,13312,-35.0,865.7,4.061981
00000000000000AAAAAAAA00,1,1473450866879597,1473450866879597,1,7.3125,13312,-38.0,865.7,2.1782527
00000000000000AAAAAAAAAA,1,1473450866881185,1473450866881185,1,-1.625,13312,-39.5,865.7,4.3503695
00000000000000000000AAAA,1,1473450866889300,1473450866889300,1,6.5,13312,-38.0,865.7,1.5033011
000000AAAAAAAAAAAAAAAA00,1,1473450866891996,1473450866891996,1,1.625,13312,-35.5,865.7,4.061981
00000000000000AAAAAAAAAA,1,1473450866894442,1473450866894442,1,2.4375,13312,-39.5,865.7,4.3442335
000000000000000000AAAAAA,1,1473450866895738,1473450866895738,1,4.875,13312,-45.0,865.7,3.2213597
00000000000000AAAAAAAA00,1,1473450866897516,1473450866897516,1,8.125,13312,-38.5,865.7,2.1843886
000000AAAAAAAAAAAAAAAA00,1,1473450866907046,1473450866907046,1,0.0,13312,-35.5,865.7,4.061981
00000000000000000000AAAA,1,1473450866909984,1473450866909984,1,6.5,13312,-38.0,865.7,1.4971652
000000000000000000AAAAAA,1,1473450866911947,1473450866911947,1,5.6875,13312,-45.0,865.7,3.2397673
00000000000000AAAAAAAAAA,1,1473450866913266,1473450866913266,1,2.4375,13312,-39.5,865.7,4.3503695
00000000000000AAAAAAAA00,1,1473450866914948,1473450866914948,1,8.9375,13312,-38.0,865.7,2.1782527
00000000000000AAAAAAAAAA,1,1473450867053013,1473450867053013,1,0.0,13312,-39.5,865.7,4.393321
000000000000000000AAAAAA,1,1473450867055446,1473450867055446,1,7.3125,13312,-45.0,865.7,3.2581751
00000000000000AAAAAAAA00,1,1473450867058146,1473450867058146,1,5.6875,13312,-38.5,865.7,2.1843886
000000AAAAAAAAAAAAAAAA00,1,1473450867060355,1473450867060355,1,5.6875,13312,-35.0,865.7,4.0374374
00000000000000000000AAAA,1,1473450867061870,1473450867061870,1,5.6875,13312,-38.0,865.7,1.5462526
000000AAAAAAAAAAAAAAAA00,1,1473450867069809,1473450867069809,1,-1.625,13312,-35.5,865.7,4.098797
00000000000000000000AAAA,1,1473450867071683,1473450867071683,1,1.625,13312,-38.0,865.7,1.5585245
00000000000000AAAAAAAAAA,1,1473450867072987,1473450867072987,1,-0.8125,13312,-39.5,865.7,4.393321
00000000000000AAAAAAAA00,1,1473450867074823,1473450867074823,1,6.5,13312,-38.5,865.7,2.1782527
000000000000000000AAAAAA,1,1473450867077123,1473450867077123,1,0.0,13312,-45.0,865.7,3.3256702
00000000000000000000AAAA,1,1473450867086756,1473450867086756,1,8.125,13312,-38.0,865.7,1.5462526
00000000000000AAAAAAAAAA,1,1473450867088582,1473450867088582,1,4.875,13312,-39.5,865.7,4.381049
000000AAAAAAAAAAAAAAAA00,1,1473450867090804,1473450867090804,1,1.625,13312,-35.5,865.7,4.074253
000000000000000000AAAAAA,1,1473450867092355,1473450867092355,1,5.6875,13312,-45.0,865.7,3.3011267
00000000000000AAAAAAAA00,1,1473450867093695,1473450867093695,1,6.5,13312,-38.5,865.7,2.1782527
00000000000000000000AAAA,1,1473450867105477,1473450867105477,1,5.6875,13312,-38.0,865.7,1.5462526
00000000000000AAAAAAAAAA,1,1473450867108132,1473450867108132,1,4.0625,13312,-39.5,865.7,4.393321
00000000000000AAAAAAAA00,1,1473450867109457,1473450867109457,1,6.5,13312,-38.5,865.7,2.1721168
000000AAAAAAAAAAAAAAAA00,1,1473450867111789,1473450867111789,1,2.4375,13312,-35.5,865.7,4.068117
000000000000000000AAAAAA,1,1473450867113738,1473450867113738,1,9.75,13312,-45.0,865.7,3.270447
00000000000000AAAAAAAAAA,1,1473450867120882,1473450867120882,1,0.0,13312,-39.5,865.7,4.4301367
00000000000000AAAAAAAA00,1,1473450867125221,1473450867125221,1,8.9375,13312,-38.5,865.7,2.1721168
000000AAAAAAAAAAAAAAAA00,1,1473450867126930,1473450867126930,1,0.8125,13312,-35.5,865.7,4.080389
00000000000000000000AAAA,1,1473450867128264,1473450867128264,1,7.3125,13312,-38.0,865.7,1.5707964
000000000000000000AAAAAA,1,1473450867129586,1473450867129586,1,7.3125,13312,-45.5,865.7,3.282719
00000000000000AAAAAAAAAA,1,1473450867136989,1473450867136989,1,4.0625,13312,-39.5,865.7,4.393321
00000000000000000000AAAA,1,1473450867139215,1473450867139215,1,6.5,13312,-38.0,865.7,1.5646604
000000000000000000AAAAAA,1,1473450867140537,1473450867140537,1,8.9375,13312,-45.5,865.7,3.270447
000000AAAAAAAAAAAAAAAA00,1,1473450867143252,1473450867143252,1,1.625,13312,-35.5,865.7,4.080389
00000000000000AAAAAAAA00,1,1473450867146355,1473450867146355,1,5.6875,13312,-38.5,865.7,2.1782527
000000AAAAAAAAAAAAAAAA00,1,1473450867154691,1473450867154691,1,0.0,13312,-35.5,865.7,4.086525
00000000000000AAAAAAAA00,1,1473450867156684,1473450867156684,1,7.3125,13312,-38.5,865.7,2.1782527
00000000000000000000AAAA,1,1473450867158670,1473450867158670,1,8.125,13312,-38.0,865.7,1.5585245
00000000000000AAAAAAAAAA,1,1473450867160032,1473450867160032,1,4.875,13312,-39.5,865.7,4.411729
000000000000000000AAAAAA,1,1473450867161426,1473450867161426,1,4.875,13312,-45.0,865.7,3.2888548
00000000000000AAAAAAAAAA,1,1473450867168712,1473450867168712,1,4.875,13312,-39.5,865.7,4.411729
00000000000000AAAAAAAA00,1,1473450867171833,1473450867171833,1,10.5625,13312,-38.5,865.7,2.1598449
000000000000000000AAAAAA,1,1473450867174264,1473450867174264,1,4.0625,13312,-45.0,865.7,3.3011267
00000000000000000000AAAA,1,1473450867177362,1473450867177362,1,7.3125,13312,-38.0,865.7,1.5769322
000000AAAAAAAAAAAAAAAA00,1,1473450867178690,1473450867178690,1,3.25,13312,-35.5,865.7,4.061981
000000AAAAAAAAAAAAAAAA00,1,1473450867186161,1473450867186161,1,0.0,13312,-35.5,865.7,4.080389
00000000000000000000AAAA,1,1473450867187467,1473450867187467,1,4.875,13312,-38.0,865.7,1.5769322
000000000000000000AAAAAA,1,1473450867190051,1473450867190051,1,8.9375,13312,-45.5,865.7,3.2888548
00000000000000AAAAAAAAAA,1,1473450867192078,1473450867192078,1,0.8125,13312,-39.5,865.7,4.405593
00000000000000AAAAAAAA00,1,1473450867194169,1473450867194169,1,6.5,13312,-38.5,865.7,2.1782527
00000000000000000000AAAA,1,1473450867202612,1473450867202612,1,9.75,13312,-38.0,865.7,1.5523885
00000000000000AAAAAAAA00,1,1473450867206632,1473450867206632,1,8.125,13312,-38.5,865.7,2.1659808
000000000000000000AAAAAA,1,1473450867208182,1473450867208182,1,8.9375,13312,-45.0,865.7,3.270447
000000AAAAAAAAAAAAAAAA00,1,1473450867209580,1473450867209580,1,-2.4375,13312,-35.5,865.7,4.098797
00000000000000AAAAAAAAAA,1,1473450867211113,1473450867211113,1,5.6875,13312,-39.5,865.7,4.405593
00000000000000000000AAAA,1,1473450867219878,1473450867219878,1,6.5,13312,-38.0,865.7,1.5769322
00000000000000AAAAAAAA00,1,1473450867221573,1473450867221573,1,7.3125,13312,-38.5,865.7,2.1721168
000000AAAAAAAAAAAAAAAA00,1,1473450867223468,1473450867223468,1,1.625,13312,-35.5,865.7,4.074253
00000000000000AAAAAAAAAA,1,1473450867226151,1473450867226151,1,4.875,13312,-40.0,865.7,4.417865
000000000000000000AAAAAA,1,1473450867227456,1473450867227456,1,0.0,13312,-45.0,865.7,3.3256702
00000000000000AAAAAAAA00,1,1473450867236303,1473450867236303,1,8.9375,13312,-38.5,865.7,2.1721168
00000000000000000000AAAA,1,1473450867238413,1473450867238413,1,5.6875,13312,-38.0,865.7,1.5769322
000000000000000000AAAAAA,1,1473450867240676,1473450867240676,1,2.4375,13312,-45.0,865.7,3.3318062
000000AAAAAAAAAAAAAAAA00,1,1473450867244218,1473450867244218,1,0.0,13312,-35.5,865.7,4.086525
00000000000000AAAAAAAAAA,1,1473450867245768,1473450867245768,1,-4.875,13312,-39.5,865.7,4.460816
000000000000000000AAAAAA,1,1473450867254599,1473450867254599,1,2.4375,13312,-45.0,865.7,3.3256702
00000000000000AAAAAAAA00,1,1473450867257031,1473450867257031,1,6.5,13312,-38.5,865.7,2.1721168
00000000000000AAAAAAAAAA,1,1473450867258465,1473450867258465,1,4.875,13312,-39.5,865.7,4.411729
000000AAAAAAAAAAAAAAAA00,1,1473450867259835,1473450867259835,1,1.625,13312,-35.5,865.7,4.074253
00000000000000000000AAAA,1,1473450867261238,1473450867261238,1,3.25,13312,-38.0,865.7,1.5892041
000000000000000000AAAAAA,1,1473450867268583,1473450867268583,1,5.6875,13312,-45.0,865.7,3.3195345
000000AAAAAAAAAAAAAAAA00,1,1473450867270505,1473450867270505,1,0.8125,13312,-35.5,865.7,4.068117
00000000000000AAAAAAAA00,1,1473450867274569,1473450867274569,1,8.9375,13312,-38.5,865.7,2.1598449
00000000000000000000AAAA,1,1473450867276271,1473450867276271,1,5.6875,13312,-38.0,865.7,1.5892041
00000000000000AAAAAAAAAA,1,1473450867277605,1473450867277605,1,-4.875,13312,-39.5,865.7,4.4546804
00000000000000000000AAAA,1,1473450867284638,1473450867284638,1,8.9375,13312,-38.0,865.7,1.5646604
00000000000000AAAAAAAAAA,1,1473450867286156,1473450867286156,1,1.625,13312,-39.5,865.7,4.417865
000000AAAAAAAAAAAAAAAA00,1,1473450867287782,1473450867287782,1,2.4375,13312,-35.5,865.7,4.074253
000000000000000000AAAAAA,1,1473450867289374,1473450867289374,1,2.4375,13312,-45.5,865.7,3.3379421
00000000000000AAAAAAAA00,1,1473450867291436,1473450867291436,1,5.6875,13312,-38.5,865.7,2.1721168
00000000000000AAAAAAAAAA,1,1473450867302190,1473450867302190,1,0.0,13312,-39.5,865.7,4.4546804
00000000000000000000AAAA,1,1473450867305327,1473450867305327,1,3.25,13312,-38.0,865.7,1.6076119
000000AAAAAAAAAAAAAAAA00,1,1473450867307529,1473450867307529,1,1.625,13312,-35.5,865.7,4.080389
00000000000000AAAAAAAA00,1,1473450867309040,1473450867309040,1,6.5,13312,-38.5,865.7,2.1843886
000000000000000000AAAAAA,1,1473450867310590,1473450867310590,1,6.5,13312,-45.5,865.7,3.3011267
00000000000000AAAAAAAA00,1,1473450867317983,1473450867317983,1,7.3125,13312,-38.5,865.7,2.1721168
00000000000000000000AAAA,1,1473450867320180,1473450867320180,1,5.6875,13312,-38.0,865.7,1.601476
00000000000000AAAAAAAAAA,1,1473450867322037,1473450867322037,1,-2.4375,13312,-39.5,865.7,4.466952
000000AAAAAAAAAAAAAAAA00,1,1473450867324455,1473450867324455,1,0.0,13312,-35.5,865.7,4.086525
000000000000000000AAAAAA,1,1473450867326875,1473450867326875,1,8.9375,13312,-45.0,865.7,3.2949908
000000AAAAAAAAAAAAAAAA00,1,1473450867334712,1473450867334712,1,0.0,13312,-35.0,865.7,4.086525
00000000000000AAAAAAAA00,1,1473450867337728,1473450867337728,1,7.3125,13312,-38.5,865.7,2.1782527
00000000000000AAAAAAAAAA,1,1473450867339966,1473450867339966,1,0.0,13312,-39.5,865.7,4.4424086
00000000000000000000AAAA,1,1473450867341343,1473450867341343,1,8.125,13312,-38.0,865.7,1.59534
000000000000000000AAAAAA,1,1473450867342681,1473450867342681,1,6.5,13312,-45.0,865.7,3.3133986
00000000000000AAAAAAAA00,1,1473450867351013,1473450867351013,1,6.5,13312,-38.5,865.7,2.1598449
000000000000000000AAAAAA,1,1473450867352855,1473450867352855,1,-1.625,13312,-45.5,865.7,3.3747578
00000000000000000000AAAA,1,1473450867356177,1473450867356177,1,6.5,13312,-38.0,865.7,1.601476
000000AAAAAAAAAAAAAAAA00,1,1473450867357504,1473450867357504,1,1.625,13312,-35.0,865.7,4.061981
00000000000000AAAAAAAAAA,1,1473450867358836,1473450867358836,1,0.0,13312,-39.5,865.7,4.4792237
000000000000000000AAAAAA,1,1473450867366717,1473450867366717,1,9.75,13312,-45.5,865.7,3.2949908
000000AAAAAAAAAAAAAAAA00,1,1473450867368157,1473450867368157,1,-0.8125,13312,-35.5,865.7,4.080389
00000000000000000000AAAA,1,1473450867371094,1473450867371094,1,8.9375,13312,-38.0,865.7,1.5769322
00000000000000AAAAAAAA00,1,1473450867372831,1473450867372831,1,8.125,13312,-38.5,865.7,2.1721168
00000000000000AAAAAAAAAA,1,1473450867375002,1473450867375002,1,0.8125,13312,-39.5,865.7,4.4546804
00000000000000AAAAAAAAAA,1,1473450867380953,1473450867380953,1,1.625,13312,-39.5,865.7,4.4485445
000000AAAAAAAAAAAAAAAA00,1,1473450867383290,1473450867383290,1,2.4375,13312,-35.0,865.7,4.074253
000000000000000000AAAAAA,1,1473450867387639,1473450867387639,1,8.125,13312,-45.5,865.7,3.3011267
00000000000000AAAAAAAA00,1,1473450867388992,1473450867388992,1,8.125,13312,-38.5,865.7,2.1659808
00000000000000000000AAAA,1,1473450867390309,1473450867390309,1,6.5,13312,-38.0,865.7,1.601476
00000000000000AAAAAAAAAA,1,1473450867397453,1473450867397453,1,-0.8125,13312,-39.5,865.7,4.473088
00000000000000000000AAAA,1,1473450867399930,1473450867399930,1,4.875,13312,-38.0,865.7,1.6260196
00000000000000AAAAAAAA00,1,1473450867401268,1473450867401268,1,8.125,13312,-38.5,865.7,2.1598449
000000AAAAAAAAAAAAAAAA00,1,1473450867402878,1473450867402878,1,-0.8125,13312,-35.5,865.7,4.080389
000000000000000000AAAAAA,1,1473450867404954,1473450867404954,1,-7.3125,13312,-45.0,865.7,3.423845
000000000000000000AAAAAA,1,1473450867417104,1473450867417104,1,4.0625,13312,-45.0,865.7,3.344078
00000000000000AAAAAAAAAA,1,1473450867419050,1473450867419050,1,4.875,13312,-39.0,865.7,4.460816
000000AAAAAAAAAAAAAAAA00,1,1473450867420364,1473450867420364,1,4.875,13312,-35.5,865.7,4.0558453
00000000000000AAAAAAAA00,1,1473450867423300,1473450867423300,1,8.125,13312,-38.5,865.7,2.1659808
00000000000000000000AAAA,1,1473450867424674,1473450867424674,1,1.625,13312,-38.5,865.7,1.6260196
000000AAAAAAAAAAAAAAAA00,1,1473450867432570,1473450867432570,1,0.0,13312,-35.5,865.7,4.086525
00000000000000AAAAAAAA00,1,1473450867434594,1473450867434594,1,7.3125,13312,-38.5,865.7,2.1782527
000000000000000000AAAAAA,1,1473450867436841,1473450867436841,1,5.6875,13312,-45.5,865.7,3.344078
00000000000000000000AAAA,1,1473450867438201,1473450867438201,1,4.875,13312,-38.0,865.7,1.6198837
00000000000000AAAAAAAAAA,1,1473450867440737,1473450867440737,1,0.0,13312,-39.0,865.7,4.460816
00000000000000AAAAAAAA00,1,1473450867447985,1473450867447985,1,6.5,13312,-38.5,865.7,2.1659808
00000000000000000000AAAA,1,1473450867449827,1473450867449827,1,7.3125,13312,-38.0,865.7,1.601476
00000000000000AAAAAAAAAA,1,1473450867452522,1473450867452522,1,2.4375,13312,-39.5,865.7,4.4424086
000000000000000000AAAAAA,1,1473450867453859,1473450867453859,1,1.625,13312,-45.5,865.7,3.3686218
000000AAAAAAAAAAAAAAAA00,1,1473450867457058,1473450867457058,1,0.0,13312,-35.5,865.7,4.086525
000000AAAAAAAAAAAAAAAA00,1,1473450867464622,1473450867464622,1,1.625,13312,-35.5,865.7,4.080389
00000000000000AAAAAAAA00,1,1473450867467508,1473450867467508,1,9.75,13312,-38.5,865.7,2.1598449
00000000000000000000AAAA,1,1473450867469094,1473450867469094,1,3.25,13312,-38.0,865.7,1.6321555
00000000000000AAAAAAAAAA,1,1473450867470980,1473450867470980,1,4.0625,13312,-39.5,865.7,4.4546804
000000000000000000AAAAAA,1,1473450867472516,1473450867472516,1,10.5625,13312,-45.5,865.7,3.344078
00000000000000AAAAAAAA00,1,1473450867483908,1473450867483908,1,7.3125,13312,-38.5,865.7,2.1598449
000000AAAAAAAAAAAAAAAA00,1,1473450867486100,1473450867486100,1,2.4375,13312,-35.5,865.7,4.068117
000000000000000000AAAAAA,1,1473450867489827,1473450867489827,1,4.0625,13312,-45.5,865.7,3.3870296
00000000000000AAAAAAAAAA,1,1473450867491582,1473450867491582,1,1.625,13312,-39.5,865.7,4.4792237
00000000000000000000AAAA,1,1473450867492929,1473450867492929,1,6.5,13312,-38.0,865.7,1.6198837
00000000000000000000AAAA,1,1473450867501891,1473450867501891,1,5.6875,13312,-38.0,865.7,1.6321555
00000000000000AAAAAAAAAA,1,1473450867503835,1473450867503835,1,-4.0625,13312,-39.0,865.7,4.5221753
000000AAAAAAAAAAAAAAAA00,1,1473450867505205,1473450867505205,1,1.625,13312,-35.5,865.7,4.074253
00000000000000AAAAAAAA00,1,1473450867506529,1473450867506529,1,6.5,13312,-38.5,865.7,2.1659808
000000000000000000AAAAAA,1,1473450867508633,1473450867508633,1,12.1875,13312,-45.5,865.7,3.35635
000000000000000000AAAAAA,1,1473450867516117,1473450867516117,1,2.4375,13312,-46.0,865.7,3.429981
00000000000000AAAAAAAA00,1,1473450867518805,1473450867518805,1,8.125,13312,-39.0,865.7,2.147573
00000000000000000000AAAA,1,1473450867522308,1473450867522308,1,8.125,13312,-38.0,865.7,1.6198837
000000AAAAAAAAAAAAAAAA00,1,1473450867524158,1473450867524158,1,2.4375,13312,-36.0,865.7,4.068117
00000000000000AAAAAAAAAA,1,1473450867525636,1473450867525636,1,4.0625,13312,-39.5,865.7,4.4792237
000000000000000000AAAAAA,1,1473450867532156,1473450867532156,1,4.0625,13312,-45.5,865.7,3.423845
00000000000000AAAAAAAAAA,1,1473450867534390,1473450867534390,1,-0.8125,13312,-39.5,865.7,4.5283113
00000000000000AAAAAAAA00,1,1473450867536822,1473450867536822,1,5.6875,13312,-38.5,865.7,2.1721168
000000AAAAAAAAAAAAAAAA00,1,1473450867538601,1473450867538601,1,2.4375,13312,-35.5,865.7,4.068117
00000000000000000000AAAA,1,1473450867539891,1473450867539891,1,6.5,13312,-38.0,865.7,1.6444274
00000000000000AAAAAAAA00,1,1473450867547948,1473450867547948,1,10.5625,13312,-38.5,865.7,2.1414373
000000AAAAAAAAAAAAAAAA00,1,1473450867549648,1473450867549648,1,2.4375,13312,-35.5,865.7,4.074253
00000000000000AAAAAAAAAA,1,1473450867550968,1473450867550968,1,1.625,13312,-39.0,865.7,4.5160394
000000000000000000AAAAAA,1,1473450867554818,1473450867554818,1,4.0625,13312,-46.0,865.7,3.4545248
00000000000000000000AAAA,1,1473450867557030,1473450867557030,1,8.125,13312,-38.0,865.7,1.6444274
00000000000000000000AAAA,1,1473450867567156,1473450867567156,1,6.5,13312,-38.0,865.7,1.6628351
00000000000000AAAAAAAA00,1,1473450867568864,1473450867568864,1,7.3125,13312,-38.5,865.7,2.153709
000000AAAAAAAAAAAAAAAA00,1,1473450867570745,1473450867570745,1,1.625,13312,-36.0,865.7,4.074253
000000000000000000AAAAAA,1,1473450867572523,1473450867572523,1,17.0625,13312,-46.0,865.7,3.3686218
00000000000000AAAAAAAAAA,1,1473450867573825,1473450867573825,1,0.8125,13312,-39.5,865.7,4.5160394
000000000000000000AAAAAA,1,1473450867583223,1473450867583223,1,12.1875,13312,-46.0,865.7,3.417709
00000000000000AAAAAAAA00,1,1473450867585730,1473450867585730,1,5.6875,13312,-38.5,865.7,2.153709
00000000000000AAAAAAAAAA,1,1473450867588687,1473450867588687,1,0.8125,13312,-39.5,865.7,4.5160394
000000AAAAAAAAAAAAAAAA00,1,1473450867590654,1473450867590654,1,0.8125,13312,-36.0,865.7,4.080389
00000000000000000000AAAA,1,1473450867592642,1473450867592642,1,3.25,13312,-38.5,865.7,1.681243
000000AAAAAAAAAAAAAAAA00,1,1473450867599139,1473450867599139,1,2.4375,13312,-35.5,865.7,4.061981
000000000000000000AAAAAA,1,1473450867600507,1473450867600507,1,9.75,13312,-46.5,865.7,3.4422529
00000000000000000000AAAA,1,1473450867605326,1473450867605326,1,6.5,13312,-38.5,865.7,1.6628351
00000000000000AAAAAAAAAA,1,1473450867608112,1473450867608112,1,0.8125,13312,-39.0,865.7,4.534447
00000000000000AAAAAAAA00,1,1473450867609795,1473450867609795,1,6.5,13312,-38.5,865.7,2.1291654
000000000000000000AAAAAA,1,1473450867616158,1473450867616158,1,-4.0625,13312,-46.5,865.7,3.5342917
00000000000000000000AAAA,1,1473450867618015,1473450867618015,1,5.6875,13312,-38.5,865.7,1.681243
00000000000000AAAAAAAAAA,1,1473450867619348,1473450867619348,1,2.4375,13312,-39.5,865.7,4.5221753
00000000000000AAAAAAAA00,1,1473450867621367,1473450867621367,1,7.3125,13312,-38.5,865.7,2.1353014
000000AAAAAAAAAAAAAAAA00,1,1473450867626601,1473450867626601,1,1.625,13312,-35.5,865.7,4.068117
00000000000000AAAAAAAA00,1,1473450867633791,1473450867633791,1,6.5,13312,-39.0,865.7,2.1291654
00000000000000AAAAAAAAAA,1,1473450867637481,1473450867637481,1,-2.4375,13312,-39.5,865.7,4.565127
00000000000000000000AAAA,1,1473450867639425,1473450867639425,1,8.125,13312,-38.5,865.7,1.675107
000000AAAAAAAAAAAAAAAA00,1,1473450867640753,1473450867640753,1,6.5,13312,-36.0,865.7,4.0374374
000000000000000000AAAAAA,1,1473450867642785,1473450867642785,1,-0.8125,13312,-47.0,865.7,3.5342917
00000000000000000000AAAA,1,1473450867650324,1473450867650324,1,5.6875,13312,-38.5,865.7,1.6935148
00000000000000AAAAAAAAAA,1,1473450867654352,1473450867654352,1,1.625,13312,-39.5,865.7,4.534447
00000000000000AAAAAAAA00,1,1473450867655961,1473450867655961,1,7.3125,13312,-38.5,865.7,2.1168935
000000AAAAAAAAAAAAAAAA00,1,1473450867657287,1473450867657287,1,1.625,13312,-35.5,865.7,4.061981
000000000000000000AAAAAA,1,1473450867659522,1473450867659522,1,5.6875,13312,-47.0,865.7,3.4852045
00000000000000000000AAAA,1,1473450867667379,1473450867667379,1,6.5,13312,-39.0,865.7,1.681243
000000000000000000AAAAAA,1,1473450867671047,1473450867671047,1,0.0,13312,-47.5,865.7,3.5649714
00000000000000AAAAAAAAAA,1,1473450867672397,1473450867672397,1,-1.625,13312,-39.0,865.7,4.571263
00000000000000AAAAAAAA00,1,1473450867675279,1473450867675279,1,6.5,13312,-38.5,865.7,2.1107576
000000AAAAAAAAAAAAAAAA00,1,1473450867676949,1473450867676949,1,3.25,13312,-36.0,865.7,4.0435734
00000000000000000000AAAA,1,1473450867684060,1473450867684060,1,5.6875,13312,-38.5,865.7,1.6935148
000000AAAAAAAAAAAAAAAA00,1,1473450867686128,1473450867686128,1,1.625,13312,-36.0,865.7,4.0497093
00000000000000AAAAAAAAAA,1,1473450867688585,1473450867688585,1,5.6875,13312,-39.5,865.7,4.540583
00000000000000AAAAAAAA00,1,1473450867691002,1473450867691002,1,6.5,13312,-38.5,865.7,2.0923498
000000000000000000AAAAAA,1,1473450867692354,1473450867692354,1,10.5625,13312,-47.5,865.7,3.509748
000000AAAAAAAAAAAAAAAA00,1,1473450867704061,1473450867704061,1,-0.8125,13312,-36.0,865.7,4.061981
00000000000000AAAAAAAAAA,1,1473450867705820,1473450867705820,1,-2.4375,13312,-39.5,865.7,4.5958066
000000000000000000AAAAAA,1,1473450867707992,1473450867707992,1,1.625,13312,-48.0,865.7,3.5711074
00000000000000000000AAAA,1,1473450867710653,1473450867710653,1,1.625,13312,-39.0,865.7,1.7057866
00000000000000AAAAAAAA00,1,1473450867711964,1473450867711964,1,3.25,13312,-38.5,865.7,2.1107576
00000000000000000000AAAA,1,1473450867717759,1473450867717759,1,8.125,13312,-39.0,865.7,1.6935148
000000AAAAAAAAAAAAAAAA00,1,1473450867720167,1473450867720167,1,1.625,13312,-36.0,865.7,4.0497093
00000000000000AAAAAAAAAA,1,1473450867721473,1473450867721473,1,-2.4375,13312,-39.5,865.7,4.5958066
00000000000000AAAAAAAA00,1,1473450867725512,1473450867725512,1,5.6875,13312,-38.5,865.7,2.073942
000000000000000000AAAAAA,1,1473450867727730,1473450867727730,1,15.4375,13312,-47.5,865.7,3.515884
000000000000000000AAAAAA,1,1473450867736762,1473450867736762,1,-4.0625,13312,-48.0,865.7,3.6324666
00000000000000AAAAAAAA00,1,1473450867739121,1473450867739121,1,6.5,13312,-38.5,865.7,2.0862138
00000000000000000000AAAA,1,1473450867740510,1473450867740510,1,6.5,13312,-39.0,865.7,1.6996508
000000AAAAAAAAAAAAAAAA00,1,1473450867741794,1473450867741794,1,3.25,13312,-36.0,865.7,4.0313015
00000000000000AAAAAAAAAA,1,1473450867743126,1473450867743126,1,0.0,13312,-39.5,865.7,4.5896707
000000AAAAAAAAAAAAAAAA00,1,1473450867753671,1473450867753671,1,0.8125,13312,-35.5,865.7,4.0558453
00000000000000000000AAAA,1,1473450867755709,1473450867755709,1,5.6875,13312,-39.0,865.7,1.6873789
00000000000000AAAAAAAAAA,1,1473450867758145,1473450867758145,1,2.4375,13312,-39.5,865.7,4.5835347
00000000000000AAAAAAAA00,1,1473450867759453,1473450867759453,1,7.3125,13312,-38.5,865.7,2.067806
000000000000000000AAAAAA,1,1473450867761161,1473450867761161,1,9.75,13312,-49.0,865.7,3.5711074
00000000000000AAAAAAAAAA,1,1473450867766947,1473450867766947,1,-1.625,13312,-39.5,865.7,4.632622
00000000000000AAAAAAAA00,1,1473450867768981,1473450867768981,1,7.3125,13312,-38.5,865.7,2.0493984
000000AAAAAAAAAAAAAAAA00,1,1473450867772908,1473450867772908,1,3.25,13312,-36.0,865.7,4.0313015
00000000000000000000AAAA,1,1473450867775048,1473450867775048,1,7.3125,13312,-39.0,865.7,1.6996508
000000000000000000AAAAAA,1,1473450867777257,1473450867777257,1,6.5,13312,-49.0,865.7,3.6140587
00000000000000AAAAAAAAAA,1,1473450867784365,1473450867784365,1,2.4375,13312,-39.5,865.7,4.5958066
000000000000000000AAAAAA,1,1473450867785788,1473450867785788,1,0.0,13312,-49.0,865.7,3.669282
00000000000000AAAAAAAA00,1,1473450867787157,1473450867787157,1,6.5,13312,-38.5,865.7,2.0555344
00000000000000000000AAAA,1,1473450867789298,1473450867789298,1,7.3125,13312,-39.5,865.7,1.6996508
000000AAAAAAAAAAAAAAAA00,1,1473450867793556,1473450867793556,1,0.0,13312,-36.0,865.7,4.0374374
000000AAAAAAAAAAAAAAAA00,1,1473450867801668,1473450867801668,1,1.625,13312,-36.0,865.7,4.0313015
00000000000000000000AAAA,1,1473450867803172,1473450867803172,1,3.25,13312,-39.5,865.7,1.7119225
00000000000000AAAAAAAA00,1,1473450867805929,1473450867805929,1,7.3125,13312,-38.5,865.7,2.0309906
00000000000000AAAAAAAAAA,1,1473450867808341,1473450867808341,1,1.625,13312,-39.5,865.7,4.6019425
000000000000000000AAAAAA,1,1473450867810304,1473450867810304,1,15.4375,13312,-50.0,865.7,3.6079228
000000AAAAAAAAAAAAAAAA00,1,1473450867817965,1473450867817965,1,-0.8125,13312,-36.0,865.7,4.0435734
00000000000000AAAAAAAAAA,1,1473450867820900,1473450867820900,1,-0.8125,13312,-39.5,865.7,4.626486
000000000000000000AAAAAA,1,1473450867822395,1473450867822395,1,0.8125,13312,-49.5,865.7,3.6999617
00000000000000000000AAAA,1,1473450867824633,1473450867824633,1,6.5,13312,-39.5,865.7,1.7057866
00000000000000AAAAAAAA00,1,1473450867825998,1473450867825998,1,5.6875,13312,-38.5,865.7,2.0493984
000000AAAAAAAAAAAAAAAA00,1,1473450867833454,1473450867833454,1,1.625,13312,-36.0,865.7,4.0313015
00000000000000AAAAAAAA00,1,1473450867837085,1473450867837085,1,7.3125,13312,-38.5,865.7,2.0248547
00000000000000AAAAAAAAAA,1,1473450867839323,1473450867839323,1,-1.625,13312,-39.5,865.7,4.6203504
00000000000000000000AAAA,1,1473450867840712,1473450867840712,1,4.875,13312,-39.5,865.7,1.6996508
000000000000000000AAAAAA,1,1473450867842179,1473450867842179,1,2.4375,13312,-50.5,865.7,3.7306414
00000000000000000000AAAA,1,1473450867848664,1473450867848664,1,9.75,13312,-39.5,865.7,1.6996508
000000000000000000AAAAAA,1,1473450867850644,1473450867850644,1,13.8125,13312,-50.0,865.7,3.6079228
000000AAAAAAAAAAAAAAAA00,1,1473450867853772,1473450867853772,1,-1.625,13312,-36.0,865.7,4.0435734
00000000000000AAAAAAAA00,1,1473450867856165,1473450867856165,1,5.6875,13312,-38.0,865.7,2.0309906
00000000000000AAAAAAAAAA,1,1473450867857471,1473450867857471,1,1.625,13312,-39.5,865.7,4.6387577
000000000000000000AAAAAA,1,1473450867863195,1473450867863195,1,9.75,13312,-50.5,865.7,3.6876898
000000AAAAAAAAAAAAAAAA00,1,1473450867864523,1473450867864523,1,1.625,13312,-36.5,865.7,4.0435734
00000000000000AAAAAAAAAA,1,1473450867865858,1473450867865858,1,2.4375,13312,-40.0,865.7,4.626486
00000000000000AAAAAAAA00,1,1473450867869183,1473450867869183,1,6.5,13312,-38.5,865.7,2.0248547
00000000000000000000AAAA,1,1473450867873246,1473450867873246,1,2.4375,13312,-39.5,865.7,1.7180585
00000000000000000000AAAA,1,1473450867882653,1473450867882653,1,8.125,13312,-39.5,865.7,1.7241944
000000AAAAAAAAAAAAAAAA00,1,1473450867884279,1473450867884279,1,0.8125,13312,-36.5,865.7,4.0435734
00000000000000AAAAAAAA00,1,1473450867887435,1473450867887435,1,4.875,13312,-38.0,865.7,2.000311
00000000000000AAAAAAAAAA,1,1473450867888811,1473450867888811,1,-2.4375,13312,-39.5,865.7,4.6510296
000000000000000000AAAAAA,1,1473450867890873,1473450867890873,1,2.4375,13312,-51.0,865.7,3.7858646
000000AAAAAAAAAAAAAAAA00,1,1473450867898942,1473450867898942,1,0.0,13312,-36.5,865.7,4.0497093
00000000000000AAAAAAAA00,1,1473450867901617,1473450867901617,1,6.5,13312,-38.0,865.7,2.0125828
000000000000000000AAAAAA,1,1473450867903837,1473450867903837,1,8.125,13312,-51.0,865.7,3.742913
00000000000000000000AAAA,1,1473450867905167,1473450867905167,1,7.3125,13312,-39.5,865.7,1.7180585
00000000000000AAAAAAAAAA,1,1473450867906983,1473450867906983,1,2.4375,13312,-39.5,865.7,4.6387577
000000AAAAAAAAAAAAAAAA00,1,1473450867915496,1473450867915496,1,0.8125,13312,-36.5,865.7,4.0251656
00000000000000AAAAAAAA00,1,1473450867917929,1473450867917929,1,6.5,13312,-38.0,865.7,2.000311
000000000000000000AAAAAA,1,1473450867920120,1473450867920120,1,-5.6875,13312,-51.5,865.7,3.9024472
00000000000000AAAAAAAAAA,1,1473450867922104,1473450867922104,1,-0.8125,13312,-39.5,865.7,4.6571655
00000000000000000000AAAA,1,1473450867923423,1473450867923423,1,6.5,13312,-39.5,865.7,1.7241944
000000AAAAAAAAAAAAAAAA00,1,1473450867930352,1473450867930352,1,1.625,13312,-36.5,865.7,4.0251656
000000000000000000AAAAAA,1,1473450867934373,1473450867934373,1,-13.0,13312,-51.5,865.7,3.8963113
00000000000000000000AAAA,1,1473450867935732,1473450867935732,1,2.4375,13312,-40.0,865.7,1.7364663
00000000000000AAAAAAAA00,1,1473450867937114,1473450867937114,1,9.75,13312,-38.0,865.7,1.9819032
00000000000000AAAAAAAAAA,1,1473450867939230,1473450867939230,1,2.4375,13312,-39.5,865.7,4.6694374
00000000000000000000AAAA,1,1473450867947480,1473450867947480,1,2.4375,13312,-39.5,865.7,1.748738
00000000000000AAAAAAAA00,1,1473450867949686,1473450867949686,1,6.5,13312,-38.5,865.7,1.9880391
000000AAAAAAAAAAAAAAAA00,1,1473450867952193,1473450867952193,1,1.625,13312,-36.5,865.7,4.0313015
000000000000000000AAAAAA,1,1473450867954440,1473450867954440,1,0.0,13312,-52.0,865.7,3.8901753
00000000000000AAAAAAAAAA,1,1473450867955789,1473450867955789,1,-0.8125,13312,-39.5,865.7,4.6817093
000000AAAAAAAAAAAAAAAA00,1,1473450867964082,1473450867964082,1,0.8125,13312,-36.5,865.7,4.0313015
00000000000000000000AAAA,1,1473450867966803,1473450867966803,1,1.625,13312,-39.5,865.7,1.7671459
00000000000000AAAAAAAAAA,1,1473450867968802,1473450867968802,1,-1.625,13312,-39.5,865.7,4.706253
00000000000000AAAAAAAA00,1,1473450867970169,1473450867970169,1,3.25,13312,-38.0,865.7,2.000311
000000000000000000AAAAAA,1,1473450867971534,1473450867971534,1,1.625,13312,-52.5,865.7,3.8410878
00000000000000AAAAAAAA00,1,1473450867978737,1473450867978737,1,9.75,13312,-38.5,865.7,1.9696313
000000000000000000AAAAAA,1,1473450867980318,1473450867980318,1,-21.125,13312,-52.0,865.7,4.0067577
00000000000000000000AAAA,1,1473450867982303,1473450867982303,1,4.875,13312,-39.5,865.7,1.7426022
00000000000000AAAAAAAAAA,1,1473450867984729,1473450867984729,1,2.4375,13312,-39.5,865.7,4.700117
000000AAAAAAAAAAAAAAAA00,1,1473450867986594,1473450867986594,1,0.0,13312,-36.5,865.7,4.0251656
000000000000000000AAAAAA,1,1473450867994819,1473450867994819,1,21.125,13312,-53.0,865.7,3.742913
000000AAAAAAAAAAAAAAAA00,1,1473450867999950,1473450867999950,1,0.8125,13312,-36.0,865.7,4.0128937
00000000000000AAAAAAAA00,1,1473450868003293,1473450868003293,1,8.9375,13312,-38.5,865.7,1.9634954
00000000000000000000AAAA,1,1473450868008169,1473450868008169,1,0.8125,13312,-40.0,865.7,1.7610099
00000000000000AAAAAAAAAA,1,1473450868009487,1473450868009487,1,0.0,13312,-39.5,865.7,4.712389
00000000000000AAAAAAAA00,1,1473450868017740,1473450868017740,1,5.6875,13312,-38.5,865.7,1.9696313
000000AAAAAAAAAAAAAAAA00,1,1473450868020550,1473450868020550,1,-4.875,13312,-36.0,865.7,4.0435734
00000000000000AAAAAAAAAA,1,1473450868021883,1473450868021883,1,4.0625,13312,-39.5,865.7,4.706253
00000000000000000000AAAA,1,1473450868023214,1473450868023214,1,4.875,13312,-40.0,865.7,1.7671459
000000000000000000AAAAAA,1,1473450868024535,1473450868024535,1,0.0,13312,-54.0,865.7,3.9269907
000000AAAAAAAAAAAAAAAA00,1,1473450868031152,1473450868031152,1,0.0,13312,-36.5,865.7,4.0190296
00000000000000000000AAAA,1,1473450868034650,1473450868034650,1,3.25,13312,-40.0,865.7,1.7855537
000000000000000000AAAAAA,1,1473450868036330,1473450868036330,1,6.5,13312,-53.5,865.7,3.8533597
00000000000000AAAAAAAAAA,1,1473450868039159,1473450868039159,1,1.625,13312,-39.5,865.7,4.730797
00000000000000AAAAAAAA00,1,1473450868040484,1473450868040484,1,3.25,13312,-38.0,865.7,1.9819032
00000000000000AAAAAAAAAA,1,1473450868046954,1473450868046954,1,4.875,13312,-39.5,865.7,4.730797
00000000000000AAAAAAAA00,1,1473450868048946,1473450868048946,1,7.3125,13312,-38.5,865.7,1.9696313
00000000000000000000AAAA,1,1473450868050263,1473450868050263,1,4.875,13312,-40.0,865.7,1.7794178
000000AAAAAAAAAAAAAAAA00,1,1473450868051814,1473450868051814,1,-0.8125,13312,-36.0,865.7,4.0128937
000000000000000000AAAAAA,1,1473450868055229,1473450868055229,1,-22.75,13312,-54.0,865.7,3.9944859
000000000000000000AAAAAA,1,1473450868065133,1473450868065133,1,-13.0,13312,-55.5,865.7,3.9208548
00000000000000AAAAAAAAAA,1,1473450868068483,1473450868068483,1,2.4375,13312,-39.0,865.7,4.7430687
00000000000000AAAAAAAA00,1,1473450868070076,1473450868070076,1,4.875,13312,-38.0,865.7,1.9696313
000000AAAAAAAAAAAAAAAA00,1,1473450868071389,1473450868071389,1,-0.8125,13312,-36.5,865.7,4.0251656
00000000000000000000AAAA,1,1473450868072863,1473450868072863,1,2.4375,13312,-39.5,865.7,1.8223692
00000000000000AAAAAAAAAA,1,1473450868081294,1473450868081294,1,0.0,13312,-39.0,865.7,4.7798843
000000AAAAAAAAAAAAAAAA00,1,1473450868083233,1473450868083233,1,-0.8125,13312,-36.0,865.7,4.0190296
00000000000000000000AAAA,1,1473450868085205,1473450868085205,1,1.625,13312,-40.0,865.7,1.834641
00000000000000AAAAAAAA00,1,1473450868087527,1473450868087527,1,3.25,13312,-38.0,865.7,1.9757673
000000AAAAAAAAAAAAAAAA00,1,1473450868094109,1473450868094109,1,-0.8125,13312,-36.0,865.7,4.0128937
00000000000000AAAAAAAAAA,1,1473450868098428,1473450868098428,1,2.4375,13312,-39.5,865.7,4.7737484
00000000000000AAAAAAAA00,1,1473450868100676,1473450868100676,1,8.125,13312,-38.0,865.7,1.9634954
00000000000000000000AAAA,1,1473450868102261,1473450868102261,1,5.6875,13312,-40.0,865.7,1.8714565
00000000000000AAAAAAAA00,1,1473450868109131,1473450868109131,1,5.6875,13312,-38.5,865.7,1.9880391
00000000000000AAAAAAAAAA,1,1473450868111792,1473450868111792,1,4.0625,13312,-39.5,865.7,4.7798843
00000000000000000000AAAA,1,1473450868113762,1473450868113762,1,6.5,13312,-39.5,865.7,1.8960003
000000AAAAAAAAAAAAAAAA00,1,1473450868115145,1473450868115145,1,0.0,13312,-36.5,865.7,4.000622
000000AAAAAAAAAAAAAAAA00,1,1473450868124122,1473450868124122,1,2.4375,13312,-36.5,865.7,3.9883502
00000000000000AAAAAAAA00,1,1473450868126814,1473450868126814,1,3.25,13312,-38.5,865.7,2.000311
00000000000000000000AAAA,1,1473450868129512,1473450868129512,1,8.9375,13312,-39.5,865.7,1.914408
00000000000000AAAAAAAAAA,1,1473450868131174,1473450868131174,1,7.3125,13312,-39.5,865.7,4.7860203
000000AAAAAAAAAAAAAAAA00,1,1473450868139233,1473450868139233,1,-2.4375,13312,-36.0,865.7,4.0128937
00000000000000000000AAAA,1,1473450868141204,1473450868141204,1,3.25,13312,-39.5,865.7,1.9512236
00000000000000AAAAAAAA00,1,1473450868144138,1473450868144138,1,5.6875,13312,-38.0,865.7,1.9941751
00000000000000AAAAAAAAAA,1,1473450868146664,1473450868146664,1,2.4375,13312,-39.5,865.7,4.8228354
00000000000000AAAAAAAA00,1,1473450868155720,1473450868155720,1,2.4375,13312,-38.0,865.7,2.0125828
000000AAAAAAAAAAAAAAAA00,1,1473450868158156,1473450868158156,1,-2.4375,13312,-36.5,865.7,4.0190296
00000000000000AAAAAAAAAA,1,1473450868159504,1473450868159504,1,-0.8125,13312,-39.0,865.7,4.8412433
00000000000000000000AAAA,1,1473450868161022,1473450868161022,1,8.125,13312,-39.5,865.7,1.9512236
00000000000000AAAAAAAAAA,1,1473450868169394,1473450868169394,1,0.0,13312,-39.0,865.7,4.847379
00000000000000AAAAAAAA00,1,1473450868171361,1473450868171361,1,2.4375,13312,-38.0,865.7,2.0125828
000000AAAAAAAAAAAAAAAA00,1,1473450868172701,1473450868172701,1,0.8125,13312,-36.0,865.7,3.9822142
00000000000000000000AAAA,1,1473450868176533,1473450868176533,1,7.3125,13312,-39.0,865.7,1.9512236
00000000000000000000AAAA,1,1473450868186071,1473450868186071,1,6.5,13312,-39.0,865.7,1.9880391
00000000000000AAAAAAAAAA,1,1473450868187757,1473450868187757,1,-0.8125,13312,-39.0,865.7,4.859651
000000AAAAAAAAAAAAAAAA00,1,1473450868189127,1473450868189127,1,0.0,13312,-36.5,865.7,3.9944859
00000000000000AAAAAAAA00,1,1473450868190468,1473450868190468,1,3.25,13312,-38.0,865.7,2.000311
000000AAAAAAAAAAAAAAAA00,1,1473450868198008,1473450868198008,1,3.25,13312,-36.5,865.7,3.9883502
00000000000000AAAAAAAA00,1,1473450868200155,1473450868200155,1,3.25,13312,-38.0,865.7,1.9880391
00000000000000AAAAAAAAAA,1,1473450868202353,1473450868202353,1,1.625,13312,-39.0,865.7,4.853515
00000000000000000000AAAA,1,1473450868204164,1473450868204164,1,6.5,13312,-39.5,865.7,1.9757673
00000000000000AAAAAAAA00,1,1473450868213215,1473450868213215,1,3.25,13312,-38.0,865.7,1.9880391
00000000000000000000AAAA,1,1473450868215157,1473450868215157,1,9.75,13312,-39.0,865.7,1.9696313
00000000000000AAAAAAAAAA,1,1473450868217646,1473450868217646,1,4.0625,13312,-39.0,865.7,4.865787
000000AAAAAAAAAAAAAAAA00,1,1473450868218944,1473450868218944,1,1.625,13312,-36.0,865.7,4.000622
000000AAAAAAAAAAAAAAAA00,1,1473450868228995,1473450868228995,1,-2.4375,13312,-36.5,865.7,4.0190296
00000000000000000000AAAA,1,1473450868230979,1473450868230979,1,6.5,13312,-39.5,865.7,1.9819032
00000000000000AAAAAAAAAA,1,1473450868236240,1473450868236240,1,1.625,13312,-39.0,865.7,4.878059
00000000000000AAAAAAAA00,1,1473450868237579,1473450868237579,1,4.875,13312,-38.0,865.7,2.000311
00000000000000000000AAAA,1,1473450868244216,1473450868244216,1,5.6875,13312,-39.0,865.7,1.9941751
00000000000000AAAAAAAA00,1,1473450868246164,1473450868246164,1,0.8125,13312,-38.0,865.7,2.000311
000000AAAAAAAAAAAAAAAA00,1,1473450868248212,1473450868248212,1,0.0,13312,-36.0,865.7,4.000622
00000000000000AAAAAAAAAA,1,1473450868250372,1473450868250372,1,2.4375,13312,-39.0,865.7,4.878059
000000AAAAAAAAAAAAAAAA00,1,1473450868260698,1473450868260698,1,1.625,13312,-36.5,865.7,4.000622
00000000000000000000AAAA,1,1473450868262400,1473450868262400,1,7.3125,13312,-39.5,865.7,1.9819032
00000000000000AAAAAAAAAA,1,1473450868264651,1473450868264651,1,1.625,13312,-39.0,865.7,4.890331
00000000000000AAAAAAAA00,1,1473450868266428,1473450868266428,1,5.6875,13312,-37.5,865.7,1.9696313
00000000000000000000AAAA,1,1473450868275815,1473450868275815,1,6.5,13312,-39.0,865.7,1.9941751
00000000000000AAAAAAAAAA,1,1473450868277178,1473450868277178,1,1.625,13312,-39.5,865.7,4.9087386
00000000000000AAAAAAAA00,1,1473450868278714,1473450868278714,1,3.25,13312,-38.0,865.7,1.9757673
000000AAAAAAAAAAAAAAAA00,1,1473450868280024,1473450868280024,1,0.0,13312,-36.5,865.7,4.0313015
000000AAAAAAAAAAAAAAAA00,1,1473450868289228,1473450868289228,1,-2.4375,13312,-36.5,865.7,4.0251656
00000000000000000000AAAA,1,1473450868292311,1473450868292311,1,2.4375,13312,-39.0,865.7,2.000311
00000000000000AAAAAAAA00,1,1473450868295150,1473450868295150,1,4.875,13312,-38.0,865.7,1.9819032
00000000000000AAAAAAAAAA,1,1473450868296496,1473450868296496,1,-0.8125,13312,-39.0,865.7,4.9148746
000000AAAAAAAAAAAAAAAA00,1,1473450868305325,1473450868305325,1,2.4375,13312,-36.5,865.7,4.0067577
00000000000000000000AAAA,1,1473450868306657,1473450868306657,1,8.125,13312,-39.5,865.7,1.9880391
00000000000000AAAAAAAA00,1,1473450868308267,1473450868308267,1,4.875,13312,-38.0,865.7,1.9819032
00000000000000AAAAAAAAAA,1,1473450868309867,1473450868309867,1,-0.8125,13312,-39.0,865.7,4.9332824
000000AAAAAAAAAAAAAAAA00,1,1473450868318019,1473450868318019,1,-0.8125,13312,-36.5,865.7,4.0313015
00000000000000AAAAAAAA00,1,1473450868321268,1473450868321268,1,4.875,13312,-38.0,865.7,1.9941751
00000000000000000000AAAA,1,1473450868322996,1473450868322996,1,7.3125,13312,-39.0,865.7,1.9941751
00000000000000AAAAAAAAAA,1,1473450868325408,1473450868325408,1,2.4375,13312,-39.0,865.7,4.9271464
00000000000000AAAAAAAA00,1,1473450868331997,1473450868331997,1,7.3125,13312,-38.0,865.7,1.9757673
00000000000000000000AAAA,1,1473450868333555,1473450868333555,1,9.75,13312,-39.0,865.7,1.9880391
00000000000000AAAAAAAAAA,1,1473450868337573,1473450868337573,1,5.6875,13312,-39.0,865.7,4.9148746
000000AAAAAAAAAAAAAAAA00,1,1473450868340643,1473450868340643,1,-0.8125,13312,-36.5,865.7,4.0313015
00000000000000AAAAAAAAAA,1,1473450868346597,1473450868346597,1,4.0625,13312,-39.0,865.7,4.9271464
00000000000000AAAAAAAA00,1,1473450868348417,1473450868348417,1,3.25,13312,-38.0,865.7,1.9941751
000000AAAAAAAAAAAAAAAA00,1,1473450868352713,1473450868352713,1,0.8125,13312,-36.5,865.7,4.0313015
00000000000000000000AAAA,1,1473450868355579,1473450868355579,1,8.125,13312,-39.0,865.7,2.0125828
00000000000000000000AAAA,1,1473450868362569,1473450868362569,1,8.9375,13312,-39.0,865.7,2.0064468
00000000000000AAAAAAAAAA,1,1473450868364028,1473450868364028,1,0.0,13312,-39.0,865.7,4.957826
00000000000000AAAAAAAA00,1,1473450868367015,1473450868367015,1,4.875,13312,-38.0,865.7,2.0064468
000000AAAAAAAAAAAAAAAA00,1,1473450868369238,1473450868369238,1,-2.4375,13312,-36.5,865.7,4.0435734
00000000000000AAAAAAAAAA,1,1473450868376093,1473450868376093,1,4.875,13312,-39.0,865.7,4.95169
00000000000000000000AAAA,1,1473450868377665,1473450868377665,1,9.75,13312,-38.5,865.7,2.0187187
00000000000000AAAAAAAA00,1,1473450868379499,1473450868379499,1,5.6875,13312,-38.0,865.7,2.000311
000000AAAAAAAAAAAAAAAA00,1,1473450868384285,1473450868384285,1,0.8125,13312,-36.5,865.7,4.0313015
00000000000000AAAAAAAAAA,1,1473450868394021,1473450868394021,1,1.625,13312,-39.0,865.7,4.9762335
000000AAAAAAAAAAAAAAAA00,1,1473450868395973,1473450868395973,1,0.8125,13312,-36.5,865.7,4.0435734
00000000000000AAAAAAAA00,1,1473450868397924,1473450868397924,1,4.875,13312,-38.0,865.7,1.9941751
00000000000000000000AAAA,1,1473450868399510,1473450868399510,1,7.3125,13312,-39.0,865.7,2.0371265
00000000000000000000AAAA,1,1473450868406364,1473450868406364,1,5.6875,13312,-38.5,865.7,2.0309906
00000000000000AAAAAAAA00,1,1473450868408480,1473450868408480,1,7.3125,13312,-38.5,865.7,1.9941751
000000AAAAAAAAAAAAAAAA00,1,1473450868410963,1473450868410963,1,7.3125,13312,-36.5,865.7,4.0190296
00000000000000AAAAAAAAAA,1,1473450868412298,1473450868412298,1,4.875,13312,-38.5,865.7,4.9700975
00000000000000AAAAAAAAAA,1,1473450868422436,1473450868422436,1,4.0625,13312,-38.5,865.7,4.9885054
000000AAAAAAAAAAAAAAAA00,1,1473450868424413,1473450868424413,1,-0.8125,13312,-36.5,865.7,4.061981
00000000000000AAAAAAAA00,1,1473450868426548,1473450868426548,1,4.875,13312,-38.0,865.7,1.9757673
00000000000000000000AAAA,1,1473450868428387,1473450868428387,1,2.4375,13312,-39.0,865.7,2.0493984
00000000000000AAAAAAAAAA,1,1473450868442098,1473450868442098,1,7.3125,13312,-39.0,865.7,4.9762335
000000AAAAAAAAAAAAAAAA00,1,1473450868443455,1473450868443455,1,3.25,13312,-36.5,865.7,4.0435734
00000000000000AAAAAAAA00,1,1473450868444776,1473450868444776,1,1.625,13312,-38.0,865.7,2.0064468
00000000000000000000AAAA,1,1473450868446463,1473450868446463,1,8.9375,13312,-38.5,865.7,2.0309906
00000000000000AAAAAAAA00,1,1473450868453193,1473450868453193,1,4.875,13312,-38.0,865.7,1.9941751
000000AAAAAAAAAAAAAAAA00,1,1473450868455161,1473450868455161,1,5.6875,13312,-36.5,865.7,4.0435734
00000000000000000000AAAA,1,1473450868456550,1473450868456550,1,8.125,13312,-39.0,865.7,2.0493984
00000000000000AAAAAAAAAA,1,1473450868460345,1473450868460345,1,1.625,13312,-38.5,865.7,5.019185
00000000000000AAAAAAAA00,1,1473450868468675,1473450868468675,1,7.3125,13312,-38.0,865.7,1.9757673
000000AAAAAAAAAAAAAAAA00,1,1473450868472003,1473450868472003,1,-3.25,13312,-36.5,865.7,4.086525
00000000000000AAAAAAAAAA,1,1473450868473716,1473450868473716,1,2.4375,13312,-38.5,865.7,5.013049
00000000000000000000AAAA,1,1473450868475331,1473450868475331,1,8.9375,13312,-38.5,865.7,2.0493984
00000000000000000000AAAA,1,1473450868484358,1473450868484358,1,8.9375,13312,-38.5,865.7,2.0371265
00000000000000AAAAAAAA00,1,1473450868487226,1473450868487226,1,4.875,13312,-38.0,865.7,1.9757673
000000AAAAAAAAAAAAAAAA00,1,1473450868488850,1473450868488850,1,0.8125,13312,-36.5,865.7,4.068117
00000000000000AAAAAAAAAA,1,1473450868490115,1473450868490115,1,2.4375,13312,-39.0,865.7,5.037593
00000000000000000000AAAA,1,1473450868496731,1473450868496731,1,8.125,13312,-38.5,865.7,2.0555344
00000000000000AAAAAAAAAA,1,1473450868500121,1473450868500121,1,0.8125,13312,-38.5,865.7,5.031457
000000AAAAAAAAAAAAAAAA00,1,1473450868501591,1473450868501591,1,-0.8125,13312,-36.0,865.7,4.074253
00000000000000AAAAAAAA00,1,1473450868504620,1473450868504620,1,8.125,13312,-38.0,865.7,1.9634954
00000000000000AAAAAAAA00,1,1473450868511536,1473450868511536,1,8.125,13312,-38.0,865.7,1.9696313
00000000000000AAAAAAAAAA,1,1473450868514191,1473450868514191,1,4.875,13312,-39.0,865.7,5.025321
000000AAAAAAAAAAAAAAAA00,1,1473450868515902,1473450868515902,1,0.8125,13312,-36.5,865.7,4.068117
00000000000000000000AAAA,1,1473450868518391,1473450868518391,1,8.125,13312,-38.5,865.7,2.0555344
00000000000000AAAAAAAA00,1,1473450868525733,1473450868525733,1,6.5,13312,-38.0,865.7,1.9757673
00000000000000AAAAAAAAAA,1,1473450868527906,1473450868527906,1,5.6875,13312,-39.0,865.7,5.019185
00000000000000000000AAAA,1,1473450868529252,1473450868529252,1,8.9375,13312,-38.5,865.7,2.0555344
000000AAAAAAAAAAAAAAAA00,1,1473450868531077,1473450868531077,1,6.5,13312,-36.0,865.7,4.0374374
000000AAAAAAAAAAAAAAAA00,1,1473450868540813,1473450868540813,1,0.8125,13312,-36.5,865.7,4.061981
00000000000000AAAAAAAAAA,1,1473450868544507,1473450868544507,1,5.6875,13312,-38.5,865.7,5.037593
00000000000000000000AAAA,1,1473450868547201,1473450868547201,1,5.6875,13312,-39.0,865.7,2.073942
00000000000000AAAAAAAA00,1,1473450868549023,1473450868549023,1,5.6875,13312,-38.0,865.7,1.9512236
00000000000000AAAAAAAAAA,1,1473450868556340,1473450868556340,1,2.4375,13312,-38.5,865.7,5.0560007
00000000000000000000AAAA,1,1473450868558123,1473450868558123,1,5.6875,13312,-38.5,865.7,2.073942
000000AAAAAAAAAAAAAAAA00,1,1473450868562877,1473450868562877,1,1.625,13312,-36.5,865.7,4.061981
00000000000000AAAAAAAA00,1,1473450868564315,1473450868564315,1,2.4375,13312,-38.0,865.7,1.9819032
00000000000000AAAAAAAAAA,1,1473450868573397,1473450868573397,1,1.625,13312,-38.5,865.7,5.049865
00000000000000000000AAAA,1,1473450868574757,1473450868574757,1,8.9375,13312,-38.5,865.7,2.067806
000000AAAAAAAAAAAAAAAA00,1,1473450868576055,1473450868576055,1,-0.8125,13312,-36.5,865.7,4.074253
00000000000000AAAAAAAA00,1,1473450868577606,1473450868577606,1,6.5,13312,-38.0,865.7,1.9450877
00000000000000000000AAAA,1,1473450868588059,1473450868588059,1,8.125,13312,-38.5,865.7,2.073942
00000000000000AAAAAAAA00,1,1473450868589667,1473450868589667,1,8.9375,13312,-38.0,865.7,1.9450877
00000000000000AAAAAAAAAA,1,1473450868591030,1473450868591030,1,4.875,13312,-38.5,865.7,5.0682726
000000AAAAAAAAAAAAAAAA00,1,1473450868592626,1473450868592626,1,1.625,13312,-36.5,865.7,4.0558453
000000AAAAAAAAAAAAAAAA00,1,1473450868603042,1473450868603042,1,5.6875,13312,-36.5,865.7,4.0313015
00000000000000AAAAAAAAAA,1,1473450868605631,1473450868605631,1,6.5,13312,-38.5,865.7,5.037593
00000000000000000000AAAA,1,1473450868607188,1473450868607188,1,8.125,13312,-38.5,865.7,2.0862138
00000000000000AAAAAAAA00,1,1473450868608541,1473450868608541,1,7.3125,13312,-38.5,865.7,1.9389517
000000AAAAAAAAAAAAAAAA00,1,1473450868616116,1473450868616116,1,0.8125,13312,-36.5,865.7,4.068117
00000000000000000000AAAA,1,1473450868618271,1473450868618271,1,8.125,13312,-38.5,865.7,2.0923498
00000000000000AAAAAAAAAA,1,1473450868620012,1473450868620012,1,1.625,13312,-38.5,865.7,5.0621367
00000000000000AAAAAAAA00,1,1473450868621562,1473450868621562,1,2.4375,13312,-38.0,865.7,1.9634954
00000000000000000000AAAA,1,1473450868631868,1473450868631868,1,8.9375,13312,-38.5,865.7,2.0923498
00000000000000AAAAAAAA00,1,1473450868633740,1473450868633740,1,8.125,13312,-38.0,865.7,1.9328158
00000000000000AAAAAAAAAA,1,1473450868635300,1473450868635300,1,2.4375,13312,-38.5,865.7,5.0621367
000000AAAAAAAAAAAAAAAA00,1,1473450868638451,1473450868638451,1,2.4375,13312,-36.0,865.7,4.0435734
00000000000000000000AAAA,1,1473450868648923,1473450868648923,1,5.6875,13312,-38.5,865.7,2.1046216
000000AAAAAAAAAAAAAAAA00,1,1473450868650417,1473450868650417,1,0.0,13312,-36.5,865.7,4.0558453
00000000000000AAAAAAAA00,1,1473450868652043,1473450868652043,1,6.5,13312,-38.0,865.7,1.914408
00000000000000AAAAAAAAAA,1,1473450868653859,1473450868653859,1,4.0625,13312,-39.0,865.7,5.0560007
000000AAAAAAAAAAAAAAAA00,1,1473450868662061,1473450868662061,1,2.4375,13312,-36.5,865.7,4.0374374
00000000000000000000AAAA,1,1473450868665434,1473450868665434,1,8.9375,13312,-38.0,865.7,2.0862138
00000000000000AAAAAAAA00,1,1473450868667410,1473450868667410,1,5.6875,13312,-38.0,865.7,1.9266798
00000000000000AAAAAAAAAA,1,1473450868669197,1473450868669197,1,4.0625,13312,-38.5,865.7,5.0805445
00000000000000AAAAAAAA00,1,1473450868675695,1473450868675695,1,9.75,13312,-37.5,865.7,1.9082721
000000AAAAAAAAAAAAAAAA00,1,1473450868678024,1473450868678024,1,2.4375,13312,-36.5,865.7,4.0435734
00000000000000AAAAAAAAAA,1,1473450868681386,1473450868681386,1,4.875,13312,-38.5,865.7,5.0866804
00000000000000000000AAAA,1,1473450868683838,1473450868683838,1,4.875,13312,-38.0,865.7,2.1230295
000000AAAAAAAAAAAAAAAA00,1,1473450868693750,1473450868693750,1,-0.8125,13312,-36.5,865.7,4.0558453
00000000000000000000AAAA,1,1473450868695394,1473450868695394,1,9.75,13312,-38.0,865.7,2.0923498
00000000000000AAAAAAAAAA,1,1473450868696996,1473450868696996,1,0.8125,13312,-38.5,865.7,5.0928164
00000000000000AAAAAAAA00,1,1473450868699111,1473450868699111,1,2.4375,13312,-38.0,865.7,1.9450877
00000000000000000000AAAA,1,1473450868711557,1473450868711557,1,8.125,13312,-38.5,865.7,2.1046216
000000AAAAAAAAAAAAAAAA00,1,1473450868712913,1473450868712913,1,4.875,13312,-36.0,865.7,4.0313015
00000000000000AAAAAAAAAA,1,1473450868714432,1473450868714432,1,8.125,13312,-38.5,865.7,5.0621367
00000000000000AAAAAAAA00,1,1473450868719066,1473450868719066,1,8.9375,13312,-38.0,865.7,1.9389517
000000AAAAAAAAAAAAAAAA00,1,1473450868725519,1473450868725519,1,2.4375,13312,-36.5,865.7,4.0374374
00000000000000000000AAAA,1,1473450868728483,1473450868728483,1,7.3125,13312,-38.0,865.7,2.1107576
00000000000000AAAAAAAAAA,1,1473450868730202,1473450868730202,1,5.6875,13312,-38.5,865.7,5.0744085
00000000000000AAAAAAAA00,1,1473450868733286,1473450868733286,1,8.125,13312,-38.0,865.7,1.9266798
000000AAAAAAAAAAAAAAAA00,1,1473450868741106,1473450868741106,1,4.875,13312,-36.5,865.7,4.0374374
00000000000000000000AAAA,1,1473450868742890,1473450868742890,1,4.875,13312,-38.5,865.7,2.1291654
00000000000000AAAAAAAAAA,1,1473450868744240,1473450868744240,1,4.875,13312,-38.5,865.7,5.0744085
00000000000000AAAAAAAA00,1,1473450868746044,1473450868746044,1,8.9375,13312,-38.0,865.7,1.9205439
00000000000000AAAAAAAAAA,1,1473450868759937,1473450868759937,1,4.0625,13312,-38.5,865.7,5.0805445
000000AAAAAAAAAAAAAAAA00,1,1473450868762610,1473450868762610,1,-0.8125,13312,-36.5,865.7,4.061981
00000000000000AAAAAAAA00,1,1473450868764290,1473450868764290,1,9.75,13312,-38.0,865.7,1.9266798
00000000000000000000AAAA,1,1473450868765622,1473450868765622,1,5.6875,13312,-38.5,865.7,2.1230295
000000AAAAAAAAAAAAAAAA00,1,1473450868772468,1473450868772468,1,2.4375,13312,-36.0,865.7,4.0374374
00000000000000000000AAAA,1,1473450868775944,1473450868775944,1,8.125,13312,-38.0,865.7,2.1046216
00000000000000AAAAAAAAAA,1,1473450868777802,1473450868777802,1,4.875,13312,-38.5,865.7,5.0682726
00000000000000AAAAAAAA00,1,1473450868779949,1473450868779949,1,7.3125,13312,-38.0,865.7,1.9389517
00000000000000000000AAAA,1,1473450868787007,1473450868787007,1,6.5,13312,-38.0,865.7,2.1168935
00000000000000AAAAAAAAAA,1,1473450868789843,1473450868789843,1,0.8125,13312,-38.5,865.7,5.105088
000000AAAAAAAAAAAAAAAA00,1,1473450868791767,1473450868791767,1,0.8125,13312,-36.5,865.7,4.0374374
00000000000000AAAAAAAA00,1,1473450868793589,1473450868793589,1,4.875,13312,-38.0,865.7,1.9573594
00000000000000AAAAAAAAAA,1,1473450868803687,1473450868803687,1,0.8125,13312,-38.5,865.7,5.0989523
00000000000000000000AAAA,1,1473450868806582,1473450868806582,1,7.3125,13312,-38.5,865.7,2.1107576
00000000000000AAAAAAAA00,1,1473450868808247,1473450868808247,1,8.9375,13312,-38.0,865.7,1.9328158
000000AAAAAAAAAAAAAAAA00,1,1473450868809800,1473450868809800,1,1.625,13312,-36.0,865.7,4.0435734
00000000000000000000AAAA,1,1473450868816221,1473450868816221,1,4.875,13312,-38.5,865.7,2.1168935
000000AAAAAAAAAAAAAAAA00,1,1473450868818542,1473450868818542,1,-1.625,13312,-36.5,865.7,4.061981
00000000000000AAAAAAAA00,1,1473450868821281,1473450868821281,1,6.5,13312,-37.5,865.7,1.9450877
00000000000000AAAAAAAAAA,1,1473450868825250,1473450868825250,1,4.875,13312,-38.5,865.7,5.0805445
