80000000000000000000CC00,865.7,4.1908355,1.625
80000000000000000000CC00,865.7,4.2092433,-1.625
80000000000000000000CC00,865.7,4.2092433,-2.4375
80000000000000000000CC00,865.7,4.215379,-2.4375
80000000000000000000CC00,865.7,4.2031074,1.625
80000000000000000000CC00,865.7,4.1969714,2.4375
80000000000000000000CC00,865.7,4.2031074,0.8125
80000000000000000000CC00,865.7,4.1969714,1.625
80000000000000000000CC00,865.7,4.221515,-2.4375
80000000000000000000CC00,865.7,4.1846995,5.6875
80000000000000000000CC00,865.7,4.2031074,0.8125
80000000000000000000CC00,865.7,4.215379,0.0
80000000000000000000CC00,865.7,4.1969714,1.625
80000000000000000000CC00,865.7,4.1969714,4.0625
80000000000000000000CC00,865.7,4.221515,-2.4375
80000000000000000000CC00,865.7,4.1908355,4.0625
80000000000000000000CC00,865.7,4.227651,-4.0625
80000000000000000000CC00,865.7,4.221515,-0.8125
80000000000000000000CC00,865.7,4.221515,-1.625
80000000000000000000CC00,865.7,4.2031074,1.625
80000000000000000000CC00,865.7,4.221515,-0.8125
80000000000000000000CC00,865.7,4.2031074,0.8125
80000000000000000000CC00,865.7,4.2092433,0.0
80000000000000000000CC00,865.7,4.2031074,0.8125
80000000000000000000CC00,865.7,4.221515,0.0
80000000000000000000CC00,865.7,4.2092433,1.625
80000000000000000000CC00,865.7,4.233787,-2.4375
80000000000000000000CC00,865.7,4.227651,-1.625
80000000000000000000CC00,865.7,4.221515,0.8125
80000000000000000000CC00,865.7,4.2092433,0.8125
80000000000000000000CC00,865.7,4.1969714,2.4375
80000000000000000000CC00,865.7,4.1969714,2.4375
80000000000000000000CC00,865.7,4.2031074,2.4375
80000000000000000000CC00,865.7,4.233787,-1.625
80000000000000000000CC00,865.7,4.1969714,4.875
80000000000000000000CC00,865.7,4.233787,-4.0625
80000000000000000000CC00,865.7,4.2092433,0.8125
80000000000000000000CC00,865.7,4.2092433,2.4375
80000000000000000000CC00,865.7,4.246059,-6.5
80000000000000000000CC00,865.7,4.233787,-2.4375
80000000000000000000CC00,865.7,4.215379,2.4375
80000000000000000000CC00,865.7,4.2092433,1.625
80000000000000000000CC00,865.7,4.2092433,2.4375
80000000000000000000CC00,865.7,4.215379,0.0
80000000000000000000CC00,865.7,4.239923,-4.0625
80000000000000000000CC00,865.7,4.2031074,2.4375
80000000000000000000CC00,865.7,4.227651,-1.625
80000000000000000000CC00,865.7,4.2092433,2.4375
80000000000000000000CC00,865.7,4.221515,0.0
80000000000000000000CC00,865.7,4.2092433,2.4375
80000000000000000000CC00,865.7,4.221515,-0.8125
80000000000000000000CC00,865.7,4.221515,0.8125
80000000000000000000CC00,865.7,4.221515,1.625
80000000000000000000CC00,865.7,4.233787,-1.625
80000000000000000000CC00,865.7,4.2031074,4.0625
80000000000000000000CC00,865.7,4.2092433,4.0625
80000000000000000000CC00,865.7,4.215379,0.8125
80000000000000000000CC00,865.7,4.221515,1.625
80000000000000000000CC00,865.7,4.2092433,2.4375
80000000000000000000CC00,865.7,4.215379,1.625
80000000000000000000CC00,865.7,4.221515,2.4375
80000000000000000000CC00,865.7,4.239923,-0.8125
80000000000000000000CC00,865.7,4.233787,-0.8125
80000000000000000000CC00,865.7,4.2092433,2.4375
80000000000000000000CC00,865.7,4.221515,0.8125
80000000000000000000CC00,865.7,4.221515,0.0
80000000000000000000CC00,865.7,4.246059,-2.4375
80000000000000000000CC00,865.7,4.252195,-4.875
80000000000000000000CC00,865.7,4.239923,0.0
80000000000000000000CC00,865.7,4.246059,-4.875
80000000000000000000CC00,865.7,4.227651,-0.8125
80000000000000000000CC00,865.7,4.227651,-1.625
80000000000000000000CC00,865.7,4.246059,-4.0625
80000000000000000000CC00,865.7,4.239923,-1.625
80000000000000000000CC00,865.7,4.246059,-4.0625
80000000000000000000CC00,865.7,4.2031074,2.4375
80000000000000000000CC00,865.7,4.221515,0.8125
80000000000000000000CC00,865.7,4.215379,1.625
80000000000000000000CC00,865.7,4.252195,-4.0625
80000000000000000000CC00,865.7,4.227651,-0.8125
80000000000000000000CC00,865.7,4.2092433,1.625
80000000000000000000CC00,865.7,4.239923,-4.0625
80000000000000000000CC00,865.7,4.239923,-2.4375
80000000000000000000CC00,865.7,4.239923,-1.625
80000000000000000000CC00,865.7,4.215379,4.0625
80000000000000000000CC00,865.7,4.2092433,4.0625
80000000000000000000CC00,865.7,4.233787,-0.8125
80000000000000000000CC00,865.7,4.221515,2.4375
80000000000000000000CC00,865.7,4.233787,-1.625
80000000000000000000CC00,865.7,4.227651,1.625
80000000000000000000CC00,865.7,4.227651,0.0
80000000000000000000CC00,865.7,4.239923,-2.4375
80000000000000000000CC00,865.7,4.215379,2.4375
80000000000000000000CC00,865.7,4.215379,1.625
80000000000000000000CC00,865.7,4.227651,0.8125
80000000000000000000CC00,865.7,4.215379,1.625
80000000000000000000CC00,865.7,4.239923,-2.4375
80000000000000000000CC00,865.7,4.215379,2.4375
80000000000000000000CC00,865.7,4.215379,0.8125
80000000000000000000CC00,865.7,4.239923,-1.625
80000000000000000000CC00,865.7,4.221515,0.0
80000000000000000000CC00,865.7,4.221515,0.8125
80000000000000000000CC00,865.7,4.239923,-1.625
80000000000000000000CC00,865.7,4.1969714,4.875
80000000000000000000CC00,865.7,4.233787,-1.625
80000000000000000000CC00,865.7,4.227651,-0.8125
80000000000000000000CC00,865.7,4.215379,1.625
80000000000000000000CC00,865.7,4.215379,2.4375
80000000000000000000CC00,865.7,4.233787,-2.4375
80000000000000000000CC00,865.7,4.233787,0.0
80000000000000000000CC00,865.7,4.233787,0.0
80000000000000000000CC00,865.7,4.221515,2.4375
80000000000000000000CC00,865.7,4.233787,-1.625
80000000000000000000CC00,865.7,4.239923,-4.0625
80000000000000000000CC00,865.7,4.246059,-4.875
80000000000000000000CC00,865.7,4.215379,2.4375
80000000000000000000CC00,865.7,4.233787,-1.625
80000000000000000000CC00,865.7,4.2092433,4.0625
80000000000000000000CC00,865.7,4.227651,0.8125
80000000000000000000CC00,865.7,4.227651,0.0
80000000000000000000CC00,865.7,4.233787,-1.625
80000000000000000000CC00,865.7,4.239923,-1.625
80000000000000000000CC00,865.7,4.246059,-4.875
80000000000000000000CC00,865.7,4.233787,-0.8125
80000000000000000000CC00,865.7,4.246059,-2.4375
80000000000000000000CC00,865.7,4.246059,-4.0625
80000000000000000000CC00,865.7,4.221515,2.4375
80000000000000000000CC00,865.7,4.239923,-2.4375
80000000000000000000CC00,865.7,4.239923,-1.625
80000000000000000000CC00,865.7,4.233787,-2.4375
80000000000000000000CC00,865.7,4.239923,-1.625
80000000000000000000CC00,865.7,4.252195,-5.6875
80000000000000000000CC00,865.7,4.2092433,1.625
80000000000000000000CC00,865.7,4.2092433,4.0625
80000000000000000000CC00,865.7,4.221515,1.625
80000000000000000000CC00,865.7,4.246059,-2.4375
80000000000000000000CC00,865.7,4.221515,0.0
80000000000000000000CC00,865.7,4.233787,-0.8125
80000000000000000000CC00,865.7,4.215379,1.625
80000000000000000000CC00,865.7,4.239923,-4.0625
80000000000000000000CC00,865.7,4.227651,0.0
80000000000000000000CC00,865.7,4.2031074,2.4375
80000000000000000000CC00,865.7,4.2092433,1.625
80000000000000000000CC00,865.7,4.227651,0.0
80000000000000000000CC00,865.7,4.221515,0.0
80000000000000000000CC00,865.7,4.215379,0.0
80000000000000000000CC00,865.7,4.2092433,4.0625
80000000000000000000CC00,865.7,4.227651,0.0
80000000000000000000CC00,865.7,4.221515,1.625
80000000000000000000CC00,865.7,4.239923,-4.0625
80000000000000000000CC00,865.7,4.221515,4.0625
80000000000000000000CC00,865.7,4.233787,-1.625
80000000000000000000CC00,865.7,4.252195,-2.4375
80000000000000000000CC00,865.7,4.233787,-1.625
80000000000000000000CC00,865.7,4.239923,-4.0625
80000000000000000000CC00,865.7,4.215379,0.8125
80000000000000000000CC00,865.7,4.239923,-4.0625
80000000000000000000CC00,865.7,4.246059,-4.0625
80000000000000000000CC00,865.7,4.221515,0.8125
80000000000000000000CC00,865.7,4.239923,-0.8125
80000000000000000000CC00,865.7,4.252195,-4.0625
80000000000000000000CC00,865.7,4.221515,0.0
80000000000000000000CC00,865.7,4.252195,-4.875
80000000000000000000CC00,865.7,4.215379,1.625
80000000000000000000CC00,865.7,4.233787,-0.8125
80000000000000000000CC00,865.7,4.221515,0.8125
80000000000000000000CC00,865.7,4.215379,1.625
80000000000000000000CC00,865.7,4.215379,1.625
80000000000000000000CC00,865.7,4.239923,-4.0625
80000000000000000000CC00,865.7,4.233787,-4.0625
80000000000000000000CC00,865.7,4.239923,-1.625
80000000000000000000CC00,865.7,4.233787,0.8125
80000000000000000000CC00,865.7,4.239923,-4.0625
80000000000000000000CC00,865.7,4.221515,0.0
80000000000000000000CC00,865.7,4.246059,-4.875
80000000000000000000CC00,865.7,4.239923,-4.875
80000000000000000000CC00,865.7,4.1969714,4.0625
80000000000000000000CC00,865.7,4.221515,-0.8125
80000000000000000000CC00,865.7,4.215379,1.625
80000000000000000000CC00,865.7,4.2092433,0.8125
80000000000000000000CC00,865.7,4.215379,0.0
80000000000000000000CC00,865.7,4.2092433,1.625
80000000000000000000CC00,865.7,4.221515,-2.4375
80000000000000000000CC00,865.7,4.2092433,0.8125
80000000000000000000CC00,865.7,4.221515,-1.625
80000000000000000000CC00,865.7,4.227651,-4.0625
80000000000000000000CC00,865.7,4.2092433,0.0
80000000000000000000CC00,865.7,4.221515,-4.0625
80000000000000000000CC00,865.7,4.221515,-2.4375
80000000000000000000CC00,865.7,4.2031074,0.0
80000000000000000000CC00,865.7,4.215379,0.0
80000000000000000000CC00,865.7,4.215379,-2.4375
80000000000000000000CC00,865.7,4.1908355,4.875
80000000000000000000CC00,865.7,4.2031074,0.0
80000000000000000000CC00,865.7,4.1969714,1.625
80000000000000000000CC00,865.7,4.2031074,-0.8125
80000000000000000000CC00,865.7,4.1724277,2.4375
80000000000000000000CC00,865.7,4.2031074,-0.8125
80000000000000000000CC00,865.7,4.1846995,1.625
80000000000000000000CC00,865.7,4.1846995,0.0
80000000000000000000CC00,865.7,4.1785636,2.4375
80000000000000000000CC00,865.7,4.2031074,-4.0625
80000000000000000000CC00,865.7,4.1908355,-1.625
80000000000000000000CC00,865.7,4.1908355,-0.8125
80000000000000000000CC00,865.7,4.1785636,0.8125
80000000000000000000CC00,865.7,4.1785636,0.8125
80000000000000000000CC00,865.7,4.1969714,-4.0625
80000000000000000000CC00,865.7,4.1724277,4.0625
80000000000000000000CC00,865.7,4.1908355,-4.0625
80000000000000000000CC00,865.7,4.1724277,0.0
80000000000000000000CC00,865.7,4.1785636,-1.625
80000000000000000000CC00,865.7,4.1724277,0.8125
80000000000000000000CC00,865.7,4.1724277,0.0
80000000000000000000CC00,865.7,4.1662917,0.8125
80000000000000000000CC00,865.7,4.1662917,0.8125
80000000000000000000CC00,865.7,4.160156,1.625
80000000000000000000CC00,865.7,4.1662917,0.8125
80000000000000000000CC00,865.7,4.1662917,2.4375
80000000000000000000CC00,865.7,4.1662917,0.8125
80000000000000000000CC00,865.7,4.141748,2.4375
80000000000000000000CC00,865.7,4.1724277,-1.625
80000000000000000000CC00,865.7,4.160156,0.8125
80000000000000000000CC00,865.7,4.1846995,-4.875
80000000000000000000CC00,865.7,4.1724277,-1.625
80000000000000000000CC00,865.7,4.160156,-0.8125
80000000000000000000CC00,865.7,4.160156,-0.8125
80000000000000000000CC00,865.7,4.15402,-0.8125
80000000000000000000CC00,865.7,4.1662917,-4.0625
80000000000000000000CC00,865.7,4.147884,0.8125
80000000000000000000CC00,865.7,4.15402,0.0
80000000000000000000CC00,865.7,4.147884,0.0
80000000000000000000CC00,865.7,4.135612,0.0
80000000000000000000CC00,865.7,4.141748,-0.8125
80000000000000000000CC00,865.7,4.141748,-0.8125
80000000000000000000CC00,865.7,4.129476,-1.625
80000000000000000000CC00,865.7,4.129476,-0.8125
80000000000000000000CC00,865.7,4.12334,-0.8125
80000000000000000000CC00,865.7,4.141748,-4.875
80000000000000000000CC00,865.7,4.1172047,-1.625
80000000000000000000CC00,865.7,4.1172047,-1.625
80000000000000000000CC00,865.7,4.12334,-4.875
80000000000000000000CC00,865.7,4.098797,0.0
80000000000000000000CC00,865.7,4.080389,0.8125
80000000000000000000CC00,865.7,4.086525,0.0
80000000000000000000CC00,865.7,4.074253,1.625
80000000000000000000CC00,865.7,4.074253,1.625
80000000000000000000CC00,865.7,4.080389,-0.8125
80000000000000000000CC00,865.7,4.074253,1.625
80000000000000000000CC00,865.7,4.074253,0.0
80000000000000000000CC00,865.7,4.092661,-4.875
80000000000000000000CC00,865.7,4.074253,-2.4375
80000000000000000000CC00,865.7,4.074253,-1.625
80000000000000000000CC00,865.7,4.068117,-1.625
80000000000000000000CC00,865.7,4.0558453,0.8125
80000000000000000000CC00,865.7,4.0558453,0.0
80000000000000000000CC00,865.7,4.061981,-0.8125
80000000000000000000CC00,865.7,4.0435734,2.4375
80000000000000000000CC00,865.7,4.0558453,0.0
80000000000000000000CC00,865.7,4.0497093,0.8125
80000000000000000000CC00,865.7,4.0558453,-1.625
80000000000000000000CC00,865.7,4.0313015,2.4375
80000000000000000000CC00,865.7,4.0558453,-0.8125
80000000000000000000CC00,865.7,4.068117,-2.4375
80000000000000000000CC00,865.7,4.0435734,0.0
80000000000000000000CC00,865.7,4.0497093,0.0
80000000000000000000CC00,865.7,4.0558453,0.0
80000000000000000000CC00,865.7,4.0558453,-1.625
80000000000000000000CC00,865.7,4.0558453,-0.8125
80000000000000000000CC00,865.7,4.074253,-5.6875
80000000000000000000CC00,865.7,4.0558453,0.0
80000000000000000000CC00,865.7,4.068117,-4.0625
80000000000000000000CC00,865.7,4.0558453,-2.4375
80000000000000000000CC00,865.7,4.0558453,-2.4375
80000000000000000000CC00,865.7,4.0435734,0.0
80000000000000000000CC00,865.7,4.0374374,-0.8125
80000000000000000000CC00,865.7,4.0497093,-2.4375
80000000000000000000CC00,865.7,4.0251656,1.625
80000000000000000000CC00,865.7,4.0374374,1.625
80000000000000000000CC00,865.7,4.0251656,2.4375
80000000000000000000CC00,865.7,4.0313015,-1.625
80000000000000000000CC00,865.7,4.0313015,-0.8125
80000000000000000000CC00,865.7,4.0251656,0.8125
80000000000000000000CC00,865.7,4.0313015,-0.8125
80000000000000000000CC00,865.7,4.0190296,0.8125
80000000000000000000CC00,865.7,4.0190296,0.0
80000000000000000000CC00,865.7,4.0251656,-1.625
80000000000000000000CC00,865.7,4.0067577,2.4375
80000000000000000000CC00,865.7,4.0251656,-0.8125
80000000000000000000CC00,865.7,4.0128937,0.0
80000000000000000000CC00,865.7,4.0128937,0.8125
80000000000000000000CC00,865.7,4.0190296,-1.625
80000000000000000000CC00,865.7,4.0190296,-1.625
80000000000000000000CC00,865.7,4.0251656,-2.4375
80000000000000000000CC00,865.7,4.0067577,-0.8125
80000000000000000000CC00,865.7,4.0067577,0.8125
80000000000000000000CC00,865.7,3.9944859,2.4375
80000000000000000000CC00,865.7,4.0067577,-1.625
80000000000000000000CC00,865.7,3.9944859,-0.8125
80000000000000000000CC00,865.7,4.000622,-0.8125
80000000000000000000CC00,865.7,4.000622,-1.625
80000000000000000000CC00,865.7,3.9822142,0.8125
80000000000000000000CC00,865.7,3.9944859,0.0
80000000000000000000CC00,865.7,3.9883502,-0.8125
80000000000000000000CC00,865.7,3.9944859,-0.8125
80000000000000000000CC00,865.7,3.9822142,0.8125
80000000000000000000CC00,865.7,3.9760783,-0.8125
80000000000000000000CC00,865.7,4.0067577,-4.875
80000000000000000000CC00,865.7,3.9883502,-1.625
80000000000000000000CC00,865.7,4.0067577,-4.875
80000000000000000000CC00,865.7,3.9883502,-2.4375
80000000000000000000CC00,865.7,3.9883502,-1.625
80000000000000000000CC00,865.7,3.9822142,-0.8125
80000000000000000000CC00,865.7,3.9822142,0.0
80000000000000000000CC00,865.7,3.9699423,1.625
80000000000000000000CC00,865.7,3.9883502,-4.0625
80000000000000000000CC00,865.7,3.9822142,0.0
80000000000000000000CC00,865.7,3.9760783,-0.8125
80000000000000000000CC00,865.7,3.9760783,-0.8125
80000000000000000000CC00,865.7,3.9699423,-2.4375
80000000000000000000CC00,865.7,3.9699423,-0.8125
80000000000000000000CC00,865.7,3.9638064,-0.8125
80000000000000000000CC00,865.7,3.9638064,-1.625
80000000000000000000CC00,865.7,3.9515345,0.0
80000000000000000000CC00,865.7,3.9515345,-1.625
80000000000000000000CC00,865.7,3.9515345,-1.625
80000000000000000000CC00,865.7,3.9576705,-4.0625
80000000000000000000CC00,865.7,3.9453986,-1.625
80000000000000000000CC00,865.7,3.9392626,-2.4375
80000000000000000000CC00,865.7,3.9331267,-2.4375
80000000000000000000CC00,865.7,3.9269907,0.0
80000000000000000000CC00,865.7,3.9269907,-0.8125
80000000000000000000CC00,865.7,3.9269907,-1.625
80000000000000000000CC00,865.7,3.9331267,-2.4375
80000000000000000000CC00,865.7,3.9269907,-4.875
80000000000000000000CC00,865.7,3.9269907,-1.625
80000000000000000000CC00,865.7,3.9208548,-0.8125
80000000000000000000CC00,865.7,3.9269907,-0.8125
80000000000000000000CC00,865.7,3.9515345,-4.875
80000000000000000000CC00,865.7,3.9208548,0.8125
80000000000000000000CC00,865.7,3.9453986,-4.0625
80000000000000000000CC00,865.7,3.9453986,-2.4375
80000000000000000000CC00,865.7,3.9392626,-0.8125
80000000000000000000CC00,865.7,3.9576705,-0.8125
80000000000000000000CC00,865.7,3.9699423,-2.4375
80000000000000000000CC00,865.7,3.9699423,-0.8125
80000000000000000000CC00,865.7,3.9576705,4.0625
80000000000000000000CC00,865.7,3.9883502,-0.8125
80000000000000000000CC00,865.7,3.9883502,0.8125
80000000000000000000CC00,865.7,4.000622,0.0
80000000000000000000CC00,865.7,4.0251656,-4.0625
80000000000000000000CC00,865.7,4.0497093,-5.6875
80000000000000000000CC00,865.7,4.0313015,0.0
80000000000000000000CC00,865.7,4.0558453,-0.8125
80000000000000000000CC00,865.7,4.0497093,0.8125
80000000000000000000CC00,865.7,4.080389,-0.8125
80000000000000000000CC00,865.7,4.080389,0.0
80000000000000000000CC00,865.7,4.129476,-5.6875
80000000000000000000CC00,865.7,4.147884,-4.0625
80000000000000000000CC00,865.7,4.160156,-4.0625
80000000000000000000CC00,865.7,4.160156,-0.8125
80000000000000000000CC00,865.7,4.1846995,-2.4375
80000000000000000000CC00,865.7,4.1969714,-0.8125
80000000000000000000CC00,865.7,4.1969714,2.4375
80000000000000000000CC00,865.7,4.227651,-0.8125
80000000000000000000CC00,865.7,4.227651,2.4375
80000000000000000000CC00,865.7,4.258331,0.0
80000000000000000000CC00,865.7,4.264467,2.4375
80000000000000000000CC00,865.7,4.2828746,-1.625
80000000000000000000CC00,865.7,4.307418,-2.4375
80000000000000000000CC00,865.7,4.3196898,-0.8125
80000000000000000000CC00,865.7,4.313554,0.8125
80000000000000000000CC00,865.7,4.3442335,-4.0625
80000000000000000000CC00,865.7,4.3380976,2.4375
80000000000000000000CC00,865.7,4.3442335,0.0
80000000000000000000CC00,865.7,4.3565054,1.625
80000000000000000000CC00,865.7,4.393321,-5.6875
80000000000000000000CC00,865.7,4.411729,-7.3125
80000000000000000000CC00,865.7,4.393321,-1.625
80000000000000000000CC00,865.7,4.417865,-2.4375
80000000000000000000CC00,865.7,4.381049,2.4375
80000000000000000000CC00,865.7,4.4546804,-7.3125
80000000000000000000CC00,865.7,4.405593,4.0625
80000000000000000000CC00,865.7,4.4362726,-0.8125
80000000000000000000CC00,865.7,4.4485445,-0.8125
80000000000000000000CC00,865.7,4.4546804,-0.8125
80000000000000000000CC00,865.7,4.473088,-2.4375
80000000000000000000CC00,865.7,4.4914956,-4.875
80000000000000000000CC00,865.7,4.4853597,0.0
80000000000000000000CC00,865.7,4.4546804,5.6875
80000000000000000000CC00,865.7,4.5099034,-4.0625
80000000000000000000CC00,865.7,4.534447,-5.6875
80000000000000000000CC00,865.7,4.4914956,2.4375
80000000000000000000CC00,865.7,4.4976315,4.0625
80000000000000000000CC00,865.7,4.5160394,4.0625
80000000000000000000CC00,865.7,4.546719,-2.4375
80000000000000000000CC00,865.7,4.534447,4.875
80000000000000000000CC00,865.7,4.5835347,-6.5
80000000000000000000CC00,865.7,4.5283113,5.6875
80000000000000000000CC00,865.7,4.565127,-1.625
80000000000000000000CC00,865.7,4.565127,0.8125
80000000000000000000CC00,865.7,4.5283113,6.5
80000000000000000000CC00,865.7,4.571263,0.0
80000000000000000000CC00,865.7,4.5896707,-1.625
80000000000000000000CC00,865.7,4.552855,4.875
80000000000000000000CC00,865.7,4.577399,1.625
80000000000000000000CC00,865.7,4.5958066,-0.8125
80000000000000000000CC00,865.7,4.6019425,-0.8125
80000000000000000000CC00,865.7,4.6080785,-2.4375
80000000000000000000CC00,865.7,4.6142144,-2.4375
80000000000000000000CC00,865.7,4.6080785,-0.8125
80000000000000000000CC00,865.7,4.5896707,4.0625
80000000000000000000CC00,865.7,4.6387577,-4.875
80000000000000000000CC00,865.7,4.6510296,-5.6875
80000000000000000000CC00,865.7,4.632622,1.625
80000000000000000000CC00,865.7,4.6387577,-2.4375
80000000000000000000CC00,865.7,4.6203504,2.4375
80000000000000000000CC00,865.7,4.626486,1.625
80000000000000000000CC00,865.7,4.6571655,-1.625
80000000000000000000CC00,865.7,4.6633015,-2.4375
80000000000000000000CC00,865.7,4.6510296,-0.8125
80000000000000000000CC00,865.7,4.6571655,0.0
80000000000000000000CC00,865.7,4.632622,4.875
80000000000000000000CC00,865.7,4.6633015,-0.8125
80000000000000000000CC00,865.7,4.693981,-4.875
80000000000000000000CC00,865.7,4.6633015,0.8125
80000000000000000000CC00,865.7,4.6755733,0.0
80000000000000000000CC00,865.7,4.687845,0.0
80000000000000000000CC00,865.7,4.718525,-4.875
80000000000000000000CC00,865.7,4.687845,0.0
80000000000000000000CC00,865.7,4.718525,-0.8125
80000000000000000000CC00,865.7,4.693981,-0.8125
80000000000000000000CC00,865.7,4.687845,2.4375
80000000000000000000CC00,865.7,4.730797,-2.4375
80000000000000000000CC00,865.7,4.687845,5.6875
80000000000000000000CC00,865.7,4.7492046,-4.875
80000000000000000000CC00,865.7,4.724661,0.8125
80000000000000000000CC00,865.7,4.693981,5.6875
80000000000000000000CC00,865.7,4.706253,4.875
80000000000000000000CC00,865.7,4.718525,1.625
80000000000000000000CC00,865.7,4.730797,1.625
80000000000000000000CC00,865.7,4.7737484,-4.0625
80000000000000000000CC00,865.7,4.730797,5.6875
80000000000000000000CC00,865.7,4.7676125,0.0
80000000000000000000CC00,865.7,4.7553406,2.4375
80000000000000000000CC00,865.7,4.7982917,-4.875
80000000000000000000CC00,865.7,4.7614765,2.4375
80000000000000000000CC00,865.7,4.7798843,1.625
80000000000000000000CC00,865.7,4.7676125,1.625
80000000000000000000CC00,865.7,4.7982917,0.0
80000000000000000000CC00,865.7,4.8105636,-2.4375
80000000000000000000CC00,865.7,4.8105636,-1.625
80000000000000000000CC00,865.7,4.7737484,8.125
80000000000000000000CC00,865.7,4.8044276,1.625
80000000000000000000CC00,865.7,4.8105636,1.625
80000000000000000000CC00,865.7,4.8044276,7.3125
80000000000000000000CC00,865.7,4.8105636,5.6875
80000000000000000000CC00,865.7,4.8228354,2.4375
80000000000000000000CC00,865.7,4.8228354,2.4375
80000000000000000000CC00,865.7,4.8412433,1.625
80000000000000000000CC00,865.7,4.871923,-4.0625
80000000000000000000CC00,865.7,4.853515,0.8125
80000000000000000000CC00,865.7,4.859651,0.8125
80000000000000000000CC00,865.7,4.847379,1.625
80000000000000000000CC00,865.7,4.9026027,-4.0625
80000000000000000000CC00,865.7,4.859651,4.0625
80000000000000000000CC00,865.7,4.865787,5.6875
80000000000000000000CC00,865.7,4.884195,1.625
80000000000000000000CC00,865.7,4.8964667,-1.625
80000000000000000000CC00,865.7,4.9332824,-4.875
80000000000000000000CC00,865.7,4.8964667,4.875
80000000000000000000CC00,865.7,4.9026027,2.4375
80000000000000000000CC00,865.7,4.9210105,-2.4375
80000000000000000000CC00,865.7,4.9271464,-0.8125
80000000000000000000CC00,865.7,4.9455543,-4.875
80000000000000000000CC00,865.7,4.890331,5.6875
80000000000000000000CC00,865.7,4.9455543,-2.4375
80000000000000000000CC00,865.7,4.9087386,4.875
80000000000000000000CC00,865.7,4.9210105,1.625
80000000000000000000CC00,865.7,4.9148746,4.0625
80000000000000000000CC00,865.7,4.9271464,1.625
80000000000000000000CC00,865.7,4.9087386,4.875
80000000000000000000CC00,865.7,4.9148746,6.5
80000000000000000000CC00,865.7,4.9271464,4.0625
80000000000000000000CC00,865.7,4.957826,0.8125
80000000000000000000CC00,865.7,4.95169,0.0
80000000000000000000CC00,865.7,4.95169,1.625
80000000000000000000CC00,865.7,4.9394183,5.6875
80000000000000000000CC00,865.7,4.957826,1.625
80000000000000000000CC00,865.7,4.9455543,4.875
80000000000000000000CC00,865.7,4.9394183,6.5
80000000000000000000CC00,865.7,4.9455543,5.6875
80000000000000000000CC00,865.7,4.9885054,-4.875
80000000000000000000CC00,865.7,4.9639616,4.0625
80000000000000000000CC00,865.7,4.9762335,0.8125
80000000000000000000CC00,865.7,5.013049,-6.5
80000000000000000000CC00,865.7,4.9823694,0.0
80000000000000000000CC00,865.7,4.957826,4.875
80000000000000000000CC00,865.7,4.9946413,0.0
80000000000000000000CC00,865.7,4.9700975,1.625
80000000000000000000CC00,865.7,4.9885054,-0.8125
80000000000000000000CC00,865.7,5.0007772,-4.0625
80000000000000000000CC00,865.7,4.9823694,0.8125
80000000000000000000CC00,865.7,4.9823694,1.625
80000000000000000000CC00,865.7,4.9700975,6.5
80000000000000000000CC00,865.7,4.9885054,0.8125
80000000000000000000CC00,865.7,4.9946413,0.8125
80000000000000000000CC00,865.7,5.0007772,0.0
80000000000000000000CC00,865.7,5.006913,0.0
80000000000000000000CC00,865.7,5.0007772,2.4375
80000000000000000000CC00,865.7,5.006913,0.0
80000000000000000000CC00,865.7,5.037593,-2.4375
80000000000000000000CC00,865.7,4.9885054,5.6875
80000000000000000000CC00,865.7,5.037593,0.8125
80000000000000000000CC00,865.7,5.006913,4.875
80000000000000000000CC00,865.7,5.006913,4.0625
80000000000000000000CC00,865.7,5.006913,4.0625
80000000000000000000CC00,865.7,5.006913,5.6875
80000000000000000000CC00,865.7,5.0560007,-4.0625
80000000000000000000CC00,865.7,5.019185,2.4375
80000000000000000000CC00,865.7,5.019185,2.4375
80000000000000000000CC00,865.7,5.0560007,-4.0625
80000000000000000000CC00,865.7,4.9946413,8.125
80000000000000000000CC00,865.7,5.006913,6.5
80000000000000000000CC00,865.7,5.006913,6.5
80000000000000000000CC00,865.7,5.037593,2.4375
80000000000000000000CC00,865.7,5.025321,4.875
80000000000000000000CC00,865.7,5.043729,1.625
80000000000000000000CC00,865.7,5.037593,1.625
80000000000000000000CC00,865.7,5.043729,0.0
80000000000000000000CC00,865.7,5.049865,0.0
80000000000000000000CC00,865.7,5.037593,4.0625
80000000000000000000CC00,865.7,5.043729,4.0625
80000000000000000000CC00,865.7,5.0744085,0.8125
80000000000000000000CC00,865.7,5.0682726,0.0
80000000000000000000CC00,865.7,5.0744085,0.0
80000000000000000000CC00,865.7,5.0621367,-0.8125
80000000000000000000CC00,865.7,5.043729,4.0625
80000000000000000000CC00,865.7,5.0805445,-4.0625
80000000000000000000CC00,865.7,5.043729,5.6875
80000000000000000000CC00,865.7,5.0744085,-2.4375
80000000000000000000CC00,865.7,5.0621367,0.8125
80000000000000000000CC00,865.7,5.031457,7.3125
80000000000000000000CC00,865.7,5.043729,0.8125
80000000000000000000CC00,865.7,5.037593,4.0625
80000000000000000000CC00,865.7,5.049865,0.8125
80000000000000000000CC00,865.7,5.0682726,-0.8125
80000000000000000000CC00,865.7,5.049865,2.4375
80000000000000000000CC00,865.7,5.0805445,-4.875
80000000000000000000CC00,865.7,5.0621367,-1.625
80000000000000000000CC00,865.7,5.0560007,-0.8125
80000000000000000000CC00,865.7,5.049865,0.0
80000000000000000000CC00,865.7,5.049865,4.0625
80000000000000000000CC00,865.7,5.043729,4.875
80000000000000000000CC00,865.7,5.037593,5.6875
80000000000000000000CC00,865.7,5.0560007,0.0
80000000000000000000CC00,865.7,5.037593,5.6875
80000000000000000000CC00,865.7,5.0682726,-1.625
80000000000000000000CC00,865.7,5.031457,4.0625
80000000000000000000CC00,865.7,5.049865,2.4375
80000000000000000000CC00,865.7,5.0621367,1.625
80000000000000000000CC00,865.7,5.049865,1.625
80000000000000000000CC00,865.7,5.049865,4.0625
80000000000000000000CC00,865.7,5.043729,4.875
80000000000000000000CC00,865.7,5.049865,1.625
80000000000000000000CC00,865.7,5.043729,5.6875
80000000000000000000CC00,865.7,5.0805445,-4.875
80000000000000000000CC00,865.7,5.0744085,-1.625
80000000000000000000CC00,865.7,5.049865,0.8125
80000000000000000000CC00,865.7,5.0744085,-2.4375
80000000000000000000CC00,865.7,5.037593,5.6875
80000000000000000000CC00,865.7,5.0744085,-0.8125
80000000000000000000CC00,865.7,5.037593,4.875
80000000000000000000CC00,865.7,5.0682726,-1.625
80000000000000000000CC00,865.7,5.0805445,-4.875
80000000000000000000CC00,865.7,5.0621367,-0.8125
80000000000000000000CC00,865.7,5.0560007,0.8125
80000000000000000000CC00,865.7,5.0560007,-1.625
80000000000000000000CC00,865.7,5.037593,2.4375
80000000000000000000CC00,865.7,5.043729,2.4375
80000000000000000000CC00,865.7,5.043729,1.625
80000000000000000000CC00,865.7,5.0989523,-6.5
80000000000000000000CC00,865.7,5.0805445,-4.0625
80000000000000000000CC00,865.7,5.043729,4.875
80000000000000000000CC00,865.7,5.0805445,-6.5
80000000000000000000CC00,865.7,5.0621367,-2.4375
80000000000000000000CC00,865.7,5.037593,4.875
80000000000000000000CC00,865.7,5.0621367,0.0
80000000000000000000CC00,865.7,5.043729,4.875
80000000000000000000CC00,865.7,5.0621367,-1.625
80000000000000000000CC00,865.7,5.043729,2.4375
80000000000000000000CC00,865.7,5.0682726,-1.625
80000000000000000000CC00,865.7,5.031457,4.0625
80000000000000000000CC00,865.7,5.0805445,-5.6875
80000000000000000000CC00,865.7,5.037593,4.0625
80000000000000000000CC00,865.7,5.025321,4.875
80000000000000000000CC00,865.7,5.025321,4.0625
80000000000000000000CC00,865.7,5.019185,4.0625
80000000000000000000CC00,865.7,5.0744085,-4.875
80000000000000000000CC00,865.7,5.025321,4.875
80000000000000000000CC00,865.7,5.037593,4.0625
80000000000000000000CC00,865.7,5.0744085,-4.0625
80000000000000000000CC00,865.7,5.019185,6.5
80000000000000000000CC00,865.7,5.025321,2.4375
80000000000000000000CC00,865.7,5.0560007,-1.625
80000000000000000000CC00,865.7,5.031457,2.4375
80000000000000000000CC00,865.7,5.037593,1.625
80000000000000000000CC00,865.7,5.0560007,-0.8125
80000000000000000000CC00,865.7,5.037593,1.625
80000000000000000000CC00,865.7,5.0682726,-4.875
80000000000000000000CC00,865.7,5.043729,-0.8125
80000000000000000000CC00,865.7,5.0682726,-5.6875
80000000000000000000CC00,865.7,5.013049,4.875
80000000000000000000CC00,865.7,5.013049,5.6875
80000000000000000000CC00,865.7,5.025321,2.4375
80000000000000000000CC00,865.7,5.037593,-0.8125
80000000000000000000CC00,865.7,5.019185,0.8125
80000000000000000000CC00,865.7,5.025321,2.4375
80000000000000000000CC00,865.7,5.006913,2.4375
80000000000000000000CC00,865.7,5.037593,1.625
80000000000000000000CC00,865.7,5.031457,0.8125
80000000000000000000CC00,865.7,5.0682726,-6.5
80000000000000000000CC00,865.7,5.006913,4.0625
80000000000000000000CC00,865.7,5.013049,4.875
80000000000000000000CC00,865.7,5.0560007,-4.875
80000000000000000000CC00,865.7,5.043729,-0.8125
80000000000000000000CC00,865.7,5.037593,-0.8125
80000000000000000000CC00,865.7,5.013049,2.4375
80000000000000000000CC00,865.7,5.037593,-1.625
80000000000000000000CC00,865.7,5.025321,1.625
80000000000000000000CC00,865.7,5.019185,1.625
80000000000000000000CC00,865.7,5.019185,0.8125
80000000000000000000CC00,865.7,5.006913,2.4375
80000000000000000000CC00,865.7,5.0560007,-5.6875
80000000000000000000CC00,865.7,5.0560007,-4.875
80000000000000000000CC00,865.7,5.013049,2.4375
80000000000000000000CC00,865.7,5.031457,0.0
80000000000000000000CC00,865.7,4.9946413,8.125
80000000000000000000CC00,865.7,5.006913,4.875
80000000000000000000CC00,865.7,5.0560007,-4.0625
80000000000000000000CC00,865.7,5.049865,-4.0625
80000000000000000000CC00,865.7,5.031457,0.8125
80000000000000000000CC00,865.7,5.025321,1.625
80000000000000000000CC00,865.7,5.025321,0.0
80000000000000000000CC00,865.7,5.019185,2.4375
80000000000000000000CC00,865.7,5.025321,0.0
80000000000000000000CC00,865.7,5.013049,0.8125
80000000000000000000CC00,865.7,5.025321,1.625
80000000000000000000CC00,865.7,5.025321,0.8125
80000000000000000000CC00,865.7,5.031457,-0.8125
80000000000000000000CC00,865.7,5.043729,-2.4375
80000000000000000000CC00,865.7,5.019185,1.625
80000000000000000000CC00,865.7,5.019185,1.625
80000000000000000000CC00,865.7,5.019185,2.4375
80000000000000000000CC00,865.7,5.043729,-2.4375
80000000000000000000CC00,865.7,5.019185,1.625
80000000000000000000CC00,865.7,5.049865,-4.0625
80000000000000000000CC00,865.7,4.9885054,7.3125
80000000000000000000CC00,865.7,5.031457,-0.8125
80000000000000000000CC00,865.7,5.013049,4.875
80000000000000000000CC00,865.7,5.013049,0.8125
80000000000000000000CC00,865.7,5.006913,4.0625
80000000000000000000CC00,865.7,4.9946413,4.875
80000000000000000000CC00,865.7,5.006913,1.625
80000000000000000000CC00,865.7,5.043729,-4.875
80000000000000000000CC00,865.7,5.037593,-2.4375
80000000000000000000CC00,865.7,5.031457,-0.8125
80000000000000000000CC00,865.7,5.006913,4.0625
80000000000000000000CC00,865.7,5.037593,-1.625
80000000000000000000CC00,865.7,5.019185,0.8125
80000000000000000000CC00,865.7,4.9885054,5.6875
80000000000000000000CC00,865.7,5.0007772,1.625
80000000000000000000CC00,865.7,4.9946413,4.0625
80000000000000000000CC00,865.7,5.006913,2.4375
80000000000000000000CC00,865.7,5.0007772,2.4375
80000000000000000000CC00,865.7,5.013049,-0.8125
80000000000000000000CC00,865.7,5.025321,-1.625
80000000000000000000CC00,865.7,5.013049,0.0
80000000000000000000CC00,865.7,5.019185,-0.8125
80000000000000000000CC00,865.7,5.019185,-1.625
80000000000000000000CC00,865.7,5.0007772,1.625
80000000000000000000CC00,865.7,5.025321,-1.625
80000000000000000000CC00,865.7,5.025321,-1.625
80000000000000000000CC00,865.7,4.9823694,4.875
80000000000000000000CC00,865.7,5.006913,0.8125
80000000000000000000CC00,865.7,5.019185,-1.625
80000000000000000000CC00,865.7,5.0007772,4.0625
80000000000000000000CC00,865.7,5.031457,-4.875
80000000000000000000CC00,865.7,4.9885054,4.875
80000000000000000000CC00,865.7,5.025321,-4.875
80000000000000000000CC00,865.7,5.006913,0.8125
80000000000000000000CC00,865.7,5.006913,0.0
80000000000000000000CC00,865.7,4.9946413,0.0
80000000000000000000CC00,865.7,4.9885054,2.4375
80000000000000000000CC00,865.7,4.9823694,0.8125
80000000000000000000CC00,865.7,4.9885054,0.0
80000000000000000000CC00,865.7,4.9823694,2.4375
80000000000000000000CC00,865.7,5.006913,-2.4375
80000000000000000000CC00,865.7,4.9700975,5.6875
80000000000000000000CC00,865.7,4.9700975,1.625
80000000000000000000CC00,865.7,4.9639616,4.875
80000000000000000000CC00,865.7,4.95169,6.5
80000000000000000000CC00,865.7,4.9700975,1.625
80000000000000000000CC00,865.7,5.006913,-4.875
80000000000000000000CC00,865.7,4.9455543,5.6875
80000000000000000000CC00,865.7,4.957826,1.625
80000000000000000000CC00,865.7,4.95169,4.875
80000000000000000000CC00,865.7,4.9639616,1.625
80000000000000000000CC00,865.7,4.95169,4.0625
