-24.5,2.2518837966161214,-1.625
-24.5,2.2641556429192065,-3.25
-24.5,2.2518837966161214,0.0
-24.5,2.2641556429192065,-2.4375
-24.5,2.2641556429192065,-1.625
-24.5,2.2641556429192065,-0.8125
-24.5,2.2948352586769194,-4.875
-24.5,2.2764274892222915,-1.625
-24.5,2.270291566070749,-1.625
-24.5,2.282563412373834,-3.25
-24.5,2.2580197197676637,0.8125
-25.0,2.2886993355253766,-3.25
-24.5,2.282563412373834,-2.4375
-24.5,2.282563412373834,-3.25
-24.5,2.2886993355253766,-2.4375
-24.5,2.2948352586769194,-2.4375
-24.5,2.3009711818284617,-3.25
-24.5,2.3071071049800045,-4.875
-24.5,2.3009711818284617,-2.4375
-24.5,2.2948352586769194,-0.8125
-24.5,2.2948352586769194,-0.8125
-24.5,2.3193789512830896,-3.25
-24.5,2.3071071049800045,-1.625
-24.5,2.3193789512830896,-2.4375
-24.5,2.325514874434632,-4.875
-24.5,2.325514874434632,-4.875
-24.5,2.3316507975861747,-4.875
-24.5,2.3193789512830896,-3.25
-24.5,2.337786720737717,-4.875
-24.5,2.350058567040802,-6.5
-24.5,2.325514874434632,-2.4375
-24.5,2.325514874434632,-3.25
-24.5,2.337786720737717,-3.25
-24.5,2.337786720737717,-2.4375
-24.5,2.350058567040802,-5.6875
-25.0,2.337786720737717,-2.4375
-24.5,2.3439226438892597,-4.875
-24.5,2.325514874434632,-1.625
-24.5,2.3439226438892597,-4.875
-24.5,2.356194490192345,-6.5
-24.5,2.337786720737717,-3.25
-24.5,2.3439226438892597,-5.6875
-24.5,2.3439226438892597,-5.6875
-24.5,2.3439226438892597,-4.875
-24.5,2.350058567040802,-5.6875
-24.5,2.350058567040802,-4.875
-24.5,2.337786720737717,-3.25
-24.5,2.356194490192345,-5.6875
-24.5,2.350058567040802,-4.875
-24.5,2.350058567040802,-4.875
-24.5,2.356194490192345,-5.6875
-24.5,2.356194490192345,-6.5
-24.5,2.350058567040802,-5.6875
-24.5,2.350058567040802,-4.875
-24.5,2.350058567040802,-4.875
-24.5,2.350058567040802,-3.25
-24.5,2.350058567040802,-4.875
-24.5,2.350058567040802,-4.875
-25.0,2.350058567040802,-3.25
-24.5,2.356194490192345,-4.875
-24.5,2.356194490192345,-4.875
-24.5,2.356194490192345,-4.875
-24.5,2.350058567040802,-3.25
-24.5,2.350058567040802,-3.25
-24.5,2.350058567040802,-2.4375
-24.5,2.350058567040802,-2.4375
-24.5,2.350058567040802,-3.25
-24.5,2.356194490192345,-3.25
-24.5,2.356194490192345,-3.25
-24.5,2.356194490192345,-2.4375
-24.5,2.356194490192345,-3.25
-24.5,2.356194490192345,-0.8125
-24.0,2.36846633649543,0.0
-24.0,2.380738182798515,4.875
-24.0,2.411417798556228,-1.625
-24.0,2.435961491162398,-2.4375
-24.0,2.448233337465483,0.0
-23.5,2.478912953223196,-0.8125
-24.0,2.497320722677824,-1.625
-23.5,2.509592568980909,-0.8125
-23.5,2.5341362615870793,-2.4375
-23.5,2.5341362615870793,0.0
-23.5,2.5402721847386216,-0.8125
-23.5,2.5341362615870793,0.8125
-23.5,2.5341362615870793,0.0
-23.5,2.5464081078901644,-0.8125
-23.5,2.5341362615870793,0.0
-24.0,2.5341362615870793,-1.625
-23.5,2.5280003384355365,-0.8125
-23.5,2.521864415283994,-0.8125
-23.5,2.5157284921324514,0.0
-23.5,2.521864415283994,-1.625
-23.5,2.5157284921324514,-0.8125
-23.5,2.5157284921324514,-1.625
-23.5,2.509592568980909,-1.625
-23.5,2.497320722677824,0.0
-23.5,2.4911847995262812,-1.625
-23.5,2.4911847995262812,-3.25
-24.0,2.466641106920111,-1.625
-24.0,2.448233337465483,-0.8125
-24.0,2.4175537217077703,-2.4375
-24.0,2.3746022596469727,-0.8125
-24.5,2.350058567040802,-2.4375
-25.0,2.3439226438892597,-4.875
-24.5,2.3009711818284617,-0.8125
-24.5,2.2948352586769194,-3.25
-24.5,2.270291566070749,-1.625
-24.5,2.2518837966161214,-2.4375
-24.5,2.227340104009951,0.8125
-24.5,2.2150682577068657,0.8125
-24.5,2.2089323345553233,0.0
-24.5,2.2027964114037806,0.0
-24.5,2.1966604882522383,0.8125
-24.5,2.1966604882522383,0.0
-24.5,2.1905245651006955,0.0
-24.5,2.1905245651006955,-0.8125
-24.5,2.1966604882522383,-1.625
-25.0,2.184388641949153,1.625
-24.5,2.184388641949153,0.0
-24.5,2.1782527187976104,0.8125
-24.5,2.1782527187976104,0.8125
-24.5,2.1905245651006955,0.0
-24.5,2.184388641949153,0.8125
-24.5,2.1905245651006955,0.8125
-24.5,2.1966604882522383,0.8125
-24.5,2.1966604882522383,0.8125
-24.5,2.2027964114037806,0.0
-24.5,2.2027964114037806,0.8125
-24.5,2.2150682577068657,0.0
-24.5,2.2150682577068657,0.0
-24.5,2.2212041808584084,0.0
-24.5,2.2212041808584084,0.8125
-24.5,2.2212041808584084,1.625
-25.0,2.2457478734645786,-0.8125
-25.0,2.2457478734645786,-0.8125
-24.5,2.2518837966161214,0.0
-24.5,2.2518837966161214,0.0
-24.5,2.2580197197676637,-0.8125
-24.5,2.2641556429192065,0.0
-25.0,2.2764274892222915,-0.8125
-24.5,2.282563412373834,-0.8125
-25.0,2.2886993355253766,-1.625
-25.0,2.2886993355253766,-0.8125
-25.0,2.313243028131547,-3.25
-24.5,2.3009711818284617,-0.8125
-25.0,2.313243028131547,-2.4375
-25.0,2.313243028131547,-0.8125
-25.0,2.3316507975861747,-2.4375
-25.0,2.3439226438892597,-4.875
-25.0,2.3316507975861747,1.625
-24.5,2.350058567040802,-3.25
-24.5,2.356194490192345,-3.25
-24.5,2.356194490192345,-2.4375
-25.0,2.350058567040802,-1.625
-24.5,2.356194490192345,-1.625
-25.0,2.356194490192345,-0.8125
-24.5,2.3623304133438876,-0.8125
-25.0,2.3623304133438876,6.5
-24.5,2.380738182798515,-1.625
-24.5,2.380738182798515,-1.625
-24.5,2.380738182798515,-0.8125
-24.5,2.399145952253143,-1.625
-24.5,2.399145952253143,-1.625
-24.5,2.405281875404685,-1.625
-25.0,2.399145952253143,5.6875
-24.5,2.405281875404685,0.0
-24.5,2.4175537217077703,-0.8125
-24.5,2.4175537217077703,0.0
-24.5,2.423689644859313,-0.8125
-24.5,2.435961491162398,-0.8125
-24.5,2.442097414313941,-1.625
-24.0,2.442097414313941,0.0
-24.5,2.448233337465483,-0.8125
-24.5,2.454369260617026,-0.8125
-24.5,2.4605051837685683,0.0
-24.0,2.4727770300716534,-0.8125
-24.0,2.4727770300716534,-0.8125
-24.5,2.4850488763747385,-1.625
-24.0,2.4911847995262812,-1.625
-24.0,2.4911847995262812,-1.625
-24.5,2.497320722677824,-0.8125
-24.0,2.497320722677824,0.0
-24.0,2.5034566458293663,0.0
-24.5,2.509592568980909,-0.8125
-24.0,2.509592568980909,0.0
-24.0,2.5157284921324514,0.0
-24.0,2.5280003384355365,0.0
-24.0,2.5341362615870793,0.0
-24.5,2.5402721847386216,-0.8125
-24.0,2.5464081078901644,-0.8125
-24.0,2.5464081078901644,0.0
-24.0,2.552544031041707,0.0
-24.0,2.5586799541932495,0.0
-24.0,2.5709518004963345,-0.8125
-24.0,2.5709518004963345,-0.8125
-24.0,2.5832236467994196,-0.8125
-24.0,2.5770877236478773,0.8125
-24.0,2.5832236467994196,0.0
-24.0,2.5954954931025047,-0.8125
-24.0,2.6016314162540475,-0.8125
-24.0,2.5954954931025047,0.0
-23.5,2.6016314162540475,0.0
-23.5,2.60776733940559,-0.8125
-24.0,2.6139032625571326,-0.8125
-23.5,2.6139032625571326,0.0
-23.5,2.6261751088602177,-0.8125
-24.0,2.6261751088602177,-0.8125
-24.0,2.6323110320117604,0.0
-23.5,2.6384469551633027,0.0
-24.0,2.6323110320117604,6.5
-23.5,2.6445828783148455,0.0
-23.5,2.6445828783148455,0.8125
-23.5,2.650718801466388,0.8125
-24.0,2.662990647769473,0.0
-23.5,2.6568547246179306,0.8125
-24.0,2.6691265709210157,0.0
-23.5,2.675262494072558,0.0
-23.5,2.6813984172241008,0.0
-24.0,2.6813984172241008,0.0
-23.5,2.6813984172241008,0.8125
-23.5,2.6813984172241008,1.625
-23.5,2.6998061866787286,-0.8125
-23.5,2.6998061866787286,0.0
-24.0,2.6998061866787286,5.6875
-23.5,2.6998061866787286,5.6875
-24.0,2.7120780329818137,-0.8125
-24.0,2.718213956133356,-0.8125
-23.5,2.724349879284899,-0.8125
-24.0,2.724349879284899,0.0
-24.0,2.718213956133356,0.8125
-23.5,2.724349879284899,0.0
-23.5,2.724349879284899,0.8125
-23.5,2.730485802436441,0.0
-23.5,2.748893571891069,-0.8125
-23.5,2.742757648739526,0.8125
-23.5,2.748893571891069,0.0
-23.5,2.7550294950426117,0.8125
-23.5,2.761165418194154,0.8125
-23.5,2.761165418194154,1.625
-23.5,2.779573187648782,0.0
-23.5,2.7857091108003242,0.0
-23.5,2.791845033951867,0.0
-23.5,2.7857091108003242,1.625
-23.5,2.791845033951867,1.625
-23.5,2.8102528034064944,0.0
-23.5,2.816388726558037,-0.8125
-23.5,2.8102528034064944,0.8125
-23.5,2.834796496012665,-0.8125
-23.5,2.834796496012665,0.0
-23.5,2.8409324191642074,5.6875
-23.5,2.859340188618835,0.0
-23.5,2.8654761117703775,1.625
-23.5,2.859340188618835,8.9375
-23.5,2.890019804376548,0.8125
-23.5,2.890019804376548,2.4375
-24.0,2.9084275738311756,6.5
-23.5,2.9145634969827183,1.625
-23.5,2.9206994201342606,1.625
-23.5,2.9329712664373457,1.625
-23.5,2.945243112740431,0.8125
-24.0,2.9513790358919736,0.8125
-24.0,2.9697868053466014,1.625
-23.5,2.9697868053466014,2.4375
-24.0,3.000466421104314,0.0
-24.0,2.988194574801229,2.4375
-23.5,3.0127382674073995,1.625
-23.5,3.031146036862027,0.8125
-23.5,3.0250101137104846,2.4375
-24.0,3.055689729468197,-0.8125
-23.5,3.055689729468197,0.0
-23.5,3.06182565261974,0.8125
-24.0,3.0802334220743677,-0.8125
-24.0,3.0925052683774528,-1.625
-24.0,3.0925052683774528,0.8125
-24.0,3.1231848841351653,-3.25
-24.0,3.104777114680538,0.0
-24.0,3.104777114680538,7.3125
-24.0,3.117048960983623,6.5
-24.0,3.129320807286708,0.8125
-24.0,3.153864499892878,-1.625
-24.0,3.160000423044421,0.0
-23.5,3.1784081924990484,-0.8125
-23.5,3.1906800388021335,-0.8125
-23.5,3.2090878082567613,-1.625
-23.5,3.215223731408304,0.0
-23.5,3.2336315008629315,-0.8125
-23.5,3.2459033471660166,0.8125
-23.5,3.2643111166206444,0.8125
-23.5,3.2827188860752723,0.8125
-23.0,3.3011266555298997,-0.8125
-23.5,3.313398501832985,0.8125
-23.5,3.3318062712876126,0.8125
-23.0,3.356349963893783,-0.8125
-23.0,3.368621810196868,0.0
-23.0,3.3870295796514958,-0.8125
-23.0,3.399301425954581,0.8125
-23.0,3.423845118560751,-0.8125
-23.0,3.436116964863836,0.8125
-23.0,3.454524734318464,0.0
-23.0,3.485204350076177,-0.8125
-23.0,3.4913402732277192,0.8125
-23.0,3.522019888985432,0.8125
-23.0,3.552699504743145,0.0
-23.0,3.5772431973493153,0.0
-23.0,3.6079228131070282,0.0
-23.0,3.6324665057131984,0.0
-23.0,3.6570101983193686,-0.8125
-23.0,3.663146121470911,1.625
-23.0,3.706097583531709,0.0
-23.5,3.6876898140770815,5.6875
-23.5,3.7551849687440497,0.8125
-23.5,3.6999616603801666,11.375
-23.5,3.736777199289422,11.375
-24.0,3.767456815047135,10.5625
-24.0,3.792000507653305,10.5625
-24.0,3.9085830475326135,-2.4375
-24.0,3.6140587362585705,45.5625
-24.5,3.9699422790480394,-1.625
-24.0,3.9208548938356986,8.9375
-24.0,4.01902966426038,-1.625
-24.0,4.031301510563465,-1.625
-24.0,4.06811704947272,-2.4375
-24.0,3.8963112012295285,26.8125
-24.0,4.09266074207889,-0.8125
-24.0,4.086524818927348,2.4375
-24.0,4.111068511533518,0.8125
-24.0,3.9638063558964967,25.1875
-24.0,4.1417481272912315,1.625
-24.0,4.172427743048944,0.0
-24.0,4.184699589352029,-0.8125
-24.0,4.2092432819582,-3.25
-24.0,4.2031073588066565,0.0
-24.5,4.129476280988146,11.375
-24.5,4.23378697456437,-2.4375
-24.5,4.2031073588066565,3.25
-25.0,3.749049045592507,68.3125
-24.5,4.104932588381976,20.3125
-24.5,4.129476280988146,17.875
-24.5,4.154019973594316,15.4375
-24.5,4.178563666200486,12.1875
-24.5,4.129476280988146,20.3125
-24.5,4.178563666200486,16.25
-24.5,4.184699589352029,16.25
-24.5,4.23378697456437,11.375
-24.5,4.25833066717054,6.5
-25.0,4.246058820867455,8.9375
-24.5,4.325825821837508,0.0
-24.5,4.270602513473625,8.125
-25.0,4.344233591292136,-2.4375
-25.0,4.331961744989051,0.8125
-25.0,4.301282129231338,5.6875
-25.0,4.356505437595221,-0.8125
-25.0,4.368777283898306,-0.8125
-25.0,4.356505437595221,1.625
-25.0,4.338097668140593,6.5
-25.5,4.381049130201391,0.0
-25.5,4.3933209765044765,0.0
-25.0,4.362641360746763,6.5
-25.5,4.387185053352934,3.25
-25.5,4.399456899656019,1.625
-25.5,4.417864669110647,0.8125
-25.5,4.424000592262189,0.8125
-25.5,4.424000592262189,2.4375
-25.5,4.448544284868359,0.0
-25.5,4.4362724385652745,2.4375
-25.5,4.3933209765044765,11.375
-25.5,4.417864669110647,8.125
-25.5,4.473087977474529,1.625
-25.5,4.479223900626073,0.8125
-26.0,4.491495746929157,-0.8125
-26.0,4.4976316700806995,-0.8125
-26.0,4.424000592262189,10.5625
-26.5,4.442408361716817,8.9375
-26.0,4.4976316700806995,1.625
-26.0,4.522175362686871,-0.8125
-26.0,4.491495746929157,3.25
-26.5,4.534447208989955,0.0
-26.0,4.528311285838413,0.8125
-26.0,4.516039439535327,4.875
-26.5,4.534447208989955,0.8125
-26.5,4.405592822807561,20.3125
-26.5,4.540583132141498,0.8125
-26.5,4.552854978444583,0.0
-26.5,4.552854978444583,0.0
-26.5,4.565126824747668,0.0
-26.5,4.552854978444583,1.625
-26.5,4.583534594202296,-0.8125
-26.5,4.571262747899211,-0.8125
-26.5,4.546719055293041,3.25
-26.5,4.473087977474529,16.25
-26.5,4.565126824747668,0.8125
-26.5,4.589670517353839,-1.625
-27.0,4.571262747899211,0.8125
-27.0,4.565126824747668,0.8125
-27.0,4.595806440505381,-3.25
-26.5,4.589670517353839,-1.625
-27.0,4.540583132141498,5.6875
-26.5,4.608078286808466,-2.4375
-27.0,4.608078286808466,-1.625
-26.5,4.601942363656923,-0.8125
-27.0,4.614214209960009,-3.25
-27.0,4.577398671050753,2.4375
-27.0,4.601942363656923,-0.8125
-27.0,4.620350133111551,-0.8125
-27.0,4.614214209960009,-0.8125
-27.0,4.632621979414636,-4.875
-27.0,4.620350133111551,-0.8125
-27.0,4.638757902566179,-2.4375
-27.0,4.632621979414636,-1.625
-27.0,4.6448938257177215,-4.875
-27.5,4.638757902566179,-1.625
-27.5,4.638757902566179,-1.625
-27.5,4.608078286808466,2.4375
-27.5,4.6448938257177215,-1.625
-27.5,4.6448938257177215,-0.8125
-27.5,4.657165672020807,-3.25
-27.5,4.6448938257177215,0.0
-27.5,4.620350133111551,3.25
-27.5,4.6448938257177215,-2.4375
-27.5,4.632621979414636,0.8125
-27.5,4.632621979414636,0.8125
-27.5,4.657165672020807,-3.25
-27.5,4.651029748869264,-2.4375
-27.5,4.6448938257177215,-1.625
-27.5,4.663301595172349,-6.5
-28.0,4.651029748869264,-4.875
-28.0,4.6448938257177215,-4.875
-28.0,4.620350133111551,-0.8125
-28.0,4.565126824747668,5.6875
-28.0,4.638757902566179,-4.875
-28.0,4.571262747899211,4.875
-28.0,4.583534594202296,1.625
-28.0,4.608078286808466,-0.8125
-28.0,4.608078286808466,-3.25
-28.0,4.583534594202296,-0.8125
-28.5,4.552854978444583,2.4375
-28.5,4.583534594202296,-2.4375
-28.5,4.558990901596125,0.8125
-28.5,4.565126824747668,-2.4375
-28.5,4.528311285838413,1.625
-28.0,4.565126824747668,-3.25
-28.5,4.540583132141498,-2.4375
-28.5,4.534447208989955,-0.8125
-28.5,4.522175362686871,-2.4375
-28.5,4.522175362686871,-3.25
-28.5,4.509903516383785,-2.4375
-28.5,4.479223900626073,0.8125
-29.0,4.460816131171445,0.8125
-29.0,4.454680208019902,-0.8125
-29.0,4.460816131171445,-1.625
-29.0,4.442408361716817,-2.4375
-29.0,4.4362724385652745,-2.4375
-29.0,4.4362724385652745,-3.25
-29.0,4.430136515413731,-2.4375
-29.0,4.417864669110647,-5.6875
-29.0,4.405592822807561,-2.4375
-29.0,4.411728745959104,-4.875
-29.0,4.399456899656019,-1.625
-29.0,4.387185053352934,-1.625
-29.5,4.387185053352934,-2.4375
-29.5,4.3933209765044765,-5.6875
-29.5,4.381049130201391,-3.25
-29.5,4.368777283898306,-3.25
-29.5,4.368777283898306,-2.4375
-29.5,4.356505437595221,-1.625
-29.5,4.368777283898306,-3.25
-29.5,4.374913207049849,-5.6875
-30.0,4.356505437595221,-3.25
-29.5,4.356505437595221,-1.625
-30.0,4.344233591292136,-3.25
-30.0,4.344233591292136,-2.4375
-29.5,4.344233591292136,-3.25
-30.0,4.325825821837508,-2.4375
-30.0,4.319689898685965,-0.8125
-30.0,4.331961744989051,-3.25
-30.0,4.325825821837508,-4.875
-30.0,4.319689898685965,-2.4375
-30.0,4.325825821837508,-2.4375
-30.0,4.313553975534423,-2.4375
-30.0,4.319689898685965,-3.25
-30.0,4.3074180523828804,-1.625
-30.5,4.319689898685965,-3.25
-30.5,4.319689898685965,-3.25
-30.5,4.325825821837508,-3.25
-30.5,4.319689898685965,-3.25
-30.5,4.331961744989051,-5.6875
-30.5,4.313553975534423,-2.4375
-30.5,4.295146206079795,-0.8125
-30.5,4.301282129231338,-1.625
-30.5,4.301282129231338,-1.625
-30.5,4.295146206079795,-1.625
-31.0,4.289010282928253,0.8125
-30.5,4.289010282928253,-2.4375
-30.5,4.289010282928253,-2.4375
-30.5,4.28287435977671,-2.4375
-30.5,4.295146206079795,-4.875
-30.5,4.28287435977671,-2.4375
-31.0,4.25833066717054,-1.625
-30.5,4.276738436625168,-3.25
-30.5,4.28287435977671,-4.875
-31.0,4.276738436625168,-5.6875
-31.0,4.276738436625168,-5.6875
-31.0,4.276738436625168,-6.5
-30.5,4.270602513473625,-5.6875
-31.0,4.264466590322082,-4.875
-31.0,4.252194744018997,-3.25
-30.5,4.25833066717054,-4.875
-30.5,4.252194744018997,-2.4375
-31.0,4.246058820867455,-5.6875
-30.5,4.239922897715912,-4.875
-31.0,4.221515128261284,-3.25
-30.5,4.215379205109742,-2.4375
-31.0,4.221515128261284,-5.6875
-31.0,4.2031073588066565,-5.6875
-30.5,4.215379205109742,-5.6875
-31.0,4.184699589352029,-3.25
-31.0,4.196971435655114,-8.9375
-31.0,4.172427743048944,-5.6875
-30.5,4.147884050442774,-2.4375
-31.0,4.166291819897402,-8.125
-30.5,4.129476280988146,-3.25
-31.0,4.129476280988146,-5.6875
-31.0,4.123340357836604,-6.5
-31.0,4.0987966652304335,-3.25
-31.0,4.1172044346850605,-9.75
-31.0,4.0987966652304335,-7.3125
-31.0,4.06811704947272,-5.6875
-31.0,4.061981126321178,-6.5
-31.0,4.04357335686655,-6.5
-31.5,4.031301510563465,-5.6875
-31.5,4.025165587411922,-6.5
-31.0,4.0128937411088375,-5.6875
-31.0,4.000621894805752,-5.6875
-31.5,4.006757817957295,-8.125
-31.5,3.9760782021995817,-5.6875
-31.5,3.9638063558964967,-6.5
-32.0,3.933126740138784,-2.4375
-31.5,3.9515345095934116,-6.5
-31.5,3.9208548938356986,-4.875
-32.0,3.902447124381071,-5.6875
-31.5,3.9085830475326135,-7.3125
-31.5,3.877903431774901,-4.875
-31.5,3.877903431774901,-6.5
-31.5,3.8533597391687304,-3.25
-32.0,3.865631585471816,-6.5
-31.0,3.650874275167826,1.625
-31.0,3.6386024288647407,1.625
-31.5,3.6263305825616556,3.25
-31.0,3.6386024288647407,0.0
-31.0,3.6386024288647407,0.0
-31.0,3.6263305825616556,0.8125
-31.0,3.6263305825616556,0.0
-31.0,3.6201946594101133,1.625
-31.5,3.6140587362585705,0.8125
-31.0,3.5956509668039427,1.625
-31.0,3.6079228131070282,0.8125
-31.5,3.5956509668039427,2.4375
-31.5,3.56497135104623,5.6875
-31.0,3.5711072741977725,2.4375
-31.5,3.5772431973493153,0.8125
-31.0,3.5711072741977725,0.8125
-31.5,3.5588354278946874,1.625
-31.0,3.552699504743145,2.4375
-31.0,3.54042765844006,4.875
-31.0,3.5465635815916023,1.625
-31.0,3.5465635815916023,0.8125
-31.0,3.509748042682347,3.25
-31.0,3.5158839658338894,2.4375
-31.5,3.5036121195308043,3.25
-31.0,3.5036121195308043,1.625
-31.0,3.497476196379262,0.8125
-31.5,3.485204350076177,2.4375
-31.0,3.479068426924634,1.625
-31.5,3.454524734318464,4.875
-31.5,3.4606606574700063,1.625
-31.5,3.442252888015379,2.4375
-31.5,3.436116964863836,3.25
-31.5,3.442252888015379,-0.8125
-31.5,3.4177091954092087,0.8125
-31.5,3.4054373491061236,2.4375
-32.0,3.393165502803038,4.875
-31.5,3.393165502803038,0.8125
-32.0,3.380893656499953,3.25
-31.5,3.368621810196868,1.625
-31.5,3.3624858870453256,0.8125
-32.0,3.3440781175906977,1.625
-32.0,3.3440781175906977,0.8125
-32.0,3.3318062712876126,2.4375
-32.0,3.313398501832985,2.4375
-32.0,3.313398501832985,1.625
-32.0,3.3011266555298997,1.625
-32.0,3.2827188860752723,3.25
-32.0,3.2704470397721868,2.4375
-32.0,3.2765829629237295,0.0
-32.0,3.2704470397721868,0.0
-32.5,3.2397674240144743,3.25
-32.5,3.2397674240144743,0.8125
-32.5,3.2213596545598464,2.4375
-32.5,3.2090878082567613,2.4375
-32.5,3.2029518851052186,1.625
-32.5,3.2090878082567613,0.8125
-33.0,3.184544115650591,0.8125
-32.5,3.160000423044421,2.4375
-32.5,3.153864499892878,1.625
-32.5,3.141592653589793,2.4375
-33.0,3.1354567304382504,2.4375
-33.0,3.1231848841351653,0.8125
-33.5,3.104777114680538,2.4375
-33.5,3.104777114680538,0.8125
-33.0,3.0802334220743677,4.875
-33.0,3.098641191528995,-1.625
-33.0,3.067961575771282,5.6875
-33.5,3.055689729468197,1.625
-33.0,3.0372819600135696,2.4375
-33.0,3.06182565261974,-0.8125
-33.0,3.0495538063166547,-1.625
-33.0,3.043417883165112,-1.625
-33.0,2.9943304979527716,4.875
-33.0,3.0066023442558567,0.8125
-33.0,3.0066023442558567,-0.8125
-33.0,2.9820586516496865,0.8125
-33.0,2.9697868053466014,1.625
-33.0,2.9636508821950587,1.625
-33.5,2.9513790358919736,1.625
-33.0,2.945243112740431,2.4375
-33.0,2.9329712664373457,2.4375
-33.0,2.9391071895888885,0.0
-33.0,2.9145634969827183,2.4375
-33.0,2.9206994201342606,1.625
-33.0,2.9084275738311756,2.4375
-33.0,2.9022916506796332,3.25
-33.0,2.8961557275280905,3.25
-33.0,2.890019804376548,2.4375
-33.0,2.890019804376548,1.625
-33.0,2.8777479580734626,4.875
-33.5,2.8716120349219203,2.4375
-33.0,2.859340188618835,3.25
-33.0,2.859340188618835,4.875
-33.5,2.8654761117703775,2.4375
-33.5,2.859340188618835,2.4375
-33.0,2.859340188618835,1.625
-33.0,2.8409324191642074,1.625
-33.0,2.8286605728611223,4.875
-33.5,2.8286605728611223,2.4375
-33.0,2.834796496012665,2.4375
-33.5,2.82252464970958,2.4375
-33.5,2.82252464970958,1.625
-33.5,2.8286605728611223,0.8125
-33.0,2.7979809571034093,3.25
-33.5,2.8102528034064944,1.625
-33.5,2.8102528034064944,1.625
-33.0,2.7979809571034093,4.875
-33.5,2.7857091108003242,4.875
-33.5,2.791845033951867,3.25
-33.5,2.7857091108003242,4.875
-33.0,2.7857091108003242,3.25
-33.5,2.773437264497239,5.6875
-33.5,2.767301341345697,4.875
-33.5,2.767301341345697,4.875
-33.5,2.761165418194154,6.5
-33.5,2.767301341345697,1.625
-33.5,2.767301341345697,1.625
-33.0,2.773437264497239,0.8125
-33.5,2.7550294950426117,3.25
-33.5,2.742757648739526,4.875
-33.5,2.748893571891069,3.25
-33.5,2.736621725587984,2.4375
-33.5,2.736621725587984,3.25
-33.5,2.730485802436441,4.875
-33.5,2.7120780329818137,6.5
-34.0,2.724349879284899,0.8125
-33.5,2.7120780329818137,3.25
-33.5,2.7120780329818137,1.625
-33.5,2.705942109830271,1.625
-34.0,2.693670263527186,3.25
-33.5,2.693670263527186,4.875
-33.5,2.6875343403756435,2.4375
-33.5,2.675262494072558,5.6875
-33.5,2.6691265709210157,4.875
-33.5,2.6691265709210157,1.625
-33.5,2.6568547246179306,4.875
-33.5,2.675262494072558,-0.8125
-33.5,2.6384469551633027,5.6875
-33.5,2.6384469551633027,3.25
-33.5,2.6323110320117604,2.4375
-34.0,2.6323110320117604,1.625
-34.0,2.6323110320117604,0.0
-34.0,2.6139032625571326,1.625
-33.5,2.5954954931025047,3.25
-34.0,2.60776733940559,0.0
-34.0,2.5832236467994196,3.25
-34.0,2.5954954931025047,0.8125
-34.0,2.5832236467994196,3.25
-34.0,2.5893595699509624,0.0
-34.0,2.5586799541932495,4.875
-34.0,2.564815877344792,2.4375
-34.0,2.5709518004963345,1.625
-34.0,2.564815877344792,0.8125
-34.5,2.552544031041707,2.4375
-34.0,2.5586799541932495,0.8125
-34.0,2.5341362615870793,3.25
-34.0,2.5341362615870793,3.25
-34.0,2.5280003384355365,2.4375
-34.5,2.521864415283994,2.4375
-34.5,2.5157284921324514,2.4375
-34.5,2.521864415283994,1.625
-34.0,2.5280003384355365,0.0
-34.5,2.5280003384355365,0.8125
-34.5,2.5157284921324514,1.625
-34.5,2.5034566458293663,3.25
-34.5,2.5034566458293663,3.25
-34.0,2.4850488763747385,3.25
-34.5,2.4911847995262812,1.625
-34.0,2.4911847995262812,0.8125
-34.0,2.4850488763747385,2.4375
-34.5,2.5034566458293663,-1.625
-34.5,2.4911847995262812,0.0
-34.5,2.4727770300716534,3.25
-34.5,2.466641106920111,3.25
-34.5,2.4727770300716534,0.8125
-34.5,2.4605051837685683,1.625
-34.5,2.478912953223196,-0.8125
-34.5,2.466641106920111,0.8125
-34.5,2.466641106920111,0.0
-34.5,2.435961491162398,3.25
-34.5,2.454369260617026,0.0
-34.5,2.454369260617026,0.8125
-34.5,2.454369260617026,0.0
-34.5,2.4605051837685683,-0.8125
-34.5,2.454369260617026,-0.8125
-35.0,2.448233337465483,-1.625
-34.5,2.454369260617026,-1.625
-34.5,2.442097414313941,0.0
-34.5,2.435961491162398,0.8125
-35.0,2.442097414313941,-2.4375
-34.5,2.429825568010856,0.0
-34.5,2.429825568010856,0.8125
-34.5,2.4175537217077703,1.625
-35.0,2.423689644859313,0.0
-34.5,2.429825568010856,-1.625
-34.5,2.423689644859313,-0.8125
-35.0,2.423689644859313,-0.8125
-35.0,2.429825568010856,-3.25
-35.0,2.405281875404685,0.8125
-35.0,2.4175537217077703,-0.8125
-34.5,2.4175537217077703,-0.8125
-35.0,2.405281875404685,0.0
-34.5,2.399145952253143,0.0
-35.0,2.3930100291016,1.625
-34.5,2.399145952253143,-0.8125
-34.5,2.411417798556228,-2.4375
-34.5,2.3930100291016,0.0
-34.5,2.3930100291016,-0.8125
-34.5,2.405281875404685,-2.4375
-34.5,2.3746022596469727,0.8125
-34.5,2.380738182798515,-0.8125
-35.0,2.405281875404685,-3.25
-35.0,2.3930100291016,-1.625
-34.5,2.3746022596469727,-0.8125
-34.5,2.36846633649543,0.8125
-34.5,2.36846633649543,0.8125
-34.5,2.380738182798515,-1.625
-35.0,2.380738182798515,-2.4375
-34.5,2.3623304133438876,0.0
-35.0,2.3623304133438876,-0.8125
-35.0,2.36846633649543,-0.8125
-35.0,2.3623304133438876,-0.8125
-35.0,2.36846633649543,-0.8125
-35.0,2.350058567040802,1.625
-34.5,2.356194490192345,0.0
-34.5,2.36846633649543,-1.625
-35.0,2.3623304133438876,-1.625
-35.0,2.3746022596469727,-4.875
-34.5,2.350058567040802,-0.8125
-35.0,2.3439226438892597,0.0
-35.0,2.356194490192345,-0.8125
-35.0,2.350058567040802,-1.625
-35.0,2.350058567040802,-1.625
-35.0,2.356194490192345,-2.4375
-35.0,2.350058567040802,-2.4375
-35.0,2.350058567040802,-2.4375
-34.5,2.3439226438892597,-0.8125
-35.0,2.350058567040802,-1.625
-34.5,2.3316507975861747,0.8125
-35.0,2.3439226438892597,-0.8125
-35.0,2.337786720737717,0.0
-35.0,2.3439226438892597,-2.4375
-35.0,2.3439226438892597,-3.25
-35.0,2.3439226438892597,-3.25
-35.0,2.337786720737717,-1.625
-35.0,2.337786720737717,-0.8125
-35.0,2.325514874434632,-0.8125
-35.0,2.3316507975861747,-1.625
-35.0,2.337786720737717,-1.625
-35.0,2.3316507975861747,-2.4375
-35.0,2.3316507975861747,-1.625
-35.0,2.325514874434632,-0.8125
-35.0,2.325514874434632,-0.8125
-34.5,2.3316507975861747,-1.625
-35.0,2.325514874434632,-1.625
-35.0,2.325514874434632,-2.4375
-35.0,2.337786720737717,-1.625
-35.0,2.337786720737717,-4.875
-35.0,2.3316507975861747,-1.625
-35.0,2.3316507975861747,-2.4375
-34.5,2.313243028131547,0.0
-35.0,2.325514874434632,-1.625
-35.0,2.3316507975861747,-1.625
-35.0,2.3193789512830896,-0.8125
-34.5,2.313243028131547,0.0
-34.5,2.325514874434632,-1.625
-34.5,2.3316507975861747,-2.4375
-35.0,2.3193789512830896,-0.8125
-34.5,2.3193789512830896,0.8125
-35.0,2.325514874434632,-0.8125
-34.5,2.337786720737717,-2.4375
-35.0,2.3316507975861747,-2.4375
-35.0,2.337786720737717,-1.625
-35.0,2.3316507975861747,-1.625
-35.0,2.337786720737717,-2.4375
-35.0,2.3316507975861747,-1.625
-35.0,2.325514874434632,-0.8125
-35.0,2.337786720737717,-1.625
-35.0,2.337786720737717,-1.625
-34.5,2.337786720737717,-2.4375
-35.0,2.3439226438892597,-3.25
-35.0,2.3439226438892597,-3.25
-35.0,2.3193789512830896,0.0
-34.5,2.3316507975861747,-1.625
-34.5,2.350058567040802,-6.5
-35.0,2.325514874434632,-1.625
-35.0,2.337786720737717,-3.25
-34.5,2.313243028131547,0.8125
-34.5,2.3316507975861747,-0.8125
-34.5,2.325514874434632,-0.8125
-35.0,2.3316507975861747,-2.4375
-34.5,2.3316507975861747,-2.4375
-35.0,2.337786720737717,-2.4375
-34.5,2.313243028131547,0.0
-35.0,2.350058567040802,-3.25
-34.5,2.350058567040802,-4.875
-34.5,2.3316507975861747,-0.8125
-34.5,2.337786720737717,-3.25
-35.0,2.325514874434632,-0.8125
-34.5,2.350058567040802,-5.6875
-34.5,2.325514874434632,0.0
-34.5,2.337786720737717,-1.625
-35.0,2.3316507975861747,-1.625
-34.5,2.3316507975861747,-1.625
-34.5,2.337786720737717,-2.4375
-34.5,2.337786720737717,-1.625
-34.5,2.313243028131547,-0.8125
-34.5,2.337786720737717,-2.4375
-34.5,2.3439226438892597,-4.875
-34.5,2.325514874434632,0.0
-34.5,2.337786720737717,-3.25
-34.5,2.350058567040802,-4.875
-34.5,2.325514874434632,-1.625
-34.5,2.3316507975861747,-1.625
-34.5,2.325514874434632,-0.8125
-34.5,2.313243028131547,0.8125
-34.5,2.3316507975861747,-2.4375
-34.5,2.3439226438892597,-3.25
-34.0,2.3193789512830896,0.8125
-34.5,2.3316507975861747,-1.625
-34.0,2.325514874434632,-0.8125
-34.5,2.325514874434632,0.0
-34.5,2.3439226438892597,-3.25
-34.0,2.337786720737717,-3.25
-34.5,2.325514874434632,0.0
-34.0,2.350058567040802,-4.875
-34.5,2.337786720737717,-1.625
-34.5,2.3439226438892597,-1.625
-34.0,2.350058567040802,-3.25
-34.5,2.3439226438892597,-1.625
-34.5,2.3316507975861747,0.0
-34.0,2.350058567040802,-3.25
-34.0,2.36846633649543,-4.875
-34.0,2.356194490192345,-3.25
-34.0,2.350058567040802,-2.4375
-34.0,2.356194490192345,-0.8125
-34.5,2.337786720737717,0.0
-34.0,2.3623304133438876,-3.25
-34.0,2.350058567040802,-1.625
-34.5,2.356194490192345,-2.4375
-34.0,2.350058567040802,-1.625
-34.0,2.337786720737717,0.0
-34.0,2.350058567040802,-0.8125
-34.0,2.3623304133438876,-2.4375
-34.0,2.356194490192345,-1.625
-34.0,2.350058567040802,-0.8125
-34.0,2.3746022596469727,-4.875
-34.0,2.356194490192345,-0.8125
-34.0,2.3623304133438876,-1.625
-34.0,2.356194490192345,0.0
-34.0,2.350058567040802,0.0
-34.0,2.3746022596469727,-3.25
-34.0,2.356194490192345,-0.8125
-34.0,2.3746022596469727,-1.625
-34.0,2.356194490192345,-0.8125
-34.0,2.356194490192345,0.0
-33.5,2.36846633649543,-0.8125
-33.5,2.3623304133438876,-0.8125
-33.5,2.380738182798515,-3.25
-33.5,2.36846633649543,0.0
-34.0,2.3746022596469727,-0.8125
-34.0,2.380738182798515,-0.8125
-33.5,2.36846633649543,2.4375
-33.5,2.386874105950058,0.0
-34.0,2.386874105950058,0.0
-33.5,2.399145952253143,-0.8125
-33.5,2.3930100291016,-0.8125
-33.5,2.405281875404685,-0.8125
-33.0,2.405281875404685,0.0
-33.5,2.429825568010856,-1.625
-33.5,2.435961491162398,-1.625
-33.0,2.442097414313941,-0.8125
-33.0,2.448233337465483,-1.625
-33.0,2.448233337465483,0.0
-33.0,2.454369260617026,-0.8125
-33.0,2.454369260617026,0.0
-33.0,2.4605051837685683,0.0
-33.0,2.4605051837685683,0.0
-33.0,2.448233337465483,2.4375
-32.5,2.4850488763747385,-3.25
-33.0,2.478912953223196,-2.4375
-33.0,2.454369260617026,0.0
-33.0,2.454369260617026,0.8125
-33.0,2.454369260617026,1.625
-33.0,2.4727770300716534,-2.4375
-33.0,2.454369260617026,0.0
-33.0,2.454369260617026,0.0
-32.5,2.4605051837685683,-0.8125
-33.0,2.454369260617026,-0.8125
-33.0,2.454369260617026,0.8125
-33.0,2.4605051837685683,-0.8125
-33.0,2.448233337465483,0.8125
-33.0,2.454369260617026,-0.8125
-33.0,2.454369260617026,3.25
-33.0,2.454369260617026,0.0
-33.0,2.448233337465483,1.625
-33.0,2.4605051837685683,-0.8125
-33.0,2.4605051837685683,0.0
-33.0,2.454369260617026,0.0
-33.0,2.448233337465483,0.0
-33.0,2.448233337465483,1.625
-33.0,2.4605051837685683,-0.8125
-33.0,2.454369260617026,0.8125
-33.0,2.454369260617026,0.0
-32.5,2.454369260617026,1.625
-32.5,2.466641106920111,0.0
-33.0,2.478912953223196,0.0
-33.0,2.5034566458293663,-3.25
-33.0,2.4911847995262812,-1.625
-33.0,2.4911847995262812,0.0
-32.5,2.497320722677824,1.625
-32.5,2.5402721847386216,-3.25
-32.0,2.5280003384355365,0.8125
-32.0,2.5464081078901644,0.0
-32.5,2.5709518004963345,-0.8125
-32.0,2.5832236467994196,0.8125
-32.0,2.60776733940559,4.875
-32.0,2.6261751088602177,0.0
-31.5,2.6323110320117604,0.8125
-32.0,2.650718801466388,-0.8125
-32.0,2.6568547246179306,2.4375
-31.5,2.675262494072558,0.8125
-31.5,2.693670263527186,0.8125
-31.0,2.7120780329818137,0.8125
-31.0,2.730485802436441,1.625
-31.5,2.7550294950426117,0.8125
-31.0,2.767301341345697,6.5
-31.0,2.7857091108003242,8.125
-31.0,2.7979809571034093,1.625
-31.0,2.804116880254952,5.6875
-31.0,2.791845033951867,6.5
-31.0,2.7979809571034093,0.8125
-31.0,2.7857091108003242,2.4375
-31.0,2.791845033951867,-0.8125
-31.0,2.773437264497239,6.5
-31.0,2.779573187648782,5.6875
-31.0,2.779573187648782,-0.8125
-31.0,2.779573187648782,-0.8125
-31.0,2.779573187648782,3.25
-31.0,2.7857091108003242,-0.8125
-31.0,2.7857091108003242,0.0
-31.0,2.7857091108003242,-0.8125
-31.0,2.773437264497239,1.625
-31.0,2.779573187648782,0.0
-31.0,2.779573187648782,3.25
-31.0,2.773437264497239,7.3125
-31.0,2.779573187648782,7.3125
-31.0,2.773437264497239,1.625
-31.0,2.7857091108003242,0.8125
-31.0,2.779573187648782,6.5
-31.0,2.7857091108003242,1.625
-31.0,2.791845033951867,0.8125
-31.0,2.791845033951867,0.0
-31.0,2.791845033951867,0.0
-31.0,2.791845033951867,1.625
-31.0,2.7979809571034093,1.625
-31.0,2.791845033951867,0.8125
-31.0,2.7979809571034093,3.25
-31.0,2.8286605728611223,1.625
-31.0,2.8286605728611223,7.3125
-31.0,2.8654761117703775,1.625
-30.5,2.890019804376548,2.4375
-30.5,2.9268353432858034,0.8125
-30.5,2.9391071895888885,2.4375
-30.5,2.9636508821950587,4.875
-30.5,2.9759227284981438,2.4375
-30.5,2.9943304979527716,5.6875
-30.5,3.0066023442558567,0.0
-30.5,3.031146036862027,0.8125
-30.5,3.000466421104314,2.4375
-30.5,3.0250101137104846,0.8125
-30.5,3.018874190558942,5.6875
-30.5,3.0372819600135696,0.0
-30.5,3.074097498922825,2.4375
-30.5,3.067961575771282,7.3125
-30.5,3.074097498922825,3.25
-30.5,3.129320807286708,-0.8125
-30.5,3.129320807286708,0.8125
-30.0,3.147728576741336,0.8125
-30.5,3.141592653589793,1.625
-30.0,3.160000423044421,-0.8125
-30.0,3.153864499892878,0.8125
-30.0,3.153864499892878,1.625
-30.5,3.160000423044421,0.8125
-30.0,3.172272269347506,-0.8125
-30.0,3.2029518851052186,0.8125
-29.5,3.2397674240144743,2.4375
-29.5,3.2827188860752723,1.625
-29.5,3.3195344249845276,2.4375
-29.0,3.3379421944391554,4.875
-29.0,3.380893656499953,3.25
-29.0,3.399301425954581,3.25
-29.0,3.442252888015379,2.4375
-29.0,3.485204350076177,3.25
-29.0,3.5158839658338894,5.6875
-29.0,3.5833791205008576,2.4375
-29.0,3.6263305825616556,3.25
-29.0,3.6570101983193686,4.875
-29.0,3.6999616603801666,4.875
-29.0,3.736777199289422,5.6875
-29.0,3.7551849687440497,7.3125
-29.5,3.822680123411018,0.8125
-29.5,3.847223816017188,3.25
-29.5,3.902447124381071,0.0
-29.5,3.9392626632903265,2.4375
-29.5,4.000621894805752,1.625
-29.0,4.031301510563465,4.875
-29.0,4.080388895775806,2.4375
-29.0,4.1172044346850605,2.4375
-29.0,4.154019973594316,3.25
-29.5,4.196971435655114,0.8125
-29.0,4.2092432819582,2.4375
-29.5,4.2031073588066565,5.6875
-29.0,4.23378697456437,1.625
-29.0,4.246058820867455,0.0
-29.5,4.239922897715912,2.4375
-29.0,4.239922897715912,3.25
-29.5,4.246058820867455,2.4375
-29.5,4.252194744018997,1.625
-29.5,4.239922897715912,4.875
-29.0,4.252194744018997,2.4375
-29.0,4.23378697456437,5.6875
-29.0,4.25833066717054,2.4375
-29.0,4.23378697456437,3.25
-29.5,4.246058820867455,1.625
-29.5,4.246058820867455,1.625
-29.0,4.23378697456437,4.875
-29.0,4.246058820867455,0.8125
-29.0,4.221515128261284,5.6875
-29.0,4.246058820867455,2.4375
-29.5,4.239922897715912,2.4375
-29.0,4.252194744018997,0.8125
-29.0,4.239922897715912,3.25
-29.0,4.221515128261284,3.25
-29.5,4.23378697456437,3.25
-29.0,4.23378697456437,2.4375
-29.0,4.23378697456437,3.25
-29.5,4.227651051412827,2.4375
-29.5,4.227651051412827,3.25
-29.0,4.239922897715912,0.8125
-29.0,4.246058820867455,1.625
-29.5,4.239922897715912,1.625
-29.5,4.23378697456437,3.25
-29.5,4.239922897715912,3.25
-29.5,4.362641360746763,2.4375
-29.5,4.3933209765044765,0.0
-29.5,4.381049130201391,4.875
-29.5,4.399456899656019,4.875
-29.5,4.411728745959104,3.25
-30.0,4.4362724385652745,-0.8125
-30.0,4.417864669110647,3.25
-29.5,4.4362724385652745,2.4375
-30.0,4.448544284868359,0.0
-29.5,4.442408361716817,0.8125
-29.5,4.442408361716817,0.8125
-29.5,4.424000592262189,2.4375
-29.5,4.448544284868359,0.8125
-29.5,4.430136515413731,1.625
-29.5,4.442408361716817,1.625
-29.5,4.442408361716817,0.0
-29.5,4.442408361716817,0.8125
-29.5,4.442408361716817,1.625
-30.0,4.417864669110647,3.25
-29.5,4.4362724385652745,1.625
-29.5,4.424000592262189,4.875
-29.5,4.442408361716817,0.0
-30.0,4.424000592262189,2.4375
-30.0,4.4362724385652745,-0.8125
-29.5,4.430136515413731,0.8125
-30.0,4.430136515413731,1.625
-30.0,4.411728745959104,4.875
-30.0,4.411728745959104,3.25
-30.0,4.430136515413731,0.8125
-29.5,4.430136515413731,0.8125
-29.5,4.405592822807561,3.25
-29.5,4.417864669110647,2.4375
-29.5,4.411728745959104,2.4375
-29.5,4.424000592262189,1.625
-30.0,4.411728745959104,3.25
-29.5,4.424000592262189,0.8125
-30.0,4.417864669110647,2.4375
-29.5,4.424000592262189,1.625
-29.5,4.411728745959104,2.4375
-30.0,4.430136515413731,0.0
-29.5,4.411728745959104,4.875
-29.5,4.405592822807561,4.875
-29.5,4.430136515413731,0.8125
-30.0,4.424000592262189,1.625
-29.5,4.4362724385652745,-0.8125
-29.5,4.430136515413731,0.8125
-29.5,4.430136515413731,0.8125
-30.0,4.430136515413731,0.8125
