E200303121120053136087CF,865.7,5.7923117,13.0
E200303121120053136087CF,865.7,5.822991,3.25
E200303121120053136087CF,865.7,5.8413987,-3.25
E200303121120053136087CF,865.7,5.908894,-18.6875
E200303121120053136087CF,865.7,5.822991,4.875
E200303121120053136087CF,865.7,5.816855,6.5
E200303121120053136087CF,865.7,5.816855,9.75
E200303121120053136087CF,865.7,5.822991,4.875
E200303121120053136087CF,865.7,5.7984476,8.125
E200303121120053136087CF,865.7,5.8659425,-6.5
E200303121120053136087CF,865.7,5.8659425,0.0
E200303121120053136087CF,865.7,5.816855,8.125
E200303121120053136087CF,865.7,5.816855,11.375
E200303121120053136087CF,865.7,5.8904862,-11.375
E200303121120053136087CF,865.7,5.829127,4.875
E200303121120053136087CF,865.7,5.829127,1.625
E200303121120053136087CF,865.7,5.822991,11.375
E200303121120053136087CF,865.7,5.8782144,-6.5
E200303121120053136087CF,865.7,5.816855,13.0
E200303121120053136087CF,865.7,5.8413987,6.5
E200303121120053136087CF,865.7,5.908894,-9.75
E200303121120053136087CF,865.7,5.8720784,-8.125
E200303121120053136087CF,865.7,5.8720784,-6.5
E200303121120053136087CF,865.7,5.835263,6.5
E200303121120053136087CF,865.7,5.822991,6.5
E200303121120053136087CF,865.7,5.829127,8.125
E200303121120053136087CF,865.7,5.804583,15.4375
E200303121120053136087CF,865.7,5.8904862,-8.125
E200303121120053136087CF,865.7,5.8598065,-1.625
E200303121120053136087CF,865.7,5.8782144,-8.125
E200303121120053136087CF,865.7,5.8536706,-3.25
E200303121120053136087CF,865.7,5.816855,13.8125
E200303121120053136087CF,865.7,5.8904862,-8.125
E200303121120053136087CF,865.7,5.829127,8.125
E200303121120053136087CF,865.7,5.8843503,-11.375
E200303121120053136087CF,865.7,5.8782144,-11.375
E200303121120053136087CF,865.7,5.835263,9.75
E200303121120053136087CF,865.7,5.8598065,-1.625
E200303121120053136087CF,865.7,5.835263,3.25
E200303121120053136087CF,865.7,5.921166,-13.8125
E200303121120053136087CF,865.7,5.8720784,-8.125
E200303121120053136087CF,865.7,5.835263,8.125
E200303121120053136087CF,865.7,5.8720784,-6.5
E200303121120053136087CF,865.7,5.835263,4.875
E200303121120053136087CF,865.7,5.816855,13.8125
E200303121120053136087CF,865.7,5.822991,11.375
E200303121120053136087CF,865.7,5.829127,1.625
E200303121120053136087CF,865.7,5.835263,6.5
E200303121120053136087CF,865.7,5.8475347,4.875
E200303121120053136087CF,865.7,5.896622,-6.5
E200303121120053136087CF,865.7,5.8475347,4.875
E200303121120053136087CF,865.7,5.816855,11.375
E200303121120053136087CF,865.7,5.8536706,8.125
E200303121120053136087CF,865.7,5.8659425,3.25
E200303121120053136087CF,865.7,5.8475347,6.5
E200303121120053136087CF,865.7,5.8598065,4.875
E200303121120053136087CF,865.7,5.829127,6.5
E200303121120053136087CF,865.7,5.8720784,0.0
E200303121120053136087CF,865.7,5.91503,-6.5
E200303121120053136087CF,865.7,5.8475347,6.5
E200303121120053136087CF,865.7,5.8413987,9.75
E200303121120053136087CF,865.7,5.8536706,0.0
E200303121120053136087CF,865.7,5.835263,3.25
E200303121120053136087CF,865.7,5.8659425,0.0
E200303121120053136087CF,865.7,5.8720784,0.0
E200303121120053136087CF,865.7,5.8843503,-3.25
E200303121120053136087CF,865.7,5.829127,9.75
E200303121120053136087CF,865.7,5.829127,11.375
E200303121120053136087CF,865.7,5.896622,-4.875
E200303121120053136087CF,865.7,5.8536706,6.5
E200303121120053136087CF,865.7,5.8598065,1.625
E200303121120053136087CF,865.7,5.8659425,9.75
E200303121120053136087CF,865.7,5.8659425,3.25
E200303121120053136087CF,865.7,5.8598065,3.25
E200303121120053136087CF,865.7,5.835263,11.375
E200303121120053136087CF,865.7,5.8598065,1.625
E200303121120053136087CF,865.7,5.8782144,0.0
E200303121120053136087CF,865.7,5.8904862,-4.875
E200303121120053136087CF,865.7,5.822991,13.0
E200303121120053136087CF,865.7,5.8782144,1.625
E200303121120053136087CF,865.7,5.8536706,-3.25
E200303121120053136087CF,865.7,5.8659425,0.0
E200303121120053136087CF,865.7,5.8843503,-1.625
E200303121120053136087CF,865.7,5.8782144,-4.875
E200303121120053136087CF,865.7,5.8475347,13.8125
E200303121120053136087CF,865.7,5.896622,-8.125
E200303121120053136087CF,865.7,5.835263,8.125
E200303121120053136087CF,865.7,5.8536706,3.25
E200303121120053136087CF,865.7,5.8598065,9.75
E200303121120053136087CF,865.7,5.8720784,0.0
E200303121120053136087CF,865.7,5.91503,-11.375
E200303121120053136087CF,865.7,5.8536706,8.125
E200303121120053136087CF,865.7,5.8598065,3.25
E200303121120053136087CF,865.7,5.8843503,-4.875
E200303121120053136087CF,865.7,5.8782144,6.5
E200303121120053136087CF,865.7,5.829127,6.5
E200303121120053136087CF,865.7,5.8659425,-1.625
E200303121120053136087CF,865.7,5.8413987,8.125
E200303121120053136087CF,865.7,5.8904862,0.0
E200303121120053136087CF,865.7,5.8843503,3.25
E200303121120053136087CF,865.7,5.933438,-17.0625
E200303121120053136087CF,865.7,5.8413987,9.75
E200303121120053136087CF,865.7,5.896622,0.0
E200303121120053136087CF,865.7,5.8720784,3.25
E200303121120053136087CF,865.7,5.8904862,-3.25
E200303121120053136087CF,865.7,5.8598065,6.5
E200303121120053136087CF,865.7,5.8659425,1.625
E200303121120053136087CF,865.7,5.8720784,-3.25
E200303121120053136087CF,865.7,5.8782144,1.625
E200303121120053136087CF,865.7,5.8782144,-3.25
E200303121120053136087CF,865.7,5.8475347,8.125
E200303121120053136087CF,865.7,5.8782144,3.25
E200303121120053136087CF,865.7,5.8904862,-3.25
E200303121120053136087CF,865.7,5.8782144,0.0
E200303121120053136087CF,865.7,5.8659425,11.375
E200303121120053136087CF,865.7,5.835263,15.4375
E200303121120053136087CF,865.7,5.8598065,4.875
E200303121120053136087CF,865.7,5.8536706,6.5
E200303121120053136087CF,865.7,5.908894,-8.125
E200303121120053136087CF,865.7,5.8904862,1.625
E200303121120053136087CF,865.7,5.8413987,9.75
E200303121120053136087CF,865.7,5.8659425,4.875
E200303121120053136087CF,865.7,5.8659425,6.5
E200303121120053136087CF,865.7,5.8720784,9.75
E200303121120053136087CF,865.7,5.8720784,6.5
E200303121120053136087CF,865.7,5.8598065,9.75
E200303121120053136087CF,865.7,5.8475347,6.5
E200303121120053136087CF,865.7,5.8413987,11.375
E200303121120053136087CF,865.7,5.8904862,-1.625
E200303121120053136087CF,865.7,5.8475347,15.4375
E200303121120053136087CF,865.7,5.921166,-11.375
E200303121120053136087CF,865.7,5.8413987,8.125
E200303121120053136087CF,865.7,5.8598065,4.875
E200303121120053136087CF,865.7,5.8659425,3.25
E200303121120053136087CF,865.7,5.896622,-4.875
E200303121120053136087CF,865.7,5.8536706,8.125
E200303121120053136087CF,865.7,5.8843503,3.25
E200303121120053136087CF,865.7,5.8720784,4.875
E200303121120053136087CF,865.7,5.8598065,9.75
E200303121120053136087CF,865.7,5.908894,-8.125
E200303121120053136087CF,865.7,5.933438,-9.75
E200303121120053136087CF,865.7,5.8904862,-3.25
E200303121120053136087CF,865.7,5.8659425,9.75
E200303121120053136087CF,865.7,5.8536706,13.0
E200303121120053136087CF,865.7,5.896622,-1.625
E200303121120053136087CF,865.7,5.896622,-4.875
E200303121120053136087CF,865.7,5.8782144,6.5
E200303121120053136087CF,865.7,5.8659425,6.5
E200303121120053136087CF,865.7,5.8843503,-4.875
E200303121120053136087CF,865.7,5.91503,-1.625
E200303121120053136087CF,865.7,5.908894,-3.25
E200303121120053136087CF,865.7,5.91503,-11.375
E200303121120053136087CF,865.7,5.8720784,8.125
E200303121120053136087CF,865.7,5.8413987,13.8125
E200303121120053136087CF,865.7,5.8536706,9.75
E200303121120053136087CF,865.7,5.8782144,3.25
E200303121120053136087CF,865.7,5.8598065,8.125
E200303121120053136087CF,865.7,5.921166,-8.125
E200303121120053136087CF,865.7,5.8598065,11.375
E200303121120053136087CF,865.7,5.8904862,-1.625
E200303121120053136087CF,865.7,5.8720784,4.875
E200303121120053136087CF,865.7,5.902758,0.0
E200303121120053136087CF,865.7,5.9518456,-13.8125
E200303121120053136087CF,865.7,5.908894,-6.5
E200303121120053136087CF,865.7,5.8904862,6.5
E200303121120053136087CF,865.7,5.896622,1.625
E200303121120053136087CF,865.7,5.896622,-3.25
E200303121120053136087CF,865.7,5.8720784,4.875
E200303121120053136087CF,865.7,5.8659425,8.125
E200303121120053136087CF,865.7,5.8720784,3.25
E200303121120053136087CF,865.7,5.8598065,4.875
E200303121120053136087CF,865.7,5.902758,0.0
E200303121120053136087CF,865.7,5.8904862,1.625
E200303121120053136087CF,865.7,5.908894,-6.5
E200303121120053136087CF,865.7,5.8536706,13.0
E200303121120053136087CF,865.7,5.91503,-1.625
E200303121120053136087CF,865.7,5.908894,-3.25
E200303121120053136087CF,865.7,5.8598065,8.125
E200303121120053136087CF,865.7,5.8598065,13.0
E200303121120053136087CF,865.7,5.902758,-8.125
E200303121120053136087CF,865.7,5.8782144,3.25
E200303121120053136087CF,865.7,5.8536706,9.75
E200303121120053136087CF,865.7,5.8475347,8.125
E200303121120053136087CF,865.7,5.8536706,6.5
E200303121120053136087CF,865.7,5.9579816,-18.6875
E200303121120053136087CF,865.7,5.8904862,-4.875
E200303121120053136087CF,865.7,5.8598065,4.875
E200303121120053136087CF,865.7,5.829127,17.0625
E200303121120053136087CF,865.7,5.896622,-1.625
E200303121120053136087CF,865.7,5.8720784,0.0
E200303121120053136087CF,865.7,5.829127,13.0
E200303121120053136087CF,865.7,5.8843503,4.875
E200303121120053136087CF,865.7,5.8413987,13.0
E200303121120053136087CF,865.7,5.8659425,0.0
E200303121120053136087CF,865.7,5.902758,-6.5
E200303121120053136087CF,865.7,5.902758,-17.0625
E200303121120053136087CF,865.7,5.8413987,11.375
E200303121120053136087CF,865.7,5.8536706,9.75
E200303121120053136087CF,865.7,5.8413987,8.125
E200303121120053136087CF,865.7,5.8659425,4.875
E200303121120053136087CF,865.7,5.8843503,-6.5
E200303121120053136087CF,865.7,5.8536706,13.0
E200303121120053136087CF,865.7,5.8659425,1.625
E200303121120053136087CF,865.7,5.822991,13.8125
E200303121120053136087CF,865.7,5.8904862,3.25
E200303121120053136087CF,865.7,5.804583,21.9375
E200303121120053136087CF,865.7,5.902758,1.625
E200303121120053136087CF,865.7,5.8598065,13.0
E200303121120053136087CF,865.7,5.902758,-8.125
E200303121120053136087CF,865.7,5.8598065,4.875
E200303121120053136087CF,865.7,5.908894,-9.75
E200303121120053136087CF,865.7,5.902758,-4.875
E200303121120053136087CF,865.7,5.908894,-8.125
E200303121120053136087CF,865.7,5.8536706,3.25
E200303121120053136087CF,865.7,5.8720784,3.25
E200303121120053136087CF,865.7,5.8536706,4.875
E200303121120053136087CF,865.7,5.822991,8.125
E200303121120053136087CF,865.7,5.822991,13.0
E200303121120053136087CF,865.7,5.8843503,-11.375
E200303121120053136087CF,865.7,5.8475347,4.875
E200303121120053136087CF,865.7,5.8598065,1.625
E200303121120053136087CF,865.7,5.810719,9.75
E200303121120053136087CF,865.7,5.8720784,-4.875
E200303121120053136087CF,865.7,5.8413987,1.625
E200303121120053136087CF,865.7,5.7984476,13.0
E200303121120053136087CF,865.7,5.78004,18.6875
E200303121120053136087CF,865.7,5.761632,15.4375
E200303121120053136087CF,865.7,5.7923117,11.375
E200303121120053136087CF,865.7,5.810719,4.875
E200303121120053136087CF,865.7,5.810719,8.125
E200303121120053136087CF,865.7,5.816855,0.0
E200303121120053136087CF,865.7,5.78004,11.375
E200303121120053136087CF,865.7,5.8720784,-17.0625
E200303121120053136087CF,865.7,5.810719,3.25
E200303121120053136087CF,865.7,5.78004,11.375
E200303121120053136087CF,865.7,5.835263,-3.25
E200303121120053136087CF,865.7,5.804583,6.5
E200303121120053136087CF,865.7,5.829127,0.0
E200303121120053136087CF,865.7,5.7984476,4.875
E200303121120053136087CF,865.7,5.804583,6.5
E200303121120053136087CF,865.7,5.773904,15.4375
E200303121120053136087CF,865.7,5.810719,8.125
E200303121120053136087CF,865.7,5.7984476,8.125
E200303121120053136087CF,865.7,5.8413987,0.0
E200303121120053136087CF,865.7,5.835263,-1.625
E200303121120053136087CF,865.7,5.822991,-3.25
E200303121120053136087CF,865.7,5.816855,3.25
E200303121120053136087CF,865.7,5.835263,-3.25
E200303121120053136087CF,865.7,5.7923117,9.75
E200303121120053136087CF,865.7,5.7984476,6.5
E200303121120053136087CF,865.7,5.767768,18.6875
E200303121120053136087CF,865.7,5.816855,-1.625
E200303121120053136087CF,865.7,5.78004,11.375
E200303121120053136087CF,865.7,5.7861757,6.5
E200303121120053136087CF,865.7,5.7861757,1.625
E200303121120053136087CF,865.7,5.755496,13.0
E200303121120053136087CF,865.7,5.7923117,-3.25
E200303121120053136087CF,865.7,5.761632,11.375
E200303121120053136087CF,865.7,5.822991,-15.4375
E200303121120053136087CF,865.7,5.737088,11.375
E200303121120053136087CF,865.7,5.7309523,11.375
E200303121120053136087CF,865.7,5.737088,4.875
E200303121120053136087CF,865.7,5.74936,3.25
E200303121120053136087CF,865.7,5.7861757,-13.0
E200303121120053136087CF,865.7,5.767768,-4.875
E200303121120053136087CF,865.7,5.74936,-1.625
E200303121120053136087CF,865.7,5.737088,-4.875
E200303121120053136087CF,865.7,5.7002726,8.125
E200303121120053136087CF,865.7,5.743224,0.0
E200303121120053136087CF,865.7,5.78004,-18.6875
E200303121120053136087CF,865.7,5.7125444,-1.625
E200303121120053136087CF,865.7,5.7002726,-1.625
E200303121120053136087CF,865.7,5.7186804,0.0
E200303121120053136087CF,865.7,5.7002726,8.125
E200303121120053136087CF,865.7,5.7125444,-3.25
E200303121120053136087CF,865.7,5.6880007,6.5
E200303121120053136087CF,865.7,5.6941366,8.125
E200303121120053136087CF,865.7,5.6941366,15.4375
E200303121120053136087CF,865.7,5.7064085,-3.25
E200303121120053136087CF,865.7,5.755496,-11.375
E200303121120053136087CF,865.7,5.743224,-8.125
E200303121120053136087CF,865.7,5.74936,-6.5
E200303121120053136087CF,865.7,5.675729,9.75
E200303121120053136087CF,865.7,5.6818647,8.125
E200303121120053136087CF,865.7,5.7186804,-6.5
E200303121120053136087CF,865.7,5.675729,1.625
E200303121120053136087CF,865.7,5.743224,-11.375
E200303121120053136087CF,865.7,5.7002726,-1.625
E200303121120053136087CF,865.7,5.6818647,3.25
E200303121120053136087CF,865.7,5.7002726,1.625
E200303121120053136087CF,865.7,5.74936,-13.8125
E200303121120053136087CF,865.7,5.7248163,-4.875
E200303121120053136087CF,865.7,5.743224,-11.375
E200303121120053136087CF,865.7,5.663457,8.125
E200303121120053136087CF,865.7,5.7923117,-23.5625
E200303121120053136087CF,865.7,5.6941366,1.625
E200303121120053136087CF,865.7,5.669593,8.125
E200303121120053136087CF,865.7,5.6880007,1.625
E200303121120053136087CF,865.7,5.675729,1.625
E200303121120053136087CF,865.7,5.6880007,4.875
E200303121120053136087CF,865.7,5.7186804,-17.0625
E200303121120053136087CF,865.7,5.657321,3.25
E200303121120053136087CF,865.7,5.669593,-4.875
E200303121120053136087CF,865.7,5.651185,6.5
E200303121120053136087CF,865.7,5.638913,8.125
E200303121120053136087CF,865.7,5.638913,3.25
E200303121120053136087CF,865.7,5.645049,1.625
E200303121120053136087CF,865.7,5.657321,0.0
E200303121120053136087CF,865.7,5.6880007,-4.875
E200303121120053136087CF,865.7,5.645049,9.75
E200303121120053136087CF,865.7,5.6880007,-11.375
E200303121120053136087CF,865.7,5.6880007,-8.125
E200303121120053136087CF,865.7,5.6941366,-9.75
E200303121120053136087CF,865.7,5.651185,3.25
E200303121120053136087CF,865.7,5.669593,1.625
E200303121120053136087CF,865.7,5.620506,4.875
E200303121120053136087CF,865.7,5.6266418,3.25
E200303121120053136087CF,865.7,5.657321,0.0
E200303121120053136087CF,865.7,5.645049,6.5
E200303121120053136087CF,865.7,5.6941366,-13.8125
E200303121120053136087CF,865.7,5.663457,-4.875
E200303121120053136087CF,865.7,5.638913,8.125
E200303121120053136087CF,865.7,5.61437,9.75
E200303121120053136087CF,865.7,5.7125444,-20.3125
E200303121120053136087CF,865.7,5.620506,8.125
E200303121120053136087CF,865.7,5.61437,9.75
E200303121120053136087CF,865.7,5.620506,4.875
E200303121120053136087CF,865.7,5.61437,8.125
E200303121120053136087CF,865.7,5.663457,-8.125
E200303121120053136087CF,865.7,5.620506,-3.25
E200303121120053136087CF,865.7,5.645049,1.625
E200303121120053136087CF,865.7,5.608234,4.875
E200303121120053136087CF,865.7,5.6327777,3.25
E200303121120053136087CF,865.7,5.6327777,8.125
E200303121120053136087CF,865.7,5.58369,8.125
E200303121120053136087CF,865.7,5.595962,13.0
E200303121120053136087CF,865.7,5.657321,-6.5
E200303121120053136087CF,865.7,5.602098,-4.875
E200303121120053136087CF,865.7,5.608234,6.5
E200303121120053136087CF,865.7,5.608234,0.0
E200303121120053136087CF,865.7,5.58369,9.75
E200303121120053136087CF,865.7,5.657321,-13.0
E200303121120053136087CF,865.7,5.638913,-11.375
E200303121120053136087CF,865.7,5.5652823,15.4375
E200303121120053136087CF,865.7,5.602098,-8.125
E200303121120053136087CF,865.7,5.589826,6.5
E200303121120053136087CF,865.7,5.577554,1.625
E200303121120053136087CF,865.7,5.620506,-1.625
E200303121120053136087CF,865.7,5.6266418,-8.125
E200303121120053136087CF,865.7,5.651185,-8.125
E200303121120053136087CF,865.7,5.6266418,-11.375
E200303121120053136087CF,865.7,5.595962,3.25
E200303121120053136087CF,865.7,5.6327777,-9.75
E200303121120053136087CF,865.7,5.651185,-11.375
E200303121120053136087CF,865.7,5.651185,-11.375
E200303121120053136087CF,865.7,5.589826,3.25
E200303121120053136087CF,865.7,5.61437,-3.25
E200303121120053136087CF,865.7,5.602098,0.0
E200303121120053136087CF,865.7,5.602098,-1.625
E200303121120053136087CF,865.7,5.5407386,13.0
E200303121120053136087CF,865.7,5.58369,-6.5
E200303121120053136087CF,865.7,5.595962,-6.5
E200303121120053136087CF,865.7,5.5468745,1.625
E200303121120053136087CF,865.7,5.5407386,4.875
E200303121120053136087CF,865.7,5.577554,-6.5
E200303121120053136087CF,865.7,5.5530105,1.625
E200303121120053136087CF,865.7,5.5346026,4.875
E200303121120053136087CF,865.7,5.577554,-1.625
E200303121120053136087CF,865.7,5.5714183,-8.125
E200303121120053136087CF,865.7,5.657321,-31.6875
E200303121120053136087CF,865.7,5.675729,-30.0625
E200303121120053136087CF,865.7,5.595962,-6.5
E200303121120053136087CF,865.7,5.5714183,3.25
E200303121120053136087CF,865.7,5.5652823,4.875
E200303121120053136087CF,865.7,5.5652823,9.75
E200303121120053136087CF,865.7,5.58369,6.5
E200303121120053136087CF,865.7,5.577554,3.25
E200303121120053136087CF,865.7,5.61437,-3.25
E200303121120053136087CF,865.7,5.58369,4.875
E200303121120053136087CF,865.7,5.6266418,-1.625
E200303121120053136087CF,865.7,5.7064085,-30.0625
E200303121120053136087CF,865.7,5.675729,-11.375
E200303121120053136087CF,865.7,5.6941366,-21.9375
E200303121120053136087CF,865.7,5.7125444,-18.6875
E200303121120053136087CF,865.7,5.6941366,-8.125
E200303121120053136087CF,865.7,5.6818647,-17.0625
E200303121120053136087CF,865.7,5.645049,6.5
E200303121120053136087CF,865.7,5.6818647,-9.75
E200303121120053136087CF,865.7,5.6941366,-3.25
E200303121120053136087CF,865.7,5.7002726,-11.375
E200303121120053136087CF,865.7,5.7186804,-13.8125
E200303121120053136087CF,865.7,5.6880007,-6.5
E200303121120053136087CF,865.7,5.6941366,-13.0
E200303121120053136087CF,865.7,5.6880007,-4.875
E200303121120053136087CF,865.7,5.6941366,-11.375
E200303121120053136087CF,865.7,5.7125444,-13.8125
E200303121120053136087CF,865.7,5.761632,-23.5625
E200303121120053136087CF,865.7,5.651185,0.0
E200303121120053136087CF,865.7,5.657321,4.875
E200303121120053136087CF,865.7,5.7002726,0.0
E200303121120053136087CF,865.7,5.6880007,-4.875
E200303121120053136087CF,865.7,5.663457,8.125
E200303121120053136087CF,865.7,5.6880007,3.25
E200303121120053136087CF,865.7,5.737088,-20.3125
E200303121120053136087CF,865.7,5.675729,4.875
E200303121120053136087CF,865.7,5.6818647,0.0
E200303121120053136087CF,865.7,5.737088,0.0
E200303121120053136087CF,865.7,5.7064085,4.875
E200303121120053136087CF,865.7,5.755496,-13.8125
E200303121120053136087CF,865.7,5.743224,-9.75
E200303121120053136087CF,865.7,5.7309523,3.25
E200303121120053136087CF,865.7,5.7186804,1.625
E200303121120053136087CF,865.7,5.7186804,1.625
E200303121120053136087CF,865.7,5.7248163,-8.125
E200303121120053136087CF,865.7,5.761632,-20.3125
E200303121120053136087CF,865.7,5.829127,-31.6875
E200303121120053136087CF,865.7,5.7002726,-6.5
E200303121120053136087CF,865.7,5.7309523,-4.875
E200303121120053136087CF,865.7,5.669593,4.875
E200303121120053136087CF,865.7,5.6941366,0.0
E200303121120053136087CF,865.7,5.7309523,-4.875
E200303121120053136087CF,865.7,5.6880007,6.5
E200303121120053136087CF,865.7,5.6880007,4.875
E200303121120053136087CF,865.7,5.7125444,-4.875
E200303121120053136087CF,865.7,5.767768,-13.8125
E200303121120053136087CF,865.7,5.7309523,-4.875
E200303121120053136087CF,865.7,5.6818647,3.25
E200303121120053136087CF,865.7,5.6941366,1.625
E200303121120053136087CF,865.7,5.7309523,-11.375
E200303121120053136087CF,865.7,5.761632,-9.75
E200303121120053136087CF,865.7,5.6880007,3.25
E200303121120053136087CF,865.7,5.6941366,-8.125
E200303121120053136087CF,865.7,5.7861757,-30.0625
E200303121120053136087CF,865.7,5.761632,-21.9375
E200303121120053136087CF,865.7,5.743224,-9.75
E200303121120053136087CF,865.7,5.7309523,-13.0
E200303121120053136087CF,865.7,5.78004,-15.4375
E200303121120053136087CF,865.7,5.7125444,-13.0
E200303121120053136087CF,865.7,5.743224,-17.0625
E200303121120053136087CF,865.7,5.743224,-15.4375
E200303121120053136087CF,865.7,5.6880007,-9.75
E200303121120053136087CF,865.7,5.657321,3.25
E200303121120053136087CF,865.7,5.7248163,-13.8125
E200303121120053136087CF,865.7,5.6818647,-6.5
E200303121120053136087CF,865.7,5.816855,-38.1875
E200303121120053136087CF,865.7,5.737088,-28.4375
E200303121120053136087CF,865.7,5.638913,3.25
E200303121120053136087CF,865.7,5.737088,-23.5625
E200303121120053136087CF,865.7,5.602098,21.9375
E200303121120053136087CF,865.7,5.638913,13.0
E200303121120053136087CF,865.7,5.602098,13.8125
E200303121120053136087CF,865.7,5.657321,9.75
E200303121120053136087CF,865.7,5.657321,-3.25
E200303121120053136087CF,865.7,5.755496,-20.3125
E200303121120053136087CF,865.7,5.737088,-20.3125
E200303121120053136087CF,865.7,5.6941366,8.125
E200303121120053136087CF,865.7,5.91503,-61.8125
E200303121120053136087CF,865.7,5.669593,9.75
E200303121120053136087CF,865.7,5.74936,-25.1875
E200303121120053136087CF,865.7,5.737088,-8.125
E200303121120053136087CF,865.7,5.8659425,-39.875
E200303121120053136087CF,865.7,5.737088,1.625
E200303121120053136087CF,865.7,5.6880007,11.375
E200303121120053136087CF,865.7,5.74936,-6.5
E200303121120053136087CF,865.7,5.669593,21.9375
E200303121120053136087CF,865.7,5.773904,-9.75
E200303121120053136087CF,865.7,5.7248163,9.75
E200303121120053136087CF,865.7,5.7923117,-13.8125
E200303121120053136087CF,865.7,5.7309523,8.125
E200303121120053136087CF,865.7,5.773904,9.75
E200303121120053136087CF,865.7,5.761632,9.75
E200303121120053136087CF,865.7,5.7861757,-13.0
E200303121120053136087CF,865.7,5.8843503,-38.1875
E200303121120053136087CF,865.7,5.7923117,-20.3125
E200303121120053136087CF,865.7,5.773904,-11.375
E200303121120053136087CF,865.7,5.810719,-17.0625
E200303121120053136087CF,865.7,5.7309523,0.0
E200303121120053136087CF,865.7,5.822991,-15.4375
E200303121120053136087CF,865.7,5.8413987,-34.9375
E200303121120053136087CF,865.7,5.78004,-23.5625
E200303121120053136087CF,865.7,5.78004,-20.3125
E200303121120053136087CF,865.7,5.767768,1.625
E200303121120053136087CF,865.7,5.7923117,-4.875
E200303121120053136087CF,865.7,5.816855,-15.4375
E200303121120053136087CF,865.7,5.737088,6.5
E200303121120053136087CF,865.7,5.743224,11.375
E200303121120053136087CF,865.7,5.7186804,15.4375
E200303121120053136087CF,865.7,5.8413987,-23.5625
E200303121120053136087CF,865.7,5.74936,6.5
E200303121120053136087CF,865.7,5.8475347,-36.5625
E200303121120053136087CF,865.7,5.908894,-33.3125
E200303121120053136087CF,865.7,5.755496,1.625
E200303121120053136087CF,865.7,5.743224,17.0625
E200303121120053136087CF,865.7,5.7186804,13.0
E200303121120053136087CF,865.7,5.7002726,18.6875
E200303121120053136087CF,865.7,5.743224,4.875
E200303121120053136087CF,865.7,5.829127,-23.5625
E200303121120053136087CF,865.7,5.921166,-31.6875
E200303121120053136087CF,865.7,5.8475347,-20.3125
E200303121120053136087CF,865.7,5.816855,-13.8125
E200303121120053136087CF,865.7,5.78004,-4.875
E200303121120053136087CF,865.7,5.7984476,-13.8125
E200303121120053136087CF,865.7,5.7861757,-6.5
E200303121120053136087CF,865.7,5.7861757,-8.125
E200303121120053136087CF,865.7,5.810719,-13.0
E200303121120053136087CF,865.7,5.7861757,-4.875
E200303121120053136087CF,865.7,5.835263,-26.8125
E200303121120053136087CF,865.7,5.822991,-9.75
E200303121120053136087CF,865.7,5.78004,-4.875
E200303121120053136087CF,865.7,5.7248163,3.25
E200303121120053136087CF,865.7,5.773904,1.625
E200303121120053136087CF,865.7,5.7984476,-25.1875
E200303121120053136087CF,865.7,5.767768,-3.25
E200303121120053136087CF,865.7,5.810719,-11.375
E200303121120053136087CF,865.7,5.816855,-15.4375
E200303121120053136087CF,865.7,5.7923117,-11.375
E200303121120053136087CF,865.7,5.773904,-9.75
E200303121120053136087CF,865.7,5.804583,-11.375
E200303121120053136087CF,865.7,5.761632,1.625
E200303121120053136087CF,865.7,5.8475347,-18.6875
E200303121120053136087CF,865.7,5.835263,-6.5
E200303121120053136087CF,865.7,5.7984476,-17.0625
E200303121120053136087CF,865.7,5.8598065,-26.8125
E200303121120053136087CF,865.7,5.7984476,-13.0
E200303121120053136087CF,865.7,5.755496,3.25
E200303121120053136087CF,865.7,5.829127,-20.3125
E200303121120053136087CF,865.7,5.810719,-15.4375
E200303121120053136087CF,865.7,5.8659425,-28.4375
E200303121120053136087CF,865.7,5.810719,-13.0
E200303121120053136087CF,865.7,5.755496,8.125
E200303121120053136087CF,865.7,5.7309523,6.5
E200303121120053136087CF,865.7,5.761632,8.125
E200303121120053136087CF,865.7,5.8413987,-23.5625
E200303121120053136087CF,865.7,5.7309523,-1.625
E200303121120053136087CF,865.7,5.7861757,-6.5
E200303121120053136087CF,865.7,5.804583,-1.625
E200303121120053136087CF,865.7,5.829127,-13.0
E200303121120053136087CF,865.7,5.8536706,-28.4375
E200303121120053136087CF,865.7,5.7861757,-6.5
E200303121120053136087CF,865.7,5.7064085,26.8125
E200303121120053136087CF,865.7,5.8475347,-26.8125
E200303121120053136087CF,865.7,5.755496,13.8125
E200303121120053136087CF,865.7,5.804583,-8.125
E200303121120053136087CF,865.7,5.8475347,-11.375
E200303121120053136087CF,865.7,5.7309523,0.0
E200303121120053136087CF,865.7,5.835263,3.25
E200303121120053136087CF,865.7,5.8782144,-20.3125
E200303121120053136087CF,865.7,5.7923117,-9.75
E200303121120053136087CF,865.7,5.8720784,-25.1875
E200303121120053136087CF,865.7,5.663457,31.6875
E200303121120053136087CF,865.7,5.810719,-1.625
E200303121120053136087CF,865.7,5.902758,-31.6875
E200303121120053136087CF,865.7,5.8536706,-20.3125
E200303121120053136087CF,865.7,5.8536706,-31.6875
E200303121120053136087CF,865.7,5.804583,-8.125
E200303121120053136087CF,865.7,5.7984476,-4.875
E200303121120053136087CF,865.7,5.7309523,18.6875
E200303121120053136087CF,865.7,5.74936,6.5
E200303121120053136087CF,865.7,5.8782144,-38.1875
E200303121120053136087CF,865.7,5.933438,-39.875
E200303121120053136087CF,865.7,5.810719,-3.25
E200303121120053136087CF,865.7,5.767768,-1.625
E200303121120053136087CF,865.7,5.773904,15.4375
E200303121120053136087CF,865.7,5.6880007,28.4375
E200303121120053136087CF,865.7,5.773904,1.625
E200303121120053136087CF,865.7,5.8720784,-18.6875
E200303121120053136087CF,865.7,5.8843503,-15.4375
E200303121120053136087CF,865.7,5.829127,-13.0
E200303121120053136087CF,865.7,5.7984476,-1.625
E200303121120053136087CF,865.7,5.810719,-3.25
E200303121120053136087CF,865.7,5.761632,15.4375
E200303121120053136087CF,865.7,5.773904,3.25
E200303121120053136087CF,865.7,5.921166,-30.0625
E200303121120053136087CF,865.7,5.810719,-13.0
E200303121120053136087CF,865.7,5.7248163,34.9375
E200303121120053136087CF,865.7,5.761632,8.125
E200303121120053136087CF,865.7,5.761632,13.8125
E200303121120053136087CF,865.7,5.8475347,-13.0
E200303121120053136087CF,865.7,5.921166,-38.1875
E200303121120053136087CF,865.7,5.804583,9.75
E200303121120053136087CF,865.7,5.755496,8.125
E200303121120053136087CF,865.7,5.91503,-36.5625
E200303121120053136087CF,865.7,5.7923117,4.875
E200303121120053136087CF,865.7,5.8536706,-15.4375
E200303121120053136087CF,865.7,5.7309523,17.0625
E200303121120053136087CF,865.7,5.835263,-11.375
E200303121120053136087CF,865.7,5.835263,-17.0625
E200303121120053136087CF,865.7,5.810719,6.5
E200303121120053136087CF,865.7,5.737088,9.75
E200303121120053136087CF,865.7,5.7186804,13.0
E200303121120053136087CF,865.7,5.78004,4.875
E200303121120053136087CF,865.7,5.9579816,-55.3125
E200303121120053136087CF,865.7,5.7984476,1.625
E200303121120053136087CF,865.7,5.8536706,-25.1875
E200303121120053136087CF,865.7,5.8659425,-20.3125
E200303121120053136087CF,865.7,5.767768,8.125
E200303121120053136087CF,865.7,5.8659425,-20.3125
E200303121120053136087CF,865.7,5.8598065,-30.0625
E200303121120053136087CF,865.7,5.8659425,-18.6875
E200303121120053136087CF,865.7,5.816855,-15.4375
E200303121120053136087CF,865.7,5.7923117,-3.25
E200303121120053136087CF,865.7,5.7861757,-1.625
E200303121120053136087CF,865.7,5.74936,4.875
E200303121120053136087CF,865.7,5.8904862,-31.6875
E200303121120053136087CF,865.7,5.8782144,-20.3125
E200303121120053136087CF,865.7,5.908894,-38.1875
E200303121120053136087CF,865.7,5.804583,-11.375
E200303121120053136087CF,865.7,5.8475347,-18.6875
E200303121120053136087CF,865.7,5.7923117,-11.375
E200303121120053136087CF,865.7,5.7984476,-3.25
E200303121120053136087CF,865.7,5.737088,15.4375
E200303121120053136087CF,865.7,5.835263,-25.1875
E200303121120053136087CF,865.7,5.773904,6.5
E200303121120053136087CF,865.7,5.804583,-11.375
E200303121120053136087CF,865.7,5.8536706,-15.4375
E200303121120053136087CF,865.7,5.939574,-38.1875
E200303121120053136087CF,865.7,5.8536706,-13.8125
E200303121120053136087CF,865.7,5.835263,-8.125
E200303121120053136087CF,865.7,5.7923117,-3.25
E200303121120053136087CF,865.7,5.8598065,-9.75
E200303121120053136087CF,865.7,6.0009327,-56.9375
E200303121120053136087CF,865.7,5.8475347,-15.4375
E200303121120053136087CF,865.7,5.835263,-8.125
E200303121120053136087CF,865.7,5.8475347,-4.875
E200303121120053136087CF,865.7,5.8843503,-17.0625
E200303121120053136087CF,865.7,5.7984476,13.8125
E200303121120053136087CF,865.7,5.8413987,4.875
E200303121120053136087CF,865.7,5.767768,15.4375
E200303121120053136087CF,865.7,5.9457097,-23.5625
E200303121120053136087CF,865.7,5.982525,-33.3125
E200303121120053136087CF,865.7,5.810719,13.0
E200303121120053136087CF,865.7,5.8536706,9.75
E200303121120053136087CF,865.7,5.8904862,-6.5
E200303121120053136087CF,865.7,5.91503,-9.75
E200303121120053136087CF,865.7,5.9518456,-21.9375
E200303121120053136087CF,865.7,5.8659425,8.125
E200303121120053136087CF,865.7,5.9579816,-26.8125
E200303121120053136087CF,865.7,5.9457097,-17.0625
E200303121120053136087CF,865.7,5.8659425,-1.625
E200303121120053136087CF,865.7,5.8413987,3.25
E200303121120053136087CF,865.7,5.8536706,-3.25
E200303121120053136087CF,865.7,5.8475347,-9.75
E200303121120053136087CF,865.7,5.822991,1.625
E200303121120053136087CF,865.7,5.835263,-8.125
E200303121120053136087CF,865.7,5.829127,1.625
E200303121120053136087CF,865.7,5.8598065,-15.4375
E200303121120053136087CF,865.7,5.835263,-21.9375
E200303121120053136087CF,865.7,5.8598065,-25.1875
E200303121120053136087CF,865.7,5.822991,-21.9375
E200303121120053136087CF,865.7,5.7309523,-3.25
E200303121120053136087CF,865.7,5.7186804,6.5
E200303121120053136087CF,865.7,5.804583,-25.1875
E200303121120053136087CF,865.7,5.773904,-11.375
E200303121120053136087CF,865.7,5.6818647,6.5
E200303121120053136087CF,865.7,5.7861757,-34.9375
E200303121120053136087CF,865.7,5.7064085,-4.875
E200303121120053136087CF,865.7,5.7186804,-1.625
E200303121120053136087CF,865.7,5.7861757,-25.1875
E200303121120053136087CF,865.7,5.7002726,-9.75
E200303121120053136087CF,865.7,5.675729,-17.0625
E200303121120053136087CF,865.7,5.7002726,-17.0625
E200303121120053136087CF,865.7,5.6818647,-18.6875
E200303121120053136087CF,865.7,5.663457,-17.0625
E200303121120053136087CF,865.7,5.620506,-9.75
E200303121120053136087CF,865.7,5.6266418,-13.8125
E200303121120053136087CF,865.7,5.589826,13.0
E200303121120053136087CF,865.7,5.589826,-17.0625
E200303121120053136087CF,865.7,5.595962,-8.125
E200303121120053136087CF,865.7,5.5530105,-8.125
E200303121120053136087CF,865.7,5.5407386,-18.6875
E200303121120053136087CF,865.7,5.479379,0.0
E200303121120053136087CF,865.7,5.6266418,-34.9375
E200303121120053136087CF,865.7,5.3873405,18.6875
E200303121120053136087CF,865.7,5.5346026,-15.4375
E200303121120053136087CF,865.7,5.436428,17.0625
E200303121120053136087CF,865.7,5.479379,-17.0625
E200303121120053136087CF,865.7,5.577554,-38.1875
E200303121120053136087CF,865.7,5.5284667,-28.4375
E200303121120053136087CF,865.7,5.454836,-11.375
E200303121120053136087CF,865.7,5.479379,-25.1875
E200303121120053136087CF,865.7,5.479379,-21.9375
E200303121120053136087CF,865.7,5.350525,11.375
E200303121120053136087CF,865.7,5.430292,-20.3125
E200303121120053136087CF,865.7,5.3689327,-1.625
E200303121120053136087CF,865.7,5.3689327,-1.625
E200303121120053136087CF,865.7,5.3075733,13.0
E200303121120053136087CF,865.7,5.3750687,-13.0
E200303121120053136087CF,865.7,5.3014374,-1.625
E200303121120053136087CF,865.7,5.276894,-6.5
E200303121120053136087CF,865.7,5.325981,-9.75
E200303121120053136087CF,865.7,5.28303,-3.25
E200303121120053136087CF,865.7,5.338253,-20.3125
E200303121120053136087CF,865.7,5.190991,-3.25
E200303121120053136087CF,865.7,5.111224,25.1875
E200303121120053136087CF,865.7,5.2155347,-13.8125
E200303121120053136087CF,865.7,5.0805445,6.5
E200303121120053136087CF,865.7,5.0560007,8.125
E200303121120053136087CF,865.7,5.111224,4.875
E200303121120053136087CF,865.7,5.0989523,4.875
E200303121120053136087CF,865.7,5.049865,11.375
E200303121120053136087CF,865.7,5.0621367,1.625
E200303121120053136087CF,865.7,5.0928164,-11.375
E200303121120053136087CF,865.7,5.031457,4.875
E200303121120053136087CF,865.7,5.043729,-3.25
E200303121120053136087CF,865.7,5.013049,-6.5
E200303121120053136087CF,865.7,5.0805445,-13.0
E200303121120053136087CF,865.7,4.9700975,-6.5
E200303121120053136087CF,865.7,4.9148746,8.125
E200303121120053136087CF,865.7,4.95169,-4.875
E200303121120053136087CF,865.7,4.8228354,25.1875
E200303121120053136087CF,865.7,4.8964667,3.25
E200303121120053136087CF,865.7,4.853515,9.75
E200303121120053136087CF,865.7,4.7737484,26.8125
E200303121120053136087CF,865.7,4.8044276,11.375
E200303121120053136087CF,865.7,4.792156,17.0625
E200303121120053136087CF,865.7,4.8412433,-9.75
E200303121120053136087CF,865.7,4.8351073,-13.8125
E200303121120053136087CF,865.7,4.7860203,0.0
E200303121120053136087CF,865.7,4.8166995,-3.25
E200303121120053136087CF,865.7,4.8105636,3.25
E200303121120053136087CF,865.7,4.712389,20.3125
E200303121120053136087CF,865.7,4.7492046,-9.75
E200303121120053136087CF,865.7,4.730797,0.0
E200303121120053136087CF,865.7,4.6387577,26.8125
E200303121120053136087CF,865.7,4.6571655,15.4375
E200303121120053136087CF,865.7,4.6755733,6.5
E200303121120053136087CF,865.7,4.626486,25.1875
E200303121120053136087CF,865.7,4.718525,0.0
E200303121120053136087CF,865.7,4.6817093,-3.25
E200303121120053136087CF,865.7,4.6387577,13.8125
E200303121120053136087CF,865.7,4.6817093,-1.625
E200303121120053136087CF,865.7,4.6694374,3.25
E200303121120053136087CF,865.7,4.6694374,8.125
E200303121120053136087CF,865.7,4.6817093,-3.25
E200303121120053136087CF,865.7,4.712389,-13.0
E200303121120053136087CF,865.7,4.6019425,11.375
E200303121120053136087CF,865.7,4.6142144,11.375
E200303121120053136087CF,865.7,4.687845,-9.75
E200303121120053136087CF,865.7,4.700117,-13.0
E200303121120053136087CF,865.7,4.6571655,4.875
E200303121120053136087CF,865.7,4.552855,34.9375
E200303121120053136087CF,865.7,4.706253,-4.875
E200303121120053136087CF,865.7,4.693981,-1.625
E200303121120053136087CF,865.7,4.7492046,-18.6875
E200303121120053136087CF,865.7,4.706253,-3.25
E200303121120053136087CF,865.7,4.712389,3.25
E200303121120053136087CF,865.7,4.7369328,-13.8125
E200303121120053136087CF,865.7,4.687845,-1.625
E200303121120053136087CF,865.7,4.6019425,26.8125
E200303121120053136087CF,865.7,4.6817093,11.375
E200303121120053136087CF,865.7,4.7676125,-15.4375
E200303121120053136087CF,865.7,4.6817093,0.0
E200303121120053136087CF,865.7,4.706253,-3.25
E200303121120053136087CF,865.7,4.7369328,-1.625
E200303121120053136087CF,865.7,4.730797,-6.5
E200303121120053136087CF,865.7,4.724661,-4.875
E200303121120053136087CF,865.7,4.7614765,-13.8125
E200303121120053136087CF,865.7,4.6571655,6.5
E200303121120053136087CF,865.7,4.6571655,4.875
E200303121120053136087CF,865.7,4.792156,-30.0625
E200303121120053136087CF,865.7,4.6755733,8.125
E200303121120053136087CF,865.7,4.6510296,11.375
E200303121120053136087CF,865.7,4.6633015,0.0
E200303121120053136087CF,865.7,4.693981,-17.0625
E200303121120053136087CF,865.7,4.6755733,-9.75
E200303121120053136087CF,865.7,4.5896707,13.0
E200303121120053136087CF,865.7,4.577399,17.0625
E200303121120053136087CF,865.7,4.7430687,-23.5625
E200303121120053136087CF,865.7,4.5835347,11.375
E200303121120053136087CF,865.7,4.6142144,17.0625
E200303121120053136087CF,865.7,4.565127,15.4375
E200303121120053136087CF,865.7,4.571263,4.875
E200303121120053136087CF,865.7,4.577399,8.125
E200303121120053136087CF,865.7,4.565127,11.375
E200303121120053136087CF,865.7,4.5160394,15.4375
E200303121120053136087CF,865.7,4.5037675,17.0625
E200303121120053136087CF,865.7,4.6203504,-23.5625
E200303121120053136087CF,865.7,4.5896707,-1.625
E200303121120053136087CF,865.7,4.700117,-23.5625
E200303121120053136087CF,865.7,4.5160394,21.9375
E200303121120053136087CF,865.7,4.6142144,-21.9375
E200303121120053136087CF,865.7,4.626486,-21.9375
E200303121120053136087CF,865.7,4.5835347,-13.0
E200303121120053136087CF,865.7,4.4976315,6.5
E200303121120053136087CF,865.7,4.571263,-15.4375
E200303121120053136087CF,865.7,4.552855,-13.0
E200303121120053136087CF,865.7,4.6142144,-21.9375
E200303121120053136087CF,865.7,4.5283113,3.25
E200303121120053136087CF,865.7,4.558991,-18.6875
E200303121120053136087CF,865.7,4.546719,-8.125
E200303121120053136087CF,865.7,4.4792237,6.5
E200303121120053136087CF,865.7,4.5283113,-6.5
E200303121120053136087CF,865.7,4.5037675,-3.25
E200303121120053136087CF,865.7,4.5835347,-28.4375
E200303121120053136087CF,865.7,4.571263,-18.6875
E200303121120053136087CF,865.7,4.4976315,-4.875
E200303121120053136087CF,865.7,4.411729,17.0625
E200303121120053136087CF,865.7,4.4362726,18.6875
E200303121120053136087CF,865.7,4.460816,15.4375
E200303121120053136087CF,865.7,4.5283113,-6.5
E200303121120053136087CF,865.7,4.3380976,30.0625
E200303121120053136087CF,865.7,4.3626413,15.4375
E200303121120053136087CF,865.7,4.4546804,-3.25
E200303121120053136087CF,865.7,4.466952,3.25
E200303121120053136087CF,865.7,4.411729,-1.625
E200303121120053136087CF,865.7,4.4914956,-17.0625
E200303121120053136087CF,865.7,4.393321,8.125
E200303121120053136087CF,865.7,4.3687773,1.625
E200303121120053136087CF,865.7,4.3503695,6.5
E200303121120053136087CF,865.7,4.313554,20.3125
E200303121120053136087CF,865.7,4.417865,-13.0
E200303121120053136087CF,865.7,4.399457,-6.5
E200303121120053136087CF,865.7,4.3380976,4.875
E200303121120053136087CF,865.7,4.381049,-4.875
E200303121120053136087CF,865.7,4.405593,-18.6875
E200303121120053136087CF,865.7,4.246059,25.1875
E200303121120053136087CF,865.7,4.4301367,-26.8125
E200303121120053136087CF,865.7,4.264467,9.75
E200303121120053136087CF,865.7,4.264467,3.25
E200303121120053136087CF,865.7,4.301282,3.25
E200303121120053136087CF,865.7,4.4485445,-40.6875
E200303121120053136087CF,865.7,4.3565054,-15.4375
E200303121120053136087CF,865.7,4.252195,3.25
E200303121120053136087CF,865.7,4.160156,26.8125
E200303121120053136087CF,865.7,4.313554,-11.375
E200303121120053136087CF,865.7,4.2031074,1.625
E200303121120053136087CF,865.7,4.295146,-11.375
E200303121120053136087CF,865.7,4.258331,-13.8125
E200303121120053136087CF,865.7,4.233787,-4.875
E200303121120053136087CF,865.7,4.215379,-11.375
E200303121120053136087CF,865.7,4.12334,9.75
E200303121120053136087CF,865.7,4.1969714,-13.8125
E200303121120053136087CF,865.7,4.068117,23.5625
E200303121120053136087CF,865.7,4.2706027,-36.5625
E200303121120053136087CF,865.7,4.221515,-25.1875
E200303121120053136087CF,865.7,4.141748,3.25
E200303121120053136087CF,865.7,4.080389,26.8125
E200303121120053136087CF,865.7,4.1846995,-26.8125
E200303121120053136087CF,865.7,4.0067577,31.6875
E200303121120053136087CF,865.7,4.068117,6.5
E200303121120053136087CF,865.7,4.1724277,-30.0625
E200303121120053136087CF,865.7,4.2092433,-40.6875
E200303121120053136087CF,865.7,4.080389,-17.0625
E200303121120053136087CF,865.7,3.9699423,38.1875
E200303121120053136087CF,865.7,3.9822142,-1.625
E200303121120053136087CF,865.7,4.086525,-28.4375
E200303121120053136087CF,865.7,4.0558453,-17.0625
E200303121120053136087CF,865.7,3.9699423,-8.125
E200303121120053136087CF,865.7,3.8901753,1.625
E200303121120053136087CF,865.7,3.9208548,18.6875
E200303121120053136087CF,865.7,3.8042724,25.1875
E200303121120053136087CF,865.7,3.8042724,13.0
E200303121120053136087CF,865.7,3.8472238,-8.125
E200303121120053136087CF,865.7,3.7797287,28.4375
E200303121120053136087CF,865.7,3.7920005,-1.625
E200303121120053136087CF,865.7,3.675418,21.9375
E200303121120053136087CF,865.7,3.6263306,-3.25
E200303121120053136087CF,865.7,3.5465636,13.8125
E200303121120053136087CF,865.7,3.5649714,-3.25
E200303121120053136087CF,865.7,3.5220199,-1.625
E200303121120053136087CF,865.7,3.3993015,21.9375
E200303121120053136087CF,865.7,3.4606607,0.0
E200303121120053136087CF,865.7,3.3808937,21.9375
E200303121120053136087CF,865.7,3.4913402,-23.5625
E200303121120053136087CF,865.7,3.2274957,43.9375
E200303121120053136087CF,865.7,3.3808937,-6.5
E200303121120053136087CF,865.7,3.4790685,-39.875
E200303121120053136087CF,865.7,3.3195345,0.0
E200303121120053136087CF,865.7,3.264311,18.6875
E200303121120053136087CF,865.7,3.344078,0.0
E200303121120053136087CF,865.7,3.3379421,8.125
E200303121120053136087CF,865.7,3.276583,3.25
E200303121120053136087CF,865.7,3.2520392,1.625
E200303121120053136087CF,865.7,3.350214,-6.5
E200303121120053136087CF,865.7,3.2520392,20.3125
E200303121120053136087CF,865.7,3.35635,-4.875
E200303121120053136087CF,865.7,3.4729326,-34.9375
E200303121120053136087CF,865.7,3.3747578,-18.6875
E200303121120053136087CF,865.7,3.3256702,-1.625
E200303121120053136087CF,865.7,3.3686218,-13.0
E200303121120053136087CF,865.7,3.3686218,-17.0625
E200303121120053136087CF,865.7,3.3256702,6.5
E200303121120053136087CF,865.7,3.2949908,20.3125
E200303121120053136087CF,865.7,3.5649714,-48.8125
E200303121120053136087CF,865.7,3.4729326,-25.1875
E200303121120053136087CF,865.7,3.3686218,-6.5
E200303121120053136087CF,865.7,3.350214,17.0625
E200303121120053136087CF,865.7,3.3993015,1.625
E200303121120053136087CF,865.7,3.417709,-13.0
E200303121120053136087CF,865.7,3.3318062,6.5
E200303121120053136087CF,865.7,3.4115732,-4.875
E200303121120053136087CF,865.7,3.282719,0.0
E200303121120053136087CF,865.7,3.3256702,15.4375
E200303121120053136087CF,865.7,3.3318062,-1.625
E200303121120053136087CF,865.7,3.3011267,9.75
E200303121120053136087CF,865.7,3.0679617,65.0625
E200303121120053136087CF,865.7,3.3072627,-4.875
E200303121120053136087CF,865.7,3.2949908,18.6875
E200303121120053136087CF,865.7,3.1538644,40.6875
E200303121120053136087CF,865.7,3.2090878,13.8125
E200303121120053136087CF,865.7,3.0740974,36.5625
E200303121120053136087CF,865.7,3.2152238,1.625
E200303121120053136087CF,865.7,2.951379,43.9375
E200303121120053136087CF,865.7,3.0188742,21.9375
E200303121120053136087CF,865.7,3.0863693,-1.625
E200303121120053136087CF,865.7,3.043418,17.0625
E200303121120053136087CF,865.7,3.1538644,-34.9375
E200303121120053136087CF,865.7,2.9145634,-9.75
E200303121120053136087CF,865.7,2.9145634,3.25
E200303121120053136087CF,865.7,2.883884,-18.6875
E200303121120053136087CF,865.7,2.8286605,-1.625
E200303121120053136087CF,865.7,2.89002,-25.1875
E200303121120053136087CF,865.7,2.8470683,-13.8125
E200303121120053136087CF,865.7,2.7366216,9.75
E200303121120053136087CF,865.7,2.6875343,31.6875
E200303121120053136087CF,865.7,2.718214,-13.0
E200303121120053136087CF,865.7,2.877748,-45.5625
E200303121120053136087CF,865.7,2.7673013,-8.125
E200303121120053136087CF,865.7,2.7550294,-1.625
E200303121120053136087CF,865.7,2.7734373,-9.75
E200303121120053136087CF,865.7,2.5893595,36.5625
E200303121120053136087CF,865.7,2.8409324,-23.5625
E200303121120053136087CF,865.7,2.8654761,-40.6875
E200303121120053136087CF,865.7,2.7427576,-13.8125
E200303121120053136087CF,865.7,2.712078,-8.125
E200303121120053136087CF,865.7,2.7857091,-33.3125
E200303121120053136087CF,865.7,2.718214,8.125
E200303121120053136087CF,865.7,2.6752625,9.75
E200303121120053136087CF,865.7,2.8225245,-25.1875
E200303121120053136087CF,865.7,2.6875343,13.8125
E200303121120053136087CF,865.7,2.7366216,-6.5
E200303121120053136087CF,865.7,2.6629906,13.0
E200303121120053136087CF,865.7,2.7488935,1.625
E200303121120053136087CF,865.7,2.7427576,-9.75
E200303121120053136087CF,865.7,2.6936703,21.9375
E200303121120053136087CF,865.7,2.730486,-25.1875
E200303121120053136087CF,865.7,2.7059422,11.375
E200303121120053136087CF,865.7,2.730486,-4.875
E200303121120053136087CF,865.7,2.7795732,-9.75
E200303121120053136087CF,865.7,2.797981,-26.8125
E200303121120053136087CF,865.7,2.7059422,8.125
E200303121120053136087CF,865.7,2.5402722,50.4375
E200303121120053136087CF,865.7,2.7366216,-18.6875
E200303121120053136087CF,865.7,2.6077673,15.4375
E200303121120053136087CF,865.7,2.804117,-15.4375
E200303121120053136087CF,865.7,2.8163888,-31.6875
E200303121120053136087CF,865.7,2.6875343,0.0
E200303121120053136087CF,865.7,2.6200392,13.0
E200303121120053136087CF,865.7,2.810253,-23.5625
E200303121120053136087CF,865.7,2.5280004,43.9375
E200303121120053136087CF,865.7,2.877748,-45.5625
E200303121120053136087CF,865.7,2.810253,-31.6875
E200303121120053136087CF,865.7,2.8532043,-38.1875
E200303121120053136087CF,865.7,2.9206994,-67.5
E200303121120053136087CF,865.7,2.8347964,-30.0625
E200303121120053136087CF,865.7,2.4605052,65.0625
E200303121120053136087CF,865.7,2.55868,23.5625
E200303121120053136087CF,865.7,2.5893595,39.875
E200303121120053136087CF,865.7,2.7734373,3.25
E200303121120053136087CF,865.7,2.9084275,-40.6875
E200303121120053136087CF,865.7,2.8286605,-18.6875
E200303121120053136087CF,865.7,2.8593402,-38.1875
E200303121120053136087CF,865.7,2.7488935,3.25
E200303121120053136087CF,865.7,2.7366216,4.875
E200303121120053136087CF,865.7,2.6077673,13.8125
E200303121120053136087CF,865.7,2.7611654,-3.25
E200303121120053136087CF,865.7,2.7611654,-3.25
E200303121120053136087CF,865.7,2.8163888,-30.0625
E200303121120053136087CF,865.7,2.7795732,-6.5
E200303121120053136087CF,865.7,2.712078,-1.625
E200303121120053136087CF,865.7,2.8347964,-21.9375
E200303121120053136087CF,865.7,2.6813984,18.6875
E200303121120053136087CF,865.7,2.7795732,-20.3125
E200303121120053136087CF,865.7,2.6752625,21.9375
E200303121120053136087CF,865.7,2.7427576,-13.0
E200303121120053136087CF,865.7,2.7366216,3.25
E200303121120053136087CF,865.7,2.8225245,-40.6875
E200303121120053136087CF,865.7,2.804117,-31.6875
E200303121120053136087CF,865.7,2.871612,-40.6875
E200303121120053136087CF,865.7,2.7550294,18.6875
E200303121120053136087CF,865.7,2.6875343,9.75
E200303121120053136087CF,865.7,2.712078,-3.25
E200303121120053136087CF,865.7,2.8225245,-3.25
E200303121120053136087CF,865.7,2.718214,17.0625
E200303121120053136087CF,865.7,2.7550294,-11.375
E200303121120053136087CF,865.7,2.6200392,28.4375
E200303121120053136087CF,865.7,2.8409324,-26.8125
E200303121120053136087CF,865.7,2.6813984,-8.125
E200303121120053136087CF,865.7,2.5954955,38.1875
E200303121120053136087CF,865.7,2.7673013,-13.8125
E200303121120053136087CF,865.7,2.810253,-15.4375
E200303121120053136087CF,865.7,2.644583,36.5625
E200303121120053136087CF,865.7,2.791845,-8.125
E200303121120053136087CF,865.7,2.797981,-11.375
E200303121120053136087CF,865.7,2.797981,-9.75
E200303121120053136087CF,865.7,2.7795732,4.875
E200303121120053136087CF,865.7,2.7673013,8.125
E200303121120053136087CF,865.7,2.89002,-25.1875
E200303121120053136087CF,865.7,2.6813984,3.25
E200303121120053136087CF,865.7,2.7673013,-23.5625
E200303121120053136087CF,865.7,2.718214,9.75
E200303121120053136087CF,865.7,2.9022915,-38.1875
E200303121120053136087CF,865.7,2.7427576,0.0
E200303121120053136087CF,865.7,2.9391072,-53.6875
E200303121120053136087CF,865.7,2.8347964,-17.0625
E200303121120053136087CF,865.7,2.7734373,-6.5
E200303121120053136087CF,865.7,2.797981,-11.375
E200303121120053136087CF,865.7,2.791845,0.0
E200303121120053136087CF,865.7,2.797981,-9.75
E200303121120053136087CF,865.7,2.712078,18.6875
