Created: 09-22-2016  18:46:10
VNA version 628A
"Pos6"
Z0, 50.101970
Freq(MHz),SWR,Rs,Xs,Zmag,Phase(deg),Rho,ReturnLoss,%ReflectedPower
 700,  5.888265,  18.394511,  -52.289007,  55.430121,  -70.618994,  0.709651,  2.979102,  50.360469
 700.504517,  5.791341,  18.520446,  -51.764737,  54.978924,  -70.311348,  0.705507,  3.029969,  49.774060
 701.005981,  5.766961,  18.564833,  -51.665921,  54.900726,  -70.233609,  0.704446,  3.043041,  49.624468
 701.506775,  5.736154,  18.556271,  -51.374440,  54.623668,  -70.137682,  0.703095,  3.059724,  49.434209
 702.007202,  5.736037,  18.428406,  -51.046516,  54.271671,  -70.147864,  0.703090,  3.059787,  49.433489
 702.507507,  5.651442,  18.617663,  -50.736067,  54.048393,  -69.841360,  0.699313,  3.106564,  48.903913
 703.008972,  5.608011,  18.657524,  -50.445827,  53.790303,  -69.691807,  0.697337,  3.131145,  48.627898
 704.008972,  5.509794,  18.723001,  -49.719173,  53.132876,  -69.350257,  0.692771,  3.188211,  47.993111
 705.008972,  5.417179,  18.813386,  -49.074263,  52.564218,  -69.003898,  0.688337,  3.243983,  47.380724
 706.008972,  5.302193,  18.927364,  -48.264671,  51.852237,  -68.562665,  0.682650,  3.316036,  46.601123
 707.008972,  5.165517,  19.046341,  -47.225728,  50.934185,  -67.994172,  0.675615,  3.406012,  45.645587
 708.008972,  5.007130,  19.268831,  -46.241291,  50.105383,  -67.332405,  0.667062,  3.516672,  44.497214
 709.008972,  4.912877,  19.264303,  -45.264392,  49.205551,  -66.893739,  0.661755,  3.586053,  43.791993
 710.008972,  4.799118,  19.315577,  -44.233684,  48.276733,  -66.366481,  0.655120,  3.673583,  42.918216
 711.008972,  4.691675,  19.414572,  -43.353025,  47.509117,  -65.838492,  0.648610,  3.760333,  42.069440
 712.008972,  4.635121,  19.331807,  -42.564695,  46.752701,  -65.554607,  0.645083,  3.807687,  41.613216
 713.008972,  4.584706,  19.274243,  -41.891418,  46.113909,  -65.288630,  0.641879,  3.850935,  41.200880
 714.008972,  4.564809,  19.210907,  -41.520577,  45.750266,  -65.168719,  0.640599,  3.868280,  41.036659
 715.008972,  4.545924,  19.137603,  -41.134434,  45.369083,  -65.048617,  0.639375,  3.884890,  40.880009
 716.008972,  4.559806,  18.941062,  -40.798020,  44.981392,  -65.097623,  0.640275,  3.872666,  40.995234
 717.008972,  4.564687,  18.809337,  -40.523343,  44.676788,  -65.102682,  0.640591,  3.868387,  41.035650
 718.008972,  4.586731,  18.606692,  -40.264558,  44.356428,  -65.197717,  0.642009,  3.849179,  41.217542
 719.008972,  4.593871,  18.459904,  -39.960555,  44.018943,  -65.208464,  0.642466,  3.842999,  41.276236
 720.008972,  4.605206,  18.296203,  -39.667709,  43.684459,  -65.242278,  0.643189,  3.833230,  41.369192
 721.008972,  4.613967,  18.148834,  -39.386500,  43.367342,  -65.262303,  0.643746,  3.825713,  41.440851
 722.008972,  4.635226,  17.942070,  -39.085076,  43.006767,  -65.341964,  0.645090,  3.807598,  41.614070
 723.012024,  4.642884,  17.772944,  -38.707603,  42.593143,  -65.339100,  0.645571,  3.801116,  41.676231
 724.012024,  4.629337,  17.663492,  -38.263649,  42.144974,  -65.215448,  0.644718,  3.812599,  41.566178
 725.031982,  4.614622,  17.563294,  -37.827863,  41.708089,  -65.084376,  0.643787,  3.825153,  41.446199
 726.031982,  4.587693,  17.513507,  -37.391421,  41.291487,  -64.891621,  0.642071,  3.848345,  41.225459
 727.031982,  4.563870,  17.422427,  -36.873452,  40.784273,  -64.697998,  0.640538,  3.869103,  41.028886
 728.031982,  4.534855,  17.360932,  -36.374780,  40.307976,  -64.473865,  0.638654,  3.894693,  40.787839
 729.031982,  4.491757,  17.361627,  -35.881720,  39.864280,  -64.168016,  0.635818,  3.933346,  40.426435
 730.031982,  4.440312,  17.423050,  -35.469442,  39.519005,  -63.831794,  0.632374,  3.980520,  39.989687
 731.031982,  4.425054,  17.388224,  -35.193674,  39.256163,  -63.700780,  0.631340,  3.994733,  39.859029
 732.031982,  4.392021,  17.432739,  -34.926100,  39.036630,  -63.468960,  0.629082,  4.025861,  39.574357
 733.031982,  4.334344,  17.578718,  -34.629756,  38.838959,  -63.082804,  0.625071,  4.081413,  39.071379
 734.031982,  4.298467,  17.640988,  -34.374031,  38.638988,  -62.829377,  0.622532,  4.116762,  38.754649
 735.031982,  4.291709,  17.585867,  -34.135681,  38.401283,  -62.743138,  0.622050,  4.123491,  38.694651
 736.031982,  4.308966,  17.471516,  -34.010162,  38.237824,  -62.812103,  0.623279,  4.106353,  38.847650
 737.031982,  4.326695,  17.355101,  -33.880385,  38.069698,  -62.881628,  0.624533,  4.088896,  39.004108
 738.031982,  4.357864,  17.165122,  -33.675888,  37.802302,  -63.003368,  0.626717,  4.058572,  39.277406
 739.031982,  4.416725,  16.871704,  -33.490852,  37.506124,  -63.278806,  0.630773,  4.002535,  39.787488
 740.031982,  4.523858,  16.410469,  -33.370793,  37.192935,  -63.828139,  0.637934,  3.904483,  40.696002
 741.031982,  4.620320,  15.995306,  -33.201078,  36.857525,  -64.291748,  0.644148,  3.820281,  41.492716
 742.031982,  4.684010,  15.740460,  -33.142778,  36.693741,  -64.607092,  0.648136,  3.766681,  42.007990
 743.031982,  4.753270,  15.431697,  -32.920745,  36.360764,  -64.896036,  0.652372,  3.710099,  42.558871
 744.031982,  4.821225,  15.129224,  -32.693618,  36.026013,  -65.174505,  0.656430,  3.656236,  43.089995
 745.031982,  4.879530,  14.875168,  -32.478070,  35.723239,  -65.397769,  0.659837,  3.611270,  43.538454
 746.031982,  4.934698,  14.619523,  -32.191500,  35.355887,  -65.579791,  0.662999,  3.569744,  43.956752
 747.031982,  4.958133,  14.450460,  -31.841972,  34.967722,  -65.594460,  0.664324,  3.552397,  44.132684
 748.031982,  4.977350,  14.308002,  -31.529445,  34.624258,  -65.594304,  0.665404,  3.538297,  44.276193
 749.031982,  4.997170,  14.112958,  -31.051449,  34.108589,  -65.553510,  0.666509,  3.523875,  44.423475
 750.031982,  5.008303,  13.997223,  -30.742028,  33.779031,  -65.514928,  0.667127,  3.515826,  44.505883
 751.031982,  5.026851,  13.847264,  -30.373443,  33.381432,  -65.487618,  0.668152,  3.502498,  44.642678
 752.031982,  5.061811,  13.642015,  -29.932477,  32.895083,  -65.499003,  0.670066,  3.477654,  44.898788
 753.031982,  5.086332,  13.470562,  -29.497373,  32.427964,  -65.458901,  0.671395,  3.460440,  45.077103
 754.031982,  5.108181,  13.297477,  -29.027506,  31.928742,  -65.389043,  0.672570,  3.445247,  45.235075
 755.031982,  5.157263,  13.068140,  -28.587498,  31.433317,  -65.439145,  0.675180,  3.411604,  45.586852
 756.031982,  5.212002,  12.828015,  -28.175582,  30.958671,  -65.522368,  0.678043,  3.374860,  45.974176
 757.031982,  5.256583,  12.589792,  -27.637723,  30.370474,  -65.507214,  0.680337,  3.345522,  46.285805
 758.031982,  5.312292,  12.351772,  -27.180509,  29.855785,  -65.560230,  0.683158,  3.309579,  46.670465
 759.031982,  5.336890,  12.209703,  -26.788862,  29.440407,  -65.498355,  0.684388,  3.293955,  46.838663
 760.031982,  5.366369,  12.058981,  -26.398804,  29.023006,  -65.448795,  0.685849,  3.275427,  47.038910
 761.031982,  5.395347,  11.924690,  -26.088089,  28.684647,  -65.429910,  0.687273,  3.257419,  47.234369
 762.031982,  5.403059,  11.832382,  -25.716624,  28.308546,  -65.286621,  0.687649,  3.252660,  47.286158
 763.031982,  5.389885,  11.783240,  -25.325233,  27.933809,  -65.036171,  0.687005,  3.260798,  47.197635
 764.031982,  5.383945,  11.732306,  -25.001301,  27.619338,  -64.844260,  0.686714,  3.264481,  47.157621
 765.031982,  5.363750,  11.700049,  -24.604857,  27.246827,  -64.552296,  0.685720,  3.277065,  47.021179
 766.031982,  5.369241,  11.606946,  -24.170053,  26.813982,  -64.334360,  0.685991,  3.273634,  47.058344
 767.031982,  5.316350,  11.671296,  -23.875511,  26.577926,  -63.935481,  0.683361,  3.306991,  46.698284
 768.031982,  5.278789,  11.695821,  -23.555316,  26.301626,  -63.585992,  0.681467,  3.331101,  46.439757
 769.031982,  5.247612,  11.707713,  -23.247722,  26.031084,  -63.264609,  0.679878,  3.351384,  46.223370
 770.031982,  5.219853,  11.707046,  -22.896683,  25.719342,  -62.905996,  0.678449,  3.369656,  46.029302
 771.031982,  5.204554,  11.684253,  -22.584496,  25.430862,  -62.634431,  0.677656,  3.379812,  45.921785
 772.031982,  5.164102,  11.718575,  -22.264508,  25.163251,  -62.226973,  0.675541,  3.406969,  45.635527
 773.031982,  5.095620,  11.818789,  -21.963284,  24.944163,  -61.690021,  0.671896,  3.453964,  45.144368
 774.031982,  5.103518,  11.727169,  -21.556570,  24.542928,  -61.427189,  0.672320,  3.448478,  45.201437
 775.031982,  5.072025,  11.721449,  -21.101934,  24.143408,  -60.918372,  0.670621,  3.470462,  44.973198
 776.031982,  5.034228,  11.729347,  -20.637468,  23.742391,  -60.353934,  0.668557,  3.497225,  44.696908
 777.031982,  5.078750,  11.560093,  -20.200759,  23.278740,  -60.189164,  0.670985,  3.465744,  45.022084
 778.031982,  5.100163,  11.435731,  -19.709242,  22.788745,  -59.862808,  0.672140,  3.450806,  45.177206
 779.031982,  5.133150,  11.294625,  -19.282379,  22.348269,  -59.634827,  0.673903,  3.428048,  45.414565
 780.031982,  5.161433,  11.163583,  -18.858934,  21.917401,  -59.366282,  0.675400,  3.408777,  45.616540
 781.031982,  5.160512,  11.098646,  -18.423901,  21.510733,  -58.926731,  0.675352,  3.409401,  45.609984
 782.031982,  5.192636,  10.960261,  -18.006973,  21.083821,  -58.651258,  0.677036,  3.387768,  45.837742
 783.031982,  5.210827,  10.860510,  -17.617847,  20.702099,  -58.310881,  0.677982,  3.375641,  45.965919
 784.031982,  5.178447,  10.876892,  -17.250739,  20.399117,  -57.726315,  0.676294,  3.397289,  45.737362
 785.031982,  5.131925,  10.926282,  -16.894603,  20.125389,  -57.065989,  0.673838,  3.428888,  45.405785
 786.031982,  5.091491,  10.960967,  -16.517155,  19.827524,  -56.396526,  0.671673,  3.456840,  45.114484
 787.031982,  5.070871,  10.959825,  -16.179470,  19.545587,  -55.856864,  0.670558,  3.471273,  44.964803
 788.031982,  5.044994,  10.972230,  -15.845226,  19.277078,  -55.271067,  0.669148,  3.489560,  44.775865
 789.031982,  5.008529,  11.010893,  -15.519927,  19.033668,  -54.617582,  0.667140,  3.515663,  44.507552
 790.031982,  4.982480,  11.028006,  -15.201234,  18.785328,  -54.009162,  0.665690,  3.534553,  44.314381
 791.031982,  4.947506,  11.065520,  -14.884198,  18.552085,  -53.334515,  0.663725,  3.560242,  44.053035
 792.031982,  4.883358,  11.176579,  -14.548211,  18.355735,  -52.427089,  0.660058,  3.608357,  43.567665
 793.031982,  4.838354,  11.250593,  -14.299670,  18.203979,  -51.776094,  0.657438,  3.642908,  43.222433
 794.031982,  4.773740,  11.363368,  -13.975092,  18.021118,  -50.855885,  0.653604,  3.693705,  42.719831
 795.031982,  4.739672,  11.401963,  -13.630691,  17.779131,  -50.053717,  0.651548,  3.721071,  42.451486
 796.031982,  4.728301,  11.394593,  -13.343709,  17.553133,  -49.476829,  0.650856,  3.730297,  42.361400
 797.031982,  4.694118,  11.440060,  -13.034368,  17.348249,  -48.694372,  0.648760,  3.758314,  42.088996
 798.031982,  4.653925,  11.505525,  -12.761964,  17.187070,  -47.928354,  0.646263,  3.791808,  41.765642
 799.031982,  4.666911,  11.438701,  -12.463184,  16.923046,  -47.405055,  0.647074,  3.780921,  41.870478
 800.031982,  4.659180,  11.413889,  -12.072140,  16.619076,  -46.566036,  0.646592,  3.787395,  41.808110
 801.031982,  4.663588,  11.372394,  -11.796959,  16.391886,  -46.013862,  0.646867,  3.783700,  41.843689
 802.031982,  4.662282,  11.343673,  -11.485389,  16.149907,  -45.304668,  0.646786,  3.784794,  41.833153
 803.031982,  4.638407,  11.363950,  -11.118007,  15.904301,  -44.318658,  0.645290,  3.804903,  41.639903
 804.031982,  4.645732,  11.313893,  -10.787295,  15.638637,  -43.573979,  0.645750,  3.798710,  41.699322
 805.031982,  4.654661,  11.258015,  -10.438761,  15.359243,  -42.780479,  0.646309,  3.791190,  41.771593
 806.031982,  4.652692,  11.234132,  -10.131336,  15.134328,  -41.988587,  0.646186,  3.792846,  41.755667
 807.031982,  4.647934,  11.215702,  -9.797110,  14.900728,  -41.073676,  0.645888,  3.796853,  41.717155
 808.031982,  4.660202,  11.153525,  -9.427644,  14.611125,  -40.156432,  0.646656,  3.786537,  41.816366
 809.031982,  4.644354,  11.166098,  -9.120232,  14.425133,  -39.190122,  0.645664,  3.799874,  41.688152
 810.031982,  4.651159,  11.124213,  -8.803837,  14.195546,  -38.299350,  0.646090,  3.794135,  41.743269
 811.047974,  4.643967,  11.118648,  -8.514664,  14.012432,  -37.388093,  0.645639,  3.800200,  41.685016
 812.047974,  4.654233,  11.067815,  -8.148784,  13.753361,  -36.285946,  0.646283,  3.791549,  41.768135
 813.047974,  4.652722,  11.044694,  -7.776457,  13.518747,  -35.067860,  0.646188,  3.792820,  41.755913
 814.047974,  4.666662,  10.988923,  -7.446003,  13.286454,  -34.033439,  0.647059,  3.781128,  41.868477
 815.047974,  4.672096,  10.954390,  -7.106286,  13.068614,  -32.881698,  0.647397,  3.776591,  41.912247
 816.047974,  4.701671,  10.863589,  -6.756929,  12.804767,  -31.790818,  0.649226,  3.752087,  42.149395
 817.047974,  4.746377,  10.744415,  -6.388151,  12.511201,  -30.622242,  0.651955,  3.715653,  42.504483
 818.047974,  4.780979,  10.644011,  -5.970407,  12.214947,  -29.179937,  0.654038,  3.687942,  42.776552
 819.047974,  4.821684,  10.539854,  -5.623241,  11.957803,  -27.947653,  0.656457,  3.655877,  43.093551
 820.047974,  4.893290,  10.370847,  -5.281923,  11.650900,  -26.845613,  0.660631,  3.600821,  43.643331
 821.047974,  4.969861,  10.197455,  -4.930080,  11.338249,  -25.659676,  0.664984,  3.543778,  44.220349
 822.047974,  5.032109,  10.053884,  -4.556771,  11.050507,  -24.249323,  0.668441,  3.498739,  44.681336
 823.047974,  5.089095,  9.924918,  -4.215177,  10.794018,  -22.909239,  0.671544,  3.458511,  45.097128
 824.047974,  5.107365,  9.877322,  -3.873851,  10.623772,  -21.319856,  0.672527,  3.445811,  45.229196
 825.047974,  5.148490,  9.784897,  -3.500518,  10.415288,  -19.574362,  0.674717,  3.417569,  45.524286
 826.047974,  5.177680,  9.719475,  -3.147955,  10.243509,  -17.837614,  0.676254,  3.397805,  45.731931
 827.047974,  5.143686,  9.778490,  -2.773237,  10.195700,  -15.786908,  0.674463,  3.420843,  45.489973
 828.047974,  5.089591,  9.877398,  -2.396414,  10.195456,  -13.636657,  0.671571,  3.458165,  45.100726
 829.047974,  5.047838,  9.953631,  -2.034455,  10.190801,  -11.578008,  0.669303,  3.487540,  44.796696
 830.047974,  4.988935,  10.066569,  -1.659259,  10.226928,  -9.419693,  0.666051,  3.529853,  44.362368
 831.047974,  4.962076,  10.115646,  -1.312896,  10.220758,  -7.453643,  0.664546,  3.549494,  44.162190
 832.047974,  4.928017,  10.179548,  -1.017414,  10.250575,  -5.731620,  0.662619,  3.574722,  43.906397
 833.047974,  4.898253,  10.234231,  -0.687884,  10.275926,  -3.801049,  0.660917,  3.597067,  43.681069
 834.047974,  4.918838,  10.191187,  -0.341658,  10.219494,  -1.857949,  0.662096,  3.581583,  43.837090
 835.047974,  4.942886,  10.141444,  0.003391,  10.166724,  0.077770,  0.663463,  3.563663,  44.018341
 836.047974,  4.958024,  10.110840,  0.334521,  10.142430,  1.941181,  0.664318,  3.552476,  44.131874
 837.047974,  5.259856,  9.653004,  0.741357,  9.724307,  4.826983,  0.680504,  3.343389,  46.308543
 838.047974,  5.561977,  9.217499,  1.132325,  9.341462,  7.739522,  0.695214,  3.157632,  48.332222
 839.047974,  5.876882,  8.774796,  1.573458,  8.985780,  11.108894,  0.709171,  2.984987,  50.292281
 840.047974,  6.174293,  8.360123,  1.990168,  8.669250,  14.348126,  0.721227,  2.838562,  52.016824
 841.047974,  6.469421,  7.951152,  2.353186,  8.363002,  17.299173,  0.732242,  2.706912,  53.617782
 842.047974,  6.772874,  7.532949,  2.744223,  8.076052,  20.480144,  0.742695,  2.583791,  55.159572
 843.047974,  7.053982,  7.133516,  3.140542,  7.819458,  23.620422,  0.751676,  2.479391,  56.501623
 844.047974,  7.084516,  7.108240,  3.464403,  7.928945,  25.828053,  0.752614,  2.468560,  56.642712
 845.047974,  7.095061,  7.105765,  3.848608,  8.101477,  28.266094,  0.752936,  2.464841,  56.691228
 846.047974,  7.115425,  7.092606,  4.139052,  8.233733,  30.103041,  0.753556,  2.457692,  56.784625
 847.047974,  7.109549,  7.105705,  4.433345,  8.394351,  31.805758,  0.753377,  2.459751,  56.757715
 848.047974,  7.107512,  7.117280,  4.793703,  8.598311,  33.809938,  0.753315,  2.460466,  56.748377
 849.047974,  7.113806,  7.117867,  5.046425,  8.739007,  35.225121,  0.753507,  2.458259,  56.777215
 850.047974,  7.125829,  7.114593,  5.350131,  8.912379,  36.828628,  0.753871,  2.454056,  56.832189
 851.047974,  7.113401,  7.135367,  5.615193,  9.086282,  38.118587,  0.753494,  2.458401,  56.775358
 852.047974,  7.036294,  7.228221,  5.864674,  9.313803,  38.953544,  0.751129,  2.485709,  56.419489
 853.047974,  6.975475,  7.301107,  6.177466,  9.571297,  40.121199,  0.749231,  2.507683,  56.134744
 854.047974,  6.948512,  7.340193,  6.468600,  9.790071,  41.287121,  0.748381,  2.517550,  56.007351
 855.047974,  6.917765,  7.383683,  6.749374,  10.013335,  42.293025,  0.747403,  2.528898,  55.861196
 856.047974,  6.905952,  7.410402,  7.126583,  10.294020,  43.754056,  0.747026,  2.533285,  55.804789
 857.047974,  6.881910,  7.450197,  7.456839,  10.555596,  44.884084,  0.746254,  2.542262,  55.689561
 858.047974,  6.875325,  7.472936,  7.818390,  10.829327,  46.182033,  0.746042,  2.544732,  55.657899
 859.047974,  6.924778,  7.432945,  8.152182,  11.041713,  47.536634,  0.747627,  2.526300,  55.894615
 860.047974,  6.943999,  7.428217,  8.476125,  11.279907,  48.663543,  0.748238,  2.519209,  55.985957
 861.047974,  6.938353,  7.451621,  8.815440,  11.548656,  49.717651,  0.748059,  2.521288,  55.959163
 862.047974,  6.934991,  7.472615,  9.139466,  11.809735,  50.663148,  0.747952,  2.522528,  55.943192
 863.047974,  6.939399,  7.484772,  9.451294,  12.062772,  51.547839,  0.748092,  2.520902,  55.964131
 864.047974,  6.962098,  7.477953,  9.762802,  12.304402,  52.472203,  0.748810,  2.512568,  56.071631
 865.047974,  6.926178,  7.539884,  10.126687,  12.631311,  53.253157,  0.747672,  2.525783,  55.901276
 866.047974,  6.902639,  7.586380,  10.453500,  12.920805,  53.964731,  0.746920,  2.534519,  55.788945
 867.047974,  6.867466,  7.639423,  10.683935,  13.137571,  54.388522,  0.745789,  2.547686,  55.620055
 868.047974,  6.847297,  7.681602,  10.976401,  13.398877,  54.987457,  0.745135,  2.555299,  55.522642
 869.047974,  6.814364,  7.735536,  11.212630,  13.622401,  55.387026,  0.744061,  2.567829,  55.362685
 870.047974,  6.766228,  7.809155,  11.525215,  13.923887,  55.847420,  0.742475,  2.586367,  55.126871
 871.047974,  6.667089,  7.946166,  11.791731,  14.221309,  55.996580,  0.739145,  2.625410,  54.633503
 872.047974,  6.619058,  8.020532,  11.988288,  14.425821,  56.188066,  0.737500,  2.644755,  54.390678
 873.047974,  6.624575,  8.030944,  12.216447,  14.623245,  56.641778,  0.737690,  2.642519,  54.418698
 874.047974,  6.602305,  8.083033,  12.554117,  14.934634,  57.193489,  0.736922,  2.651571,  54.305385
 875.047974,  6.548552,  8.174839,  12.845506,  15.229150,  57.500792,  0.735049,  2.673680,  54.029633
 876.047974,  6.473060,  8.308069,  13.227906,  15.622558,  57.854754,  0.732372,  2.705365,  53.636876
 877.047974,  6.389256,  8.446902,  13.584376,  15.999602,  58.084536,  0.729337,  2.741438,  53.193210
 878.047974,  6.388854,  8.480114,  13.947532,  16.326155,  58.656640,  0.729322,  2.741613,  53.191063
 879.047974,  6.402881,  8.495168,  14.322010,  16.654644,  59.290380,  0.729835,  2.735507,  53.265899
 880.047974,  6.333709,  8.618197,  14.707670,  17.049928,  59.592837,  0.727287,  2.765887,  52.894596
 881.047974,  6.295005,  8.706010,  15.099322,  17.433502,  59.990676,  0.725840,  2.783184,  52.684344
 882.047974,  6.265648,  8.784908,  15.468657,  17.791891,  60.382558,  0.724732,  2.796451,  52.523654
 883.047974,  6.250559,  8.837160,  15.747493,  18.058467,  60.693506,  0.724159,  2.803319,  52.440656
 884.047974,  6.191067,  8.958124,  16.009736,  18.346081,  60.774478,  0.721877,  2.830734,  52.110664
 885.047974,  6.164934,  9.023024,  16.269913,  18.605163,  60.990643,  0.720863,  2.842948,  51.964311
 886.047974,  6.104914,  9.134856,  16.519306,  18.877622,  61.057984,  0.718505,  2.871408,  51.624898
 887.047974,  6.050688,  9.249815,  16.813350,  19.190751,  61.179368,  0.716340,  2.897619,  51.314264
 888.047974,  6.012907,  9.331764,  17.046107,  19.434714,  61.289631,  0.714812,  2.916169,  51.095557
 889.047974,  6.000451,  9.378317,  17.279890,  19.662520,  61.495871,  0.714304,  2.922337,  51.023035
 890.047974,  5.993001,  9.426274,  17.577832,  19.947209,  61.785418,  0.714000,  2.926039,  50.979563
 891.047974,  6.021651,  9.411683,  17.836647,  20.168151,  62.168610,  0.715167,  2.911854,  51.146342
 892.047974,  5.986358,  9.501682,  18.116684,  20.457931,  62.311474,  0.713728,  2.929348,  50.940736
 893.047974,  5.972701,  9.564308,  18.443502,  20.776721,  62.578180,  0.713167,  2.936174,  50.860730
 894.047974,  5.987401,  9.571092,  18.680658,  20.990609,  62.859572,  0.713771,  2.928827,  50.946840
 895.047974,  5.991656,  9.598614,  18.948385,  21.242120,  63.121081,  0.713945,  2.926708,  50.971711
 896.047974,  5.976606,  9.659774,  19.226267,  21.517496,  63.314107,  0.713328,  2.934219,  50.883634
 897.064026,  5.983848,  9.685443,  19.504236,  21.777582,  63.581547,  0.713625,  2.930600,  50.926056
 898.064026,  6.017474,  9.670661,  19.788192,  22.026992,  63.938510,  0.714997,  2.913914,  51.122095
 899.064026,  6.040386,  9.672122,  20.071608,  22.282209,  64.257206,  0.715925,  2.902653,  51.254814
 900.064026,  6.080939,  9.641870,  20.319700,  22.493379,  64.599601,  0.717552,  2.882938,  51.488026
 901.064026,  6.056823,  9.733271,  20.671108,  22.849682,  64.774707,  0.716586,  2.894629,  51.349598
 902.064026,  6.053704,  9.808322,  21.151168,  23.317281,  65.097154,  0.716461,  2.896148,  51.331641
 903.064026,  6.058984,  9.865592,  21.592000,  23.740675,  65.425005,  0.716673,  2.893578,  51.362032
 904.064026,  6.041636,  9.958488,  22.002006,  24.151682,  65.635529,  0.715975,  2.902042,  51.262031
 905.064026,  5.980480,  10.114839,  22.355283,  24.537991,  65.644941,  0.713487,  2.932282,  50.906332
 906.064026,  5.922995,  10.272484,  22.708586,  24.924823,  65.658948,  0.711108,  2.961292,  50.567418
 907.064026,  5.836188,  10.488031,  23.116368,  25.385245,  65.595018,  0.707439,  3.006216,  50.047038
 908.064026,  5.809284,  10.597921,  23.472088,  25.754346,  65.704917,  0.706283,  3.020420,  49.883622
 909.064026,  5.734071,  10.781363,  23.720709,  26.056182,  65.560526,  0.703003,  3.060859,  49.421296
 910.064026,  5.673204,  10.942825,  23.977586,  26.356782,  65.470617,  0.700294,  3.094393,  49.041151
 911.064026,  5.641361,  11.065838,  24.324418,  26.723680,  65.531528,  0.698857,  3.112235,  48.840100
 912.064026,  5.582607,  11.247685,  24.666577,  27.110485,  65.482669,  0.696169,  3.145706,  48.465128
 913.064026,  5.552245,  11.392845,  25.102706,  27.567531,  65.585120,  0.694761,  3.163290,  48.269298
 914.064026,  5.532726,  11.510726,  25.506887,  27.984493,  65.705453,  0.693849,  3.174700,  48.142655
 915.064026,  5.477467,  11.688974,  25.806597,  28.331196,  65.628825,  0.691237,  3.207456,  47.780903
 916.064026,  5.425388,  11.884279,  26.176460,  28.748847,  65.583733,  0.688735,  3.238960,  47.435556
 917.064026,  5.347896,  12.160271,  26.598194,  29.247911,  65.444503,  0.684935,  3.287013,  46.913595
 918.064026,  5.324169,  12.272483,  26.899899,  29.569296,  65.480084,  0.683753,  3.302016,  46.751804
 919.064026,  5.318952,  12.344730,  27.188057,  29.861563,  65.584461,  0.683492,  3.305334,  46.716107
 920.064026,  5.330313,  12.372297,  27.439912,  30.103327,  65.730084,  0.684060,  3.298118,  46.793786
 921.064026,  5.336315,  12.410094,  27.682143,  30.340652,  65.847202,  0.684359,  3.294319,  46.834738
 922.064026,  5.380837,  12.391762,  28.069807,  30.688278,  66.172818,  0.686561,  3.266411,  47.136667
 923.064026,  5.441556,  12.331543,  28.442698,  31.006008,  66.546860,  0.689516,  3.229113,  47.543232
 924.064026,  5.508432,  12.213885,  28.667776,  31.162568,  66.912442,  0.692706,  3.189017,  47.984207
 925.064026,  5.519399,  12.260128,  28.988645,  31.476038,  67.063140,  0.693223,  3.182537,  48.055851
 926.064026,  5.538061,  12.297714,  29.349902,  31.822635,  67.260923,  0.694099,  3.171573,  48.177329
 927.064026,  5.467168,  12.546781,  29.650666,  32.198381,  67.070268,  0.690746,  3.213637,  47.712952
 928.064026,  5.405289,  12.751193,  29.873174,  32.484145,  66.894047,  0.687758,  3.251287,  47.301111
 929.064026,  5.332884,  12.992661,  30.125610,  32.811578,  66.680951,  0.684188,  3.296490,  46.811337
 930.064026,  5.268271,  13.189127,  30.274947,  33.025861,  66.469475,  0.680933,  3.337916,  46.366938
 931.064026,  5.231087,  13.361362,  30.594098,  33.387097,  66.413964,  0.679029,  3.362237,  46.108003
 932.064026,  5.147318,  13.651149,  30.867060,  33.752715,  66.146936,  0.674655,  3.418367,  45.515918
 933.064026,  5.104122,  13.834145,  31.158692,  34.092650,  66.054563,  0.672353,  3.448059,  45.205798
 934.064026,  5.109406,  13.909737,  31.497578,  34.432900,  66.169582,  0.672636,  3.444399,  45.243907
 935.064026,  5.093955,  14.054470,  31.874694,  34.836245,  66.206044,  0.671806,  3.455123,  45.132320
 936.064026,  5.056206,  14.265154,  32.215042,  35.233197,  66.122342,  0.669760,  3.481613,  44.857877
 937.064026,  4.974032,  14.657337,  32.653297,  35.795385,  65.846238,  0.665218,  3.540724,  44.251461
 938.064026,  4.895773,  15.028817,  33.072288,  36.330422,  65.585148,  0.660774,  3.598942,  43.662219
 939.064026,  4.824203,  15.347262,  33.306518,  36.678523,  65.289426,  0.656605,  3.653912,  43.113060
 940.064026,  4.748549,  15.704266,  33.693084,  37.177560,  65.029436,  0.652086,  3.713901,  42.521630
 941.064026,  4.685095,  15.993077,  33.955468,  37.536154,  64.790657,  0.648203,  3.765781,  42.016697
 942.064026,  4.682914,  16.105094,  34.313248,  37.908755,  64.854875,  0.648068,  3.767590,  41.999200
 943.064026,  4.659431,  16.274310,  34.586447,  38.227778,  64.796210,  0.646608,  3.787184,  41.810138
 944.064026,  4.681047,  16.278346,  34.840986,  38.459917,  64.951061,  0.647952,  3.769140,  41.984210
 945.064026,  4.696765,  16.307850,  35.103830,  38.710811,  65.073939,  0.648924,  3.756129,  42.110178
 946.064026,  4.754486,  16.210734,  35.455726,  38.988112,  65.427322,  0.652445,  3.709121,  42.568457
