-43.5,1.9144080232812801,13.8125
-43.5,2.0371264863121317,0.8125
-43.5,2.018718716857504,5.6875
-44.0,2.055534255766759,-6.5
-43.5,1.9389517158874505,13.8125
-43.5,2.024854640009046,-3.25
-43.5,1.9573594853420782,15.4375
-44.0,1.9696313316451632,8.125
-43.5,2.086213871524472,-8.125
-43.5,2.024854640009046,6.5
-43.5,2.110757564130642,-8.125
-43.5,2.024854640009046,-0.8125
-43.5,2.043262409463674,0.0
-43.5,2.073942025221387,0.8125
-44.0,2.018718716857504,2.4375
-44.0,2.0493983326152168,-2.4375
-44.0,1.9941750242513334,10.5625
-44.0,2.0493983326152168,7.3125
-43.5,1.88986433067511,17.875
-43.5,1.9266798695843652,17.875
-44.0,1.9941750242513334,12.1875
-43.5,2.030990563160589,3.25
-44.0,2.0493983326152168,3.25
-43.5,2.061670178918302,3.25
-43.5,2.043262409463674,0.8125
-43.5,2.0371264863121317,-2.4375
-44.0,2.073942025221387,-0.8125
-43.5,2.030990563160589,5.6875
-43.5,2.000310947402876,8.125
-44.0,2.012582793705961,4.875
-43.5,2.067806102069844,-0.8125
-44.0,1.9757672547967058,10.5625
-44.0,2.086213871524472,-2.4375
-44.0,2.0064468705544187,10.5625
-43.5,1.9573594853420782,10.5625
-44.0,2.061670178918302,-6.5
-43.5,1.9512235621905356,8.9375
-44.0,2.043262409463674,-7.3125
-43.5,2.1353012567368124,-10.5625
-43.5,1.9389517158874505,15.4375
-43.5,2.061670178918302,-0.8125
-44.0,2.0800779483729293,-5.6875
-44.0,2.012582793705961,11.375
-44.0,2.000310947402876,12.1875
-44.0,2.0800779483729293,-3.25
-43.5,2.024854640009046,3.25
-44.0,2.000310947402876,6.5
-44.0,2.018718716857504,4.875
-43.5,2.012582793705961,13.8125
-43.5,2.073942025221387,0.8125
-43.5,2.043262409463674,2.4375
-44.0,2.024854640009046,4.875
-44.0,2.086213871524472,0.0
-44.0,2.055534255766759,-6.5
-44.0,2.061670178918302,0.8125
-44.0,2.043262409463674,6.5
-44.0,2.055534255766759,1.625
-44.0,1.9634954084936207,13.8125
-44.0,1.9941750242513334,10.5625
-43.5,2.1598449493429825,-15.4375
-43.5,2.098485717827557,0.8125
-43.5,2.055534255766759,-0.8125
-43.5,2.1046216409791,-2.4375
-43.5,2.0064468705544187,4.875
-43.5,2.0800779483729293,0.8125
-43.5,2.055534255766759,3.25
-43.5,1.9389517158874505,8.9375
-44.0,2.0371264863121317,1.625
-43.5,2.0064468705544187,5.6875
-43.5,2.030990563160589,6.5
-44.0,2.030990563160589,2.4375
-44.0,2.0493983326152168,5.6875
-43.5,2.030990563160589,10.5625
-44.0,2.098485717827557,-2.4375
-44.0,2.0371264863121317,8.9375
-44.0,2.0493983326152168,-2.4375
-43.5,2.000310947402876,8.9375
-43.5,2.000310947402876,8.9375
-43.5,1.9696313316451632,17.875
-44.0,1.9819031779482483,12.1875
-44.0,1.9819031779482483,15.4375
-44.0,2.024854640009046,2.4375
-43.5,2.0923497946760143,-4.875
-44.0,1.945087639038993,16.25
-44.0,1.9941750242513334,6.5
-43.5,2.0493983326152168,5.6875
-44.0,2.030990563160589,7.3125
-43.5,2.067806102069844,2.4375
-44.0,2.073942025221387,-1.625
-43.5,2.0923497946760143,-0.8125
-44.0,2.067806102069844,3.25
-43.5,2.018718716857504,11.375
-44.0,2.030990563160589,6.5
-44.0,2.012582793705961,10.5625
-44.0,2.0493983326152168,5.6875
-43.5,2.0923497946760143,-2.4375
-44.0,2.012582793705961,12.1875
-44.0,2.0493983326152168,5.6875
-44.0,2.067806102069844,3.25
-44.5,2.043262409463674,12.1875
-44.0,2.043262409463674,8.125
-44.0,2.1353012567368124,-7.3125
-44.5,2.172116795646068,-2.4375
-44.5,2.12916533358527,3.25
-44.5,2.141437179888355,7.3125
-44.5,2.061670178918302,8.125
-44.5,2.086213871524472,11.375
-44.5,2.098485717827557,9.75
-45.0,2.1353012567368124,8.125
-44.5,2.110757564130642,8.125
-44.5,2.086213871524472,13.8125
-44.5,2.2027964114037806,-4.875
-45.0,2.1230294104337273,15.4375
-45.5,2.1966604882522383,4.875
-45.0,2.141437179888355,11.375
-45.0,2.1598449493429825,9.75
-45.0,2.227340104009951,-4.875
-45.0,2.3623304133438876,-17.875
-45.5,2.2334760271614935,1.625
-45.5,2.2641556429192065,-6.5
-45.5,2.1782527187976104,12.1875
-45.5,2.3746022596469727,-14.625
-45.5,2.282563412373834,0.8125
-46.0,2.1966604882522383,10.5625
-45.5,2.350058567040802,-5.6875
-46.0,2.2212041808584084,9.75
-46.0,2.2948352586769194,2.4375
-46.0,2.282563412373834,0.8125
-46.0,2.3930100291016,-8.9375
-46.5,2.270291566070749,-5.6875
-46.5,2.2089323345553233,9.75
-46.5,2.313243028131547,-4.875
-47.0,2.399145952253143,-17.875
-46.5,2.380738182798515,-8.125
-46.5,2.3071071049800045,3.25
-46.5,2.2886993355253766,-1.625
-47.0,2.3316507975861747,-2.4375
-47.0,2.3930100291016,-18.6875
-46.5,2.2457478734645786,13.8125
-47.0,2.2948352586769194,1.625
-47.0,2.2334760271614935,15.4375
-47.5,2.3071071049800045,8.125
-47.5,2.435961491162398,-14.625
-47.5,2.386874105950058,-0.8125
-47.0,2.3746022596469727,-8.125
-47.5,2.2764274892222915,4.875
-47.0,2.2948352586769194,14.625
-47.5,2.386874105950058,-3.25
-47.5,2.325514874434632,7.3125
-47.5,2.325514874434632,8.9375
-48.0,2.3439226438892597,5.6875
-48.0,2.411417798556228,-5.6875
-48.5,2.3623304133438876,-3.25
-48.0,2.4911847995262812,-4.875
-48.5,2.411417798556228,3.25
-48.5,2.386874105950058,3.25
-48.5,2.4727770300716534,-6.5
-48.5,2.411417798556228,1.625
-48.5,2.454369260617026,-8.125
-48.5,2.411417798556228,7.3125
-48.0,2.448233337465483,-3.25
-48.0,2.399145952253143,13.8125
-48.0,2.4175537217077703,6.5
-48.0,2.5770877236478773,-5.6875
-48.5,2.521864415283994,0.0
-48.0,2.429825568010856,8.125
-48.5,2.521864415283994,0.0
-48.5,2.5709518004963345,-4.875
-48.0,2.4175537217077703,16.25
-47.5,2.60776733940559,-5.6875
-48.0,2.5954954931025047,-4.875
-48.0,2.552544031041707,3.25
-48.0,2.4911847995262812,17.0625
-47.5,2.478912953223196,3.25
-47.5,2.4850488763747385,7.3125
-48.5,2.6813984172241008,-19.5
-48.0,2.435961491162398,22.75
-48.0,2.5709518004963345,4.875
-48.0,2.509592568980909,10.5625
-48.0,2.662990647769473,-16.25
-48.0,2.6261751088602177,-10.5625
-48.0,2.6323110320117604,-3.25
-48.0,2.6139032625571326,3.25
-48.0,2.6384469551633027,2.4375
-48.0,2.5954954931025047,14.625
-47.5,2.6384469551633027,9.75
-48.0,2.6261751088602177,10.5625
-47.5,2.6200391857086753,15.4375
-48.0,2.650718801466388,8.125
-47.5,2.7120780329818137,3.25
-47.5,2.6813984172241008,9.75
-48.0,2.6998061866787286,5.6875
-47.5,2.9022916506796332,-17.875
-48.0,2.773437264497239,0.8125
-48.0,2.736621725587984,9.75
-47.5,2.724349879284899,-1.625
-48.0,2.791845033951867,4.875
-47.5,2.834796496012665,-5.6875
-47.5,2.748893571891069,11.375
-48.5,2.859340188618835,-4.875
-48.5,2.742757648739526,9.75
-49.0,2.859340188618835,-4.875
-48.5,2.773437264497239,-3.25
-48.0,2.767301341345697,3.25
-48.5,2.8654761117703775,-5.6875
-49.0,2.748893571891069,5.6875
-49.5,2.791845033951867,1.625
-49.5,2.705942109830271,15.4375
-49.5,2.8654761117703775,-6.5
-49.5,2.7857091108003242,4.875
-49.0,2.773437264497239,-0.8125
-50.0,2.791845033951867,-14.625
-50.0,2.6875343403756435,9.75
-50.0,2.890019804376548,-17.875
-50.0,2.761165418194154,-3.25
-51.0,2.662990647769473,2.4375
-50.5,2.7979809571034093,-12.1875
-51.0,2.8286605728611223,-22.75
-51.0,2.730485802436441,1.625
-50.5,2.6998061866787286,9.75
-51.0,2.718213956133356,4.875
-51.0,2.564815877344792,18.6875
-51.5,2.650718801466388,7.3125
-51.5,2.82252464970958,-23.5625
-51.0,2.718213956133356,1.625
-52.0,2.5464081078901644,17.0625
-52.0,2.662990647769473,6.5
-52.0,2.718213956133356,2.4375
-52.5,2.773437264497239,-5.6875
-53.0,2.6445828783148455,-8.125
-52.0,2.675262494072558,3.25
-52.5,2.6445828783148455,8.125
-52.5,2.8286605728611223,-19.5
-52.5,2.60776733940559,-4.875
-52.5,2.6384469551633027,-10.5625
-52.5,2.82252464970958,-34.125
-52.5,2.5157284921324514,5.6875
-53.0,2.552544031041707,-5.6875
-53.5,2.350058567040802,10.5625
-53.5,2.564815877344792,-11.375
-53.5,2.478912953223196,3.25
-54.0,2.564815877344792,-18.6875
-53.5,2.478912953223196,-9.75
-53.5,2.5832236467994196,-26.8125
-54.5,2.2089323345553233,3.25
-54.5,2.2948352586769194,-5.6875
-54.5,2.564815877344792,-36.5625
-54.5,2.356194490192345,-1.625
-55.5,2.3193789512830896,-14.625
-55.5,2.4911847995262812,-24.375
-54.0,2.36846633649543,-25.1875
-55.0,2.4175537217077703,-19.5
-55.0,2.5157284921324514,-24.375
-55.0,2.423689644859313,-17.875
-55.5,2.411417798556228,-9.75
-55.0,2.1782527187976104,10.5625
-54.0,2.5034566458293663,-14.625
-54.5,2.5770877236478773,-49.625
-54.5,2.411417798556228,-0.8125
-54.0,2.466641106920111,-13.8125
-55.0,2.5341362615870793,-27.625
-55.0,2.429825568010856,-13.8125
-55.5,2.6016314162540475,-18.6875
-55.0,2.442097414313941,-11.375
-54.5,2.411417798556228,-2.4375
-54.0,2.5280003384355365,-4.875
-53.5,2.405281875404685,6.5
-54.5,2.5586799541932495,-17.0625
-53.5,2.4605051837685683,-6.5
-54.0,2.6384469551633027,-29.25
-53.5,2.337786720737717,3.25
-54.0,2.4605051837685683,3.25
-54.5,2.4175537217077703,-3.25
-53.5,2.5157284921324514,-7.3125
-53.0,2.478912953223196,0.8125
-53.5,2.60776733940559,-30.875
-54.0,2.650718801466388,-28.4375
-53.5,2.5280003384355365,0.8125
-54.0,2.5954954931025047,1.625
-54.0,2.6445828783148455,-24.375
-53.0,2.6998061866787286,-15.4375
-53.5,2.5586799541932495,-2.4375
-53.0,2.724349879284899,-12.1875
-53.5,2.748893571891069,-11.375
-53.5,2.509592568980909,28.4375
-53.5,2.7120780329818137,-20.3125
-53.5,2.7857091108003242,-11.375
-54.0,2.6691265709210157,7.3125
-53.5,2.552544031041707,30.875
-54.0,2.8838838812250054,-4.875
-53.5,2.767301341345697,20.3125
-53.5,2.8961557275280905,-3.25
-54.0,3.0495538063166547,-14.625
-54.0,3.0250101137104846,-22.75
-54.5,3.0066023442558567,0.0
-54.5,3.0066023442558567,-24.375
-54.0,2.8654761117703775,10.5625
-54.5,3.0250101137104846,-19.5
-54.0,3.08636934522591,-17.0625
-54.0,3.0127382674073995,2.4375
-54.0,3.031146036862027,-2.4375
-54.0,3.0127382674073995,0.0
-54.5,3.0925052683774528,-9.75
-55.0,3.098641191528995,0.0
-55.0,2.9575149590435164,16.25
-53.5,3.2090878082567613,13.8125
-55.0,3.2029518851052186,10.5625
-53.5,3.2643111166206444,-1.625
-53.0,3.3318062712876126,-1.625
-53.0,3.2581751934691017,15.4375
-53.5,3.454524734318464,-17.0625
-53.5,3.4177091954092087,-11.375
-53.0,3.3624858870453256,2.4375
-53.0,3.3747577333484107,0.8125
-53.5,3.3624858870453256,-0.8125
-54.0,3.3747577333484107,-6.5
-53.5,3.368621810196868,-8.9375
-53.5,3.436116964863836,-8.9375
-54.0,3.227495577711389,24.375
-54.0,3.2643111166206444,23.5625
-53.0,3.2827188860752723,16.25
-54.0,3.380893656499953,6.5
-53.0,3.3440781175906977,7.3125
-55.0,3.399301425954581,8.9375
-54.0,3.393165502803038,8.9375
-53.5,3.3624858870453256,14.625
-53.5,3.4054373491061236,5.6875
-53.0,3.3195344249845276,17.875
-52.5,3.3195344249845276,19.5
-54.0,3.429981041712294,5.6875
-52.5,3.429981041712294,7.3125
-52.5,3.454524734318464,0.0
-53.0,3.423845118560751,0.8125
-52.5,3.442252888015379,3.25
-52.0,3.442252888015379,7.3125
-52.0,3.3870295796514958,11.375
-52.5,3.479068426924634,2.4375
-53.0,3.448388811166921,10.5625
-52.5,3.5036121195308043,0.8125
-52.0,3.4606606574700063,7.3125
-52.5,3.466796580621549,7.3125
-52.5,3.466796580621549,7.3125
-52.0,3.479068426924634,1.625
-53.5,3.4177091954092087,13.8125
-53.0,3.479068426924634,0.8125
-53.5,3.509748042682347,1.625
-53.0,3.497476196379262,-3.25
-52.5,3.466796580621549,1.625
-53.0,3.5158839658338894,-7.3125
-52.0,3.448388811166921,-1.625
-53.0,3.479068426924634,3.25
-52.5,3.436116964863836,8.125
-52.0,3.4606606574700063,2.4375
-52.5,3.423845118560751,10.5625
-52.5,3.4913402732277192,0.8125
-53.5,3.5158839658338894,0.0
-52.5,3.399301425954581,11.375
-52.5,3.448388811166921,12.1875
-52.0,3.442252888015379,5.6875
-53.5,3.472932503773092,10.5625
-52.0,3.479068426924634,0.8125
-53.0,3.454524734318464,12.1875
-53.5,3.509748042682347,1.625
-52.5,3.56497135104623,-11.375
-53.0,3.448388811166921,12.1875
-53.5,3.436116964863836,11.375
-53.0,3.454524734318464,14.625
-53.0,3.479068426924634,7.3125
-53.5,3.5833791205008576,-4.875
-55.0,3.5036121195308043,14.625
-54.5,3.5036121195308043,19.5
-54.5,3.6140587362585705,8.9375
-54.5,3.663146121470911,0.8125
-55.0,3.663146121470911,2.4375
-53.0,3.693825737228624,8.9375
-55.5,3.847223816017188,-3.25
-55.0,3.859495662320273,8.9375
-55.5,3.988350048502667,3.25
-59.0,2.5280003384355365,-34.125
-60.5,2.411417798556228,-37.375
-59.0,2.2764274892222915,12.1875
-58.0,2.6691265709210157,-20.3125
-58.0,2.6139032625571326,-13.8125
-56.0,2.650718801466388,-1.625
-57.5,2.60776733940559,7.3125
-56.5,2.718213956133356,-22.75
-57.0,2.730485802436441,-17.0625
-56.5,2.7979809571034093,-15.4375
-56.5,2.6691265709210157,-7.3125
-57.5,2.791845033951867,-17.0625
-57.0,2.724349879284899,8.9375
-56.0,2.9329712664373457,-31.6875
-56.5,2.8286605728611223,0.8125
-56.0,2.8838838812250054,-5.6875
-56.5,2.890019804376548,-17.875
-55.0,2.9084275738311756,-23.5625
-55.5,2.9820586516496865,-33.3125
-56.0,2.7979809571034093,-3.25
-55.5,2.9145634969827183,-20.3125
-56.0,2.804116880254952,-6.5
-56.0,2.6445828783148455,17.875
-57.0,2.6813984172241008,-5.6875
-57.5,2.6875343403756435,6.5
-57.0,2.6691265709210157,-12.1875
-57.0,2.5954954931025047,-1.625
-57.0,2.6384469551633027,7.3125
-57.0,2.5402721847386216,-3.25
-57.0,2.5954954931025047,17.0625
-57.0,2.705942109830271,-14.625
-56.0,2.564815877344792,2.4375
-56.5,2.4911847995262812,16.25
-57.0,2.6998061866787286,0.0
-56.0,2.736621725587984,0.0
-56.0,2.8102528034064944,-26.0
-56.5,2.718213956133356,-9.75
-55.0,2.497320722677824,25.1875
-56.0,2.8286605728611223,-20.3125
-55.5,2.6200391857086753,9.75
-57.0,2.705942109830271,-8.9375
-56.0,2.724349879284899,17.875
-57.0,2.5280003384355365,-1.625
-56.5,2.8102528034064944,-10.5625
-57.5,2.761165418194154,0.8125
-57.0,2.724349879284899,-26.0
-55.5,2.4727770300716534,44.75
-56.5,2.6568547246179306,-0.8125
-57.0,2.84706834231575,-34.9375
-56.5,2.6323110320117604,12.1875
-56.0,2.423689644859313,31.6875
-56.5,2.5832236467994196,17.0625
-56.0,2.693670263527186,-3.25
-56.5,2.662990647769473,-8.9375
-56.5,2.8716120349219203,-25.1875
-55.5,2.5341362615870793,20.3125
-55.5,2.834796496012665,-11.375
-55.0,2.564815877344792,16.25
-56.0,2.6568547246179306,16.25
-56.0,2.675262494072558,0.8125
-56.0,2.8532042654672924,-25.1875
-55.5,2.466641106920111,30.875
-55.5,2.718213956133356,5.6875
-56.0,2.5341362615870793,26.0
-55.0,2.779573187648782,-4.875
-55.0,2.724349879284899,-1.625
-54.5,2.5586799541932495,13.8125
-55.0,2.8532042654672924,-19.5
-53.5,2.60776733940559,19.5
-54.0,2.84706834231575,-10.5625
-54.0,2.9022916506796332,-18.6875
-53.5,2.804116880254952,-3.25
-53.0,2.7120780329818137,12.1875
-52.0,2.773437264497239,-7.3125
-51.5,2.736621725587984,6.5
-50.5,2.730485802436441,-8.125
