-44.5,0.0,2.4375
-44.0,-2.4727770300716534,14.625
-41.0,-0.8958447801252145,0.0
-60.0,-0.2024854640009046,70.75
-59.0,2.8838838812250054,-17.0625
-57.5,1.4112623248547895,31.6875
-63.5,-3.8042723539563896,26.8125
-32.5,4.301282129231338,7.3125
-59.5,-1.5646604036433542,12.1875
-56.5,-3.80427235395639,-4.875
-60.0,5.381204603902829,56.125
-54.5,0.0981747704246807,14.625
-49.0,-3.0740974989228245,19.5
-39.5,3.2029518851052186,14.625
-56.0,-1.5707963267948966,-9.75
-53.5,-2.7918450339518666,17.0625
-56.0,2.4114177985562275,-14.625
-63.0,-2.1046216409790994,102.5
-60.5,1.5892040962495244,26.8125
-59.0,2.196660488252238,43.9375
-60.0,-3.4913402732277192,34.125
-63.0,0.03681553890925571,139.125
-58.5,1.4296700943094174,7.3125
-53.5,-2.7857091108003242,19.5
-62.5,5.111223985234957,109.8125
-61.0,-2.9022916506796332,19.5
-54.5,0.0,19.5
-43.5,-5.62050560681299,9.75
-44.0,-0.18407769454627693,9.75
-40.5,4.491495746929157,0.0
-60.5,-3.6386024288647407,-53.6875
-53.5,-0.9878836273983528,-17.0625
-59.0,5.589825991055276,65.875
-59.5,-3.423845118560751,24.375
-48.5,-0.43565054375952217,4.875
-47.5,0.5031456984264904,-12.1875
-59.0,-1.0921943209745766,-42.6875
-35.0,3.1477285767413354,4.875
-55.5,1.0431069357622356,17.0625
-56.0,-1.135145783035374,-2.4375
-60.0,0.6626797003665965,83.0
-54.5,-2.4420974143139405,7.3125
-63.5,2.196660488252238,-14.625
-57.5,1.1535535524900027,24.375
-57.5,-1.0431069357622365,2.4375
-60.0,0.7731263170943636,46.375
-64.0,-4.786020058203201,78.125
-63.0,4.62035013311155,85.4375
-51.5,0.0,-14.625
-35.0,-0.3497476196379261,-7.3125
-53.5,3.7490490455925065,19.5
-41.0,-5.45483568172134,9.75
-62.5,5.3198453723874035,21.9375
-41.5,0.25157284921324585,4.875
-48.5,-1.8407769454627698,21.9375
-60.5,-2.8900198043765477,-30.5
-64.0,3.2090878082567613,153.75
-56.0,-1.3437671701878218,-7.3125
-55.0,3.270447039772187,29.25
-42.0,-0.674951546669682,17.0625
-30.0,-3.51588396583389,9.75
-45.5,2.362330413343887,-9.75
-54.5,1.7671458676442588,12.1875
-63.0,-5.994796919057086,-19.5
-58.0,2.4298255680108554,2.4375
-55.0,-0.23930100291015988,39.0625
-38.0,1.1719613219446297,0.0
-63.5,2.644582878314846,70.75
-61.5,-1.8714565612204828,-14.625
-33.5,-1.9941750242513336,14.625
-54.5,-1.546252634188726,9.75
-60.0,1.5830681730979816,21.9375
-48.0,1.41126232485479,-24.375
-62.5,1.0246991663076077,63.4375
-59.0,-0.10431069357622302,-2.4375
-49.0,-4.295146206079796,4.875
-59.0,2.2886993355253766,48.8125
-51.0,2.196660488252238,-19.5
-58.5,-0.6994952392758522,12.1875
-61.5,-2.5954954931025047,24.375
-60.5,1.7978254834019713,-9.75
-51.5,2.2518837966161214,9.75
-59.0,-3.3870295796514958,-12.1875
-59.0,4.086524818927348,26.8125
-58.5,-6.105243535784852,39.0625
-54.5,5.086680292628786,12.1875
-59.5,-0.6258641614573417,80.5625
-59.5,-2.7857091108003242,97.625
-59.5,4.147884050442773,41.5
-61.0,-3.963806355896496,-2.4375
-56.5,-0.662679700366597,-4.875
-51.0,3.663146121470912,-4.875
-62.5,-4.123340357836604,115.9375
-60.0,4.816699673960913,41.5
-64.5,-5.031456984264903,58.5625
-52.0,1.3989904785517047,43.9375
-62.0,-0.31906800388021317,21.9375
-53.0,4.031301510563464,-21.9375
-59.0,-0.47246608266877743,85.4375
-54.0,-3.08636934522591,14.625
-59.5,-2.116893487282185,73.1875
-45.0,1.5401167110371838,0.0
-51.5,0.5951845456996285,31.6875
-47.5,4.0558452031696355,4.875
-60.0,-3.552699504743145,36.5625
-35.5,-1.1474176293384595,4.875
-61.0,2.067806102069844,9.75
-51.5,-1.0737865515199485,7.3125
-57.5,0.7240389318820224,24.375
-39.0,-2.0493983326152163,-17.0625
-55.0,2.251883796616121,-2.4375
-56.0,-2.086213871524472,-2.4375
-58.5,4.663301595172349,-29.25
-61.0,-3.2397674240144743,83.0
-51.5,1.5217089415825558,26.8125
-49.0,0.8590292412159597,-2.4375
-56.5,-0.5951845456996292,54.875
-52.5,1.3314953238847362,-12.1875
-52.5,-3.5956509668039423,12.1875
-64.5,-0.15339807878856426,58.5625
-63.0,-0.1349903093339364,61.0
-57.5,3.3502140407422405,4.875
-35.5,0.0,0.0
-51.5,-2.6323110320117604,-2.4375
-58.0,-1.214912784005428,17.0625
-57.0,5.117359908386499,29.25
-52.0,-0.8160777791551608,19.5
-58.0,0.24543692606170264,19.5
-34.5,-1.6566992509164926,2.4375
-49.5,0.6258641614573417,-2.4375
-48.0,-3.2949907323783574,2.4375
-52.0,5.442563835418255,9.75
-55.5,-6.0991076126333095,14.625
-52.5,-0.04908738521234052,29.25
-43.0,3.595650966803943,4.875
-53.5,1.1106020904292038,4.875
-62.0,1.2701360923693112,31.6875
-51.5,-5.013049214810275,0.0
-56.5,-0.30066023442558565,21.9375
-53.0,3.497476196379262,-9.75
-62.0,-4.006757817957295,-7.3125
-50.5,3.215223731408304,19.5
-57.0,-0.8160777791551612,-46.375
-56.0,2.773437264497239,36.5625
-59.0,-1.1290098598838316,58.5625
-56.5,1.1842331682477143,28.0625
-54.5,-0.5645049299419158,7.3125
-57.0,-2.251883796616121,-4.875
-41.5,2.3930100291016005,4.875
-42.0,-2.932971266437346,9.75
-62.0,1.7794177139473435,87.875
-64.0,1.0860583978230345,14.625
-48.0,-1.3683108627939924,2.4375
-52.0,0.49087385212340484,-19.5
-52.0,-2.3561944901923444,7.3125
-61.5,0.705631162427395,39.0625
-62.5,-2.3009711818284617,24.375
-61.0,3.6386024288647407,-19.5
-50.5,1.4971652489763856,-9.75
-59.0,-3.957670432744954,21.9375
-59.5,3.196815961953676,43.9375
-60.5,-2.1598449493429825,48.8125
-62.5,2.8286605728611223,21.9375
-62.5,-4.0558452031696355,87.875
-64.5,4.963961829597935,56.125
-42.5,-5.221670601962723,7.3125
-55.5,2.2764274892222915,9.75
-35.5,1.466485633218673,2.4375
-45.0,-2.8163887265580376,7.3125
-58.5,0.3190680038802134,-4.875
-44.5,-1.4480778637640452,12.1875
-47.0,-0.4540583132141498,0.0
-56.0,0.3313398501832985,2.4375
-53.0,1.6566992509164922,-2.4375
-60.5,-0.294524311274043,19.5
-53.0,1.7855536370988863,19.5
-58.0,-2.3009711818284613,9.75
-57.0,0.4970097752749476,26.8125
-53.0,0.3313398501832985,19.5
-40.0,3.184544115650591,17.0625
-51.0,-3.6447383520162835,21.9375
-58.0,3.693825737228624,41.5
-52.5,-1.1965050145507998,14.625
-57.0,-1.2333205534600555,21.9375
-57.5,-1.932815792735908,31.6875
-55.0,1.214912784005428,9.75
-47.0,1.6935147898257479,-4.875
-54.5,1.3744467859455347,-17.0625
-57.0,-2.0493983326152168,0.0
-61.5,-1.6444274046134075,48.8125
-50.5,0.0,17.0625
-41.0,0.2270291566070748,9.75
-55.5,2.1782527187976104,34.125
-59.5,1.5769322499464393,45.125
-58.5,-1.8960002538266525,4.875
-48.5,2.030990563160589,14.625
-56.0,-0.6810874698212244,-7.3125
-29.5,-2.4236896448593135,7.3125
-57.0,-1.6812429435226626,34.125
-57.0,3.0986411915289955,36.5625
-60.5,1.9266798695843654,17.0625
-59.0,-0.9142525495798424,41.5
-49.0,0.31293208072867085,-17.0625
-58.0,-0.8160777791551612,102.5
-38.0,-2.9145634969827183,2.4375
-60.0,1.5155730184310134,-2.4375
-52.5,0.006135923151542766,-9.75
-56.5,-0.20862138715244738,2.4375
-62.0,0.6504078540635119,-14.625
-58.5,2.718213956133356,12.1875
-61.0,-1.6076118657041514,48.8125
-58.5,-3.841087892865646,-19.5
-44.5,3.1906800388021335,17.0625
-48.5,-2.147573103039898,-9.75
-54.0,2.890019804376548,17.0625
-58.0,-0.5092816215780331,36.5625
-62.5,0.4908738521234053,-87.875
-54.5,0.018407769454627854,26.8125
-62.0,-0.42951462060797985,65.875
-65.0,-0.411106851153352,80.5625
-63.5,0.1840776945462772,65.875
-60.5,-1.748738098189631,14.625
-54.0,3.08636934522591,-17.0625
-59.0,0.07363107781851053,24.375
-59.0,-2.325514874434632,-17.0625
-59.0,3.190680038802134,31.6875
-56.5,-3.9699422790480394,21.9375
-64.0,2.4359614911623977,34.125
-61.5,1.5033011721279284,29.25
-56.5,-2.331650797586174,9.75
-58.5,0.8897088569736717,48.8125
-49.5,-0.3620194659410112,29.25
-44.0,-3.792000507653305,0.0
-41.0,5.3198453723874035,2.4375
-58.5,-4.154019973594316,-41.5
-58.5,1.662835174068035,19.5
-36.5,-1.718058482431918,14.625
-64.5,2.3930100291016,36.5625
-63.5,-3.3870295796514953,19.5
-56.5,2.7795731876487815,41.5
-62.0,0.674951546669682,112.25
-51.5,-1.3008157081270233,-14.625
-58.0,1.4051264017032472,-9.75
-62.5,-1.8653206380689398,65.875
-56.0,2.8593401886188348,19.5
-59.0,-0.9633399347921823,-12.1875
-38.0,-0.6749515466696825,9.75
-35.5,-1.1044661672776614,7.3125
-61.5,1.8960002538266525,-41.5
-38.5,0.49700977527494805,9.75
-42.5,0.41724277430489387,7.3125
-49.0,-3.2765829629237295,2.4375
-60.0,4.565126824747669,17.0625
-47.5,-5.154175447295755,7.3125
-29.5,0.6565437772150545,9.75
-58.5,-1.1535535524900022,39.0625
-61.5,3.282718886075272,139.125
-46.5,0.6013204688511715,-12.1875
-59.0,-4.289010282928253,29.25
-51.5,3.4913402732277197,9.75
-52.0,-2.748893571891069,0.0
-48.0,4.927146290688679,4.875
-42.0,-4.951689983294849,7.3125
-48.0,1.6382914814618645,-4.875
-47.5,0.23930100291016032,9.75
-66.0,0.47860200582031975,113.5
-50.5,-0.3681553890925535,12.1875
-58.5,0.2270291566070748,21.9375
-59.0,-1.1780972450961724,48.8125
-52.0,1.1596894756415446,-2.4375
-63.0,2.5095925689809087,-19.5
-56.0,-3.626330582561655,24.375
-43.5,0.0,-4.875
-64.5,-1.3130875544301084,24.375
-51.5,-3.215223731408304,4.875
-40.5,1.3008157081270237,17.0625
-43.0,0.9142525495798419,12.1875
-46.0,0.9019807032767573,-4.875
-61.0,2.282563412373834,14.625
-53.5,-0.31293208072867085,9.75
-60.0,-0.7179030087304801,-17.0625
-52.0,-2.9513790358919736,39.0625
-61.5,3.9453985864418697,73.1875
-47.0,-4.381049130201392,9.75
-55.0,1.478757479521758,17.0625
-53.0,-1.4419419406125025,34.125
-58.0,0.19021361769781953,61.0
-32.5,4.350369514443678,12.1875
-61.0,-4.620350133111551,43.9375
-49.0,4.44854428486836,0.0
-38.5,-5.289165756629691,-2.4375
-57.5,2.804116880254952,17.0625
-58.0,-2.0248546400090466,53.6875
-53.5,4.387185053352933,-7.3125
-55.0,-3.5342917352885173,39.0625
-55.0,-0.1349903093339364,26.8125
-43.0,1.8162332528565996,-7.3125
-52.5,-2.8347964960126655,4.875
-52.5,3.8288160465625607,-31.6875
-50.5,-0.7915340865489906,-26.8125
-55.0,-2.6077673394055907,43.9375
-57.0,3.0863693452259104,19.5
-50.5,-0.0981747704246807,-19.5
-61.0,0.1656699250916489,65.875
-60.5,-2.975922728498144,112.25
-62.0,-0.6074563920027138,12.1875
-64.0,2.650718801466388,-41.5
-35.5,2.2334760271614935,14.625
-35.5,-0.5522330836388312,4.875
-61.0,-3.632466505713198,70.75
-54.5,-1.761009944492716,12.1875
-60.5,5.66959299202533,31.6875
-53.0,-0.233165079758618,-21.9375
-58.0,-4.878058905476339,46.375
-54.5,2.6875343403756435,-9.75
-47.0,2.0064468705544187,9.75
-63.0,-4.074252972624263,124.5
-51.5,4.81056375080937,12.1875
-56.5,-1.5155730184310139,0.0
-55.5,-1.546252634188726,2.4375
-55.5,2.4052818754046856,0.0
-57.5,-3.190680038802134,48.8125
-51.5,0.15953400194010658,-2.4375
-52.5,1.7548740213411738,-2.4375
-56.5,-3.6754179677739964,-9.75
-53.5,3.7367771992894214,-4.875
-58.5,1.6382914814618648,-21.9375
-50.5,-3.1845441156505907,12.1875
-62.5,3.147728576741336,63.4375
-50.0,-0.7240389318820224,4.875
-56.5,-3.681553890925539,65.875
-50.0,1.0062913968529807,17.0625
-62.0,-1.6137477888556946,-41.5
-56.5,2.8286605728611223,12.1875
-56.0,2.2150682577068657,14.625
-61.5,-5.3198453723874035,68.3125
-62.5,5.148039524144211,68.3125
-57.5,-0.4601942363656919,2.4375
-58.0,0.5276893910326601,4.875
-62.5,-1.7610099444927156,-32.9375
-62.5,-1.1412817061869172,2.4375
-63.5,0.2699806186678728,9.75
-60.5,-0.558369006790373,21.9375
-58.0,-0.28838838812250067,31.6875
-61.0,1.5769322499464389,14.625
-63.0,-1.6076118657041518,-12.1875
-56.5,0.3313398501832987,17.0625
-42.0,1.1842331682477147,9.75
-56.5,1.613747788855695,2.4375
-62.5,-2.472777030071654,4.875
-41.5,-2.8961557275280905,7.3125
-57.0,6.154330920997193,7.3125
-53.5,-2.307107104980005,-14.625
-57.5,2.4052818754046856,34.125
-55.0,-3.436116964863836,-7.3125
-58.0,-1.7303303287350034,73.1875
-64.0,1.3805827090970768,-7.3125
-59.5,1.2701360923693112,41.5
-62.5,-2.466641106920111,43.9375
-54.0,-0.12885438618239387,39.0625
-54.5,-0.11044661672776623,0.0
-37.5,0.0,4.875
-55.5,0.7179030087304801,9.75
-49.5,-1.325359400733194,-14.625
-50.5,0.5338253141842031,4.875
-58.0,1.975767254796706,75.625
-59.0,1.2026409377023426,-17.0625
-53.0,-1.8407769454627694,7.3125
-56.0,-1.4051264017032474,-2.4375
-41.0,3.9699422790480394,4.875
-59.5,-0.4601942363656919,-7.3125
-40.0,-4.95168998329485,9.75
-61.5,2.435961491162398,34.125
-63.5,-0.2147573103039897,63.4375
-47.0,-2.067806102069844,7.3125
-63.5,1.6198837120072371,68.3125
-61.0,1.9634954084936203,-2.4375
-50.5,2.067806102069845,-12.1875
-58.5,-5.313709449235861,12.1875
-59.0,-0.7853981633974483,-90.3125
-58.5,5.681864838328415,21.9375
-64.5,-0.9510680884890972,12.1875
-61.5,-3.712233506683252,34.125
-57.0,-0.662679700366597,9.75
-61.5,1.0246991663076082,9.75
-63.0,-0.674951546669682,41.5
-66.0,-0.24543692606170253,-4.875
-55.5,4.577398671050753,31.6875
-63.0,-1.4787574795217577,61.0
-62.0,-2.8716120349219203,34.125
-62.5,-0.619728238305799,4.875
-36.0,2.4911847995262812,12.1875
-48.0,-1.4910293258248433,-2.4375
-50.0,1.2455923997631406,9.75
-37.5,1.619883712007237,-2.4375
-32.5,-3.693825737228624,7.3125
-51.5,5.448699758569797,7.3125
-42.5,-0.47246608266877743,0.0
-62.0,0.6197282383057994,-7.3125
-59.5,0.11658253987930856,19.5
-50.5,-0.7485826244881926,-12.1875
-57.0,-0.34974761963792655,-7.3125
-63.0,-2.5402721847386216,90.3125
-53.0,2.7304858024364416,24.375
-51.5,-4.5405831321414984,-2.4375
-48.0,0.0674951546669682,12.1875
-61.0,4.2092432819582,-19.5
-53.5,0.6994952392758522,14.625
-49.5,0.09203884727313838,9.75
-45.0,-3.749049045592507,9.75
-54.5,3.6386024288647407,4.875
-29.5,-3.4422528880153784,12.1875
-52.0,0.5829126993965437,12.1875
-56.5,0.15339807878856382,-4.875
-57.0,1.5585244804918115,9.75
-56.0,1.030835089459151,-14.625
-58.5,-4.215379205109742,14.625
-60.0,4.773748211900116,12.1875
-51.5,-1.325359400733194,2.4375
-60.5,-3.0066023442558567,19.5
-55.0,4.313553975534423,-12.1875
-54.0,-3.000466421104314,41.5
-55.5,1.5830681730979816,7.3125
-65.0,-1.2087768608538854,19.5
-57.5,-2.1843886419491527,41.5
-57.0,3.3133985018329843,-24.375
-50.5,-1.0369710126106932,14.625
-47.0,2.006446870554419,-14.625
-50.0,-1.3744467859455352,7.3125
-61.5,-1.3314953238847362,43.9375
-52.5,1.9450876390389933,-14.625
-56.5,-0.9019807032767573,17.0625
-54.5,1.5707963267948961,7.3125
-50.5,-1.9634954084936203,9.75
-56.5,1.4848934026733005,41.5
-57.5,-0.3252039270317555,21.9375
-60.5,0.6258641614573417,-7.3125
-47.5,0.23930100291015943,9.75
-60.0,-1.4603497100671303,34.125
-56.0,0.19021361769781997,2.4375
-57.0,-2.9820586516496865,14.625
-52.0,-0.7301748550335653,-20.75
-59.0,-0.11044661672776612,-12.1875
-56.0,1.4542137869155878,9.75
-35.5,0.0674951546669682,2.4375
-47.5,0.0,9.75
-61.0,2.8347964960126646,95.1875
-58.0,0.822213702306704,19.5
-59.0,-0.9142525495798424,39.0625
-35.5,-4.865787059173254,-4.875
-54.5,-0.32520392703175593,-2.4375
-53.5,2.2825634123738343,-17.0625
-53.5,1.4296700943094174,7.3125
-59.5,-0.47246608266877743,14.625
-55.5,-1.4664856332186729,17.0625
-54.0,-0.14112623248547895,26.8125
-58.5,2.1659808724945253,-36.5625
-61.5,1.834641022311227,53.6875
-59.0,-3.982214125351125,51.25
-38.0,-1.705786636128833,9.75
-52.5,2.1782527187976104,31.6875
-56.5,0.25770877236478773,2.4375
-59.5,0.3067961575771281,34.125
-66.0,-2.3193789512830896,-19.5
-57.0,0.024543692606170286,21.9375
-64.5,3.8717675086233587,-2.4375
-49.0,1.8591847149173972,4.875
-61.5,-2.6936702635271863,-95.1875
-50.0,1.3744467859455347,2.4375
-51.0,-2.951379035891974,31.6875
-52.5,1.0799224746714915,14.625
-55.0,-0.3313398501832987,7.3125
-54.0,1.9634954084936207,-17.0625
-63.5,0.17794177139473444,114.6875
-59.5,-3.11091303783208,92.75
-52.5,1.086058397823034,-17.0625
-61.5,-1.0246991663076084,163.5625
-56.0,0.03681553890925526,46.375
-61.0,-1.043106935762236,75.625
-58.0,1.030835089459151,122.0625
-59.0,2.362330413343888,-9.75
-49.0,1.2149127840054277,9.75
-58.0,-1.0431069357622365,19.5
-60.0,-3.6140587362585705,68.3125
-56.5,-0.2883883881225005,26.8125
-57.0,3.0802334220743672,-28.0625
-58.0,-1.4051264017032472,14.625
-58.5,2.5648158773447918,7.3125
-56.5,-2.0493983326152163,37.8125
-50.5,2.65685472461793,26.8125
-57.5,-4.1601558967458585,131.8125
-64.0,-0.6442719309119693,31.6875
-58.5,3.9147189706841568,0.0
-59.0,-3.0004664211043144,9.75
-60.0,-0.7915340865489908,161.125
-65.0,4.209243281958199,83.0
-57.0,-0.15339807878856426,39.0625
-58.0,-3.3133985018329843,-2.4375
-62.0,3.1047771146805374,112.25
-50.5,-1.8591847149173968,39.0625
-57.0,1.589204096249524,36.5625
-56.0,-1.8100973297050564,14.625
-58.5,2.116893487282185,51.25
-60.5,0.294524311274043,53.6875
-60.0,-3.7429131224409646,26.8125
-36.5,-0.5092816215780328,12.1875
-60.0,4.405592822807562,58.5625
-55.0,-3.141592653589793,9.75
-56.5,4.368777283898305,9.75
-62.5,-0.018407769454626965,21.9375
-38.5,-1.9757672547967058,12.1875
-57.5,-0.6933593161243103,58.5625
-60.0,1.190369091399258,48.8125
-57.0,1.1106020904292038,0.0
-60.0,-3.577243197349315,65.875
-55.5,3.9944859716542096,-29.25
-61.5,-2.2518837966161214,85.4375
-56.5,1.2701360923693108,-4.875
-60.5,-0.2270291566070748,41.5
-59.0,-1.4051264017032472,109.8125
-41.5,1.6137477888556941,0.0
-55.5,-0.5154175447295755,4.875
-57.5,-1.3130875544301084,78.125
-59.5,-1.3805827090970775,0.0
-50.0,0.3558835427894689,-7.3125
-52.0,0.3190680038802136,12.1875
-58.0,1.2455923997631406,46.375
-62.0,1.515573018431013,34.125
-57.0,-0.4847379289718621,-26.8125
-58.0,-3.3256703481360703,21.9375
-55.5,4.289010282928253,-24.375
-59.0,-0.7853981633974483,2.4375
-62.0,-1.5523885573402691,87.875
-62.0,1.7487380981896306,-26.8125
-56.0,-0.2638446955163296,-24.375
-56.5,0.5154175447295755,0.0
-41.0,0.0,12.1875
-53.5,-0.9572040116406404,34.125
-59.0,0.14112623248547962,39.0625
-58.5,-1.9144080232812803,-9.75
-48.5,-3.0986411915289955,-4.875
-29.0,2.0371264863121317,4.875
-54.5,-1.3008157081270237,19.5
-46.5,5.325981295538946,-4.875
-55.5,-5.491651220630595,-7.3125
-52.5,1.9328157927359082,9.75
-35.0,-0.012271846303085532,0.0
-58.5,3.1047771146805383,12.1875
-50.0,-0.4356505437595226,0.0
-54.5,-3.5036121195308043,26.8125
-43.5,0.6074563920027138,-2.4375
-42.5,1.2026409377023426,7.3125
-37.0,0.17794177139473444,-46.375
-56.5,-3.2029518851052186,26.8125
-47.0,0.43565054375952206,4.875
-37.5,4.049709280018093,12.1875
-59.0,-4.479223900626073,87.875
-60.5,1.1842331682477152,39.0625
-58.0,-0.036815538909255485,-26.8125
-60.5,-1.761009944492716,68.3125
-55.0,1.423534171157875,7.3125
-60.5,-0.23316507975861755,46.375
-59.0,-1.1044661672776614,29.25
-61.5,1.0492428589137786,68.3125
-52.0,-0.20248546400090472,-17.0625
-53.5,4.816699673960914,-12.1875
-52.0,-4.411728745959104,9.75
-63.0,4.111068511533519,-41.5
-50.5,-3.331806271287613,29.25
-63.0,-0.7056311624273948,224.5625
-60.5,3.7122335066832512,-90.3125
-57.0,-4.718524903536232,0.0
-43.5,5.252350217720435,-9.75
-56.5,-3.5588354278946874,70.75
-55.5,1.4296700943094174,-7.3125
-45.5,-0.9510680884890976,12.1875
-57.0,0.1288543861823941,12.1875
-55.5,2.435961491162398,-9.75
-57.5,-4.95168998329485,-2.4375
-54.5,5.350524988145117,-21.9375
-59.5,-1.9266798695843654,56.125
-57.5,-3.1968159619536762,36.5625
-58.0,0.8897088569736717,9.75
-61.0,1.9389517158874505,126.9375
-59.0,-0.7853981633974483,31.6875
-60.5,2.8409324191642074,58.5625
-47.0,-1.030835089459151,-21.9375
-57.0,-0.2638446955163305,-36.5625
-34.5,-2.251883796616121,9.75
-53.0,0.3436116964863838,-4.875
-48.5,3.405437349106123,2.4375
-57.5,0.5583690067903735,-36.5625
-43.5,-4.25833066717054,-2.4375
-57.5,3.816544200259475,0.0
-47.0,-0.3252039270317555,4.875
-45.0,-4.638757902566179,2.4375
-55.5,3.5342917352885177,31.6875
-58.0,-1.14741762933846,51.25
-45.0,0.7669903939428204,-2.4375
-38.0,-2.4911847995262812,12.1875
-43.5,-1.0676506283684062,0.0
-56.0,3.5772431973493153,19.5
-45.5,1.1167380135807465,-7.3125
-53.5,-3.1661363461959633,30.5
-55.5,-1.055378782065321,-17.0625
-61.0,4.516039439535327,2.4375
-64.0,-4.282874359776709,80.5625
-56.5,0.9449321653375549,70.75
-54.5,-1.2578642460662257,36.5625
-63.5,3.153864499892878,36.5625
-55.5,-0.2024854640009046,39.0625
-64.5,0.9633399347921827,87.875
-46.0,-0.3006602344255853,-21.9375
-60.5,-1.896000253826653,56.125
-59.5,1.2026409377023426,14.625
-61.0,-3.037281960013569,30.5
-62.0,2.644582878314845,58.5625
-63.5,2.2273401040099507,61.0
-51.5,-5.295301679781233,-2.4375
-54.0,4.97623367590102,20.75
-53.0,0.294524311274043,4.875
-64.5,-0.6504078540635119,21.9375
-64.5,-4.264466590322082,92.75
-56.0,4.454680208019902,2.4375
-59.5,-1.4910293258248433,61.0
-64.0,2.601631416254047,-9.75
-54.5,-3.1170489609836225,-12.1875
-60.5,-0.08590292412159606,12.1875
-59.5,-2.5280003384355365,34.125
-35.5,0.0,7.3125
-48.5,1.8100973297050569,-7.3125
-53.0,-1.7855536370988867,-14.625
-59.5,0.6810874698212244,26.8125
-43.5,-1.9205439464328222,-2.4375
-54.5,-1.9082721001297378,-17.0625
-34.0,3.9515345095934116,9.75
-54.5,-2.8286605728611223,-4.875
-58.0,3.472932503773092,59.8125
-42.5,-3.104777114680538,2.4375
-56.5,1.7916895602504286,12.1875
-59.5,-2.0923497946760143,19.5
-57.0,-1.368310862793992,36.5625
-41.5,0.2270291566070748,7.3125
-48.5,-0.3497476196379261,2.4375
-53.0,3.012738267407399,-14.625
-55.5,0.2454369260617031,-17.0625
-52.0,-2.9452431127404313,0.0
-63.0,3.546563581591602,-4.875
-53.5,-0.7853981633974478,2.4375
-62.5,-3.8410878928656453,20.75
-60.5,5.325981295538947,0.0
-54.0,-1.7610099444927165,-4.875
-50.5,1.3928545554001621,-9.75
-56.5,-4.540583132141498,9.75
-44.0,3.8410878928656453,4.875
-61.0,-1.0062913968529807,70.75
-60.5,1.9021361769781953,75.625
-59.5,-4.080388895775806,-83.0
-54.0,3.160000423044421,7.3125
-61.5,0.030679615757712497,-14.625
-57.0,-1.4480778637640448,9.75
-61.0,-2.233476027161494,7.3125
-54.5,2.0493983326152163,-9.75
-56.0,-2.313243028131547,63.4375
-58.5,3.3502140407422405,-2.4375
-55.0,-3.3256703481360703,36.5625
-61.5,4.221515128261284,70.75
-59.0,-4.675573441475435,75.625
-57.5,2.2212041808584084,43.9375
-58.0,2.325514874434632,32.9375
-54.5,-0.8897088569736717,-19.5
-61.0,-0.2761165418194156,-39.0625
-50.0,-3.2581751934691017,9.75
-39.5,2.675262494072558,14.625
-55.5,1.957359485342078,17.0625
-55.5,1.2762720155208536,-14.625
-61.5,-5.019185137961818,46.375
-58.0,-0.7731263170943632,-4.875
-52.5,5.258486140871978,-2.4375
-58.5,-4.626486056263094,7.3125
-57.0,-0.7915340865489909,-17.0625
-42.0,5.129631754689584,12.1875
-57.5,-5.0253210611133605,7.3125
-56.0,3.8963112012295285,46.375
-50.0,-0.030679615757712497,14.625
-52.5,-1.3069516312785665,24.375
-49.0,2.3377867207377174,-14.625
-64.0,-0.632000084608884,43.9375
-60.0,0.11658253987930856,-31.6875
-59.5,-1.086058397823034,-21.9375
-57.0,2.227340104009951,19.5
-48.0,-2.0003109474028764,14.625
-56.5,-3.0004664211043144,-12.1875
-57.5,2.5648158773447918,36.5625
-56.5,1.306951631278566,28.0625
-57.5,-2.718213956133356,14.625
-63.5,2.5218644152839946,73.1875
-52.5,0.9572040116406395,9.75
-59.5,-3.9944859716542096,4.875
-56.5,4.669437518323892,2.4375
-56.0,-1.7732817907958012,39.0625
-57.0,-1.0185632431560654,36.5625
-58.0,-3.1231848841351653,-4.875
-57.5,5.190990986205009,17.0625
-57.0,0.6258641614573417,14.625
-55.5,-4.565126824747669,-4.875
-59.0,2.2212041808584084,-12.1875
-56.5,1.3069516312785665,12.1875
-58.0,1.325359400733194,-34.125
-63.0,-0.8774370106705867,58.5625
-62.0,-3.1109130378320806,41.5
-45.5,-0.42337869745643686,9.75
-42.0,-0.4295146206079796,-4.875
-35.0,4.246058820867455,7.3125
-57.5,-4.675573441475434,61.0
-51.5,4.0128937411088375,61.0
-53.0,-4.755340442445488,-7.3125
-47.0,4.325825821837508,-7.3125
-50.0,-2.172116795646068,19.5
-44.0,0.7669903939428204,12.1875
-52.5,1.9634954084936211,-4.875
-53.5,0.0,17.0625
-41.0,-0.11044661672776618,0.0
-57.5,2.12916533358527,-24.375
-47.5,2.748893571891069,2.4375
-48.0,-4.534447208989955,-14.625
-58.5,1.41126232485479,65.875
-59.5,-0.779262240245906,95.1875
-46.5,2.2089323345553233,12.1875
-51.0,1.2701360923693108,4.875
-61.0,1.012427320004523,58.5625
-30.5,0.233165079758618,0.0
-45.5,-0.45405831321415047,-4.875
-40.0,0.294524311274043,2.4375
-53.0,-4.681709364626976,7.3125
-32.5,1.2210487071569707,12.1875
-54.0,0.3620194659410112,-31.6875
-52.5,3.233631500862932,31.6875
-55.5,-5.14190360099267,0.0
-56.5,1.1535535524900022,4.875
-63.5,-1.9941750242513336,37.8125
-57.0,1.4358060174609601,2.4375
-47.5,1.349903093339364,-17.0625
-57.5,3.2520392703175593,21.9375
-59.0,-2.405281875404685,-2.4375
-44.5,1.619883712007237,14.625
-54.5,-5.074408446325701,-9.75
-51.5,4.172427743048944,29.25
-60.5,-4.166291819897402,-14.625
-54.5,1.5953400194010667,0.0
-52.5,-1.3621749396424494,12.1875
-46.0,4.338097668140593,9.75
-36.0,-2.6139032625571326,7.3125
-50.5,1.3437671701878213,29.25
-60.5,-2.8900198043765477,7.3125
-54.0,0.294524311274043,-14.625
-52.0,2.454369260617026,17.0625
-56.5,1.9512235621905356,-43.9375
-53.0,-3.098641191528995,24.375
-35.0,1.810097329705056,-2.4375
-59.0,1.5892040962495244,-9.75
-51.5,-0.1288543861823932,0.0
-54.0,-5.148039524144212,12.1875
-54.0,2.448233337465483,-34.125
-58.5,2.9145634969827183,78.125
-59.0,-1.515573018431013,19.5
-58.5,1.1535535524900018,80.5625
-61.5,-4.583534594202296,-207.5
-61.5,1.282407938672396,-144.0
-62.0,-1.4480778637640452,-136.6875
-62.5,3.2090878082567613,43.9375
-59.0,-3.7429131224409646,39.0625
-65.0,3.724505352986337,124.5
-40.0,-2.7857091108003242,7.3125
-60.0,-0.3313398501832986,14.625
-49.0,3.147728576741336,-4.875
-52.5,2.251883796616121,7.3125
-61.0,-5.841398840268521,97.625
-57.0,1.3437671701878215,56.125
-59.0,0.5890486225480862,-133.0
-55.0,-1.368310862793992,39.0625
-54.5,2.356194490192345,-58.5625
-53.0,-1.718058482431918,-17.0625
-48.0,3.890175278077986,4.875
-59.0,-1.0799224746714913,-53.6875
-58.0,-3.939262663290327,29.25
-61.5,2.399145952253143,-21.9375
-52.0,-0.705631162427395,24.375
-46.5,1.9144080232812803,-12.1875
-57.5,-0.12271846303085132,46.375
-58.5,-1.6382914814618648,17.0625
-60.0,0.23316507975861755,90.3125
-53.0,-1.423534171157875,41.5
-61.5,1.4787574795217582,61.0
-60.0,3.190680038802134,7.3125
-51.0,-2.939107189588889,-7.3125
-59.0,3.1600004230444205,85.4375
-55.5,-3.4606606574700063,-37.8125
-58.5,3.1231848841351653,12.1875
-53.5,-4.356505437595221,14.625
-51.5,3.3808936564999534,-7.3125
-55.0,0.5645049299419158,4.875
-55.0,-0.8344855486097886,-26.8125
-62.5,-3.7551849687440497,41.5
-63.5,3.0127382674073995,34.125
-59.5,0.0,-24.375
-64.0,-0.6074563920027143,48.8125
-62.5,1.969631331645163,-19.5
-55.0,-2.7795731876487815,-4.875
-58.0,3.761320891895592,43.9375
-55.5,-0.4908738521234053,17.0625
-62.5,-4.485359823777614,19.5
-52.5,4.012893741108837,-9.75
-53.0,-2.4850488763747385,-19.5
-60.0,3.742913122440964,57.3125
-52.0,-5.902758071783947,-7.3125
-48.0,1.3192234775816514,-7.3125
-58.0,4.417864669110647,48.8125
-58.0,-5.522330836388308,65.875
-64.0,3.601786889955485,134.25
-58.0,1.0369710126106941,9.75
-57.5,-0.4049709280018092,7.3125
-59.5,-1.9573594853420784,4.875
-63.0,3.0802334220743677,73.1875
-57.0,-0.27611654181941603,47.5625
-57.0,-1.0431069357622356,26.8125
-36.0,-3.0066023442558567,-2.4375
-57.0,3.7429131224409646,46.375
-63.5,-2.0800779483729297,12.1875
-61.5,-0.9142525495798424,-65.875
-54.0,0.5767767762450013,-17.0625
-36.0,0.0,9.75
-47.5,-3.153864499892878,-2.4375
-51.5,1.1044661672776614,19.5
-47.5,1.2271846303085128,-2.4375
-61.5,-3.3993014259545804,-23.1875
-56.0,4.01902966426038,-26.8125
-59.5,-3.6263305825616556,83.0
-52.0,3.571107274197773,-14.625
-37.5,-0.4908738521234053,7.3125
-48.5,-1.4787574795217582,4.875
-50.0,1.1044661672776614,-4.875
-59.5,-2.9636508821950587,39.0625
-57.0,0.7117670855789375,4.875
-58.0,-0.6197282383057992,17.0625
-50.0,1.4848934026733005,12.1875
-53.0,0.748582624488193,17.0625
-48.0,2.724349879284899,-2.4375
-46.5,-1.0983302441261191,14.625
-58.5,-2.012582793705961,41.5
-51.5,1.8346410223112266,2.4375
-60.5,1.2762720155208536,34.125
-57.5,-3.399301425954581,53.6875
-60.5,2.5095925689809087,-17.0625
-56.0,0.09817477042468159,-4.875
-51.0,-2.0800779483729297,-4.875
-60.5,-0.9756117810952678,43.9375
-60.5,2.3623304133438876,-39.0625
-64.0,-3.429981041712294,4.875
-50.0,-0.1472621556370215,-21.9375
-57.5,2.270291566070749,21.9375
-55.5,2.834796496012665,-4.875
-52.0,-4.485359823777615,39.0625
-60.5,-0.24543692606170264,35.375
-58.0,2.2089323345553233,21.9375
-64.0,-3.2152237314083036,-4.875
-61.5,1.2701360923693108,109.8125
-53.5,1.3069516312785663,26.8125
-60.5,-1.4051264017032472,-26.8125
-56.0,1.3989904785517049,7.3125
-60.5,-2.564815877344792,34.125
-62.0,2.0064468705544187,51.25
-58.0,-1.8039614065535141,17.0625
-55.5,0.564504929941916,39.0625
-59.5,3.816544200259475,17.0625
-63.0,-0.17794177139473444,46.375
-60.0,-2.2825634123738343,-2.4375
-62.0,3.5281558121369745,-19.5
-57.0,-5.197126909356552,39.0625
-56.0,5.178719139901925,31.6875
-61.0,-2.4359614911623986,46.375
-60.5,2.3868741059500573,52.4375
-56.5,-4.71238898038469,53.6875
-58.5,4.865787059173254,17.0625
-52.5,-0.6872233929727667,4.875
-58.0,-4.338097668140594,56.125
-59.0,-0.46019423636569234,41.5
-59.5,1.227184630308513,68.3125
-55.5,-0.38042723539563905,19.5
-62.0,4.71238898038469,2.4375
-41.0,-3.294990732378357,17.0625
-60.0,0.2822524649709579,-17.0625
-61.5,-2.448233337465483,39.0625
-66.0,4.638757902566179,85.4375
-53.0,0.3252039270317555,-2.4375
-57.0,0.47860200582032064,19.5
-57.0,-6.14819499784565,14.625
-57.0,-0.01227184630308513,17.0625
-59.0,1.282407938672396,78.125
-52.5,-0.20862138715244716,26.8125
-52.5,0.39269908169872414,-20.75
-57.0,2.1475731030398975,-2.4375
-54.5,-0.8651651643675016,19.5
-57.5,-1.4235341711578748,43.9375
-50.0,4.129476280988146,19.5
-38.5,-0.05522330836388267,4.875
-62.5,-0.6258641614573417,21.9375
-47.0,-1.116738013580747,-19.5
-54.0,0.47246608266877743,-9.75
-59.0,-2.2396119503130363,21.9375
-61.0,2.9636508821950587,34.125
-61.5,-1.7180584824319176,-12.1875
-54.5,1.9757672547967058,-17.0625
-56.5,-3.135456730438251,-31.6875
-53.0,-0.11044661672776601,0.0
-56.5,3.54042765844006,-12.1875
-62.0,-3.5036121195308043,51.25
-59.0,3.687689814077081,39.0625
-58.5,-0.5645049299419158,58.5625
-56.0,-4.1417481272912315,0.0
-59.5,-0.5460971604872883,46.375
-46.0,2.7304858024364416,19.5
-47.0,2.2641556429192065,9.75
-47.5,0.6013204688511715,12.1875
-60.0,0.0,19.5
-47.5,-0.7731263170943632,0.0
-32.5,5.822991070813894,9.75
-60.0,-3.6508742751678263,109.8125
-57.5,1.8469128686143117,39.0625
-62.0,-3.5649713510462298,26.8125
-53.5,2.5954954931025047,0.0
-48.5,2.12916533358527,-2.4375
-55.5,-4.000621894805752,-26.8125
-56.5,4.7307967498393175,17.0625
-56.5,-3.0740974989228254,12.1875
-56.5,0.07363107781851097,-17.0625
-58.0,1.4848934026733005,14.625
-55.0,-2.693670263527186,31.6875
-45.0,1.2087768608538854,4.875
-64.5,-2.9391071895888885,61.0
-59.0,4.178563666200486,12.1875
-50.0,1.0431069357622365,4.875
-58.5,-3.657010198319369,36.5625
-61.5,2.2150682577068657,24.375
-56.5,-2.5280003384355365,-14.625
-54.5,0.16566992509164935,-19.5
-55.5,0.3988350048502669,21.9375
-37.5,4.227651051412827,2.4375
-42.5,-4.166291819897401,21.9375
-67.0,1.748738098189631,73.1875
-55.0,-0.4786020058203202,9.75
-61.0,-0.9878836273983529,112.25
-61.0,-0.12885438618239364,48.8125
-55.0,1.6689710972195773,9.75
-49.0,0.5951845456996288,14.625
-49.0,-1.7119225592803753,14.625
-57.5,-0.14112623248547917,-26.8125
-53.0,0.5031456984264904,-14.625
-54.5,1.4173982480063323,0.0
-55.0,-0.47860200582031975,19.5
-62.0,0.6197282383057994,61.0
-53.0,1.306951631278566,-29.25
-62.0,-5.7616318392984684,-29.25
-55.5,3.479068426924634,0.0
-53.5,0.4295146206079794,-14.625
-61.0,-3.012738267407399,-9.75
-61.0,-0.705631162427395,-9.75
-62.0,2.748893571891069,-46.375
-61.0,0.9572040116406404,26.8125
-62.0,0.061359231515424995,14.625
-58.5,-4.129476280988146,19.5
-58.0,5.773903685601554,-46.375
-64.0,-1.6260196351587801,113.5
-56.5,-2.350058567040802,-4.875
-55.5,3.442252888015379,-4.875
-60.0,-3.6140587362585705,2.4375
-58.5,-0.11658253987930856,68.3125
-59.5,4.399456899656019,12.1875
-58.5,-3.920854893835699,17.0625
-69.0,0.9878836273983529,97.625
-59.5,2.742757648739526,19.5
-62.5,-0.21475731030398926,46.375
-36.5,0.0,2.4375
-52.0,-1.4726215563702159,-9.75
-59.0,-0.9756117810952678,-14.625
-59.5,-2.5954954931025047,68.3125
-61.0,-0.4295146206079795,-2.4375
-46.5,1.761009944492716,7.3125
-60.5,-1.8285050991596843,-2.4375
-38.5,4.884194828627881,4.875
-55.5,-0.04908738521234035,12.1875
-59.0,-0.4233786974564371,19.5
-59.5,-2.693670263527186,95.1875
-60.5,2.258019719767664,9.75
-47.5,1.3192234775816516,-19.5
-54.0,-3.0434178831651124,17.0625
-57.5,0.16566992509164935,-31.6875
-56.0,-0.6933593161243099,46.375
-50.0,0.19634954084936207,-14.625
-51.0,3.9515345095934116,17.0625
-61.5,-4.7860200582032,2.4375
-53.0,2.9820586516496865,21.9375
-59.5,-2.2089323345553233,75.625
-62.0,-1.2640001692177683,-41.5
-54.0,3.178408192499049,21.9375
-53.5,1.8898643306751097,-14.625
-59.5,-1.558524480491811,-9.75
-57.5,-1.9328157927359082,-43.9375
-49.5,0.3558835427894689,24.375
-61.5,-1.9696313316451635,9.75
-62.0,2.773437264497239,29.25
-59.5,-1.957359485342078,12.1875
-59.5,-0.4786020058203201,-14.625
-62.0,-0.8038059328520759,83.0
-54.5,4.945554060143307,97.625
-59.5,-1.6689710972195773,9.75
-62.0,0.0,151.3125
-61.5,-3.031146036862027,-36.5625
-58.0,2.024854640009046,41.5
-60.5,-1.1658253987930873,21.9375
-58.5,4.491495746929157,-9.75
-61.5,-4.71238898038469,100.0625
-63.0,2.3255148744346323,202.625
-58.0,2.165980872494525,-34.125
-59.5,-4.166291819897401,31.6875
-62.5,4.558990901596125,31.6875
-57.5,-2.9391071895888885,28.0625
-58.0,2.0493983326152163,-14.625
-60.5,0.9019807032767568,19.5
-63.0,-0.07363107781851053,46.375
-43.0,-1.159689475641545,0.0
-51.5,-1.7916895602504286,0.0
-61.0,0.0,31.6875
-46.5,-2.0493983326152168,14.625
-41.5,2.3009711818284617,0.0
-61.0,-3.5833791205008576,30.5
-49.5,4.896466674930966,-17.0625
-56.0,-5.092816215780329,-4.875
-55.0,-0.36815538909255396,7.3125
-58.5,3.9699422790480394,29.25
-55.5,0.8467573949128742,21.9375
-58.0,-3.0802334220743677,36.5625
-53.0,3.7060975835317094,-9.75
-59.5,-5.0682725231741586,21.9375
-57.0,5.049864753719531,-12.1875
-56.5,-0.4663301595172351,2.4375
-38.5,-1.91440802328128,17.0625
-51.5,1.3928545554001621,7.3125
-60.0,-4.485359823777615,-31.6875
-41.5,-0.5706408530934586,7.3125
-51.0,1.9205439464328227,-2.4375
-58.5,2.2886993355253766,26.8125
-54.0,-0.337475773334841,14.625
-57.5,-1.7303303287350031,17.0625
-62.5,1.981903177948248,102.5
-55.0,-3.4115732722576655,7.3125
-54.5,2.8838838812250054,12.1875
-55.0,-0.5460971604872884,2.4375
-54.5,-1.043106935762236,21.9375
-58.5,3.5956509668039427,95.1875
-58.0,-4.8351074434155406,-41.5
-62.0,-0.20862138715244727,78.125
-50.0,5.049864753719531,12.1875
-54.5,-2.908427573831176,-9.75
-54.0,3.4852043500761765,-58.5625
-61.5,-4.896466674930966,-14.625
-63.5,-0.5154175447295753,-104.9375
-59.0,3.031146036862027,-7.3125
-59.5,-2.399145952253143,24.375
-64.0,2.0984857178275576,24.375
-56.5,1.7303303287350031,12.1875
-63.5,0.4908738521234053,-70.75
-63.5,-3.583379120500858,61.0
-61.5,0.294524311274043,-24.375
-60.0,-0.27611654181941514,21.9375
-63.5,3.7551849687440493,17.0625
-56.5,-5.853670686571607,61.0
-65.0,0.9817477042468102,2.4375
-62.5,0.2515728492132452,43.9375
-64.5,-0.23930100291015988,65.875
-41.5,2.9820586516496865,-107.375
-36.5,1.558524480491811,-2.4375
-53.5,-1.540116711037184,43.9375
-54.5,1.853048791765855,-14.625
-47.5,-0.31293208072867085,-2.4375
-53.5,-1.4173982480063323,0.0
-54.0,1.2762720155208536,9.75
-53.5,-2.5770877236478773,26.8125
-45.0,3.0925052683774528,0.0
-56.5,0.11658253987930856,31.6875
-60.5,-3.479068426924634,131.8125
-60.5,-0.5706408530934586,58.5625
-50.0,0.6872233929727671,19.5
-49.5,-0.5276893910326605,2.4375
-59.0,1.0676506283684062,2.4375
-50.5,2.742757648739526,19.5
-35.5,-5.252350217720435,0.0
-67.5,0.27611654181941536,302.6875
-54.5,1.2578642460662257,29.25
-61.5,1.1228739367322893,-65.875
-56.0,-2.043262409463674,29.25
-60.0,4.663301595172349,31.6875
-39.5,-3.9024471243810708,19.5
-50.5,-0.5460971604872882,29.25
-49.0,-1.1658253987930873,-19.5
-55.5,1.2640001692177683,31.6875
-33.5,-1.478757479521758,4.875
-63.0,4.730796749839317,78.125
-55.5,1.1044661672776623,12.1875
-52.0,-0.5829126993965437,24.375
-59.5,-4.669437518323892,19.5
-59.5,1.0615147052168639,17.0625
-54.0,3.558835427894688,-9.75
-59.0,-0.8897088569736722,0.0
-50.5,-2.5832236467994196,36.5625
-56.0,-0.8038059328520759,-26.8125
-61.5,4.06811704947272,-7.3125
-59.0,-3.730641276137879,24.375
-49.5,2.552544031041707,-4.875
-49.0,-1.6812429435226628,21.9375
-55.5,3.724505352986337,14.625
-55.0,-1.4419419406125025,-14.625
-62.0,0.5031456984264899,0.0
-49.0,0.5276893910326601,-17.0625
-61.5,-0.693359316124309,9.75
-57.5,0.018407769454626965,-48.8125
-56.5,-4.356505437595221,-2.4375
-59.0,2.570951800496335,-21.9375
-58.0,0.8713010875190443,-53.6875
-60.5,-0.45405831321415,-31.6875
-56.0,1.1658253987930869,31.6875
-57.5,-3.025010113710484,7.3125
-61.0,-0.7547185476397353,-19.5
-62.0,1.0185632431560658,-70.75
-51.5,-0.5890486225480864,31.6875
-57.5,0.0920388472731386,19.5
-54.5,0.48473792897186274,24.375
-60.0,0.17180584824319167,87.875
-63.5,2.331650797586174,-19.5
-58.0,0.7669903939428213,-31.6875
-59.5,-0.18407769454627765,41.5
-55.0,-3.792000507653305,39.0625
-52.0,-0.024543692606170175,-9.75
-61.0,0.2270291566070748,21.9375
-58.0,4.411728745959104,43.9375
-56.5,-5.786175531904639,36.5625
-33.5,0.0,0.0
-35.0,0.8467573949128742,0.0
-48.0,-1.4910293258248437,-9.75
-48.0,-3.5097480426823466,9.75
-53.5,4.8351074434155406,24.375
-52.0,-2.239611950313036,-12.1875
-53.0,-0.95720401164064,-9.75
-46.0,-2.435961491162398,4.875
-56.0,1.1719613219446299,7.3125
-55.0,3.3870295796514953,9.75
-47.5,-1.8898643306751097,28.0625
-60.5,2.675262494072558,17.0625
-48.5,-3.896311201229528,4.875
-49.5,-0.5460971604872882,12.1875
-54.5,3.0802334220743677,-9.75
-55.0,1.3130875544301084,-12.1875
-57.5,-3.6140587362585705,97.625
-54.5,-0.3988350048502667,2.4375
-55.5,4.178563666200487,34.125
-56.5,-0.570640853093459,24.375
-61.5,0.47246608266877743,58.5625
-51.0,-3.8349519697141026,24.375
-42.0,-0.3558835427894689,-2.4375
-51.5,3.4913402732277192,12.1875
-43.0,-1.3314953238847362,7.3125
-55.0,0.5583690067903735,-17.0625
-44.0,-0.9019807032767573,4.875
-57.5,-0.6994952392758522,-46.375
-56.5,1.8100973297050564,-4.875
-51.5,-3.6876898140770815,19.5
-56.5,2.9084275738311756,4.875
-64.0,0.49700977527494805,7.3125
-63.0,1.8960002538266525,58.5625
-54.0,0.41724277430489387,9.75
-58.0,-0.589048622548086,-2.4375
-53.5,-0.44178646691106405,-7.3125
-61.0,-3.951534509593412,-46.375
-59.0,2.307107104980004,-43.9375
-60.5,-3.0066023442558567,12.1875
-59.0,1.1719613219446299,53.6875
-62.0,2.0800779483729293,21.9375
-49.0,-2.7243498792848984,7.3125
-61.0,0.6135923151542564,109.8125
-56.0,2.3255148744346323,-21.9375
-61.0,1.3621749396424487,12.1875
-58.0,-3.9883500485026664,24.375
-60.5,-0.9510680884890976,0.0
-58.5,2.2212041808584084,-2.4375
-63.0,1.9205439464328227,9.75
-54.0,-4.338097668140593,-4.875
-53.0,5.878214379177777,7.3125
-57.5,-1.3805827090970775,19.5
-58.5,-1.8162332528565992,43.9375
-52.0,-2.5341362615870793,12.1875
-58.0,4.129476280988146,-39.0625
-57.5,-2.5770877236478773,46.375
-58.0,1.7671458676442586,39.0625
-59.5,2.4911847995262812,-17.0625
-61.5,-1.1290098598838316,31.6875
-37.0,-0.20862138715244782,7.3125
-44.5,-4.098796665230433,4.875
-54.5,4.890330751779424,-7.3125
-49.5,-1.245592399763141,-12.1875
-51.0,-2.613903262557132,-12.1875
-56.5,2.951379035891973,9.75
-50.0,-2.0064468705544183,7.3125
-59.5,-0.16566992509164935,29.25
-60.0,-0.024543692606170175,56.125
-48.0,2.9636508821950582,4.875
-59.5,-4.921010367537137,-7.3125
-59.5,1.1780972450961724,-17.0625
-52.5,-1.5769322499464393,31.6875
-59.5,1.7916895602504286,73.1875
-58.5,4.227651051412828,-46.375
-58.0,-1.8285050991596847,-9.75
-54.5,-1.368310862793992,21.9375
-45.0,-0.17794177139473444,19.5
-51.0,1.1290098598838325,-4.875
-53.5,0.9387962421860117,26.8125
-39.0,-0.736310778185107,0.0
-54.5,0.3681553890925535,-4.875
-55.0,-0.19021361769781908,43.9375
-58.5,-3.0740974989228254,-24.375
-55.5,3.718369429834794,29.25
-62.0,-4.270602513473625,14.625
-57.0,1.1965050145508003,-2.4375
-54.0,1.3069516312785663,46.375
-56.5,0.11044661672776623,19.5
-57.5,-1.1903690913992575,12.1875
-58.5,4.086524818927348,21.9375
-60.0,-0.4847379289718621,-21.9375
-58.5,-4.552854978444583,98.875
-58.5,-0.6688156235181396,7.3125
-57.5,0.12885438618239387,0.0
-56.0,-0.12271846303085132,-92.75
-57.5,3.509748042682347,0.0
-59.0,-0.5215534678811182,151.3125
-54.5,-1.4173982480063323,7.3125
-58.5,2.331650797586174,61.0
-58.5,-0.11658253987930856,75.625
-47.0,-0.22089323345553247,-19.5
-52.0,0.0,34.125
-39.0,-0.09817477042468115,9.75
-60.0,0.8160777791551612,36.5625
-61.0,1.3008157081270237,-48.8125
-56.0,-3.4177091954092087,41.5
-56.0,-1.791689560250429,-14.625
-59.5,2.0800779483729297,48.8125
-57.5,2.4605051837685683,26.8125
-55.0,-3.6754179677739964,21.9375
-53.5,3.0863693452259104,12.1875
-59.5,-4.0558452031696355,-21.9375
-61.5,-0.3620194659410113,41.5
-58.5,5.056000676871073,39.0625
-54.0,-1.3560390164909069,17.0625
-61.0,1.3560390164909069,31.6875
-58.0,-4.884194828627882,-39.0625
-58.0,0.5890486225480862,-2.4375
-57.5,3.8656315854718155,12.1875
-62.0,-2.4727770300716534,56.125
-58.0,2.5648158773447918,43.9375
-59.5,-3.2213596545598464,31.6875
-51.0,4.528311285838413,-7.3125
-41.0,-0.1656699250916489,-7.3125
-61.5,-4.061981126321178,102.5
-51.0,-1.6873788666742053,-23.1875
-59.0,-0.0184077694546277,19.5
-56.0,-0.0859029241215959,41.5
-59.0,4.338097668140593,70.75
-44.0,0.3558835427894689,4.875
-54.5,0.24543692606170264,2.4375
-52.0,-0.31293208072867085,-2.4375
-50.5,-2.1046216409790994,19.5
-59.0,2.9084275738311756,-80.5625
-62.5,-0.0981747704246807,-70.75
-54.5,-0.08590292412159606,-17.0625
-57.5,-0.7853981633974483,14.625
-58.5,-0.12271846303085177,23.1875
-48.0,-3.644738352016283,-2.4375
-51.0,4.933282213840222,0.0
-57.0,-2.7182139561333565,-7.3125
-60.5,-2.613903262557132,34.125
-58.5,3.957670432744955,24.375
-57.5,1.9266798695843645,-151.3125
-54.5,-1.9450876390389924,4.875
-61.0,-2.4605051837685687,-12.1875
-60.0,1.055378782065321,83.0
-54.0,1.5462526341887264,29.25
-58.5,-3.718369429834794,-7.3125
-56.5,4.9639618295979355,-61.0
-59.5,-1.0062913968529807,65.875
-59.5,1.5892040962495244,68.3125
-60.0,-0.6994952392758531,51.25
-54.5,-0.6381360077604263,51.25
-62.5,-2.6261751088602177,102.5
-53.0,3.0679615757712826,-17.0625
-64.5,-1.6321555583103224,83.0
-65.0,-3.141592653589793,-14.625
-62.0,0.6504078540635118,48.8125
-60.5,-0.34361169648638357,-34.125
-62.0,2.6998061866787286,21.9375
-50.5,0.32520392703175593,-12.1875
-35.5,-3.3379421944391554,4.875
-41.0,1.368310862793992,14.625
-34.5,-1.846912868614312,-2.4375
-41.5,0.08590292412159592,-2.4375
-52.5,4.344233591292136,-24.375
-50.5,1.2762720155208536,7.3125
-58.5,-1.7916895602504295,-17.0625
-55.5,-0.12885438618239364,-34.125
-52.0,-1.705786636128833,37.8125
-46.0,2.12916533358527,-2.4375
-61.5,-1.6382914814618648,295.375
-50.0,2.570951800496334,9.75
-55.0,-0.546097160487288,14.625
-56.5,-3.5036121195308043,12.1875
-48.0,2.1230294104337273,4.875
-47.0,-2.1843886419491527,-4.875
-67.5,-0.8713010875190442,2.4375
-47.5,0.5583690067903734,-7.3125
-60.0,5.129631754689584,21.9375
-62.5,0.3313398501832987,97.625
-59.5,-2.7734372644972396,-9.75
-47.0,2.061670178918302,7.3125
-44.0,0.1656699250916489,4.875
-58.5,-0.5829126993965437,34.125
-55.0,-0.4663301595172342,-17.0625
-50.0,-4.227651051412828,-9.75
-58.0,4.595806440505381,12.1875
-61.0,-1.8837284075235674,0.0
-60.0,1.853048791765855,43.9375
-57.0,0.8222137023067031,-9.75
-62.5,0.018407769454627854,14.625
-50.5,0.05522330836388267,31.6875
-50.5,-0.693359316124309,9.75
-57.5,0.17180584824319123,26.8125
-49.5,0.030679615757713385,9.75
-55.0,-3.939262663290327,17.0625
-60.5,1.368310862793992,122.0625
-49.5,1.6260196351587801,-4.875
-60.0,-0.6442719309119695,2.4375
-51.0,-1.41126232485479,12.1875
-59.5,3.3563499638937824,48.8125
-59.5,-5.301437602932776,-2.4375
-63.0,0.41110685115335177,227.0
-59.5,3.988350048502667,-41.5
-50.5,0.19021361769781997,14.625
-56.0,-0.6258641614573417,-58.5625
-56.0,0.6688156235181397,0.0
-62.5,-5.074408446325701,7.3125
-52.5,5.1296317546895835,0.0
-59.0,-0.6688156235181397,4.875
-58.0,1.0921943209745768,7.3125
-60.5,-2.718213956133356,-2.4375
-62.0,-0.1963495408493623,104.9375
-59.5,-2.319378951283089,48.8125
-60.5,0.0,21.9375
-52.5,-3.908583047532614,36.5625
-33.5,-0.5706408530934586,-2.4375
-55.5,-0.1595340019401067,14.625
-58.0,2.957514959043516,34.125
-40.5,-3.074097498922825,0.0
-56.5,3.055689729468197,4.875
-48.0,-3.031146036862027,17.0625
-54.0,1.1780972450961724,56.125
-59.5,3.3563499638937833,85.4375
-54.0,-3.2827188860752723,21.9375
-51.0,-0.5031456984264902,4.875
-54.0,-1.0492428589137788,2.4375
-57.0,3.4974761963792615,21.9375
-54.5,-2.208932334555323,4.875
-59.0,1.1780972450961726,36.5625
-64.5,0.2822524649709579,63.4375
-63.0,1.4603497100671303,2.4375
-56.0,-0.6442719309119695,-9.75
-55.0,-3.644738352016283,19.5
-51.0,3.7797286613502195,4.875
-50.0,0.1656699250916498,-4.875
-55.5,1.6689710972195773,4.875
-58.5,-0.7915340865489906,29.25
-57.0,-5.2339424482658075,-21.9375
-63.0,1.2885438618239387,37.8125
-60.5,-1.012427320004523,7.3125
-47.0,3.1906800388021335,-9.75
-58.5,-0.6504078540635119,31.6875
-53.5,-2.386874105950058,-21.9375
-62.0,2.5586799541932495,-31.6875
-54.5,1.2455923997631406,0.0
-62.5,0.24543692606170264,197.75
-62.0,-0.5399612373357456,26.8125
-63.0,1.1719613219446297,4.875
-62.0,-4.957825906446392,-36.5625
-60.5,3.865631585471816,70.75
-59.5,-1.9880391010997913,85.4375
-58.5,3.0618256526197403,19.5
-59.5,-3.75518496874405,58.5625
-58.5,4.6448938257177215,31.6875
-57.0,-5.424156065963627,43.9375
-61.5,5.135767677841127,53.6875
-62.5,-3.4790684269246337,83.0
-54.5,1.4235341711578746,9.75
-57.5,-3.5036121195308043,19.5
-38.5,0.9449321653375551,4.875
-52.5,-0.6810874698212248,-9.75
-55.0,3.074097498922825,14.625
-51.0,-2.552544031041707,-4.875
-51.0,1.6812429435226628,0.0
-54.0,-1.6382914814618648,17.0625
-55.0,-0.4540583132141498,-7.3125
-57.0,5.5100589900852235,-83.0
-53.0,-3.77972866135022,-2.4375
-63.5,3.4913402732277192,209.9375
-52.0,-3.3195344249845276,-19.5
-41.5,3.583379120500858,-4.875
-61.0,-1.9634954084936211,12.1875
-55.0,0.15953400194010658,29.25
-52.0,-1.8653206380689396,0.0
-54.5,0.4663301595172351,-7.3125
-58.5,2.8102528034064944,39.0625
-57.0,-2.208932334555323,39.0625
-49.0,-1.8469128686143121,-12.1875
-39.5,3.362485887045325,7.3125
-56.5,-3.307262578681442,14.625
-57.5,1.748738098189631,4.875
-60.0,2.294835258676919,-2.4375
-58.0,-1.3560390164909064,70.75
-56.0,-1.7855536370988867,-2.4375
-62.0,-1.000155473701438,12.1875
-57.5,-0.4295146206079794,17.0625
-62.0,-0.7915340865489909,-43.9375
-52.5,-0.07976700097005335,-14.625
-63.0,0.3374757733348411,-24.375
-57.5,0.22089323345553236,43.9375
-59.5,1.5094370952794707,7.3125
-56.5,0.2515728492132454,-2.4375
-62.5,2.5402721847386216,136.6875
-54.5,-3.687689814077081,-24.375
-57.0,0.7669903939428206,7.3125
-57.5,2.4727770300716534,41.5
-61.0,-4.209243281958199,-41.5
-55.5,5.258486140871978,-43.9375
-59.5,-0.589048622548086,34.125
-59.5,-3.5895150436524004,61.0
-54.0,2.442097414313941,-12.1875
-60.5,-3.693825737228624,109.8125
-49.0,3.902447124381071,12.1875
-60.5,-0.03681553890925571,-43.9375
-63.5,-0.14112623248547873,68.3125
-52.0,-3.270447039772187,12.1875
-62.0,5.43029198911517,24.375
-55.0,-3.1722722693475056,39.0625
-56.0,1.7180584824319176,17.0625
-65.0,-2.8593401886188348,56.125
-53.0,3.8656315854718155,-12.1875
-62.0,-0.6442719309119695,9.75
-62.0,0.3988350048502669,26.8125
-58.5,-3.4299810417122933,2.4375
-59.0,-0.9081166264282996,-17.0625
-58.0,4.902602598082509,43.9375
-55.5,-5.626641529964531,24.375
-62.5,4.374913207049849,65.875
-54.0,-2.6077673394055902,-14.625
-59.5,0.2024854640009046,0.0
-60.5,-1.4173982480063325,-24.375
-56.5,1.7364662518865457,36.5625
-59.5,1.8407769454627698,56.125
-60.0,-0.19021361769781997,-2.4375
-62.5,-3.3870295796514958,-46.375
-64.5,1.9819031779482483,61.0
-63.5,0.5399612373357456,39.0625
-64.0,1.6076118657041518,0.0
-35.5,0.0,12.1875
-43.5,-4.289010282928253,-19.5
-48.0,3.368621810196868,4.875
-56.5,-0.6013204688511715,41.5
-43.0,-0.7363107781851079,-2.4375
-43.5,0.17794177139473444,-9.75
-39.5,2.405281875404685,12.1875
-45.5,-4.000621894805752,4.875
-43.5,4.381049130201391,9.75
-55.0,-1.619883712007237,41.5
-54.0,-2.8593401886188348,46.375
-55.5,4.319689898685965,7.3125
-61.5,-3.620194659410113,-21.9375
-59.5,0.7976700097005334,-2.4375
-61.5,0.18407769454627676,-21.9375
-51.5,-1.0799224746714913,-7.3125
-52.5,0.7669903939428204,26.8125
-58.5,1.4480778637640452,29.25
-61.5,-3.693825737228624,107.375
-53.5,0.44792239006260715,9.75
-59.5,0.7547185476397356,78.125
-57.5,1.4173982480063325,61.0
-62.0,-0.15339807878856426,36.5625
-53.5,-3.0066023442558567,-7.3125
-55.0,4.970097752749477,-9.75
-59.0,-3.5281558121369745,-24.375
-55.0,4.006757817957294,2.4375
-61.0,-4.957825906446392,26.8125
-56.5,4.44854428486836,36.5625
-58.5,-0.38042723539563905,-14.625
-60.0,0.41110685115335155,102.5
-58.5,-1.466485633218673,21.9375
-60.0,1.5585244804918115,31.6875
-54.0,-4.2031073588066565,-12.1875
-62.0,3.491340273227719,31.6875
-53.0,0.47246608266877743,2.4375
-49.0,-1.0553787820653207,26.8125
-58.5,-2.386874105950058,-17.0625
-57.0,0.6013204688511713,29.25
-54.0,2.1537090261914402,19.5
-58.0,-1.3560390164909069,12.1875
-56.5,-1.4848934026733007,31.6875
-46.5,1.1474176293384597,7.3125
-57.0,-2.399145952253143,-2.4375
-67.5,5.546874528994479,-269.75
-60.0,-1.2333205534600555,-97.625
-60.5,-1.3314953238847367,39.0625
-59.0,1.0369710126106937,34.125
-57.5,1.6382914814618648,63.4375
-59.0,-0.2577087723647882,48.8125
-59.0,-0.337475773334841,26.8125
-64.0,-1.4603497100671303,-85.4375
-63.5,-3.172272269347506,-48.8125
-46.0,5.773903685601553,-14.625
-59.0,-2.1168934872821845,7.3125
-52.5,-2.1537090261914407,21.9375
-51.5,2.0493983326152168,-2.4375
-60.5,-1.791689560250429,36.5625
-39.0,2.000310947402876,4.875
-56.0,-2.5525440310417067,43.9375
-52.5,-1.325359400733194,-31.6875
-58.0,3.2888548092268146,-75.625
-53.5,0.9940195505498952,-2.4375
-61.5,-0.9326603190344698,26.8125
-56.0,0.36201946594101164,-26.8125
-54.0,-1.9389517158874505,9.75
-49.5,1.2394564766115979,-26.8125
-59.0,1.5217089415825558,43.9375
-37.0,-0.0981747704246807,2.4375
-62.5,0.7608544707912781,-19.5
-57.5,-1.0431069357622356,2.4375
-57.5,-0.4601942363656928,-34.125
-51.0,0.11658253987930856,41.5
-54.0,-1.0860583978230336,7.3125
-56.5,0.5031456984264899,41.5
-57.5,1.288543861823939,-17.0625
-55.0,-0.6320000846088849,2.4375
-57.5,-0.34974761963792567,14.625
-61.0,-1.9941750242513336,48.8125
-58.0,1.0615147052168639,29.25
-52.0,0.03681553890925526,2.4375
-58.0,0.44792239006260726,-12.1875
-59.5,1.1290098598838316,-39.0625
-54.0,-2.5709518004963345,17.0625
-62.5,3.356349963893783,170.875
-58.5,-3.3870295796514958,29.25
-54.5,-0.3620194659410112,41.5
-55.0,0.7424467013366505,0.0
-60.5,-1.1842331682477152,122.0625
-61.0,-0.521553467881118,9.75
-60.0,3.0495538063166547,58.5625
-58.5,-2.012582793705961,31.6875
-60.5,3.172272269347506,-36.5625
-62.5,-3.2397674240144743,0.0
-59.5,1.3008157081270237,65.875
-63.0,1.5217089415825558,19.5
-39.5,-2.1291653335852696,-4.875
-60.0,1.0185632431560658,-21.9375
-60.5,-3.104777114680538,-7.3125
-60.0,0.0,-19.5
-41.0,-1.012427320004523,0.0
-57.5,-0.7976700097005334,-7.3125
-60.0,-2.4175537217077707,78.125
-58.0,3.7183694298347936,19.5
-39.5,-3.294990732378357,2.4375
-54.0,-1.521708941582556,-9.75
-60.5,0.9878836273983529,-78.125
-59.0,0.36815538909255374,97.625
-63.0,-0.49087385212340506,95.1875
-57.5,1.7119225592803755,0.0
-53.0,1.6137477888556941,0.0
-58.5,-3.472932503773091,58.5625
-59.5,3.749049045592507,14.625
-58.0,-1.423534171157875,31.6875
-54.5,-0.45405831321415,2.4375
-61.0,-0.10431069357622347,53.6875
-57.0,2.3009711818284617,7.3125
-62.5,-1.8960002538266525,-36.5625
-58.5,-1.0185632431560658,85.4375
-61.0,3.8717675086233587,-26.8125
-59.0,-4.061981126321179,75.625
-64.0,-1.662835174068035,39.0625
-58.0,0.9510680884890976,104.9375
-59.0,1.4419419406125025,12.1875
-55.0,1.1474176293384595,-34.125
-64.0,-2.8102528034064944,-83.0
-58.5,2.969786805346601,17.0625
-61.5,1.7732817907958012,12.1875
-61.5,-3.699961660380166,51.25
-57.5,2.0064468705544187,-4.875
-50.5,1.3744467859455343,12.1875
-56.0,-4.491495746929157,2.4375
-56.5,4.129476280988146,9.75
-64.5,-2.1475731030398975,14.625
-64.0,-1.3437671701878218,68.3125
-60.0,4.135612204139688,-31.6875
-56.5,-1.877592484372025,19.5
-57.0,0.5767767762450013,39.0625
-57.0,1.6566992509164926,-43.9375
-60.0,-5.166447293598839,41.5
-59.5,1.1965050145507998,48.8125
-63.0,3.8165442002594756,0.0
-47.5,-2.6568547246179306,0.0
-40.0,1.736466251886546,7.3125
-50.5,-3.9576704327449543,-2.4375
-52.0,2.5464081078901644,-12.1875
-58.0,-0.7240389318820228,9.75
-57.5,1.8100973297050564,0.0
-61.0,-3.178408192499048,24.375
-58.5,4.04357335686655,85.4375
-50.5,-1.3989904785517053,17.0625
-58.5,-1.0431069357622356,4.875
-43.0,-2.4605051837685683,0.0
-46.5,4.276738436625168,12.1875
-47.5,-3.2090878082567613,-2.4375
-56.5,4.006757817957294,56.125
-59.0,-1.9880391010997904,58.5625
-62.0,-3.3072625786814425,46.375
-51.0,1.619883712007237,-2.4375
-57.0,2.2764274892222915,31.6875
-50.5,0.0,51.25
-43.5,-3.2336315008629315,9.75
-37.0,3.583379120500858,9.75
-53.0,-3.3686218101968683,-26.8125
-62.5,0.0,-17.0625
-56.5,1.8285050991596843,19.5
-61.0,-0.3497476196379261,12.1875
-59.5,1.736466251886546,12.1875
-52.5,-4.264466590322082,12.1875
-52.0,0.43565054375952206,4.875
-54.5,1.3560390164909066,19.5
-60.0,-1.601475942552609,46.375
-55.5,5.123495831538042,7.3125
-59.0,0.41724277430489387,7.3125
-60.5,-1.454213786915588,75.625
-60.0,-3.0863693452259096,68.3125
-54.0,-0.9572040116406402,21.9375
-58.5,5.4671075280244255,0.0
-49.5,-4.9823695990525625,7.3125
-46.5,0.4663301595172351,9.75
-60.0,3.031146036862027,-14.625
-49.0,-1.7610099444927165,14.625
-60.0,-0.6810874698212244,19.5
-52.5,0.9081166264282996,21.9375
-55.5,2.411417798556228,-4.875
-60.0,-0.5092816215780331,7.3125
-62.5,-4.902602598082509,12.1875
-55.5,0.20862138715244719,-7.3125
-49.0,0.7792622402459057,-2.4375
-64.5,-0.5951845456996289,41.5
-56.0,5.086680292628786,19.5
-58.0,-0.1288543861823941,17.0625
-61.5,-1.9450876390389928,68.3125
-60.0,0.8467573949128737,-31.6875
-60.5,-2.4114177985562275,78.125
-62.0,-0.14112623248547895,68.3125
-59.5,-1.116738013580747,0.0
-54.5,3.074097498922825,2.4375
-49.5,1.2394564766115983,2.4375
-35.0,-1.2394564766115983,7.3125
-51.0,-0.2822524649709579,-23.1875
-53.0,-0.26384469551633005,-29.25
-53.0,0.0,-7.3125
-60.0,1.9573594853420784,-80.5625
-55.5,0.969475857943725,-14.625
-49.5,-2.5893595699509624,0.0
-46.5,-1.9082721001297376,4.875
-47.0,2.0800779483729293,-29.25
-60.0,1.662835174068035,58.5625
-61.5,-2.1721167956460676,95.1875
-55.5,-1.086058397823034,63.4375
-47.5,-0.5460971604872883,-2.4375
-53.0,-0.17794177139473438,-23.1875
-52.5,4.601942363656923,7.3125
-53.5,0.6688156235181397,-4.875
-62.0,-2.0739420252213874,14.625
-60.5,-2.356194490192345,26.8125
-53.5,4.908738521234052,-7.3125
-60.5,-5.031456984264903,-4.875
-38.5,5.092816215780329,-4.875
-36.0,-5.90889399493549,-2.4375
-61.5,3.3747577333484102,4.875
-58.0,-3.1784081924990484,-2.4375
-54.5,0.5338253141842031,-14.625
-56.5,4.8351074434155406,-39.0625
-63.5,-5.332117218690488,2.4375
-57.0,0.43565054375952206,19.5
-61.5,2.3377867207377174,114.6875
-61.5,0.8835729338221294,26.8125
-56.5,-2.4359614911623986,26.8125
-56.5,3.9944859716542096,7.3125
-61.5,-1.0492428589137788,46.375
-62.5,-1.4726215563702154,-24.375
-58.0,-1.3314953238847362,-21.9375
-58.5,-1.3069516312785665,34.125
-60.5,-0.521553467881118,4.875
-57.5,0.8283496254582463,-17.0625
-58.0,2.945243112740431,46.375
-62.5,-2.2396119503130363,46.375
-60.5,3.5465635815916023,-4.875
-59.5,-1.619883712007237,7.3125
-60.0,0.8160777791551608,-12.1875
-64.0,-0.9203884727313842,131.8125
-59.5,0.28838838812250067,-53.6875
-49.0,0.5338253141842029,19.5
-42.5,0.926524395882927,-2.4375
-58.5,-4.816699673960913,9.75
-62.0,5.043728830567988,53.6875
-55.5,0.8283496254582454,-14.625
-52.5,-5.976389149602458,4.875
-57.0,1.5585244804918115,29.25
-57.5,0.08590292412159606,12.1875
-52.5,0.748582624488193,-2.4375
-59.0,3.196815961953676,-26.8125
-39.5,-5.411884219660542,2.4375
-59.5,-0.37429131224409645,-14.625
-39.0,4.080388895775806,7.3125
-66.5,0.674951546669682,-21.9375
-57.0,-2.7857091108003242,4.875
-60.5,-0.5706408530934584,41.5
-57.5,-0.34974761963792633,19.5
-61.5,2.509592568980909,95.1875
-54.5,-2.804116880254952,-7.3125
-50.5,-0.6258641614573416,-7.3125
-61.0,2.5893595699509624,-17.0625
-53.0,-1.1167380135807468,29.25
-57.5,-0.6933593161243098,85.4375
-60.0,-0.6872233929727674,-14.625
-52.0,4.006757817957295,12.1875
-59.0,-3.178408192499049,2.4375
-61.5,4.516039439535327,-75.625
-60.0,-2.3009711818284613,56.125
-63.0,0.7915340865489906,26.8125
-61.5,-3.8779034317749006,-56.125
-58.0,5.540738605842936,-100.0625
-58.5,-5.098952138931871,-14.625
-55.5,0.34361169648638357,19.5
-59.0,2.0923497946760143,90.3125
-56.0,0.47246608266877743,56.125
-59.0,-3.3870295796514958,-34.125
-62.0,-0.07976700097005335,14.625
-61.0,0.5522330836388308,63.4375
-57.5,4.816699673960913,2.4375
-57.0,-0.030679615757712497,-53.6875
-58.5,-3.9392626632903265,46.375
-57.0,4.436272438565274,-58.5625
-61.5,-4.01902966426038,12.1875
-60.5,2.7059421098302714,-24.375
-53.0,-0.11044661672776623,-2.4375
-61.5,-3.1722722693475065,109.8125
-57.5,4.28287435977671,-21.9375
-62.5,-0.6688156235181397,21.9375
-63.0,-4.865787059173253,-34.125
-56.5,4.54671905529304,24.375
-60.0,-3.534291735288517,-14.625
-62.0,0.25770877236478773,83.0
-62.5,2.693670263527186,-12.1875
-56.5,-1.0308350894591505,58.5625
-61.5,-0.4724660826687779,-34.125
-63.0,2.356194490192345,148.875
-60.0,-4.871922982324796,17.0625
-60.5,1.9757672547967058,-9.75
-61.0,2.4175537217077707,34.125
-63.0,-3.8717675086233583,85.4375
-59.5,2.478912953223196,7.3125
-63.5,0.9510680884890972,166.0
-67.0,2.2641556429192065,144.0
-39.5,0.0,-4.875
-53.5,-3.6201946594101133,43.9375
-47.0,4.442408361716817,-9.75
-53.0,-0.19021361769781997,0.0
-41.0,-2.4543692606170255,0.0
-61.5,2.890019804376548,31.6875
-46.5,-0.527689391032661,0.0
-52.0,-1.0246991663076082,4.875
-51.5,1.9205439464328227,-9.75
-50.5,0.10431069357622391,12.1875
-53.0,-0.030679615757713385,12.1875
-61.0,1.0615147052168643,-9.75
-62.5,-3.5220198889854326,80.5625
-54.5,2.6384469551633027,0.0
-58.0,0.3558835427894689,-17.0625
-40.5,-5.3627968344482015,2.4375
-57.5,2.043262409463674,-2.4375
-57.5,2.276427489222292,9.75
-58.0,-0.8160777791551612,-14.625
-57.0,0.662679700366597,-4.875
-51.0,0.7608544707912781,14.625
-41.0,-1.8898643306751102,9.75
-56.0,-2.5586799541932495,-14.625
-50.5,0.9449321653375549,14.625
-54.0,2.282563412373834,0.0
-62.5,0.06135923151542588,-39.0625
-47.0,-0.9387962421860125,-19.5
-58.0,0.4908738521234053,0.0
-60.0,-0.19634954084936185,36.5625
-35.5,2.6323110320117604,14.625
-59.0,-2.8716120349219207,-34.125
-42.5,1.7978254834019718,-7.3125
-53.0,-1.1658253987930873,-7.3125
-52.5,-3.522019888985432,-7.3125
-53.0,2.9820586516496865,-4.875
-61.0,-3.215223731408304,75.625
-61.0,0.6872233929727672,48.8125
-54.0,4.3074180523828804,26.8125
-55.0,-1.4358060174609601,-14.625
-53.0,1.7119225592803753,58.5625
-60.5,-4.632621979414636,102.5
-53.0,3.8656315854718155,-2.4375
-56.5,-4.3933209765044765,36.5625
-53.0,5.062136600022616,-7.3125
-60.0,-0.25157284921324496,7.3125
-52.0,-3.1538644998928786,2.4375
-45.5,0.8038059328520759,4.875
-54.5,2.3684663364954304,12.1875
-62.5,-0.5031456984264908,54.875
-56.0,-0.3006602344255853,-17.0625
-52.5,-1.9757672547967062,34.125
-57.5,0.5276893910326605,-2.4375
-57.5,3.178408192499049,36.5625
-55.0,-4.945554060143307,-14.625
-62.5,1.4358060174609601,100.0625
-61.5,-2.2027964114037806,112.25
-52.5,1.0185632431560658,12.1875
-51.0,0.19021361769781953,-12.1875
-60.5,4.503767593232243,-46.375
-62.0,-0.4970097752749476,2.4375
-59.5,-0.09203884727313838,-17.0625
-64.0,-1.6751070203711205,117.1875
-63.5,-3.693825737228624,209.9375
-48.0,5.583690067903734,-14.625
-45.0,-0.9756117810952674,12.1875
-58.5,-3.141592653589793,4.875
-37.0,4.227651051412827,2.4375
-57.5,-5.313709449235861,4.875
-60.0,5.283029833478149,34.125
-51.0,0.31906800388021317,9.75
-51.0,-2.466641106920111,14.625
-49.0,-1.871456561220482,-2.4375
-52.5,1.3069516312785663,19.5
-55.0,0.6013204688511711,34.125
-60.0,-0.8222137023067035,70.75
-58.0,-2.6568547246179306,-65.875
-56.5,5.798447378207723,14.625
-55.5,-0.2699806186678728,17.0625
-54.5,-2.7120780329818137,0.0
-57.5,-1.7241944055834606,-4.875
-57.0,1.3437671701878215,2.4375
-58.5,-0.9817477042468101,2.4375
-38.0,3.7551849687440497,9.75
-49.5,-3.9576704327449543,-2.4375
-58.5,-0.9572040116406402,-51.25
-58.5,5.816855147662351,14.625
-56.0,-5.393476450205914,7.3125
-57.5,4.006757817957294,12.1875
-56.0,-2.405281875404685,53.6875
-53.5,1.454213786915588,12.1875
-57.5,1.1412817061869172,-21.9375
-58.5,-0.3988350048502669,-28.0625
-60.5,-2.9268353432858034,43.9375
-61.0,-0.9019807032767571,39.0625
-57.5,5.344389064993574,-7.3125
-60.0,-1.8591847149173963,9.75
-57.0,-1.3621749396424496,19.5
-58.0,2.65685472461793,17.0625
-61.5,-5.184855063053467,-42.6875
-60.0,1.7303303287350034,31.6875
-59.0,0.19634954084936185,34.125
-60.0,3.773592738198677,-12.1875
-60.0,-0.11044661672776623,51.25
-57.5,0.0,75.625
-61.5,-2.595495493102505,4.875
-66.5,0.47860200582032,24.375
-57.5,-0.11658253987930878,4.875
-55.5,0.5460971604872884,-7.3125
-61.5,-0.5031456984264904,4.875
-46.0,0.12271846303085132,-2.4375
-53.0,4.718524903536232,9.75
-57.5,-3.141592653589793,34.125
-62.5,0.748582624488193,61.0
-37.5,-3.0556897294681975,7.3125
-62.0,2.1659808724945253,-36.5625
-56.5,-2.705942109830271,-26.8125
-62.5,2.810252803406495,46.375
-42.0,2.914563496982718,-7.3125
-58.5,-2.748893571891069,12.1875
-60.5,-1.055378782065321,43.9375
-65.0,3.988350048502667,56.125
-59.5,-4.01902966426038,17.0625
-50.5,2.454369260617026,12.1875
-55.5,-0.8590292412159592,31.6875
-60.0,2.5464081078901644,-31.6875
-50.0,-2.3500585670408025,4.875
-57.0,-0.969475857943725,17.0625
-57.0,0.8651651643675016,70.75
-59.0,1.3560390164909069,17.0625
-59.0,-2.0248546400090466,24.375
-63.0,2.3623304133438876,-9.75
-58.5,-2.82252464970958,-29.25
-63.0,-1.098330244126119,141.5625
-53.5,1.2455923997631408,19.5
-51.5,0.0674951546669682,19.5
-40.0,2.3868741059500573,9.75
-63.5,-1.4726215563702154,9.75
-61.0,-3.5281558121369745,68.3125
-63.5,5.90889399493549,-39.0625
-62.0,-1.368310862793992,117.1875
-57.0,-3.258175193469102,34.125
-59.0,-0.5951845456996289,19.5
-58.0,4.1601558967458585,-9.75
-64.5,0.779262240245906,68.3125
-64.0,-5.368932757599744,29.25
-55.0,1.5401167110371838,61.0
-54.5,-0.10431069357622369,-2.4375
-60.0,2.0493983326152163,26.8125
-50.0,-1.7671458676442584,12.1875
-52.0,-2.0003109474028764,12.1875
-64.5,5.141903600992669,17.0625
-54.0,0.1288543861823941,-14.625
-52.5,-2.024854640009046,2.4375
-62.0,0.49087385212340484,-73.1875
-59.0,-2.024854640009046,83.0
-60.5,-1.2946797849754812,-7.3125
-62.5,3.9453985864418692,-26.8125
-65.0,-1.5462526341887268,122.0625
-62.0,0.3436116964863838,100.0625
-55.0,-0.8774370106705867,7.3125
-55.5,3.282718886075272,17.0625
-63.0,-0.23930100291015943,-100.0625
-65.5,0.5522330836388303,-87.875
-62.0,-5.620505606812989,70.75
-63.0,3.2090878082567613,75.625
-60.0,-1.1658253987930869,46.375
-63.5,1.1965050145507998,-56.125
-60.5,-1.086058397823034,17.0625
-62.5,1.6935147898257479,92.75
-66.5,-2.8654761117703775,21.9375
-64.0,-0.3067961575771283,-48.8125
-61.0,-0.03067961575771272,39.0625
-64.5,3.399301425954581,51.25
-49.0,1.3744467859455343,2.4375
-44.0,-2.8532042654672924,-7.3125
-48.5,3.0250101137104846,-9.75
-62.5,-1.3928545554001621,7.3125
-40.0,-3.331806271287613,4.875
-30.5,0.2270291566070748,7.3125
-45.5,2.7918450339518674,-17.0625
-39.5,-1.2824079386723963,7.3125
-56.0,3.11091303783208,-29.25
-35.5,-5.847534763420064,2.4375
-48.0,4.141748127291231,-2.4375
-48.5,-3.1231848841351653,24.375
-50.0,2.8532042654672924,-14.625
-47.0,-0.9817477042468101,9.75
-62.0,-1.9144080232812801,29.25
-57.0,2.313243028131547,-26.8125
-46.5,-2.570951800496334,4.875
-51.5,3.2274955777113883,-17.0625
-44.0,1.3130875544301093,29.25
-47.5,0.21475731030399015,7.3125
-63.5,-1.4051264017032477,-29.25
-52.0,-1.9082721001297376,-9.75
-48.0,1.4480778637640452,-21.9375
-61.5,2.264155642919206,-46.375
-49.5,-3.3870295796514953,17.0625
-57.0,-1.7180584824319183,-24.375
-60.5,4.473087977474529,58.5625
-58.5,-0.9142525495798424,-31.6875
-52.0,-3.319534424984527,2.4375
-48.0,0.8099418560036185,14.625
-50.0,-1.2026409377023426,0.0
-44.0,0.04908738521234057,9.75
-62.0,0.4049709280018092,65.875
-46.0,4.430136515413732,-12.1875
-61.5,-3.841087892865646,68.3125
-43.5,2.9268353432858034,0.0
-50.5,-2.564815877344792,17.0625
-52.5,-0.9633399347921825,12.1875
-46.5,0.1349903093339364,14.625
-43.5,4.3074180523828804,2.4375
-54.0,-2.8163887265580376,9.75
-45.0,0.41724277430489476,-7.3125
-66.5,-3.4361169648638366,29.25
-60.5,5.595961914206819,-9.75
-49.5,0.03681553890925571,25.625
-60.5,0.28838838812250067,46.375
-45.5,0.0,-2.4375
-43.5,1.4971652489763858,19.5
-55.0,0.9142525495798424,2.4375
-54.5,-1.0185632431560658,4.875
-48.0,2.0493983326152168,-14.625
-50.5,-3.1293208072867085,-24.375
-51.5,4.166291819897402,-2.4375
-47.5,-0.1656699250916489,26.8125
-59.5,-0.47246608266877743,-9.75
-65.0,-2.1843886419491536,4.875
-52.0,-1.859184714917397,-7.3125
-43.0,-1.1044661672776614,4.875
-47.0,2.0248546400090466,4.875
-53.0,-1.920543946432823,21.9375
-51.0,5.540738605842936,-4.875
-61.5,-5.71868037723767,70.75
-65.5,-0.09817477042468103,14.625
-37.0,4.47308797747453,0.0
-35.5,1.0615147052168634,9.75
-44.5,-0.4295146206079794,9.75
-53.0,-2.552544031041707,-12.1875
-58.5,-2.0616701789183014,36.5625
-43.5,3.3747577333484102,7.3125
-47.5,-0.2699806186678728,2.4375
-61.0,-0.7915340865489906,-26.8125
-47.0,-0.6994952392758522,26.8125
-63.0,-0.6933593161243101,87.875
-48.5,3.3256703481360708,12.1875
-53.0,-0.17794177139473444,51.25
-44.5,-1.116738013580747,0.0
-55.0,-0.9756117810952678,4.875
-43.5,-1.5830681730979819,9.75
-42.5,0.6381360077604268,0.0
-62.5,-0.760854470791278,56.125
-61.0,-0.3742913122440964,-14.625
-58.0,5.565282298449106,78.125
-56.5,-2.540272184738622,26.8125
-58.5,-2.945243112740431,34.125
-50.5,5.589825991055276,7.3125
-59.5,-3.337942194439155,-2.4375
-50.0,-0.25770877236478773,7.3125
-60.5,-0.2270291566070748,-51.25
-48.5,2.2027964114037806,-2.4375
-58.0,-4.04357335686655,12.1875
-51.0,3.9331267401387837,-24.375
-60.5,-2.644582878314845,0.0
-64.0,1.5217089415825558,-34.125
-51.0,2.399145952253143,34.125
-58.5,0.024543692606170175,-39.0625
-62.5,-3.000466421104314,-12.1875
-53.0,0.7547185476397353,0.0
-37.0,1.8039614065535146,0.0
-59.5,-3.810408277107933,-12.1875
-53.0,3.5711072741977725,12.1875
-60.0,1.0860583978230336,-53.6875
-55.5,-2.644582878314845,-2.4375
-40.0,1.208776860853885,9.75
-58.5,-2.577087723647877,19.5
-65.0,1.9757672547967053,-19.5
-58.5,-0.6135923151542562,-14.625
-49.5,0.2270291566070748,21.9375
-45.0,-2.356194490192345,9.75
-63.5,3.5526995047431456,63.4375
-57.0,-4.252194744018998,34.125
-61.0,0.6749515466696822,4.875
-60.0,3.2336315008629315,-43.9375
-53.0,-0.7792622402459055,24.375
-61.0,-0.4295146206079794,46.375
-52.5,0.5399612373357456,-4.875
-46.5,0.5645049299419163,-4.875
-57.5,-0.17794177139473444,-24.375
-48.5,-3.147728576741336,-7.3125
-56.5,2.877747958073463,-4.875
-60.5,-2.276427489222292,56.125
-61.0,2.337786720737717,63.4375
-58.0,-0.852893318064416,21.9375
-60.5,2.521864415283994,-14.625
-64.0,-2.4482333374654837,-61.0
-60.5,1.380582709097077,19.5
-56.0,1.1965050145507998,14.625
-63.5,-3.2581751934691012,36.5625
-60.5,-1.86532063806894,41.5
-54.5,2.859340188618835,19.5
-60.0,0.6933593161243095,51.25
-58.5,-1.104466167277661,48.8125
-61.0,1.7732817907958007,51.25
-60.5,-2.239611950313036,28.0625
-63.0,2.3623304133438876,-43.9375
-60.0,-4.301282129231338,58.5625
-42.5,2.2396119503130363,14.625
-58.5,0.0,43.9375
-54.0,-0.7424467013366502,21.9375
-56.5,0.6381360077604263,-34.125
-39.0,-0.779262240245906,4.875
-55.0,-0.294524311274043,-24.375
-54.0,0.45405831321415047,-9.75
-58.5,-4.95168998329485,80.5625
-62.0,5.283029833478148,39.0625
-59.0,-1.8100973297050564,0.0
-59.5,-0.012271846303085088,-12.1875
-62.0,2.5157284921324514,65.875
-53.0,-1.5033011721279284,-41.5
-50.5,-3.577243197349315,-17.0625
-58.0,-0.9387962421860123,48.8125
-61.0,2.227340104009951,-24.375
-56.5,-1.62601963515878,7.3125
-55.5,0.6688156235181395,31.6875
-62.0,0.7424467013366502,-24.375
-59.5,0.791534086548991,56.125
-61.0,0.17180584824319167,41.5
-58.0,-0.662679700366597,39.0625
-54.0,3.2520392703175593,19.5
-50.0,-4.3933209765044765,14.625
-54.0,1.0615147052168636,14.625
-55.0,1.2640001692177685,-2.4375
-43.0,-1.3437671701878218,14.625
-58.5,0.08590292412159606,14.625
-61.0,-0.8651651643675018,-17.0625
-60.5,1.7303303287350034,12.1875
-52.0,1.7916895602504286,-7.3125
-59.5,1.0799224746714913,39.0625
-50.5,-0.37429131224409584,14.625
-58.5,-0.6994952392758531,48.8125
-61.5,-1.9573594853420775,-2.4375
-63.0,0.4970097752749476,-92.75
-61.5,1.8591847149173968,24.375
-59.5,0.11658253987930856,17.0625
-61.5,-2.9881945748012284,53.6875
-58.5,-1.3192234775816516,-29.25
-51.5,-0.42337869745643697,-2.4375
-48.0,4.012893741108837,-2.4375
-47.0,-4.031301510563464,14.625
-44.0,0.1595340019401067,7.3125
-50.5,3.3808936564999534,17.0625
-39.5,0.9510680884890972,7.3125
-55.5,0.07976700097005374,-9.75
-45.5,-3.0863693452259104,2.4375
-60.0,2.294835258676919,68.3125
-62.0,-4.405592822807561,87.875
-54.5,3.368621810196868,46.375
-50.0,-1.337631247036279,2.4375
-56.0,-2.0125827937059615,21.9375
-52.5,6.086835766330224,-7.3125
-50.5,-4.405592822807561,-2.4375
-55.0,-0.4908738521234053,-9.75
-60.0,3.7797286613502195,-87.875
-60.5,-1.3560390164909064,170.875
-61.5,1.3376312470362786,-51.25
-66.0,-3.178408192499048,-146.4375
-34.5,3.13545673043825,7.3125
-54.0,-3.1231848841351653,-12.1875
-54.5,2.0493983326152163,21.9375
-60.5,0.49700977527494805,14.625
-56.5,-3.626330582561656,21.9375
-57.5,-0.7976700097005335,14.625
-61.0,3.6631461214709113,68.3125
-51.5,-3.055689729468197,-17.0625
-63.0,-0.11044661672776623,-14.625
-54.5,-0.3988350048502667,9.75
-56.5,1.3499030933393643,-9.75
-54.5,3.4177091954092083,26.8125
-52.0,-0.4663301595172342,-4.875
-54.5,-0.748582624488193,26.8125
-52.5,0.8651651643675016,2.4375
-53.0,1.3376312470362786,4.875
-57.0,-2.4973207226778236,4.875
-56.5,-2.5280003384355365,-4.875
-59.0,2.5954954931025047,34.125
-53.5,-2.994330497952771,-7.3125
-53.0,2.1168934872821845,25.625
-63.0,3.669282044622454,-19.5
-56.5,-3.0372819600135696,-9.75
-59.0,-2.2518837966161214,9.75
-60.5,0.3436116964863837,4.875
-60.0,4.264466590322082,4.875
-55.5,-3.5833791205008576,39.0625
-57.5,3.1354567304382504,-14.625
-51.5,-0.6994952392758522,-7.3125
-38.5,-0.7608544707912781,12.1875
-59.5,-2.1782527187976104,4.875
-56.5,3.0863693452259104,-2.4375
-54.5,0.9326603190344693,31.6875
-53.5,0.0,29.25
-34.5,4.1601558967458585,4.875
-51.5,-1.1658253987930873,9.75
-62.5,0.5092816215780331,39.0625
-37.5,0.2270291566070748,-4.875
-54.0,0.674951546669682,-21.9375
-57.5,-3.8963112012295285,21.9375
-52.5,0.43565054375952217,9.75
-57.0,-2.7550294950426113,24.375
-58.5,0.07976700097005335,-61.0
-55.5,5.743224069843841,17.0625
-67.5,-4.546719055293041,43.9375
-59.5,-0.6320000846088841,-4.875
-43.5,5.534602682691394,-7.3125
-59.0,-0.4601942363656928,-19.5
-55.5,-1.6689710972195773,9.75
-59.0,-3.4913402732277197,42.6875
-60.0,2.233476027161494,56.125
-59.0,3.2152237314083036,61.0
-60.5,-2.8225246497095795,41.5
-47.0,-0.9019807032767573,-4.875
-59.5,3.454524734318464,-34.125
-59.5,-3.2949907323783574,17.0625
-61.0,3.0188741905589422,-65.875
-58.0,-4.95168998329485,-17.0625
-57.5,4.080388895775806,36.5625
-50.5,-0.5829126993965437,19.5
-40.5,-3.761320891895592,2.4375
-41.0,4.000621894805753,4.875
-60.0,-1.5523885573402691,53.6875
-61.0,2.497320722677824,36.5625
-47.0,-3.669282044622454,7.3125
-53.0,1.9144080232812801,34.125
-64.0,1.546252634188726,34.125
-64.0,-0.5338253141842024,78.125
-62.0,-1.245592399763141,-139.125
-46.5,-1.7487380981896308,9.75
-63.0,-1.2026409377023428,17.0625
-60.0,5.497787143782138,-2.4375
-55.5,-3.657010198319369,9.75
-45.5,3.4729325037730914,-14.625
-62.5,-3.3011266555298993,85.4375
-60.5,-1.3069516312785665,36.5625
-56.5,1.8960002538266525,43.9375
-57.5,2.2150682577068657,21.9375
-55.5,-0.10431069357622302,4.875
-57.0,-2.6507188014663883,43.9375
-57.5,1.2087768608538854,43.9375
-58.5,-0.6074563920027143,34.125
-60.5,0.9633399347921827,26.8125
-59.0,-1.2701360923693108,28.0625
-63.0,-1.9328157927359078,31.6875
-60.0,-0.6320000846088842,-19.5
-62.0,3.6815538909255388,90.3125
-60.0,1.0983302441261187,53.6875
-57.0,-3.1600004230444205,26.8125
-60.0,2.521864415283994,-31.6875
-63.0,-1.4296700943094178,34.125
-60.0,-2.313243028131547,0.0
-55.0,-0.42337869745643697,-7.3125
-65.0,0.0674951546669682,-17.0625
-63.0,5.681864838328415,26.8125
-56.5,0.47246608266877743,0.0
-58.0,-0.4908738521234044,4.875
-58.0,-5.730952223540756,19.5
-62.0,1.6812429435226626,24.375
-64.0,-0.3313398501832985,29.25
-65.0,-0.6074563920027138,-41.5
-63.5,3.902447124381071,-12.1875
-37.5,-3.792000507653305,2.4375
-61.5,-0.46633015951723494,-68.3125
-43.0,3.718369429834794,-21.9375
-40.0,-1.7548740213411733,14.625
-55.5,-1.4480778637640452,41.5
-53.5,-0.7915340865489908,2.4375
-56.0,3.147728576741336,17.0625
-49.0,-1.5769322499464393,19.5
-60.5,4.485359823777615,104.9375
-49.0,-2.736621725587984,-14.625
-60.0,-0.12885438618239364,14.625
-47.5,-3.104777114680538,9.75
-59.0,0.0,34.125
-60.0,1.5830681730979819,4.875
-43.5,1.1535535524900022,-7.3125
-51.5,-0.9756117810952682,-36.5625
-32.5,-2.350058567040802,2.4375
-54.0,4.424000592262189,-2.4375
-59.0,-3.5036121195308048,2.4375
-57.0,1.2824079386723959,-21.9375
-37.0,-2.12916533358527,2.4375
-53.5,1.0369710126106935,-25.625
-59.5,2.718213956133356,111.0625
-49.5,-3.724505352986337,7.3125
-60.0,0.7424467013366505,53.6875
-52.5,3.8288160465625607,26.8125
-58.5,0.37429131224409673,-24.375
-62.5,-1.773281790795802,61.0
-46.0,1.853048791765855,12.1875
-45.0,-2.423689644859313,0.0
-39.5,-1.2333205534600555,17.0625
-57.5,0.5890486225480864,0.0
-60.5,2.877747958073463,43.9375
-59.0,-3.160000423044421,12.1875
-59.5,1.6505633277649494,0.0
-57.0,-3.3440781175906977,31.6875
-61.5,2.0064468705544183,-4.875
-58.0,0.16566992509164935,28.0625
-56.5,2.1598449493429825,39.0625
-57.0,-3.1170489609836225,0.0
-52.5,3.485204350076177,4.875
-60.0,-2.466641106920111,4.875
-62.5,2.5648158773447918,-73.1875
-63.0,-4.638757902566178,9.75
-59.0,4.3074180523828804,-12.1875
-57.5,-3.4115732722576655,-56.125
-58.5,-1.3376312470362792,53.6875
-62.0,3.9453985864418692,83.0
-59.5,1.5892040962495235,7.3125
-60.0,-4.743068596142402,39.0625
-62.0,2.478912953223196,-34.125
-55.5,-1.2087768608538854,58.5625
-37.0,3.4790684269246346,2.4375
-53.0,-0.7179030087304801,-2.4375
-37.5,0.07976700097005285,0.0
-57.5,0.3006602344255862,-61.0
-44.5,-0.1656699250916498,0.0
-62.5,0.2024854640009046,26.8125
-66.5,-2.8470683423157497,-2.4375
-58.5,0.14112623248547873,-9.75
-56.5,-0.14112623248547873,2.4375
-60.0,-1.3989904785517049,-24.375
-47.0,1.073786551519949,-2.4375
-55.5,1.5892040962495244,43.9375
-62.5,-3.724505352986337,-17.0625
-63.0,3.669282044622453,39.0625
-60.0,1.4173982480063323,4.875
-57.0,-4.908738521234051,-2.4375
-58.5,4.368777283898305,-61.0
-51.0,-0.030679615757712497,0.0
-63.5,-4.638757902566179,2.4375
-60.5,0.5092816215780329,21.9375
-52.5,5.246214294568893,-21.9375
-59.5,-0.1963495408493623,-32.9375
-60.0,-4.01902966426038,2.4375
-63.5,-0.11658253987930878,58.5625
-65.0,0.6749515466696823,24.375
-61.5,1.22104870715697,7.3125
-41.0,0.31293208072867085,4.875
-51.5,-2.055534255766759,24.375
-46.0,3.0311460368620273,-21.9375
-62.5,1.1474176293384595,-21.9375
-39.5,-6.227961998815704,2.4375
-53.0,3.147728576741336,0.0
-55.5,0.16566992509164935,7.3125
-60.5,-1.736466251886546,65.875
-51.5,-0.3620194659410114,7.3125
-59.0,2.7673013413456973,-14.625
-58.5,-3.8717675086233587,21.9375
-60.5,4.773748211900116,4.875
-58.5,-1.9021361769781953,97.625
-55.0,0.0,0.0
-57.5,2.6016314162540475,24.375
-60.0,-1.9266798695843654,9.75
-56.0,5.117359908386499,-48.8125
-53.0,-4.160155896745859,9.75
-60.5,1.540116711037184,29.25
-40.0,0.546097160487288,-2.4375
-39.0,-4.0742529726242624,-7.3125
-58.0,2.6998061866787286,12.1875
-58.5,-1.718058482431918,36.5625
-58.0,2.4973207226778236,21.9375
-60.5,-2.4175537217077703,34.125
-61.0,4.577398671050753,61.0
-52.0,0.11044661672776623,-21.9375
-60.5,-3.552699504743145,73.1875
-57.5,1.761009944492716,61.0
-62.5,-1.0615147052168639,153.75
-55.0,-2.0493983326152163,-9.75
-63.0,4.6448938257177215,-63.4375
-58.5,-5.540738605842936,41.5
-60.0,0.7179030087304801,7.3125
-60.0,4.988505522204106,-7.3125
-60.0,-2.810252803406495,-21.9375
-50.5,-1.5830681730979816,21.9375
-60.0,2.0493983326152168,-12.1875
-59.5,-2.000310947402876,26.8125
-46.5,3.6079228131070282,4.875
-49.5,-4.276738436625168,-17.0625
-59.5,3.5220198889854317,-19.5
-60.5,0.4049709280018092,26.8125
-63.5,-2.4727770300716534,-20.75
-59.0,-0.3620194659410112,4.875
-62.5,1.7426021750380882,0.0
-59.5,-3.4606606574700063,-2.4375
-65.0,2.9943304979527716,107.375
-49.5,1.3621749396424496,-4.875
-58.0,-3.0127382674074,-29.25
-55.5,1.4358060174609604,14.625
-43.0,1.5523885573402691,0.0
-58.5,1.7364662518865455,-14.625
-56.0,-1.4480778637640457,19.5
-36.5,-3.632466505713198,12.1875
-55.0,3.423845118560751,2.4375
-47.5,-4.196971435655114,0.0
-60.0,0.38656315854718154,-12.1875
-62.0,3.3440781175906977,53.6875
-60.0,-1.7916895602504286,63.4375
-63.5,0.9326603190344698,-2.4375
-40.0,-0.6442719309119691,2.4375
-34.0,-1.7241944055834608,14.625
-62.0,1.5462526341887264,14.625
-59.0,2.264155642919206,-48.8125
-59.0,0.24543692606170264,-39.0625
-59.5,-3.11091303783208,130.5625
-45.0,0.7976700097005334,2.4375
-37.5,-2.577087723647877,17.0625
-59.0,3.2336315008629315,43.9375
-57.0,-0.1963495408493623,-48.8125
-57.5,-0.7731263170943632,4.875
-54.0,3.9331267401387837,-7.3125
-37.5,-6.086835766330224,0.0
-60.0,0.0,21.9375
-55.5,-4.4362724385652745,24.375
-57.0,4.28287435977671,-61.0
-58.5,-2.6016314162540475,-17.0625
-36.5,-0.19021361769781953,2.4375
-50.5,4.516039439535328,-29.25
-61.5,-2.043262409463674,39.0625
-40.5,-2.7550294950426117,0.0
-48.0,0.055223308363882895,14.625
-58.5,-0.7731263170943631,53.6875
-54.5,3.055689729468197,-4.875
-47.5,0.38042723539563905,-9.75
-61.0,1.4726215563702159,-63.4375
-54.0,-4.3503695144436785,-12.1875
-52.5,1.6014759425526093,12.1875
-59.5,0.7731263170943632,39.0625
-51.5,2.1475731030398975,4.875
-52.5,-4.319689898685965,-4.875
-59.0,0.4233786974564371,0.0
-55.5,2.5525440310417062,-19.5
-64.0,-2.570951800496334,100.0625
-39.5,4.006757817957294,0.0
-36.5,-4.1172044346850605,4.875
-39.5,4.589670517353838,9.75
-55.0,-1.073786551519948,21.9375
-61.0,-2.6936702635271863,58.5625
-62.5,3.344078117590698,90.3125
-64.0,-0.3558835427894689,-29.25
-61.0,0.31293208072867085,26.8125
-60.5,-3.5220198889854326,-59.8125
-59.0,0.11044661672776623,-92.75
-62.5,-2.0800779483729293,43.9375
-57.5,0.9081166264282996,51.25
-61.0,4.313553975534424,26.8125
-57.0,-3.853359739168731,-7.3125
-57.0,1.4296700943094174,-9.75
-57.5,-0.883572933822129,4.875
-54.5,-0.5645049299419163,-19.5
-58.0,-0.8038059328520759,-9.75
-52.5,2.5648158773447918,46.375
-60.5,2.7366217255879843,117.1875
-50.5,-2.7304858024364416,9.75
-53.0,-0.48473792897186296,-29.25
-60.5,-0.674951546669682,17.0625
-57.5,-1.5462526341887262,14.625
-60.0,-0.3313398501832985,26.8125
-59.5,3.1968159619536762,36.5625
-56.5,-0.25157284921324496,36.5625
-60.0,-0.7547185476397358,19.5
-59.0,0.779262240245906,2.4375
-57.5,-1.3989904785517049,-24.375
-61.0,-0.19634954084936207,-187.9375
-53.5,1.4848934026733007,31.6875
-61.0,1.9450876390389933,-19.5
-64.5,-1.938951715887451,104.9375
-57.0,-1.816233252856599,0.0
-62.0,2.5034566458293668,85.4375
-58.0,-1.4296700943094178,-14.625
-65.0,2.2457478734645786,90.3125
-56.5,-0.006135923151542322,-17.0625
-60.5,-0.10431069357622391,-26.8125
-61.0,-4.331961744989051,-29.25
-59.5,2.2027964114037806,19.5
-57.5,1.6689710972195777,61.0
-61.5,-2.6016314162540475,58.5625
-63.5,-0.44792239006260726,-4.875
-64.0,5.105088062083413,107.375
-57.0,-1.7119225592803753,4.875
-64.5,-4.000621894805752,131.8125
-59.5,1.607611865704152,7.3125
-58.0,1.325359400733194,0.0
-62.5,0.6810874698212248,51.25
-60.5,-3.834951969714103,34.125
-66.5,4.9823695990525625,141.5625
-65.0,0.9142525495798424,36.5625
-47.0,-0.5460971604872888,-7.3125
-39.0,0.0,9.75
-63.5,-2.939107189588889,17.0625
-62.5,0.049087385212340795,173.3125
-57.5,-1.1535535524900022,43.9375
-41.0,1.1412817061869167,-2.4375
-48.0,2.0800779483729297,26.8125
-48.5,-2.043262409463674,4.875
-43.0,-1.5401167110371838,9.75
-36.5,4.246058820867455,-2.4375
-36.5,-1.5278448647340985,7.3125
-57.5,-3.644738352016283,43.9375
-50.5,3.601786889955485,-14.625
-57.5,0.41110685115335244,12.1875
-55.0,-0.9449321653375553,-7.3125
-64.5,-3.1600004230444205,-14.625
-59.5,-0.018407769454627687,31.6875
-53.0,0.9081166264282996,21.9375
-52.0,2.9513790358919736,17.0625
-37.0,0.527689391032661,9.75
-62.0,-2.6752624940725585,0.0
-48.0,-1.0062913968529807,2.4375
-52.5,2.184388641949153,-2.4375
-54.5,-0.7608544707912781,19.5
-46.5,1.2149127840054277,9.75
-60.5,2.258019719767664,48.8125
-53.5,-5.577554144752192,-14.625
-51.5,5.1725832167503825,-4.875
-54.0,0.5583690067903735,17.0625
-57.0,-1.0921943209745768,9.75
-57.5,-4.9394181369917645,7.3125
-40.5,5.221670601962722,7.3125
-48.0,-1.1290098598838316,-2.4375
-62.5,1.3867186322486198,90.3125
-51.5,0.28225246497095746,7.3125
-59.0,-1.349903093339364,58.5625
-62.0,0.9081166264283,26.8125
-61.0,-2.779573187648782,-70.75
-62.5,3.577243197349315,29.25
-54.0,-4.264466590322082,-7.3125
-64.0,0.7179030087304803,41.5
-57.5,1.6873788666742047,-4.875
-42.0,-1.4358060174609597,12.1875
-57.5,0.30066023442558576,65.875
-58.0,-0.9019807032767573,-7.3125
-55.0,-1.8407769454627692,-9.75
-63.0,4.908738521234051,-95.1875
-64.0,-4.626486056263094,85.4375
-58.0,0.7853981633974483,43.9375
-59.5,2.2825634123738343,0.0
-61.5,-1.8346410223112268,39.0625
-57.0,1.1965050145508,78.125
-59.0,2.227340104009951,156.25
-58.5,-5.313709449235861,-12.1875
-62.5,2.3623304133438876,9.75
-64.0,2.0064468705544187,131.8125
-46.0,0.0,0.0
-42.0,-1.2210487071569702,9.75
-48.5,1.0124273200045233,4.875
-50.5,1.9634954084936203,-12.1875
-37.5,1.6076118657041523,12.1875
-63.0,0.5031456984264899,26.8125
-35.5,-0.8651651643675011,14.625
-57.5,0.24543692606170264,41.5
-37.0,-0.8958447801252145,4.875
-53.5,-0.006135923151542322,14.625
-56.5,-2.300971181828462,12.1875
-60.5,2.423689644859313,-51.25
-51.5,-4.23378697456437,-2.4375
-35.0,3.8533597391687304,4.875
-58.5,-1.1228739367322893,-34.125
-55.0,1.6321555583103224,46.375
-61.0,0.8528933180644165,-26.8125
-57.5,-3.117048960983623,29.25
-52.0,-0.19021361769781953,17.0625
-55.0,-1.8837284075235674,-9.75
-51.5,0.4663301595172349,-7.3125
-45.0,2.5586799541932495,7.3125
-55.0,2.2089323345553233,7.3125
-58.5,-3.9269908169872414,43.9375
-54.5,0.9203884727313849,24.375
-50.0,-2.6077673394055902,-12.1875
-61.5,2.779573187648782,78.125
-55.0,0.3620194659410112,-14.625
-57.0,-2.509592568980909,12.1875
-57.0,0.25770877236478773,48.8125
-59.0,-0.4663301595172349,14.625
-49.5,3.5833791205008576,-9.75
-39.5,-1.5707963267948966,9.75
-61.0,2.423689644859313,2.4375
-59.5,0.41724277430489476,-7.3125
-42.0,-0.23930100291016032,17.0625
-53.0,-1.6996507129772902,-14.625
-55.0,2.6691265709210152,4.875
-60.0,-0.15953400194010658,9.75
-63.0,-1.0185632431560654,-54.875
-56.5,-1.0676506283684066,-53.6875
-58.0,-2.0371264863121312,63.4375
-51.5,-0.5031456984264904,19.5
-59.5,4.4362724385652745,-26.8125
-57.0,-2.3684663364954304,0.0
-60.5,-2.9145634969827183,-36.5625
-64.0,3.331806271287612,-85.4375
-60.0,2.2334760271614935,-4.875
-56.0,-3.693825737228624,12.1875
-56.5,2.687534340375643,43.9375
-63.0,0.6626797003665974,46.375
-63.5,-5.424156065963627,48.8125
-57.0,1.368310862793992,70.75
-62.5,2.890019804376548,-14.625
-39.5,0.0,2.4375
-31.5,-1.7426021750380885,17.0625
-46.5,-0.28225246497095813,7.3125
-34.5,0.28225246497095813,2.4375
-60.5,3.288854809226815,114.6875
-50.5,0.21475731030398926,-12.1875
-46.5,0.09203884727313838,-7.3125
-64.5,0.018407769454627854,-21.9375
-56.0,-3.012738267407399,2.4375
-55.5,-1.0615147052168639,4.875
-56.5,-0.6749515466696822,-19.5
-35.5,0.3620194659410113,2.4375
-54.5,0.07976700097005335,-17.0625
-45.0,-0.4540583132141498,-12.1875
-62.0,2.705942109830271,19.5
-52.5,-0.3497476196379261,-7.3125
-60.0,0.9817477042468106,-19.5
-36.5,2.8532042654672924,2.4375
-47.0,-3.147728576741336,-4.875
-52.5,-0.024543692606170175,24.375
-57.5,2.914563496982718,-31.6875
-53.5,-2.503456645829366,43.9375
-63.0,-2.1230294104337277,29.25
-50.5,-0.9142525495798421,4.875
-59.5,2.509592568980909,39.0625
-54.0,-0.791534086548991,-4.875
-56.0,-1.306951631278566,31.6875
-51.5,3.6815538909255388,14.625
-55.5,-3.509748042682347,24.375
-61.0,0.7240389318820226,21.9375
-55.0,3.331806271287612,-21.9375
-58.5,-0.9510680884890972,46.375
-59.5,-1.7426021750380887,31.6875
-37.5,-1.9021361769781948,9.75
-39.5,3.908583047532614,4.875
-56.0,-1.6935147898257483,36.5625
-58.0,1.7241944055834608,26.8125
-60.0,-3.6876898140770815,-90.3125
-58.5,3.7981364308048478,19.5
-62.0,-3.890175278077986,-4.875
-56.0,1.5462526341887264,12.1875
-60.0,-1.3130875544301088,46.375
-46.0,4.577398671050753,9.75
-55.0,0.37429131224409673,-24.375
-58.5,-2.1659808724945258,48.8125
-57.5,-0.4908738521234053,29.25
-64.5,1.3376312470362794,65.875
-63.0,0.06135923151542588,39.0625
-62.0,0.5522330836388303,9.75
-62.0,-2.337786720737717,-36.5625
-62.5,2.779573187648782,0.0
-59.0,-0.4356505437595226,41.5
-52.5,-3.196815961953676,24.375
-61.0,-1.761009944492716,58.5625
-62.0,3.2397674240144743,73.1875
-63.0,-0.6013204688511715,80.5625
-58.0,-2.478912953223196,-2.4375
-56.5,1.0185632431560658,-4.875
-52.0,1.9266798695843654,7.3125
-58.5,0.07976700097005329,-4.875
-58.0,1.822369176008142,36.5625
-58.0,-4.23378697456437,-19.5
-57.5,0.8958447801252144,21.9375
-57.0,-0.8099418560036185,-26.8125
-58.5,0.0,-26.8125
-56.5,2.7857091108003247,4.875
-58.5,-1.8469128686143121,12.1875
-62.0,-0.1288543861823941,26.8125
-55.5,0.08590292412159606,-2.4375
-39.5,-3.393165502803038,-2.4375
-54.0,2.4973207226778236,2.4375
-52.0,-0.33133985018329826,0.0
-34.5,-0.22702915660707523,-4.875
-39.5,3.7735927381986776,4.875
-58.5,-5.730952223540756,-56.125
-49.5,3.767456815047135,12.1875
-54.5,-2.4359614911623986,-53.6875
