300833B2DDD9014000000000,865.7,3.2090878,-6.5
300833B2DDD9014000000000,865.7,2.6998062,0.8125
300833B2DDD9014000000000,865.7,5.2093987,4.875
300833B2DDD9014000000000,865.7,4.4301367,-2.4375
300833B2DDD9014000000000,865.7,0.7485826,7.3125
300833B2DDD9014000000000,865.7,3.2213597,-11.375
300833B2DDD9014000000000,865.7,1.4971652,4.875
300833B2DDD9014000000000,865.7,2.883884,1.625
300833B2DDD9014000000000,865.7,0.11658254,1.625
300833B2DDD9014000000000,865.7,3.8656316,-5.6875
300833B2DDD9014000000000,865.7,4.233787,-2.4375
300833B2DDD9014000000000,865.7,5.8843503,9.75
300833B2DDD9014000000000,865.7,0.9142526,5.6875
300833B2DDD9014000000000,865.7,3.1538644,1.625
300833B2DDD9014000000000,865.7,3.2397673,-2.4375
300833B2DDD9014000000000,865.7,2.8593402,-0.8125
300833B2DDD9014000000000,865.7,1.0615147,8.125
300833B2DDD9014000000000,865.7,2.5034566,7.3125
300833B2DDD9014000000000,865.7,3.037282,-2.4375
300833B2DDD9014000000000,865.7,2.2886994,3.25
300833B2DDD9014000000000,865.7,3.1600003,0.8125
300833B2DDD9014000000000,865.7,0.11658254,0.8125
300833B2DDD9014000000000,865.7,2.9329712,-9.75
300833B2DDD9014000000000,865.7,4.417865,0.8125
300833B2DDD9014000000000,865.7,3.2213597,1.625
300833B2DDD9014000000000,865.7,1.1412817,0.0
300833B2DDD9014000000000,865.7,3.031146,0.8125
300833B2DDD9014000000000,865.7,5.9579816,1.625
300833B2DDD9014000000000,865.7,3.2213597,-8.9375
300833B2DDD9014000000000,865.7,0.9387962,6.5
300833B2DDD9014000000000,865.7,2.804117,4.875
300833B2DDD9014000000000,865.7,0.7853982,-3.25
300833B2DDD9014000000000,865.7,5.1541753,4.875
300833B2DDD9014000000000,865.7,2.6875343,-3.25
300833B2DDD9014000000000,865.7,2.2580197,3.25
300833B2DDD9014000000000,865.7,2.4973207,4.0625
300833B2DDD9014000000000,865.7,1.5462526,0.8125
300833B2DDD9014000000000,865.7,3.8165443,0.8125
300833B2DDD9014000000000,865.7,4.221515,1.625
300833B2DDD9014000000000,865.7,0.94493216,7.3125
300833B2DDD9014000000000,865.7,3.110913,6.5
300833B2DDD9014000000000,865.7,3.2459033,-0.8125
300833B2DDD9014000000000,865.7,5.11736,3.25
300833B2DDD9014000000000,865.7,2.6936703,-1.625
300833B2DDD9014000000000,865.7,2.1905246,11.375
300833B2DDD9014000000000,865.7,5.8536706,17.0625
300833B2DDD9014000000000,865.7,2.9145634,-4.0625
300833B2DDD9014000000000,865.7,1.5401167,0.0
300833B2DDD9014000000000,865.7,0.12271846,0.0
300833B2DDD9014000000000,865.7,2.9943304,9.75
300833B2DDD9014000000000,865.7,2.8409324,-0.8125
300833B2DDD9014000000000,865.7,4.239923,-0.8125
300833B2DDD9014000000000,865.7,0.7853982,-0.8125
300833B2DDD9014000000000,865.7,4.411729,1.625
300833B2DDD9014000000000,865.7,3.7858646,2.4375
300833B2DDD9014000000000,865.7,1.0431069,8.125
300833B2DDD9014000000000,865.7,2.4850488,1.625
300833B2DDD9014000000000,865.7,3.2459033,-32.5
300833B2DDD9014000000000,865.7,2.9145634,-4.875
300833B2DDD9014000000000,865.7,4.405593,0.0
300833B2DDD9014000000000,865.7,3.0618258,-1.625
300833B2DDD9014000000000,865.7,0.10431069,4.0625
300833B2DDD9014000000000,865.7,3.123185,-12.1875
300833B2DDD9014000000000,865.7,0.9387962,8.125
300833B2DDD9014000000000,865.7,5.1541753,0.8125
300833B2DDD9014000000000,865.7,2.2825634,1.625
300833B2DDD9014000000000,865.7,3.1354568,3.25
300833B2DDD9014000000000,865.7,4.227651,0.0
300833B2DDD9014000000000,865.7,3.8349519,-1.625
300833B2DDD9014000000000,865.7,1.1535536,-1.625
300833B2DDD9014000000000,865.7,3.2152238,4.875
300833B2DDD9014000000000,865.7,5.91503,8.125
300833B2DDD9014000000000,865.7,2.5218644,0.0
300833B2DDD9014000000000,865.7,0.7608545,0.8125
300833B2DDD9014000000000,865.7,2.8470683,-5.6875
300833B2DDD9014000000000,865.7,1.5094371,4.875
300833B2DDD9014000000000,865.7,2.6875343,-2.4375
300833B2DDD9014000000000,865.7,3.0925052,-12.1875
300833B2DDD9014000000000,865.7,1.5094371,4.0625
300833B2DDD9014000000000,865.7,2.313243,0.8125
300833B2DDD9014000000000,865.7,2.6875343,1.625
300833B2DDD9014000000000,865.7,3.8226802,-2.4375
300833B2DDD9014000000000,865.7,4.227651,0.8125
300833B2DDD9014000000000,865.7,0.9510681,4.875
300833B2DDD9014000000000,865.7,5.166447,2.4375
300833B2DDD9014000000000,865.7,4.399457,0.0
300833B2DDD9014000000000,865.7,0.75471854,6.5
300833B2DDD9014000000000,865.7,3.123185,4.875
300833B2DDD9014000000000,865.7,3.202952,5.6875
300833B2DDD9014000000000,865.7,2.9145634,-2.4375
300833B2DDD9014000000000,865.7,0.09203885,4.875
300833B2DDD9014000000000,865.7,5.8782144,15.4375
300833B2DDD9014000000000,865.7,2.8225245,-0.8125
300833B2DDD9014000000000,865.7,2.552544,-4.0625
300833B2DDD9014000000000,865.7,3.0740974,-4.0625
300833B2DDD9014000000000,865.7,1.0860584,6.5
300833B2DDD9014000000000,865.7,3.8410878,0.0
300833B2DDD9014000000000,865.7,1.0431069,16.25
300833B2DDD9014000000000,865.7,3.2459033,0.0
300833B2DDD9014000000000,865.7,3.1293209,4.875
300833B2DDD9014000000000,865.7,0.7424467,7.3125
300833B2DDD9014000000000,865.7,4.381049,2.4375
300833B2DDD9014000000000,865.7,2.8470683,-1.625
300833B2DDD9014000000000,865.7,2.5280004,0.0
300833B2DDD9014000000000,865.7,0.11658254,0.0
300833B2DDD9014000000000,865.7,2.9145634,-1.625
300833B2DDD9014000000000,865.7,1.521709,5.6875
300833B2DDD9014000000000,865.7,3.0066023,6.5
300833B2DDD9014000000000,865.7,5.2278066,4.875
300833B2DDD9014000000000,865.7,2.6875343,0.0
300833B2DDD9014000000000,865.7,5.8536706,20.3125
300833B2DDD9014000000000,865.7,4.2092433,-2.4375
300833B2DDD9014000000000,865.7,0.93266034,8.125
300833B2DDD9014000000000,865.7,3.1661363,-8.9375
300833B2DDD9014000000000,865.7,2.3561945,8.9375
300833B2DDD9014000000000,865.7,1.2640002,12.1875
300833B2DDD9014000000000,865.7,1.3437672,6.5
300833B2DDD9014000000000,865.7,1.7364663,-2.4375
300833B2DDD9014000000000,865.7,6.092972,8.125
300833B2DDD9014000000000,865.7,2.7611654,-7.3125
300833B2DDD9014000000000,865.7,4.460816,0.8125
300833B2DDD9014000000000,865.7,4.227651,0.8125
300833B2DDD9014000000000,865.7,5.896622,14.625
300833B2DDD9014000000000,865.7,3.2459033,1.625
300833B2DDD9014000000000,865.7,3.2274957,2.4375
300833B2DDD9014000000000,865.7,1.030835,4.875
300833B2DDD9014000000000,865.7,3.6508744,0.8125
300833B2DDD9014000000000,865.7,0.73017484,-6.5
300833B2DDD9014000000000,865.7,2.871612,2.4375
300833B2DDD9014000000000,865.7,0.08590292,0.8125
300833B2DDD9014000000000,865.7,2.6261752,-11.375
300833B2DDD9014000000000,865.7,3.4913402,-21.125
300833B2DDD9014000000000,865.7,2.9084275,2.4375
300833B2DDD9014000000000,865.7,2.638447,-6.5
300833B2DDD9014000000000,865.7,6.1175156,1.625
300833B2DDD9014000000000,865.7,4.4424086,4.0625
300833B2DDD9014000000000,865.7,5.939574,8.9375
300833B2DDD9014000000000,865.7,0.07363108,4.875
300833B2DDD9014000000000,865.7,1.675107,6.5
300833B2DDD9014000000000,865.7,4.258331,-3.25
300833B2DDD9014000000000,865.7,3.264311,0.8125
300833B2DDD9014000000000,865.7,3.2336316,2.4375
300833B2DDD9014000000000,865.7,1.3867186,1.625
300833B2DDD9014000000000,865.7,0.61972827,12.1875
300833B2DDD9014000000000,865.7,1.3130876,4.875
300833B2DDD9014000000000,865.7,3.6140587,8.125
300833B2DDD9014000000000,865.7,2.9145634,-1.625
300833B2DDD9014000000000,865.7,1.0492429,0.8125
300833B2DDD9014000000000,865.7,2.6016314,-6.5
300833B2DDD9014000000000,865.7,2.9206994,1.625
300833B2DDD9014000000000,865.7,3.429981,-17.0625
300833B2DDD9014000000000,865.7,2.6016314,-2.4375
300833B2DDD9014000000000,865.7,2.7488935,-4.875
300833B2DDD9014000000000,865.7,2.9145634,0.8125
300833B2DDD9014000000000,865.7,4.239923,0.0
300833B2DDD9014000000000,865.7,6.074564,8.9375
300833B2DDD9014000000000,865.7,2.6139033,-5.6875
300833B2DDD9014000000000,865.7,3.6324666,1.625
300833B2DDD9014000000000,865.7,3.2581751,-2.4375
300833B2DDD9014000000000,865.7,2.6139033,-5.6875
300833B2DDD9014000000000,865.7,4.4424086,4.875
300833B2DDD9014000000000,865.7,1.6137478,10.5625
300833B2DDD9014000000000,865.7,1.0553788,4.875
300833B2DDD9014000000000,865.7,3.276583,2.4375
300833B2DDD9014000000000,865.7,1.3805827,3.25
300833B2DDD9014000000000,865.7,5.921166,13.0
300833B2DDD9014000000000,865.7,2.9022915,4.0625
300833B2DDD9014000000000,865.7,0.10431069,0.8125
300833B2DDD9014000000000,865.7,2.7366216,-0.8125
300833B2DDD9014000000000,865.7,0.65040785,7.3125
300833B2DDD9014000000000,865.7,3.423845,-12.1875
300833B2DDD9014000000000,865.7,1.3192235,4.875
300833B2DDD9014000000000,865.7,1.4173982,-7.3125
300833B2DDD9014000000000,865.7,4.4792237,-2.4375
300833B2DDD9014000000000,865.7,1.3192235,2.4375
300833B2DDD9014000000000,865.7,3.2336316,1.625
300833B2DDD9014000000000,865.7,1.0492429,5.6875
300833B2DDD9014000000000,865.7,3.6324666,4.875
300833B2DDD9014000000000,865.7,6.1113796,0.8125
300833B2DDD9014000000000,865.7,4.2706027,-0.8125
300833B2DDD9014000000000,865.7,2.804117,-10.5625
300833B2DDD9014000000000,865.7,0.09817477,0.8125
300833B2DDD9014000000000,865.7,5.933438,10.5625
300833B2DDD9014000000000,865.7,2.9145634,-0.8125
300833B2DDD9014000000000,865.7,2.6261752,-8.9375
300833B2DDD9014000000000,865.7,2.9452431,-5.6875
300833B2DDD9014000000000,865.7,3.264311,1.625
300833B2DDD9014000000000,865.7,3.4667966,-12.1875
300833B2DDD9014000000000,865.7,0.67495155,-2.4375
300833B2DDD9014000000000,865.7,2.55868,0.0
300833B2DDD9014000000000,865.7,1.5892041,7.3125
300833B2DDD9014000000000,865.7,2.963651,-7.3125
300833B2DDD9014000000000,865.7,5.91503,13.0
300833B2DDD9014000000000,865.7,6.0807,5.6875
300833B2DDD9014000000000,865.7,0.6320001,3.25
300833B2DDD9014000000000,865.7,2.9145634,0.8125
300833B2DDD9014000000000,865.7,4.473088,1.625
300833B2DDD9014000000000,865.7,4.2828746,0.8125
300833B2DDD9014000000000,865.7,1.4235342,-3.25
300833B2DDD9014000000000,865.7,2.7734373,-4.875
300833B2DDD9014000000000,865.7,1.2946798,8.125
300833B2DDD9014000000000,865.7,3.270447,1.625
300833B2DDD9014000000000,865.7,3.2459033,0.8125
300833B2DDD9014000000000,865.7,1.0737865,3.25
300833B2DDD9014000000000,865.7,3.6324666,0.0
300833B2DDD9014000000000,865.7,0.09817477,-0.8125
300833B2DDD9014000000000,865.7,2.5341363,1.625
300833B2DDD9014000000000,865.7,2.5770876,0.0
300833B2DDD9014000000000,865.7,1.5585245,5.6875
300833B2DDD9014000000000,865.7,3.4913402,-25.1875
300833B2DDD9014000000000,865.7,1.5830681,0.8125
300833B2DDD9014000000000,865.7,4.4792237,0.0
300833B2DDD9014000000000,865.7,3.2520392,0.8125
300833B2DDD9014000000000,865.7,3.429981,-11.375
300833B2DDD9014000000000,865.7,4.301282,0.8125
300833B2DDD9014000000000,865.7,1.0676507,2.4375
300833B2DDD9014000000000,865.7,0.6872234,-0.8125
300833B2DDD9014000000000,865.7,2.55868,0.0
300833B2DDD9014000000000,865.7,5.933438,10.5625
300833B2DDD9014000000000,865.7,2.8532043,8.9375
300833B2DDD9014000000000,865.7,3.3011267,-0.8125
300833B2DDD9014000000000,865.7,1.3928546,0.8125
300833B2DDD9014000000000,865.7,2.7550294,1.625
300833B2DDD9014000000000,865.7,2.9329712,0.8125
300833B2DDD9014000000000,865.7,0.07363108,4.875
300833B2DDD9014000000000,865.7,3.5711074,8.125
300833B2DDD9014000000000,865.7,2.5341363,-2.4375
300833B2DDD9014000000000,865.7,6.0254765,7.3125
300833B2DDD9014000000000,865.7,1.276272,8.125
300833B2DDD9014000000000,865.7,1.3805827,3.25
300833B2DDD9014000000000,865.7,2.478913,5.6875
300833B2DDD9014000000000,865.7,1.2640002,9.75
300833B2DDD9014000000000,865.7,1.5339808,3.25
300833B2DDD9014000000000,865.7,1.0921943,4.875
300833B2DDD9014000000000,865.7,3.417709,-14.625
300833B2DDD9014000000000,865.7,6.0254765,3.25
300833B2DDD9014000000000,865.7,3.2581751,0.8125
300833B2DDD9014000000000,865.7,3.5711074,4.0625
300833B2DDD9014000000000,865.7,4.4853597,1.625
300833B2DDD9014000000000,865.7,2.9391072,-1.625
300833B2DDD9014000000000,865.7,4.313554,1.625
300833B2DDD9014000000000,865.7,3.2949908,0.0
300833B2DDD9014000000000,865.7,2.8470683,9.75
300833B2DDD9014000000000,865.7,2.552544,1.625
300833B2DDD9014000000000,865.7,5.9579816,10.5625
300833B2DDD9014000000000,865.7,0.6565438,4.0625
300833B2DDD9014000000000,865.7,2.7857091,-6.5
300833B2DDD9014000000000,865.7,0.05522331,4.875
300833B2DDD9014000000000,865.7,3.282719,4.875
300833B2DDD9014000000000,865.7,2.804117,-5.6875
300833B2DDD9014000000000,865.7,4.3258257,1.625
300833B2DDD9014000000000,865.7,1.4971652,3.25
300833B2DDD9014000000000,865.7,0.05522331,6.5
300833B2DDD9014000000000,865.7,2.871612,4.0625
300833B2DDD9014000000000,865.7,4.4976315,-0.8125
300833B2DDD9014000000000,865.7,1.276272,7.3125
300833B2DDD9014000000000,865.7,3.5465636,4.0625
300833B2DDD9014000000000,865.7,3.4545248,-14.625
300833B2DDD9014000000000,865.7,3.2581751,2.4375
300833B2DDD9014000000000,865.7,5.9947968,5.6875
300833B2DDD9014000000000,865.7,2.9329712,0.8125
300833B2DDD9014000000000,865.7,6.0009327,11.375
300833B2DDD9014000000000,865.7,1.4051265,4.875
300833B2DDD9014000000000,865.7,2.55868,-6.5
300833B2DDD9014000000000,865.7,1.1106021,2.4375
300833B2DDD9014000000000,865.7,0.6565438,2.4375
300833B2DDD9014000000000,865.7,2.4605052,5.6875
300833B2DDD9014000000000,865.7,4.3442335,0.8125
300833B2DDD9014000000000,865.7,3.3072627,0.0
300833B2DDD9014000000000,865.7,2.5034566,0.0
300833B2DDD9014000000000,865.7,1.4112623,7.3125
300833B2DDD9014000000000,865.7,2.7550294,3.25
300833B2DDD9014000000000,865.7,2.957515,-3.25
300833B2DDD9014000000000,865.7,3.2459033,2.4375
300833B2DDD9014000000000,865.7,1.1044662,6.5
300833B2DDD9014000000000,865.7,0.6872234,-3.25
300833B2DDD9014000000000,865.7,0.06135923,4.0625
300833B2DDD9014000000000,865.7,3.5342917,2.4375
300833B2DDD9014000000000,865.7,3.2888548,3.25
300833B2DDD9014000000000,865.7,2.871612,-2.4375
300833B2DDD9014000000000,865.7,4.4914956,-0.8125
300833B2DDD9014000000000,865.7,1.2701361,4.0625
300833B2DDD9014000000000,865.7,5.9518456,13.8125
300833B2DDD9014000000000,865.7,6.056156,0.0
300833B2DDD9014000000000,865.7,1.441942,2.4375
300833B2DDD9014000000000,865.7,2.4973207,1.625
300833B2DDD9014000000000,865.7,4.4853597,3.25
300833B2DDD9014000000000,865.7,2.8654761,0.8125
300833B2DDD9014000000000,865.7,1.1106021,6.5
300833B2DDD9014000000000,865.7,4.374913,0.0
300833B2DDD9014000000000,865.7,6.0193405,3.25
300833B2DDD9014000000000,865.7,1.5278449,-10.5625
300833B2DDD9014000000000,865.7,3.2581751,2.4375
300833B2DDD9014000000000,865.7,1.2517283,8.125
300833B2DDD9014000000000,865.7,2.957515,-1.625
300833B2DDD9014000000000,865.7,0.5890486,5.6875
300833B2DDD9014000000000,865.7,2.8347964,-7.3125
300833B2DDD9014000000000,865.7,5.9457097,12.1875
300833B2DDD9014000000000,865.7,0.04295146,4.0625
300833B2DDD9014000000000,865.7,3.509748,4.0625
300833B2DDD9014000000000,865.7,3.3256702,-1.625
300833B2DDD9014000000000,865.7,2.4850488,-10.5625
300833B2DDD9014000000000,865.7,3.4852045,-25.1875
300833B2DDD9014000000000,865.7,2.5218644,-4.0625
300833B2DDD9014000000000,865.7,1.3744467,4.875
300833B2DDD9014000000000,865.7,6.0316124,-0.8125
300833B2DDD9014000000000,865.7,4.5099034,-0.8125
300833B2DDD9014000000000,865.7,3.3072627,1.625
300833B2DDD9014000000000,865.7,1.2701361,2.4375
300833B2DDD9014000000000,865.7,1.1412817,1.625
300833B2DDD9014000000000,865.7,0.04295146,4.0625
300833B2DDD9014000000000,865.7,1.4787575,0.8125
300833B2DDD9014000000000,865.7,4.405593,0.0
300833B2DDD9014000000000,865.7,3.2581751,0.8125
300833B2DDD9014000000000,865.7,1.3499031,5.6875
300833B2DDD9014000000000,865.7,3.4790685,-14.625
300833B2DDD9014000000000,865.7,3.4606607,7.3125
300833B2DDD9014000000000,865.7,0.65040785,-0.8125
300833B2DDD9014000000000,865.7,5.9579816,4.875
300833B2DDD9014000000000,865.7,2.9820588,-3.25
300833B2DDD9014000000000,865.7,2.8593402,1.625
300833B2DDD9014000000000,865.7,2.4482334,5.6875
300833B2DDD9014000000000,865.7,2.8286605,-3.25
300833B2DDD9014000000000,865.7,2.478913,-11.375
300833B2DDD9014000000000,865.7,2.883884,-5.6875
300833B2DDD9014000000000,865.7,2.4605052,-13.0
300833B2DDD9014000000000,865.7,0.03681554,2.4375
300833B2DDD9014000000000,865.7,2.9391072,3.25
300833B2DDD9014000000000,865.7,3.3011267,2.4375
300833B2DDD9014000000000,865.7,1.1351458,3.25
300833B2DDD9014000000000,865.7,4.4240007,0.8125
300833B2DDD9014000000000,865.7,4.5221753,-2.4375
300833B2DDD9014000000000,865.7,5.982525,5.6875
300833B2DDD9014000000000,865.7,1.2333206,8.9375
300833B2DDD9014000000000,865.7,6.0070686,1.625
300833B2DDD9014000000000,865.7,0.62586415,0.0
300833B2DDD9014000000000,865.7,1.4603497,4.875
300833B2DDD9014000000000,865.7,1.3008157,2.4375
300833B2DDD9014000000000,865.7,3.3993015,2.4375
300833B2DDD9014000000000,865.7,3.270447,-1.625
300833B2DDD9014000000000,865.7,2.5034566,-4.0625
300833B2DDD9014000000000,865.7,3.4667966,0.0
300833B2DDD9014000000000,865.7,2.8286605,-2.4375
300833B2DDD9014000000000,865.7,1.5278449,-6.5
300833B2DDD9014000000000,865.7,5.9457097,15.4375
300833B2DDD9014000000000,865.7,1.2824079,1.625
300833B2DDD9014000000000,865.7,2.969787,-1.625
300833B2DDD9014000000000,865.7,3.436117,-1.625
300833B2DDD9014000000000,865.7,4.4546804,0.0
300833B2DDD9014000000000,865.7,2.5095925,-9.75
300833B2DDD9014000000000,865.7,4.4914956,4.0625
300833B2DDD9014000000000,865.7,1.2271847,7.3125
300833B2DDD9014000000000,865.7,2.4605052,-4.0625
300833B2DDD9014000000000,865.7,2.8470683,-0.8125
300833B2DDD9014000000000,865.7,3.2581751,2.4375
300833B2DDD9014000000000,865.7,1.1351458,6.5
300833B2DDD9014000000000,865.7,3.3195345,0.8125
300833B2DDD9014000000000,865.7,0.5276894,17.875
300833B2DDD9014000000000,865.7,2.9084275,-5.6875
300833B2DDD9014000000000,865.7,5.9457097,3.25
300833B2DDD9014000000000,865.7,3.423845,8.9375
300833B2DDD9014000000000,865.7,0.03681554,1.625
300833B2DDD9014000000000,865.7,0.024543693,4.0625
300833B2DDD9014000000000,865.7,3.3256702,0.8125
300833B2DDD9014000000000,865.7,5.9457097,8.125
300833B2DDD9014000000000,865.7,4.5160394,0.0
300833B2DDD9014000000000,865.7,1.1903691,8.125
300833B2DDD9014000000000,865.7,4.4792237,-0.8125
300833B2DDD9014000000000,865.7,1.2578642,4.0625
300833B2DDD9014000000000,865.7,2.4298255,0.8125
300833B2DDD9014000000000,865.7,2.3991458,0.8125
300833B2DDD9014000000000,865.7,2.8163888,2.4375
300833B2DDD9014000000000,865.7,3.4606607,-6.5
300833B2DDD9014000000000,865.7,2.957515,0.0
300833B2DDD9014000000000,865.7,3.270447,0.0
300833B2DDD9014000000000,865.7,1.1412817,8.125
300833B2DDD9014000000000,865.7,3.4483888,4.0625
300833B2DDD9014000000000,865.7,1.4296701,9.75
300833B2DDD9014000000000,865.7,2.8409324,0.0
300833B2DDD9014000000000,865.7,5.982525,8.9375
300833B2DDD9014000000000,865.7,0.5829127,6.5
300833B2DDD9014000000000,865.7,4.5037675,-2.4375
300833B2DDD9014000000000,865.7,5.9947968,4.0625
300833B2DDD9014000000000,865.7,5.933438,1.625
300833B2DDD9014000000000,865.7,2.8593402,0.8125
300833B2DDD9014000000000,865.7,3.362486,3.25
300833B2DDD9014000000000,865.7,1.2026409,1.625
300833B2DDD9014000000000,865.7,3.3195345,2.4375
300833B2DDD9014000000000,865.7,3.2520392,3.25
300833B2DDD9014000000000,865.7,1.1719613,1.625
300833B2DDD9014000000000,865.7,2.9759228,-0.8125
300833B2DDD9014000000000,865.7,1.2210487,6.5
300833B2DDD9014000000000,865.7,1.4726216,-1.625
300833B2DDD9014000000000,865.7,4.534447,-0.8125
300833B2DDD9014000000000,865.7,0.0,6.5
300833B2DDD9014000000000,865.7,2.4727771,-4.0625
300833B2DDD9014000000000,865.7,3.423845,4.0625
300833B2DDD9014000000000,865.7,2.3930101,-6.5
300833B2DDD9014000000000,865.7,2.8532043,-4.875
300833B2DDD9014000000000,865.7,0.59518456,2.4375
300833B2DDD9014000000000,865.7,3.2581751,1.625
300833B2DDD9014000000000,865.7,4.5283113,-3.25
300833B2DDD9014000000000,865.7,6.0009327,5.6875
300833B2DDD9014000000000,865.7,2.478913,-7.3125
300833B2DDD9014000000000,865.7,3.3256702,2.4375
300833B2DDD9014000000000,865.7,2.8961558,-9.75
300833B2DDD9014000000000,865.7,3.429981,2.4375
300833B2DDD9014000000000,865.7,4.540583,-2.4375
300833B2DDD9014000000000,865.7,1.1842332,-1.625
300833B2DDD9014000000000,865.7,1.1596894,2.4375
300833B2DDD9014000000000,865.7,1.2271847,4.875
300833B2DDD9014000000000,865.7,0.012271847,6.5
300833B2DDD9014000000000,865.7,2.969787,-1.625
300833B2DDD9014000000000,865.7,1.4235342,9.75
300833B2DDD9014000000000,865.7,0.5399612,10.5625
300833B2DDD9014000000000,865.7,2.883884,-4.875
300833B2DDD9014000000000,865.7,2.3807383,-4.0625
300833B2DDD9014000000000,865.7,5.822991,10.5625
300833B2DDD9014000000000,865.7,3.497476,-14.625
300833B2DDD9014000000000,865.7,0.024543693,0.8125
300833B2DDD9014000000000,865.7,2.9820588,0.0
300833B2DDD9014000000000,865.7,3.3931656,5.6875
300833B2DDD9014000000000,865.7,2.3439226,0.0
300833B2DDD9014000000000,865.7,1.1719613,1.625
300833B2DDD9014000000000,865.7,5.810719,0.8125
300833B2DDD9014000000000,865.7,0.558369,3.25
300833B2DDD9014000000000,865.7,6.062292,-2.4375
300833B2DDD9014000000000,865.7,4.552855,0.8125
300833B2DDD9014000000000,865.7,3.264311,1.625
300833B2DDD9014000000000,865.7,3.3318062,2.4375
300833B2DDD9014000000000,865.7,2.7857091,4.875
300833B2DDD9014000000000,865.7,4.5099034,3.25
300833B2DDD9014000000000,865.7,1.1903691,-1.625
300833B2DDD9014000000000,865.7,1.2394565,4.875
300833B2DDD9014000000000,865.7,2.8163888,4.875
300833B2DDD9014000000000,865.7,2.4482334,-5.6875
300833B2DDD9014000000000,865.7,3.344078,-5.6875
300833B2DDD9014000000000,865.7,1.4480779,3.25
300833B2DDD9014000000000,865.7,3.3747578,8.125
300833B2DDD9014000000000,865.7,4.540583,0.0
300833B2DDD9014000000000,865.7,1.1842332,4.875
300833B2DDD9014000000000,865.7,3.264311,0.8125
300833B2DDD9014000000000,865.7,1.3928546,15.4375
300833B2DDD9014000000000,865.7,4.540583,0.0
300833B2DDD9014000000000,865.7,1.2394565,4.0625
300833B2DDD9014000000000,865.7,2.969787,0.8125
300833B2DDD9014000000000,865.7,3.3318062,2.4375
300833B2DDD9014000000000,865.7,0.030679615,1.625
300833B2DDD9014000000000,865.7,3.1722722,32.5
300833B2DDD9014000000000,865.7,2.8347964,-1.625
300833B2DDD9014000000000,865.7,1.1719613,2.4375
300833B2DDD9014000000000,865.7,2.8225245,4.875
300833B2DDD9014000000000,865.7,6.0193405,4.875
300833B2DDD9014000000000,865.7,2.4605052,-12.1875
300833B2DDD9014000000000,865.7,0.54609716,4.0625
300833B2DDD9014000000000,865.7,2.3439226,0.0
300833B2DDD9014000000000,865.7,5.7002726,12.1875
300833B2DDD9014000000000,865.7,1.3928546,8.125
300833B2DDD9014000000000,865.7,4.571263,0.0
300833B2DDD9014000000000,865.7,3.2397673,8.125
300833B2DDD9014000000000,865.7,1.2026409,-1.625
300833B2DDD9014000000000,865.7,5.9579816,10.5625
300833B2DDD9014000000000,865.7,4.552855,1.625
300833B2DDD9014000000000,865.7,6.2709136,5.6875
300833B2DDD9014000000000,865.7,3.3379421,3.25
300833B2DDD9014000000000,865.7,3.350214,6.5
300833B2DDD9014000000000,865.7,2.4236896,-6.5
300833B2DDD9014000000000,865.7,1.2271847,1.625
300833B2DDD9014000000000,865.7,2.969787,3.25
300833B2DDD9014000000000,865.7,1.1903691,2.4375
300833B2DDD9014000000000,865.7,2.8163888,0.0
300833B2DDD9014000000000,865.7,2.313243,0.0
300833B2DDD9014000000000,865.7,2.810253,0.0
300833B2DDD9014000000000,865.7,5.743224,3.25
300833B2DDD9014000000000,865.7,3.417709,-1.625
300833B2DDD9014000000000,865.7,0.49700978,17.875
300833B2DDD9014000000000,865.7,5.6941366,4.875
300833B2DDD9014000000000,865.7,4.5958066,-0.8125
300833B2DDD9014000000000,865.7,2.8163888,-0.8125
300833B2DDD9014000000000,865.7,3.4913402,-16.25
300833B2DDD9014000000000,865.7,3.3256702,4.875
300833B2DDD9014000000000,865.7,2.9820588,-0.8125
300833B2DDD9014000000000,865.7,4.558991,0.0
300833B2DDD9014000000000,865.7,0.5154175,7.3125
300833B2DDD9014000000000,865.7,3.276583,2.4375
300833B2DDD9014000000000,865.7,5.9947968,8.125
300833B2DDD9014000000000,865.7,2.3807383,0.0
300833B2DDD9014000000000,865.7,3.3318062,8.125
300833B2DDD9014000000000,865.7,1.4235342,9.75
300833B2DDD9014000000000,865.7,2.2518837,6.5
300833B2DDD9014000000000,865.7,0.012271847,-1.625
300833B2DDD9014000000000,865.7,1.2210487,4.0625
300833B2DDD9014000000000,865.7,1.2210487,1.625
300833B2DDD9014000000000,865.7,1.1842332,7.3125
300833B2DDD9014000000000,865.7,2.810253,-4.0625
300833B2DDD9014000000000,865.7,3.3379421,5.6875
300833B2DDD9014000000000,865.7,2.3991458,-6.5
300833B2DDD9014000000000,865.7,4.6203504,-0.8125
300833B2DDD9014000000000,865.7,2.7673013,3.25
300833B2DDD9014000000000,865.7,3.3870296,10.5625
300833B2DDD9014000000000,865.7,3.270447,1.625
300833B2DDD9014000000000,865.7,1.2333206,2.4375
300833B2DDD9014000000000,865.7,0.47246608,12.1875
300833B2DDD9014000000000,865.7,1.515573,-1.625
300833B2DDD9014000000000,865.7,1.2149128,0.0
300833B2DDD9014000000000,865.7,4.571263,0.0
300833B2DDD9014000000000,865.7,1.1965051,7.3125
300833B2DDD9014000000000,865.7,6.0193405,8.125
300833B2DDD9014000000000,865.7,2.9943304,0.0
300833B2DDD9014000000000,865.7,6.2709136,-1.625
300833B2DDD9014000000000,865.7,2.2886994,-4.875
300833B2DDD9014000000000,865.7,2.810253,-6.5
300833B2DDD9014000000000,865.7,5.675729,-1.625
300833B2DDD9014000000000,865.7,3.35635,0.8125
300833B2DDD9014000000000,865.7,3.3686218,5.6875
300833B2DDD9014000000000,865.7,3.270447,1.625
300833B2DDD9014000000000,865.7,6.0132046,8.125
300833B2DDD9014000000000,865.7,6.24637,1.625
300833B2DDD9014000000000,865.7,5.6818647,1.625
300833B2DDD9014000000000,865.7,3.362486,5.6875
300833B2DDD9014000000000,865.7,3.0004663,0.0
300833B2DDD9014000000000,865.7,4.6203504,0.0
300833B2DDD9014000000000,865.7,3.362486,3.25
300833B2DDD9014000000000,865.7,2.3623304,-4.875
300833B2DDD9014000000000,865.7,2.2948353,0.0
300833B2DDD9014000000000,865.7,1.2026409,5.6875
300833B2DDD9014000000000,865.7,2.7673013,0.8125
300833B2DDD9014000000000,865.7,0.53382534,3.25
300833B2DDD9014000000000,865.7,1.1780972,5.6875
300833B2DDD9014000000000,865.7,2.8286605,-2.4375
300833B2DDD9014000000000,865.7,4.5958066,-4.0625
300833B2DDD9014000000000,865.7,1.4726216,-4.875
300833B2DDD9014000000000,865.7,1.3683108,6.5
300833B2DDD9014000000000,865.7,1.1903691,4.0625
300833B2DDD9014000000000,865.7,1.3499031,9.75
300833B2DDD9014000000000,865.7,3.2888548,-0.8125
300833B2DDD9014000000000,865.7,5.8413987,-1.625
300833B2DDD9014000000000,865.7,6.2647777,4.0625
300833B2DDD9014000000000,865.7,1.1658254,6.5
300833B2DDD9014000000000,865.7,3.4852045,1.625
300833B2DDD9014000000000,865.7,3.3747578,2.4375
300833B2DDD9014000000000,865.7,3.4422529,7.3125
300833B2DDD9014000000000,865.7,0.5522331,6.5
300833B2DDD9014000000000,865.7,2.7857091,0.8125
300833B2DDD9014000000000,865.7,2.9881945,5.6875
300833B2DDD9014000000000,865.7,1.5892041,1.625
300833B2DDD9014000000000,865.7,4.5283113,0.8125
300833B2DDD9014000000000,865.7,4.5835347,-1.625
300833B2DDD9014000000000,865.7,6.0254765,12.1875
300833B2DDD9014000000000,865.7,2.4052818,-6.5
300833B2DDD9014000000000,865.7,2.3500586,0.0
300833B2DDD9014000000000,865.7,2.7857091,-4.0625
300833B2DDD9014000000000,865.7,4.4914956,0.8125
300833B2DDD9014000000000,865.7,4.5835347,0.0
300833B2DDD9014000000000,865.7,1.356039,0.8125
300833B2DDD9014000000000,865.7,1.6996508,2.4375
300833B2DDD9014000000000,865.7,2.3991458,0.0
300833B2DDD9014000000000,865.7,2.7857091,0.0
300833B2DDD9014000000000,865.7,0.06135923,0.8125
300833B2DDD9014000000000,865.7,5.9947968,7.3125
300833B2DDD9014000000000,865.7,6.142059,7.3125
300833B2DDD9014000000000,865.7,3.02501,0.0
300833B2DDD9014000000000,865.7,1.116738,5.6875
300833B2DDD9014000000000,865.7,0.5154175,7.3125
300833B2DDD9014000000000,865.7,2.8470683,-7.3125
300833B2DDD9014000000000,865.7,3.4054372,0.8125
300833B2DDD9014000000000,865.7,2.3684664,-5.6875
300833B2DDD9014000000000,865.7,1.1965051,7.3125
300833B2DDD9014000000000,865.7,3.583379,-4.875
300833B2DDD9014000000000,865.7,3.6324666,4.875
300833B2DDD9014000000000,865.7,3.270447,0.8125
300833B2DDD9014000000000,865.7,0.5276894,0.8125
300833B2DDD9014000000000,865.7,3.270447,2.4375
300833B2DDD9014000000000,865.7,2.8163888,-1.625
300833B2DDD9014000000000,865.7,3.583379,-2.4375
300833B2DDD9014000000000,865.7,1.754874,4.875
300833B2DDD9014000000000,865.7,2.4666412,5.6875
300833B2DDD9014000000000,865.7,6.0009327,9.75
300833B2DDD9014000000000,865.7,2.3500586,-5.6875
300833B2DDD9014000000000,865.7,2.8409324,-9.75
300833B2DDD9014000000000,865.7,1.2271847,-0.8125
300833B2DDD9014000000000,865.7,1.1228739,0.8125
300833B2DDD9014000000000,865.7,4.6019425,-5.6875
300833B2DDD9014000000000,865.7,0.09203885,6.5
300833B2DDD9014000000000,865.7,1.3253593,-0.8125
300833B2DDD9014000000000,865.7,4.3565054,-2.4375
300833B2DDD9014000000000,865.7,3.675418,8.9375
300833B2DDD9014000000000,865.7,3.037282,-3.25
300833B2DDD9014000000000,865.7,3.417709,0.8125
300833B2DDD9014000000000,865.7,0.06749515,0.0
300833B2DDD9014000000000,865.7,2.804117,1.625
300833B2DDD9014000000000,865.7,0.20248546,0.8125
300833B2DDD9014000000000,865.7,1.1903691,4.875
300833B2DDD9014000000000,865.7,0.06749515,1.625
300833B2DDD9014000000000,865.7,1.7794178,3.25
300833B2DDD9014000000000,865.7,4.5835347,0.8125
300833B2DDD9014000000000,865.7,4.3442335,-1.625
300833B2DDD9014000000000,865.7,5.988661,7.3125
300833B2DDD9014000000000,865.7,0.478602,6.5
300833B2DDD9014000000000,865.7,3.264311,4.875
300833B2DDD9014000000000,865.7,3.4054372,3.25
300833B2DDD9014000000000,865.7,2.6016314,-1.625
300833B2DDD9014000000000,865.7,3.6386025,-10.5625
300833B2DDD9014000000000,865.7,2.3316507,-4.0625
300833B2DDD9014000000000,865.7,1.1044662,6.5
300833B2DDD9014000000000,865.7,1.3314953,0.8125
300833B2DDD9014000000000,865.7,2.8654761,-5.6875
300833B2DDD9014000000000,865.7,3.742913,4.875
300833B2DDD9014000000000,865.7,3.0004663,4.875
300833B2DDD9014000000000,865.7,3.497476,13.8125
300833B2DDD9014000000000,865.7,4.5958066,-1.625
300833B2DDD9014000000000,865.7,1.2946798,3.25
300833B2DDD9014000000000,865.7,2.9881945,3.25
300833B2DDD9014000000000,865.7,3.7797287,-0.8125
300833B2DDD9014000000000,865.7,0.079767,4.0625
300833B2DDD9014000000000,865.7,1.7671459,2.4375
300833B2DDD9014000000000,865.7,2.7488935,8.125
300833B2DDD9014000000000,865.7,2.313243,-2.4375
300833B2DDD9014000000000,865.7,2.6629906,-5.6875
300833B2DDD9014000000000,865.7,3.436117,0.0
300833B2DDD9014000000000,865.7,1.1290098,-2.4375
300833B2DDD9014000000000,865.7,0.3742913,1.625
300833B2DDD9014000000000,865.7,3.276583,0.0
300833B2DDD9014000000000,865.7,1.1658254,6.5
300833B2DDD9014000000000,865.7,4.2767386,0.8125
300833B2DDD9014000000000,865.7,5.988661,8.9375
300833B2DDD9014000000000,865.7,0.46019423,0.0
300833B2DDD9014000000000,865.7,2.7795732,0.0
300833B2DDD9014000000000,865.7,3.436117,2.4375
300833B2DDD9014000000000,865.7,3.276583,-1.625
300833B2DDD9014000000000,865.7,2.2212043,7.3125
300833B2DDD9014000000000,865.7,1.1842332,1.625
300833B2DDD9014000000000,865.7,6.0070686,9.75
300833B2DDD9014000000000,865.7,4.264467,0.8125
300833B2DDD9014000000000,865.7,2.7488935,0.8125
300833B2DDD9014000000000,865.7,0.42951462,5.6875
300833B2DDD9014000000000,865.7,1.8039614,-3.25
300833B2DDD9014000000000,865.7,0.12271846,0.8125
300833B2DDD9014000000000,865.7,3.8410878,-0.8125
300833B2DDD9014000000000,865.7,3.043418,-1.625
300833B2DDD9014000000000,865.7,2.6752625,10.5625
300833B2DDD9014000000000,865.7,1.0737865,5.6875
300833B2DDD9014000000000,865.7,4.6203504,-2.4375
300833B2DDD9014000000000,865.7,2.7366216,-9.75
300833B2DDD9014000000000,865.7,3.6508744,-8.9375
300833B2DDD9014000000000,865.7,1.2578642,8.125
300833B2DDD9014000000000,865.7,0.41724277,4.0625
300833B2DDD9014000000000,865.7,5.9947968,9.75
300833B2DDD9014000000000,865.7,4.6080785,0.0
300833B2DDD9014000000000,865.7,3.4606607,2.4375
300833B2DDD9014000000000,865.7,3.037282,1.625
300833B2DDD9014000000000,865.7,1.1658254,1.625
300833B2DDD9014000000000,865.7,2.6752625,-1.625
300833B2DDD9014000000000,865.7,2.7366216,0.8125
300833B2DDD9014000000000,865.7,3.9024472,-6.5
300833B2DDD9014000000000,865.7,3.282719,-0.8125
300833B2DDD9014000000000,865.7,4.258331,0.8125
300833B2DDD9014000000000,865.7,1.2640002,8.125
300833B2DDD9014000000000,865.7,0.5645049,5.6875
300833B2DDD9014000000000,865.7,2.2641556,-4.0625
300833B2DDD9014000000000,865.7,1.748738,7.3125
300833B2DDD9014000000000,865.7,3.675418,5.6875
300833B2DDD9014000000000,865.7,0.11044662,4.875
300833B2DDD9014000000000,865.7,1.0983303,2.4375
300833B2DDD9014000000000,865.7,0.38042724,2.4375
300833B2DDD9014000000000,865.7,2.6936703,0.0
300833B2DDD9014000000000,865.7,2.6691265,-14.625
300833B2DDD9014000000000,865.7,3.0986412,-6.5
300833B2DDD9014000000000,865.7,3.4790685,1.625
300833B2DDD9014000000000,865.7,2.7488935,-4.0625
300833B2DDD9014000000000,865.7,4.626486,0.8125
300833B2DDD9014000000000,865.7,1.2517283,7.3125
300833B2DDD9014000000000,865.7,3.276583,1.625
300833B2DDD9014000000000,865.7,0.61972827,3.25
300833B2DDD9014000000000,865.7,2.2027965,0.8125
300833B2DDD9014000000000,865.7,2.72435,-0.8125
300833B2DDD9014000000000,865.7,1.1412817,5.6875
300833B2DDD9014000000000,865.7,4.264467,0.0
300833B2DDD9014000000000,865.7,3.9024472,-1.625
300833B2DDD9014000000000,865.7,0.3742913,7.3125
300833B2DDD9014000000000,865.7,0.11658254,4.0625
300833B2DDD9014000000000,865.7,1.1044662,3.25
300833B2DDD9014000000000,865.7,3.7613208,-2.4375
300833B2DDD9014000000000,865.7,1.7610099,1.625
300833B2DDD9014000000000,865.7,6.0193405,8.9375
300833B2DDD9014000000000,865.7,2.2273402,-4.875
300833B2DDD9014000000000,865.7,1.7671459,0.8125
300833B2DDD9014000000000,865.7,3.9269907,-0.8125
300833B2DDD9014000000000,865.7,3.0925052,-2.4375
300833B2DDD9014000000000,865.7,2.7611654,-1.625
300833B2DDD9014000000000,865.7,2.6998062,2.4375
300833B2DDD9014000000000,865.7,3.7367773,-2.4375
300833B2DDD9014000000000,865.7,0.14112623,1.625
300833B2DDD9014000000000,865.7,4.6387577,-0.8125
300833B2DDD9014000000000,865.7,5.9947968,13.8125
300833B2DDD9014000000000,865.7,1.1106021,8.125
300833B2DDD9014000000000,865.7,0.69949526,2.4375
300833B2DDD9014000000000,865.7,3.503612,0.8125
300833B2DDD9014000000000,865.7,4.252195,-2.4375
300833B2DDD9014000000000,865.7,1.0799224,5.6875
300833B2DDD9014000000000,865.7,0.2883884,8.9375
300833B2DDD9014000000000,865.7,3.2949908,3.25
300833B2DDD9014000000000,865.7,2.55868,-5.6875
300833B2DDD9014000000000,865.7,1.2946798,2.4375
300833B2DDD9014000000000,865.7,3.282719,3.25
300833B2DDD9014000000000,865.7,3.497476,1.625
300833B2DDD9014000000000,865.7,2.791845,-8.125
300833B2DDD9014000000000,865.7,2.5402722,-3.25
300833B2DDD9014000000000,865.7,2.2089324,-0.8125
300833B2DDD9014000000000,865.7,2.6998062,3.25
300833B2DDD9014000000000,865.7,3.0863693,0.8125
300833B2DDD9014000000000,865.7,1.1351458,5.6875
300833B2DDD9014000000000,865.7,4.1969714,0.0
300833B2DDD9014000000000,865.7,4.6387577,-1.625
300833B2DDD9014000000000,865.7,6.0438843,7.3125
300833B2DDD9014000000000,865.7,3.7183695,8.9375
300833B2DDD9014000000000,865.7,1.7364663,3.25
300833B2DDD9014000000000,865.7,1.2455924,10.5625
300833B2DDD9014000000000,865.7,0.22089323,13.0
300833B2DDD9014000000000,865.7,1.1412817,-0.8125
300833B2DDD9014000000000,865.7,3.9760783,1.625
300833B2DDD9014000000000,865.7,0.079767,5.6875
300833B2DDD9014000000000,865.7,0.75471854,0.0
300833B2DDD9014000000000,865.7,1.3008157,0.8125
300833B2DDD9014000000000,865.7,3.0925052,0.8125
300833B2DDD9014000000000,865.7,4.6510296,-2.4375
300833B2DDD9014000000000,865.7,3.7920005,-7.3125
300833B2DDD9014000000000,865.7,4.1785636,-3.25
300833B2DDD9014000000000,865.7,4.000622,1.625
300833B2DDD9014000000000,865.7,1.7794178,1.625
300833B2DDD9014000000000,865.7,2.233476,-2.4375
300833B2DDD9014000000000,865.7,1.0983303,3.25
300833B2DDD9014000000000,865.7,6.1175156,-4.0625
300833B2DDD9014000000000,865.7,2.7734373,-2.4375
300833B2DDD9014000000000,865.7,2.7795732,0.0
300833B2DDD9014000000000,865.7,1.1412817,2.4375
300833B2DDD9014000000000,865.7,0.7731263,-1.625
300833B2DDD9014000000000,865.7,2.7734373,-15.4375
300833B2DDD9014000000000,865.7,0.06135923,0.8125
300833B2DDD9014000000000,865.7,3.3133986,1.625
300833B2DDD9014000000000,865.7,3.503612,0.8125
300833B2DDD9014000000000,865.7,0.24543692,9.75
300833B2DDD9014000000000,865.7,3.6938257,2.4375
300833B2DDD9014000000000,865.7,2.7366216,0.8125
300833B2DDD9014000000000,865.7,3.0863693,4.875
300833B2DDD9014000000000,865.7,4.086525,-0.8125
300833B2DDD9014000000000,865.7,1.1351458,5.6875
300833B2DDD9014000000000,865.7,1.0676507,3.25
300833B2DDD9014000000000,865.7,0.7363108,1.625
300833B2DDD9014000000000,865.7,4.0067577,0.0
300833B2DDD9014000000000,865.7,3.497476,1.625
300833B2DDD9014000000000,865.7,2.951379,-13.8125
300833B2DDD9014000000000,865.7,6.2709136,2.4375
300833B2DDD9014000000000,865.7,3.3072627,3.25
300833B2DDD9014000000000,865.7,2.6998062,4.875
300833B2DDD9014000000000,865.7,6.0991077,4.0625
300833B2DDD9014000000000,865.7,4.5896707,0.0
300833B2DDD9014000000000,865.7,1.8039614,5.6875
300833B2DDD9014000000000,865.7,2.2396119,0.8125
300833B2DDD9014000000000,865.7,0.21475731,10.5625
300833B2DDD9014000000000,865.7,1.2885438,0.8125
300833B2DDD9014000000000,865.7,2.730486,2.4375
300833B2DDD9014000000000,865.7,6.0807,12.1875
300833B2DDD9014000000000,865.7,0.65040785,1.625
300833B2DDD9014000000000,865.7,3.117049,0.0
300833B2DDD9014000000000,865.7,4.5160394,4.0625
300833B2DDD9014000000000,865.7,3.7060976,6.5
300833B2DDD9014000000000,865.7,3.9576705,-0.8125
300833B2DDD9014000000000,865.7,1.8530488,0.0
300833B2DDD9014000000000,865.7,6.1911464,1.625
300833B2DDD9014000000000,865.7,2.2886994,-2.4375
300833B2DDD9014000000000,865.7,3.9638064,-0.8125
300833B2DDD9014000000000,865.7,3.3256702,3.25
300833B2DDD9014000000000,865.7,3.4729326,1.625
300833B2DDD9014000000000,865.7,0.3436117,-2.4375
300833B2DDD9014000000000,865.7,1.1719613,4.0625
300833B2DDD9014000000000,865.7,3.276583,5.6875
300833B2DDD9014000000000,865.7,1.0124273,2.4375
300833B2DDD9014000000000,865.7,2.6016314,-1.625
300833B2DDD9014000000000,865.7,1.2578642,6.5
300833B2DDD9014000000000,865.7,1.8039614,1.625
300833B2DDD9014000000000,865.7,4.4853597,1.625
300833B2DDD9014000000000,865.7,3.0740974,2.4375
300833B2DDD9014000000000,865.7,3.3256702,1.625
300833B2DDD9014000000000,865.7,3.5342917,-8.9375
300833B2DDD9014000000000,865.7,6.0991077,8.9375
300833B2DDD9014000000000,865.7,3.8533597,2.4375
300833B2DDD9014000000000,865.7,3.8963113,-0.8125
300833B2DDD9014000000000,865.7,3.6938257,-1.625
300833B2DDD9014000000000,865.7,3.4115732,5.6875
300833B2DDD9014000000000,865.7,6.086836,0.0
300833B2DDD9014000000000,865.7,1.2517283,-1.625
300833B2DDD9014000000000,865.7,0.41110685,2.4375
300833B2DDD9014000000000,865.7,2.7795732,0.8125
300833B2DDD9014000000000,865.7,0.44178647,2.4375
300833B2DDD9014000000000,865.7,0.9510681,4.875
300833B2DDD9014000000000,865.7,2.3746023,-6.5
300833B2DDD9014000000000,865.7,2.4114177,5.6875
300833B2DDD9014000000000,865.7,1.1842332,7.3125
300833B2DDD9014000000000,865.7,3.0495539,-0.8125
300833B2DDD9014000000000,865.7,2.7795732,2.4375
300833B2DDD9014000000000,865.7,2.4052818,-0.8125
300833B2DDD9014000000000,865.7,6.056156,1.625
300833B2DDD9014000000000,865.7,3.6815538,-8.125
300833B2DDD9014000000000,865.7,3.742913,4.875
300833B2DDD9014000000000,865.7,6.062292,10.5625
300833B2DDD9014000000000,865.7,3.3686218,1.625
300833B2DDD9014000000000,865.7,0.44178647,10.5625
300833B2DDD9014000000000,865.7,1.601476,2.4375
300833B2DDD9014000000000,865.7,0.319068,-0.8125
300833B2DDD9014000000000,865.7,3.7858646,0.8125
300833B2DDD9014000000000,865.7,1.1719613,0.8125
300833B2DDD9014000000000,865.7,0.90811664,-6.5
300833B2DDD9014000000000,865.7,1.2394565,2.4375
300833B2DDD9014000000000,865.7,3.282719,-3.25
300833B2DDD9014000000000,865.7,3.5465636,-10.5625
300833B2DDD9014000000000,865.7,4.3565054,0.0
300833B2DDD9014000000000,865.7,2.4911847,-6.5
300833B2DDD9014000000000,865.7,0.8099418,0.8125
300833B2DDD9014000000000,865.7,2.9268353,0.0
300833B2DDD9014000000000,865.7,0.17794177,0.8125
300833B2DDD9014000000000,865.7,3.6324666,4.0625
300833B2DDD9014000000000,865.7,3.6938257,0.8125
300833B2DDD9014000000000,865.7,3.282719,0.0
300833B2DDD9014000000000,865.7,3.202952,0.0
300833B2DDD9014000000000,865.7,6.0254765,4.0625
300833B2DDD9014000000000,865.7,4.313554,0.0
300833B2DDD9014000000000,865.7,1.1106021,1.625
300833B2DDD9014000000000,865.7,6.0009327,-5.6875
300833B2DDD9014000000000,865.7,1.362175,3.25
300833B2DDD9014000000000,865.7,3.344078,-2.4375
300833B2DDD9014000000000,865.7,2.3500586,-0.8125
300833B2DDD9014000000000,865.7,2.6261752,0.0
300833B2DDD9014000000000,865.7,2.9452431,-2.4375
300833B2DDD9014000000000,865.7,1.2885438,6.5
300833B2DDD9014000000000,865.7,0.6320001,4.875
300833B2DDD9014000000000,865.7,3.5281558,1.625
300833B2DDD9014000000000,865.7,1.3376312,0.8125
300833B2DDD9014000000000,865.7,3.5526996,0.0
300833B2DDD9014000000000,865.7,1.2701361,3.25
300833B2DDD9014000000000,865.7,3.589515,2.4375
300833B2DDD9014000000000,865.7,1.030835,5.6875
300833B2DDD9014000000000,865.7,3.1293209,3.25
300833B2DDD9014000000000,865.7,2.7795732,-2.4375
300833B2DDD9014000000000,865.7,0.6320001,1.625
300833B2DDD9014000000000,865.7,6.0254765,-0.8125
300833B2DDD9014000000000,865.7,2.7366216,-0.8125
300833B2DDD9014000000000,865.7,3.110913,-0.8125
300833B2DDD9014000000000,865.7,0.75471854,3.25
300833B2DDD9014000000000,865.7,6.2586417,4.875
300833B2DDD9014000000000,865.7,4.141748,1.625
300833B2DDD9014000000000,865.7,3.037282,0.0
300833B2DDD9014000000000,865.7,3.1722722,-7.3125
300833B2DDD9014000000000,865.7,3.436117,-2.4375
300833B2DDD9014000000000,865.7,2.3930101,0.8125
300833B2DDD9014000000000,865.7,5.6818647,16.25
300833B2DDD9014000000000,865.7,6.209554,5.6875
300833B2DDD9014000000000,865.7,2.3807383,1.625
300833B2DDD9014000000000,865.7,3.104777,-4.875
300833B2DDD9014000000000,865.7,0.72403896,10.5625
300833B2DDD9014000000000,865.7,2.7550294,-5.6875
300833B2DDD9014000000000,865.7,3.436117,-2.4375
300833B2DDD9014000000000,865.7,3.6079228,4.875
300833B2DDD9014000000000,865.7,3.0127382,-1.625
300833B2DDD9014000000000,865.7,1.2210487,-4.875
300833B2DDD9014000000000,865.7,3.110913,-4.875
300833B2DDD9014000000000,865.7,2.9022915,-2.4375
300833B2DDD9014000000000,865.7,5.8782144,4.875
300833B2DDD9014000000000,865.7,0.65040785,3.25
300833B2DDD9014000000000,865.7,1.4603497,0.8125
300833B2DDD9014000000000,865.7,3.1477287,-5.6875
300833B2DDD9014000000000,865.7,1.441942,6.5
300833B2DDD9014000000000,865.7,3.184544,-8.125
300833B2DDD9014000000000,865.7,3.9944859,0.0
300833B2DDD9014000000000,865.7,5.835263,4.875
