E28011606000020612AFC4FD,1,1467311138618652,1467311138618652,1,0.125,12288,-43.5,916.25,5.669593
E28011606000020612AF528C,1,1467311138687168,1467311138687168,1,0.1875,12288,-34.5,916.25,5.270758
E28011606000020612B0004D,1,1467311138707103,1467311138707103,1,0.25,12288,-39.0,916.25,1.1044662
E28011606000020612B000CD,1,1467311138728851,1467311138728851,1,0.375,12288,-27.5,916.25,0.32520393
E28011606000020612AF540B,1,1467311138798673,1467311138798673,1,0.5625,12288,-40.0,916.25,5.172583
E28011606000020612B0001D,1,1467311139001503,1467311139001503,1,0.125,12288,-28.5,907.25,1.9205439
E28011606000020612B0007D,1,1467311139021401,1467311139021401,1,0.1875,12288,-32.0,913.75,1.9450877
E28011606000020612AFC4CD,1,1467311139031375,1467311139031375,1,0.1875,12288,-28.5,913.75,0.11044662
E28011606000020612AFC4ED,1,1467311139046825,1467311139046825,1,0.25,12288,-35.5,913.75,0.12885438
E28011606000020612B0002D,1,1467311139056848,1467311139056848,1,0.5625,12288,-41.0,913.75,6.086836
E28011606000020612B000DD,1,1467311139066751,1467311139066751,1,0.0625,12288,-42.5,913.75,2.1905246
E28011606000020612AFC4DD,1,1467311139076607,1467311139076607,1,0.5,12288,-38.5,913.75,1.9757673
E28011606000020612AF52FC,1,1467311139150347,1467311139150347,1,0.1875,12288,-55.5,913.75,0.3742913
E28011606000020612B0009D,1,1467311139171781,1467311139171781,1,0.75,12288,-46.5,913.75,0.1349903
E28011606000020612B0005D,1,1467311139225916,1467311139225916,1,0.5625,12288,-44.0,904.25,3.270447
E28011606000020612B0008D,1,1467311139254116,1467311139254116,1,0.75,12288,-35.0,904.25,1.2701361
E28011606000020612AF527C,1,1467311139483673,1467311139483673,1,0.25,12288,-32.5,917.25,4.7492046
E28011606000020612B0004D,1,1467311139672463,1467311139672463,1,0.625,12288,-38.0,915.75,1.2087768
E28011606000020612AF528C,1,1467311139772642,1467311139772642,1,0.0625,12288,-33.5,915.75,5.485515
E28011606000020612B000BD,1,1467311139804179,1467311139804179,1,0.5,12288,-56.0,915.75,4.258331
E28011606000020612B000AD,1,1467311139814002,1467311139814002,1,0.0625,12288,-57.5,915.75,0.77926224
E28011606000020612B000CD,1,1467311139856895,1467311139856895,1,0.5,12288,-26.5,908.25,4.9148746
E28011606000020612B0000D,1,1467311139866812,1467311139866812,1,0.0,12288,-42.5,908.25,6.221826
E28011606000020612AFC4FD,1,1467311139888577,1467311139888577,1,0.5625,12288,-44.0,908.25,0.88357294
E28011606000020612B0006D,1,1467311139909999,1467311139909999,1,0.0,12288,-36.0,908.25,5.7861757
E28011606000020612B0007D,1,1467311139962938,1467311139962938,1,0.0625,12288,-31.5,908.25,6.252506
E28011606000020612B0002D,1,1467311139997825,1467311139997825,1,0.25,12288,-41.0,908.25,0.6688156
E28011606000020612AFC4CD,1,1467311140007802,1467311140007802,1,0.8125,12288,-29.5,908.25,1.356039
E28011606000020612B000DD,1,1467311140019613,1467311140019613,1,0.125,12288,-43.0,908.25,0.35588354
E28011606000020612B0001D,1,1467311140105233,1467311140105233,1,0.1875,12288,-28.5,909.25,1.515573
E28011606000020612AFC4DD,1,1467311140134016,1467311140134016,1,0.0625,12288,-39.5,909.25,6.0193405
E28011606000020612AF52FC,1,1467311140143893,1467311140143893,1,0.0625,12288,-55.5,909.25,1.2455924
E28011606000020612B0008D,1,1467311140153762,1467311140153762,1,0.0625,12288,-34.5,909.25,0.42951462
E28011606000020612AFC4ED,1,1467311140183378,1467311140183378,1,0.125,12288,-34.5,909.25,4.4485445
E28011606000020612B0005D,1,1467311140314095,1467311140314095,1,0.5625,12288,-47.5,925.25,4.8289714
E28011606000020612AF527C,1,1467311140628979,1467311140628979,1,0.4375,12288,-32.0,915.25,5.160311
E28011606000020612B0009D,1,1467311140662513,1467311140662513,1,-0.0625,12288,-45.0,918.25,2.1782527
E28011606000020612AF540B,1,1467311140684037,1467311140684037,1,0.25,12288,-41.0,918.25,1.435806
E28011606000020612B000CD,1,1467311140693986,1467311140693986,1,0.375,12288,-27.0,918.25,0.0061359233
E28011606000020612AF528C,1,1467311140713771,1467311140713771,1,0.0,12288,-33.0,918.25,4.9271464
E28011606000020612B0004D,1,1467311140791810,1467311140791810,1,0.25,12288,-40.0,918.25,0.6074564
E28011606000020612B000DD,1,1467311140880919,1467311140880919,1,0.375,12288,-44.0,903.25,4.546719
E28011606000020612B0007D,1,1467311140912223,1467311140912223,1,0.375,12288,-32.0,903.25,4.1172047
E28011606000020612AFC4CD,1,1467311140931866,1467311140931866,1,0.0,12288,-29.5,903.25,2.2948353
E28011606000020612B000BD,1,1467311140977211,1467311140977211,1,-0.0625,12288,-56.0,903.25,0.53382534
E28011606000020612B0006D,1,1467311141008618,1467311141008618,1,0.375,12288,-37.5,903.25,0.6320001
E28011606000020612B0002D,1,1467311141020322,1467311141020322,1,0.0,12288,-43.0,903.25,4.7614765
E28011606000020612B0000D,1,1467311141030183,1467311141030183,1,0.0625,12288,-43.5,903.25,0.70563114
E28011606000020612AFC4FD,1,1467311141040123,1467311141040123,1,0.125,12288,-47.0,903.25,1.9941751
E28011606000020612B0008D,1,1467311141131712,1467311141131712,1,0.5625,12288,-39.5,923.25,1.2455924
E28011606000020612AFC4ED,1,1467311141152295,1467311141152295,1,0.4375,12288,-37.5,923.25,4.5896707
E28011606000020612B0001D,1,1467311141183624,1467311141183624,1,0.4375,12288,-30.0,923.25,5.2462144
E28011606000020612B000AD,1,1467311141225165,1467311141225165,1,0.1875,12288,-46.0,923.25,5.1480393
E28011606000020612AFC4DD,1,1467311141235192,1467311141235192,1,0.1875,12288,-37.5,923.25,6.1727386
E28011606000020612AF52FC,1,1467311141330581,1467311141330581,1,0.125,12288,-55.5,921.75,2.0862138
E28011606000020612AF540B,1,1467311141573048,1467311141573048,1,0.1875,12288,-41.0,912.75,5.816855
E28011606000020612AF527C,1,1467311141621084,1467311141621084,1,0.4375,12288,-32.5,912.75,5.7309523
E28011606000020612B0005D,1,1467311141650834,1467311141650834,1,0.1875,12288,-44.5,912.75,2.147573
E28011606000020612B000DD,1,1467311141682470,1467311141682470,1,0.0,12288,-43.5,919.75,1.1658254
E28011606000020612AF528C,1,1467311141725627,1467311141725627,1,0.4375,12288,-33.5,919.75,4.5958066
E28011606000020612B000CD,1,1467311141762170,1467311141762170,1,0.1875,12288,-27.0,919.75,6.0377483
E28011606000020612B0009D,1,1467311141793537,1467311141793537,1,-0.125,12288,-44.0,919.75,1.9757673
E28011606000020612B0004D,1,1467311141866325,1467311141866325,1,0.625,12288,-40.0,919.75,0.33747578
E28011606000020612B0006D,1,1467311141960968,1467311141960968,1,0.125,12288,-43.5,925.75,2.1230295
E28011606000020612AFC4CD,1,1467311141970909,1467311141970909,1,0.5,12288,-30.5,925.75,0.93266034
E28011606000020612B0000D,1,1467311142026898,1467311142026898,1,0.5625,12288,-46.5,925.75,0.70563114
E28011606000020612AFC4FD,1,1467311142036795,1467311142036795,1,0.0625,12288,-42.5,925.75,4.086525
E28011606000020612B0002D,1,1467311142061699,1467311142061699,1,0.375,12288,-41.5,925.75,0.3926991
E28011606000020612B0007D,1,1467311142177131,1467311142177131,1,0.5,12288,-33.5,916.75,1.441942
E28011606000020612B000AD,1,1467311142186893,1467311142186893,1,0.25,12288,-52.0,916.75,0.1840777
E28011606000020612B0008D,1,1467311142212276,1467311142212276,1,0.5,12288,-36.0,916.75,5.2339425
E28011606000020612AFC4DD,1,1467311142224038,1467311142224038,1,0.5,12288,-37.0,916.75,4.577399
E28011606000020612B0001D,1,1467311142248501,1467311142248501,1,0.4375,12288,-29.5,916.75,0.159534
E28011606000020612B000BD,1,1467311142312270,1467311142312270,1,0.125,12288,-55.5,907.75,6.0807
E28011606000020612AF52FC,1,1467311142323852,1467311142323852,1,0.5625,12288,-55.5,907.75,1.3805827
E28011606000020612AFC4ED,1,1467311142369967,1467311142369967,1,0.5625,12288,-34.0,907.75,1.6444274
E28011606000020612AF528C,1,1467311142498400,1467311142498400,1,0.1875,12288,-34.0,911.75,6.1175156
E28011606000020612B000DD,1,1467311142508321,1467311142508321,1,0.0625,12288,-42.5,911.75,5.8843503
E28011606000020612AF540B,1,1467311142543597,1467311142543597,1,0.0625,12288,-41.0,911.75,6.056156
E28011606000020612AF527C,1,1467311142595892,1467311142595892,1,0.5625,12288,-33.0,911.75,6.0070686
E28011606000020612B0005D,1,1467311142747975,1467311142747975,1,0.5,12288,-44.0,914.75,1.5401167
E28011606000020612B000CD,1,1467311142767791,1467311142767791,1,0.5625,12288,-26.5,914.75,0.6626797
E28011606000020612B0009D,1,1467311142857006,1467311142857006,1,0.25,12288,-43.5,914.75,2.7857091
E28011606000020612B0004D,1,1467311142878662,1467311142878662,1,0.5625,12288,-38.0,914.75,1.3130876
E28011606000020612AFC4CD,1,1467311142928103,1467311142928103,1,0.375,12288,-30.0,924.25,4.3565054
E28011606000020612B0002D,1,1467311142945444,1467311142945444,1,0.375,12288,-42.0,924.25,0.6872234
E28011606000020612AFC4FD,1,1467311142962807,1467311142962807,1,0.25,12288,-42.5,924.25,4.3196898
E28011606000020612B0000D,1,1467311143031261,1467311143031261,1,0.1875,12288,-46.0,924.25,0.8467574
E28011606000020612B0006D,1,1467311143054371,1467311143054371,1,0.0625,12288,-42.5,924.25,2.3623304
E28011606000020612B0007D,1,1467311143121101,1467311143121101,1,0.5625,12288,-35.5,921.25,0.8406215
E28011606000020612B0001D,1,1467311143140875,1467311143140875,1,0.1875,12288,-29.5,921.25,5.6266418
E28011606000020612AFC4DD,1,1467311143182377,1467311143182377,1,0.5,12288,-37.0,921.25,0.3436117
E28011606000020612B0008D,1,1467311143223548,1467311143223548,1,0.125,12288,-38.5,921.25,1.441942
E28011606000020612B000AD,1,1467311143260589,1467311143260589,1,0.25,12288,-47.0,921.25,5.5714183
E28011606000020612B000DD,1,1467311143326955,1467311143326955,1,0.5625,12288,-43.0,918.75,1.356039
E28011606000020612AFC4ED,1,1467311143369393,1467311143369393,1,0.1875,12288,-36.0,918.75,5.436428
E28011606000020612AF528C,1,1467311143424484,1467311143424484,1,0.125,12288,-34.0,918.75,4.8412433
E28011606000020612AF52FC,1,1467311143613020,1467311143613020,1,0.0625,12288,-56.0,904.75,1.8653207
E28011606000020612B000BD,1,1467311143681272,1467311143681272,1,0.1875,12288,-57.0,904.75,0.159534
E28011606000020612AF527C,1,1467311143691101,1467311143691101,1,0.4375,12288,-35.0,904.75,1.1106021
E28011606000020612B0004D,1,1467311143725736,1467311143725736,1,0.125,12288,-37.0,909.75,5.804583
E28011606000020612B0002D,1,1467311143745480,1467311143745480,1,0.375,12288,-41.0,909.75,0.46019423
E28011606000020612B000CD,1,1467311143767234,1467311143767234,1,0.8125,12288,-26.5,909.75,1.5033011
E28011606000020612B0009D,1,1467311143790380,1467311143790380,1,0.25,12288,-45.5,909.75,0.6135923
E28011606000020612B0005D,1,1467311143904140,1467311143904140,1,0.25,12288,-47.0,909.75,2.7795732
E28011606000020612B0007D,1,1467311143975659,1467311143975659,1,0.125,12288,-31.5,910.75,5.737088
E28011606000020612AFC4CD,1,1467311143985637,1467311143985637,1,0.25,12288,-28.0,910.75,0.7608545
E28011606000020612AF540B,1,1467311144036802,1467311144036802,1,0.375,12288,-41.5,910.75,6.21569
E28011606000020612AFC4FD,1,1467311144076336,1467311144076336,1,0.0625,12288,-44.5,910.75,0.34974763
E28011606000020612B0006D,1,1467311144088178,1467311144088178,1,0.25,12288,-35.5,910.75,4.9639616
E28011606000020612B0001D,1,1467311144099863,1467311144099863,1,0.8125,12288,-28.5,910.75,1.276272
E28011606000020612AFC4DD,1,1467311144185929,1467311144185929,1,0.5625,12288,-38.5,926.75,5.3750687
E28011606000020612B0000D,1,1467311144238694,1467311144238694,1,0.1875,12288,-46.5,926.75,3.7981365
E28011606000020612B000DD,1,1467311144248595,1467311144248595,1,0.0625,12288,-44.5,926.75,5.7861757
E28011606000020612B000AD,1,1467311144270282,1467311144270282,1,0.25,12288,-44.5,926.75,4.2767386
E28011606000020612B0008D,1,1467311144280161,1467311144280161,1,0.625,12288,-41.0,926.75,0.96947587
E28011606000020612AF528C,1,1467311144397223,1467311144397223,1,0.4375,12288,-34.0,913.25,5.804583
E28011606000020612AFC4ED,1,1467311144516458,1467311144516458,1,0.125,12288,-34.5,913.25,0.20248546
E28011606000020612B0004D,1,1467311144547983,1467311144547983,1,0.25,12288,-38.0,914.25,1.521709
E28011606000020612AF527C,1,1467311144583662,1467311144583662,1,0.0625,12288,-32.5,914.25,5.442564
E28011606000020612B000BD,1,1467311144593558,1467311144593558,1,0.0625,12288,-55.5,914.25,1.4480779
E28011606000020612AF52FC,1,1467311144716713,1467311144716713,1,0.125,12288,-55.5,914.25,0.17794177
E28011606000020612B0009D,1,1467311144804984,1467311144804984,1,0.0625,12288,-44.0,919.25,1.9266798
E28011606000020612B000CD,1,1467311144838208,1467311144838208,1,0.5,12288,-27.0,919.25,6.1175156
E28011606000020612B0002D,1,1467311144853932,1467311144853932,1,0.25,12288,-41.0,919.25,1.6566993
E28011606000020612AF540B,1,1467311144948335,1467311144948335,1,0.0625,12288,-43.5,906.75,0.7424467
E28011606000020612B0001D,1,1467311144958256,1467311144958256,1,0.25,12288,-28.5,906.75,2.073942
E28011606000020612B0007D,1,1467311144970992,1467311144970992,1,0.8125,12288,-31.5,906.75,0.17794177
E28011606000020612B0006D,1,1467311144993534,1467311144993534,1,0.1875,12288,-36.5,906.75,6.074564
E28011606000020612B0005D,1,1467311145044967,1467311145044967,1,0.25,12288,-47.0,906.75,0.024543693
E28011606000020612AFC4CD,1,1467311145064798,1467311145064798,1,0.1875,12288,-29.0,906.75,1.6444274
E28011606000020612B0000D,1,1467311145188859,1467311145188859,1,0.0625,12288,-42.0,902.75,0.638136
E28011606000020612B0008D,1,1467311145214530,1467311145214530,1,0.1875,12288,-35.0,902.75,4.7369328
E28011606000020612AFC4DD,1,1467311145244027,1467311145244027,1,0.4375,12288,-40.0,902.75,1.0246992
E28011606000020612B000AD,1,1467311145265920,1467311145265920,1,0.0625,12288,-52.0,902.75,0.85902923
E28011606000020612B000DD,1,1467311145288604,1467311145288604,1,0.375,12288,-44.5,902.75,1.435806
E28011606000020612AFC4FD,1,1467311145338144,1467311145338144,1,0.1875,12288,-47.5,902.75,1.9512236
E28011606000020612AF528C,1,1467311145458966,1467311145458966,1,-0.0625,12288,-34.5,903.75,1.4726216
E28011606000020612AFC4ED,1,1467311145486096,1467311145486096,1,0.125,12288,-35.5,903.75,5.7186804
E28011606000020612B0004D,1,1467311145608354,1467311145608354,1,0.25,12288,-42.5,926.25,5.675729
E28011606000020612B000BD,1,1467311145621744,1467311145621744,1,0.875,12288,-56.0,926.25,3.2274957
E28011606000020612AF527C,1,1467311145704430,1467311145704430,1,0.0,12288,-36.5,926.25,6.2034183
E28011606000020612B0001D,1,1467311145822131,1467311145822131,1,0.1875,12288,-29.5,917.75,0.0
E28011606000020612B0007D,1,1467311145841989,1467311145841989,1,0.1875,12288,-34.0,917.75,1.276272
E28011606000020612B0002D,1,1467311145881491,1467311145881491,1,0.125,12288,-40.0,917.75,1.9941751
E28011606000020612B0009D,1,1467311145891515,1467311145891515,1,0.125,12288,-43.0,917.75,2.1905246
E28011606000020612B000CD,1,1467311145901402,1467311145901402,1,0.125,12288,-27.0,917.75,0.09817477
E28011606000020612AF52FC,1,1467311145923199,1467311145923199,1,0.0,12288,-55.5,917.75,5.902758
E28011606000020612B0005D,1,1467311146020782,1467311146020782,1,0.0625,12288,-46.0,922.25,5.7125444
E28011606000020612B0006D,1,1467311146079874,1467311146079874,1,0.25,12288,-42.5,922.25,2.632311
E28011606000020612AF540B,1,1467311146091602,1467311146091602,1,0.5,12288,-42.5,922.25,0.7424467
E28011606000020612AFC4CD,1,1467311146113445,1467311146113445,1,0.125,12288,-29.0,922.25,4.6817093
E28011606000020612AFC4FD,1,1467311146188825,1467311146188825,1,0.125,12288,-45.0,911.25,0.3742913
E28011606000020612B000DD,1,1467311146224614,1467311146224614,1,0.25,12288,-42.5,911.25,6.0254765
E28011606000020612B0008D,1,1467311146238184,1467311146238184,1,0.1875,12288,-36.0,911.25,0.159534
E28011606000020612AFC4DD,1,1467311146248016,1467311146248016,1,0.5,12288,-38.0,911.25,5.638913
E28011606000020612B0000D,1,1467311146316355,1467311146316355,1,0.0,12288,-43.0,911.25,5.8413987
E28011606000020612AFC4ED,1,1467311146401252,1467311146401252,1,0.125,12288,-34.5,908.75,1.3253593
E28011606000020612AF528C,1,1467311146435885,1467311146435885,1,0.1875,12288,-33.5,908.75,0.35588354
E28011606000020612B0001D,1,1467311146644272,1467311146644272,1,0.75,12288,-30.5,923.75,5.172583
E28011606000020612B000AD,1,1467311146813297,1467311146813297,1,-0.0625,12288,-49.0,920.75,5.8536706
E28011606000020612AF527C,1,1467311146825214,1467311146825214,1,0.0625,12288,-33.0,920.75,4.0435734
E28011606000020612B0004D,1,1467311146835133,1467311146835133,1,0.125,12288,-41.0,920.75,0.19021362
E28011606000020612B0009D,1,1467311146867696,1467311146867696,1,0.0,12288,-44.0,920.75,1.914408
E28011606000020612B0007D,1,1467311146880494,1467311146880494,1,0.1875,12288,-35.5,920.75,0.877437
E28011606000020612B000CD,1,1467311146890321,1467311146890321,1,0.1875,12288,-27.0,920.75,5.8659425
E28011606000020612B0002D,1,1467311146933855,1467311146933855,1,0.125,12288,-41.0,920.75,1.4542137
E28011606000020612AF52FC,1,1467311146988877,1467311146988877,1,0.5,12288,-55.5,920.75,5.3689327
E28011606000020612AFC4FD,1,1467311147010559,1467311147010559,1,0.0,12288,-43.0,920.25,5.184855
E28011606000020612AFC4CD,1,1467311147047334,1467311147047334,1,0.1875,12288,-28.5,920.25,5.0805445
E28011606000020612B0006D,1,1467311147122027,1467311147122027,1,0.1875,12288,-41.5,920.25,6.1175156
E28011606000020612AF540B,1,1467311147134819,1467311147134819,1,0.25,12288,-42.0,920.25,1.1351458
E28011606000020612B000DD,1,1467311147166008,1467311147166008,1,0.5,12288,-43.0,920.25,1.0737865
E28011606000020612B0000D,1,1467311147221221,1467311147221221,1,0.25,12288,-45.0,922.75,4.264467
E28011606000020612B0005D,1,1467311147302459,1467311147302459,1,0.25,12288,-46.0,922.75,5.503923
E28011606000020612AFC4DD,1,1467311147328616,1467311147328616,1,0.25,12288,-36.5,922.75,6.252506
E28011606000020612AFC4ED,1,1467311147338651,1467311147338651,1,0.125,12288,-38.0,922.75,4.6510296
E28011606000020612B0008D,1,1467311147360342,1467311147360342,1,0.25,12288,-39.5,922.75,1.4480779
