-53.0,0.0,-0.0625
-58.5,2.184388641949153,0.0
-56.5,-1.270136092369311,-0.125
-61.5,4.3074180523828804,0.75
-53.5,-4.528311285838413,-0.125
-61.0,-0.2822524649709579,0.0625
-57.0,3.3318062712876126,0.125
-60.5,-2.184388641949153,0.125
-52.0,-1.368310862793992,0.0625
-57.5,1.2885438618239387,0.125
-54.0,4.270602513473625,0.875
-62.5,-5.534602682691393,-0.25
-54.0,0.0,0.1875
-56.5,-4.724660826687775,0.0625
-54.0,5.129631754689584,0.625
-52.0,-5.675728915176872,0.0
-54.5,2.6261751088602177,-0.375
-62.0,3.429981041712294,1.25
-54.0,-4.755340442445488,-0.25
-60.5,4.577398671050753,0.0625
-54.5,-0.7179030087304801,0.1875
-54.5,0.0,0.1875
-57.0,-4.7307967498393175,-0.0625
-50.0,-0.33747577333484113,0.0625
-49.0,5.602097837358362,0.25
-55.5,-0.5583690067903735,0.625
-53.5,-0.3988350048502669,0.25
-61.0,-3.792000507653305,-0.8125
-57.0,-0.23316507975861755,0.9375
-52.0,3.792000507653305,-0.5
-55.5,-2.3807381827985155,0.0
-60.5,-1.337631247036279,-0.25
-57.5,1.0921943209745764,0.125
-56.5,0.0,0.0625
-53.0,1.2149127840054277,0.5
-52.5,-4.589670517353838,-0.125
-54.0,-0.9756117810952677,-0.0625
-50.0,4.841243366567084,0.0
-53.5,-3.5342917352885173,0.25
-54.0,2.3009711818284617,0.25
-63.0,-1.9757672547967058,0.75
-51.5,3.037281960013569,0.1875
-59.5,0.8835729338221299,-0.4375
-61.0,-2.2334760271614935,-0.4375
-55.0,0.9081166264282996,1.0625
-58.0,0.8713010875190443,0.5
-62.0,-5.295301679781233,1.8125
-60.5,0.889708856973672,0.0
-56.0,3.6201946594101138,0.1875
-53.5,-4.5835345942022965,-1.25
-58.5,5.994796919057086,0.0
-52.5,0.0,-0.0625
-55.0,1.0185632431560656,0.9375
-59.5,5.037592907416446,0.25
-56.5,-0.6504078540635119,0.375
-54.5,-4.2092432819582,-0.375
-53.5,0.19021361769781953,-0.0625
-55.5,-1.3560390164909069,0.1875
-58.0,4.871922982324796,0.8125
-53.5,0.2699806186678728,0.0
-54.5,-2.626175108860218,-0.0625
-61.0,3.528155812136975,0.0
-64.0,-5.1725832167503825,-0.625
-52.0,-0.16566992509164935,0.5
-62.0,0.0,-0.25
-65.0,4.233786974564369,0.25
-58.5,0.1288543861823941,-0.1875
-56.0,-4.57126274789921,1.125
-55.5,3.2274955777113887,0.0625
-59.0,-4.4117287459591035,0.5625
-61.0,1.1965050145508,0.1875
-56.5,0.6381360077604268,0.125
-60.5,2.896155727528091,0.1875
-54.5,-2.7059421098302714,-0.875
-57.5,0.0,0.375
-61.5,-4.4117287459591035,-0.9375
-56.5,4.743068596142402,0.0625
-57.5,-4.7307967498393175,0.75
-58.5,5.092816215780329,1.125
-54.5,-5.565282298449106,0.1875
-57.5,1.2762720155208533,0.5
-62.0,3.5956509668039427,0.125
-58.5,-2.8532042654672924,0.25
-57.5,-1.7732817907958012,0.4375
-60.5,5.350524988145117,0.5
-58.0,-5.111223985234957,0.9375
-58.5,0.0,-1.25
-60.5,4.289010282928253,0.0625
-54.0,-4.7307967498393175,-0.125
-56.5,5.313709449235861,0.875
-50.0,-5.724816300389213,0.0625
-53.5,0.2024854640009046,0.1875
-51.5,3.264311116620645,0.1875
-54.5,-3.3993014259545813,0.1875
-58.5,4.994641445355647,-1.1875
-53.0,-4.209243281958199,0.0625
-55.5,0.9510680884890974,0.1875
-59.0,3.7981364308048473,0.1875
-63.0,-0.2577087723647873,-0.0625
-55.0,-3.706097583531709,-0.1875
-53.0,-1.0369710126106937,0.0625
-54.5,4.601942363656924,-0.0625
-60.0,0.0,0.4375
-58.5,0.5215534678811187,0.1875
-52.0,-3.147728576741336,0.125
-54.0,-1.3989904785517049,0.0625
-54.5,-0.521553467881118,0.125
-49.0,5.810719224510809,0.25
-58.0,0.09203884727313838,0.25
-53.0,-0.6381360077604272,0.0625
-60.5,-3.166136346195963,0.0625
-55.0,3.3256703481360694,-0.5
-56.0,0.3926990816987246,0.0
-52.0,-5.031456984264903,0.25
-62.0,1.0799224746714915,-0.5
-53.5,2.9636508821950587,0.375
-58.0,-4.908738521234052,0.125
-63.0,5.45483568172134,1.0625
-55.0,0.11044661672776623,0.125
-55.5,0.0,0.25
-58.5,2.699806186678728,-0.25
-54.0,-1.3560390164909064,0.0625
-52.0,1.2455923997631402,0.4375
-59.0,-0.030679615757712497,-0.625
-58.0,-4.9394181369917645,0.0
-58.5,4.608078286808466,-0.875
-52.0,-0.7363107781851079,0.0625
-59.5,0.6442719309119695,0.5625
-54.5,-4.031301510563465,0.25
-54.0,4.04357335686655,2.4375
-53.5,-0.38042723539563816,-0.0625
-62.0,0.0,-0.875
-56.0,3.11091303783208,0.625
-52.0,-2.2212041808584084,-0.125
-63.5,3.957670432744954,-0.0625
-58.5,0.632000084608884,-0.5625
-61.5,-3.362485887045325,-0.125
-59.5,3.681553890925539,-1.0625
-62.5,-0.5092816215780331,-0.25
-57.5,-4.172427743048944,0.5625
-60.0,0.0,1.5625
-59.5,2.570951800496335,0.9375
-65.0,0.9510680884890972,0.75
-59.5,1.1044661672776614,-0.25
-59.5,-5.26462206402352,-0.125
-54.5,-0.7424467013366502,0.5
-53.5,0.7792622402459057,0.375
-60.5,4.804427827657828,0.25
-53.0,-3.816544200259475,-0.0625
-59.0,3.4483888111669216,0.0
-57.0,-2.5280003384355365,-0.5
-53.0,0.0,-0.0625
-59.5,-3.1231848841351657,-0.75
-58.0,-0.9510680884890975,0.1875
-55.5,4.313553975534423,0.0625
-58.5,-3.607922813107028,0.375
-62.5,0.2945243112740432,0.25
-61.0,3.663146121470911,0.125
-52.0,-0.24543692606170264,0.0
-58.5,-4.534447208989955,-0.5
-49.0,4.669437518323892,-0.625
-61.5,-1.1412817061869172,0.625
-54.5,0.4970097752749476,0.125
-56.5,0.9449321653375549,0.4375
-54.5,-5.197126909356552,0.5625
-53.5,4.7921559813547425,0.0
-55.5,-3.0925052683774523,-0.0625
-53.0,0.0,-0.1875
-58.0,-0.04295146206079803,0.375
-53.5,-0.7485826244881926,0.1875
-62.5,0.6381360077604263,-0.0625
-57.0,0.11044661672776623,0.375
-56.0,-1.7119225592803753,-0.125
-49.0,-4.025165587411923,0.125
-58.0,3.282718886075272,0.1875
-54.0,-1.1965050145508003,0.0625
-62.0,2.4298255680108554,-0.625
-55.5,1.2946797849754814,-0.25
-55.0,-0.37429131224409673,0.1875
-56.0,-3.3379421944391545,0.0
-53.0,-1.0676506283684064,0.0
-64.0,1.3683108627939917,-0.8125
-54.0,0.0,0.0
-54.5,-0.6381360077604268,0.125
-62.5,-2.2457478734645786,-0.5625
-55.0,3.8226801234110175,-0.125
-55.0,0.5399612373357456,0.0625
-54.5,-0.7669903939428204,0.0
-59.0,-2.6752624940725585,0.0625
-53.5,0.03681553890925571,-0.75
-51.0,2.785709110800324,0.625
-63.5,-4.859651136021711,0.1875
-52.0,5.086680292628786,0.0625
-54.5,-0.030679615757713385,0.875
-64.0,-0.6197282383057985,0.625
-61.0,0.0,0.1875
-55.0,0.822213702306704,-0.0625
-57.5,-3.1538644998928786,0.0625
-58.5,2.485048876374739,1.125
-55.5,-4.577398671050753,0.5625
-55.5,5.424156065963627,0.0625
-63.5,-0.5645049299419167,0.125
-58.5,0.9081166264283,1.0625
-62.0,-2.12916533358527,-0.5625
-62.5,-3.442252888015379,0.9375
-60.5,3.3318062712876126,0.0625
-58.5,1.3928545554001621,0.25
-60.0,-0.337475773334841,0.375
-55.0,0.0,-1.75
-55.0,2.9268353432858034,-0.25
-56.5,1.4848934026733005,-0.125
-61.5,-4.509903516383785,0.75
-52.0,-0.8835729338221293,0.0
-54.0,0.5460971604872882,0.1875
-59.5,5.313709449235861,-0.125
-56.0,-5.878214379177777,-0.1875
-56.5,0.7976700097005334,0.0625
-60.5,-0.3497476196379261,0.625
-59.0,0.2945243112740431,0.1875
-51.5,-0.31293208072867085,-0.0625
-61.5,0.0,0.5625
-52.5,-2.0616701789183023,0.0625
-58.5,2.5280003384355365,0.1875
-51.5,-1.306951631278566,0.0625
-64.5,-3.6447383520162835,-0.0625
-54.5,4.804427827657828,0.125
-64.0,-4.424000592262189,-1.0625
-56.5,0.47860200582032,-0.0625
-65.5,4.129476280988146,0.75
-53.0,-2.7979809571034093,0.4375
-65.0,2.0862138715244716,-0.5625
-57.0,-3.706097583531709,-0.125
-55.0,0.2822524649709579,0.1875
-50.5,0.0,0.125
-59.5,1.0799224746714913,0.25
-56.0,-0.9326603190344698,-0.0625
-56.0,-0.12271846303085127,0.0
-53.5,1.2946797849754812,0.1875
-56.0,3.479068426924634,-0.125
-54.0,0.8283496254582463,0.5
-56.0,-4.626486056263094,0.375
-55.5,0.31293208072867085,0.5
-62.5,-1.2578642460662257,-0.1875
-58.0,0.19634954084936207,0.25
-56.5,0.2761165418194155,0.1875
-54.5,-0.8406214717613314,0.0625
-59.5,0.0,-0.625
-53.5,-0.28225246497095835,0.0
-55.5,-4.7307967498393175,0.0
-55.5,4.239922897715912,-0.0625
-57.0,-0.14112623248547873,-0.125
-55.0,-4.448544284868359,0.125
-60.5,3.288854809226815,0.9375
-55.0,1.6505633277649499,0.5
-53.0,-4.73693267299086,0.5
-52.5,0.9633399347921827,0.4375
-63.0,2.969786805346601,0.625
-53.0,-3.8717675086233583,0.0625
-51.5,0.0,0.0
-57.5,4.209243281958199,0.5
-51.5,-3.252039270317559,0.0
-53.0,4.006757817957295,0.0
-55.0,-0.11044661672776623,0.8125
-64.0,-5.780039608753095,1.125
-54.0,1.2517283229146832,0.0625
-52.5,-0.30066023442558554,0.5
-54.5,4.571262747899211,0.4375
-54.5,0.0,0.1875
-61.0,-1.1535535524900018,0.5625
-56.0,-0.19021361769781997,0.0
-55.0,-2.4789129532231957,-0.5625
-59.5,-1.7732817907958012,0.375
-62.0,1.2578642460662257,0.625
-58.0,4.154019973594316,-0.0625
-61.0,-1.012427320004523,0.0
-58.0,1.2517283229146834,-0.125
-52.0,-6.025476534814799,0.0
-60.5,0.8713010875190441,-0.0625
-52.5,4.552854978444583,-0.0625
-54.5,-4.871922982324796,0.125
-59.0,0.0,0.0
-58.5,1.1903690913992575,-0.125
-56.5,-4.546719055293041,-0.0625
-63.5,3.7858645845017627,-0.0625
-60.5,0.6565437772150542,0.5
-59.5,-0.018407769454627854,0.1875
-61.0,0.2577087723647882,-0.375
-64.0,-5.221670601962723,1.0625
-51.5,3.9269908169872414,0.1875
-56.0,0.8344855486097886,0.5
-58.0,0.3252039270317564,0.125
-56.0,-0.45405831321415047,-0.5
-55.5,0.5092816215780331,0.75
-51.5,-0.4540583132141496,0.125
-49.5,-0.9387962421860125,0.25
-60.5,0.0,0.625
-60.5,-0.17180584824319178,0.25
-56.5,0.42337869745643697,0.75
-50.0,-0.9633399347921827,0.0
-52.0,1.1719613219446299,0.1875
-58.0,3.736777199289422,0.0
-60.0,0.9633399347921827,0.5625
-61.0,-0.6013204688511715,0.0
-64.0,-3.6017868899554855,-5.0
-60.0,-1.773281790795801,0.125
-53.5,1.88986433067511,0.125
-57.5,2.60776733940559,0.0625
-58.0,-0.07363107781851053,0.4375
-61.0,0.6442719309119695,0.0625
-57.5,-2.9881945748012293,0.125
-54.0,0.0,-0.125
-55.0,1.2455923997631406,0.0625
-55.0,-1.6260196351587797,0.4375
-55.5,0.20862138715244716,0.0625
-56.0,3.3379421944391554,0.0
-57.0,0.05522330836388312,0.75
-55.5,1.5953400194010663,-0.0625
-59.0,-4.123340357836604,-0.5
-58.0,4.491495746929157,0.4375
-58.5,-5.681864838328415,1.3125
-62.0,4.111068511533518,-0.125
-62.0,-0.45405831321415,-0.625
-62.0,2.1475731030398975,-0.0625
-64.0,-0.8590292412159588,0.5
-61.5,0.0,-0.9375
-55.0,-0.3006602344255853,-0.25
-52.5,-3.9085830475326135,-0.125
-57.5,-0.7669903939428206,0.125
-59.5,1.1596894756415446,0.1875
-57.0,4.2092432819582,-0.625
-50.0,-4.479223900626073,0.0625
-62.0,3.816544200259475,0.625
-55.5,-3.914718970684156,-0.0625
-66.5,-1.5401167110371836,-0.5
-55.5,5.00077736850719,-0.0625
-59.5,-3.730641276137879,0.1875
-56.0,3.270447039772187,0.125
-53.0,0.0,0.375
-56.5,3.6447383520162835,0.0625
-54.5,0.6442719309119691,0.1875
-55.0,1.4235341711578755,0.125
-58.5,-1.1719613219446305,0.0625
-54.0,-3.6815538909255388,-0.125
-55.5,4.25833066717054,-0.0625
-61.0,-5.1296317546895835,0.375
-55.5,5.902758071783948,-0.0625
-58.0,-3.9453985864418697,0.125
-55.5,-0.18407769454627676,0.125
-54.0,0.0,0.1875
-59.0,-4.884194828627881,-0.5625
-56.0,5.602097837358361,0.25
-65.5,-0.6688156235181397,0.25
-53.5,0.6688156235181397,-0.0625
-55.0,-1.454213786915588,0.5625
-57.5,1.2149127840054286,-0.375
-54.5,-3.1845441156505916,-0.0625
-63.0,-2.5034566458293663,-0.625
-52.0,-0.16566992509164924,0.0625
-53.5,0.4111068511533518,-0.25
-52.5,0.33133985018329853,-0.125
-58.0,0.6504078540635118,-0.25
-62.5,3.9883500485026673,-0.5625
-47.0,-4.509903516383785,0.25
-60.5,0.0,0.8125
-59.5,5.577554144752192,1.0625
-56.0,-0.24543692606170264,0.25
-59.0,-4.7307967498393175,0.75
-60.0,-0.20862138715244727,0.0625
-62.0,-0.6565437772150544,0.0
-57.5,0.619728238305799,0.75
-57.0,3.4913402732277197,-0.5625
-61.0,-4.092660742078891,-0.0625
-62.0,5.88435030232932,-0.5625
-56.5,-5.387340527054372,-1.75
-57.0,5.141903600992669,0.125
-55.5,-0.5092816215780331,-0.0625
-64.0,0.0,1.125
-61.5,-4.0558452031696355,0.75
-58.5,4.810563750809371,0.4375
-61.5,-1.8407769454627698,0.4375
-58.0,2.4911847995262817,0.1875
-66.0,0.03681553890925482,0.125
-60.5,-1.3621749396424487,0.8125
-58.5,1.3928545554001621,-0.0625
-52.0,-0.38042723539563905,0.375
-57.5,-0.9081166264283,-0.4375
-56.0,0.0,-0.1875
-53.5,-0.15339807878856426,0.1875
-53.0,-3.3133985018329843,0.0625
-56.5,4.828971520263998,0.0
-61.0,0.0,-0.4375
-57.5,0.09817477042468092,0.375
-54.0,4.700117134081605,0.0
-58.5,-5.651185222570702,0.1875
-54.0,1.2885438618239384,0.25
-52.0,2.448233337465483,0.125
-56.0,-2.969786805346601,-1.125
-54.5,4.693981210930062,0.8125
-62.0,-5.694136684631499,-0.375
-63.0,1.1596894756415448,-0.625
-57.0,0.0674951546669682,0.1875
-57.5,0.0,0.25
-57.0,-0.4233786974564371,0.5
-53.0,-2.9575149590435164,0.375
-57.5,1.8653206380689398,0.0625
-58.5,1.4358060174609601,0.0
-51.0,-1.4910293258248433,0.125
-59.0,-0.4233786974564371,0.25
-59.5,3.6201946594101133,0.25
-57.0,-4.522175362686871,0.625
-58.5,4.841243366567084,0.125
-58.0,-3.2765829629237295,-0.125
-56.5,2.8532042654672924,0.125
-62.0,0.0,0.5
-56.0,4.9394181369917645,0.25
-55.5,-4.871922982324796,0.1875
-54.0,5.405748296508999,-0.625
-57.5,-0.9878836273983529,0.375
-57.5,0.25157284921324585,0.625
-61.5,-0.018407769454627854,0.1875
-58.5,-4.589670517353839,0.25
-61.0,0.9817477042468103,-1.25
-60.5,3.8226801234110175,0.75
-58.0,0.9756117810952682,0.0625
-51.5,-0.17794177139473444,0.125
-62.0,-3.853359739168731,0.5
-57.0,-1.349903093339364,0.25
-59.5,0.0,0.375
-57.5,0.6381360077604268,-0.25
-57.5,0.6994952392758524,0.5
-53.5,1.9880391010997904,0.1875
-58.0,-2.503456645829366,0.0
-57.0,-1.466485633218673,0.125
-55.0,0.2454369260617026,0.25
-60.5,4.62035013311155,-0.375
-56.0,-3.920854893835698,0.125
-53.5,-0.6320000846088842,0.4375
-62.5,0.18407769454627698,0.1875
-58.0,4.577398671050753,0.0625
-52.5,1.1228739367322893,0.0625
-53.0,0.0,-0.25
-54.5,3.1354567304382504,-0.5625
-56.5,1.5033011721279288,0.125
-57.5,-0.47860200582032064,-0.25
-55.5,0.337475773334841,0.0
-58.5,-5.031456984264903,0.125
-61.5,5.835262917116979,-0.125
-62.5,-1.5892040962495244,0.8125
-55.5,0.7731263170943636,-0.1875
-52.0,0.8590292412159588,-0.375
-62.5,-1.8039614065535137,-4.375
-53.5,1.9634954084936203,0.125
-60.5,-5.062136600022615,0.0
-59.5,0.0,0.1875
-59.0,1.2824079386723959,-0.5
-62.5,-0.2270291566070748,-0.5625
-55.0,-1.4603497100671303,0.0
-59.0,4.47308797747453,0.625
-55.5,-0.6197282383057994,0.5
-53.0,0.8467573949128742,0.125
-58.0,-1.41126232485479,1.9375
-58.5,-1.736466251886546,0.0
-62.5,-0.8344855486097886,-0.5
-55.5,-0.24543692606170264,-0.4375
-53.5,4.540583132141498,0.0625
-49.5,0.0,0.0625
-54.5,5.497787143782139,-0.0625
-56.0,-5.83526291711698,0.25
-53.5,5.780039608753096,0.1875
-54.0,-0.024543692606170175,0.25
-62.5,-5.387340527054372,0.25
-54.5,-0.5399612373357456,0.25
-56.0,1.791689560250429,0.1875
-64.0,-0.564504929941916,-0.0625
-53.5,-1.2824079386723959,0.25
-57.5,4.135612204139689,0.375
-52.0,0.0,0.0625
-58.5,0.7669903939428206,-1.5
-59.0,4.933282213840222,0.25
-52.0,-1.5953400194010667,0.0625
-57.5,-0.7179030087304805,-0.5625
-56.5,-1.5217089415825558,0.0625
-57.0,-0.46019423636569234,0.0
-60.5,-0.3436116964863838,0.125
-61.5,2.6629906477694734,0.0625
-64.5,0.47246608266877743,-2.9375
-58.5,1.0983302441261191,0.0625
-61.5,0.5338253141842033,0.0625
-54.0,-2.1046216409791,0.125
-57.5,-2.018718716857504,-0.0625
-62.5,-1.8162332528565994,0.0
-56.0,0.0,-0.375
-54.0,3.0434178831651124,-0.125
-52.0,-3.853359739168731,0.375
-54.0,3.491340273227719,-0.125
-58.0,-3.1538644998928778,-0.75
-64.0,2.6139032625571326,0.5
-57.5,-1.4787574795217582,0.0625
-56.5,-0.36815538909255374,0.625
-59.5,-1.9082721001297378,0.5
-58.5,4.859651136021712,-0.25
-58.5,1.3437671701878218,0.75
-61.5,-1.1535535524900027,-0.25
-54.0,-3.6570101983193686,0.0
-56.5,4.552854978444583,0.0
-50.5,-5.332117218690488,0.1875
-56.5,0.9510680884890974,0.0
-54.5,0.0,0.1875
-57.0,-0.3988350048502667,-1.0625
-58.5,4.190835512503572,0.5
-67.5,-5.755495916146926,-0.5625
-59.5,0.2699806186678729,-0.0625
-62.5,1.4358060174609601,0.75
-56.0,-0.7547185476397353,0.125
-59.5,2.87161203492192,0.5625
-54.5,1.687378866674206,0.4375
-66.0,0.0,0.625
-56.5,3.5526995047431447,0.0625
-59.0,0.632000084608884,-0.125
-59.0,-1.2455923997631402,-1.125
-59.5,1.2824079386723959,-0.125
-56.0,-4.356505437595221,0.125
-61.5,4.7307967498393175,0.125
-58.0,-5.313709449235861,0.1875
-55.0,0.17180584824319178,-0.0625
-53.0,5.013049214810275,-0.5625
-54.5,-4.718524903536232,-0.0625
-56.0,0.0,1.3125
-60.0,0.25770877236478773,-0.0625
-58.0,3.99448597165421,0.125
-59.0,1.368310862793991,0.125
-56.0,-1.8775924843720242,0.9375
-53.5,-2.5341362615870793,0.125
-54.0,4.7860200582032,-0.25
-55.5,-5.95798138014783,0.0
-54.5,4.129476280988146,0.0625
-55.0,-0.294524311274043,0.25
-63.0,-3.3256703481360703,-0.25
