-58.5,3.890175278077986,-7.3125
-59.5,3.479068426924634,85.4375
-58.5,3.3011266555298997,69.125
-61.0,3.77972866135022,25.1875
-59.5,3.6876898140770815,-4.875
-58.0,3.522019888985432,18.6875
-58.5,3.877903431774901,-43.125
-59.5,3.6815538909255388,0.8125
-61.0,4.0128937411088375,-35.75
-59.5,4.1172044346850605,-31.6875
-59.0,3.773592738198677,-12.1875
-60.0,3.792000507653305,14.625
-59.0,3.6876898140770815,6.5
-60.0,3.5342917352885173,70.75
-59.5,3.834951969714103,14.625
-59.0,3.5833791205008576,26.8125
-59.5,3.663146121470911,33.3125
-59.0,3.6570101983193686,22.75
-59.0,3.933126740138784,-14.625
-59.5,3.54042765844006,32.5
-60.5,3.693825737228624,15.4375
-59.5,3.8840393549264434,-30.875
-60.5,3.9208548938356986,-28.4375
-59.5,3.429981041712294,36.5625
-59.5,3.9208548938356986,-56.9375
-59.0,3.9085830475326135,-18.6875
-59.0,3.9638063558964967,-26.0
-60.0,4.061981126321178,-34.125
-60.0,3.509748042682347,41.5
-58.5,4.006757817957295,-35.75
-58.0,3.724505352986337,20.3125
-58.5,3.6999616603801666,-8.9375
-59.5,3.9208548938356986,-27.625
-60.0,3.9085830475326135,-27.625
-60.0,3.8717675086233583,-0.8125
-58.5,4.1172044346850605,-62.625
-58.5,3.8840393549264434,-64.25
-61.0,3.6570101983193686,3.25
-60.0,3.9699422790480394,-32.5
-58.5,4.25833066717054,-50.4375
-59.0,3.865631585471816,-20.3125
-60.5,3.129320807286708,126.9375
-60.0,3.785864584501762,2.4375
-58.0,3.9638063558964967,-13.8125
-60.5,3.442252888015379,52.875
-60.0,3.6140587362585705,8.9375
-60.5,3.5895150436524004,42.3125
-59.5,3.8963112012295285,-54.5
-61.0,3.8963112012295285,-32.5
-59.0,3.448388811166921,51.25
-60.5,3.9515345095934116,-52.0625
-59.0,3.9944859716542096,-34.9375
-60.0,3.6324665057131984,32.5
-58.0,3.6876898140770815,4.875
-60.0,3.847223816017188,-39.875
-60.0,4.086524818927348,-25.1875
-59.5,3.9822141253511245,-45.5625
-58.5,3.933126740138784,-7.3125
-60.0,3.3870295796514958,43.9375
-60.5,3.773592738198677,0.0
-59.0,4.037437433715008,2.4375
-59.5,3.933126740138784,-9.75
-59.5,3.7429131224409646,25.1875
-61.5,3.816544200259475,-22.75
-58.5,3.8963112012295285,12.1875
-60.0,3.9638063558964967,-34.9375
-57.5,3.6201946594101133,36.5625
-61.0,3.8963112012295285,-23.5625
-61.0,3.706097583531709,45.5625
-60.5,3.7122335066832517,-9.75
-58.5,4.049709280018092,-39.875
-59.0,3.8717675086233583,-9.75
-60.5,3.767456815047135,12.1875
-60.5,4.031301510563465,-72.375
-60.0,3.810408277107933,-42.3125
-59.5,3.3747577333484107,44.75
-59.5,3.724505352986337,-17.875
-58.5,3.890175278077986,-17.875
-60.5,3.785864584501762,-19.5
-60.5,3.423845118560751,61.8125
-57.5,3.8840393549264434,-19.5
-58.0,3.761320891895592,2.4375
-58.0,4.0128937411088375,-64.25
-58.5,3.6447383520162835,39.875
-59.0,3.773592738198677,17.0625
-59.0,3.718369429834794,30.875
-59.5,3.7551849687440497,36.5625
-59.0,4.184699589352029,-57.75
-60.0,4.000621894805752,3.25
-59.5,4.331961744989051,-88.6875
-58.0,4.154019973594316,-30.875
-57.0,3.9699422790480394,-22.75
-59.5,3.761320891895592,38.1875
-57.5,4.147884050442774,-45.5625
-59.0,3.988350048502667,-29.25
-58.5,4.239922897715912,-72.375
-59.0,3.847223816017188,17.875
-59.5,4.344233591292136,-85.4375
-57.0,4.411728745959104,-77.25
-61.0,3.9269908169872414,-15.4375
-59.5,4.049709280018092,-41.5
-58.0,3.730641276137879,28.4375
-58.5,3.7551849687440497,22.75
-58.5,4.264466590322082,-41.5
-58.5,3.9576704327449543,-5.6875
-59.0,3.865631585471816,-24.375
-60.0,3.785864584501762,-26.0
-60.5,3.663146121470911,0.0
-61.0,3.6570101983193686,13.8125
-58.5,3.77972866135022,-20.3125
-58.5,3.6754179677739964,7.3125
-59.0,3.9576704327449543,-28.4375
-60.5,3.9576704327449543,-14.625
-60.0,3.6447383520162835,19.5
-61.5,3.792000507653305,7.3125
-60.5,3.5465635815916023,42.3125
-59.0,3.6263305825616556,31.6875
-60.0,3.3440781175906977,52.875
-59.5,3.429981041712294,40.6875
-59.5,3.172272269347506,83.0
-59.0,3.6999616603801666,29.25
-60.0,3.890175278077986,-2.4375
-60.0,3.816544200259475,-0.8125
-58.5,3.6079228131070282,4.875
-60.5,3.847223816017188,8.125
-59.0,3.718369429834794,28.4375
-60.0,3.810408277107933,15.4375
-61.0,3.9576704327449543,-40.6875
-61.0,3.472932503773092,26.0
-61.0,3.9208548938356986,-31.6875
-59.0,3.5036121195308043,55.3125
-59.5,3.761320891895592,-14.625
-60.0,3.859495662320273,-24.375
-61.0,3.9147189706841563,-14.625
-59.0,3.6201946594101133,-17.875
-60.5,3.6386024288647407,37.375
-58.5,3.5711072741977725,32.5
-60.0,3.890175278077986,-17.0625
-62.0,3.785864584501762,-2.4375
-60.0,3.380893656499953,45.5625
-59.5,3.5833791205008576,27.625
-60.5,3.693825737228624,1.625
-61.0,3.9760782021995817,-32.5
-60.0,3.436116964863836,37.375
-60.0,3.6017868899554855,40.6875
-61.0,3.9699422790480394,-23.5625
-58.5,3.3502140407422405,49.625
-60.5,4.025165587411922,-35.75
-59.5,3.6692820446224537,3.25
-59.0,3.7429131224409646,0.0
-62.0,3.792000507653305,-23.5625
-61.5,3.706097583531709,-39.875
-61.0,3.6263305825616556,21.125
-61.0,3.9269908169872414,13.8125
-61.0,3.859495662320273,-41.5
-60.5,3.7551849687440497,-8.125
-60.0,3.9392626632903265,-61.0
-58.0,3.7981364308048478,-17.875
-60.5,3.6017868899554855,4.875
-59.5,3.8963112012295285,-1.625
-61.0,3.6140587362585705,17.0625
-60.5,3.9760782021995817,-35.75
-61.0,3.9822141253511245,-60.1875
-60.5,3.6386024288647407,8.9375
-60.0,3.485204350076177,44.75
-59.0,3.5158839658338894,35.75
-59.5,3.6999616603801666,-16.25
-60.0,3.8717675086233583,-24.375
-59.5,3.9944859716542096,-48.8125
-60.0,3.9760782021995817,-77.25
-61.0,4.031301510563465,9.75
-62.0,3.9269908169872414,23.5625
-60.0,3.552699504743145,43.125
-58.0,3.454524734318464,39.875
-58.5,3.552699504743145,41.5
-60.5,3.877903431774901,-4.875
-58.5,3.3379421944391554,65.875
-60.0,3.785864584501762,-2.4375
-61.5,3.9269908169872414,18.6875
-60.5,3.522019888985432,67.5
-61.0,3.8288160465625602,-13.8125
-59.5,3.706097583531709,16.25
-59.5,3.4606606574700063,71.5625
-60.0,3.9576704327449543,-8.9375
-60.5,3.6447383520162835,9.75
-60.0,3.6201946594101133,41.5
-61.5,3.773592738198677,-8.125
-60.5,3.9147189706841563,-3.25
-58.0,3.693825737228624,39.875
-60.5,4.061981126321178,-54.5
-59.5,3.4913402732277192,65.875
-59.0,4.006757817957295,-8.125
