-45.0,1.3621749396424494,0.0
-44.5,1.3499030933393643,0.8125
-44.5,1.337631247036279,7.3125
-44.0,1.325359400733194,9.75
-44.0,1.3560390164909069,0.8125
-44.0,1.3314953238847365,0.0
-44.0,1.2762720155208536,0.8125
-43.0,1.282407938672396,2.4375
-43.0,1.380582709097077,4.875
-43.5,1.6014759425526093,-0.8125
-43.5,1.761009944492716,0.8125
-43.5,1.846912868614312,2.4375
-45.0,2.030990563160589,0.8125
-45.5,2.012582793705961,0.8125
-45.5,2.018718716857504,-1.625
-46.0,1.9757672547967058,4.875
-46.0,1.9634954084936207,10.5625
-47.0,2.0064468705544187,1.625
-47.5,1.9634954084936207,2.4375
-48.5,1.902136176978195,3.25
-50.5,1.902136176978195,3.25
-52.0,1.945087639038993,2.4375
-52.5,1.945087639038993,4.875
-53.5,2.000310947402876,0.8125
-53.0,2.018718716857504,-1.625
-53.5,2.0371264863121317,0.8125
-54.0,2.0493983326152168,2.4375
-57.5,2.1966604882522383,-9.75
-62.5,2.442097414313941,-10.5625
-61.0,3.442252888015379,-17.875
-61.0,3.368621810196868,-8.9375
-60.5,3.184544115650591,17.875
-60.0,3.2765829629237295,-4.875
-59.5,3.32567034813607,-12.1875
-60.5,3.2643111166206444,-7.3125
-59.5,3.1354567304382504,10.5625
-59.5,3.2029518851052186,-1.625
-59.0,3.1231848841351653,-4.875
-59.5,2.9759227284981438,10.5625
-58.0,2.8777479580734626,-6.5
-56.5,2.6323110320117604,-12.1875
-54.0,2.067806102069844,11.375
-53.0,1.945087639038993,8.125
-52.0,1.8653206380689396,-1.625
-50.5,1.736466251886546,1.625
-49.5,1.7548740213411735,-2.4375
-49.5,1.6873788666742053,1.625
-48.5,1.6505633277649499,3.25
-48.5,1.6566992509164924,2.4375
-48.5,1.6382914814618648,3.25
-48.5,1.6505633277649499,1.625
-47.5,1.6260196351587797,4.875
-47.0,1.607611865704152,6.5
-46.5,1.5953400194010667,4.875
-46.5,1.5707963267948966,5.6875
-45.5,1.5892040962495242,3.25
-45.5,1.576932249946439,1.625
-45.0,1.576932249946439,2.4375
-45.0,1.5892040962495242,-0.8125
-44.5,1.552388557340269,7.3125
-44.5,1.576932249946439,1.625
-44.5,1.5707963267948966,-0.8125
-44.5,1.5401167110371838,4.875
-44.0,1.5462526341887264,4.875
-44.0,1.5401167110371838,2.4375
-44.5,1.5585244804918115,3.25
-44.0,1.564660403643354,-1.625
-44.0,1.5278448647340985,5.6875
-44.0,1.5585244804918115,0.8125
-43.5,1.521708941582556,4.875
-43.5,1.5155730184310134,2.4375
-43.5,1.4910293258248433,8.125
-43.5,1.5033011721279284,0.0
-43.5,1.5033011721279284,4.875
-43.0,1.4971652489763858,3.25
-43.0,1.5155730184310134,-1.625
-43.5,1.4787574795217582,4.875
-43.0,1.4848934026733007,3.25
-43.0,1.4848934026733007,3.25
-43.0,1.4542137869155878,8.125
-42.5,1.4910293258248433,3.25
-42.5,1.4848934026733007,2.4375
-42.5,1.4971652489763858,0.0
-42.5,1.4848934026733007,-0.8125
-42.0,1.4542137869155878,5.6875
-42.5,1.4726215563702154,0.8125
-42.0,1.4603497100671303,3.25
-42.5,1.4726215563702154,0.0
-42.0,1.4480778637640452,4.875
-42.0,1.4603497100671303,3.25
-42.0,1.4787574795217582,0.8125
-42.0,1.4603497100671303,2.4375
-41.5,1.4358060174609601,5.6875
-41.5,1.4358060174609601,3.25
-41.0,1.4480778637640452,1.625
-40.5,1.423534171157875,0.0
-40.5,1.4173982480063325,3.25
-40.5,1.41126232485479,5.6875
-40.5,1.4296700943094176,3.25
-40.5,1.3989904785517047,7.3125
-40.5,1.3867186322486196,5.6875
-40.5,1.3744467859455345,9.75
-41.0,1.3989904785517047,3.25
-41.0,1.3744467859455345,4.875
-41.0,1.3744467859455345,3.25
-40.5,1.3744467859455345,1.625
