-43.0,0.0,-2.4375
-38.5,3.239767424014474,0.0
-34.0,-3.6017868899554855,0.8125
-42.0,0.006135923151542599,0.8125
-34.0,-0.012271846303085143,2.4375
-38.0,3.6263305825616556,-1.625
-43.0,-3.270447039772187,0.0
-42.0,-0.3742913122440964,5.6875
-38.0,3.663146121470911,-2.4375
-42.0,-3.5833791205008576,3.25
-34.0,-0.018407769454627687,0.8125
-43.5,0.3742913122440964,1.625
-38.0,3.1968159619536762,2.4375
-42.0,-3.51588396583389,-0.8125
-34.0,-0.0736310778185108,4.875
-43.5,0.4111068511533519,0.8125
-42.0,-0.36201946594101136,4.875
-38.0,3.6140587362585705,-7.3125
-34.0,-3.6570101983193686,2.4375
-43.5,0.44178646691106466,-2.4375
-42.0,-0.3865631585471816,4.875
-34.0,-0.04295146206079792,1.625
-38.0,3.6079228131070282,0.8125
-42.0,-3.552699504743145,2.4375
-34.0,-0.05522330836388306,4.0625
-37.5,3.6140587362585705,-1.625
-43.5,-3.184544115650591,-2.4375
-34.0,-0.4295146206079795,4.0625
-43.5,0.42337869745643697,0.8125
-37.5,3.1784081924990484,1.625
-42.5,-3.5649713510462298,4.875
-34.0,-0.012271846303085143,0.0
-43.5,0.4233786974564369,-5.6875
-42.0,-0.3742913122440964,0.8125
-37.5,3.5465635815916023,-1.625
-34.0,-3.6079228131070282,0.0
-37.5,3.601786889955486,0.0
-43.5,-3.172272269347506,-4.875
-42.0,-0.39269908169872414,2.4375
-38.0,3.5895150436524004,-3.25
-43.5,-3.202951885105219,-1.625
-34.0,-0.42337869745643697,0.8125
-42.5,0.0674951546669682,-1.625
-42.0,-0.012271846303085088,3.25
-38.0,3.558835427894688,-3.25
-34.0,-3.626330582561656,4.0625
-43.5,0.4295146206079795,3.25
-34.0,-0.4111068511533518,2.4375
-44.0,0.44178646691106466,-5.6875
-42.0,-0.38042723539563905,2.4375
-38.0,3.54042765844006,1.625
-43.5,-3.1661363461959633,-1.625
-34.0,-0.4417864669110647,1.625
-42.0,0.042951462060797974,4.875
-38.0,3.5772431973493153,-0.8125
-43.5,-3.2090878082567613,5.6875
-42.0,-0.35588354278946877,2.4375
-34.0,-0.05522330836388312,2.4375
-38.0,3.5895150436524004,0.8125
-43.5,-3.1600004230444205,0.0
-34.0,-0.43565054375952206,4.0625
-38.0,3.6079228131070282,0.8125
-42.5,-3.528155812136975,0.0
-44.0,0.3681553890925539,-1.625
-34.0,-0.42951462060797957,0.0
-38.0,3.6017868899554855,-0.8125
-42.5,-3.5465635815916023,1.625
-43.5,0.3497476196379262,2.4375
-42.0,-0.3497476196379262,1.625
-34.0,-0.0674951546669682,0.8125
-37.5,3.6140587362585705,0.8125
-34.0,-3.626330582561656,4.0625
-43.5,0.4417864669110646,3.25
-42.5,-0.34361169648638357,0.0
-37.5,3.522019888985432,0.0
-42.0,-3.54042765844006,6.5
-37.5,3.5342917352885177,0.8125
-43.5,-3.129320807286708,-4.875
-34.0,-0.4786020058203201,4.875
-37.5,3.6324665057131984,0.0
-34.0,-3.6140587362585705,1.625
-42.5,0.07976700097005335,1.625
-43.5,0.3497476196379262,2.4375
-42.0,-0.35588354278946877,3.25
-34.0,-0.0736310778185108,1.625
-37.5,3.607922813107028,0.8125
-44.0,-3.1477285767413354,0.8125
-42.5,-0.3497476196379262,0.8125
-37.5,3.497476196379262,0.8125
-34.0,-3.607922813107028,0.0
-43.5,0.4601942363656924,0.0
-37.5,3.1661363461959633,-0.8125
-44.0,-3.153864499892878,1.625
-42.5,-0.3865631585471816,5.6875
-33.5,-0.07976700097005335,0.0
-37.5,3.6386024288647407,-2.4375
-33.5,-3.632466505713198,0.8125
-44.0,0.4908738521234052,-1.625
-42.5,-0.39883500485026674,2.4375
-33.5,-0.10431069357622358,2.4375
-37.5,3.6140587362585705,0.8125
-42.5,-3.497476196379262,5.6875
-44.0,0.36815538909255385,-0.8125
-37.5,3.153864499892878,-1.625
-43.5,-3.141592653589793,0.8125
-42.5,-0.3681553890925539,1.625
-33.5,-0.11044661672776618,0.0
-44.0,0.4908738521234052,-1.625
-37.0,3.104777114680538,0.8125
-33.5,-3.6140587362585705,2.4375
-42.5,0.11658253987930872,4.875
-44.0,0.3865631585471816,-2.4375
-33.5,-0.4970097752749478,2.4375
-37.5,3.6201946594101133,0.0
-42.5,-3.4483888111669216,-4.875
-33.5,-0.18407769454627693,4.0625
-44.0,0.521553467881118,-0.8125
-42.5,-0.4111068511533518,7.3125
-37.5,3.5158839658338894,2.4375
-37.0,0.03067961575771294,-0.8125
-42.5,-3.4913402732277192,0.8125
-44.0,0.3436116964863837,0.8125
-33.5,-0.4786020058203201,-0.8125
-42.5,0.11044661672776618,5.6875
-33.5,-0.12271846303085127,1.625
-37.5,3.620194659410113,3.25
-44.0,-3.11091303783208,-1.625
-42.5,-0.3742913122440964,3.25
-37.5,3.51588396583389,-1.625
-33.5,-3.6508742751678263,1.625
-44.0,0.4908738521234052,-0.8125
-44.0,0.006135923151542544,-1.625
-37.5,3.1354567304382504,0.8125
-33.5,-3.6263305825616556,0.0
-42.5,0.15339807878856415,0.0
-33.5,-0.1595340019401067,0.8125
-37.0,3.6263305825616556,1.625
-44.0,-3.129320807286708,2.4375
-42.5,-0.3497476196379262,3.25
-43.0,-0.006135923151542544,4.875
-33.5,-0.16566992509164924,4.875
-37.0,3.669282044622453,0.8125
-44.0,-3.1784081924990484,4.875
-37.0,3.1661363461959633,1.625
-33.5,-3.6263305825616556,0.0
-44.0,0.4908738521234052,0.8125
-42.5,-0.380427235395639,7.3125
-44.0,0.37429131224409645,0.8125
-33.5,-0.4970097752749478,2.4375
-37.5,3.6692820446224537,-1.625
-42.5,-3.497476196379262,1.625
-43.0,0.012271846303085088,1.625
-37.5,3.472932503773092,0.0
-33.5,-3.6508742751678263,1.625
-44.0,0.5154175447295755,-0.8125
-43.0,-0.33747577333484113,0.0
-33.5,-0.17180584824319178,1.625
-37.0,3.6508742751678263,1.625
-44.0,-3.104777114680538,-4.875
-44.0,-0.06135923151542566,2.4375
-33.5,-0.4970097752749478,2.4375
-42.5,0.08590292412159595,1.625
-37.5,3.454524734318464,0.8125
-43.5,-3.141592653589793,0.8125
-41.5,-0.4908738521234052,-1.625
-38.0,3.552699504743145,2.4375
-34.5,-3.51588396583389,0.8125
-34.5,-0.006135923151542544,0.0
-38.5,3.5281558121369745,-3.25
-43.5,-3.08636934522591,-2.4375
-41.5,-0.5890486225480862,3.25
-38.5,3.6263305825616556,6.5
-43.5,-3.098641191528995,6.5
-34.5,-0.38042723539563894,2.4375
-41.5,-0.13499030933393644,0.8125
-34.5,0.12885438618239384,1.625
-38.0,3.5036121195308043,3.25
-43.5,-3.08636934522591,1.625
-41.5,-0.5522330836388307,0.8125
-34.5,0.14726215563702155,0.8125
-38.0,3.485204350076177,3.25
-41.5,-3.6447383520162835,0.0
-43.5,0.5583690067903734,1.625
-43.0,-0.01840776945462763,3.25
-34.5,-0.3926990816987242,2.4375
-38.5,3.497476196379262,2.4375
-41.5,-3.6692820446224537,4.875
-41.5,0.03681553890925539,0.8125
-34.5,0.141126232485479,2.4375
-38.5,3.5281558121369745,-1.625
-43.0,-3.08636934522591,-4.875
-38.0,3.055689729468197,4.875
-43.5,-3.0802334220743672,-2.4375
-41.5,-0.5522330836388308,-0.8125
-34.5,0.14112623248547898,0.0
-43.5,0.3988350048502667,0.8125
-38.5,3.129320807286708,-1.625
-41.5,-3.6999616603801666,4.875
-34.5,0.15953400194010667,2.4375
-34.5,0.006135923151542599,4.0625
-43.5,0.4295146206079795,-1.625
-42.0,-0.6135923151542565,5.6875
-38.5,3.6938257372286243,1.625
-38.5,-0.03067961575771294,6.5
-35.0,-3.485204350076177,4.0625
-43.0,0.37429131224409645,3.25
-42.0,-0.619728238305799,6.5
-41.5,0.01227184630308513,2.4375
-43.0,0.6013204688511713,0.0
-35.0,-0.37429131224409645,1.625
-38.5,3.4913402732277192,4.875
-35.0,-3.485204350076177,2.4375
-38.5,3.454524734318464,6.5
-42.0,2.534136261587079,6.5
-43.5,-5.608233760509904,-2.4375
-43.5,-0.012271846303085088,2.4375
-38.5,3.0925052683774528,4.875
-35.0,-3.454524734318464,0.0
-42.0,-0.2638446955163303,-5.6875
-42.0,6.203418306209533,5.6875
-43.0,-5.608233760509904,0.8125
-39.0,3.129320807286708,3.25
-35.5,-3.466796580621549,2.4375
-35.5,0.018407769454627687,0.8125
-42.0,5.970253226450915,-2.4375
-39.0,-2.5095925689809087,0.8125
-43.5,-3.074097498922825,-7.3125
-43.0,-0.08590292412159595,5.6875
-39.0,3.1109130378320806,5.6875
-42.0,2.540272184738622,-2.4375
-35.5,-5.976389149602459,5.6875
-43.0,0.31906800388021334,4.875
-39.5,3.141592653589793,4.875
-42.0,2.515728492132452,0.0
-35.5,-5.939573610693203,-0.8125
-42.0,5.9088939949354895,1.625
-43.5,-5.583690067903733,-2.4375
-35.5,-0.3436116964863837,1.625
-39.0,3.442252888015379,1.625
-35.5,-3.429981041712294,1.625
-43.5,0.30679615757712825,2.4375
-42.0,5.589825991055276,0.0
-39.0,-2.4850488763747385,5.6875
-42.0,2.478912953223196,4.875
-35.5,-5.890486225480862,0.8125
-43.5,0.31906800388021334,0.0
-39.0,3.08636934522591,5.6875
-35.5,-3.4177091954092087,0.8125
-43.0,0.30066023442558565,5.6875
-39.0,3.129320807286708,2.4375
-41.5,2.466641106920111,-1.625
-41.5,-0.018407769454627854,-1.625
-36.0,-5.896622148632405,2.4375
-43.0,0.33133985018329853,2.4375
-39.5,3.117048960983623,2.4375
-36.5,-3.454524734318464,2.4375
-39.0,3.442252888015379,3.25
-41.0,2.3193789512830896,-1.625
-43.0,-5.448699758569798,3.25
-42.5,-0.018407769454627743,3.25
-36.5,-0.2883883881225005,2.4375
-41.0,5.663457068873788,-2.4375
-39.0,-2.2641556429192065,4.875
-43.0,-3.0863693452259104,0.8125
-36.5,-0.3313398501832985,2.4375
-40.5,5.6941366846315,0.8125
-39.0,-2.2580197197676637,5.6875
-42.5,-3.0925052683774528,0.8125
-36.5,-0.3558835427894687,4.0625
-39.0,3.4729325037730914,3.25
-40.5,2.3132430281315473,5.6875
-36.0,-5.792311455056181,4.0625
-40.5,5.804583301359266,0.8125
-38.5,-2.294835258676919,2.4375
-42.5,-3.08636934522591,-3.25
-39.0,3.06182565261974,4.875
-43.0,-3.11091303783208,1.625
-40.5,5.45483568172134,-2.4375
-36.0,-5.804583301359266,-0.8125
-39.0,3.454524734318464,5.6875
-36.0,-3.4852043500761765,2.4375
-43.0,0.40497092800180934,0.0
-40.5,5.430291989115169,0.0
-43.0,-5.405748296509,-1.625
-35.5,-0.39269908169872414,-0.8125
-38.5,3.436116964863836,4.875
-40.5,2.3316507975861747,5.6875
-40.5,-0.006135923151542322,6.5
-38.5,-2.2948352586769194,0.8125
-36.0,-3.485204350076177,2.4375
-42.5,0.41724277430489437,-1.625
-35.5,-0.4295146206079795,0.8125
-38.5,3.4483888111669216,3.25
-40.5,2.386874105950058,1.625
-43.0,-5.418020142812085,0.0
-36.0,-0.4172427743048944,2.4375
-43.0,0.4172427743048944,-0.8125
-39.0,3.055689729468197,3.25
-40.5,2.3991459522531424,0.0
-40.5,0.030679615757713385,0.0
-38.5,-2.4175537217077707,3.25
-35.5,-3.485204350076177,1.625
-43.0,0.42337869745643697,-0.8125
-35.5,-0.42337869745643697,1.625
-40.5,5.890486225480862,6.5
-38.5,-2.411417798556228,1.625
-43.0,-3.025010113710484,-1.625
-35.0,-0.4540583132141498,0.8125
-40.5,5.9518454569962875,-4.875
-38.5,-2.4911847995262812,6.5
-43.0,-3.0495538063166547,4.875
-35.0,-0.4172427743048944,4.875
-38.5,3.479068426924634,3.25
-40.5,2.4482333374654837,2.4375
-43.0,-5.45483568172134,-4.875
-39.0,3.025010113710484,3.25
-35.5,-3.5097480426823466,6.5
-43.0,0.4295146206079795,5.6875
-40.5,5.50392306693368,5.6875
-38.5,-2.448233337465483,4.875
-35.5,-3.448388811166921,0.8125
-40.5,5.927301764390117,1.625
-43.0,-5.540738605842936,4.875
-35.0,-0.40497092800180934,4.0625
-38.5,3.472932503773092,5.6875
-43.0,-3.0679615757712826,7.3125
-40.5,5.553010452146021,0.0
-40.5,0.0,-3.25
-43.0,-5.497787143782138,-1.625
-38.5,3.031146036862027,0.8125
-35.0,-3.4729325037730914,0.8125
-40.5,5.951845456996288,-0.8125
-43.0,-5.5100589900852235,-2.4375
-35.0,-0.47246608266877743,4.875
-39.0,3.509748042682347,-1.625
-35.0,-3.4913402732277192,1.625
-38.5,3.4729325037730914,2.4375
-40.5,2.4911847995262817,-2.4375
-43.0,-5.546874528994479,3.25
-35.0,-0.4295146206079795,0.8125
-40.5,5.939573610693203,0.8125
-43.0,-5.485515297479052,-1.625
-39.0,3.0127382674073995,4.875
-43.0,-3.0127382674073995,0.8125
-40.5,5.485515297479052,0.0
-35.0,-5.939573610693203,2.4375
-38.5,3.4852043500761765,0.8125
-43.0,-3.0495538063166547,2.4375
-40.5,5.50392306693368,1.625
-35.5,-5.927301764390117,0.0
-38.5,3.466796580621549,1.625
-43.0,-3.0250101137104846,-0.8125
-40.5,5.50392306693368,-3.25
-35.0,-5.9518454569962875,1.625
-38.5,3.4606606574700067,4.875
-38.5,-0.012271846303085088,3.25
-40.5,2.5095925689809087,-3.25
-35.0,-5.964117303299373,0.8125
-43.0,0.47246608266877754,-0.8125
-38.5,2.988194574801229,1.625
-43.0,-2.9943304979527716,-1.625
-40.5,5.491651220630596,-2.4375
-35.0,-5.9518454569962875,4.0625
-43.0,0.44792239006260726,1.625
-40.0,5.473243451175968,5.6875
-38.5,-2.4543692606170264,3.25
-35.0,-3.4422528880153784,-0.8125
-40.5,5.927301764390117,0.0
-38.5,-2.497320722677824,3.25
-35.0,-3.436116964863836,0.8125
-43.5,0.4663301595172349,-0.8125
-40.5,5.47937937432751,0.0
-38.5,-2.491184799526281,0.0
-35.0,-3.442252888015379,-0.8125
-43.0,0.4540583132141498,0.8125
-43.0,0.018407769454627743,-1.625
-38.0,2.9697868053466014,0.8125
-35.0,-3.472932503773092,2.4375
-40.5,5.994796919057086,3.25
-38.5,-2.528000338435537,3.25
-43.0,-2.969786805346601,0.0
-40.5,5.534602682691393,0.0
-34.5,-6.03161245796634,4.0625
-38.0,3.466796580621549,2.4375
-43.0,-2.8961557275280905,-5.6875
-40.0,-0.7731263170943632,2.4375
-34.0,0.23930100291016004,0.8125
-43.5,0.674951546669682,-1.625
-40.0,-0.5460971604872882,3.25
-36.5,3.448388811166921,-1.625
-33.0,-3.5465635815916023,2.4375
-33.5,0.006135923151542544,2.4375
-43.5,0.5951845456996288,2.4375
-37.0,2.9329712664373457,0.0
-40.0,-3.423845118560751,2.4375
-36.5,3.4177091954092087,2.4375
-33.5,-3.54042765844006,4.875
-40.0,0.09817477042468103,8.125
-43.5,0.5154175447295755,5.6875
-40.0,-0.48473792897186263,2.4375
-33.0,-0.11044661672776618,1.625
-43.5,0.6381360077604268,0.8125
-37.0,2.8838838812250054,0.8125
-43.5,-2.8961557275280905,0.8125
-36.5,2.902291650679633,-2.4375
-33.5,-3.5404276584400596,2.4375
-40.0,0.11044661672776618,1.625
-37.0,3.411573272257666,1.625
-33.5,-3.5342917352885173,5.6875
-43.0,0.6320000846088841,5.6875
-40.0,-0.5154175447295755,3.25
-33.5,-0.09203884727313849,0.0
-36.5,3.5158839658338894,0.0
-40.0,-3.4177091954092083,1.625
-43.5,0.5460971604872882,0.8125
-33.5,-0.6565437772150544,1.625
-43.0,0.6565437772150544,-0.8125
-40.0,-0.5767767762450011,3.25
-37.0,3.4606606574700063,-1.625
-33.0,-3.5649713510462298,4.875
-43.5,0.6565437772150544,2.4375
-37.0,2.9022916506796332,0.0
-40.0,-3.436116964863836,3.25
-43.0,0.5399612373357457,1.625
-40.0,-0.5522330836388308,1.625
-33.0,-0.09203884727313849,1.625
-36.5,3.522019888985432,3.25
-40.0,-3.380893656499953,-1.625
-43.5,0.5092816215780329,1.625
-33.5,-0.6504078540635119,4.0625
-36.5,3.5342917352885173,0.8125
-33.5,-3.5465635815916023,4.875
-37.0,3.5342917352885173,2.4375
-43.0,-2.82252464970958,-8.125
-39.5,-0.5951845456996288,3.25
-37.0,3.4238451185607515,0.8125
-33.0,-3.5465635815916023,6.5
-43.5,0.6504078540635119,2.4375
-40.0,-0.5399612373357456,4.875
-39.5,0.0,3.25
-33.5,-0.09203884727313849,1.625
-37.0,3.497476196379262,4.875
-43.0,-2.865476111770378,-0.8125
-39.5,-0.5890486225480862,-1.625
-33.5,-0.0736310778185108,4.875
-43.0,0.607456392002714,5.6875
-36.5,2.8961557275280905,2.4375
-43.0,-2.877747958073463,1.625
-33.5,-0.619728238305799,2.4375
-39.5,0.07976700097005335,0.8125
-37.0,3.429981041712294,0.8125
-33.5,-3.51588396583389,6.5
-36.5,3.5097480426823466,3.25
-43.0,-2.84706834231575,-2.4375
-39.5,-0.5645049299419159,-3.25
-36.5,3.399301425954581,2.4375
-43.0,-2.8716120349219203,-2.4375
-33.5,-0.6381360077604268,1.625
-39.0,0.006135923151542599,1.625
-43.0,0.6135923151542565,-1.625
-39.0,-0.6197282383057992,3.25
-33.5,0.006135923151542599,1.625
-37.0,3.479068426924634,1.625
-33.5,-3.479068426924634,1.625
-39.0,-0.006135923151542599,0.8125
-37.0,3.472932503773092,3.25
-43.0,-2.8838838812250054,4.875
-33.5,-0.5890486225480862,2.4375
-43.0,0.6197282383057992,-2.4375
-39.0,-0.6994952392758524,1.625
-37.0,3.509748042682347,6.5
-37.5,0.006135923151542766,3.25
-34.0,-3.4483888111669216,1.625
-38.5,-0.09203884727313846,3.25
-43.0,0.662679700366597,0.8125
-43.0,0.012271846303085088,0.8125
-34.0,-0.6135923151542564,4.875
-38.5,-0.07976700097005335,5.6875
-37.0,3.56497135104623,3.25
-34.0,-3.4729325037730914,5.6875
-37.0,3.479068426924634,0.0
-43.5,-2.865476111770378,-1.625
-39.0,-0.6688156235181396,0.0
-38.5,-0.006135923151542544,-1.625
-43.0,0.6565437772150544,-0.8125
-37.0,2.8716120349219203,0.8125
-34.0,-3.472932503773092,4.0625
-38.5,-0.1533980787885641,2.4375
-43.0,0.7363107781851077,-1.625
-34.5,-0.5829126993965437,2.4375
-37.5,3.454524734318464,0.0
-43.0,-2.8777479580734626,-0.8125
-37.5,2.865476111770378,1.625
-34.0,-3.448388811166921,2.4375
-38.5,-0.13499030933393644,-1.625
-34.5,0.14112623248547898,1.625
-39.0,-0.1533980787885641,1.625
-37.5,3.5895150436524004,3.25
-43.0,-2.8654761117703775,0.8125
-34.5,-0.5706408530934586,1.625
-37.5,3.442252888015379,0.0
-43.0,-2.865476111770378,0.8125
-39.0,-0.7424467013366502,2.4375
-37.5,3.5895150436524004,3.25
-34.5,-3.4422528880153784,4.0625
-43.0,0.5890486225480862,0.0
-39.0,-0.7363107781851077,0.0
-37.5,3.558835427894688,3.25
-38.5,2.650718801466388,4.875
-34.5,-6.068427996875597,2.4375
-43.0,0.5522330836388308,2.4375
-34.5,-0.5399612373357457,0.8125
-38.5,-0.19634954084936207,-0.8125
-43.0,0.7669903939428206,-1.625
-37.5,2.8286605728611223,3.25
-34.5,-3.411573272257666,4.0625
-43.0,0.5645049299419159,0.8125
-39.0,5.522330836388308,0.8125
-38.0,-2.6752624940725585,2.4375
-34.5,-3.4177091954092087,4.0625
-37.5,3.429981041712294,0.8125
-43.0,-2.84706834231575,-3.25
-38.5,5.485515297479053,1.625
-34.5,-6.043884304269427,0.0
-38.5,6.043884304269427,3.25
-37.5,-2.638446955163303,0.0
-43.0,-2.8409324191642074,-2.4375
-38.5,5.497787143782137,0.0
-35.0,-6.074563920027138,0.8125
-43.0,0.5706408530934585,0.0
-37.5,2.8286605728611223,3.25
-43.0,-2.8225246497095795,-4.875
-38.5,5.485515297479052,1.625
-34.5,-6.080699843178682,2.4375
-37.5,3.4177091954092083,3.25
-43.0,-2.8347964960126646,-0.8125
-38.5,5.50392306693368,0.8125
-38.0,-2.662990647769473,3.25
-35.0,-3.4177091954092087,4.0625
-38.0,3.399301425954581,4.875
-38.5,2.6752624940725585,0.8125
-43.0,-5.5100589900852235,-2.4375
-35.0,-0.5583690067903734,1.625
-38.5,5.9947969190570864,0.8125
-38.0,-2.613903262557133,3.25
-35.0,-3.393165502803038,2.4375
-42.5,0.5460971604872882,0.8125
-38.0,2.84706834231575,2.4375
-38.5,2.6200391857086753,-0.8125
-42.5,-5.4671075280244255,1.625
-35.0,-0.5399612373357456,2.4375
-35.0,0.012271846303085143,0.8125
-38.0,3.3808936564999534,2.4375
-43.0,-2.840932419164208,0.8125
-38.5,5.460971604872882,-1.625
-35.0,-5.994796919057086,-1.625
-38.5,5.982525072754001,-0.8125
-38.0,-2.6200391857086753,4.875
-42.5,-2.834796496012665,0.8125
-38.5,5.460971604872883,0.8125
-43.0,-5.47937937432751,1.625
-35.5,-0.5399612373357457,4.0625
-38.0,3.3931655028030385,4.875
-43.0,-2.804116880254952,-7.3125
-38.0,2.791845033951867,7.3125
-38.5,2.644582878314845,0.0
-35.0,-6.013204688511713,2.4375
-38.0,3.3808936564999534,1.625
-43.0,-2.840932419164208,2.4375
-35.0,-0.5399612373357456,2.4375
-38.0,5.994796919057086,0.8125
-38.0,-2.5954954931025047,1.625
-43.0,-2.8777479580734626,1.625
-38.0,5.473243451175968,-0.8125
-35.0,-6.013204688511713,4.0625
-38.0,3.399301425954581,3.25
-38.5,2.613903262557132,-1.625
-43.0,-5.467107528024425,2.4375
-35.0,-0.521553467881118,0.0
-38.0,3.3747577333484107,2.4375
-35.0,-3.3747577333484107,1.625
-38.5,5.988660995905543,-0.8125
-43.0,-5.448699758569797,-0.8125
-35.0,-0.5583690067903734,1.625
-42.5,0.5276893910326605,5.6875
-38.5,5.418020142812085,0.8125
-38.0,-2.55867995419325,1.625
-38.5,-0.012271846303085088,-0.8125
-35.5,-3.380893656499953,2.4375
-42.5,0.48473792897186263,8.125
-38.0,5.3627968344482015,-0.8125
-38.0,-0.012271846303085532,0.0
-38.5,-2.4789129532231957,5.6875
-36.0,-3.3440781175906977,0.0
-42.5,0.5338253141842031,-2.4375
-38.0,5.307573526084318,0.8125
-36.0,-5.829126993965437,0.0
-42.5,0.5154175447295755,-0.8125
-38.0,2.804116880254952,4.875
-38.5,0.006135923151542322,4.875
-42.5,-2.804116880254952,-3.25
-36.0,-0.5460971604872883,4.0625
-38.0,5.835262917116979,3.25
-38.0,-2.4789129532231957,2.4375
-42.5,-2.8286605728611223,0.0
-38.0,5.283029833478148,6.5
-36.0,-5.792311455056181,-0.8125
-38.0,5.810719224510809,0.8125
-42.5,-5.325981295538946,1.625
-38.5,2.84706834231575,4.875
-36.0,-3.337942194439155,-0.8125
-38.0,5.749359992995383,0.8125
-42.5,-5.221670601962723,-3.25
-36.0,-0.5399612373357457,0.8125
-38.5,3.35021404074224,7.3125
-36.0,-3.337942194439155,0.8125
-42.5,0.4970097752749478,0.8125
-38.0,5.227806525114265,1.625
-38.5,-2.386874105950058,8.9375
-38.0,0.006135923151542766,4.875
-36.0,-3.368621810196868,1.625
-38.0,5.773903685601553,-1.625
-42.5,-5.283029833478148,4.875
-42.5,0.006135923151542544,4.875
-38.0,2.8777479580734626,4.875
-36.0,-3.362485887045325,1.625
-38.0,5.755495916146926,0.0
-38.0,-2.380738182798515,0.8125
-42.5,-2.853204265467293,-1.625
-36.0,-0.5399612373357456,4.0625
-38.0,5.74322406984384,2.4375
-36.0,-5.724816300389213,0.8125
-38.5,3.35021404074224,4.875
-42.5,-2.8225246497095795,-2.4375
-38.0,5.203262832508095,0.8125
-38.0,0.030679615757712497,-2.4375
-38.5,-2.3930100291016,2.4375
-36.0,-3.356349963893783,0.0
-42.5,0.4908738521234051,1.625
-38.0,5.2339424482658075,-0.8125
-42.5,-5.227806525114265,-0.8125
-38.5,2.859340188618835,1.625
-36.0,-3.368621810196868,0.8125
-38.5,5.589825991055276,2.4375
-36.0,-5.583690067903733,0.8125
-42.5,0.4970097752749477,1.625
-38.5,2.908427573831176,0.8125
-38.5,2.1905245651006955,2.4375
-39.0,-2.2089323345553233,5.6875
-36.5,-3.3870295796514958,4.0625
-42.5,0.521553467881118,1.625
-38.5,5.062136600022615,4.875
-38.5,-2.190524565100695,4.875
-36.5,-3.3870295796514958,0.8125
-42.5,0.521553467881118,-1.625
-38.5,5.086680292628786,-1.625
-38.5,-2.227340104009951,2.4375
-42.5,-2.8838838812250054,1.625
-36.5,-0.48473792897186263,-0.8125
-42.5,0.5031456984264903,-0.8125
-39.0,2.8777479580734626,0.8125
-36.0,-3.393165502803038,0.8125
-38.5,5.577554144752191,2.4375
-36.0,-5.583690067903733,1.625
-38.5,5.589825991055276,2.4375
-38.5,-2.202796411403781,3.25
-42.5,-2.9145634969827183,5.6875
-38.5,2.9145634969827183,3.25
-36.5,-3.380893656499953,0.8125
-38.5,5.5714182216006485,3.25
-42.5,-5.0682725231741586,0.0
-38.5,5.074408446325701,0.8125
-36.0,-5.583690067903733,2.4375
-39.0,3.399301425954581,0.8125
-42.5,-2.926835343285803,7.3125
-42.5,0.04908738521234046,-0.8125
-36.0,-0.521553467881118,4.0625
-38.5,5.583690067903733,0.0
-39.0,-2.1721167956460676,0.0
-42.5,-2.8900198043765477,-2.4375
-38.5,5.0682725231741586,-0.8125
-38.5,-2.190524565100696,1.625
-36.0,-3.4177091954092083,1.625
-36.0,0.02454369260617026,0.0
-38.5,5.5714182216006485,1.625
-42.5,-5.049864753719531,-3.25
-38.5,2.8286605728611223,8.125
-38.5,2.2457478734645786,-1.625
-36.0,-5.595961914206819,0.8125
-38.5,3.393165502803038,2.4375
-42.5,-2.9391071895888885,6.5
-36.5,-0.46019423636569234,1.625
-42.5,0.4970097752749477,0.0
-38.5,5.0866802926287855,0.8125
-38.5,-2.1843886419491527,0.0
-38.5,2.1843886419491527,-0.8125
-36.5,-5.577554144752191,0.0
-42.5,0.5031456984264904,0.8125
-39.0,2.8900198043765477,1.625
-38.5,2.1966604882522383,-0.8125
-42.5,-5.092816215780329,2.4375
-38.5,2.8838838812250054,5.6875
-36.0,-3.393165502803038,2.4375
-36.5,-0.006135923151542544,4.0625
-38.5,5.583690067903734,3.25
-42.5,-5.086680292628786,3.25
-38.5,2.926835343285803,0.8125
-42.5,-2.926835343285803,5.6875
-38.5,2.8961557275280905,5.6875
-36.0,-3.3686218101968683,0.0
-38.5,5.5714182216006485,2.4375
-42.5,-5.111223985234956,4.875
-38.5,2.926835343285803,2.4375
-38.5,2.1598449493429825,2.4375
-36.5,-5.553010452146021,0.8125
-38.5,3.3870295796514958,3.25
-42.5,-2.9145634969827183,3.25
-36.0,-0.4908738521234052,4.875
-38.5,5.583690067903734,1.625
-38.5,-2.1905245651006955,5.6875
-38.5,2.227340104009951,-2.4375
-42.5,-5.154175447295755,6.5
-36.0,-0.4479223900626072,0.8125
-42.5,0.4601942363656924,2.4375
-38.5,5.117359908386499,1.625
-36.5,-5.577554144752191,0.8125
-39.0,3.399301425954581,2.4375
-42.5,-2.9391071895888885,2.4375
-39.0,2.9329712664373457,1.625
-38.5,2.190524565100696,0.0
-36.0,-5.5959619142068195,1.625
-38.5,5.589825991055276,-0.8125
-36.0,-5.559146375297563,-1.625
-42.5,0.4295146206079795,5.6875
-38.5,2.945243112740431,2.4375
-36.0,-3.405437349106123,2.4375
-38.5,5.614369683661447,-5.6875
-42.5,-5.117359908386499,0.0
-38.5,2.9145634969827183,3.25
-36.0,-3.4054373491061236,1.625
-39.0,3.3931655028030385,3.25
-38.5,2.1782527187976104,0.0
-42.5,-5.0682725231741586,-0.8125
-42.5,-0.05522330836388312,4.875
-38.5,5.1296317546895835,-1.625
-39.0,-2.1905245651006955,7.3125
-36.5,-3.3624858870453256,-1.625
-36.0,-0.006135923151542572,-0.8125
-38.5,5.540738605842936,0.8125
-42.5,-5.098952138931871,3.25
-38.5,2.9636508821950587,0.0
-42.5,-2.902291650679633,-4.875
-38.5,5.031456984264903,0.8125
-39.0,-2.1537090261914402,3.25
-36.5,-3.399301425954581,1.625
-36.5,0.006135923151542572,0.8125
-42.5,0.4601942363656924,5.6875
-39.0,2.9329712664373457,2.4375
-38.5,2.1537090261914402,-0.8125
-38.5,-0.006135923151542322,0.8125
-36.5,-5.559146375297564,4.875
-39.0,3.423845118560751,1.625
-42.5,-2.902291650679633,-2.4375
-42.5,0.03067961575771283,-5.6875
-38.5,4.994641445355647,-0.8125
-39.0,-2.1353012567368124,2.4375
-36.0,-3.393165502803038,0.8125
-42.5,0.45405831321414974,5.6875
-39.0,5.062136600022616,2.4375
-39.0,-2.1107575641306426,2.4375
-36.0,-3.399301425954581,1.625
-42.5,0.46633015951723494,1.625
-38.5,5.049864753719531,1.625
-36.0,-5.5100589900852235,0.8125
-38.5,3.393165502803038,0.8125
-42.5,-2.9391071895888885,4.875
-38.5,5.049864753719531,0.8125
-38.5,-2.141437179888355,6.5
-36.5,-3.3808936564999534,4.875
-38.5,3.4054373491061236,3.25
-36.0,-3.399301425954581,1.625
-42.5,0.4724660826687775,1.625
-38.5,5.049864753719531,-1.625
-36.5,-5.516194913236766,2.4375
-38.5,3.3808936564999534,3.25
-39.0,2.12916533358527,1.625
-42.5,-5.037592907416446,2.4375
-39.5,4.963961829597935,-3.25
-36.5,-5.418020142812084,0.8125
-38.5,3.485204350076177,0.0
-43.0,-2.9575149590435164,-1.625
-43.0,0.012271846303085199,-0.8125
-40.5,4.6878452877785195,1.625
-35.5,-5.203262832508095,-1.625
-39.0,3.497476196379262,1.625
-40.5,1.705786636128833,-0.8125
-36.0,-5.221670601962723,0.8125
-43.0,0.5092816215780329,3.25
-39.0,3.0250101137104846,2.4375
-35.5,-3.54042765844006,2.4375
-40.5,5.221670601962723,0.0
-43.0,-4.669437518323892,-1.625
-38.5,2.9759227284981438,0.8125
-39.0,-0.006135923151542322,5.6875
-40.5,1.705786636128833,-1.625
-36.0,-5.221670601962723,1.625
-43.5,0.5154175447295755,4.875
-43.0,0.018407769454627743,0.8125
-38.5,2.9697868053466014,4.875
-35.5,-3.5036121195308043,0.0
-40.5,5.2155346788111805,0.8125
-41.0,0.0,0.0
-43.0,-4.663301595172349,-3.25
-35.5,-0.5706408530934585,4.0625
-39.0,3.5404276584400596,1.625
-43.0,-2.957514959043516,-5.6875
-40.5,4.651029748869265,-0.8125
-39.0,-1.6873788666742056,1.625
-36.0,-3.5342917352885173,0.8125
-43.0,0.5092816215780329,5.6875
-41.0,4.7062530572331465,0.0
-36.0,-5.24007837141735,5.6875
-39.0,3.5404276584400596,3.25
-39.0,0.0,3.25
-41.0,1.7119225592803757,-2.4375
-36.0,-5.221670601962723,-0.8125
-43.0,0.5399612373357456,0.0
-43.0,0.012271846303085088,-3.25
-36.0,-0.5583690067903734,0.8125
-39.0,3.5588354278946874,1.625
-40.5,1.613747788855695,-1.625
-35.5,-5.184855063053468,4.0625
-38.5,3.5711072741977725,4.875
-40.5,1.5769322499464393,2.4375
-43.5,-4.558990901596125,-1.625
-41.0,4.583534594202296,0.0
-38.5,-1.6137477888556946,7.3125
-35.5,-3.5281558121369745,0.0
-43.0,0.5645049299419159,0.8125
-40.5,4.565126824747668,1.625
-39.0,-1.5830681730979812,1.625
-43.0,-2.975922728498144,-1.625
-35.5,-0.6074563920027138,5.6875
-43.0,0.6135923151542564,-0.8125
-41.0,4.5835345942022965,-4.875
-39.0,-1.6566992509164926,8.125
-35.5,-3.509748042682347,0.0
-35.5,-0.006135923151542544,0.8125
-40.5,5.123495831538042,3.25
-38.5,-1.5769322499464393,0.8125
-43.0,-2.9636508821950587,0.8125
-35.5,-0.5583690067903734,-1.625
-41.0,5.092816215780329,3.25
-39.0,-1.589204096249524,6.5
-43.0,-2.9513790358919736,-0.8125
-35.0,-0.5829126993965437,2.4375
-40.5,5.123495831538041,1.625
-43.0,-4.503767593232242,-3.25
-38.5,2.9575149590435164,2.4375
-40.5,1.5217089415825558,1.625
-39.0,-1.4848934026733005,-1.625
-43.0,-2.9820586516496865,-3.25
-35.0,-0.6320000846088842,1.625
-43.5,0.619728238305799,-0.8125
-39.0,2.9636508821950587,2.4375
-40.5,1.5094370952794711,0.8125
-35.0,-5.080544369477243,0.0
-43.0,0.5829126993965437,3.25
-39.0,2.9759227284981438,5.6875
-41.0,1.5217089415825562,2.4375
-35.0,-5.086680292628786,2.4375
-41.0,5.080544369477244,1.625
-43.0,-4.47308797747453,0.0
-39.0,2.969786805346601,2.4375
-35.5,-3.577243197349315,2.4375
-40.5,5.080544369477244,0.0
-43.0,-4.47308797747453,0.0
-38.5,2.969786805346601,2.4375
-35.5,-3.577243197349315,2.4375
-35.0,-0.024543692606170286,2.4375
-39.0,3.6201946594101133,1.625
-41.0,1.4480778637640452,2.4375
-43.0,-4.430136515413731,0.8125
-43.0,-0.012271846303085088,3.25
-38.5,2.9820586516496865,4.875
-41.0,1.4419419406125025,3.25
-35.0,-5.0253210611133605,1.625
-40.5,5.037592907416446,1.625
-35.0,-5.049864753719531,4.0625
-43.0,0.6442719309119693,-1.625
-39.0,2.9575149590435164,3.25
-35.0,-3.595650966803943,2.4375
-43.0,0.6688156235181396,-4.875
-40.5,4.368777283898306,2.4375
-38.5,-1.4358060174609606,0.8125
-43.0,-2.9759227284981438,0.8125
-40.5,4.411728745959104,0.0
-34.5,-5.031456984264904,0.8125
-38.5,3.5649713510462298,8.125
-38.5,0.006135923151542766,4.875
-43.0,-2.9391071895888885,0.0
-41.0,4.411728745959104,0.0
-35.0,-5.043728830567988,0.8125
-40.5,5.037592907416446,0.8125
-35.0,-5.037592907416446,-0.8125
-38.5,3.5711072741977725,4.875
-43.0,-2.9636508821950587,5.6875
-39.0,3.0066023442558567,-1.625
-40.5,1.4358060174609597,-1.625
-35.0,-5.074408446325701,4.875
-43.0,0.6810874698212246,-3.25
-39.0,2.9022916506796332,5.6875
-35.0,-3.5711072741977725,2.4375
-41.0,5.043728830567988,2.4375
-43.0,-4.387185053352934,1.625
-35.0,-0.6688156235181395,2.4375
-43.0,0.674951546669682,-1.625
-40.5,4.356505437595221,2.4375
-38.5,-1.4419419406125025,5.6875
-39.0,0.006135923151542766,4.875
-43.0,-2.9636508821950587,3.25
-40.5,4.417864669110647,-0.8125
-34.5,-5.037592907416445,0.8125
-42.5,0.6504078540635119,2.4375
-39.0,2.994330497952771,0.8125
-41.0,1.3376312470362794,1.625
-34.5,-4.9823695990525625,0.8125
-35.0,0.006135923151542572,2.4375
-38.5,3.6386024288647407,0.8125
-43.0,-2.988194574801229,0.8125
-40.5,4.325825821837508,-0.8125
-41.0,-0.006135923151542322,2.4375
-34.5,-4.97623367590102,1.625
-38.5,3.6386024288647407,4.875
-43.0,-2.9697868053466014,-1.625
-39.0,2.9759227284981438,0.8125
-34.5,-3.650874275167826,0.8125
-42.5,0.6810874698212247,-2.4375
-40.5,4.301282129231338,0.0
-40.5,-0.00613592315154321,3.25
-34.5,-4.97623367590102,0.8125
-39.0,3.6447383520162835,2.4375
-42.5,-2.975922728498144,0.8125
-38.5,2.951379035891974,6.5
-42.5,-2.9575149590435164,0.8125
-40.5,4.319689898685966,0.0
-34.5,-4.988505522204106,4.0625
-34.5,0.012271846303085143,0.0
-42.5,0.619728238305799,5.6875
-39.0,3.018874190558942,0.8125
-40.5,1.3376312470362794,1.625
-41.0,-0.00613592315154321,-1.625
-35.0,-4.97623367590102,1.625
-38.5,3.6692820446224537,0.0
-43.0,-3.031146036862027,4.875
-39.0,3.018874190558942,0.8125
-40.5,1.3008157081270233,2.4375
-43.0,-4.295146206079795,1.625
-35.0,-0.6504078540635119,0.0
-38.5,3.6201946594101133,4.875
-40.5,1.3437671701878213,0.8125
-35.0,-4.9823695990525625,2.4375
-42.5,0.674951546669682,1.625
-43.0,0.018407769454627743,-1.625
-38.5,2.932971266437346,4.875
-40.5,1.368310862793992,0.0
-35.0,-4.994641445355648,2.4375
-34.5,0.0,0.8125
-38.5,3.6999616603801666,-3.25
-41.0,1.2333205534600555,0.8125
-42.5,-4.246058820867455,2.4375
-43.0,0.012271846303085088,0.0
-34.5,-0.6933593161243098,0.8125
-39.0,3.6754179677739964,0.8125
-41.0,1.2394564766115983,2.4375
-40.5,0.018407769454626965,-0.8125
-34.5,-4.945554060143307,1.625
-38.5,3.706097583531709,0.8125
-42.5,-3.000466421104314,-0.8125
-42.5,-0.012271846303085088,1.625
-38.5,2.9943304979527716,1.625
-34.5,-3.6754179677739964,0.8125
-40.5,4.90260259808251,2.4375
-38.5,-1.2210487071569704,0.0
-43.0,-2.9943304979527716,0.0
-34.5,-0.705631162427395,1.625
-40.5,4.914874444385594,1.625
-38.5,-1.202640937702343,-2.4375
-41.0,1.221048707156971,0.8125
-43.0,-4.2092432819582,-0.8125
-35.0,-0.7179030087304801,2.4375
-40.5,4.914874444385594,3.25
-39.0,-1.2455923997631406,4.875
-43.0,-2.9575149590435164,1.625
-34.5,-0.705631162427395,2.4375
-38.5,3.6631461214709113,1.625
-43.0,-2.9391071895888885,-1.625
-41.0,4.2031073588066565,-1.625
-35.0,-4.9210103675371375,0.8125
-42.5,0.6872233929727672,2.4375
-38.5,3.0127382674073995,-1.625
-41.0,1.1965050145508003,0.0
-34.5,-4.9210103675371375,4.0625
-40.5,4.884194828627882,1.625
-39.0,-1.1596894756415446,2.4375
-42.5,-3.0004664211043144,5.6875
-34.5,-0.7179030087304801,4.0625
-34.5,-0.006135923151542572,4.0625
-42.5,0.7179030087304801,2.4375
-41.0,4.166291819897402,1.625
-38.5,-1.1535535524900022,1.625
-34.5,-3.730641276137879,4.0625
-43.0,0.7424467013366504,0.8125
-38.5,2.9759227284981438,3.25
-40.5,1.1719613219446297,-1.625
-40.5,-0.012271846303084644,-0.8125
-34.5,-4.871922982324796,2.4375
-39.0,3.736777199289422,-2.4375
-43.0,-2.9820586516496865,-3.25
-40.5,4.0987966652304335,2.4375
-34.5,-4.859651136021712,2.4375
-38.5,3.718369429834794,0.0
-43.0,-2.9636508821950587,0.0
-43.0,-0.012271846303085088,-0.8125
-40.5,4.025165587411923,4.875
-39.0,-1.0185632431560658,-2.4375
-34.5,-3.761320891895592,4.0625
-34.0,0.018407769454627687,1.625
-43.0,0.760854470791278,1.625
-40.5,4.012893741108837,1.625
-39.0,-1.0431069357622356,1.625
-34.0,-3.749049045592507,1.625
-39.0,3.77972866135022,0.8125
-40.5,1.0185632431560658,1.625
-42.5,-4.031301510563465,3.25
-34.5,-0.7669903939428205,2.4375
-42.5,0.7731263170943631,0.8125
-40.5,4.01902966426038,1.625
-38.5,-1.0062913968529803,-4.875
-40.5,1.0185632431560658,0.8125
-43.0,-4.01902966426038,-1.625
-38.5,2.988194574801229,-0.8125
-34.0,-3.7551849687440497,0.0
-40.5,4.7860200582032,0.0
-34.5,-4.798291904506286,2.4375
-42.5,0.7792622402459057,-0.8125
-38.5,2.9759227284981438,0.0
-34.5,-3.773592738198677,4.875
-41.0,4.773748211900116,0.8125
-42.5,-3.9822141253511245,2.4375
-38.5,3.0066023442558567,-0.8125
-38.5,0.024543692606170175,-1.625
-34.5,-3.8104082771079324,1.625
-40.5,4.7860200582032,-3.25
-43.0,-4.000621894805752,0.8125
-34.0,-0.7792622402459057,0.8125
-38.5,3.7858645845017627,-0.8125
-40.5,0.9756117810952674,0.8125
-43.0,-3.969942279048039,0.8125
-34.0,-0.7976700097005334,1.625
-38.5,3.792000507653305,-0.8125
-40.5,0.9510680884890972,4.875
-42.5,-3.914718970684156,-2.4375
-43.0,-0.024543692606170286,0.0
-34.5,-0.8099418560036185,4.0625
-40.5,4.743068596142402,5.6875
-38.5,-0.95720401164064,2.4375
-34.0,-3.7858645845017627,2.4375
-39.0,3.792000507653305,-0.8125
-42.5,-3.0066023442558567,5.6875
-40.5,3.9576704327449543,3.25
-42.5,-3.933126740138784,-0.8125
-38.5,2.9943304979527716,-1.625
-34.0,-3.792000507653305,0.8125
-41.0,4.7307967498393175,3.25
-41.0,0.012271846303084644,0.8125
-38.5,-0.9510680884890972,-1.625
-34.0,-3.7981364308048473,2.4375
-42.5,0.7731263170943631,3.25
-40.5,3.9944859716542096,0.0
-38.5,-0.9817477042468101,1.625
-43.0,-2.9943304979527716,0.8125
-34.5,-0.7853981633974483,0.8125
-40.5,4.724660826687775,4.875
-34.5,-4.73693267299086,2.4375
-43.0,0.8099418560036185,-1.625
-38.5,2.9881945748012293,-1.625
-38.5,0.0,0.8125
-43.0,-3.0127382674073995,5.6875
-40.5,3.976078202199582,-0.8125
-34.5,-4.767612288748573,2.4375
-34.5,0.018407769454627715,1.625
-38.5,3.767456815047135,1.625
-41.0,0.9756117810952674,3.25
-42.5,-3.951534509593411,1.625
-34.0,-0.7976700097005334,2.4375
-40.5,4.743068596142402,1.625
-38.5,-0.9449321653375549,0.0
-43.0,-3.000466421104314,0.0
-41.0,3.9638063558964967,1.625
-38.5,-0.9756117810952678,0.8125
-43.0,-2.9943304979527716,1.625
-34.0,-0.7915340865489908,2.4375
-40.5,4.743068596142402,1.625
-34.0,-4.755340442445488,4.875
-43.0,0.8099418560036186,0.8125
-38.5,3.000466421104314,0.0
-40.5,0.9633399347921827,-1.625
-34.5,-4.773748211900116,4.0625
-38.5,3.7981364308048473,0.8125
-43.0,-3.000466421104314,2.4375
-34.0,-0.7915340865489908,1.625
-40.5,4.755340442445487,0.0
-43.0,-3.951534509593411,1.625
-39.0,3.0066023442558567,0.0
-34.5,-3.810408277107933,2.4375
-42.5,0.7976700097005334,2.4375
-40.5,3.9453985864418692,0.8125
-38.5,-0.9449321653375549,1.625
-39.0,0.024543692606170175,0.8125
-43.0,-3.018874190558942,0.0
-40.5,3.9147189706841563,0.8125
-34.0,-4.718524903536232,2.4375
