-26.0,0.0,1.625
-26.0,-0.012271846303085088,4.875
-26.0,0.0,4.0625
-26.0,0.012271846303085088,1.625
-26.0,-0.006135923151542322,4.0625
-26.0,0.006135923151542322,4.0625
-26.0,-0.012271846303085088,4.875
-26.0,0.0,4.875
-26.0,0.012271846303085088,2.4375
-26.0,-0.006135923151542322,4.0625
-26.0,0.006135923151542322,0.8125
-26.0,0.0,4.0625
-26.0,0.0,4.0625
-26.0,-0.006135923151542322,5.6875
-26.0,0.01840776945462741,0.8125
-26.0,-0.006135923151542322,0.8125
-26.0,-0.006135923151542766,4.0625
-26.0,-0.012271846303085088,4.875
-26.0,0.0,0.0
-26.0,-0.012271846303085088,4.0625
-26.0,-0.006135923151542766,2.4375
-26.0,-0.012271846303085088,4.0625
-26.0,-0.012271846303085088,4.0625
-26.0,-0.01840776945462741,4.875
-26.0,-0.006135923151542766,2.4375
-26.0,0.0,4.0625
-26.0,-0.012271846303085088,4.0625
-26.0,-0.012271846303085088,4.0625
-26.0,-0.012271846303085088,4.0625
-26.0,-0.04295146206079803,8.125
-26.0,-0.006135923151542766,7.3125
-26.0,-0.006135923151542322,5.6875
-26.0,-0.024543692606170175,8.125
-25.5,0.006135923151542322,4.875
-25.5,-0.018407769454627854,5.6875
-25.5,-0.012271846303085088,4.875
-25.5,-0.006135923151542322,4.0625
-25.5,0.006135923151542322,2.4375
-25.5,-0.01840776945462741,5.6875
-25.5,-0.024543692606170175,8.125
-25.5,0.012271846303085088,4.0625
-25.5,-0.012271846303085088,5.6875
-25.5,0.012271846303085088,2.4375
-25.5,-0.02454369260617062,5.6875
-25.5,-0.012271846303085088,7.3125
-25.5,0.012271846303085088,5.6875
-25.5,-0.012271846303085088,5.6875
-25.5,-0.006135923151542322,6.5
-25.5,-0.012271846303085088,6.5
-25.5,0.0,5.6875
-25.5,0.0,4.875
-25.5,-0.006135923151542766,4.0625
-25.5,-0.012271846303085088,6.5
-25.5,0.0,5.6875
-25.5,0.0,4.0625
-25.5,-0.018407769454627854,5.6875
-25.5,0.0,4.875
-25.5,-0.030679615757712497,8.125
-25.5,-0.006135923151542766,8.125
-25.5,0.012271846303085088,4.875
-25.5,-0.024543692606170175,6.5
-25.5,-0.018407769454627854,6.5
-25.5,0.02454369260617062,4.0625
-25.5,-0.012271846303085088,4.875
-25.5,-0.012271846303085532,7.3125
-25.5,0.012271846303085532,2.4375
-25.5,-0.006135923151542766,5.6875
-25.5,-0.006135923151542766,6.5
-25.5,0.0,5.6875
-25.5,-0.006135923151542322,5.6875
-25.5,-0.018407769454627854,8.9375
-25.5,0.006135923151542766,6.5
-25.5,0.0,5.6875
-25.5,-0.024543692606170175,5.6875
-26.0,0.012271846303085088,4.0625
-25.5,-0.024543692606170175,6.5
-26.0,0.012271846303085088,4.0625
-26.0,-0.006135923151542766,4.875
-25.5,-0.012271846303085088,5.6875
-25.5,0.012271846303085088,4.0625
-25.5,-0.03067961575771294,4.875
-25.5,-0.042951462060797585,4.875
-26.0,-0.006135923151542766,4.875
-26.0,0.018407769454627854,1.625
-26.0,-0.012271846303085088,4.875
-26.0,-0.018407769454627854,4.875
-26.0,-0.08590292412159606,5.6875
-26.0,0.012271846303085088,1.625
-26.0,-0.006135923151542322,4.875
-26.0,-0.006135923151542766,1.625
-26.5,-0.07363107781851053,1.625
-26.5,-0.006135923151542766,2.4375
-26.5,-0.018407769454627854,4.875
-27.0,-0.10431069357622347,4.0625
-27.0,-0.012271846303085088,0.8125
-26.5,-0.05522330836388312,0.0
-27.0,0.0,0.8125
-26.5,-0.07363107781851053,4.0625
-27.0,-0.06135923151542588,1.625
-27.0,-0.06135923151542544,4.0625
-27.0,-0.09203884727313882,4.875
-27.0,-0.03681553890925526,2.4375
-27.5,-0.09817477042468115,1.625
-28.0,-0.05522330836388267,0.0
-28.5,-0.10431069357622391,0.0
-29.0,-0.04908738521234035,0.0
-29.5,-0.0674951546669682,-0.8125
-30.0,-0.10431069357622347,1.625
-30.0,-0.04295146206079803,0.8125
-30.5,-0.06135923151542588,1.625
-30.5,-0.024543692606170175,4.875
-30.5,-0.012271846303085088,0.8125
-31.0,-0.03067961575771294,2.4375
-31.0,0.0,2.4375
-31.0,-0.012271846303085088,4.0625
-31.0,0.03067961575771294,0.8125
-31.0,-0.04295146206079803,2.4375
-31.0,-0.018407769454627854,0.8125
-31.0,-0.012271846303085088,0.0
-32.0,-0.03067961575771272,1.625
-31.5,-0.024543692606170175,2.4375
-32.0,0.0,0.0
-32.0,-0.036815538909255485,4.0625
-32.5,0.0,0.0
-32.5,-0.024543692606170175,0.0
-32.5,-0.012271846303085088,0.0
-32.5,-0.006135923151542766,0.0
-32.5,-0.012271846303085088,0.0
-33.0,-0.006135923151542544,2.4375
-33.0,-0.006135923151542544,1.625
-33.0,-0.01840776945462763,4.0625
-33.0,0.006135923151542544,4.875
-33.0,0.006135923151542544,0.8125
-33.0,-0.01840776945462763,4.875
-33.0,-0.006135923151542544,4.0625
-33.0,-0.018407769454627854,4.875
-33.5,0.01227184630308531,2.4375
-33.0,-0.006135923151542766,4.875
-33.0,-0.01840776945462763,6.5
-33.5,0.03067961575771294,0.8125
-33.0,-0.018407769454627854,2.4375
-33.0,0.0,1.625
-33.5,-0.006135923151542544,4.0625
-33.5,-0.012271846303085088,5.6875
-33.5,0.012271846303085088,4.0625
-33.5,0.006135923151542544,1.625
-33.5,-0.012271846303085088,2.4375
-33.5,0.01840776945462763,1.625
-33.5,-0.01840776945462763,1.625
-33.5,0.0,2.4375
-33.5,0.0,4.0625
-34.0,-0.01840776945462763,8.125
-33.5,-0.01840776945462763,8.9375
-33.5,0.01840776945462763,6.5
-33.5,0.012271846303085088,4.0625
-34.0,-0.006135923151542544,4.875
-34.0,0.0,2.4375
-33.5,0.012271846303085088,1.625
-34.0,-0.012271846303085088,4.875
-33.5,0.012271846303085088,1.625
-34.0,-0.01840776945462763,6.5
-34.0,0.0,4.875
-34.0,-0.006135923151542544,6.5
-34.0,0.012271846303085088,4.0625
-34.0,0.0,1.625
-34.0,-0.006135923151542544,4.875
-34.0,-0.006135923151542544,4.0625
-34.0,0.006135923151542544,4.0625
-34.0,-0.006135923151542544,4.875
-34.0,0.006135923151542544,7.3125
-34.0,-0.006135923151542544,4.875
-34.0,0.006135923151542544,4.875
-34.0,-0.006135923151542544,2.4375
-34.0,0.0,4.875
-34.0,-0.006135923151542544,4.875
-34.0,0.03681553890925526,-1.625
-34.0,-0.024543692606170175,2.4375
-34.0,0.006135923151542544,2.4375
-34.5,-0.01840776945462763,6.5
-34.5,0.01840776945462763,2.4375
-34.0,-0.006135923151542544,5.6875
-34.0,0.01840776945462763,2.4375
-34.0,-0.012271846303085088,4.0625
-34.0,0.0,2.4375
-34.0,-0.006135923151542544,6.5
-34.5,-0.012271846303085088,4.875
-34.0,0.006135923151542544,4.875
-34.0,-0.006135923151542544,6.5
-34.5,0.01840776945462763,2.4375
-34.0,-0.024543692606170175,7.3125
-34.0,0.03067961575771272,4.0625
-34.0,-0.006135923151542544,4.875
-34.0,0.006135923151542544,2.4375
-34.5,0.006135923151542544,1.625
-34.5,-0.006135923151542544,4.875
-34.0,-0.024543692606170175,7.3125
-34.0,0.01840776945462763,4.0625
-34.0,0.0,4.875
-34.5,0.012271846303085088,4.875
-34.5,-0.006135923151542544,5.6875
-34.5,0.0,4.0625
-34.0,-0.006135923151542544,4.875
-34.0,0.006135923151542544,4.0625
-34.0,-0.012271846303085088,4.875
-34.5,-0.006135923151542544,7.3125
-34.5,0.012271846303085088,5.6875
-34.0,0.012271846303085088,4.0625
-34.5,0.0,2.4375
-34.0,-0.01840776945462763,5.6875
-34.0,0.01840776945462763,2.4375
-34.0,0.006135923151542544,0.8125
-34.5,-0.012271846303085088,2.4375
-34.0,-0.012271846303085088,4.875
-34.0,0.012271846303085088,4.0625
-34.0,-0.024543692606170175,6.5
-34.5,0.01840776945462763,2.4375
-34.5,0.0,4.875
-34.5,0.012271846303085088,1.625
-34.5,-0.024543692606170175,4.0625
-34.5,0.006135923151542544,6.5
-34.0,-0.012271846303085088,6.5
-34.5,0.024543692606170175,2.4375
-34.0,0.0,2.4375
-34.5,0.006135923151542544,2.4375
-34.0,-0.012271846303085088,4.875
-34.0,-0.006135923151542544,2.4375
-34.5,0.0,5.6875
-34.0,0.006135923151542544,4.875
-34.5,0.0,5.6875
-34.0,-0.006135923151542544,6.5
-34.0,0.024543692606170175,2.4375
-34.0,-0.006135923151542544,5.6875
-34.0,0.012271846303085088,4.0625
-34.5,0.0,1.625
-34.0,0.01227184630308531,0.0
-34.0,-0.006135923151542766,2.4375
-34.0,0.006135923151542766,0.8125
-34.5,-0.01227184630308531,2.4375
-34.0,0.006135923151542544,2.4375
-34.0,-0.012271846303085088,4.875
-34.0,0.006135923151542544,4.0625
-34.0,0.018407769454627854,0.8125
-34.0,0.0,1.625
-34.0,-0.006135923151542544,2.4375
-34.0,0.0,4.0625
-34.0,0.0,2.4375
-34.0,-0.01227184630308531,6.5
-34.0,0.006135923151542544,2.4375
-34.0,0.01227184630308531,4.875
-34.0,0.006135923151542544,2.4375
-34.0,0.0,2.4375
-34.0,0.0,1.625
-34.0,-0.018407769454627854,5.6875
-34.0,0.01227184630308531,4.0625
-34.0,-0.006135923151542544,4.875
-34.0,0.024543692606170175,2.4375
-34.0,-0.006135923151542544,4.0625
-34.0,0.006135923151542544,2.4375
-34.0,-0.006135923151542544,2.4375
-34.0,-0.006135923151542544,6.5
-34.0,0.0,5.6875
-34.0,0.006135923151542544,5.6875
-34.0,0.006135923151542544,2.4375
-34.5,-0.006135923151542544,4.0625
-34.0,0.03067961575771272,-1.625
-34.0,-0.024543692606170175,0.8125
-34.0,-0.01840776945462763,4.875
-34.0,0.0,4.875
-34.0,0.012271846303085088,2.4375
-34.0,-0.006135923151542544,4.875
-34.0,0.0,4.0625
-34.0,-0.012271846303085088,5.6875
-34.0,0.01840776945462763,4.0625
-34.0,-0.012271846303085088,6.5
-34.0,0.01840776945462763,2.4375
-34.0,-0.01840776945462763,7.3125
-34.0,0.01840776945462763,4.0625
-34.0,0.012271846303085088,1.625
-34.0,-0.01840776945462763,6.5
-34.0,0.006135923151542544,4.875
-34.0,0.0,4.875
-34.0,0.0,5.6875
-34.0,0.012271846303085088,4.875
-34.0,0.0,1.625
-34.0,0.006135923151542544,0.8125
-34.0,-0.006135923151542544,1.625
-34.0,0.006135923151542544,1.625
-34.0,-0.012271846303085088,4.875
-34.0,0.01840776945462763,1.625
-34.0,-0.01840776945462763,5.6875
-34.0,0.012271846303085088,2.4375
-34.0,-0.006135923151542544,2.4375
-34.0,0.0,4.875
-34.0,-0.006135923151542544,4.0625
-34.0,-0.006135923151542544,4.875
-34.0,0.0,4.875
-34.0,0.006135923151542544,4.875
-34.0,0.0,4.875
-34.0,0.01840776945462763,1.625
-34.0,-0.01840776945462763,4.0625
-34.0,0.01840776945462763,0.8125
-34.0,-0.012271846303085088,1.625
-34.0,0.0,4.0625
-34.0,0.006135923151542544,1.625
-34.0,0.0,2.4375
-34.0,-0.01840776945462763,4.0625
-34.0,-0.006135923151542544,5.6875
-34.0,0.01840776945462763,2.4375
-34.0,0.006135923151542544,1.625
-34.0,-0.024543692606170175,4.0625
-34.0,0.006135923151542544,4.875
-34.0,0.01840776945462763,1.625
-34.0,-0.006135923151542544,0.8125
-34.0,-0.03067961575771272,8.125
-34.0,0.01840776945462763,5.6875
-33.5,0.0,4.0625
-34.0,-0.006135923151542544,5.6875
-33.5,0.012271846303085088,1.625
-33.5,-0.01840776945462763,4.875
-34.0,0.024543692606170175,1.625
-34.0,-0.012271846303085088,4.875
-33.5,0.006135923151542544,1.625
-33.5,0.006135923151542544,1.625
-33.5,-0.01840776945462763,4.0625
-33.5,0.012271846303085088,2.4375
-34.0,0.0,4.875
-33.5,-0.01840776945462763,5.6875
-33.5,0.01840776945462763,4.875
-33.5,0.012271846303085088,2.4375
-34.0,-0.006135923151542544,4.0625
-33.5,0.0,2.4375
-34.0,-0.01840776945462763,5.6875
-34.0,0.0,5.6875
-34.0,0.024543692606170175,2.4375
-33.5,0.0,1.625
-33.5,-0.012271846303085088,5.6875
-34.0,0.012271846303085088,1.625
-33.5,0.006135923151542544,0.8125
-34.0,-0.01840776945462763,4.875
-33.5,0.0,2.4375
-33.5,-0.006135923151542544,2.4375
-33.5,0.01840776945462763,0.8125
-33.5,0.006135923151542544,1.625
-33.5,-0.01840776945462763,4.875
-34.0,0.024543692606170175,1.625
-34.0,-0.024543692606170175,5.6875
-33.5,-0.006135923151542544,5.6875
-33.5,0.01840776945462763,0.0
-33.5,0.012271846303085088,1.625
-34.0,0.0,4.0625
-33.5,0.006135923151542544,0.8125
-34.0,-0.024543692606170175,6.5
-33.5,0.006135923151542544,4.875
-34.0,0.01840776945462763,1.625
-33.5,-0.03067961575771272,6.5
-33.5,0.024543692606170175,2.4375
-33.5,0.006135923151542544,2.4375
-34.0,0.006135923151542766,0.8125
-33.5,-0.018407769454627854,4.875
-33.5,0.012271846303085088,2.4375
-33.5,0.0,2.4375
-33.5,-0.006135923151542544,4.0625
-33.5,0.006135923151542544,4.0625
-33.5,0.024543692606170397,-1.625
-34.0,-0.036815538909255485,4.875
-34.0,0.024543692606170397,1.625
-33.5,0.006135923151542544,-0.8125
-33.5,0.0,1.625
-34.0,-0.018407769454627854,4.875
-34.0,0.01227184630308531,2.4375
-33.5,-0.024543692606170397,6.5
-33.5,0.03067961575771294,0.8125
-34.0,-0.024543692606170397,6.5
-33.5,0.024543692606170397,2.4375
-33.5,0.01840776945462763,-1.625
-33.5,-0.024543692606170175,2.4375
-33.5,-0.006135923151542544,5.6875
-33.5,0.024543692606170175,2.4375
-33.5,-0.012271846303085088,4.0625
-34.0,0.01840776945462763,0.0
-33.5,-0.006135923151542544,0.8125
-34.0,0.0,0.8125
-34.0,0.006135923151542544,2.4375
-33.5,-0.01840776945462763,4.875
-34.0,0.012271846303085088,1.625
-34.0,-0.012271846303085088,4.0625
-33.5,0.012271846303085088,0.0
-33.5,0.0,0.0
-33.5,-0.012271846303085088,1.625
-34.0,-0.012271846303085088,4.875
-33.5,0.01840776945462763,1.625
-34.0,-0.01840776945462763,4.875
-34.0,0.0,5.6875
-34.0,-0.006135923151542766,4.875
-34.0,0.006135923151542766,4.0625
-33.5,0.006135923151542544,2.4375
-33.5,0.0,4.0625
-33.5,-0.018407769454627854,4.875
-34.0,0.018407769454627854,4.0625
-34.0,0.0,4.0625
-33.5,-0.006135923151542544,2.4375
-33.5,0.0,4.0625
-34.0,0.012271846303085088,2.4375
-34.0,0.0,1.625
-34.0,-0.006135923151542544,2.4375
-33.5,0.0,4.875
-34.0,-0.018407769454627854,7.3125
-34.0,0.018407769454627854,4.875
-33.5,0.0,4.875
-33.5,0.006135923151542544,1.625
-34.0,-0.006135923151542544,4.0625
-33.5,0.0,2.4375
-33.5,0.012271846303085088,0.8125
-33.5,-0.006135923151542544,4.875
-34.0,0.0,4.0625
-34.0,0.012271846303085088,4.0625
-33.5,-0.006135923151542544,0.8125
-34.0,0.0,2.4375
-34.0,0.0,1.625
-33.5,-0.024543692606170397,7.3125
-33.5,0.0,5.6875
-34.0,0.036815538909255485,2.4375
-34.0,-0.024543692606170175,5.6875
-34.0,0.01840776945462763,4.0625
-34.0,0.0,1.625
-34.0,-0.012271846303085088,5.6875
-34.0,0.006135923151542544,2.4375
-34.0,0.01840776945462763,0.8125
-34.0,0.006135923151542544,0.8125
-34.0,-0.012271846303085088,2.4375
-34.0,0.006135923151542544,1.625
-34.0,-0.006135923151542544,1.625
-34.0,-0.006135923151542544,4.0625
-34.0,-0.006135923151542544,4.875
-34.0,0.006135923151542544,4.0625
-34.0,-0.006135923151542544,4.0625
-34.0,0.006135923151542544,5.6875
-34.0,-0.006135923151542544,4.0625
-34.0,0.006135923151542544,4.0625
-34.0,0.006135923151542544,1.625
-34.0,-0.006135923151542544,4.0625
-34.0,-0.012271846303085088,4.875
-34.5,0.012271846303085088,1.625
-34.5,0.0,4.0625
-34.0,0.012271846303085088,-0.8125
-34.0,-0.03067961575771272,6.5
-34.0,0.01840776945462763,4.0625
-34.0,0.024543692606170175,0.8125
-34.0,-0.012271846303085088,2.4375
-34.0,-0.01840776945462763,5.6875
-34.0,0.006135923151542544,4.0625
-34.5,0.0,4.0625
-34.0,0.0,4.0625
-34.0,0.03067961575771272,0.0
-34.5,-0.03681553890925526,4.875
-34.5,0.012271846303085088,4.0625
-34.5,-0.01840776945462763,5.6875
-34.5,0.006135923151542544,2.4375
-34.0,0.006135923151542544,0.8125
-34.0,-0.006135923151542544,4.0625
-34.0,-0.012271846303085088,5.6875
-34.5,0.01840776945462763,4.0625
-34.0,-0.012271846303085088,4.875
-34.5,0.012271846303085088,2.4375
-34.5,-0.006135923151542544,5.6875
-34.0,0.006135923151542544,4.0625
-34.5,-0.006135923151542544,4.875
-34.5,0.012271846303085088,2.4375
-34.0,0.012271846303085088,2.4375
-34.5,-0.012271846303085088,2.4375
-34.5,0.0,2.4375
-34.5,0.0,4.0625
-34.0,-0.012271846303085088,2.4375
-34.5,-0.006135923151542544,5.6875
-34.0,0.01840776945462763,2.4375
-34.0,-0.01840776945462763,5.6875
-34.5,0.03067961575771272,0.8125
-34.5,-0.01840776945462763,2.4375
-34.0,-0.006135923151542544,7.3125
-34.5,0.01840776945462763,1.625
-34.0,-0.024543692606170175,8.125
-34.5,0.01840776945462763,2.4375
-34.5,0.012271846303085088,4.0625
-34.5,-0.012271846303085088,2.4375
-34.5,0.012271846303085088,4.875
-34.5,0.0,4.0625
-34.5,0.006135923151542544,0.0
-34.5,-0.006135923151542544,2.4375
-34.5,-0.012271846303085088,5.6875
-34.0,0.01840776945462763,5.6875
-34.5,0.018407769454627854,0.0
-34.0,0.0,0.8125
-34.5,0.006135923151542544,0.0
-34.5,-0.006135923151542544,2.4375
-34.5,-0.006135923151542544,4.0625
-34.0,0.01840776945462763,2.4375
-34.0,0.006135923151542544,1.625
-34.5,-0.012271846303085088,4.875
-34.5,0.01840776945462763,4.0625
-34.0,0.012271846303085088,1.625
-34.0,0.006135923151542544,4.0625
-34.0,0.0,4.875
-34.0,0.006135923151542544,2.4375
-34.0,0.018407769454627854,1.625
-33.5,0.006135923151542322,1.625
-33.5,-0.006135923151542322,1.625
-33.5,0.0,2.4375
-33.5,0.006135923151542322,6.5
-33.5,0.018407769454627854,0.8125
-33.5,0.012271846303085088,0.8125
-33.5,0.0,1.625
-33.5,0.012271846303085088,0.8125
-33.5,-0.01840776945462741,4.0625
-33.0,0.012271846303085088,4.875
-33.5,0.01840776945462741,0.8125
-33.0,-0.01840776945462741,4.875
-33.5,0.01840776945462741,1.625
-33.0,0.012271846303085088,1.625
-33.0,0.0,4.0625
-33.0,0.012271846303085088,4.0625
-32.5,-0.012271846303085088,4.0625
-33.0,0.018407769454627854,4.0625
-32.5,0.006135923151542766,4.0625
-32.5,0.0,2.4375
-32.5,0.0,4.875
-32.5,0.030679615757712497,-0.8125
-32.5,-0.012271846303085088,2.4375
-32.5,0.018407769454627854,0.8125
-32.5,0.01840776945462741,0.8125
-32.0,-0.006135923151542322,2.4375
-32.0,0.012271846303085088,2.4375
-32.0,0.018407769454627854,0.0
-31.5,0.006135923151542322,2.4375
-31.5,0.006135923151542766,4.0625
-31.0,0.012271846303085088,4.0625
-31.0,0.03681553890925526,0.8125
-31.0,-0.006135923151542322,4.0625
-31.0,0.04908738521234035,0.0
-31.0,0.018407769454627854,0.0
-30.5,0.024543692606170175,-1.625
-30.5,0.012271846303085088,0.0
-30.0,0.024543692606170175,-1.625
-30.0,0.006135923151542766,2.4375
-30.0,0.01840776945462741,0.8125
-29.5,0.024543692606170175,1.625
-29.0,0.03067961575771294,0.0
-29.0,0.012271846303085088,1.625
-28.5,0.024543692606170175,1.625
-28.5,0.03067961575771294,2.4375
-28.5,0.018407769454627854,0.8125
-28.0,0.006135923151542322,0.0
-28.0,0.012271846303085532,4.0625
-28.0,0.01840776945462741,2.4375
-28.0,0.024543692606170175,4.875
-27.5,0.04295146206079803,0.8125
-27.5,0.04295146206079803,0.8125
-27.0,0.018407769454627854,5.6875
-27.0,0.042951462060797585,0.8125
-27.0,0.03067961575771294,7.3125
-27.0,0.04295146206079803,4.875
-26.5,0.05522330836388312,4.875
-26.5,0.07976700097005329,4.875
-26.5,0.08590292412159606,1.625
-26.5,0.05522330836388312,0.0
-26.5,0.06135923151542544,1.625
-26.0,0.04295146206079803,2.4375
-25.5,0.07976700097005329,4.0625
-25.5,0.03067961575771294,7.3125
-25.5,0.05522330836388312,4.875
-25.5,0.04295146206079803,0.8125
-25.5,0.030679615757712497,4.875
-25.0,0.03067961575771294,4.0625
-25.0,0.03681553890925526,2.4375
-25.0,0.018407769454627854,4.0625
-25.0,0.024543692606170175,4.0625
-25.5,0.0,5.6875
-25.5,0.006135923151542766,5.6875
-25.0,0.012271846303085088,4.875
-25.0,0.024543692606170175,2.4375
-25.0,0.012271846303085088,2.4375
-25.5,-0.006135923151542766,6.5
-25.5,0.018407769454627854,4.0625
-25.0,0.024543692606170175,4.875
-25.5,0.006135923151542766,5.6875
-25.5,0.01840776945462741,1.625
-25.5,0.012271846303085532,4.875
-25.5,0.006135923151542322,6.5
-25.5,0.018407769454627854,5.6875
-25.5,0.006135923151542322,4.875
-25.5,0.012271846303085088,4.875
-25.5,0.018407769454627854,4.0625
-25.5,0.0,4.875
-25.5,0.006135923151542766,8.125
-25.5,0.006135923151542322,6.5
-25.5,0.018407769454627854,4.0625
-25.5,0.006135923151542322,5.6875
-25.5,0.006135923151542766,6.5
-25.5,0.03067961575771294,4.0625
-25.5,0.006135923151542322,2.4375
-25.5,0.024543692606170175,1.625
-25.5,0.0,-0.8125
-25.5,0.006135923151542766,2.4375
-25.5,0.018407769454627854,-1.625
-25.5,-0.006135923151542766,2.4375
-25.5,0.0,5.6875
-25.5,0.024543692606170175,-0.8125
-26.0,0.012271846303085088,0.8125
-25.5,0.0,2.4375
-25.5,0.024543692606170175,1.625
-26.0,0.0,-0.8125
-26.0,-0.012271846303085088,4.0625
-26.0,0.018407769454627854,0.8125
-25.5,0.018407769454627854,-0.8125
-25.5,-0.006135923151542766,1.625
-26.0,0.006135923151542766,4.0625
-25.5,0.012271846303085088,1.625
-25.5,0.006135923151542322,4.0625
-25.5,0.018407769454627854,2.4375
-25.5,0.01840776945462741,0.8125
-25.5,0.00613592315154321,-0.8125
-25.5,0.018407769454626965,0.0
-25.5,0.024543692606170175,-0.8125
-25.5,-0.018407769454626965,4.0625
-25.5,0.030679615757712497,0.0
-25.5,0.018407769454627854,0.0
-25.5,0.006135923151542322,0.0
-25.5,0.012271846303085532,-1.625
-25.5,-0.024543692606170175,4.0625
-25.5,0.030679615757712497,2.4375
-25.5,0.018407769454627854,-0.8125
-25.5,0.0,0.0
-25.5,0.012271846303084644,4.0625
-25.5,0.024543692606170175,0.8125
-25.5,-0.006135923151542322,0.0
-25.5,-0.006135923151542322,4.875
-26.0,0.006135923151542322,1.625
-25.5,0.012271846303085532,1.625
-25.5,-0.018407769454627854,6.5
-26.0,0.012271846303084644,2.4375
-25.5,0.0,2.4375
-26.0,0.012271846303085532,2.4375
-26.0,0.0,2.4375
-26.0,-0.006135923151542322,4.0625
-25.5,0.0,4.0625
-26.0,0.0,4.0625
-25.5,0.012271846303084644,2.4375
-25.5,0.0,4.0625
-26.0,0.006135923151542322,4.0625
-26.0,0.00613592315154321,1.625
-26.0,0.0,1.625
-26.0,0.0,0.8125
-26.0,0.006135923151542322,1.625
-26.0,0.006135923151542322,0.8125
-26.0,-0.012271846303084644,4.0625
-26.0,0.012271846303084644,1.625
-26.0,-0.006135923151542322,4.0625
-26.0,-0.006135923151542322,4.0625
-26.0,0.0,4.0625
-26.0,-0.012271846303085532,5.6875
-26.0,0.018407769454627854,4.875
-26.0,0.012271846303085532,2.4375
-26.0,0.006135923151542322,0.8125
-26.0,-0.006135923151542322,2.4375
-26.0,-0.018407769454627854,5.6875
-26.0,0.012271846303084644,2.4375
-26.0,-0.012271846303084644,4.0625
-26.0,0.006135923151542322,4.875
-26.0,0.012271846303085532,1.625
-26.0,0.0,1.625
-26.0,-0.00613592315154321,4.0625
-26.0,0.0,2.4375
-26.5,-0.012271846303084644,4.0625
-26.0,0.024543692606170175,1.625
-26.5,0.006135923151542322,0.8125
-26.5,-0.018407769454627854,1.625
-26.5,-0.006135923151542322,4.875
-26.5,0.012271846303085532,4.0625
-26.5,-0.00613592315154321,4.0625
-26.5,0.00613592315154321,4.875
-26.0,0.0,2.4375
-26.5,0.006135923151542322,4.875
-26.0,-0.012271846303085532,4.875
-26.0,0.018407769454627854,2.4375
-26.0,-0.018407769454627854,4.875
-26.0,0.024543692606170175,-0.8125
-26.0,-0.006135923151542322,0.0
-26.0,-0.030679615757712497,6.5
-26.0,0.018407769454627854,2.4375
-26.0,0.0,0.0
-26.0,-0.012271846303085532,2.4375
-26.0,0.0,2.4375
-26.0,-0.006135923151542322,2.4375
-26.0,0.0,2.4375
-26.0,-0.00613592315154321,4.0625
-26.0,0.00613592315154321,0.8125
-25.5,-0.00613592315154321,4.0625
-25.5,0.00613592315154321,0.8125
-25.5,0.0,2.4375
-26.0,-0.00613592315154321,0.8125
-25.5,-0.006135923151542322,4.0625
-25.5,0.006135923151542322,2.4375
-25.5,-0.006135923151542322,2.4375
-25.5,0.0,0.8125
-26.0,0.0,1.625
-25.5,-0.024543692606170175,5.6875
-26.0,0.024543692606170175,1.625
-25.5,0.0,1.625
-25.5,-0.006135923151542322,1.625
-25.5,0.0,4.0625
-25.5,0.0,2.4375
-25.5,-0.012271846303085532,5.6875
-25.5,0.0,4.0625
-26.0,-0.006135923151542322,4.0625
-25.5,0.030679615757712497,-0.8125
-25.5,-0.018407769454626965,2.4375
-25.5,-0.012271846303085532,5.6875
-25.5,0.012271846303085532,2.4375
-25.5,-0.00613592315154321,1.625
-25.5,-0.006135923151542322,2.4375
-25.5,0.012271846303085532,4.0625
-25.5,-0.012271846303085532,2.4375
-26.0,-0.006135923151542322,6.5
-25.5,-0.006135923151542322,5.6875
-25.5,0.012271846303084644,4.875
-25.5,0.0,2.4375
-25.5,0.0,4.875
-25.5,0.0,4.0625
-25.5,0.0,4.875
-25.5,0.006135923151542322,2.4375
-25.5,0.00613592315154321,0.8125
-25.5,-0.012271846303085532,5.6875
-25.5,0.0,2.4375
-25.5,0.0,4.875
-25.5,-0.006135923151542322,4.0625
-25.5,0.018407769454627854,1.625
-25.5,-0.012271846303085532,4.875
-25.5,0.012271846303085532,2.4375
-25.5,-0.012271846303085532,4.875
-25.5,-0.006135923151542322,4.875
-25.5,0.012271846303084644,1.625
-25.5,-0.006135923151542322,4.0625
-25.5,-0.006135923151542322,4.0625
-25.5,0.024543692606170175,1.625
-25.0,0.0,-0.8125
-25.0,0.0,1.625
-25.0,0.0,2.4375
-25.0,0.0,1.625
-25.5,-0.012271846303085532,2.4375
-25.0,0.0,2.4375
-25.0,0.0,4.0625
-25.0,0.030679615757713385,-2.4375
-25.0,-0.018407769454627854,1.625
-25.0,-0.018407769454627854,4.0625
-25.0,-0.006135923151542322,6.5
-25.0,0.018407769454627854,0.8125
-25.0,0.006135923151542322,0.8125
-25.0,0.0,1.625
-25.0,-0.006135923151542322,4.875
-25.0,0.006135923151542322,1.625
-25.0,-0.006135923151542322,4.0625
-25.0,0.0,2.4375
-25.0,0.006135923151542322,2.4375
-25.0,0.006135923151542322,1.625
-25.0,0.0,0.8125
-25.0,0.0,1.625
-25.0,0.006135923151542322,1.625
-25.0,-0.012271846303084644,4.0625
-25.0,0.006135923151542322,2.4375
-25.0,-0.018407769454627854,4.0625
-25.0,-0.006135923151542322,4.875
-25.0,0.0,5.6875
-24.5,0.024543692606170175,4.0625
-24.5,-0.006135923151542322,4.0625
-24.5,0.0,4.875
-24.5,0.006135923151542322,2.4375
-24.5,0.006135923151542322,2.4375
-24.5,0.012271846303085532,4.0625
-24.5,-0.006135923151542322,4.0625
-24.5,-0.012271846303085532,4.875
-24.5,0.024543692606170175,4.0625
-24.5,0.00613592315154321,2.4375
-24.5,0.0,4.875
-24.5,0.018407769454626965,2.4375
-24.0,0.0,4.875
-24.0,0.00613592315154321,4.875
-24.0,0.018407769454626965,4.0625
-24.0,0.0,4.875
-24.0,0.024543692606171064,4.875
-24.0,0.024543692606170175,0.8125
-24.0,0.018407769454626965,0.0
-23.5,0.0,1.625
-23.5,0.00613592315154321,0.0
-23.5,0.0,2.4375
-23.5,-0.00613592315154321,-0.8125
-23.5,-0.006135923151542322,4.875
-23.5,-0.006135923151542322,4.0625
-23.5,0.0,4.0625
-23.5,-0.006135923151542322,4.0625
-23.5,0.006135923151542322,0.8125
-23.5,-0.018407769454627854,2.4375
-23.5,-0.012271846303084644,4.0625
-23.5,-0.00613592315154321,4.0625
-23.5,0.0,2.4375
-23.0,-0.012271846303084644,4.0625
-23.5,0.006135923151542322,0.8125
-23.5,-0.012271846303085532,4.0625
-23.0,-0.006135923151542322,4.0625
-23.0,0.0,4.0625
-23.5,0.0,2.4375
-23.5,-0.006135923151542322,1.625
-23.5,-0.012271846303085532,1.625
-23.5,0.0,4.0625
-23.5,0.00613592315154321,-2.4375
-23.0,-0.018407769454627854,2.4375
-23.0,-0.012271846303085532,4.0625
-23.0,-0.006135923151542322,1.625
-23.0,0.006135923151542322,0.8125
-23.5,-0.018407769454627854,2.4375
-23.0,-0.006135923151542322,4.875
-23.0,-0.012271846303084644,5.6875
-23.0,-0.012271846303085532,2.4375
-23.0,-0.024543692606170175,2.4375
-23.0,0.0,1.625
-23.0,-0.012271846303085532,4.875
-23.0,-0.030679615757712497,4.0625
-23.0,0.0,2.4375
-23.0,-0.018407769454627854,2.4375
-23.0,-0.024543692606170175,6.5
-23.5,-0.006135923151542322,4.875
-23.5,-0.024543692606170175,5.6875
-23.5,0.0,4.0625
-23.0,-0.02454369260617062,5.6875
-23.5,-0.03681553890925526,7.3125
-23.5,0.018407769454627854,0.0
-23.5,-0.03067961575771294,4.0625
-23.5,-0.012271846303085088,4.875
-23.5,0.0,1.625
-23.5,-0.03067961575771294,2.4375
-23.5,-0.006135923151542322,4.0625
-23.5,-0.006135923151542766,0.0
-23.5,-0.006135923151542322,4.0625
-23.5,-0.02454369260617062,4.875
-23.5,0.006135923151542766,1.625
-23.5,-0.03067961575771294,6.5
-23.5,0.018407769454627854,4.0625
-23.5,-0.018407769454627854,4.875
-23.0,0.018407769454627854,-2.4375
-23.5,-0.03067961575771294,6.5
-23.0,0.012271846303085088,4.0625
-23.0,-0.012271846303085088,4.875
-23.0,0.018407769454627854,0.8125
-23.0,-0.03067961575771294,5.6875
-23.0,-0.012271846303085088,6.5
-23.5,0.018407769454627854,4.0625
-23.0,0.012271846303085088,1.625
-23.5,-0.03681553890925571,5.6875
-23.0,-0.006135923151542322,7.3125
-23.0,0.0,7.3125
-23.0,0.006135923151542322,6.5
-23.0,-0.012271846303085088,7.3125
-23.0,-0.006135923151542322,6.5
-23.0,0.024543692606170175,4.0625
-23.5,-0.012271846303085088,6.5
-23.5,0.006135923151542322,4.875
-23.5,-0.012271846303085088,2.4375
-23.0,-0.012271846303085088,2.4375
-23.0,0.006135923151542766,4.0625
-23.5,-0.03067961575771294,6.5
-23.0,0.012271846303085088,4.0625
-23.0,-0.006135923151542322,4.875
-23.0,0.0,2.4375
-23.0,-0.03067961575771294,7.3125
-23.0,0.006135923151542322,6.5
-23.0,-0.01840776945462741,8.9375
-23.0,0.030679615757712497,4.0625
-23.0,-0.030679615757712497,7.3125
-23.0,0.006135923151542322,7.3125
-23.0,0.05522330836388312,-1.625
-23.5,-0.05522330836388312,7.3125
-23.0,0.07363107781851097,-2.4375
-23.0,-0.06135923151542588,4.0625
-23.5,0.16566992509164935,-20.3125
-23.0,-0.17794177139473444,6.5
-23.0,-0.006135923151542322,7.3125
-23.0,0.01840776945462741,4.875
-23.0,0.006135923151542766,4.0625
-23.0,0.006135923151542322,2.4375
-23.0,-0.01840776945462741,4.875
-23.0,-0.012271846303085088,4.875
-23.0,0.0674951546669682,-5.6875
-23.0,-0.0674951546669682,6.5
-23.0,0.05522330836388312,-2.4375
-23.0,-0.02454369260617062,1.625
-23.0,-0.024543692606170175,4.0625
-23.0,0.03067961575771294,-0.8125
-23.0,-0.024543692606170175,4.875
-23.0,0.0,4.0625
-23.0,-0.024543692606170175,6.5
-23.0,0.006135923151542322,5.6875
-23.0,0.0,5.6875
-23.0,0.0,5.6875
-23.0,-0.006135923151542322,6.5
-23.0,0.012271846303085088,4.0625
-23.0,-0.024543692606170175,6.5
-23.0,0.2270291566070748,-27.625
-23.0,-0.22089323345553247,6.5
-23.0,-0.006135923151542322,6.5
-23.0,0.07363107781851053,-6.5
-23.0,-0.0674951546669682,4.0625
-23.0,-0.006135923151542322,4.875
-23.0,0.05522330836388267,-4.0625
-23.0,-0.0674951546669682,4.875
-23.0,-0.006135923151542322,5.6875
-23.0,0.012271846303085088,1.625
-23.0,-0.024543692606170175,5.6875
-23.0,0.0,5.6875
-23.0,0.10431069357622347,-12.1875
-23.0,-0.12271846303085132,4.875
-23.0,-0.012271846303085088,6.5
-23.0,-0.006135923151542322,4.0625
-23.0,0.04908738521234035,-4.0625
-23.0,-0.0674951546669682,4.875
-23.0,0.03681553890925526,-1.625
-23.0,-0.03681553890925526,2.4375
-23.0,0.0674951546669682,-8.9375
-23.0,0.0,-8.9375
-23.0,-0.11658253987930856,6.5
-22.5,0.006135923151542322,5.6875
-23.0,0.018407769454627854,1.625
-23.0,-0.012271846303085088,4.0625
-22.5,0.024543692606170175,-1.625
-23.0,0.05522330836388312,-9.75
-23.0,0.030679615757712497,-14.625
-22.5,-0.09203884727313838,-2.4375
-23.0,0.024543692606170175,-6.5
-22.5,-0.0674951546669682,0.8125
-23.0,-0.024543692606170175,4.875
-23.0,0.06135923151542588,-6.5
-23.0,0.03681553890925526,-14.625
-23.0,-0.024543692606170175,-10.5625
-23.0,-0.07976700097005329,-1.625
-23.0,-0.012271846303085088,-2.4375
-23.0,-0.05522330836388312,4.0625
-23.0,0.0,0.8125
-23.0,0.0,-2.4375
-23.0,-0.44178646691106493,2.4375
-23.5,-0.05522330836388312,0.0
-23.5,-0.06135923151542544,0.0
-23.5,-0.06135923151542588,2.4375
-23.5,-0.03681553890925526,0.8125
-23.5,-0.04295146206079803,0.8125
-23.5,-0.03681553890925526,0.8125
-24.0,-0.03681553890925526,0.0
-24.0,-0.018407769454627854,-0.8125
-24.0,-0.04295146206079803,0.0
-24.5,-0.024543692606170175,0.0
-24.5,-0.03067961575771294,0.8125
-24.5,-0.01840776945462741,-0.8125
-25.0,-0.03067961575771294,0.0
-25.0,-0.03067961575771294,1.625
-25.0,-0.024543692606170175,1.625
-25.5,-0.018407769454627854,0.0
-26.0,-0.006135923151542322,-1.625
-26.0,-0.012271846303085088,-2.4375
-26.0,-0.03067961575771294,0.8125
-26.5,-0.006135923151542322,-0.8125
-26.5,-0.006135923151542766,-1.625
-26.5,0.0,-4.0625
-26.5,-0.012271846303085088,-1.625
-27.0,0.006135923151542322,-4.0625
-27.0,-0.024543692606170175,-1.625
-27.0,-0.006135923151542322,-2.4375
-27.0,-0.006135923151542766,-2.4375
-27.0,-0.012271846303085088,-2.4375
-27.5,-0.018407769454627854,-0.8125
-27.5,-0.012271846303085088,0.0
-27.5,0.0,0.0
-27.5,0.006135923151542766,-1.625
-27.5,-0.03067961575771294,1.625
-27.5,-0.012271846303085088,2.4375
-28.0,0.018407769454627854,-0.8125
-28.0,-0.006135923151542766,0.0
-28.0,-0.024543692606170175,1.625
-28.0,0.012271846303085088,0.8125
-28.0,-0.018407769454627854,4.875
-28.5,0.006135923151542766,1.625
-28.5,0.0,0.8125
-28.5,0.006135923151542766,0.0
-28.5,-0.012271846303085532,0.8125
-28.5,-0.01840776945462741,5.6875
-28.5,0.012271846303085088,6.5
-28.5,-0.006135923151542766,0.8125
-29.0,-0.006135923151542322,1.625
-29.0,0.01840776945462741,-0.8125
-29.0,-0.012271846303085088,-0.8125
-29.0,-0.012271846303085088,0.8125
-29.0,0.0,0.8125
-29.0,-0.012271846303085088,1.625
-29.0,0.0,1.625
-29.0,-0.018407769454627854,4.0625
-29.0,0.018407769454627854,0.8125
-29.0,-0.018407769454627854,4.875
-29.0,0.0,0.8125
-29.0,-0.006135923151542322,1.625
-29.0,0.012271846303085088,-0.8125
-29.0,-0.03067961575771294,4.875
-29.0,0.012271846303085088,0.0
-29.0,0.0,0.0
-29.0,-0.012271846303085088,0.0
-29.0,0.0,-0.8125
-29.0,-0.012271846303085088,0.0
-29.0,0.0,-0.8125
-29.0,-0.006135923151542322,0.0
-29.0,-0.012271846303085088,0.8125
-29.0,0.006135923151542322,0.8125
-29.0,0.0,0.0
-29.0,-0.012271846303085088,1.625
-29.0,-0.012271846303085088,8.125
-29.0,0.0,0.8125
-28.5,-0.006135923151542766,2.4375
-28.5,-0.006135923151542322,4.0625
-28.5,0.012271846303085088,0.0
-28.5,0.0,-0.8125
-28.5,-0.018407769454627854,4.0625
-28.5,0.006135923151542766,1.625
-28.5,-0.012271846303085088,1.625
-28.5,0.006135923151542322,1.625
-28.0,-0.01840776945462741,2.4375
-28.0,0.0,2.4375
-28.0,0.012271846303085088,0.0
-28.0,-0.018407769454627854,1.625
-28.5,0.0,4.0625
-28.0,0.0,0.8125
-28.0,0.0,0.8125
-28.0,0.0,1.625
-28.0,0.0,0.0
-28.0,-0.006135923151542322,0.0
-28.0,-0.006135923151542766,0.0
-28.0,-0.006135923151542766,0.8125
-27.5,0.006135923151542766,0.0
-28.0,-0.006135923151542766,0.0
-28.0,-0.006135923151542322,2.4375
-27.5,-0.018407769454627854,1.625
-27.5,-0.006135923151542544,1.625
-27.5,0.01227184630308531,-0.8125
-27.5,-0.024543692606170397,4.0625
-27.5,0.024543692606170397,-1.625
-27.5,-0.024543692606170397,1.625
-27.5,0.012271846303085088,0.8125
-27.5,-0.024543692606170175,2.4375
-27.5,0.0,2.4375
-27.5,0.006135923151542544,1.625
-27.5,0.0,0.8125
-27.5,-0.006135923151542544,1.625
-27.0,0.006135923151542544,0.0
-27.0,-0.024543692606170175,4.0625
-27.0,0.012271846303085088,2.4375
-27.0,0.0,0.8125
-27.0,0.012271846303085088,-0.8125
-27.0,-0.006135923151542544,0.8125
-27.0,-0.01840776945462763,2.4375
-27.0,0.012271846303085088,0.0
-27.0,-0.006135923151542544,1.625
-27.0,-0.006135923151542544,1.625
-27.0,0.01840776945462763,-1.625
-27.0,-0.012271846303085088,0.8125
-27.0,-0.01840776945462763,4.0625
-27.0,0.0,2.4375
-27.0,0.01840776945462763,-0.8125
-27.0,-0.006135923151542544,0.0
-27.0,-0.012271846303085088,0.8125
-27.0,0.006135923151542544,0.8125
-27.0,-0.006135923151542544,2.4375
-27.0,0.0,0.8125
-27.0,0.006135923151542544,0.8125
-27.0,0.0,0.8125
-27.0,0.006135923151542544,0.8125
-27.0,-0.012271846303085088,1.625
-27.0,0.012271846303085088,0.0
-27.0,-0.012271846303085088,0.8125
-27.0,-0.01227184630308531,4.0625
-27.0,0.0,2.4375
-27.0,0.006135923151542766,2.4375
-27.0,0.0,4.0625
-27.0,0.0,2.4375
-27.0,-0.006135923151542766,4.875
-27.0,0.006135923151542766,2.4375
-27.0,0.006135923151542544,0.0
-27.5,0.0,0.0
-27.0,-0.006135923151542544,1.625
-27.0,-0.006135923151542766,2.4375
-27.0,0.006135923151542766,2.4375
-27.0,0.012271846303085088,-0.8125
-27.0,-0.012271846303085088,1.625
-27.0,0.0,2.4375
-27.0,0.0,1.625
-27.0,0.006135923151542544,0.0
-27.0,-0.01227184630308531,4.0625
-27.0,0.01227184630308531,0.0
-27.0,0.0,0.8125
-27.0,0.0,0.8125
-27.0,0.006135923151542544,0.0
-27.0,-0.006135923151542544,1.625
-27.0,-0.01227184630308531,2.4375
-27.0,0.018407769454627854,0.0
-27.0,-0.006135923151542544,1.625
-27.0,-0.006135923151542544,1.625
-27.0,0.0,1.625
-27.0,-0.006135923151542766,4.0625
-27.0,0.0,2.4375
-27.0,0.0,2.4375
-27.0,0.01227184630308531,0.8125
-27.0,-0.006135923151542544,2.4375
-27.0,-0.006135923151542766,2.4375
-27.0,0.0,2.4375
-27.0,0.03067961575771294,-0.8125
-27.0,-0.036815538909255485,2.4375
-27.0,0.006135923151542544,2.4375
-27.0,0.0,2.4375
-27.0,-0.006135923151542544,4.0625
-27.0,0.018407769454627854,1.625
-27.0,-0.006135923151542544,0.8125
-27.0,0.0,1.625
-27.0,-0.006135923151542766,2.4375
-27.0,0.006135923151542766,0.8125
-27.0,0.0,0.8125
-27.0,-0.006135923151542766,1.625
-27.0,0.0,0.8125
-27.0,0.0,1.625
-27.0,-0.006135923151542544,1.625
-27.0,0.0,2.4375
-27.0,0.006135923151542544,0.8125
-27.0,-0.006135923151542544,1.625
-27.0,-0.006135923151542544,4.0625
-27.0,0.006135923151542544,1.625
-27.0,0.006135923151542544,1.625
-27.0,0.0,0.8125
-27.0,-0.012271846303085088,2.4375
-27.0,-0.006135923151542544,2.4375
-27.0,0.0,4.0625
-27.0,0.0,4.0625
-27.0,0.006135923151542544,2.4375
-27.0,0.0,1.625
-27.0,-0.006135923151542544,2.4375
-27.0,-0.012271846303085088,4.0625
-27.0,0.012271846303085088,2.4375
-27.0,-0.006135923151542544,2.4375
-27.0,0.006135923151542544,0.0
-27.0,-0.006135923151542544,1.625
-27.0,0.0,1.625
-27.0,0.012271846303085088,0.8125
-27.0,-0.01840776945462763,2.4375
-27.0,0.012271846303085088,0.8125
-27.0,-0.006135923151542544,1.625
-27.0,0.0,0.8125
-27.0,-0.006135923151542544,1.625
-27.0,-0.006135923151542544,4.0625
-27.0,0.012271846303085088,1.625
-27.0,-0.006135923151542544,1.625
-27.0,-0.012271846303085088,2.4375
-27.0,0.01840776945462763,0.0
-27.0,-0.01840776945462763,2.4375
-27.0,0.012271846303085088,0.0
-27.0,-0.012271846303085088,1.625
-27.0,-0.006135923151542544,2.4375
-27.0,0.006135923151542544,2.4375
-27.0,-0.006135923151542544,2.4375
-27.0,-0.006135923151542544,4.875
-27.0,0.006135923151542544,1.625
-27.0,-0.006135923151542544,4.0625
-27.0,-0.01227184630308531,5.6875
-27.0,0.006135923151542544,1.625
-27.0,0.01227184630308531,1.625
-27.0,-0.006135923151542544,1.625
-27.0,-0.006135923151542766,1.625
-27.0,0.0,2.4375
-27.0,0.006135923151542766,0.8125
-27.5,0.01840776945462763,-0.8125
-27.5,-0.024543692606170397,1.625
-27.0,0.006135923151542766,0.8125
-27.0,-0.024543692606170397,4.875
-27.0,0.012271846303085088,4.0625
-27.0,0.0,2.4375
-27.0,-0.012271846303085088,2.4375
-27.5,0.01840776945462763,0.8125
-27.0,-0.006135923151542544,0.8125
-27.0,0.0,1.625
-27.0,-0.012271846303085088,2.4375
-27.5,0.0,1.625
-27.0,0.012271846303085088,0.0
-27.0,-0.006135923151542544,0.0
-27.5,0.006135923151542544,0.0
-27.5,-0.006135923151542544,0.8125
-27.0,-0.012271846303085088,1.625
-27.5,0.006135923151542544,1.625
-27.0,0.0,0.0
-27.5,0.0,0.0
-27.0,-0.024543692606170175,4.0625
-27.0,0.012271846303085088,0.8125
-27.0,0.01840776945462763,-0.8125
-27.5,-0.024543692606170175,0.8125
-27.5,-0.006135923151542544,2.4375
-27.5,0.012271846303085088,1.625
-27.5,0.0,0.0
-27.5,-0.006135923151542544,0.8125
-27.0,0.0,0.8125
-27.5,0.0,0.8125
-27.5,-0.01840776945462763,4.0625
-27.5,0.01840776945462763,0.0
-27.5,-0.012271846303085088,0.8125
-27.5,0.012271846303085088,-1.625
-27.0,-0.024543692606170175,2.4375
-27.5,0.01840776945462763,0.0
-27.5,-0.006135923151542544,0.8125
-27.5,-0.012271846303085088,1.625
-27.5,-0.006135923151542766,2.4375
-27.5,0.01227184630308531,1.625
-27.0,-0.006135923151542544,1.625
-27.5,0.0,0.8125
-27.0,0.0,0.0
-27.5,-0.006135923151542766,0.8125
-27.5,0.0,0.8125
-27.5,0.006135923151542766,-0.8125
-27.5,-0.018407769454627854,4.0625
-27.5,0.012271846303085088,1.625
-27.5,-0.012271846303085088,1.625
-27.5,0.006135923151542544,1.625
-27.5,0.01227184630308531,-2.4375
-27.5,-0.01227184630308531,0.0
-27.5,-0.012271846303085088,2.4375
-27.5,-0.012271846303085088,4.0625
-27.5,0.024543692606170175,0.0
-27.5,-0.03067961575771272,4.0625
-27.5,0.04295146206079803,-1.625
-27.5,-0.03067961575771294,0.8125
-27.5,0.024543692606170175,-0.8125
-27.5,-0.03681553890925526,4.0625
-27.5,0.0,2.4375
-27.5,0.03681553890925526,-4.0625
-27.5,-0.01840776945462763,0.0
-27.5,-0.012271846303085088,1.625
-27.5,0.0,0.0
-27.5,0.006135923151542544,-0.8125
-27.5,0.0,0.0
-27.5,-0.006135923151542544,0.8125
-27.5,0.006135923151542544,0.0
-27.5,0.0,-0.8125
-27.5,0.0,0.8125
-27.5,-0.006135923151542544,0.8125
-27.5,0.012271846303085088,0.0
-27.5,-0.01840776945462763,0.8125
-27.5,0.006135923151542544,1.625
-27.5,0.0,0.0
-27.5,-0.006135923151542544,2.4375
-27.5,0.006135923151542544,0.0
-27.5,0.0,0.8125
-27.5,0.006135923151542544,0.0
-27.5,-0.01840776945462763,2.4375
-27.5,0.012271846303085088,0.8125
-27.5,-0.006135923151542544,2.4375
-27.5,0.01840776945462763,0.0
-27.5,-0.012271846303085088,0.8125
-27.0,0.0,0.8125
-27.5,0.006135923151542544,0.0
-27.0,0.0,0.8125
-27.0,-0.006135923151542544,1.625
-27.0,0.006135923151542544,0.8125
-27.0,-0.012271846303085088,2.4375
-27.0,-0.006135923151542544,4.0625
-27.0,0.012271846303085088,2.4375
-27.0,-0.012271846303085088,4.0625
-27.0,0.01840776945462763,2.4375
-27.0,0.0,1.625
-27.0,0.0,1.625
-27.0,0.01840776945462763,0.0
-27.0,-0.012271846303085088,0.0
-27.0,0.0,0.8125
-27.0,-0.012271846303085088,4.0625
-27.0,0.03067961575771272,0.0
-27.0,-0.012271846303085088,0.8125
-27.0,-0.012271846303085088,2.4375
-27.0,0.01840776945462763,0.8125
-27.0,-0.006135923151542544,1.625
-27.0,0.0,0.8125
-27.0,0.0,1.625
-27.0,0.006135923151542544,0.8125
-27.0,0.0,4.0625
-27.0,0.01227184630308531,-0.8125
-27.0,-0.01227184630308531,1.625
-27.0,0.01227184630308531,1.625
-27.0,0.006135923151542544,0.8125
-27.0,-0.01227184630308531,4.0625
-27.0,0.006135923151542766,2.4375
-27.0,0.01840776945462763,0.0
-26.5,-0.012271846303085088,1.625
-26.5,-0.006135923151542544,1.625
-27.0,0.03067961575771272,0.8125
-26.5,-0.012271846303085088,2.4375
-27.0,0.012271846303085088,0.8125
-26.5,0.0,4.875
-26.5,0.006135923151542544,2.4375
-26.5,0.012271846303085088,1.625
-26.5,0.018407769454627854,-0.8125
-26.5,-0.006135923151542766,2.4375
-26.5,0.006135923151542766,0.8125
-26.5,0.006135923151542544,1.625
-26.5,0.006135923151542544,4.0625
-26.5,0.04295146206079781,-0.8125
-26.5,-0.012271846303085088,1.625
-26.0,0.03067961575771294,0.0
-26.0,0.006135923151542544,2.4375
-26.0,0.012271846303085088,2.4375
-26.0,0.04295146206079803,-1.625
-26.0,0.006135923151542322,2.4375
-26.0,0.02454369260617062,0.8125
-25.5,0.012271846303085088,2.4375
-25.5,0.030679615757712497,0.8125
-25.5,0.03067961575771294,0.0
-25.5,0.018407769454627854,1.625
-25.0,0.04908738521234035,0.0
-25.5,0.024543692606170175,0.8125
-25.5,0.018407769454627854,1.625
-25.0,0.07976700097005329,-4.0625
-25.0,0.006135923151542766,-1.625
-25.0,0.06135923151542544,-0.8125
-24.5,0.012271846303085088,0.0
-24.5,0.049087385212340795,-0.8125
-24.5,0.024543692606170175,1.625
-24.0,0.04908738521234035,-0.8125
-23.5,0.04295146206079803,0.0
-24.0,0.03681553890925526,1.625
-23.5,0.03681553890925571,0.8125
-23.5,0.042951462060797585,0.0
-23.5,0.03067961575771294,0.8125
-23.5,0.03681553890925526,-0.8125
-23.5,0.018407769454627854,1.625
-23.0,0.012271846303085088,4.0625
-23.5,0.03681553890925526,1.625
-23.0,0.012271846303085088,2.4375
-23.0,0.018407769454627854,4.875
-23.0,0.024543692606170175,4.0625
-23.5,0.006135923151542766,8.9375
-23.0,0.0,7.3125
-23.0,0.04295146206079803,4.0625
-23.5,0.03681553890925526,-0.8125
-23.5,0.006135923151542322,0.0
-23.5,0.0,4.0625
-23.5,0.018407769454627854,2.4375
-23.5,0.03067961575771294,-0.8125
-23.5,0.0,1.625
-23.5,0.018407769454627854,1.625
-23.5,0.01840776945462741,0.0
-23.5,0.012271846303085088,-1.625
-23.5,-0.006135923151542322,0.8125
-23.5,-0.012271846303085088,4.0625
-23.5,0.012271846303085088,1.625
-23.5,0.01840776945462741,-0.8125
-23.5,0.018407769454627854,-2.4375
-23.5,-0.012271846303085088,0.8125
-23.5,0.006135923151542322,0.0
-23.5,0.012271846303085532,-1.625
-23.5,-0.012271846303085532,0.8125
-23.5,0.018407769454627854,0.8125
-23.5,0.0,1.625
-23.5,0.024543692606170175,-1.625
-23.5,0.006135923151542766,0.0
-23.5,-0.018407769454627854,2.4375
-23.5,0.024543692606170175,5.6875
-23.5,0.006135923151542766,0.8125
-23.5,0.03067961575771294,2.4375
-23.5,-0.006135923151542766,0.0
-23.5,0.012271846303085088,-0.8125
-23.5,0.012271846303085088,0.0
-23.5,0.006135923151542766,0.0
-23.5,-0.006135923151542766,1.625
-23.5,0.012271846303085088,1.625
-23.5,0.018407769454627854,0.0
-23.5,0.006135923151542766,0.0
-23.5,0.0,0.0
-23.0,0.0,0.0
-23.5,0.006135923151542322,-0.8125
-23.5,0.006135923151542766,-0.8125
-23.5,-0.012271846303085088,1.625
-23.5,0.024543692606170175,0.0
-23.5,-0.006135923151542766,1.625
-23.0,0.03067961575771294,0.0
-23.0,0.0,1.625
-23.0,0.006135923151542322,2.4375
-23.0,0.012271846303085532,2.4375
-23.0,0.01840776945462741,1.625
-23.0,0.012271846303085088,2.4375
-23.0,0.018407769454627854,0.8125
-23.0,0.03067961575771294,0.8125
-23.0,0.006135923151542322,1.625
-23.0,0.018407769454627854,2.4375
-23.0,0.03067961575771294,1.625
-23.0,0.012271846303085088,1.625
-23.0,0.024543692606170175,0.8125
-23.0,0.006135923151542322,2.4375
-23.0,0.012271846303085532,4.0625
-23.0,0.024543692606170175,4.875
-23.0,0.024543692606170175,2.4375
-23.0,0.024543692606170175,1.625
-23.0,0.03681553890925526,2.4375
-23.0,0.02454369260617062,4.0625
-23.5,0.030679615757712497,1.625
-23.0,0.024543692606170175,2.4375
-23.0,-0.006135923151542322,4.875
-23.0,0.006135923151542322,2.4375
-23.0,-0.006135923151542322,4.875
-23.0,0.012271846303085088,1.625
-23.0,-0.006135923151542766,4.0625
-23.0,0.0,2.4375
-23.0,-0.006135923151542322,4.875
-23.0,-0.006135923151542766,4.875
-23.0,-0.006135923151542322,4.875
-23.0,0.012271846303085088,4.0625
-23.0,-0.006135923151542766,4.0625
-23.0,0.006135923151542766,2.4375
-23.0,0.0,4.0625
-23.0,-0.006135923151542766,4.0625
-23.0,0.02454369260617062,0.8125
-23.0,-0.02454369260617062,4.0625
-23.0,0.006135923151542766,2.4375
-23.0,-0.018407769454627854,5.6875
-23.0,0.018407769454627854,2.4375
-23.0,-0.006135923151542766,4.0625
-23.0,0.018407769454627854,0.8125
-23.0,-0.03067961575771294,4.875
-23.0,0.006135923151542766,4.0625
-23.0,0.006135923151542322,4.0625
-23.0,-0.012271846303085088,4.875
-23.0,0.006135923151542766,2.4375
-23.0,0.0,4.0625
-23.0,0.0,5.6875
-23.0,0.012271846303085088,2.4375
-23.0,-0.006135923151542766,2.4375
-23.0,0.0,4.0625
-23.0,0.0,4.0625
-23.0,-0.01840776945462741,6.5
-23.0,0.012271846303085088,4.0625
-23.0,0.01840776945462741,0.0
-23.0,-0.012271846303085088,4.0625
-23.0,-0.01840776945462741,6.5
-23.0,-0.006135923151542766,7.3125
-23.0,0.03067961575771294,2.4375
-23.0,-0.08590292412159606,14.625
-23.0,0.0674951546669682,4.875
-23.0,0.0,4.875
-23.0,0.012271846303085088,2.4375
-23.0,0.0,4.0625
-23.0,-0.006135923151542322,4.875
-23.0,0.006135923151542322,2.4375
-23.0,0.0,2.4375
-23.0,0.006135923151542766,1.625
-23.0,-0.006135923151542766,2.4375
-23.0,-0.006135923151542322,4.0625
-23.0,0.006135923151542322,2.4375
-23.0,-0.01840776945462741,4.0625
-23.0,0.012271846303085088,2.4375
-23.0,-0.03067961575771294,6.5
-23.0,0.018407769454627854,2.4375
-23.0,0.0,4.0625
-23.0,0.0,2.4375
-23.0,-0.012271846303085088,4.0625
-23.0,0.006135923151542322,2.4375
-23.0,-0.01840776945462741,4.0625
-23.0,0.01840776945462741,1.625
-23.0,0.006135923151542766,0.8125
-23.0,-0.006135923151542766,1.625
-23.0,-0.012271846303085088,4.0625
-23.0,0.0,4.0625
-23.0,0.0,5.6875
-23.0,0.012271846303085088,1.625
-23.0,-0.006135923151542322,4.0625
-23.0,0.012271846303085088,0.8125
-23.0,-0.018407769454627854,6.5
-23.0,0.018407769454627854,2.4375
-23.0,0.012271846303085088,1.625
-23.5,0.08590292412159561,4.875
-23.5,0.03067961575771294,4.0625
-23.0,-0.012271846303085088,5.6875
-23.0,0.006135923151542766,4.875
-23.5,0.012271846303085088,1.625
-23.5,0.0,4.0625
-23.0,-0.006135923151542766,4.0625
-23.5,-0.006135923151542322,2.4375
-23.5,0.01840776945462741,1.625
-23.0,0.0,1.625
-23.5,0.0,0.0
-23.5,-0.012271846303085088,2.4375
-23.5,0.006135923151542766,4.0625
-23.5,-0.012271846303085088,5.6875
-23.5,0.006135923151542322,5.6875
-23.5,0.0,4.875
-23.5,0.006135923151542766,2.4375
-23.5,0.006135923151542322,1.625
-23.5,-0.012271846303085088,4.0625
-23.0,0.012271846303085088,2.4375
-23.5,-0.01840776945462741,4.875
-23.5,0.0,2.4375
-23.5,0.0,4.0625
-23.5,-0.09203884727313882,19.5
-23.5,0.09203884727313882,5.6875
-23.5,0.012271846303085088,1.625
-23.5,-0.006135923151542766,1.625
-23.0,-0.012271846303085088,4.0625
-23.5,0.0,4.875
-23.5,0.0,4.0625
-23.0,0.012271846303085088,2.4375
-23.0,-0.006135923151542322,4.0625
-23.5,0.006135923151542322,1.625
-23.0,-0.012271846303085088,4.0625
-23.5,0.006135923151542766,2.4375
-23.5,-0.116582539879309,20.3125
-23.0,0.116582539879309,1.625
-23.0,-0.018407769454627854,4.875
-23.0,0.0,5.6875
-23.5,0.0,4.875
-23.0,0.006135923151542766,1.625
-23.5,-0.03681553890925571,6.5
-23.0,0.024543692606170175,2.4375
-23.0,0.006135923151542766,2.4375
-23.0,-0.018407769454627854,5.6875
-23.0,0.006135923151542766,2.4375
-23.0,0.0,0.8125
-23.0,-0.018407769454627854,4.0625
-23.0,-0.012271846303085088,2.4375
-23.0,-0.012271846303085088,5.6875
-23.0,0.0,4.0625
-23.0,-0.006135923151542322,2.4375
-23.0,-0.006135923151542766,2.4375
-23.0,0.0,4.0625
-23.0,-0.018407769454627854,4.875
-23.0,0.018407769454627854,2.4375
-23.0,-0.006135923151542766,1.625
-23.0,-0.012271846303085088,4.0625
-23.0,0.006135923151542766,1.625
-23.0,-0.012271846303085088,1.625
-23.0,-0.018407769454627854,4.875
-23.0,-0.03681553890925526,10.5625
-23.0,0.04908738521234035,2.4375
-23.0,0.0,1.625
-23.0,0.018407769454627854,2.4375
-23.0,0.0,1.625
-23.0,-0.012271846303085088,5.6875
-23.0,0.006135923151542322,4.875
-23.0,-0.006135923151542322,4.875
-23.0,0.01840776945462741,1.625
-23.0,0.006135923151542766,2.4375
-23.0,-0.006135923151542766,1.625
-23.0,0.0,1.625
-23.0,-0.11658253987930856,19.5
-23.0,0.10431069357622347,4.0625
-23.0,0.0,0.8125
-23.0,-0.006135923151542322,4.0625
-23.0,0.01840776945462741,0.0
-23.0,-0.024543692606170175,2.4375
-23.0,-0.006135923151542322,4.0625
-23.0,0.012271846303085088,1.625
-23.0,-0.006135923151542766,2.4375
-23.0,0.0,2.4375
-23.0,0.018407769454627854,2.4375
-23.0,-0.012271846303085088,4.0625
-23.0,0.01840776945462741,2.4375
-23.0,0.0,1.625
-23.0,-0.01840776945462741,5.6875
-23.0,0.006135923151542322,4.875
-23.0,0.02454369260617062,0.8125
-23.0,-0.018407769454627854,2.4375
-23.0,0.0,4.875
-23.0,0.018407769454627854,0.8125
-23.0,-0.018407769454627854,4.0625
-23.0,0.012271846303085088,2.4375
-23.0,0.0,4.0625
-23.0,-0.018407769454627854,5.6875
-23.0,0.03067961575771294,0.8125
-23.0,0.006135923151542766,4.875
-23.0,0.0,5.6875
-23.0,-0.006135923151542766,5.6875
-23.0,0.006135923151542766,6.5
-23.0,0.006135923151542322,4.875
-23.0,0.006135923151542766,4.0625
-23.0,-0.006135923151542766,5.6875
-23.0,0.0,6.5
-23.0,0.006135923151542766,5.6875
-23.0,-0.012271846303085088,7.3125
-23.0,0.01840776945462741,4.875
-23.0,-0.006135923151542322,4.875
-23.0,0.0,4.875
-23.0,0.0,4.875
-23.0,0.024543692606170175,2.4375
-23.0,-0.018407769454627854,4.0625
-23.0,0.006135923151542766,4.0625
-23.0,-0.012271846303085088,6.5
-23.5,0.006135923151542322,4.875
-23.0,0.006135923151542766,4.875
-23.0,-0.006135923151542766,6.5
-23.0,-0.006135923151542322,5.6875
-23.0,0.024543692606170175,2.4375
-23.0,-0.018407769454627854,6.5
-23.0,0.006135923151542766,4.875
-23.0,0.0,5.6875
-23.0,0.012271846303085088,4.875
-23.0,-0.006135923151542766,5.6875
-23.0,-0.006135923151542322,5.6875
-23.0,0.006135923151542322,5.6875
-23.0,0.0,4.0625
-23.0,-0.012271846303085088,6.5
-23.0,0.018407769454627854,2.4375
-23.0,-0.012271846303085088,4.875
-23.0,0.006135923151542322,5.6875
-23.0,-0.006135923151542322,6.5
-23.0,-0.006135923151542766,7.3125
-23.5,0.012271846303085088,4.0625
-23.0,0.012271846303085088,4.0625
-23.5,-0.012271846303085088,4.875
-23.0,0.012271846303085088,4.875
-23.5,0.006135923151542766,2.4375
-23.5,-0.006135923151542766,4.0625
-23.0,-0.006135923151542322,5.6875
-23.0,0.012271846303085088,4.0625
-23.0,-0.006135923151542766,4.875
-23.5,-0.006135923151542322,5.6875
-23.0,0.012271846303085088,4.0625
-23.0,-0.006135923151542766,5.6875
-23.0,0.0,5.6875
-23.0,0.012271846303085532,1.625
-23.0,-0.012271846303085532,6.5
-23.5,-0.006135923151542322,5.6875
-23.5,0.012271846303085088,4.875
-23.0,0.0,5.6875
-23.5,0.0,4.875
-23.5,0.018407769454627854,1.625
-23.0,-0.018407769454627854,5.6875
-23.5,0.006135923151542766,5.6875
-23.5,0.0,5.6875
-23.5,0.0,4.875
-23.5,-0.006135923151542766,6.5
-23.0,0.0,7.3125
-23.5,0.018407769454627854,2.4375
-23.0,-0.018407769454627854,8.125
-23.5,0.006135923151542766,6.5
-23.0,0.012271846303085088,4.875
-23.5,-0.02454369260617062,8.125
-23.5,0.0,6.5
-23.5,0.018407769454627854,4.0625
-23.5,-0.012271846303085088,5.6875
-23.5,0.012271846303085088,4.875
-23.5,-0.018407769454627854,6.5
-23.5,0.012271846303085532,4.0625
-23.0,-0.006135923151542766,5.6875
-23.5,0.0,4.875
-23.5,0.024543692606170175,1.625
-23.0,-0.024543692606170175,5.6875
-23.5,-0.006135923151542766,6.5
-23.5,0.006135923151542766,6.5
-23.5,0.012271846303085088,4.0625
-23.5,-0.012271846303085088,6.5
-23.0,0.0,7.3125
-23.5,0.012271846303085088,6.5
-23.0,-0.012271846303085088,6.5
-23.5,0.006135923151542766,5.6875
-23.5,0.0,4.875
-23.5,-0.006135923151542766,6.5
-23.5,0.018407769454627854,4.0625
-23.0,-0.012271846303085088,5.6875
-23.5,-0.006135923151542766,6.5
-23.0,0.006135923151542766,4.875
-23.5,0.0,4.875
-23.5,0.006135923151542322,4.875
-23.0,-0.006135923151542322,4.875
-23.0,0.0,4.875
-23.5,-0.006135923151542766,5.6875
-23.5,0.012271846303085088,5.6875
-23.5,-0.012271846303085088,6.5
-23.0,0.006135923151542766,4.875
-23.5,0.006135923151542322,4.0625
-23.0,-0.012271846303085088,5.6875
-23.5,0.006135923151542766,5.6875
-23.5,-0.012271846303085532,7.3125
-23.5,0.018407769454627854,5.6875
-23.5,0.0,5.6875
-23.5,-0.012271846303085088,4.875
-23.5,0.0,6.5
-23.5,0.018407769454627854,2.4375
-23.0,0.0,4.0625
-23.5,-0.018407769454627854,6.5
-23.0,0.006135923151542766,6.5
-23.0,0.0,5.6875
-23.0,0.006135923151542322,5.6875
-23.5,-0.006135923151542322,5.6875
-23.0,0.006135923151542322,5.6875
-23.0,-0.012271846303085088,5.6875
-23.5,0.018407769454627854,4.875
-23.0,-0.006135923151542766,5.6875
-23.5,0.0,5.6875
-23.0,-0.006135923151542322,5.6875
-23.5,0.012271846303085088,4.875
-23.5,0.0,2.4375
-23.5,-0.012271846303085088,7.3125
-23.5,0.012271846303085088,4.875
-23.5,-0.006135923151542766,5.6875
-23.5,-0.006135923151542322,5.6875
-23.5,0.024543692606170175,2.4375
-23.5,-0.018407769454627854,7.3125
-23.5,0.012271846303085088,4.875
-23.5,-0.006135923151542322,4.0625
-23.5,-0.006135923151542766,5.6875
-23.0,0.006135923151542766,5.6875
-23.0,0.0,6.5
-23.5,-0.012271846303085088,6.5
-23.5,0.0,8.125
-23.5,0.012271846303085088,5.6875
-23.5,0.01840776945462741,4.0625
-23.5,-0.012271846303085088,5.6875
-23.5,0.03681553890925571,6.5
-24.0,0.12271846303085088,4.0625
-24.0,0.006135923151542766,1.625
-24.0,-0.006135923151542766,2.4375
-24.0,0.012271846303085532,0.0
-24.0,-0.018407769454627854,2.4375
-24.0,0.012271846303085088,1.625
-24.0,-0.012271846303085088,4.0625
-24.0,0.012271846303085088,0.0
-24.0,-0.006135923151542766,2.4375
-24.0,-0.012271846303085088,4.0625
-24.0,-0.006135923151542322,4.0625
-24.0,0.01840776945462741,1.625
-24.0,0.0,0.8125
-24.0,-0.006135923151542322,2.4375
-24.0,0.006135923151542322,1.625
-24.0,-0.012271846303085088,4.0625
-24.0,0.012271846303085088,2.4375
-24.0,-0.012271846303085088,5.6875
-24.0,-0.006135923151542322,4.875
-24.0,0.01840776945462741,0.8125
-24.0,-0.012271846303085088,2.4375
-24.0,0.006135923151542766,4.0625
-24.0,0.006135923151542322,1.625
-24.0,-0.01840776945462741,4.0625
-24.0,0.006135923151542322,1.625
-24.0,0.006135923151542766,2.4375
-24.0,0.0,0.0
-24.0,0.0,2.4375
-24.0,-0.006135923151542766,4.0625
-24.0,0.0,2.4375
-24.0,0.012271846303085088,0.8125
-24.0,0.0,1.625
-24.0,-0.012271846303085088,2.4375
-24.0,0.006135923151542766,2.4375
-24.0,-0.006135923151542766,2.4375
-24.0,0.006135923151542766,1.625
-24.0,0.012271846303085088,1.625
-24.0,-0.012271846303085088,2.4375
-24.0,0.012271846303085088,1.625
-24.0,-0.006135923151542766,0.8125
-24.0,0.0,1.625
-24.0,0.0,2.4375
-24.0,0.006135923151542766,0.8125
-24.0,0.0,0.8125
-24.0,-0.006135923151542766,1.625
-24.0,-0.01840776945462741,5.6875
-24.0,0.024543692606170175,1.625
