-58.5,3.7429131224409646,0.0
-57.5,3.749049045592507,-15.4375
-58.0,3.773592738198677,-24.375
-61.5,3.1661363461959633,111.4375
-60.0,3.380893656499953,21.125
-61.5,3.522019888985432,-34.9375
-61.5,3.1354567304382504,69.125
-61.5,3.1661363461959633,-55.3125
-60.5,2.650718801466388,26.0
-61.0,2.5832236467994196,27.625
-61.0,2.8286605728611223,-39.875
-60.0,2.7120780329818137,29.25
-61.0,2.9697868053466014,-48.8125
-60.5,2.859340188618835,-47.1875
-60.5,2.5034566458293663,47.1875
-59.0,2.509592568980909,55.3125
-59.0,2.454369260617026,24.375
-59.0,2.693670263527186,-15.4375
-59.0,2.761165418194154,0.0
-57.5,2.3746022596469727,62.625
-58.0,2.6568547246179306,-30.875
-57.5,2.816388726558037,-43.125
-57.0,2.4727770300716534,7.3125
-57.0,2.5954954931025047,29.25
-57.0,2.816388726558037,-27.625
-57.0,2.8532042654672924,-74.8125
-57.0,2.6568547246179306,-7.3125
-56.5,2.6998061866787286,4.875
-57.0,2.7979809571034093,-27.625
-57.0,2.8102528034064944,-3.25
-55.5,3.0250101137104846,-13.8125
-54.5,3.153864499892878,-8.9375
-55.0,3.1231848841351653,17.0625
-54.5,3.2029518851052186,-7.3125
-54.0,3.141592653589793,-3.25
-54.0,2.9820586516496865,21.125
-54.5,2.9329712664373457,-4.875
-54.5,2.9391071895888885,-18.6875
-55.0,2.6998061866787286,-7.3125
-55.5,2.730485802436441,-15.4375
-56.0,2.8102528034064944,-38.1875
-56.5,2.6445828783148455,-24.375
-56.0,2.60776733940559,-4.875
-56.0,2.6261751088602177,3.25
-56.5,2.705942109830271,-43.125
-55.5,2.6323110320117604,-39.0
-56.0,2.6200391857086753,-47.1875
-56.5,2.5770877236478773,-48.8125
-56.5,2.270291566070749,38.1875
-56.5,2.5034566458293663,-10.5625
-56.5,2.5034566458293663,-3.25
-56.0,2.5954954931025047,-44.75
-56.5,2.564815877344792,-22.75
-56.5,2.521864415283994,-29.25
-55.0,2.5034566458293663,8.125
-55.5,2.552544031041707,-10.5625
-55.5,2.4850488763747385,-10.5625
-55.0,2.6384469551633027,-33.3125
-55.5,2.435961491162398,4.875
-54.5,2.466641106920111,-17.0625
-52.5,2.742757648739526,-18.6875
-51.0,3.06182565261974,-13.8125
-51.5,3.129320807286708,0.0
-51.0,3.160000423044421,7.3125
-51.0,3.227495577711389,8.9375
-51.0,3.3072625786814425,0.0
-50.5,3.1784081924990484,22.75
-51.5,3.08636934522591,18.6875
-52.5,3.141592653589793,-10.5625
-52.5,2.9022916506796332,-7.3125
-52.5,2.791845033951867,12.1875
-53.0,2.5709518004963345,-7.3125
-53.0,2.5709518004963345,-24.375
-53.5,2.435961491162398,-4.875
-53.0,2.350058567040802,43.125
-54.0,2.3930100291016,-3.25
-54.0,2.405281875404685,18.6875
-54.5,2.4727770300716534,-13.8125
-54.0,2.3623304133438876,-3.25
-54.5,2.3746022596469727,0.0
-53.5,2.2764274892222915,7.3125
-54.5,2.2641556429192065,3.25
-55.0,2.3623304133438876,21.125
-55.0,2.2948352586769194,13.8125
-54.5,2.2457478734645786,-7.3125
-55.0,2.073942025221387,55.3125
-55.0,2.2150682577068657,-1.625
-54.5,2.172116795646068,8.9375
-55.0,2.2518837966161214,-13.8125
-54.5,2.380738182798515,-52.0625
-54.0,2.399145952253143,-10.5625
-53.5,2.405281875404685,-10.5625
-52.5,2.36846633649543,21.125
-52.5,2.411417798556228,21.125
-52.0,2.5464081078901644,0.0
-52.0,2.60776733940559,7.3125
-51.5,2.7120780329818137,-8.9375
-51.5,2.742757648739526,-13.8125
-51.5,2.804116880254952,3.25
-51.5,2.8716120349219203,-1.625
-51.0,2.9759227284981438,-26.0
-51.5,3.153864499892878,4.875
-51.0,3.172272269347506,15.4375
-51.0,3.1968159619536762,-3.25
-51.0,3.2888548092268146,13.8125
-50.0,3.4054373491061236,7.3125
-50.0,3.4177091954092087,8.9375
-49.5,3.4913402732277192,-8.9375
-49.5,3.436116964863836,12.1875
-49.5,3.436116964863836,27.625
-49.5,3.5342917352885173,15.4375
-49.5,3.5711072741977725,3.25
-49.5,3.5956509668039427,-8.9375
-49.5,3.54042765844006,10.5625
-49.5,3.485204350076177,8.9375
-49.5,3.411573272257666,1.625
-50.0,3.411573272257666,1.625
-50.0,3.3440781175906977,-4.875
-50.5,3.2704470397721868,8.9375
-50.5,3.2459033471660166,-7.3125
-51.0,3.141592653589793,8.9375
-51.0,3.08636934522591,-1.625
-50.5,3.0250101137104846,21.125
-51.0,3.08636934522591,4.875
-51.5,3.11091303783208,3.25
-51.0,3.074097498922825,15.4375
-51.5,3.098641191528995,12.1875
-51.0,3.1231848841351653,-1.625
-51.0,3.055689729468197,4.875
-50.5,3.0250101137104846,27.625
-50.5,3.1354567304382504,-8.125
-50.5,3.055689729468197,3.25
-50.5,2.9820586516496865,3.25
-50.5,3.0066023442558567,3.25
-50.5,3.043417883165112,4.875
-50.0,3.000466421104314,10.5625
-50.0,3.0802334220743677,-1.625
-50.5,3.0925052683774528,-10.5625
-50.5,3.104777114680538,-7.3125
-50.0,3.0802334220743677,0.0
-50.5,3.0802334220743677,-10.5625
-50.0,3.06182565261974,4.875
-50.5,3.074097498922825,4.875
-50.0,3.043417883165112,17.0625
-50.0,3.055689729468197,13.8125
-50.0,3.11091303783208,-4.875
-50.0,3.031146036862027,21.125
-49.5,2.9943304979527716,21.125
-50.0,3.055689729468197,4.875
-50.0,3.0372819600135696,12.1875
-49.5,3.0802334220743677,0.0
-50.5,3.06182565261974,-15.4375
-50.5,3.0250101137104846,-3.25
-50.0,2.9513790358919736,21.125
-50.0,2.9636508821950587,21.125
-49.5,2.9513790358919736,17.875
-50.0,3.0372819600135696,0.0
-50.0,2.9759227284981438,18.6875
-49.5,3.018874190558942,-1.625
-50.5,2.890019804376548,26.0
-50.0,2.9513790358919736,1.625
-50.5,2.9575149590435164,-7.3125
-50.5,2.8961557275280905,12.1875
-50.5,2.9022916506796332,-8.9375
-50.5,2.9145634969827183,-1.625
-50.5,2.8654761117703775,15.4375
-50.5,2.890019804376548,12.1875
-50.0,2.890019804376548,21.125
-50.0,3.0127382674073995,-3.25
-50.5,3.043417883165112,4.875
-50.0,3.1231848841351653,-3.25
-50.0,3.098641191528995,15.4375
-50.0,3.1661363461959633,-13.8125
-50.0,3.129320807286708,-8.9375
-50.0,3.11091303783208,7.3125
-50.0,2.9329712664373457,10.5625
-50.5,2.9575149590435164,1.625
-49.0,3.0127382674073995,-6.5
-50.0,3.117048960983623,0.0
-49.5,3.06182565261974,9.75
-50.0,3.074097498922825,21.125
-50.0,3.2090878082567613,4.875
-50.0,3.2888548092268146,1.625
-49.5,3.3379421944391554,3.25
-49.5,3.3870295796514958,12.1875
-49.5,3.472932503773092,-4.875
-49.5,3.436116964863836,15.4375
-49.5,3.5036121195308043,-12.1875
-49.0,3.423845118560751,0.0
-49.5,3.4606606574700063,-1.625
-50.0,3.448388811166921,7.3125
-50.0,3.442252888015379,10.5625
-50.5,3.448388811166921,7.3125
-51.0,3.4054373491061236,21.125
-51.0,3.423845118560751,3.25
-51.0,3.472932503773092,-4.875
-51.5,3.454524734318464,12.1875
-51.0,3.399301425954581,14.625
-52.0,3.368621810196868,26.0
-51.5,3.448388811166921,4.875
-52.5,3.368621810196868,15.4375
-52.5,3.3870295796514958,3.25
-52.5,3.380893656499953,-1.625
-52.5,3.4054373491061236,3.25
-52.0,3.423845118560751,4.875
-52.5,3.3870295796514958,10.5625
-52.5,3.436116964863836,13.8125
-53.0,3.454524734318464,8.9375
-53.0,3.485204350076177,13.8125
-52.5,3.4606606574700063,22.75
-53.0,3.497476196379262,7.3125
-52.0,3.479068426924634,10.5625
-53.0,3.5465635815916023,4.875
-53.0,3.56497135104623,4.875
-53.5,3.522019888985432,22.75
-53.0,3.6079228131070282,10.5625
-53.5,3.650874275167826,13.8125
-53.5,3.6754179677739964,10.5625
-52.5,3.6876898140770815,0.0
-53.0,3.6815538909255388,8.9375
-53.0,3.56497135104623,43.125
-53.5,3.6386024288647407,13.8125
-53.5,3.5895150436524004,12.1875
-53.0,3.6324665057131984,-1.625
-53.5,3.6570101983193686,7.3125
-53.0,3.6017868899554855,22.75
-53.5,3.552699504743145,13.8125
-53.5,3.5956509668039427,-1.625
-53.0,3.5833791205008576,10.5625
-53.0,3.54042765844006,12.1875
-53.0,3.54042765844006,7.3125
-53.0,3.5588354278946874,1.625
-53.0,3.522019888985432,13.8125
-53.0,3.5465635815916023,1.625
-53.0,3.5158839658338894,-7.3125
-53.0,3.552699504743145,4.875
-53.0,3.5711072741977725,-8.9375
-52.5,3.5711072741977725,10.5625
-52.5,3.5895150436524004,4.875
-53.0,3.5772431973493153,17.0625
-52.5,3.6447383520162835,-7.3125
-52.5,3.5833791205008576,13.8125
-53.0,3.54042765844006,18.6875
-53.0,3.6447383520162835,8.9375
-53.0,3.663146121470911,1.625
-54.0,3.5833791205008576,27.625
-54.0,3.6017868899554855,8.9375
-54.0,3.5833791205008576,29.25
-53.0,3.6263305825616556,0.0
-52.5,3.6386024288647407,3.25
-53.5,3.5833791205008576,24.375
-53.5,3.6017868899554855,22.75
-53.5,3.6447383520162835,1.625
-54.0,3.6201946594101133,-1.625
-53.0,3.5895150436524004,17.0625
-53.0,3.6263305825616556,-1.625
-53.5,3.6876898140770815,-17.0625
-53.5,3.5833791205008576,18.6875
-53.5,3.706097583531709,-4.875
-53.0,3.5956509668039427,10.5625
-53.5,3.693825737228624,-7.3125
-53.0,3.650874275167826,13.8125
-53.5,3.749049045592507,1.625
-53.0,3.736777199289422,-3.25
-53.0,3.718369429834794,22.75
-53.5,3.749049045592507,12.1875
-52.5,3.890175278077986,-22.75
-53.5,3.7981364308048478,8.9375
-53.0,3.792000507653305,43.125
-53.0,3.9085830475326135,-3.25
-52.5,3.902447124381071,-1.625
-53.0,4.0128937411088375,-18.6875
-52.0,4.061981126321178,-3.25
-52.5,4.074252972624263,-1.625
-53.0,4.09266074207889,-15.4375
-52.0,4.190835512503572,-21.125
-52.0,4.178563666200486,1.625
-52.0,4.331961744989051,0.0
-51.0,4.4976316700806995,-10.5625
-51.0,4.442408361716817,-4.875
-51.0,4.270602513473625,1.625
