80000000000000000000CC00,865.7,4.8166995,1.625
80000000000000000000CC00,865.7,4.8105636,5.6875
80000000000000000000CC00,865.7,4.8044276,2.4375
80000000000000000000CC00,865.7,4.853515,-4.0625
80000000000000000000CC00,865.7,4.8412433,-2.4375
80000000000000000000CC00,865.7,4.847379,-4.0625
80000000000000000000CC00,865.7,4.8166995,2.4375
80000000000000000000CC00,865.7,4.8044276,1.625
80000000000000000000CC00,865.7,4.859651,-5.6875
80000000000000000000CC00,865.7,4.8166995,1.625
80000000000000000000CC00,865.7,4.8412433,-4.0625
80000000000000000000CC00,865.7,4.8228354,1.625
80000000000000000000CC00,865.7,4.8228354,0.8125
80000000000000000000CC00,865.7,4.8412433,-1.625
80000000000000000000CC00,865.7,4.8166995,1.625
80000000000000000000CC00,865.7,4.8228354,1.625
80000000000000000000CC00,865.7,4.8228354,2.4375
80000000000000000000CC00,865.7,4.8412433,-1.625
80000000000000000000CC00,865.7,4.8289714,1.625
80000000000000000000CC00,865.7,4.8289714,0.8125
80000000000000000000CC00,865.7,4.8044276,6.5
80000000000000000000CC00,865.7,4.8289714,1.625
80000000000000000000CC00,865.7,4.859651,-4.875
80000000000000000000CC00,865.7,4.8105636,4.875
80000000000000000000CC00,865.7,4.853515,-2.4375
80000000000000000000CC00,865.7,4.8412433,1.625
80000000000000000000CC00,865.7,4.853515,-1.625
80000000000000000000CC00,865.7,4.859651,-1.625
80000000000000000000CC00,865.7,4.853515,-0.8125
80000000000000000000CC00,865.7,4.871923,-4.0625
80000000000000000000CC00,865.7,4.865787,-4.875
80000000000000000000CC00,865.7,4.8351073,4.875
80000000000000000000CC00,865.7,4.865787,0.0
80000000000000000000CC00,865.7,4.859651,0.0
80000000000000000000CC00,865.7,4.853515,0.0
80000000000000000000CC00,865.7,4.871923,-1.625
80000000000000000000CC00,865.7,4.853515,2.4375
80000000000000000000CC00,865.7,4.865787,0.0
80000000000000000000CC00,865.7,4.878059,-4.0625
80000000000000000000CC00,865.7,4.871923,0.0
80000000000000000000CC00,865.7,4.871923,-4.0625
80000000000000000000CC00,865.7,4.859651,0.8125
80000000000000000000CC00,865.7,4.865787,0.0
80000000000000000000CC00,865.7,4.859651,1.625
80000000000000000000CC00,865.7,4.859651,0.0
80000000000000000000CC00,865.7,4.8964667,-5.6875
80000000000000000000CC00,865.7,4.853515,4.0625
80000000000000000000CC00,865.7,4.865787,1.625
80000000000000000000CC00,865.7,4.859651,1.625
80000000000000000000CC00,865.7,4.884195,-4.0625
80000000000000000000CC00,865.7,4.847379,5.6875
80000000000000000000CC00,865.7,4.865787,0.8125
80000000000000000000CC00,865.7,4.8964667,-2.4375
80000000000000000000CC00,865.7,4.890331,-4.0625
80000000000000000000CC00,865.7,4.878059,-1.625
80000000000000000000CC00,865.7,4.884195,-2.4375
80000000000000000000CC00,865.7,4.9087386,-6.5
80000000000000000000CC00,865.7,4.8964667,-4.875
80000000000000000000CC00,865.7,4.884195,0.0
80000000000000000000CC00,865.7,4.878059,0.8125
80000000000000000000CC00,865.7,4.884195,-1.625
80000000000000000000CC00,865.7,4.865787,0.8125
80000000000000000000CC00,865.7,4.865787,0.0
80000000000000000000CC00,865.7,4.878059,-1.625
80000000000000000000CC00,865.7,4.878059,-2.4375
80000000000000000000CC00,865.7,4.871923,1.625
80000000000000000000CC00,865.7,4.890331,-6.5
80000000000000000000CC00,865.7,4.847379,4.0625
80000000000000000000CC00,865.7,4.8351073,6.5
80000000000000000000CC00,865.7,4.871923,-2.4375
80000000000000000000CC00,865.7,4.853515,-0.8125
80000000000000000000CC00,865.7,4.8289714,4.0625
80000000000000000000CC00,865.7,4.847379,0.0
80000000000000000000CC00,865.7,4.8412433,-0.8125
80000000000000000000CC00,865.7,4.871923,-4.0625
80000000000000000000CC00,865.7,4.8228354,1.625
80000000000000000000CC00,865.7,4.859651,-4.0625
80000000000000000000CC00,865.7,4.847379,-2.4375
80000000000000000000CC00,865.7,4.8105636,2.4375
80000000000000000000CC00,865.7,4.8044276,4.875
80000000000000000000CC00,865.7,4.8351073,-2.4375
80000000000000000000CC00,865.7,4.8228354,-0.8125
80000000000000000000CC00,865.7,4.8351073,-4.875
80000000000000000000CC00,865.7,4.8351073,-4.0625
80000000000000000000CC00,865.7,4.7982917,2.4375
80000000000000000000CC00,865.7,4.8044276,0.0
80000000000000000000CC00,865.7,4.8412433,-7.3125
80000000000000000000CC00,865.7,4.7860203,4.875
80000000000000000000CC00,865.7,4.8289714,-4.875
80000000000000000000CC00,865.7,4.8228354,-2.4375
80000000000000000000CC00,865.7,4.8105636,-1.625
80000000000000000000CC00,865.7,4.792156,0.8125
80000000000000000000CC00,865.7,4.7982917,-0.8125
80000000000000000000CC00,865.7,4.792156,0.0
80000000000000000000CC00,865.7,4.8166995,-4.875
80000000000000000000CC00,865.7,4.7798843,2.4375
80000000000000000000CC00,865.7,4.7860203,4.0625
80000000000000000000CC00,865.7,4.792156,0.8125
80000000000000000000CC00,865.7,4.7860203,4.0625
80000000000000000000CC00,865.7,4.8105636,-0.8125
80000000000000000000CC00,865.7,4.7798843,2.4375
80000000000000000000CC00,865.7,4.792156,2.4375
80000000000000000000CC00,865.7,4.8166995,-4.0625
80000000000000000000CC00,865.7,4.792156,4.0625
80000000000000000000CC00,865.7,4.7982917,-0.8125
80000000000000000000CC00,865.7,4.8289714,-8.125
80000000000000000000CC00,865.7,4.7737484,0.8125
80000000000000000000CC00,865.7,4.7737484,1.625
80000000000000000000CC00,865.7,4.7676125,4.0625
80000000000000000000CC00,865.7,4.7676125,4.0625
80000000000000000000CC00,865.7,4.7676125,1.625
80000000000000000000CC00,865.7,4.8105636,-4.875
80000000000000000000CC00,865.7,4.7553406,5.6875
80000000000000000000CC00,865.7,4.7737484,0.8125
80000000000000000000CC00,865.7,4.7982917,-4.875
80000000000000000000CC00,865.7,4.7553406,4.875
80000000000000000000CC00,865.7,4.7553406,0.8125
80000000000000000000CC00,865.7,4.7614765,1.625
80000000000000000000CC00,865.7,4.7553406,2.4375
80000000000000000000CC00,865.7,4.7614765,0.0
80000000000000000000CC00,865.7,4.7614765,-1.625
80000000000000000000CC00,865.7,4.724661,2.4375
80000000000000000000CC00,865.7,4.7369328,1.625
80000000000000000000CC00,865.7,4.7430687,-0.8125
80000000000000000000CC00,865.7,4.724661,-0.8125
80000000000000000000CC00,865.7,4.7492046,-2.4375
80000000000000000000CC00,865.7,4.724661,-1.625
80000000000000000000CC00,865.7,4.687845,6.5
80000000000000000000CC00,865.7,4.730797,-0.8125
80000000000000000000CC00,865.7,4.687845,5.6875
80000000000000000000CC00,865.7,4.7369328,-4.875
80000000000000000000CC00,865.7,4.730797,-4.875
80000000000000000000CC00,865.7,4.700117,2.4375
80000000000000000000CC00,865.7,4.718525,-1.625
80000000000000000000CC00,865.7,4.6755733,5.6875
80000000000000000000CC00,865.7,4.693981,2.4375
80000000000000000000CC00,865.7,4.730797,-4.0625
80000000000000000000CC00,865.7,4.724661,-2.4375
80000000000000000000CC00,865.7,4.730797,-5.6875
80000000000000000000CC00,865.7,4.6817093,2.4375
80000000000000000000CC00,865.7,4.718525,-4.0625
80000000000000000000CC00,865.7,4.724661,-4.875
80000000000000000000CC00,865.7,4.706253,0.0
80000000000000000000CC00,865.7,4.712389,-2.4375
80000000000000000000CC00,865.7,4.712389,-4.875
80000000000000000000CC00,865.7,4.6817093,1.625
80000000000000000000CC00,865.7,4.712389,-4.0625
80000000000000000000CC00,865.7,4.693981,1.625
80000000000000000000CC00,865.7,4.700117,0.0
80000000000000000000CC00,865.7,4.6694374,4.875
80000000000000000000CC00,865.7,4.6817093,0.8125
80000000000000000000CC00,865.7,4.6755733,2.4375
80000000000000000000CC00,865.7,4.712389,0.8125
80000000000000000000CC00,865.7,4.700117,2.4375
80000000000000000000CC00,865.7,4.693981,2.4375
80000000000000000000CC00,865.7,4.712389,-1.625
80000000000000000000CC00,865.7,4.6817093,4.0625
80000000000000000000CC00,865.7,4.730797,-2.4375
80000000000000000000CC00,865.7,4.730797,-2.4375
80000000000000000000CC00,865.7,4.687845,5.6875
80000000000000000000CC00,865.7,4.706253,5.6875
80000000000000000000CC00,865.7,4.718525,1.625
80000000000000000000CC00,865.7,4.706253,1.625
80000000000000000000CC00,865.7,4.7430687,-1.625
80000000000000000000CC00,865.7,4.724661,0.0
80000000000000000000CC00,865.7,4.7430687,-2.4375
80000000000000000000CC00,865.7,4.7737484,-6.5
80000000000000000000CC00,865.7,4.7430687,0.0
80000000000000000000CC00,865.7,4.7369328,2.4375
80000000000000000000CC00,865.7,4.724661,4.0625
80000000000000000000CC00,865.7,4.7737484,-4.875
80000000000000000000CC00,865.7,4.7369328,4.0625
80000000000000000000CC00,865.7,4.7676125,-0.8125
80000000000000000000CC00,865.7,4.7369328,5.6875
80000000000000000000CC00,865.7,4.7737484,-2.4375
80000000000000000000CC00,865.7,4.7492046,0.8125
80000000000000000000CC00,865.7,4.7614765,4.875
80000000000000000000CC00,865.7,4.7860203,-5.6875
80000000000000000000CC00,865.7,4.7982917,-4.875
80000000000000000000CC00,865.7,4.7614765,2.4375
80000000000000000000CC00,865.7,4.7676125,0.8125
80000000000000000000CC00,865.7,4.7676125,4.875
80000000000000000000CC00,865.7,4.7860203,0.8125
80000000000000000000CC00,865.7,4.7737484,1.625
80000000000000000000CC00,865.7,4.8166995,-2.4375
80000000000000000000CC00,865.7,4.7737484,4.875
80000000000000000000CC00,865.7,4.7798843,5.6875
80000000000000000000CC00,865.7,4.8105636,-2.4375
80000000000000000000CC00,865.7,4.792156,6.5
80000000000000000000CC00,865.7,4.792156,4.0625
80000000000000000000CC00,865.7,4.8412433,-5.6875
80000000000000000000CC00,865.7,4.8166995,-0.8125
80000000000000000000CC00,865.7,4.8228354,-0.8125
80000000000000000000CC00,865.7,4.8044276,2.4375
80000000000000000000CC00,865.7,4.792156,6.5
80000000000000000000CC00,865.7,4.847379,-4.0625
80000000000000000000CC00,865.7,4.847379,-4.0625
80000000000000000000CC00,865.7,4.8351073,-0.8125
80000000000000000000CC00,865.7,4.859651,-5.6875
80000000000000000000CC00,865.7,4.853515,-4.875
80000000000000000000CC00,865.7,4.8351073,0.0
80000000000000000000CC00,865.7,4.847379,-4.0625
80000000000000000000CC00,865.7,4.8289714,0.0
80000000000000000000CC00,865.7,4.853515,-1.625
80000000000000000000CC00,865.7,4.8228354,4.875
80000000000000000000CC00,865.7,4.8351073,0.8125
80000000000000000000CC00,865.7,4.8412433,0.0
80000000000000000000CC00,865.7,4.859651,-2.4375
80000000000000000000CC00,865.7,4.8351073,0.8125
80000000000000000000CC00,865.7,4.8228354,4.0625
80000000000000000000CC00,865.7,4.8351073,1.625
80000000000000000000CC00,865.7,4.853515,0.0
80000000000000000000CC00,865.7,4.865787,-4.875
80000000000000000000CC00,865.7,4.8412433,-1.625
80000000000000000000CC00,865.7,4.8412433,2.4375
80000000000000000000CC00,865.7,4.8412433,0.8125
80000000000000000000CC00,865.7,4.853515,-2.4375
80000000000000000000CC00,865.7,4.878059,-2.4375
80000000000000000000CC00,865.7,4.865787,-1.625
80000000000000000000CC00,865.7,4.8351073,2.4375
80000000000000000000CC00,865.7,4.8412433,1.625
80000000000000000000CC00,865.7,4.847379,0.8125
80000000000000000000CC00,865.7,4.8351073,4.0625
80000000000000000000CC00,865.7,4.847379,2.4375
80000000000000000000CC00,865.7,4.884195,-4.0625
80000000000000000000CC00,865.7,4.853515,2.4375
80000000000000000000CC00,865.7,4.847379,4.0625
80000000000000000000CC00,865.7,4.865787,1.625
80000000000000000000CC00,865.7,4.884195,-2.4375
80000000000000000000CC00,865.7,4.865787,1.625
80000000000000000000CC00,865.7,4.871923,0.8125
80000000000000000000CC00,865.7,4.859651,4.0625
80000000000000000000CC00,865.7,4.859651,4.875
80000000000000000000CC00,865.7,4.847379,7.3125
80000000000000000000CC00,865.7,4.9271464,-6.5
80000000000000000000CC00,865.7,4.865787,8.9375
80000000000000000000CC00,865.7,4.890331,0.0
80000000000000000000CC00,865.7,4.8964667,4.875
80000000000000000000CC00,865.7,4.9210105,-4.0625
80000000000000000000CC00,865.7,4.884195,4.0625
80000000000000000000CC00,865.7,4.9271464,-2.4375
80000000000000000000CC00,865.7,4.890331,4.0625
80000000000000000000CC00,865.7,4.9210105,-4.0625
80000000000000000000CC00,865.7,4.9087386,1.625
80000000000000000000CC00,865.7,4.9271464,-1.625
80000000000000000000CC00,865.7,4.9455543,-4.875
80000000000000000000CC00,865.7,4.9026027,4.875
80000000000000000000CC00,865.7,4.9148746,4.0625
80000000000000000000CC00,865.7,4.9394183,0.8125
80000000000000000000CC00,865.7,4.9087386,4.0625
80000000000000000000CC00,865.7,4.9148746,4.0625
80000000000000000000CC00,865.7,4.9271464,0.8125
80000000000000000000CC00,865.7,4.9639616,-4.0625
80000000000000000000CC00,865.7,4.9332824,0.8125
80000000000000000000CC00,865.7,4.9271464,2.4375
80000000000000000000CC00,865.7,4.9210105,2.4375
80000000000000000000CC00,865.7,4.9455543,0.0
80000000000000000000CC00,865.7,4.957826,-1.625
80000000000000000000CC00,865.7,4.9639616,-4.0625
80000000000000000000CC00,865.7,4.9639616,-2.4375
80000000000000000000CC00,865.7,4.957826,0.0
80000000000000000000CC00,865.7,4.9332824,4.0625
80000000000000000000CC00,865.7,4.9455543,-0.8125
80000000000000000000CC00,865.7,4.9332824,4.875
80000000000000000000CC00,865.7,4.9762335,-4.875
80000000000000000000CC00,865.7,4.9332824,0.8125
80000000000000000000CC00,865.7,4.9823694,-5.6875
80000000000000000000CC00,865.7,4.9639616,-2.4375
80000000000000000000CC00,865.7,4.95169,-0.8125
80000000000000000000CC00,865.7,4.9639616,-2.4375
80000000000000000000CC00,865.7,4.95169,0.8125
80000000000000000000CC00,865.7,4.95169,0.0
80000000000000000000CC00,865.7,4.9394183,4.0625
80000000000000000000CC00,865.7,4.95169,-0.8125
80000000000000000000CC00,865.7,4.9455543,2.4375
80000000000000000000CC00,865.7,4.9762335,-0.8125
80000000000000000000CC00,865.7,4.9762335,-4.0625
80000000000000000000CC00,865.7,4.95169,4.875
80000000000000000000CC00,865.7,4.9823694,-4.875
80000000000000000000CC00,865.7,4.957826,1.625
80000000000000000000CC00,865.7,4.9639616,0.8125
80000000000000000000CC00,865.7,4.95169,-0.8125
80000000000000000000CC00,865.7,4.9394183,7.3125
80000000000000000000CC00,865.7,4.9332824,4.875
80000000000000000000CC00,865.7,4.957826,1.625
80000000000000000000CC00,865.7,4.957826,0.8125
80000000000000000000CC00,865.7,4.9639616,1.625
80000000000000000000CC00,865.7,4.957826,1.625
80000000000000000000CC00,865.7,4.9700975,-1.625
80000000000000000000CC00,865.7,4.9455543,2.4375
80000000000000000000CC00,865.7,4.9700975,-0.8125
80000000000000000000CC00,865.7,4.9946413,-5.6875
80000000000000000000CC00,865.7,4.9639616,2.4375
80000000000000000000CC00,865.7,4.9885054,-4.0625
80000000000000000000CC00,865.7,4.9762335,-1.625
80000000000000000000CC00,865.7,4.9639616,1.625
80000000000000000000CC00,865.7,4.95169,2.4375
80000000000000000000CC00,865.7,4.9639616,0.8125
80000000000000000000CC00,865.7,4.9823694,-2.4375
80000000000000000000CC00,865.7,4.9823694,-2.4375
80000000000000000000CC00,865.7,4.957826,4.875
80000000000000000000CC00,865.7,4.9823694,-1.625
80000000000000000000CC00,865.7,4.9946413,-4.0625
80000000000000000000CC00,865.7,4.9639616,-0.8125
80000000000000000000CC00,865.7,4.9639616,4.0625
80000000000000000000CC00,865.7,4.9885054,-4.0625
80000000000000000000CC00,865.7,4.9823694,-0.8125
80000000000000000000CC00,865.7,4.9639616,0.0
80000000000000000000CC00,865.7,4.9885054,-4.875
80000000000000000000CC00,865.7,4.95169,2.4375
80000000000000000000CC00,865.7,4.957826,1.625
80000000000000000000CC00,865.7,4.9639616,0.8125
80000000000000000000CC00,865.7,4.9455543,4.0625
80000000000000000000CC00,865.7,4.9885054,-2.4375
80000000000000000000CC00,865.7,4.9455543,4.0625
80000000000000000000CC00,865.7,4.9455543,2.4375
80000000000000000000CC00,865.7,4.95169,2.4375
80000000000000000000CC00,865.7,4.9455543,2.4375
80000000000000000000CC00,865.7,4.9700975,-1.625
80000000000000000000CC00,865.7,4.9762335,-2.4375
80000000000000000000CC00,865.7,4.9394183,2.4375
80000000000000000000CC00,865.7,4.9394183,1.625
80000000000000000000CC00,865.7,4.9394183,0.8125
80000000000000000000CC00,865.7,4.9332824,1.625
80000000000000000000CC00,865.7,4.9332824,0.0
80000000000000000000CC00,865.7,4.95169,-1.625
80000000000000000000CC00,865.7,4.9148746,2.4375
80000000000000000000CC00,865.7,4.9026027,4.875
80000000000000000000CC00,865.7,4.9026027,4.875
80000000000000000000CC00,865.7,4.9026027,1.625
80000000000000000000CC00,865.7,4.9087386,0.0
80000000000000000000CC00,865.7,4.9148746,-4.875
80000000000000000000CC00,865.7,4.8964667,-0.8125
80000000000000000000CC00,865.7,4.871923,1.625
80000000000000000000CC00,865.7,4.890331,-0.8125
80000000000000000000CC00,865.7,4.853515,4.0625
80000000000000000000CC00,865.7,4.847379,2.4375
80000000000000000000CC00,865.7,4.8412433,4.0625
80000000000000000000CC00,865.7,4.8412433,4.0625
80000000000000000000CC00,865.7,4.8412433,1.625
80000000000000000000CC00,865.7,4.8351073,0.8125
80000000000000000000CC00,865.7,4.8351073,1.625
80000000000000000000CC00,865.7,4.8351073,1.625
80000000000000000000CC00,865.7,4.8351073,1.625
80000000000000000000CC00,865.7,4.8351073,1.625
80000000000000000000CC00,865.7,4.853515,-1.625
80000000000000000000CC00,865.7,4.8166995,4.875
80000000000000000000CC00,865.7,4.8412433,-2.4375
80000000000000000000CC00,865.7,4.8412433,0.8125
80000000000000000000CC00,865.7,4.8289714,4.0625
80000000000000000000CC00,865.7,4.8351073,4.0625
80000000000000000000CC00,865.7,4.871923,-4.0625
80000000000000000000CC00,865.7,4.871923,-4.0625
80000000000000000000CC00,865.7,4.8351073,4.0625
80000000000000000000CC00,865.7,4.8351073,4.0625
80000000000000000000CC00,865.7,4.8351073,4.0625
80000000000000000000CC00,865.7,4.847379,4.0625
80000000000000000000CC00,865.7,4.853515,0.8125
80000000000000000000CC00,865.7,4.865787,-1.625
80000000000000000000CC00,865.7,4.878059,-2.4375
80000000000000000000CC00,865.7,4.8412433,2.4375
80000000000000000000CC00,865.7,4.853515,0.8125
80000000000000000000CC00,865.7,4.8412433,1.625
80000000000000000000CC00,865.7,4.8289714,4.875
80000000000000000000CC00,865.7,4.853515,2.4375
80000000000000000000CC00,865.7,4.8412433,2.4375
80000000000000000000CC00,865.7,4.8412433,2.4375
80000000000000000000CC00,865.7,4.865787,0.0
80000000000000000000CC00,865.7,4.853515,2.4375
80000000000000000000CC00,865.7,4.853515,2.4375
80000000000000000000CC00,865.7,4.859651,4.0625
80000000000000000000CC00,865.7,4.8964667,-4.0625
80000000000000000000CC00,865.7,4.890331,-1.625
80000000000000000000CC00,865.7,4.8964667,0.8125
80000000000000000000CC00,865.7,4.890331,2.4375
80000000000000000000CC00,865.7,4.9026027,4.0625
80000000000000000000CC00,865.7,4.9026027,1.625
80000000000000000000CC00,865.7,4.9210105,4.0625
80000000000000000000CC00,865.7,4.9148746,1.625
80000000000000000000CC00,865.7,4.9332824,0.8125
80000000000000000000CC00,865.7,4.9148746,2.4375
80000000000000000000CC00,865.7,4.9271464,4.0625
80000000000000000000CC00,865.7,4.9394183,2.4375
80000000000000000000CC00,865.7,4.9455543,-0.8125
80000000000000000000CC00,865.7,4.957826,-4.0625
80000000000000000000CC00,865.7,4.9210105,4.0625
80000000000000000000CC00,865.7,4.9455543,2.4375
80000000000000000000CC00,865.7,4.9271464,4.875
80000000000000000000CC00,865.7,4.9271464,2.4375
80000000000000000000CC00,865.7,4.9394183,4.0625
80000000000000000000CC00,865.7,4.9271464,4.875
80000000000000000000CC00,865.7,4.95169,0.0
80000000000000000000CC00,865.7,4.9394183,0.8125
80000000000000000000CC00,865.7,4.9210105,2.4375
80000000000000000000CC00,865.7,4.9639616,-1.625
80000000000000000000CC00,865.7,4.957826,-1.625
80000000000000000000CC00,865.7,4.9271464,2.4375
80000000000000000000CC00,865.7,4.9394183,4.875
80000000000000000000CC00,865.7,4.95169,0.0
80000000000000000000CC00,865.7,4.9332824,1.625
80000000000000000000CC00,865.7,4.9271464,2.4375
80000000000000000000CC00,865.7,4.9210105,4.875
80000000000000000000CC00,865.7,4.9087386,4.875
80000000000000000000CC00,865.7,4.9210105,4.875
80000000000000000000CC00,865.7,4.9210105,4.0625
80000000000000000000CC00,865.7,4.9271464,1.625
80000000000000000000CC00,865.7,4.95169,-4.0625
80000000000000000000CC00,865.7,4.957826,-1.625
80000000000000000000CC00,865.7,4.9210105,4.875
80000000000000000000CC00,865.7,4.9271464,1.625
80000000000000000000CC00,865.7,4.9271464,1.625
80000000000000000000CC00,865.7,4.9271464,4.875
80000000000000000000CC00,865.7,4.9271464,4.0625
80000000000000000000CC00,865.7,4.9455543,-0.8125
80000000000000000000CC00,865.7,4.9271464,4.0625
80000000000000000000CC00,865.7,4.9271464,4.0625
80000000000000000000CC00,865.7,4.9271464,2.4375
80000000000000000000CC00,865.7,4.9762335,-4.875
80000000000000000000CC00,865.7,4.9271464,2.4375
80000000000000000000CC00,865.7,4.9394183,1.625
80000000000000000000CC00,865.7,4.9700975,-2.4375
80000000000000000000CC00,865.7,4.9271464,4.875
80000000000000000000CC00,865.7,4.95169,-0.8125
80000000000000000000CC00,865.7,4.9394183,4.0625
80000000000000000000CC00,865.7,4.9394183,4.875
80000000000000000000CC00,865.7,4.9639616,0.8125
80000000000000000000CC00,865.7,4.957826,0.8125
80000000000000000000CC00,865.7,4.9394183,5.6875
80000000000000000000CC00,865.7,4.957826,4.0625
80000000000000000000CC00,865.7,4.9823694,-2.4375
80000000000000000000CC00,865.7,4.9639616,0.8125
80000000000000000000CC00,865.7,4.9823694,-2.4375
80000000000000000000CC00,865.7,4.95169,5.6875
80000000000000000000CC00,865.7,4.9823694,-2.4375
80000000000000000000CC00,865.7,4.9823694,0.0
80000000000000000000CC00,865.7,4.957826,4.875
80000000000000000000CC00,865.7,4.9700975,1.625
80000000000000000000CC00,865.7,4.9700975,1.625
80000000000000000000CC00,865.7,4.9762335,1.625
80000000000000000000CC00,865.7,4.9700975,4.875
80000000000000000000CC00,865.7,5.013049,-0.8125
80000000000000000000CC00,865.7,4.9885054,2.4375
80000000000000000000CC00,865.7,4.9885054,1.625
80000000000000000000CC00,865.7,4.9762335,6.5
80000000000000000000CC00,865.7,4.9885054,4.0625
80000000000000000000CC00,865.7,4.9946413,4.875
80000000000000000000CC00,865.7,5.006913,2.4375
80000000000000000000CC00,865.7,4.9946413,4.875
80000000000000000000CC00,865.7,5.006913,1.625
80000000000000000000CC00,865.7,5.043729,-2.4375
80000000000000000000CC00,865.7,5.006913,2.4375
80000000000000000000CC00,865.7,5.006913,6.5
80000000000000000000CC00,865.7,5.031457,0.0
80000000000000000000CC00,865.7,5.019185,2.4375
80000000000000000000CC00,865.7,5.019185,4.875
80000000000000000000CC00,865.7,5.025321,4.0625
80000000000000000000CC00,865.7,5.031457,1.625
80000000000000000000CC00,865.7,5.019185,5.6875
80000000000000000000CC00,865.7,5.049865,-1.625
80000000000000000000CC00,865.7,5.019185,5.6875
80000000000000000000CC00,865.7,5.0560007,-1.625
80000000000000000000CC00,865.7,5.031457,2.4375
80000000000000000000CC00,865.7,5.0560007,-1.625
80000000000000000000CC00,865.7,5.031457,2.4375
80000000000000000000CC00,865.7,5.0560007,0.0
80000000000000000000CC00,865.7,5.019185,5.6875
80000000000000000000CC00,865.7,5.0560007,-2.4375
80000000000000000000CC00,865.7,5.025321,2.4375
80000000000000000000CC00,865.7,5.043729,-0.8125
80000000000000000000CC00,865.7,5.025321,4.875
80000000000000000000CC00,865.7,5.019185,4.0625
80000000000000000000CC00,865.7,5.0007772,4.875
80000000000000000000CC00,865.7,5.043729,-0.8125
80000000000000000000CC00,865.7,5.019185,4.0625
80000000000000000000CC00,865.7,5.013049,4.875
80000000000000000000CC00,865.7,5.019185,2.4375
80000000000000000000CC00,865.7,5.031457,0.0
80000000000000000000CC00,865.7,5.025321,0.8125
80000000000000000000CC00,865.7,5.025321,-0.8125
80000000000000000000CC00,865.7,4.9946413,5.6875
80000000000000000000CC00,865.7,5.0007772,2.4375
80000000000000000000CC00,865.7,5.037593,-1.625
80000000000000000000CC00,865.7,5.0007772,2.4375
80000000000000000000CC00,865.7,5.025321,-0.8125
80000000000000000000CC00,865.7,5.0007772,4.875
80000000000000000000CC00,865.7,5.025321,-4.0625
80000000000000000000CC00,865.7,4.9885054,4.0625
80000000000000000000CC00,865.7,4.9823694,5.6875
80000000000000000000CC00,865.7,5.006913,-0.8125
80000000000000000000CC00,865.7,4.9762335,4.0625
80000000000000000000CC00,865.7,4.9946413,-0.8125
80000000000000000000CC00,865.7,4.9823694,1.625
80000000000000000000CC00,865.7,5.0007772,-1.625
80000000000000000000CC00,865.7,4.9700975,4.0625
80000000000000000000CC00,865.7,4.9885054,0.8125
80000000000000000000CC00,865.7,4.9823694,1.625
80000000000000000000CC00,865.7,4.957826,7.3125
80000000000000000000CC00,865.7,4.9946413,-1.625
80000000000000000000CC00,865.7,4.9639616,2.4375
80000000000000000000CC00,865.7,5.0007772,-1.625
80000000000000000000CC00,865.7,4.9762335,1.625
80000000000000000000CC00,865.7,4.9700975,1.625
80000000000000000000CC00,865.7,4.9700975,1.625
80000000000000000000CC00,865.7,4.9700975,4.0625
80000000000000000000CC00,865.7,4.9700975,1.625
80000000000000000000CC00,865.7,4.9700975,1.625
80000000000000000000CC00,865.7,4.9700975,4.0625
80000000000000000000CC00,865.7,4.9946413,1.625
80000000000000000000CC00,865.7,4.9639616,4.875
80000000000000000000CC00,865.7,4.9823694,0.8125
80000000000000000000CC00,865.7,4.9946413,-1.625
80000000000000000000CC00,865.7,4.9823694,0.0
80000000000000000000CC00,865.7,4.9885054,-1.625
80000000000000000000CC00,865.7,4.9700975,2.4375
80000000000000000000CC00,865.7,4.9885054,-0.8125
80000000000000000000CC00,865.7,5.0007772,-4.0625
80000000000000000000CC00,865.7,4.9762335,1.625
80000000000000000000CC00,865.7,4.957826,5.6875
80000000000000000000CC00,865.7,4.957826,4.0625
80000000000000000000CC00,865.7,4.9639616,4.875
80000000000000000000CC00,865.7,4.9639616,2.4375
80000000000000000000CC00,865.7,4.9700975,2.4375
80000000000000000000CC00,865.7,4.9823694,2.4375
80000000000000000000CC00,865.7,4.9946413,-1.625
80000000000000000000CC00,865.7,5.0007772,-1.625
80000000000000000000CC00,865.7,4.9885054,-0.8125
80000000000000000000CC00,865.7,4.9639616,2.4375
80000000000000000000CC00,865.7,4.9885054,-1.625
80000000000000000000CC00,865.7,4.9639616,2.4375
80000000000000000000CC00,865.7,4.9700975,2.4375
80000000000000000000CC00,865.7,4.9639616,4.875
80000000000000000000CC00,865.7,5.0007772,-2.4375
80000000000000000000CC00,865.7,4.9946413,-0.8125
80000000000000000000CC00,865.7,4.9700975,4.0625
80000000000000000000CC00,865.7,4.9762335,4.0625
80000000000000000000CC00,865.7,5.0007772,-0.8125
80000000000000000000CC00,865.7,4.9700975,5.6875
80000000000000000000CC00,865.7,4.9762335,5.6875
80000000000000000000CC00,865.7,5.013049,-2.4375
80000000000000000000CC00,865.7,4.9823694,0.8125
80000000000000000000CC00,865.7,4.9762335,4.875
80000000000000000000CC00,865.7,4.9762335,1.625
80000000000000000000CC00,865.7,5.006913,1.625
80000000000000000000CC00,865.7,4.9885054,5.6875
80000000000000000000CC00,865.7,4.9885054,5.6875
80000000000000000000CC00,865.7,4.9946413,2.4375
80000000000000000000CC00,865.7,5.025321,-0.8125
80000000000000000000CC00,865.7,5.043729,-2.4375
80000000000000000000CC00,865.7,5.006913,0.8125
80000000000000000000CC00,865.7,5.037593,-0.8125
80000000000000000000CC00,865.7,5.049865,-2.4375
80000000000000000000CC00,865.7,5.013049,4.0625
80000000000000000000CC00,865.7,5.013049,4.875
80000000000000000000CC00,865.7,5.043729,-1.625
80000000000000000000CC00,865.7,5.049865,-2.4375
80000000000000000000CC00,865.7,5.025321,5.6875
80000000000000000000CC00,865.7,5.013049,5.6875
80000000000000000000CC00,865.7,5.037593,0.8125
80000000000000000000CC00,865.7,5.025321,5.6875
80000000000000000000CC00,865.7,5.031457,2.4375
80000000000000000000CC00,865.7,5.031457,2.4375
80000000000000000000CC00,865.7,5.031457,2.4375
80000000000000000000CC00,865.7,5.031457,2.4375
80000000000000000000CC00,865.7,5.049865,-1.625
80000000000000000000CC00,865.7,5.037593,1.625
80000000000000000000CC00,865.7,5.049865,1.625
80000000000000000000CC00,865.7,5.019185,5.6875
80000000000000000000CC00,865.7,5.0744085,-4.0625
80000000000000000000CC00,865.7,5.037593,4.0625
80000000000000000000CC00,865.7,5.037593,4.0625
80000000000000000000CC00,865.7,5.0744085,-1.625
80000000000000000000CC00,865.7,5.0621367,0.8125
80000000000000000000CC00,865.7,5.043729,1.625
80000000000000000000CC00,865.7,5.043729,4.0625
80000000000000000000CC00,865.7,5.031457,6.5
80000000000000000000CC00,865.7,5.0621367,0.8125
80000000000000000000CC00,865.7,5.037593,6.5
80000000000000000000CC00,865.7,5.0928164,-4.875
80000000000000000000CC00,865.7,5.037593,4.875
80000000000000000000CC00,865.7,5.0744085,-0.8125
80000000000000000000CC00,865.7,5.0621367,0.0
80000000000000000000CC00,865.7,5.031457,5.6875
80000000000000000000CC00,865.7,5.0682726,-1.625
80000000000000000000CC00,865.7,5.049865,0.8125
80000000000000000000CC00,865.7,5.0621367,-1.625
80000000000000000000CC00,865.7,5.043729,4.0625
80000000000000000000CC00,865.7,5.037593,2.4375
80000000000000000000CC00,865.7,5.043729,0.8125
80000000000000000000CC00,865.7,5.019185,7.3125
80000000000000000000CC00,865.7,5.031457,5.6875
80000000000000000000CC00,865.7,5.0682726,-2.4375
80000000000000000000CC00,865.7,5.0621367,-1.625
80000000000000000000CC00,865.7,5.0682726,-2.4375
80000000000000000000CC00,865.7,5.025321,4.875
80000000000000000000CC00,865.7,5.0560007,-0.8125
80000000000000000000CC00,865.7,5.013049,5.6875
80000000000000000000CC00,865.7,5.049865,0.8125
80000000000000000000CC00,865.7,5.025321,2.4375
80000000000000000000CC00,865.7,5.019185,4.0625
80000000000000000000CC00,865.7,5.013049,6.5
80000000000000000000CC00,865.7,5.025321,1.625
80000000000000000000CC00,865.7,5.013049,6.5
80000000000000000000CC00,865.7,5.031457,0.8125
80000000000000000000CC00,865.7,5.031457,0.0
80000000000000000000CC00,865.7,5.019185,5.6875
80000000000000000000CC00,865.7,5.031457,0.8125
80000000000000000000CC00,865.7,5.0007772,4.0625
80000000000000000000CC00,865.7,5.0007772,4.875
80000000000000000000CC00,865.7,5.0007772,2.4375
80000000000000000000CC00,865.7,5.0007772,4.875
80000000000000000000CC00,865.7,4.9946413,7.3125
80000000000000000000CC00,865.7,5.031457,-1.625
80000000000000000000CC00,865.7,5.031457,-4.0625
80000000000000000000CC00,865.7,5.013049,1.625
80000000000000000000CC00,865.7,5.013049,1.625
80000000000000000000CC00,865.7,5.013049,0.0
80000000000000000000CC00,865.7,5.025321,-1.625
80000000000000000000CC00,865.7,5.0007772,4.0625
80000000000000000000CC00,865.7,5.0007772,0.8125
80000000000000000000CC00,865.7,4.9885054,4.0625
80000000000000000000CC00,865.7,4.9946413,6.5
80000000000000000000CC00,865.7,5.013049,0.0
80000000000000000000CC00,865.7,4.9946413,4.0625
80000000000000000000CC00,865.7,5.025321,-4.0625
