700000000000000000006600,865.7,6.148195,-6.5
100000000000000000006600,865.7,0.43565056,-0.8125
200000000000000000006600,865.7,1.5033011,2.4375
500000000000000000006600,865.7,3.8472238,89.5
600000000000000000006600,865.7,4.3319616,7.3125
400000000000000000006600,865.7,4.95169,-3.25
300000000000000000006600,865.7,2.957515,-3.25
600000000000000000006600,865.7,2.0493984,0.8125
300000000000000000006600,865.7,5.479379,-4.875
500000000000000000006600,865.7,2.5709517,-27.625
500000000000000000006600,865.7,4.4485445,0.8125
100000000000000000006600,865.7,0.42951462,0.0
400000000000000000006600,865.7,4.9639616,-1.625
200000000000000000006600,865.7,1.4848934,7.3125
600000000000000000006600,865.7,2.0064468,24.375
600000000000000000006600,865.7,4.405593,-8.9375
700000000000000000006600,865.7,6.086836,3.25
500000000000000000006600,865.7,2.3930101,-12.1875
300000000000000000006600,865.7,2.9943304,2.4375
300000000000000000006600,865.7,5.5346026,0.0
100000000000000000006600,865.7,0.42951462,0.0
600000000000000000006600,865.7,4.3626413,-3.25
500000000000000000006600,865.7,4.4546804,-0.8125
200000000000000000006600,865.7,1.4480779,12.1875
300000000000000000006600,865.7,3.1661363,-12.1875
700000000000000000006600,865.7,6.142059,0.8125
300000000000000000006600,865.7,5.454836,0.8125
400000000000000000006600,865.7,4.9455543,-0.8125
600000000000000000006600,865.7,1.9512236,51.25
500000000000000000006600,865.7,2.5218644,-13.8125
500000000000000000006600,865.7,4.4546804,0.8125
100000000000000000006600,865.7,0.44178647,-0.8125
200000000000000000006600,865.7,1.515573,3.25
400000000000000000006600,865.7,4.9455543,0.8125
500000000000000000006600,865.7,2.1905246,24.375
600000000000000000006600,865.7,4.4546804,-14.625
700000000000000000006600,865.7,6.1359234,1.625
300000000000000000006600,865.7,2.9329712,8.125
300000000000000000006600,865.7,5.479379,0.0
600000000000000000006600,865.7,2.2027965,-29.25
100000000000000000006600,865.7,0.44178647,-1.625
400000000000000000006600,865.7,4.9271464,2.4375
500000000000000000006600,865.7,2.4114177,10.5625
700000000000000000006600,865.7,5.9518456,31.6875
500000000000000000006600,865.7,4.466952,-4.0625
600000000000000000006600,865.7,2.147573,3.25
200000000000000000006600,865.7,1.4848934,6.5
300000000000000000006600,865.7,5.510059,7.3125
600000000000000000006600,865.7,4.387185,-1.625
300000000000000000006600,865.7,3.0618258,-3.25
100000000000000000006600,865.7,0.41724277,1.625
600000000000000000006600,865.7,4.4546804,-8.9375
500000000000000000006600,865.7,2.5157285,-12.1875
300000000000000000006600,865.7,3.0004663,-4.875
200000000000000000006600,865.7,1.5033011,3.25
500000000000000000006600,865.7,4.4424086,1.625
300000000000000000006600,865.7,5.491651,0.8125
400000000000000000006600,865.7,4.9148746,3.25
700000000000000000006600,865.7,6.148195,0.8125
600000000000000000006600,865.7,2.2212043,14.625
500000000000000000006600,865.7,4.4792237,-2.4375
100000000000000000006600,865.7,0.44792238,-2.4375
600000000000000000006600,865.7,4.411729,-2.4375
300000000000000000006600,865.7,3.2152238,-36.5625
400000000000000000006600,865.7,4.9823694,-5.6875
200000000000000000006600,865.7,1.5401167,0.0
600000000000000000006600,865.7,2.2273402,8.125
700000000000000000006600,865.7,6.2034183,-8.125
300000000000000000006600,865.7,5.289166,28.4375
500000000000000000006600,865.7,2.6936703,-37.375
100000000000000000006600,865.7,0.44792238,-0.8125
500000000000000000006600,865.7,4.4546804,2.4375
200000000000000000006600,865.7,1.515573,5.6875
400000000000000000006600,865.7,4.9332824,2.4375
700000000000000000006600,865.7,6.1113796,1.625
600000000000000000006600,865.7,4.411729,-0.8125
300000000000000000006600,865.7,5.479379,-13.8125
600000000000000000006600,865.7,2.1598449,-7.3125
500000000000000000006600,865.7,2.2764275,29.25
300000000000000000006600,865.7,3.0925052,-6.5
100000000000000000006600,865.7,0.44178647,0.8125
200000000000000000006600,865.7,1.4910294,8.125
500000000000000000006600,865.7,4.466952,-1.625
700000000000000000006600,865.7,6.1604667,-7.3125
400000000000000000006600,865.7,4.9762335,-1.625
600000000000000000006600,865.7,4.399457,1.625
600000000000000000006600,865.7,2.478913,-34.125
300000000000000000006600,865.7,2.8225245,13.8125
300000000000000000006600,865.7,5.430292,4.875
500000000000000000006600,865.7,2.1046216,69.9375
100000000000000000006600,865.7,0.44792238,-1.625
400000000000000000006600,865.7,5.019185,-6.5
500000000000000000006600,865.7,4.473088,-0.8125
200000000000000000006600,865.7,1.5033011,6.5
700000000000000000006600,865.7,6.1175156,3.25
600000000000000000006600,865.7,4.374913,-0.8125
300000000000000000006600,865.7,2.9329712,4.875
300000000000000000006600,865.7,5.442564,1.625
600000000000000000006600,865.7,2.3009713,-17.0625
500000000000000000006600,865.7,2.4298255,15.4375
100000000000000000006600,865.7,0.43565056,2.4375
400000000000000000006600,865.7,4.9823694,-0.8125
500000000000000000006600,865.7,4.466952,-0.8125
600000000000000000006600,865.7,4.393321,-5.6875
200000000000000000006600,865.7,1.4848934,9.75
700000000000000000006600,865.7,6.1236515,4.875
300000000000000000006600,865.7,2.9943304,-1.625
300000000000000000006600,865.7,5.516195,-9.75
500000000000000000006600,865.7,2.478913,-12.1875
100000000000000000006600,865.7,0.42951462,2.4375
300000000000000000006600,865.7,5.338253,39.875
500000000000000000006600,865.7,4.4853597,-4.875
400000000000000000006600,865.7,4.957826,3.25
200000000000000000006600,865.7,1.5278449,3.25
700000000000000000006600,865.7,6.1727386,4.875
500000000000000000006600,865.7,2.3807383,-9.75
600000000000000000006600,865.7,4.405593,-5.6875
300000000000000000006600,865.7,3.0925052,-20.3125
100000000000000000006600,865.7,0.41110685,4.875
300000000000000000006600,865.7,5.5530105,-17.0625
600000000000000000006600,865.7,4.460816,-7.3125
500000000000000000006600,865.7,4.4546804,4.875
200000000000000000006600,865.7,1.5033011,6.5
300000000000000000006600,865.7,3.02501,6.5
500000000000000000006600,865.7,2.3377867,24.375
400000000000000000006600,865.7,4.9885054,0.8125
600000000000000000006600,865.7,2.0432625,28.4375
700000000000000000006600,865.7,6.1727386,-0.8125
600000000000000000006600,865.7,4.393321,-0.8125
100000000000000000006600,865.7,0.42951462,2.4375
500000000000000000006600,865.7,4.473088,2.4375
700000000000000000006600,865.7,6.1359234,4.875
200000000000000000006600,865.7,1.521709,2.4375
400000000000000000006600,865.7,4.95169,3.25
300000000000000000006600,865.7,2.730486,48.8125
300000000000000000006600,865.7,5.325981,60.1875
500000000000000000006600,865.7,2.6875343,-56.9375
100000000000000000006600,865.7,0.44178647,-0.8125
700000000000000000006600,865.7,6.1052437,8.125
600000000000000000006600,865.7,4.460816,0.8125
400000000000000000006600,865.7,4.9823694,-2.4375
500000000000000000006600,865.7,4.460816,0.0
200000000000000000006600,865.7,1.5278449,3.25
500000000000000000006600,865.7,1.1535536,201.8125
300000000000000000006600,865.7,3.2090878,-22.75
300000000000000000006600,865.7,5.5407386,-11.375
500000000000000000006600,865.7,4.4853597,-4.875
100000000000000000006600,865.7,0.44792238,-0.8125
700000000000000000006600,865.7,6.1297874,1.625
400000000000000000006600,865.7,4.9700975,4.875
200000000000000000006600,865.7,1.4787575,6.5
600000000000000000006600,865.7,4.411729,-6.5
500000000000000000006600,865.7,2.3316507,26.0
300000000000000000006600,865.7,3.2274957,-46.375
300000000000000000006600,865.7,5.6266418,-17.0625
600000000000000000006600,865.7,1.7794178,41.5
100000000000000000006600,865.7,0.43565056,1.625
200000000000000000006600,865.7,1.4971652,3.25
500000000000000000006600,865.7,4.460816,1.625
400000000000000000006600,865.7,5.006913,-5.6875
600000000000000000006600,865.7,4.3626413,-0.8125
700000000000000000006600,865.7,6.1604667,-0.8125
300000000000000000006600,865.7,5.5714183,-6.5
300000000000000000006600,865.7,2.8532043,25.1875
500000000000000000006600,865.7,2.6261752,-4.875
500000000000000000006600,865.7,4.4792237,0.0
100000000000000000006600,865.7,0.43565056,-0.8125
200000000000000000006600,865.7,1.4848934,6.5
400000000000000000006600,865.7,5.031457,-7.3125
700000000000000000006600,865.7,6.209554,-2.4375
600000000000000000006600,865.7,4.387185,-2.4375
300000000000000000006600,865.7,3.0495539,-7.3125
300000000000000000006600,865.7,5.442564,-2.4375
100000000000000000006600,865.7,0.44178647,0.8125
400000000000000000006600,865.7,5.025321,-8.125
700000000000000000006600,865.7,6.1788745,-0.8125
500000000000000000006600,865.7,4.4914956,-0.8125
600000000000000000006600,865.7,4.411729,-8.9375
200000000000000000006600,865.7,1.4848934,6.5
300000000000000000006600,865.7,5.5223308,-9.75
300000000000000000006600,865.7,2.957515,30.875
500000000000000000006600,865.7,2.2641556,31.6875
600000000000000000006600,865.7,2.4236896,-49.625
100000000000000000006600,865.7,0.43565056,2.4375
200000000000000000006600,865.7,1.4910294,3.25
500000000000000000006600,865.7,4.4914956,-0.8125
400000000000000000006600,865.7,4.9762335,1.625
600000000000000000006600,865.7,4.460816,-12.1875
600000000000000000006600,865.7,2.1598449,-2.4375
700000000000000000006600,865.7,6.1666026,1.625
300000000000000000006600,865.7,3.1477287,-6.5
300000000000000000006600,865.7,5.5714183,-26.8125
500000000000000000006600,865.7,2.1905246,43.125
100000000000000000006600,865.7,0.46019423,-2.4375
500000000000000000006600,865.7,4.4792237,0.0
700000000000000000006600,865.7,6.1236515,8.9375
400000000000000000006600,865.7,4.9885054,0.8125
200000000000000000006600,865.7,1.4971652,3.25
600000000000000000006600,865.7,4.301282,7.3125
300000000000000000006600,865.7,5.460972,-9.75
500000000000000000006600,865.7,2.4298255,15.4375
300000000000000000006600,865.7,3.1293209,-20.3125
100000000000000000006600,865.7,0.43565056,0.0
600000000000000000006600,865.7,4.28901,11.375
700000000000000000006600,865.7,5.8598065,46.375
200000000000000000006600,865.7,1.4603497,8.125
500000000000000000006600,865.7,4.473088,0.0
400000000000000000006600,865.7,5.013049,0.8125
600000000000000000006600,865.7,2.1966605,12.1875
500000000000000000006600,865.7,2.5218644,-13.8125
300000000000000000006600,865.7,2.9329712,11.375
300000000000000000006600,865.7,5.8659425,-64.25
500000000000000000006600,865.7,4.4976315,-2.4375
100000000000000000006600,865.7,0.43565056,0.8125
700000000000000000006600,865.7,6.1727386,2.4375
400000000000000000006600,865.7,5.0007772,1.625
200000000000000000006600,865.7,1.4910294,3.25
600000000000000000006600,865.7,4.387185,-6.5
300000000000000000006600,865.7,5.460972,-15.4375
600000000000000000006600,865.7,2.1168935,9.75
500000000000000000006600,865.7,2.4298255,14.625
300000000000000000006600,865.7,2.9329712,17.0625
500000000000000000006600,865.7,4.4914956,1.625
100000000000000000006600,865.7,0.44178647,0.0
200000000000000000006600,865.7,1.4787575,0.8125
700000000000000000006600,865.7,6.148195,7.3125
600000000000000000006600,865.7,4.4546804,-13.8125
400000000000000000006600,865.7,5.013049,-2.4375
500000000000000000006600,865.7,2.6507187,-61.8125
300000000000000000006600,865.7,3.3195345,-37.375
600000000000000000006600,865.7,2.06167,12.1875
300000000000000000006600,865.7,5.4057484,16.25
100000000000000000006600,865.7,0.44792238,0.8125
500000000000000000006600,865.7,4.4853597,-1.625
600000000000000000006600,865.7,4.3380976,8.125
200000000000000000006600,865.7,1.4910294,0.8125
300000000000000000006600,865.7,5.460972,-9.75
700000000000000000006600,865.7,6.1972823,-0.8125
400000000000000000006600,865.7,5.006913,1.625
600000000000000000006600,865.7,2.2825634,-17.875
300000000000000000006600,865.7,3.3379421,-33.3125
500000000000000000006600,865.7,4.4792237,-0.8125
100000000000000000006600,865.7,0.44792238,-0.8125
200000000000000000006600,865.7,1.435806,10.5625
700000000000000000006600,865.7,6.1788745,1.625
400000000000000000006600,865.7,5.037593,-5.6875
600000000000000000006600,865.7,4.399457,-7.3125
300000000000000000006600,865.7,3.02501,5.6875
300000000000000000006600,865.7,5.5223308,-13.8125
500000000000000000006600,865.7,2.72435,-57.75
200000000000000000006600,865.7,1.4726216,7.3125
100000000000000000006600,865.7,0.45405832,-2.4375
400000000000000000006600,865.7,5.037593,-5.6875
500000000000000000006600,865.7,4.4792237,0.8125
700000000000000000006600,865.7,6.1850104,2.4375
600000000000000000006600,865.7,4.3503695,-2.4375
300000000000000000006600,865.7,5.362797,14.625
300000000000000000006600,865.7,3.1722722,-9.75
500000000000000000006600,865.7,2.2886994,56.9375
100000000000000000006600,865.7,0.44792238,-0.8125
500000000000000000006600,865.7,4.473088,5.6875
200000000000000000006600,865.7,1.4910294,-0.8125
600000000000000000006600,865.7,4.4301367,-12.1875
700000000000000000006600,865.7,6.1911464,8.125
400000000000000000006600,865.7,5.0007772,-0.8125
300000000000000000006600,865.7,5.295302,24.375
300000000000000000006600,865.7,3.0495539,-1.625
500000000000000000006600,865.7,2.6507187,-14.625
600000000000000000006600,865.7,1.9634954,35.75
700000000000000000006600,865.7,6.148195,6.5
100000000000000000006600,865.7,0.46019423,-4.875
200000000000000000006600,865.7,1.4910294,0.0
500000000000000000006600,865.7,4.4976315,-2.4375
400000000000000000006600,865.7,4.9823694,4.875
600000000000000000006600,865.7,4.4301367,-15.4375
500000000000000000006600,865.7,2.2764275,25.1875
300000000000000000006600,865.7,5.3075733,17.0625
100000000000000000006600,865.7,0.43565056,2.4375
200000000000000000006600,865.7,1.4542137,7.3125
600000000000000000006600,865.7,4.307418,17.0625
500000000000000000006600,865.7,4.466952,1.625
700000000000000000006600,865.7,6.1788745,0.0
400000000000000000006600,865.7,4.9885054,4.875
300000000000000000006600,865.7,3.270447,-32.5
300000000000000000006600,865.7,5.503923,-2.4375
600000000000000000006600,865.7,2.2212043,-6.5
500000000000000000006600,865.7,2.3071072,37.375
100000000000000000006600,865.7,0.43565056,0.0
200000000000000000006600,865.7,1.4664856,3.25
400000000000000000006600,865.7,5.025321,0.8125
500000000000000000006600,865.7,4.4853597,-2.4375
700000000000000000006600,865.7,6.1911464,0.8125
600000000000000000006600,865.7,4.3565054,-7.3125
300000000000000000006600,865.7,3.0066023,2.4375
500000000000000000006600,865.7,2.2702916,32.5
600000000000000000006600,865.7,2.2273402,-35.75
300000000000000000006600,865.7,5.479379,0.0
100000000000000000006600,865.7,0.44178647,-0.8125
200000000000000000006600,865.7,1.4542137,7.3125
600000000000000000006600,865.7,4.233787,8.125
700000000000000000006600,865.7,6.209554,-3.25
300000000000000000006600,865.7,3.1354568,-12.1875
500000000000000000006600,865.7,4.4792237,0.8125
400000000000000000006600,865.7,5.043729,1.625
300000000000000000006600,865.7,5.5223308,-18.6875
600000000000000000006600,865.7,2.000311,20.3125
500000000000000000006600,865.7,1.9205439,75.625
100000000000000000006600,865.7,0.44178647,1.625
500000000000000000006600,865.7,4.466952,1.625
200000000000000000006600,865.7,1.4971652,0.0
400000000000000000006600,865.7,5.049865,-3.25
600000000000000000006600,865.7,4.4485445,-17.875
700000000000000000006600,865.7,6.1972823,0.8125
500000000000000000006600,865.7,2.3868742,3.25
300000000000000000006600,865.7,3.043418,1.625
600000000000000000006600,865.7,2.3255148,-16.25
300000000000000000006600,865.7,5.473243,-5.6875
700000000000000000006600,865.7,6.1972823,3.25
100000000000000000006600,865.7,0.42951462,1.625
600000000000000000006600,865.7,4.3319616,4.875
200000000000000000006600,865.7,1.4910294,3.25
300000000000000000006600,865.7,2.963651,14.625
300000000000000000006600,865.7,5.485515,-18.6875
400000000000000000006600,865.7,5.006913,5.6875
500000000000000000006600,865.7,4.4976315,-4.875
500000000000000000006600,865.7,2.712078,-67.5
100000000000000000006600,865.7,0.42951462,0.8125
200000000000000000006600,865.7,1.4603497,4.875
700000000000000000006600,865.7,6.21569,6.5
400000000000000000006600,865.7,5.025321,4.875
300000000000000000006600,865.7,5.28303,21.125
300000000000000000006600,865.7,3.202952,-28.4375
500000000000000000006600,865.7,4.5037675,-2.4375
600000000000000000006600,865.7,4.381049,-7.3125
500000000000000000006600,865.7,2.3561945,-12.1875
700000000000000000006600,865.7,6.1911464,0.0
100000000000000000006600,865.7,0.44178647,-1.625
600000000000000000006600,865.7,4.2767386,8.125
200000000000000000006600,865.7,1.4787575,3.25
500000000000000000006600,865.7,4.473088,-0.8125
400000000000000000006600,865.7,5.049865,-1.625
300000000000000000006600,865.7,5.5468745,-20.3125
300000000000000000006600,865.7,3.1722722,-43.125
600000000000000000006600,865.7,2.4543693,-27.625
500000000000000000006600,865.7,2.3377867,28.4375
100000000000000000006600,865.7,0.44178647,-0.8125
600000000000000000006600,865.7,4.3196898,-0.8125
200000000000000000006600,865.7,1.4787575,2.4375
500000000000000000006600,865.7,4.5160394,-4.875
400000000000000000006600,865.7,5.0989523,-8.125
700000000000000000006600,865.7,6.1359234,9.75
300000000000000000006600,865.7,3.043418,1.625
600000000000000000006600,865.7,2.1414373,30.875
300000000000000000006600,865.7,5.5284667,-12.1875
500000000000000000006600,865.7,2.552544,-31.6875
200000000000000000006600,865.7,1.4664856,4.875
100000000000000000006600,865.7,0.43565056,-0.8125
500000000000000000006600,865.7,4.4976315,0.0
600000000000000000006600,865.7,4.252195,3.25
400000000000000000006600,865.7,5.0744085,2.4375
600000000000000000006600,865.7,1.834641,63.4375
700000000000000000006600,865.7,6.1727386,2.4375
300000000000000000006600,865.7,5.491651,0.0
300000000000000000006600,865.7,3.110913,-20.3125
500000000000000000006600,865.7,2.6752625,-55.3125
500000000000000000006600,865.7,4.4792237,0.0
100000000000000000006600,865.7,0.44178647,-1.625
200000000000000000006600,865.7,1.4542137,3.25
400000000000000000006600,865.7,5.0621367,2.4375
700000000000000000006600,865.7,6.2034183,-2.4375
600000000000000000006600,865.7,4.3319616,-7.3125
300000000000000000006600,865.7,5.4487,18.6875
300000000000000000006600,865.7,2.8532043,25.1875
600000000000000000006600,865.7,2.3500586,-16.25
500000000000000000006600,865.7,2.6568546,-23.5625
100000000000000000006600,865.7,0.4233787,2.4375
500000000000000000006600,865.7,4.4853597,-1.625
400000000000000000006600,865.7,5.049865,3.25
200000000000000000006600,865.7,1.4603497,5.6875
700000000000000000006600,865.7,6.2034183,-8.125
600000000000000000006600,865.7,4.3258257,-18.6875
500000000000000000006600,865.7,2.4482334,4.875
300000000000000000006600,865.7,3.117049,-7.3125
600000000000000000006600,865.7,2.3193789,-17.875
300000000000000000006600,865.7,5.6266418,-26.8125
100000000000000000006600,865.7,0.41110685,2.4375
500000000000000000006600,865.7,4.473088,-0.8125
500000000000000000006600,865.7,2.1046216,49.625
700000000000000000006600,865.7,6.148195,8.125
300000000000000000006600,865.7,2.797981,43.125
400000000000000000006600,865.7,5.049865,0.8125
600000000000000000006600,865.7,4.233787,0.8125
200000000000000000006600,865.7,1.4726216,3.25
300000000000000000006600,865.7,5.460972,-6.5
100000000000000000006600,865.7,0.45405832,0.0
500000000000000000006600,865.7,2.4482334,-16.25
500000000000000000006600,865.7,4.460816,4.875
200000000000000000006600,865.7,1.4787575,1.625
400000000000000000006600,865.7,5.0866804,5.6875
700000000000000000006600,865.7,6.1788745,4.875
600000000000000000006600,865.7,4.239923,-5.6875
300000000000000000006600,865.7,5.510059,-5.6875
300000000000000000006600,865.7,3.0802333,-8.9375
100000000000000000006600,865.7,0.42951462,0.8125
500000000000000000006600,865.7,4.473088,0.8125
200000000000000000006600,865.7,1.4971652,0.8125
400000000000000000006600,865.7,5.0989523,2.4375
700000000000000000006600,865.7,6.1727386,4.875
600000000000000000006600,865.7,4.1908355,7.3125
600000000000000000006600,865.7,1.9819032,61.0
500000000000000000006600,865.7,2.3377867,26.0
300000000000000000006600,865.7,3.0740974,-18.6875
700000000000000000006600,865.7,6.068428,17.0625
100000000000000000006600,865.7,0.44792238,-0.8125
500000000000000000006600,865.7,4.4976315,-4.0625
400000000000000000006600,865.7,5.105088,5.6875
200000000000000000006600,865.7,1.4480779,4.875
600000000000000000006600,865.7,4.2031074,-2.4375
600000000000000000006600,865.7,1.9205439,32.5
300000000000000000006600,865.7,5.510059,1.625
300000000000000000006600,865.7,3.0188742,-4.875
500000000000000000006600,865.7,2.3684664,-7.3125
100000000000000000006600,865.7,0.42951462,3.25
400000000000000000006600,865.7,5.1357675,-2.4375
200000000000000000006600,865.7,1.4787575,1.625
500000000000000000006600,865.7,2.3255148,23.5625
500000000000000000006600,865.7,4.4792237,0.8125
700000000000000000006600,865.7,6.1850104,3.25
600000000000000000006600,865.7,4.1785636,-0.8125
300000000000000000006600,865.7,2.9943304,17.875
300000000000000000006600,865.7,5.479379,-18.6875
600000000000000000006600,865.7,2.4727771,-42.3125
100000000000000000006600,865.7,0.45405832,-2.4375
700000000000000000006600,865.7,6.2034183,2.4375
400000000000000000006600,865.7,5.11736,2.4375
200000000000000000006600,865.7,1.4848934,1.625
500000000000000000006600,865.7,4.4792237,4.0625
600000000000000000006600,865.7,4.160156,-2.4375
300000000000000000006600,865.7,3.0556898,-24.375
500000000000000000006600,865.7,2.644583,-53.6875
300000000000000000006600,865.7,5.6880007,-13.8125
100000000000000000006600,865.7,0.43565056,0.8125
400000000000000000006600,865.7,5.1357675,-0.8125
700000000000000000006600,865.7,6.2034183,3.25
300000000000000000006600,865.7,5.602098,-7.3125
200000000000000000006600,865.7,1.4603497,7.3125
600000000000000000006600,865.7,4.1785636,-11.375
500000000000000000006600,865.7,4.4976315,0.8125
300000000000000000006600,865.7,3.0986412,-37.375
500000000000000000006600,865.7,2.080078,61.0
400000000000000000006600,865.7,5.111224,6.5
100000000000000000006600,865.7,0.44178647,0.8125
200000000000000000006600,865.7,1.4664856,3.25
500000000000000000006600,865.7,4.4976315,0.8125
600000000000000000006600,865.7,4.160156,-12.1875
700000000000000000006600,865.7,6.2709136,-2.4375
300000000000000000006600,865.7,5.491651,1.625
600000000000000000006600,865.7,2.1659808,3.25
300000000000000000006600,865.7,3.037282,-8.125
500000000000000000006600,865.7,2.4850488,9.75
100000000000000000006600,865.7,0.42951462,0.8125
500000000000000000006600,865.7,2.3991458,18.6875
500000000000000000006600,865.7,4.5283113,0.0
600000000000000000006600,865.7,2.4850488,-49.625
400000000000000000006600,865.7,5.1480393,-0.8125
200000000000000000006600,865.7,1.441942,5.6875
700000000000000000006600,865.7,6.240234,3.25
600000000000000000006600,865.7,4.086525,-1.625
300000000000000000006600,865.7,5.602098,-7.3125
300000000000000000006600,865.7,3.043418,4.875
200000000000000000006600,865.7,1.4480779,7.3125
100000000000000000006600,865.7,0.42951462,0.8125
500000000000000000006600,865.7,4.5037675,4.0625
400000000000000000006600,865.7,5.172583,-2.4375
700000000000000000006600,865.7,0.024543693,-1.625
600000000000000000006600,865.7,4.092661,-11.375
500000000000000000006600,865.7,2.4543693,22.75
300000000000000000006600,865.7,5.595962,-7.3125
300000000000000000006600,865.7,2.8593402,29.25
600000000000000000006600,865.7,2.1966605,11.375
100000000000000000006600,865.7,0.44178647,0.0
400000000000000000006600,865.7,5.1296315,5.6875
500000000000000000006600,865.7,4.5283113,1.625
200000000000000000006600,865.7,1.4664856,4.875
700000000000000000006600,865.7,6.227962,14.625
600000000000000000006600,865.7,4.0128937,-8.125
500000000000000000006600,865.7,2.4052818,7.3125
600000000000000000006600,865.7,2.2580197,-5.6875
300000000000000000006600,865.7,3.1477287,-20.3125
300000000000000000006600,865.7,5.91503,-40.6875
100000000000000000006600,865.7,0.42951462,-0.8125
500000000000000000006600,865.7,4.5283113,1.625
300000000000000000006600,865.7,5.7861757,-32.5
600000000000000000006600,865.7,4.0128937,-3.25
200000000000000000006600,865.7,1.4603497,4.875
300000000000000000006600,865.7,3.0802333,-18.6875
400000000000000000006600,865.7,5.190991,0.0
700000000000000000006600,865.7,0.06749515,3.25
600000000000000000006600,865.7,1.9634954,31.6875
500000000000000000006600,865.7,2.5034566,-43.125
200000000000000000006600,865.7,1.4910294,-0.8125
100000000000000000006600,865.7,0.44178647,-0.8125
500000000000000000006600,865.7,4.534447,2.4375
700000000000000000006600,865.7,0.11658254,8.125
600000000000000000006600,865.7,3.9944859,-8.125
400000000000000000006600,865.7,5.160311,2.4375
300000000000000000006600,865.7,5.503923,26.0
600000000000000000006600,865.7,2.153709,9.75
300000000000000000006600,865.7,2.957515,-4.875
500000000000000000006600,865.7,2.3623304,12.1875
100000000000000000006600,865.7,0.44792238,-1.625
200000000000000000006600,865.7,1.4664856,5.6875
300000000000000000006600,865.7,5.620506,-1.625
500000000000000000006600,865.7,4.5896707,-4.875
400000000000000000006600,865.7,5.11736,13.8125
600000000000000000006600,865.7,2.000311,29.25
600000000000000000006600,865.7,3.9453986,-1.625
500000000000000000006600,865.7,2.3561945,18.6875
700000000000000000006600,865.7,0.1349903,11.375
300000000000000000006600,865.7,2.89002,15.4375
500000000000000000006600,865.7,4.5221753,7.3125
100000000000000000006600,865.7,0.43565056,0.0
200000000000000000006600,865.7,1.4603497,6.5
400000000000000000006600,865.7,5.2400784,-3.25
300000000000000000006600,865.7,5.669593,-1.625
600000000000000000006600,865.7,2.2027965,15.4375
300000000000000000006600,865.7,2.951379,8.125
600000000000000000006600,865.7,3.8840394,0.0
500000000000000000006600,865.7,2.2641556,26.0
700000000000000000006600,865.7,0.24543692,3.25
100000000000000000006600,865.7,0.43565056,-0.8125
500000000000000000006600,865.7,2.4482334,-14.625
200000000000000000006600,865.7,1.4726216,2.4375
600000000000000000006600,865.7,3.8779035,0.0
500000000000000000006600,865.7,4.552855,0.8125
700000000000000000006600,865.7,0.36201948,0.0
300000000000000000006600,865.7,2.7857091,34.125
400000000000000000006600,865.7,5.276894,0.0
300000000000000000006600,865.7,5.7186804,-3.25
600000000000000000006600,865.7,1.8960003,38.1875
500000000000000000006600,865.7,2.4236896,-1.625
100000000000000000006600,865.7,0.45405832,-1.625
200000000000000000006600,865.7,1.4664856,4.875
500000000000000000006600,865.7,4.540583,4.875
400000000000000000006600,865.7,5.264622,0.0
600000000000000000006600,865.7,3.8594956,-2.4375
700000000000000000006600,865.7,0.3436117,9.75
300000000000000000006600,865.7,2.969787,8.125
300000000000000000006600,865.7,5.645049,-5.6875
600000000000000000006600,865.7,2.4850488,-43.9375
100000000000000000006600,865.7,0.44792238,0.0
400000000000000000006600,865.7,5.2155347,6.5
500000000000000000006600,865.7,4.565127,-2.4375
200000000000000000006600,865.7,1.4664856,6.5
600000000000000000006600,865.7,3.8349519,1.625
700000000000000000006600,865.7,0.38042724,13.8125
300000000000000000006600,865.7,3.0556898,-22.75
300000000000000000006600,865.7,5.3075733,61.8125
600000000000000000006600,865.7,2.5464082,-83.0
500000000000000000006600,865.7,2.4911847,-33.3125
400000000000000000006600,865.7,5.2339425,5.6875
100000000000000000006600,865.7,0.43565056,0.0
200000000000000000006600,865.7,1.5033011,1.625
500000000000000000006600,865.7,4.5835347,-2.4375
600000000000000000006600,865.7,3.9024472,-6.5
700000000000000000006600,865.7,0.42951462,12.1875
300000000000000000006600,865.7,5.737088,-4.875
500000000000000000006600,865.7,2.730486,-46.375
300000000000000000006600,865.7,2.9206994,1.625
600000000000000000006600,865.7,2.3868742,-58.5625
100000000000000000006600,865.7,0.43565056,0.8125
700000000000000000006600,865.7,0.3681554,23.5625
200000000000000000006600,865.7,1.4787575,4.875
500000000000000000006600,865.7,4.577399,1.625
400000000000000000006600,865.7,5.356661,-11.375
600000000000000000006600,865.7,3.8963113,-4.875
500000000000000000006600,865.7,2.3684664,21.125
300000000000000000006600,865.7,3.037282,-8.125
300000000000000000006600,865.7,5.6880007,6.5
600000000000000000006600,865.7,2.0064468,-7.3125
100000000000000000006600,865.7,0.45405832,-2.4375
200000000000000000006600,865.7,1.4787575,6.5
500000000000000000006600,865.7,4.6448936,-5.6875
400000000000000000006600,865.7,5.264622,3.25
600000000000000000006600,865.7,3.8717675,-3.25
700000000000000000006600,865.7,0.33133984,6.5
300000000000000000006600,865.7,5.6818647,21.125
600000000000000000006600,865.7,2.0984857,1.625
300000000000000000006600,865.7,3.0556898,-11.375
100000000000000000006600,865.7,0.43565056,0.8125
500000000000000000006600,865.7,4.6019425,-2.4375
300000000000000000006600,865.7,3.0556898,-18.6875
600000000000000000006600,865.7,3.8410878,1.625
300000000000000000006600,865.7,5.743224,7.3125
700000000000000000006600,865.7,0.398835,7.3125
200000000000000000006600,865.7,1.5033011,4.875
600000000000000000006600,865.7,2.2886994,-39.875
400000000000000000006600,865.7,5.276894,1.625
500000000000000000006600,865.7,2.4236896,-7.3125
100000000000000000006600,865.7,0.44178647,-1.625
200000000000000000006600,865.7,1.515573,0.0
500000000000000000006600,865.7,4.626486,1.625
400000000000000000006600,865.7,5.3137093,-0.8125
600000000000000000006600,865.7,3.8901753,-1.625
600000000000000000006600,865.7,2.147573,-29.25
300000000000000000006600,865.7,5.7064085,-0.8125
500000000000000000006600,865.7,2.4911847,-7.3125
300000000000000000006600,865.7,3.344078,-56.9375
100000000000000000006600,865.7,0.43565056,0.0
500000000000000000006600,865.7,4.6387577,-4.0625
200000000000000000006600,865.7,1.4971652,4.875
600000000000000000006600,865.7,3.9515345,-8.125
400000000000000000006600,865.7,5.338253,-1.625
300000000000000000006600,865.7,5.7248163,9.75
300000000000000000006600,865.7,2.9391072,12.1875
600000000000000000006600,865.7,1.9266798,17.0625
500000000000000000006600,865.7,2.1414373,53.6875
100000000000000000006600,865.7,0.43565056,-0.8125
500000000000000000006600,865.7,4.6387577,-0.8125
600000000000000000006600,865.7,2.1659808,10.5625
300000000000000000006600,865.7,3.0986412,-16.25
400000000000000000006600,865.7,5.289166,5.6875
200000000000000000006600,865.7,1.4971652,6.5
600000000000000000006600,865.7,3.9944859,-5.6875
300000000000000000006600,865.7,5.7064085,10.5625
500000000000000000006600,865.7,2.4298255,7.3125
100000000000000000006600,865.7,0.2945243,19.5
200000000000000000006600,865.7,1.5094371,7.3125
500000000000000000006600,865.7,2.3500586,19.5
400000000000000000006600,865.7,5.270758,8.125
500000000000000000006600,865.7,4.6448936,5.6875
600000000000000000006600,865.7,4.0067577,-3.25
300000000000000000006600,865.7,3.19068,-26.0
300000000000000000006600,865.7,5.61437,16.25
600000000000000000006600,865.7,2.632311,-67.5
100000000000000000006600,865.7,0.4233787,0.8125
600000000000000000006600,865.7,4.0313015,-0.8125
500000000000000000006600,865.7,4.6633015,-0.8125
200000000000000000006600,865.7,1.521709,1.625
400000000000000000006600,865.7,5.319845,0.0
300000000000000000006600,865.7,5.657321,10.5625
300000000000000000006600,865.7,2.883884,15.4375
700000000000000000006600,865.7,5.737088,-2.4375
500000000000000000006600,865.7,2.55868,15.4375
600000000000000000006600,865.7,2.5218644,-45.5625
100000000000000000006600,865.7,0.4233787,0.0
500000000000000000006600,865.7,4.6755733,-1.625
600000000000000000006600,865.7,4.0497093,-3.25
200000000000000000006600,865.7,1.5278449,-0.8125
400000000000000000006600,865.7,5.3075733,2.4375
600000000000000000006600,865.7,2.2150683,17.875
700000000000000000006600,865.7,5.485515,-10.5625
300000000000000000006600,865.7,5.669593,8.125
500000000000000000006600,865.7,2.3868742,-9.75
300000000000000000006600,865.7,2.9268353,12.1875
100000000000000000006600,865.7,0.41110685,1.625
400000000000000000006600,865.7,5.3014374,0.8125
600000000000000000006600,865.7,4.0497093,-4.875
200000000000000000006600,865.7,1.4726216,8.9375
500000000000000000006600,865.7,4.6387577,4.875
700000000000000000006600,865.7,5.5468745,22.75
300000000000000000006600,865.7,3.110913,-21.125
300000000000000000006600,865.7,5.8904862,-17.875
600000000000000000006600,865.7,2.2580197,-2.4375
500000000000000000006600,865.7,2.4420974,-0.8125
100000000000000000006600,865.7,0.4049709,0.8125
300000000000000000006600,865.7,2.9022915,18.6875
700000000000000000006600,865.7,3.0556898,-25.1875
600000000000000000006600,865.7,3.9024472,0.8125
300000000000000000006600,865.7,6.056156,-30.875
500000000000000000006600,865.7,4.6387577,0.8125
400000000000000000006600,865.7,5.325981,2.4375
500000000000000000006600,865.7,2.2641556,39.875
600000000000000000006600,865.7,2.6813984,-61.0
200000000000000000006600,865.7,1.4787575,8.125
100000000000000000006600,865.7,0.4049709,0.0
500000000000000000006600,865.7,4.626486,-4.875
700000000000000000006600,865.7,3.7735927,2.4375
300000000000000000006600,865.7,5.8536706,15.4375
300000000000000000006600,865.7,2.8532043,19.5
200000000000000000006600,865.7,1.4971652,5.6875
400000000000000000006600,865.7,5.2584863,4.875
600000000000000000006600,865.7,3.742913,2.4375
500000000000000000006600,865.7,2.632311,-34.9375
600000000000000000006600,865.7,2.3439226,-34.125
100000000000000000006600,865.7,0.41110685,-0.8125
500000000000000000006600,865.7,4.6142144,-0.8125
200000000000000000006600,865.7,1.4726216,8.125
300000000000000000006600,865.7,5.9518456,1.625
300000000000000000006600,865.7,3.0127382,3.25
600000000000000000006600,865.7,2.5095925,-26.8125
400000000000000000006600,865.7,5.270758,3.25
500000000000000000006600,865.7,2.5648158,-17.875
600000000000000000006600,865.7,3.6570103,8.125
700000000000000000006600,865.7,3.9638064,0.0
100000000000000000006600,865.7,0.41724277,-2.4375
300000000000000000006600,865.7,6.0316124,-12.1875
200000000000000000006600,865.7,1.4726216,7.3125
500000000000000000006600,865.7,4.6080785,-0.8125
300000000000000000006600,865.7,2.9268353,12.1875
700000000000000000006600,865.7,3.9453986,-4.875
400000000000000000006600,865.7,5.2462144,4.875
600000000000000000006600,865.7,3.6447384,1.625
500000000000000000006600,865.7,2.6936703,-26.8125
600000000000000000006600,865.7,2.3255148,-20.3125
100000000000000000006600,865.7,0.3926991,0.8125
500000000000000000006600,865.7,4.6080785,1.625
500000000000000000006600,865.7,2.3807383,16.25
700000000000000000006600,865.7,3.742913,8.9375
400000000000000000006600,865.7,5.270758,0.0
200000000000000000006600,865.7,1.5033011,-1.625
600000000000000000006600,865.7,3.6447384,-23.5625
600000000000000000006600,865.7,2.0187187,48.8125
300000000000000000006600,865.7,6.074564,-4.875
300000000000000000006600,865.7,3.02501,5.6875
100000000000000000006600,865.7,0.38656315,-0.8125
500000000000000000006600,865.7,4.6817093,-2.4375
200000000000000000006600,865.7,1.515573,-0.8125
600000000000000000006600,865.7,3.5281558,0.8125
300000000000000000006600,865.7,6.1297874,-0.8125
400000000000000000006600,865.7,5.2278066,4.875
500000000000000000006600,865.7,2.6752625,-27.625
300000000000000000006600,865.7,2.883884,30.875
600000000000000000006600,865.7,2.153709,-7.3125
700000000000000000006600,865.7,2.4911847,3.25
100000000000000000006600,865.7,0.3742913,0.8125
500000000000000000006600,865.7,2.2948353,30.875
200000000000000000006600,865.7,1.4971652,0.0
600000000000000000006600,865.7,3.4667966,1.625
300000000000000000006600,865.7,6.1236515,-13.8125
400000000000000000006600,865.7,5.190991,8.125
500000000000000000006600,865.7,4.6755733,2.4375
700000000000000000006600,865.7,1.8162333,-3.25
300000000000000000006600,865.7,2.951379,-0.8125
600000000000000000006600,865.7,2.3255148,-27.625
100000000000000000006600,865.7,0.38042724,2.4375
200000000000000000006600,865.7,1.4971652,1.625
500000000000000000006600,865.7,4.6633015,8.125
400000000000000000006600,865.7,5.2400784,1.625
600000000000000000006600,865.7,3.436117,6.5
300000000000000000006600,865.7,3.0679617,-17.0625
500000000000000000006600,865.7,2.638447,-26.0
700000000000000000006600,865.7,1.3192235,13.8125
300000000000000000006600,865.7,6.1543307,-2.4375
600000000000000000006600,865.7,2.1721168,3.25
100000000000000000006600,865.7,0.38656315,-0.8125
500000000000000000006600,865.7,4.712389,-0.8125
600000000000000000006600,865.7,3.270447,8.125
400000000000000000006600,865.7,5.2155347,0.8125
200000000000000000006600,865.7,1.4542137,6.5
300000000000000000006600,865.7,3.0740974,-6.5
300000000000000000006600,865.7,6.1359234,18.6875
500000000000000000006600,865.7,2.3561945,26.8125
600000000000000000006600,865.7,2.2825634,9.75
700000000000000000006600,865.7,0.9142526,14.625
200000000000000000006600,865.7,1.4848934,2.4375
100000000000000000006600,865.7,0.38042724,-1.625
500000000000000000006600,865.7,4.693981,1.625
400000000000000000006600,865.7,5.203263,1.625
700000000000000000006600,865.7,0.7731263,1.625
300000000000000000006600,865.7,6.2034183,12.1875
600000000000000000006600,865.7,3.276583,-2.4375
300000000000000000006600,865.7,3.0618258,-10.5625
600000000000000000006600,865.7,2.3623304,-30.875
500000000000000000006600,865.7,2.2948353,36.5625
500000000000000000006600,865.7,4.687845,0.8125
100000000000000000006600,865.7,0.3681554,0.8125
400000000000000000006600,865.7,5.197127,-2.4375
200000000000000000006600,865.7,1.4726216,0.8125
600000000000000000006600,865.7,3.1784081,8.125
700000000000000000006600,865.7,0.53382534,8.9375
300000000000000000006600,865.7,2.9452431,21.125
600000000000000000006600,865.7,2.1782527,-5.6875
500000000000000000006600,865.7,2.4420974,-3.25
300000000000000000006600,865.7,6.209554,22.75
100000000000000000006600,865.7,0.3742913,-2.4375
400000000000000000006600,865.7,5.1541753,6.5
500000000000000000006600,865.7,4.6694374,10.5625
200000000000000000006600,865.7,1.4787575,1.625
300000000000000000006600,865.7,0.05522331,1.625
300000000000000000006600,865.7,3.0495539,-6.5
600000000000000000006600,865.7,3.0679617,6.5
700000000000000000006600,865.7,0.4049709,-6.5
500000000000000000006600,865.7,2.3009713,35.75
600000000000000000006600,865.7,1.9573594,33.3125
200000000000000000006600,865.7,1.4664856,0.8125
100000000000000000006600,865.7,0.3742913,-3.25
500000000000000000006600,865.7,4.724661,-5.6875
400000000000000000006600,865.7,5.166447,0.0
700000000000000000006600,865.7,0.25157285,-3.25
600000000000000000006600,865.7,3.110913,3.25
600000000000000000006600,865.7,2.1598449,17.0625
300000000000000000006600,865.7,2.9022915,8.9375
300000000000000000006600,865.7,0.04295146,12.1875
500000000000000000006600,865.7,2.1230295,44.75
100000000000000000006600,865.7,0.35588354,-0.8125
200000000000000000006600,865.7,1.4726216,0.0
500000000000000000006600,865.7,4.700117,1.625
400000000000000000006600,865.7,5.184855,-6.5
300000000000000000006600,865.7,6.1359234,31.6875
300000000000000000006600,865.7,2.9881945,-6.5
500000000000000000006600,865.7,2.4727771,11.375
600000000000000000006600,865.7,3.02501,0.8125
700000000000000000006600,865.7,0.14112623,7.3125
600000000000000000006600,865.7,2.0555344,31.6875
100000000000000000006600,865.7,0.35588354,0.0
500000000000000000006600,865.7,4.6755733,4.875
400000000000000000006600,865.7,5.0866804,8.125
200000000000000000006600,865.7,1.4235342,3.25
300000000000000000006600,865.7,2.9206994,2.4375
600000000000000000006600,865.7,3.037282,2.4375
300000000000000000006600,865.7,0.05522331,8.9375
700000000000000000006600,865.7,6.2647777,16.25
600000000000000000006600,865.7,2.0862138,7.3125
500000000000000000006600,865.7,2.4605052,5.6875
200000000000000000006600,865.7,1.4726216,-1.625
100000000000000000006600,865.7,0.3436117,0.0
400000000000000000006600,865.7,5.0989523,4.875
600000000000000000006600,865.7,2.0248547,42.3125
500000000000000000006600,865.7,2.5218644,-8.9375
500000000000000000006600,865.7,4.718525,-1.625
600000000000000000006600,865.7,2.9943304,0.8125
300000000000000000006600,865.7,0.2699806,20.3125
300000000000000000006600,865.7,3.0863693,-18.6875
700000000000000000006600,865.7,6.1236515,31.6875
100000000000000000006600,865.7,0.34974763,0.0
600000000000000000006600,865.7,3.031146,-2.4375
400000000000000000006600,865.7,5.105088,6.5
200000000000000000006600,865.7,1.4603497,-0.8125
500000000000000000006600,865.7,4.700117,2.4375
500000000000000000006600,865.7,2.4666412,-10.5625
300000000000000000006600,865.7,2.963651,3.25
300000000000000000006600,865.7,0.09203885,17.0625
700000000000000000006600,865.7,6.234098,0.0
600000000000000000006600,865.7,2.1721168,9.75
100000000000000000006600,865.7,0.33133984,0.8125
500000000000000000006600,865.7,4.693981,1.625
200000000000000000006600,865.7,1.4726216,-3.25
400000000000000000006600,865.7,5.11736,-1.625
600000000000000000006600,865.7,3.0679617,-1.625
300000000000000000006600,865.7,2.951379,4.875
700000000000000000006600,865.7,6.1236515,22.75
500000000000000000006600,865.7,2.7488935,-26.0
600000000000000000006600,865.7,2.0309906,11.375
300000000000000000006600,865.7,0.20862138,-8.125
100000000000000000006600,865.7,0.33133984,1.625
500000000000000000006600,865.7,4.687845,0.8125
300000000000000000006600,865.7,0.319068,-3.25
700000000000000000006600,865.7,6.0070686,13.8125
200000000000000000006600,865.7,1.4296701,3.25
400000000000000000006600,865.7,5.0744085,3.25
600000000000000000006600,865.7,2.9943304,6.5
300000000000000000006600,865.7,2.8163888,21.125
600000000000000000006600,865.7,2.3377867,-20.3125
500000000000000000006600,865.7,2.5709517,-8.9375
100000000000000000006600,865.7,0.33133984,0.0
400000000000000000006600,865.7,5.0928164,-1.625
500000000000000000006600,865.7,4.6633015,1.625
200000000000000000006600,865.7,1.4051265,8.9375
500000000000000000006600,865.7,2.1721168,30.875
600000000000000000006600,865.7,3.0556898,2.4375
700000000000000000006600,865.7,6.0254765,5.6875
300000000000000000006600,865.7,0.3436117,-4.875
300000000000000000006600,865.7,2.8163888,22.75
600000000000000000006600,865.7,1.9205439,52.875
500000000000000000006600,865.7,4.687845,-1.625
100000000000000000006600,865.7,0.33747578,-0.8125
400000000000000000006600,865.7,5.0744085,0.0
200000000000000000006600,865.7,1.4542137,0.8125
700000000000000000006600,865.7,5.933438,1.625
600000000000000000006600,865.7,2.0309906,33.3125
600000000000000000006600,865.7,3.037282,5.6875
300000000000000000006600,865.7,3.0127382,-15.4375
300000000000000000006600,865.7,0.3681554,8.125
500000000000000000006600,865.7,2.4175537,14.625
100000000000000000006600,865.7,0.3436117,-1.625
500000000000000000006600,865.7,4.6510296,4.875
200000000000000000006600,865.7,1.4542137,0.0
400000000000000000006600,865.7,5.037593,4.875
300000000000000000006600,865.7,0.3436117,9.75
600000000000000000006600,865.7,3.1784081,-3.25
700000000000000000006600,865.7,5.908894,-0.8125
300000000000000000006600,865.7,3.0740974,-22.75
600000000000000000006600,865.7,2.3807383,-40.6875
500000000000000000006600,865.7,2.2150683,41.5
100000000000000000006600,865.7,0.319068,1.625
300000000000000000006600,865.7,2.9759228,-0.8125
600000000000000000006600,865.7,3.1538644,2.4375
700000000000000000006600,865.7,5.810719,7.3125
400000000000000000006600,865.7,5.0560007,2.4375
500000000000000000006600,865.7,4.6817093,-4.0625
300000000000000000006600,865.7,0.17180584,44.75
200000000000000000006600,865.7,1.441942,0.0
500000000000000000006600,865.7,2.4359615,5.6875
600000000000000000006600,865.7,2.2027965,18.6875
100000000000000000006600,865.7,0.32520393,0.8125
500000000000000000006600,865.7,4.6633015,0.8125
400000000000000000006600,865.7,5.025321,4.875
200000000000000000006600,865.7,1.4848934,-4.875
600000000000000000006600,865.7,2.0187187,23.5625
300000000000000000006600,865.7,2.8961558,2.4375
600000000000000000006600,865.7,3.043418,4.875
700000000000000000006600,865.7,5.78004,0.0
300000000000000000006600,865.7,0.38042724,13.8125
500000000000000000006600,865.7,2.6016314,-38.1875
500000000000000000006600,865.7,4.6448936,4.0625
100000000000000000006600,865.7,0.32520393,2.4375
400000000000000000006600,865.7,5.025321,5.6875
200000000000000000006600,865.7,1.4051265,5.6875
700000000000000000006600,865.7,5.675729,6.5
300000000000000000006600,865.7,0.478602,-8.125
600000000000000000006600,865.7,1.7855537,52.875
600000000000000000006600,865.7,3.037282,17.875
300000000000000000006600,865.7,2.951379,3.25
500000000000000000006600,865.7,2.3500586,9.75
100000000000000000006600,865.7,0.33133984,1.625
500000000000000000006600,865.7,4.6448936,-0.8125
400000000000000000006600,865.7,5.031457,0.8125
200000000000000000006600,865.7,1.441942,0.0
600000000000000000006600,865.7,1.8960003,36.5625
300000000000000000006600,865.7,0.4233787,6.5
300000000000000000006600,865.7,3.0679617,-8.125
500000000000000000006600,865.7,2.5034566,-0.8125
600000000000000000006600,865.7,3.0863693,20.3125
700000000000000000006600,865.7,5.663457,5.6875
100000000000000000006600,865.7,0.33133984,0.8125
300000000000000000006600,865.7,0.52155346,-5.6875
500000000000000000006600,865.7,4.6203504,2.4375
700000000000000000006600,865.7,5.608234,10.5625
200000000000000000006600,865.7,1.435806,4.875
400000000000000000006600,865.7,5.006913,5.6875
600000000000000000006600,865.7,3.123185,8.9375
300000000000000000006600,865.7,2.9022915,-3.25
600000000000000000006600,865.7,1.9266798,34.9375
500000000000000000006600,865.7,2.4850488,-4.875
400000000000000000006600,865.7,5.031457,1.625
100000000000000000006600,865.7,0.32520393,-0.8125
700000000000000000006600,865.7,5.5468745,8.9375
500000000000000000006600,865.7,4.6142144,2.4375
200000000000000000006600,865.7,1.4296701,0.8125
600000000000000000006600,865.7,3.2274957,4.875
300000000000000000006600,865.7,0.09203885,51.25
600000000000000000006600,865.7,2.2089324,-5.6875
300000000000000000006600,865.7,3.1722722,-39.875
500000000000000000006600,865.7,2.2764275,29.25
500000000000000000006600,865.7,4.5835347,4.0625
100000000000000000006600,865.7,0.319068,1.625
200000000000000000006600,865.7,1.4051265,3.25
400000000000000000006600,865.7,4.9823694,4.875
700000000000000000006600,865.7,5.5346026,-0.8125
600000000000000000006600,865.7,2.2457478,-24.375
300000000000000000006600,865.7,0.52155346,2.4375
600000000000000000006600,865.7,3.270447,-4.875
300000000000000000006600,865.7,2.9206994,6.5
500000000000000000006600,865.7,2.1598449,45.5625
500000000000000000006600,865.7,4.6142144,-1.625
100000000000000000006600,865.7,0.32520393,0.8125
600000000000000000006600,865.7,3.202952,5.6875
200000000000000000006600,865.7,1.435806,1.625
700000000000000000006600,865.7,5.479379,4.875
400000000000000000006600,865.7,4.9946413,3.25
300000000000000000006600,865.7,0.5031457,36.5625
500000000000000000006600,865.7,2.3193789,14.625
600000000000000000006600,865.7,2.080078,23.5625
300000000000000000006600,865.7,2.8163888,20.3125
100000000000000000006600,865.7,0.319068,0.0
500000000000000000006600,865.7,2.4605052,-8.9375
500000000000000000006600,865.7,4.5958066,2.4375
200000000000000000006600,865.7,1.4726216,-4.875
400000000000000000006600,865.7,4.9762335,3.25
300000000000000000006600,865.7,0.5645049,-7.3125
700000000000000000006600,865.7,5.491651,-3.25
600000000000000000006600,865.7,3.282719,0.8125
300000000000000000006600,865.7,2.9759228,-5.6875
600000000000000000006600,865.7,2.0555344,23.5625
100000000000000000006600,865.7,0.31293207,2.4375
400000000000000000006600,865.7,4.9885054,3.25
500000000000000000006600,865.7,4.6080785,-1.625
200000000000000000006600,865.7,1.4480779,-2.4375
700000000000000000006600,865.7,5.4180202,1.625
600000000000000000006600,865.7,3.2090878,12.1875
300000000000000000006600,865.7,2.951379,-2.4375
500000000000000000006600,865.7,2.3623304,11.375
600000000000000000006600,865.7,2.1353014,13.8125
300000000000000000006600,865.7,0.57064086,-7.3125
100000000000000000006600,865.7,0.32520393,-0.8125
400000000000000000006600,865.7,5.006913,0.0
500000000000000000006600,865.7,4.6080785,-2.4375
200000000000000000006600,865.7,1.435806,0.8125
600000000000000000006600,865.7,3.3686218,-8.9375
700000000000000000006600,865.7,5.4057484,0.8125
300000000000000000006600,865.7,3.037282,-12.1875
600000000000000000006600,865.7,2.0064468,34.9375
500000000000000000006600,865.7,2.3193789,18.6875
300000000000000000006600,865.7,0.6442719,-2.4375
100000000000000000006600,865.7,0.31293207,1.625
500000000000000000006600,865.7,2.4359615,-14.625
500000000000000000006600,865.7,4.5896707,-0.8125
700000000000000000006600,865.7,5.332117,9.75
600000000000000000006600,865.7,3.3133986,8.9375
200000000000000000006600,865.7,1.4542137,-2.4375
400000000000000000006600,865.7,4.957826,1.625
300000000000000000006600,865.7,2.9206994,17.0625
600000000000000000006600,865.7,1.9941751,26.0
300000000000000000006600,865.7,0.67495155,-8.9375
100000000000000000006600,865.7,0.31293207,2.4375
200000000000000000006600,865.7,1.4603497,-1.625
500000000000000000006600,865.7,4.577399,0.0
400000000000000000006600,865.7,4.9885054,-0.8125
700000000000000000006600,865.7,5.3934765,-7.3125
300000000000000000006600,865.7,0.558369,22.75
600000000000000000006600,865.7,3.3747578,8.125
300000000000000000006600,865.7,2.9452431,2.4375
500000000000000000006600,865.7,2.4850488,-3.25
600000000000000000006600,865.7,2.1721168,-3.25
100000000000000000006600,865.7,0.319068,1.625
500000000000000000006600,865.7,4.565127,0.8125
400000000000000000006600,865.7,4.95169,2.4375
200000000000000000006600,865.7,1.441942,-1.625
600000000000000000006600,865.7,3.417709,-0.8125
700000000000000000006600,865.7,5.28303,11.375
300000000000000000006600,865.7,0.5276894,-13.8125
300000000000000000006600,865.7,2.969787,-6.5
500000000000000000006600,865.7,2.4973207,-4.875
600000000000000000006600,865.7,1.8898643,57.75
200000000000000000006600,865.7,1.4235342,2.4375
100000000000000000006600,865.7,0.319068,0.0
500000000000000000006600,865.7,4.552855,1.625
400000000000000000006600,865.7,4.9455543,5.6875
700000000000000000006600,865.7,5.3689327,-7.3125
300000000000000000006600,865.7,3.02501,-5.6875
600000000000000000006600,865.7,3.3747578,13.8125
500000000000000000006600,865.7,2.5157285,-17.0625
600000000000000000006600,865.7,2.1659808,8.125
300000000000000000006600,865.7,0.73017484,-36.5625
100000000000000000006600,865.7,0.32520393,0.0
500000000000000000006600,865.7,4.5896707,-2.4375
200000000000000000006600,865.7,1.4051265,3.25
400000000000000000006600,865.7,4.9946413,-0.8125
700000000000000000006600,865.7,5.3014374,7.3125
600000000000000000006600,865.7,3.362486,9.75
300000000000000000006600,865.7,2.963651,-3.25
300000000000000000006600,865.7,0.5276894,22.75
500000000000000000006600,865.7,2.2948353,32.5
600000000000000000006600,865.7,2.1905246,-10.5625
500000000000000000006600,865.7,4.540583,2.4375
100000000000000000006600,865.7,0.31293207,3.25
400000000000000000006600,865.7,4.9700975,1.625
600000000000000000006600,865.7,1.9634954,33.3125
700000000000000000006600,865.7,5.2584863,14.625
200000000000000000006600,865.7,1.4664856,-0.8125
300000000000000000006600,865.7,2.9391072,6.5
500000000000000000006600,865.7,2.313243,17.875
600000000000000000006600,865.7,3.362486,13.8125
300000000000000000006600,865.7,0.41724277,32.5
400000000000000000006600,865.7,4.95169,4.875
100000000000000000006600,865.7,0.31293207,0.8125
500000000000000000006600,865.7,4.552855,-0.8125
200000000000000000006600,865.7,1.4480779,-3.25
300000000000000000006600,865.7,3.0188742,1.625
700000000000000000006600,865.7,5.28303,0.0
600000000000000000006600,865.7,3.3256702,18.6875
600000000000000000006600,865.7,2.3746023,-28.4375
500000000000000000006600,865.7,2.55868,-17.0625
300000000000000000006600,865.7,0.60132045,-20.3125
100000000000000000006600,865.7,0.319068,1.625
500000000000000000006600,865.7,4.552855,2.4375
200000000000000000006600,865.7,1.4480779,0.8125
400000000000000000006600,865.7,4.9700975,2.4375
600000000000000000006600,865.7,3.4483888,-1.625
700000000000000000006600,865.7,5.2523503,10.5625
500000000000000000006600,865.7,2.1905246,54.5
300000000000000000006600,865.7,0.6074564,10.5625
300000000000000000006600,865.7,2.9145634,19.5
600000000000000000006600,865.7,2.0493984,26.8125
100000000000000000006600,865.7,0.33133984,0.0
600000000000000000006600,865.7,3.4054372,7.3125
500000000000000000006600,865.7,4.546719,0.0
200000000000000000006600,865.7,1.4664856,0.8125
400000000000000000006600,865.7,5.037593,-6.5
700000000000000000006600,865.7,5.28303,4.875
300000000000000000006600,865.7,2.9452431,21.125
300000000000000000006600,865.7,0.5890486,11.375
600000000000000000006600,865.7,2.3561945,-25.1875
500000000000000000006600,865.7,2.4175537,-4.875
100000000000000000006600,865.7,0.32520393,2.4375
500000000000000000006600,865.7,4.5283113,2.4375
700000000000000000006600,865.7,5.3137093,1.625
400000000000000000006600,865.7,4.9455543,4.875
300000000000000000006600,865.7,2.89002,27.625
500000000000000000006600,865.7,2.3868742,29.25
200000000000000000006600,865.7,1.4542137,0.8125
600000000000000000006600,865.7,3.3993015,16.25
300000000000000000006600,865.7,0.558369,20.3125
600000000000000000006600,865.7,2.3500586,-17.0625
100000000000000000006600,865.7,0.3436117,-0.8125
500000000000000000006600,865.7,4.5221753,4.875
600000000000000000006600,865.7,3.5649714,-43.9375
400000000000000000006600,865.7,4.9455543,8.125
700000000000000000006600,865.7,5.264622,5.6875
200000000000000000006600,865.7,1.4542137,2.4375
300000000000000000006600,865.7,0.57064086,8.125
600000000000000000006600,865.7,2.080078,19.5
300000000000000000006600,865.7,3.0618258,-22.75
500000000000000000006600,865.7,2.0432625,62.625
500000000000000000006600,865.7,4.5283113,1.625
100000000000000000006600,865.7,0.32520393,0.8125
700000000000000000006600,865.7,5.2584863,33.3125
300000000000000000006600,865.7,2.957515,5.6875
400000000000000000006600,865.7,4.9394183,11.375
200000000000000000006600,865.7,1.4726216,0.0
600000000000000000006600,865.7,2.0187187,32.5
500000000000000000006600,865.7,2.7734373,-30.875
600000000000000000006600,865.7,3.4790685,0.8125
300000000000000000006600,865.7,0.638136,4.875
400000000000000000006600,865.7,4.9823694,5.6875
100000000000000000006600,865.7,0.33747578,0.0
200000000000000000006600,865.7,1.4910294,-1.625
500000000000000000006600,865.7,4.5283113,0.0
700000000000000000006600,865.7,5.325981,4.875
600000000000000000006600,865.7,3.497476,0.8125
300000000000000000006600,865.7,0.5522331,9.75
500000000000000000006600,865.7,2.4175537,3.25
300000000000000000006600,865.7,3.0066023,-17.0625
600000000000000000006600,865.7,2.0493984,8.9375
500000000000000000006600,865.7,4.5221753,1.625
100000000000000000006600,865.7,0.33747578,0.8125
400000000000000000006600,865.7,4.9271464,8.125
200000000000000000006600,865.7,1.4664856,1.625
300000000000000000006600,865.7,2.969787,3.25
700000000000000000006600,865.7,5.295302,17.0625
600000000000000000006600,865.7,2.153709,26.0
600000000000000000006600,865.7,3.675418,-22.75
300000000000000000006600,865.7,0.73017484,-22.75
500000000000000000006600,865.7,2.6936703,-29.25
100000000000000000006600,865.7,0.3436117,0.8125
500000000000000000006600,865.7,4.5221753,0.8125
400000000000000000006600,865.7,4.957826,8.9375
200000000000000000006600,865.7,1.4664856,5.6875
600000000000000000006600,865.7,3.497476,-2.4375
300000000000000000006600,865.7,2.8225245,19.5
700000000000000000006600,865.7,5.5284667,-8.125
600000000000000000006600,865.7,2.1107576,16.25
500000000000000000006600,865.7,2.3930101,17.875
300000000000000000006600,865.7,0.43565056,30.875
100000000000000000006600,865.7,0.3436117,-1.625
200000000000000000006600,865.7,1.5033011,-2.4375
500000000000000000006600,865.7,4.540583,0.8125
400000000000000000006600,865.7,4.9762335,7.3125
600000000000000000006600,865.7,3.5649714,-6.5
500000000000000000006600,865.7,2.6261752,-17.0625
700000000000000000006600,865.7,5.669593,-10.5625
300000000000000000006600,865.7,2.8654761,22.75
600000000000000000006600,865.7,2.4359615,-30.875
300000000000000000006600,865.7,0.59518456,19.5
100000000000000000006600,865.7,0.33133984,2.4375
500000000000000000006600,865.7,4.5283113,4.0625
600000000000000000006600,865.7,3.577243,-2.4375
400000000000000000006600,865.7,4.9885054,2.4375
600000000000000000006600,865.7,2.2948353,-2.4375
200000000000000000006600,865.7,1.4787575,3.25
300000000000000000006600,865.7,3.104777,-8.9375
300000000000000000006600,865.7,0.558369,13.8125
700000000000000000006600,865.7,5.921166,-5.6875
500000000000000000006600,865.7,2.552544,-4.875
100000000000000000006600,865.7,0.3436117,0.8125
500000000000000000006600,865.7,2.3684664,21.125
700000000000000000006600,865.7,5.9641175,9.75
500000000000000000006600,865.7,4.5160394,8.9375
400000000000000000006600,865.7,5.019185,0.0
200000000000000000006600,865.7,1.5278449,-1.625
300000000000000000006600,865.7,3.0066023,4.875
600000000000000000006600,865.7,3.4852045,8.125
300000000000000000006600,865.7,0.47246608,27.625
600000000000000000006600,865.7,2.1905246,-5.6875
100000000000000000006600,865.7,0.3436117,1.625
600000000000000000006600,865.7,3.5404277,9.75
200000000000000000006600,865.7,1.5278449,-0.8125
500000000000000000006600,865.7,4.540583,4.875
400000000000000000006600,865.7,4.9946413,6.5
700000000000000000006600,865.7,6.209554,-5.6875
300000000000000000006600,865.7,2.9820588,-0.8125
600000000000000000006600,865.7,2.2457478,-8.9375
500000000000000000006600,865.7,2.55868,18.6875
300000000000000000006600,865.7,0.6626797,5.6875
100000000000000000006600,865.7,0.33133984,3.25
400000000000000000006600,865.7,4.9946413,4.875
500000000000000000006600,865.7,4.540583,6.5
200000000000000000006600,865.7,1.4971652,1.625
700000000000000000006600,865.7,0.03681554,0.0
300000000000000000006600,865.7,3.0802333,6.5
300000000000000000006600,865.7,0.7608545,-26.0
600000000000000000006600,865.7,3.429981,25.1875
600000000000000000006600,865.7,2.1721168,8.9375
500000000000000000006600,865.7,2.4973207,9.75
500000000000000000006600,865.7,4.571263,0.0
100000000000000000006600,865.7,0.33747578,0.8125
200000000000000000006600,865.7,1.4787575,4.875
400000000000000000006600,865.7,5.049865,-3.25
300000000000000000006600,865.7,2.969787,-4.875
300000000000000000006600,865.7,0.6688156,-22.75
600000000000000000006600,865.7,3.5404277,8.9375
500000000000000000006600,865.7,2.1905246,57.75
700000000000000000006600,865.7,0.49700978,8.9375
600000000000000000006600,865.7,2.5095925,-35.75
100000000000000000006600,865.7,0.3436117,0.0
500000000000000000006600,865.7,4.5283113,5.6875
400000000000000000006600,865.7,4.9946413,6.5
300000000000000000006600,865.7,3.1354568,-20.3125
700000000000000000006600,865.7,0.8651652,13.8125
200000000000000000006600,865.7,1.515573,0.8125
600000000000000000006600,865.7,3.5465636,9.75
300000000000000000006600,865.7,0.79767,7.3125
500000000000000000006600,865.7,2.4911847,-1.625
600000000000000000006600,865.7,2.147573,3.25
100000000000000000006600,865.7,0.319068,0.8125
500000000000000000006600,865.7,4.5099034,5.6875
400000000000000000006600,865.7,4.9823694,4.875
200000000000000000006600,865.7,1.4664856,8.9375
600000000000000000006600,865.7,3.6201947,0.0
600000000000000000006600,865.7,2.2886994,-24.375
300000000000000000006600,865.7,2.951379,-1.625
500000000000000000006600,865.7,2.712078,-43.125
300000000000000000006600,865.7,0.7853982,-8.9375
700000000000000000006600,865.7,1.2640002,33.3125
100000000000000000006600,865.7,0.33133984,-1.625
300000000000000000006600,865.7,2.9943304,-12.1875
500000000000000000006600,865.7,4.4976315,4.875
600000000000000000006600,865.7,3.6386025,-2.4375
300000000000000000006600,865.7,0.9265244,-14.625
200000000000000000006600,865.7,1.4603497,6.5
400000000000000000006600,865.7,4.9332824,8.9375
600000000000000000006600,865.7,2.2764275,-26.8125
500000000000000000006600,865.7,2.4911847,-1.625
700000000000000000006600,865.7,1.6321555,-3.25
100000000000000000006600,865.7,0.319068,0.8125
500000000000000000006600,865.7,4.4853597,6.5
700000000000000000006600,865.7,1.8407769,2.4375
600000000000000000006600,865.7,3.6570103,0.8125
400000000000000000006600,865.7,5.025321,-2.4375
200000000000000000006600,865.7,1.5033011,0.0
300000000000000000006600,865.7,2.9268353,10.5625
500000000000000000006600,865.7,2.3623304,9.75
300000000000000000006600,865.7,0.9019807,-17.875
600000000000000000006600,865.7,2.1782527,-26.0
600000000000000000006600,865.7,3.577243,8.9375
100000000000000000006600,865.7,0.31293207,1.625
400000000000000000006600,865.7,4.9823694,3.25
500000000000000000006600,865.7,4.4853597,0.8125
200000000000000000006600,865.7,1.5401167,-6.5
300000000000000000006600,865.7,0.62586415,44.75
500000000000000000006600,865.7,2.3930101,18.6875
300000000000000000006600,865.7,2.8593402,15.4375
600000000000000000006600,865.7,2.1966605,5.6875
700000000000000000006600,865.7,2.1782527,-37.375
100000000000000000006600,865.7,0.30066022,1.625
500000000000000000006600,865.7,4.466952,4.875
400000000000000000006600,865.7,4.9455543,8.125
200000000000000000006600,865.7,1.4848934,6.5
300000000000000000006600,865.7,1.0615147,-20.3125
300000000000000000006600,865.7,2.89002,2.4375
600000000000000000006600,865.7,3.6079228,3.25
500000000000000000006600,865.7,2.4420974,15.4375
600000000000000000006600,865.7,1.9880391,17.875
700000000000000000006600,865.7,2.0493984,-9.75
100000000000000000006600,865.7,0.2945243,1.625
500000000000000000006600,865.7,4.460816,4.0625
200000000000000000006600,865.7,1.5278449,0.0
400000000000000000006600,865.7,5.0007772,0.8125
600000000000000000006600,865.7,3.5220199,8.9375
300000000000000000006600,865.7,2.8409324,10.5625
700000000000000000006600,865.7,2.1966605,17.875
600000000000000000006600,865.7,2.4052818,-32.5
500000000000000000006600,865.7,2.4420974,4.875
300000000000000000006600,865.7,0.88357294,11.375
500000000000000000006600,865.7,4.4240007,4.875
100000000000000000006600,865.7,0.30066022,1.625
200000000000000000006600,865.7,1.5462526,17.0625
400000000000000000006600,865.7,5.013049,4.875
600000000000000000006600,865.7,3.515884,5.6875
300000000000000000006600,865.7,0.88357294,3.25
700000000000000000006600,865.7,2.2273402,19.5
300000000000000000006600,865.7,2.797981,7.3125
500000000000000000006600,865.7,2.478913,20.3125
600000000000000000006600,865.7,2.067806,16.25
100000000000000000006600,865.7,0.319068,-0.8125
500000000000000000006600,865.7,4.4240007,2.4375
200000000000000000006600,865.7,1.59534,2.4375
700000000000000000006600,865.7,2.6261752,-19.5
300000000000000000006600,865.7,2.8286605,4.875
400000000000000000006600,865.7,5.0560007,1.625
600000000000000000006600,865.7,3.4852045,3.25
600000000000000000006600,865.7,1.8530488,48.8125
500000000000000000006600,865.7,2.4605052,-0.8125
300000000000000000006600,865.7,0.8222137,10.5625
100000000000000000006600,865.7,0.32520393,1.625
400000000000000000006600,865.7,5.0682726,3.25
500000000000000000006600,865.7,4.399457,1.625
600000000000000000006600,865.7,3.4913402,4.875
200000000000000000006600,865.7,1.681243,-0.8125
300000000000000000006600,865.7,0.8099418,-0.8125
300000000000000000006600,865.7,2.969787,-8.125
500000000000000000006600,865.7,2.4420974,7.3125
600000000000000000006600,865.7,1.9880391,-1.625
700000000000000000006600,865.7,2.7550294,-7.3125
100000000000000000006600,865.7,0.33747578,0.8125
600000000000000000006600,865.7,3.4545248,8.125
500000000000000000006600,865.7,4.411729,0.0
600000000000000000006600,865.7,2.1107576,6.5
400000000000000000006600,865.7,5.105088,2.4375
300000000000000000006600,865.7,0.7363108,26.8125
200000000000000000006600,865.7,1.748738,-4.875
500000000000000000006600,865.7,2.5280004,-5.6875
700000000000000000006600,865.7,3.0556898,-48.8125
300000000000000000006600,865.7,2.963651,-5.6875
600000000000000000006600,865.7,2.153709,1.625
100000000000000000006600,865.7,0.34974763,0.8125
500000000000000000006600,865.7,4.3503695,4.875
300000000000000000006600,865.7,0.9510681,1.625
200000000000000000006600,865.7,1.7303303,8.125
400000000000000000006600,865.7,5.178719,-1.625
600000000000000000006600,865.7,3.5281558,8.125
700000000000000000006600,865.7,2.8286605,6.5
300000000000000000006600,865.7,2.9145634,3.25
500000000000000000006600,865.7,2.5464082,-13.8125
100000000000000000006600,865.7,0.34974763,1.625
600000000000000000006600,865.7,3.5220199,8.125
400000000000000000006600,865.7,5.1541753,5.6875
300000000000000000006600,865.7,0.957204,-0.8125
500000000000000000006600,865.7,4.3319616,4.0625
200000000000000000006600,865.7,1.8469129,8.125
500000000000000000006600,865.7,2.55868,-8.125
600000000000000000006600,865.7,2.000311,16.25
300000000000000000006600,865.7,2.8593402,21.125
100000000000000000006600,865.7,0.3742913,-0.8125
500000000000000000006600,865.7,4.3442335,-1.625
600000000000000000006600,865.7,3.6508744,2.4375
600000000000000000006600,865.7,1.9205439,17.875
400000000000000000006600,865.7,5.0682726,2.4375
200000000000000000006600,865.7,2.0309906,1.625
300000000000000000006600,865.7,0.7669904,9.75
300000000000000000006600,865.7,2.9268353,0.0
500000000000000000006600,865.7,2.5954955,-18.6875
100000000000000000006600,865.7,0.38656315,0.8125
600000000000000000006600,865.7,1.8960003,45.5625
200000000000000000006600,865.7,2.06167,10.5625
500000000000000000006600,865.7,4.2767386,0.0
300000000000000000006600,865.7,3.043418,-15.4375
300000000000000000006600,865.7,0.6810875,5.6875
600000000000000000006600,865.7,3.669282,3.25
400000000000000000006600,865.7,4.9639616,4.875
500000000000000000006600,865.7,2.4052818,30.875
100000000000000000006600,865.7,0.3926991,1.625
200000000000000000006600,865.7,2.1353014,10.5625
300000000000000000006600,865.7,0.5767768,-1.625
500000000000000000006600,865.7,4.221515,2.4375
300000000000000000006600,865.7,2.957515,6.5
600000000000000000006600,865.7,3.6815538,2.4375
400000000000000000006600,865.7,4.9087386,-1.625
500000000000000000006600,865.7,2.4850488,8.125
600000000000000000006600,865.7,2.0125828,-1.625
500000000000000000006600,865.7,4.1908355,-2.4375
100000000000000000006600,865.7,0.42951462,-2.4375
200000000000000000006600,865.7,2.2212043,12.1875
600000000000000000006600,865.7,3.6263306,8.9375
400000000000000000006600,865.7,4.7860203,-1.625
600000000000000000006600,865.7,1.9266798,23.5625
300000000000000000006600,865.7,0.2945243,10.5625
300000000000000000006600,865.7,2.9145634,15.4375
500000000000000000006600,865.7,2.4420974,17.875
500000000000000000006600,865.7,4.135612,0.0
100000000000000000006600,865.7,0.44178647,1.625
400000000000000000006600,865.7,4.712389,-7.3125
600000000000000000006600,865.7,3.6386025,5.6875
200000000000000000006600,865.7,2.1843886,22.75
300000000000000000006600,865.7,0.21475731,2.4375
300000000000000000006600,865.7,2.963651,-6.5
600000000000000000006600,865.7,1.8775924,36.5625
500000000000000000006600,865.7,2.6813984,-1.625
100000000000000000006600,865.7,0.478602,0.0
400000000000000000006600,865.7,4.6755733,-11.375
300000000000000000006600,865.7,0.1349903,3.25
500000000000000000006600,865.7,4.086525,0.8125
600000000000000000006600,865.7,3.6386025,6.5
200000000000000000006600,865.7,2.0064468,11.375
600000000000000000006600,865.7,1.7241944,46.375
300000000000000000006600,865.7,3.0004663,2.4375
500000000000000000006600,865.7,2.4727771,8.9375
500000000000000000006600,865.7,4.104933,-2.4375
100000000000000000006600,865.7,0.50928164,1.625
400000000000000000006600,865.7,4.571263,-4.875
600000000000000000006600,865.7,3.7183695,-11.375
200000000000000000006600,865.7,1.9573594,1.625
300000000000000000006600,865.7,2.969787,4.875
300000000000000000006600,865.7,6.2709136,15.4375
600000000000000000006600,865.7,2.0064468,5.6875
500000000000000000006600,865.7,2.55868,9.75
100000000000000000006600,865.7,0.52155346,0.0
500000000000000000006600,865.7,4.098797,-2.4375
200000000000000000006600,865.7,1.754874,8.125
400000000000000000006600,865.7,4.5283113,0.0
600000000000000000006600,865.7,3.742913,-3.25
300000000000000000006600,865.7,3.0127382,-3.25
300000000000000000006600,865.7,0.23316509,-12.1875
500000000000000000006600,865.7,2.478913,4.875
600000000000000000006600,865.7,1.9696313,18.6875
100000000000000000006600,865.7,0.5154175,-0.8125
600000000000000000006600,865.7,1.7978255,42.3125
500000000000000000006600,865.7,4.12334,-1.625
200000000000000000006600,865.7,1.6321555,7.3125
500000000000000000006600,865.7,2.4482334,8.9375
400000000000000000006600,865.7,4.558991,0.0
600000000000000000006600,865.7,3.7613208,5.6875
300000000000000000006600,865.7,2.9820588,-24.375
300000000000000000006600,865.7,0.5399612,-3.25
100000000000000000006600,865.7,0.47246608,0.0
200000000000000000006600,865.7,1.5462526,0.8125
400000000000000000006600,865.7,4.5896707,2.4375
500000000000000000006600,865.7,4.15402,-2.4375
