-42.5,4.01902966426038,0.0
-42.5,4.049709280018092,-3.25
-42.5,4.0558452031696355,-5.6875
-42.5,4.04357335686655,0.0
-43.0,4.031301510563465,-2.4375
-43.0,4.0128937411088375,-5.6875
-43.0,3.9453985864418692,-0.8125
-43.0,3.9515345095934116,-0.8125
-43.5,3.9760782021995817,-6.5
-43.0,3.933126740138784,1.625
-43.0,3.9699422790480394,-5.6875
-43.0,3.9392626632903265,0.0
-43.5,3.9453985864418692,-3.25
-43.0,3.933126740138784,-6.5
-43.5,3.8963112012295285,-4.875
-43.0,3.8717675086233583,-2.4375
-43.0,3.865631585471816,-1.625
-43.0,3.847223816017188,0.8125
-43.0,3.890175278077986,-4.875
-42.5,3.890175278077986,-2.4375
-42.5,3.933126740138784,-7.3125
-42.5,3.9147189706841563,-5.6875
-42.5,3.877903431774901,0.8125
-42.5,3.890175278077986,-7.3125
-42.5,3.834951969714103,-2.4375
-42.5,3.8963112012295285,0.0
-42.5,3.9269908169872414,1.625
-42.0,3.9822141253511245,-2.4375
-42.0,4.006757817957295,-1.625
-42.0,4.074252972624263,-4.875
-42.0,4.104932588381976,-4.875
-42.0,4.09266074207889,-1.625
-41.5,4.129476280988146,-0.8125
-42.0,4.172427743048944,-5.6875
-41.5,4.178563666200486,0.0
-42.0,4.2031073588066565,-1.625
-41.5,4.270602513473625,-0.8125
-41.5,4.295146206079795,-0.8125
-41.5,4.356505437595221,-5.6875
-42.0,4.356505437595221,-0.8125
-41.5,4.430136515413731,0.8125
-41.5,4.466952054322987,1.625
-41.5,4.516039439535327,-3.25
-42.0,4.546719055293041,-2.4375
-41.5,4.577398671050753,0.8125
-41.5,4.583534594202296,5.6875
-42.5,4.681709364626977,-4.875
-42.0,4.724660826687775,-1.625
-41.5,4.755340442445488,0.0
-41.5,4.804427827657828,0.0
-41.5,4.828971520263998,0.8125
-41.5,4.865787059173254,3.25
-41.0,4.902602598082509,4.875
-41.0,4.9394181369917645,0.8125
-41.0,4.963961829597935,0.8125
-41.0,4.970097752749477,1.625
-41.0,4.994641445355648,0.0
-41.0,5.013049214810275,1.625
-41.0,5.013049214810275,2.4375
