-66.0,3.172272269347506,-46.375
-65.5,3.117048960983623,8.9375
-66.0,3.8717675086233583,-34.9375
-63.0,3.018874190558942,79.75
-66.0,3.663146121470911,-14.625
-64.5,3.773592738198677,-27.625
-66.0,3.497476196379262,10.5625
-65.0,3.4606606574700063,16.25
-66.5,3.147728576741336,-19.5
-65.0,3.1968159619536762,-9.75
-65.5,2.6998061866787286,48.8125
-64.0,3.4913402732277192,-10.5625
-65.5,2.8654761117703775,69.9375
-65.5,3.393165502803038,41.5
-64.0,2.8838838812250054,36.5625
-65.0,2.9820586516496865,15.4375
-65.5,3.11091303783208,-21.125
-64.0,3.0066023442558567,1.625
-63.5,2.1659808724945253,12.1875
-64.5,2.1598449493429825,27.625
-64.5,2.2089323345553233,34.125
-65.0,2.1353012567368124,-9.75
-64.0,2.5341362615870793,-13.0
-62.0,2.435961491162398,19.5
-62.0,1.6444274046134073,129.375
-65.0,2.5034566458293663,9.75
-63.5,2.5280003384355365,8.125
-63.5,1.9266798695843652,52.875
-64.5,2.386874105950058,-34.9375
-64.5,2.4727770300716534,-4.875
-64.5,2.1966604882522383,10.5625
-62.5,1.8960002538266525,27.625
-65.0,2.12916533358527,-8.125
-64.5,2.073942025221387,9.75
-65.5,1.9205439464328227,-9.75
