-35.5,0.3129320807286708,2.4375
-35.5,0.3190680038802134,1.625
-35.5,0.3190680038802134,2.4375
-35.5,0.30679615757712825,3.25
-35.5,0.3190680038802134,0.0
-35.5,0.32520392703175593,0.8125
-35.5,0.30066023442558565,0.8125
-35.5,0.28225246497095796,3.25
-35.5,0.2945243112740431,0.0
-35.5,0.2638446955163303,3.25
-35.5,0.2699806186678728,0.0
-36.0,0.25157284921324513,1.625
-36.0,0.23316507975861744,2.4375
-35.5,0.23930100291016002,0.0
-36.0,0.2270291566070749,1.625
-36.0,0.23930100291016002,0.8125
-36.0,0.2270291566070749,1.625
-36.0,0.2270291566070749,3.25
-36.0,0.23316507975861744,5.6875
-35.5,0.23930100291016002,1.625
-35.5,0.2454369260617026,0.8125
-36.0,0.2638446955163303,-0.8125
-36.0,0.2270291566070749,3.25
-35.5,0.23930100291016002,0.8125
-35.5,0.23316507975861744,0.0
-35.5,0.2270291566070749,2.4375
-35.5,0.23930100291016002,2.4375
-35.5,0.25157284921324513,1.625
-35.5,0.2699806186678728,1.625
-35.5,0.28225246497095796,0.8125
-35.5,0.2761165418194154,2.4375
-35.5,0.28838838812250056,1.625
-35.5,0.2945243112740431,0.8125
-35.5,0.28838838812250056,0.8125
-35.5,0.28838838812250056,0.0
-35.5,0.28838838812250056,0.0
-36.0,0.2699806186678728,3.25
-35.5,0.2638446955163303,0.8125
-36.0,0.25770877236478773,1.625
-35.5,0.25770877236478773,0.0
-35.5,0.23930100291016002,3.25
-35.5,0.2454369260617026,1.625
-35.5,0.2454369260617026,1.625
-35.5,0.25770877236478773,0.8125
-35.5,0.25157284921324513,3.25
-35.5,0.2699806186678728,0.8125
-35.5,0.2699806186678728,1.625
-35.5,0.2761165418194154,1.625
-35.5,0.28838838812250056,0.8125
-35.5,0.28838838812250056,0.8125
-35.5,0.30066023442558565,0.8125
-35.5,0.2945243112740431,2.4375
-35.5,0.2945243112740431,3.25
-35.5,0.30679615757712825,2.4375
-35.5,0.2945243112740431,2.4375
-35.5,0.2945243112740431,2.4375
-35.0,0.30066023442558565,0.8125
-35.5,0.30066023442558565,3.25
-35.0,0.28838838812250056,3.25
-35.5,0.30066023442558565,2.4375
-35.0,0.32520392703175593,-0.8125
-35.0,0.3190680038802134,1.625
-35.0,0.3129320807286708,0.8125
-35.5,0.3129320807286708,3.25
-35.5,0.3129320807286708,2.4375
-35.0,0.3190680038802134,0.8125
-35.5,0.3190680038802134,3.25
-35.0,0.3190680038802134,2.4375
-35.0,0.3313398501832985,0.0
-35.0,0.3374757733348411,-0.8125
-35.0,0.3374757733348411,1.625
-35.0,0.3313398501832985,3.25
-35.0,0.3313398501832985,4.875
-35.0,0.34974761963792617,0.0
-35.0,0.35588354278946877,0.0
-35.0,0.35588354278946877,1.625
-35.0,0.37429131224409645,1.625
-35.0,0.3988350048502667,-0.8125
-35.0,0.4049709280018093,1.625
-35.0,0.4172427743048944,1.625
-35.0,0.4356505437595221,1.625
-35.0,0.46019423636569234,0.0
-35.0,0.4724660826687775,1.625
-35.5,0.4908738521234052,1.625
-35.0,0.5154175447295755,0.8125
-35.0,0.4970097752749477,3.25
-35.0,0.5276893910326605,1.625
-35.0,0.521553467881118,3.25
-35.0,0.5338253141842031,1.625
-35.0,0.5399612373357456,2.4375
-35.5,0.5460971604872883,2.4375
-35.0,0.5460971604872883,2.4375
-35.0,0.5338253141842031,4.875
-35.0,0.5276893910326605,5.6875
-35.0,0.5399612373357456,0.8125
-35.0,0.5399612373357456,-0.8125
-35.0,0.5276893910326605,1.625
-35.0,0.5092816215780329,2.4375
-35.0,0.5092816215780329,0.8125
-35.0,0.5031456984264903,1.625
-35.0,0.4908738521234052,2.4375
-35.0,0.4908738521234052,0.8125
-34.5,0.48473792897186263,1.625
-34.5,0.47860200582032003,2.4375
-34.5,0.48473792897186263,0.8125
-34.5,0.4908738521234052,0.8125
-34.5,0.4970097752749477,1.625
-34.5,0.5031456984264903,1.625
-34.5,0.5031456984264903,2.4375
-34.5,0.5338253141842031,1.625
-34.5,0.5338253141842031,3.25
-34.5,0.5460971604872883,3.25
-34.5,0.5706408530934585,2.4375
-34.5,0.5890486225480862,1.625
-34.5,0.5951845456996288,3.25
-34.5,0.619728238305799,3.25
-34.0,0.6442719309119693,4.875
-33.5,0.6872233929727672,0.8125
-33.0,0.5829126993965437,3.25
-32.5,0.521553467881118,2.4375
-32.5,0.5092816215780329,3.25
-32.5,0.5092816215780329,1.625
-32.5,0.5031456984264903,0.8125
-32.5,0.5092816215780329,0.8125
-32.5,0.4970097752749477,2.4375
-32.5,0.5092816215780329,-0.8125
-32.0,0.5092816215780329,0.0
-32.5,0.4908738521234052,1.625
-32.5,0.4970097752749477,1.625
-32.5,0.47860200582032003,3.25
-32.5,0.4908738521234052,2.4375
-32.5,0.5092816215780329,-0.8125
-32.5,0.5031456984264903,-0.8125
-32.5,0.4970097752749477,0.8125
-32.5,0.48473792897186263,0.8125
-32.5,0.4908738521234052,0.0
-32.0,0.4724660826687775,2.4375
-32.5,0.48473792897186263,0.0
-32.5,0.47860200582032003,0.8125
-32.0,0.48473792897186263,-0.8125
-32.5,0.47860200582032003,0.0
-32.5,0.4663301595172349,1.625
-32.5,0.4663301595172349,2.4375
-32.5,0.47860200582032003,0.0
-32.0,0.48473792897186263,-1.625
-32.0,0.47860200582032003,-0.8125
-32.5,0.4479223900626072,0.0
-32.5,0.42337869745643697,0.8125
-32.5,0.4295146206079795,0.0
-33.0,0.42337869745643697,1.625
-33.0,0.42337869745643697,2.4375
-33.0,0.42337869745643697,2.4375
-33.0,0.4356505437595221,0.8125
-33.0,0.44178646691106466,1.625
-33.0,0.44178646691106466,1.625
-33.0,0.4356505437595221,2.4375
-33.0,0.44178646691106466,3.25
-33.0,0.4479223900626072,1.625
-33.0,0.4540583132141498,0.0
-33.0,0.4479223900626072,2.4375
-33.0,0.46019423636569234,0.0
-33.0,0.4479223900626072,0.8125
-33.0,0.4540583132141498,1.625
-33.0,0.46019423636569234,2.4375
-33.0,0.4663301595172349,1.625
-33.0,0.4663301595172349,1.625
-33.0,0.46019423636569234,3.25
-33.0,0.4908738521234052,-0.8125
-33.0,0.4908738521234052,0.0
-33.0,0.4908738521234052,1.625
-33.0,0.48473792897186263,3.25
-33.0,0.4908738521234052,2.4375
-33.0,0.5031456984264903,2.4375
-33.0,0.5092816215780329,1.625
-33.0,0.5276893910326605,0.0
-33.0,0.5154175447295755,3.25
-33.0,0.5276893910326605,1.625
-33.0,0.5276893910326605,4.875
-33.0,0.5399612373357456,2.4375
-33.0,0.5460971604872883,4.875
-33.5,0.5706408530934585,2.4375
-33.0,0.5890486225480862,0.0
-33.0,0.5890486225480862,2.4375
-33.5,0.5951845456996288,1.625
-33.0,0.6013204688511713,2.4375
-33.5,0.5951845456996288,3.25
-33.5,0.6135923151542565,3.25
-33.5,0.6258641614573416,2.4375
-33.5,0.6320000846088841,1.625
-33.5,0.6258641614573416,5.6875
-33.5,0.6442719309119693,4.875
-33.5,0.6810874698212247,-0.8125
-33.5,0.6872233929727672,-0.8125
-33.5,0.6994952392758523,0.0
-34.0,0.6872233929727672,1.625
-34.0,0.7179030087304801,-1.625
-34.0,0.7485826244881929,0.8125
-34.5,0.7547185476397354,0.8125
-34.5,0.7669903939428205,0.8125
-34.5,0.7853981633974483,1.625
-34.5,0.7915340865489908,0.8125
-34.5,0.7976700097005334,0.0
-34.5,0.7853981633974483,2.4375
-34.5,0.7915340865489908,0.0
-34.5,0.7792622402459057,1.625
-34.5,0.7792622402459057,0.0
-34.5,0.760854470791278,3.25
-34.5,0.7792622402459057,0.8125
-34.5,0.7853981633974483,-0.8125
-34.5,0.760854470791278,2.4375
-35.0,0.7792622402459057,-0.8125
-34.5,0.760854470791278,0.0
-34.5,0.7547185476397354,0.8125
-34.5,0.7424467013366504,3.25
-34.5,0.7485826244881929,1.625
-34.5,0.7547185476397354,1.625
-34.5,0.7547185476397354,0.0
-35.0,0.7424467013366504,1.625
-34.5,0.7424467013366504,0.8125
-34.5,0.7363107781851077,2.4375
-34.5,0.7547185476397354,0.0
-34.5,0.7424467013366504,1.625
-34.5,0.7547185476397354,0.0
-34.5,0.7547185476397354,1.625
-34.5,0.760854470791278,0.8125
-35.0,0.7669903939428205,0.8125
-34.5,0.7669903939428205,0.8125
-34.5,0.760854470791278,1.625
-35.0,0.7669903939428205,1.625
-34.5,0.760854470791278,1.625
-34.5,0.7669903939428205,1.625
-34.5,0.7853981633974483,0.0
-34.5,0.7853981633974483,-0.8125
-34.5,0.7792622402459057,0.8125
-34.5,0.7669903939428205,2.4375
-34.5,0.7792622402459057,0.0
-34.5,0.7669903939428205,-0.8125
-34.5,0.7485826244881929,2.4375
-34.5,0.7485826244881929,1.625
-34.5,0.7485826244881929,1.625
-34.5,0.7363107781851077,2.4375
-34.5,0.7363107781851077,2.4375
-34.5,0.7363107781851077,0.8125
-34.5,0.7301748550335652,2.4375
-34.5,0.7363107781851077,0.0
-34.5,0.7179030087304801,3.25
-34.0,0.7301748550335652,0.0
-34.5,0.7424467013366504,0.0
-34.5,0.7301748550335652,0.8125
-34.5,0.7117670855789375,3.25
-34.0,0.7117670855789375,2.4375
-34.0,0.7240389318820226,0.0
-34.5,0.7240389318820226,0.8125
-34.0,0.7240389318820226,1.625
-34.5,0.7424467013366504,-0.8125
-34.5,0.7424467013366504,0.8125
-34.5,0.7424467013366504,2.4375
-34.5,0.7424467013366504,2.4375
-34.5,0.7485826244881929,1.625
-34.0,0.7485826244881929,2.4375
-34.0,0.7547185476397354,0.8125
-34.0,0.760854470791278,0.0
-34.0,0.7669903939428205,0.0
-34.0,0.7485826244881929,4.875
-34.0,0.760854470791278,0.8125
-34.0,0.7424467013366504,2.4375
-34.0,0.760854470791278,0.8125
-34.0,0.7485826244881929,2.4375
-34.0,0.7485826244881929,1.625
-34.0,0.7363107781851077,1.625
-34.0,0.7424467013366504,0.8125
-34.0,0.7363107781851077,1.625
-33.5,0.7301748550335652,3.25
-34.0,0.7363107781851077,2.4375
-33.5,0.7179030087304801,4.875
-33.5,0.7363107781851077,1.625
-34.0,0.7363107781851077,0.8125
-33.5,0.7301748550335652,1.625
-34.0,0.7240389318820226,3.25
-33.5,0.7424467013366504,2.4375
-33.5,0.7485826244881929,0.8125
-33.5,0.7485826244881929,1.625
-33.5,0.7485826244881929,0.0
-33.5,0.7363107781851077,0.0
-33.5,0.7301748550335652,1.625
-33.5,0.7179030087304801,3.25
-33.5,0.7240389318820226,2.4375
-33.0,0.7240389318820226,2.4375
-33.0,0.7301748550335652,0.8125
-33.5,0.7301748550335652,0.8125
-33.0,0.7301748550335652,1.625
-33.0,0.7547185476397354,-2.4375
-33.0,0.7240389318820226,1.625
-33.0,0.7179030087304801,3.25
-33.0,0.7179030087304801,2.4375
-33.0,0.7179030087304801,3.25
-33.0,0.7363107781851077,1.625
-33.0,0.7363107781851077,0.0
-33.0,0.7424467013366504,0.8125
-33.0,0.7424467013366504,1.625
-33.0,0.7547185476397354,1.625
-33.0,0.7669903939428205,0.8125
-33.0,0.7792622402459057,0.0
-33.0,0.7792622402459057,0.8125
-33.0,0.7853981633974483,0.8125
-33.0,0.7792622402459057,2.4375
-33.0,0.7731263170943632,1.625
-33.0,0.7731263170943632,0.8125
-33.0,0.7731263170943632,0.8125
-33.0,0.7669903939428205,1.625
-33.0,0.760854470791278,2.4375
-33.0,0.7731263170943632,1.625
-33.0,0.7669903939428205,2.4375
-33.0,0.7792622402459057,1.625
-33.0,0.7731263170943632,1.625
-33.0,0.7731263170943632,1.625
-33.0,0.760854470791278,2.4375
-33.0,0.7669903939428205,2.4375
-33.0,0.7731263170943632,3.25
-32.5,0.7792622402459057,3.25
-33.0,0.7853981633974483,2.4375
-32.5,0.7915340865489908,1.625
-33.0,0.8099418560036186,1.625
-33.0,0.7915340865489908,1.625
-33.0,0.7424467013366504,6.5
-33.0,0.760854470791278,2.4375
-32.5,0.7547185476397354,1.625
-33.0,0.7547185476397354,4.875
-32.5,0.7485826244881929,5.6875
-33.0,0.760854470791278,1.625
-33.0,0.7547185476397354,4.875
-32.5,0.7669903939428205,2.4375
-33.0,0.7669903939428205,3.25
-32.5,0.7792622402459057,0.0
-33.0,0.7669903939428205,1.625
-32.5,0.7669903939428205,1.625
-33.0,0.7669903939428205,2.4375
-32.5,0.760854470791278,2.4375
-32.5,0.7669903939428205,3.25
-32.5,0.7976700097005334,-0.8125
-32.5,0.7915340865489908,1.625
-32.5,0.7976700097005334,1.625
-32.5,0.8160777791551611,1.625
-32.5,0.8467573949128739,0.8125
-33.0,0.8528933180644165,2.4375
-32.5,0.9203884727313847,0.0
-32.5,0.944932165337555,2.4375
-33.0,0.9940195505498954,3.25
-33.0,1.0737865515199487,4.875
-33.0,1.1474176293384597,0.8125
-33.0,1.2026409377023426,0.0
-33.0,1.239456476611598,1.625
-33.0,1.2701360923693108,5.6875
-33.0,1.2517283229146832,2.4375
-33.0,1.184233168247715,4.875
-33.5,1.1596894756415448,3.25
-34.0,1.141281706186917,3.25
-34.0,1.1474176293384597,4.875
-33.5,1.1228739367322893,2.4375
-33.5,1.000155473701438,1.625
-33.5,0.803805932852076,-0.8125
-33.5,0.5460971604872883,1.625
-34.0,0.4172427743048944,1.625
-34.5,0.3374757733348411,0.8125
-35.5,0.30066023442558565,3.25
-36.0,0.3313398501832985,0.8125
-36.0,0.34974761963792617,2.4375
-36.0,0.36815538909255385,0.0
-35.5,0.3313398501832985,0.0
-35.5,0.3129320807286708,0.8125
-36.0,0.25770877236478773,0.8125
-36.0,0.2454369260617026,0.0
-36.5,0.2454369260617026,0.8125
-36.5,0.28838838812250056,2.4375
-36.5,0.34974761963792617,0.8125
-36.5,0.380427235395639,4.875
-36.5,0.4295146206079795,0.8125
-36.0,0.46019423636569234,0.8125
-36.0,0.4295146206079795,4.875
-35.5,0.4295146206079795,1.625
-35.5,0.4049709280018093,1.625
-35.5,0.36815538909255385,3.25
-35.5,0.34974761963792617,4.875
-35.5,0.3620194659410113,2.4375
-36.0,0.36815538909255385,1.625
-36.0,0.380427235395639,2.4375
-36.0,0.4049709280018093,0.8125
-36.0,0.4049709280018093,0.8125
-36.0,0.3988350048502667,0.8125
-36.5,0.2945243112740431,1.625
-36.5,0.30066023442558565,1.625
-36.5,0.30066023442558565,4.875
-36.5,0.3374757733348411,0.8125
-36.5,0.34974761963792617,1.625
-36.5,0.3865631585471816,0.0
-36.5,0.3865631585471816,1.625
-36.0,0.4049709280018093,0.8125
-36.0,0.4111068511533518,2.4375
-36.0,0.42337869745643697,1.625
-36.0,0.4172427743048944,1.625
-36.0,0.42337869745643697,1.625
-35.5,0.4295146206079795,0.0
-35.5,0.4172427743048944,0.8125
-35.5,0.39269908169872414,4.875
-35.5,0.4049709280018093,0.8125
-35.5,0.4049709280018093,0.0
-35.5,0.380427235395639,1.625
-35.5,0.3988350048502667,-1.625
-35.5,0.36815538909255385,2.4375
-35.5,0.37429131224409645,0.0
-35.5,0.3620194659410113,0.8125
-35.5,0.37429131224409645,-0.8125
-36.0,0.3620194659410113,0.8125
-36.0,0.36815538909255385,0.0
-35.5,0.37429131224409645,0.0
-35.5,0.380427235395639,-0.8125
-36.0,0.37429131224409645,2.4375
-36.0,0.3865631585471816,0.8125
-36.0,0.3865631585471816,1.625
-36.0,0.39269908169872414,0.8125
-35.5,0.4111068511533518,-1.625
-36.0,0.3988350048502667,0.8125
-35.5,0.4049709280018093,-0.8125
-36.0,0.4049709280018093,0.0
-35.5,0.39269908169872414,1.625
-35.5,0.3988350048502667,0.8125
-35.5,0.4049709280018093,-0.8125
-35.5,0.3988350048502667,-1.625
-35.5,0.37429131224409645,1.625
-35.5,0.37429131224409645,0.8125
-35.5,0.36815538909255385,0.8125
-35.5,0.34974761963792617,0.8125
-35.5,0.3374757733348411,2.4375
-35.5,0.3374757733348411,1.625
-35.5,0.3374757733348411,-0.8125
-35.5,0.3129320807286708,1.625
-35.5,0.3190680038802134,0.8125
-35.5,0.3129320807286708,0.8125
-35.5,0.30066023442558565,2.4375
-35.5,0.28838838812250056,0.8125
