-38.0,0.0,5.6875
-46.0,-0.26384469551633016,10.5625
-47.0,0.3436116964863837,1.625
-35.5,1.6076118657041518,1.625
-40.0,3.0863693452259104,8.125
-46.5,-4.387185053352934,-1.625
-45.5,-0.816077779155161,5.6875
-47.5,2.3439226438892593,-10.5625
-54.0,1.5892040962495244,0.8125
-56.0,1.3314953238847362,20.3125
-36.0,-3.1477285767413354,2.4375
-38.0,-1.6812429435226626,4.875
-47.0,0.3497476196379261,2.4375
-40.0,4.479223900626072,0.8125
-47.0,-4.71238898038469,-6.5
-47.5,1.681242943522663,8.9375
-54.5,1.736466251886546,-8.9375
-45.5,-3.908583047532614,-2.4375
-46.5,0.2024854640009046,-0.8125
-55.5,5.105088062083414,-17.0625
-46.5,-5.160311370447297,7.3125
-55.0,3.6508742751678263,15.4375
-47.5,-1.5339807878856413,-6.5
-38.0,-1.8530487917658547,0.0
-57.5,4.804427827657828,5.6875
-40.0,0.006135923151542322,0.0
-46.5,-4.485359823777615,1.625
-35.5,1.3314953238847365,0.8125
-46.0,-2.141437179888355,8.125
-47.0,0.509281621578033,5.6875
-38.5,-0.04908738521234057,5.6875
-40.5,4.76147636559703,7.3125
-35.5,-3.0802334220743677,4.875
-45.5,-2.0923497946760143,4.875
-56.5,5.405748296509,-6.5
-48.0,-3.1170489609836225,-0.8125
-46.5,-2.092349794676015,2.4375
-47.5,0.3313398501832987,1.625
-54.5,3.35021404074224,1.625
-47.0,-3.1477285767413354,8.9375
-38.5,-0.30066023442558576,3.25
-47.0,0.3313398501832985,5.6875
-36.0,1.3314953238847365,2.4375
-40.0,3.0986411915289955,5.6875
-57.5,-5.945709533844745,-38.1875
-55.0,4.669437518323892,-6.5
-47.5,-1.7426021750380887,17.875
-45.0,-2.1475731030398975,0.0
-47.0,0.5276893910326605,-5.6875
-46.5,-0.337475773334841,0.0
-35.5,1.8775924843720246,2.4375
-45.5,-2.0371264863121312,-1.625
-40.5,5.148039524144211,2.4375
-38.5,-4.7921559813547425,6.5
-48.0,1.816233252856599,4.875
-46.5,-1.7241944055834606,5.6875
-55.0,3.393165502803038,-3.25
-57.5,1.1535535524900018,35.75
-46.5,-4.755340442445487,-6.5
-47.0,0.4540583132141498,7.3125
-35.5,1.3560390164909066,2.4375
-46.0,-1.8530487917658545,-2.4375
-38.0,0.16566992509164935,4.875
-55.5,3.3747577333484102,5.6875
-45.5,-3.7797286613502195,0.8125
-40.0,5.2339424482658075,-1.625
-48.0,-2.945243112740431,-4.875
-57.0,-3.0372819600135696,-42.3125
-47.0,1.239456476611598,9.75
-47.0,0.3067961575771283,0.8125
-40.5,4.381049130201392,4.0625
-46.5,-4.442408361716817,10.5625
-45.5,-0.7485826244881929,4.875
-38.0,0.4295146206079795,4.875
-35.5,1.6689710972195777,2.4375
-46.0,-1.8714565612204823,-0.8125
-47.5,0.27611654181941536,0.0
-48.0,1.6996507129772904,8.9375
-54.5,1.7978254834019718,-6.5
-57.0,1.2946797849754805,9.75
-35.5,-3.239767424014474,8.125
-46.0,-1.8285050991596843,3.25
-38.0,0.2147573103039897,3.25
-47.0,0.1349903093339364,-4.875
-47.5,1.705786636128833,0.8125
-40.0,2.951379035891974,0.8125
-47.0,-4.479223900626073,5.6875
-56.0,4.4362724385652745,16.25
-45.5,-5.240078371417351,13.8125
-55.0,4.074252972624263,-17.0625
-36.0,-1.9266798695843654,0.8125
-38.0,-1.6628351740680352,1.625
-48.0,0.05522330836388312,9.75
-40.5,4.724660826687775,1.625
-48.0,-2.8838838812250054,-4.0625
-57.0,2.6568547246179306,54.5
-46.0,-4.743068596142403,-0.8125
-47.0,0.5031456984264904,14.625
-45.5,-0.6933593161243098,-6.5
-55.5,3.6815538909255388,27.625
-38.0,-3.3195344249845276,6.5
-45.5,-0.31293208072867085,-11.375
-35.5,1.9941750242513336,2.4375
-40.0,3.117048960983623,1.625
-56.5,0.11658253987930856,0.8125
-46.5,-4.638757902566179,19.5
-47.5,-0.16566992509164913,0.0
-48.5,1.6812429435226628,12.1875
-55.5,1.644427404613407,16.25
-46.5,-3.6570101983193686,7.3125
-35.5,1.8898643306751102,3.25
-38.0,-1.638291481461865,1.625
-40.0,4.755340442445488,2.4375
-46.5,-4.902602598082509,-10.5625
-47.0,0.4908738521234053,2.4375
-47.5,-0.2393010029101601,-1.625
-45.5,-0.607456392002714,14.625
-56.5,5.375068680751286,17.0625
-48.0,-3.000466421104314,-4.0625
-54.5,1.5462526341887268,8.125
-35.5,-1.7978254834019718,6.5
-54.5,1.8530487917658545,-5.6875
-40.5,1.325359400733194,-4.0625
-38.0,-4.804427827657828,2.4375
-47.0,0.3558835427894689,7.3125
-45.5,-0.8222137023067038,11.375
-46.5,0.31293208072867085,-7.3125
-47.5,0.2638446955163303,0.8125
-48.0,1.7671458676442584,-4.875
-57.0,2.7979809571034093,32.5
-48.0,-2.8102528034064944,4.0625
-55.0,1.6260196351587801,11.375
-38.0,-3.5036121195308048,5.6875
-56.5,-1.0921943209745766,-59.375
-36.0,2.7857091108003242,-1.625
-40.5,3.1047771146805374,2.4375
-45.5,-5.258486140871978,9.75
-46.0,0.2638446955163303,0.8125
-47.5,0.28838838812250045,-3.25
-47.0,0.227029156607075,12.1875
-38.0,-0.30066023442558576,1.625
-36.0,1.638291481461865,3.25
-40.5,3.147728576741336,-0.8125
-47.0,-4.693981210930062,-3.25
-47.0,0.294524311274043,-2.4375
-55.5,3.0127382674073995,-3.25
-46.0,-3.5465635815916023,2.4375
-57.0,4.884194828627881,26.0
-45.5,-5.160311370447296,2.4375
-48.5,2.282563412373834,-2.4375
-35.5,-0.19634954084936185,0.8125
-47.5,-1.5401167110371838,-4.875
-40.0,4.669437518323892,0.8125
-55.5,-1.3130875544301093,6.5
-38.0,-3.491340273227719,4.875
-46.0,-0.17794177139473444,-3.25
-45.0,-0.26384469551633016,5.6875
-47.0,0.8344855486097887,0.8125
-48.0,1.4603497100671305,5.6875
-56.0,3.166136346195963,-21.125
-35.5,-3.337942194439155,0.0
-40.5,3.08636934522591,7.3125
-38.5,-4.749204519293945,0.8125
-45.5,-0.4417864669110646,2.4375
-46.5,0.8099418560036186,2.4375
-46.0,-0.5399612373357456,-5.6875
-55.5,3.583379120500858,16.25
-47.0,-3.307262578681443,-2.4375
-57.5,4.595806440505381,18.6875
-48.0,-2.9022916506796332,7.3125
-36.0,-0.14112623248547873,2.4375
-38.0,-1.6751070203711202,4.875
-40.5,4.7860200582032,4.0625
-45.0,-5.1296317546895835,-11.375
-47.5,0.4663301595172349,2.4375
-48.5,1.7978254834019716,-4.0625
-57.0,3.000466421104314,9.75
-46.0,-5.1296317546895835,2.4375
-47.0,0.5706408530934586,5.6875
-54.5,2.975922728498144,24.375
-36.0,-1.6812429435226632,4.875
-40.5,3.1231848841351657,3.25
-38.5,-4.773748211900116,3.25
-46.0,-0.24543692606170264,8.9375
-45.5,-0.18407769454627687,1.625
-47.0,0.8160777791551611,1.625
-47.5,-0.28838838812250045,2.4375
-48.5,1.8039614065535141,1.625
-55.5,1.5217089415825562,39.875
-56.0,1.5953400194010667,-22.75
-35.5,-3.3747577333484107,4.875
-38.0,-1.6444274046134075,3.25
-40.5,4.7860200582032,2.4375
-45.5,-5.209398755659637,-2.4375
-47.5,0.5276893910326605,2.4375
-48.0,1.7487380981896308,4.0625
-47.0,-1.478757479521758,4.0625
-46.5,-0.6320000846088842,9.75
-55.0,3.7490490455925074,-1.625
-56.5,1.2824079386723959,20.3125
-40.5,0.006135923151542322,0.8125
-35.5,-3.1354567304382504,3.25
-38.5,-1.6566992509164926,8.125
-54.0,3.5036121195308048,1.625
-57.0,1.3008157081270237,12.1875
-48.0,-4.706253057233147,7.3125
-48.0,1.7916895602504286,1.625
-47.0,-1.5585244804918112,8.125
-46.0,-0.6074563920027138,12.1875
-45.5,-0.09817477042468103,0.0
-36.0,2.0371264863121312,2.4375
-40.5,3.129320807286708,-0.8125
-45.5,-5.178719139901925,0.8125
-38.0,0.41724277430489454,0.8125
-46.5,-0.227029156607075,0.0
-48.0,2.110757564130642,1.625
-54.5,1.5278448647340985,6.5
-47.5,-3.3747577333484107,9.75
-47.0,0.28838838812250045,5.6875
-56.5,4.42400059226219,21.125
-47.5,-4.71238898038469,9.75
-40.5,4.718524903536233,1.625
-36.0,-3.1109130378320806,2.4375
-38.0,-1.6566992509164924,2.4375
-57.0,4.755340442445488,18.6875
-47.0,-4.344233591292135,-4.0625
-45.5,-0.8283496254582463,-4.875
-46.5,0.2638446955163303,-9.75
-48.5,1.9941750242513336,8.9375
-55.0,1.6382914814618643,7.3125
-40.5,1.325359400733194,-1.625
-38.0,-4.816699673960913,6.5
-36.0,1.65056332776495,2.4375
-48.5,0.17794177139473444,8.9375
-57.5,3.0066023442558563,10.5625
-54.5,-1.2271846303085123,1.625
-47.5,-3.4422528880153793,-3.25
-45.5,-0.6320000846088842,9.75
-46.0,0.2638446955163303,5.6875
-46.5,0.5890486225480862,1.625
-35.5,1.2762720155208536,3.25
-48.0,0.2270291566070748,4.0625
-47.0,-1.5033011721279284,2.4375
-45.5,-0.7915340865489908,0.8125
-40.5,5.184855063053467,6.5
-46.5,-4.970097752749478,1.625
-55.0,3.6201946594101138,22.75
-38.0,-3.4054373491061236,2.4375
-47.5,0.08590292412159584,3.25
-57.0,4.3074180523828804,70.75
-35.5,-2.7550294950426117,4.875
-45.0,-2.086213871524472,5.6875
-47.0,0.760854470791278,12.1875
-38.0,-0.32520392703175593,2.4375
-40.5,4.773748211900116,7.3125
-47.5,-4.577398671050753,-9.75
-57.5,4.663301595172349,-19.5
-48.5,-2.9575149590435164,-0.8125
-46.0,-2.0739420252213865,-5.6875
-56.0,3.644738352016283,6.5
-38.0,-3.4606606574700063,1.625
-36.0,1.6260196351587797,5.6875
-45.5,-2.092349794676015,8.125
-48.5,2.411417798556228,-8.9375
-57.0,2.6752624940725585,55.3125
-41.0,0.14726215563702105,0.0
-48.0,-4.6448938257177215,3.25
-55.5,3.3195344249845276,17.0625
-46.5,-3.650874275167826,-3.25
-46.5,0.5399612373357459,8.125
-36.0,1.3008157081270235,3.25
-38.5,-1.6566992509164924,6.5
-40.5,4.767612288748572,6.5
-45.0,-5.178719139901924,5.6875
-47.0,0.7731263170943632,4.875
-48.0,-0.2945243112740432,11.375
-48.5,1.7180584824319183,21.9375
-46.0,-1.9696313316451635,0.0
-55.0,5.09281621578033,8.9375
-54.0,-1.245592399763141,-17.875
-40.5,1.1106020904292047,5.6875
-47.0,-4.374913207049849,-2.4375
-46.0,-0.5645049299419158,-5.6875
-45.5,-0.227029156607075,0.8125
-36.0,2.043262409463674,3.25
-47.5,-1.497165248976386,0.8125
-38.0,-0.11044661672776601,-1.625
-54.0,4.927146290688679,-5.6875
-48.0,-3.055689729468197,1.625
-55.5,1.5462526341887264,25.1875
-48.0,-1.6014759425526095,4.875
-47.0,-1.491029325824843,4.875
-56.5,4.565126824747669,-10.5625
-55.0,-1.3805827090970775,7.3125
-40.5,1.2578642460662257,-0.8125
-38.0,-4.822835597112456,8.125
-36.0,1.6751070203711202,1.625
-47.0,-1.4971652489763858,2.4375
-45.5,-0.5951845456996289,8.125
-46.0,0.17180584824319178,12.1875
-38.0,0.28225246497095813,1.625
-40.5,4.822835597112456,-0.8125
-35.5,-3.160000423044421,-1.625
-47.5,-1.4787574795217582,-3.25
-48.5,1.761009944492716,-6.5
-55.0,1.5401167110371836,17.875
-46.5,-3.1293208072867076,0.0
-45.5,-0.760854470791278,-1.625
-46.0,0.19021361769781941,-1.625
-56.0,5.184855063053467,-13.8125
-48.5,-3.055689729468197,6.5
-40.5,2.8777479580734626,-1.625
-35.5,-3.1354567304382504,0.0
-45.5,-2.055534255766759,1.625
-56.0,5.117359908386499,20.3125
-47.0,-4.381049130201391,1.625
-46.0,-0.48473792897186274,-11.375
-47.5,0.2515728492132452,9.75
-38.0,-0.12271846303085132,6.5
-55.0,3.620194659410113,-3.25
-38.5,-3.5956509668039427,0.8125
-48.0,0.09817477042468092,7.3125
-36.0,1.5401167110371836,1.625
-40.5,3.1538644998928786,2.4375
-49.0,-2.932971266437346,4.0625
-46.0,-2.1353012567368124,10.5625
-45.5,-0.17794177139473433,6.5
-47.0,0.7853981633974484,1.625
-56.5,4.344233591292136,35.75
-55.5,-1.2333205534600555,30.875
-35.5,-1.7855536370988867,0.0
-46.5,-1.3192234775816514,1.625
-38.0,-0.3620194659410114,6.5
-40.5,4.73693267299086,9.75
-54.5,-1.1290098598838316,0.8125
-48.5,-1.6751070203711205,-1.625
-47.5,-1.7548740213411733,8.125
-46.0,-0.3497476196379261,-4.875
-45.5,-0.2147573103039898,1.625
-54.0,5.270757987175063,-8.9375
-45.5,-5.338253141842031,11.375
-55.0,5.381204603902829,0.8125
-38.0,-4.890330751779424,0.8125
-47.0,0.31293208072867085,4.875
-36.0,1.3130875544301086,1.625
-48.5,0.24543692606170264,4.0625
-40.5,2.865476111770378,9.75
-46.0,-4.988505522204106,0.8125
-55.5,3.7306412761378795,13.8125
-47.5,-3.3563499638937833,5.6875
-47.0,0.14112623248547895,9.75
-47.5,-0.0920388472731386,-3.25
-40.5,4.565126824747669,5.6875
-35.5,-3.135456730438251,3.25
-55.5,1.9266798695843654,-1.625
-38.5,-3.56497135104623,7.3125
-46.0,-0.2822524649709579,9.75
-55.0,5.21553467881118,-29.25
-48.5,-3.0802334220743677,8.125
-45.0,-2.2273401040099507,-2.4375
-40.5,5.154175447295755,4.875
-45.0,-5.184855063053467,4.875
-35.5,2.0493983326152168,4.875
-38.0,-1.6198837120072371,2.4375
-47.0,0.25157284921324496,9.75
-48.5,1.607611865704152,0.8125
-56.5,2.8163887265580376,7.3125
-47.0,-4.47308797747453,-0.8125
-46.0,-0.4233786974564371,-0.8125
-55.0,3.724505352986337,-7.3125
-35.5,-1.91440802328128,7.3125
-38.0,-1.5892040962495242,3.25
-48.5,1.871456561220482,4.875
-40.5,2.9759227284981438,-4.875
-45.5,-5.117359908386499,3.25
-45.0,-0.18407769454627687,8.125
-56.0,5.098952138931871,42.3125
-55.5,-1.325359400733194,19.5
-47.0,-3.153864499892878,-5.6875
-47.0,0.0920388472731386,8.125
-38.0,-0.24543692606170264,1.625
-47.0,0.2822524649709579,1.625
-35.5,1.3192234775816514,5.6875
-40.5,3.1661363461959633,0.8125
-46.0,-5.019185137961818,-2.4375
-45.5,-0.19021361769781953,7.3125
-47.0,0.5399612373357456,10.5625
-55.5,4.773748211900116,-14.625
-48.0,-2.9452431127404313,-10.5625
-55.5,1.3192234775816511,-1.625
-38.0,-3.245903347166016,0.0
-46.5,0.2822524649709579,1.625
-41.0,4.522175362686871,-1.625
-35.5,-3.184544115650591,0.0
-45.0,-1.9941750242513336,-6.5
-46.0,0.11658253987930878,-3.25
-54.0,3.472932503773092,2.4375
-47.0,-3.0679615757712826,5.6875
-48.5,1.638291481461865,9.75
-56.5,2.8654761117703775,29.25
-36.0,-3.0127382674073995,-2.4375
-48.5,0.25770877236478773,-4.0625
-55.0,2.8777479580734626,-0.8125
-54.5,-1.5033011721279284,7.3125
-41.0,1.5155730184310139,0.8125
-46.0,-5.080544369477243,5.6875
-47.5,0.3988350048502667,13.8125
-38.0,-0.1227184630308511,5.6875
-45.0,-0.3558835427894689,-4.875
-47.0,0.6810874698212246,0.0
-56.0,4.313553975534424,22.75
-35.5,-3.0127382674073995,2.4375
-38.0,-1.6014759425526095,1.625
-54.0,3.0802334220743672,17.875
-47.0,-2.9145634969827183,3.25
-45.5,-0.3865631585471816,-6.5
-40.5,4.970097752749478,9.75
-48.0,-2.8716120349219207,-4.0625
-47.0,-1.6014759425526093,-0.8125
-45.0,-0.7179030087304801,8.125
-35.5,2.024854640009046,5.6875
-38.0,-1.5953400194010667,2.4375
-40.5,4.749204519293945,5.6875
-46.0,-5.049864753719531,2.4375
-46.5,0.5338253141842031,-3.25
-49.0,1.638291481461865,4.0625
-56.0,2.8163887265580367,24.375
-45.0,-5.0682725231741586,0.0
-47.0,0.674951546669682,-0.8125
-54.5,2.773437264497239,11.375
-41.0,1.7364662518865464,0.0
-38.0,-4.792155981354743,2.4375
-35.5,1.5646604036433538,8.125
-48.0,0.23930100291016032,13.8125
-47.0,-1.5278448647340988,-1.625
-45.0,-0.7117670855789375,6.5
-53.5,3.4729325037730914,19.5
-45.5,-3.307262578681442,0.0
-47.0,0.43565054375952195,12.1875
-55.0,4.620350133111551,-3.25
-35.5,-3.1722722693475056,-0.8125
-48.5,0.2822524649709579,-1.625
-40.5,2.87161203492192,5.6875
-38.0,-4.779884135051658,3.25
-44.5,-0.4172427743048944,3.25
-47.5,0.6258641614573416,8.9375
-47.0,0.04295146206079803,0.0
-53.0,2.9759227284981433,-15.4375
-45.5,-3.4667965806215486,-6.5
-55.0,5.160311370447297,-14.625
-38.0,-4.90260259808251,1.625
-46.0,-0.2945243112740432,-0.8125
-45.0,-0.08590292412159584,-5.6875
-47.0,0.5706408530934586,7.3125
-41.0,4.577398671050753,1.625
-35.5,-3.202951885105219,6.5
-49.0,0.23316507975861755,8.125
-55.0,2.957514959043516,2.4375
-47.0,-4.509903516383785,-0.8125
-53.0,3.0250101137104846,-26.8125
-38.0,-3.282718886075272,3.25
-47.0,0.27611654181941536,0.0
-45.0,-0.6013204688511713,-10.5625
-35.5,1.932815792735908,2.4375
-41.0,3.1354567304382504,4.875
-54.0,-1.6260196351587792,16.25
-55.5,1.7426021750380878,-20.3125
-48.0,-3.012738267407399,-23.5625
-47.5,-1.6566992509164924,5.6875
-45.5,-0.41724277430489454,-13.8125
-35.5,1.8162332528565992,3.25
-44.5,-1.9512235621905356,-3.25
-41.5,5.1296317546895835,5.6875
-38.0,-4.804427827657828,8.9375
-47.0,0.227029156607075,5.6875
-46.5,0.11658253987930856,0.8125
-45.5,-0.5645049299419158,-3.25
-48.5,2.110757564130642,-6.5
-55.5,2.816388726558037,11.375
-53.5,-1.540116711037184,1.625
-35.5,-1.5523885573402687,4.875
-46.5,-1.270136092369311,0.8125
-46.0,-0.6013204688511713,0.0
-47.5,0.43565054375952217,13.8125
-38.0,-0.14112623248547895,4.875
-45.0,-0.4172427743048944,6.5
-41.5,5.227806525114265,-2.4375
-53.5,-1.6996507129772906,5.6875
-48.0,-1.3192234775816511,-2.4375
-55.0,2.7979809571034093,19.5
-55.5,-0.11044661672776623,34.125
-38.0,-4.460816131171445,1.625
-48.0,1.761009944492716,-4.0625
-45.0,-2.2089323345553233,6.5
-41.0,5.209398755659638,1.625
-45.5,-5.086680292628786,2.4375
-35.5,1.9144080232812803,0.8125
-46.5,-1.3192234775816516,5.6875
-47.0,-0.10431069357622347,2.4375
-53.0,2.932971266437346,-4.875
-35.5,-1.5155730184310139,0.0
-38.0,-1.5830681730979816,-0.8125
-41.0,4.736932672990861,5.6875
-46.0,-4.491495746929157,6.5
-46.0,-0.5706408530934586,-0.8125
-47.5,0.4908738521234053,1.625
-45.0,-0.6258641614573417,8.125
-47.5,2.1353012567368124,4.0625
-52.5,1.288543861823939,11.375
-55.5,1.6260196351587792,20.3125
-47.0,-4.442408361716817,2.4375
-41.5,4.577398671050753,9.75
-46.0,-4.466952054322987,6.5
-53.0,2.8102528034064944,1.625
-44.5,-3.4177091954092083,-5.6875
-45.5,-0.04908738521234046,11.375
-35.5,1.9634954084936205,0.0
-38.0,-1.5707963267948963,0.8125
-47.0,1.6689710972195775,-2.4375
-56.0,2.9268353432858034,16.25
-38.0,-4.601942363656923,3.25
-45.0,-0.39269908169872414,-2.4375
-35.5,1.969631331645163,1.625
-47.5,-0.012271846303085088,13.0
-46.5,-1.3130875544301086,7.3125
-46.0,-0.6442719309119693,17.0625
-41.5,5.1725832167503825,10.5625
-52.5,-1.5953400194010667,-24.375
-55.5,1.3867186322486198,17.0625
-47.0,-4.466952054322988,10.5625
-35.5,1.4726215563702154,0.8125
-41.5,3.178408192499049,8.125
-53.5,-1.7119225592803753,4.875
-38.0,-3.0127382674074,-0.8125
-55.0,4.681709364626977,-1.625
-47.0,-4.583534594202296,0.0
-46.0,0.10431069357622347,17.875
-46.0,-0.5522330836388307,2.4375
-45.0,-0.1595340019401067,16.25
-47.0,2.092349794676015,-1.625
-54.5,3.1047771146805374,-1.625
-38.0,-4.700117134081604,2.4375
-35.5,1.576932249946439,-1.625
-46.5,-1.2762720155208533,5.6875
-53.0,2.7304858024364416,1.625
-45.5,-3.442252888015379,11.375
-45.0,0.06135923151542566,-9.75
-42.0,5.080544369477244,8.9375
-47.5,-4.6448938257177215,5.6875
-47.5,1.41126232485479,12.1875
-41.5,3.2827188860752723,2.4375
-35.5,-3.215223731408304,2.4375
-53.5,1.4173982480063327,-2.4375
-38.5,-2.9881945748012293,3.25
-46.0,0.3497476196379261,-0.8125
-45.5,-0.6688156235181395,0.0
-47.5,0.38042723539563905,7.3125
-47.0,1.5033011721279281,-2.4375
-55.0,3.03728196001357,-10.5625
-45.0,-5.043728830567988,11.375
-35.5,1.969631331645163,8.125
-38.5,-1.5462526341887262,6.5
-41.5,4.804427827657828,4.875
-47.5,-4.749204519293945,13.0
-45.5,-0.3742913122440965,-1.625
-54.5,5.0069132916587336,6.5
-44.5,-5.049864753719531,0.0
-45.5,0.7424467013366505,3.25
-47.5,1.1044661672776617,12.1875
-52.5,1.497165248976386,2.4375
-35.5,-1.3621749396424496,-3.25
-38.0,-1.607611865704152,2.4375
-47.0,1.5585244804918112,5.6875
-53.0,1.380582709097077,5.6875
-45.0,-3.368621810196868,8.125
-46.0,0.8099418560036186,5.6875
-47.0,-0.2638446955163303,0.0
-46.0,-0.43565054375952217,0.8125
-42.0,5.092816215780329,2.4375
-55.0,-0.28838838812250067,34.9375
-35.0,-2.9268353432858034,2.4375
-44.5,-1.9450876390389928,3.25
-53.5,3.368621810196868,0.0
-38.0,-2.9575149590435164,1.625
-45.5,0.38042723539563905,8.125
-41.5,4.411728745959104,5.6875
-46.0,-5.203262832508095,9.75
-47.5,0.4847379289718625,1.625
-47.5,1.4603497100671303,4.0625
-54.0,3.0986411915289955,0.8125
-38.5,-4.663301595172349,3.25
-53.0,3.031146036862027,6.5
-35.0,-1.4419419406125025,-0.8125
-42.0,3.2152237314083036,0.8125
-45.5,-5.197126909356552,14.625
-44.5,0.036815538909255374,1.625
-47.0,0.5031456984264903,-5.6875
-47.5,1.4051264017032472,0.8125
-45.5,-1.0799224746714913,-8.9375
-53.5,4.166291819897402,4.875
-35.5,-3.0495538063166547,0.0
-38.5,-1.6137477888556946,8.125
-42.0,4.816699673960914,7.3125
-44.5,-5.184855063053467,6.5
-46.0,0.04295146206079792,4.875
-47.5,2.012582793705961,-8.9375
-45.5,-1.1167380135807468,-4.875
-54.0,2.509592568980909,2.4375
-47.0,-2.9084275738311756,-8.125
-55.0,4.417864669110646,8.9375
-38.0,-4.534447208989955,1.625
-35.5,1.5585244804918117,0.8125
-42.0,3.245903347166016,4.875
-47.5,-3.2274955777113887,1.625
-53.0,1.1965050145508003,49.625
-47.0,-2.6813984172241008,0.0
-44.5,-0.48473792897186263,-0.8125
-45.5,0.07363107781851064,-0.8125
-46.0,0.748582624488193,9.75
-54.0,4.154019973594316,8.9375
-35.5,-3.0434178831651124,2.4375
-42.0,3.264311116620644,1.625
-45.0,-5.074408446325701,-11.375
-55.0,4.804427827657828,18.6875
-46.0,-4.037437433715008,5.6875
-54.0,2.6936702635271863,-16.25
-48.0,-1.5892040962495249,-4.875
-47.0,-1.5462526341887262,0.0
-44.5,-0.46019423636569234,-0.8125
-38.0,0.4049709280018092,0.0
-35.0,1.5462526341887262,3.25
-38.5,-1.5646604036433538,4.875
-45.5,-0.3313398501832985,-3.25
-42.0,5.092816215780329,8.9375
-46.0,-4.2092432819582,8.9375
-47.5,-0.44792239006260703,-2.4375
-49.0,1.5033011721279281,-1.625
-55.0,1.5769322499464389,-8.125
-44.5,-3.558835427894687,1.625
-53.5,5.166447293598839,-18.6875
-35.0,-3.2397674240144743,5.6875
-45.0,-1.957359485342078,9.75
-38.0,0.3865631585471816,6.5
-44.5,-0.3865631585471816,4.875
-42.0,5.166447293598839,8.9375
-53.5,-0.018407769454627854,-7.3125
-48.0,-3.147728576741336,4.875
-47.5,-1.5401167110371836,4.875
-46.5,0.5338253141842031,5.6875
-54.5,2.736621725587984,-4.875
-48.5,-1.7119225592803757,7.3125
-35.5,-0.049087385212340795,0.8125
-38.0,-1.5585244804918112,0.8125
-42.0,4.890330751779424,-9.75
-45.0,-5.240078371417351,-1.625
-47.5,0.337475773334841,8.9375
-44.5,-0.4049709280018092,6.5
-56.0,3.6201946594101138,18.6875
-53.5,1.5339807878856409,-17.875
-47.0,-4.154019973594316,8.9375
-38.5,-0.6197282383057989,7.3125
-35.5,1.576932249946439,3.25
-42.0,3.1968159619536762,4.875
-44.0,-5.135767677841127,5.6875
-49.0,2.061670178918302,8.125
-45.5,-2.073942025221387,10.5625
-57.5,3.699961660380166,22.75
-53.5,1.3130875544301093,17.875
-47.0,-3.902447124381071,0.0
-47.5,-0.6197282383057992,-4.0625
-35.5,1.4726215563702156,2.4375
-38.5,-1.576932249946439,3.25
-45.5,-0.3742913122440965,7.3125
-49.5,2.030990563160589,2.4375
-47.5,-0.8958447801252145,3.25
-58.0,2.6139032625571326,16.25
-42.0,1.4051264017032477,2.4375
-44.5,-5.178719139901925,11.375
-47.5,0.46019423636569246,4.0625
-54.0,4.626486056263094,0.8125
-42.0,0.07363107781851053,7.3125
-38.5,-4.755340442445488,1.625
-35.5,1.5769322499464389,0.8125
-48.0,-0.7915340865489906,5.6875
-50.5,0.7547185476397353,22.75
-54.0,3.0802334220743677,8.125
-44.5,-4.95168998329485,-2.4375
-45.5,-0.0797670009700534,13.8125
-47.5,0.40497092800180934,7.3125
-35.5,1.5707963267948963,3.25
-42.0,3.1968159619536762,12.1875
-44.5,-5.086680292628786,0.8125
-45.5,-0.06135923151542566,8.125
-38.5,0.38042723539563905,2.4375
-48.0,0.8774370106705869,-4.875
-47.0,-0.8283496254582463,0.8125
-49.5,1.5094370952794707,27.625
-53.5,3.0004664211043144,11.375
-44.0,-4.933282213840222,7.3125
-38.5,0.3865631585471816,0.0
-48.0,0.9203884727313849,-2.4375
-47.5,-0.8958447801252147,4.0625
-42.0,4.798291904506286,-1.625
-35.5,-3.2704470397721868,4.875
-45.5,-1.9082721001297376,0.8125
-50.0,2.1475731030398975,-7.3125
-53.5,2.7243498792848984,21.125
-59.0,-1.0431069357622356,7.3125
-35.5,-1.9144080232812803,4.875
-58.5,1.9021361769781948,35.75
-48.0,-2.583223646799419,10.5625
-45.0,-1.270136092369311,8.125
-38.5,0.3620194659410114,5.6875
-49.5,1.8162332528565992,-4.0625
-54.0,2.797980957103409,8.125
-47.0,-4.614214209960008,4.875
-42.0,4.798291904506286,4.875
-44.0,-5.117359908386499,0.0
-38.5,0.3436116964863837,4.875
-35.5,1.5953400194010667,-1.625
-42.5,3.178408192499049,10.5625
-45.5,-5.166447293598839,6.5
-54.0,4.9823695990525625,16.25
-47.5,-4.626486056263094,7.3125
-44.0,-0.27611654181941536,-4.875
-47.0,1.2824079386723959,3.25
-50.0,0.6810874698212248,23.5625
-57.5,1.86532063806894,13.8125
-35.5,-1.9450876390389933,1.625
-42.5,3.239767424014474,10.5625
-53.0,-0.12271846303085088,0.8125
-45.0,-5.0682725231741586,2.4375
-50.0,2.2027964114037806,-2.4375
-57.0,1.540116711037184,7.3125
-44.5,-3.6876898140770815,-1.625
-47.0,0.3497476196379261,0.8125
-38.5,0.0,4.875
-46.0,0.9756117810952678,4.875
-35.0,0.5767767762450009,4.875
-42.5,3.2827188860752727,7.3125
-45.5,-5.160311370447298,-8.125
-38.5,0.337475773334841,0.0
-44.5,-0.3988350048502666,11.375
-50.0,2.018718716857504,17.0625
-45.0,-0.5092816215780331,-4.875
-47.0,-1.1780972450961724,5.6875
-53.5,3.294990732378357,8.125
-54.0,1.454213786915588,-32.5
-35.0,-3.1354567304382504,0.0
-49.5,0.1349903093339364,8.125
-47.5,-1.7364662518865457,2.4375
-52.5,4.583534594202296,10.5625
-39.0,-4.534447208989955,3.25
-44.5,-0.4417864669110646,12.1875
-42.5,1.7978254834019718,0.0
-43.0,3.5895150436524004,2.4375
-45.5,-5.350524988145117,3.25
-51.0,3.920854893835699,-11.375
-42.0,-1.9266798695843654,0.8125
-49.5,0.15339807878856426,1.625
-45.0,-2.116893487282185,-4.875
-35.5,1.9328157927359082,0.0
-39.0,-1.5646604036433542,5.6875
-50.5,3.5956509668039427,8.125
-44.5,-3.982214125351124,-0.8125
-43.5,5.26462206402352,6.5
-47.0,-4.896466674930966,-1.625
-53.5,4.700117134081605,-11.375
-35.5,-3.1109130378320806,1.625
-45.5,-2.024854640009046,8.9375
-43.5,5.356660911296659,4.0625
-41.5,-2.6875343403756435,-2.4375
-47.0,-2.2518837966161214,-0.8125
-44.0,-0.3865631585471816,8.9375
-38.5,0.3988350048502667,6.5
-54.0,4.552854978444583,10.5625
-50.0,-2.6507188014663883,0.0
-51.0,2.0862138715244725,0.0
-45.0,-4.3933209765044765,3.25
-50.0,2.36846633649543,-0.8125
-43.0,2.9759227284981438,-1.625
-42.0,-2.5832236467994196,4.875
-39.0,-2.3316507975861747,0.0
-44.5,-0.3988350048502667,7.3125
-35.5,1.9512235621905354,3.25
-47.5,-1.5953400194010665,1.625
-53.0,4.6448938257177215,6.5
-50.5,-0.6074563920027138,14.625
-44.0,-4.381049130201391,4.875
-50.5,2.1168934872821845,24.375
-42.0,0.7424467013366507,-2.4375
-38.5,-2.4789129532231966,0.0
-43.0,4.853515212870168,7.3125
-53.0,-0.294524311274043,8.125
-52.0,-0.6013204688511715,21.125
-35.5,-2.3746022596469722,0.8125
-45.5,-1.975767254796706,-2.4375
-47.0,0.4049709280018092,-7.3125
-35.5,1.5585244804918117,4.875
-43.0,0.9878836273983529,4.875
-39.0,-2.564815877344792,1.625
-44.5,-0.3988350048502667,8.125
-53.0,5.056000676871073,-8.9375
-43.5,0.2024854640009046,4.875
-47.5,-4.994641445355647,8.9375
-52.0,4.25833066717054,-8.125
-50.5,-2.196660488252238,-2.4375
-45.5,-2.3193789512830896,0.0
-39.0,0.36815538909255396,6.5
-43.0,4.9210103675371375,7.3125
-35.5,-3.3072625786814425,3.25
-43.0,1.1351457830353744,4.875
-44.5,-3.104777114680538,2.4375
-45.0,-0.03067961575771272,-1.625
-47.0,0.3620194659410112,-1.625
-52.0,4.080388895775806,13.8125
-51.5,-2.055534255766759,-16.25
-54.0,2.7795731876487815,-25.1875
-35.5,-3.209087808256761,7.3125
-52.5,2.4420974143139405,23.5625
-43.0,0.8958447801252145,7.3125
-39.0,-4.896466674930966,0.8125
-47.0,-0.04908738521234057,-1.625
-45.0,-0.3190680038802134,-5.6875
-43.0,3.337942194439155,0.8125
-51.5,-0.969475857943725,-2.4375
-53.5,2.4789129532231966,15.4375
-44.0,-4.810563750809371,-1.625
-35.5,1.9266798695843652,2.4375
-47.0,-1.6566992509164924,-4.0625
-43.0,4.933282213840222,4.875
-45.0,-5.301437602932776,12.1875
-39.0,0.4111068511533519,3.25
-53.0,4.166291819897402,12.1875
-44.0,-4.509903516383785,2.4375
-53.5,4.927146290688679,-6.5
-43.5,-1.4235341711578746,3.25
-51.5,-1.1903690913992575,-8.125
-53.5,2.503456645829366,20.3125
-43.5,-1.178097245096172,-3.25
-35.5,-1.705786636128833,6.5
-52.5,0.2147573103039897,24.375
-47.0,-1.8223691760081417,-8.125
-53.0,4.374913207049849,5.6875
-45.5,-4.767612288748572,4.875
-44.0,0.07363107781851075,2.4375
-42.5,5.178719139901925,7.3125
-38.5,-4.841243366567084,2.4375
-35.5,1.6444274046134073,-0.8125
-38.5,-1.6444274046134073,1.625
-43.0,4.847379289718626,5.6875
-44.5,-1.5094370952794707,5.6875
-44.0,-3.6508742751678263,-1.625
-45.5,-0.1472621556370216,13.8125
-53.0,4.957825906446392,-5.6875
-47.5,-4.632621979414637,6.5
-52.5,1.7610099444927159,53.6875
-53.5,2.9513790358919736,9.75
-35.5,-2.9759227284981438,3.25
-43.0,3.258175193469102,1.625
-38.5,-4.835107443415541,-2.4375
-45.5,-0.43565054375952206,0.8125
-46.5,0.3252039270317558,0.8125
-45.0,3.472932503773092,8.9375
-53.5,1.0983302441261191,18.6875
-44.0,-4.81056375080937,-0.8125
-54.5,4.7492045192939445,9.75
-53.5,-2.4420974143139405,5.6875
-35.5,-0.3436116964863838,0.0
-47.0,-1.7119225592803755,0.8125
-38.5,0.07363107781851097,0.8125
-42.5,4.822835597112456,8.125
-44.0,-5.197126909356552,8.9375
-45.0,-0.018407769454627743,-1.625
-45.5,3.8288160465625602,3.25
-54.5,0.9019807032767568,21.125
-54.0,-2.350058567040802,-16.25
-53.5,2.4482333374654837,27.625
-36.0,-2.810252803406495,2.4375
-47.0,-1.7855536370988863,12.1875
-38.5,0.16566992509164935,0.0
-45.5,-0.3988350048502668,-1.625
-55.0,4.773748211900115,26.8125
-44.0,-4.681709364626976,0.0
-42.5,5.160311370447297,6.5
-51.0,-0.2270291566070748,-8.9375
-45.5,-1.1290098598838325,-4.875
-54.0,-1.632155558310322,13.8125
-35.5,-0.24543692606170264,1.625
-53.0,3.0127382674073995,-3.25
-47.0,-4.71238898038469,-1.625
-44.0,-0.23930100291015988,-3.25
-55.0,4.841243366567084,3.25
-39.0,-4.509903516383785,-0.8125
-45.0,-0.47246608266877754,8.125
-53.5,2.1475731030398975,39.875
-46.5,1.7241944055834604,0.8125
-42.5,1.368310862793992,9.75
-35.5,-3.1600004230444205,2.4375
-47.0,1.7487380981896314,10.5625
-42.5,1.4664856332186726,2.4375
-53.0,-0.337475773334841,16.25
-54.0,-2.5893595699509624,-6.5
-38.5,-1.9266798695843654,1.625
-44.0,-0.3067961575771282,3.25
-55.0,5.21553467881118,-27.625
-45.0,-5.31370944923586,3.25
-46.5,0.27611654181941536,12.1875
-45.0,-0.3067961575771281,8.9375
-48.5,3.816544200259475,-0.8125
-35.5,-1.7364662518865455,1.625
-42.0,3.1477285767413354,8.9375
-55.5,-0.3006602344255853,52.0625
-38.5,-4.516039439535328,6.5
-44.0,-0.2638446955163303,-0.8125
-47.0,0.24543692606170264,-4.875
-53.5,4.7307967498393175,-11.375
-55.0,-2.963650882195059,28.4375
-36.0,-0.09817477042468115,3.25
-38.5,-1.6444274046134073,4.875
-49.0,3.2520392703175593,0.0
-47.0,-3.2765829629237295,-2.4375
-53.5,4.601942363656923,5.6875
-44.0,-4.841243366567084,1.625
-45.0,-0.04908738521234046,-7.3125
-42.5,5.098952138931871,6.5
-54.0,0.1963495408493623,3.25
-55.5,-3.141592653589793,5.6875
-35.5,-0.1963495408493623,3.25
-39.0,-1.6321555583103222,0.8125
-42.5,4.73693267299086,8.125
-53.5,-0.14726215563702105,-0.8125
-44.5,-4.933282213840222,-0.8125
-43.5,0.06135923151542566,0.8125
-52.0,3.239767424014474,1.625
-46.5,-3.043417883165112,1.625
-56.0,5.0437288305679875,4.875
-55.0,-3.2765829629237295,13.0
-35.5,-0.012271846303085088,-0.8125
-39.0,-1.7180584824319178,8.9375
-42.0,4.847379289718626,0.0
-52.5,-1.8714565612204819,-15.4375
-47.0,-2.951379035891974,-8.9375
-45.0,-0.337475773334841,1.625
-56.0,1.7855536370988865,72.375
-44.0,-1.7180584824319183,2.4375
-53.5,5.135767677841127,-43.125
-55.5,-6.031612457966341,8.125
-35.5,2.8347964960126646,5.6875
-39.0,-1.6382914814618648,-1.625
-44.5,-0.35588354278946865,-5.6875
-42.5,5.056000676871073,9.75
-43.5,-4.988505522204105,2.4375
-47.0,0.20862138715244716,0.0
-56.5,1.8591847149173972,14.625
-54.5,3.1538644998928778,25.1875
-55.5,-2.4298255680108554,-2.4375
-53.5,2.0309905631605893,21.125
-56.5,-2.9452431127404313,41.5
-35.5,0.04908738521234035,2.4375
-55.0,-2.5218644152839937,-7.3125
-45.0,0.5092816215780328,0.0
-38.5,0.35588354278946877,2.4375
-44.0,-0.27611654181941536,3.25
-42.5,5.062136600022615,0.8125
-47.5,-4.896466674930966,6.5
-53.0,4.927146290688679,-17.875
-56.0,-3.0188741905589414,46.375
-35.5,-0.12271846303085132,1.625
-38.5,-1.6935147898257479,5.6875
-55.0,-1.1228739367322893,34.9375
-56.5,2.791845033951867,26.8125
-44.0,-1.9450876390389933,6.5
-47.0,0.2270291566070749,-0.8125
-44.5,-0.28838838812250056,-1.625
-42.5,5.098952138931871,0.8125
-58.0,-3.074097498922825,19.5
-53.5,2.945243112740431,-12.1875
-57.5,-3.000466421104314,10.5625
-44.5,-2.012582793705961,9.75
-35.5,2.055534255766759,3.25
-38.5,-1.67510702037112,7.3125
-43.5,-0.12885438618239387,-16.25
-42.0,4.914874444385594,0.8125
-47.5,-4.8351074434155406,0.0
-57.0,1.7426021750380885,21.9375
-53.0,2.9943304979527716,-0.8125
-54.0,-5.50392306693368,22.75
-35.5,2.5034566458293663,3.25
-42.5,3.0618256526197403,0.0
-57.5,-3.0434178831651124,8.125
-55.5,-2.6200391857086753,27.625
-47.0,0.8651651643675016,1.625
-39.0,0.06135923151542566,2.4375
-43.5,-0.2699806186678728,4.875
-52.5,4.970097752749478,-2.4375
-45.0,-5.092816215780329,10.5625
-54.0,1.8653206380689396,-18.6875
-42.5,3.2090878082567613,9.75
-44.0,-4.95168998329485,3.25
-35.5,1.9450876390389928,0.8125
-39.0,-1.6382914814618645,-2.4375
-47.0,-0.12885438618239387,6.5
-45.0,-0.2393010029101601,-3.25
-54.5,1.7487380981896308,-24.375
-58.5,-0.04908738521234035,37.375
-55.0,-2.2764274892222915,23.5625
-53.5,5.730952223540755,-22.75
-44.0,-5.092816215780328,2.4375
-36.0,1.9389517158874505,0.8125
-42.5,3.055689729468197,2.4375
-38.5,-4.755340442445488,7.3125
-45.0,-0.3436116964863837,5.6875
-47.0,0.28838838812250056,5.6875
-53.0,1.2885438618239384,-8.125
-53.5,3.51588396583389,-11.375
-59.0,-3.0495538063166547,4.0625
-55.0,-2.5893595699509624,22.75
-36.0,2.5586799541932495,8.125
-42.0,3.0556897294681975,7.3125
-55.0,-5.399612373357457,-7.3125
-47.0,0.6872233929727674,-7.3125
-43.5,-0.26998061866787293,8.125
-54.0,1.3130875544301088,14.625
-38.5,-1.0185632431560656,2.4375
-44.5,-0.3742913122440964,5.6875
-53.5,5.0682725231741586,-9.75
-59.0,-3.104777114680538,0.8125
-44.0,-1.8346410223112268,0.8125
-46.5,0.15339807878856426,-0.8125
-35.5,1.7487380981896308,4.875
-39.0,-1.6689710972195775,3.25
-45.0,-0.36815538909255385,8.125
-42.0,5.105088062083413,0.8125
-53.0,0.018407769454627854,10.5625
-55.0,-5.270757987175063,-19.5
-53.0,1.6996507129772904,-24.375
-56.5,0.7240389318820228,-41.5
-44.0,-2.1659808724945258,3.25
-36.0,1.9082721001297378,7.3125
-53.0,-0.6810874698212248,1.625
-52.5,3.785864584501762,-10.5625
-38.5,-4.7062530572331465,-4.875
-42.0,4.638757902566178,9.75
-45.0,-4.994641445355647,-3.25
-47.0,0.1718058482431919,7.3125
-55.0,-0.4111068511533519,-25.1875
-59.0,2.2457478734645786,-10.5625
-45.0,-2.055534255766759,6.5
-36.0,2.055534255766759,0.0
-46.5,-1.8100973297050567,8.9375
-43.5,-0.1349903093339364,4.875
-38.5,0.2393010029101601,2.4375
-42.0,4.7307967498393175,5.6875
-56.0,-5.491651220630596,1.625
-51.5,1.4296700943094176,7.3125
-59.5,0.8835729338221292,-5.6875
-53.5,3.0679615757712826,12.1875
-38.5,-4.601942363656923,1.625
-53.0,4.638757902566178,1.625
-36.0,-2.9881945748012284,3.25
-46.5,-1.748738098189631,-0.8125
-45.0,-0.2515728492132452,2.4375
-43.5,0.0674951546669682,9.75
-41.5,5.049864753719531,0.0
-52.0,-4.374913207049849,6.5
-59.5,0.7363107781851077,28.4375
-36.0,0.5460971604872884,0.0
-38.5,-1.6812429435226628,2.4375
-43.5,-0.2515728492132452,5.6875
-42.0,5.043728830567988,-2.4375
-44.5,-5.123495831538041,1.625
-53.0,5.006913291658733,-1.625
-51.0,-4.319689898685966,-1.625
-46.0,-0.4663301595172349,5.6875
-60.5,1.1658253987930873,21.9375
-39.0,-1.0799224746714913,4.875
-45.0,-0.2945243112740432,0.8125
-41.5,5.0682725231741586,-0.8125
-51.5,-4.614214209960009,7.3125
-53.5,4.39945689965602,19.5
-43.5,-4.736932672990861,-2.4375
-36.0,1.8591847149173972,3.25
-46.0,-1.7978254834019716,5.6875
-60.5,1.3928545554001623,-9.75
-38.5,-1.257864246066226,1.625
-41.5,4.700117134081605,8.125
-36.0,-3.0004664211043144,0.0
-45.5,-2.000310947402876,-1.625
-44.0,0.07363107781851064,1.625
-53.5,4.92714629068868,-8.125
-52.5,-4.804427827657829,19.5
-46.5,0.03067961575771294,-4.0625
-60.5,1.2640001692177685,-46.375
-46.5,-1.270136092369311,-2.4375
-36.0,1.7671458676442586,0.8125
-38.5,-1.6935147898257479,3.25
-41.0,4.792155981354743,-5.6875
-53.0,-0.2024854640009055,6.5
-52.0,-4.779884135051658,11.375
-43.5,-0.07363107781851075,15.4375
-45.0,-0.10431069357622369,11.375
-59.5,1.1780972450961724,6.5
-38.5,-0.7976700097005334,-0.8125
-43.5,-0.25770877236478773,5.6875
-36.0,1.9144080232812803,3.25
-46.0,-1.7548740213411735,1.625
-41.5,4.810563750809371,7.3125
-45.5,-5.080544369477244,8.9375
-53.5,-0.11658253987930878,26.0
-53.5,4.921010367537137,39.875
-36.0,-2.7918450339518666,9.75
-53.5,-2.159844949342983,15.4375
-38.5,0.5031456984264904,2.4375
-41.5,4.749204519293945,-2.4375
-46.5,-4.865787059173254,4.875
-43.5,-0.12885438618239387,8.125
-45.0,-0.04295146206079792,0.0
-53.0,4.933282213840222,-10.5625
-36.0,-2.9636508821950587,0.0
-38.5,-1.6935147898257479,2.4375
-45.5,-0.3497476196379262,8.125
-43.5,0.18407769454627687,-1.625
-53.5,-0.6442719309119693,29.25
-41.0,5.577554144752192,2.4375
-46.5,-4.798291904506286,-7.3125
-60.0,0.5767767762450011,82.1875
-53.0,4.1172044346850605,6.5
-46.5,-4.804427827657828,7.3125
-38.5,0.12885438618239387,7.3125
-36.0,1.7057866361288332,1.625
-40.5,3.0434178831651124,5.6875
-45.0,-5.025321061113361,-1.625
-43.5,0.10431069357622369,0.0
-54.0,-0.6933593161243099,8.125
-53.0,5.448699758569798,12.1875
-58.5,-3.399301425954581,-29.25
-39.0,-1.1719613219446297,2.4375
-36.0,1.7119225592803753,0.8125
-45.5,-2.043262409463674,7.3125
-41.0,5.0253210611133605,4.875
-43.5,-4.896466674930966,-0.8125
-53.0,4.816699673960914,7.3125
-46.0,-4.651029748869264,0.8125
-60.0,0.9817477042468103,12.1875
-55.5,-2.055534255766759,10.5625
-38.5,1.0860583978230338,6.5
-41.0,4.71238898038469,5.6875
-36.0,-2.969786805346601,0.0
-55.0,-2.466641106920111,-59.375
-44.5,0.44178646691106466,0.8125
-43.5,0.11658253987930878,0.0
-52.5,4.773748211900116,12.1875
-46.0,-4.626486056263094,-0.8125
-60.0,0.6872233929727671,38.1875
-41.0,4.031301510563465,9.75
-36.0,-3.0127382674073995,8.125
-43.5,-1.8039614065535141,-5.6875
-38.5,0.13499030933393663,3.25
-53.0,4.540583132141498,8.9375
-46.0,-4.57126274789921,0.8125
-45.5,-0.30066023442558565,8.9375
-56.0,-0.8406214717613314,14.625
-59.5,2.3746022596469722,-36.5625
-46.5,-1.2087768608538851,-4.875
-41.0,4.693981210930062,4.875
-38.5,-4.681709364626977,1.625
-36.0,1.736466251886546,-2.4375
-43.5,-1.920543946432823,0.8125
-57.5,5.0682725231741586,38.1875
-45.0,-5.1725832167503825,0.8125
-56.0,0.7915340865489908,-8.9375
-52.0,4.301282129231338,-18.6875
-60.5,-4.215379205109742,68.3125
-45.5,-0.889708856973672,2.4375
-43.5,0.12885438618239387,-0.8125
-36.0,1.8837284075235672,0.8125
-54.0,-1.3621749396424492,10.5625
-41.5,4.338097668140593,4.0625
-56.5,-5.559146375297563,-34.125
-52.0,5.577554144752191,-11.375
-38.5,-4.718524903536232,2.4375
-46.5,-0.04908738521234035,7.3125
-60.5,1.5892040962495242,-93.5625
-36.5,0.16566992509164935,3.25
-55.5,-1.3744467859455345,22.75
-41.0,4.393320976504476,1.625
-52.0,-0.07363107781851053,7.3125
-44.5,-4.957825906446392,6.5
-38.5,0.30066023442558554,4.875
-57.0,-0.9633399347921826,-25.1875
-43.5,0.8160777791551611,-0.8125
-46.5,0.0674951546669682,9.75
-60.5,0.9817477042468106,1.625
-53.0,3.773592738198677,-15.4375
-36.0,-2.9759227284981438,5.6875
-43.5,-1.8530487917658547,0.8125
-60.0,1.3069516312785663,-16.25
-54.5,-0.7608544707912781,12.1875
-46.0,-0.3988350048502667,6.5
-38.5,0.03067961575771294,3.25
-45.0,-0.32520392703175593,2.4375
-41.0,5.037592907416446,5.6875
-57.5,-5.71868037723767,-43.125
-46.0,0.9633399347921826,4.0625
-41.5,4.73693267299086,7.3125
-39.0,-4.700117134081605,-0.8125
-36.5,1.6689710972195777,6.5
-43.5,-1.8714565612204823,4.875
-52.0,4.835107443415541,7.3125
-45.0,-4.908738521234052,1.625
-54.5,0.803805932852076,-17.0625
-57.5,4.221515128261284,49.625
-55.0,-4.252194744018997,-2.4375
-43.0,-0.674951546669682,1.625
-45.5,0.2147573103039897,-6.5
-51.5,4.595806440505381,1.625
-39.0,-4.638757902566179,4.875
-57.0,-1.0983302441261191,-49.625
-36.0,2.7979809571034098,3.25
-41.0,3.031146036862027,2.4375
-44.5,-5.031456984264903,4.875
-45.5,-0.018407769454627743,8.9375
-38.5,0.30066023442558565,5.6875
-36.0,1.7180584824319183,2.4375
-52.5,2.9145634969827183,8.9375
-41.0,0.10431069357622302,5.6875
-45.5,-4.718524903536232,1.625
-55.5,-1.1903690913992577,-31.6875
-43.5,1.0062913968529807,7.3125
-61.0,1.1842331682477147,-13.0
-54.0,-0.5399612373357454,5.6875
-41.0,4.227651051412827,13.8125
-38.5,-4.675573441475434,2.4375
-36.0,1.6566992509164924,8.125
-54.0,-1.3069516312785663,25.1875
-52.5,4.154019973594316,22.75
-57.0,0.17794177139473444,38.1875
-45.0,-5.006913291658733,5.6875
-45.5,0.27611654181941536,7.3125
-43.0,-0.11658253987930878,0.0
-62.0,1.2087768608538851,-6.5
-46.0,-1.0308350894591507,0.8125
-41.0,4.675573441475435,8.9375
-44.5,-4.957825906446392,-4.875
-36.0,1.9634954084936207,3.25
-43.5,-1.8960002538266523,6.5
-52.0,4.7860200582032,-0.8125
-54.0,-4.239922897715912,30.875
-39.0,-0.34361169648638357,0.0
-57.5,4.7860200582032,5.6875
-62.5,-3.9576704327449543,17.875
-41.0,3.884039354926444,9.75
-44.0,-4.908738521234052,5.6875
-46.0,0.2147573103039897,-4.0625
-36.0,1.6444274046134075,6.5
-45.0,-1.9512235621905356,0.8125
-38.5,0.2761165418194155,2.4375
-52.5,4.571262747899211,2.4375
-56.5,0.31906800388021317,-24.375
-54.5,-4.411728745959104,4.875
-38.5,-0.48473792897186274,1.625
-36.0,1.693514789825748,5.6875
-41.0,3.0372819600135696,5.6875
-57.0,-0.3313398501832987,65.875
-52.0,0.0981747704246807,21.125
-43.5,-4.614214209960008,-1.625
-54.0,0.6442719309119693,-4.875
-46.0,-0.5399612373357459,7.3125
-45.0,-0.2638446955163303,3.25
-36.5,1.9819031779482486,1.625
-52.0,3.012738267407399,-21.125
-41.0,0.006135923151542322,9.75
-38.5,-4.718524903536232,2.4375
-45.5,0.012271846303085088,0.0
-43.0,-0.1349903093339364,-2.4375
-55.0,0.6872233929727671,-7.3125
-44.5,-0.8467573949128739,3.25
-56.5,4.963961829597935,15.4375
-38.5,-4.681709364626977,1.625
-51.5,4.7307967498393175,-16.25
-45.0,-5.019185137961818,2.4375
-57.0,4.9823695990525625,11.375
-41.0,0.03681553890925571,5.6875
-43.0,-4.859651136021711,-0.8125
-36.5,1.8039614065535141,6.5
-54.0,-0.9449321653375551,-33.3125
-46.0,-0.7301748550335652,4.0625
-39.0,0.006135923151542544,-0.8125
-36.0,1.6935147898257479,0.8125
-41.0,3.0066023442558567,8.9375
-45.0,-4.9394181369917645,-4.875
-46.0,0.24543692606170264,0.8125
-57.0,4.614214209960008,30.875
-43.5,-4.8351074434155406,10.5625
-51.5,4.908738521234052,-17.0625
-53.5,-4.135612204139689,-17.0625
-36.0,1.153553552490002,0.8125
-44.5,-2.024854640009046,2.4375
-38.5,0.3067961575771283,0.8125
-41.0,4.816699673960914,-4.0625
-56.0,0.2024854640009046,-35.75
-46.0,-5.019185137961818,0.0
-54.5,0.5031456984264902,-8.125
-52.5,4.080388895775805,-5.6875
-43.5,-4.773748211900115,6.5
-36.0,1.8960002538266523,0.8125
-39.0,-1.7119225592803755,2.4375
-56.5,4.540583132141498,20.3125
-41.0,0.17180584824319212,13.8125
-54.5,-4.221515128261284,16.25
-52.0,4.006757817957294,20.3125
-43.0,-4.608078286808466,-3.25
-45.0,-0.18407769454627698,7.3125
-46.0,0.3067961575771283,2.4375
-36.5,1.7119225592803753,-1.625
-39.0,-1.7364662518865457,4.875
-45.0,-0.2515728492132451,0.0
-43.0,0.11658253987930867,0.0
-41.0,4.890330751779424,9.75
-55.0,-4.135612204139688,-17.0625
-45.5,-0.5583690067903735,-6.5
-52.5,4.503767593232243,11.375
-56.5,0.19021361769781908,3.25
-43.0,-4.908738521234051,5.6875
-45.5,0.15953400194010658,6.5
-36.5,1.6996507129772906,2.4375
-44.5,-1.9573594853420784,0.0
-52.0,4.804427827657828,-1.625
-40.5,0.2270291566070748,4.875
-38.5,-4.773748211900115,3.25
-54.0,4.779884135051658,0.8125
-55.5,-4.239922897715912,-2.4375
-44.5,-0.846757394912874,6.5
-38.5,0.31293208072867074,3.25
-43.0,-0.14112623248547895,1.625
-36.0,1.822369176008142,6.5
-46.0,-1.6996507129772906,4.875
-53.0,4.442408361716817,31.6875
-41.0,0.337475773334841,1.625
-54.5,-4.166291819897401,-10.5625
-56.0,4.147884050442773,10.5625
-38.5,-4.73693267299086,0.8125
-36.5,1.7057866361288327,2.4375
-43.5,-1.871456561220482,6.5
-44.5,-0.1595340019401067,7.3125
-41.0,5.031456984264903,6.5
-45.0,-4.724660826687775,6.5
-54.5,0.4540583132141498,7.3125
-52.0,4.092660742078891,6.5
-56.5,0.024543692606170175,9.75
-36.0,-2.8654761117703775,2.4375
-44.5,-1.9573594853420784,-5.6875
-43.0,0.12885438618239375,0.8125
-41.0,4.871922982324796,4.0625
-38.5,-4.749204519293945,5.6875
-54.5,0.5583690067903735,1.625
-46.0,-0.5583690067903735,5.6875
-55.5,4.6448938257177215,8.125
-52.0,-0.22089323345553247,27.625
-38.5,-4.430136515413731,6.5
-41.0,4.743068596142402,4.875
-43.0,-4.908738521234051,9.75
-36.0,1.8530487917658542,6.5
-56.5,2.7304858024364416,35.75
-45.5,-4.411728745959104,4.875
-44.0,-0.2270291566070748,-5.6875
-51.5,4.865787059173254,-5.6875
-54.5,-4.111068511533518,1.625
-36.5,1.1780972450961726,4.875
-38.5,-1.6873788666742053,2.4375
-43.0,-0.1718058482431919,7.3125
-45.0,0.2147573103039897,-1.625
-41.0,4.743068596142402,2.4375
-45.0,-5.111223985234956,9.75
-54.5,0.8897088569736719,-11.375
-52.5,4.0987966652304335,-25.1875
-56.0,-0.05522330836388356,8.9375
-36.0,-2.926835343285803,5.6875
-43.5,-1.8530487917658545,5.6875
-38.5,0.16566992509164913,3.25
-45.5,0.024543692606170397,3.25
-40.5,4.779884135051658,0.8125
-44.5,-5.043728830567988,-7.3125
-55.0,4.97623367590102,-11.375
-52.5,-0.19021361769781997,-6.5
-54.0,-4.006757817957294,-2.4375
-36.0,1.1351457830353744,8.9375
-41.0,3.067961575771282,2.4375
-44.5,-5.037592907416445,3.25
-43.0,0.15339807878856404,3.25
-56.0,4.693981210930062,12.1875
-51.5,0.0,-0.8125
-55.0,-3.6999616603801666,-53.6875
-38.5,-0.8344855486097889,0.0
-45.5,-0.006135923151542544,6.5
-41.0,4.724660826687774,1.625
-38.5,-4.73693267299086,0.8125
-36.5,1.6751070203711202,9.75
-44.5,-1.9512235621905356,-0.8125
-43.5,0.08590292412159606,11.375
-45.5,0.23930100291015988,-0.8125
-56.0,4.589670517353839,2.4375
-52.0,-0.15339807878856426,7.3125
-55.0,-4.123340357836604,32.5
-38.5,-0.34361169648638357,0.0
-36.5,1.6628351740680352,5.6875
-43.0,-1.8407769454627696,5.6875
-51.5,4.632621979414636,24.375
-40.5,0.25157284921324496,7.3125
-55.0,-0.04295146206079803,-7.3125
-44.5,-5.049864753719531,17.0625
-45.5,0.4172427743048943,0.0
-55.0,0.4049709280018092,0.0
-36.0,1.2578642460662257,1.625
-45.5,-1.6812429435226626,4.875
-41.0,4.706253057233147,8.9375
-38.5,-4.724660826687774,0.8125
-43.5,-0.14112623248547917,1.625
-44.5,-0.12271846303085121,-4.875
-51.5,4.921010367537137,-25.1875
-56.0,-0.15339807878856426,27.625
-54.0,-3.8840393549264434,-15.4375
-51.5,3.8288160465625607,18.6875
-54.0,-4.006757817957295,19.5
-40.5,4.270602513473625,9.75
-44.5,-5.013049214810275,0.8125
-43.5,0.15339807878856404,0.8125
-36.0,1.7978254834019716,7.3125
-55.5,2.951379035891973,8.9375
-38.5,-4.6019423636569226,0.0
-45.5,-0.01227184630308531,5.6875
-36.0,1.6996507129772904,3.25
-38.5,-1.705786636128833,5.6875
-40.5,4.76147636559703,5.6875
-43.0,-4.896466674930966,2.4375
-51.5,4.693981210930062,3.25
-54.0,-3.902447124381071,-18.6875
-44.5,-0.9326603190344698,-2.4375
-45.0,0.36815538909255396,1.625
-55.0,4.828971520263998,-37.375
-38.0,-4.908738521234052,2.4375
-44.5,-0.28838838812250067,-0.8125
-45.0,0.3313398501832985,3.25
-36.0,1.6566992509164926,1.625
-41.0,3.0495538063166547,6.5
-51.5,-0.2699806186678728,16.25
-43.5,-4.657165672020807,4.875
-55.0,0.7853981633974483,-12.1875
-53.5,4.031301510563465,0.0
-36.0,-2.9697868053466014,5.6875
-52.0,2.853204265467293,3.25
-40.5,0.21475731030398926,7.3125
-44.5,-5.074408446325701,3.25
-45.0,0.3620194659410113,4.875
-38.5,-0.03067961575771294,2.4375
-43.5,-0.1902136176978193,12.1875
-55.5,4.638757902566178,31.6875
-55.0,-3.8717675086233583,23.5625
-36.0,1.1106020904292042,4.875
-51.5,2.804116880254952,16.25
-38.5,-4.503767593232243,2.4375
-44.0,-0.3067961575771282,5.6875
-43.0,0.18407769454627687,1.625
-55.5,4.7921559813547425,4.875
-40.5,0.07976700097005374,6.5
-45.5,-4.724660826687774,8.9375
-54.5,0.4295146206079794,17.0625
-36.0,1.2333205534600555,5.6875
-38.5,-1.6444274046134073,-0.8125
-43.0,-0.19634954084936207,4.875
-51.5,4.71238898038469,0.8125
-45.0,-4.448544284868359,-4.875
-55.5,4.601942363656923,1.625
-41.0,0.030679615757713385,6.5
-44.5,-5.00077736850719,-1.625
-55.0,0.760854470791278,1.625
-38.5,-0.47860200582032,0.0
-41.0,4.755340442445487,0.8125
-36.0,-3.0618256526197394,2.4375
-43.5,-1.8960002538266525,10.5625
-51.0,4.767612288748573,-2.4375
-44.0,-4.884194828627882,5.6875
-54.5,5.006913291658733,22.75
-45.5,-4.62035013311155,-2.4375
-55.0,0.46019423636569234,1.625
-38.5,-0.5460971604872884,5.6875
-40.5,4.804427827657829,2.4375
-36.5,-3.1231848841351657,5.6875
-55.0,-1.1965050145508,9.75
-43.5,-0.6074563920027141,-2.4375
-51.0,4.755340442445488,-14.625
-54.0,0.4356505437595217,4.875
-44.5,-5.356660911296658,1.625
-45.5,0.36815538909255396,-0.8125
-36.0,1.607611865704152,2.4375
-43.0,-1.7978254834019716,-0.8125
-41.0,4.908738521234051,5.6875
-38.5,-4.779884135051658,1.625
-52.0,4.491495746929157,4.875
-44.0,-4.871922982324797,9.75
-45.0,0.42337869745643686,2.4375
-54.5,4.896466674930967,34.125
-36.0,-3.307262578681443,8.9375
-41.0,3.202951885105219,1.625
-38.0,-4.865787059173254,9.75
-43.0,-0.09203884727313838,1.625
-52.0,4.509903516383785,17.875
-54.0,-5.424156065963627,18.6875
-44.5,0.7179030087304801,-5.6875
-45.0,0.38042723539563905,1.625
-36.0,1.5707963267948963,4.875
-52.0,2.7488935718910694,20.3125
-44.5,-4.736932672990861,0.8125
-42.0,5.307573526084319,1.625
-38.0,-4.896466674930966,1.625
-50.5,-0.3865631585471817,6.5
-45.0,0.3436116964863837,0.8125
-43.5,-0.1595340019401068,2.4375
-38.0,0.20862138715244738,3.25
-42.0,4.921010367537137,5.6875
-35.5,-3.35021404074224,4.875
-43.0,-1.7794177139473437,2.4375
-48.5,0.24543692606170264,-2.4375
-44.0,-0.4663301595172349,-1.625
-45.0,0.3313398501832985,10.5625
-52.0,4.534447208989955,-11.375
-36.0,-2.834796496012665,0.0
-42.5,3.356349963893783,1.625
-43.5,-5.178719139901925,4.875
-51.5,4.657165672020807,-0.8125
-38.0,-4.460816131171445,8.9375
-43.5,-0.4295146206079795,-0.8125
-45.0,0.4295146206079795,0.8125
-48.0,0.552233083638831,0.0
-35.5,1.0921943209745766,-1.625
-51.0,2.724349879284899,12.1875
-44.0,-4.786020058203201,1.625
-38.0,0.4417864669110647,7.3125
-43.0,-0.21475731030398992,5.6875
-45.0,0.19021361769781953,5.6875
-49.0,0.9019807032767568,8.125
-43.0,-2.1353012567368124,-4.0625
-61.0,2.5893595699509624,20.3125
-49.5,-0.05522330836388312,-8.9375
-43.5,3.6999616603801666,-4.875
-43.5,-5.405748296509,-5.6875
-38.0,0.47246608266877743,-0.8125
-36.0,1.5278448647340985,3.25
-55.0,-2.110757564130642,14.625
-44.5,0.5583690067903734,0.8125
-43.0,-0.227029156607075,6.5
-51.0,4.516039439535327,15.4375
-61.0,-2.791845033951867,10.5625
-43.0,-1.7487380981896308,6.5
-43.5,5.172583216750382,4.0625
-35.5,-3.356349963893783,0.0
-38.0,-1.533980787885641,0.8125
-43.5,-0.5276893910326604,6.5
-44.5,0.47246608266877754,5.6875
-51.0,4.295146206079795,17.0625
-59.5,-2.4236896448593126,-50.4375
-51.0,-0.09817477042468115,-12.1875
-53.0,-2.1230294104337277,-8.9375
-35.5,1.9573594853420782,0.0
-38.0,-1.5585244804918115,2.4375
-51.0,4.3503695144436785,1.625
-54.0,-4.9823695990525625,29.25
-43.5,0.12271846303085132,5.6875
-45.0,0.43565054375952206,6.5
-43.0,4.9394181369917645,8.125
-51.0,-3.1231848841351657,-8.9375
-42.5,-2.018718716857504,8.125
-59.5,1.9819031779482483,-8.9375
-43.0,3.2090878082567613,1.625
-51.0,-0.6933593161243099,21.125
-35.5,-2.693670263527186,4.875
-38.5,-1.5401167110371836,2.4375
-51.5,1.619883712007237,10.5625
-42.5,-1.871456561220482,8.125
-44.5,0.24543692606170264,0.8125
-43.5,-0.4908738521234052,6.5
-53.0,0.08590292412159595,-2.4375
-60.0,1.8775924843720249,25.1875
-35.5,0.09203884727313838,1.625
-43.5,3.3624858870453256,8.9375
-42.5,-5.148039524144211,6.5
-53.0,-0.08590292412159606,-24.375
-58.5,1.9573594853420784,8.125
-38.5,-1.6444274046134075,5.6875
-51.0,4.221515128261284,17.875
-51.5,-2.552544031041707,-6.5
-43.5,-2.215068257706866,12.1875
-44.5,0.4786020058203201,13.0
-35.5,1.619883712007237,0.8125
-52.5,-2.055534255766759,-3.25
-38.5,0.5215534678811179,1.625
-43.5,-0.5522330836388307,13.8125
-51.0,4.871922982324796,3.25
-51.0,-2.5034566458293663,-22.75
-43.0,3.0925052683774523,1.625
-44.0,-4.945554060143307,1.625
-42.5,-0.22089323345553247,8.125
-59.5,1.5585244804918117,53.6875
-36.0,0.25157284921324496,0.0
-51.0,0.10431069357622347,0.8125
-44.5,-1.6689710972195775,-0.8125
-38.5,-0.006135923151542544,3.25
-51.0,4.25833066717054,9.75
-43.5,-4.743068596142402,0.0
-42.5,0.3190680038802135,-4.875
-43.5,5.080544369477244,6.5
-59.0,-3.049553806316655,-30.875
-53.0,-2.2273401040099507,-13.8125
-38.0,0.3620194659410113,5.6875
-35.5,1.5462526341887264,3.25
-43.5,3.3931655028030385,5.6875
-51.0,-3.1231848841351657,-11.375
-45.0,-1.8223691760081417,1.625
-53.0,-0.2699806186678728,-20.3125
-43.5,-0.23316507975861744,3.25
-51.0,4.779884135051658,5.6875
-42.5,-4.491495746929157,3.25
-59.5,2.380738182798515,-75.625
-35.5,-0.6258641614573417,2.4375
-38.5,-1.5155730184310137,0.8125
-44.5,0.018407769454627854,-1.625
-43.5,4.90260259808251,-1.625
-43.5,-5.405748296509,-1.625
-52.5,-0.012271846303085088,7.3125
-43.0,0.2638446955163303,0.8125
-51.5,1.9880391010997909,-2.4375
-58.5,0.024543692606170175,4.0625
-51.5,2.4605051837685683,11.375
-44.5,-4.215379205109741,-1.625
-35.5,1.466485633218673,8.125
-43.5,3.4238451185607506,3.25
-42.5,-5.141903600992669,3.25
-38.5,0.20862138715244716,4.875
-51.0,4.233786974564369,13.8125
-52.5,-4.540583132141498,-18.6875
-43.5,-0.17180584824319167,0.8125
-51.5,2.258019719767664,-8.125
-35.5,-0.21475731030399015,-0.8125
-38.0,-1.5462526341887262,1.625
-42.5,-0.23316507975861733,2.4375
-44.5,0.19021361769781953,4.875
-43.5,-0.4786020058203201,3.25
-43.5,5.424156065963627,8.125
-51.0,-0.6197282383057994,0.0
-52.0,-2.6384469551633027,19.5
-53.5,-2.012582793705961,-16.25
-35.5,1.9082721001297376,1.625
-43.5,-2.0800779483729297,6.5
-42.0,0.31293208072867085,1.625
-38.5,0.19021361769781953,6.5
-44.5,-0.024543692606170397,4.875
-50.5,4.442408361716817,-8.125
-43.0,0.5031456984264899,8.125
-51.5,-3.141592653589793,3.25
-54.0,-2.435961491162398,40.6875
-35.5,2.2150682577068657,5.6875
-51.5,0.09817477042468115,21.125
-38.0,-1.6076118657041518,0.0
-43.0,4.896466674930966,4.875
-43.5,-5.399612373357456,-0.8125
-51.0,4.693981210930062,8.125
-54.0,-4.620350133111551,-22.75
-42.5,0.2024854640009046,0.8125
-44.5,0.15339807878856404,7.3125
-35.5,1.5830681730979816,1.625
-38.0,-1.5155730184310134,0.8125
-51.0,4.135612204139688,31.6875
-51.5,-2.3316507975861747,-9.75
-44.5,-1.8407769454627694,0.8125
-42.5,-0.227029156607075,9.75
-53.0,-0.23316507975861733,5.6875
-43.5,5.3812046039028285,7.3125
-44.0,-5.393476450205914,0.8125
-36.0,2.030990563160589,1.625
-52.0,0.3067961575771281,-12.1875
-44.5,-1.8898643306751097,8.125
-50.5,4.25833066717054,8.9375
-43.5,0.6504078540635119,8.9375
-43.5,-5.368932757599745,-0.8125
-38.0,0.48473792897186263,1.625
-42.5,-0.23316507975861755,-2.4375
-51.0,0.024543692606170397,7.3125
-35.5,1.6935147898257477,5.6875
-38.5,-1.4726215563702154,3.25
-43.5,-0.521553467881118,5.6875
-42.5,0.227029156607075,6.5
-44.5,0.25770877236478773,0.8125
-43.5,4.9823695990525625,4.875
-50.5,-0.6504078540635119,8.125
-53.0,-1.8591847149173972,-5.6875
-51.0,-2.5280003384355365,5.6875
-61.0,1.5953400194010667,17.0625
-38.0,-1.4910293258248433,3.25
-35.0,1.466485633218673,5.6875
-51.0,2.7611654181941536,9.75
-43.5,-4.724660826687774,-0.8125
-60.0,1.8407769454627694,29.25
-53.0,1.030835089459151,21.125
-44.5,-2.4727770300716534,12.1875
-43.5,5.019185137961817,7.3125
-42.0,-5.203262832508095,3.25
-51.0,0.25770877236478773,1.625
-35.0,1.5033011721279284,0.0
-38.5,-1.4726215563702156,3.25
-42.5,-0.30066023442558554,4.875
-51.0,4.577398671050753,6.5
-53.0,-1.6444274046134075,-17.0625
-44.5,-2.6813984172241003,0.0
-43.0,-0.47246608266877754,1.625
-60.0,1.8530487917658545,28.4375
-44.0,3.595650966803943,6.5
-50.5,-4.90260259808251,7.3125
-35.0,1.4419419406125025,1.625
-53.0,0.9756117810952678,6.5
-44.5,-2.4727770300716534,0.0
-38.0,0.0674951546669682,-0.8125
-42.5,-0.31293208072867085,-1.625
-44.0,-0.9940195505498954,-4.0625
-50.0,1.4296700943094176,-9.75
-43.5,-0.6688156235181396,0.8125
-51.0,4.798291904506285,0.0
-60.5,-3.0740974989228245,23.5625
-34.5,0.19634954084936185,7.3125
-38.0,-1.3683108627939917,1.625
-43.5,-0.5399612373357456,-3.25
-50.5,4.6878452877785195,15.4375
-52.5,-1.5462526341887264,-26.0
-43.0,-2.988194574801229,4.875
-44.5,0.23316507975861755,4.875
-44.5,5.031456984264903,9.75
-49.5,-4.798291904506286,2.4375
-60.0,0.9142525495798421,38.1875
-34.5,0.3865631585471818,4.875
-44.5,3.5036121195308043,10.5625
-52.5,-2.5464081078901644,12.1875
-44.5,-2.454369260617026,-2.4375
-51.0,4.368777283898306,-2.4375
-49.5,-4.227651051412828,8.125
-38.0,0.006135923151542544,-0.8125
-42.5,-0.4663301595172348,4.875
-44.0,-0.1595340019401067,7.3125
-60.0,1.7794177139473437,17.875
-52.0,2.9206994201342606,4.875
-34.5,-2.736621725587984,0.8125
-44.5,-2.601631416254047,-4.0625
-42.5,0.8283496254582463,-0.8125
-38.0,0.4295146206079794,0.8125
-45.0,-0.17180584824319167,-0.8125
-44.0,-0.4417864669110647,-0.8125
-49.5,0.6688156235181395,-2.4375
-52.5,2.300971181828462,10.5625
-34.5,-1.0492428589137788,5.6875
-49.0,-1.3192234775816514,0.8125
-44.5,-1.2824079386723959,-0.8125
-45.5,1.0799224746714913,0.0
-42.5,-0.2822524649709579,-2.4375
-44.0,-0.18407769454627698,2.4375
-37.5,0.705631162427395,0.8125
-53.5,2.307107104980004,8.125
-53.0,1.662835174068035,4.875
-38.0,-4.000621894805752,4.875
-44.0,-0.7117670855789374,5.6875
-34.0,2.0371264863121312,1.625
-44.5,-2.6261751088602177,4.875
-49.5,1.1474176293384597,6.5
-53.0,4.04357335686655,1.625
-45.5,-4.080388895775805,0.0
-43.0,-0.3988350048502666,5.6875
-53.5,2.914563496982718,0.0
-61.0,-0.5829126993965437,-1.625
