40000000000000000000CC00,865.7,1.4848934,-81.375
40000000000000000000CC00,865.7,1.1842332,19.5
40000000000000000000CC00,865.7,1.1780972,49.625
40000000000000000000CC00,865.7,1.4603497,-17.875
40000000000000000000CC00,865.7,1.0246992,39.875
40000000000000000000CC00,865.7,0.6320001,69.125
40000000000000000000CC00,865.7,1.4787575,-52.875
40000000000000000000CC00,865.7,0.72403896,77.25
40000000000000000000CC00,865.7,1.3683108,-48.8125
40000000000000000000CC00,865.7,1.2946798,4.875
40000000000000000000CC00,865.7,1.4787575,-27.625
40000000000000000000CC00,865.7,1.0983303,22.75
40000000000000000000CC00,865.7,1.3376312,-42.3125
40000000000000000000CC00,865.7,1.2149128,30.875
40000000000000000000CC00,865.7,1.4173982,-46.375
40000000000000000000CC00,865.7,1.356039,-42.3125
40000000000000000000CC00,865.7,1.3008157,22.75
40000000000000000000CC00,865.7,1.1535536,36.5625
40000000000000000000CC00,865.7,1.2087768,18.6875
40000000000000000000CC00,865.7,1.4971652,-69.9375
40000000000000000000CC00,865.7,1.5707964,-29.25
40000000000000000000CC00,865.7,1.1719613,-28.4375
40000000000000000000CC00,865.7,1.0492429,43.125
40000000000000000000CC00,865.7,1.1106021,48.8125
40000000000000000000CC00,865.7,1.2640002,-12.1875
40000000000000000000CC00,865.7,1.2333206,22.75
40000000000000000000CC00,865.7,1.1412817,8.9375
40000000000000000000CC00,865.7,1.1290098,13.8125
40000000000000000000CC00,865.7,1.7978255,-85.4375
40000000000000000000CC00,865.7,1.6382915,-21.125
40000000000000000000CC00,865.7,1.5707964,-31.6875
40000000000000000000CC00,865.7,1.7610099,-67.5
40000000000000000000CC00,865.7,1.2824079,-12.1875
40000000000000000000CC00,865.7,1.8837284,-113.875
40000000000000000000CC00,865.7,1.6996508,-99.25
40000000000000000000CC00,865.7,1.3069516,-9.75
40000000000000000000CC00,865.7,1.1228739,77.25
40000000000000000000CC00,865.7,1.3683108,-13.8125
40000000000000000000CC00,865.7,1.030835,33.3125
40000000000000000000CC00,865.7,1.4787575,2.4375
40000000000000000000CC00,865.7,1.0860584,32.5
40000000000000000000CC00,865.7,1.4051265,8.125
40000000000000000000CC00,865.7,1.5094371,-65.875
40000000000000000000CC00,865.7,1.5646604,-78.0625
40000000000000000000CC00,865.7,1.7241944,-54.5
40000000000000000000CC00,865.7,1.3805827,34.125
40000000000000000000CC00,865.7,1.2394565,-8.125
40000000000000000000CC00,865.7,1.0799224,43.125
40000000000000000000CC00,865.7,1.1044662,36.5625
40000000000000000000CC00,865.7,1.0676507,75.625
40000000000000000000CC00,865.7,1.5462526,-74.8125
40000000000000000000CC00,865.7,1.1842332,47.1875
40000000000000000000CC00,865.7,1.3008157,2.4375
40000000000000000000CC00,865.7,1.2271847,30.875
40000000000000000000CC00,865.7,1.2333206,4.875
40000000000000000000CC00,865.7,1.3314953,-50.4375
40000000000000000000CC00,865.7,0.6442719,101.6875
40000000000000000000CC00,865.7,1.2946798,26.8125
40000000000000000000CC00,865.7,1.1842332,14.625
40000000000000000000CC00,865.7,1.4051265,-26.8125
40000000000000000000CC00,865.7,1.1719613,32.5
40000000000000000000CC00,865.7,1.1412817,6.5
40000000000000000000CC00,865.7,1.5892041,-72.375
40000000000000000000CC00,865.7,1.3805827,-32.5
40000000000000000000CC00,865.7,1.3928546,-0.8125
40000000000000000000CC00,865.7,1.1290098,45.5625
40000000000000000000CC00,865.7,1.0431069,87.875
40000000000000000000CC00,865.7,1.3683108,17.875
40000000000000000000CC00,865.7,1.515573,-12.1875
40000000000000000000CC00,865.7,1.2333206,34.9375
40000000000000000000CC00,865.7,1.2885438,2.4375
40000000000000000000CC00,865.7,1.2824079,4.875
40000000000000000000CC00,865.7,1.6198837,-48.8125
40000000000000000000CC00,865.7,1.2026409,38.1875
40000000000000000000CC00,865.7,1.681243,-17.0625
40000000000000000000CC00,865.7,1.1903691,65.875
40000000000000000000CC00,865.7,1.5339808,22.75
40000000000000000000CC00,865.7,1.5523885,-30.875
40000000000000000000CC00,865.7,1.3130876,14.625
40000000000000000000CC00,865.7,1.356039,38.1875
40000000000000000000CC00,865.7,1.3069516,-22.75
40000000000000000000CC00,865.7,1.5094371,-66.6875
40000000000000000000CC00,865.7,1.4664856,-19.5
40000000000000000000CC00,865.7,1.2455924,86.25
40000000000000000000CC00,865.7,1.8162333,-27.625
40000000000000000000CC00,865.7,1.6566993,-11.375
40000000000000000000CC00,865.7,1.3499031,38.1875
40000000000000000000CC00,865.7,1.5707964,-19.5
40000000000000000000CC00,865.7,1.4542137,33.3125
40000000000000000000CC00,865.7,1.4480779,0.8125
40000000000000000000CC00,865.7,1.4910294,-3.25
40000000000000000000CC00,865.7,1.7180585,-44.75
40000000000000000000CC00,865.7,1.2455924,12.1875
40000000000000000000CC00,865.7,1.2026409,34.9375
40000000000000000000CC00,865.7,1.435806,-1.625
40000000000000000000CC00,865.7,1.8714565,-53.6875
40000000000000000000CC00,865.7,1.6382915,-67.5
40000000000000000000CC00,865.7,1.6076119,-8.125
40000000000000000000CC00,865.7,1.1965051,58.5625
40000000000000000000CC00,865.7,1.6996508,-85.4375
40000000000000000000CC00,865.7,1.4542137,5.6875
40000000000000000000CC00,865.7,2.067806,-95.1875
40000000000000000000CC00,865.7,1.1351458,69.9375
40000000000000000000CC00,865.7,1.6076119,-8.125
40000000000000000000CC00,865.7,1.521709,-0.8125
40000000000000000000CC00,865.7,1.6444274,-16.25
40000000000000000000CC00,865.7,1.6996508,-31.6875
40000000000000000000CC00,865.7,1.601476,-21.125
40000000000000000000CC00,865.7,1.6505634,-5.6875
40000000000000000000CC00,865.7,1.1535536,49.625
40000000000000000000CC00,865.7,1.5339808,30.875
40000000000000000000CC00,865.7,1.4296701,-23.5625
40000000000000000000CC00,865.7,1.5892041,-14.625
40000000000000000000CC00,865.7,1.4051265,54.5
40000000000000000000CC00,865.7,1.5585245,2.4375
40000000000000000000CC00,865.7,1.4173982,20.3125
40000000000000000000CC00,865.7,1.7855537,-89.5
40000000000000000000CC00,865.7,1.6260196,-17.0625
40000000000000000000CC00,865.7,1.4480779,20.3125
40000000000000000000CC00,865.7,1.6076119,6.5
40000000000000000000CC00,865.7,1.7364663,-9.75
40000000000000000000CC00,865.7,1.435806,19.5
40000000000000000000CC00,865.7,1.4664856,-1.625
40000000000000000000CC00,865.7,1.2824079,36.5625
40000000000000000000CC00,865.7,1.515573,52.0625
40000000000000000000CC00,865.7,1.521709,-12.1875
40000000000000000000CC00,865.7,1.6935148,-21.125
40000000000000000000CC00,865.7,1.515573,9.75
40000000000000000000CC00,865.7,1.4296701,48.8125
40000000000000000000CC00,865.7,1.7916895,-22.75
40000000000000000000CC00,865.7,1.5892041,7.3125
40000000000000000000CC00,865.7,1.4603497,37.375
40000000000000000000CC00,865.7,1.8223692,-17.875
40000000000000000000CC00,865.7,1.4112623,52.0625
40000000000000000000CC00,865.7,1.4542137,34.125
40000000000000000000CC00,865.7,1.5278449,60.1875
40000000000000000000CC00,865.7,1.276272,88.6875
40000000000000000000CC00,865.7,1.7057866,-8.9375
40000000000000000000CC00,865.7,1.8837284,-14.625
40000000000000000000CC00,865.7,1.435806,5.6875
40000000000000000000CC00,865.7,1.6260196,33.3125
40000000000000000000CC00,865.7,1.7303303,0.0
40000000000000000000CC00,865.7,1.8775924,-27.625
40000000000000000000CC00,865.7,1.6321555,41.5
40000000000000000000CC00,865.7,1.5892041,47.1875
40000000000000000000CC00,865.7,1.9819032,-1.625
40000000000000000000CC00,865.7,1.7794178,-16.25
40000000000000000000CC00,865.7,1.9757673,-34.125
40000000000000000000CC00,865.7,2.0862138,-63.4375
40000000000000000000CC00,865.7,1.5830681,21.125
40000000000000000000CC00,865.7,1.6321555,18.6875
40000000000000000000CC00,865.7,1.748738,0.8125
40000000000000000000CC00,865.7,1.5339808,28.4375
40000000000000000000CC00,865.7,1.9450877,7.3125
40000000000000000000CC00,865.7,1.3069516,86.25
40000000000000000000CC00,865.7,1.7364663,18.6875
40000000000000000000CC00,865.7,1.8653207,-6.5
40000000000000000000CC00,865.7,1.6260196,36.5625
40000000000000000000CC00,865.7,1.8469129,1.625
40000000000000000000CC00,865.7,1.9082721,-3.25
40000000000000000000CC00,865.7,1.5707964,49.625
40000000000000000000CC00,865.7,1.7978255,-13.8125
40000000000000000000CC00,865.7,2.0555344,-43.9375
40000000000000000000CC00,865.7,1.6505634,34.125
40000000000000000000CC00,865.7,1.7180585,45.5625
40000000000000000000CC00,865.7,1.8653207,5.6875
40000000000000000000CC00,865.7,1.8039614,24.375
40000000000000000000CC00,865.7,1.6996508,33.3125
40000000000000000000CC00,865.7,2.153709,-50.4375
40000000000000000000CC00,865.7,2.1782527,-47.1875
40000000000000000000CC00,865.7,1.7732818,6.5
40000000000000000000CC00,865.7,2.2518837,-58.5625
40000000000000000000CC00,865.7,1.4112623,75.625
40000000000000000000CC00,865.7,1.8100973,-14.625
40000000000000000000CC00,865.7,1.7303303,8.125
40000000000000000000CC00,865.7,1.6137478,36.5625
40000000000000000000CC00,865.7,1.9082721,3.25
40000000000000000000CC00,865.7,1.8837284,-20.3125
40000000000000000000CC00,865.7,2.1107576,-39.875
40000000000000000000CC00,865.7,1.9205439,1.625
40000000000000000000CC00,865.7,1.5892041,43.125
40000000000000000000CC00,865.7,2.3193789,-38.1875
40000000000000000000CC00,865.7,2.0862138,-59.375
40000000000000000000CC00,865.7,1.5278449,47.1875
40000000000000000000CC00,865.7,1.6689711,25.1875
40000000000000000000CC00,865.7,1.7180585,34.9375
40000000000000000000CC00,865.7,2.1843886,-52.875
40000000000000000000CC00,865.7,2.0923498,-26.8125
40000000000000000000CC00,865.7,1.8837284,10.5625
40000000000000000000CC00,865.7,1.7241944,41.5
40000000000000000000CC00,865.7,1.9819032,18.6875
40000000000000000000CC00,865.7,1.5769322,69.125
40000000000000000000CC00,865.7,2.0984857,-52.0625
40000000000000000000CC00,865.7,2.2457478,-24.375
40000000000000000000CC00,865.7,1.6444274,71.5625
40000000000000000000CC00,865.7,2.073942,-20.3125
40000000000000000000CC00,865.7,1.8775924,22.75
40000000000000000000CC00,865.7,2.1046216,-40.6875
40000000000000000000CC00,865.7,1.6628351,57.75
40000000000000000000CC00,865.7,2.1230295,-26.0
40000000000000000000CC00,865.7,1.6198837,63.4375
40000000000000000000CC00,865.7,1.4848934,85.4375
40000000000000000000CC00,865.7,2.1598449,17.875
40000000000000000000CC00,865.7,2.000311,-2.4375
40000000000000000000CC00,865.7,2.3561945,-32.5
40000000000000000000CC00,865.7,1.9512236,9.75
40000000000000000000CC00,865.7,2.313243,-40.6875
40000000000000000000CC00,865.7,2.0432625,1.625
40000000000000000000CC00,865.7,1.9389517,15.4375
40000000000000000000CC00,865.7,1.7364663,69.9375
40000000000000000000CC00,865.7,1.6566993,58.5625
40000000000000000000CC00,865.7,2.0984857,-8.125
40000000000000000000CC00,865.7,2.1598449,12.1875
40000000000000000000CC00,865.7,2.3377867,-47.1875
40000000000000000000CC00,865.7,1.6198837,76.4375
40000000000000000000CC00,865.7,2.1659808,-35.75
40000000000000000000CC00,865.7,1.7426022,80.5625
40000000000000000000CC00,865.7,2.3377867,-24.375
40000000000000000000CC00,865.7,2.1782527,-11.375
40000000000000000000CC00,865.7,2.0371265,-15.4375
40000000000000000000CC00,865.7,2.4850488,-37.375
40000000000000000000CC00,865.7,2.0309906,-2.4375
40000000000000000000CC00,865.7,2.2641556,-37.375
40000000000000000000CC00,865.7,1.7241944,52.0625
40000000000000000000CC00,865.7,1.9941751,3.25
40000000000000000000CC00,865.7,2.3071072,-18.6875
40000000000000000000CC00,865.7,1.7732818,26.0
40000000000000000000CC00,865.7,2.1353014,-26.0
40000000000000000000CC00,865.7,1.8407769,17.875
40000000000000000000CC00,865.7,1.8469129,46.375
40000000000000000000CC00,865.7,1.8960003,19.5
40000000000000000000CC00,865.7,1.9819032,6.5
40000000000000000000CC00,865.7,1.6321555,61.8125
40000000000000000000CC00,865.7,1.6996508,54.5
40000000000000000000CC00,865.7,2.4175537,-10.5625
40000000000000000000CC00,865.7,1.8285052,11.375
40000000000000000000CC00,865.7,2.0248547,11.375
40000000000000000000CC00,865.7,1.9205439,27.625
40000000000000000000CC00,865.7,1.9389517,6.5
40000000000000000000CC00,865.7,2.2886994,-16.25
40000000000000000000CC00,865.7,2.1168935,8.9375
40000000000000000000CC00,865.7,2.2948353,-47.1875
40000000000000000000CC00,865.7,2.478913,-0.8125
40000000000000000000CC00,865.7,1.8898643,1.625
40000000000000000000CC00,865.7,1.9634954,11.375
40000000000000000000CC00,865.7,2.4911847,-77.25
40000000000000000000CC00,865.7,2.5341363,-52.875
40000000000000000000CC00,865.7,2.1966605,-19.5
40000000000000000000CC00,865.7,2.5280004,-53.6875
40000000000000000000CC00,865.7,2.2027965,-3.25
40000000000000000000CC00,865.7,2.1168935,-5.6875
40000000000000000000CC00,865.7,2.4605052,-64.25
40000000000000000000CC00,865.7,2.233476,-33.3125
40000000000000000000CC00,865.7,1.9021362,48.8125
40000000000000000000CC00,865.7,2.1966605,-17.0625
40000000000000000000CC00,865.7,1.748738,50.4375
40000000000000000000CC00,865.7,2.2764275,-28.4375
40000000000000000000CC00,865.7,2.0371265,0.0
40000000000000000000CC00,865.7,2.0125828,17.875
40000000000000000000CC00,865.7,1.7671459,50.4375
40000000000000000000CC00,865.7,1.7978255,52.875
40000000000000000000CC00,865.7,2.5648158,-54.5
40000000000000000000CC00,865.7,2.06167,34.125
40000000000000000000CC00,865.7,1.8591847,37.375
40000000000000000000CC00,865.7,2.2518837,6.5
40000000000000000000CC00,865.7,2.1843886,-22.75
40000000000000000000CC00,865.7,2.1782527,-18.6875
40000000000000000000CC00,865.7,2.2457478,-24.375
40000000000000000000CC00,865.7,1.5646604,83.0
40000000000000000000CC00,865.7,2.3623304,-25.1875
40000000000000000000CC00,865.7,2.2457478,-25.1875
40000000000000000000CC00,865.7,2.4052818,-39.875
40000000000000000000CC00,865.7,2.1598449,26.8125
40000000000000000000CC00,865.7,2.718214,-67.5
40000000000000000000CC00,865.7,1.6873789,71.5625
40000000000000000000CC00,865.7,1.9450877,64.25
40000000000000000000CC00,865.7,1.914408,37.375
40000000000000000000CC00,865.7,2.2764275,-8.9375
40000000000000000000CC00,865.7,1.8100973,87.875
40000000000000000000CC00,865.7,2.5034566,-48.8125
40000000000000000000CC00,865.7,2.5157285,-25.1875
40000000000000000000CC00,865.7,2.4359615,-17.0625
40000000000000000000CC00,865.7,2.4420974,8.125
40000000000000000000CC00,865.7,2.5402722,-48.8125
40000000000000000000CC00,865.7,2.4236896,-1.625
40000000000000000000CC00,865.7,2.0862138,25.1875
40000000000000000000CC00,865.7,1.9880391,52.0625
40000000000000000000CC00,865.7,1.8960003,60.1875
40000000000000000000CC00,865.7,2.4114177,3.25
40000000000000000000CC00,865.7,2.233476,34.125
40000000000000000000CC00,865.7,2.2702916,38.1875
40000000000000000000CC00,865.7,2.2641556,13.8125
40000000000000000000CC00,865.7,2.3868742,-37.375
40000000000000000000CC00,865.7,2.4420974,25.1875
40000000000000000000CC00,865.7,2.3377867,-27.625
40000000000000000000CC00,865.7,2.1291654,9.75
40000000000000000000CC00,865.7,2.2825634,15.4375
40000000000000000000CC00,865.7,2.6016314,-51.25
40000000000000000000CC00,865.7,2.5832236,21.125
40000000000000000000CC00,865.7,2.7550294,-63.4375
40000000000000000000CC00,865.7,2.2764275,21.125
40000000000000000000CC00,865.7,2.6813984,-19.5
40000000000000000000CC00,865.7,2.0125828,63.4375
40000000000000000000CC00,865.7,2.313243,8.125
40000000000000000000CC00,865.7,2.4236896,-3.25
40000000000000000000CC00,865.7,2.4973207,18.6875
40000000000000000000CC00,865.7,2.1107576,20.3125
40000000000000000000CC00,865.7,2.644583,-57.75
40000000000000000000CC00,865.7,2.1966605,1.625
40000000000000000000CC00,865.7,2.2764275,20.3125
40000000000000000000CC00,865.7,2.4911847,-13.8125
40000000000000000000CC00,865.7,2.0187187,162.75
40000000000000000000CC00,865.7,2.552544,27.625
40000000000000000000CC00,865.7,2.3255148,11.375
40000000000000000000CC00,865.7,1.8653207,64.25
40000000000000000000CC00,865.7,2.1414373,32.5
40000000000000000000CC00,865.7,1.2517283,142.375
40000000000000000000CC00,865.7,2.4850488,-26.0
40000000000000000000CC00,865.7,2.2948353,9.75
40000000000000000000CC00,865.7,2.0064468,45.5625
40000000000000000000CC00,865.7,1.9573594,39.875
40000000000000000000CC00,865.7,1.7916895,80.5625
40000000000000000000CC00,865.7,2.1353014,16.25
40000000000000000000CC00,865.7,2.6752625,-16.25
40000000000000000000CC00,865.7,2.4850488,50.4375
40000000000000000000CC00,865.7,2.233476,4.875
40000000000000000000CC00,865.7,2.0248547,46.375
40000000000000000000CC00,865.7,2.1905246,37.375
40000000000000000000CC00,865.7,2.067806,34.125
40000000000000000000CC00,865.7,2.000311,95.1875
40000000000000000000CC00,865.7,2.791845,-12.1875
40000000000000000000CC00,865.7,2.8347964,-10.5625
40000000000000000000CC00,865.7,3.0740974,5.6875
40000000000000000000CC00,865.7,3.1661363,0.8125
40000000000000000000CC00,865.7,2.4236896,50.4375
40000000000000000000CC00,865.7,2.5402722,9.75
40000000000000000000CC00,865.7,3.2520392,-20.3125
40000000000000000000CC00,865.7,3.0556898,32.5
40000000000000000000CC00,865.7,2.9881945,25.1875
40000000000000000000CC00,865.7,2.6139033,43.9375
40000000000000000000CC00,865.7,3.2888548,-14.625
40000000000000000000CC00,865.7,2.72435,102.5
40000000000000000000CC00,865.7,3.0986412,22.75
40000000000000000000CC00,865.7,3.0986412,27.625
40000000000000000000CC00,865.7,3.276583,6.5
40000000000000000000CC00,865.7,3.3808937,2.4375
40000000000000000000CC00,865.7,3.2397673,21.125
40000000000000000000CC00,865.7,2.5832236,120.4375
40000000000000000000CC00,865.7,2.951379,75.625
40000000000000000000CC00,865.7,2.7550294,62.625
40000000000000000000CC00,865.7,3.196816,41.5
40000000000000000000CC00,865.7,3.3318062,31.6875
40000000000000000000CC00,865.7,3.0679617,42.3125
40000000000000000000CC00,865.7,3.2459033,43.125
40000000000000000000CC00,865.7,3.4852045,-26.8125
40000000000000000000CC00,865.7,3.350214,24.375
40000000000000000000CC00,865.7,3.4115732,17.0625
40000000000000000000CC00,865.7,3.270447,27.625
40000000000000000000CC00,865.7,3.7858646,-54.5
40000000000000000000CC00,865.7,3.3931656,20.3125
40000000000000000000CC00,865.7,3.4054372,11.375
40000000000000000000CC00,865.7,3.4606607,-14.625
40000000000000000000CC00,865.7,3.4790685,0.8125
40000000000000000000CC00,865.7,3.5588355,-16.25
40000000000000000000CC00,865.7,3.429981,11.375
40000000000000000000CC00,865.7,3.4545248,-0.8125
40000000000000000000CC00,865.7,3.6079228,-4.875
40000000000000000000CC00,865.7,3.7183695,-52.875
40000000000000000000CC00,865.7,3.1600003,41.5
40000000000000000000CC00,865.7,3.104777,52.875
40000000000000000000CC00,865.7,3.429981,15.4375
40000000000000000000CC00,865.7,3.5404277,7.3125
40000000000000000000CC00,865.7,3.7183695,-35.75
40000000000000000000CC00,865.7,3.589515,-22.75
40000000000000000000CC00,865.7,3.3747578,7.3125
40000000000000000000CC00,865.7,3.5342917,-0.8125
40000000000000000000CC00,865.7,2.9943304,69.125
40000000000000000000CC00,865.7,3.0127382,71.5625
40000000000000000000CC00,865.7,3.4483888,3.25
40000000000000000000CC00,865.7,3.270447,17.875
40000000000000000000CC00,865.7,3.6079228,-35.75
40000000000000000000CC00,865.7,3.5711074,-18.6875
40000000000000000000CC00,865.7,3.429981,-1.625
40000000000000000000CC00,865.7,3.117049,48.8125
40000000000000000000CC00,865.7,3.184544,43.125
40000000000000000000CC00,865.7,3.0802333,50.4375
40000000000000000000CC00,865.7,3.4422529,-18.6875
40000000000000000000CC00,865.7,3.350214,7.3125
40000000000000000000CC00,865.7,3.264311,9.75
40000000000000000000CC00,865.7,3.110913,42.3125
40000000000000000000CC00,865.7,3.264311,-4.875
40000000000000000000CC00,865.7,3.7183695,-63.4375
40000000000000000000CC00,865.7,3.264311,-3.25
40000000000000000000CC00,865.7,3.0863693,3.25
40000000000000000000CC00,865.7,3.202952,10.5625
40000000000000000000CC00,865.7,3.2459033,-7.3125
40000000000000000000CC00,865.7,3.276583,12.1875
40000000000000000000CC00,865.7,3.3318062,-24.375
40000000000000000000CC00,865.7,2.871612,47.1875
40000000000000000000CC00,865.7,3.3256702,-30.875
40000000000000000000CC00,865.7,3.196816,-2.4375
40000000000000000000CC00,865.7,2.9452431,24.375
40000000000000000000CC00,865.7,2.797981,36.5625
40000000000000000000CC00,865.7,3.2152238,-10.5625
40000000000000000000CC00,865.7,3.0679617,28.4375
40000000000000000000CC00,865.7,3.19068,-1.625
40000000000000000000CC00,865.7,2.951379,27.625
40000000000000000000CC00,865.7,2.804117,38.1875
40000000000000000000CC00,865.7,2.7857091,43.125
40000000000000000000CC00,865.7,3.0618258,3.25
40000000000000000000CC00,865.7,3.1293209,-14.625
40000000000000000000CC00,865.7,2.9820588,8.9375
40000000000000000000CC00,865.7,3.037282,8.125
40000000000000000000CC00,865.7,3.276583,-26.0
40000000000000000000CC00,865.7,2.8654761,5.6875
40000000000000000000CC00,865.7,3.104777,-33.3125
40000000000000000000CC00,865.7,3.202952,-24.375
40000000000000000000CC00,865.7,2.7366216,34.125
40000000000000000000CC00,865.7,2.7673013,21.125
40000000000000000000CC00,865.7,2.72435,23.5625
40000000000000000000CC00,865.7,2.9391072,-9.75
40000000000000000000CC00,865.7,2.9820588,-3.25
40000000000000000000CC00,865.7,2.6507187,16.25
40000000000000000000CC00,865.7,3.02501,-29.25
40000000000000000000CC00,865.7,3.031146,-17.0625
40000000000000000000CC00,865.7,2.9759228,-19.5
40000000000000000000CC00,865.7,2.8225245,23.5625
40000000000000000000CC00,865.7,2.718214,29.25
40000000000000000000CC00,865.7,3.110913,-43.125
40000000000000000000CC00,865.7,2.7673013,-4.875
40000000000000000000CC00,865.7,2.797981,-2.4375
40000000000000000000CC00,865.7,2.552544,34.125
40000000000000000000CC00,865.7,2.718214,6.5
40000000000000000000CC00,865.7,2.791845,-0.8125
40000000000000000000CC00,865.7,2.804117,8.9375
40000000000000000000CC00,865.7,2.8961558,-10.5625
40000000000000000000CC00,865.7,2.8286605,-11.375
40000000000000000000CC00,865.7,2.644583,23.5625
40000000000000000000CC00,865.7,2.5709517,43.125
40000000000000000000CC00,865.7,2.6813984,8.9375
40000000000000000000CC00,865.7,3.0004663,-45.5625
40000000000000000000CC00,865.7,2.712078,-7.3125
40000000000000000000CC00,865.7,2.4605052,29.25
40000000000000000000CC00,865.7,2.8225245,-17.0625
40000000000000000000CC00,865.7,2.877748,-9.75
40000000000000000000CC00,865.7,2.9084275,-30.875
40000000000000000000CC00,865.7,2.1843886,80.5625
40000000000000000000CC00,865.7,2.478913,44.75
40000000000000000000CC00,865.7,2.4114177,17.875
40000000000000000000CC00,865.7,2.72435,-5.6875
40000000000000000000CC00,865.7,2.2764275,45.5625
40000000000000000000CC00,865.7,2.7795732,-7.3125
40000000000000000000CC00,865.7,2.3439226,48.8125
40000000000000000000CC00,865.7,2.7857091,-22.75
40000000000000000000CC00,865.7,2.2396119,54.5
40000000000000000000CC00,865.7,2.5893595,-2.4375
40000000000000000000CC00,865.7,2.638447,-4.875
40000000000000000000CC00,865.7,2.6813984,-15.4375
40000000000000000000CC00,865.7,2.6139033,-0.8125
40000000000000000000CC00,865.7,2.7550294,-15.4375
40000000000000000000CC00,865.7,2.6568546,-10.5625
40000000000000000000CC00,865.7,2.1966605,52.0625
40000000000000000000CC00,865.7,2.6752625,-16.25
40000000000000000000CC00,865.7,2.5893595,-6.5
40000000000000000000CC00,865.7,2.2457478,24.375
40000000000000000000CC00,865.7,2.6629906,-7.3125
40000000000000000000CC00,865.7,2.3561945,35.75
40000000000000000000CC00,865.7,2.5464082,0.0
40000000000000000000CC00,865.7,2.3316507,23.5625
40000000000000000000CC00,865.7,2.4605052,-2.4375
40000000000000000000CC00,865.7,2.5709517,-18.6875
40000000000000000000CC00,865.7,2.1843886,26.0
40000000000000000000CC00,865.7,2.3746023,18.6875
40000000000000000000CC00,865.7,2.4850488,6.5
40000000000000000000CC00,865.7,2.5218644,2.4375
40000000000000000000CC00,865.7,2.5280004,-7.3125
40000000000000000000CC00,865.7,2.4666412,-3.25
40000000000000000000CC00,865.7,2.6936703,-41.5
40000000000000000000CC00,865.7,2.478913,-17.0625
40000000000000000000CC00,865.7,2.3071072,15.4375
40000000000000000000CC00,865.7,2.2886994,3.25
40000000000000000000CC00,865.7,2.3807383,-10.5625
40000000000000000000CC00,865.7,2.5954955,-16.25
40000000000000000000CC00,865.7,2.3623304,1.625
40000000000000000000CC00,865.7,2.4666412,-30.875
40000000000000000000CC00,865.7,2.4605052,-13.8125
40000000000000000000CC00,865.7,2.3561945,-7.3125
40000000000000000000CC00,865.7,2.2273402,16.25
40000000000000000000CC00,865.7,2.5770876,-25.1875
40000000000000000000CC00,865.7,2.06167,45.5625
40000000000000000000CC00,865.7,2.2212043,2.4375
40000000000000000000CC00,865.7,2.1107576,30.875
40000000000000000000CC00,865.7,2.4973207,-10.5625
40000000000000000000CC00,865.7,2.3316507,0.8125
40000000000000000000CC00,865.7,2.6200392,-52.0625
40000000000000000000CC00,865.7,2.3500586,-3.25
40000000000000000000CC00,865.7,2.3009713,15.4375
40000000000000000000CC00,865.7,2.2518837,7.3125
40000000000000000000CC00,865.7,2.3991458,-7.3125
40000000000000000000CC00,865.7,2.3991458,0.0
40000000000000000000CC00,865.7,2.3500586,-14.625
40000000000000000000CC00,865.7,2.3071072,1.625
40000000000000000000CC00,865.7,1.9880391,40.6875
40000000000000000000CC00,865.7,2.1046216,31.6875
40000000000000000000CC00,865.7,2.1966605,6.5
40000000000000000000CC00,865.7,2.3316507,-14.625
40000000000000000000CC00,865.7,2.2150683,19.5
40000000000000000000CC00,865.7,1.9941751,34.125
40000000000000000000CC00,865.7,1.9819032,47.1875
40000000000000000000CC00,865.7,2.1353014,25.1875
40000000000000000000CC00,865.7,2.147573,22.75
40000000000000000000CC00,865.7,2.3500586,-20.3125
40000000000000000000CC00,865.7,2.3439226,-14.625
40000000000000000000CC00,865.7,2.1107576,0.8125
40000000000000000000CC00,865.7,2.2150683,-4.875
40000000000000000000CC00,865.7,2.1291654,3.25
40000000000000000000CC00,865.7,2.2273402,2.4375
40000000000000000000CC00,865.7,2.06167,14.625
40000000000000000000CC00,865.7,2.0984857,18.6875
40000000000000000000CC00,865.7,1.9450877,33.3125
40000000000000000000CC00,865.7,2.2212043,0.8125
40000000000000000000CC00,865.7,2.2457478,-2.4375
40000000000000000000CC00,865.7,2.3255148,-20.3125
40000000000000000000CC00,865.7,2.0555344,24.375
40000000000000000000CC00,865.7,2.1046216,-8.125
40000000000000000000CC00,865.7,2.153709,1.625
40000000000000000000CC00,865.7,2.0984857,-1.625
40000000000000000000CC00,865.7,2.2027965,-26.0
40000000000000000000CC00,865.7,2.1782527,-43.9375
40000000000000000000CC00,865.7,2.0248547,9.75
40000000000000000000CC00,865.7,1.9082721,30.875
40000000000000000000CC00,865.7,2.2150683,-8.125
40000000000000000000CC00,865.7,2.1598449,-2.4375
40000000000000000000CC00,865.7,1.9389517,13.8125
40000000000000000000CC00,865.7,2.1291654,-16.25
40000000000000000000CC00,865.7,2.313243,-29.25
40000000000000000000CC00,865.7,2.0862138,8.125
40000000000000000000CC00,865.7,2.073942,-14.625
40000000000000000000CC00,865.7,1.8837284,15.4375
40000000000000000000CC00,865.7,1.6505634,64.25
40000000000000000000CC00,865.7,1.6628351,50.4375
40000000000000000000CC00,865.7,2.06167,-17.875
40000000000000000000CC00,865.7,1.7426022,34.9375
40000000000000000000CC00,865.7,1.7610099,26.0
40000000000000000000CC00,865.7,2.073942,-16.25
40000000000000000000CC00,865.7,1.748738,32.5
40000000000000000000CC00,865.7,1.8898643,0.0
40000000000000000000CC00,865.7,2.0309906,-4.875
40000000000000000000CC00,865.7,1.8653207,19.5
40000000000000000000CC00,865.7,1.8653207,14.625
40000000000000000000CC00,865.7,1.8837284,12.1875
40000000000000000000CC00,865.7,1.8223692,22.75
40000000000000000000CC00,865.7,2.0555344,-1.625
40000000000000000000CC00,865.7,1.8837284,8.9375
40000000000000000000CC00,865.7,1.9880391,-1.625
40000000000000000000CC00,865.7,1.59534,54.5
40000000000000000000CC00,865.7,1.6566993,30.875
40000000000000000000CC00,865.7,1.8039614,30.875
40000000000000000000CC00,865.7,2.0371265,-8.125
40000000000000000000CC00,865.7,2.1107576,-23.5625
40000000000000000000CC00,865.7,2.0493984,-25.1875
40000000000000000000CC00,865.7,1.4971652,66.6875
40000000000000000000CC00,865.7,1.681243,26.0
40000000000000000000CC00,865.7,1.8162333,-7.3125
40000000000000000000CC00,865.7,1.59534,52.875
40000000000000000000CC00,865.7,1.9941751,-7.3125
40000000000000000000CC00,865.7,2.0984857,-28.4375
40000000000000000000CC00,865.7,1.6935148,14.625
40000000000000000000CC00,865.7,1.8714565,-8.9375
40000000000000000000CC00,865.7,1.8469129,-0.8125
40000000000000000000CC00,865.7,1.4910294,62.625
40000000000000000000CC00,865.7,1.7916895,6.5
40000000000000000000CC00,865.7,1.9328158,-26.0
40000000000000000000CC00,865.7,1.754874,8.125
40000000000000000000CC00,865.7,1.9266798,-11.375
40000000000000000000CC00,865.7,1.601476,26.8125
40000000000000000000CC00,865.7,2.0862138,-31.6875
40000000000000000000CC00,865.7,1.8162333,-11.375
40000000000000000000CC00,865.7,1.9389517,0.0
40000000000000000000CC00,865.7,1.6566993,19.5
40000000000000000000CC00,865.7,1.5462526,42.3125
40000000000000000000CC00,865.7,1.5646604,32.5
40000000000000000000CC00,865.7,1.6566993,8.9375
40000000000000000000CC00,865.7,1.7855537,16.25
40000000000000000000CC00,865.7,1.7732818,-2.4375
40000000000000000000CC00,865.7,1.6996508,20.3125
40000000000000000000CC00,865.7,1.4787575,38.1875
40000000000000000000CC00,865.7,1.7119225,4.875
40000000000000000000CC00,865.7,1.6566993,-0.8125
40000000000000000000CC00,865.7,1.7180585,-2.4375
40000000000000000000CC00,865.7,1.8960003,-19.5
40000000000000000000CC00,865.7,1.5278449,26.8125
40000000000000000000CC00,865.7,1.5585245,6.5
40000000000000000000CC00,865.7,1.5892041,22.75
40000000000000000000CC00,865.7,1.5033011,31.6875
40000000000000000000CC00,865.7,1.7610099,-31.6875
40000000000000000000CC00,865.7,1.6873789,8.9375
40000000000000000000CC00,865.7,1.6628351,-18.6875
40000000000000000000CC00,865.7,1.5892041,23.5625
40000000000000000000CC00,865.7,1.7303303,-26.8125
40000000000000000000CC00,865.7,1.5769322,22.75
40000000000000000000CC00,865.7,1.681243,-6.5
40000000000000000000CC00,865.7,1.675107,-5.6875
40000000000000000000CC00,865.7,1.3437672,49.625
40000000000000000000CC00,865.7,1.6505634,-7.3125
40000000000000000000CC00,865.7,1.6198837,5.6875
40000000000000000000CC00,865.7,1.515573,8.9375
40000000000000000000CC00,865.7,1.681243,25.1875
40000000000000000000CC00,865.7,1.6689711,2.4375
40000000000000000000CC00,865.7,1.4848934,6.5
40000000000000000000CC00,865.7,1.5094371,21.125
40000000000000000000CC00,865.7,1.4664856,26.0
40000000000000000000CC00,865.7,1.4603497,28.4375
40000000000000000000CC00,865.7,1.7671459,-28.4375
40000000000000000000CC00,865.7,1.6076119,-8.125
40000000000000000000CC00,865.7,1.6935148,-6.5
40000000000000000000CC00,865.7,1.5462526,2.4375
40000000000000000000CC00,865.7,1.441942,33.3125
40000000000000000000CC00,865.7,1.276272,45.5625
40000000000000000000CC00,865.7,1.356039,45.5625
40000000000000000000CC00,865.7,1.3928546,47.1875
40000000000000000000CC00,865.7,1.4971652,10.5625
40000000000000000000CC00,865.7,1.3683108,25.1875
40000000000000000000CC00,865.7,1.5892041,-26.8125
40000000000000000000CC00,865.7,1.6873789,-26.0
40000000000000000000CC00,865.7,1.4664856,17.0625
40000000000000000000CC00,865.7,1.3989905,21.125
40000000000000000000CC00,865.7,1.3314953,25.1875
40000000000000000000CC00,865.7,1.3683108,10.5625
40000000000000000000CC00,865.7,1.4173982,29.25
40000000000000000000CC00,865.7,1.5830681,10.5625
40000000000000000000CC00,865.7,1.4971652,-12.1875
40000000000000000000CC00,865.7,1.6444274,-26.0
40000000000000000000CC00,865.7,1.3437672,17.0625
40000000000000000000CC00,865.7,1.7610099,-34.9375
40000000000000000000CC00,865.7,1.4910294,8.9375
40000000000000000000CC00,865.7,1.5646604,1.625
40000000000000000000CC00,865.7,1.435806,-9.75
40000000000000000000CC00,865.7,1.3314953,-2.4375
40000000000000000000CC00,865.7,1.6137478,-20.3125
40000000000000000000CC00,865.7,1.3376312,3.25
40000000000000000000CC00,865.7,1.2640002,12.1875
40000000000000000000CC00,865.7,1.1658254,43.125
40000000000000000000CC00,865.7,1.4296701,14.625
40000000000000000000CC00,865.7,1.4848934,-12.1875
40000000000000000000CC00,865.7,1.2394565,22.75
40000000000000000000CC00,865.7,1.6628351,-34.125
40000000000000000000CC00,865.7,1.2149128,24.375
40000000000000000000CC00,865.7,1.2885438,-8.9375
40000000000000000000CC00,865.7,1.0492429,77.25
40000000000000000000CC00,865.7,1.3253593,36.5625
40000000000000000000CC00,865.7,1.1780972,32.5
40000000000000000000CC00,865.7,1.3376312,5.6875
40000000000000000000CC00,865.7,1.3069516,14.625
40000000000000000000CC00,865.7,1.276272,45.5625
40000000000000000000CC00,865.7,1.3867186,-12.1875
40000000000000000000CC00,865.7,1.4910294,-34.125
40000000000000000000CC00,865.7,1.1965051,17.875
40000000000000000000CC00,865.7,1.3744467,-9.75
40000000000000000000CC00,865.7,1.1903691,36.5625
40000000000000000000CC00,865.7,1.3253593,1.625
40000000000000000000CC00,865.7,1.2271847,0.0
40000000000000000000CC00,865.7,1.1658254,41.5
40000000000000000000CC00,865.7,1.3376312,0.8125
40000000000000000000CC00,865.7,1.4726216,-28.4375
40000000000000000000CC00,865.7,1.2946798,-14.625
40000000000000000000CC00,865.7,1.3989905,-12.1875
40000000000000000000CC00,865.7,1.2824079,-6.5
40000000000000000000CC00,865.7,1.1780972,15.4375
40000000000000000000CC00,865.7,1.1842332,21.125
40000000000000000000CC00,865.7,1.2701361,3.25
40000000000000000000CC00,865.7,1.5094371,-22.75
40000000000000000000CC00,865.7,1.3989905,-23.5625
40000000000000000000CC00,865.7,1.5033011,-6.5
40000000000000000000CC00,865.7,1.3744467,-9.75
40000000000000000000CC00,865.7,1.4971652,-17.875
40000000000000000000CC00,865.7,1.2394565,10.5625
40000000000000000000CC00,865.7,1.3928546,2.4375
40000000000000000000CC00,865.7,1.4112623,1.625
40000000000000000000CC00,865.7,1.6996508,-9.75
40000000000000000000CC00,865.7,1.8407769,0.0
40000000000000000000CC00,865.7,1.6076119,67.5
40000000000000000000CC00,865.7,2.153709,-6.5
40000000000000000000CC00,865.7,2.153709,-14.625
40000000000000000000CC00,865.7,1.9082721,46.375
40000000000000000000CC00,865.7,2.3255148,-14.625
40000000000000000000CC00,865.7,1.9757673,36.5625
40000000000000000000CC00,865.7,2.1966605,-17.875
40000000000000000000CC00,865.7,2.1905246,-0.8125
40000000000000000000CC00,865.7,2.2641556,-8.9375
40000000000000000000CC00,865.7,1.914408,45.5625
40000000000000000000CC00,865.7,1.9082721,50.4375
40000000000000000000CC00,865.7,1.9819032,25.1875
40000000000000000000CC00,865.7,2.1905246,8.9375
40000000000000000000CC00,865.7,2.2212043,7.3125
40000000000000000000CC00,865.7,2.3930101,-25.1875
40000000000000000000CC00,865.7,2.3009713,-8.125
40000000000000000000CC00,865.7,1.9880391,37.375
40000000000000000000CC00,865.7,2.4727771,-20.3125
40000000000000000000CC00,865.7,2.2212043,1.625
40000000000000000000CC00,865.7,2.2886994,9.75
40000000000000000000CC00,865.7,2.0862138,26.0
40000000000000000000CC00,865.7,2.147573,29.25
40000000000000000000CC00,865.7,2.4727771,-31.6875
40000000000000000000CC00,865.7,2.2764275,4.875
40000000000000000000CC00,865.7,2.6200392,-49.625
40000000000000000000CC00,865.7,2.2212043,2.4375
40000000000000000000CC00,865.7,2.153709,25.1875
40000000000000000000CC00,865.7,2.2518837,9.75
40000000000000000000CC00,865.7,2.5095925,-27.625
40000000000000000000CC00,865.7,2.4298255,-8.125
40000000000000000000CC00,865.7,2.4420974,-0.8125
40000000000000000000CC00,865.7,2.3439226,-8.9375
40000000000000000000CC00,865.7,2.5341363,-17.0625
40000000000000000000CC00,865.7,2.4911847,-7.3125
40000000000000000000CC00,865.7,2.6077673,-20.3125
40000000000000000000CC00,865.7,2.2825634,34.125
40000000000000000000CC00,865.7,2.6016314,-12.1875
40000000000000000000CC00,865.7,2.6568546,-10.5625
40000000000000000000CC00,865.7,2.5095925,8.125
40000000000000000000CC00,865.7,2.4850488,-3.25
40000000000000000000CC00,865.7,2.7488935,-48.8125
40000000000000000000CC00,865.7,2.5648158,12.1875
40000000000000000000CC00,865.7,2.4850488,15.4375
40000000000000000000CC00,865.7,2.72435,-7.3125
40000000000000000000CC00,865.7,2.791845,-34.9375
40000000000000000000CC00,865.7,2.5832236,3.25
40000000000000000000CC00,865.7,2.7611654,5.6875
40000000000000000000CC00,865.7,2.6752625,-9.75
40000000000000000000CC00,865.7,3.0066023,-30.875
40000000000000000000CC00,865.7,2.7550294,8.125
40000000000000000000CC00,865.7,2.5341363,29.25
40000000000000000000CC00,865.7,2.6568546,-23.5625
40000000000000000000CC00,865.7,2.791845,-1.625
40000000000000000000CC00,865.7,2.871612,0.0
40000000000000000000CC00,865.7,2.5280004,30.875
40000000000000000000CC00,865.7,2.7734373,4.875
40000000000000000000CC00,865.7,2.797981,2.4375
40000000000000000000CC00,865.7,2.3746023,69.125
40000000000000000000CC00,865.7,3.0066023,-6.5
40000000000000000000CC00,865.7,2.9881945,19.5
40000000000000000000CC00,865.7,2.89002,20.3125
40000000000000000000CC00,865.7,2.877748,-2.4375
40000000000000000000CC00,865.7,2.9943304,14.625
40000000000000000000CC00,865.7,2.810253,13.8125
40000000000000000000CC00,865.7,2.6998062,35.75
40000000000000000000CC00,865.7,3.0925052,-4.875
40000000000000000000CC00,865.7,2.718214,29.25
