Created: 09-22-2016  18:38:32
VNA version 628A
"Pos6"
Z0, 50.101970
Freq(MHz),SWR,Rs,Xs,Zmag,Phase(deg),Rho,ReturnLoss,%ReflectedPower
 700,  5.442447,  20.132690,  -52.527335,  56.253410,  -69.029280,  0.689559,  3.228572,  47.549157
 700.504517,  5.410669,  20.108638,  -52.175710,  55.916660,  -68.922703,  0.688020,  3.247977,  47.337166
 701.005981,  5.359610,  20.212675,  -51.930366,  55.726042,  -68.731073,  0.685515,  3.279657,  46.993124
 701.506775,  5.343533,  20.171390,  -51.685252,  55.482567,  -68.678731,  0.684718,  3.289762,  46.883911
 702.007202,  5.291988,  20.284248,  -51.442485,  55.299041,  -68.476044,  0.682135,  3.322588,  46.530874
 702.507507,  5.223371,  20.464310,  -51.162367,  55.108240,  -68.190776,  0.678631,  3.367329,  46.053974
 703.008972,  5.176011,  20.530494,  -50.844693,  54.839280,  -67.998829,  0.676166,  3.398929,  45.720097
 704.008972,  5.072606,  20.719432,  -50.235359,  54.348246,  -67.570673,  0.670652,  3.470054,  44.977425
 705.008972,  4.983399,  20.841703,  -49.622958,  53.828992,  -67.200700,  0.665742,  3.533883,  44.321215
 706.008972,  4.906757,  20.899490,  -48.979010,  53.257589,  -66.875543,  0.661405,  3.590654,  43.745621
 707.008972,  4.785848,  21.008705,  -47.976022,  52.380090,  -66.322462,  0.654329,  3.684077,  42.814640
 708.008972,  4.695837,  21.009157,  -47.029358,  51.513984,  -65.896802,  0.648866,  3.756895,  42.102758
 709.008972,  4.617508,  20.957174,  -46.064048,  50.614581,  -65.497904,  0.643970,  3.822684,  41.469771
 710.008972,  4.530741,  20.993140,  -45.192372,  49.837604,  -65.047093,  0.638385,  3.898349,  40.753514
 711.008972,  4.475784,  20.871860,  -44.320760,  48.996296,  -64.750032,  0.634755,  3.947871,  40.291452
 712.008972,  4.426362,  20.784532,  -43.586373,  48.292500,  -64.486610,  0.631429,  3.993510,  39.870253
 713.008972,  4.393372,  20.657733,  -42.942167,  47.653811,  -64.308887,  0.629174,  4.024578,  39.586050
 714.008972,  4.386442,  20.550679,  -42.623344,  47.319972,  -64.259658,  0.628697,  4.031167,  39.526040
 715.008972,  4.381202,  20.443796,  -42.323205,  47.003029,  -64.220396,  0.628336,  4.036163,  39.480592
 716.008972,  4.394283,  20.254631,  -42.045732,  46.670869,  -64.281077,  0.629237,  4.023714,  39.593930
 717.008972,  4.430461,  19.974958,  -41.820300,  46.346583,  -64.470908,  0.631707,  3.989685,  39.905388
 718.008972,  4.463823,  19.718716,  -41.594976,  46.032973,  -64.639064,  0.633956,  3.958818,  40.190014
 719.008972,  4.482252,  19.513403,  -41.316658,  45.693574,  -64.722226,  0.635186,  3.941976,  40.346175
 720.008972,  4.482792,  19.368420,  -40.975759,  45.323397,  -64.704391,  0.635222,  3.941484,  40.350744
 721.008972,  4.482150,  19.244505,  -40.674986,  44.998666,  -64.679981,  0.635180,  3.942069,  40.345315
 722.008972,  4.503472,  18.996857,  -40.308885,  44.561856,  -64.766446,  0.636593,  3.922762,  40.525073
 723.012024,  4.537590,  18.718185,  -39.987587,  44.152720,  -64.917470,  0.638832,  3.892266,  40.810638
 724.012024,  4.550296,  18.514084,  -39.608030,  43.722527,  -64.950795,  0.639659,  3.881032,  40.916343
 725.031982,  4.528320,  18.447902,  -39.191311,  43.317729,  -64.793231,  0.638226,  3.900504,  40.733302
 726.031982,  4.523707,  18.280305,  -38.704698,  42.806161,  -64.717776,  0.637924,  3.904617,  40.694740
 727.031982,  4.521138,  18.118444,  -38.256564,  42.332010,  -64.654617,  0.637756,  3.906911,  40.673255
 728.031982,  4.530551,  17.901454,  -37.804715,  41.830764,  -64.651969,  0.638372,  3.898518,  40.751930
 729.031982,  4.514180,  17.818238,  -37.397490,  41.427304,  -64.515013,  0.637299,  3.913139,  40.614969
 730.031982,  4.493307,  17.776259,  -37.049826,  41.094600,  -64.364107,  0.635921,  3.931942,  40.439503
 731.031982,  4.464926,  17.759890,  -36.684115,  40.757286,  -64.166809,  0.634030,  3.957806,  40.199381
 732.031982,  4.478737,  17.610088,  -36.438020,  40.470505,  -64.205438,  0.634952,  3.945177,  40.316449
 733.031982,  4.474486,  17.550947,  -36.225382,  40.253293,  -64.149788,  0.634669,  3.949055,  40.280464
 734.031982,  4.494235,  17.406385,  -36.042789,  40.026267,  -64.223887,  0.635982,  3.931102,  40.447321
 735.031982,  4.542895,  17.155483,  -35.854413,  39.749128,  -64.437181,  0.639178,  3.887567,  40.854816
 736.031982,  4.585914,  16.922626,  -35.661170,  39.474907,  -64.623092,  0.641957,  3.849888,  41.210817
 737.031982,  4.617232,  16.712268,  -35.392591,  39.142298,  -64.734101,  0.643953,  3.822920,  41.467513
 738.031982,  4.668184,  16.431220,  -35.137490,  38.791318,  -64.946950,  0.647153,  3.779856,  41.880741
 739.031982,  4.731122,  16.121402,  -34.883213,  38.430504,  -65.205959,  0.651028,  3.728004,  42.383768
 740.031982,  4.810863,  15.748334,  -34.596737,  38.013869,  -65.534683,  0.655817,  3.664346,  43.009599
 741.031982,  4.870967,  15.427573,  -34.222005,  37.539834,  -65.742090,  0.659341,  3.617803,  43.473004
 742.031982,  4.922111,  15.203899,  -34.017255,  37.262347,  -65.928599,  0.662283,  3.579134,  43.861820
 743.031982,  4.967984,  14.969345,  -33.730626,  36.904880,  -66.077800,  0.664878,  3.545155,  44.206335
 744.031982,  5.022311,  14.709738,  -33.437538,  36.531132,  -66.260024,  0.667902,  3.505751,  44.609249
 745.031982,  5.152456,  14.239740,  -33.036495,  35.977671,  -66.700845,  0.674927,  3.414869,  45.552588
 746.031982,  5.201561,  13.996396,  -32.670088,  35.544666,  -66.824522,  0.677501,  3.381807,  45.900697
 747.031982,  5.253506,  13.761422,  -32.324223,  35.134193,  -66.954357,  0.680179,  3.347530,  46.264406
 748.031982,  5.284331,  13.586551,  -31.991115,  34.758928,  -66.998541,  0.681748,  3.327521,  46.478051
 749.031982,  5.290797,  13.448111,  -31.537390,  34.287522,  -66.911581,  0.682075,  3.323354,  46.522665
 750.031982,  5.309204,  13.276783,  -31.078033,  33.798069,  -66.864275,  0.683003,  3.311550,  46.649285
 751.031982,  5.294160,  13.212751,  -30.672390,  33.401774,  -66.682698,  0.682245,  3.321191,  46.545839
 752.031982,  5.266550,  13.184034,  -30.271329,  33.019840,  -66.460737,  0.680845,  3.339033,  46.355008
 753.031982,  5.290284,  13.015447,  -29.805446,  32.525215,  -66.410520,  0.682049,  3.323684,  46.519132
 754.031982,  5.305324,  12.872742,  -29.338284,  32.039483,  -66.318021,  0.682808,  3.314031,  46.622643
 755.031982,  5.347568,  12.664020,  -28.865488,  31.522677,  -66.324263,  0.684919,  3.287220,  46.911359
 756.031982,  5.390373,  12.438144,  -28.324333,  30.936383,  -66.303409,  0.687029,  3.260496,  47.200918
 757.031982,  5.437630,  12.224650,  -27.868982,  30.433589,  -66.324052,  0.689327,  3.231498,  47.517126
 758.031982,  5.524711,  11.900708,  -27.359764,  29.836218,  -66.485749,  0.693473,  3.179409,  48.090482
 759.031982,  5.556244,  11.745178,  -26.924022,  29.374494,  -66.428380,  0.694947,  3.160963,  48.295170
 760.031982,  5.583675,  11.594314,  -26.471044,  28.899054,  -66.342591,  0.696218,  3.145091,  48.471991
 761.031982,  5.594962,  11.480201,  -26.020497,  28.440940,  -66.186102,  0.696738,  3.138607,  48.544415
 762.031982,  5.611864,  11.370351,  -25.637787,  28.046434,  -66.077467,  0.697513,  3.128949,  48.652498
 763.031982,  5.613161,  11.295613,  -25.266776,  27.677746,  -65.901856,  0.697573,  3.128210,  48.660775
 764.031982,  5.618433,  11.206265,  -24.854516,  27.265420,  -65.716687,  0.697814,  3.125211,  48.694390
 765.031982,  5.619566,  11.134665,  -24.478523,  26.893332,  -65.527066,  0.697865,  3.124567,  48.701610
 766.031982,  5.600521,  11.094787,  -24.043654,  26.481269,  -65.213557,  0.696994,  3.135424,  48.580012
 767.031982,  5.541490,  11.157628,  -23.703370,  26.201125,  -64.775060,  0.694259,  3.169566,  48.199593
 768.031982,  5.487906,  11.215012,  -23.386455,  25.941158,  -64.359551,  0.691734,  3.201216,  47.849610
 769.031982,  5.435593,  11.246602,  -22.952820,  25.564608,  -63.874859,  0.689228,  3.232738,  47.503568
 770.031982,  5.392397,  11.280528,  -22.622939,  25.284307,  -63.478575,  0.687128,  3.259243,  47.214534
 771.031982,  5.360229,  11.294085,  -22.317751,  25.016533,  -63.144147,  0.685546,  3.279269,  46.997317
 772.031982,  5.274537,  11.411291,  -21.927543,  24.723337,  -62.490058,  0.681251,  3.333852,  46.410346
 773.031982,  5.214676,  11.493619,  -21.670576,  24.532593,  -62.040842,  0.678181,  3.373086,  45.992968
 774.031982,  5.204631,  11.452095,  -21.302181,  24.188178,  -61.718010,  0.677660,  3.379761,  45.922326
 775.031982,  5.206415,  11.379191,  -20.896410,  23.796673,  -61.408487,  0.677753,  3.378574,  45.934882
 776.031982,  5.170752,  11.406589,  -20.583632,  23.536521,  -60.979598,  0.675890,  3.402474,  45.682786
 777.031982,  5.206555,  11.258110,  -20.117876,  23.056561,  -60.747596,  0.677760,  3.378481,  45.935869
 778.031982,  5.220103,  11.156315,  -19.635464,  22.584370,  -60.387325,  0.678462,  3.369491,  46.031055
 779.031982,  5.286892,  10.954485,  -19.245266,  22.145451,  -60.339726,  0.681878,  3.325869,  46.495733
 780.031982,  5.317583,  10.817680,  -18.766981,  21.662631,  -60.026693,  0.683423,  3.306206,  46.706728
 781.031982,  5.344146,  10.700076,  -18.352960,  21.245765,  -59.743477,  0.684749,  3.289375,  46.888084
 782.031982,  5.355139,  10.618555,  -17.949447,  20.857455,  -59.373703,  0.685294,  3.282461,  46.962794
 783.031982,  5.373389,  10.510299,  -17.483443,  20.404895,  -58.949352,  0.686195,  3.271046,  47.086388
 784.031982,  5.333388,  10.541778,  -17.123495,  20.114602,  -58.340821,  0.684213,  3.296170,  46.814777
 785.031982,  5.296398,  10.569718,  -16.776400,  19.834968,  -57.745185,  0.682358,  3.319753,  46.561252
 786.031982,  5.252632,  10.608064,  -16.406468,  19.542408,  -57.075795,  0.680135,  3.348101,  46.258320
 787.031982,  5.218138,  10.634808,  -16.072197,  19.277027,  -56.468862,  0.678360,  3.370791,  46.017274
 788.031982,  5.182337,  10.660855,  -15.703575,  18.984336,  -55.795525,  0.676498,  3.394673,  45.764917
 789.031982,  5.152288,  10.679545,  -15.358566,  18.709944,  -55.158192,  0.674918,  3.414984,  45.551389
 790.031982,  5.136956,  10.674297,  -15.054444,  18.458877,  -54.627062,  0.674106,  3.425442,  45.441827
 791.031982,  5.119875,  10.673018,  -14.749811,  18.210452,  -54.077319,  0.673196,  3.437171,  45.319274
 792.031982,  5.052628,  10.780387,  -14.393651,  17.992519,  -53.129395,  0.669565,  3.484145,  44.831735
 793.031982,  5.003281,  10.843443,  -14.017117,  17.733170,  -52.223660,  0.666849,  3.519452,  44.468735
 794.031982,  4.956936,  10.906693,  -13.686582,  17.512112,  -51.400045,  0.664257,  3.553278,  44.123724
 795.031982,  4.909939,  10.975947,  -13.379747,  17.316235,  -50.594167,  0.661587,  3.588261,  43.769737
 796.031982,  4.864782,  11.036739,  -13.023556,  17.081274,  -49.674044,  0.658981,  3.622538,  43.425640
 797.031982,  4.829570,  11.078415,  -12.694482,  16.856373,  -48.845252,  0.656922,  3.649730,  43.154587
 798.031982,  4.788599,  11.130791,  -12.334792,  16.618300,  -47.901076,  0.654493,  3.681896,  42.836144
 799.031982,  4.798518,  11.071339,  -11.998751,  16.331791,  -47.255246,  0.655084,  3.674057,  42.913540
 800.031982,  4.779565,  11.084377,  -11.694383,  16.120471,  -46.473574,  0.653953,  3.689067,  42.765475
 801.031982,  4.776007,  11.054315,  -11.309986,  15.823350,  -45.583665,  0.653740,  3.691899,  42.737600
 802.031982,  4.784256,  10.997034,  -10.918277,  15.503931,  -44.728514,  0.654234,  3.685340,  42.802189
 803.031982,  4.799095,  10.929236,  -10.548371,  15.197558,  -43.905585,  0.655119,  3.673602,  42.918036
 804.031982,  4.795956,  10.902173,  -10.172369,  14.918311,  -42.943159,  0.654932,  3.676078,  42.893571
 805.031982,  4.793155,  10.877875,  -9.828593,  14.667139,  -42.038894,  0.654765,  3.678291,  42.871718
 806.031982,  4.791726,  10.852090,  -9.487162,  14.421379,  -41.102376,  0.654680,  3.679421,  42.860566
 807.031982,  4.811575,  10.778372,  -9.141838,  14.140350,  -40.248438,  0.655859,  3.663787,  43.015134
 808.031982,  4.801102,  10.776676,  -8.813947,  13.931775,  -39.217774,  0.655238,  3.672019,  42.933674
 809.031982,  4.794912,  10.766820,  -8.502143,  13.727706,  -38.242130,  0.654870,  3.676903,  42.885426
 810.031982,  4.780192,  10.779303,  -8.222298,  13.565731,  -37.277121,  0.653991,  3.688568,  42.770386
 811.047974,  4.804694,  10.704388,  -7.901484,  13.312415,  -36.363961,  0.655451,  3.669192,  42.961636
 812.047974,  4.814302,  10.660620,  -7.577405,  13.086421,  -35.344408,  0.656021,  3.661650,  43.036303
 813.047974,  4.816186,  10.634714,  -7.239503,  12.875055,  -34.175752,  0.656132,  3.660175,  43.050922
 814.047974,  4.812466,  10.622548,  -6.903754,  12.680132,  -32.940091,  0.655912,  3.663089,  43.022052
 815.047974,  4.837656,  10.548639,  -6.589571,  12.451035,  -31.900258,  0.657397,  3.643450,  43.217043
 816.047974,  4.858892,  10.483595,  -6.242744,  12.214754,  -30.679687,  0.658639,  3.627057,  43.380474
 817.047974,  4.908178,  10.361515,  -5.868850,  11.921046,  -29.424188,  0.661486,  3.589585,  43.756391
 818.047974,  4.937660,  10.287744,  -5.537980,  11.693515,  -28.175548,  0.663167,  3.567542,  43.979042
 819.047974,  4.991540,  10.161618,  -5.156074,  11.404473,  -26.776592,  0.666196,  3.527960,  44.381711
 820.047974,  5.042232,  10.043392,  -4.828997,  11.155352,  -25.552991,  0.668996,  3.491523,  44.755630
 821.047974,  5.083536,  9.945562,  -4.494847,  10.928271,  -24.202900,  0.671244,  3.462394,  45.056830
 822.047974,  5.140072,  9.822928,  -4.145538,  10.677018,  -22.764500,  0.674271,  3.423312,  45.464124
 823.047974,  5.185353,  9.722544,  -3.754639,  10.442978,  -20.994606,  0.676655,  3.392648,  45.786265
 824.047974,  5.209230,  9.667924,  -3.391693,  10.270123,  -19.197496,  0.677899,  3.376702,  45.954690
 825.047974,  5.218690,  9.640130,  -2.979267,  10.118212,  -17.037604,  0.678389,  3.370426,  46.021144
 826.047974,  5.221883,  9.626846,  -2.662196,  10.014287,  -15.338712,  0.678554,  3.368313,  46.043540
 827.047974,  5.204437,  9.653316,  -2.310116,  9.950341,  -13.404455,  0.677650,  3.379891,  45.920956
 828.047974,  5.174198,  9.707404,  -1.965255,  9.926869,  -11.474628,  0.676071,  3.400150,  45.707236
 829.047974,  5.136365,  9.773322,  -1.592089,  9.923470,  -9.294645,  0.674074,  3.425847,  45.437593
 830.047974,  5.108476,  9.822390,  -1.270525,  9.927337,  -7.406188,  0.672586,  3.445042,  45.237207
 831.047974,  5.072348,  9.887794,  -0.940307,  9.956749,  -5.452628,  0.670638,  3.470235,  44.975549
 832.047974,  5.056487,  9.915832,  -0.634879,  9.965473,  -3.645487,  0.669776,  3.481414,  44.859930
 833.047974,  5.044110,  9.937375,  -0.274331,  9.966643,  -1.523017,  0.669099,  3.490188,  44.769389
 834.047974,  5.052336,  9.921001,  0.106249,  9.948407,  0.658244,  0.669549,  3.484352,  44.829596
 835.047974,  5.061960,  9.901963,  0.483440,  9.938643,  2.774871,  0.670074,  3.477548,  44.899877
 836.047974,  5.095525,  9.840217,  0.821192,  9.900758,  4.766136,  0.671890,  3.454031,  45.143676
 837.047974,  5.380358,  9.442741,  1.195719,  9.558264,  7.607115,  0.686538,  3.266709,  47.133436
 838.047974,  5.675207,  9.031779,  1.574706,  9.221262,  10.559532,  0.700384,  3.093278,  49.053749
 839.047974,  5.975030,  8.631059,  1.957987,  8.915750,  13.648147,  0.713263,  2.935008,  50.874391
 840.047974,  6.285664,  8.220700,  2.328117,  8.609202,  16.714343,  0.725488,  2.787392,  52.633326
 841.047974,  6.597894,  7.800503,  2.662679,  8.304117,  19.598187,  0.736769,  2.653371,  54.282878
 842.047974,  6.918113,  7.358152,  3.030642,  8.006592,  22.713153,  0.747415,  2.528769,  55.862852
 843.047974,  7.182879,  7.010354,  3.406767,  7.819191,  25.755134,  0.755587,  2.434308,  57.091207
 844.047974,  7.220517,  6.980388,  3.743375,  7.943597,  28.032695,  0.756706,  2.421453,  57.260441
 845.047974,  7.231828,  6.976619,  4.076206,  8.100528,  30.105914,  0.757041,  2.417617,  57.311047
 846.047974,  7.237011,  6.978832,  4.380895,  8.259075,  31.934853,  0.757193,  2.415863,  57.334197
 847.047974,  7.234378,  6.989002,  4.694084,  8.434713,  33.745669,  0.757116,  2.416753,  57.322439
 848.047974,  7.208192,  7.023920,  5.029420,  8.650803,  35.483604,  0.756341,  2.425647,  57.205167
 849.047974,  7.188088,  7.053424,  5.346732,  8.862327,  37.030629,  0.755743,  2.432521,  57.114706
 850.047974,  7.160875,  7.091046,  5.645313,  9.073053,  38.383799,  0.754928,  2.441887,  56.991665
 851.047974,  7.111676,  7.148818,  5.916427,  9.287003,  39.494949,  0.753442,  2.459005,  56.767461
 852.047974,  7.046844,  7.229492,  6.246693,  9.561724,  40.689462,  0.751455,  2.481936,  56.468515
 853.047974,  6.961868,  7.332346,  6.599550,  9.872186,  41.844279,  0.748803,  2.512652,  56.070543
 854.047974,  6.932821,  7.373385,  6.927720,  10.125721,  43.098325,  0.747883,  2.523328,  55.932880
 855.047974,  6.931685,  7.387612,  7.247767,  10.359258,  44.340878,  0.747847,  2.523747,  55.927481
 856.047974,  6.922949,  7.411250,  7.582124,  10.615382,  45.525125,  0.747569,  2.526977,  55.885902
 857.047974,  6.927573,  7.421979,  7.924736,  10.870375,  46.749455,  0.747716,  2.525267,  55.907919
 858.047974,  6.920930,  7.446477,  8.298424,  11.159664,  48.007635,  0.747504,  2.527725,  55.876283
 859.047974,  6.967339,  7.411410,  8.608134,  11.367947,  49.181221,  0.748975,  2.510652,  56.096379
 860.047974,  7.008533,  7.382463,  8.927800,  11.591425,  50.313164,  0.750266,  2.495690,  56.289962
 861.047974,  6.951255,  7.462633,  9.258417,  11.895813,  51.060187,  0.748467,  2.516542,  56.020343
 862.047974,  6.929355,  7.506348,  9.626584,  12.212178,  51.981487,  0.747773,  2.524608,  55.916396
 863.047974,  6.898890,  7.558264,  9.945547,  12.496424,  52.694389,  0.746800,  2.535915,  55.771003
 864.047974,  6.882509,  7.596367,  10.280270,  12.787232,  53.465764,  0.746274,  2.542038,  55.692440
 865.047974,  6.866520,  7.634229,  10.605729,  13.071821,  54.189586,  0.745758,  2.548042,  55.615496
 866.047974,  6.809793,  7.718115,  10.922363,  13.377762,  54.701097,  0.743911,  2.569577,  55.340398
 867.047974,  6.760303,  7.791272,  11.175767,  13.626533,  55.078003,  0.742278,  2.588667,  55.097681
 868.047974,  6.788434,  7.779041,  11.473590,  13.863758,  55.839979,  0.743209,  2.577781,  55.235957
 869.047974,  6.730620,  7.865953,  11.736926,  14.130654,  56.146093,  0.741289,  2.600254,  54.950869
 870.047974,  6.641448,  7.999933,  12.013838,  14.434685,  56.332300,  0.738270,  2.635701,  54.504186
 871.047974,  6.585470,  8.089162,  12.297848,  14.721352,  56.645997,  0.736338,  2.658456,  54.219368
 872.047974,  6.549896,  8.149683,  12.536611,  14.954824,  56.952239,  0.735096,  2.673123,  54.036565
 873.047974,  6.461724,  8.286588,  12.769720,  15.224684,  57.013049,  0.731965,  2.710189,  53.577336
 874.047974,  6.446120,  8.330005,  13.069349,  15.500649,  57.483858,  0.731404,  2.716857,  53.495142
 875.047974,  6.344325,  8.485788,  13.386485,  15.852236,  57.612571,  0.727681,  2.761181,  52.951947
 876.047974,  6.253541,  8.637325,  13.643758,  16.150575,  57.655768,  0.724273,  2.801959,  52.457079
 877.047974,  6.275740,  8.636046,  13.965368,  16.423196,  58.250201,  0.725114,  2.791876,  52.579014
 878.047974,  6.273529,  8.668524,  14.286804,  16.716962,  58.711581,  0.725030,  2.792877,  52.566896
 879.047974,  6.242504,  8.738685,  14.610882,  17.031866,  59.070226,  0.723852,  2.806999,  52.396233
 880.047974,  6.295657,  8.698568,  14.974288,  17.322883,  59.811969,  0.725864,  2.782891,  52.687899
 881.047974,  6.283475,  8.749870,  15.340654,  17.667435,  60.257655,  0.725406,  2.788379,  52.621360
 882.047974,  6.267700,  8.802926,  15.626925,  17.941392,  60.574470,  0.724810,  2.795519,  52.534922
 883.047974,  6.287736,  8.811715,  15.995596,  18.263092,  61.141072,  0.725566,  2.786457,  52.644654
 884.047974,  6.235187,  8.917675,  16.257768,  18.543525,  61.254252,  0.723573,  2.810351,  52.355809
 885.047974,  6.167520,  9.041793,  16.491261,  18.807933,  61.265081,  0.720963,  2.841735,  51.978829
 886.047974,  6.103401,  9.170759,  16.787362,  19.129475,  61.357358,  0.718445,  2.872133,  51.616282
 887.047974,  6.028701,  9.313453,  17.057917,  19.435337,  61.366810,  0.715452,  2.908385,  51.187211
 888.047974,  5.967451,  9.437318,  17.347051,  19.748970,  61.436822,  0.712951,  2.938807,  50.829908
 889.047974,  5.919391,  9.551734,  17.638624,  20.059604,  61.552629,  0.710957,  2.963131,  50.546018
 890.047974,  5.883960,  9.641539,  17.888625,  20.322292,  61.664163,  0.709470,  2.981325,  50.334704
 891.047974,  5.880243,  9.685996,  18.194740,  20.613537,  61.957020,  0.709313,  2.983246,  50.312438
 892.047974,  5.853757,  9.761213,  18.439260,  20.864553,  62.095237,  0.708189,  2.997014,  50.153200
 893.047974,  5.834299,  9.829297,  18.706261,  21.132300,  62.273701,  0.707358,  3.007209,  50.035597
 894.047974,  5.852076,  9.832651,  18.955074,  21.354956,  62.576035,  0.708118,  2.997891,  50.143063
 895.047974,  5.836851,  9.883324,  19.146793,  21.548835,  62.687407,  0.707468,  3.005868,  50.051050
 896.047974,  5.844747,  9.906075,  19.408968,  21.791974,  62.951806,  0.707805,  3.001726,  50.098810
 897.064026,  5.885729,  9.876904,  19.695453,  22.035331,  63.351529,  0.709544,  2.980411,  50.345297
 898.064026,  5.923748,  9.851325,  19.953950,  22.257146,  63.700503,  0.711139,  2.960909,  50.571884
 899.064026,  5.922446,  9.895671,  20.246897,  22.538458,  63.939122,  0.711085,  2.961572,  50.564159
 900.064026,  5.961651,  9.875309,  20.569281,  22.819489,  64.339096,  0.712712,  2.941720,  50.795817
 901.064026,  5.982768,  9.890841,  20.919004,  23.142886,  64.673644,  0.713581,  2.931139,  50.919729
 902.064026,  5.989793,  9.946333,  21.369240,  23.573657,  65.019308,  0.713869,  2.927636,  50.960824
 903.064026,  5.989245,  10.015883,  21.805171,  23.997113,  65.315579,  0.713846,  2.927909,  50.957619
 904.064026,  5.931152,  10.172980,  22.148745,  24.374883,  65.323853,  0.711448,  2.957141,  50.615777
 905.064026,  5.854837,  10.366293,  22.535127,  24.806677,  65.289447,  0.708235,  2.996450,  50.159713
 906.064026,  5.814095,  10.507925,  22.913844,  25.209302,  65.375556,  0.706491,  3.017871,  49.912914
 907.064026,  5.756340,  10.674897,  23.290297,  25.621101,  65.385420,  0.703982,  3.048772,  49.559029
 908.064026,  5.692745,  10.850539,  23.672038,  26.041274,  65.373039,  0.701169,  3.083547,  49.163789
 909.064026,  5.618047,  11.045060,  23.944884,  26.370353,  65.235200,  0.697796,  3.125430,  48.691932
 910.064026,  5.578541,  11.173424,  24.219185,  26.673188,  65.228594,  0.695981,  3.148050,  48.438987
 911.064026,  5.551138,  11.296570,  24.579813,  27.052230,  65.312384,  0.694710,  3.163935,  48.262133
 912.064026,  5.515128,  11.437614,  24.928843,  27.428288,  65.348453,  0.693022,  3.185058,  48.027971
 913.064026,  5.522592,  11.491941,  25.298063,  27.786439,  65.567970,  0.693373,  3.180656,  48.076673
 914.064026,  5.495756,  11.606658,  25.600225,  28.109023,  65.609235,  0.692107,  3.196540,  47.901162
 915.064026,  5.463841,  11.736845,  25.927629,  28.461098,  65.636829,  0.690586,  3.215639,  47.690963
 916.064026,  5.470780,  11.786474,  26.250479,  28.775526,  65.814632,  0.690918,  3.211466,  47.736806
 917.064026,  5.587816,  11.644862,  26.676511,  29.115233,  66.395977,  0.696409,  3.142710,  48.498583
 918.064026,  5.615413,  11.661911,  27.051189,  29.465504,  66.657017,  0.697676,  3.126928,  48.675142
 919.064026,  5.595354,  11.775823,  27.361697,  29.795366,  66.703463,  0.696756,  3.138383,  48.546927
 920.064026,  5.589944,  11.867558,  27.740777,  30.179601,  66.831410,  0.696507,  3.141486,  48.512242
 921.064026,  5.631414,  11.852962,  28.100406,  30.504536,  67.126293,  0.698405,  3.117851,  48.776981
 922.064026,  5.652827,  11.872791,  28.414692,  30.801398,  67.323427,  0.699376,  3.105786,  48.912669
 923.064026,  5.677929,  11.895774,  28.779752,  31.146334,  67.549716,  0.700506,  3.091763,  49.070859
 924.064026,  5.552318,  12.207994,  29.059661,  31.521738,  67.209178,  0.694765,  3.163247,  48.269774
 925.064026,  5.546729,  12.279315,  29.328971,  31.797890,  67.275820,  0.694504,  3.166506,  48.233572
 926.064026,  5.583377,  12.270406,  29.671287,  32.108870,  67.532352,  0.696205,  3.145263,  48.470080
 927.064026,  5.546625,  12.422179,  29.933317,  32.409548,  67.468862,  0.694499,  3.166567,  48.232893
 928.064026,  5.476339,  12.658493,  30.238614,  32.782503,  67.293057,  0.691184,  3.208132,  47.773472
 929.064026,  5.431162,  12.843444,  30.566944,  33.156772,  67.216496,  0.689014,  3.235436,  47.474061
 930.064026,  5.356323,  13.104475,  30.870547,  33.538252,  67.007649,  0.685353,  3.281717,  46.970832
 931.064026,  5.315456,  13.278840,  31.142776,  33.857113,  66.917528,  0.683317,  3.307561,  46.692156
 932.064026,  5.252226,  13.508965,  31.432498,  34.213368,  66.748415,  0.680114,  3.348367,  46.255497
 933.064026,  5.197039,  13.724455,  31.720377,  34.562396,  66.603957,  0.677265,  3.384824,  45.868821
 934.064026,  5.194708,  13.818709,  32.057767,  34.909618,  66.680679,  0.677144,  3.386382,  45.852372
 935.064026,  5.168830,  13.972043,  32.359404,  35.247373,  66.647261,  0.675789,  3.403772,  45.669134
 936.064026,  5.098387,  14.280540,  32.719130,  35.700876,  66.426993,  0.672044,  3.452041,  45.164369
 937.064026,  5.048215,  14.544476,  33.085151,  36.142981,  66.284017,  0.669324,  3.487273,  44.799452
 938.064026,  5.000706,  14.836249,  33.572339,  36.706548,  66.175663,  0.666706,  3.521314,  44.449676
 939.064026,  4.922269,  15.203480,  33.949869,  37.201983,  65.897488,  0.662292,  3.579015,  43.863019
 940.064026,  4.846953,  15.561716,  34.313578,  37.681068,  65.625945,  0.657942,  3.636254,  43.288702
 941.064026,  4.777193,  15.906111,  34.719096,  38.191035,  65.395079,  0.653811,  3.690954,  42.746899
 942.064026,  4.749554,  16.086910,  35.028970,  38.547531,  65.333484,  0.652147,  3.713091,  42.529565
 943.064026,  4.753621,  16.144957,  35.257405,  38.779627,  65.395040,  0.652393,  3.709817,  42.561635
 944.064026,  4.750275,  16.205927,  35.409781,  38.943541,  65.407326,  0.652191,  3.712510,  42.535250
 945.064026,  4.738414,  16.282990,  35.514644,  39.070855,  65.368132,  0.651472,  3.722089,  42.441534
 946.064026,  4.789904,  16.232607,  35.918327,  39.418256,  65.673049,  0.654571,  3.680863,  42.846334
