40000000000000000000CC00,1,1477359504345076,1477359504345076,1,0.8125,13312,-37.5,865.7,3.02501
40000000000000000000CC00,1,1477359504351735,1477359504351735,1,8.125,13312,-38.0,865.7,2.9881945
40000000000000000000CC00,1,1477359504358652,1477359504358652,1,1.625,13312,-38.0,865.7,3.02501
40000000000000000000CC00,1,1477359504365557,1477359504365557,1,5.6875,13312,-38.0,865.7,3.0004663
40000000000000000000CC00,1,1477359504372620,1477359504372620,1,5.6875,13312,-38.0,865.7,2.9943304
40000000000000000000CC00,1,1477359504379817,1477359504379817,1,2.4375,13312,-38.0,865.7,3.0127382
40000000000000000000CC00,1,1477359504386603,1477359504386603,1,3.25,13312,-38.0,865.7,3.0127382
40000000000000000000CC00,1,1477359504393543,1477359504393543,1,2.4375,13312,-37.5,865.7,3.0127382
40000000000000000000CC00,1,1477359504400533,1477359504400533,1,2.4375,13312,-37.5,865.7,3.0188742
40000000000000000000CC00,1,1477359504407496,1477359504407496,1,3.25,13312,-38.0,865.7,3.0188742
40000000000000000000CC00,1,1477359504414707,1477359504414707,1,2.4375,13312,-38.0,865.7,3.02501
40000000000000000000CC00,1,1477359504421647,1477359504421647,1,0.0,13312,-38.0,865.7,3.031146
40000000000000000000CC00,1,1477359504428684,1477359504428684,1,-0.8125,13312,-38.0,865.7,3.031146
40000000000000000000CC00,1,1477359504435649,1477359504435649,1,0.8125,13312,-38.0,865.7,3.02501
40000000000000000000CC00,1,1477359504442364,1477359504442364,1,4.875,13312,-37.5,865.7,3.0188742
40000000000000000000CC00,1,1477359504449298,1477359504449298,1,2.4375,13312,-37.5,865.7,3.0188742
40000000000000000000CC00,1,1477359504456247,1477359504456247,1,0.0,13312,-38.0,865.7,3.043418
40000000000000000000CC00,1,1477359504463480,1477359504463480,1,0.8125,13312,-38.0,865.7,3.02501
40000000000000000000CC00,1,1477359504470425,1477359504470425,1,0.8125,13312,-38.0,865.7,3.031146
40000000000000000000CC00,1,1477359504477147,1477359504477147,1,1.625,13312,-38.0,865.7,3.02501
40000000000000000000CC00,1,1477359504484413,1477359504484413,1,0.0,13312,-38.0,865.7,3.037282
40000000000000000000CC00,1,1477359504491392,1477359504491392,1,-0.8125,13312,-37.5,865.7,3.043418
40000000000000000000CC00,1,1477359504498151,1477359504498151,1,0.8125,13312,-38.0,865.7,3.037282
40000000000000000000CC00,1,1477359504505115,1477359504505115,1,2.4375,13312,-38.0,865.7,3.0127382
40000000000000000000CC00,1,1477359504512328,1477359504512328,1,-2.4375,13312,-38.0,865.7,3.0495539
40000000000000000000CC00,1,1477359504519284,1477359504519284,1,0.0,13312,-38.0,865.7,3.031146
40000000000000000000CC00,1,1477359504525976,1477359504525976,1,5.6875,13312,-38.0,865.7,3.0066023
40000000000000000000CC00,1,1477359504533174,1477359504533174,1,0.8125,13312,-38.0,865.7,3.0188742
40000000000000000000CC00,1,1477359504540145,1477359504540145,1,3.25,13312,-38.0,865.7,3.0066023
40000000000000000000CC00,1,1477359504546828,1477359504546828,1,2.4375,13312,-37.5,865.7,3.02501
40000000000000000000CC00,1,1477359504553997,1477359504553997,1,-1.625,13312,-38.0,865.7,3.0495539
40000000000000000000CC00,1,1477359504560985,1477359504560985,1,2.4375,13312,-38.0,865.7,3.0188742
40000000000000000000CC00,1,1477359504567890,1477359504567890,1,2.4375,13312,-37.5,865.7,3.02501
40000000000000000000CC00,1,1477359504574795,1477359504574795,1,3.25,13312,-38.0,865.7,3.0127382
40000000000000000000CC00,1,1477359504581494,1477359504581494,1,0.8125,13312,-37.5,865.7,3.031146
40000000000000000000CC00,1,1477359504588441,1477359504588441,1,2.4375,13312,-38.0,865.7,3.02501
40000000000000000000CC00,1,1477359504595388,1477359504595388,1,3.25,13312,-38.0,865.7,3.0127382
40000000000000000000CC00,1,1477359504602317,1477359504602317,1,4.875,13312,-37.5,865.7,3.0004663
40000000000000000000CC00,1,1477359504609573,1477359504609573,1,0.0,13312,-38.0,865.7,3.037282
40000000000000000000CC00,1,1477359504616553,1477359504616553,1,0.0,13312,-38.0,865.7,3.037282
40000000000000000000CC00,1,1477359504623317,1477359504623317,1,3.25,13312,-38.0,865.7,3.0127382
40000000000000000000CC00,1,1477359504630500,1477359504630500,1,3.25,13312,-38.0,865.7,3.0066023
40000000000000000000CC00,1,1477359504637273,1477359504637273,1,-1.625,13312,-38.0,865.7,3.031146
40000000000000000000CC00,1,1477359504644461,1477359504644461,1,4.875,13312,-38.0,865.7,3.0066023
40000000000000000000CC00,1,1477359504651186,1477359504651186,1,5.6875,13312,-37.5,865.7,3.0004663
40000000000000000000CC00,1,1477359504658402,1477359504658402,1,-0.8125,13312,-37.5,865.7,3.037282
40000000000000000000CC00,1,1477359504665409,1477359504665409,1,2.4375,13312,-37.5,865.7,3.0127382
40000000000000000000CC00,1,1477359504672338,1477359504672338,1,0.8125,13312,-38.0,865.7,3.02501
40000000000000000000CC00,1,1477359504679345,1477359504679345,1,-1.625,13312,-38.0,865.7,3.037282
40000000000000000000CC00,1,1477359504686098,1477359504686098,1,3.25,13312,-38.0,865.7,3.0066023
40000000000000000000CC00,1,1477359504693181,1477359504693181,1,-1.625,13312,-37.5,865.7,3.0495539
40000000000000000000CC00,1,1477359504700379,1477359504700379,1,0.8125,13312,-38.0,865.7,3.0188742
40000000000000000000CC00,1,1477359504707099,1477359504707099,1,2.4375,13312,-38.0,865.7,3.0188742
40000000000000000000CC00,1,1477359504714001,1477359504714001,1,4.875,13312,-38.0,865.7,3.0188742
40000000000000000000CC00,1,1477359504721203,1477359504721203,1,3.25,13312,-38.0,865.7,3.0066023
40000000000000000000CC00,1,1477359504727911,1477359504727911,1,3.25,13312,-37.5,865.7,3.02501
40000000000000000000CC00,1,1477359504735111,1477359504735111,1,1.625,13312,-37.5,865.7,3.037282
40000000000000000000CC00,1,1477359504742027,1477359504742027,1,0.0,13312,-37.5,865.7,3.0495539
40000000000000000000CC00,1,1477359504749050,1477359504749050,1,0.8125,13312,-38.0,865.7,3.031146
40000000000000000000CC00,1,1477359504755961,1477359504755961,1,1.625,13312,-37.5,865.7,3.031146
40000000000000000000CC00,1,1477359504762978,1477359504762978,1,-0.8125,13312,-38.0,865.7,3.0556898
40000000000000000000CC00,1,1477359504769638,1477359504769638,1,-0.8125,13312,-38.0,865.7,3.0556898
40000000000000000000CC00,1,1477359504776853,1477359504776853,1,4.875,13312,-37.5,865.7,3.02501
40000000000000000000CC00,1,1477359504783529,1477359504783529,1,3.25,13312,-37.5,865.7,3.031146
40000000000000000000CC00,1,1477359504790787,1477359504790787,1,1.625,13312,-37.5,865.7,3.037282
40000000000000000000CC00,1,1477359504797508,1477359504797508,1,1.625,13312,-38.0,865.7,3.031146
40000000000000000000CC00,1,1477359504804524,1477359504804524,1,-0.8125,13312,-38.0,865.7,3.0556898
40000000000000000000CC00,1,1477359504811770,1477359504811770,1,3.25,13312,-37.5,865.7,3.031146
40000000000000000000CC00,1,1477359504818507,1477359504818507,1,3.25,13312,-38.0,865.7,3.031146
40000000000000000000CC00,1,1477359504825497,1477359504825497,1,-0.8125,13312,-38.0,865.7,3.0495539
40000000000000000000CC00,1,1477359504832768,1477359504832768,1,1.625,13312,-37.5,865.7,3.0495539
40000000000000000000CC00,1,1477359504839793,1477359504839793,1,0.8125,13312,-37.5,865.7,3.0618258
40000000000000000000CC00,1,1477359504846525,1477359504846525,1,5.6875,13312,-38.0,865.7,3.0188742
40000000000000000000CC00,1,1477359504853549,1477359504853549,1,2.4375,13312,-37.5,865.7,3.043418
40000000000000000000CC00,1,1477359504860770,1477359504860770,1,5.6875,13312,-38.0,865.7,3.031146
40000000000000000000CC00,1,1477359504867655,1477359504867655,1,-3.25,13312,-37.5,865.7,3.0740974
40000000000000000000CC00,1,1477359504874383,1477359504874383,1,0.0,13312,-37.5,865.7,3.0618258
40000000000000000000CC00,1,1477359504881554,1477359504881554,1,0.0,13312,-38.0,865.7,3.0556898
40000000000000000000CC00,1,1477359504888277,1477359504888277,1,-0.8125,13312,-37.5,865.7,3.0618258
40000000000000000000CC00,1,1477359504895166,1477359504895166,1,2.4375,13312,-38.0,865.7,3.043418
40000000000000000000CC00,1,1477359504902153,1477359504902153,1,3.25,13312,-38.0,865.7,3.031146
40000000000000000000CC00,1,1477359504909192,1477359504909192,1,0.8125,13312,-37.5,865.7,3.0556898
40000000000000000000CC00,1,1477359504916349,1477359504916349,1,5.6875,13312,-38.0,865.7,3.02501
40000000000000000000CC00,1,1477359504923364,1477359504923364,1,0.8125,13312,-38.0,865.7,3.0556898
40000000000000000000CC00,1,1477359504930374,1477359504930374,1,0.0,13312,-38.0,865.7,3.0618258
40000000000000000000CC00,1,1477359504937318,1477359504937318,1,-0.8125,13312,-38.0,865.7,3.0618258
40000000000000000000CC00,1,1477359504944022,1477359504944022,1,3.25,13312,-37.5,865.7,3.0495539
40000000000000000000CC00,1,1477359504951252,1477359504951252,1,1.625,13312,-37.5,865.7,3.0495539
40000000000000000000CC00,1,1477359504958240,1477359504958240,1,0.8125,13312,-38.0,865.7,3.0556898
40000000000000000000CC00,1,1477359504964902,1477359504964902,1,4.875,13312,-37.5,865.7,3.037282
40000000000000000000CC00,1,1477359504971876,1477359504971876,1,1.625,13312,-37.5,865.7,3.043418
40000000000000000000CC00,1,1477359504978764,1477359504978764,1,3.25,13312,-37.5,865.7,3.043418
40000000000000000000CC00,1,1477359504986000,1477359504986000,1,5.6875,13312,-37.5,865.7,3.037282
40000000000000000000CC00,1,1477359504993018,1477359504993018,1,-0.8125,13312,-38.0,865.7,3.0679617
40000000000000000000CC00,1,1477359504999750,1477359504999750,1,0.0,13312,-37.5,865.7,3.0679617
40000000000000000000CC00,1,1477359505006949,1477359505006949,1,4.875,13312,-38.0,865.7,3.037282
40000000000000000000CC00,1,1477359505013902,1477359505013902,1,0.0,13312,-38.0,865.7,3.0679617
40000000000000000000CC00,1,1477359505020845,1477359505020845,1,-0.8125,13312,-37.5,865.7,3.0802333
40000000000000000000CC00,1,1477359505027950,1477359505027950,1,5.6875,13312,-38.0,865.7,3.037282
40000000000000000000CC00,1,1477359505034935,1477359505034935,1,6.5,13312,-38.0,865.7,3.031146
40000000000000000000CC00,1,1477359505041946,1477359505041946,1,1.625,13312,-38.0,865.7,3.0618258
40000000000000000000CC00,1,1477359505048916,1477359505048916,1,4.875,13312,-38.0,865.7,3.043418
40000000000000000000CC00,1,1477359505055630,1477359505055630,1,0.0,13312,-38.0,865.7,3.0556898
40000000000000000000CC00,1,1477359505062889,1477359505062889,1,3.25,13312,-38.0,865.7,3.043418
40000000000000000000CC00,1,1477359505069847,1477359505069847,1,2.4375,13312,-37.5,865.7,3.0495539
40000000000000000000CC00,1,1477359505076824,1477359505076824,1,-0.8125,13312,-38.0,865.7,3.0618258
40000000000000000000CC00,1,1477359505083705,1477359505083705,1,0.0,13312,-38.0,865.7,3.0618258
40000000000000000000CC00,1,1477359505090355,1477359505090355,1,-0.8125,13312,-37.5,865.7,3.0618258
40000000000000000000CC00,1,1477359505097567,1477359505097567,1,3.25,13312,-38.0,865.7,3.031146
40000000000000000000CC00,1,1477359505104312,1477359505104312,1,1.625,13312,-38.0,865.7,3.043418
40000000000000000000CC00,1,1477359505111304,1477359505111304,1,0.8125,13312,-38.0,865.7,3.0556898
40000000000000000000CC00,1,1477359505118370,1477359505118370,1,-1.625,13312,-38.0,865.7,3.0556898
40000000000000000000CC00,1,1477359505125600,1477359505125600,1,3.25,13312,-38.0,865.7,3.031146
40000000000000000000CC00,1,1477359505132275,1477359505132275,1,4.875,13312,-38.0,865.7,3.02501
40000000000000000000CC00,1,1477359505139220,1477359505139220,1,0.0,13312,-38.0,865.7,3.043418
40000000000000000000CC00,1,1477359505146391,1477359505146391,1,4.875,13312,-38.0,865.7,3.0127382
40000000000000000000CC00,1,1477359505153303,1477359505153303,1,2.4375,13312,-38.0,865.7,3.0188742
40000000000000000000CC00,1,1477359505160232,1477359505160232,1,-0.8125,13312,-38.0,865.7,3.043418
40000000000000000000CC00,1,1477359505167190,1477359505167190,1,-1.625,13312,-38.0,865.7,3.043418
40000000000000000000CC00,1,1477359505174175,1477359505174175,1,4.875,13312,-38.0,865.7,3.0127382
40000000000000000000CC00,1,1477359505180846,1477359505180846,1,2.4375,13312,-38.0,865.7,3.0004663
40000000000000000000CC00,1,1477359505188123,1477359505188123,1,4.875,13312,-38.0,865.7,3.0004663
40000000000000000000CC00,1,1477359505194823,1477359505194823,1,1.625,13312,-38.0,865.7,3.0066023
40000000000000000000CC00,1,1477359505201749,1477359505201749,1,0.0,13312,-38.0,865.7,3.0066023
40000000000000000000CC00,1,1477359505208715,1477359505208715,1,0.0,13312,-38.5,865.7,3.0127382
40000000000000000000CC00,1,1477359505215706,1477359505215706,1,-2.4375,13312,-38.5,865.7,3.0127382
40000000000000000000CC00,1,1477359505222725,1477359505222725,1,-3.25,13312,-38.0,865.7,3.0188742
40000000000000000000CC00,1,1477359505229676,1477359505229676,1,0.0,13312,-38.5,865.7,3.0066023
40000000000000000000CC00,1,1477359505236652,1477359505236652,1,6.5,13312,-38.5,865.7,2.963651
40000000000000000000CC00,1,1477359505243862,1477359505243862,1,3.25,13312,-38.5,865.7,2.9820588
40000000000000000000CC00,1,1477359505250864,1477359505250864,1,5.6875,13312,-38.0,865.7,2.957515
40000000000000000000CC00,1,1477359505257565,1477359505257565,1,2.4375,13312,-38.5,865.7,2.969787
40000000000000000000CC00,1,1477359505264781,1477359505264781,1,3.25,13312,-38.5,865.7,2.957515
40000000000000000000CC00,1,1477359505271698,1477359505271698,1,2.4375,13312,-38.5,865.7,2.963651
40000000000000000000CC00,1,1477359505278444,1477359505278444,1,2.4375,13312,-38.5,865.7,2.957515
40000000000000000000CC00,1,1477359505285616,1477359505285616,1,4.875,13312,-38.5,865.7,2.9452431
40000000000000000000CC00,1,1477359505292317,1477359505292317,1,6.5,13312,-39.0,865.7,2.9268353
40000000000000000000CC00,1,1477359505299475,1477359505299475,1,-1.625,13312,-38.5,865.7,2.9759228
40000000000000000000CC00,1,1477359505306164,1477359505306164,1,0.8125,13312,-38.5,865.7,2.951379
40000000000000000000CC00,1,1477359505313380,1477359505313380,1,0.0,13312,-39.0,865.7,2.957515
40000000000000000000CC00,1,1477359505320094,1477359505320094,1,3.25,13312,-38.5,865.7,2.9329712
40000000000000000000CC00,1,1477359505327127,1477359505327127,1,0.8125,13312,-39.0,865.7,2.951379
40000000000000000000CC00,1,1477359505334370,1477359505334370,1,5.6875,13312,-39.0,865.7,2.9268353
40000000000000000000CC00,1,1477359505341058,1477359505341058,1,1.625,13312,-38.5,865.7,2.9452431
40000000000000000000CC00,1,1477359505348243,1477359505348243,1,1.625,13312,-39.0,865.7,2.9391072
40000000000000000000CC00,1,1477359505354927,1477359505354927,1,0.0,13312,-39.0,865.7,2.951379
40000000000000000000CC00,1,1477359505362158,1477359505362158,1,0.0,13312,-39.0,865.7,2.951379
40000000000000000000CC00,1,1477359505369121,1477359505369121,1,0.0,13312,-39.0,865.7,2.9452431
40000000000000000000CC00,1,1477359505375793,1477359505375793,1,0.0,13312,-39.0,865.7,2.951379
40000000000000000000CC00,1,1477359505383041,1477359505383041,1,-0.8125,13312,-39.0,865.7,2.951379
40000000000000000000CC00,1,1477359505389956,1477359505389956,1,2.4375,13312,-39.0,865.7,2.9391072
40000000000000000000CC00,1,1477359505396675,1477359505396675,1,1.625,13312,-39.5,865.7,2.9329712
40000000000000000000CC00,1,1477359505403576,1477359505403576,1,6.5,13312,-39.0,865.7,2.9022915
40000000000000000000CC00,1,1477359505410757,1477359505410757,1,1.625,13312,-39.0,865.7,2.9329712
40000000000000000000CC00,1,1477359505417705,1477359505417705,1,5.6875,13312,-39.5,865.7,2.9084275
40000000000000000000CC00,1,1477359505424744,1477359505424744,1,3.25,13312,-39.5,865.7,2.9206994
40000000000000000000CC00,1,1477359505431391,1477359505431391,1,0.0,13312,-39.5,865.7,2.9391072
40000000000000000000CC00,1,1477359505438577,1477359505438577,1,0.8125,13312,-39.5,865.7,2.9268353
40000000000000000000CC00,1,1477359505445238,1477359505445238,1,6.5,13312,-39.5,865.7,2.8961558
40000000000000000000CC00,1,1477359505452406,1477359505452406,1,1.625,13312,-39.5,865.7,2.9268353
40000000000000000000CC00,1,1477359505459125,1477359505459125,1,3.25,13312,-39.5,865.7,2.9084275
40000000000000000000CC00,1,1477359505466107,1477359505466107,1,1.625,13312,-39.5,865.7,2.9268353
40000000000000000000CC00,1,1477359505473078,1477359505473078,1,0.0,13312,-39.5,865.7,2.9268353
40000000000000000000CC00,1,1477359505479980,1477359505479980,1,3.25,13312,-39.5,865.7,2.9206994
40000000000000000000CC00,1,1477359505486949,1477359505486949,1,3.25,13312,-39.5,865.7,2.9206994
40000000000000000000CC00,1,1477359505494224,1477359505494224,1,2.4375,13312,-39.5,865.7,2.9206994
40000000000000000000CC00,1,1477359505501207,1477359505501207,1,4.875,13312,-39.5,865.7,2.9084275
40000000000000000000CC00,1,1477359505507853,1477359505507853,1,-0.8125,13312,-39.5,865.7,2.9329712
40000000000000000000CC00,1,1477359505515020,1477359505515020,1,3.25,13312,-39.5,865.7,2.9084275
40000000000000000000CC00,1,1477359505521747,1477359505521747,1,6.5,13312,-39.5,865.7,2.89002
40000000000000000000CC00,1,1477359505528969,1477359505528969,1,0.8125,13312,-39.5,865.7,2.9268353
40000000000000000000CC00,1,1477359505535972,1477359505535972,1,5.6875,13312,-39.5,865.7,2.8961558
40000000000000000000CC00,1,1477359505542763,1477359505542763,1,2.4375,13312,-39.5,865.7,2.9206994
40000000000000000000CC00,1,1477359505549678,1477359505549678,1,1.625,13312,-39.5,865.7,2.9268353
40000000000000000000CC00,1,1477359505556724,1477359505556724,1,1.625,13312,-39.5,865.7,2.9206994
40000000000000000000CC00,1,1477359505563680,1477359505563680,1,3.25,13312,-39.5,865.7,2.9022915
40000000000000000000CC00,1,1477359505570881,1477359505570881,1,0.8125,13312,-39.5,865.7,2.9206994
40000000000000000000CC00,1,1477359505577560,1477359505577560,1,1.625,13312,-39.5,865.7,2.9206994
40000000000000000000CC00,1,1477359505584818,1477359505584818,1,0.0,13312,-39.5,865.7,2.9268353
40000000000000000000CC00,1,1477359505591831,1477359505591831,1,3.25,13312,-39.5,865.7,2.9084275
40000000000000000000CC00,1,1477359505598840,1477359505598840,1,0.8125,13312,-39.5,865.7,2.9268353
40000000000000000000CC00,1,1477359505605854,1477359505605854,1,3.25,13312,-39.5,865.7,2.9084275
40000000000000000000CC00,1,1477359505612650,1477359505612650,1,0.8125,13312,-39.5,865.7,2.9452431
40000000000000000000CC00,1,1477359505619852,1477359505619852,1,6.5,13312,-39.0,865.7,2.9084275
40000000000000000000CC00,1,1477359505626560,1477359505626560,1,-0.8125,13312,-39.5,865.7,2.9452431
40000000000000000000CC00,1,1477359505633793,1477359505633793,1,3.25,13312,-39.5,865.7,2.9206994
40000000000000000000CC00,1,1477359505640694,1477359505640694,1,-0.8125,13312,-39.5,865.7,2.9452431
40000000000000000000CC00,1,1477359505647639,1477359505647639,1,0.8125,13312,-39.5,865.7,2.9452431
40000000000000000000CC00,1,1477359505654524,1477359505654524,1,-0.8125,13312,-39.5,865.7,2.951379
40000000000000000000CC00,1,1477359505661200,1477359505661200,1,2.4375,13312,-39.5,865.7,2.9391072
40000000000000000000CC00,1,1477359505668398,1477359505668398,1,1.625,13312,-39.5,865.7,2.957515
40000000000000000000CC00,1,1477359505675324,1477359505675324,1,2.4375,13312,-39.5,865.7,2.9452431
40000000000000000000CC00,1,1477359505682275,1477359505682275,1,5.6875,13312,-39.5,865.7,2.9391072
40000000000000000000CC00,1,1477359505689206,1477359505689206,1,2.4375,13312,-39.5,865.7,2.9452431
40000000000000000000CC00,1,1477359505696107,1477359505696107,1,4.875,13312,-39.5,865.7,2.9391072
40000000000000000000CC00,1,1477359505703122,1477359505703122,1,5.6875,13312,-39.5,865.7,2.9391072
40000000000000000000CC00,1,1477359505709851,1477359505709851,1,0.8125,13312,-39.5,865.7,2.969787
40000000000000000000CC00,1,1477359505716869,1477359505716869,1,3.25,13312,-39.5,865.7,2.951379
40000000000000000000CC00,1,1477359505724116,1477359505724116,1,4.875,13312,-39.5,865.7,2.951379
40000000000000000000CC00,1,1477359505730863,1477359505730863,1,2.4375,13312,-39.5,865.7,2.957515
40000000000000000000CC00,1,1477359505737786,1477359505737786,1,1.625,13312,-39.5,865.7,2.963651
40000000000000000000CC00,1,1477359505745045,1477359505745045,1,5.6875,13312,-39.5,865.7,2.951379
40000000000000000000CC00,1,1477359505751774,1477359505751774,1,2.4375,13312,-39.5,865.7,2.963651
40000000000000000000CC00,1,1477359505758670,1477359505758670,1,0.8125,13312,-39.5,865.7,2.963651
40000000000000000000CC00,1,1477359505765589,1477359505765589,1,5.6875,13312,-39.5,865.7,2.951379
40000000000000000000CC00,1,1477359505772585,1477359505772585,1,0.8125,13312,-39.5,865.7,2.9820588
40000000000000000000CC00,1,1477359505779533,1477359505779533,1,0.8125,13312,-39.0,865.7,2.9820588
40000000000000000000CC00,1,1477359505786700,1477359505786700,1,2.4375,13312,-39.5,865.7,2.969787
40000000000000000000CC00,1,1477359505793431,1477359505793431,1,1.625,13312,-39.5,865.7,2.9759228
40000000000000000000CC00,1,1477359505800348,1477359505800348,1,-1.625,13312,-39.5,865.7,2.9943304
40000000000000000000CC00,1,1477359505807530,1477359505807530,1,0.8125,13312,-39.5,865.7,2.9820588
40000000000000000000CC00,1,1477359505814267,1477359505814267,1,0.0,13312,-39.5,865.7,2.9820588
40000000000000000000CC00,1,1477359505821518,1477359505821518,1,4.875,13312,-39.0,865.7,2.963651
40000000000000000000CC00,1,1477359505828258,1477359505828258,1,2.4375,13312,-39.5,865.7,2.9759228
40000000000000000000CC00,1,1477359505835563,1477359505835563,1,-0.8125,13312,-39.5,865.7,3.0066023
40000000000000000000CC00,1,1477359505842280,1477359505842280,1,2.4375,13312,-39.5,865.7,2.969787
40000000000000000000CC00,1,1477359505849225,1477359505849225,1,0.0,13312,-39.5,865.7,3.0004663
40000000000000000000CC00,1,1477359505856430,1477359505856430,1,1.625,13312,-39.5,865.7,2.9943304
40000000000000000000CC00,1,1477359505863109,1477359505863109,1,1.625,13312,-39.5,865.7,2.9759228
40000000000000000000CC00,1,1477359505870081,1477359505870081,1,1.625,13312,-39.5,865.7,2.9881945
40000000000000000000CC00,1,1477359505877257,1477359505877257,1,1.625,13312,-39.5,865.7,2.9881945
40000000000000000000CC00,1,1477359505884212,1477359505884212,1,3.25,13312,-39.0,865.7,2.9820588
40000000000000000000CC00,1,1477359505891182,1477359505891182,1,4.875,13312,-39.5,865.7,2.9759228
40000000000000000000CC00,1,1477359505898127,1477359505898127,1,1.625,13312,-39.5,865.7,2.9943304
40000000000000000000CC00,1,1477359505905038,1477359505905038,1,0.8125,13312,-39.5,865.7,2.9943304
40000000000000000000CC00,1,1477359505911693,1477359505911693,1,-0.8125,13312,-39.5,865.7,3.0066023
40000000000000000000CC00,1,1477359505918829,1477359505918829,1,0.0,13312,-39.5,865.7,3.0066023
40000000000000000000CC00,1,1477359505925536,1477359505925536,1,0.0,13312,-39.5,865.7,3.0004663
40000000000000000000CC00,1,1477359505932816,1477359505932816,1,0.8125,13312,-39.5,865.7,3.0066023
40000000000000000000CC00,1,1477359505939788,1477359505939788,1,0.0,13312,-39.5,865.7,3.0188742
40000000000000000000CC00,1,1477359505946764,1477359505946764,1,7.3125,13312,-39.5,865.7,2.9759228
40000000000000000000CC00,1,1477359505953491,1477359505953491,1,-0.8125,13312,-39.5,865.7,3.02501
40000000000000000000CC00,1,1477359505960463,1477359505960463,1,1.625,13312,-39.5,865.7,2.9881945
40000000000000000000CC00,1,1477359505967626,1477359505967626,1,6.5,13312,-39.5,865.7,2.9881945
40000000000000000000CC00,1,1477359505974611,1477359505974611,1,4.875,13312,-39.5,865.7,2.9943304
40000000000000000000CC00,1,1477359505981581,1477359505981581,1,5.6875,13312,-39.5,865.7,2.9881945
40000000000000000000CC00,1,1477359505988292,1477359505988292,1,2.4375,13312,-39.5,865.7,3.0127382
40000000000000000000CC00,1,1477359505995467,1477359505995467,1,0.8125,13312,-39.5,865.7,3.02501
40000000000000000000CC00,1,1477359506002172,1477359506002172,1,6.5,13312,-39.5,865.7,2.9943304
40000000000000000000CC00,1,1477359506009187,1477359506009187,1,1.625,13312,-39.5,865.7,3.0127382
40000000000000000000CC00,1,1477359506016410,1477359506016410,1,0.8125,13312,-39.5,865.7,3.043418
40000000000000000000CC00,1,1477359506023202,1477359506023202,1,-3.25,13312,-39.5,865.7,3.0495539
40000000000000000000CC00,1,1477359506030147,1477359506030147,1,1.625,13312,-39.5,865.7,3.0188742
40000000000000000000CC00,1,1477359506037081,1477359506037081,1,3.25,13312,-39.5,865.7,3.0188742
40000000000000000000CC00,1,1477359506044059,1477359506044059,1,-3.25,13312,-39.5,865.7,3.0556898
40000000000000000000CC00,1,1477359506050978,1477359506050978,1,1.625,13312,-39.5,865.7,3.02501
40000000000000000000CC00,1,1477359506057963,1477359506057963,1,1.625,13312,-39.5,865.7,3.037282
40000000000000000000CC00,1,1477359506064899,1477359506064899,1,2.4375,13312,-39.5,865.7,3.0188742
40000000000000000000CC00,1,1477359506071909,1477359506071909,1,4.875,13312,-40.0,865.7,3.0066023
40000000000000000000CC00,1,1477359506079114,1477359506079114,1,-2.4375,13312,-40.0,865.7,3.0556898
40000000000000000000CC00,1,1477359506085818,1477359506085818,1,-0.8125,13312,-40.0,865.7,3.0556898
40000000000000000000CC00,1,1477359506092875,1477359506092875,1,6.5,13312,-40.0,865.7,3.0066023
40000000000000000000CC00,1,1477359506099814,1477359506099814,1,1.625,13312,-40.0,865.7,3.0556898
40000000000000000000CC00,1,1477359506107048,1477359506107048,1,0.0,13312,-40.0,865.7,3.0495539
40000000000000000000CC00,1,1477359506113978,1477359506113978,1,-0.8125,13312,-40.0,865.7,3.0618258
40000000000000000000CC00,1,1477359506120901,1477359506120901,1,-1.625,13312,-40.0,865.7,3.0740974
40000000000000000000CC00,1,1477359506127561,1477359506127561,1,2.4375,13312,-40.0,865.7,3.043418
40000000000000000000CC00,1,1477359506134478,1477359506134478,1,3.25,13312,-40.5,865.7,3.043418
40000000000000000000CC00,1,1477359506141396,1477359506141396,1,0.8125,13312,-40.5,865.7,3.0556898
40000000000000000000CC00,1,1477359506148330,1477359506148330,1,0.0,13312,-40.5,865.7,3.043418
40000000000000000000CC00,1,1477359506155527,1477359506155527,1,-0.8125,13312,-40.5,865.7,3.0802333
40000000000000000000CC00,1,1477359506162172,1477359506162172,1,0.0,13312,-40.5,865.7,3.0618258
40000000000000000000CC00,1,1477359506169241,1477359506169241,1,0.0,13312,-40.5,865.7,3.0679617
40000000000000000000CC00,1,1477359506176247,1477359506176247,1,0.8125,13312,-40.5,865.7,3.0618258
40000000000000000000CC00,1,1477359506183442,1477359506183442,1,2.4375,13312,-40.5,865.7,3.0556898
40000000000000000000CC00,1,1477359506190117,1477359506190117,1,1.625,13312,-40.5,865.7,3.0618258
40000000000000000000CC00,1,1477359506197302,1477359506197302,1,0.8125,13312,-40.5,865.7,3.0618258
40000000000000000000CC00,1,1477359506203979,1477359506203979,1,4.875,13312,-40.5,865.7,3.037282
40000000000000000000CC00,1,1477359506211203,1477359506211203,1,1.625,13312,-41.0,865.7,3.0556898
40000000000000000000CC00,1,1477359506218150,1477359506218150,1,1.625,13312,-41.0,865.7,3.0679617
40000000000000000000CC00,1,1477359506225093,1477359506225093,1,-1.625,13312,-40.5,865.7,3.0863693
40000000000000000000CC00,1,1477359506232066,1477359506232066,1,0.0,13312,-40.5,865.7,3.0802333
40000000000000000000CC00,1,1477359506238769,1477359506238769,1,0.0,13312,-41.0,865.7,3.0802333
40000000000000000000CC00,1,1477359506245938,1477359506245938,1,-0.8125,13312,-40.5,865.7,3.0863693
40000000000000000000CC00,1,1477359506252985,1477359506252985,1,2.4375,13312,-40.5,865.7,3.0618258
40000000000000000000CC00,1,1477359506260035,1477359506260035,1,0.8125,13312,-40.5,865.7,3.0863693
40000000000000000000CC00,1,1477359506266933,1477359506266933,1,1.625,13312,-41.0,865.7,3.0679617
40000000000000000000CC00,1,1477359506273611,1477359506273611,1,-0.8125,13312,-40.5,865.7,3.0925052
40000000000000000000CC00,1,1477359506280614,1477359506280614,1,4.875,13312,-40.5,865.7,3.0618258
40000000000000000000CC00,1,1477359506287768,1477359506287768,1,2.4375,13312,-40.5,865.7,3.0863693
40000000000000000000CC00,1,1477359506294595,1477359506294595,1,0.8125,13312,-40.5,865.7,3.0925052
40000000000000000000CC00,1,1477359506301545,1477359506301545,1,6.5,13312,-40.5,865.7,3.0740974
40000000000000000000CC00,1,1477359506308714,1477359506308714,1,-1.625,13312,-40.5,865.7,3.117049
40000000000000000000CC00,1,1477359506315695,1477359506315695,1,-1.625,13312,-40.5,865.7,3.110913
40000000000000000000CC00,1,1477359506322669,1477359506322669,1,0.8125,13312,-40.0,865.7,3.110913
40000000000000000000CC00,1,1477359506329638,1477359506329638,1,-1.625,13312,-40.0,865.7,3.1354568
40000000000000000000CC00,1,1477359506336382,1477359506336382,1,4.875,13312,-40.0,865.7,3.0986412
40000000000000000000CC00,1,1477359506343569,1477359506343569,1,-2.4375,13312,-40.0,865.7,3.1415927
40000000000000000000CC00,1,1477359506350255,1477359506350255,1,0.8125,13312,-39.5,865.7,3.1538644
40000000000000000000CC00,1,1477359506357443,1477359506357443,1,-0.8125,13312,-39.0,865.7,3.1722722
40000000000000000000CC00,1,1477359506364346,1477359506364346,1,0.8125,13312,-39.0,865.7,3.1722722
40000000000000000000CC00,1,1477359506371267,1477359506371267,1,-0.8125,13312,-39.0,865.7,3.184544
40000000000000000000CC00,1,1477359506378042,1477359506378042,1,1.625,13312,-38.5,865.7,3.184544
40000000000000000000CC00,1,1477359506385013,1477359506385013,1,0.8125,13312,-38.0,865.7,3.2213597
40000000000000000000CC00,1,1477359506391947,1477359506391947,1,-1.625,13312,-37.5,865.7,3.264311
40000000000000000000CC00,1,1477359506399119,1477359506399119,1,-2.4375,13312,-37.0,865.7,3.2888548
40000000000000000000CC00,1,1477359506406112,1477359506406112,1,1.625,13312,-36.5,865.7,3.3072627
40000000000000000000CC00,1,1477359506412867,1477359506412867,1,0.0,13312,-36.0,865.7,3.350214
40000000000000000000CC00,1,1477359506420053,1477359506420053,1,1.625,13312,-35.0,865.7,3.3870296
40000000000000000000CC00,1,1477359506426747,1477359506426747,1,-0.8125,13312,-34.5,865.7,3.436117
40000000000000000000CC00,1,1477359506433669,1477359506433669,1,3.25,13312,-34.5,865.7,3.4729326
40000000000000000000CC00,1,1477359506440588,1477359506440588,1,-1.625,13312,-33.5,865.7,3.577243
40000000000000000000CC00,1,1477359506447798,1477359506447798,1,0.0,13312,-33.5,865.7,3.6201947
40000000000000000000CC00,1,1477359506454506,1477359506454506,1,1.625,13312,-33.0,865.7,3.6876898
40000000000000000000CC00,1,1477359506461722,1477359506461722,1,0.8125,13312,-32.5,865.7,3.7674568
40000000000000000000CC00,1,1477359506468394,1477359506468394,1,0.0,13312,-32.5,865.7,3.8533597
40000000000000000000CC00,1,1477359506475379,1477359506475379,1,-0.8125,13312,-32.5,865.7,3.9331267
40000000000000000000CC00,1,1477359506482626,1477359506482626,1,0.0,13312,-32.0,865.7,4.0190296
40000000000000000000CC00,1,1477359506489615,1477359506489615,1,-2.4375,13312,-31.5,865.7,4.1110687
40000000000000000000CC00,1,1477359506496554,1477359506496554,1,-1.625,13312,-31.0,865.7,4.1785636
40000000000000000000CC00,1,1477359506503500,1477359506503500,1,-0.8125,13312,-31.0,865.7,4.252195
40000000000000000000CC00,1,1477359506510176,1477359506510176,1,-0.8125,13312,-30.5,865.7,4.3196898
40000000000000000000CC00,1,1477359506517387,1477359506517387,1,-3.25,13312,-31.0,865.7,4.387185
40000000000000000000CC00,1,1477359506524071,1477359506524071,1,-0.8125,13312,-30.5,865.7,4.4301367
40000000000000000000CC00,1,1477359506530943,1477359506530943,1,-1.625,13312,-30.5,865.7,4.4914956
40000000000000000000CC00,1,1477359506537828,1477359506537828,1,-1.625,13312,-30.5,865.7,4.5221753
40000000000000000000CC00,1,1477359506544755,1477359506544755,1,-3.25,13312,-31.0,865.7,4.552855
40000000000000000000CC00,1,1477359506551687,1477359506551687,1,-2.4375,13312,-31.0,865.7,4.5835347
40000000000000000000CC00,1,1477359506558626,1477359506558626,1,-1.625,13312,-30.5,865.7,4.6019425
40000000000000000000CC00,1,1477359506565750,1477359506565750,1,-3.25,13312,-31.0,865.7,4.626486
40000000000000000000CC00,1,1477359506572841,1477359506572841,1,-4.875,13312,-31.0,865.7,4.6448936
40000000000000000000CC00,1,1477359506579536,1477359506579536,1,-2.4375,13312,-31.5,865.7,4.6448936
40000000000000000000CC00,1,1477359506586819,1477359506586819,1,-2.4375,13312,-31.5,865.7,4.6571655
40000000000000000000CC00,1,1477359506593640,1477359506593640,1,-0.8125,13312,-31.5,865.7,4.6694374
40000000000000000000CC00,1,1477359506600796,1477359506600796,1,0.0,13312,-31.0,865.7,4.6694374
40000000000000000000CC00,1,1477359506607730,1477359506607730,1,-1.625,13312,-31.5,865.7,4.693981
40000000000000000000CC00,1,1477359506614453,1477359506614453,1,0.0,13312,-31.5,865.7,4.693981
40000000000000000000CC00,1,1477359506621627,1477359506621627,1,0.0,13312,-31.5,865.7,4.693981
40000000000000000000CC00,1,1477359506628317,1477359506628317,1,-2.4375,13312,-31.5,865.7,4.718525
40000000000000000000CC00,1,1477359506635286,1477359506635286,1,0.0,13312,-31.0,865.7,4.712389
40000000000000000000CC00,1,1477359506642242,1477359506642242,1,-0.8125,13312,-31.5,865.7,4.730797
40000000000000000000CC00,1,1477359506649156,1477359506649156,1,-1.625,13312,-31.0,865.7,4.7430687
40000000000000000000CC00,1,1477359506656090,1477359506656090,1,-0.8125,13312,-31.5,865.7,4.7430687
40000000000000000000CC00,1,1477359506663322,1477359506663322,1,-0.8125,13312,-31.0,865.7,4.7492046
40000000000000000000CC00,1,1477359506670007,1477359506670007,1,0.8125,13312,-31.5,865.7,4.7492046
40000000000000000000CC00,1,1477359506677223,1477359506677223,1,0.8125,13312,-31.0,865.7,4.7553406
40000000000000000000CC00,1,1477359506683926,1477359506683926,1,0.0,13312,-31.0,865.7,4.7737484
40000000000000000000CC00,1,1477359506690889,1477359506690889,1,-2.4375,13312,-31.0,865.7,4.792156
40000000000000000000CC00,1,1477359506697803,1477359506697803,1,-0.8125,13312,-31.0,865.7,4.792156
40000000000000000000CC00,1,1477359506704751,1477359506704751,1,1.625,13312,-31.0,865.7,4.792156
40000000000000000000CC00,1,1477359506711958,1477359506711958,1,-0.8125,13312,-31.5,865.7,4.8166995
40000000000000000000CC00,1,1477359506718632,1477359506718632,1,-0.8125,13312,-31.0,865.7,4.8228354
40000000000000000000CC00,1,1477359506725771,1477359506725771,1,0.8125,13312,-31.0,865.7,4.8228354
40000000000000000000CC00,1,1477359506732519,1477359506732519,1,0.0,13312,-31.5,865.7,4.8351073
40000000000000000000CC00,1,1477359506739480,1477359506739480,1,2.4375,13312,-31.0,865.7,4.8412433
40000000000000000000CC00,1,1477359506746612,1477359506746612,1,-0.8125,13312,-31.0,865.7,4.865787
40000000000000000000CC00,1,1477359506753556,1477359506753556,1,-0.8125,13312,-31.0,865.7,4.878059
40000000000000000000CC00,1,1477359506760425,1477359506760425,1,0.8125,13312,-31.0,865.7,4.878059
40000000000000000000CC00,1,1477359506767400,1477359506767400,1,-0.8125,13312,-31.0,865.7,4.9026027
40000000000000000000CC00,1,1477359506774329,1477359506774329,1,0.8125,13312,-31.0,865.7,4.9087386
40000000000000000000CC00,1,1477359506781003,1477359506781003,1,1.625,13312,-31.0,865.7,4.9148746
40000000000000000000CC00,1,1477359506787947,1477359506787947,1,0.8125,13312,-31.5,865.7,4.9332824
40000000000000000000CC00,1,1477359506795018,1477359506795018,1,0.8125,13312,-31.0,865.7,4.9455543
40000000000000000000CC00,1,1477359506801949,1477359506801949,1,-1.625,13312,-31.0,865.7,4.9762335
40000000000000000000CC00,1,1477359506809123,1477359506809123,1,0.8125,13312,-31.5,865.7,4.9762335
40000000000000000000CC00,1,1477359506816075,1477359506816075,1,1.625,13312,-31.5,865.7,4.9823694
40000000000000000000CC00,1,1477359506822834,1477359506822834,1,0.0,13312,-31.5,865.7,5.006913
40000000000000000000CC00,1,1477359506829737,1477359506829737,1,0.0,13312,-31.5,865.7,5.019185
40000000000000000000CC00,1,1477359506836708,1477359506836708,1,1.625,13312,-31.5,865.7,5.025321
40000000000000000000CC00,1,1477359506843623,1477359506843623,1,1.625,13312,-31.5,865.7,5.025321
40000000000000000000CC00,1,1477359506850846,1477359506850846,1,0.8125,13312,-31.0,865.7,5.037593
40000000000000000000CC00,1,1477359506857603,1477359506857603,1,0.8125,13312,-31.0,865.7,5.037593
40000000000000000000CC00,1,1477359506864761,1477359506864761,1,-0.8125,13312,-31.5,865.7,5.049865
40000000000000000000CC00,1,1477359506871694,1477359506871694,1,1.625,13312,-31.5,865.7,5.037593
40000000000000000000CC00,1,1477359506878650,1477359506878650,1,-1.625,13312,-31.5,865.7,5.049865
40000000000000000000CC00,1,1477359506885647,1477359506885647,1,0.0,13312,-31.5,865.7,5.043729
40000000000000000000CC00,1,1477359506892322,1477359506892322,1,3.25,13312,-31.5,865.7,5.031457
40000000000000000000CC00,1,1477359506899520,1477359506899520,1,1.625,13312,-31.5,865.7,5.037593
40000000000000000000CC00,1,1477359506906457,1477359506906457,1,3.25,13312,-32.0,865.7,5.031457
40000000000000000000CC00,1,1477359506913340,1477359506913340,1,2.4375,13312,-31.5,865.7,5.025321
40000000000000000000CC00,1,1477359506920025,1477359506920025,1,4.875,13312,-32.0,865.7,5.025321
40000000000000000000CC00,1,1477359506927214,1477359506927214,1,2.4375,13312,-32.0,865.7,5.037593
40000000000000000000CC00,1,1477359506934198,1477359506934198,1,2.4375,13312,-31.5,865.7,5.037593
40000000000000000000CC00,1,1477359506941115,1477359506941115,1,1.625,13312,-32.0,865.7,5.037593
40000000000000000000CC00,1,1477359506948156,1477359506948156,1,2.4375,13312,-32.0,865.7,5.037593
40000000000000000000CC00,1,1477359506955042,1477359506955042,1,2.4375,13312,-32.0,865.7,5.031457
40000000000000000000CC00,1,1477359506961979,1477359506961979,1,4.875,13312,-32.5,865.7,5.031457
40000000000000000000CC00,1,1477359506968670,1477359506968670,1,3.25,13312,-32.0,865.7,5.025321
40000000000000000000CC00,1,1477359506975900,1477359506975900,1,3.25,13312,-32.5,865.7,5.025321
40000000000000000000CC00,1,1477359506982649,1477359506982649,1,3.25,13312,-32.5,865.7,5.031457
40000000000000000000CC00,1,1477359506989828,1477359506989828,1,0.8125,13312,-32.5,865.7,5.043729
40000000000000000000CC00,1,1477359506996566,1477359506996566,1,2.4375,13312,-32.5,865.7,5.031457
40000000000000000000CC00,1,1477359507003849,1477359507003849,1,-0.8125,13312,-32.5,865.7,5.0560007
40000000000000000000CC00,1,1477359507010814,1477359507010814,1,2.4375,13312,-32.0,865.7,5.043729
40000000000000000000CC00,1,1477359507017551,1477359507017551,1,2.4375,13312,-32.5,865.7,5.0560007
40000000000000000000CC00,1,1477359507024765,1477359507024765,1,0.8125,13312,-32.5,865.7,5.0621367
40000000000000000000CC00,1,1477359507031734,1477359507031734,1,2.4375,13312,-32.5,865.7,5.0682726
40000000000000000000CC00,1,1477359507038610,1477359507038610,1,3.25,13312,-32.0,865.7,5.0744085
40000000000000000000CC00,1,1477359507045548,1477359507045548,1,4.875,13312,-32.0,865.7,5.0682726
40000000000000000000CC00,1,1477359507052526,1477359507052526,1,3.25,13312,-32.0,865.7,5.0928164
40000000000000000000CC00,1,1477359507059288,1477359507059288,1,4.875,13312,-32.0,865.7,5.0989523
40000000000000000000CC00,1,1477359507066480,1477359507066480,1,3.25,13312,-32.0,865.7,5.111224
40000000000000000000CC00,1,1477359507073482,1477359507073482,1,0.8125,13312,-31.5,865.7,5.1419034
40000000000000000000CC00,1,1477359507080233,1477359507080233,1,6.5,13312,-31.5,865.7,5.123496
40000000000000000000CC00,1,1477359507087215,1477359507087215,1,2.4375,13312,-31.5,865.7,5.1480393
40000000000000000000CC00,1,1477359507094101,1477359507094101,1,5.6875,13312,-31.0,865.7,5.1541753
40000000000000000000CC00,1,1477359507101314,1477359507101314,1,2.4375,13312,-31.5,865.7,5.166447
40000000000000000000CC00,1,1477359507108061,1477359507108061,1,1.625,13312,-31.0,865.7,5.197127
40000000000000000000CC00,1,1477359507115010,1477359507115010,1,2.4375,13312,-31.0,865.7,5.190991
40000000000000000000CC00,1,1477359507121913,1477359507121913,1,4.875,13312,-31.0,865.7,5.197127
40000000000000000000CC00,1,1477359507128858,1477359507128858,1,1.625,13312,-31.0,865.7,5.2216706
40000000000000000000CC00,1,1477359507135812,1477359507135812,1,6.5,13312,-30.5,865.7,5.2093987
40000000000000000000CC00,1,1477359507143103,1477359507143103,1,3.25,13312,-30.5,865.7,5.2339425
40000000000000000000CC00,1,1477359507150047,1477359507150047,1,3.25,13312,-30.5,865.7,5.2523503
40000000000000000000CC00,1,1477359507156748,1477359507156748,1,4.875,13312,-30.5,865.7,5.2523503
40000000000000000000CC00,1,1477359507163914,1477359507163914,1,4.875,13312,-30.5,865.7,5.2584863
40000000000000000000CC00,1,1477359507170879,1477359507170879,1,2.4375,13312,-30.0,865.7,5.28303
40000000000000000000CC00,1,1477359507177556,1477359507177556,1,1.625,13312,-30.0,865.7,5.3137093
40000000000000000000CC00,1,1477359507184532,1477359507184532,1,3.25,13312,-30.0,865.7,5.325981
40000000000000000000CC00,1,1477359507191480,1477359507191480,1,1.625,13312,-30.0,865.7,5.338253
40000000000000000000CC00,1,1477359507198377,1477359507198377,1,3.25,13312,-29.5,865.7,5.350525
40000000000000000000CC00,1,1477359507205310,1477359507205310,1,3.25,13312,-30.0,865.7,5.3750687
40000000000000000000CC00,1,1477359507212263,1477359507212263,1,2.4375,13312,-29.5,865.7,5.4057484
40000000000000000000CC00,1,1477359507219480,1477359507219480,1,3.25,13312,-29.5,865.7,5.430292
40000000000000000000CC00,1,1477359507226282,1477359507226282,1,0.8125,13312,-29.5,865.7,5.4671073
40000000000000000000CC00,1,1477359507233284,1477359507233284,1,-0.8125,13312,-29.5,865.7,5.497787
40000000000000000000CC00,1,1477359507240459,1477359507240459,1,1.625,13312,-29.0,865.7,5.510059
40000000000000000000CC00,1,1477359507247161,1477359507247161,1,3.25,13312,-29.0,865.7,5.510059
40000000000000000000CC00,1,1477359507254332,1477359507254332,1,2.4375,13312,-29.0,865.7,5.5284667
40000000000000000000CC00,1,1477359507261263,1477359507261263,1,1.625,13312,-29.0,865.7,5.5468745
40000000000000000000CC00,1,1477359507268208,1477359507268208,1,3.25,13312,-29.0,865.7,5.5468745
40000000000000000000CC00,1,1477359507274942,1477359507274942,1,3.25,13312,-28.5,865.7,5.5530105
40000000000000000000CC00,1,1477359507281847,1477359507281847,1,2.4375,13312,-28.5,865.7,5.5530105
40000000000000000000CC00,1,1477359507288716,1477359507288716,1,0.0,13312,-28.5,865.7,5.5714183
40000000000000000000CC00,1,1477359507295942,1477359507295942,1,0.8125,13312,-28.5,865.7,5.5714183
40000000000000000000CC00,1,1477359507302895,1477359507302895,1,3.25,13312,-28.5,865.7,5.5591464
40000000000000000000CC00,1,1477359507309883,1477359507309883,1,1.625,13312,-28.5,865.7,5.5714183
40000000000000000000CC00,1,1477359507316806,1477359507316806,1,3.25,13312,-28.5,865.7,5.5652823
40000000000000000000CC00,1,1477359507323765,1477359507323765,1,3.25,13312,-28.5,865.7,5.5652823
40000000000000000000CC00,1,1477359507330420,1477359507330420,1,2.4375,13312,-28.5,865.7,5.5714183
40000000000000000000CC00,1,1477359507337322,1477359507337322,1,5.6875,13312,-28.0,865.7,5.5591464
40000000000000000000CC00,1,1477359507344238,1477359507344238,1,3.25,13312,-28.5,865.7,5.5714183
40000000000000000000CC00,1,1477359507351368,1477359507351368,1,2.4375,13312,-28.0,865.7,5.5714183
40000000000000000000CC00,1,1477359507358323,1477359507358323,1,4.875,13312,-28.0,865.7,5.5714183
40000000000000000000CC00,1,1477359507365030,1477359507365030,1,3.25,13312,-28.5,865.7,5.577554
40000000000000000000CC00,1,1477359507371999,1477359507371999,1,2.4375,13312,-28.5,865.7,5.5714183
40000000000000000000CC00,1,1477359507378912,1477359507378912,1,3.25,13312,-28.0,865.7,5.58369
40000000000000000000CC00,1,1477359507385755,1477359507385755,1,2.4375,13312,-28.0,865.7,5.577554
40000000000000000000CC00,1,1477359507392991,1477359507392991,1,1.625,13312,-28.0,865.7,5.58369
40000000000000000000CC00,1,1477359507399666,1477359507399666,1,2.4375,13312,-28.0,865.7,5.58369
40000000000000000000CC00,1,1477359507406836,1477359507406836,1,3.25,13312,-28.5,865.7,5.5714183
40000000000000000000CC00,1,1477359507413574,1477359507413574,1,3.25,13312,-28.0,865.7,5.5714183
40000000000000000000CC00,1,1477359507420486,1477359507420486,1,5.6875,13312,-28.0,865.7,5.5591464
40000000000000000000CC00,1,1477359507427698,1477359507427698,1,2.4375,13312,-28.0,865.7,5.577554
40000000000000000000CC00,1,1477359507434425,1477359507434425,1,2.4375,13312,-28.0,865.7,5.5714183
40000000000000000000CC00,1,1477359507441377,1477359507441377,1,1.625,13312,-28.0,865.7,5.577554
40000000000000000000CC00,1,1477359507448312,1477359507448312,1,3.25,13312,-28.0,865.7,5.5714183
40000000000000000000CC00,1,1477359507455470,1477359507455470,1,4.875,13312,-28.0,865.7,5.5530105
40000000000000000000CC00,1,1477359507462155,1477359507462155,1,1.625,13312,-28.0,865.7,5.5714183
40000000000000000000CC00,1,1477359507469358,1477359507469358,1,2.4375,13312,-28.0,865.7,5.5652823
40000000000000000000CC00,1,1477359507476045,1477359507476045,1,3.25,13312,-28.0,865.7,5.5591464
40000000000000000000CC00,1,1477359507482973,1477359507482973,1,3.25,13312,-28.0,865.7,5.5652823
40000000000000000000CC00,1,1477359507490179,1477359507490179,1,2.4375,13312,-28.0,865.7,5.5591464
40000000000000000000CC00,1,1477359507496904,1477359507496904,1,2.4375,13312,-28.0,865.7,5.5591464
40000000000000000000CC00,1,1477359507503866,1477359507503866,1,0.8125,13312,-28.0,865.7,5.5652823
40000000000000000000CC00,1,1477359507511053,1477359507511053,1,2.4375,13312,-28.0,865.7,5.5530105
40000000000000000000CC00,1,1477359507518021,1477359507518021,1,2.4375,13312,-27.5,865.7,5.5530105
40000000000000000000CC00,1,1477359507524914,1477359507524914,1,2.4375,13312,-28.0,865.7,5.5468745
40000000000000000000CC00,1,1477359507531869,1477359507531869,1,3.25,13312,-27.5,865.7,5.5407386
40000000000000000000CC00,1,1477359507538514,1477359507538514,1,3.25,13312,-28.0,865.7,5.5346026
40000000000000000000CC00,1,1477359507545453,1477359507545453,1,3.25,13312,-28.0,865.7,5.5284667
40000000000000000000CC00,1,1477359507552353,1477359507552353,1,0.8125,13312,-28.0,865.7,5.5407386
40000000000000000000CC00,1,1477359507559528,1477359507559528,1,2.4375,13312,-28.0,865.7,5.5223308
40000000000000000000CC00,1,1477359507566496,1477359507566496,1,1.625,13312,-27.5,865.7,5.5284667
40000000000000000000CC00,1,1477359507573246,1477359507573246,1,2.4375,13312,-28.0,865.7,5.5223308
40000000000000000000CC00,1,1477359507580364,1477359507580364,1,5.6875,13312,-28.0,865.7,5.497787
40000000000000000000CC00,1,1477359507587018,1477359507587018,1,1.625,13312,-28.0,865.7,5.516195
40000000000000000000CC00,1,1477359507594217,1477359507594217,1,1.625,13312,-27.5,865.7,5.510059
40000000000000000000CC00,1,1477359507600913,1477359507600913,1,0.8125,13312,-28.0,865.7,5.516195
40000000000000000000CC00,1,1477359507608140,1477359507608140,1,3.25,13312,-27.5,865.7,5.491651
40000000000000000000CC00,1,1477359507614816,1477359507614816,1,1.625,13312,-28.0,865.7,5.497787
40000000000000000000CC00,1,1477359507621999,1477359507621999,1,0.8125,13312,-27.5,865.7,5.491651
40000000000000000000CC00,1,1477359507628917,1477359507628917,1,3.25,13312,-28.0,865.7,5.479379
40000000000000000000CC00,1,1477359507635647,1477359507635647,1,3.25,13312,-28.0,865.7,5.4671073
40000000000000000000CC00,1,1477359507642922,1477359507642922,1,4.875,13312,-27.5,865.7,5.460972
40000000000000000000CC00,1,1477359507649868,1477359507649868,1,0.8125,13312,-28.0,865.7,5.4671073
40000000000000000000CC00,1,1477359507656559,1477359507656559,1,6.5,13312,-27.5,865.7,5.436428
40000000000000000000CC00,1,1477359507663529,1477359507663529,1,2.4375,13312,-27.5,865.7,5.436428
40000000000000000000CC00,1,1477359507670502,1477359507670502,1,5.6875,13312,-27.5,865.7,5.4118843
40000000000000000000CC00,1,1477359507677708,1477359507677708,1,3.25,13312,-27.0,865.7,5.4057484
40000000000000000000CC00,1,1477359507684426,1477359507684426,1,1.625,13312,-27.0,865.7,5.3934765
40000000000000000000CC00,1,1477359507691384,1477359507691384,1,3.25,13312,-27.0,865.7,5.3689327
40000000000000000000CC00,1,1477359507698330,1477359507698330,1,3.25,13312,-27.0,865.7,5.356661
40000000000000000000CC00,1,1477359507705303,1477359507705303,1,5.6875,13312,-27.0,865.7,5.332117
40000000000000000000CC00,1,1477359507712218,1477359507712218,1,3.25,13312,-27.0,865.7,5.325981
40000000000000000000CC00,1,1477359507719359,1477359507719359,1,5.6875,13312,-26.5,865.7,5.3014374
40000000000000000000CC00,1,1477359507726332,1477359507726332,1,6.5,13312,-26.5,865.7,5.289166
40000000000000000000CC00,1,1477359507733019,1477359507733019,1,5.6875,13312,-26.5,865.7,5.276894
40000000000000000000CC00,1,1477359507739947,1477359507739947,1,3.25,13312,-26.5,865.7,5.270758
40000000000000000000CC00,1,1477359507746924,1477359507746924,1,2.4375,13312,-26.0,865.7,5.2584863
40000000000000000000CC00,1,1477359507753873,1477359507753873,1,3.25,13312,-26.0,865.7,5.2462144
40000000000000000000CC00,1,1477359507760813,1477359507760813,1,4.875,13312,-26.0,865.7,5.2278066
40000000000000000000CC00,1,1477359507767787,1477359507767787,1,5.6875,13312,-26.0,865.7,5.2216706
40000000000000000000CC00,1,1477359507774939,1477359507774939,1,2.4375,13312,-26.0,865.7,5.2155347
40000000000000000000CC00,1,1477359507781922,1477359507781922,1,5.6875,13312,-26.0,865.7,5.190991
40000000000000000000CC00,1,1477359507788849,1477359507788849,1,5.6875,13312,-25.5,865.7,5.172583
40000000000000000000CC00,1,1477359507795697,1477359507795697,1,1.625,13312,-25.5,865.7,5.184855
40000000000000000000CC00,1,1477359507802397,1477359507802397,1,2.4375,13312,-25.5,865.7,5.1541753
40000000000000000000CC00,1,1477359507809340,1477359507809340,1,5.6875,13312,-25.5,865.7,5.1419034
40000000000000000000CC00,1,1477359507816522,1477359507816522,1,2.4375,13312,-25.5,865.7,5.1296315
40000000000000000000CC00,1,1477359507823469,1477359507823469,1,2.4375,13312,-25.5,865.7,5.11736
40000000000000000000CC00,1,1477359507830129,1477359507830129,1,4.875,13312,-25.0,865.7,5.0928164
40000000000000000000CC00,1,1477359507837083,1477359507837083,1,-0.8125,13312,-25.0,865.7,5.0989523
40000000000000000000CC00,1,1477359507844367,1477359507844367,1,2.4375,13312,-25.0,865.7,5.0560007
40000000000000000000CC00,1,1477359507851318,1477359507851318,1,3.25,13312,-25.0,865.7,5.019185
40000000000000000000CC00,1,1477359507858049,1477359507858049,1,0.8125,13312,-24.5,865.7,4.9946413
40000000000000000000CC00,1,1477359507864966,1477359507864966,1,-0.8125,13312,-24.5,865.7,4.9700975
40000000000000000000CC00,1,1477359507871927,1477359507871927,1,-3.25,13312,-25.0,865.7,4.9332824
40000000000000000000CC00,1,1477359507879120,1477359507879120,1,0.0,13312,-24.5,865.7,4.8351073
40000000000000000000CC00,1,1477359507885855,1477359507885855,1,1.625,13312,-25.0,865.7,4.7676125
40000000000000000000CC00,1,1477359507893035,1477359507893035,1,-0.8125,13312,-25.0,865.7,4.718525
40000000000000000000CC00,1,1477359507899994,1477359507899994,1,-4.875,13312,-25.0,865.7,4.687845
40000000000000000000CC00,1,1477359507906920,1477359507906920,1,0.0,13312,-24.5,865.7,4.5958066
40000000000000000000CC00,1,1477359507913835,1477359507913835,1,0.8125,13312,-24.5,865.7,4.540583
40000000000000000000CC00,1,1477359507920749,1477359507920749,1,1.625,13312,-24.5,865.7,4.4792237
40000000000000000000CC00,1,1477359507927420,1477359507927420,1,4.875,13312,-24.5,865.7,4.411729
40000000000000000000CC00,1,1477359507934622,1477359507934622,1,-1.625,13312,-24.0,865.7,4.405593
40000000000000000000CC00,1,1477359507941321,1477359507941321,1,0.8125,13312,-24.0,865.7,4.3319616
40000000000000000000CC00,1,1477359507948271,1477359507948271,1,-2.4375,13312,-24.0,865.7,4.307418
40000000000000000000CC00,1,1477359507955571,1477359507955571,1,-1.625,13312,-24.0,865.7,4.233787
40000000000000000000CC00,1,1477359507962321,1477359507962321,1,11.375,13312,-24.0,865.7,4.098797
40000000000000000000CC00,1,1477359507969437,1477359507969437,1,-0.8125,13312,-24.5,865.7,4.12334
40000000000000000000CC00,1,1477359507976167,1477359507976167,1,-0.8125,13312,-24.5,865.7,4.086525
40000000000000000000CC00,1,1477359507983094,1477359507983094,1,0.0,13312,-24.5,865.7,4.0313015
40000000000000000000CC00,1,1477359507990262,1477359507990262,1,6.5,13312,-24.5,865.7,3.9453986
40000000000000000000CC00,1,1477359507997191,1477359507997191,1,-3.25,13312,-25.0,865.7,3.9638064
40000000000000000000CC00,1,1477359508004161,1477359508004161,1,-3.25,13312,-25.5,865.7,3.9269907
40000000000000000000CC00,1,1477359508010830,1477359508010830,1,-3.25,13312,-25.0,865.7,3.8963113
40000000000000000000CC00,1,1477359508018027,1477359508018027,1,-2.4375,13312,-25.0,865.7,3.8472238
40000000000000000000CC00,1,1477359508024790,1477359508024790,1,-4.875,13312,-25.0,865.7,3.828816
40000000000000000000CC00,1,1477359508032009,1477359508032009,1,0.0,13312,-25.0,865.7,3.7674568
40000000000000000000CC00,1,1477359508038947,1477359508038947,1,-0.8125,13312,-25.0,865.7,3.749049
40000000000000000000CC00,1,1477359508045894,1477359508045894,1,0.0,13312,-25.0,865.7,3.7122335
40000000000000000000CC00,1,1477359508052706,1477359508052706,1,0.8125,13312,-25.0,865.7,3.6815538
40000000000000000000CC00,1,1477359508059990,1477359508059990,1,0.8125,13312,-25.5,865.7,3.6570103
40000000000000000000CC00,1,1477359508066968,1477359508066968,1,-0.8125,13312,-25.0,865.7,3.6386025
40000000000000000000CC00,1,1477359508073912,1477359508073912,1,0.8125,13312,-25.0,865.7,3.6201947
40000000000000000000CC00,1,1477359508080616,1477359508080616,1,-0.8125,13312,-25.5,865.7,3.6140587
40000000000000000000CC00,1,1477359508087518,1477359508087518,1,1.625,13312,-25.5,865.7,3.583379
40000000000000000000CC00,1,1477359508094485,1477359508094485,1,0.0,13312,-25.5,865.7,3.5711074
40000000000000000000CC00,1,1477359508101425,1477359508101425,1,0.0,13312,-25.5,865.7,3.5526996
40000000000000000000CC00,1,1477359508108374,1477359508108374,1,-0.8125,13312,-25.5,865.7,3.5404277
40000000000000000000CC00,1,1477359508115527,1477359508115527,1,0.0,13312,-25.5,865.7,3.5220199
40000000000000000000CC00,1,1477359508122245,1477359508122245,1,0.0,13312,-25.5,865.7,3.509748
40000000000000000000CC00,1,1477359508129209,1477359508129209,1,0.0,13312,-25.5,865.7,3.497476
40000000000000000000CC00,1,1477359508136113,1477359508136113,1,0.8125,13312,-25.5,865.7,3.4852045
40000000000000000000CC00,1,1477359508257149,1477359508257149,1,1.625,13312,-26.0,865.7,3.3379421
40000000000000000000CC00,1,1477359508264341,1477359508264341,1,1.625,13312,-26.0,865.7,3.3256702
40000000000000000000CC00,1,1477359508271100,1477359508271100,1,0.8125,13312,-26.0,865.7,3.3318062
40000000000000000000CC00,1,1477359508278309,1477359508278309,1,2.4375,13312,-26.5,865.7,3.3133986
40000000000000000000CC00,1,1477359508285211,1477359508285211,1,3.25,13312,-26.5,865.7,3.3133986
40000000000000000000CC00,1,1477359508291922,1477359508291922,1,0.8125,13312,-26.5,865.7,3.3256702
40000000000000000000CC00,1,1477359508298987,1477359508298987,1,2.4375,13312,-26.5,865.7,3.3195345
40000000000000000000CC00,1,1477359508306185,1477359508306185,1,1.625,13312,-26.5,865.7,3.3195345
40000000000000000000CC00,1,1477359508313011,1477359508313011,1,0.8125,13312,-26.5,865.7,3.3133986
40000000000000000000CC00,1,1477359508320027,1477359508320027,1,1.625,13312,-26.5,865.7,3.3072627
40000000000000000000CC00,1,1477359508327352,1477359508327352,1,1.625,13312,-26.5,865.7,3.3072627
40000000000000000000CC00,1,1477359508334119,1477359508334119,1,1.625,13312,-26.5,865.7,3.3011267
40000000000000000000CC00,1,1477359508341397,1477359508341397,1,1.625,13312,-27.0,865.7,3.3011267
40000000000000000000CC00,1,1477359508348437,1477359508348437,1,2.4375,13312,-26.5,865.7,3.2888548
40000000000000000000CC00,1,1477359508355429,1477359508355429,1,1.625,13312,-26.5,865.7,3.2949908
40000000000000000000CC00,1,1477359508362458,1477359508362458,1,3.25,13312,-27.0,865.7,3.2949908
40000000000000000000CC00,1,1477359508369510,1477359508369510,1,2.4375,13312,-26.5,865.7,3.2888548
40000000000000000000CC00,1,1477359508376511,1477359508376511,1,0.8125,13312,-26.5,865.7,3.2949908
40000000000000000000CC00,1,1477359508383280,1477359508383280,1,2.4375,13312,-26.5,865.7,3.2888548
40000000000000000000CC00,1,1477359508390305,1477359508390305,1,3.25,13312,-27.0,865.7,3.282719
40000000000000000000CC00,1,1477359508397610,1477359508397610,1,0.0,13312,-26.5,865.7,3.3011267
40000000000000000000CC00,1,1477359508404379,1477359508404379,1,2.4375,13312,-26.5,865.7,3.282719
40000000000000000000CC00,1,1477359508411418,1477359508411418,1,1.625,13312,-26.5,865.7,3.282719
40000000000000000000CC00,1,1477359508418458,1477359508418458,1,-0.8125,13312,-26.5,865.7,3.3011267
40000000000000000000CC00,1,1477359508425738,1477359508425738,1,1.625,13312,-26.5,865.7,3.276583
40000000000000000000CC00,1,1477359508432932,1477359508432932,1,2.4375,13312,-27.0,865.7,3.282719
40000000000000000000CC00,1,1477359508439738,1477359508439738,1,1.625,13312,-26.5,865.7,3.282719
40000000000000000000CC00,1,1477359508447082,1477359508447082,1,1.625,13312,-26.5,865.7,3.282719
40000000000000000000CC00,1,1477359508453869,1477359508453869,1,2.4375,13312,-26.5,865.7,3.270447
40000000000000000000CC00,1,1477359508460882,1477359508460882,1,0.8125,13312,-26.5,865.7,3.2888548
40000000000000000000CC00,1,1477359508467969,1477359508467969,1,1.625,13312,-26.5,865.7,3.282719
40000000000000000000CC00,1,1477359508474959,1477359508474959,1,0.0,13312,-26.5,865.7,3.2888548
40000000000000000000CC00,1,1477359508481953,1477359508481953,1,1.625,13312,-26.5,865.7,3.276583
40000000000000000000CC00,1,1477359508489049,1477359508489049,1,1.625,13312,-26.5,865.7,3.270447
40000000000000000000CC00,1,1477359508496152,1477359508496152,1,0.8125,13312,-26.5,865.7,3.2888548
40000000000000000000CC00,1,1477359508503457,1477359508503457,1,0.8125,13312,-26.5,865.7,3.276583
40000000000000000000CC00,1,1477359508510430,1477359508510430,1,1.625,13312,-26.5,865.7,3.270447
40000000000000000000CC00,1,1477359508517192,1477359508517192,1,1.625,13312,-26.5,865.7,3.276583
40000000000000000000CC00,1,1477359508524425,1477359508524425,1,0.8125,13312,-26.5,865.7,3.282719
40000000000000000000CC00,1,1477359508531367,1477359508531367,1,1.625,13312,-26.5,865.7,3.276583
40000000000000000000CC00,1,1477359508538333,1477359508538333,1,3.25,13312,-26.5,865.7,3.264311
40000000000000000000CC00,1,1477359508545255,1477359508545255,1,0.8125,13312,-26.5,865.7,3.276583
40000000000000000000CC00,1,1477359508552303,1477359508552303,1,1.625,13312,-27.0,865.7,3.276583
40000000000000000000CC00,1,1477359508558981,1477359508558981,1,2.4375,13312,-26.5,865.7,3.264311
40000000000000000000CC00,1,1477359508566191,1477359508566191,1,1.625,13312,-26.5,865.7,3.270447
40000000000000000000CC00,1,1477359508572851,1477359508572851,1,1.625,13312,-27.0,865.7,3.276583
40000000000000000000CC00,1,1477359508579814,1477359508579814,1,1.625,13312,-26.5,865.7,3.270447
40000000000000000000CC00,1,1477359508587010,1477359508587010,1,0.8125,13312,-26.5,865.7,3.276583
40000000000000000000CC00,1,1477359508593700,1477359508593700,1,1.625,13312,-27.0,865.7,3.270447
40000000000000000000CC00,1,1477359508600920,1477359508600920,1,2.4375,13312,-26.5,865.7,3.270447
40000000000000000000CC00,1,1477359508607899,1477359508607899,1,1.625,13312,-26.5,865.7,3.270447
40000000000000000000CC00,1,1477359508614563,1477359508614563,1,1.625,13312,-26.5,865.7,3.270447
40000000000000000000CC00,1,1477359508621746,1477359508621746,1,0.8125,13312,-26.5,865.7,3.276583
40000000000000000000CC00,1,1477359508628479,1477359508628479,1,1.625,13312,-26.5,865.7,3.264311
40000000000000000000CC00,1,1477359508635590,1477359508635590,1,0.8125,13312,-26.5,865.7,3.270447
40000000000000000000CC00,1,1477359508642521,1477359508642521,1,0.8125,13312,-26.5,865.7,3.264311
40000000000000000000CC00,1,1477359508649293,1477359508649293,1,2.4375,13312,-26.5,865.7,3.2581751
40000000000000000000CC00,1,1477359508656433,1477359508656433,1,3.25,13312,-26.5,865.7,3.2520392
40000000000000000000CC00,1,1477359508663438,1477359508663438,1,1.625,13312,-26.5,865.7,3.264311
40000000000000000000CC00,1,1477359508670122,1477359508670122,1,0.8125,13312,-26.5,865.7,3.270447
40000000000000000000CC00,1,1477359508677052,1477359508677052,1,1.625,13312,-26.5,865.7,3.2581751
40000000000000000000CC00,1,1477359508684338,1477359508684338,1,1.625,13312,-26.5,865.7,3.2581751
40000000000000000000CC00,1,1477359508691090,1477359508691090,1,2.4375,13312,-27.0,865.7,3.2581751
40000000000000000000CC00,1,1477359508698030,1477359508698030,1,2.4375,13312,-26.5,865.7,3.2581751
40000000000000000000CC00,1,1477359508705256,1477359508705256,1,3.25,13312,-27.0,865.7,3.2520392
40000000000000000000CC00,1,1477359508712196,1477359508712196,1,0.8125,13312,-26.5,865.7,3.264311
40000000000000000000CC00,1,1477359508719137,1477359508719137,1,1.625,13312,-27.0,865.7,3.2520392
40000000000000000000CC00,1,1477359508725890,1477359508725890,1,0.8125,13312,-27.0,865.7,3.264311
40000000000000000000CC00,1,1477359508732875,1477359508732875,1,2.4375,13312,-27.0,865.7,3.2520392
40000000000000000000CC00,1,1477359508740113,1477359508740113,1,2.4375,13312,-27.0,865.7,3.2520392
40000000000000000000CC00,1,1477359508746843,1477359508746843,1,2.4375,13312,-27.0,865.7,3.2520392
40000000000000000000CC00,1,1477359508753836,1477359508753836,1,-0.8125,13312,-27.0,865.7,3.264311
40000000000000000000CC00,1,1477359508760766,1477359508760766,1,0.8125,13312,-27.0,865.7,3.264311
40000000000000000000CC00,1,1477359508767788,1477359508767788,1,3.25,13312,-26.5,865.7,3.2397673
40000000000000000000CC00,1,1477359508774778,1477359508774778,1,1.625,13312,-26.5,865.7,3.2520392
40000000000000000000CC00,1,1477359508782060,1477359508782060,1,3.25,13312,-27.0,865.7,3.2459033
40000000000000000000CC00,1,1477359508788773,1477359508788773,1,1.625,13312,-27.0,865.7,3.2581751
40000000000000000000CC00,1,1477359508795736,1477359508795736,1,1.625,13312,-27.0,865.7,3.2520392
40000000000000000000CC00,1,1477359508802705,1477359508802705,1,0.0,13312,-27.0,865.7,3.264311
40000000000000000000CC00,1,1477359508809908,1477359508809908,1,0.8125,13312,-27.0,865.7,3.2520392
40000000000000000000CC00,1,1477359508816695,1477359508816695,1,2.4375,13312,-27.0,865.7,3.2459033
40000000000000000000CC00,1,1477359508823957,1477359508823957,1,2.4375,13312,-27.0,865.7,3.2397673
40000000000000000000CC00,1,1477359508830937,1477359508830937,1,2.4375,13312,-27.0,865.7,3.2459033
40000000000000000000CC00,1,1477359508837665,1477359508837665,1,2.4375,13312,-27.0,865.7,3.2397673
40000000000000000000CC00,1,1477359508844608,1477359508844608,1,3.25,13312,-27.0,865.7,3.2336316
40000000000000000000CC00,1,1477359508851531,1477359508851531,1,0.8125,13312,-27.0,865.7,3.2459033
40000000000000000000CC00,1,1477359508858738,1477359508858738,1,0.8125,13312,-27.0,865.7,3.2520392
40000000000000000000CC00,1,1477359508865697,1477359508865697,1,0.0,13312,-27.0,865.7,3.2581751
40000000000000000000CC00,1,1477359508872370,1477359508872370,1,1.625,13312,-27.0,865.7,3.2459033
40000000000000000000CC00,1,1477359508879325,1477359508879325,1,0.8125,13312,-27.0,865.7,3.2459033
40000000000000000000CC00,1,1477359508886536,1477359508886536,1,1.625,13312,-27.0,865.7,3.2397673
40000000000000000000CC00,1,1477359508893595,1477359508893595,1,0.0,13312,-27.0,865.7,3.2520392
40000000000000000000CC00,1,1477359508900593,1477359508900593,1,0.8125,13312,-27.0,865.7,3.2459033
40000000000000000000CC00,1,1477359508907523,1477359508907523,1,0.0,13312,-27.0,865.7,3.2459033
40000000000000000000CC00,1,1477359508914214,1477359508914214,1,2.4375,13312,-27.0,865.7,3.2336316
40000000000000000000CC00,1,1477359508921115,1477359508921115,1,2.4375,13312,-27.0,865.7,3.2274957
40000000000000000000CC00,1,1477359508928072,1477359508928072,1,1.625,13312,-27.0,865.7,3.2336316
40000000000000000000CC00,1,1477359508935220,1477359508935220,1,1.625,13312,-27.0,865.7,3.2459033
40000000000000000000CC00,1,1477359508941926,1477359508941926,1,0.0,13312,-27.0,865.7,3.2520392
40000000000000000000CC00,1,1477359508948883,1477359508948883,1,1.625,13312,-27.0,865.7,3.2397673
40000000000000000000CC00,1,1477359508956079,1477359508956079,1,1.625,13312,-27.0,865.7,3.2336316
40000000000000000000CC00,1,1477359508962811,1477359508962811,1,3.25,13312,-27.0,865.7,3.2274957
40000000000000000000CC00,1,1477359508970090,1477359508970090,1,0.8125,13312,-27.0,865.7,3.2397673
40000000000000000000CC00,1,1477359508976802,1477359508976802,1,0.8125,13312,-27.0,865.7,3.2459033
40000000000000000000CC00,1,1477359508983728,1477359508983728,1,3.25,13312,-27.0,865.7,3.2336316
40000000000000000000CC00,1,1477359508990921,1477359508990921,1,-1.625,13312,-27.0,865.7,3.2397673
40000000000000000000CC00,1,1477359508997905,1477359508997905,1,3.25,13312,-27.0,865.7,3.2274957
40000000000000000000CC00,1,1477359509004606,1477359509004606,1,1.625,13312,-27.0,865.7,3.2397673
40000000000000000000CC00,1,1477359509011820,1477359509011820,1,2.4375,13312,-27.0,865.7,3.2274957
40000000000000000000CC00,1,1477359509018479,1477359509018479,1,1.625,13312,-27.0,865.7,3.2397673
40000000000000000000CC00,1,1477359509025705,1477359509025705,1,2.4375,13312,-27.0,865.7,3.2274957
40000000000000000000CC00,1,1477359509032538,1477359509032538,1,0.0,13312,-27.0,865.7,3.2459033
40000000000000000000CC00,1,1477359509039538,1477359509039538,1,0.0,13312,-27.0,865.7,3.2397673
40000000000000000000CC00,1,1477359509046493,1477359509046493,1,1.625,13312,-27.0,865.7,3.2336316
40000000000000000000CC00,1,1477359509053663,1477359509053663,1,3.25,13312,-27.0,865.7,3.2213597
40000000000000000000CC00,1,1477359509060581,1477359509060581,1,2.4375,13312,-27.0,865.7,3.2274957
40000000000000000000CC00,1,1477359509067520,1477359509067520,1,0.8125,13312,-27.0,865.7,3.2336316
40000000000000000000CC00,1,1477359509074209,1477359509074209,1,2.4375,13312,-27.0,865.7,3.2213597
40000000000000000000CC00,1,1477359509081395,1477359509081395,1,1.625,13312,-27.0,865.7,3.2336316
40000000000000000000CC00,1,1477359509088107,1477359509088107,1,1.625,13312,-27.0,865.7,3.2274957
40000000000000000000CC00,1,1477359509095018,1477359509095018,1,0.8125,13312,-27.0,865.7,3.2397673
40000000000000000000CC00,1,1477359509101995,1477359509101995,1,-0.8125,13312,-27.0,865.7,3.2397673
40000000000000000000CC00,1,1477359509109081,1477359509109081,1,0.0,13312,-27.0,865.7,3.2397673
40000000000000000000CC00,1,1477359509116051,1477359509116051,1,0.8125,13312,-27.5,865.7,3.2274957
40000000000000000000CC00,1,1477359509123318,1477359509123318,1,0.8125,13312,-27.0,865.7,3.2336316
40000000000000000000CC00,1,1477359509129968,1477359509129968,1,0.8125,13312,-27.0,865.7,3.2213597
40000000000000000000CC00,1,1477359509137151,1477359509137151,1,1.625,13312,-27.5,865.7,3.2274957
40000000000000000000CC00,1,1477359509145340,1477359509145340,1,0.8125,13312,-27.0,865.7,3.2336316
40000000000000000000CC00,1,1477359509152280,1477359509152280,1,2.4375,13312,-27.0,865.7,3.2152238
40000000000000000000CC00,1,1477359509159237,1477359509159237,1,2.4375,13312,-27.0,865.7,3.2152238
40000000000000000000CC00,1,1477359509166566,1477359509166566,1,0.0,13312,-27.0,865.7,3.2274957
40000000000000000000CC00,1,1477359509173242,1477359509173242,1,1.625,13312,-27.5,865.7,3.2152238
40000000000000000000CC00,1,1477359509180266,1477359509180266,1,1.625,13312,-27.0,865.7,3.2090878
40000000000000000000CC00,1,1477359509187469,1477359509187469,1,2.4375,13312,-27.0,865.7,3.2090878
40000000000000000000CC00,1,1477359509194446,1477359509194446,1,-0.8125,13312,-27.0,865.7,3.2274957
40000000000000000000CC00,1,1477359509201351,1477359509201351,1,1.625,13312,-27.0,865.7,3.202952
40000000000000000000CC00,1,1477359509208277,1477359509208277,1,1.625,13312,-27.0,865.7,3.2090878
40000000000000000000CC00,1,1477359509215234,1477359509215234,1,3.25,13312,-27.0,865.7,3.196816
40000000000000000000CC00,1,1477359509221921,1477359509221921,1,0.0,13312,-27.0,865.7,3.2152238
40000000000000000000CC00,1,1477359509229172,1477359509229172,1,-0.8125,13312,-27.0,865.7,3.2152238
40000000000000000000CC00,1,1477359509236261,1477359509236261,1,2.4375,13312,-27.0,865.7,3.196816
40000000000000000000CC00,1,1477359509243217,1477359509243217,1,0.8125,13312,-27.5,865.7,3.202952
40000000000000000000CC00,1,1477359509250228,1477359509250228,1,0.0,13312,-27.0,865.7,3.202952
40000000000000000000CC00,1,1477359509257154,1477359509257154,1,0.0,13312,-27.0,865.7,3.202952
40000000000000000000CC00,1,1477359509263841,1477359509263841,1,0.8125,13312,-27.5,865.7,3.19068
40000000000000000000CC00,1,1477359509270999,1477359509270999,1,2.4375,13312,-27.0,865.7,3.184544
40000000000000000000CC00,1,1477359509277737,1477359509277737,1,0.0,13312,-27.0,865.7,3.196816
40000000000000000000CC00,1,1477359509284663,1477359509284663,1,0.8125,13312,-27.0,865.7,3.19068
40000000000000000000CC00,1,1477359509291597,1477359509291597,1,-1.625,13312,-27.0,865.7,3.2090878
40000000000000000000CC00,1,1477359509298782,1477359509298782,1,-1.625,13312,-27.0,865.7,3.2090878
40000000000000000000CC00,1,1477359509305525,1477359509305525,1,1.625,13312,-27.0,865.7,3.184544
40000000000000000000CC00,1,1477359509312611,1477359509312611,1,2.4375,13312,-27.0,865.7,3.1784081
40000000000000000000CC00,1,1477359509319855,1477359509319855,1,0.8125,13312,-27.5,865.7,3.184544
40000000000000000000CC00,1,1477359509326812,1477359509326812,1,1.625,13312,-27.0,865.7,3.1784081
40000000000000000000CC00,1,1477359509333790,1477359509333790,1,0.8125,13312,-27.0,865.7,3.184544
40000000000000000000CC00,1,1477359509340432,1477359509340432,1,0.0,13312,-27.0,865.7,3.19068
40000000000000000000CC00,1,1477359509347601,1477359509347601,1,-0.8125,13312,-27.0,865.7,3.196816
40000000000000000000CC00,1,1477359509354387,1477359509354387,1,0.0,13312,-27.0,865.7,3.19068
40000000000000000000CC00,1,1477359509361365,1477359509361365,1,-0.8125,13312,-27.5,865.7,3.19068
40000000000000000000CC00,1,1477359509368607,1477359509368607,1,0.8125,13312,-27.0,865.7,3.1784081
40000000000000000000CC00,1,1477359509375346,1477359509375346,1,0.8125,13312,-27.5,865.7,3.1722722
40000000000000000000CC00,1,1477359509382306,1477359509382306,1,0.0,13312,-27.0,865.7,3.1784081
40000000000000000000CC00,1,1477359509389672,1477359509389672,1,-0.8125,13312,-27.5,865.7,3.19068
40000000000000000000CC00,1,1477359509396615,1477359509396615,1,0.8125,13312,-27.5,865.7,3.1722722
40000000000000000000CC00,1,1477359509403650,1477359509403650,1,0.8125,13312,-27.5,865.7,3.1784081
40000000000000000000CC00,1,1477359509410564,1477359509410564,1,0.8125,13312,-27.0,865.7,3.1722722
40000000000000000000CC00,1,1477359509417237,1477359509417237,1,1.625,13312,-27.5,865.7,3.1661363
40000000000000000000CC00,1,1477359509424255,1477359509424255,1,-1.625,13312,-27.5,865.7,3.184544
40000000000000000000CC00,1,1477359509431465,1477359509431465,1,2.4375,13312,-27.5,865.7,3.1600003
40000000000000000000CC00,1,1477359509438369,1477359509438369,1,-0.8125,13312,-27.5,865.7,3.1784081
40000000000000000000CC00,1,1477359509445323,1477359509445323,1,-1.625,13312,-27.0,865.7,3.184544
40000000000000000000CC00,1,1477359509452307,1477359509452307,1,0.8125,13312,-27.0,865.7,3.1661363
40000000000000000000CC00,1,1477359509459291,1477359509459291,1,-0.8125,13312,-27.5,865.7,3.1784081
40000000000000000000CC00,1,1477359509465997,1477359509465997,1,-0.8125,13312,-27.5,865.7,3.1784081
40000000000000000000CC00,1,1477359509473221,1477359509473221,1,0.8125,13312,-27.5,865.7,3.1661363
40000000000000000000CC00,1,1477359509479937,1477359509479937,1,1.625,13312,-27.5,865.7,3.1600003
40000000000000000000CC00,1,1477359509486859,1477359509486859,1,-1.625,13312,-27.5,865.7,3.1784081
40000000000000000000CC00,1,1477359509493791,1477359509493791,1,2.4375,13312,-27.5,865.7,3.1477287
40000000000000000000CC00,1,1477359509500807,1477359509500807,1,0.8125,13312,-27.5,865.7,3.1538644
40000000000000000000CC00,1,1477359509507988,1477359509507988,1,1.625,13312,-27.5,865.7,3.1538644
40000000000000000000CC00,1,1477359509514672,1477359509514672,1,1.625,13312,-27.5,865.7,3.1538644
40000000000000000000CC00,1,1477359509521661,1477359509521661,1,0.0,13312,-27.5,865.7,3.1600003
40000000000000000000CC00,1,1477359509528694,1477359509528694,1,-0.8125,13312,-27.5,865.7,3.1661363
40000000000000000000CC00,1,1477359509535864,1477359509535864,1,0.8125,13312,-27.5,865.7,3.1600003
40000000000000000000CC00,1,1477359509542712,1477359509542712,1,-0.8125,13312,-27.5,865.7,3.1600003
40000000000000000000CC00,1,1477359509549849,1477359509549849,1,0.8125,13312,-27.5,865.7,3.1538644
40000000000000000000CC00,1,1477359509556510,1477359509556510,1,-1.625,13312,-27.5,865.7,3.1661363
40000000000000000000CC00,1,1477359509563724,1477359509563724,1,0.8125,13312,-27.5,865.7,3.1477287
40000000000000000000CC00,1,1477359509570685,1477359509570685,1,-1.625,13312,-27.5,865.7,3.1600003
40000000000000000000CC00,1,1477359509577311,1477359509577311,1,0.0,13312,-27.5,865.7,3.1477287
40000000000000000000CC00,1,1477359509584540,1477359509584540,1,2.4375,13312,-27.5,865.7,3.1354568
40000000000000000000CC00,1,1477359509591283,1477359509591283,1,0.8125,13312,-27.5,865.7,3.1477287
40000000000000000000CC00,1,1477359509598327,1477359509598327,1,-1.625,13312,-27.5,865.7,3.1600003
40000000000000000000CC00,1,1477359509605308,1477359509605308,1,0.8125,13312,-27.5,865.7,3.1415927
40000000000000000000CC00,1,1477359509612255,1477359509612255,1,-0.8125,13312,-27.5,865.7,3.1538644
40000000000000000000CC00,1,1477359509619470,1477359509619470,1,0.8125,13312,-27.5,865.7,3.1477287
40000000000000000000CC00,1,1477359509626446,1477359509626446,1,0.8125,13312,-27.5,865.7,3.1415927
40000000000000000000CC00,1,1477359509633388,1477359509633388,1,-0.8125,13312,-27.5,865.7,3.1477287
40000000000000000000CC00,1,1477359509640340,1477359509640340,1,0.0,13312,-27.5,865.7,3.1477287
40000000000000000000CC00,1,1477359509647271,1477359509647271,1,-0.8125,13312,-27.5,865.7,3.1600003
40000000000000000000CC00,1,1477359509653960,1477359509653960,1,2.4375,13312,-27.5,865.7,3.1354568
40000000000000000000CC00,1,1477359509660860,1477359509660860,1,-0.8125,13312,-27.5,865.7,3.1538644
40000000000000000000CC00,1,1477359509668087,1477359509668087,1,1.625,13312,-27.5,865.7,3.1354568
40000000000000000000CC00,1,1477359509674799,1477359509674799,1,-2.4375,13312,-27.5,865.7,3.1600003
40000000000000000000CC00,1,1477359509682015,1477359509682015,1,0.0,13312,-27.5,865.7,3.1477287
40000000000000000000CC00,1,1477359509689036,1477359509689036,1,-0.8125,13312,-27.5,865.7,3.1477287
40000000000000000000CC00,1,1477359509695965,1477359509695965,1,1.625,13312,-28.0,865.7,3.1415927
40000000000000000000CC00,1,1477359509703065,1477359509703065,1,0.0,13312,-28.0,865.7,3.1477287
40000000000000000000CC00,1,1477359509710030,1477359509710030,1,1.625,13312,-27.5,865.7,3.1354568
40000000000000000000CC00,1,1477359509716722,1477359509716722,1,1.625,13312,-27.5,865.7,3.1354568
40000000000000000000CC00,1,1477359509723894,1477359509723894,1,2.4375,13312,-27.5,865.7,3.1293209
40000000000000000000CC00,1,1477359509730795,1477359509730795,1,2.4375,13312,-27.5,865.7,3.1293209
40000000000000000000CC00,1,1477359509737611,1477359509737611,1,-0.8125,13312,-27.5,865.7,3.1538644
40000000000000000000CC00,1,1477359509744788,1477359509744788,1,-0.8125,13312,-27.5,865.7,3.1600003
40000000000000000000CC00,1,1477359509751756,1477359509751756,1,0.8125,13312,-27.5,865.7,3.1415927
40000000000000000000CC00,1,1477359509758446,1477359509758446,1,0.0,13312,-27.5,865.7,3.1538644
40000000000000000000CC00,1,1477359509765430,1477359509765430,1,-0.8125,13312,-27.5,865.7,3.1538644
40000000000000000000CC00,1,1477359509772402,1477359509772402,1,-0.8125,13312,-27.5,865.7,3.1477287
40000000000000000000CC00,1,1477359509779379,1477359509779379,1,0.0,13312,-27.5,865.7,3.1538644
40000000000000000000CC00,1,1477359509786626,1477359509786626,1,1.625,13312,-27.5,865.7,3.1354568
40000000000000000000CC00,1,1477359509793305,1477359509793305,1,1.625,13312,-27.5,865.7,3.1293209
40000000000000000000CC00,1,1477359509800521,1477359509800521,1,-0.8125,13312,-27.5,865.7,3.1538644
40000000000000000000CC00,1,1477359509807477,1477359509807477,1,-2.4375,13312,-27.5,865.7,3.1600003
40000000000000000000CC00,1,1477359509814445,1477359509814445,1,1.625,13312,-27.5,865.7,3.1354568
40000000000000000000CC00,1,1477359509821194,1477359509821194,1,-0.8125,13312,-27.5,865.7,3.1538644
40000000000000000000CC00,1,1477359509828386,1477359509828386,1,0.0,13312,-27.5,865.7,3.1415927
40000000000000000000CC00,1,1477359509835385,1477359509835385,1,-2.4375,13312,-27.5,865.7,3.1661363
40000000000000000000CC00,1,1477359509842129,1477359509842129,1,0.8125,13312,-27.5,865.7,3.1477287
40000000000000000000CC00,1,1477359509849119,1477359509849119,1,0.0,13312,-27.5,865.7,3.1538644
40000000000000000000CC00,1,1477359509856327,1477359509856327,1,1.625,13312,-27.5,865.7,3.1415927
40000000000000000000CC00,1,1477359509863359,1477359509863359,1,0.8125,13312,-27.5,865.7,3.1415927
40000000000000000000CC00,1,1477359509870031,1477359509870031,1,0.8125,13312,-27.5,865.7,3.1415927
40000000000000000000CC00,1,1477359509876974,1477359509876974,1,0.0,13312,-27.5,865.7,3.1538644
40000000000000000000CC00,1,1477359509883892,1477359509883892,1,-0.8125,13312,-27.5,865.7,3.1600003
40000000000000000000CC00,1,1477359509890820,1477359509890820,1,-1.625,13312,-27.5,865.7,3.1661363
40000000000000000000CC00,1,1477359509897932,1477359509897932,1,1.625,13312,-27.5,865.7,3.1477287
40000000000000000000CC00,1,1477359509904630,1477359509904630,1,0.0,13312,-27.5,865.7,3.1538644
40000000000000000000CC00,1,1477359509911809,1477359509911809,1,0.8125,13312,-27.5,865.7,3.1600003
40000000000000000000CC00,1,1477359509918519,1477359509918519,1,0.8125,13312,-27.5,865.7,3.1661363
40000000000000000000CC00,1,1477359509925738,1477359509925738,1,0.8125,13312,-27.0,865.7,3.1600003
40000000000000000000CC00,1,1477359509932707,1477359509932707,1,0.0,13312,-27.0,865.7,3.1661363
40000000000000000000CC00,1,1477359509939416,1477359509939416,1,-2.4375,13312,-27.0,865.7,3.1784081
40000000000000000000CC00,1,1477359509946441,1477359509946441,1,0.0,13312,-27.0,865.7,3.1661363
40000000000000000000CC00,1,1477359509953394,1477359509953394,1,1.625,13312,-27.5,865.7,3.1600003
40000000000000000000CC00,1,1477359509960364,1477359509960364,1,0.8125,13312,-27.0,865.7,3.1661363
40000000000000000000CC00,1,1477359509967281,1477359509967281,1,0.0,13312,-27.0,865.7,3.1722722
40000000000000000000CC00,1,1477359509974284,1477359509974284,1,1.625,13312,-27.0,865.7,3.1722722
40000000000000000000CC00,1,1477359509981222,1477359509981222,1,2.4375,13312,-27.0,865.7,3.1661363
40000000000000000000CC00,1,1477359509988134,1477359509988134,1,0.8125,13312,-27.0,865.7,3.1722722
40000000000000000000CC00,1,1477359509995315,1477359509995315,1,0.8125,13312,-27.0,865.7,3.1784081
40000000000000000000CC00,1,1477359510001991,1477359510001991,1,2.4375,13312,-27.5,865.7,3.1722722
40000000000000000000CC00,1,1477359510009250,1477359510009250,1,0.8125,13312,-27.0,865.7,3.184544
40000000000000000000CC00,1,1477359510016228,1477359510016228,1,0.0,13312,-27.0,865.7,3.19068
40000000000000000000CC00,1,1477359510023039,1477359510023039,1,2.4375,13312,-27.0,865.7,3.1784081
40000000000000000000CC00,1,1477359510030088,1477359510030088,1,0.0,13312,-27.0,865.7,3.202952
40000000000000000000CC00,1,1477359510037328,1477359510037328,1,2.4375,13312,-27.0,865.7,3.184544
40000000000000000000CC00,1,1477359510044252,1477359510044252,1,-0.8125,13312,-27.0,865.7,3.2090878
40000000000000000000CC00,1,1477359510050985,1477359510050985,1,1.625,13312,-27.0,865.7,3.196816
40000000000000000000CC00,1,1477359510058203,1477359510058203,1,-0.8125,13312,-27.0,865.7,3.2213597
40000000000000000000CC00,1,1477359510065158,1477359510065158,1,2.4375,13312,-27.0,865.7,3.202952
40000000000000000000CC00,1,1477359510072111,1477359510072111,1,2.4375,13312,-27.0,865.7,3.2152238
40000000000000000000CC00,1,1477359510078757,1477359510078757,1,1.625,13312,-27.0,865.7,3.2213597
40000000000000000000CC00,1,1477359510085709,1477359510085709,1,2.4375,13312,-27.0,865.7,3.2274957
40000000000000000000CC00,1,1477359510092977,1477359510092977,1,1.625,13312,-26.5,865.7,3.2336316
40000000000000000000CC00,1,1477359510099673,1477359510099673,1,0.8125,13312,-26.5,865.7,3.2520392
40000000000000000000CC00,1,1477359510106644,1477359510106644,1,2.4375,13312,-26.5,865.7,3.2397673
40000000000000000000CC00,1,1477359510113941,1477359510113941,1,2.4375,13312,-26.5,865.7,3.2459033
40000000000000000000CC00,1,1477359510120840,1477359510120840,1,0.8125,13312,-26.5,865.7,3.270447
40000000000000000000CC00,1,1477359510127575,1477359510127575,1,-1.625,13312,-26.5,865.7,3.2888548
40000000000000000000CC00,1,1477359510134757,1477359510134757,1,-0.8125,13312,-26.5,865.7,3.2949908
40000000000000000000CC00,1,1477359510141709,1477359510141709,1,1.625,13312,-26.5,865.7,3.2888548
40000000000000000000CC00,1,1477359510148367,1477359510148367,1,1.625,13312,-26.5,865.7,3.2949908
40000000000000000000CC00,1,1477359510155409,1477359510155409,1,1.625,13312,-26.5,865.7,3.3133986
40000000000000000000CC00,1,1477359510162309,1477359510162309,1,2.4375,13312,-26.0,865.7,3.3256702
40000000000000000000CC00,1,1477359510169593,1477359510169593,1,0.8125,13312,-26.0,865.7,3.344078
40000000000000000000CC00,1,1477359510176565,1477359510176565,1,0.0,13312,-26.0,865.7,3.362486
40000000000000000000CC00,1,1477359510183233,1477359510183233,1,2.4375,13312,-26.0,865.7,3.362486
40000000000000000000CC00,1,1477359510190172,1477359510190172,1,1.625,13312,-26.0,865.7,3.3870296
40000000000000000000CC00,1,1477359510197404,1477359510197404,1,1.625,13312,-26.0,865.7,3.3993015
40000000000000000000CC00,1,1477359510204091,1477359510204091,1,2.4375,13312,-26.0,865.7,3.423845
40000000000000000000CC00,1,1477359510211071,1477359510211071,1,2.4375,13312,-26.0,865.7,3.429981
40000000000000000000CC00,1,1477359510218028,1477359510218028,1,0.8125,13312,-25.5,865.7,3.4483888
40000000000000000000CC00,1,1477359510225198,1477359510225198,1,0.8125,13312,-25.5,865.7,3.4729326
40000000000000000000CC00,1,1477359510232166,1477359510232166,1,0.0,13312,-25.5,865.7,3.503612
40000000000000000000CC00,1,1477359510238931,1477359510238931,1,3.25,13312,-25.5,865.7,3.503612
40000000000000000000CC00,1,1477359510246144,1477359510246144,1,3.25,13312,-25.5,865.7,3.5342917
40000000000000000000CC00,1,1477359510253078,1477359510253078,1,2.4375,13312,-25.5,865.7,3.5649714
40000000000000000000CC00,1,1477359510259778,1477359510259778,1,2.4375,13312,-25.5,865.7,3.589515
40000000000000000000CC00,1,1477359510266916,1477359510266916,1,0.0,13312,-25.0,865.7,3.6324666
40000000000000000000CC00,1,1477359510273905,1477359510273905,1,3.25,13312,-25.0,865.7,3.6386025
40000000000000000000CC00,1,1477359510280618,1477359510280618,1,1.625,13312,-25.0,865.7,3.663146
40000000000000000000CC00,1,1477359510287537,1477359510287537,1,1.625,13312,-25.0,865.7,3.6876898
40000000000000000000CC00,1,1477359510294436,1477359510294436,1,0.0,13312,-25.0,865.7,3.7122335
40000000000000000000CC00,1,1477359510301621,1477359510301621,1,1.625,13312,-25.5,865.7,3.7183695
40000000000000000000CC00,1,1477359510308577,1477359510308577,1,1.625,13312,-25.0,865.7,3.7306414
40000000000000000000CC00,1,1477359510315278,1477359510315278,1,0.8125,13312,-25.0,865.7,3.742913
40000000000000000000CC00,1,1477359510322220,1477359510322220,1,-0.8125,13312,-25.5,865.7,3.7613208
40000000000000000000CC00,1,1477359510329139,1477359510329139,1,0.8125,13312,-25.0,865.7,3.7674568
40000000000000000000CC00,1,1477359510336139,1477359510336139,1,2.4375,13312,-25.5,865.7,3.7735927
40000000000000000000CC00,1,1477359510343026,1477359510343026,1,2.4375,13312,-25.0,865.7,3.7858646
40000000000000000000CC00,1,1477359510350174,1477359510350174,1,0.0,13312,-25.0,865.7,3.8165443
40000000000000000000CC00,1,1477359510356851,1477359510356851,1,-1.625,13312,-25.5,865.7,3.8349519
40000000000000000000CC00,1,1477359510364134,1477359510364134,1,0.8125,13312,-25.5,865.7,3.828816
40000000000000000000CC00,1,1477359510371112,1477359510371112,1,-2.4375,13312,-25.0,865.7,3.8594956
40000000000000000000CC00,1,1477359510378107,1477359510378107,1,-1.625,13312,-25.5,865.7,3.8717675
40000000000000000000CC00,1,1477359510385091,1477359510385091,1,-1.625,13312,-25.0,865.7,3.8840394
40000000000000000000CC00,1,1477359510391806,1477359510391806,1,-0.8125,13312,-25.0,865.7,3.8963113
40000000000000000000CC00,1,1477359510398989,1477359510398989,1,-1.625,13312,-25.5,865.7,3.9208548
40000000000000000000CC00,1,1477359510405716,1477359510405716,1,-1.625,13312,-25.0,865.7,3.9392626
40000000000000000000CC00,1,1477359510412962,1477359510412962,1,-1.625,13312,-25.0,865.7,3.9576705
40000000000000000000CC00,1,1477359510419920,1477359510419920,1,-0.8125,13312,-25.0,865.7,3.9699423
40000000000000000000CC00,1,1477359510426861,1477359510426861,1,-0.8125,13312,-25.0,865.7,3.9944859
40000000000000000000CC00,1,1477359510433544,1477359510433544,1,-0.8125,13312,-25.0,865.7,4.0128937
40000000000000000000CC00,1,1477359510440513,1477359510440513,1,-0.8125,13312,-24.5,865.7,4.0435734
40000000000000000000CC00,1,1477359510447723,1477359510447723,1,-1.625,13312,-25.0,865.7,4.068117
40000000000000000000CC00,1,1477359510454619,1477359510454619,1,-0.8125,13312,-24.5,865.7,4.104933
40000000000000000000CC00,1,1477359510461328,1477359510461328,1,-0.8125,13312,-24.5,865.7,4.135612
40000000000000000000CC00,1,1477359510468468,1477359510468468,1,-0.8125,13312,-24.5,865.7,4.1662917
40000000000000000000CC00,1,1477359510475168,1477359510475168,1,0.8125,13312,-24.5,865.7,4.1908355
40000000000000000000CC00,1,1477359510482118,1477359510482118,1,-0.8125,13312,-24.0,865.7,4.233787
40000000000000000000CC00,1,1477359510489069,1477359510489069,1,-0.8125,13312,-24.0,865.7,4.264467
40000000000000000000CC00,1,1477359510496240,1477359510496240,1,-0.8125,13312,-24.0,865.7,4.295146
40000000000000000000CC00,1,1477359510503199,1477359510503199,1,-0.8125,13312,-24.0,865.7,4.307418
40000000000000000000CC00,1,1477359510509883,1477359510509883,1,0.0,13312,-24.5,865.7,4.313554
40000000000000000000CC00,1,1477359510516777,1477359510516777,1,-0.8125,13312,-24.5,865.7,4.3258257
40000000000000000000CC00,1,1477359510523961,1477359510523961,1,-0.8125,13312,-24.5,865.7,4.3258257
40000000000000000000CC00,1,1477359510530920,1477359510530920,1,-1.625,13312,-24.0,865.7,4.3380976
40000000000000000000CC00,1,1477359510537828,1477359510537828,1,0.0,13312,-24.0,865.7,4.3196898
40000000000000000000CC00,1,1477359510544540,1477359510544540,1,-2.4375,13312,-24.0,865.7,4.3380976
40000000000000000000CC00,1,1477359510551742,1477359510551742,1,-1.625,13312,-24.0,865.7,4.3258257
40000000000000000000CC00,1,1477359510558416,1477359510558416,1,-0.8125,13312,-24.0,865.7,4.313554
40000000000000000000CC00,1,1477359510565332,1477359510565332,1,-2.4375,13312,-24.5,865.7,4.3196898
40000000000000000000CC00,1,1477359510572525,1477359510572525,1,0.0,13312,-24.0,865.7,4.295146
40000000000000000000CC00,1,1477359510579541,1477359510579541,1,-0.8125,13312,-24.0,865.7,4.295146
40000000000000000000CC00,1,1477359510586538,1477359510586538,1,-0.8125,13312,-24.0,865.7,4.28901
40000000000000000000CC00,1,1477359510593156,1477359510593156,1,0.0,13312,-24.0,865.7,4.2767386
40000000000000000000CC00,1,1477359510600312,1477359510600312,1,-2.4375,13312,-24.0,865.7,4.28901
40000000000000000000CC00,1,1477359510607270,1477359510607270,1,-0.8125,13312,-24.5,865.7,4.2767386
40000000000000000000CC00,1,1477359510613968,1477359510613968,1,0.0,13312,-24.0,865.7,4.2828746
40000000000000000000CC00,1,1477359510621130,1477359510621130,1,-1.625,13312,-24.0,865.7,4.2828746
40000000000000000000CC00,1,1477359510627827,1477359510627827,1,-2.4375,13312,-24.5,865.7,4.28901
40000000000000000000CC00,1,1477359510635084,1477359510635084,1,-1.625,13312,-24.5,865.7,4.2828746
40000000000000000000CC00,1,1477359510642023,1477359510642023,1,-1.625,13312,-24.0,865.7,4.2828746
40000000000000000000CC00,1,1477359510648694,1477359510648694,1,-0.8125,13312,-24.5,865.7,4.2706027
40000000000000000000CC00,1,1477359510655919,1477359510655919,1,0.0,13312,-24.0,865.7,4.258331
40000000000000000000CC00,1,1477359510662941,1477359510662941,1,-0.8125,13312,-24.0,865.7,4.264467
40000000000000000000CC00,1,1477359510669866,1477359510669866,1,0.0,13312,-24.5,865.7,4.258331
40000000000000000000CC00,1,1477359510676792,1477359510676792,1,0.8125,13312,-24.5,865.7,4.2706027
40000000000000000000CC00,1,1477359510683721,1477359510683721,1,-1.625,13312,-24.5,865.7,4.295146
40000000000000000000CC00,1,1477359510690637,1477359510690637,1,-1.625,13312,-24.5,865.7,4.313554
40000000000000000000CC00,1,1477359510697548,1477359510697548,1,-3.25,13312,-24.5,865.7,4.3442335
40000000000000000000CC00,1,1477359510704462,1477359510704462,1,0.0,13312,-24.5,865.7,4.3565054
40000000000000000000CC00,1,1477359510711430,1477359510711430,1,0.0,13312,-24.5,865.7,4.399457
40000000000000000000CC00,1,1477359510718390,1477359510718390,1,0.0,13312,-24.5,865.7,4.4424086
40000000000000000000CC00,1,1477359510725306,1477359510725306,1,1.625,13312,-24.5,865.7,4.4976315
40000000000000000000CC00,1,1477359510732294,1477359510732294,1,1.625,13312,-25.0,865.7,4.540583
40000000000000000000CC00,1,1477359510739235,1477359510739235,1,-5.6875,13312,-25.0,865.7,4.632622
40000000000000000000CC00,1,1477359510745965,1477359510745965,1,-4.875,13312,-25.5,865.7,4.6694374
40000000000000000000CC00,1,1477359510752879,1477359510752879,1,-2.4375,13312,-25.5,865.7,4.700117
40000000000000000000CC00,1,1477359510760035,1477359510760035,1,-0.8125,13312,-25.5,865.7,4.724661
40000000000000000000CC00,1,1477359510766747,1477359510766747,1,0.0,13312,-25.5,865.7,4.7492046
40000000000000000000CC00,1,1477359510773870,1477359510773870,1,-1.625,13312,-25.5,865.7,4.7982917
40000000000000000000CC00,1,1477359510780797,1477359510780797,1,1.625,13312,-25.5,865.7,4.8105636
40000000000000000000CC00,1,1477359510787726,1477359510787726,1,-1.625,13312,-25.5,865.7,4.859651
40000000000000000000CC00,1,1477359510794761,1477359510794761,1,0.8125,13312,-25.5,865.7,4.865787
40000000000000000000CC00,1,1477359510801690,1477359510801690,1,0.8125,13312,-25.5,865.7,4.884195
40000000000000000000CC00,1,1477359510808435,1477359510808435,1,1.625,13312,-25.5,865.7,4.890331
40000000000000000000CC00,1,1477359510815458,1477359510815458,1,0.8125,13312,-25.5,865.7,4.9087386
40000000000000000000CC00,1,1477359510822672,1477359510822672,1,0.8125,13312,-25.5,865.7,4.9210105
40000000000000000000CC00,1,1477359510829357,1477359510829357,1,1.625,13312,-25.5,865.7,4.9271464
40000000000000000000CC00,1,1477359510836342,1477359510836342,1,2.4375,13312,-25.5,865.7,4.9271464
40000000000000000000CC00,1,1477359510843311,1477359510843311,1,1.625,13312,-25.5,865.7,4.9210105
40000000000000000000CC00,1,1477359510850281,1477359510850281,1,1.625,13312,-26.0,865.7,4.9271464
40000000000000000000CC00,1,1477359510857225,1477359510857225,1,-0.8125,13312,-25.5,865.7,4.9332824
40000000000000000000CC00,1,1477359510864197,1477359510864197,1,0.0,13312,-25.5,865.7,4.9271464
40000000000000000000CC00,1,1477359510871119,1477359510871119,1,1.625,13312,-25.5,865.7,4.9148746
40000000000000000000CC00,1,1477359510878283,1477359510878283,1,0.0,13312,-25.5,865.7,4.9210105
40000000000000000000CC00,1,1477359510885013,1477359510885013,1,2.4375,13312,-25.5,865.7,4.9087386
40000000000000000000CC00,1,1477359510891920,1477359510891920,1,1.625,13312,-25.5,865.7,4.9087386
40000000000000000000CC00,1,1477359510898829,1477359510898829,1,0.0,13312,-25.5,865.7,4.9271464
40000000000000000000CC00,1,1477359510905767,1477359510905767,1,1.625,13312,-26.0,865.7,4.9148746
40000000000000000000CC00,1,1477359510912761,1477359510912761,1,-0.8125,13312,-25.5,865.7,4.9271464
40000000000000000000CC00,1,1477359510919940,1477359510919940,1,0.0,13312,-25.5,865.7,4.9210105
40000000000000000000CC00,1,1477359510926896,1477359510926896,1,1.625,13312,-25.5,865.7,4.9148746
40000000000000000000CC00,1,1477359510933624,1477359510933624,1,0.0,13312,-26.0,865.7,4.9271464
40000000000000000000CC00,1,1477359510940834,1477359510940834,1,0.8125,13312,-25.5,865.7,4.9210105
40000000000000000000CC00,1,1477359510947518,1477359510947518,1,0.8125,13312,-25.5,865.7,4.9148746
40000000000000000000CC00,1,1477359510954472,1477359510954472,1,2.4375,13312,-25.5,865.7,4.9087386
40000000000000000000CC00,1,1477359510961612,1477359510961612,1,-0.8125,13312,-25.5,865.7,4.9210105
40000000000000000000CC00,1,1477359510968572,1477359510968572,1,0.8125,13312,-25.5,865.7,4.9148746
40000000000000000000CC00,1,1477359510975231,1477359510975231,1,1.625,13312,-25.5,865.7,4.9087386
40000000000000000000CC00,1,1477359510982177,1477359510982177,1,1.625,13312,-25.5,865.7,4.9087386
40000000000000000000CC00,1,1477359510989503,1477359510989503,1,1.625,13312,-25.5,865.7,4.9148746
40000000000000000000CC00,1,1477359510996227,1477359510996227,1,-1.625,13312,-25.5,865.7,4.9271464
40000000000000000000CC00,1,1477359511003255,1477359511003255,1,0.8125,13312,-25.5,865.7,4.9026027
40000000000000000000CC00,1,1477359511010197,1477359511010197,1,0.8125,13312,-25.5,865.7,4.9087386
40000000000000000000CC00,1,1477359511017379,1477359511017379,1,0.0,13312,-25.5,865.7,4.9087386
40000000000000000000CC00,1,1477359511024412,1477359511024412,1,1.625,13312,-25.5,865.7,4.9026027
40000000000000000000CC00,1,1477359511031147,1477359511031147,1,1.625,13312,-25.5,865.7,4.9026027
40000000000000000000CC00,1,1477359511038068,1477359511038068,1,2.4375,13312,-25.5,865.7,4.9026027
40000000000000000000CC00,1,1477359511045063,1477359511045063,1,0.0,13312,-26.0,865.7,4.9087386
40000000000000000000CC00,1,1477359511051977,1477359511051977,1,0.0,13312,-26.0,865.7,4.9148746
40000000000000000000CC00,1,1477359511059148,1477359511059148,1,0.8125,13312,-25.5,865.7,4.9087386
40000000000000000000CC00,1,1477359511066091,1477359511066091,1,0.8125,13312,-25.5,865.7,4.9148746
40000000000000000000CC00,1,1477359511073098,1477359511073098,1,0.0,13312,-25.5,865.7,4.9148746
40000000000000000000CC00,1,1477359511080003,1477359511080003,1,1.625,13312,-25.5,865.7,4.9026027
40000000000000000000CC00,1,1477359511086942,1477359511086942,1,0.8125,13312,-25.5,865.7,4.9148746
40000000000000000000CC00,1,1477359511093866,1477359511093866,1,1.625,13312,-25.5,865.7,4.9026027
40000000000000000000CC00,1,1477359511100633,1477359511100633,1,0.8125,13312,-25.5,865.7,4.9087386
40000000000000000000CC00,1,1477359511107616,1477359511107616,1,0.8125,13312,-25.5,865.7,4.9026027
40000000000000000000CC00,1,1477359511114550,1477359511114550,1,2.4375,13312,-25.5,865.7,4.9026027
40000000000000000000CC00,1,1477359511121691,1477359511121691,1,0.8125,13312,-25.5,865.7,4.9026027
40000000000000000000CC00,1,1477359511128588,1477359511128588,1,2.4375,13312,-26.0,865.7,4.8964667
40000000000000000000CC00,1,1477359511135542,1477359511135542,1,2.4375,13312,-25.5,865.7,4.890331
40000000000000000000CC00,1,1477359511142253,1477359511142253,1,0.0,13312,-25.5,865.7,4.9087386
40000000000000000000CC00,1,1477359511149173,1477359511149173,1,1.625,13312,-26.0,865.7,4.9026027
40000000000000000000CC00,1,1477359511156084,1477359511156084,1,0.0,13312,-25.5,865.7,4.9148746
40000000000000000000CC00,1,1477359511163227,1477359511163227,1,0.8125,13312,-25.5,865.7,4.9087386
40000000000000000000CC00,1,1477359511169910,1477359511169910,1,0.0,13312,-25.5,865.7,4.9087386
40000000000000000000CC00,1,1477359511176867,1477359511176867,1,-0.8125,13312,-25.5,865.7,4.9087386
40000000000000000000CC00,1,1477359511184080,1477359511184080,1,3.25,13312,-25.5,865.7,4.890331
40000000000000000000CC00,1,1477359511190809,1477359511190809,1,1.625,13312,-25.5,865.7,4.8964667
40000000000000000000CC00,1,1477359511197738,1477359511197738,1,0.8125,13312,-25.5,865.7,4.9026027
40000000000000000000CC00,1,1477359511204924,1477359511204924,1,1.625,13312,-25.5,865.7,4.8964667
40000000000000000000CC00,1,1477359511211864,1477359511211864,1,0.8125,13312,-25.5,865.7,4.8964667
40000000000000000000CC00,1,1477359511218922,1477359511218922,1,0.8125,13312,-25.5,865.7,4.890331
40000000000000000000CC00,1,1477359511225662,1477359511225662,1,0.0,13312,-25.5,865.7,4.890331
40000000000000000000CC00,1,1477359511232965,1477359511232965,1,1.625,13312,-25.5,865.7,4.890331
40000000000000000000CC00,1,1477359511239939,1477359511239939,1,0.8125,13312,-25.5,865.7,4.890331
40000000000000000000CC00,1,1477359511246871,1477359511246871,1,1.625,13312,-25.5,865.7,4.884195
40000000000000000000CC00,1,1477359511253623,1477359511253623,1,0.8125,13312,-26.0,865.7,4.890331
40000000000000000000CC00,1,1477359511260553,1477359511260553,1,-0.8125,13312,-25.5,865.7,4.9026027
40000000000000000000CC00,1,1477359511267524,1477359511267524,1,0.8125,13312,-25.5,865.7,4.890331
40000000000000000000CC00,1,1477359511274656,1477359511274656,1,2.4375,13312,-25.5,865.7,4.878059
40000000000000000000CC00,1,1477359511281351,1477359511281351,1,0.8125,13312,-25.5,865.7,4.890331
40000000000000000000CC00,1,1477359511288307,1477359511288307,1,-0.8125,13312,-25.5,865.7,4.8964667
40000000000000000000CC00,1,1477359511295307,1477359511295307,1,0.8125,13312,-25.5,865.7,4.884195
40000000000000000000CC00,1,1477359511302519,1477359511302519,1,0.8125,13312,-25.5,865.7,4.878059
40000000000000000000CC00,1,1477359511309461,1477359511309461,1,0.0,13312,-25.5,865.7,4.890331
40000000000000000000CC00,1,1477359511316400,1477359511316400,1,0.8125,13312,-25.5,865.7,4.878059
40000000000000000000CC00,1,1477359511323328,1477359511323328,1,0.8125,13312,-25.5,865.7,4.884195
40000000000000000000CC00,1,1477359511330004,1477359511330004,1,0.0,13312,-25.5,865.7,4.884195
40000000000000000000CC00,1,1477359511336963,1477359511336963,1,1.625,13312,-25.5,865.7,4.865787
40000000000000000000CC00,1,1477359511344151,1477359511344151,1,2.4375,13312,-25.5,865.7,4.865787
40000000000000000000CC00,1,1477359511350844,1477359511350844,1,0.0,13312,-25.5,865.7,4.878059
40000000000000000000CC00,1,1477359511357789,1477359511357789,1,0.8125,13312,-25.5,865.7,4.865787
40000000000000000000CC00,1,1477359511364961,1477359511364961,1,1.625,13312,-25.5,865.7,4.865787
40000000000000000000CC00,1,1477359511371622,1477359511371622,1,1.625,13312,-25.5,865.7,4.878059
40000000000000000000CC00,1,1477359511378773,1477359511378773,1,0.0,13312,-26.0,865.7,4.871923
40000000000000000000CC00,1,1477359511385476,1477359511385476,1,0.8125,13312,-25.5,865.7,4.865787
40000000000000000000CC00,1,1477359511392387,1477359511392387,1,1.625,13312,-25.5,865.7,4.865787
40000000000000000000CC00,1,1477359511399332,1477359511399332,1,0.8125,13312,-25.5,865.7,4.859651
40000000000000000000CC00,1,1477359511406487,1477359511406487,1,0.8125,13312,-25.5,865.7,4.865787
40000000000000000000CC00,1,1477359511413128,1477359511413128,1,1.625,13312,-26.0,865.7,4.865787
40000000000000000000CC00,1,1477359511420328,1477359511420328,1,0.8125,13312,-25.5,865.7,4.859651
