-25.0,3.4054373491061236,0.0
-25.0,3.393165502803038,2.4375
-25.0,3.3870295796514958,3.25
-25.0,3.393165502803038,6.5
-25.0,3.399301425954581,1.625
-25.0,3.411573272257666,2.4375
-25.0,3.399301425954581,3.25
-25.0,3.411573272257666,0.8125
-25.5,3.4054373491061236,2.4375
-25.0,3.4054373491061236,1.625
-25.5,3.393165502803038,3.25
-25.0,3.4054373491061236,0.8125
-25.0,3.399301425954581,2.4375
-25.0,3.399301425954581,3.25
-25.0,3.4054373491061236,0.8125
-25.5,3.4054373491061236,0.8125
-25.5,3.399301425954581,3.25
-25.0,3.4054373491061236,1.625
-25.0,3.399301425954581,1.625
-25.0,3.4054373491061236,4.875
-25.0,3.393165502803038,2.4375
-25.5,3.399301425954581,2.4375
-25.0,3.3870295796514958,4.875
-25.0,3.393165502803038,3.25
-25.0,3.4177091954092087,0.0
-25.5,3.411573272257666,0.8125
-25.0,3.399301425954581,2.4375
-25.0,3.4054373491061236,0.8125
-25.5,3.393165502803038,3.25
-25.0,3.4054373491061236,1.625
-25.0,3.393165502803038,4.875
-25.5,3.4054373491061236,2.4375
-25.0,3.4054373491061236,2.4375
-25.5,3.4054373491061236,1.625
-25.0,3.4054373491061236,1.625
-25.0,3.4054373491061236,2.4375
-25.5,3.4054373491061236,2.4375
-25.0,3.4054373491061236,2.4375
-25.0,3.399301425954581,3.25
-25.0,3.399301425954581,4.875
-25.5,3.399301425954581,4.875
-25.0,3.411573272257666,1.625
-25.0,3.399301425954581,3.25
-25.0,3.4054373491061236,2.4375
-25.5,3.4054373491061236,3.25
-25.0,3.399301425954581,4.875
-25.0,3.411573272257666,1.625
-25.0,3.399301425954581,3.25
-25.0,3.399301425954581,3.25
-25.0,3.4054373491061236,2.4375
-25.0,3.411573272257666,1.625
-25.0,3.4054373491061236,2.4375
-25.5,3.399301425954581,4.875
-25.5,3.411573272257666,1.625
-25.0,3.4054373491061236,2.4375
-25.0,3.399301425954581,3.25
-25.5,3.399301425954581,2.4375
-25.0,3.411573272257666,1.625
-25.0,3.399301425954581,1.625
-25.5,3.411573272257666,0.8125
-25.5,3.4054373491061236,2.4375
-25.0,3.399301425954581,2.4375
-25.5,3.399301425954581,2.4375
-25.5,3.411573272257666,1.625
-25.5,3.393165502803038,4.875
-25.5,3.399301425954581,1.625
-25.0,3.399301425954581,1.625
-25.5,3.4054373491061236,1.625
-25.0,3.393165502803038,2.4375
-25.5,3.393165502803038,2.4375
-25.0,3.411573272257666,0.0
-25.0,3.380893656499953,4.875
-25.0,3.399301425954581,3.25
-25.5,3.3870295796514958,4.875
-25.0,3.393165502803038,2.4375
-25.0,3.399301425954581,1.625
-25.0,3.3870295796514958,2.4375
-25.0,3.399301425954581,1.625
-25.0,3.3870295796514958,2.4375
-25.5,3.399301425954581,1.625
-25.0,3.3870295796514958,2.4375
-25.5,3.380893656499953,4.875
-25.5,3.3870295796514958,0.8125
-25.5,3.3747577333484107,3.25
-25.5,3.380893656499953,3.25
-25.5,3.380893656499953,3.25
-25.0,3.380893656499953,1.625
-25.0,3.380893656499953,1.625
-25.0,3.399301425954581,-0.8125
-25.5,3.368621810196868,2.4375
-25.0,3.3747577333484107,0.8125
-25.0,3.368621810196868,1.625
-25.0,3.368621810196868,1.625
-25.0,3.3502140407422405,4.875
-25.0,3.3502140407422405,3.25
-25.5,3.356349963893783,2.4375
-25.5,3.3624858870453256,1.625
-25.5,3.3502140407422405,3.25
-25.5,3.3502140407422405,2.4375
-25.0,3.3440781175906977,6.5
-25.0,3.3440781175906977,3.25
-25.0,3.3440781175906977,3.25
-25.0,3.3624858870453256,0.8125
-25.0,3.3502140407422405,1.625
-25.0,3.356349963893783,2.4375
-25.0,3.356349963893783,2.4375
-25.0,3.356349963893783,2.4375
-25.5,3.356349963893783,3.25
-25.0,3.3624858870453256,1.625
-25.0,3.368621810196868,1.625
-25.0,3.368621810196868,1.625
-25.0,3.368621810196868,2.4375
-25.0,3.3747577333484107,0.8125
-24.5,3.3747577333484107,1.625
-25.0,3.380893656499953,1.625
-25.0,3.393165502803038,-0.8125
-25.0,3.393165502803038,1.625
-25.0,3.3870295796514958,3.25
-25.0,3.393165502803038,0.8125
-25.0,3.4054373491061236,0.0
-25.0,3.4054373491061236,0.8125
-25.5,3.399301425954581,1.625
-25.0,3.429981041712294,-2.4375
-25.5,3.4177091954092087,-0.8125
-25.0,3.423845118560751,-1.625
-25.0,3.423845118560751,-1.625
-25.0,3.4177091954092087,0.0
-25.5,3.4177091954092087,-1.625
-25.5,3.399301425954581,2.4375
-25.5,3.399301425954581,-0.8125
-25.5,3.3870295796514958,0.0
-25.5,3.393165502803038,0.8125
-26.0,3.393165502803038,0.0
-19.5,4.700117134081604,1.625
-21.0,4.693981210930062,1.625
-20.5,4.700117134081604,0.8125
-21.0,4.693981210930062,1.625
-20.5,4.700117134081604,0.8125
-20.5,4.693981210930062,1.625
-20.0,4.6878452877785195,2.4375
-19.5,4.693981210930062,1.625
-20.0,4.700117134081604,0.8125
-20.0,4.700117134081604,0.8125
-20.0,4.6878452877785195,2.4375
-20.5,4.6878452877785195,2.4375
-20.0,4.693981210930062,1.625
-20.0,4.693981210930062,1.625
-20.0,4.693981210930062,1.625
-20.0,4.693981210930062,0.8125
-20.5,4.693981210930062,1.625
-20.0,4.693981210930062,1.625
-20.5,4.700117134081604,0.8125
-20.0,4.700117134081604,0.8125
-20.0,4.693981210930062,1.625
-20.0,4.693981210930062,1.625
-20.0,4.6878452877785195,2.4375
-20.0,4.700117134081604,0.8125
-20.5,4.693981210930062,1.625
-20.0,4.693981210930062,0.8125
-20.5,4.693981210930062,1.625
-20.0,4.693981210930062,1.625
-20.5,4.693981210930062,1.625
-20.5,4.700117134081604,0.0
-20.5,4.700117134081604,0.8125
-20.5,4.700117134081604,0.8125
-20.5,4.700117134081604,0.8125
-21.0,4.700117134081604,0.8125
-20.5,4.700117134081604,0.8125
-20.5,4.693981210930062,1.625
-20.5,4.693981210930062,1.625
-21.0,4.693981210930062,1.625
-21.0,4.693981210930062,1.625
-21.0,4.693981210930062,1.625
-21.0,4.700117134081604,0.8125
-21.0,4.693981210930062,1.625
-21.0,4.693981210930062,1.625
-21.0,4.700117134081604,0.8125
-21.0,4.693981210930062,1.625
-21.0,4.693981210930062,1.625
-21.0,4.693981210930062,1.625
-21.0,4.6878452877785195,2.4375
-21.0,4.693981210930062,1.625
-21.5,4.6878452877785195,1.625
-21.5,4.693981210930062,1.625
-21.5,4.693981210930062,1.625
-21.0,4.700117134081604,0.8125
-21.0,4.693981210930062,1.625
-21.0,4.700117134081604,0.8125
-21.5,4.700117134081604,0.8125
-21.5,4.700117134081604,0.8125
-21.0,4.700117134081604,0.8125
-21.5,4.693981210930062,1.625
-21.5,4.700117134081604,0.8125
-21.5,4.700117134081604,0.8125
-21.5,4.700117134081604,0.8125
-21.5,4.693981210930062,1.625
-21.5,4.693981210930062,1.625
-21.5,4.693981210930062,1.625
-21.5,4.700117134081604,0.8125
-21.5,4.700117134081604,0.8125
-21.5,4.700117134081604,0.8125
-21.5,4.700117134081604,0.8125
-21.5,4.693981210930062,1.625
-21.5,4.693981210930062,2.4375
-21.5,4.693981210930062,2.4375
-21.5,4.693981210930062,1.625
-21.5,4.693981210930062,1.625
-21.5,4.693981210930062,1.625
-21.5,4.700117134081604,0.8125
-22.0,4.693981210930062,1.625
-21.5,4.700117134081604,0.8125
-21.5,4.700117134081604,0.8125
-21.5,4.693981210930062,1.625
-22.0,4.700117134081604,1.625
-21.5,4.700117134081604,1.625
-21.5,4.693981210930062,1.625
-21.5,4.700117134081604,0.8125
-22.0,4.700117134081604,1.625
-21.5,4.693981210930062,1.625
-21.5,4.700117134081604,1.625
-21.5,4.693981210930062,2.4375
-21.5,4.700117134081604,0.8125
-21.5,4.700117134081604,0.8125
-21.5,4.700117134081604,1.625
-21.5,4.700117134081604,1.625
-21.5,4.700117134081604,0.8125
-21.5,4.700117134081604,1.625
-22.0,4.693981210930062,1.625
-22.0,4.693981210930062,2.4375
-21.5,4.693981210930062,1.625
-22.0,4.693981210930062,2.4375
-22.0,4.700117134081604,0.8125
-22.0,4.693981210930062,2.4375
-22.0,4.700117134081604,1.625
-22.0,4.700117134081604,1.625
-22.0,4.700117134081604,1.625
-22.0,4.693981210930062,1.625
-22.0,4.700117134081604,0.8125
-22.0,4.700117134081604,1.625
-22.0,4.700117134081604,0.8125
-22.0,4.700117134081604,0.8125
-21.5,4.700117134081604,1.625
-22.0,4.700117134081604,0.8125
-22.0,4.700117134081604,0.8125
-22.0,4.693981210930062,2.4375
-22.0,4.700117134081604,0.8125
-22.0,4.700117134081604,1.625
-22.0,4.693981210930062,1.625
-22.0,4.693981210930062,1.625
-22.0,4.693981210930062,1.625
-22.0,4.693981210930062,1.625
-22.0,4.700117134081604,1.625
-22.0,4.700117134081604,0.8125
-22.0,4.6878452877785195,4.0625
-22.0,4.700117134081604,0.8125
-22.0,4.693981210930062,2.4375
-22.0,4.693981210930062,2.4375
-22.0,4.693981210930062,1.625
-22.0,4.693981210930062,1.625
-22.0,4.693981210930062,1.625
-22.0,4.693981210930062,2.4375
-22.0,4.693981210930062,2.4375
-22.0,4.700117134081604,0.8125
-22.0,4.6878452877785195,4.0625
-22.0,4.693981210930062,2.4375
-22.0,4.693981210930062,2.4375
-22.0,4.693981210930062,1.625
-22.0,4.693981210930062,2.4375
-22.0,4.700117134081604,0.8125
-22.0,4.700117134081604,0.8125
-22.0,4.693981210930062,2.4375
-22.0,4.6878452877785195,4.0625
-22.0,4.693981210930062,1.625
-22.0,4.693981210930062,2.4375
-22.0,4.693981210930062,1.625
-22.0,4.693981210930062,1.625
-22.0,4.700117134081604,1.625
-22.0,4.6878452877785195,2.4375
-22.0,4.693981210930062,2.4375
-22.0,4.693981210930062,2.4375
-22.0,4.693981210930062,2.4375
-22.0,4.693981210930062,2.4375
-22.0,4.693981210930062,1.625
-22.0,4.693981210930062,1.625
-22.5,4.693981210930062,1.625
-22.0,4.693981210930062,2.4375
-22.5,4.700117134081604,0.8125
-22.0,4.693981210930062,1.625
-22.0,4.6878452877785195,4.0625
-22.0,4.6878452877785195,4.0625
-22.5,4.693981210930062,2.4375
-22.0,4.693981210930062,2.4375
-22.0,4.700117134081604,1.625
-22.0,4.6878452877785195,2.4375
-22.0,4.693981210930062,2.4375
-22.0,4.693981210930062,1.625
-22.5,4.693981210930062,1.625
-22.0,4.693981210930062,2.4375
-22.0,4.693981210930062,2.4375
-22.0,4.681709364626977,4.875
-22.0,4.693981210930062,2.4375
-22.0,4.6878452877785195,2.4375
-22.0,4.700117134081604,1.625
-22.5,4.681709364626977,4.0625
-22.0,4.693981210930062,1.625
-22.5,4.693981210930062,1.625
-22.5,4.6878452877785195,4.0625
-22.5,4.6878452877785195,2.4375
-22.0,4.681709364626977,4.0625
-22.5,4.6878452877785195,2.4375
-22.5,4.693981210930062,1.625
-22.5,4.700117134081604,0.8125
-22.5,4.693981210930062,1.625
-22.0,4.6878452877785195,4.0625
-22.5,4.700117134081604,0.8125
-22.5,4.693981210930062,0.8125
-22.5,4.6878452877785195,2.4375
-22.5,4.693981210930062,2.4375
-22.0,4.6878452877785195,4.0625
-22.5,4.693981210930062,1.625
-22.5,4.6878452877785195,2.4375
-22.5,4.700117134081604,0.8125
-22.5,4.6878452877785195,2.4375
-22.5,4.6878452877785195,2.4375
-22.5,4.681709364626977,4.0625
-22.5,4.6878452877785195,1.625
-22.5,4.693981210930062,1.625
-22.5,4.700117134081604,-0.8125
-22.5,4.693981210930062,1.625
-22.5,4.693981210930062,1.625
-22.5,4.693981210930062,1.625
-22.5,4.6878452877785195,2.4375
-22.5,4.6878452877785195,2.4375
-22.5,4.693981210930062,1.625
-22.5,4.693981210930062,0.8125
-22.5,4.693981210930062,1.625
-23.0,4.693981210930062,1.625
-22.5,4.681709364626977,4.0625
-22.5,4.6878452877785195,1.625
-22.5,4.700117134081604,0.8125
-22.5,4.700117134081604,0.8125
-22.5,4.693981210930062,1.625
-22.5,4.693981210930062,1.625
-22.5,4.700117134081604,0.8125
-22.5,4.700117134081604,0.8125
-22.5,4.6878452877785195,2.4375
-22.5,4.6878452877785195,2.4375
-22.5,4.6878452877785195,2.4375
-22.5,4.693981210930062,1.625
-22.5,4.700117134081604,0.8125
-23.0,4.693981210930062,1.625
-22.5,4.693981210930062,1.625
-22.5,4.6878452877785195,2.4375
-22.5,4.693981210930062,1.625
-22.5,4.693981210930062,1.625
-22.5,4.681709364626977,4.0625
-22.5,4.700117134081604,0.8125
-22.5,4.700117134081604,0.8125
-23.0,4.693981210930062,1.625
-23.0,4.700117134081604,0.8125
-22.5,4.700117134081604,0.8125
-23.0,4.700117134081604,0.8125
-22.5,4.693981210930062,1.625
-22.5,4.693981210930062,1.625
-22.5,4.6878452877785195,2.4375
-22.5,4.693981210930062,1.625
-22.5,4.6878452877785195,2.4375
-23.0,4.700117134081604,0.8125
-22.5,4.700117134081604,0.8125
-22.5,4.6878452877785195,2.4375
-22.5,4.693981210930062,0.8125
-22.5,4.693981210930062,1.625
-22.5,4.6878452877785195,2.4375
-22.5,4.6878452877785195,2.4375
-22.5,4.706253057233147,0.0
-22.5,4.6878452877785195,2.4375
-22.5,4.693981210930062,1.625
-22.5,4.693981210930062,1.625
-22.5,4.6878452877785195,2.4375
-22.5,4.700117134081604,0.8125
-22.5,4.693981210930062,1.625
-22.5,4.6878452877785195,2.4375
-22.5,4.681709364626977,4.0625
-22.5,4.693981210930062,1.625
-22.5,4.700117134081604,0.8125
-22.5,4.6878452877785195,2.4375
-22.5,4.681709364626977,4.0625
-22.0,4.700117134081604,1.625
-22.5,4.693981210930062,1.625
-22.5,4.700117134081604,0.8125
-22.0,4.693981210930062,1.625
-22.0,4.700117134081604,1.625
-22.0,4.700117134081604,1.625
-22.0,4.700117134081604,0.8125
-22.0,4.700117134081604,1.625
-22.0,4.700117134081604,0.8125
-21.5,4.700117134081604,1.625
-22.0,4.700117134081604,1.625
-21.5,4.700117134081604,0.8125
-21.5,4.693981210930062,1.625
-21.5,4.700117134081604,1.625
-21.5,4.700117134081604,1.625
-21.5,4.693981210930062,1.625
-21.5,4.700117134081604,0.8125
-21.5,4.700117134081604,0.8125
-21.5,4.700117134081604,0.8125
-21.5,4.700117134081604,0.8125
-21.0,4.700117134081604,0.8125
-21.5,4.700117134081604,0.8125
-21.0,4.693981210930062,1.625
-21.5,4.693981210930062,1.625
-21.5,4.693981210930062,1.625
-21.0,4.693981210930062,1.625
-21.5,4.700117134081604,0.8125
-21.0,4.693981210930062,1.625
-21.5,4.700117134081604,0.8125
-21.0,4.693981210930062,1.625
-21.0,4.693981210930062,1.625
-21.0,4.693981210930062,1.625
-21.5,4.693981210930062,1.625
-21.0,4.693981210930062,1.625
-21.5,4.700117134081604,0.8125
-22.0,4.693981210930062,1.625
-22.0,4.693981210930062,1.625
-22.5,4.681709364626977,4.0625
-23.0,4.700117134081604,0.8125
-26.5,4.693981210930062,1.625
-27.0,3.5711072741977725,-0.8125
-27.0,3.6815538909255388,-2.4375
-26.5,3.693825737228624,2.4375
-26.5,3.663146121470911,10.5625
-26.0,3.736777199289422,0.8125
-26.0,3.749049045592507,0.0
-25.5,3.736777199289422,0.8125
-26.0,3.749049045592507,-1.625
-25.5,3.730641276137879,0.0
-25.0,3.718369429834794,-1.625
-25.0,3.693825737228624,0.0
-25.0,3.6754179677739964,-1.625
-25.0,3.6447383520162835,0.8125
-25.0,3.6386024288647407,-0.8125
-25.0,3.6017868899554855,0.8125
-25.0,3.5711072741977725,0.8125
-24.5,3.5588354278946874,0.8125
-24.5,3.5158839658338894,1.625
-24.5,3.485204350076177,2.4375
-24.5,3.485204350076177,1.625
-24.5,3.448388811166921,4.875
-25.0,3.442252888015379,2.4375
-24.5,3.429981041712294,0.8125
-24.5,3.393165502803038,5.6875
-24.5,3.399301425954581,0.8125
-25.0,3.380893656499953,1.625
-25.0,3.3747577333484107,2.4375
-25.0,3.368621810196868,4.0625
-25.0,3.368621810196868,1.625
-25.5,3.368621810196868,1.625
-25.0,3.3624858870453256,2.4375
-25.5,3.3747577333484107,4.0625
-25.5,3.380893656499953,2.4375
-25.0,3.393165502803038,4.0625
-25.0,3.411573272257666,0.0
-25.5,3.411573272257666,1.625
-25.5,3.4177091954092087,1.625
-25.5,3.411573272257666,2.4375
-25.0,3.423845118560751,1.625
-25.5,3.411573272257666,4.0625
-25.0,3.4177091954092087,0.8125
-25.0,3.399301425954581,4.0625
-25.0,3.4054373491061236,1.625
-25.0,3.4054373491061236,1.625
-25.0,3.399301425954581,0.8125
-25.0,3.393165502803038,4.0625
-25.5,3.4054373491061236,0.0
-25.5,3.411573272257666,0.0
-25.0,3.399301425954581,1.625
-25.0,3.399301425954581,1.625
-25.5,3.4054373491061236,1.625
-25.0,3.4054373491061236,0.8125
-25.5,3.4054373491061236,2.4375
-25.0,3.393165502803038,4.0625
-25.0,3.4054373491061236,4.875
-25.0,3.393165502803038,4.875
-25.0,3.4054373491061236,1.625
-25.0,3.4054373491061236,1.625
-25.5,3.399301425954581,4.875
-25.0,3.3502140407422405,7.3125
-25.5,3.3502140407422405,3.25
-25.5,3.356349963893783,2.4375
-25.5,3.3502140407422405,4.875
-25.0,3.3624858870453256,2.4375
-25.0,3.3624858870453256,1.625
-25.5,3.356349963893783,4.875
-25.0,3.3502140407422405,2.4375
-25.0,3.3502140407422405,4.875
-25.0,3.356349963893783,2.4375
-25.5,3.356349963893783,2.4375
-25.5,3.3502140407422405,4.875
-25.0,3.3440781175906977,4.875
-25.5,3.3440781175906977,4.875
-25.0,3.356349963893783,4.0625
-25.5,3.3440781175906977,4.875
-25.5,3.368621810196868,1.625
-25.0,3.356349963893783,2.4375
-25.5,3.3502140407422405,4.875
-25.0,3.3440781175906977,4.875
-25.0,3.368621810196868,1.625
-25.5,3.3502140407422405,3.25
-25.0,3.3747577333484107,0.0
-25.0,3.3440781175906977,4.875
-25.5,3.356349963893783,3.25
-25.5,3.3502140407422405,4.875
-25.5,3.3440781175906977,4.875
-25.5,3.356349963893783,2.4375
-25.0,3.3502140407422405,4.0625
-25.5,3.3502140407422405,4.0625
-25.5,3.3440781175906977,4.875
-25.5,3.3440781175906977,4.875
-25.5,3.3379421944391554,5.6875
-25.0,3.3502140407422405,3.25
-25.5,3.3379421944391554,5.6875
-25.5,3.3440781175906977,7.3125
-25.0,3.3502140407422405,2.4375
-25.5,3.3502140407422405,2.4375
-25.0,3.356349963893783,1.625
-25.0,3.356349963893783,2.4375
-25.5,3.3502140407422405,2.4375
-25.0,3.3502140407422405,4.0625
-25.0,3.3502140407422405,3.25
-25.5,3.3502140407422405,3.25
-25.0,3.3502140407422405,1.625
-25.0,3.3624858870453256,4.0625
-25.5,3.3502140407422405,2.4375
-25.5,3.356349963893783,2.4375
-25.5,3.3440781175906977,4.875
-25.5,3.3440781175906977,4.875
-25.0,3.3502140407422405,3.25
-25.5,3.356349963893783,1.625
-25.0,3.3440781175906977,4.875
-25.0,3.356349963893783,2.4375
-25.5,3.3624858870453256,5.6875
-25.0,3.3624858870453256,3.25
-25.0,3.3502140407422405,2.4375
-25.5,3.3502140407422405,4.875
-25.0,3.356349963893783,2.4375
-25.0,3.3440781175906977,5.6875
-25.0,3.356349963893783,2.4375
-25.5,3.356349963893783,2.4375
-25.0,3.368621810196868,0.8125
-25.5,3.356349963893783,2.4375
-25.5,3.3747577333484107,0.0
-25.0,3.3502140407422405,4.0625
-25.0,3.3624858870453256,1.625
-25.0,3.3502140407422405,2.4375
-25.5,3.356349963893783,2.4375
-25.5,3.3624858870453256,2.4375
-25.5,3.3502140407422405,4.875
-25.5,3.356349963893783,7.3125
-25.0,3.3624858870453256,1.625
-25.0,3.3624858870453256,1.625
-25.0,3.356349963893783,3.25
-25.0,3.356349963893783,1.625
-25.0,3.356349963893783,2.4375
-25.5,3.3502140407422405,3.25
-25.5,3.3624858870453256,1.625
-25.0,3.3747577333484107,0.8125
-25.5,3.368621810196868,0.8125
-25.5,3.3624858870453256,1.625
-25.5,3.3502140407422405,4.875
-25.5,3.3440781175906977,4.875
-25.0,3.368621810196868,0.8125
-25.5,3.3502140407422405,3.25
-25.0,3.3440781175906977,4.0625
-25.0,3.3440781175906977,4.875
-25.5,3.356349963893783,2.4375
-25.0,3.3440781175906977,4.875
-25.5,3.356349963893783,2.4375
-25.0,3.356349963893783,1.625
-25.5,3.368621810196868,0.0
-25.0,3.356349963893783,1.625
-25.5,3.3502140407422405,2.4375
-25.5,3.3440781175906977,4.875
-25.5,3.380893656499953,-1.625
-25.5,3.3624858870453256,0.8125
-25.0,3.3624858870453256,1.625
-25.0,3.3502140407422405,4.0625
-25.0,3.356349963893783,4.875
-25.5,3.356349963893783,2.4375
-25.0,3.368621810196868,0.0
-25.0,3.356349963893783,1.625
-25.0,3.3502140407422405,4.0625
-25.0,3.3440781175906977,5.6875
-25.5,3.3502140407422405,3.25
-25.5,3.3379421944391554,6.5
-25.5,3.368621810196868,0.8125
-25.5,3.3440781175906977,4.875
-25.0,3.3624858870453256,0.0
-25.0,3.3624858870453256,0.8125
-25.5,3.3502140407422405,2.4375
-25.5,3.368621810196868,0.8125
-25.5,3.3624858870453256,0.0
-25.0,3.3624858870453256,0.8125
-25.5,3.3624858870453256,0.8125
-25.5,3.3624858870453256,1.625
-25.5,3.3502140407422405,2.4375
-25.5,3.3502140407422405,2.4375
-25.5,3.3624858870453256,1.625
-25.0,3.356349963893783,2.4375
-25.5,3.3502140407422405,4.0625
-25.0,3.3502140407422405,2.4375
-25.0,3.3440781175906977,3.25
-25.0,3.3502140407422405,2.4375
-25.5,3.3502140407422405,3.25
-25.5,3.3440781175906977,4.875
-25.5,3.3440781175906977,4.875
-25.5,3.3624858870453256,1.625
-25.0,3.3440781175906977,4.875
-25.5,3.3379421944391554,5.6875
-25.0,3.3440781175906977,3.25
-25.5,3.3440781175906977,4.875
-25.5,3.3502140407422405,4.875
-25.5,3.356349963893783,2.4375
-25.0,3.3440781175906977,4.875
-25.0,3.356349963893783,2.4375
-25.5,3.3502140407422405,4.875
-25.0,3.368621810196868,3.25
-25.5,3.356349963893783,2.4375
-25.0,3.3502140407422405,2.4375
-25.5,3.3440781175906977,4.0625
-25.5,3.3502140407422405,2.4375
-25.5,3.356349963893783,3.25
-25.0,3.368621810196868,0.0
-25.0,3.356349963893783,1.625
-25.5,3.356349963893783,1.625
-25.5,3.3502140407422405,6.5
-25.0,3.3502140407422405,3.25
-25.0,3.3502140407422405,4.0625
-25.5,3.356349963893783,2.4375
-25.5,3.3502140407422405,3.25
-25.0,3.3624858870453256,1.625
-25.5,3.3624858870453256,1.625
-25.5,3.3502140407422405,3.25
-25.0,3.356349963893783,2.4375
-25.0,3.368621810196868,0.8125
-25.5,3.3502140407422405,3.25
-25.5,3.356349963893783,2.4375
-25.5,3.356349963893783,2.4375
-25.0,3.356349963893783,1.625
-25.0,3.356349963893783,1.625
-25.0,3.3502140407422405,3.25
-25.0,3.356349963893783,2.4375
-25.5,3.3624858870453256,3.25
-25.5,3.3502140407422405,3.25
-25.0,3.3624858870453256,1.625
-25.0,3.356349963893783,2.4375
-25.0,3.3502140407422405,2.4375
-25.5,3.3502140407422405,2.4375
-25.5,3.356349963893783,3.25
-25.5,3.356349963893783,2.4375
-25.5,3.368621810196868,0.8125
-25.0,3.3502140407422405,3.25
-25.0,3.3502140407422405,1.625
-25.5,3.356349963893783,2.4375
-25.0,3.3624858870453256,0.8125
-25.0,3.3502140407422405,3.25
-25.0,3.356349963893783,2.4375
-25.0,3.356349963893783,2.4375
-25.5,3.368621810196868,2.4375
-25.5,3.3502140407422405,3.25
-25.0,3.356349963893783,3.25
-25.0,3.3747577333484107,0.0
-25.5,3.3502140407422405,1.625
-25.5,3.356349963893783,2.4375
-25.0,3.3502140407422405,2.4375
-25.5,3.3502140407422405,3.25
-25.0,3.3440781175906977,4.875
-25.5,3.3440781175906977,3.25
-25.0,3.3502140407422405,2.4375
-25.5,3.3440781175906977,4.0625
-25.5,3.3624858870453256,1.625
-25.5,3.3502140407422405,3.25
-25.5,3.356349963893783,1.625
-25.0,3.3440781175906977,4.875
-25.5,3.3440781175906977,4.875
-25.5,3.356349963893783,2.4375
-25.5,3.3502140407422405,3.25
-25.5,3.356349963893783,2.4375
-25.0,3.3502140407422405,3.25
-25.5,3.3502140407422405,3.25
-25.0,3.3624858870453256,0.8125
-25.0,3.356349963893783,2.4375
-25.0,3.356349963893783,2.4375
-25.5,3.3440781175906977,4.875
-25.0,3.3502140407422405,2.4375
-25.5,3.3502140407422405,3.25
-25.5,3.3502140407422405,3.25
-25.5,3.3440781175906977,4.875
-25.0,3.3624858870453256,0.8125
-25.0,3.356349963893783,1.625
-25.5,3.3502140407422405,2.4375
-25.0,3.3747577333484107,0.0
-25.0,3.3624858870453256,1.625
-25.5,3.356349963893783,3.25
-25.0,3.356349963893783,2.4375
-25.5,3.3440781175906977,5.6875
-25.0,3.356349963893783,2.4375
-25.0,3.3502140407422405,5.6875
-25.5,3.3502140407422405,2.4375
-25.5,3.3502140407422405,2.4375
-25.5,3.356349963893783,2.4375
-25.5,3.3502140407422405,3.25
-25.0,3.3502140407422405,4.0625
-25.5,3.368621810196868,0.0
-25.0,3.356349963893783,2.4375
-25.5,3.3502140407422405,4.0625
-25.0,3.356349963893783,2.4375
-25.0,3.356349963893783,1.625
-25.0,3.3440781175906977,3.25
-25.5,3.3502140407422405,4.875
-25.0,3.3502140407422405,2.4375
-25.0,3.3502140407422405,1.625
-25.0,3.356349963893783,4.0625
-25.0,3.3502140407422405,2.4375
-25.5,3.356349963893783,2.4375
-25.0,3.3440781175906977,4.875
-25.0,3.356349963893783,1.625
-25.5,3.3624858870453256,0.8125
-25.0,3.356349963893783,3.25
-25.5,3.3502140407422405,3.25
-25.0,3.3440781175906977,4.875
-25.5,3.3624858870453256,2.4375
-25.0,3.3502140407422405,2.4375
-25.5,3.356349963893783,1.625
-25.5,3.3440781175906977,4.875
-25.0,3.356349963893783,2.4375
-25.0,3.3440781175906977,9.75
-25.0,3.356349963893783,3.25
-25.5,3.3502140407422405,4.0625
-25.0,3.3502140407422405,3.25
-25.0,3.3502140407422405,6.5
-25.5,3.3502140407422405,4.875
-25.0,3.356349963893783,1.625
-25.5,3.356349963893783,5.6875
-25.0,3.356349963893783,2.4375
-25.5,3.356349963893783,2.4375
-25.5,3.3440781175906977,5.6875
-25.0,3.3502140407422405,3.25
-25.0,3.368621810196868,0.0
-25.5,3.3502140407422405,3.25
-25.0,3.3502140407422405,2.4375
-25.0,3.356349963893783,2.4375
-25.5,3.3440781175906977,9.75
-25.5,3.3502140407422405,3.25
-25.0,3.3502140407422405,2.4375
-25.5,3.3502140407422405,3.25
-25.5,3.356349963893783,1.625
-25.5,3.3502140407422405,3.25
-25.5,3.3502140407422405,2.4375
-25.5,3.3624858870453256,0.8125
-25.5,3.356349963893783,2.4375
-25.0,3.3502140407422405,6.5
-25.0,3.3502140407422405,3.25
-25.5,3.3624858870453256,1.625
-25.0,3.3502140407422405,4.0625
-25.0,3.368621810196868,0.8125
-25.5,3.3624858870453256,1.625
-25.5,3.3502140407422405,3.25
-25.5,3.3502140407422405,2.4375
-25.0,3.3502140407422405,3.25
-25.5,3.356349963893783,2.4375
-25.5,3.356349963893783,3.25
-25.5,3.368621810196868,1.625
-25.0,3.3502140407422405,4.0625
-25.0,3.3502140407422405,3.25
-25.5,3.3624858870453256,1.625
-25.5,3.3440781175906977,4.875
-25.5,3.3502140407422405,2.4375
-25.0,3.3747577333484107,0.0
-25.5,3.3440781175906977,4.875
-25.5,3.3502140407422405,3.25
-25.5,3.3502140407422405,2.4375
-25.0,3.3502140407422405,4.0625
-25.0,3.356349963893783,2.4375
-25.5,3.3379421944391554,4.875
-25.0,3.3379421944391554,5.6875
-25.0,3.3440781175906977,5.6875
-25.0,3.3440781175906977,4.875
-25.5,3.3502140407422405,5.6875
-25.5,3.3502140407422405,3.25
-25.0,3.3440781175906977,4.875
-25.5,3.3440781175906977,4.875
-25.5,3.3502140407422405,2.4375
-25.0,3.368621810196868,0.8125
-25.5,3.3440781175906977,4.875
-25.5,3.3502140407422405,2.4375
-25.5,3.3440781175906977,4.875
-25.5,3.3440781175906977,4.875
-25.5,3.356349963893783,1.625
-25.0,3.3502140407422405,3.25
-25.5,3.3502140407422405,2.4375
-25.0,3.3440781175906977,4.875
-25.5,3.3502140407422405,2.4375
-25.5,3.3624858870453256,0.8125
-25.0,3.368621810196868,0.8125
-25.0,3.356349963893783,2.4375
-25.5,3.3502140407422405,3.25
-25.5,3.3502140407422405,3.25
-25.5,3.3624858870453256,0.8125
-25.5,3.3379421944391554,5.6875
-25.5,3.3502140407422405,3.25
-25.0,3.368621810196868,0.8125
-25.0,3.3502140407422405,3.25
-25.5,3.3440781175906977,3.25
-25.0,3.3624858870453256,0.8125
-25.0,3.3502140407422405,2.4375
-25.0,3.3502140407422405,5.6875
-25.0,3.356349963893783,2.4375
-25.5,3.356349963893783,4.875
-25.0,3.3502140407422405,2.4375
-25.5,3.356349963893783,2.4375
-25.5,3.356349963893783,1.625
-25.5,3.368621810196868,1.625
-25.0,3.3624858870453256,1.625
-25.5,3.3379421944391554,5.6875
-25.0,3.3502140407422405,2.4375
-25.0,3.3440781175906977,3.25
-25.5,3.3502140407422405,3.25
-25.5,3.3440781175906977,3.25
-25.0,3.3440781175906977,3.25
-25.0,3.3502140407422405,2.4375
-25.5,3.3624858870453256,1.625
-25.5,3.356349963893783,1.625
-25.0,3.3624858870453256,2.4375
-25.5,3.3624858870453256,1.625
-25.0,3.3502140407422405,2.4375
-25.0,3.3624858870453256,0.8125
-25.0,3.368621810196868,0.8125
-25.5,3.368621810196868,0.8125
-25.0,3.3624858870453256,0.8125
-25.0,3.3502140407422405,2.4375
-25.5,3.3624858870453256,2.4375
-25.0,3.3440781175906977,4.875
-25.0,3.356349963893783,2.4375
-25.0,3.356349963893783,2.4375
-25.5,3.3624858870453256,1.625
-25.0,3.3624858870453256,3.25
-25.0,3.3502140407422405,3.25
-25.0,3.3747577333484107,0.8125
-25.5,3.3624858870453256,1.625
-25.0,3.3624858870453256,3.25
-25.0,3.3624858870453256,3.25
-25.5,3.356349963893783,4.875
-25.5,3.356349963893783,4.875
-25.5,3.356349963893783,4.875
-25.5,3.356349963893783,3.25
-25.0,3.368621810196868,3.25
-25.5,3.356349963893783,3.25
-25.5,3.3747577333484107,0.8125
-25.0,3.3624858870453256,2.4375
-25.5,3.368621810196868,2.4375
-25.5,3.368621810196868,3.25
-25.0,3.368621810196868,2.4375
-25.0,3.368621810196868,3.25
-25.0,3.356349963893783,4.0625
-25.5,3.368621810196868,3.25
-25.5,3.368621810196868,2.4375
-25.5,3.368621810196868,2.4375
-25.0,3.3747577333484107,3.25
-25.0,3.3747577333484107,1.625
-25.5,3.380893656499953,0.8125
-25.5,3.3747577333484107,3.25
-25.5,3.3747577333484107,2.4375
-25.5,3.3747577333484107,3.25
-25.5,3.3747577333484107,2.4375
-25.5,3.380893656499953,1.625
-25.5,3.3870295796514958,0.8125
-25.0,3.3747577333484107,2.4375
-25.5,3.3747577333484107,4.875
-25.0,3.393165502803038,5.6875
-25.0,3.380893656499953,1.625
-25.0,3.3870295796514958,1.625
-25.5,3.3747577333484107,3.25
-25.5,3.380893656499953,3.25
-25.0,3.380893656499953,3.25
-25.0,3.3870295796514958,1.625
-25.0,3.3870295796514958,0.8125
-25.5,3.380893656499953,2.4375
-25.5,3.3747577333484107,3.25
-25.5,3.380893656499953,3.25
-25.5,3.3747577333484107,2.4375
-25.5,3.380893656499953,4.875
-25.5,3.3747577333484107,3.25
-25.0,3.393165502803038,0.8125
-25.5,3.380893656499953,4.875
-25.0,3.3747577333484107,3.25
-25.5,3.3747577333484107,4.875
-25.5,3.380893656499953,3.25
-25.5,3.3870295796514958,2.4375
-25.0,3.3870295796514958,3.25
-25.5,3.3870295796514958,2.4375
-25.0,3.3870295796514958,3.25
-25.0,3.3870295796514958,2.4375
-25.5,3.380893656499953,3.25
-25.0,3.380893656499953,4.875
-25.0,3.380893656499953,4.0625
-25.0,3.393165502803038,2.4375
-25.0,3.393165502803038,2.4375
-25.5,3.411573272257666,0.0
-25.0,3.3870295796514958,4.875
-25.0,3.399301425954581,2.4375
-25.0,3.393165502803038,2.4375
-25.0,3.399301425954581,1.625
-25.0,3.4054373491061236,4.875
-25.5,3.393165502803038,3.25
-25.5,3.399301425954581,5.6875
-25.0,3.4177091954092087,0.0
-25.0,3.4177091954092087,2.4375
-25.0,3.4054373491061236,0.8125
-25.0,3.4054373491061236,2.4375
-25.0,3.4054373491061236,1.625
-25.5,3.4177091954092087,0.0
-25.0,3.423845118560751,0.0
-25.5,3.4054373491061236,2.4375
-25.0,3.4054373491061236,3.25
-25.0,3.399301425954581,4.0625
-25.5,3.4177091954092087,1.625
-25.0,3.399301425954581,3.25
-25.0,3.399301425954581,3.25
-25.0,3.4054373491061236,3.25
-25.0,3.4054373491061236,4.875
-25.0,3.411573272257666,3.25
-25.5,3.4054373491061236,2.4375
-25.0,3.4177091954092087,1.625
-25.0,3.4054373491061236,3.25
-25.5,3.423845118560751,1.625
-25.5,3.4054373491061236,4.875
-25.0,3.399301425954581,4.875
-25.0,3.4177091954092087,1.625
-25.5,3.4054373491061236,4.875
-25.5,3.411573272257666,2.4375
-25.0,3.4177091954092087,2.4375
-25.0,3.411573272257666,3.25
-25.0,3.429981041712294,0.8125
-25.0,3.4177091954092087,4.0625
-25.0,3.442252888015379,0.0
-25.5,3.411573272257666,3.25
-25.5,3.423845118560751,0.8125
-25.5,3.423845118560751,0.8125
-25.0,3.423845118560751,1.625
-25.0,3.423845118560751,1.625
-25.0,3.423845118560751,0.8125
-25.0,3.4177091954092087,2.4375
-25.5,3.411573272257666,2.4375
-25.0,3.411573272257666,3.25
-25.5,3.423845118560751,1.625
-25.0,3.4177091954092087,2.4375
-25.0,3.411573272257666,4.875
-25.0,3.4177091954092087,1.625
-25.5,3.411573272257666,2.4375
-25.0,3.411573272257666,2.4375
-25.5,3.4177091954092087,2.4375
-25.0,3.436116964863836,-0.8125
-25.0,3.411573272257666,3.25
-25.5,3.411573272257666,1.625
-25.0,3.4177091954092087,6.5
-25.5,3.4054373491061236,3.25
-25.5,3.399301425954581,4.875
-25.0,3.411573272257666,2.4375
-25.0,3.411573272257666,2.4375
-25.0,3.429981041712294,0.0
-25.5,3.4054373491061236,3.25
-25.0,3.411573272257666,1.625
-25.0,3.411573272257666,1.625
-25.0,3.399301425954581,3.25
-25.5,3.411573272257666,1.625
-25.5,3.411573272257666,1.625
-25.0,3.411573272257666,2.4375
-25.5,3.4054373491061236,3.25
-25.5,3.399301425954581,3.25
-25.0,3.399301425954581,7.3125
-25.0,3.399301425954581,3.25
-25.0,3.4054373491061236,2.4375
-25.0,3.399301425954581,3.25
