-37.5,0.6872233929727672,2.4375
-37.5,0.6872233929727672,4.875
-37.5,0.6994952392758523,2.4375
-38.0,0.6994952392758523,4.0625
-37.5,0.6933593161243098,4.875
-38.0,0.6994952392758523,4.0625
-37.5,0.705631162427395,0.8125
-37.5,0.705631162427395,4.0625
-37.5,0.705631162427395,4.0625
-38.0,0.7240389318820226,0.0
-38.0,0.705631162427395,4.0625
-38.0,0.6994952392758523,4.0625
-38.0,0.7240389318820226,0.0
-38.0,0.705631162427395,4.875
-38.0,0.7240389318820226,-1.625
-38.0,0.6872233929727672,8.9375
-38.0,0.7179030087304801,4.0625
-38.0,0.7363107781851077,-0.8125
-38.0,0.7117670855789375,4.0625
-38.0,0.7240389318820226,0.0
-37.5,0.7424467013366504,-0.8125
-38.0,0.7117670855789375,2.4375
-38.0,0.7240389318820226,1.625
-38.0,0.7117670855789375,4.875
-38.0,0.705631162427395,4.0625
-38.0,0.7179030087304801,4.0625
-37.5,0.7179030087304801,1.625
-38.0,0.7179030087304801,-1.625
-38.0,0.7363107781851077,0.0
-38.0,0.7240389318820226,0.8125
-38.5,0.7240389318820226,2.4375
-37.5,0.7240389318820226,0.8125
-38.0,0.7301748550335652,0.0
-37.5,0.705631162427395,7.3125
-38.0,0.7363107781851077,0.0
-38.0,0.7363107781851077,0.0
-38.0,0.7424467013366504,-0.8125
-38.5,0.7424467013366504,-0.8125
-38.0,0.705631162427395,4.875
-38.5,0.7363107781851077,0.0
-38.0,0.7301748550335652,1.625
-38.5,0.7117670855789375,4.875
-38.0,0.7301748550335652,2.4375
-37.5,0.7179030087304801,2.4375
-38.0,0.7117670855789375,4.875
-38.0,0.7363107781851077,0.0
-38.0,0.7179030087304801,2.4375
-38.0,0.7179030087304801,4.0625
-37.5,0.7363107781851077,-0.8125
-38.0,0.7240389318820226,1.625
-38.0,0.7117670855789375,1.625
-38.0,0.7179030087304801,4.875
-38.0,0.7424467013366504,1.625
-37.5,0.6994952392758523,6.5
-38.0,0.7363107781851077,0.8125
-38.0,0.7179030087304801,1.625
-38.0,0.7363107781851077,0.0
-38.0,0.7179030087304801,0.8125
-38.0,0.7363107781851077,0.8125
-38.0,0.7240389318820226,1.625
-38.0,0.7363107781851077,0.0
-38.0,0.7117670855789375,5.6875
-38.0,0.7179030087304801,2.4375
-38.0,0.705631162427395,4.875
-37.5,0.7117670855789375,4.0625
-38.0,0.7301748550335652,0.8125
-38.0,0.6994952392758523,5.6875
-38.0,0.7363107781851077,-1.625
-38.0,0.6994952392758523,4.875
-38.0,0.7301748550335652,2.4375
-38.0,0.7240389318820226,2.4375
-38.0,0.7179030087304801,1.625
-38.0,0.7301748550335652,1.625
-38.0,0.7240389318820226,2.4375
-38.0,0.7117670855789375,5.6875
-38.0,0.7485826244881929,-2.4375
-38.0,0.7240389318820226,4.0625
-38.0,0.7363107781851077,0.0
-38.0,0.7363107781851077,1.625
-38.0,0.7179030087304801,4.875
-38.0,0.7363107781851077,0.8125
-38.0,0.7179030087304801,4.0625
-38.0,0.7240389318820226,1.625
-38.0,0.7363107781851077,-1.625
-38.0,0.7301748550335652,-0.8125
-38.0,0.7240389318820226,4.0625
-38.0,0.7117670855789375,4.875
-38.0,0.7424467013366504,0.0
-38.0,0.7301748550335652,0.0
-38.0,0.7117670855789375,4.0625
-38.0,0.705631162427395,4.0625
-38.0,0.7240389318820226,4.0625
-38.0,0.7363107781851077,1.625
-38.0,0.7363107781851077,0.8125
-38.0,0.7117670855789375,5.6875
-38.5,0.7424467013366504,0.8125
-38.0,0.7424467013366504,0.8125
-38.0,0.7424467013366504,0.8125
-38.0,0.7485826244881929,0.8125
-38.0,0.7485826244881929,0.0
-38.0,0.7424467013366504,4.0625
-38.5,0.7363107781851077,4.875
-38.0,0.7363107781851077,2.4375
-38.0,0.7547185476397354,0.8125
-38.0,0.7363107781851077,4.875
-38.0,0.7485826244881929,4.875
-38.0,0.7547185476397354,4.0625
-38.0,0.7485826244881929,0.8125
-38.5,0.7547185476397354,0.8125
-38.5,0.7547185476397354,2.4375
-38.0,0.7547185476397354,2.4375
-38.0,0.7485826244881929,4.0625
-38.0,0.760854470791278,2.4375
-38.0,0.7669903939428205,0.8125
-38.5,0.760854470791278,1.625
-38.5,0.7485826244881929,4.0625
-38.0,0.7669903939428205,1.625
-38.5,0.7485826244881929,4.0625
-38.0,0.7547185476397354,4.0625
-37.5,0.7547185476397354,6.5
-38.0,0.7731263170943632,1.625
-38.0,0.7485826244881929,4.0625
-38.5,0.7547185476397354,4.0625
-38.5,0.7853981633974483,-1.625
-38.5,0.7669903939428205,0.8125
-38.0,0.7485826244881929,4.875
-38.0,0.760854470791278,1.625
-38.0,0.760854470791278,2.4375
-38.5,0.7669903939428205,0.0
-38.0,0.7547185476397354,1.625
-38.0,0.7485826244881929,4.875
-38.5,0.760854470791278,0.0
-38.0,0.7547185476397354,0.8125
-38.5,0.7363107781851077,4.875
-38.0,0.7485826244881929,4.0625
-38.0,0.7363107781851077,5.6875
-38.0,0.7485826244881929,4.0625
-38.5,0.7240389318820226,2.4375
-38.5,0.7301748550335652,4.875
-38.0,0.7301748550335652,4.0625
-38.0,0.7301748550335652,4.0625
-38.5,0.7424467013366504,0.0
-38.5,0.7363107781851077,0.0
-38.0,0.7240389318820226,1.625
-38.5,0.7240389318820226,5.6875
-38.0,0.7363107781851077,0.0
-38.5,0.7363107781851077,1.625
-38.0,0.7363107781851077,4.875
-38.5,0.7301748550335652,0.8125
-38.0,0.7117670855789375,4.875
-38.0,0.7179030087304801,1.625
-38.5,0.7424467013366504,-0.8125
-38.5,0.7179030087304801,0.8125
-38.0,0.6933593161243098,5.6875
-38.0,0.6994952392758523,4.0625
-38.0,0.7179030087304801,0.8125
-38.0,0.705631162427395,1.625
-38.0,0.705631162427395,0.8125
-38.0,0.7179030087304801,-1.625
-38.0,0.6872233929727672,4.875
-38.0,0.6994952392758523,0.0
-38.0,0.6810874698212247,4.875
-38.0,0.6872233929727672,2.4375
-38.0,0.6749515466696822,4.0625
-38.0,0.6504078540635119,8.125
-38.0,0.6872233929727672,1.625
-38.0,0.6749515466696822,1.625
-38.0,0.6810874698212247,1.625
-38.5,0.6872233929727672,2.4375
-38.0,0.6810874698212247,1.625
-38.0,0.6442719309119693,6.5
-38.0,0.6810874698212247,0.0
-38.0,0.6872233929727672,-0.8125
-38.0,0.6688156235181395,2.4375
-38.0,0.6565437772150544,4.875
-38.5,0.6565437772150544,4.875
-38.0,0.6810874698212247,4.0625
-38.0,0.6565437772150544,2.4375
-38.0,0.6504078540635119,2.4375
-38.0,0.6442719309119693,4.0625
-38.0,0.6258641614573416,5.6875
-38.0,0.6258641614573416,8.125
-38.0,0.6442719309119693,4.0625
-38.0,0.6258641614573416,5.6875
-37.5,0.6320000846088841,4.0625
-38.0,0.619728238305799,4.875
-38.0,0.6135923151542565,5.6875
-38.0,0.607456392002714,7.3125
-37.5,0.607456392002714,5.6875
-38.0,0.6013204688511713,6.5
-37.5,0.6013204688511713,5.6875
-38.0,0.607456392002714,4.0625
-38.0,0.5829126993965437,6.5
-38.0,0.6013204688511713,4.0625
-38.0,0.5645049299419159,4.875
-37.5,0.5583690067903734,4.875
-38.0,0.5583690067903734,2.4375
-38.0,0.5460971604872883,4.875
-37.5,0.5645049299419159,1.625
-37.5,0.5522330836388308,4.875
-37.5,0.5706408530934585,0.0
-37.5,0.5276893910326605,5.6875
-38.0,0.5338253141842031,0.8125
-38.0,0.5154175447295755,4.875
-37.5,0.5031456984264903,4.875
-37.5,0.47860200582032003,2.4375
-38.0,0.4540583132141498,4.0625
-37.5,0.4479223900626072,4.0625
-38.0,0.4172427743048944,5.6875
-38.0,0.4049709280018093,4.0625
-38.5,0.4049709280018093,4.875
-38.0,0.4111068511533518,4.0625
-38.5,0.3988350048502667,5.6875
-38.0,0.4049709280018093,6.5
-38.5,0.4049709280018093,4.0625
-38.5,0.3865631585471816,6.5
-38.5,0.3988350048502667,4.875
-38.5,0.3988350048502667,5.6875
-38.5,0.3865631585471816,6.5
-38.5,0.4049709280018093,4.0625
-38.5,0.3865631585471816,7.3125
-38.5,0.4111068511533518,4.0625
-38.5,0.3988350048502667,4.0625
-38.5,0.4111068511533518,4.0625
-39.0,0.3988350048502667,7.3125
-38.5,0.4049709280018093,7.3125
-39.0,0.4295146206079795,2.4375
-38.5,0.42337869745643697,4.0625
-38.5,0.4172427743048944,2.4375
-38.5,0.4172427743048944,2.4375
-39.0,0.4172427743048944,7.3125
-39.0,0.4111068511533518,4.875
-38.5,0.42337869745643697,4.0625
-39.0,0.44178646691106466,2.4375
-38.5,0.4295146206079795,2.4375
-38.5,0.4295146206079795,4.875
-39.0,0.4172427743048944,5.6875
-38.5,0.4172427743048944,4.875
-38.5,0.4295146206079795,2.4375
-38.5,0.4111068511533518,6.5
-39.0,0.4479223900626072,0.8125
-38.5,0.4295146206079795,4.0625
-38.5,0.4049709280018093,7.3125
-38.5,0.42337869745643697,5.6875
-38.5,0.4172427743048944,5.6875
-39.0,0.42337869745643697,8.125
-38.5,0.4172427743048944,6.5
-38.5,0.4295146206079795,4.875
-38.5,0.4356505437595221,4.875
-38.5,0.4172427743048944,5.6875
-38.5,0.4356505437595221,2.4375
-39.0,0.4295146206079795,4.875
-38.5,0.4295146206079795,6.5
-38.5,0.4356505437595221,4.0625
-38.5,0.4172427743048944,8.9375
-39.0,0.4356505437595221,5.6875
-38.5,0.4479223900626072,4.0625
-39.0,0.44178646691106466,5.6875
-38.5,0.4295146206079795,5.6875
-39.0,0.4479223900626072,2.4375
-38.5,0.44178646691106466,6.5
-38.5,0.4356505437595221,4.875
-38.5,0.46019423636569234,1.625
-38.5,0.44178646691106466,2.4375
-38.5,0.4540583132141498,4.0625
-38.5,0.4356505437595221,7.3125
-38.5,0.44178646691106466,5.6875
-38.5,0.44178646691106466,4.875
-39.0,0.4663301595172349,-0.8125
-38.5,0.46019423636569234,2.4375
-38.5,0.4479223900626072,4.875
-38.5,0.4663301595172349,0.8125
-38.5,0.4356505437595221,6.5
-38.5,0.46019423636569234,4.875
-38.0,0.44178646691106466,7.3125
-38.5,0.46019423636569234,0.0
-38.5,0.4479223900626072,6.5
-38.5,0.4540583132141498,4.0625
-38.5,0.4540583132141498,4.0625
-38.5,0.46019423636569234,7.3125
-38.5,0.4724660826687775,1.625
-38.5,0.4540583132141498,5.6875
-38.5,0.4479223900626072,5.6875
-38.5,0.4540583132141498,8.125
-38.5,0.4663301595172349,6.5
-38.5,0.47860200582032003,2.4375
-38.5,0.4724660826687775,6.5
-38.5,0.4724660826687775,6.5
-38.5,0.47860200582032003,4.875
-38.5,0.4663301595172349,8.125
-38.0,0.4663301595172349,7.3125
-38.5,0.4908738521234052,4.0625
-38.5,0.47860200582032003,7.3125
-38.5,0.4970097752749477,4.0625
-38.5,0.48473792897186263,5.6875
-38.5,0.48473792897186263,5.6875
-38.5,0.4908738521234052,4.0625
-38.5,0.4970097752749477,5.6875
-38.5,0.5031456984264903,4.875
-38.0,0.5154175447295755,0.8125
-38.0,0.4970097752749477,4.875
-38.5,0.4970097752749477,5.6875
-38.0,0.5031456984264903,6.5
-38.0,0.5092816215780329,5.6875
-38.5,0.5031456984264903,5.6875
-38.0,0.5031456984264903,6.5
-38.5,0.5092816215780329,4.875
-38.5,0.5092816215780329,6.5
-38.5,0.4970097752749477,6.5
-38.5,0.521553467881118,2.4375
-38.5,0.5092816215780329,7.3125
-38.5,0.5338253141842031,1.625
-38.5,0.5276893910326605,4.875
-38.5,0.5154175447295755,7.3125
-38.5,0.521553467881118,5.6875
-38.5,0.5399612373357456,2.4375
-38.5,0.5338253141842031,2.4375
-38.0,0.5276893910326605,7.3125
-38.5,0.5276893910326605,6.5
-38.5,0.5522330836388308,2.4375
-38.0,0.5338253141842031,7.3125
-38.5,0.5522330836388308,7.3125
-38.5,0.5583690067903734,4.875
-38.5,0.5583690067903734,7.3125
-38.5,0.5829126993965437,2.4375
-38.5,0.5706408530934585,4.0625
-38.0,0.5645049299419159,4.875
-38.5,0.5645049299419159,4.875
-38.0,0.5829126993965437,5.6875
-38.5,0.5706408530934585,5.6875
-38.5,0.5767767762450011,4.0625
-38.5,0.5829126993965437,6.5
-38.5,0.5767767762450011,5.6875
-38.0,0.5890486225480862,4.0625
-38.0,0.5890486225480862,5.6875
-38.0,0.607456392002714,4.0625
-38.0,0.5829126993965437,7.3125
-38.5,0.5951845456996288,6.5
-38.5,0.5890486225480862,6.5
-38.5,0.5890486225480862,2.4375
-38.0,0.6013204688511713,4.0625
-38.0,0.5829126993965437,5.6875
-38.0,0.607456392002714,1.625
-38.0,0.5767767762450011,6.5
-38.5,0.5890486225480862,4.875
-38.0,0.5890486225480862,6.5
-37.5,0.5706408530934585,8.125
-38.0,0.5951845456996288,4.0625
-38.0,0.5890486225480862,6.5
-37.5,0.5890486225480862,4.875
-37.5,0.5890486225480862,7.3125
-37.5,0.5890486225480862,4.875
-37.5,0.5829126993965437,6.5
-37.5,0.5951845456996288,5.6875
-38.0,0.5829126993965437,7.3125
-37.5,0.5890486225480862,4.0625
-38.0,0.5706408530934585,6.5
-37.5,0.5645049299419159,4.875
-37.5,0.5706408530934585,4.875
-37.5,0.5583690067903734,4.875
-37.5,0.5399612373357456,7.3125
-37.0,0.5399612373357456,5.6875
-37.0,0.521553467881118,8.125
-37.5,0.5460971604872883,1.625
-37.0,0.5276893910326605,1.625
-37.0,0.4908738521234052,8.125
-37.0,0.4908738521234052,6.5
-37.0,0.5031456984264903,4.875
-37.0,0.5338253141842031,0.0
-37.0,0.5031456984264903,1.625
-36.5,0.48473792897186263,2.4375
-37.0,0.4908738521234052,2.4375
-37.5,0.4724660826687775,4.875
-37.5,0.47860200582032003,4.0625
-37.5,0.4479223900626072,6.5
-37.5,0.46019423636569234,4.0625
-37.0,0.4663301595172349,5.6875
-37.5,0.46019423636569234,5.6875
-37.5,0.46019423636569234,4.875
-37.5,0.4540583132141498,5.6875
-37.5,0.4540583132141498,6.5
-37.5,0.4540583132141498,4.875
-37.5,0.4540583132141498,4.875
-37.5,0.4479223900626072,6.5
-37.5,0.44178646691106466,7.3125
-37.5,0.4295146206079795,2.4375
-37.0,0.4111068511533518,4.875
-37.5,0.4049709280018093,4.0625
-37.5,0.42337869745643697,1.625
-38.0,0.4049709280018093,4.0625
-38.0,0.42337869745643697,0.0
-37.5,0.39269908169872414,4.0625
-37.5,0.3988350048502667,2.4375
-37.5,0.3988350048502667,4.875
-38.0,0.39269908169872414,5.6875
-37.5,0.4049709280018093,1.625
-37.5,0.36815538909255385,4.875
-37.5,0.37429131224409645,4.0625
-37.5,0.37429131224409645,2.4375
-38.0,0.36815538909255385,4.875
-38.0,0.3620194659410113,1.625
-38.0,0.3620194659410113,4.0625
-38.0,0.34974761963792617,4.0625
-38.0,0.3436116964863836,6.5
-38.0,0.35588354278946877,0.8125
-38.0,0.3313398501832985,6.5
-38.5,0.3374757733348411,5.6875
-38.0,0.3313398501832985,5.6875
-38.5,0.32520392703175593,6.5
-38.0,0.3436116964863836,4.0625
-38.0,0.3313398501832985,4.0625
-38.0,0.3436116964863836,2.4375
-38.0,0.3313398501832985,4.875
-38.0,0.32520392703175593,4.0625
-38.0,0.32520392703175593,5.6875
-38.0,0.3374757733348411,1.625
-38.0,0.3313398501832985,2.4375
-38.0,0.3129320807286708,4.875
-38.0,0.30679615757712825,5.6875
-38.0,0.3129320807286708,2.4375
-38.5,0.3129320807286708,2.4375
-38.5,0.3129320807286708,5.6875
-38.5,0.3129320807286708,4.0625
-38.0,0.2945243112740431,5.6875
-38.0,0.28225246497095796,6.5
-38.5,0.28838838812250056,7.3125
-38.0,0.30066023442558565,2.4375
-38.5,0.30066023442558565,5.6875
-38.5,0.2945243112740431,2.4375
-38.5,0.2638446955163303,4.875
-38.5,0.2945243112740431,2.4375
-38.5,0.30679615757712825,1.625
-38.5,0.28225246497095796,2.4375
-38.5,0.30066023442558565,1.625
-38.5,0.30066023442558565,0.8125
-38.5,0.28225246497095796,4.0625
-38.5,0.2945243112740431,4.0625
-38.5,0.2699806186678728,4.875
-38.0,0.25157284921324513,5.6875
-38.5,0.28838838812250056,1.625
-38.5,0.28225246497095796,4.0625
-38.5,0.2761165418194154,1.625
-38.0,0.2761165418194154,1.625
-38.5,0.2699806186678728,5.6875
-38.5,0.28225246497095796,4.0625
-38.0,0.2638446955163303,5.6875
-38.5,0.25157284921324513,4.875
-38.5,0.2699806186678728,1.625
-38.5,0.2454369260617026,6.5
-38.5,0.23930100291016002,5.6875
-38.5,0.2638446955163303,-0.8125
-38.0,0.2270291566070749,7.3125
-37.5,0.3190680038802134,4.0625
-37.5,0.36815538909255385,4.875
-37.5,0.4049709280018093,4.875
-38.5,0.4479223900626072,1.625
-38.5,0.44178646691106466,4.0625
-38.5,0.4540583132141498,5.6875
-38.5,0.4356505437595221,4.875
-38.5,0.44178646691106466,4.875
-39.0,0.4295146206079795,7.3125
-38.5,0.4295146206079795,7.3125
-39.0,0.44178646691106466,4.875
-39.0,0.4479223900626072,4.0625
-38.5,0.4356505437595221,5.6875
-39.0,0.4356505437595221,2.4375
-39.0,0.4479223900626072,4.875
-39.0,0.42337869745643697,4.875
-39.0,0.44178646691106466,4.0625
-39.0,0.4356505437595221,7.3125
-39.0,0.44178646691106466,4.875
-39.0,0.4356505437595221,5.6875
-39.0,0.46019423636569234,4.0625
-39.0,0.4663301595172349,1.625
-39.0,0.4540583132141498,2.4375
-39.0,0.4908738521234052,-0.8125
-39.0,0.4663301595172349,2.4375
-38.5,0.44178646691106466,6.5
-39.0,0.47860200582032003,0.8125
-39.0,0.4663301595172349,2.4375
-39.0,0.4724660826687775,1.625
-39.0,0.4479223900626072,4.0625
-39.0,0.47860200582032003,2.4375
-39.0,0.48473792897186263,-0.8125
-38.5,0.4540583132141498,4.875
-39.0,0.4540583132141498,4.0625
-39.0,0.47860200582032003,1.625
-38.5,0.4479223900626072,5.6875
-38.5,0.4540583132141498,2.4375
-39.0,0.44178646691106466,4.875
-39.0,0.4479223900626072,1.625
-39.0,0.4479223900626072,5.6875
-38.5,0.44178646691106466,6.5
-39.0,0.4724660826687775,0.0
-39.0,0.4479223900626072,1.625
-38.5,0.44178646691106466,4.875
-39.0,0.4479223900626072,2.4375
-39.0,0.44178646691106466,4.0625
-38.5,0.4479223900626072,2.4375
-39.0,0.4540583132141498,4.0625
-38.5,0.44178646691106466,6.5
-38.5,0.46019423636569234,2.4375
-39.0,0.4540583132141498,4.875
-39.0,0.4356505437595221,4.875
-38.5,0.4356505437595221,4.0625
-39.0,0.4540583132141498,1.625
-39.0,0.44178646691106466,5.6875
-38.5,0.4479223900626072,6.5
-38.5,0.4295146206079795,8.125
-39.0,0.4479223900626072,7.3125
