-42.5,2.1353012567368124,11.375
-42.5,2.172116795646068,8.125
-42.5,2.2027964114037806,4.875
-42.5,2.184388641949153,6.5
-42.5,2.2027964114037806,2.4375
-42.0,2.2150682577068657,1.625
-42.5,2.2150682577068657,-1.625
-42.0,2.2457478734645786,0.0
-42.0,2.1782527187976104,8.9375
-42.5,2.2150682577068657,2.4375
-42.5,2.2027964114037806,6.5
-42.5,2.1782527187976104,7.3125
-42.5,2.1905245651006955,8.9375
-42.5,2.2150682577068657,6.5
-42.5,2.2089323345553233,4.875
-42.5,2.2027964114037806,4.875
-42.5,2.1966604882522383,5.6875
-42.5,2.2027964114037806,4.875
-42.5,2.2580197197676637,-3.25
-42.5,2.184388641949153,8.9375
-42.0,2.227340104009951,2.4375
-42.5,2.1966604882522383,8.125
-42.5,2.2212041808584084,3.25
-42.5,2.2027964114037806,5.6875
-43.0,2.2027964114037806,7.3125
-42.5,2.1905245651006955,8.125
-42.0,2.1966604882522383,8.125
-42.5,2.2027964114037806,3.25
-42.5,2.2027964114037806,7.3125
-42.5,2.227340104009951,5.6875
-42.5,2.2150682577068657,7.3125
-42.5,2.1905245651006955,9.75
-42.5,2.2027964114037806,6.5
-42.5,2.1905245651006955,10.5625
-42.5,2.2027964114037806,7.3125
-42.5,2.2027964114037806,8.125
-42.5,2.2089323345553233,5.6875
-42.0,2.2212041808584084,4.875
-42.0,2.1966604882522383,6.5
-42.0,2.1905245651006955,8.125
-42.0,2.2150682577068657,3.25
-42.5,2.1905245651006955,8.9375
-42.5,2.2212041808584084,2.4375
-42.5,2.2212041808584084,4.875
-42.5,2.1966604882522383,8.9375
-42.5,2.2518837966161214,-1.625
-42.0,2.2089323345553233,5.6875
-42.5,2.2212041808584084,2.4375
-42.5,2.2027964114037806,5.6875
-42.5,2.184388641949153,9.75
-42.5,2.2212041808584084,5.6875
-42.5,2.2150682577068657,4.875
-42.5,2.2150682577068657,4.875
-42.5,2.1966604882522383,7.3125
-42.5,2.2212041808584084,4.875
-42.5,2.2027964114037806,8.125
-42.5,2.2150682577068657,2.4375
-42.5,2.2150682577068657,5.6875
-42.5,2.1905245651006955,6.5
-42.0,2.2457478734645786,1.625
-42.0,2.2212041808584084,3.25
-42.5,2.2396119503130363,0.8125
-42.5,2.2212041808584084,3.25
-42.5,2.172116795646068,9.75
-42.5,2.2150682577068657,4.875
-42.5,2.2150682577068657,7.3125
-42.5,2.227340104009951,3.25
-42.5,2.2089323345553233,6.5
-42.5,2.2089323345553233,8.125
-42.5,2.227340104009951,4.875
-42.5,2.2212041808584084,4.875
-42.5,2.2089323345553233,7.3125
-43.0,2.2396119503130363,2.4375
-42.0,2.1905245651006955,7.3125
-42.5,2.2150682577068657,4.875
-42.5,2.227340104009951,3.25
-42.5,2.227340104009951,5.6875
-42.5,2.1905245651006955,12.1875
-42.0,2.2212041808584084,3.25
-42.5,2.172116795646068,11.375
-42.5,2.2089323345553233,5.6875
-42.5,2.2212041808584084,5.6875
-42.5,2.2150682577068657,3.25
-42.5,2.2518837966161214,0.0
-42.5,2.2212041808584084,4.875
-42.5,2.2089323345553233,7.3125
-42.5,2.2027964114037806,9.75
-42.5,2.2518837966161214,-0.8125
-42.5,2.227340104009951,6.5
-42.5,2.1966604882522383,8.9375
-42.5,2.1966604882522383,6.5
-42.5,2.2150682577068657,6.5
-42.5,2.2334760271614935,2.4375
-42.5,2.2027964114037806,8.125
-42.5,2.2212041808584084,3.25
-42.5,2.2089323345553233,5.6875
-42.5,2.2150682577068657,5.6875
-42.5,2.227340104009951,4.875
-42.5,2.227340104009951,6.5
-42.5,2.2396119503130363,2.4375
-42.5,2.2150682577068657,8.125
-42.5,2.227340104009951,3.25
-42.5,2.2457478734645786,1.625
-42.5,2.1966604882522383,9.75
-42.5,2.2212041808584084,7.3125
-42.5,2.2212041808584084,5.6875
-42.5,2.227340104009951,4.875
-42.5,2.2212041808584084,5.6875
-42.5,2.2580197197676637,-1.625
-42.5,2.184388641949153,9.75
-42.5,2.227340104009951,2.4375
-42.5,2.2089323345553233,4.875
-42.5,2.2150682577068657,4.875
-42.5,2.2518837966161214,0.0
-42.5,2.2641556429192065,-3.25
-42.5,2.2027964114037806,8.125
-43.0,2.2212041808584084,4.875
-43.0,2.2212041808584084,5.6875
-42.5,2.2150682577068657,6.5
-42.0,2.2212041808584084,3.25
-42.5,2.2457478734645786,1.625
-42.5,2.1966604882522383,8.125
-42.5,2.2150682577068657,7.3125
-42.5,2.2089323345553233,6.5
-42.5,2.2150682577068657,5.6875
-42.5,2.2027964114037806,6.5
-42.5,2.2150682577068657,7.3125
-42.5,2.2212041808584084,4.875
-43.0,2.1966604882522383,8.125
-42.5,2.2212041808584084,6.5
-42.5,2.2457478734645786,1.625
-42.0,2.1966604882522383,6.5
-42.5,2.2518837966161214,0.0
-42.5,2.2089323345553233,5.6875
-42.5,2.2580197197676637,-0.8125
-42.5,2.2089323345553233,7.3125
-42.5,2.2027964114037806,6.5
-42.5,2.2334760271614935,1.625
-42.5,2.2212041808584084,5.6875
-42.5,2.2150682577068657,6.5
-42.5,2.227340104009951,5.6875
-42.5,2.2212041808584084,4.875
-42.5,2.2334760271614935,2.4375
-42.5,2.2212041808584084,3.25
-42.5,2.2089323345553233,6.5
-42.5,2.2580197197676637,-1.625
-42.5,2.2580197197676637,0.0
-42.5,2.2089323345553233,8.9375
-42.5,2.2212041808584084,4.875
-42.5,2.1905245651006955,10.5625
-42.5,2.2089323345553233,5.6875
-42.5,2.2027964114037806,8.9375
-43.0,2.2396119503130363,2.4375
-42.5,2.227340104009951,5.6875
-43.0,2.2150682577068657,7.3125
-42.5,2.227340104009951,4.875
-42.5,2.1966604882522383,9.75
-42.5,2.2580197197676637,-1.625
-42.5,2.2457478734645786,0.0
-42.5,2.2212041808584084,4.875
-42.5,2.270291566070749,-2.4375
-42.5,2.2027964114037806,8.9375
-42.5,2.227340104009951,2.4375
-42.5,2.2089323345553233,6.5
-42.5,2.1905245651006955,9.75
-42.5,2.2334760271614935,3.25
-42.5,2.1966604882522383,7.3125
-42.5,2.2641556429192065,0.0
-42.5,2.2150682577068657,5.6875
-42.5,2.227340104009951,4.875
-42.5,2.2334760271614935,3.25
-42.5,2.2396119503130363,3.25
-42.5,2.2089323345553233,5.6875
-42.5,2.2396119503130363,2.4375
-42.5,2.2580197197676637,-0.8125
-42.5,2.2457478734645786,1.625
-42.5,2.227340104009951,3.25
-42.5,2.2580197197676637,0.0
-42.5,2.2150682577068657,7.3125
-42.5,2.2089323345553233,8.9375
-42.5,2.2089323345553233,7.3125
-42.5,2.2334760271614935,1.625
-42.5,2.2027964114037806,10.5625
-42.0,2.1905245651006955,9.75
-42.5,2.2089323345553233,5.6875
-42.5,2.1966604882522383,7.3125
-43.0,2.2457478734645786,1.625
-42.5,2.270291566070749,-2.4375
-42.5,2.2027964114037806,10.5625
-42.5,2.2212041808584084,5.6875
-42.5,2.2641556429192065,-2.4375
-42.5,2.2089323345553233,7.3125
-43.0,2.2396119503130363,2.4375
-42.5,2.2150682577068657,8.125
-42.5,2.1905245651006955,9.75
-42.5,2.1905245651006955,10.5625
-42.5,2.2150682577068657,7.3125
-42.5,2.2212041808584084,5.6875
-42.5,2.2150682577068657,7.3125
-42.5,2.2396119503130363,2.4375
-42.5,2.227340104009951,0.8125
-42.5,2.2150682577068657,3.25
-42.5,2.2641556429192065,-2.4375
-42.5,2.2089323345553233,6.5
-42.0,2.1966604882522383,9.75
-42.5,2.2212041808584084,2.4375
-42.5,2.2027964114037806,7.3125
-42.5,2.2089323345553233,5.6875
-42.5,2.1966604882522383,5.6875
-42.5,2.2089323345553233,7.3125
-42.5,2.2089323345553233,5.6875
-42.0,2.2089323345553233,5.6875
-42.5,2.2518837966161214,-2.4375
-42.0,2.1966604882522383,6.5
-42.5,2.2518837966161214,0.8125
-42.5,2.2518837966161214,-1.625
-42.0,2.2089323345553233,3.25
-42.0,2.2089323345553233,7.3125
-42.5,2.227340104009951,2.4375
-42.5,2.2089323345553233,5.6875
-42.5,2.2027964114037806,6.5
-42.5,2.2764274892222915,-5.6875
-42.5,2.1966604882522383,8.9375
-42.5,2.2212041808584084,3.25
-42.5,2.2150682577068657,6.5
-42.5,2.1966604882522383,8.125
-42.5,2.2150682577068657,6.5
-42.5,2.2089323345553233,5.6875
-42.5,2.2150682577068657,5.6875
-42.0,2.2580197197676637,-1.625
-42.5,2.2457478734645786,0.8125
-42.0,2.2641556429192065,-4.875
-42.5,2.1905245651006955,9.75
-42.5,2.2027964114037806,6.5
-42.5,2.2212041808584084,5.6875
-42.5,2.1966604882522383,9.75
-42.5,2.2150682577068657,7.3125
-42.5,2.2089323345553233,8.125
-42.5,2.1905245651006955,8.125
-42.0,2.2396119503130363,0.8125
-42.5,2.2089323345553233,7.3125
-42.5,2.2027964114037806,5.6875
-42.5,2.2027964114037806,5.6875
-42.5,2.2457478734645786,0.8125
-42.0,2.184388641949153,8.9375
-42.5,2.2027964114037806,8.125
-42.0,2.2027964114037806,6.5
-42.5,2.2027964114037806,5.6875
-42.5,2.2027964114037806,5.6875
-42.5,2.2089323345553233,7.3125
-42.5,2.2518837966161214,0.0
-42.0,2.2212041808584084,4.875
-42.0,2.2396119503130363,-0.8125
-42.5,2.2212041808584084,2.4375
-42.5,2.2334760271614935,4.875
-42.0,2.1782527187976104,10.5625
-42.5,2.2089323345553233,7.3125
-42.5,2.2334760271614935,2.4375
-42.0,2.2212041808584084,3.25
-42.5,2.2027964114037806,6.5
-42.5,2.2089323345553233,7.3125
-42.5,2.2212041808584084,6.5
-42.5,2.2150682577068657,5.6875
-42.5,2.2212041808584084,2.4375
-42.5,2.2089323345553233,5.6875
-42.5,2.1905245651006955,8.9375
-42.5,2.227340104009951,4.875
-42.5,2.227340104009951,3.25
-42.5,2.2212041808584084,6.5
-42.5,2.184388641949153,8.125
-42.5,2.2027964114037806,7.3125
-42.5,2.227340104009951,3.25
-42.5,2.2089323345553233,8.125
-42.0,2.2396119503130363,2.4375
-42.5,2.2150682577068657,3.25
-42.5,2.1905245651006955,10.5625
-42.5,2.2334760271614935,0.0
-42.5,2.2212041808584084,1.625
-42.5,2.2212041808584084,4.875
-42.5,2.2212041808584084,3.25
-42.5,2.2089323345553233,6.5
-42.0,2.2089323345553233,3.25
-42.5,2.2089323345553233,6.5
-42.5,2.2212041808584084,5.6875
-42.5,2.227340104009951,3.25
-42.0,2.184388641949153,9.75
-42.5,2.2027964114037806,5.6875
-42.5,2.2396119503130363,0.0
-42.5,2.2027964114037806,7.3125
-42.5,2.2212041808584084,2.4375
-42.5,2.2580197197676637,-2.4375
-42.5,2.1966604882522383,8.125
-42.5,2.2212041808584084,4.875
-42.5,2.2150682577068657,1.625
-42.5,2.2580197197676637,-1.625
-42.5,2.2457478734645786,-0.8125
-42.5,2.2518837966161214,0.8125
-42.5,2.1905245651006955,9.75
-42.5,2.2027964114037806,8.125
-42.0,2.1905245651006955,9.75
-42.5,2.2334760271614935,0.8125
-42.5,2.2089323345553233,6.5
-42.5,2.1966604882522383,9.75
-42.5,2.2396119503130363,0.8125
-42.5,2.1966604882522383,6.5
-42.5,2.227340104009951,1.625
-42.5,2.2457478734645786,1.625
-42.5,2.2027964114037806,6.5
-42.5,2.2518837966161214,-1.625
-42.5,2.2580197197676637,0.0
-42.5,2.2089323345553233,5.6875
-42.5,2.2212041808584084,5.6875
-42.5,2.2150682577068657,4.875
-42.5,2.270291566070749,-4.875
-42.5,2.1905245651006955,9.75
-42.5,2.2027964114037806,8.125
-42.5,2.2150682577068657,5.6875
-42.5,2.2212041808584084,6.5
-42.0,2.2150682577068657,6.5
-42.5,2.2580197197676637,-0.8125
-42.5,2.2150682577068657,6.5
-42.0,2.2212041808584084,5.6875
-42.5,2.2396119503130363,3.25
-42.5,2.2089323345553233,9.75
-42.5,2.2212041808584084,2.4375
-42.5,2.1966604882522383,6.5
-42.5,2.1966604882522383,8.125
-42.5,2.1905245651006955,9.75
-42.5,2.2641556429192065,-0.8125
-42.0,2.227340104009951,4.875
-42.5,2.2027964114037806,7.3125
-42.0,2.184388641949153,10.5625
-43.0,2.2089323345553233,6.5
-42.5,2.2150682577068657,3.25
-42.5,2.2150682577068657,2.4375
-42.0,2.1905245651006955,10.5625
-42.5,2.2089323345553233,7.3125
-42.5,2.2089323345553233,5.6875
-42.0,2.1966604882522383,7.3125
-42.5,2.2518837966161214,0.0
-42.5,2.2212041808584084,2.4375
-42.5,2.1905245651006955,8.9375
-42.5,2.227340104009951,4.875
-42.5,2.2027964114037806,8.125
-42.0,2.2089323345553233,7.3125
-42.5,2.2150682577068657,3.25
-42.0,2.2150682577068657,4.875
-42.0,2.2457478734645786,0.0
-42.5,2.2027964114037806,6.5
-42.5,2.2518837966161214,1.625
-42.5,2.1966604882522383,8.9375
-42.5,2.227340104009951,4.875
-42.5,2.1905245651006955,10.5625
-42.5,2.1966604882522383,9.75
-42.0,2.2089323345553233,5.6875
-42.5,2.2150682577068657,5.6875
-42.5,2.2396119503130363,0.8125
-42.5,2.2089323345553233,4.875
-42.5,2.2089323345553233,6.5
-42.5,2.2027964114037806,6.5
-42.5,2.2212041808584084,5.6875
-42.5,2.2089323345553233,5.6875
-42.5,2.2334760271614935,3.25
-42.5,2.2089323345553233,7.3125
-42.0,2.227340104009951,5.6875
-42.5,2.2641556429192065,-2.4375
-42.5,2.1905245651006955,12.1875
-42.5,2.2641556429192065,-2.4375
-42.5,2.227340104009951,3.25
-42.5,2.2089323345553233,7.3125
-42.5,2.2150682577068657,6.5
-42.5,2.2150682577068657,8.9375
-42.5,2.2089323345553233,8.125
-42.5,2.2457478734645786,0.8125
-42.5,2.227340104009951,1.625
-42.5,2.2150682577068657,6.5
-42.0,2.2580197197676637,-0.8125
-42.5,2.2518837966161214,-1.625
-42.5,2.227340104009951,0.8125
-42.5,2.2396119503130363,1.625
-42.5,2.2027964114037806,5.6875
-42.5,2.2396119503130363,0.8125
-42.5,2.227340104009951,4.875
-42.5,2.2334760271614935,2.4375
-42.5,2.2089323345553233,5.6875
-42.5,2.2212041808584084,4.875
-42.5,2.227340104009951,6.5
-42.5,2.2089323345553233,5.6875
-42.5,2.2212041808584084,4.875
-42.0,2.2150682577068657,5.6875
-42.5,2.2641556429192065,-1.625
-42.5,2.2212041808584084,3.25
-42.5,2.1966604882522383,9.75
-42.5,2.2518837966161214,0.0
-42.0,2.2089323345553233,8.125
-42.0,2.2150682577068657,5.6875
-42.5,2.2027964114037806,7.3125
-42.5,2.2641556429192065,-4.875
-42.5,2.2212041808584084,8.125
-42.0,2.2089323345553233,8.9375
-42.5,2.1966604882522383,7.3125
-42.5,2.1966604882522383,9.75
-42.0,2.2457478734645786,0.0
-42.5,2.2089323345553233,4.875
-42.5,2.2027964114037806,8.125
-42.0,2.2212041808584084,4.875
-42.0,2.1905245651006955,8.125
-42.5,2.2089323345553233,4.875
-42.5,2.1905245651006955,8.9375
-42.0,2.1905245651006955,8.125
-42.5,2.2027964114037806,6.5
-42.5,2.2334760271614935,2.4375
-42.5,2.2089323345553233,4.875
-42.5,2.1905245651006955,7.3125
-42.5,2.2089323345553233,6.5
-42.5,2.2212041808584084,4.875
-42.5,2.1905245651006955,8.125
-42.5,2.1966604882522383,7.3125
-42.5,2.1905245651006955,6.5
-42.5,2.227340104009951,0.0
-42.0,2.2027964114037806,6.5
-42.0,2.1659808724945253,9.75
-42.0,2.2027964114037806,5.6875
-42.5,2.1966604882522383,3.25
-42.5,2.2089323345553233,4.875
-42.0,2.2027964114037806,4.875
-42.0,2.172116795646068,4.875
-42.0,2.2027964114037806,0.0
-42.0,2.1598449493429825,4.875
-41.5,2.1353012567368124,8.125
-42.0,2.141437179888355,6.5
-42.0,2.1475731030398975,4.875
-41.5,2.110757564130642,10.5625
-41.5,2.1353012567368124,6.5
-41.5,2.1230294104337273,9.75
-41.5,2.116893487282185,8.9375
-41.5,2.1353012567368124,6.5
-41.5,2.1230294104337273,5.6875
-41.5,2.12916533358527,8.125
-41.5,2.12916533358527,5.6875
-41.5,2.1353012567368124,5.6875
-41.5,2.1230294104337273,8.125
-41.5,2.141437179888355,4.875
-42.0,2.1475731030398975,5.6875
-42.0,2.1659808724945253,3.25
-41.5,2.172116795646068,3.25
-41.5,2.1537090261914402,8.125
-41.5,2.1659808724945253,4.875
-41.5,2.1659808724945253,8.9375
-42.0,2.1905245651006955,2.4375
-41.5,2.1782527187976104,6.5
-41.5,2.1782527187976104,7.3125
-41.5,2.1659808724945253,7.3125
-41.5,2.1782527187976104,8.125
-42.0,2.2027964114037806,3.25
-41.5,2.2396119503130363,-0.8125
-41.5,2.1966604882522383,7.3125
-42.0,2.270291566070749,-2.4375
-42.0,2.227340104009951,5.6875
-42.0,2.282563412373834,1.625
-42.0,2.2764274892222915,4.875
-42.0,2.3193789512830896,-1.625
-42.5,2.2580197197676637,8.9375
-42.5,2.313243028131547,1.625
-42.0,2.399145952253143,-1.625
-42.0,2.448233337465483,2.4375
-41.5,2.429825568010856,6.5
-41.5,2.423689644859313,8.125
-41.0,2.4175537217077703,8.125
-41.5,2.4605051837685683,3.25
-41.5,2.448233337465483,1.625
-41.5,2.435961491162398,5.6875
-41.5,2.435961491162398,5.6875
-41.5,2.442097414313941,5.6875
-41.5,2.405281875404685,6.5
-42.0,2.442097414313941,3.25
-41.5,2.454369260617026,2.4375
-41.5,2.429825568010856,4.875
-41.5,2.466641106920111,0.0
-42.0,2.442097414313941,0.8125
-41.5,2.442097414313941,5.6875
-42.0,2.4850488763747385,-0.8125
-41.5,2.454369260617026,3.25
-41.5,2.466641106920111,4.875
-42.0,2.4605051837685683,5.6875
-42.0,2.454369260617026,3.25
-41.5,2.466641106920111,1.625
-42.0,2.497320722677824,-2.4375
-41.5,2.497320722677824,-3.25
-41.5,2.448233337465483,6.5
-42.0,2.454369260617026,2.4375
-42.0,2.4605051837685683,1.625
-41.5,2.435961491162398,4.875
-42.0,2.4605051837685683,-0.8125
-42.0,2.4727770300716534,-1.625
-42.0,2.429825568010856,4.875
-42.0,2.448233337465483,1.625
-42.0,2.423689644859313,4.875
-42.0,2.411417798556228,7.3125
-42.0,2.442097414313941,1.625
-42.0,2.442097414313941,-0.8125
-42.0,2.435961491162398,0.8125
-42.0,2.423689644859313,4.875
-42.5,2.405281875404685,8.125
-42.0,2.4175537217077703,7.3125
-42.5,2.411417798556228,7.3125
-42.0,2.429825568010856,3.25
-42.0,2.411417798556228,5.6875
-42.5,2.509592568980909,-11.375
-42.0,2.4175537217077703,6.5
-42.0,2.448233337465483,0.0
-42.5,2.442097414313941,2.4375
-42.5,2.4605051837685683,5.6875
-42.0,2.4850488763747385,3.25
-42.5,2.509592568980909,0.0
-42.0,2.497320722677824,1.625
-42.0,2.478912953223196,5.6875
-42.0,2.509592568980909,3.25
-42.5,2.497320722677824,4.875
-42.0,2.4850488763747385,5.6875
-42.0,2.4911847995262812,3.25
-42.5,2.478912953223196,4.875
-42.0,2.4727770300716534,5.6875
-41.5,2.4605051837685683,5.6875
-42.0,2.4727770300716534,2.4375
-41.5,2.442097414313941,5.6875
-42.0,2.454369260617026,1.625
-41.5,2.4175537217077703,7.3125
-42.0,2.478912953223196,-0.8125
-41.5,2.442097414313941,3.25
-42.0,2.4727770300716534,-1.625
-41.5,2.4175537217077703,7.3125
-41.5,2.399145952253143,10.5625
-42.0,2.429825568010856,4.875
-41.5,2.435961491162398,5.6875
-41.5,2.442097414313941,1.625
-41.5,2.448233337465483,-0.8125
-41.5,2.435961491162398,0.8125
-41.5,2.411417798556228,4.875
-41.5,2.4175537217077703,4.875
-41.5,2.411417798556228,3.25
-41.5,2.405281875404685,4.875
-41.5,2.411417798556228,3.25
-41.5,2.4175537217077703,2.4375
-41.5,2.411417798556228,3.25
-41.5,2.4175537217077703,5.6875
-42.0,2.399145952253143,6.5
-41.5,2.4175537217077703,5.6875
-42.0,2.386874105950058,8.125
-41.5,2.429825568010856,2.4375
-41.5,2.411417798556228,4.875
-41.5,2.399145952253143,2.4375
-41.5,2.411417798556228,0.8125
-41.5,2.3930100291016,6.5
-41.5,2.386874105950058,6.5
-41.5,2.3930100291016,5.6875
-41.5,2.4175537217077703,1.625
-41.5,2.429825568010856,-0.8125
-41.5,2.386874105950058,5.6875
-41.5,2.429825568010856,0.8125
-41.5,2.386874105950058,5.6875
-41.5,2.423689644859313,-1.625
-41.5,2.3623304133438876,8.125
-42.0,2.399145952253143,3.25
-41.5,2.405281875404685,4.875
-41.5,2.411417798556228,0.8125
-41.5,2.429825568010856,-3.25
-41.5,2.3930100291016,7.3125
-41.5,2.3930100291016,4.875
-41.0,2.411417798556228,1.625
-41.0,2.3930100291016,6.5
-41.5,2.386874105950058,3.25
-41.5,2.411417798556228,2.4375
-41.5,2.405281875404685,1.625
-41.5,2.3930100291016,3.25
-41.5,2.36846633649543,4.875
-41.5,2.386874105950058,3.25
-41.5,2.386874105950058,3.25
-41.5,2.36846633649543,6.5
-41.0,2.380738182798515,3.25
-41.5,2.3930100291016,2.4375
-41.5,2.380738182798515,3.25
-41.5,2.380738182798515,4.875
-41.5,2.3623304133438876,4.875
-41.5,2.356194490192345,6.5
-41.0,2.380738182798515,1.625
-41.5,2.3746022596469727,5.6875
-41.0,2.380738182798515,2.4375
-41.5,2.405281875404685,-2.4375
-41.5,2.3930100291016,0.8125
-41.5,2.405281875404685,-0.8125
-41.5,2.380738182798515,3.25
-41.0,2.405281875404685,-0.8125
-41.5,2.36846633649543,6.5
-41.0,2.399145952253143,0.8125
-41.5,2.411417798556228,0.0
-41.0,2.3930100291016,-0.8125
-41.0,2.399145952253143,2.4375
-41.5,2.386874105950058,2.4375
-41.0,2.36846633649543,4.875
-41.0,2.386874105950058,4.875
-41.5,2.386874105950058,0.8125
-41.5,2.3930100291016,1.625
-41.0,2.386874105950058,2.4375
-41.5,2.3930100291016,0.0
-41.0,2.3746022596469727,4.875
-41.0,2.3746022596469727,4.875
-41.0,2.386874105950058,0.8125
-41.5,2.36846633649543,6.5
-41.0,2.380738182798515,2.4375
-41.5,2.36846633649543,6.5
-41.5,2.3746022596469727,7.3125
-41.0,2.3930100291016,0.8125
-41.5,2.356194490192345,6.5
-41.0,2.380738182798515,4.875
-41.0,2.386874105950058,4.875
-41.0,2.380738182798515,2.4375
-41.0,2.399145952253143,0.0
-41.0,2.337786720737717,12.1875
-41.0,2.405281875404685,-0.8125
-41.0,2.380738182798515,2.4375
-41.0,2.380738182798515,5.6875
-41.0,2.386874105950058,2.4375
-41.0,2.3930100291016,1.625
-41.0,2.380738182798515,5.6875
-41.0,2.3930100291016,0.8125
-41.0,2.3623304133438876,6.5
-41.0,2.405281875404685,0.0
-41.0,2.380738182798515,3.25
-41.0,2.3623304133438876,7.3125
-41.0,2.386874105950058,5.6875
-41.0,2.386874105950058,2.4375
-41.0,2.411417798556228,-2.4375
-41.0,2.380738182798515,5.6875
-41.0,2.386874105950058,2.4375
-40.5,2.3746022596469727,6.5
-41.0,2.3930100291016,2.4375
-41.0,2.399145952253143,1.625
-41.0,2.380738182798515,4.875
-41.0,2.36846633649543,7.3125
-41.0,2.386874105950058,4.875
-41.0,2.405281875404685,3.25
-41.0,2.3623304133438876,8.125
-40.5,2.3930100291016,1.625
-41.0,2.399145952253143,1.625
-41.0,2.405281875404685,0.8125
-41.0,2.411417798556228,-0.8125
-41.0,2.411417798556228,-1.625
-40.5,2.3930100291016,1.625
-40.5,2.380738182798515,4.875
-40.5,2.423689644859313,-3.25
-40.5,2.3930100291016,2.4375
-41.0,2.405281875404685,0.0
-40.5,2.3746022596469727,6.5
-40.5,2.3746022596469727,7.3125
-40.5,2.386874105950058,5.6875
-40.5,2.4175537217077703,-1.625
-40.5,2.423689644859313,0.0
-40.5,2.405281875404685,2.4375
-41.0,2.399145952253143,5.6875
-40.5,2.399145952253143,2.4375
-40.5,2.380738182798515,6.5
-41.0,2.380738182798515,6.5
-40.5,2.380738182798515,6.5
-41.0,2.405281875404685,1.625
-41.0,2.3746022596469727,8.125
-41.0,2.4175537217077703,0.8125
-40.5,2.36846633649543,5.6875
-40.5,2.3930100291016,3.25
-40.5,2.448233337465483,-4.875
-40.5,2.399145952253143,3.25
-40.5,2.405281875404685,2.4375
-41.0,2.411417798556228,3.25
-40.5,2.423689644859313,0.0
-41.0,2.405281875404685,1.625
-40.5,2.386874105950058,7.3125
-41.0,2.411417798556228,0.8125
-40.5,2.3930100291016,1.625
-40.5,2.399145952253143,3.25
-40.5,2.411417798556228,0.0
-41.0,2.3930100291016,3.25
-40.5,2.429825568010856,-1.625
-41.0,2.429825568010856,-2.4375
-40.5,2.411417798556228,0.8125
-40.5,2.411417798556228,1.625
-40.5,2.423689644859313,0.8125
-40.5,2.399145952253143,6.5
-40.5,2.411417798556228,0.8125
-40.5,2.4175537217077703,0.8125
-40.5,2.399145952253143,6.5
-41.0,2.405281875404685,3.25
-40.5,2.423689644859313,0.0
-41.0,2.423689644859313,0.8125
-40.5,2.411417798556228,1.625
-40.5,2.442097414313941,-0.8125
-40.5,2.423689644859313,0.8125
-41.0,2.4175537217077703,0.0
-41.0,2.435961491162398,-1.625
-41.0,2.423689644859313,-0.8125
-41.0,2.3930100291016,5.6875
-40.5,2.411417798556228,1.625
-41.0,2.399145952253143,4.875
-40.5,2.399145952253143,7.3125
-41.0,2.4175537217077703,4.875
-41.0,2.399145952253143,2.4375
-40.5,2.399145952253143,2.4375
-40.5,2.435961491162398,-4.875
-40.5,2.429825568010856,-2.4375
-41.0,2.3930100291016,6.5
-41.0,2.399145952253143,4.875
-40.5,2.3930100291016,5.6875
-41.0,2.3930100291016,3.25
-41.0,2.386874105950058,2.4375
-41.0,2.3930100291016,3.25
-41.0,2.423689644859313,-3.25
-41.0,2.386874105950058,4.875
-41.0,2.386874105950058,-0.8125
-41.0,2.356194490192345,5.6875
-41.0,2.3623304133438876,5.6875
-41.0,2.337786720737717,6.5
-41.0,2.36846633649543,2.4375
-41.0,2.3746022596469727,3.25
-41.0,2.3746022596469727,1.625
-41.0,2.386874105950058,0.8125
-41.5,2.380738182798515,3.25
-41.0,2.386874105950058,0.8125
-41.0,2.356194490192345,3.25
-41.5,2.3439226438892597,7.3125
-41.5,2.3930100291016,0.0
-41.0,2.405281875404685,-1.625
-41.5,2.36846633649543,2.4375
-41.0,2.3930100291016,-2.4375
-41.5,2.36846633649543,1.625
-41.0,2.3746022596469727,0.8125
-41.5,2.380738182798515,0.0
-41.0,2.3746022596469727,4.875
-41.5,2.36846633649543,1.625
-41.5,2.3746022596469727,0.0
-41.5,2.3316507975861747,3.25
-41.5,2.325514874434632,5.6875
-41.5,2.3439226438892597,4.875
-41.5,2.325514874434632,3.25
-41.5,2.3193789512830896,5.6875
-41.5,2.3316507975861747,1.625
-42.0,2.2948352586769194,6.5
-41.5,2.2948352586769194,7.3125
-41.5,2.2948352586769194,7.3125
-41.5,2.2948352586769194,2.4375
-42.0,2.2886993355253766,2.4375
-41.5,2.3009711818284617,0.0
-41.5,2.2886993355253766,0.0
-41.5,2.2334760271614935,6.5
-41.5,2.2334760271614935,8.125
-41.5,2.2518837966161214,6.5
-41.5,2.2518837966161214,5.6875
-41.5,2.2396119503130363,4.875
-41.5,2.227340104009951,8.125
-41.5,2.2396119503130363,3.25
-42.0,2.227340104009951,8.9375
-41.5,2.2396119503130363,8.125
-42.0,2.282563412373834,1.625
-41.5,2.2580197197676637,8.125
-42.0,2.313243028131547,2.4375
-42.0,2.2764274892222915,7.3125
-42.5,2.337786720737717,-1.625
-42.0,2.325514874434632,1.625
-42.0,2.3316507975861747,1.625
-42.0,2.3009711818284617,8.125
-42.0,2.350058567040802,1.625
-42.5,2.3316507975861747,2.4375
-42.5,2.3193789512830896,8.125
-42.5,2.3071071049800045,6.5
-42.5,2.3316507975861747,2.4375
-42.0,2.2948352586769194,9.75
-42.5,2.2886993355253766,6.5
-42.5,2.3439226438892597,0.0
-42.5,2.325514874434632,2.4375
-42.5,2.325514874434632,6.5
-42.0,2.350058567040802,3.25
-42.5,2.3193789512830896,9.75
-42.5,2.3930100291016,0.0
-42.5,2.380738182798515,1.625
-42.5,2.399145952253143,0.8125
-42.5,2.380738182798515,6.5
-42.0,2.4175537217077703,0.8125
-42.5,2.454369260617026,-0.8125
-42.0,2.4850488763747385,-1.625
-42.5,2.454369260617026,3.25
-42.5,2.4605051837685683,0.8125
-42.0,2.448233337465483,2.4375
-42.5,2.4727770300716534,1.625
-42.5,2.448233337465483,6.5
-42.0,2.4727770300716534,3.25
-42.0,2.4727770300716534,3.25
-42.0,2.454369260617026,6.5
-42.0,2.466641106920111,7.3125
-42.0,2.4850488763747385,7.3125
-41.5,2.5157284921324514,0.8125
-42.0,2.497320722677824,5.6875
-41.5,2.497320722677824,4.875
-42.0,2.521864415283994,3.25
-42.0,2.521864415283994,4.875
-41.5,2.5402721847386216,2.4375
-42.0,2.5034566458293663,8.9375
-42.0,2.5341362615870793,2.4375
-42.0,2.521864415283994,7.3125
-42.0,2.5341362615870793,7.3125
-41.5,2.5341362615870793,6.5
-42.0,2.5157284921324514,8.9375
-42.0,2.5464081078901644,6.5
-41.5,2.5280003384355365,7.3125
-42.0,2.509592568980909,10.5625
-41.5,2.5341362615870793,5.6875
-41.5,2.509592568980909,10.5625
-42.0,2.521864415283994,7.3125
-41.5,2.509592568980909,9.75
-41.5,2.521864415283994,5.6875
-41.5,2.5280003384355365,4.875
-41.5,2.509592568980909,5.6875
-41.5,2.5280003384355365,3.25
-42.0,2.4911847995262812,8.9375
-41.5,2.4911847995262812,8.125
-41.5,2.521864415283994,2.4375
-41.5,2.5157284921324514,4.875
-42.0,2.5402721847386216,2.4375
-41.5,2.521864415283994,5.6875
-41.5,2.5280003384355365,5.6875
-41.5,2.521864415283994,5.6875
-41.5,2.5341362615870793,4.875
-41.5,2.5341362615870793,4.875
-41.5,2.5157284921324514,8.125
-41.5,2.5464081078901644,1.625
-41.5,2.5402721847386216,4.875
-41.5,2.552544031041707,2.4375
-41.5,2.5464081078901644,1.625
-41.5,2.5341362615870793,7.3125
-41.5,2.5402721847386216,4.875
-41.5,2.5402721847386216,6.5
-41.5,2.552544031041707,1.625
-41.5,2.5280003384355365,8.9375
-41.5,2.5464081078901644,4.875
-41.5,2.521864415283994,8.9375
-41.0,2.521864415283994,10.5625
-41.5,2.5709518004963345,0.8125
-41.5,2.5770877236478773,3.25
-41.5,2.552544031041707,5.6875
-41.0,2.5709518004963345,0.0
-41.0,2.552544031041707,5.6875
-41.5,2.5709518004963345,3.25
-41.5,2.5464081078901644,6.5
-41.5,2.564815877344792,5.6875
-41.0,2.5770877236478773,4.875
-41.5,2.5464081078901644,7.3125
-41.5,2.5341362615870793,9.75
-41.0,2.5770877236478773,3.25
-41.5,2.564815877344792,5.6875
-41.5,2.564815877344792,8.125
-41.5,2.5770877236478773,4.875
-41.5,2.5586799541932495,5.6875
-41.0,2.5770877236478773,4.875
-41.5,2.564815877344792,4.875
-41.0,2.5402721847386216,7.3125
-41.0,2.5464081078901644,6.5
-41.5,2.552544031041707,8.125
-41.0,2.5709518004963345,4.875
-41.5,2.552544031041707,7.3125
-41.0,2.5893595699509624,3.25
-41.0,2.552544031041707,8.125
-41.5,2.5832236467994196,3.25
-41.5,2.564815877344792,4.875
-41.0,2.5709518004963345,7.3125
-41.5,2.5464081078901644,8.9375
-41.5,2.5893595699509624,5.6875
-41.0,2.5893595699509624,3.25
-41.0,2.5709518004963345,6.5
-41.0,2.5709518004963345,4.875
-41.0,2.5954954931025047,0.8125
-41.0,2.552544031041707,6.5
-41.0,2.5586799541932495,5.6875
-41.5,2.5709518004963345,5.6875
-41.0,2.5464081078901644,8.9375
-41.5,2.5709518004963345,2.4375
-41.0,2.5402721847386216,8.9375
-41.5,2.5586799541932495,5.6875
-41.0,2.552544031041707,7.3125
-41.0,2.5464081078901644,6.5
-41.5,2.5280003384355365,12.1875
-41.5,2.564815877344792,4.875
-41.0,2.5832236467994196,3.25
-41.5,2.552544031041707,6.5
-41.5,2.552544031041707,5.6875
-41.0,2.5341362615870793,11.375
-41.0,2.5832236467994196,3.25
-41.0,2.5586799541932495,7.3125
-41.5,2.5586799541932495,7.3125
-41.5,2.5709518004963345,2.4375
-41.5,2.552544031041707,9.75
-41.5,2.5954954931025047,0.8125
-41.0,2.5464081078901644,7.3125
-41.5,2.5586799541932495,8.9375
-41.0,2.5586799541932495,6.5
-41.5,2.552544031041707,6.5
-41.0,2.5893595699509624,0.0
-41.5,2.552544031041707,7.3125
-41.5,2.5402721847386216,6.5
-41.5,2.5402721847386216,9.75
-41.5,2.5586799541932495,5.6875
-41.5,2.5832236467994196,1.625
-41.5,2.564815877344792,6.5
-41.0,2.5586799541932495,5.6875
-41.5,2.5832236467994196,4.875
-41.0,2.5586799541932495,5.6875
-41.5,2.5586799541932495,8.125
-41.0,2.552544031041707,7.3125
-41.5,2.5832236467994196,2.4375
-41.0,2.5709518004963345,5.6875
-41.5,2.5893595699509624,2.4375
-41.0,2.564815877344792,5.6875
-41.5,2.5832236467994196,2.4375
-41.0,2.552544031041707,7.3125
-41.0,2.552544031041707,8.125
-41.5,2.5709518004963345,7.3125
-41.0,2.5464081078901644,8.9375
-41.0,2.5832236467994196,0.8125
-41.5,2.5586799541932495,8.125
-41.0,2.5586799541932495,8.125
-41.5,2.5709518004963345,6.5
-41.0,2.5464081078901644,9.75
-41.0,2.564815877344792,6.5
-41.0,2.5709518004963345,5.6875
-41.5,2.5586799541932495,8.125
-41.5,2.5770877236478773,6.5
-41.5,2.5954954931025047,3.25
-41.0,2.552544031041707,9.75
-41.5,2.5832236467994196,2.4375
-41.0,2.5586799541932495,6.5
-41.5,2.5464081078901644,8.9375
-41.5,2.6016314162540475,-2.4375
-41.5,2.5954954931025047,2.4375
-41.5,2.5832236467994196,4.875
-41.5,2.552544031041707,8.125
-41.0,2.5709518004963345,7.3125
-41.0,2.5893595699509624,1.625
-41.0,2.5709518004963345,8.125
-41.0,2.5770877236478773,4.875
-41.0,2.5832236467994196,4.875
-41.0,2.564815877344792,8.9375
-41.0,2.564815877344792,8.9375
-41.0,2.5464081078901644,8.125
-41.0,2.5709518004963345,6.5
-41.0,2.5341362615870793,9.75
-41.5,2.5770877236478773,4.875
-41.0,2.5586799541932495,7.3125
-41.0,2.5586799541932495,7.3125
-41.5,2.5770877236478773,2.4375
-41.5,2.5586799541932495,7.3125
-41.5,2.5893595699509624,0.8125
-41.5,2.5586799541932495,5.6875
-41.5,2.5586799541932495,3.25
-41.0,2.552544031041707,6.5
-41.0,2.5341362615870793,8.125
-41.0,2.5464081078901644,7.3125
-41.0,2.5464081078901644,7.3125
-41.0,2.552544031041707,6.5
-41.5,2.5402721847386216,8.125
-41.5,2.552544031041707,5.6875
-41.0,2.564815877344792,3.25
-41.0,2.5586799541932495,4.875
-41.0,2.5402721847386216,8.9375
-41.0,2.564815877344792,3.25
-41.0,2.552544031041707,6.5
-41.0,2.552544031041707,5.6875
-41.0,2.5586799541932495,4.875
-41.0,2.5464081078901644,8.9375
-41.0,2.552544031041707,8.9375
-41.5,2.564815877344792,6.5
-41.0,2.5709518004963345,4.875
-41.0,2.5832236467994196,4.875
-41.0,2.5893595699509624,0.0
-41.0,2.564815877344792,5.6875
-41.0,2.5832236467994196,3.25
-41.0,2.5586799541932495,4.875
-41.5,2.5709518004963345,4.875
-41.0,2.5709518004963345,3.25
-41.5,2.5464081078901644,8.125
-41.0,2.5464081078901644,8.125
-41.0,2.5586799541932495,5.6875
-41.0,2.5464081078901644,9.75
-41.0,2.564815877344792,2.4375
-41.0,2.5709518004963345,3.25
-41.0,2.564815877344792,4.875
-41.0,2.5464081078901644,8.125
-41.0,2.564815877344792,4.875
-41.5,2.5832236467994196,1.625
-41.0,2.5709518004963345,5.6875
-41.0,2.5586799541932495,6.5
-41.0,2.552544031041707,8.9375
-41.5,2.5770877236478773,2.4375
-41.0,2.564815877344792,5.6875
-41.0,2.5464081078901644,8.9375
-41.0,2.5893595699509624,0.0
-41.0,2.552544031041707,8.125
-41.0,2.5709518004963345,5.6875
-41.0,2.5770877236478773,3.25
-41.5,2.5586799541932495,5.6875
-41.0,2.5341362615870793,10.5625
-41.5,2.5954954931025047,0.8125
-41.0,2.5893595699509624,0.0
-41.0,2.5402721847386216,8.125
-41.0,2.5464081078901644,7.3125
-41.0,2.5586799541932495,7.3125
-41.0,2.552544031041707,8.9375
-41.0,2.5770877236478773,3.25
-41.0,2.5770877236478773,5.6875
-41.0,2.5832236467994196,3.25
-41.0,2.5464081078901644,10.5625
-41.0,2.552544031041707,8.125
-41.0,2.5832236467994196,4.875
-41.5,2.564815877344792,6.5
-41.0,2.5832236467994196,3.25
-41.0,2.5770877236478773,6.5
-41.0,2.5770877236478773,4.875
-41.0,2.5954954931025047,2.4375
-41.0,2.5586799541932495,8.125
-41.0,2.564815877344792,7.3125
-41.5,2.6139032625571326,-0.8125
-41.0,2.5770877236478773,6.5
-41.0,2.5893595699509624,5.6875
-41.0,2.5893595699509624,5.6875
-41.0,2.5770877236478773,6.5
-41.0,2.5954954931025047,4.875
-41.0,2.6016314162540475,1.625
-41.0,2.5770877236478773,6.5
-41.0,2.5709518004963345,5.6875
-41.0,2.5893595699509624,2.4375
-41.0,2.5770877236478773,5.6875
-41.0,2.60776733940559,-0.8125
-41.0,2.5464081078901644,8.9375
-41.0,2.5709518004963345,7.3125
-41.5,2.552544031041707,10.5625
-41.0,2.5770877236478773,4.875
-41.0,2.5709518004963345,7.3125
-41.0,2.5770877236478773,5.6875
-41.0,2.5770877236478773,6.5
-41.0,2.5832236467994196,4.875
-41.0,2.564815877344792,6.5
-41.0,2.5709518004963345,7.3125
-41.0,2.5586799541932495,8.9375
-41.0,2.552544031041707,10.5625
-41.0,2.5709518004963345,7.3125
-41.0,2.5770877236478773,5.6875
-41.5,2.5709518004963345,6.5
-41.0,2.5770877236478773,2.4375
-41.0,2.564815877344792,6.5
-41.0,2.564815877344792,5.6875
-41.0,2.5464081078901644,7.3125
-41.0,2.5770877236478773,2.4375
-41.5,2.5464081078901644,8.125
-41.5,2.552544031041707,6.5
-41.5,2.5464081078901644,7.3125
-41.5,2.5770877236478773,2.4375
-41.0,2.564815877344792,6.5
-41.0,2.552544031041707,6.5
-41.5,2.5586799541932495,6.5
-41.5,2.5464081078901644,6.5
-41.5,2.5280003384355365,11.375
-41.5,2.5709518004963345,1.625
-41.0,2.552544031041707,5.6875
-41.0,2.552544031041707,6.5
-41.0,2.5464081078901644,8.9375
-41.0,2.5464081078901644,6.5
-41.0,2.5464081078901644,4.875
-41.0,2.552544031041707,6.5
-41.5,2.5464081078901644,5.6875
-41.5,2.5402721847386216,4.875
-41.5,2.552544031041707,6.5
-41.5,2.5341362615870793,5.6875
-41.0,2.5341362615870793,7.3125
-41.5,2.5341362615870793,5.6875
-41.5,2.5157284921324514,2.4375
-41.5,2.478912953223196,6.5
-41.5,2.4727770300716534,2.4375
-42.0,2.429825568010856,6.5
-41.5,2.3930100291016,1.625
-41.5,2.3746022596469727,2.4375
-41.5,2.3439226438892597,3.25
-41.0,2.337786720737717,5.6875
-41.0,2.3439226438892597,1.625
-41.0,2.325514874434632,4.875
-40.5,2.3439226438892597,1.625
-40.5,2.3439226438892597,0.8125
-40.5,2.356194490192345,-1.625
-41.0,2.356194490192345,-1.625
-41.0,2.325514874434632,3.25
-40.5,2.313243028131547,5.6875
-40.5,2.350058567040802,-0.8125
-41.0,2.36846633649543,-4.875
-41.0,2.350058567040802,-0.8125
-40.5,2.325514874434632,4.875
-40.5,2.337786720737717,1.625
-40.5,2.337786720737717,0.8125
-40.5,2.325514874434632,4.875
-40.5,2.350058567040802,0.0
-40.5,2.2948352586769194,7.3125
-40.5,2.3316507975861747,2.4375
-40.5,2.2948352586769194,8.125
-40.5,2.3009711818284617,4.875
-40.5,2.2764274892222915,8.9375
-40.0,2.2948352586769194,5.6875
-40.0,2.3009711818284617,2.4375
-40.0,2.282563412373834,3.25
-40.5,2.2764274892222915,3.25
-40.0,2.3009711818284617,0.0
-40.5,2.3009711818284617,1.625
-40.0,2.2580197197676637,9.75
-40.0,2.3009711818284617,0.0
-40.0,2.282563412373834,2.4375
-40.0,2.2764274892222915,5.6875
-40.0,2.270291566070749,3.25
-40.0,2.2580197197676637,7.3125
-40.0,2.3009711818284617,0.8125
-40.0,2.2948352586769194,0.8125
-40.0,2.2518837966161214,8.125
-40.0,2.282563412373834,5.6875
-40.0,2.282563412373834,2.4375
-40.0,2.270291566070749,7.3125
-40.0,2.2764274892222915,6.5
-40.0,2.3071071049800045,1.625
-40.0,2.3071071049800045,0.0
-39.5,2.282563412373834,3.25
-39.5,2.3071071049800045,0.0
-40.0,2.2886993355253766,1.625
-39.5,2.2764274892222915,4.875
-40.0,2.270291566070749,5.6875
-39.5,2.2886993355253766,0.0
-39.5,2.2641556429192065,3.25
-39.5,2.2641556429192065,6.5
-39.5,2.2886993355253766,0.8125
-39.5,2.2457478734645786,7.3125
-40.0,2.3071071049800045,0.0
-40.0,2.3071071049800045,-1.625
-40.0,2.270291566070749,4.875
-39.5,2.270291566070749,7.3125
-40.0,2.2886993355253766,5.6875
-39.5,2.3009711818284617,2.4375
-39.5,2.3071071049800045,1.625
-40.0,2.3009711818284617,0.8125
-40.0,2.3193789512830896,2.4375
-40.0,2.3009711818284617,5.6875
-39.5,2.3193789512830896,0.8125
-40.0,2.3071071049800045,1.625
-39.5,2.2948352586769194,0.8125
-40.0,2.282563412373834,5.6875
-39.5,2.3071071049800045,0.8125
-39.5,2.282563412373834,5.6875
-40.0,2.3009711818284617,2.4375
-40.0,2.282563412373834,3.25
-39.5,2.313243028131547,-0.8125
-40.0,2.282563412373834,2.4375
-40.0,2.2886993355253766,3.25
-39.5,2.2641556429192065,6.5
-39.5,2.282563412373834,6.5
-40.0,2.282563412373834,5.6875
-39.5,2.2886993355253766,3.25
-39.5,2.2886993355253766,3.25
-40.0,2.313243028131547,-0.8125
-40.0,2.2764274892222915,7.3125
-40.0,2.2886993355253766,2.4375
-39.5,2.282563412373834,6.5
-40.0,2.270291566070749,7.3125
-39.5,2.2886993355253766,7.3125
-40.0,2.270291566070749,6.5
-39.5,2.2886993355253766,2.4375
-40.0,2.282563412373834,6.5
-40.0,2.2886993355253766,5.6875
-40.0,2.270291566070749,6.5
-40.0,2.2886993355253766,4.875
-40.0,2.325514874434632,-3.25
-40.0,2.2886993355253766,5.6875
-40.0,2.2764274892222915,6.5
-39.5,2.2886993355253766,5.6875
-40.0,2.2948352586769194,5.6875
-40.0,2.2457478734645786,12.1875
-39.5,2.3009711818284617,1.625
-39.5,2.282563412373834,6.5
-40.0,2.2948352586769194,3.25
-40.0,2.325514874434632,-3.25
-40.0,2.282563412373834,5.6875
-40.0,2.270291566070749,8.125
-40.0,2.3009711818284617,3.25
-39.5,2.2948352586769194,1.625
-39.5,2.2886993355253766,4.875
-39.5,2.2948352586769194,4.875
-40.0,2.2764274892222915,6.5
-40.0,2.2886993355253766,2.4375
-40.0,2.270291566070749,7.3125
-40.0,2.2764274892222915,8.125
-40.0,2.2641556429192065,8.9375
-39.5,2.2948352586769194,4.875
-39.5,2.2764274892222915,4.875
-39.5,2.3071071049800045,1.625
-40.0,2.2948352586769194,1.625
-40.0,2.2764274892222915,7.3125
-39.5,2.2948352586769194,2.4375
-40.0,2.2764274892222915,6.5
-40.0,2.3009711818284617,3.25
-39.5,2.3071071049800045,0.8125
-40.0,2.2948352586769194,4.875
-40.0,2.2886993355253766,3.25
-40.0,2.2764274892222915,5.6875
-39.5,2.270291566070749,8.125
-39.5,2.2886993355253766,2.4375
-39.5,2.313243028131547,0.0
-40.0,2.2764274892222915,5.6875
-39.5,2.2886993355253766,4.875
-40.0,2.3193789512830896,0.0
-40.0,2.3193789512830896,1.625
-39.5,2.2764274892222915,7.3125
-40.0,2.2948352586769194,4.875
-40.0,2.2518837966161214,8.125
-40.0,2.282563412373834,7.3125
-39.5,2.2764274892222915,6.5
-39.5,2.2764274892222915,5.6875
-39.5,2.2764274892222915,6.5
-39.5,2.3009711818284617,1.625
-40.0,2.2948352586769194,5.6875
-40.0,2.3193789512830896,-0.8125
-39.5,2.3009711818284617,1.625
-40.0,2.2948352586769194,6.5
-40.0,2.3071071049800045,2.4375
-40.0,2.2764274892222915,5.6875
-40.0,2.3009711818284617,1.625
-40.0,2.2948352586769194,5.6875
-39.5,2.3071071049800045,2.4375
-40.0,2.3071071049800045,1.625
-39.5,2.270291566070749,8.125
-40.0,2.2948352586769194,4.875
-39.5,2.2948352586769194,6.5
-39.5,2.2948352586769194,3.25
-40.0,2.3193789512830896,0.8125
-39.5,2.2764274892222915,8.125
-40.0,2.3193789512830896,1.625
-40.0,2.3071071049800045,1.625
-40.0,2.2948352586769194,5.6875
-40.0,2.2886993355253766,5.6875
-39.5,2.3071071049800045,5.6875
-39.5,2.313243028131547,3.25
-40.0,2.2948352586769194,6.5
-39.5,2.2886993355253766,5.6875
-40.0,2.2948352586769194,6.5
-39.5,2.2886993355253766,8.125
-39.5,2.3071071049800045,3.25
-40.0,2.3009711818284617,5.6875
-39.5,2.2948352586769194,8.125
-40.0,2.3009711818284617,6.5
-40.0,2.2764274892222915,8.125
-39.5,2.3316507975861747,-1.625
-39.5,2.337786720737717,-1.625
-39.5,2.3009711818284617,3.25
-40.0,2.3009711818284617,4.875
-39.5,2.3316507975861747,0.0
-39.5,2.3071071049800045,4.875
-40.0,2.2886993355253766,5.6875
-39.5,2.325514874434632,-0.8125
-40.0,2.282563412373834,6.5
-40.0,2.2886993355253766,8.9375
-40.0,2.3009711818284617,6.5
-40.0,2.313243028131547,4.875
-39.5,2.2948352586769194,7.3125
-40.0,2.2886993355253766,7.3125
-40.0,2.313243028131547,5.6875
-39.5,2.3009711818284617,6.5
-39.5,2.2886993355253766,6.5
-40.0,2.325514874434632,-0.8125
-40.0,2.3193789512830896,1.625
-40.0,2.313243028131547,0.0
-39.5,2.2886993355253766,8.125
-40.0,2.313243028131547,2.4375
-40.0,2.3009711818284617,4.875
-40.0,2.3193789512830896,3.25
-40.0,2.2948352586769194,7.3125
-40.0,2.313243028131547,3.25
-39.5,2.2948352586769194,5.6875
-40.0,2.337786720737717,-1.625
-40.0,2.3316507975861747,0.8125
-39.5,2.3071071049800045,6.5
-40.0,2.3193789512830896,2.4375
-40.0,2.3193789512830896,4.875
-40.0,2.325514874434632,4.875
-40.0,2.313243028131547,6.5
-40.0,2.350058567040802,0.0
-40.0,2.325514874434632,4.875
-40.0,2.3071071049800045,6.5
-40.0,2.3439226438892597,0.8125
-39.5,2.313243028131547,4.875
-40.0,2.350058567040802,-2.4375
-40.0,2.337786720737717,1.625
-40.0,2.3071071049800045,4.875
-40.0,2.313243028131547,5.6875
-40.0,2.313243028131547,5.6875
-40.0,2.313243028131547,5.6875
-40.0,2.3316507975861747,1.625
-40.0,2.3316507975861747,2.4375
-40.0,2.313243028131547,6.5
-40.0,2.3071071049800045,8.125
-40.0,2.3193789512830896,5.6875
-40.0,2.3071071049800045,6.5
-40.0,2.337786720737717,3.25
-40.0,2.356194490192345,-1.625
-40.0,2.3316507975861747,4.875
-40.0,2.3316507975861747,5.6875
-40.0,2.2948352586769194,8.125
-40.0,2.325514874434632,3.25
-40.0,2.3071071049800045,8.125
-40.0,2.325514874434632,4.875
-40.0,2.3316507975861747,5.6875
-40.0,2.3193789512830896,5.6875
-40.0,2.3193789512830896,1.625
-40.0,2.325514874434632,8.9375
-40.0,2.36846633649543,0.0
-40.0,2.3316507975861747,5.6875
-40.0,2.337786720737717,5.6875
-40.0,2.3439226438892597,3.25
-40.0,2.356194490192345,0.8125
-40.0,2.3193789512830896,6.5
-39.5,2.350058567040802,1.625
-40.0,2.325514874434632,6.5
-40.0,2.3316507975861747,4.875
-40.0,2.313243028131547,8.125
-40.0,2.3316507975861747,3.25
-40.0,2.3071071049800045,4.875
-40.0,2.2886993355253766,9.75
-40.0,2.3193789512830896,3.25
-40.0,2.337786720737717,0.8125
-40.0,2.2948352586769194,10.5625
-40.0,2.3439226438892597,1.625
-40.0,2.325514874434632,5.6875
-40.0,2.356194490192345,-1.625
-40.0,2.3316507975861747,5.6875
-40.0,2.3439226438892597,2.4375
-40.0,2.356194490192345,-1.625
-40.0,2.3316507975861747,2.4375
-40.0,2.337786720737717,1.625
-40.0,2.337786720737717,4.875
-40.0,2.337786720737717,1.625
-40.0,2.3193789512830896,3.25
-40.0,2.325514874434632,6.5
-40.0,2.350058567040802,-0.8125
-40.0,2.350058567040802,1.625
-40.0,2.356194490192345,3.25
-40.0,2.3193789512830896,6.5
-40.0,2.337786720737717,1.625
-40.0,2.3071071049800045,9.75
-40.0,2.356194490192345,0.8125
-40.0,2.3316507975861747,7.3125
-40.0,2.350058567040802,2.4375
-40.0,2.350058567040802,2.4375
-40.0,2.350058567040802,1.625
-40.0,2.337786720737717,5.6875
-40.0,2.356194490192345,2.4375
-40.0,2.337786720737717,4.875
-40.0,2.337786720737717,5.6875
-40.0,2.3193789512830896,8.125
-40.0,2.325514874434632,5.6875
-40.0,2.337786720737717,3.25
-40.0,2.3439226438892597,3.25
-40.0,2.350058567040802,4.875
-40.0,2.3439226438892597,2.4375
-40.0,2.350058567040802,3.25
-40.0,2.3193789512830896,5.6875
-40.0,2.3439226438892597,3.25
-40.0,2.3316507975861747,4.875
-40.0,2.2948352586769194,9.75
-40.0,2.337786720737717,5.6875
-40.0,2.325514874434632,6.5
