0.0 4.700117
0.02843 4.693981
0.043342 4.700117
0.080854 4.706253
0.098485 4.706253
0.11294 4.706253
0.138969 4.687845
0.155687 4.700117
0.169886 4.706253
0.18411 4.730797
0.196389 4.706253
0.213331 4.724661
0.235797 4.706253
0.262469 4.712389
0.294306 4.718525
0.303595 4.712389
0.316445 4.706253
0.34457 4.687845
0.360972 4.700117
0.390375 4.706253
0.400964 4.706253
0.424463 4.6817093
0.434446 4.687845
0.466504 4.693981
0.47776 4.706253
0.509237 4.687845
0.519185 4.700117
0.539713 4.6817093
0.550666 4.706253
0.591793 4.700117
0.604925 4.687845
0.626053 4.6694374
0.638288 4.687845
0.654398 4.6694374
0.669358 4.6817093
0.691585 4.6817093
0.704981 4.687845
0.714876 4.693981
0.732607 4.6755733
0.752037 4.6755733
0.768106 4.6694374
0.780659 4.693981
0.803363 4.6755733
0.835758 4.706253
0.847965 4.6633015
0.875705 4.6633015
0.896721 4.6817093
0.932531 4.6817093
0.953124 4.687845
0.982912 4.6817093
0.995561 4.687845
1.018751 4.6633015
1.03346 4.6571655
1.054024 4.6817093
1.068857 4.6817093
1.10298 4.6633015
1.129567 4.6633015
1.144726 4.6817093
1.181213 4.6755733
1.207672 4.6448936
1.21334 4.6694374
1.240314 4.6755733
1.25496 4.6694374
1.278594 4.6387577
1.303114 4.6448936
1.317685 4.6571655
1.343008 4.6448936
1.376888 4.6448936
1.385887 4.6571655
1.41739 4.6510296
1.430639 4.632622
1.465239 4.6387577
1.477321 4.6203504
1.498182 4.6510296
1.515879 4.6387577
1.54671 4.6203504
1.563246 4.6387577
1.577093 4.6203504
1.590318 4.6203504
1.617262 4.632622
1.628159 4.6019425
1.667835 4.626486
1.690561 4.626486
1.725503 4.6019425
1.739011 4.6142144
1.77147 4.6080785
1.779059 4.6142144
1.805817 4.5835347
1.816576 4.6019425
1.843999 4.5896707
1.860343 4.558991
1.896936 4.5958066
1.922724 4.577399
1.93558 4.565127
1.963975 4.5835347
1.976159 4.577399
1.991874 4.565127
2.008626 4.5896707
2.031802 4.565127
2.046609 4.571263
2.060029 4.565127
2.086384 4.546719
2.107827 4.534447
2.129184 4.534447
2.142499 4.534447
2.16914 4.5221753
2.191563 4.5160394
2.214942 4.4976315
2.231175 4.5221753
2.255297 4.4976315
2.264427 4.5283113
2.291579 4.5160394
2.304427 4.5037675
2.323453 4.5037675
2.338649 4.4792237
2.35566 4.4792237
2.371328 4.4792237
2.385029 4.5037675
2.398575 4.473088
2.411937 4.4914956
2.43337 4.460816
2.453952 4.4546804
2.473159 4.466952
2.499455 4.460816
2.511548 4.466952
2.536882 4.466952
2.551362 4.4546804
2.589083 4.4362726
2.594688 4.4546804
2.615618 4.4362726
2.628465 4.4301367
2.653865 4.4362726
2.668759 4.417865
2.690337 4.4240007
2.710595 4.4240007
2.726236 4.4240007
2.749071 4.417865
2.759757 4.405593
2.78361 4.4301367
2.797767 4.411729
2.823057 4.4240007
2.837486 4.411729
2.861635 4.405593
2.875043 4.405593
2.88718 4.411729
2.902582 4.393321
2.915833 4.393321
2.940257 4.393321
2.948109 4.381049
2.978677 4.3687773
2.99324 4.3565054
3.018584 4.3626413
3.036644 4.3626413
3.050026 4.3442335
3.064829 4.3565054
3.083017 4.3503695
3.100135 4.3442335
3.125714 4.3319616
3.138389 4.3442335
3.168684 4.3319616
3.183476 4.3380976
3.202074 4.3380976
3.215535 4.3380976
3.235495 4.313554
3.250451 4.3319616
3.271577 4.3258257
3.286503 4.307418
3.312411 4.3196898
3.324224 4.307418
3.351348 4.3196898
3.361445 4.28901
3.378516 4.307418
3.397955 4.295146
3.429448 4.295146
3.437861 4.2828746
3.453337 4.295146
3.466706 4.2828746
3.486154 4.2706027
3.498731 4.2767386
3.510901 4.28901
3.520034 4.28901
3.541013 4.295146
3.560697 4.295146
3.575643 4.28901
3.595174 4.2828746
3.611305 4.2828746
3.627848 4.2767386
3.646163 4.2706027
3.66274 4.28901
3.677334 4.258331
3.685344 4.258331
3.6993 4.2706027
3.718657 4.2706027
3.735948 4.2828746
3.747983 4.2706027
3.764271 4.258331
3.782485 4.264467
3.912699 4.2092433
3.926491 4.2092433
3.958496 4.215379
3.973114 4.2092433
3.997995 4.2092433
4.011606 4.215379
4.039508 4.2031074
4.048725 4.1969714
4.073434 4.1846995
4.094801 4.2031074
4.122169 4.1846995
4.133933 4.1785636
4.17347 4.1846995
4.190176 4.1724277
4.217258 4.15402
4.246534 4.1662917
4.269176 4.160156
4.293346 4.147884
4.320804 4.141748
4.346119 4.160156
4.378407 4.141748
4.412125 4.141748
4.429992 4.147884
4.483856 4.135612
4.494116 4.135612
4.534613 4.141748
4.543908 4.129476
4.565103 4.12334
4.592307 4.12334
4.643156 4.12334
4.655116 4.1172047
4.67982 4.12334
4.696116 4.104933
4.734303 4.104933
4.746533 4.104933
4.778559 4.098797
4.791897 4.1110687
4.836094 4.104933
4.852415 4.1110687
4.896507 4.098797
4.910383 4.092661
4.94439 4.086525
4.960929 4.080389
4.988417 4.092661
5.000365 4.092661
5.024261 4.080389
5.038958 4.092661
5.048315 4.092661
5.062583 4.074253
5.082327 4.074253
5.111755 4.080389
5.12619 4.080389
5.145056 4.092661
5.167587 4.068117
5.187183 4.074253
5.213838 4.074253
5.226735 4.080389
5.272559 4.080389
5.29368 4.0558453
5.314527 4.068117
5.358896 4.074253
5.382868 4.074253
5.404378 4.074253
5.428625 4.092661
5.45271 4.104933
5.489586 4.074253
5.517931 4.1172047
5.540109 4.1172047
5.570886 4.129476
5.580871 4.12334
5.608969 4.141748
5.621983 4.12334
5.64024 4.135612
5.657064 4.141748
5.679979 4.1785636
5.692593 4.160156
5.705749 4.1662917
5.739332 4.1724277
5.756175 4.1724277
5.779342 4.1846995
5.793619 4.1846995
5.830456 4.1724277
5.841813 4.2031074
5.865466 4.1969714
5.875615 4.2031074
5.894838 4.2031074
5.919603 4.2031074
5.936745 4.221515
5.963579 4.227651
5.975619 4.227651
6.001542 4.233787
6.020974 4.246059
6.063123 4.258331
6.083969 4.2767386
6.103424 4.239923
6.126282 4.252195
6.154737 4.2706027
6.180459 4.2828746
6.195716 4.2767386
6.217611 4.2767386
6.231387 4.2828746
6.248438 4.301282
6.271263 4.28901
6.290391 4.2706027
6.304339 4.307418
6.322924 4.295146
6.331882 4.295146
6.355258 4.28901
6.382255 4.295146
6.398723 4.2706027
6.419418 4.295146
6.438051 4.307418
6.45883 4.3258257
6.468413 4.307418
6.48799 4.3319616
6.501379 4.3319616
6.520577 4.3258257
6.538421 4.3258257
6.56103 4.3319616
6.586084 4.3258257
6.600041 4.295146
6.614917 4.3319616
6.628779 4.3196898
6.639499 4.3503695
6.667511 4.3319616
6.679454 4.3442335
6.704827 4.3503695
6.714158 4.3503695
6.727594 4.3687773
6.739785 4.374913
6.754097 4.374913
6.762572 4.381049
6.799858 4.381049
6.811335 4.3687773
6.824237 4.374913
6.837305 4.374913
6.865937 4.374913
6.882454 4.374913
6.911323 4.387185
6.925176 4.405593
6.957913 4.4240007
6.967332 4.4240007
6.996172 4.411729
7.009334 4.4301367
7.030591 4.411729
7.049529 4.4240007
7.065181 4.4301367
7.078023 4.4362726
7.107149 4.4301367
7.114391 4.417865
7.150845 4.417865
7.164214 4.4546804
7.188614 4.4301367
7.203574 4.4424086
7.228241 4.4240007
7.244757 4.4362726
7.269134 4.4424086
7.290012 4.4485445
7.311869 4.4792237
7.338437 4.4485445
7.360995 4.460816
7.383058 4.4485445
7.399556 4.4485445
7.413289 4.4546804
7.43872 4.4546804
7.451576 4.4792237
7.479163 4.4792237
7.50826 4.5099034
7.528706 4.473088
7.558262 4.473088
7.587413 4.4853597
7.605188 4.4914956
7.634769 4.473088
7.656195 4.4853597
7.676425 4.4792237
7.697301 4.4853597
7.726504 4.473088
7.746512 4.4976315
7.781039 4.4976315
7.80245 4.5037675
7.837072 4.5099034
7.865991 4.534447
7.880509 4.5099034
7.912525 4.4976315
7.92138 4.4976315
7.937817 4.5037675
7.967116 4.5283113
7.996738 4.5160394
8.007794 4.5221753
8.046671 4.534447
8.059767 4.5283113
8.082339 4.546719
8.098085 4.5835347
8.122785 4.558991
8.141385 4.5896707
8.166828 4.5958066
8.180344 4.5896707
8.213961 4.5896707
8.228231 4.6203504
8.25284 4.6080785
8.26583 4.6080785
8.300554 4.5958066
8.319935 4.577399
8.348934 4.577399
8.364379 4.565127
8.384988 4.558991
8.404635 4.571263
8.420936 4.552855
8.447095 4.565127
8.456917 4.577399
8.478014 4.5896707
8.500359 4.5896707
8.514237 4.577399
8.530449 4.5958066
8.548808 4.5896707
8.562795 4.558991
8.580012 4.540583
8.607456 4.565127
8.621557 4.540583
8.662508 4.5099034
8.676067 4.5037675
8.704469 4.4485445
8.720024 4.405593
8.741458 4.3258257
8.754542 4.28901
8.77655 4.28901
8.787858 4.2767386
8.814633 4.301282
8.832703 4.381049
8.852593 4.4424086
8.869298 4.4546804
8.899585 4.4240007
8.910892 4.387185
8.944434 4.3196898
8.963973 4.2706027
8.986084 4.2031074
9.029611 4.160156
9.058639 4.160156
9.087188 4.160156
9.105904 4.1846995
9.131035 4.1908355
9.155381 4.221515
9.17512 4.233787
9.202623 4.2828746
9.212213 4.2767386
9.251393 4.3442335
9.27249 4.3503695
9.291948 4.374913
9.319644 4.393321
9.348021 4.374913
9.356312 4.374913
9.384785 4.3380976
9.399103 4.3258257
9.42131 4.301282
9.435558 4.2828746
9.454152 4.233787
9.465224 4.227651
9.492862 4.1785636
