-49.0,5.982525072754001,-13.8125
-49.0,5.890486225480862,2.4375
-49.0,5.957981380147831,-14.625
-49.5,5.872078456026235,0.0
-49.5,5.786175531904639,18.6875
-49.5,5.835262917116979,7.3125
-49.0,5.780039608753096,21.125
-49.5,5.9518454569962875,-5.6875
-49.5,5.970253226450915,-8.9375
-49.0,5.884350302329319,2.4375
-49.0,5.8475347634200645,0.8125
-49.0,5.9088939949354895,-1.625
-49.5,5.7616318392984684,17.875
-49.0,6.007068765360171,-13.8125
-49.5,5.743224069843841,21.125
-49.5,5.706408530934585,29.25
-49.0,5.853670686571607,7.3125
-49.5,5.970253226450915,-11.375
-49.5,5.964117303299373,-10.5625
-49.5,5.749359992995383,17.0625
-49.5,5.872078456026235,-1.625
-49.5,5.853670686571607,3.25
-50.0,5.9518454569962875,-16.25
-49.5,5.896622148632405,2.4375
-49.5,6.007068765360171,-24.375
-50.0,5.792311455056181,5.6875
-49.0,5.927301764390117,-10.5625
-49.5,5.878214379177777,-0.8125
-49.5,5.786175531904639,19.5
-50.0,5.798447378207723,9.75
-49.5,5.730952223540755,22.75
-50.0,5.7616318392984684,17.0625
-49.5,5.8659425328746915,9.75
-49.5,5.9088939949354895,-5.6875
-49.5,5.841398840268521,5.6875
-49.5,5.921165841238575,-11.375
-49.0,5.835262917116979,8.125
-49.5,5.8659425328746915,4.875
-49.5,5.8045833013592665,18.6875
-49.5,5.767767762450011,13.8125
-49.0,6.050020227420969,-23.5625
-50.0,5.921165841238575,-8.125
-49.5,5.890486225480862,6.5
-49.5,5.798447378207723,9.75
-49.5,5.8659425328746915,-0.8125
-50.0,5.884350302329319,3.25
-49.5,5.945709533844745,0.8125
-49.0,5.945709533844745,-16.25
-49.0,5.988660995905543,-12.1875
-49.5,5.8475347634200645,9.75
-49.5,5.767767762450011,19.5
-49.0,5.8475347634200645,15.4375
-49.5,5.706408530934585,31.6875
-49.5,5.878214379177777,6.5
-50.0,5.988660995905543,-17.0625
-49.5,5.884350302329319,0.8125
-50.0,5.872078456026235,5.6875
-49.0,5.890486225480862,-5.6875
-49.5,5.773903685601553,12.1875
-49.0,5.872078456026235,8.9375
-49.5,5.921165841238575,-7.3125
-49.5,5.810719224510809,17.875
-50.0,6.025476534814799,-17.0625
-49.5,5.730952223540755,29.25
-49.0,5.737088146692298,17.875
-49.0,5.915029918087033,-9.75
-49.0,5.822991070813893,8.125
-49.5,5.798447378207723,12.1875
-49.5,5.810719224510809,0.8125
-49.5,5.8659425328746915,2.4375
-49.5,5.767767762450011,13.8125
-50.0,5.755495916146925,15.4375
-49.5,5.9518454569962875,-4.875
-49.5,5.939573610693203,-9.75
-49.5,5.749359992995383,26.0
-49.5,5.798447378207723,14.625
-49.5,5.798447378207723,4.875
-49.5,5.921165841238575,-5.6875
-49.5,5.841398840268521,0.8125
-49.5,5.7616318392984684,8.9375
-49.5,5.737088146692298,11.375
-49.0,6.019340611663256,-18.6875
-49.5,5.93343768754166,-20.3125
-49.5,5.8045833013592665,6.5
-49.5,5.822991070813893,5.6875
-49.5,5.792311455056181,11.375
-50.0,5.767767762450011,10.5625
-50.0,5.6143696836614465,31.6875
-50.0,5.8045833013592665,6.5
-49.0,5.737088146692298,15.4375
-50.0,5.810719224510809,8.125
-49.5,5.730952223540755,9.75
-50.5,5.792311455056181,9.75
-50.0,5.724816300389213,12.1875
-49.5,5.859806609723149,-9.75
-49.5,5.638913376267617,21.125
-50.0,5.700272607783043,28.4375
-50.0,5.957981380147831,-22.75
-49.5,5.700272607783043,14.625
-50.0,5.798447378207723,2.4375
-49.5,5.773903685601553,3.25
-49.5,5.767767762450011,4.875
-49.5,5.810719224510809,-3.25
-50.0,5.8659425328746915,-7.3125
-50.0,5.773903685601553,1.625
-49.5,5.884350302329319,-17.0625
-49.5,5.835262917116979,-10.5625
-50.0,5.755495916146925,5.6875
-50.0,5.841398840268521,-9.75
-49.5,5.706408530934585,7.3125
-50.0,5.810719224510809,-5.6875
-49.5,5.675728915176872,8.125
-50.0,5.66959299202533,10.5625
-50.0,5.8659425328746915,-5.6875
-49.5,5.712544454086128,-2.4375
-50.0,5.792311455056181,0.0
-50.0,5.816855147662351,-4.875
-50.5,5.651185222570702,22.75
-50.0,5.675728915176872,12.1875
-49.5,5.810719224510809,-5.6875
-50.0,5.737088146692298,14.625
-49.5,5.8475347634200645,-7.3125
-49.5,5.927301764390117,-17.0625
-49.5,5.706408530934585,13.8125
-50.0,5.841398840268521,-11.375
-50.0,5.6573211457222445,18.6875
-50.0,5.749359992995383,3.25
-50.0,5.810719224510809,-7.3125
-50.0,5.755495916146925,-5.6875
-49.5,5.767767762450011,-1.625
-50.0,5.816855147662351,-5.6875
-49.5,5.841398840268521,-7.3125
-49.5,5.853670686571607,-8.9375
-50.0,5.884350302329319,-15.4375
-50.0,5.66959299202533,11.375
-50.0,5.786175531904639,4.875
-49.5,5.773903685601553,-2.4375
-50.0,5.786175531904639,-4.875
-49.5,5.626641529964532,14.625
-50.0,5.6573211457222445,11.375
-50.0,5.66959299202533,10.5625
-50.0,5.737088146692298,0.0
-50.5,5.608233760509904,22.75
-49.5,5.8045833013592665,-11.375
-50.0,5.5714182216006485,26.8125
-50.0,5.915029918087033,-26.8125
-50.0,5.626641529964532,13.8125
-50.0,5.6941366846315,1.625
-50.0,5.767767762450011,-1.625
-50.0,5.724816300389213,7.3125
-50.5,5.638913376267617,17.0625
-49.5,5.878214379177777,-20.3125
-50.0,5.884350302329319,-19.5
-50.0,5.7616318392984684,2.4375
-50.0,5.8045833013592665,-6.5
-50.0,5.602097837358362,24.375
-49.5,5.743224069843841,-0.8125
-50.0,5.737088146692298,-0.8125
-49.5,5.780039608753096,-5.6875
-49.5,5.859806609723149,-13.8125
-49.5,5.872078456026235,-14.625
-49.0,5.706408530934585,17.0625
-50.0,5.66959299202533,19.5
-49.5,5.6941366846315,16.25
-49.5,5.626641529964532,17.0625
-50.0,5.632777453116074,22.75
-50.0,5.749359992995383,-6.5
-49.5,5.638913376267617,12.1875
-50.0,5.780039608753096,-4.875
-49.5,5.816855147662351,-7.3125
-50.0,5.577554144752192,24.375
-49.0,5.773903685601553,-5.6875
-50.0,5.786175531904639,-7.3125
-50.0,5.675728915176872,6.5
-49.5,5.712544454086128,2.4375
-49.5,5.755495916146925,0.8125
-50.0,5.884350302329319,-17.0625
-50.0,5.663457068873787,13.8125
-49.5,5.638913376267617,15.4375
-50.0,5.792311455056181,-4.875
-50.0,5.64504929941916,13.8125
-50.0,5.798447378207723,-4.875
-50.0,5.626641529964532,15.4375
-49.0,5.829126993965437,-6.5
-49.5,5.749359992995383,-6.5
-50.0,5.706408530934585,12.1875
-49.5,5.786175531904639,-0.8125
-49.5,5.773903685601553,-0.8125
-50.0,5.730952223540755,0.8125
-50.0,5.638913376267617,28.4375
-49.5,5.688000761479957,16.25
-49.5,5.66959299202533,11.375
-49.5,5.620505606812989,18.6875
-49.5,5.688000761479957,14.625
-49.5,5.743224069843841,2.4375
-49.5,5.724816300389213,1.625
-50.0,5.730952223540755,9.75
-49.5,5.816855147662351,2.4375
-50.0,5.737088146692298,8.9375
-50.0,5.71868037723767,-0.8125
-49.5,5.688000761479957,4.875
-49.5,5.706408530934585,1.625
-49.5,5.749359992995383,1.625
-49.5,5.620505606812989,26.8125
-49.5,5.976389149602458,-30.875
-49.5,5.792311455056181,0.0
-49.5,5.66959299202533,24.375
-49.5,5.749359992995383,12.1875
-50.0,5.93343768754166,-17.875
-49.0,5.773903685601553,0.8125
-49.5,5.798447378207723,0.8125
-49.5,5.755495916146925,8.9375
-50.0,5.822991070813893,-0.8125
-49.5,5.902758071783947,-17.875
-49.5,5.743224069843841,12.1875
-49.5,5.884350302329319,-4.875
-49.5,5.7616318392984684,13.8125
-49.5,5.786175531904639,2.4375
-49.5,5.730952223540755,9.75
-49.5,5.93343768754166,-17.0625
-49.5,5.749359992995383,3.25
-49.5,5.786175531904639,6.5
-49.0,5.792311455056181,-2.4375
-49.5,5.663457068873787,21.125
-49.0,5.884350302329319,-13.8125
-50.0,5.675728915176872,17.0625
-49.5,5.816855147662351,-6.5
-49.5,5.878214379177777,-12.1875
-49.5,5.7616318392984684,4.875
-49.5,5.884350302329319,-8.9375
-49.0,5.712544454086128,6.5
-49.0,5.792311455056181,0.8125
-50.0,5.7616318392984684,3.25
-50.0,5.755495916146925,8.9375
-49.0,5.841398840268521,-12.1875
-50.0,5.706408530934585,18.6875
-49.5,5.927301764390117,-20.3125
-49.0,5.681864838328415,17.875
-50.0,5.66959299202533,17.0625
-49.5,5.688000761479957,8.125
-49.5,5.780039608753096,-1.625
-49.5,5.816855147662351,-10.5625
-50.0,5.7616318392984684,2.4375
-50.0,5.688000761479957,18.6875
-50.0,5.64504929941916,12.1875
-49.5,5.902758071783947,-21.125
-49.5,5.608233760509904,23.5625
-49.5,5.724816300389213,10.5625
-50.0,5.5714182216006485,23.5625
-50.0,5.681864838328415,16.25
-50.0,5.829126993965437,-17.875
-49.5,5.859806609723149,-21.125
-50.0,5.737088146692298,-12.1875
-50.0,5.565282298449106,13.8125
-50.0,5.522330836388308,11.375
-50.5,5.534602682691394,13.8125
-51.0,5.540738605842936,8.125
-50.0,5.460971604872882,16.25
-51.0,5.534602682691394,2.4375
-51.0,5.583690067903734,0.8125
-50.0,5.675728915176872,-25.1875
-51.0,5.4671075280244255,7.3125
-51.0,5.3198453723874035,36.5625
-50.5,5.405748296509,21.125
-51.0,5.264622064023521,48.8125
-50.5,5.344389064993574,28.4375
-50.5,5.3627968344482015,23.5625
-51.0,5.368932757599744,25.1875
-51.0,5.5100589900852235,-1.625
-50.5,5.559146375297564,-7.3125
-51.5,5.473243451175968,16.25
-51.5,5.577554144752192,-6.5
-50.5,5.473243451175968,-1.625
-51.0,5.50392306693368,6.5
-51.0,5.3627968344482015,28.4375
-51.0,5.4671075280244255,6.5
-51.0,5.45483568172134,3.25
-51.0,5.424156065963627,9.75
-50.5,5.387340527054372,10.5625
-51.5,5.460971604872882,8.9375
-51.0,5.5100589900852235,-4.875
-50.5,5.497787143782138,3.25
-51.5,5.338253141842031,26.8125
-51.5,5.522330836388308,13.8125
-51.0,5.651185222570702,-29.25
-50.5,5.43029198911517,13.8125
-50.5,5.460971604872882,8.9375
-51.0,5.4671075280244255,5.6875
-50.5,5.45483568172134,7.3125
-51.0,5.602097837358362,-13.8125
-50.5,5.577554144752192,-15.4375
-50.5,5.497787143782138,-1.625
-51.5,5.546874528994478,-1.625
-51.5,5.418020142812084,7.3125
-51.0,5.270757987175063,39.875
-50.0,5.608233760509904,-17.0625
-51.0,5.448699758569798,14.625
-51.0,5.651185222570702,-25.1875
-50.5,5.264622064023521,32.5
-51.0,5.5714182216006485,-7.3125
-51.0,5.534602682691394,-6.5
-51.0,5.6941366846315,-20.3125
-51.0,5.485515297479052,6.5
-51.5,5.522330836388308,0.8125
-51.5,5.5100589900852235,6.5
-51.5,5.411884219660542,20.3125
-51.5,5.47937937432751,8.125
-50.5,5.583690067903734,-12.1875
-50.5,5.522330836388308,-2.4375
-51.0,5.810719224510809,-44.75
-51.0,5.534602682691394,-3.25
-51.0,5.540738605842936,-3.25
-51.0,5.583690067903734,-15.4375
-51.0,5.393476450205914,12.1875
-51.0,5.448699758569798,6.5
-50.5,5.516194913236766,-5.6875
-51.0,5.473243451175968,9.75
-51.0,5.47937937432751,-2.4375
-51.0,5.460971604872882,3.25
-51.0,5.706408530934585,-31.6875
-51.0,5.485515297479052,13.8125
-50.5,5.203262832508095,46.375
-51.0,5.522330836388308,-4.875
-50.5,5.5284667595398505,-4.875
-51.5,5.45483568172134,7.3125
-51.5,5.497787143782138,-5.6875
-50.5,5.553010452146021,-8.125
-51.0,5.338253141842031,28.4375
-51.0,5.375068680751287,17.0625
-50.5,5.589825991055276,-15.4375
-51.5,5.332117218690489,24.375
-51.5,5.565282298449106,-8.125
-52.0,5.381204603902829,20.3125
-51.0,5.5284667595398505,-15.4375
-52.0,5.473243451175968,14.625
-51.0,5.356660911296659,16.25
-51.5,5.5714182216006485,-9.75
-51.0,5.442563835418255,0.0
-51.5,5.497787143782138,4.875
-51.5,5.3627968344482015,24.375
-51.0,5.577554144752192,-12.1875
-52.0,5.485515297479052,-16.25
-51.5,5.418020142812084,1.625
-51.0,5.583690067903734,-17.0625
-51.0,5.608233760509904,-26.0
-51.5,5.387340527054372,12.1875
-51.0,5.325981295538946,15.4375
-51.5,5.301437602932776,28.4375
-52.0,5.5284667595398505,-13.8125
-50.5,5.399612373357457,7.3125
-52.0,5.387340527054372,8.9375
-52.0,5.338253141842031,17.875
-52.0,5.497787143782138,-4.875
-52.0,5.424156065963627,-5.6875
-51.5,5.522330836388308,-10.5625
-51.0,5.50392306693368,-16.25
-51.5,5.387340527054372,2.4375
-51.5,5.411884219660542,8.9375
-51.5,5.325981295538946,19.5
-51.0,5.460971604872882,-13.8125
-51.5,5.368932757599744,7.3125
-52.0,5.516194913236766,-13.8125
-51.5,5.491651220630596,-3.25
-52.0,5.375068680751287,8.9375
-51.5,5.485515297479052,-18.6875
-52.0,5.43029198911517,5.6875
-52.0,5.246214294568893,36.5625
-51.5,5.540738605842936,-16.25
-51.5,5.350524988145116,19.5
-51.5,5.460971604872882,0.8125
-52.0,5.332117218690489,19.5
-51.5,5.418020142812084,10.5625
-51.0,5.344389064993574,17.0625
-51.5,5.559146375297564,-15.4375
-52.0,5.559146375297564,-13.8125
-52.5,5.497787143782138,8.9375
-51.5,5.338253141842031,26.0
-51.5,5.540738605842936,-9.75
-51.5,5.767767762450011,-37.375
-52.0,5.411884219660542,21.125
-51.5,5.663457068873787,-22.75
-52.0,5.681864838328415,-23.5625
-51.5,5.485515297479052,-3.25
-51.5,5.534602682691394,-5.6875
-51.5,5.6143696836614465,-9.75
-51.5,5.66959299202533,-21.125
-51.5,5.767767762450011,-34.125
-52.0,5.5714182216006485,-2.4375
-51.5,5.5284667595398505,5.6875
-52.0,5.418020142812084,17.875
-52.0,5.577554144752192,0.0
-52.5,5.540738605842936,3.25
-52.0,5.485515297479052,6.5
-52.0,5.460971604872882,25.1875
-52.0,5.737088146692298,-17.0625
-51.0,5.497787143782138,16.25
-51.5,5.767767762450011,-20.3125
-51.5,5.829126993965437,-39.875
-51.0,5.473243451175968,17.875
-51.5,5.577554144752192,6.5
-51.5,5.620505606812989,-2.4375
-51.0,5.491651220630596,25.1875
-52.0,5.583690067903734,21.125
-52.0,5.64504929941916,5.6875
-52.0,5.626641529964532,5.6875
-51.5,5.712544454086128,-6.5
-51.0,5.786175531904639,-16.25
-51.0,5.737088146692298,-8.9375
-52.0,5.632777453116074,18.6875
-51.5,5.810719224510809,-17.0625
-51.0,5.688000761479957,0.8125
-51.0,5.6143696836614465,21.125
-51.5,5.534602682691394,27.625
-51.0,5.890486225480862,-22.75
-51.0,5.64504929941916,12.1875
-51.5,5.688000761479957,7.3125
-51.5,5.835262917116979,-17.0625
-51.5,5.553010452146021,29.25
-52.0,5.749359992995383,0.0
-51.0,5.743224069843841,-5.6875
-52.0,5.724816300389213,11.375
-51.0,5.853670686571607,-14.625
-51.5,5.927301764390117,-24.375
-51.5,5.810719224510809,-1.625
-51.5,5.626641529964532,19.5
-51.5,5.964117303299373,-26.8125
-51.5,5.589825991055276,32.5
-51.5,5.915029918087033,-11.375
-50.5,5.730952223540755,7.3125
-51.0,5.730952223540755,5.6875
-51.0,5.816855147662351,-3.25
-51.5,5.878214379177777,-6.5
-51.5,5.565282298449106,23.5625
-51.0,5.921165841238575,-11.375
-51.5,5.66959299202533,25.1875
-51.5,5.6573211457222445,23.5625
-51.0,5.896622148632405,-2.4375
-51.5,5.8475347634200645,0.0
-50.5,5.737088146692298,10.5625
-51.5,5.816855147662351,16.25
-51.5,5.822991070813893,12.1875
-50.5,5.970253226450915,-15.4375
-50.5,5.8475347634200645,-1.625
-51.0,5.730952223540755,28.4375
-50.5,6.025476534814799,-22.75
-51.0,6.013204688511713,-8.9375
-51.0,5.982525072754001,-10.5625
-51.5,5.7616318392984684,26.0
-51.5,6.0991076126333095,-24.375
-51.0,5.915029918087033,4.875
-51.5,5.878214379177777,4.875
-51.0,5.859806609723149,22.75
-51.5,5.945709533844745,13.8125
-50.5,6.025476534814799,11.375
-51.5,6.043884304269426,-0.8125
-51.5,6.013204688511713,1.625
-51.5,6.105243535784852,-14.625
-51.0,6.019340611663256,-5.6875
-50.5,6.000932842208628,-2.4375
-50.5,6.062292073724054,-7.3125
-51.0,6.19728238305799,-26.0
-51.5,5.878214379177777,34.9375
-50.5,5.982525072754001,19.5
-51.0,6.056156150572511,8.125
-51.5,5.988660995905543,16.25
-51.0,5.939573610693203,27.625
-51.0,6.19728238305799,-5.6875
-51.0,6.277049384028044,-31.6875
-51.0,6.178874613603362,5.6875
-51.0,5.945709533844745,26.0
-51.0,6.037748381117884,25.1875
-51.5,6.270913460876501,-22.75
-51.5,6.2463697682703305,-12.1875
-51.5,5.927301764390117,43.9375
-50.5,6.068427996875596,12.1875
-51.0,6.12365130523948,0.0
-51.5,6.215690152512618,-4.875
-51.0,6.043884304269426,17.0625
-51.0,6.14819499784565,9.75
-51.5,6.209554229361076,4.875
-51.0,6.117515382087937,8.125
-51.0,6.17273869045182,-8.125
-51.0,6.166602767300278,10.5625
-51.0,6.234097921967246,-1.625
-50.0,6.160466844148735,12.1875
-51.0,6.031612457966341,34.125
-51.0,6.037748381117884,26.0
-51.0,0.17794177139473438,-25.1875
-51.5,6.227961998815704,0.8125
-51.0,0.2086213871524472,-20.3125
-50.0,0.01227184630308513,4.875
-52.0,6.252505691421874,13.8125
-51.0,0.11044661672776616,-9.75
-51.5,0.15339807878856412,-8.9375
-51.5,0.006135923151542565,0.8125
-50.5,0.0674951546669682,-7.3125
-50.5,0.11658253987930872,-14.625
-50.5,0.018407769454627694,3.25
-50.5,0.06135923151542565,5.6875
-50.0,0.15339807878856412,8.125
-50.5,0.030679615757712823,17.0625
-51.0,0.030679615757712823,26.8125
-50.5,0.03681553890925539,26.8125
-50.5,0.006135923151542565,24.375
-50.5,0.15339807878856412,11.375
-50.5,0.2270291566070749,-0.8125
-51.0,0.1902136176978195,-1.625
-50.0,0.07976700097005335,32.5
-50.0,0.1595340019401067,23.5625
-50.0,0.3620194659410113,-23.5625
-50.5,0.1043106935762236,22.75
-51.0,0.09203884727313846,28.4375
-50.5,0.06135923151542565,34.9375
-51.0,0.36815538909255385,-5.6875
-50.0,0.30679615757712825,12.1875
-50.5,0.39269908169872414,8.9375
-50.5,0.4295146206079795,-2.4375
-50.5,0.4049709280018093,-0.8125
-51.5,0.30679615757712825,14.625
-50.5,0.4356505437595221,5.6875
-51.0,0.35588354278946877,1.625
-50.5,0.37429131224409645,12.1875
-50.5,0.4111068511533518,10.5625
-50.5,0.4908738521234052,-11.375
-50.5,0.4724660826687775,0.8125
-50.5,0.44178646691106466,0.8125
-50.5,0.16566992509164924,31.6875
-51.0,0.3988350048502667,11.375
-50.5,0.4111068511533518,7.3125
-50.0,0.607456392002714,1.625
-49.5,0.6994952392758523,-1.625
-51.0,0.6381360077604268,8.125
-51.5,0.5767767762450011,21.125
-50.5,0.662679700366597,9.75
-51.0,0.7301748550335652,-1.625
-50.5,0.6320000846088841,16.25
-50.5,0.8774370106705868,-17.0625
-49.5,0.9387962421860124,-2.4375
-51.0,0.8897088569736719,2.4375
-51.0,0.9265243958829272,-11.375
-50.5,0.9756117810952678,-6.5
-49.5,0.9817477042468103,-11.375
-51.0,0.944932165337555,-6.5
-51.0,0.8406214717613314,13.8125
-51.0,0.9694758579437253,-2.4375
-50.0,0.9817477042468103,8.125
-51.0,1.1658253987930873,-22.75
-51.0,1.0246991663076084,5.6875
-52.0,1.030835089459151,6.5
-51.5,0.9878836273983529,11.375
-51.0,1.141281706186917,-10.5625
-51.5,1.0676506283684062,4.875
-51.5,0.9878836273983529,16.25
-51.5,1.0062913968529805,11.375
-51.0,1.0921943209745766,-5.6875
-51.0,1.012427320004523,9.75
-51.5,1.1228739367322893,-12.1875
-50.0,0.9817477042468103,12.1875
-50.5,1.1044661672776617,-7.3125
-51.0,1.043106935762236,8.9375
-50.5,1.1719613219446299,-17.875
-50.5,1.0676506283684062,-0.8125
-51.0,0.9387962421860124,22.75
-51.5,1.0921943209745766,5.6875
-51.5,1.086058397823034,-2.4375
-51.5,0.9019807032767571,28.4375
-51.5,1.086058397823034,-5.6875
-51.5,1.086058397823034,-5.6875
-51.5,1.1780972450961724,-10.5625
-50.5,1.0246991663076084,11.375
-50.0,1.086058397823034,-5.6875
-50.0,1.0983302441261191,1.625
-51.5,1.1351457830353744,-7.3125
-50.0,1.030835089459151,8.9375
-50.5,0.9265243958829272,25.1875
-51.0,1.0799224746714913,-4.875
-50.5,1.0921943209745766,-1.625
-50.5,1.086058397823034,-4.875
-51.5,1.1290098598838318,-16.25
-50.5,1.030835089459151,4.875
-51.5,1.1290098598838318,-19.5
-51.5,1.0737865515199487,1.625
-51.0,1.0492428589137786,7.3125
-51.0,1.0737865515199487,12.1875
-51.0,1.043106935762236,12.1875
-52.0,1.1167380135807468,-1.625
-51.0,1.2026409377023426,-6.5
-51.0,1.0737865515199487,29.25
-51.0,1.3008157081270237,-3.25
-52.0,1.3867186322486196,-25.1875
-52.0,1.2640001692177683,3.25
-51.5,1.3192234775816514,0.0
-51.5,1.2946797849754812,-0.8125
-51.0,1.2946797849754812,1.625
-51.0,1.2701360923693108,5.6875
-52.0,1.3069516312785663,-1.625
-50.5,1.3744467859455345,-2.4375
-50.5,1.380582709097077,-8.125
-51.5,1.2210487071569704,22.75
-51.0,1.3744467859455345,-6.5
-52.5,1.3867186322486196,-8.9375
-51.0,1.2640001692177683,20.3125
-51.5,1.4173982480063325,-3.25
-51.5,1.41126232485479,-4.875
-52.0,1.2762720155208536,26.8125
-52.5,1.4296700943094176,0.0
-52.5,1.3437671701878218,23.5625
-51.5,1.3989904785517047,6.5
-50.5,1.3437671701878218,18.6875
-52.0,1.6321555583103222,-29.25
-52.5,1.4910293258248433,-4.875
-51.5,1.380582709097077,7.3125
-51.0,1.4173982480063325,12.1875
-51.5,1.5278448647340985,-18.6875
-52.0,1.4296700943094176,7.3125
-52.5,1.3560390164909069,13.8125
-52.0,1.533980787885641,-9.75
-51.5,1.4542137869155878,1.625
-53.0,1.5033011721279284,10.5625
-51.5,1.4787574795217582,0.0
-51.0,1.4419419406125027,17.0625
-52.0,1.5830681730979816,-8.9375
-51.5,1.576932249946439,-9.75
-52.5,1.6198837120072371,-15.4375
-52.0,1.4664856332186729,7.3125
-52.0,1.533980787885641,10.5625
-52.5,1.4664856332186729,21.125
-52.5,1.5033011721279284,23.5625
-51.5,1.5401167110371838,0.0
-52.0,1.5155730184310134,23.5625
-52.5,1.6382914814618648,-12.1875
-51.5,1.4848934026733007,13.8125
-52.5,1.3437671701878218,36.5625
-51.5,1.4910293258248433,16.25
-52.5,1.5892040962495242,-9.75
-52.5,1.5462526341887264,4.875
-52.5,1.6812429435226628,-5.6875
-52.5,1.4603497100671303,22.75
-52.0,1.607611865704152,0.8125
-51.5,1.5953400194010667,0.8125
-51.0,1.6321555583103222,-11.375
-51.0,1.552388557340269,11.375
-52.5,1.6260196351587797,-3.25
-52.0,1.5278448647340985,12.1875
-53.0,1.6873788666742053,-15.4375
-51.5,1.552388557340269,8.9375
-51.5,1.5401167110371838,18.6875
-52.0,1.4358060174609601,30.875
-52.0,1.3928545554001621,29.25
-52.5,1.5585244804918115,10.5625
-52.5,1.5033011721279284,18.6875
-51.5,1.5585244804918115,15.4375
-51.5,1.564660403643354,12.1875
-52.0,1.5401167110371838,16.25
-52.5,1.6566992509164924,-7.3125
-52.0,1.5830681730979816,3.25
-52.0,1.6873788666742053,-3.25
-52.0,1.564660403643354,16.25
-52.0,1.6321555583103222,8.9375
-51.5,1.5830681730979816,11.375
-50.5,1.6812429435226628,-8.125
-52.0,1.5953400194010667,13.8125
-52.0,1.8285050991596843,-42.3125
-52.5,1.6751070203711202,-4.875
-51.5,1.5892040962495242,10.5625
-52.5,1.846912868614312,-28.4375
-52.0,1.521708941582556,25.1875
-51.0,1.6935147898257479,-6.5
-52.5,1.5585244804918115,26.8125
-52.5,1.846912868614312,-31.6875
-52.0,1.6566992509164924,-0.8125
-52.5,1.761009944492716,-19.5
-51.5,1.7119225592803755,-11.375
-53.0,1.607611865704152,7.3125
-52.5,1.6014759425526093,16.25
-52.0,1.4051264017032472,48.8125
-51.5,1.564660403643354,34.125
-51.5,1.576932249946439,6.5
-52.0,1.6566992509164924,3.25
-51.5,1.509437095279471,21.125
-52.0,1.7119225592803755,-9.75
-51.5,1.6812429435226628,0.8125
-52.0,1.4971652489763858,32.5
-52.0,1.6382914814618648,12.1875
-51.5,1.7916895602504288,-23.5625
-52.5,1.6566992509164924,4.875
-52.5,1.533980787885641,24.375
-51.5,1.6996507129772904,-8.125
-51.0,1.4480778637640452,35.75
-52.5,1.7426021750380885,-8.9375
-52.0,1.6935147898257479,8.9375
-52.0,1.576932249946439,14.625
-52.5,1.7303303287350031,0.0
-52.0,1.6751070203711202,10.5625
-52.5,1.5155730184310134,35.75
-52.0,1.6198837120072371,26.0
-52.5,1.5401167110371838,33.3125
-51.0,1.5278448647340985,28.4375
-52.5,1.705786636128833,-9.75
-52.5,1.6444274046134073,12.1875
-51.5,1.533980787885641,31.6875
-52.0,1.7978254834019713,-14.625
-50.5,1.7732817907958012,-2.4375
-52.0,1.6935147898257479,6.5
-52.0,1.761009944492716,3.25
-52.0,1.736466251886546,1.625
-52.5,1.5401167110371838,29.25
-51.5,1.5462526341887264,29.25
-51.0,1.6996507129772904,0.0
-51.5,1.6935147898257479,2.4375
-52.5,1.6996507129772904,5.6875
-52.0,1.6689710972195777,12.1875
-50.5,1.6014759425526093,15.4375
-52.0,1.6566992509164924,8.125
-51.0,1.6321555583103222,8.125
-52.0,1.6751070203711202,4.875
-51.5,1.6812429435226628,11.375
-51.5,1.7671458676442586,-10.5625
-51.5,1.6260196351587797,22.75
-52.0,1.7119225592803755,-2.4375
-50.5,1.8100973297050567,-9.75
-51.5,1.7671458676442586,-5.6875
-52.5,1.7548740213411735,-9.75
-51.5,1.6014759425526093,19.5
-50.5,1.7426021750380885,-0.8125
-51.5,1.748738098189631,-5.6875
-50.5,1.736466251886546,-7.3125
-52.0,1.6382914814618648,21.125
-50.5,1.6812429435226628,3.25
-50.5,1.6137477888556946,12.1875
-51.5,1.748738098189631,-8.9375
-50.0,1.6321555583103222,9.75
-51.0,1.6505633277649499,9.75
-50.5,1.5830681730979816,15.4375
-50.5,1.6321555583103222,6.5
-51.0,1.564660403643354,26.8125
-51.5,1.607611865704152,15.4375
-51.5,1.5462526341887264,14.625
-50.5,1.718058482431918,-12.1875
-51.0,1.8714565612204823,-34.9375
-50.5,1.5585244804918115,16.25
-51.5,1.6014759425526093,7.3125
-50.5,1.5462526341887264,25.1875
-51.0,1.5953400194010667,1.625
-50.5,1.607611865704152,8.9375
-51.0,1.4542137869155878,33.3125
-50.5,1.662835174068035,-0.8125
-51.0,1.552388557340269,20.3125
-50.5,1.705786636128833,-8.9375
-51.0,1.6751070203711202,-6.5
-50.5,1.5585244804918115,9.75
-51.0,1.6137477888556946,1.625
-50.0,1.5892040962495242,1.625
-50.5,1.6014759425526093,10.5625
-51.0,1.564660403643354,20.3125
-50.0,1.6260196351587797,5.6875
-50.5,1.6260196351587797,10.5625
-51.0,1.4848934026733007,34.9375
-51.0,1.509437095279471,34.125
-51.0,1.5707963267948966,15.4375
-49.5,1.705786636128833,-9.75
-50.5,1.607611865704152,-5.6875
-50.5,1.6689710972195777,-8.125
-50.5,1.3928545554001621,34.125
-50.5,1.552388557340269,9.75
-50.5,1.5707963267948966,18.6875
-50.5,1.6812429435226628,-6.5
-50.5,1.6444274046134073,-5.6875
-50.0,1.662835174068035,-10.5625
-50.0,1.6812429435226628,-11.375
-50.5,1.5707963267948966,4.875
-50.0,1.5585244804918115,8.9375
-50.5,1.564660403643354,-2.4375
-50.0,1.5155730184310134,12.1875
-50.0,1.5401167110371838,6.5
-50.5,1.4419419406125027,26.8125
-50.0,1.4358060174609601,22.75
-49.5,1.509437095279471,11.375
-50.0,1.6260196351587797,-14.625
-49.5,1.509437095279471,3.25
-49.5,1.4480778637640452,-1.625
-49.0,1.4051264017032472,-3.25
-49.0,1.3192234775816514,0.0
-48.5,1.227184630308513,16.25
-48.5,1.2640001692177683,0.8125
-48.0,1.0921943209745766,23.5625
-48.5,1.1965050145508,-5.6875
-48.0,1.1106020904292042,10.5625
-47.5,1.1535535524900022,-0.8125
-48.0,1.0492428589137786,11.375
-47.5,1.0921943209745766,0.8125
-47.5,1.0737865515199487,-2.4375
-47.5,1.043106935762236,2.4375
-48.0,1.0492428589137786,-3.25
-47.5,0.9940195505498954,0.8125
-48.0,0.9940195505498954,-4.875
-48.0,0.9265243958829272,0.8125
-47.5,0.9572040116406401,-3.25
-47.0,0.9817477042468103,-8.125
-48.0,0.8528933180644165,1.625
-47.5,0.9510680884890975,-7.3125
-48.0,0.7915340865489908,9.75
-48.0,0.8160777791551611,6.5
-47.5,0.8467573949128739,-4.875
-48.0,0.7179030087304801,13.8125
-47.5,0.803805932852076,4.875
-47.0,0.7301748550335652,3.25
-47.5,0.7179030087304801,6.5
-47.5,0.760854470791278,-4.875
-48.0,0.7117670855789375,-0.8125
-48.0,0.705631162427395,-1.625
-47.5,0.6504078540635119,6.5
-47.5,0.6872233929727672,-4.875
-47.5,0.6013204688511713,6.5
-47.0,0.6504078540635119,-2.4375
-47.0,0.6013204688511713,6.5
-47.0,0.6320000846088841,-2.4375
-47.0,0.6135923151542565,-6.5
-48.0,0.4970097752749477,11.375
-47.5,0.5829126993965437,4.875
-47.0,0.5829126993965437,4.875
-48.0,0.5154175447295755,8.9375
-48.0,0.607456392002714,-2.4375
-47.0,0.5706408530934585,1.625
-47.5,0.5706408530934585,-5.6875
-47.5,0.46019423636569234,10.5625
-47.0,0.521553467881118,0.8125
-47.5,0.4970097752749477,7.3125
-47.0,0.5338253141842031,-3.25
-48.0,0.44178646691106466,9.75
-48.0,0.5031456984264903,8.125
-47.5,0.4663301595172349,8.9375
-48.0,0.44178646691106466,17.0625
-47.5,0.5338253141842031,-3.25
-47.5,0.5092816215780329,3.25
-47.5,0.5399612373357456,1.625
-48.0,0.5092816215780329,7.3125
-47.5,0.6013204688511713,-12.1875
-47.0,0.5706408530934585,-2.4375
-47.5,0.5092816215780329,7.3125
-47.0,0.5154175447295755,4.875
-48.0,0.47860200582032003,5.6875
-47.5,0.48473792897186263,3.25
-47.0,0.48473792897186263,9.75
-47.5,0.5460971604872883,-4.875
-48.0,0.4540583132141498,6.5
-47.5,0.48473792897186263,6.5
-47.0,0.5031456984264903,0.0
-47.5,0.4908738521234052,0.0
-47.0,0.3865631585471816,13.8125
-47.0,0.5031456984264903,-3.25
-47.0,0.4479223900626072,8.9375
-47.0,0.5092816215780329,-2.4375
-47.5,0.5890486225480862,-20.3125
-47.0,0.3436116964863836,18.6875
-47.5,0.47860200582032003,-0.8125
-47.0,0.39269908169872414,8.9375
-47.5,0.35588354278946877,14.625
-47.5,0.4540583132141498,-0.8125
-48.0,0.3129320807286708,19.5
-48.0,0.3620194659410113,7.3125
-47.0,0.4049709280018093,1.625
-47.0,0.37429131224409645,10.5625
-47.5,0.39269908169872414,8.9375
-47.5,0.3129320807286708,14.625
-48.0,0.3313398501832985,8.125
-48.0,0.3374757733348411,4.875
-48.0,0.380427235395639,-8.125
-47.5,0.380427235395639,-6.5
-47.5,0.35588354278946877,-2.4375
-47.5,0.30066023442558565,-1.625
-47.5,0.30679615757712825,0.8125
-47.5,0.2270291566070749,15.4375
-48.0,0.2270291566070749,11.375
-47.5,0.23316507975861744,4.875
-48.5,0.25770877236478773,3.25
-47.5,0.30679615757712825,-5.6875
-48.0,0.18407769454627693,3.25
-48.0,0.25770877236478773,-3.25
-47.5,0.2699806186678728,-6.5
-47.5,0.2638446955163303,-13.8125
-48.5,0.17794177139473438,8.125
-48.5,0.12885438618239387,14.625
-48.0,0.11658253987930872,10.5625
-48.5,0.21475731030398976,-3.25
-48.5,0.17794177139473438,3.25
-48.5,0.01227184630308513,25.1875
-49.0,6.277049384028044,33.3125
-48.5,0.05522330836388308,16.25
-48.5,0.14726215563702155,0.8125
-48.0,0.07976700097005335,14.625
-49.0,0.19634954084936207,-5.6875
-47.5,0.15339807878856412,2.4375
-49.0,0.04908738521234052,12.1875
-48.0,0.14112623248547898,6.5
-48.5,0.11044661672776616,11.375
-48.5,0.1349903093339364,0.0
-48.5,0.07976700097005335,5.6875
-48.5,0.07363107781851078,11.375
-49.0,0.04908738521234052,17.0625
-48.5,6.234097921967246,29.25
-48.5,6.234097921967246,25.1875
-48.0,0.07976700097005335,8.9375
-48.5,0.01227184630308513,21.125
-48.5,0.17794177139473438,-6.5
-48.5,0.030679615757712823,15.4375
-48.5,0.05522330836388308,15.4375
-48.0,0.2086213871524472,-13.8125
-48.5,0.03681553890925539,8.9375
-48.0,0.14112623248547898,2.4375
-48.5,0.09203884727313846,10.5625
-48.0,0.18407769454627693,-8.9375
-49.0,0.03681553890925539,5.6875
-48.5,0.0674951546669682,7.3125
-48.0,0.14726215563702155,-4.875
-48.0,0.1043106935762236,6.5
-49.0,6.277049384028044,10.5625
-48.0,0.02454369260617026,17.875
-48.5,6.2463697682703305,27.625
-48.0,0.1043106935762236,1.625
-48.5,0.03681553890925539,8.9375
-48.5,0.14726215563702155,-13.8125
-48.5,0.09203884727313846,-1.625
-48.5,0.07976700097005335,-4.875
-48.5,0.01227184630308513,8.9375
-48.5,0.09203884727313846,-4.875
-48.5,0.1043106935762236,-6.5
-48.5,0.04908738521234052,2.4375
-49.0,6.1850105367549055,20.3125
-48.5,0.0674951546669682,0.8125
-49.0,0.19634954084936207,-21.125
-48.5,0.01227184630308513,3.25
-48.5,0.07976700097005335,-13.8125
-48.5,6.2034183062095325,14.625
-49.0,6.215690152512618,8.125
-49.0,6.14819499784565,18.6875
-48.0,6.14819499784565,24.375
-49.0,6.129787228391022,22.75
-49.0,6.2034183062095325,15.4375
-49.5,6.031612457966341,34.9375
-48.5,6.252505691421874,0.8125
-49.0,6.178874613603362,6.5
-48.5,6.22182607566416,0.8125
-48.5,6.270913460876501,-7.3125
-49.5,6.111379458936394,17.875
-48.5,0.02454369260617026,-17.0625
-49.0,0.03681553890925539,-17.875
-49.0,6.19728238305799,-1.625
-49.5,6.135923151542564,4.875
-50.0,6.080699843178682,14.625
-49.5,5.957981380147831,30.875
-49.0,6.277049384028044,-17.0625
-49.5,6.215690152512618,-7.3125
-49.5,6.129787228391022,4.875
-49.5,6.019340611663256,19.5
-49.5,6.013204688511713,23.5625
-49.5,6.068427996875596,17.875
-49.5,6.1420590746941075,3.25
-49.5,6.14819499784565,2.4375
-49.0,6.043884304269426,8.125
-49.0,6.068427996875596,17.0625
-49.0,6.056156150572511,7.3125
-49.5,6.135923151542564,1.625
-49.5,6.031612457966341,8.9375
-49.5,5.988660995905543,8.9375
-50.0,6.019340611663256,7.3125
-49.0,6.160466844148735,-8.125
-49.5,6.080699843178682,2.4375
-49.5,6.14819499784565,-5.6875
-50.0,6.1850105367549055,-10.5625
-49.0,6.056156150572511,14.625
-49.5,6.092971689481767,0.0
-49.5,6.062292073724054,0.8125
-49.0,6.074563920027139,3.25
-50.0,6.037748381117884,-1.625
-49.5,6.227961998815704,-23.5625
-49.5,6.000932842208628,13.8125
-49.5,6.086835766330224,-2.4375
-50.0,5.939573610693203,17.0625
-50.0,5.93343768754166,22.75
-49.5,5.915029918087033,21.125
-49.5,5.915029918087033,20.3125
-49.5,5.964117303299373,9.75
-49.5,5.964117303299373,8.125
-49.5,6.092971689481767,-14.625
-49.5,6.1420590746941075,-18.6875
-49.5,6.056156150572511,-14.625
-50.0,5.927301764390117,20.3125
-49.5,5.964117303299373,21.125
-50.0,5.829126993965437,23.5625
-50.0,5.945709533844745,10.5625
-50.0,6.000932842208628,4.875
-50.0,5.8659425328746915,12.1875
-50.5,5.939573610693203,2.4375
-50.0,6.007068765360171,-8.9375
-50.0,5.9518454569962875,5.6875
-50.0,5.93343768754166,4.875
-50.5,5.884350302329319,11.375
-50.0,6.013204688511713,-8.9375
-49.5,5.896622148632405,8.125
-50.0,5.927301764390117,6.5
-50.5,5.957981380147831,0.8125
-50.5,5.822991070813893,27.625
-49.5,6.037748381117884,-13.8125
-50.5,5.822991070813893,14.625
-50.0,5.976389149602458,-3.25
-50.5,5.767767762450011,19.5
-50.5,5.884350302329319,11.375
-50.5,6.074563920027139,-14.625
-50.0,5.890486225480862,13.8125
-50.0,6.062292073724054,-8.125
-50.5,5.853670686571607,14.625
-50.5,6.007068765360171,-4.875
-50.5,5.915029918087033,3.25
-50.0,5.902758071783947,12.1875
-50.5,5.841398840268521,20.3125
-50.0,5.976389149602458,3.25
-49.5,6.000932842208628,-3.25
-50.0,5.822991070813893,20.3125
-50.0,5.822991070813893,21.125
-50.5,6.080699843178682,-13.8125
-50.0,6.043884304269426,-10.5625
-50.0,5.9518454569962875,-2.4375
-50.5,5.872078456026235,25.1875
-50.0,5.890486225480862,9.75
-49.5,5.970253226450915,0.0
-50.5,5.890486225480862,16.25
-50.0,5.8045833013592665,32.5
-50.0,6.050020227420969,-10.5625
-50.0,5.988660995905543,0.0
-49.5,5.896622148632405,7.3125
-50.0,5.773903685601553,26.0
-50.5,6.013204688511713,-0.8125
-50.5,5.835262917116979,24.375
-49.5,5.724816300389213,38.1875
-49.5,6.013204688511713,-8.125
-50.0,6.056156150572511,-19.5
-50.0,5.872078456026235,14.625
-49.5,5.976389149602458,3.25
-49.5,5.872078456026235,5.6875
-50.0,5.915029918087033,8.9375
-50.0,5.9088939949354895,8.125
-49.5,5.822991070813893,17.0625
-50.5,5.835262917116979,8.9375
-49.5,5.890486225480862,-1.625
-49.5,6.050020227420969,-14.625
-49.5,5.9518454569962875,-3.25
-49.5,5.663457068873787,45.5625
-50.5,5.878214379177777,6.5
-50.0,6.117515382087937,-26.0
-50.0,5.71868037723767,26.0
-50.0,5.915029918087033,-6.5
-50.0,5.9088939949354895,-3.25
-50.5,5.872078456026235,8.9375
-50.0,5.902758071783947,-5.6875
-50.0,5.957981380147831,-12.1875
-49.5,5.921165841238575,-8.125
-50.5,5.816855147662351,17.0625
-50.0,5.7616318392984684,18.6875
-50.0,6.092971689481767,-27.625
-50.0,5.767767762450011,12.1875
-50.5,5.743224069843841,18.6875
-50.5,5.859806609723149,2.4375
-50.0,5.767767762450011,18.6875
-50.5,5.853670686571607,2.4375
-50.5,5.939573610693203,-17.0625
-50.0,5.970253226450915,-8.9375
-50.5,5.755495916146925,20.3125
-50.0,6.031612457966341,-27.625
-50.0,5.810719224510809,14.625
-50.5,5.767767762450011,16.25
-50.5,5.872078456026235,1.625
-50.0,5.884350302329319,1.625
-50.5,5.890486225480862,-4.875
-50.0,5.872078456026235,0.0
-49.5,5.921165841238575,-8.125
-49.5,5.8475347634200645,-1.625
-50.5,5.798447378207723,6.5
-50.0,5.767767762450011,10.5625
-50.5,5.8475347634200645,2.4375
-50.0,5.927301764390117,-4.875
-49.5,5.896622148632405,-0.8125
-50.0,5.921165841238575,-4.875
-50.0,6.013204688511713,-26.8125
-49.5,5.841398840268521,4.875
-49.5,5.884350302329319,-2.4375
-49.5,5.982525072754001,-17.0625
-49.5,6.025476534814799,-17.875
-49.5,6.080699843178682,-28.4375
-49.5,5.884350302329319,0.8125
-50.0,5.767767762450011,15.4375
-50.0,5.810719224510809,13.8125
-50.5,5.915029918087033,2.4375
-50.5,6.025476534814799,-26.0
-50.0,5.915029918087033,-2.4375
-49.5,5.743224069843841,21.125
-50.0,5.902758071783947,-4.875
-50.0,5.749359992995383,32.5
-50.0,5.66959299202533,29.25
-49.5,5.896622148632405,0.8125
-50.0,5.773903685601553,24.375
-49.5,5.681864838328415,32.5
-49.5,5.945709533844745,3.25
-49.5,5.939573610693203,7.3125
-49.0,6.043884304269426,-7.3125
-49.5,6.086835766330224,0.0
-48.5,6.019340611663256,18.6875
-47.5,0.09817477042468103,15.4375
-47.5,0.5890486225480862,-2.4375
-47.5,0.7853981633974483,5.6875
-48.0,0.9694758579437253,11.375
-48.0,1.1106020904292042,14.625
-48.5,1.4173982480063325,-7.3125
-49.0,1.4910293258248433,-1.625
-50.0,1.662835174068035,-8.125
-50.0,1.7548740213411735,-7.3125
-50.0,1.8100973297050567,0.0
-49.5,1.8653206380689396,-9.75
-50.5,1.7671458676442586,17.0625
-50.5,1.859184714917397,10.5625
-50.5,1.8223691760081417,18.6875
-51.0,2.043262409463674,-9.75
-52.0,2.061670178918302,-12.1875
-51.0,2.055534255766759,-6.5
-51.5,1.9512235621905356,8.125
-52.0,2.0493983326152168,-2.4375
-50.5,1.9941750242513334,-0.8125
-52.0,1.902136176978195,32.5
-51.0,1.9757672547967058,21.125
-51.0,1.9819031779482483,10.5625
-52.0,2.1230294104337273,-16.25
-50.5,1.902136176978195,24.375
-51.5,1.9941750242513334,0.0
-51.0,1.9205439464328227,16.25
-51.0,2.1046216409791,-20.3125
-51.0,1.8100973297050567,34.9375
-52.0,1.9205439464328227,11.375
-51.0,1.7978254834019713,24.375
-51.5,2.1598449493429825,-35.75
-50.0,1.7732817907958012,17.875
-51.0,1.8530487917658545,4.875
-50.5,1.6873788666742053,31.6875
-50.5,1.761009944492716,16.25
-50.5,1.6689710972195777,17.875
-50.5,1.6996507129772904,21.125
-50.0,1.718058482431918,19.5
