40000000000000000000CC00,1,1477451572891717,1477451572891717,1,7.3125,13312,-34.5,865.7,2.1721168
40000000000000000000CC00,1,1477451572898899,1477451572898899,1,6.5,13312,-34.0,865.7,2.1782527
40000000000000000000CC00,1,1477451572907372,1477451572907372,1,1.625,13312,-34.0,865.7,2.1966605
40000000000000000000CC00,1,1477451572914029,1477451572914029,1,4.875,13312,-34.5,865.7,2.1843886
40000000000000000000CC00,1,1477451572920953,1477451572920953,1,-0.8125,13312,-34.0,865.7,2.2150683
40000000000000000000CC00,1,1477451572929030,1477451572929030,1,4.875,13312,-34.0,865.7,2.1843886
40000000000000000000CC00,1,1477451572936123,1477451572936123,1,7.3125,13312,-34.0,865.7,2.1659808
40000000000000000000CC00,1,1477451572943092,1477451572943092,1,4.875,13312,-34.0,865.7,2.1659808
40000000000000000000CC00,1,1477451572950301,1477451572950301,1,1.625,13312,-34.0,865.7,2.1905246
40000000000000000000CC00,1,1477451572957016,1477451572957016,1,4.875,13312,-34.0,865.7,2.1782527
40000000000000000000CC00,1,1477451572963993,1477451572963993,1,1.625,13312,-34.0,865.7,2.1966605
40000000000000000000CC00,1,1477451572970971,1477451572970971,1,5.6875,13312,-34.0,865.7,2.1659808
40000000000000000000CC00,1,1477451572977963,1477451572977963,1,9.75,13312,-34.0,865.7,2.147573
40000000000000000000CC00,1,1477451572985177,1477451572985177,1,6.5,13312,-34.0,865.7,2.1659808
40000000000000000000CC00,1,1477451572992127,1477451572992127,1,3.25,13312,-34.0,865.7,2.1721168
40000000000000000000CC00,1,1477451572998827,1477451572998827,1,6.5,13312,-34.0,865.7,2.1659808
40000000000000000000CC00,1,1477451573006034,1477451573006034,1,1.625,13312,-34.0,865.7,2.1905246
40000000000000000000CC00,1,1477451573013026,1477451573013026,1,4.875,13312,-34.0,865.7,2.1721168
40000000000000000000CC00,1,1477451573019946,1477451573019946,1,4.875,13312,-34.0,865.7,2.1721168
40000000000000000000CC00,1,1477451573026918,1477451573026918,1,1.625,13312,-34.0,865.7,2.1659808
40000000000000000000CC00,1,1477451573033909,1477451573033909,1,3.25,13312,-34.0,865.7,2.1598449
40000000000000000000CC00,1,1477451573040597,1477451573040597,1,4.875,13312,-34.5,865.7,2.153709
40000000000000000000CC00,1,1477451573047783,1477451573047783,1,3.25,13312,-34.0,865.7,2.153709
40000000000000000000CC00,1,1477451573054495,1477451573054495,1,3.25,13312,-34.0,865.7,2.147573
40000000000000000000CC00,1,1477451573061438,1477451573061438,1,3.25,13312,-34.0,865.7,2.1598449
40000000000000000000CC00,1,1477451573068344,1477451573068344,1,0.0,13312,-34.0,865.7,2.1721168
40000000000000000000CC00,1,1477451573075318,1477451573075318,1,4.875,13312,-34.0,865.7,2.1598449
40000000000000000000CC00,1,1477451573082202,1477451573082202,1,4.875,13312,-34.0,865.7,2.147573
40000000000000000000CC00,1,1477451573089144,1477451573089144,1,0.8125,13312,-34.0,865.7,2.1659808
40000000000000000000CC00,1,1477451573096356,1477451573096356,1,0.8125,13312,-34.0,865.7,2.1721168
40000000000000000000CC00,1,1477451573103348,1477451573103348,1,3.25,13312,-34.0,865.7,2.1598449
40000000000000000000CC00,1,1477451573110292,1477451573110292,1,3.25,13312,-34.0,865.7,2.147573
40000000000000000000CC00,1,1477451573117257,1477451573117257,1,3.25,13312,-34.0,865.7,2.153709
40000000000000000000CC00,1,1477451573123953,1477451573123953,1,5.6875,13312,-34.5,865.7,2.1353014
40000000000000000000CC00,1,1477451573130905,1477451573130905,1,4.875,13312,-34.0,865.7,2.1414373
40000000000000000000CC00,1,1477451573138031,1477451573138031,1,4.875,13312,-34.0,865.7,2.1353014
40000000000000000000CC00,1,1477451573144809,1477451573144809,1,9.75,13312,-34.0,865.7,2.1107576
40000000000000000000CC00,1,1477451573152048,1477451573152048,1,7.3125,13312,-34.0,865.7,2.1353014
40000000000000000000CC00,1,1477451573158989,1477451573158989,1,6.5,13312,-34.0,865.7,2.1168935
40000000000000000000CC00,1,1477451573165905,1477451573165905,1,1.625,13312,-34.0,865.7,2.147573
40000000000000000000CC00,1,1477451573172697,1477451573172697,1,9.75,13312,-34.0,865.7,2.1107576
40000000000000000000CC00,1,1477451573179923,1477451573179923,1,8.125,13312,-34.0,865.7,2.1107576
40000000000000000000CC00,1,1477451573186830,1477451573186830,1,3.25,13312,-34.0,865.7,2.1291654
40000000000000000000CC00,1,1477451573193481,1477451573193481,1,1.625,13312,-34.0,865.7,2.1291654
40000000000000000000CC00,1,1477451573200379,1477451573200379,1,4.875,13312,-34.0,865.7,2.1230295
40000000000000000000CC00,1,1477451573207645,1477451573207645,1,4.875,13312,-34.0,865.7,2.1230295
40000000000000000000CC00,1,1477451573214619,1477451573214619,1,2.4375,13312,-34.0,865.7,2.1230295
40000000000000000000CC00,1,1477451573221377,1477451573221377,1,6.5,13312,-34.0,865.7,2.1046216
40000000000000000000CC00,1,1477451573228549,1477451573228549,1,0.0,13312,-34.5,865.7,2.1353014
40000000000000000000CC00,1,1477451573236556,1477451573236556,1,-0.8125,13312,-34.0,865.7,2.1414373
40000000000000000000CC00,1,1477451573243212,1477451573243212,1,3.25,13312,-34.0,865.7,2.1046216
40000000000000000000CC00,1,1477451573251815,1477451573251815,1,5.6875,13312,-34.0,865.7,2.0923498
40000000000000000000CC00,1,1477451573258531,1477451573258531,1,1.625,13312,-34.0,865.7,2.1046216
40000000000000000000CC00,1,1477451573265730,1477451573265730,1,0.0,13312,-34.0,865.7,2.1230295
40000000000000000000CC00,1,1477451573272562,1477451573272562,1,5.6875,13312,-34.5,865.7,2.0862138
40000000000000000000CC00,1,1477451573279533,1477451573279533,1,0.8125,13312,-34.0,865.7,2.0984857
40000000000000000000CC00,1,1477451573286786,1477451573286786,1,4.875,13312,-34.0,865.7,2.073942
40000000000000000000CC00,1,1477451573293738,1477451573293738,1,6.5,13312,-34.0,865.7,2.067806
40000000000000000000CC00,1,1477451573302167,1477451573302167,1,2.4375,13312,-34.5,865.7,2.06167
40000000000000000000CC00,1,1477451573309160,1477451573309160,1,1.625,13312,-34.0,865.7,2.067806
40000000000000000000CC00,1,1477451573316129,1477451573316129,1,2.4375,13312,-34.5,865.7,2.0493984
40000000000000000000CC00,1,1477451573323049,1477451573323049,1,2.4375,13312,-34.0,865.7,2.0555344
40000000000000000000CC00,1,1477451573330018,1477451573330018,1,6.5,13312,-34.0,865.7,2.0371265
40000000000000000000CC00,1,1477451573338439,1477451573338439,1,-2.4375,13312,-34.0,865.7,2.073942
40000000000000000000CC00,1,1477451573345340,1477451573345340,1,5.6875,13312,-34.0,865.7,2.0371265
40000000000000000000CC00,1,1477451573352283,1477451573352283,1,3.25,13312,-34.0,865.7,2.0371265
40000000000000000000CC00,1,1477451573359059,1477451573359059,1,1.625,13312,-34.0,865.7,2.0432625
40000000000000000000CC00,1,1477451573366063,1477451573366063,1,5.6875,13312,-34.0,865.7,2.0248547
40000000000000000000CC00,1,1477451573373084,1477451573373084,1,2.4375,13312,-34.5,865.7,2.0187187
40000000000000000000CC00,1,1477451573380266,1477451573380266,1,3.25,13312,-34.0,865.7,2.0248547
40000000000000000000CC00,1,1477451573386950,1477451573386950,1,6.5,13312,-34.0,865.7,2.000311
40000000000000000000CC00,1,1477451573393952,1477451573393952,1,5.6875,13312,-34.5,865.7,1.9880391
40000000000000000000CC00,1,1477451573402069,1477451573402069,1,4.875,13312,-34.5,865.7,1.9941751
40000000000000000000CC00,1,1477451573409026,1477451573409026,1,0.0,13312,-34.0,865.7,2.0125828
40000000000000000000CC00,1,1477451573416246,1477451573416246,1,4.875,13312,-34.5,865.7,1.9941751
40000000000000000000CC00,1,1477451573422921,1477451573422921,1,8.125,13312,-34.0,865.7,1.9819032
40000000000000000000CC00,1,1477451573429923,1477451573429923,1,7.3125,13312,-34.0,865.7,1.9819032
40000000000000000000CC00,1,1477451573436846,1477451573436846,1,0.8125,13312,-34.0,865.7,2.000311
40000000000000000000CC00,1,1477451573444059,1477451573444059,1,7.3125,13312,-34.0,865.7,1.9757673
40000000000000000000CC00,1,1477451573450715,1477451573450715,1,3.25,13312,-34.0,865.7,1.9941751
40000000000000000000CC00,1,1477451573457867,1477451573457867,1,5.6875,13312,-34.5,865.7,1.9634954
40000000000000000000CC00,1,1477451573464550,1477451573464550,1,4.875,13312,-34.0,865.7,1.9696313
40000000000000000000CC00,1,1477451573471757,1477451573471757,1,8.9375,13312,-34.0,865.7,1.9512236
40000000000000000000CC00,1,1477451573478484,1477451573478484,1,0.0,13312,-34.5,865.7,2.000311
40000000000000000000CC00,1,1477451573485637,1477451573485637,1,4.875,13312,-34.5,865.7,1.9573594
40000000000000000000CC00,1,1477451573492361,1477451573492361,1,2.4375,13312,-34.5,865.7,1.9696313
40000000000000000000CC00,1,1477451573499597,1477451573499597,1,0.0,13312,-34.0,865.7,1.9819032
40000000000000000000CC00,1,1477451573506574,1477451573506574,1,5.6875,13312,-34.0,865.7,1.9573594
40000000000000000000CC00,1,1477451573513265,1477451573513265,1,6.5,13312,-34.0,865.7,1.9389517
40000000000000000000CC00,1,1477451573520478,1477451573520478,1,6.5,13312,-34.5,865.7,1.9328158
40000000000000000000CC00,1,1477451573527231,1477451573527231,1,2.4375,13312,-34.5,865.7,1.9634954
40000000000000000000CC00,1,1477451573534386,1477451573534386,1,0.8125,13312,-34.0,865.7,1.9819032
40000000000000000000CC00,1,1477451573542738,1477451573542738,1,6.5,13312,-34.5,865.7,1.9266798
40000000000000000000CC00,1,1477451573551286,1477451573551286,1,7.3125,13312,-34.5,865.7,1.914408
40000000000000000000CC00,1,1477451573558437,1477451573558437,1,1.625,13312,-34.0,865.7,1.9512236
40000000000000000000CC00,1,1477451573565252,1477451573565252,1,8.125,13312,-34.5,865.7,1.9082721
40000000000000000000CC00,1,1477451573572180,1477451573572180,1,2.4375,13312,-34.5,865.7,1.9266798
40000000000000000000CC00,1,1477451573579099,1477451573579099,1,6.5,13312,-34.0,865.7,1.914408
40000000000000000000CC00,1,1477451573586306,1477451573586306,1,0.0,13312,-34.5,865.7,1.9266798
40000000000000000000CC00,1,1477451573593251,1477451573593251,1,4.875,13312,-34.5,865.7,1.9082721
40000000000000000000CC00,1,1477451573600216,1477451573600216,1,0.8125,13312,-34.5,865.7,1.8960003
40000000000000000000CC00,1,1477451573606962,1477451573606962,1,6.5,13312,-34.5,865.7,1.8039614
40000000000000000000CC00,1,1477451573614148,1477451573614148,1,5.6875,13312,-35.0,865.7,1.7855537
40000000000000000000CC00,1,1477451573620893,1477451573620893,1,1.625,13312,-35.0,865.7,1.7610099
40000000000000000000CC00,1,1477451573627822,1477451573627822,1,7.3125,13312,-35.0,865.7,1.7119225
40000000000000000000CC00,1,1477451573635040,1477451573635040,1,2.4375,13312,-35.0,865.7,1.7180585
40000000000000000000CC00,1,1477451573641980,1477451573641980,1,7.3125,13312,-35.5,865.7,1.6689711
40000000000000000000CC00,1,1477451573648918,1477451573648918,1,1.625,13312,-35.0,865.7,1.675107
40000000000000000000CC00,1,1477451573655658,1477451573655658,1,1.625,13312,-35.5,865.7,1.675107
40000000000000000000CC00,1,1477451573662661,1477451573662661,1,0.0,13312,-35.0,865.7,1.681243
40000000000000000000CC00,1,1477451573671377,1477451573671377,1,4.875,13312,-35.5,865.7,1.6444274
40000000000000000000CC00,1,1477451573678088,1477451573678088,1,4.875,13312,-35.5,865.7,1.6382915
40000000000000000000CC00,1,1477451573685264,1477451573685264,1,7.3125,13312,-35.5,865.7,1.6198837
40000000000000000000CC00,1,1477451573692231,1477451573692231,1,4.875,13312,-35.5,865.7,1.6321555
40000000000000000000CC00,1,1477451573699211,1477451573699211,1,5.6875,13312,-35.0,865.7,1.6321555
40000000000000000000CC00,1,1477451573707183,1477451573707183,1,1.625,13312,-35.5,865.7,1.6444274
40000000000000000000CC00,1,1477451573714168,1477451573714168,1,4.875,13312,-35.5,865.7,1.6382915
40000000000000000000CC00,1,1477451573721048,1477451573721048,1,1.625,13312,-35.5,865.7,1.6505634
40000000000000000000CC00,1,1477451573727742,1477451573727742,1,8.125,13312,-35.0,865.7,1.6137478
40000000000000000000CC00,1,1477451573734906,1477451573734906,1,0.8125,13312,-35.0,865.7,1.6566993
40000000000000000000CC00,1,1477451573741773,1477451573741773,1,2.4375,13312,-35.5,865.7,1.6382915
40000000000000000000CC00,1,1477451573748485,1477451573748485,1,4.875,13312,-35.0,865.7,1.6198837
40000000000000000000CC00,1,1477451573755780,1477451573755780,1,3.25,13312,-35.0,865.7,1.6260196
40000000000000000000CC00,1,1477451573764217,1477451573764217,1,4.875,13312,-35.5,865.7,1.6321555
40000000000000000000CC00,1,1477451573772283,1477451573772283,1,1.625,13312,-35.5,865.7,1.6444274
40000000000000000000CC00,1,1477451573779307,1477451573779307,1,2.4375,13312,-35.0,865.7,1.6444274
40000000000000000000CC00,1,1477451573786345,1477451573786345,1,2.4375,13312,-35.0,865.7,1.6321555
40000000000000000000CC00,1,1477451573793019,1477451573793019,1,2.4375,13312,-35.0,865.7,1.6382915
40000000000000000000CC00,1,1477451573799938,1477451573799938,1,3.25,13312,-35.5,865.7,1.6321555
40000000000000000000CC00,1,1477451573806891,1477451573806891,1,1.625,13312,-35.0,865.7,1.6382915
40000000000000000000CC00,1,1477451573814037,1477451573814037,1,1.625,13312,-35.5,865.7,1.6444274
40000000000000000000CC00,1,1477451573820706,1477451573820706,1,0.8125,13312,-35.5,865.7,1.6321555
40000000000000000000CC00,1,1477451573827645,1477451573827645,1,2.4375,13312,-35.0,865.7,1.6382915
40000000000000000000CC00,1,1477451573834810,1477451573834810,1,4.875,13312,-35.0,865.7,1.6260196
40000000000000000000CC00,1,1477451573841746,1477451573841746,1,2.4375,13312,-35.5,865.7,1.6382915
40000000000000000000CC00,1,1477451573848728,1477451573848728,1,3.25,13312,-35.0,865.7,1.6260196
40000000000000000000CC00,1,1477451573855715,1477451573855715,1,-0.8125,13312,-35.5,865.7,1.6566993
40000000000000000000CC00,1,1477451573862639,1477451573862639,1,1.625,13312,-35.0,865.7,1.6444274
40000000000000000000CC00,1,1477451573869326,1477451573869326,1,4.875,13312,-35.5,865.7,1.6198837
40000000000000000000CC00,1,1477451573876546,1477451573876546,1,3.25,13312,-35.5,865.7,1.6260196
40000000000000000000CC00,1,1477451573883469,1477451573883469,1,2.4375,13312,-35.5,865.7,1.6382915
40000000000000000000CC00,1,1477451573890396,1477451573890396,1,3.25,13312,-35.0,865.7,1.6321555
40000000000000000000CC00,1,1477451573897104,1477451573897104,1,5.6875,13312,-35.5,865.7,1.6137478
40000000000000000000CC00,1,1477451573904257,1477451573904257,1,2.4375,13312,-35.5,865.7,1.6444274
40000000000000000000CC00,1,1477451573910988,1477451573910988,1,6.5,13312,-35.5,865.7,1.6076119
40000000000000000000CC00,1,1477451573917932,1477451573917932,1,0.8125,13312,-35.5,865.7,1.6444274
40000000000000000000CC00,1,1477451573925177,1477451573925177,1,3.25,13312,-35.5,865.7,1.6260196
40000000000000000000CC00,1,1477451573932123,1477451573932123,1,4.875,13312,-35.5,865.7,1.6260196
40000000000000000000CC00,1,1477451573938912,1477451573938912,1,-1.625,13312,-35.0,865.7,1.6566993
40000000000000000000CC00,1,1477451573946126,1477451573946126,1,-0.8125,13312,-35.0,865.7,1.6505634
40000000000000000000CC00,1,1477451573953041,1477451573953041,1,0.8125,13312,-35.5,865.7,1.6444274
40000000000000000000CC00,1,1477451573961247,1477451573961247,1,4.875,13312,-35.5,865.7,1.6321555
40000000000000000000CC00,1,1477451573968264,1477451573968264,1,1.625,13312,-35.5,865.7,1.6382915
40000000000000000000CC00,1,1477451573975237,1477451573975237,1,2.4375,13312,-35.5,865.7,1.6321555
40000000000000000000CC00,1,1477451573982166,1477451573982166,1,8.9375,13312,-35.5,865.7,1.601476
40000000000000000000CC00,1,1477451573989382,1477451573989382,1,0.8125,13312,-35.5,865.7,1.6382915
40000000000000000000CC00,1,1477451573996306,1477451573996306,1,7.3125,13312,-35.0,865.7,1.6198837
40000000000000000000CC00,1,1477451574002963,1477451574002963,1,1.625,13312,-35.0,865.7,1.6382915
40000000000000000000CC00,1,1477451574010182,1477451574010182,1,-0.8125,13312,-35.0,865.7,1.6628351
40000000000000000000CC00,1,1477451574017146,1477451574017146,1,7.3125,13312,-35.0,865.7,1.6198837
40000000000000000000CC00,1,1477451574024128,1477451574024128,1,3.25,13312,-35.5,865.7,1.6382915
40000000000000000000CC00,1,1477451574031054,1477451574031054,1,3.25,13312,-35.5,865.7,1.6382915
40000000000000000000CC00,1,1477451574038087,1477451574038087,1,0.8125,13312,-35.0,865.7,1.6505634
40000000000000000000CC00,1,1477451574045096,1477451574045096,1,5.6875,13312,-35.0,865.7,1.6260196
40000000000000000000CC00,1,1477451574051921,1477451574051921,1,3.25,13312,-35.5,865.7,1.6505634
40000000000000000000CC00,1,1477451574058990,1477451574058990,1,2.4375,13312,-35.5,865.7,1.6505634
40000000000000000000CC00,1,1477451574066270,1477451574066270,1,5.6875,13312,-35.5,865.7,1.6321555
40000000000000000000CC00,1,1477451574073035,1477451574073035,1,0.0,13312,-35.0,865.7,1.6628351
40000000000000000000CC00,1,1477451574080283,1477451574080283,1,2.4375,13312,-35.5,865.7,1.6628351
40000000000000000000CC00,1,1477451574087040,1477451574087040,1,5.6875,13312,-35.5,865.7,1.6566993
40000000000000000000CC00,1,1477451574095762,1477451574095762,1,3.25,13312,-35.5,865.7,1.6505634
40000000000000000000CC00,1,1477451574102878,1477451574102878,1,-0.8125,13312,-35.5,865.7,1.6996508
40000000000000000000CC00,1,1477451574109631,1477451574109631,1,9.75,13312,-35.5,865.7,1.6628351
40000000000000000000CC00,1,1477451574117019,1477451574117019,1,1.625,13312,-35.5,865.7,1.6996508
40000000000000000000CC00,1,1477451574123804,1477451574123804,1,4.875,13312,-35.5,865.7,1.681243
40000000000000000000CC00,1,1477451574131098,1477451574131098,1,4.875,13312,-35.5,865.7,1.6996508
40000000000000000000CC00,1,1477451574137904,1477451574137904,1,0.0,13312,-35.5,865.7,1.7303303
40000000000000000000CC00,1,1477451574144896,1477451574144896,1,1.625,13312,-35.0,865.7,1.7303303
40000000000000000000CC00,1,1477451574151898,1477451574151898,1,1.625,13312,-35.5,865.7,1.7241944
40000000000000000000CC00,1,1477451574159227,1477451574159227,1,3.25,13312,-35.0,865.7,1.7180585
40000000000000000000CC00,1,1477451574166248,1477451574166248,1,0.8125,13312,-35.5,865.7,1.7303303
40000000000000000000CC00,1,1477451574172975,1477451574172975,1,0.0,13312,-35.0,865.7,1.7364663
40000000000000000000CC00,1,1477451574180233,1477451574180233,1,6.5,13312,-35.5,865.7,1.7119225
40000000000000000000CC00,1,1477451574186997,1477451574186997,1,0.0,13312,-35.0,865.7,1.7364663
40000000000000000000CC00,1,1477451574194291,1477451574194291,1,4.875,13312,-35.0,865.7,1.7180585
40000000000000000000CC00,1,1477451574201342,1477451574201342,1,3.25,13312,-35.5,865.7,1.7241944
40000000000000000000CC00,1,1477451574208365,1477451574208365,1,0.0,13312,-35.5,865.7,1.7364663
40000000000000000000CC00,1,1477451574215151,1477451574215151,1,0.8125,13312,-35.0,865.7,1.7364663
40000000000000000000CC00,1,1477451574222499,1477451574222499,1,3.25,13312,-35.5,865.7,1.7241944
40000000000000000000CC00,1,1477451574229470,1477451574229470,1,3.25,13312,-35.0,865.7,1.7364663
40000000000000000000CC00,1,1477451574236174,1477451574236174,1,9.75,13312,-35.0,865.7,1.6935148
40000000000000000000CC00,1,1477451574243388,1477451574243388,1,7.3125,13312,-35.5,865.7,1.7057866
40000000000000000000CC00,1,1477451574250116,1477451574250116,1,3.25,13312,-35.0,865.7,1.7241944
40000000000000000000CC00,1,1477451574257273,1477451574257273,1,3.25,13312,-35.0,865.7,1.7303303
40000000000000000000CC00,1,1477451574264261,1477451574264261,1,3.25,13312,-35.0,865.7,1.7241944
40000000000000000000CC00,1,1477451574271213,1477451574271213,1,1.625,13312,-35.0,865.7,1.7426022
40000000000000000000CC00,1,1477451574278137,1477451574278137,1,-0.8125,13312,-35.0,865.7,1.7610099
40000000000000000000CC00,1,1477451574284838,1477451574284838,1,0.0,13312,-35.0,865.7,1.754874
40000000000000000000CC00,1,1477451574291988,1477451574291988,1,3.25,13312,-35.0,865.7,1.7426022
40000000000000000000CC00,1,1477451574298927,1477451574298927,1,1.625,13312,-35.0,865.7,1.7610099
40000000000000000000CC00,1,1477451574305640,1477451574305640,1,7.3125,13312,-35.0,865.7,1.7303303
40000000000000000000CC00,1,1477451574312904,1477451574312904,1,0.8125,13312,-35.0,865.7,1.754874
40000000000000000000CC00,1,1477451574319857,1477451574319857,1,0.0,13312,-35.0,865.7,1.7732818
40000000000000000000CC00,1,1477451574326545,1477451574326545,1,5.6875,13312,-35.0,865.7,1.754874
40000000000000000000CC00,1,1477451574333626,1477451574333626,1,5.6875,13312,-35.0,865.7,1.7610099
40000000000000000000CC00,1,1477451574340616,1477451574340616,1,7.3125,13312,-35.0,865.7,1.7303303
40000000000000000000CC00,1,1477451574347777,1477451574347777,1,0.0,13312,-35.0,865.7,1.7855537
40000000000000000000CC00,1,1477451574354469,1477451574354469,1,-0.8125,13312,-35.0,865.7,1.7855537
40000000000000000000CC00,1,1477451574361425,1477451574361425,1,5.6875,13312,-35.0,865.7,1.7671459
40000000000000000000CC00,1,1477451574368677,1477451574368677,1,5.6875,13312,-35.0,865.7,1.7610099
40000000000000000000CC00,1,1477451574375401,1477451574375401,1,2.4375,13312,-35.5,865.7,1.7794178
40000000000000000000CC00,1,1477451574382310,1477451574382310,1,-0.8125,13312,-35.0,865.7,1.8100973
40000000000000000000CC00,1,1477451574389225,1477451574389225,1,0.8125,13312,-35.0,865.7,1.8039614
40000000000000000000CC00,1,1477451574396479,1477451574396479,1,3.25,13312,-35.0,865.7,1.7916895
40000000000000000000CC00,1,1477451574403518,1477451574403518,1,2.4375,13312,-35.0,865.7,1.7978255
40000000000000000000CC00,1,1477451574411760,1477451574411760,1,6.5,13312,-35.0,865.7,1.8039614
40000000000000000000CC00,1,1477451574420238,1477451574420238,1,2.4375,13312,-35.0,865.7,1.834641
40000000000000000000CC00,1,1477451574427198,1477451574427198,1,2.4375,13312,-35.0,865.7,1.8469129
40000000000000000000CC00,1,1477451574434409,1477451574434409,1,7.3125,13312,-35.0,865.7,1.8469129
40000000000000000000CC00,1,1477451574441292,1477451574441292,1,7.3125,13312,-35.0,865.7,1.8469129
40000000000000000000CC00,1,1477451574447947,1477451574447947,1,5.6875,13312,-34.5,865.7,1.8530488
40000000000000000000CC00,1,1477451574454922,1477451574454922,1,-1.625,13312,-34.5,865.7,1.9266798
40000000000000000000CC00,1,1477451574463761,1477451574463761,1,0.0,13312,-35.0,865.7,1.9450877
40000000000000000000CC00,1,1477451574470727,1477451574470727,1,2.4375,13312,-34.5,865.7,1.9573594
40000000000000000000CC00,1,1477451574477454,1477451574477454,1,8.9375,13312,-35.0,865.7,1.9205439
40000000000000000000CC00,1,1477451574484399,1477451574484399,1,7.3125,13312,-34.5,865.7,1.9573594
40000000000000000000CC00,1,1477451574491630,1477451574491630,1,2.4375,13312,-35.0,865.7,1.9880391
40000000000000000000CC00,1,1477451574498620,1477451574498620,1,3.25,13312,-34.5,865.7,1.9880391
40000000000000000000CC00,1,1477451574506778,1477451574506778,1,6.5,13312,-35.0,865.7,1.9941751
40000000000000000000CC00,1,1477451574514015,1477451574514015,1,9.75,13312,-35.0,865.7,1.9941751
40000000000000000000CC00,1,1477451574520954,1477451574520954,1,2.4375,13312,-35.0,865.7,2.0187187
40000000000000000000CC00,1,1477451574529397,1477451574529397,1,3.25,13312,-34.5,865.7,2.0309906
40000000000000000000CC00,1,1477451574536091,1477451574536091,1,6.5,13312,-34.5,865.7,2.0248547
40000000000000000000CC00,1,1477451574543009,1477451574543009,1,0.0,13312,-34.5,865.7,2.0493984
40000000000000000000CC00,1,1477451574549996,1477451574549996,1,1.625,13312,-35.0,865.7,2.0493984
40000000000000000000CC00,1,1477451574557140,1477451574557140,1,-1.625,13312,-34.5,865.7,2.0923498
40000000000000000000CC00,1,1477451574563851,1477451574563851,1,4.875,13312,-34.5,865.7,2.0493984
40000000000000000000CC00,1,1477451574571093,1477451574571093,1,3.25,13312,-34.5,865.7,2.06167
40000000000000000000CC00,1,1477451574577996,1477451574577996,1,0.0,13312,-34.5,865.7,2.0923498
40000000000000000000CC00,1,1477451574584697,1477451574584697,1,-0.8125,13312,-35.0,865.7,2.0862138
40000000000000000000CC00,1,1477451574592818,1477451574592818,1,5.6875,13312,-34.5,865.7,2.067806
40000000000000000000CC00,1,1477451574599983,1477451574599983,1,0.0,13312,-34.5,865.7,2.1046216
40000000000000000000CC00,1,1477451574606923,1477451574606923,1,5.6875,13312,-34.5,865.7,2.073942
40000000000000000000CC00,1,1477451574613709,1477451574613709,1,4.875,13312,-35.0,865.7,2.080078
40000000000000000000CC00,1,1477451574620910,1477451574620910,1,4.875,13312,-34.5,865.7,2.0862138
40000000000000000000CC00,1,1477451574627659,1477451574627659,1,5.6875,13312,-35.0,865.7,2.0984857
40000000000000000000CC00,1,1477451574634839,1477451574634839,1,7.3125,13312,-34.5,865.7,2.0923498
40000000000000000000CC00,1,1477451574641572,1477451574641572,1,2.4375,13312,-35.0,865.7,2.1168935
40000000000000000000CC00,1,1477451574648524,1477451574648524,1,1.625,13312,-34.5,865.7,2.1291654
40000000000000000000CC00,1,1477451574655513,1477451574655513,1,1.625,13312,-34.5,865.7,2.1230295
40000000000000000000CC00,1,1477451574662538,1477451574662538,1,9.75,13312,-34.5,865.7,2.0923498
40000000000000000000CC00,1,1477451574671255,1477451574671255,1,4.875,13312,-34.5,865.7,2.1168935
40000000000000000000CC00,1,1477451574678230,1477451574678230,1,5.6875,13312,-35.0,865.7,2.1046216
40000000000000000000CC00,1,1477451574685166,1477451574685166,1,0.0,13312,-34.5,865.7,2.153709
40000000000000000000CC00,1,1477451574691889,1477451574691889,1,1.625,13312,-34.5,865.7,2.1414373
40000000000000000000CC00,1,1477451574698846,1477451574698846,1,6.5,13312,-35.0,865.7,2.1230295
40000000000000000000CC00,1,1477451574705995,1477451574705995,1,6.5,13312,-34.5,865.7,2.1291654
40000000000000000000CC00,1,1477451574712737,1477451574712737,1,4.875,13312,-35.0,865.7,2.1414373
40000000000000000000CC00,1,1477451574719723,1477451574719723,1,7.3125,13312,-35.0,865.7,2.1353014
40000000000000000000CC00,1,1477451574726671,1477451574726671,1,4.875,13312,-34.5,865.7,2.147573
40000000000000000000CC00,1,1477451574733821,1477451574733821,1,6.5,13312,-34.5,865.7,2.147573
40000000000000000000CC00,1,1477451574740777,1477451574740777,1,5.6875,13312,-34.5,865.7,2.1659808
40000000000000000000CC00,1,1477451574747470,1477451574747470,1,5.6875,13312,-34.5,865.7,2.1598449
40000000000000000000CC00,1,1477451574754734,1477451574754734,1,3.25,13312,-34.5,865.7,2.1782527
40000000000000000000CC00,1,1477451574761687,1477451574761687,1,5.6875,13312,-35.0,865.7,2.1721168
40000000000000000000CC00,1,1477451574768669,1477451574768669,1,0.8125,13312,-35.0,865.7,2.2150683
40000000000000000000CC00,1,1477451574775468,1477451574775468,1,3.25,13312,-35.0,865.7,2.2150683
40000000000000000000CC00,1,1477451574782425,1477451574782425,1,4.875,13312,-35.0,865.7,2.2150683
40000000000000000000CC00,1,1477451574790894,1477451574790894,1,6.5,13312,-34.5,865.7,2.2027965
40000000000000000000CC00,1,1477451574797864,1477451574797864,1,1.625,13312,-35.0,865.7,2.2457478
40000000000000000000CC00,1,1477451574806633,1477451574806633,1,5.6875,13312,-35.0,865.7,2.233476
40000000000000000000CC00,1,1477451574813315,1477451574813315,1,0.0,13312,-35.0,865.7,2.2886994
40000000000000000000CC00,1,1477451574820571,1477451574820571,1,2.4375,13312,-35.0,865.7,2.2825634
40000000000000000000CC00,1,1477451574827331,1477451574827331,1,3.25,13312,-35.0,865.7,2.2886994
40000000000000000000CC00,1,1477451574834291,1477451574834291,1,8.125,13312,-35.0,865.7,2.2764275
40000000000000000000CC00,1,1477451574841477,1477451574841477,1,-2.4375,13312,-35.0,865.7,2.3623304
40000000000000000000CC00,1,1477451574848415,1477451574848415,1,2.4375,13312,-35.0,865.7,2.3439226
40000000000000000000CC00,1,1477451574855354,1477451574855354,1,0.8125,13312,-35.0,865.7,2.3868742
40000000000000000000CC00,1,1477451574862299,1477451574862299,1,3.25,13312,-35.0,865.7,2.3684664
40000000000000000000CC00,1,1477451574869271,1477451574869271,1,-1.625,13312,-35.0,865.7,2.4175537
40000000000000000000CC00,1,1477451574877476,1477451574877476,1,5.6875,13312,-35.0,865.7,2.4114177
40000000000000000000CC00,1,1477451574884449,1477451574884449,1,3.25,13312,-35.0,865.7,2.4298255
40000000000000000000CC00,1,1477451574891659,1477451574891659,1,1.625,13312,-34.5,865.7,2.4727771
40000000000000000000CC00,1,1477451574898660,1477451574898660,1,1.625,13312,-34.5,865.7,2.4850488
40000000000000000000CC00,1,1477451574905631,1477451574905631,1,6.5,13312,-34.5,865.7,2.478913
40000000000000000000CC00,1,1477451574912590,1477451574912590,1,8.125,13312,-34.5,865.7,2.4850488
40000000000000000000CC00,1,1477451574919570,1477451574919570,1,2.4375,13312,-34.5,865.7,2.552544
40000000000000000000CC00,1,1477451574926527,1477451574926527,1,0.8125,13312,-34.5,865.7,2.5770876
40000000000000000000CC00,1,1477451574933527,1477451574933527,1,8.9375,13312,-34.5,865.7,2.5648158
40000000000000000000CC00,1,1477451574940510,1477451574940510,1,1.625,13312,-34.5,865.7,2.6200392
40000000000000000000CC00,1,1477451574947424,1477451574947424,1,-0.8125,13312,-34.5,865.7,2.6813984
40000000000000000000CC00,1,1477451574954356,1477451574954356,1,8.125,13312,-34.5,865.7,2.6629906
40000000000000000000CC00,1,1477451574961044,1477451574961044,1,8.125,13312,-34.5,865.7,2.6875343
40000000000000000000CC00,1,1477451574967987,1477451574967987,1,5.6875,13312,-34.5,865.7,2.7488935
40000000000000000000CC00,1,1477451574974955,1477451574974955,1,0.0,13312,-34.5,865.7,2.8163888
40000000000000000000CC00,1,1477451574981897,1477451574981897,1,7.3125,13312,-35.0,865.7,2.797981
40000000000000000000CC00,1,1477451574988838,1477451574988838,1,1.625,13312,-34.5,865.7,2.8532043
40000000000000000000CC00,1,1477451574996094,1477451574996094,1,1.625,13312,-34.5,865.7,2.883884
40000000000000000000CC00,1,1477451575003093,1477451575003093,1,0.0,13312,-35.0,865.7,2.8961558
40000000000000000000CC00,1,1477451575010022,1477451575010022,1,1.625,13312,-35.0,865.7,2.877748
40000000000000000000CC00,1,1477451575016782,1477451575016782,1,10.5625,13312,-35.0,865.7,2.8654761
40000000000000000000CC00,1,1477451575023766,1477451575023766,1,0.8125,13312,-35.0,865.7,2.8961558
40000000000000000000CC00,1,1477451575031016,1477451575031016,1,0.0,13312,-35.0,865.7,2.9268353
40000000000000000000CC00,1,1477451575037818,1477451575037818,1,0.0,13312,-35.0,865.7,2.8961558
40000000000000000000CC00,1,1477451575045010,1477451575045010,1,4.875,13312,-35.0,865.7,2.89002
40000000000000000000CC00,1,1477451575051704,1477451575051704,1,2.4375,13312,-34.5,865.7,2.883884
40000000000000000000CC00,1,1477451575059674,1477451575059674,1,5.6875,13312,-34.5,865.7,2.871612
40000000000000000000CC00,1,1477451575066908,1477451575066908,1,-0.8125,13312,-35.0,865.7,2.8961558
40000000000000000000CC00,1,1477451575073576,1477451575073576,1,1.625,13312,-34.5,865.7,2.9022915
40000000000000000000CC00,1,1477451575080786,1477451575080786,1,3.25,13312,-35.0,865.7,2.89002
40000000000000000000CC00,1,1477451575089240,1477451575089240,1,13.8125,13312,-35.0,865.7,2.8532043
40000000000000000000CC00,1,1477451575097509,1477451575097509,1,5.6875,13312,-35.0,865.7,2.8654761
40000000000000000000CC00,1,1477451575104719,1477451575104719,1,6.5,13312,-34.5,865.7,2.883884
40000000000000000000CC00,1,1477451575111438,1477451575111438,1,8.9375,13312,-35.0,865.7,2.8593402
40000000000000000000CC00,1,1477451575118648,1477451575118648,1,5.6875,13312,-35.0,865.7,2.89002
40000000000000000000CC00,1,1477451575125270,1477451575125270,1,-0.8125,13312,-35.0,865.7,2.9145634
40000000000000000000CC00,1,1477451575132454,1477451575132454,1,2.4375,13312,-34.5,865.7,2.9084275
40000000000000000000CC00,1,1477451575139393,1477451575139393,1,0.0,13312,-35.0,865.7,2.9268353
40000000000000000000CC00,1,1477451575146406,1477451575146406,1,8.9375,13312,-35.0,865.7,2.8654761
40000000000000000000CC00,1,1477451575153112,1477451575153112,1,1.625,13312,-35.0,865.7,2.9084275
40000000000000000000CC00,1,1477451575160024,1477451575160024,1,6.5,13312,-35.0,865.7,2.877748
40000000000000000000CC00,1,1477451575167168,1477451575167168,1,4.875,13312,-34.5,865.7,2.89002
40000000000000000000CC00,1,1477451575173918,1477451575173918,1,1.625,13312,-34.5,865.7,2.9329712
40000000000000000000CC00,1,1477451575182329,1477451575182329,1,0.8125,13312,-35.0,865.7,2.9391072
40000000000000000000CC00,1,1477451575189532,1477451575189532,1,1.625,13312,-35.0,865.7,2.9329712
40000000000000000000CC00,1,1477451575196472,1477451575196472,1,6.5,13312,-34.5,865.7,2.9084275
40000000000000000000CC00,1,1477451575203456,1477451575203456,1,0.8125,13312,-35.0,865.7,2.951379
40000000000000000000CC00,1,1477451575210468,1477451575210468,1,8.125,13312,-35.0,865.7,2.9022915
40000000000000000000CC00,1,1477451575217296,1477451575217296,1,7.3125,13312,-35.0,865.7,2.8961558
40000000000000000000CC00,1,1477451575224486,1477451575224486,1,-1.625,13312,-35.0,865.7,2.951379
40000000000000000000CC00,1,1477451575231264,1477451575231264,1,5.6875,13312,-35.0,865.7,2.9329712
40000000000000000000CC00,1,1477451575238447,1477451575238447,1,0.0,13312,-35.0,865.7,2.969787
40000000000000000000CC00,1,1477451575245482,1477451575245482,1,-0.8125,13312,-35.0,865.7,2.9820588
40000000000000000000CC00,1,1477451575252445,1477451575252445,1,6.5,13312,-35.0,865.7,2.9452431
40000000000000000000CC00,1,1477451575259346,1477451575259346,1,3.25,13312,-35.0,865.7,2.963651
40000000000000000000CC00,1,1477451575266274,1477451575266274,1,3.25,13312,-35.0,865.7,2.957515
40000000000000000000CC00,1,1477451575272953,1477451575272953,1,0.8125,13312,-35.0,865.7,2.9943304
40000000000000000000CC00,1,1477451575279910,1477451575279910,1,-1.625,13312,-35.0,865.7,3.02501
40000000000000000000CC00,1,1477451575286809,1477451575286809,1,0.0,13312,-35.0,865.7,3.0127382
40000000000000000000CC00,1,1477451575293745,1477451575293745,1,6.5,13312,-35.0,865.7,3.0004663
40000000000000000000CC00,1,1477451575300729,1477451575300729,1,2.4375,13312,-35.5,865.7,3.037282
40000000000000000000CC00,1,1477451575307924,1477451575307924,1,8.125,13312,-35.5,865.7,3.037282
40000000000000000000CC00,1,1477451575314875,1477451575314875,1,6.5,13312,-35.5,865.7,3.0740974
40000000000000000000CC00,1,1477451575321584,1477451575321584,1,8.9375,13312,-36.0,865.7,3.0802333
40000000000000000000CC00,1,1477451575328841,1477451575328841,1,4.875,13312,-36.0,865.7,3.1538644
40000000000000000000CC00,1,1477451575335765,1477451575335765,1,-0.8125,13312,-35.5,865.7,3.19068
40000000000000000000CC00,1,1477451575342810,1477451575342810,1,-1.625,13312,-35.5,865.7,3.2459033
40000000000000000000CC00,1,1477451575349428,1477451575349428,1,2.4375,13312,-36.0,865.7,3.2520392
40000000000000000000CC00,1,1477451575357770,1477451575357770,1,5.6875,13312,-36.0,865.7,3.276583
40000000000000000000CC00,1,1477451575364470,1477451575364470,1,0.8125,13312,-35.5,865.7,3.3318062
40000000000000000000CC00,1,1477451575371463,1477451575371463,1,5.6875,13312,-35.5,865.7,3.3011267
40000000000000000000CC00,1,1477451575378446,1477451575378446,1,3.25,13312,-36.0,865.7,3.3318062
40000000000000000000CC00,1,1477451575385329,1477451575385329,1,6.5,13312,-36.0,865.7,3.3133986
40000000000000000000CC00,1,1477451575392225,1477451575392225,1,4.875,13312,-35.5,865.7,3.3195345
40000000000000000000CC00,1,1477451575399184,1477451575399184,1,1.625,13312,-35.5,865.7,3.3379421
40000000000000000000CC00,1,1477451575406394,1477451575406394,1,2.4375,13312,-35.5,865.7,3.3195345
40000000000000000000CC00,1,1477451575413090,1477451575413090,1,0.8125,13312,-36.0,865.7,3.3379421
40000000000000000000CC00,1,1477451575421814,1477451575421814,1,-0.8125,13312,-36.0,865.7,3.35635
40000000000000000000CC00,1,1477451575428470,1477451575428470,1,1.625,13312,-35.5,865.7,3.3379421
40000000000000000000CC00,1,1477451575435385,1477451575435385,1,4.875,13312,-35.5,865.7,3.3318062
40000000000000000000CC00,1,1477451575442576,1477451575442576,1,9.75,13312,-35.5,865.7,3.3011267
40000000000000000000CC00,1,1477451575449248,1477451575449248,1,0.0,13312,-35.5,865.7,3.362486
40000000000000000000CC00,1,1477451575458032,1477451575458032,1,4.875,13312,-35.5,865.7,3.344078
40000000000000000000CC00,1,1477451575465000,1477451575465000,1,7.3125,13312,-36.0,865.7,3.3195345
40000000000000000000CC00,1,1477451575472003,1477451575472003,1,4.875,13312,-36.0,865.7,3.350214
40000000000000000000CC00,1,1477451575479765,1477451575479765,1,3.25,13312,-36.0,865.7,3.350214
40000000000000000000CC00,1,1477451575486689,1477451575486689,1,0.8125,13312,-35.5,865.7,3.3686218
40000000000000000000CC00,1,1477451575493844,1477451575493844,1,2.4375,13312,-35.5,865.7,3.3686218
40000000000000000000CC00,1,1477451575500853,1477451575500853,1,-0.8125,13312,-35.5,865.7,3.3931656
40000000000000000000CC00,1,1477451575507781,1477451575507781,1,5.6875,13312,-35.5,865.7,3.350214
40000000000000000000CC00,1,1477451575514561,1477451575514561,1,8.125,13312,-35.5,865.7,3.350214
40000000000000000000CC00,1,1477451575522703,1477451575522703,1,2.4375,13312,-35.5,865.7,3.3870296
40000000000000000000CC00,1,1477451575529685,1477451575529685,1,3.25,13312,-35.5,865.7,3.3686218
40000000000000000000CC00,1,1477451575536946,1477451575536946,1,0.8125,13312,-35.5,865.7,3.3931656
40000000000000000000CC00,1,1477451575543947,1477451575543947,1,4.875,13312,-35.5,865.7,3.3931656
40000000000000000000CC00,1,1477451575550620,1477451575550620,1,-1.625,13312,-36.0,865.7,3.423845
40000000000000000000CC00,1,1477451575557573,1477451575557573,1,2.4375,13312,-36.0,865.7,3.423845
40000000000000000000CC00,1,1477451575564784,1477451575564784,1,2.4375,13312,-36.0,865.7,3.3931656
40000000000000000000CC00,1,1477451575571455,1477451575571455,1,1.625,13312,-36.0,865.7,3.4115732
40000000000000000000CC00,1,1477451575578621,1477451575578621,1,6.5,13312,-36.0,865.7,3.3931656
40000000000000000000CC00,1,1477451575585349,1477451575585349,1,3.25,13312,-35.5,865.7,3.4115732
40000000000000000000CC00,1,1477451575592336,1477451575592336,1,3.25,13312,-36.0,865.7,3.4115732
40000000000000000000CC00,1,1477451575599306,1477451575599306,1,0.0,13312,-36.0,865.7,3.4483888
40000000000000000000CC00,1,1477451575606265,1477451575606265,1,-0.8125,13312,-36.0,865.7,3.4545248
40000000000000000000CC00,1,1477451575613419,1477451575613419,1,5.6875,13312,-36.0,865.7,3.4483888
40000000000000000000CC00,1,1477451575620152,1477451575620152,1,6.5,13312,-36.0,865.7,3.4545248
40000000000000000000CC00,1,1477451575627300,1477451575627300,1,0.0,13312,-36.0,865.7,3.515884
40000000000000000000CC00,1,1477451575634060,1477451575634060,1,4.875,13312,-36.5,865.7,3.515884
40000000000000000000CC00,1,1477451575641008,1477451575641008,1,5.6875,13312,-36.0,865.7,3.5526996
40000000000000000000CC00,1,1477451575648211,1477451575648211,1,4.875,13312,-36.5,865.7,3.589515
40000000000000000000CC00,1,1477451575655133,1477451575655133,1,0.8125,13312,-37.0,865.7,3.6447384
40000000000000000000CC00,1,1477451575661864,1477451575661864,1,4.875,13312,-37.5,865.7,3.6570103
40000000000000000000CC00,1,1477451575669141,1477451575669141,1,-2.4375,13312,-37.5,865.7,3.6999617
40000000000000000000CC00,1,1477451575676117,1477451575676117,1,1.625,13312,-37.5,865.7,3.6938257
40000000000000000000CC00,1,1477451575683077,1477451575683077,1,6.5,13312,-38.0,865.7,3.663146
40000000000000000000CC00,1,1477451575689747,1477451575689747,1,6.5,13312,-38.0,865.7,3.663146
40000000000000000000CC00,1,1477451575696670,1477451575696670,1,0.8125,13312,-38.5,865.7,3.6938257
40000000000000000000CC00,1,1477451575703899,1477451575703899,1,5.6875,13312,-38.5,865.7,3.675418
40000000000000000000CC00,1,1477451575712403,1477451575712403,1,0.8125,13312,-38.5,865.7,3.7245054
40000000000000000000CC00,1,1477451575719364,1477451575719364,1,4.875,13312,-38.5,865.7,3.6999617
40000000000000000000CC00,1,1477451575726074,1477451575726074,1,3.25,13312,-39.0,865.7,3.6999617
40000000000000000000CC00,1,1477451575733228,1477451575733228,1,0.8125,13312,-38.5,865.7,3.7183695
40000000000000000000CC00,1,1477451575741369,1477451575741369,1,0.8125,13312,-39.0,865.7,3.7183695
40000000000000000000CC00,1,1477451575748598,1477451575748598,1,1.625,13312,-39.5,865.7,3.7183695
40000000000000000000CC00,1,1477451575755527,1477451575755527,1,8.125,13312,-39.0,865.7,3.6815538
40000000000000000000CC00,1,1477451575762210,1477451575762210,1,0.0,13312,-39.0,865.7,3.742913
40000000000000000000CC00,1,1477451575769143,1477451575769143,1,-3.25,13312,-39.5,865.7,3.755185
40000000000000000000CC00,1,1477451575776155,1477451575776155,1,8.125,13312,-39.5,865.7,3.6876898
40000000000000000000CC00,1,1477451575783243,1477451575783243,1,4.875,13312,-39.0,865.7,3.7245054
40000000000000000000CC00,1,1477451575790248,1477451575790248,1,9.75,13312,-39.0,865.7,3.675418
40000000000000000000CC00,1,1477451575798241,1477451575798241,1,8.125,13312,-39.0,865.7,3.6999617
40000000000000000000CC00,1,1477451575805424,1477451575805424,1,0.8125,13312,-39.0,865.7,3.7367773
40000000000000000000CC00,1,1477451575812376,1477451575812376,1,6.5,13312,-39.5,865.7,3.6999617
40000000000000000000CC00,1,1477451575819292,1477451575819292,1,0.0,13312,-39.0,865.7,3.755185
40000000000000000000CC00,1,1477451575826232,1477451575826232,1,7.3125,13312,-39.5,865.7,3.6938257
40000000000000000000CC00,1,1477451575833189,1477451575833189,1,4.875,13312,-39.5,865.7,3.7306414
40000000000000000000CC00,1,1477451575841634,1477451575841634,1,6.5,13312,-39.5,865.7,3.6999617
40000000000000000000CC00,1,1477451575848593,1477451575848593,1,1.625,13312,-39.5,865.7,3.7367773
40000000000000000000CC00,1,1477451575855285,1477451575855285,1,1.625,13312,-39.5,865.7,3.7245054
40000000000000000000CC00,1,1477451575862464,1477451575862464,1,4.875,13312,-39.0,865.7,3.7060976
40000000000000000000CC00,1,1477451575869354,1477451575869354,1,1.625,13312,-39.5,865.7,3.7245054
40000000000000000000CC00,1,1477451575876122,1477451575876122,1,-2.4375,13312,-39.5,865.7,3.7613208
40000000000000000000CC00,1,1477451575883341,1477451575883341,1,5.6875,13312,-39.0,865.7,3.7060976
40000000000000000000CC00,1,1477451575890255,1477451575890255,1,7.3125,13312,-40.0,865.7,3.7060976
40000000000000000000CC00,1,1477451575896988,1477451575896988,1,0.0,13312,-39.5,865.7,3.7306414
40000000000000000000CC00,1,1477451575903918,1477451575903918,1,8.125,13312,-39.5,865.7,3.675418
40000000000000000000CC00,1,1477451575910856,1477451575910856,1,1.625,13312,-39.5,865.7,3.7306414
40000000000000000000CC00,1,1477451575918071,1477451575918071,1,5.6875,13312,-39.5,865.7,3.6999617
40000000000000000000CC00,1,1477451575925009,1477451575925009,1,1.625,13312,-39.5,865.7,3.7183695
40000000000000000000CC00,1,1477451575931727,1477451575931727,1,2.4375,13312,-39.5,865.7,3.7245054
40000000000000000000CC00,1,1477451575939050,1477451575939050,1,0.0,13312,-39.5,865.7,3.7306414
40000000000000000000CC00,1,1477451575945989,1477451575945989,1,7.3125,13312,-39.5,865.7,3.6876898
40000000000000000000CC00,1,1477451575952984,1477451575952984,1,4.875,13312,-39.5,865.7,3.7060976
40000000000000000000CC00,1,1477451575959910,1477451575959910,1,3.25,13312,-39.5,865.7,3.7367773
40000000000000000000CC00,1,1477451575966614,1477451575966614,1,4.875,13312,-39.5,865.7,3.7245054
40000000000000000000CC00,1,1477451575973766,1477451575973766,1,6.5,13312,-39.5,865.7,3.6938257
40000000000000000000CC00,1,1477451575980675,1477451575980675,1,3.25,13312,-39.5,865.7,3.7306414
40000000000000000000CC00,1,1477451575987374,1477451575987374,1,3.25,13312,-40.0,865.7,3.7122335
40000000000000000000CC00,1,1477451575994600,1477451575994600,1,4.875,13312,-39.5,865.7,3.7306414
40000000000000000000CC00,1,1477451576001254,1477451576001254,1,3.25,13312,-39.5,865.7,3.7183695
40000000000000000000CC00,1,1477451576008262,1477451576008262,1,3.25,13312,-40.0,865.7,3.7306414
40000000000000000000CC00,1,1477451576015454,1477451576015454,1,3.25,13312,-40.0,865.7,3.7306414
40000000000000000000CC00,1,1477451576022355,1477451576022355,1,-0.8125,13312,-40.0,865.7,3.7674568
40000000000000000000CC00,1,1477451576029099,1477451576029099,1,3.25,13312,-39.5,865.7,3.749049
40000000000000000000CC00,1,1477451576036307,1477451576036307,1,6.5,13312,-39.5,865.7,3.7367773
40000000000000000000CC00,1,1477451576043009,1477451576043009,1,1.625,13312,-40.0,865.7,3.755185
40000000000000000000CC00,1,1477451576049949,1477451576049949,1,-4.875,13312,-40.0,865.7,3.828816
40000000000000000000CC00,1,1477451576056904,1477451576056904,1,4.875,13312,-40.0,865.7,3.7797287
40000000000000000000CC00,1,1477451576063888,1477451576063888,1,7.3125,13312,-40.0,865.7,3.7674568
40000000000000000000CC00,1,1477451576071069,1477451576071069,1,6.5,13312,-40.5,865.7,3.7797287
40000000000000000000CC00,1,1477451576077772,1477451576077772,1,-2.4375,13312,-40.0,865.7,3.8533597
40000000000000000000CC00,1,1477451576085108,1477451576085108,1,3.25,13312,-40.0,865.7,3.8165443
40000000000000000000CC00,1,1477451576092060,1477451576092060,1,0.8125,13312,-40.0,865.7,3.8349519
40000000000000000000CC00,1,1477451576098778,1477451576098778,1,-0.8125,13312,-40.0,865.7,3.8410878
40000000000000000000CC00,1,1477451576105779,1477451576105779,1,0.0,13312,-40.5,865.7,3.8472238
40000000000000000000CC00,1,1477451576113025,1477451576113025,1,-7.3125,13312,-40.0,865.7,3.8901753
40000000000000000000CC00,1,1477451576120815,1477451576120815,1,-4.875,13312,-39.5,865.7,3.8594956
40000000000000000000CC00,1,1477451576128035,1477451576128035,1,3.25,13312,-40.0,865.7,3.7797287
40000000000000000000CC00,1,1477451576135001,1477451576135001,1,-5.6875,13312,-40.0,865.7,3.8533597
40000000000000000000CC00,1,1477451576141927,1477451576141927,1,2.4375,13312,-39.5,865.7,3.7613208
40000000000000000000CC00,1,1477451576148924,1477451576148924,1,5.6875,13312,-40.0,865.7,3.755185
40000000000000000000CC00,1,1477451576155581,1477451576155581,1,1.625,13312,-39.5,865.7,3.7735927
40000000000000000000CC00,1,1477451576162838,1477451576162838,1,6.5,13312,-39.5,865.7,3.7674568
40000000000000000000CC00,1,1477451576169792,1477451576169792,1,2.4375,13312,-39.5,865.7,3.7674568
40000000000000000000CC00,1,1477451576176755,1477451576176755,1,2.4375,13312,-39.0,865.7,3.7613208
40000000000000000000CC00,1,1477451576183697,1477451576183697,1,8.125,13312,-39.5,865.7,3.749049
40000000000000000000CC00,1,1477451576190663,1477451576190663,1,-1.625,13312,-39.5,865.7,3.7981365
40000000000000000000CC00,1,1477451576197335,1477451576197335,1,6.5,13312,-39.0,865.7,3.742913
40000000000000000000CC00,1,1477451576204517,1477451576204517,1,-0.8125,13312,-39.5,865.7,3.7858646
40000000000000000000CC00,1,1477451576211460,1477451576211460,1,2.4375,13312,-40.0,865.7,3.7613208
40000000000000000000CC00,1,1477451576218227,1477451576218227,1,5.6875,13312,-39.5,865.7,3.7367773
40000000000000000000CC00,1,1477451576225080,1477451576225080,1,3.25,13312,-39.5,865.7,3.7613208
40000000000000000000CC00,1,1477451576232259,1477451576232259,1,3.25,13312,-40.0,865.7,3.755185
40000000000000000000CC00,1,1477451576238962,1477451576238962,1,5.6875,13312,-39.5,865.7,3.7367773
40000000000000000000CC00,1,1477451576246139,1477451576246139,1,0.8125,13312,-39.5,865.7,3.755185
40000000000000000000CC00,1,1477451576253088,1477451576253088,1,3.25,13312,-39.5,865.7,3.7367773
40000000000000000000CC00,1,1477451576261456,1477451576261456,1,0.8125,13312,-39.5,865.7,3.755185
40000000000000000000CC00,1,1477451576269893,1477451576269893,1,6.5,13312,-39.0,865.7,3.6938257
40000000000000000000CC00,1,1477451576277920,1477451576277920,1,0.8125,13312,-39.0,865.7,3.6999617
40000000000000000000CC00,1,1477451576284866,1477451576284866,1,3.25,13312,-39.0,865.7,3.6508744
40000000000000000000CC00,1,1477451576291842,1477451576291842,1,2.4375,13312,-39.0,865.7,3.6570103
40000000000000000000CC00,1,1477451576300067,1477451576300067,1,5.6875,13312,-39.0,865.7,3.6324666
40000000000000000000CC00,1,1477451576307260,1477451576307260,1,7.3125,13312,-38.5,865.7,3.6079228
40000000000000000000CC00,1,1477451576313950,1477451576313950,1,7.3125,13312,-38.5,865.7,3.583379
40000000000000000000CC00,1,1477451576321222,1477451576321222,1,4.875,13312,-38.5,865.7,3.5588355
40000000000000000000CC00,1,1477451576328131,1477451576328131,1,0.0,13312,-38.5,865.7,3.583379
40000000000000000000CC00,1,1477451576335106,1477451576335106,1,2.4375,13312,-38.5,865.7,3.589515
40000000000000000000CC00,1,1477451576342040,1477451576342040,1,0.8125,13312,-38.5,865.7,3.577243
40000000000000000000CC00,1,1477451576348736,1477451576348736,1,2.4375,13312,-38.5,865.7,3.5649714
40000000000000000000CC00,1,1477451576355639,1477451576355639,1,2.4375,13312,-38.5,865.7,3.5465636
40000000000000000000CC00,1,1477451576362714,1477451576362714,1,-0.8125,13312,-38.5,865.7,3.589515
40000000000000000000CC00,1,1477451576369644,1477451576369644,1,4.875,13312,-38.5,865.7,3.5342917
40000000000000000000CC00,1,1477451576376573,1477451576376573,1,5.6875,13312,-38.5,865.7,3.5526996
40000000000000000000CC00,1,1477451576385198,1477451576385198,1,-0.8125,13312,-38.5,865.7,3.583379
40000000000000000000CC00,1,1477451576391876,1477451576391876,1,2.4375,13312,-38.5,865.7,3.5526996
40000000000000000000CC00,1,1477451576399927,1477451576399927,1,-0.8125,13312,-38.5,865.7,3.5526996
40000000000000000000CC00,1,1477451576407037,1477451576407037,1,5.6875,13312,-38.5,865.7,3.5342917
40000000000000000000CC00,1,1477451576415831,1477451576415831,1,3.25,13312,-38.5,865.7,3.5342917
40000000000000000000CC00,1,1477451576422891,1477451576422891,1,3.25,13312,-38.0,865.7,3.5281558
40000000000000000000CC00,1,1477451576429653,1477451576429653,1,-2.4375,13312,-38.5,865.7,3.5649714
40000000000000000000CC00,1,1477451576436626,1477451576436626,1,6.5,13312,-38.5,865.7,3.503612
40000000000000000000CC00,1,1477451576443558,1477451576443558,1,-3.25,13312,-38.0,865.7,3.5588355
40000000000000000000CC00,1,1477451576450511,1477451576450511,1,0.0,13312,-38.0,865.7,3.5342917
40000000000000000000CC00,1,1477451576459169,1477451576459169,1,3.25,13312,-38.0,865.7,3.497476
40000000000000000000CC00,1,1477451576466117,1477451576466117,1,2.4375,13312,-38.5,865.7,3.4545248
40000000000000000000CC00,1,1477451576472819,1477451576472819,1,3.25,13312,-38.0,865.7,3.4422529
40000000000000000000CC00,1,1477451576479742,1477451576479742,1,-0.8125,13312,-38.0,865.7,3.4115732
40000000000000000000CC00,1,1477451576488513,1477451576488513,1,2.4375,13312,-38.0,865.7,3.362486
40000000000000000000CC00,1,1477451576495461,1477451576495461,1,2.4375,13312,-38.0,865.7,3.3379421
40000000000000000000CC00,1,1477451576502101,1477451576502101,1,2.4375,13312,-37.5,865.7,3.3011267
40000000000000000000CC00,1,1477451576509192,1477451576509192,1,-1.625,13312,-38.0,865.7,3.2949908
40000000000000000000CC00,1,1477451576517857,1477451576517857,1,2.4375,13312,-38.0,865.7,3.2336316
40000000000000000000CC00,1,1477451576524807,1477451576524807,1,0.0,13312,-38.0,865.7,3.264311
40000000000000000000CC00,1,1477451576531759,1477451576531759,1,8.125,13312,-37.5,865.7,3.2090878
40000000000000000000CC00,1,1477451576538955,1477451576538955,1,3.25,13312,-37.5,865.7,3.2274957
40000000000000000000CC00,1,1477451576545922,1477451576545922,1,7.3125,13312,-38.0,865.7,3.202952
40000000000000000000CC00,1,1477451576552968,1477451576552968,1,7.3125,13312,-38.0,865.7,3.2090878
40000000000000000000CC00,1,1477451576559842,1477451576559842,1,8.125,13312,-38.0,865.7,3.196816
40000000000000000000CC00,1,1477451576568002,1477451576568002,1,0.8125,13312,-38.0,865.7,3.2520392
40000000000000000000CC00,1,1477451576575278,1477451576575278,1,7.3125,13312,-37.5,865.7,3.2090878
40000000000000000000CC00,1,1477451576582026,1477451576582026,1,2.4375,13312,-38.0,865.7,3.2274957
40000000000000000000CC00,1,1477451576589036,1477451576589036,1,1.625,13312,-38.0,865.7,3.2274957
40000000000000000000CC00,1,1477451576596267,1477451576596267,1,5.6875,13312,-38.0,865.7,3.202952
40000000000000000000CC00,1,1477451576603262,1477451576603262,1,8.125,13312,-38.0,865.7,3.202952
40000000000000000000CC00,1,1477451576609990,1477451576609990,1,7.3125,13312,-38.0,865.7,3.1722722
40000000000000000000CC00,1,1477451576617141,1477451576617141,1,4.875,13312,-37.5,865.7,3.2152238
40000000000000000000CC00,1,1477451576623855,1477451576623855,1,5.6875,13312,-38.0,865.7,3.184544
40000000000000000000CC00,1,1477451576631009,1477451576631009,1,6.5,13312,-38.0,865.7,3.2152238
40000000000000000000CC00,1,1477451576638002,1477451576638002,1,2.4375,13312,-38.0,865.7,3.2213597
40000000000000000000CC00,1,1477451576644635,1477451576644635,1,3.25,13312,-37.5,865.7,3.2090878
40000000000000000000CC00,1,1477451576651630,1477451576651630,1,4.875,13312,-38.0,865.7,3.202952
40000000000000000000CC00,1,1477451576658841,1477451576658841,1,-1.625,13312,-38.0,865.7,3.2397673
40000000000000000000CC00,1,1477451576665490,1477451576665490,1,0.8125,13312,-38.0,865.7,3.2090878
40000000000000000000CC00,1,1477451576672704,1477451576672704,1,8.9375,13312,-37.5,865.7,3.1538644
40000000000000000000CC00,1,1477451576679762,1477451576679762,1,5.6875,13312,-37.5,865.7,3.184544
40000000000000000000CC00,1,1477451576794678,1477451576794678,1,8.125,13312,-38.0,865.7,3.104777
40000000000000000000CC00,1,1477451576801855,1477451576801855,1,1.625,13312,-38.0,865.7,3.1354568
40000000000000000000CC00,1,1477451576808747,1477451576808747,1,0.0,13312,-38.0,865.7,3.1415927
40000000000000000000CC00,1,1477451576816937,1477451576816937,1,-6.5,13312,-37.5,865.7,3.184544
40000000000000000000CC00,1,1477451576823882,1477451576823882,1,3.25,13312,-37.5,865.7,3.110913
40000000000000000000CC00,1,1477451576830833,1477451576830833,1,5.6875,13312,-37.5,865.7,3.0863693
40000000000000000000CC00,1,1477451576837755,1477451576837755,1,5.6875,13312,-37.5,865.7,3.0863693
40000000000000000000CC00,1,1477451576844723,1477451576844723,1,5.6875,13312,-37.5,865.7,3.0863693
40000000000000000000CC00,1,1477451576853221,1477451576853221,1,6.5,13312,-37.5,865.7,3.0740974
40000000000000000000CC00,1,1477451576860131,1477451576860131,1,6.5,13312,-37.5,865.7,3.0556898
40000000000000000000CC00,1,1477451576867128,1477451576867128,1,2.4375,13312,-37.5,865.7,3.0679617
40000000000000000000CC00,1,1477451576874292,1477451576874292,1,5.6875,13312,-37.0,865.7,3.0066023
40000000000000000000CC00,1,1477451576881013,1477451576881013,1,6.5,13312,-37.0,865.7,2.9881945
40000000000000000000CC00,1,1477451576888161,1477451576888161,1,7.3125,13312,-37.0,865.7,2.9391072
40000000000000000000CC00,1,1477451576895224,1477451576895224,1,0.8125,13312,-36.5,865.7,2.9391072
40000000000000000000CC00,1,1477451576902215,1477451576902215,1,2.4375,13312,-36.5,865.7,2.9022915
40000000000000000000CC00,1,1477451576909116,1477451576909116,1,2.4375,13312,-36.5,865.7,2.883884
40000000000000000000CC00,1,1477451576915841,1477451576915841,1,1.625,13312,-36.5,865.7,2.8593402
40000000000000000000CC00,1,1477451576923069,1477451576923069,1,1.625,13312,-36.5,865.7,2.8409324
40000000000000000000CC00,1,1477451576929941,1477451576929941,1,9.75,13312,-36.0,865.7,2.7673013
40000000000000000000CC00,1,1477451576937213,1477451576937213,1,7.3125,13312,-36.0,865.7,2.7611654
40000000000000000000CC00,1,1477451576943996,1477451576943996,1,8.125,13312,-36.5,865.7,2.7673013
40000000000000000000CC00,1,1477451576951196,1477451576951196,1,6.5,13312,-36.5,865.7,2.7857091
40000000000000000000CC00,1,1477451576957897,1477451576957897,1,3.25,13312,-36.5,865.7,2.7857091
40000000000000000000CC00,1,1477451576964868,1477451576964868,1,6.5,13312,-36.5,865.7,2.7795732
40000000000000000000CC00,1,1477451576972133,1477451576972133,1,2.4375,13312,-36.5,865.7,2.7734373
40000000000000000000CC00,1,1477451576979027,1477451576979027,1,0.0,13312,-36.0,865.7,2.804117
40000000000000000000CC00,1,1477451576985975,1477451576985975,1,-2.4375,13312,-36.5,865.7,2.810253
40000000000000000000CC00,1,1477451576992993,1477451576992993,1,7.3125,13312,-36.5,865.7,2.72435
40000000000000000000CC00,1,1477451577000028,1477451577000028,1,2.4375,13312,-36.5,865.7,2.7550294
40000000000000000000CC00,1,1477451577008204,1477451577008204,1,4.875,13312,-36.0,865.7,2.7366216
40000000000000000000CC00,1,1477451577015154,1477451577015154,1,2.4375,13312,-36.5,865.7,2.7488935
40000000000000000000CC00,1,1477451577023136,1477451577023136,1,2.4375,13312,-36.0,865.7,2.7427576
40000000000000000000CC00,1,1477451577030016,1477451577030016,1,2.4375,13312,-36.0,865.7,2.7488935
40000000000000000000CC00,1,1477451577037191,1477451577037191,1,4.875,13312,-36.5,865.7,2.72435
40000000000000000000CC00,1,1477451577044117,1477451577044117,1,3.25,13312,-36.5,865.7,2.718214
40000000000000000000CC00,1,1477451577051072,1477451577051072,1,3.25,13312,-36.0,865.7,2.6936703
40000000000000000000CC00,1,1477451577058028,1477451577058028,1,3.25,13312,-36.0,865.7,2.6568546
40000000000000000000CC00,1,1477451577064947,1477451577064947,1,0.8125,13312,-36.5,865.7,2.6200392
40000000000000000000CC00,1,1477451577071687,1477451577071687,1,3.25,13312,-36.0,865.7,2.5954955
40000000000000000000CC00,1,1477451577078615,1477451577078615,1,-3.25,13312,-36.0,865.7,2.6077673
40000000000000000000CC00,1,1477451577087263,1477451577087263,1,0.8125,13312,-36.0,865.7,2.552544
40000000000000000000CC00,1,1477451577093949,1477451577093949,1,1.625,13312,-36.0,865.7,2.552544
40000000000000000000CC00,1,1477451577101201,1477451577101201,1,5.6875,13312,-36.0,865.7,2.5218644
40000000000000000000CC00,1,1477451577108113,1477451577108113,1,5.6875,13312,-36.0,865.7,2.5157285
40000000000000000000CC00,1,1477451577114881,1477451577114881,1,3.25,13312,-36.0,865.7,2.5157285
40000000000000000000CC00,1,1477451577121816,1477451577121816,1,7.3125,13312,-36.0,865.7,2.4911847
40000000000000000000CC00,1,1477451577128753,1477451577128753,1,8.9375,13312,-36.0,865.7,2.478913
40000000000000000000CC00,1,1477451577136009,1477451577136009,1,-4.875,13312,-36.0,865.7,2.552544
40000000000000000000CC00,1,1477451577142814,1477451577142814,1,5.6875,13312,-36.5,865.7,2.4973207
40000000000000000000CC00,1,1477451577149719,1477451577149719,1,-0.8125,13312,-36.0,865.7,2.5095925
40000000000000000000CC00,1,1477451577156946,1477451577156946,1,6.5,13312,-36.5,865.7,2.478913
40000000000000000000CC00,1,1477451577163644,1477451577163644,1,8.9375,13312,-36.0,865.7,2.4605052
40000000000000000000CC00,1,1477451577171595,1477451577171595,1,3.25,13312,-36.0,865.7,2.4911847
40000000000000000000CC00,1,1477451577178799,1477451577178799,1,0.0,13312,-36.0,865.7,2.5034566
40000000000000000000CC00,1,1477451577185692,1477451577185692,1,-0.8125,13312,-35.5,865.7,2.4973207
40000000000000000000CC00,1,1477451577192408,1477451577192408,1,5.6875,13312,-36.0,865.7,2.4605052
40000000000000000000CC00,1,1477451577199438,1477451577199438,1,8.125,13312,-36.0,865.7,2.4359615
40000000000000000000CC00,1,1477451577206350,1477451577206350,1,9.75,13312,-36.0,865.7,2.4236896
40000000000000000000CC00,1,1477451577213301,1477451577213301,1,3.25,13312,-36.0,865.7,2.4420974
40000000000000000000CC00,1,1477451577220215,1477451577220215,1,6.5,13312,-36.0,865.7,2.4114177
40000000000000000000CC00,1,1477451577227170,1477451577227170,1,5.6875,13312,-36.0,865.7,2.3807383
40000000000000000000CC00,1,1477451577234064,1477451577234064,1,-1.625,13312,-36.5,865.7,2.4298255
40000000000000000000CC00,1,1477451577240964,1477451577240964,1,6.5,13312,-36.5,865.7,2.3684664
40000000000000000000CC00,1,1477451577248227,1477451577248227,1,5.6875,13312,-36.0,865.7,2.3439226
40000000000000000000CC00,1,1477451577254903,1477451577254903,1,6.5,13312,-36.0,865.7,2.3439226
40000000000000000000CC00,1,1477451577261799,1477451577261799,1,-0.8125,13312,-36.5,865.7,2.3746023
40000000000000000000CC00,1,1477451577269002,1477451577269002,1,4.875,13312,-36.5,865.7,2.3561945
40000000000000000000CC00,1,1477451577275937,1477451577275937,1,1.625,13312,-36.0,865.7,2.3439226
40000000000000000000CC00,1,1477451577284055,1477451577284055,1,1.625,13312,-36.5,865.7,2.3561945
40000000000000000000CC00,1,1477451577291234,1477451577291234,1,-0.8125,13312,-36.0,865.7,2.3623304
40000000000000000000CC00,1,1477451577298218,1477451577298218,1,2.4375,13312,-36.0,865.7,2.3377867
40000000000000000000CC00,1,1477451577304890,1477451577304890,1,4.875,13312,-36.0,865.7,2.3255148
40000000000000000000CC00,1,1477451577312081,1477451577312081,1,2.4375,13312,-36.0,865.7,2.3255148
40000000000000000000CC00,1,1477451577318963,1477451577318963,1,5.6875,13312,-36.0,865.7,2.3071072
40000000000000000000CC00,1,1477451577325660,1477451577325660,1,4.875,13312,-36.5,865.7,2.3071072
40000000000000000000CC00,1,1477451577332685,1477451577332685,1,0.0,13312,-36.0,865.7,2.3255148
40000000000000000000CC00,1,1477451577339658,1477451577339658,1,5.6875,13312,-36.0,865.7,2.2825634
40000000000000000000CC00,1,1477451577346672,1477451577346672,1,2.4375,13312,-36.5,865.7,2.3071072
40000000000000000000CC00,1,1477451577353670,1477451577353670,1,8.125,13312,-36.0,865.7,2.2580197
40000000000000000000CC00,1,1477451577360844,1477451577360844,1,9.75,13312,-36.0,865.7,2.2457478
40000000000000000000CC00,1,1477451577367553,1477451577367553,1,6.5,13312,-36.0,865.7,2.2825634
40000000000000000000CC00,1,1477451577374478,1477451577374478,1,1.625,13312,-36.0,865.7,2.2702916
40000000000000000000CC00,1,1477451577381660,1477451577381660,1,6.5,13312,-36.0,865.7,2.233476
40000000000000000000CC00,1,1477451577388342,1477451577388342,1,-2.4375,13312,-36.0,865.7,2.2764275
40000000000000000000CC00,1,1477451577395299,1477451577395299,1,0.0,13312,-36.0,865.7,2.2518837
40000000000000000000CC00,1,1477451577404102,1477451577404102,1,7.3125,13312,-35.5,865.7,2.1905246
40000000000000000000CC00,1,1477451577412171,1477451577412171,1,6.5,13312,-35.5,865.7,2.1659808
40000000000000000000CC00,1,1477451577419093,1477451577419093,1,1.625,13312,-35.5,865.7,2.1659808
40000000000000000000CC00,1,1477451577425812,1477451577425812,1,6.5,13312,-35.5,865.7,2.147573
40000000000000000000CC00,1,1477451577433020,1477451577433020,1,5.6875,13312,-35.5,865.7,2.147573
40000000000000000000CC00,1,1477451577439930,1477451577439930,1,10.5625,13312,-35.5,865.7,2.1107576
40000000000000000000CC00,1,1477451577446659,1477451577446659,1,7.3125,13312,-35.5,865.7,2.1046216
40000000000000000000CC00,1,1477451577453926,1477451577453926,1,4.875,13312,-36.0,865.7,2.1168935
40000000000000000000CC00,1,1477451577460879,1477451577460879,1,8.9375,13312,-35.5,865.7,2.073942
40000000000000000000CC00,1,1477451577467886,1477451577467886,1,5.6875,13312,-35.5,865.7,2.080078
40000000000000000000CC00,1,1477451577474821,1477451577474821,1,6.5,13312,-36.0,865.7,2.0493984
40000000000000000000CC00,1,1477451577481747,1477451577481747,1,8.125,13312,-35.5,865.7,2.0248547
40000000000000000000CC00,1,1477451577488462,1477451577488462,1,7.3125,13312,-35.5,865.7,1.9941751
40000000000000000000CC00,1,1477451577495667,1477451577495667,1,6.5,13312,-35.5,865.7,1.9880391
40000000000000000000CC00,1,1477451577502569,1477451577502569,1,0.8125,13312,-35.5,865.7,1.9880391
40000000000000000000CC00,1,1477451577509520,1477451577509520,1,4.875,13312,-35.5,865.7,1.9328158
40000000000000000000CC00,1,1477451577516704,1477451577516704,1,0.8125,13312,-35.5,865.7,1.9573594
40000000000000000000CC00,1,1477451577523442,1477451577523442,1,5.6875,13312,-35.5,865.7,1.8898643
40000000000000000000CC00,1,1477451577530605,1477451577530605,1,0.0,13312,-35.5,865.7,1.8960003
40000000000000000000CC00,1,1477451577538344,1477451577538344,1,3.25,13312,-35.5,865.7,1.8469129
40000000000000000000CC00,1,1477451577545563,1477451577545563,1,6.5,13312,-36.0,865.7,1.8223692
40000000000000000000CC00,1,1477451577552534,1477451577552534,1,4.875,13312,-35.5,865.7,1.8162333
40000000000000000000CC00,1,1477451577561002,1477451577561002,1,4.875,13312,-36.0,865.7,1.8162333
40000000000000000000CC00,1,1477451577567746,1477451577567746,1,4.875,13312,-35.5,865.7,1.8223692
40000000000000000000CC00,1,1477451577574961,1477451577574961,1,1.625,13312,-35.5,865.7,1.834641
40000000000000000000CC00,1,1477451577581922,1477451577581922,1,7.3125,13312,-36.0,865.7,1.7978255
40000000000000000000CC00,1,1477451577588634,1477451577588634,1,8.9375,13312,-35.5,865.7,1.7916895
40000000000000000000CC00,1,1477451577598623,1477451577598623,1,6.5,13312,-36.0,865.7,1.7978255
40000000000000000000CC00,1,1477451577605882,1477451577605882,1,0.8125,13312,-35.5,865.7,1.8285052
40000000000000000000CC00,1,1477451577612939,1477451577612939,1,9.75,13312,-35.5,865.7,1.7855537
40000000000000000000CC00,1,1477451577619596,1477451577619596,1,5.6875,13312,-35.5,865.7,1.8100973
40000000000000000000CC00,1,1477451577626641,1477451577626641,1,6.5,13312,-36.0,865.7,1.7978255
40000000000000000000CC00,1,1477451577633541,1477451577633541,1,0.8125,13312,-35.5,865.7,1.8223692
40000000000000000000CC00,1,1477451577640483,1477451577640483,1,4.875,13312,-36.0,865.7,1.7978255
40000000000000000000CC00,1,1477451577647492,1477451577647492,1,5.6875,13312,-35.5,865.7,1.7916895
40000000000000000000CC00,1,1477451577656161,1477451577656161,1,4.875,13312,-35.5,865.7,1.7855537
40000000000000000000CC00,1,1477451577662842,1477451577662842,1,2.4375,13312,-35.5,865.7,1.8162333
40000000000000000000CC00,1,1477451577670037,1477451577670037,1,-3.25,13312,-35.5,865.7,1.834641
40000000000000000000CC00,1,1477451577676749,1477451577676749,1,6.5,13312,-36.0,865.7,1.7794178
40000000000000000000CC00,1,1477451577683912,1477451577683912,1,4.875,13312,-36.0,865.7,1.7978255
40000000000000000000CC00,1,1477451577690642,1477451577690642,1,-0.8125,13312,-36.0,865.7,1.8100973
40000000000000000000CC00,1,1477451577697541,1477451577697541,1,3.25,13312,-36.0,865.7,1.8039614
40000000000000000000CC00,1,1477451577704490,1477451577704490,1,1.625,13312,-36.0,865.7,1.7916895
40000000000000000000CC00,1,1477451577711407,1477451577711407,1,2.4375,13312,-36.0,865.7,1.7916895
40000000000000000000CC00,1,1477451577718358,1477451577718358,1,0.8125,13312,-36.0,865.7,1.7855537
40000000000000000000CC00,1,1477451577725627,1477451577725627,1,2.4375,13312,-35.5,865.7,1.7732818
40000000000000000000CC00,1,1477451577732354,1477451577732354,1,4.875,13312,-36.0,865.7,1.7732818
40000000000000000000CC00,1,1477451577739307,1477451577739307,1,2.4375,13312,-35.5,865.7,1.7916895
40000000000000000000CC00,1,1477451577746250,1477451577746250,1,10.5625,13312,-35.5,865.7,1.7303303
40000000000000000000CC00,1,1477451577753227,1477451577753227,1,2.4375,13312,-35.5,865.7,1.748738
40000000000000000000CC00,1,1477451577760428,1477451577760428,1,7.3125,13312,-35.5,865.7,1.7426022
40000000000000000000CC00,1,1477451577767253,1477451577767253,1,6.5,13312,-36.0,865.7,1.7241944
40000000000000000000CC00,1,1477451577774433,1477451577774433,1,5.6875,13312,-36.0,865.7,1.7180585
40000000000000000000CC00,1,1477451577781118,1477451577781118,1,5.6875,13312,-36.0,865.7,1.7241944
40000000000000000000CC00,1,1477451577788383,1477451577788383,1,6.5,13312,-35.5,865.7,1.7241944
40000000000000000000CC00,1,1477451577795441,1477451577795441,1,3.25,13312,-36.0,865.7,1.7303303
40000000000000000000CC00,1,1477451577802385,1477451577802385,1,0.8125,13312,-36.0,865.7,1.7364663
40000000000000000000CC00,1,1477451577809340,1477451577809340,1,0.0,13312,-36.0,865.7,1.7364663
40000000000000000000CC00,1,1477451577816341,1477451577816341,1,0.0,13312,-36.0,865.7,1.7426022
40000000000000000000CC00,1,1477451577823108,1477451577823108,1,2.4375,13312,-35.5,865.7,1.7180585
40000000000000000000CC00,1,1477451577830070,1477451577830070,1,1.625,13312,-35.5,865.7,1.7180585
40000000000000000000CC00,1,1477451577836951,1477451577836951,1,4.875,13312,-35.5,865.7,1.7119225
40000000000000000000CC00,1,1477451577844167,1477451577844167,1,2.4375,13312,-36.0,865.7,1.6996508
40000000000000000000CC00,1,1477451577850885,1477451577850885,1,5.6875,13312,-35.5,865.7,1.7057866
40000000000000000000CC00,1,1477451577858093,1477451577858093,1,7.3125,13312,-35.5,865.7,1.675107
40000000000000000000CC00,1,1477451577864795,1477451577864795,1,3.25,13312,-35.5,865.7,1.6935148
40000000000000000000CC00,1,1477451577873260,1477451577873260,1,-0.8125,13312,-35.5,865.7,1.7057866
40000000000000000000CC00,1,1477451577880407,1477451577880407,1,0.8125,13312,-35.5,865.7,1.6873789
40000000000000000000CC00,1,1477451577887377,1477451577887377,1,1.625,13312,-35.5,865.7,1.681243
40000000000000000000CC00,1,1477451577894440,1477451577894440,1,0.8125,13312,-35.5,865.7,1.6689711
40000000000000000000CC00,1,1477451577901407,1477451577901407,1,1.625,13312,-35.5,865.7,1.675107
40000000000000000000CC00,1,1477451577908347,1477451577908347,1,1.625,13312,-35.5,865.7,1.6628351
40000000000000000000CC00,1,1477451577915227,1477451577915227,1,1.625,13312,-35.5,865.7,1.6628351
40000000000000000000CC00,1,1477451577922234,1477451577922234,1,-0.8125,13312,-35.5,865.7,1.681243
40000000000000000000CC00,1,1477451577929149,1477451577929149,1,4.875,13312,-35.0,865.7,1.6628351
40000000000000000000CC00,1,1477451577937041,1477451577937041,1,4.875,13312,-35.5,865.7,1.6689711
40000000000000000000CC00,1,1477451577944309,1477451577944309,1,6.5,13312,-35.0,865.7,1.6628351
40000000000000000000CC00,1,1477451577950981,1477451577950981,1,4.875,13312,-35.5,865.7,1.6689711
40000000000000000000CC00,1,1477451577957919,1477451577957919,1,2.4375,13312,-35.0,865.7,1.681243
40000000000000000000CC00,1,1477451577965163,1477451577965163,1,1.625,13312,-35.5,865.7,1.6935148
40000000000000000000CC00,1,1477451577971853,1477451577971853,1,2.4375,13312,-35.5,865.7,1.6873789
40000000000000000000CC00,1,1477451577979891,1477451577979891,1,-2.4375,13312,-35.0,865.7,1.7057866
40000000000000000000CC00,1,1477451577986881,1477451577986881,1,1.625,13312,-35.0,865.7,1.681243
40000000000000000000CC00,1,1477451577994127,1477451577994127,1,4.875,13312,-35.5,865.7,1.6628351
40000000000000000000CC00,1,1477451578002283,1477451578002283,1,1.625,13312,-35.0,865.7,1.675107
40000000000000000000CC00,1,1477451578009466,1477451578009466,1,2.4375,13312,-35.5,865.7,1.681243
40000000000000000000CC00,1,1477451578016093,1477451578016093,1,2.4375,13312,-35.5,865.7,1.675107
40000000000000000000CC00,1,1477451578023300,1477451578023300,1,1.625,13312,-35.5,865.7,1.675107
40000000000000000000CC00,1,1477451578030025,1477451578030025,1,2.4375,13312,-35.0,865.7,1.681243
40000000000000000000CC00,1,1477451578036987,1477451578036987,1,3.25,13312,-35.0,865.7,1.675107
40000000000000000000CC00,1,1477451578044146,1477451578044146,1,1.625,13312,-35.5,865.7,1.6689711
40000000000000000000CC00,1,1477451578051119,1477451578051119,1,4.875,13312,-35.5,865.7,1.6689711
40000000000000000000CC00,1,1477451578058110,1477451578058110,1,0.8125,13312,-35.5,865.7,1.6628351
40000000000000000000CC00,1,1477451578065050,1477451578065050,1,0.0,13312,-35.5,865.7,1.6873789
40000000000000000000CC00,1,1477451578072005,1477451578072005,1,7.3125,13312,-35.5,865.7,1.6382915
40000000000000000000CC00,1,1477451578078990,1477451578078990,1,2.4375,13312,-35.0,865.7,1.6628351
40000000000000000000CC00,1,1477451578087419,1477451578087419,1,6.5,13312,-35.0,865.7,1.6382915
40000000000000000000CC00,1,1477451578095843,1477451578095843,1,4.875,13312,-35.0,865.7,1.6505634
40000000000000000000CC00,1,1477451578102840,1477451578102840,1,1.625,13312,-35.5,865.7,1.6444274
40000000000000000000CC00,1,1477451578109842,1477451578109842,1,1.625,13312,-35.5,865.7,1.6444274
40000000000000000000CC00,1,1477451578116487,1477451578116487,1,-0.8125,13312,-35.0,865.7,1.6628351
40000000000000000000CC00,1,1477451578123688,1477451578123688,1,3.25,13312,-35.0,865.7,1.6321555
40000000000000000000CC00,1,1477451578130433,1477451578130433,1,2.4375,13312,-35.5,865.7,1.6321555
40000000000000000000CC00,1,1477451578137646,1477451578137646,1,-1.625,13312,-35.0,865.7,1.6628351
40000000000000000000CC00,1,1477451578144417,1477451578144417,1,1.625,13312,-35.0,865.7,1.6321555
40000000000000000000CC00,1,1477451578151619,1477451578151619,1,3.25,13312,-35.0,865.7,1.6260196
40000000000000000000CC00,1,1477451578160033,1477451578160033,1,2.4375,13312,-35.0,865.7,1.6260196
40000000000000000000CC00,1,1477451578166716,1477451578166716,1,1.625,13312,-35.0,865.7,1.6321555
40000000000000000000CC00,1,1477451578175152,1477451578175152,1,2.4375,13312,-35.0,865.7,1.6076119
40000000000000000000CC00,1,1477451578182275,1477451578182275,1,2.4375,13312,-35.5,865.7,1.6076119
40000000000000000000CC00,1,1477451578189035,1477451578189035,1,7.3125,13312,-35.5,865.7,1.59534
40000000000000000000CC00,1,1477451578197666,1477451578197666,1,7.3125,13312,-35.0,865.7,1.601476
40000000000000000000CC00,1,1477451578205660,1477451578205660,1,-1.625,13312,-35.5,865.7,1.6321555
40000000000000000000CC00,1,1477451578212908,1477451578212908,1,1.625,13312,-35.5,865.7,1.6321555
40000000000000000000CC00,1,1477451578219894,1477451578219894,1,2.4375,13312,-35.5,865.7,1.6076119
40000000000000000000CC00,1,1477451578226524,1477451578226524,1,6.5,13312,-35.5,865.7,1.59534
40000000000000000000CC00,1,1477451578233443,1477451578233443,1,4.875,13312,-35.5,865.7,1.6076119
40000000000000000000CC00,1,1477451578240352,1477451578240352,1,4.875,13312,-35.0,865.7,1.59534
40000000000000000000CC00,1,1477451578247260,1477451578247260,1,2.4375,13312,-35.0,865.7,1.6137478
40000000000000000000CC00,1,1477451578254524,1477451578254524,1,6.5,13312,-35.0,865.7,1.59534
40000000000000000000CC00,1,1477451578261470,1477451578261470,1,9.75,13312,-35.5,865.7,1.5830681
40000000000000000000CC00,1,1477451578268217,1477451578268217,1,2.4375,13312,-35.0,865.7,1.6198837
40000000000000000000CC00,1,1477451578275087,1477451578275087,1,0.8125,13312,-35.0,865.7,1.6321555
40000000000000000000CC00,1,1477451578282339,1477451578282339,1,0.8125,13312,-35.0,865.7,1.6444274
40000000000000000000CC00,1,1477451578289364,1477451578289364,1,-1.625,13312,-35.0,865.7,1.6444274
40000000000000000000CC00,1,1477451578296098,1477451578296098,1,2.4375,13312,-35.0,865.7,1.6321555
40000000000000000000CC00,1,1477451578303281,1477451578303281,1,1.625,13312,-35.0,865.7,1.6321555
40000000000000000000CC00,1,1477451578311659,1477451578311659,1,1.625,13312,-35.0,865.7,1.6382915
40000000000000000000CC00,1,1477451578318603,1477451578318603,1,3.25,13312,-35.0,865.7,1.6382915
40000000000000000000CC00,1,1477451578325591,1477451578325591,1,3.25,13312,-35.0,865.7,1.6321555
40000000000000000000CC00,1,1477451578332305,1477451578332305,1,0.8125,13312,-35.0,865.7,1.6505634
40000000000000000000CC00,1,1477451578339325,1477451578339325,1,8.9375,13312,-35.0,865.7,1.6137478
40000000000000000000CC00,1,1477451578346298,1477451578346298,1,0.8125,13312,-35.0,865.7,1.6505634
40000000000000000000CC00,1,1477451578354753,1477451578354753,1,-1.625,13312,-35.0,865.7,1.6689711
40000000000000000000CC00,1,1477451578361938,1477451578361938,1,0.0,13312,-35.0,865.7,1.6566993
40000000000000000000CC00,1,1477451578368654,1477451578368654,1,8.125,13312,-35.0,865.7,1.6260196
40000000000000000000CC00,1,1477451578375633,1477451578375633,1,3.25,13312,-35.0,865.7,1.6382915
40000000000000000000CC00,1,1477451578382692,1477451578382692,1,4.875,13312,-35.0,865.7,1.6260196
40000000000000000000CC00,1,1477451578389666,1477451578389666,1,4.875,13312,-35.0,865.7,1.6198837
40000000000000000000CC00,1,1477451578396998,1477451578396998,1,2.4375,13312,-35.0,865.7,1.6505634
40000000000000000000CC00,1,1477451578404119,1477451578404119,1,6.5,13312,-34.5,865.7,1.6321555
40000000000000000000CC00,1,1477451578411146,1477451578411146,1,2.4375,13312,-35.0,865.7,1.6444274
40000000000000000000CC00,1,1477451578419186,1477451578419186,1,2.4375,13312,-35.0,865.7,1.6444274
40000000000000000000CC00,1,1477451578425925,1477451578425925,1,2.4375,13312,-35.0,865.7,1.6505634
40000000000000000000CC00,1,1477451578434254,1477451578434254,1,6.5,13312,-35.0,865.7,1.6260196
40000000000000000000CC00,1,1477451578440976,1477451578440976,1,3.25,13312,-34.5,865.7,1.6566993
40000000000000000000CC00,1,1477451578447942,1477451578447942,1,5.6875,13312,-34.5,865.7,1.6505634
40000000000000000000CC00,1,1477451578455101,1477451578455101,1,0.0,13312,-34.5,865.7,1.681243
40000000000000000000CC00,1,1477451578461812,1477451578461812,1,-0.8125,13312,-34.5,865.7,1.6873789
40000000000000000000CC00,1,1477451578469060,1477451578469060,1,8.9375,13312,-35.0,865.7,1.6444274
40000000000000000000CC00,1,1477451578475820,1477451578475820,1,5.6875,13312,-35.0,865.7,1.6628351
40000000000000000000CC00,1,1477451578482817,1477451578482817,1,1.625,13312,-34.5,865.7,1.681243
40000000000000000000CC00,1,1477451578489755,1477451578489755,1,2.4375,13312,-34.5,865.7,1.6996508
40000000000000000000CC00,1,1477451578496643,1477451578496643,1,5.6875,13312,-34.5,865.7,1.6935148
40000000000000000000CC00,1,1477451578506252,1477451578506252,1,5.6875,13312,-35.0,865.7,1.6996508
40000000000000000000CC00,1,1477451578513426,1477451578513426,1,0.0,13312,-34.5,865.7,1.7241944
40000000000000000000CC00,1,1477451578520346,1477451578520346,1,5.6875,13312,-34.5,865.7,1.7057866
40000000000000000000CC00,1,1477451578527045,1477451578527045,1,3.25,13312,-34.5,865.7,1.6996508
40000000000000000000CC00,1,1477451578535537,1477451578535537,1,3.25,13312,-34.5,865.7,1.7119225
40000000000000000000CC00,1,1477451578543626,1477451578543626,1,3.25,13312,-34.5,865.7,1.6996508
40000000000000000000CC00,1,1477451578550620,1477451578550620,1,2.4375,13312,-34.5,865.7,1.7180585
40000000000000000000CC00,1,1477451578557562,1477451578557562,1,4.875,13312,-34.5,865.7,1.6996508
40000000000000000000CC00,1,1477451578564817,1477451578564817,1,2.4375,13312,-34.5,865.7,1.7057866
40000000000000000000CC00,1,1477451578571800,1477451578571800,1,5.6875,13312,-34.5,865.7,1.6996508
40000000000000000000CC00,1,1477451578578473,1477451578578473,1,8.125,13312,-34.5,865.7,1.6996508
40000000000000000000CC00,1,1477451578585734,1477451578585734,1,5.6875,13312,-34.5,865.7,1.6996508
40000000000000000000CC00,1,1477451578592605,1477451578592605,1,0.0,13312,-34.5,865.7,1.7303303
40000000000000000000CC00,1,1477451578599509,1477451578599509,1,5.6875,13312,-34.0,865.7,1.6996508
40000000000000000000CC00,1,1477451578606534,1477451578606534,1,4.875,13312,-34.5,865.7,1.7057866
40000000000000000000CC00,1,1477451578613258,1477451578613258,1,0.8125,13312,-34.5,865.7,1.7303303
40000000000000000000CC00,1,1477451578620473,1477451578620473,1,2.4375,13312,-34.5,865.7,1.7180585
40000000000000000000CC00,1,1477451578627165,1477451578627165,1,0.8125,13312,-34.0,865.7,1.7426022
40000000000000000000CC00,1,1477451578634156,1477451578634156,1,2.4375,13312,-34.0,865.7,1.7426022
40000000000000000000CC00,1,1477451578642684,1477451578642684,1,1.625,13312,-34.0,865.7,1.7426022
40000000000000000000CC00,1,1477451578649902,1477451578649902,1,0.0,13312,-34.5,865.7,1.748738
40000000000000000000CC00,1,1477451578656588,1477451578656588,1,6.5,13312,-34.5,865.7,1.7241944
40000000000000000000CC00,1,1477451578663785,1477451578663785,1,0.8125,13312,-34.5,865.7,1.7610099
40000000000000000000CC00,1,1477451578670750,1477451578670750,1,7.3125,13312,-34.5,865.7,1.7426022
40000000000000000000CC00,1,1477451578677375,1477451578677375,1,1.625,13312,-34.0,865.7,1.7794178
40000000000000000000CC00,1,1477451578684348,1477451578684348,1,2.4375,13312,-34.5,865.7,1.7978255
40000000000000000000CC00,1,1477451578691500,1477451578691500,1,1.625,13312,-34.0,865.7,1.8039614
40000000000000000000CC00,1,1477451578698421,1477451578698421,1,3.25,13312,-34.0,865.7,1.8100973
40000000000000000000CC00,1,1477451578706314,1477451578706314,1,3.25,13312,-34.0,865.7,1.8285052
40000000000000000000CC00,1,1477451578714999,1477451578714999,1,2.4375,13312,-34.0,865.7,1.8653207
40000000000000000000CC00,1,1477451578721972,1477451578721972,1,3.25,13312,-34.0,865.7,1.8960003
40000000000000000000CC00,1,1477451578728901,1477451578728901,1,5.6875,13312,-33.5,865.7,1.9266798
40000000000000000000CC00,1,1477451578737105,1477451578737105,1,3.25,13312,-33.5,865.7,2.073942
40000000000000000000CC00,1,1477451578744388,1477451578744388,1,3.25,13312,-33.5,865.7,2.2212043
40000000000000000000CC00,1,1477451578751273,1477451578751273,1,5.6875,13312,-33.5,865.7,2.3930101
40000000000000000000CC00,1,1477451578759066,1477451578759066,1,-0.8125,13312,-33.5,865.7,2.4911847
40000000000000000000CC00,1,1477451578766192,1477451578766192,1,3.25,13312,-33.5,865.7,2.4973207
40000000000000000000CC00,1,1477451578772916,1477451578772916,1,10.5625,13312,-33.5,865.7,2.6200392
40000000000000000000CC00,1,1477451578780087,1477451578780087,1,5.6875,13312,-34.5,865.7,2.8532043
40000000000000000000CC00,1,1477451578787049,1477451578787049,1,3.25,13312,-34.5,865.7,3.02501
40000000000000000000CC00,1,1477451578793776,1477451578793776,1,4.875,13312,-35.5,865.7,3.123185
40000000000000000000CC00,1,1477451578800775,1477451578800775,1,8.9375,13312,-35.0,865.7,3.1784081
40000000000000000000CC00,1,1477451578807835,1477451578807835,1,5.6875,13312,-35.5,865.7,3.2888548
40000000000000000000CC00,1,1477451578815100,1477451578815100,1,8.125,13312,-35.5,865.7,3.3318062
40000000000000000000CC00,1,1477451578822088,1477451578822088,1,2.4375,13312,-36.0,865.7,3.4054372
40000000000000000000CC00,1,1477451578829059,1477451578829059,1,2.4375,13312,-36.0,865.7,3.4545248
40000000000000000000CC00,1,1477451578835744,1477451578835744,1,0.0,13312,-36.5,865.7,3.4852045
40000000000000000000CC00,1,1477451578843014,1477451578843014,1,4.875,13312,-36.5,865.7,3.4790685
40000000000000000000CC00,1,1477451578849679,1477451578849679,1,1.625,13312,-36.5,865.7,3.5220199
40000000000000000000CC00,1,1477451578856714,1477451578856714,1,1.625,13312,-36.5,865.7,3.5342917
40000000000000000000CC00,1,1477451578865204,1477451578865204,1,6.5,13312,-36.5,865.7,3.5342917
40000000000000000000CC00,1,1477451578872436,1477451578872436,1,7.3125,13312,-37.0,865.7,3.5404277
40000000000000000000CC00,1,1477451578879457,1477451578879457,1,1.625,13312,-37.0,865.7,3.583379
40000000000000000000CC00,1,1477451578886202,1477451578886202,1,0.0,13312,-37.0,865.7,3.6079228
40000000000000000000CC00,1,1477451578893123,1477451578893123,1,2.4375,13312,-37.0,865.7,3.589515
40000000000000000000CC00,1,1477451578900032,1477451578900032,1,0.8125,13312,-37.0,865.7,3.6140587
40000000000000000000CC00,1,1477451578907307,1477451578907307,1,2.4375,13312,-37.5,865.7,3.6079228
40000000000000000000CC00,1,1477451578914257,1477451578914257,1,2.4375,13312,-37.5,865.7,3.6447384
40000000000000000000CC00,1,1477451578921229,1477451578921229,1,2.4375,13312,-37.5,865.7,3.6324666
40000000000000000000CC00,1,1477451578928101,1477451578928101,1,4.875,13312,-37.5,865.7,3.6386025
40000000000000000000CC00,1,1477451578934859,1477451578934859,1,5.6875,13312,-38.0,865.7,3.6263306
40000000000000000000CC00,1,1477451578941843,1477451578941843,1,2.4375,13312,-37.5,865.7,3.6508744
40000000000000000000CC00,1,1477451578949062,1477451578949062,1,3.25,13312,-37.5,865.7,3.6508744
40000000000000000000CC00,1,1477451578955802,1477451578955802,1,1.625,13312,-37.5,865.7,3.6447384
40000000000000000000CC00,1,1477451578963067,1477451578963067,1,1.625,13312,-38.0,865.7,3.6570103
40000000000000000000CC00,1,1477451578969772,1477451578969772,1,0.8125,13312,-38.0,865.7,3.6570103
40000000000000000000CC00,1,1477451578976981,1477451578976981,1,-1.625,13312,-38.0,865.7,3.6815538
40000000000000000000CC00,1,1477451578983995,1477451578983995,1,2.4375,13312,-38.0,865.7,3.6508744
40000000000000000000CC00,1,1477451578990683,1477451578990683,1,1.625,13312,-38.0,865.7,3.6447384
40000000000000000000CC00,1,1477451578997662,1477451578997662,1,0.8125,13312,-38.0,865.7,3.6570103
40000000000000000000CC00,1,1477451579004824,1477451579004824,1,-0.8125,13312,-38.0,865.7,3.675418
40000000000000000000CC00,1,1477451579011524,1477451579011524,1,0.8125,13312,-38.0,865.7,3.6570103
40000000000000000000CC00,1,1477451579018706,1477451579018706,1,0.8125,13312,-38.0,865.7,3.669282
40000000000000000000CC00,1,1477451579025737,1477451579025737,1,1.625,13312,-38.5,865.7,3.663146
40000000000000000000CC00,1,1477451579034213,1477451579034213,1,3.25,13312,-38.5,865.7,3.6508744
40000000000000000000CC00,1,1477451579040941,1477451579040941,1,1.625,13312,-38.0,865.7,3.6570103
40000000000000000000CC00,1,1477451579048150,1477451579048150,1,4.875,13312,-38.5,865.7,3.6386025
40000000000000000000CC00,1,1477451579055085,1477451579055085,1,4.875,13312,-39.0,865.7,3.6447384
40000000000000000000CC00,1,1477451579061694,1477451579061694,1,2.4375,13312,-38.5,865.7,3.669282
40000000000000000000CC00,1,1477451579068605,1477451579068605,1,0.8125,13312,-38.5,865.7,3.675418
40000000000000000000CC00,1,1477451579077246,1477451579077246,1,4.875,13312,-38.5,865.7,3.6570103
40000000000000000000CC00,1,1477451579084188,1477451579084188,1,-0.8125,13312,-38.5,865.7,3.675418
40000000000000000000CC00,1,1477451579092439,1477451579092439,1,5.6875,13312,-39.0,865.7,3.6508744
40000000000000000000CC00,1,1477451579100707,1477451579100707,1,4.875,13312,-39.0,865.7,3.6386025
40000000000000000000CC00,1,1477451579107479,1477451579107479,1,7.3125,13312,-38.5,865.7,3.6324666
40000000000000000000CC00,1,1477451579114675,1477451579114675,1,1.625,13312,-39.0,865.7,3.6570103
40000000000000000000CC00,1,1477451579122919,1477451579122919,1,7.3125,13312,-39.0,865.7,3.6386025
40000000000000000000CC00,1,1477451579130139,1477451579130139,1,5.6875,13312,-39.0,865.7,3.6570103
40000000000000000000CC00,1,1477451579136824,1477451579136824,1,1.625,13312,-39.0,865.7,3.6508744
40000000000000000000CC00,1,1477451579144060,1477451579144060,1,2.4375,13312,-39.0,865.7,3.6508744
40000000000000000000CC00,1,1477451579151082,1477451579151082,1,1.625,13312,-39.0,865.7,3.6447384
40000000000000000000CC00,1,1477451579159122,1477451579159122,1,1.625,13312,-39.0,865.7,3.663146
40000000000000000000CC00,1,1477451579169084,1477451579169084,1,6.5,13312,-39.0,865.7,3.6263306
40000000000000000000CC00,1,1477451579175785,1477451579175785,1,-0.8125,13312,-39.0,865.7,3.663146
40000000000000000000CC00,1,1477451579182771,1477451579182771,1,2.4375,13312,-39.0,865.7,3.663146
40000000000000000000CC00,1,1477451579189982,1477451579189982,1,6.5,13312,-39.0,865.7,3.6263306
40000000000000000000CC00,1,1477451579196907,1477451579196907,1,5.6875,13312,-39.0,865.7,3.6447384
40000000000000000000CC00,1,1477451579203854,1477451579203854,1,0.0,13312,-39.0,865.7,3.675418
40000000000000000000CC00,1,1477451579210555,1477451579210555,1,1.625,13312,-39.0,865.7,3.6508744
40000000000000000000CC00,1,1477451579218762,1477451579218762,1,3.25,13312,-39.0,865.7,3.6570103
40000000000000000000CC00,1,1477451579225727,1477451579225727,1,8.125,13312,-39.0,865.7,3.6263306
