80000000000000000000CC00,1,1477529907750800,1477529907750800,1,1.625,13312,-49.5,865.7,3.1293209
80000000000000000000CC00,1,1477529907757773,1477529907757773,1,-13.8125,13312,-49.0,865.7,3.19068
80000000000000000000CC00,1,1477529907764818,1477529907764818,1,-13.8125,13312,-49.5,865.7,3.1600003
80000000000000000000CC00,1,1477529907771810,1477529907771810,1,-2.4375,13312,-49.5,865.7,3.110913
80000000000000000000CC00,1,1477529907779214,1477529907779214,1,-5.6875,13312,-50.5,865.7,3.0188742
80000000000000000000CC00,1,1477529907785937,1477529907785937,1,15.4375,13312,-50.0,865.7,2.89002
80000000000000000000CC00,1,1477529907793157,1477529907793157,1,-9.75,13312,-50.5,865.7,2.9329712
80000000000000000000CC00,1,1477529907799893,1477529907799893,1,-15.4375,13312,-50.5,865.7,2.9820588
80000000000000000000CC00,1,1477529907806904,1477529907806904,1,4.0625,13312,-50.0,865.7,2.9145634
80000000000000000000CC00,1,1477529907813926,1477529907813926,1,-23.5625,13312,-50.0,865.7,3.0618258
80000000000000000000CC00,1,1477529907821994,1477529907821994,1,4.0625,13312,-51.0,865.7,2.8593402
80000000000000000000CC00,1,1477529907829205,1477529907829205,1,-27.625,13312,-50.5,865.7,3.043418
80000000000000000000CC00,1,1477529907835928,1477529907835928,1,-23.5625,13312,-50.5,865.7,2.9820588
80000000000000000000CC00,1,1477529907842871,1477529907842871,1,0.8125,13312,-51.0,865.7,2.797981
80000000000000000000CC00,1,1477529907850071,1477529907850071,1,25.1875,13312,-50.0,865.7,2.797981
80000000000000000000CC00,1,1477529907857482,1477529907857482,1,-4.0625,13312,-51.0,865.7,2.9145634
80000000000000000000CC00,1,1477529907864511,1477529907864511,1,28.4375,13312,-50.5,865.7,2.7550294
80000000000000000000CC00,1,1477529907872820,1477529907872820,1,66.6875,13312,-50.0,865.7,2.5648158
80000000000000000000CC00,1,1477529907881436,1477529907881436,1,13.0,13312,-50.0,865.7,2.810253
80000000000000000000CC00,1,1477529907888654,1477529907888654,1,-19.5,13312,-50.5,865.7,2.8532043
80000000000000000000CC00,1,1477529907895377,1477529907895377,1,14.625,13312,-50.5,865.7,2.8409324
80000000000000000000CC00,1,1477529907902589,1477529907902589,1,-5.6875,13312,-51.0,865.7,2.8163888
80000000000000000000CC00,1,1477529907909559,1477529907909559,1,-4.0625,13312,-49.5,865.7,2.8532043
80000000000000000000CC00,1,1477529907916579,1477529907916579,1,-13.8125,13312,-51.0,865.7,2.8163888
80000000000000000000CC00,1,1477529907923310,1477529907923310,1,0.0,13312,-50.5,865.7,2.810253
80000000000000000000CC00,1,1477529907930520,1477529907930520,1,21.9375,13312,-50.0,865.7,2.7427576
80000000000000000000CC00,1,1477529907939113,1477529907939113,1,-27.625,13312,-50.0,865.7,2.9881945
80000000000000000000CC00,1,1477529907945992,1477529907945992,1,4.0625,13312,-50.0,865.7,2.7611654
80000000000000000000CC00,1,1477529907953357,1477529907953357,1,6.5,13312,-49.5,865.7,2.877748
80000000000000000000CC00,1,1477529907960394,1477529907960394,1,-2.4375,13312,-49.5,865.7,2.8409324
80000000000000000000CC00,1,1477529907967415,1477529907967415,1,8.9375,13312,-50.5,865.7,2.7857091
80000000000000000000CC00,1,1477529907974219,1477529907974219,1,-20.3125,13312,-49.5,865.7,2.7734373
80000000000000000000CC00,1,1477529907981501,1477529907981501,1,-5.6875,13312,-51.0,865.7,2.7611654
80000000000000000000CC00,1,1477529907988300,1477529907988300,1,16.25,13312,-49.5,865.7,2.6998062
80000000000000000000CC00,1,1477529907995557,1477529907995557,1,-13.8125,13312,-49.5,865.7,2.8347964
80000000000000000000CC00,1,1477529908002315,1477529908002315,1,-31.6875,13312,-50.0,865.7,2.957515
80000000000000000000CC00,1,1477529908009653,1477529908009653,1,8.125,13312,-50.5,865.7,2.6261752
80000000000000000000CC00,1,1477529908016489,1477529908016489,1,13.0,13312,-49.5,865.7,2.6998062
80000000000000000000CC00,1,1477529908023547,1477529908023547,1,-9.75,13312,-50.5,865.7,2.7673013
80000000000000000000CC00,1,1477529908033521,1477529908033521,1,-4.875,13312,-50.5,865.7,2.7795732
80000000000000000000CC00,1,1477529908040346,1477529908040346,1,-30.875,13312,-50.5,865.7,2.8470683
80000000000000000000CC00,1,1477529908047468,1477529908047468,1,5.6875,13312,-50.5,865.7,2.644583
80000000000000000000CC00,1,1477529908054502,1477529908054502,1,36.5625,13312,-50.0,865.7,2.552544
80000000000000000000CC00,1,1477529908061819,1477529908061819,1,-34.125,13312,-50.0,865.7,2.9206994
80000000000000000000CC00,1,1477529908068660,1477529908068660,1,0.8125,13312,-49.5,865.7,2.7366216
80000000000000000000CC00,1,1477529908075959,1477529908075959,1,-9.75,13312,-49.5,865.7,2.804117
80000000000000000000CC00,1,1477529908083135,1477529908083135,1,-17.0625,13312,-50.0,865.7,2.730486
80000000000000000000CC00,1,1477529908089934,1477529908089934,1,-2.4375,13312,-50.0,865.7,2.804117
80000000000000000000CC00,1,1477529908097001,1477529908097001,1,-7.3125,13312,-50.0,865.7,2.638447
80000000000000000000CC00,1,1477529908104364,1477529908104364,1,0.0,13312,-50.5,865.7,2.6507187
80000000000000000000CC00,1,1477529908111238,1477529908111238,1,-25.1875,13312,-50.0,865.7,2.797981
80000000000000000000CC00,1,1477529908118316,1477529908118316,1,-22.75,13312,-49.0,865.7,2.8470683
80000000000000000000CC00,1,1477529908125390,1477529908125390,1,10.5625,13312,-50.0,865.7,2.6077673
80000000000000000000CC00,1,1477529908132596,1477529908132596,1,-26.8125,13312,-50.0,865.7,2.7857091
80000000000000000000CC00,1,1477529908139562,1477529908139562,1,-5.6875,13312,-49.0,865.7,2.804117
80000000000000000000CC00,1,1477529908146522,1477529908146522,1,-8.9375,13312,-50.5,865.7,2.730486
80000000000000000000CC00,1,1477529908155023,1477529908155023,1,20.3125,13312,-50.0,865.7,2.5464082
80000000000000000000CC00,1,1477529908161965,1477529908161965,1,-17.875,13312,-50.5,865.7,2.6629906
80000000000000000000CC00,1,1477529908168626,1477529908168626,1,-27.625,13312,-50.0,865.7,2.7550294
80000000000000000000CC00,1,1477529908175853,1477529908175853,1,-13.8125,13312,-51.0,865.7,2.5709517
80000000000000000000CC00,1,1477529908182659,1477529908182659,1,-4.0625,13312,-49.5,865.7,2.7366216
80000000000000000000CC00,1,1477529908189887,1477529908189887,1,-17.875,13312,-49.5,865.7,2.72435
80000000000000000000CC00,1,1477529908196710,1477529908196710,1,-16.25,13312,-50.0,865.7,2.7734373
80000000000000000000CC00,1,1477529908203924,1477529908203924,1,-28.4375,13312,-49.5,865.7,2.6691265
80000000000000000000CC00,1,1477529908212345,1477529908212345,1,-19.5,13312,-49.5,865.7,2.7550294
80000000000000000000CC00,1,1477529908219324,1477529908219324,1,13.8125,13312,-50.5,865.7,2.478913
80000000000000000000CC00,1,1477529908226076,1477529908226076,1,34.9375,13312,-50.5,865.7,2.4175537
80000000000000000000CC00,1,1477529908233312,1477529908233312,1,-17.0625,13312,-51.0,865.7,2.6936703
80000000000000000000CC00,1,1477529908240287,1477529908240287,1,5.6875,13312,-50.5,865.7,2.5034566
80000000000000000000CC00,1,1477529908247016,1477529908247016,1,0.0,13312,-50.5,865.7,2.5280004
80000000000000000000CC00,1,1477529908254245,1477529908254245,1,-14.625,13312,-50.5,865.7,2.7611654
80000000000000000000CC00,1,1477529908260971,1477529908260971,1,-22.75,13312,-51.0,865.7,2.6691265
80000000000000000000CC00,1,1477529908267937,1477529908267937,1,2.4375,13312,-50.0,865.7,2.632311
80000000000000000000CC00,1,1477529908275148,1477529908275148,1,-6.5,13312,-50.0,865.7,2.6691265
80000000000000000000CC00,1,1477529908283542,1477529908283542,1,-44.75,13312,-50.5,865.7,2.9022915
80000000000000000000CC00,1,1477529908290270,1477529908290270,1,17.875,13312,-50.0,865.7,2.4605052
80000000000000000000CC00,1,1477529908297199,1477529908297199,1,8.125,13312,-50.0,865.7,2.5095925
80000000000000000000CC00,1,1477529908304398,1477529908304398,1,-8.9375,13312,-51.0,865.7,2.5095925
80000000000000000000CC00,1,1477529908311140,1477529908311140,1,-14.625,13312,-51.5,865.7,2.5709517
80000000000000000000CC00,1,1477529908318738,1477529908318738,1,-9.75,13312,-52.0,865.7,2.7059422
80000000000000000000CC00,1,1477529908325769,1477529908325769,1,-6.5,13312,-50.5,865.7,2.5280004
80000000000000000000CC00,1,1477529908332442,1477529908332442,1,19.5,13312,-50.0,865.7,2.4666412
80000000000000000000CC00,1,1477529908339495,1477529908339495,1,-26.8125,13312,-51.0,865.7,2.7427576
80000000000000000000CC00,1,1477529908348213,1477529908348213,1,-5.6875,13312,-50.5,865.7,2.552544
80000000000000000000CC00,1,1477529908354951,1477529908354951,1,-24.375,13312,-51.0,865.7,2.6875343
80000000000000000000CC00,1,1477529908361932,1477529908361932,1,-26.8125,13312,-50.0,865.7,2.6752625
80000000000000000000CC00,1,1477529908372110,1477529908372110,1,21.125,13312,-51.0,865.7,2.4298255
80000000000000000000CC00,1,1477529908380630,1477529908380630,1,-13.0,13312,-50.5,865.7,2.644583
80000000000000000000CC00,1,1477529908388673,1477529908388673,1,17.875,13312,-50.0,865.7,2.3439226
80000000000000000000CC00,1,1477529908396804,1477529908396804,1,-17.0625,13312,-51.5,865.7,2.5218644
80000000000000000000CC00,1,1477529908403769,1477529908403769,1,-8.125,13312,-50.5,865.7,2.5648158
80000000000000000000CC00,1,1477529908410994,1477529908410994,1,-14.625,13312,-50.0,865.7,2.5095925
80000000000000000000CC00,1,1477529908417722,1477529908417722,1,-52.875,13312,-51.0,865.7,2.7488935
80000000000000000000CC00,1,1477529908426110,1477529908426110,1,-37.375,13312,-51.0,865.7,2.6936703
80000000000000000000CC00,1,1477529908434469,1477529908434469,1,-22.75,13312,-50.0,865.7,2.638447
80000000000000000000CC00,1,1477529908441164,1477529908441164,1,61.8125,13312,-51.5,865.7,2.1905246
80000000000000000000CC00,1,1477529908448124,1477529908448124,1,-32.5,13312,-50.5,865.7,2.7795732
80000000000000000000CC00,1,1477529908455030,1477529908455030,1,20.3125,13312,-51.5,865.7,2.3868742
80000000000000000000CC00,1,1477529908462277,1477529908462277,1,2.4375,13312,-50.0,865.7,2.5402722
80000000000000000000CC00,1,1477529908468993,1477529908468993,1,-32.5,13312,-51.0,865.7,2.55868
80000000000000000000CC00,1,1477529908475966,1477529908475966,1,14.625,13312,-49.5,865.7,2.4543693
80000000000000000000CC00,1,1477529908483134,1477529908483134,1,15.4375,13312,-51.5,865.7,2.5034566
80000000000000000000CC00,1,1477529908489851,1477529908489851,1,-31.6875,13312,-50.0,865.7,2.7734373
80000000000000000000CC00,1,1477529908497058,1477529908497058,1,-8.9375,13312,-51.0,865.7,2.638447
80000000000000000000CC00,1,1477529908505209,1477529908505209,1,-21.9375,13312,-51.5,865.7,2.6568546
80000000000000000000CC00,1,1477529908512118,1477529908512118,1,-4.0625,13312,-51.5,865.7,2.7059422
80000000000000000000CC00,1,1477529908519397,1477529908519397,1,42.3125,13312,-51.5,865.7,2.2457478
80000000000000000000CC00,1,1477529908526805,1477529908526805,1,5.6875,13312,-50.5,865.7,2.4666412
80000000000000000000CC00,1,1477529908533505,1477529908533505,1,-0.8125,13312,-50.5,865.7,2.5832236
80000000000000000000CC00,1,1477529908541109,1477529908541109,1,-36.5625,13312,-51.5,865.7,2.7366216
80000000000000000000CC00,1,1477529908548194,1477529908548194,1,-39.0,13312,-51.0,865.7,2.6998062
80000000000000000000CC00,1,1477529908555111,1477529908555111,1,1.625,13312,-50.5,865.7,2.4973207
80000000000000000000CC00,1,1477529908563583,1477529908563583,1,12.1875,13312,-51.0,865.7,2.5218644
80000000000000000000CC00,1,1477529908573277,1477529908573277,1,-31.6875,13312,-50.0,865.7,2.7673013
80000000000000000000CC00,1,1477529908580306,1477529908580306,1,9.75,13312,-51.0,865.7,2.4298255
80000000000000000000CC00,1,1477529908587564,1477529908587564,1,19.5,13312,-50.5,865.7,2.55868
80000000000000000000CC00,1,1477529908594314,1477529908594314,1,9.75,13312,-51.5,865.7,2.55868
80000000000000000000CC00,1,1477529908601523,1477529908601523,1,21.9375,13312,-50.0,865.7,2.4850488
80000000000000000000CC00,1,1477529908608269,1477529908608269,1,-19.5,13312,-50.0,865.7,2.730486
80000000000000000000CC00,1,1477529908615502,1477529908615502,1,-34.125,13312,-51.0,865.7,2.7059422
80000000000000000000CC00,1,1477529908622447,1477529908622447,1,-4.0625,13312,-51.0,865.7,2.6875343
80000000000000000000CC00,1,1477529908629175,1477529908629175,1,-4.875,13312,-52.0,865.7,2.4236896
80000000000000000000CC00,1,1477529908637748,1477529908637748,1,4.875,13312,-51.5,865.7,2.5034566
80000000000000000000CC00,1,1477529908645412,1477529908645412,1,-48.8125,13312,-52.0,865.7,2.7550294
80000000000000000000CC00,1,1477529908653309,1477529908653309,1,-8.9375,13312,-51.0,865.7,2.5709517
80000000000000000000CC00,1,1477529908660558,1477529908660558,1,-20.3125,13312,-50.0,865.7,2.6507187
80000000000000000000CC00,1,1477529908669929,1477529908669929,1,-19.5,13312,-51.5,865.7,2.638447
80000000000000000000CC00,1,1477529908678746,1477529908678746,1,44.75,13312,-51.0,865.7,2.2764275
80000000000000000000CC00,1,1477529908687279,1477529908687279,1,-16.25,13312,-50.0,865.7,2.6507187
80000000000000000000CC00,1,1477529908695542,1477529908695542,1,-8.9375,13312,-50.5,865.7,2.6936703
80000000000000000000CC00,1,1477529908702850,1477529908702850,1,-30.875,13312,-51.0,865.7,2.7673013
80000000000000000000CC00,1,1477529908709813,1477529908709813,1,24.375,13312,-51.0,865.7,2.3071072
80000000000000000000CC00,1,1477529908716533,1477529908716533,1,-1.625,13312,-51.5,865.7,2.4543693
80000000000000000000CC00,1,1477529908723714,1477529908723714,1,-27.625,13312,-50.0,865.7,2.810253
80000000000000000000CC00,1,1477529908730509,1477529908730509,1,2.4375,13312,-50.5,865.7,2.5709517
80000000000000000000CC00,1,1477529908737691,1477529908737691,1,-1.625,13312,-52.0,865.7,2.5218644
80000000000000000000CC00,1,1477529908744425,1477529908744425,1,9.75,13312,-51.5,865.7,2.5832236
80000000000000000000CC00,1,1477529908751360,1477529908751360,1,2.4375,13312,-52.0,865.7,2.4298255
80000000000000000000CC00,1,1477529908758414,1477529908758414,1,29.25,13312,-51.5,865.7,2.3439226
80000000000000000000CC00,1,1477529908766756,1477529908766756,1,-34.125,13312,-50.5,865.7,2.7611654
80000000000000000000CC00,1,1477529908775277,1477529908775277,1,-34.125,13312,-52.0,865.7,2.8163888
80000000000000000000CC00,1,1477529908781970,1477529908781970,1,7.3125,13312,-50.5,865.7,2.5341363
80000000000000000000CC00,1,1477529908789218,1477529908789218,1,0.0,13312,-51.5,865.7,2.4482334
80000000000000000000CC00,1,1477529908796638,1477529908796638,1,16.25,13312,-51.0,865.7,2.5095925
80000000000000000000CC00,1,1477529908803424,1477529908803424,1,16.25,13312,-52.0,865.7,2.5770876
80000000000000000000CC00,1,1477529908810359,1477529908810359,1,-8.9375,13312,-51.0,865.7,2.644583
80000000000000000000CC00,1,1477529908817599,1477529908817599,1,-2.4375,13312,-50.0,865.7,2.6507187
80000000000000000000CC00,1,1477529908825336,1477529908825336,1,9.75,13312,-51.5,865.7,2.4052818
80000000000000000000CC00,1,1477529908832337,1477529908832337,1,-16.25,13312,-50.0,865.7,2.6507187
80000000000000000000CC00,1,1477529908839310,1477529908839310,1,21.9375,13312,-50.5,865.7,2.3746023
80000000000000000000CC00,1,1477529908846485,1477529908846485,1,1.625,13312,-51.5,865.7,2.72435
80000000000000000000CC00,1,1477529908854213,1477529908854213,1,-19.5,13312,-51.5,865.7,2.6200392
80000000000000000000CC00,1,1477529908862720,1477529908862720,1,-5.6875,13312,-52.0,865.7,2.4973207
80000000000000000000CC00,1,1477529908870680,1477529908870680,1,-1.625,13312,-51.5,865.7,2.5648158
80000000000000000000CC00,1,1477529908877929,1477529908877929,1,-2.4375,13312,-50.5,865.7,2.7059422
80000000000000000000CC00,1,1477529908885006,1477529908885006,1,20.3125,13312,-51.5,865.7,2.4236896
80000000000000000000CC00,1,1477529908892025,1477529908892025,1,48.8125,13312,-50.5,865.7,2.2150683
80000000000000000000CC00,1,1477529908898746,1477529908898746,1,20.3125,13312,-51.0,865.7,2.4236896
80000000000000000000CC00,1,1477529908906009,1477529908906009,1,-4.0625,13312,-51.0,865.7,2.4850488
80000000000000000000CC00,1,1477529908913042,1477529908913042,1,-34.125,13312,-50.0,865.7,2.7611654
80000000000000000000CC00,1,1477529908919990,1477529908919990,1,8.125,13312,-51.0,865.7,2.4482334
80000000000000000000CC00,1,1477529908928544,1477529908928544,1,9.75,13312,-51.0,865.7,2.478913
80000000000000000000CC00,1,1477529908936743,1477529908936743,1,2.4375,13312,-50.0,865.7,2.5954955
80000000000000000000CC00,1,1477529908944323,1477529908944323,1,4.0625,13312,-50.5,865.7,2.5464082
80000000000000000000CC00,1,1477529908951301,1477529908951301,1,20.3125,13312,-51.0,865.7,2.2764275
80000000000000000000CC00,1,1477529908958069,1477529908958069,1,13.0,13312,-51.0,865.7,2.3623304
80000000000000000000CC00,1,1477529908965130,1477529908965130,1,-9.75,13312,-51.0,865.7,2.4298255
80000000000000000000CC00,1,1477529908972354,1477529908972354,1,-26.8125,13312,-51.0,865.7,2.718214
80000000000000000000CC00,1,1477529908979070,1477529908979070,1,-19.5,13312,-50.0,865.7,2.6077673
80000000000000000000CC00,1,1477529908986033,1477529908986033,1,10.5625,13312,-51.5,865.7,2.3009713
80000000000000000000CC00,1,1477529908992983,1477529908992983,1,-14.625,13312,-51.5,865.7,2.4359615
80000000000000000000CC00,1,1477529909000217,1477529909000217,1,-5.6875,13312,-51.5,865.7,2.4911847
80000000000000000000CC00,1,1477529909006965,1477529909006965,1,-8.125,13312,-51.0,865.7,2.5341363
80000000000000000000CC00,1,1477529909014227,1477529909014227,1,1.625,13312,-50.5,865.7,2.5402722
80000000000000000000CC00,1,1477529909021221,1477529909021221,1,-28.4375,13312,-51.0,865.7,2.552544
80000000000000000000CC00,1,1477529909027961,1477529909027961,1,-26.8125,13312,-51.5,865.7,2.5770876
80000000000000000000CC00,1,1477529909035142,1477529909035142,1,15.4375,13312,-51.0,865.7,2.1966605
80000000000000000000CC00,1,1477529909042090,1477529909042090,1,39.875,13312,-51.0,865.7,2.0125828
80000000000000000000CC00,1,1477529909048808,1477529909048808,1,-32.5,13312,-51.0,865.7,2.5648158
80000000000000000000CC00,1,1477529909057303,1477529909057303,1,-41.5,13312,-51.0,865.7,2.4666412
80000000000000000000CC00,1,1477529909064560,1477529909064560,1,-35.75,13312,-50.5,865.7,2.4850488
80000000000000000000CC00,1,1477529909071492,1477529909071492,1,-1.625,13312,-50.0,865.7,2.2825634
80000000000000000000CC00,1,1477529909079972,1477529909079972,1,19.5,13312,-51.0,865.7,2.1291654
80000000000000000000CC00,1,1477529909086958,1477529909086958,1,-8.125,13312,-51.0,865.7,2.3684664
80000000000000000000CC00,1,1477529909093665,1477529909093665,1,-8.9375,13312,-52.0,865.7,2.2641556
80000000000000000000CC00,1,1477529909100633,1477529909100633,1,17.875,13312,-52.0,865.7,2.000311
80000000000000000000CC00,1,1477529909107630,1477529909107630,1,31.6875,13312,-52.0,865.7,2.1046216
80000000000000000000CC00,1,1477529909116033,1477529909116033,1,13.0,13312,-52.0,865.7,2.073942
80000000000000000000CC00,1,1477529909126023,1477529909126023,1,12.1875,13312,-51.0,865.7,2.1046216
80000000000000000000CC00,1,1477529909133008,1477529909133008,1,-21.9375,13312,-52.0,865.7,2.3193789
80000000000000000000CC00,1,1477529909139954,1477529909139954,1,1.625,13312,-52.0,865.7,2.2518837
80000000000000000000CC00,1,1477529909147213,1477529909147213,1,19.5,13312,-51.5,865.7,1.9205439
80000000000000000000CC00,1,1477529909153898,1477529909153898,1,-7.3125,13312,-51.0,865.7,2.1905246
80000000000000000000CC00,1,1477529909164041,1477529909164041,1,30.875,13312,-51.5,865.7,1.8714565
80000000000000000000CC00,1,1477529909170767,1477529909170767,1,-17.0625,13312,-51.0,865.7,2.1966605
80000000000000000000CC00,1,1477529909177842,1477529909177842,1,-27.625,13312,-52.0,865.7,2.067806
80000000000000000000CC00,1,1477529909184892,1477529909184892,1,8.125,13312,-52.0,865.7,1.914408
80000000000000000000CC00,1,1477529909192071,1477529909192071,1,-36.5625,13312,-50.5,865.7,2.2702916
80000000000000000000CC00,1,1477529909199076,1477529909199076,1,-41.5,13312,-51.5,865.7,2.2089324
80000000000000000000CC00,1,1477529909206012,1477529909206012,1,38.1875,13312,-51.0,865.7,1.9512236
80000000000000000000CC00,1,1477529909212800,1477529909212800,1,8.9375,13312,-52.0,865.7,1.9389517
80000000000000000000CC00,1,1477529909219798,1477529909219798,1,37.375,13312,-51.5,865.7,1.6505634
80000000000000000000CC00,1,1477529909226771,1477529909226771,1,0.8125,13312,-51.0,865.7,1.9328158
80000000000000000000CC00,1,1477529909233975,1477529909233975,1,13.8125,13312,-51.5,865.7,1.7671459
80000000000000000000CC00,1,1477529909240667,1477529909240667,1,10.5625,13312,-51.0,865.7,1.8407769
80000000000000000000CC00,1,1477529909247845,1477529909247845,1,-39.0,13312,-51.0,865.7,1.9634954
80000000000000000000CC00,1,1477529909254592,1477529909254592,1,34.125,13312,-51.5,865.7,1.5646604
80000000000000000000CC00,1,1477529909261771,1477529909261771,1,12.1875,13312,-52.0,865.7,1.7057866
80000000000000000000CC00,1,1477529909268537,1477529909268537,1,45.5625,13312,-51.5,865.7,1.5033011
80000000000000000000CC00,1,1477529909275695,1477529909275695,1,-25.1875,13312,-52.5,865.7,1.9450877
80000000000000000000CC00,1,1477529909282624,1477529909282624,1,-26.8125,13312,-51.0,865.7,1.834641
80000000000000000000CC00,1,1477529909289289,1477529909289289,1,22.75,13312,-52.0,865.7,1.441942
80000000000000000000CC00,1,1477529909297404,1477529909297404,1,-31.6875,13312,-50.0,865.7,1.5707964
80000000000000000000CC00,1,1477529909305516,1477529909305516,1,4.875,13312,-51.0,865.7,1.3069516
80000000000000000000CC00,1,1477529909313383,1477529909313383,1,0.0,13312,-52.5,865.7,1.4726216
80000000000000000000CC00,1,1477529909320378,1477529909320378,1,-10.5625,13312,-51.0,865.7,1.4910294
80000000000000000000CC00,1,1477529909327396,1477529909327396,1,-8.9375,13312,-50.5,865.7,1.3867186
80000000000000000000CC00,1,1477529909334170,1477529909334170,1,-57.75,13312,-52.5,865.7,1.6321555
80000000000000000000CC00,1,1477529909341385,1477529909341385,1,21.125,13312,-52.5,865.7,1.0246992
80000000000000000000CC00,1,1477529909348363,1477529909348363,1,-36.5625,13312,-52.0,865.7,1.3989905
80000000000000000000CC00,1,1477529909355315,1477529909355315,1,8.125,13312,-52.0,865.7,0.9387962
80000000000000000000CC00,1,1477529909365147,1477529909365147,1,58.5625,13312,-51.0,865.7,0.49700978
80000000000000000000CC00,1,1477529909373154,1477529909373154,1,-27.625,13312,-53.0,865.7,0.9510681
80000000000000000000CC00,1,1477529909380107,1477529909380107,1,12.1875,13312,-54.5,865.7,0.69949526
80000000000000000000CC00,1,1477529909388246,1477529909388246,1,-30.875,13312,-53.5,865.7,0.8897089
80000000000000000000CC00,1,1477529909396158,1477529909396158,1,1.625,13312,-55.0,865.7,0.7669904
80000000000000000000CC00,1,1477529909416133,1477529909416133,1,-2.4375,13312,-55.5,865.7,0.7485826
80000000000000000000CC00,1,1477529909423161,1477529909423161,1,8.125,13312,-54.5,865.7,0.65040785
80000000000000000000CC00,1,1477529909430962,1477529909430962,1,7.3125,13312,-53.5,865.7,0.50928164
80000000000000000000CC00,1,1477529909438039,1477529909438039,1,-8.125,13312,-54.5,865.7,0.6135923
80000000000000000000CC00,1,1477529909446078,1477529909446078,1,-23.5625,13312,-53.0,865.7,0.6872234
80000000000000000000CC00,1,1477529909455178,1477529909455178,1,-39.875,13312,-56.0,865.7,0.82834965
80000000000000000000CC00,1,1477529909462129,1477529909462129,1,-13.8125,13312,-54.5,865.7,0.638136
80000000000000000000CC00,1,1477529909469999,1477529909469999,1,34.125,13312,-56.5,865.7,0.42951462
80000000000000000000CC00,1,1477529909539656,1477529909539656,1,10.5625,13312,-56.5,865.7,0.638136
80000000000000000000CC00,1,1477529909551776,1477529909551776,1,-6.5,13312,-54.5,865.7,0.5829127
80000000000000000000CC00,1,1477529909561452,1477529909561452,1,0.0,13312,-55.5,865.7,0.8897089
80000000000000000000CC00,1,1477529909589703,1477529909589703,1,-8.125,13312,-56.0,865.7,0.65040785
80000000000000000000CC00,1,1477529909608675,1477529909608675,1,16.25,13312,-57.0,865.7,0.3681554
80000000000000000000CC00,1,1477529909616672,1477529909616672,1,12.1875,13312,-57.5,865.7,0.398835
80000000000000000000CC00,1,1477529909656995,1477529909656995,1,8.125,13312,-55.5,865.7,0.41110685
80000000000000000000CC00,1,1477529909703125,1477529909703125,1,8.9375,13312,-54.5,865.7,0.5154175
80000000000000000000CC00,1,1477529909712801,1477529909712801,1,-8.125,13312,-56.0,865.7,0.5154175
80000000000000000000CC00,1,1477529909762402,1477529909762402,1,31.6875,13312,-55.0,865.7,0.43565056
80000000000000000000CC00,1,1477529909854876,1477529909854876,1,7.3125,13312,-58.0,865.7,0.3681554
80000000000000000000CC00,1,1477529910502547,1477529910502547,1,-27.625,13312,-57.0,865.7,0.012271847
80000000000000000000CC00,1,1477529911318655,1477529911318655,1,-21.9375,13312,-57.0,865.7,0.77926224
80000000000000000000CC00,1,1477529911383367,1477529911383367,1,0.0,13312,-57.0,865.7,0.52155346
80000000000000000000CC00,1,1477529911419578,1477529911419578,1,14.625,13312,-57.5,865.7,0.6565438
80000000000000000000CC00,1,1477529911433039,1477529911433039,1,25.1875,13312,-56.5,865.7,0.5276894
80000000000000000000CC00,1,1477529911464284,1477529911464284,1,-15.4375,13312,-56.5,865.7,0.5767768
80000000000000000000CC00,1,1477529914351703,1477529914351703,1,-97.625,13312,-58.0,865.7,4.1662917
80000000000000000000CC00,1,1477529914437525,1477529914437525,1,24.375,13312,-57.5,865.7,4.28901
80000000000000000000CC00,1,1477529914448630,1477529914448630,1,2.4375,13312,-57.0,865.7,4.246059
80000000000000000000CC00,1,1477529914471927,1477529914471927,1,-61.0,13312,-57.0,865.7,4.246059
80000000000000000000CC00,1,1477529914612122,1477529914612122,1,58.5625,13312,-56.5,865.7,4.0128937
80000000000000000000CC00,1,1477529914621605,1477529914621605,1,-39.0,13312,-57.0,865.7,4.540583
80000000000000000000CC00,1,1477529914628395,1477529914628395,1,39.0,13312,-55.5,865.7,4.080389
80000000000000000000CC00,1,1477529914635703,1477529914635703,1,-42.3125,13312,-55.5,865.7,4.6755733
80000000000000000000CC00,1,1477529914643883,1477529914643883,1,-42.3125,13312,-55.0,865.7,5.111224
80000000000000000000CC00,1,1477529914651448,1477529914651448,1,0.0,13312,-57.5,865.7,4.730797
80000000000000000000CC00,1,1477529914659875,1477529914659875,1,28.4375,13312,-56.5,865.7,4.4914956
80000000000000000000CC00,1,1477529914668760,1477529914668760,1,-1.625,13312,-56.5,865.7,4.6571655
80000000000000000000CC00,1,1477529914676416,1477529914676416,1,-57.75,13312,-55.5,865.7,4.8166995
80000000000000000000CC00,1,1477529914685200,1477529914685200,1,15.4375,13312,-56.0,865.7,4.4853597
80000000000000000000CC00,1,1477529914692220,1477529914692220,1,35.75,13312,-56.0,865.7,4.632622
80000000000000000000CC00,1,1477529914701253,1477529914701253,1,32.5,13312,-56.0,865.7,4.3380976
80000000000000000000CC00,1,1477529914721213,1477529914721213,1,2.4375,13312,-55.5,865.7,4.473088
80000000000000000000CC00,1,1477529914731543,1477529914731543,1,84.625,13312,-56.5,865.7,4.2828746
80000000000000000000CC00,1,1477529914738532,1477529914738532,1,25.1875,13312,-55.5,865.7,4.8289714
80000000000000000000CC00,1,1477529914745544,1477529914745544,1,54.5,13312,-55.0,865.7,4.417865
80000000000000000000CC00,1,1477529914752509,1477529914752509,1,-19.5,13312,-54.0,865.7,4.7676125
80000000000000000000CC00,1,1477529914768936,1477529914768936,1,4.875,13312,-56.0,865.7,4.6633015
80000000000000000000CC00,1,1477529914775673,1477529914775673,1,61.8125,13312,-56.5,865.7,4.28901
80000000000000000000CC00,1,1477529914785539,1477529914785539,1,14.625,13312,-54.5,865.7,4.7369328
80000000000000000000CC00,1,1477529914793677,1477529914793677,1,14.625,13312,-54.5,865.7,4.7737484
80000000000000000000CC00,1,1477529914800905,1477529914800905,1,-5.6875,13312,-55.5,865.7,4.8228354
80000000000000000000CC00,1,1477529914809757,1477529914809757,1,-2.4375,13312,-55.5,865.7,4.8289714
80000000000000000000CC00,1,1477529914816734,1477529914816734,1,50.4375,13312,-55.5,865.7,4.6387577
80000000000000000000CC00,1,1477529914823780,1477529914823780,1,56.125,13312,-56.0,865.7,4.5896707
80000000000000000000CC00,1,1477529914830695,1477529914830695,1,0.0,13312,-55.5,865.7,4.8228354
80000000000000000000CC00,1,1477529914837660,1477529914837660,1,21.125,13312,-57.0,865.7,5.037593
80000000000000000000CC00,1,1477529914846138,1477529914846138,1,13.0,13312,-56.0,865.7,4.7430687
80000000000000000000CC00,1,1477529914853149,1477529914853149,1,-21.125,13312,-55.5,865.7,5.043729
80000000000000000000CC00,1,1477529914860547,1477529914860547,1,-56.125,13312,-56.5,865.7,5.264622
80000000000000000000CC00,1,1477529914867342,1477529914867342,1,-5.6875,13312,-56.5,865.7,4.6633015
80000000000000000000CC00,1,1477529914876124,1477529914876124,1,1.625,13312,-55.5,865.7,5.1296315
80000000000000000000CC00,1,1477529914882886,1477529914882886,1,-52.875,13312,-54.5,865.7,5.264622
80000000000000000000CC00,1,1477529914900817,1477529914900817,1,120.4375,13312,-53.5,865.7,4.0497093
80000000000000000000CC00,1,1477529914908136,1477529914908136,1,6.5,13312,-55.5,865.7,4.9026027
80000000000000000000CC00,1,1477529914916985,1477529914916985,1,13.0,13312,-55.5,865.7,4.9639616
80000000000000000000CC00,1,1477529914923943,1477529914923943,1,-45.5625,13312,-54.5,865.7,5.362797
80000000000000000000CC00,1,1477529914930692,1477529914930692,1,-42.3125,13312,-54.5,865.7,5.295302
80000000000000000000CC00,1,1477529914937974,1477529914937974,1,21.9375,13312,-56.5,865.7,5.037593
80000000000000000000CC00,1,1477529914944986,1477529914944986,1,41.5,13312,-57.5,865.7,4.7676125
80000000000000000000CC00,1,1477529914953282,1477529914953282,1,36.5625,13312,-56.5,865.7,4.460816
80000000000000000000CC00,1,1477529914961729,1477529914961729,1,41.5,13312,-56.0,865.7,4.632622
80000000000000000000CC00,1,1477529914970914,1477529914970914,1,17.0625,13312,-57.0,865.7,5.037593
80000000000000000000CC00,1,1477529914978739,1477529914978739,1,21.125,13312,-57.5,865.7,4.9394183
80000000000000000000CC00,1,1477529914989101,1477529914989101,1,-34.125,13312,-57.0,865.7,5.123496
80000000000000000000CC00,1,1477529915003341,1477529915003341,1,47.1875,13312,-56.5,865.7,4.724661
80000000000000000000CC00,1,1477529915010634,1477529915010634,1,57.75,13312,-56.0,865.7,4.7982917
80000000000000000000CC00,1,1477529915017581,1477529915017581,1,44.75,13312,-56.5,865.7,4.8044276
80000000000000000000CC00,1,1477529915026042,1477529915026042,1,76.4375,13312,-55.5,865.7,4.565127
80000000000000000000CC00,1,1477529915033440,1477529915033440,1,56.9375,13312,-56.0,865.7,4.8351073
80000000000000000000CC00,1,1477529915041506,1477529915041506,1,42.3125,13312,-57.5,865.7,4.712389
80000000000000000000CC00,1,1477529915048491,1477529915048491,1,2.4375,13312,-56.5,865.7,4.9700975
80000000000000000000CC00,1,1477529915057302,1477529915057302,1,20.3125,13312,-54.0,865.7,4.7982917
80000000000000000000CC00,1,1477529915076019,1477529915076019,1,-36.5625,13312,-57.0,865.7,5.3689327
80000000000000000000CC00,1,1477529915083362,1477529915083362,1,-20.3125,13312,-56.5,865.7,5.0989523
80000000000000000000CC00,1,1477529915091580,1477529915091580,1,80.5625,13312,-55.0,865.7,5.0928164
80000000000000000000CC00,1,1477529915111679,1477529915111679,1,-59.375,13312,-55.5,865.7,5.638913
80000000000000000000CC00,1,1477529915119167,1477529915119167,1,23.5625,13312,-57.5,865.7,5.043729
80000000000000000000CC00,1,1477529915126141,1477529915126141,1,-24.375,13312,-58.0,865.7,4.957826
80000000000000000000CC00,1,1477529915132890,1477529915132890,1,150.5,13312,-57.0,865.7,4.8044276
80000000000000000000CC00,1,1477529915154531,1477529915154531,1,-21.9375,13312,-56.5,865.7,5.190991
80000000000000000000CC00,1,1477529915162292,1477529915162292,1,24.375,13312,-58.5,865.7,4.9823694
80000000000000000000CC00,1,1477529915179782,1477529915179782,1,-43.125,13312,-56.5,865.7,5.3996124
80000000000000000000CC00,1,1477529915188713,1477529915188713,1,-15.4375,13312,-58.0,865.7,5.025321
80000000000000000000CC00,1,1477529915196578,1477529915196578,1,53.6875,13312,-58.0,865.7,4.847379
80000000000000000000CC00,1,1477529915203533,1477529915203533,1,27.625,13312,-56.0,865.7,5.0621367
80000000000000000000CC00,1,1477529915215907,1477529915215907,1,-10.5625,13312,-57.0,865.7,5.013049
80000000000000000000CC00,1,1477529915223398,1477529915223398,1,4.875,13312,-56.5,865.7,5.197127
80000000000000000000CC00,1,1477529915232491,1477529915232491,1,-21.9375,13312,-56.5,865.7,5.0744085
80000000000000000000CC00,1,1477529915275861,1477529915275861,1,-13.8125,13312,-58.0,865.7,5.2400784
80000000000000000000CC00,1,1477529915293321,1477529915293321,1,-43.125,13312,-56.0,865.7,5.037593
80000000000000000000CC00,1,1477529915300685,1477529915300685,1,-41.5,13312,-57.0,865.7,4.4914956
80000000000000000000CC00,1,1477529915336621,1477529915336621,1,-52.0625,13312,-58.0,865.7,4.9148746
80000000000000000000CC00,1,1477529915359952,1477529915359952,1,-64.25,13312,-57.5,865.7,4.6694374
80000000000000000000CC00,1,1477529915366759,1477529915366759,1,-168.4375,13312,-56.5,865.7,4.700117
80000000000000000000CC00,1,1477529915428871,1477529915428871,1,-42.3125,13312,-57.5,865.7,4.6633015
80000000000000000000CC00,1,1477529915618193,1477529915618193,1,-44.75,13312,-54.5,865.7,3.2213597
80000000000000000000CC00,1,1477529915625614,1477529915625614,1,38.1875,13312,-56.0,865.7,2.9268353
80000000000000000000CC00,1,1477529915637551,1477529915637551,1,51.25,13312,-55.0,865.7,2.5893595
80000000000000000000CC00,1,1477529915657380,1477529915657380,1,-37.375,13312,-52.0,865.7,3.117049
80000000000000000000CC00,1,1477529915666830,1477529915666830,1,-7.3125,13312,-55.0,865.7,2.951379
80000000000000000000CC00,1,1477529915673545,1477529915673545,1,-6.5,13312,-52.5,865.7,3.0066023
80000000000000000000CC00,1,1477529915683110,1477529915683110,1,-1.625,13312,-53.5,865.7,2.7734373
80000000000000000000CC00,1,1477529915689823,1477529915689823,1,84.625,13312,-53.5,865.7,2.5832236
80000000000000000000CC00,1,1477529915696973,1477529915696973,1,39.875,13312,-54.0,865.7,2.644583
80000000000000000000CC00,1,1477529915703708,1477529915703708,1,69.9375,13312,-51.0,865.7,2.4666412
80000000000000000000CC00,1,1477529915711253,1477529915711253,1,8.9375,13312,-53.0,865.7,3.0066023
80000000000000000000CC00,1,1477529915717986,1477529915717986,1,2.4375,13312,-52.5,865.7,3.0066023
80000000000000000000CC00,1,1477529915725190,1477529915725190,1,17.875,13312,-52.0,865.7,2.7857091
80000000000000000000CC00,1,1477529915732524,1477529915732524,1,24.375,13312,-52.5,865.7,2.712078
80000000000000000000CC00,1,1477529915739457,1477529915739457,1,-15.4375,13312,-50.5,865.7,3.104777
80000000000000000000CC00,1,1477529915746327,1477529915746327,1,46.375,13312,-52.0,865.7,2.7611654
80000000000000000000CC00,1,1477529915754134,1477529915754134,1,8.9375,13312,-51.5,865.7,2.9084275
80000000000000000000CC00,1,1477529915761071,1477529915761071,1,24.375,13312,-52.0,865.7,2.9391072
80000000000000000000CC00,1,1477529915769450,1477529915769450,1,-8.125,13312,-49.5,865.7,3.0986412
80000000000000000000CC00,1,1477529915776901,1477529915776901,1,20.3125,13312,-51.5,865.7,2.9022915
80000000000000000000CC00,1,1477529915783868,1477529915783868,1,41.5,13312,-52.5,865.7,2.7795732
80000000000000000000CC00,1,1477529915790591,1477529915790591,1,32.5,13312,-52.5,865.7,2.6998062
80000000000000000000CC00,1,1477529915797608,1477529915797608,1,44.75,13312,-50.0,865.7,2.883884
80000000000000000000CC00,1,1477529915804573,1477529915804573,1,-17.875,13312,-50.5,865.7,3.202952
80000000000000000000CC00,1,1477529915813811,1477529915813811,1,1.625,13312,-49.5,865.7,3.1661363
80000000000000000000CC00,1,1477529915820565,1477529915820565,1,-20.3125,13312,-51.0,865.7,3.0495539
80000000000000000000CC00,1,1477529915829297,1477529915829297,1,-15.4375,13312,-50.0,865.7,3.0986412
80000000000000000000CC00,1,1477529915836732,1477529915836732,1,25.1875,13312,-51.0,865.7,2.963651
80000000000000000000CC00,1,1477529915843755,1477529915843755,1,5.6875,13312,-50.0,865.7,3.0556898
80000000000000000000CC00,1,1477529915850566,1477529915850566,1,9.75,13312,-50.5,865.7,2.9943304
80000000000000000000CC00,1,1477529915860354,1477529915860354,1,15.4375,13312,-51.0,865.7,2.957515
80000000000000000000CC00,1,1477529915867729,1477529915867729,1,-2.4375,13312,-51.5,865.7,3.1477287
80000000000000000000CC00,1,1477529915874727,1477529915874727,1,27.625,13312,-50.5,865.7,3.0679617
80000000000000000000CC00,1,1477529915881455,1477529915881455,1,-10.5625,13312,-50.5,865.7,3.1415927
80000000000000000000CC00,1,1477529915888660,1477529915888660,1,1.625,13312,-50.0,865.7,3.2152238
80000000000000000000CC00,1,1477529915896871,1477529915896871,1,-4.0625,13312,-50.0,865.7,3.043418
80000000000000000000CC00,1,1477529915904154,1477529915904154,1,-16.25,13312,-51.0,865.7,3.0004663
80000000000000000000CC00,1,1477529915910876,1477529915910876,1,-26.8125,13312,-50.5,865.7,3.2397673
80000000000000000000CC00,1,1477529915918039,1477529915918039,1,21.9375,13312,-49.0,865.7,2.9268353
80000000000000000000CC00,1,1477529915925025,1477529915925025,1,-0.8125,13312,-50.5,865.7,3.037282
80000000000000000000CC00,1,1477529915932015,1477529915932015,1,-13.0,13312,-50.5,865.7,3.0679617
80000000000000000000CC00,1,1477529915939003,1477529915939003,1,22.75,13312,-49.0,865.7,2.9022915
80000000000000000000CC00,1,1477529915945953,1477529915945953,1,22.75,13312,-50.0,865.7,2.8470683
80000000000000000000CC00,1,1477529915953440,1477529915953440,1,-8.9375,13312,-49.5,865.7,3.0802333
80000000000000000000CC00,1,1477529915960257,1477529915960257,1,-7.3125,13312,-49.0,865.7,3.123185
80000000000000000000CC00,1,1477529915967204,1477529915967204,1,-20.3125,13312,-48.5,865.7,3.184544
80000000000000000000CC00,1,1477529915975624,1477529915975624,1,9.75,13312,-48.5,865.7,2.963651
80000000000000000000CC00,1,1477529915983353,1477529915983353,1,5.6875,13312,-49.5,865.7,3.1600003
80000000000000000000CC00,1,1477529915990437,1477529915990437,1,5.6875,13312,-49.5,865.7,3.0188742
80000000000000000000CC00,1,1477529915998602,1477529915998602,1,46.375,13312,-49.5,865.7,2.730486
80000000000000000000CC00,1,1477529916007244,1477529916007244,1,-9.75,13312,-49.0,865.7,3.0679617
80000000000000000000CC00,1,1477529916015283,1477529916015283,1,-21.125,13312,-49.5,865.7,3.184544
80000000000000000000CC00,1,1477529916022466,1477529916022466,1,-10.5625,13312,-49.5,865.7,3.1477287
80000000000000000000CC00,1,1477529916029173,1477529916029173,1,2.4375,13312,-49.5,865.7,3.043418
80000000000000000000CC00,1,1477529916036172,1477529916036172,1,-13.8125,13312,-49.0,865.7,3.0556898
80000000000000000000CC00,1,1477529916043396,1477529916043396,1,1.625,13312,-48.5,865.7,3.043418
80000000000000000000CC00,1,1477529916050434,1477529916050434,1,-2.4375,13312,-49.5,865.7,3.0188742
80000000000000000000CC00,1,1477529916057380,1477529916057380,1,-6.5,13312,-49.5,865.7,3.0925052
80000000000000000000CC00,1,1477529916064099,1477529916064099,1,16.25,13312,-49.5,865.7,2.8961558
80000000000000000000CC00,1,1477529916071030,1477529916071030,1,-24.375,13312,-48.5,865.7,3.2888548
80000000000000000000CC00,1,1477529916077950,1477529916077950,1,-17.0625,13312,-48.5,865.7,3.2274957
80000000000000000000CC00,1,1477529916085126,1477529916085126,1,-22.75,13312,-51.0,865.7,3.2520392
80000000000000000000CC00,1,1477529916091818,1477529916091818,1,12.1875,13312,-49.5,865.7,3.0925052
80000000000000000000CC00,1,1477529916099086,1477529916099086,1,4.0625,13312,-48.0,865.7,3.1661363
80000000000000000000CC00,1,1477529916107513,1477529916107513,1,16.25,13312,-49.0,865.7,3.1600003
80000000000000000000CC00,1,1477529916117423,1477529916117423,1,4.0625,13312,-49.5,865.7,3.1661363
80000000000000000000CC00,1,1477529916124118,1477529916124118,1,-4.875,13312,-49.0,865.7,3.2459033
80000000000000000000CC00,1,1477529916131747,1477529916131747,1,10.5625,13312,-49.5,865.7,3.3011267
80000000000000000000CC00,1,1477529916138758,1477529916138758,1,-7.3125,13312,-47.5,865.7,3.3870296
80000000000000000000CC00,1,1477529916147190,1477529916147190,1,-1.625,13312,-48.5,865.7,3.344078
80000000000000000000CC00,1,1477529916154596,1477529916154596,1,-7.3125,13312,-49.0,865.7,3.436117
80000000000000000000CC00,1,1477529916161540,1477529916161540,1,9.75,13312,-49.0,865.7,3.3011267
80000000000000000000CC00,1,1477529916168347,1477529916168347,1,-12.1875,13312,-47.5,865.7,3.5281558
80000000000000000000CC00,1,1477529916176938,1477529916176938,1,6.5,13312,-49.0,865.7,3.4545248
80000000000000000000CC00,1,1477529916185674,1477529916185674,1,5.6875,13312,-48.5,865.7,3.5281558
80000000000000000000CC00,1,1477529916192454,1477529916192454,1,9.75,13312,-48.0,865.7,3.5404277
80000000000000000000CC00,1,1477529916199405,1477529916199405,1,5.6875,13312,-47.0,865.7,3.5220199
80000000000000000000CC00,1,1477529916206685,1477529916206685,1,-25.1875,13312,-47.5,865.7,3.669282
80000000000000000000CC00,1,1477529916213400,1477529916213400,1,4.0625,13312,-46.5,865.7,3.5404277
80000000000000000000CC00,1,1477529916220436,1477529916220436,1,-8.9375,13312,-47.0,865.7,3.577243
80000000000000000000CC00,1,1477529916227618,1477529916227618,1,-7.3125,13312,-47.0,865.7,3.583379
80000000000000000000CC00,1,1477529916234324,1477529916234324,1,14.625,13312,-47.5,865.7,3.4054372
80000000000000000000CC00,1,1477529916241227,1477529916241227,1,-2.4375,13312,-47.0,865.7,3.497476
80000000000000000000CC00,1,1477529916248459,1477529916248459,1,-14.625,13312,-47.0,865.7,3.515884
80000000000000000000CC00,1,1477529916255433,1477529916255433,1,4.875,13312,-46.5,865.7,3.3993015
80000000000000000000CC00,1,1477529916262451,1477529916262451,1,-4.0625,13312,-46.5,865.7,3.362486
80000000000000000000CC00,1,1477529916270265,1477529916270265,1,1.625,13312,-47.0,865.7,3.2213597
80000000000000000000CC00,1,1477529916278930,1477529916278930,1,0.0,13312,-47.0,865.7,3.196816
80000000000000000000CC00,1,1477529916287163,1477529916287163,1,-9.75,13312,-46.5,865.7,3.2397673
80000000000000000000CC00,1,1477529916294412,1477529916294412,1,-10.5625,13312,-47.5,865.7,3.1538644
80000000000000000000CC00,1,1477529916301402,1477529916301402,1,-13.0,13312,-47.0,865.7,3.043418
80000000000000000000CC00,1,1477529916308377,1477529916308377,1,-9.75,13312,-46.5,865.7,3.0925052
80000000000000000000CC00,1,1477529916317982,1477529916317982,1,-13.8125,13312,-46.5,865.7,3.0127382
80000000000000000000CC00,1,1477529916326292,1477529916326292,1,0.8125,13312,-47.0,865.7,2.9452431
80000000000000000000CC00,1,1477529916333246,1477529916333246,1,4.875,13312,-46.0,865.7,2.9022915
80000000000000000000CC00,1,1477529916340032,1477529916340032,1,-2.4375,13312,-46.5,865.7,2.9145634
80000000000000000000CC00,1,1477529916348598,1477529916348598,1,-14.625,13312,-47.0,865.7,2.9391072
80000000000000000000CC00,1,1477529916355639,1477529916355639,1,-8.9375,13312,-47.5,865.7,2.9268353
80000000000000000000CC00,1,1477529916362908,1477529916362908,1,-6.5,13312,-47.5,865.7,2.8532043
80000000000000000000CC00,1,1477529916369887,1477529916369887,1,8.125,13312,-47.0,865.7,2.8654761
80000000000000000000CC00,1,1477529916378246,1477529916378246,1,-0.8125,13312,-47.0,865.7,2.871612
80000000000000000000CC00,1,1477529916386754,1477529916386754,1,0.8125,13312,-47.0,865.7,2.877748
80000000000000000000CC00,1,1477529916393975,1477529916393975,1,-4.875,13312,-47.0,865.7,2.9022915
80000000000000000000CC00,1,1477529916400670,1477529916400670,1,7.3125,13312,-47.0,865.7,2.877748
80000000000000000000CC00,1,1477529916407653,1477529916407653,1,-17.0625,13312,-47.0,865.7,2.9943304
80000000000000000000CC00,1,1477529916414714,1477529916414714,1,14.625,13312,-47.5,865.7,2.804117
80000000000000000000CC00,1,1477529916421724,1477529916421724,1,20.3125,13312,-47.5,865.7,2.7611654
80000000000000000000CC00,1,1477529916428643,1477529916428643,1,9.75,13312,-47.0,865.7,2.871612
80000000000000000000CC00,1,1477529916435601,1477529916435601,1,-8.125,13312,-47.5,865.7,2.9391072
80000000000000000000CC00,1,1477529916442871,1477529916442871,1,0.8125,13312,-47.0,865.7,2.9145634
80000000000000000000CC00,1,1477529916449608,1477529916449608,1,-8.125,13312,-47.0,865.7,2.883884
80000000000000000000CC00,1,1477529916456603,1477529916456603,1,-1.625,13312,-47.0,865.7,2.8347964
80000000000000000000CC00,1,1477529916463823,1477529916463823,1,8.9375,13312,-47.0,865.7,2.7795732
80000000000000000000CC00,1,1477529916470820,1477529916470820,1,-9.75,13312,-47.0,865.7,2.9759228
80000000000000000000CC00,1,1477529916477578,1477529916477578,1,-2.4375,13312,-47.0,865.7,2.9145634
80000000000000000000CC00,1,1477529916484549,1477529916484549,1,8.9375,13312,-47.0,865.7,2.7857091
80000000000000000000CC00,1,1477529916491770,1477529916491770,1,14.625,13312,-47.0,865.7,2.7611654
80000000000000000000CC00,1,1477529916498468,1477529916498468,1,8.125,13312,-47.0,865.7,2.791845
80000000000000000000CC00,1,1477529916505524,1477529916505524,1,0.0,13312,-47.5,865.7,2.883884
80000000000000000000CC00,1,1477529916512464,1477529916512464,1,-8.9375,13312,-47.5,865.7,2.8961558
80000000000000000000CC00,1,1477529916519683,1477529916519683,1,17.875,13312,-47.5,865.7,2.730486
80000000000000000000CC00,1,1477529916526628,1477529916526628,1,8.9375,13312,-47.5,865.7,2.7673013
80000000000000000000CC00,1,1477529916533362,1477529916533362,1,-7.3125,13312,-46.5,865.7,2.8654761
80000000000000000000CC00,1,1477529916540352,1477529916540352,1,-12.1875,13312,-47.0,865.7,2.9084275
80000000000000000000CC00,1,1477529916547606,1477529916547606,1,-13.8125,13312,-47.0,865.7,2.9206994
80000000000000000000CC00,1,1477529916555787,1477529916555787,1,8.9375,13312,-46.5,865.7,2.8286605
80000000000000000000CC00,1,1477529916564124,1477529916564124,1,4.0625,13312,-47.0,865.7,2.810253
80000000000000000000CC00,1,1477529916570844,1477529916570844,1,-13.0,13312,-47.5,865.7,2.9329712
80000000000000000000CC00,1,1477529916578933,1477529916578933,1,-6.5,13312,-46.5,865.7,2.8225245
80000000000000000000CC00,1,1477529916587571,1477529916587571,1,23.5625,13312,-47.5,865.7,2.6936703
80000000000000000000CC00,1,1477529916596453,1477529916596453,1,-9.75,13312,-46.5,865.7,2.89002
80000000000000000000CC00,1,1477529916603176,1477529916603176,1,-4.875,13312,-47.5,865.7,2.7673013
80000000000000000000CC00,1,1477529916611573,1477529916611573,1,-9.75,13312,-46.5,865.7,2.871612
80000000000000000000CC00,1,1477529916618794,1477529916618794,1,-9.75,13312,-47.0,865.7,2.8409324
80000000000000000000CC00,1,1477529916625471,1477529916625471,1,-0.8125,13312,-47.0,865.7,2.8225245
80000000000000000000CC00,1,1477529916632455,1477529916632455,1,14.625,13312,-47.0,865.7,2.7366216
80000000000000000000CC00,1,1477529916641194,1477529916641194,1,0.0,13312,-47.0,865.7,2.8286605
80000000000000000000CC00,1,1477529916647921,1477529916647921,1,-9.75,13312,-46.5,865.7,2.8961558
80000000000000000000CC00,1,1477529916656583,1477529916656583,1,-4.0625,13312,-47.0,865.7,2.8225245
80000000000000000000CC00,1,1477529916664827,1477529916664827,1,10.5625,13312,-47.0,865.7,2.6752625
80000000000000000000CC00,1,1477529916671793,1477529916671793,1,-4.0625,13312,-47.0,865.7,2.8286605
80000000000000000000CC00,1,1477529916679046,1477529916679046,1,-2.4375,13312,-46.5,865.7,2.8286605
80000000000000000000CC00,1,1477529916685767,1477529916685767,1,-5.6875,13312,-46.0,865.7,2.8470683
80000000000000000000CC00,1,1477529916693054,1477529916693054,1,10.5625,13312,-47.0,865.7,2.7059422
80000000000000000000CC00,1,1477529916699729,1477529916699729,1,23.5625,13312,-47.0,865.7,2.6200392
80000000000000000000CC00,1,1477529916706741,1477529916706741,1,0.0,13312,-47.0,865.7,2.871612
80000000000000000000CC00,1,1477529916713980,1477529916713980,1,26.8125,13312,-47.0,865.7,2.5648158
80000000000000000000CC00,1,1477529916720951,1477529916720951,1,8.9375,13312,-46.5,865.7,2.730486
80000000000000000000CC00,1,1477529916727688,1477529916727688,1,12.1875,13312,-46.5,865.7,2.632311
80000000000000000000CC00,1,1477529916734920,1477529916734920,1,4.875,13312,-46.5,865.7,2.6568546
80000000000000000000CC00,1,1477529916741871,1477529916741871,1,-5.6875,13312,-46.5,865.7,2.7734373
80000000000000000000CC00,1,1477529916748595,1477529916748595,1,24.375,13312,-47.0,865.7,2.6568546
80000000000000000000CC00,1,1477529916758488,1477529916758488,1,6.5,13312,-46.5,865.7,2.6875343
80000000000000000000CC00,1,1477529916765816,1477529916765816,1,4.0625,13312,-47.5,865.7,2.644583
80000000000000000000CC00,1,1477529916772902,1477529916772902,1,-2.4375,13312,-46.0,865.7,2.7857091
80000000000000000000CC00,1,1477529916780968,1477529916780968,1,-13.0,13312,-47.0,865.7,2.7857091
80000000000000000000CC00,1,1477529916789873,1477529916789873,1,-10.5625,13312,-46.5,865.7,2.8593402
80000000000000000000CC00,1,1477529916796971,1477529916796971,1,13.0,13312,-47.0,865.7,2.6752625
80000000000000000000CC00,1,1477529916804243,1477529916804243,1,-1.625,13312,-47.0,865.7,2.7550294
80000000000000000000CC00,1,1477529916810936,1477529916810936,1,-4.875,13312,-46.5,865.7,2.6813984
80000000000000000000CC00,1,1477529916818146,1477529916818146,1,-12.1875,13312,-47.0,865.7,2.8347964
80000000000000000000CC00,1,1477529916825124,1477529916825124,1,-13.0,13312,-46.0,865.7,2.7857091
80000000000000000000CC00,1,1477529916833381,1477529916833381,1,-4.875,13312,-46.5,865.7,2.72435
80000000000000000000CC00,1,1477529916842008,1477529916842008,1,0.0,13312,-46.5,865.7,2.7488935
80000000000000000000CC00,1,1477529916848986,1477529916848986,1,6.5,13312,-47.0,865.7,2.632311
80000000000000000000CC00,1,1477529916857635,1477529916857635,1,-5.6875,13312,-46.5,865.7,2.7611654
80000000000000000000CC00,1,1477529916864475,1477529916864475,1,0.8125,13312,-46.5,865.7,2.712078
80000000000000000000CC00,1,1477529916871422,1477529916871422,1,4.0625,13312,-46.5,865.7,2.6629906
80000000000000000000CC00,1,1477529916878611,1477529916878611,1,12.1875,13312,-46.0,865.7,2.712078
80000000000000000000CC00,1,1477529916885543,1477529916885543,1,-5.6875,13312,-46.0,865.7,2.730486
80000000000000000000CC00,1,1477529916892232,1477529916892232,1,-13.0,13312,-46.5,865.7,2.8286605
80000000000000000000CC00,1,1477529916899221,1477529916899221,1,13.0,13312,-46.5,865.7,2.5954955
80000000000000000000CC00,1,1477529916906229,1477529916906229,1,-17.875,13312,-46.0,865.7,2.6507187
80000000000000000000CC00,1,1477529916913189,1477529916913189,1,-14.625,13312,-46.5,865.7,2.7550294
80000000000000000000CC00,1,1477529916920135,1477529916920135,1,47.1875,13312,-46.5,865.7,2.3746023
80000000000000000000CC00,1,1477529916928181,1477529916928181,1,-6.5,13312,-46.0,865.7,2.810253
80000000000000000000CC00,1,1477529916935361,1477529916935361,1,-4.0625,13312,-46.0,865.7,2.6998062
80000000000000000000CC00,1,1477529916942335,1477529916942335,1,-15.4375,13312,-47.0,865.7,2.7673013
80000000000000000000CC00,1,1477529916950759,1477529916950759,1,-19.5,13312,-46.5,865.7,2.804117
80000000000000000000CC00,1,1477529916957514,1477529916957514,1,-8.125,13312,-46.5,865.7,2.5893595
80000000000000000000CC00,1,1477529916964658,1477529916964658,1,4.875,13312,-46.0,865.7,2.6936703
80000000000000000000CC00,1,1477529916971600,1477529916971600,1,0.0,13312,-45.5,865.7,2.6998062
80000000000000000000CC00,1,1477529916978310,1477529916978310,1,13.8125,13312,-46.5,865.7,2.6016314
80000000000000000000CC00,1,1477529916985284,1477529916985284,1,1.625,13312,-46.5,865.7,2.7059422
80000000000000000000CC00,1,1477529916992576,1477529916992576,1,9.75,13312,-46.0,865.7,2.6998062
80000000000000000000CC00,1,1477529916999636,1477529916999636,1,1.625,13312,-46.5,865.7,2.7059422
80000000000000000000CC00,1,1477529917007919,1477529917007919,1,-0.8125,13312,-46.0,865.7,2.6568546
80000000000000000000CC00,1,1477529917016179,1477529917016179,1,12.1875,13312,-46.5,865.7,2.5709517
80000000000000000000CC00,1,1477529917023138,1477529917023138,1,-5.6875,13312,-46.5,865.7,2.712078
80000000000000000000CC00,1,1477529917029923,1477529917029923,1,-17.0625,13312,-46.5,865.7,2.791845
80000000000000000000CC00,1,1477529917036828,1477529917036828,1,-7.3125,13312,-46.0,865.7,2.712078
80000000000000000000CC00,1,1477529917047427,1477529917047427,1,-14.625,13312,-46.5,865.7,2.7795732
80000000000000000000CC00,1,1477529917054332,1477529917054332,1,19.5,13312,-46.5,865.7,2.5954955
80000000000000000000CC00,1,1477529917061562,1477529917061562,1,-1.625,13312,-47.0,865.7,2.6813984
80000000000000000000CC00,1,1477529917069381,1477529917069381,1,21.125,13312,-46.0,865.7,2.638447
80000000000000000000CC00,1,1477529917076403,1477529917076403,1,-24.375,13312,-45.5,865.7,2.804117
80000000000000000000CC00,1,1477529917083570,1477529917083570,1,15.4375,13312,-47.0,865.7,2.6077673
80000000000000000000CC00,1,1477529917091902,1477529917091902,1,-1.625,13312,-46.0,865.7,2.6998062
80000000000000000000CC00,1,1477529917099052,1477529917099052,1,-17.0625,13312,-46.5,865.7,2.7673013
80000000000000000000CC00,1,1477529917106041,1477529917106041,1,-8.9375,13312,-47.0,865.7,2.6629906
80000000000000000000CC00,1,1477529917113148,1477529917113148,1,20.3125,13312,-46.5,865.7,2.5218644
80000000000000000000CC00,1,1477529917119881,1477529917119881,1,23.5625,13312,-46.0,865.7,2.5034566
80000000000000000000CC00,1,1477529917126846,1477529917126846,1,14.625,13312,-46.0,865.7,2.5832236
80000000000000000000CC00,1,1477529917134070,1477529917134070,1,0.8125,13312,-46.5,865.7,2.7427576
80000000000000000000CC00,1,1477529917140853,1477529917140853,1,-19.5,13312,-46.0,865.7,2.718214
80000000000000000000CC00,1,1477529917148028,1477529917148028,1,4.0625,13312,-46.5,865.7,2.6261752
80000000000000000000CC00,1,1477529917155063,1477529917155063,1,-4.0625,13312,-46.0,865.7,2.6752625
80000000000000000000CC00,1,1477529917163347,1477529917163347,1,1.625,13312,-46.0,865.7,2.644583
80000000000000000000CC00,1,1477529917170313,1477529917170313,1,16.25,13312,-46.5,865.7,2.55868
80000000000000000000CC00,1,1477529917177229,1477529917177229,1,-6.5,13312,-45.5,865.7,2.6998062
80000000000000000000CC00,1,1477529917184207,1477529917184207,1,-2.4375,13312,-46.0,865.7,2.6752625
80000000000000000000CC00,1,1477529917191243,1477529917191243,1,-9.75,13312,-46.0,865.7,2.6077673
80000000000000000000CC00,1,1477529917198461,1477529917198461,1,4.875,13312,-46.5,865.7,2.552544
80000000000000000000CC00,1,1477529917205392,1477529917205392,1,-4.0625,13312,-46.0,865.7,2.7366216
80000000000000000000CC00,1,1477529917212052,1477529917212052,1,9.75,13312,-46.5,865.7,2.5095925
80000000000000000000CC00,1,1477529917219097,1477529917219097,1,-44.75,13312,-46.5,865.7,2.9084275
80000000000000000000CC00,1,1477529917227684,1477529917227684,1,-13.8125,13312,-46.5,865.7,2.730486
80000000000000000000CC00,1,1477529917234889,1477529917234889,1,-26.8125,13312,-46.5,865.7,2.810253
80000000000000000000CC00,1,1477529917241606,1477529917241606,1,-12.1875,13312,-46.0,865.7,2.72435
80000000000000000000CC00,1,1477529917248833,1477529917248833,1,-8.125,13312,-46.0,865.7,2.632311
