40000000000000000000CC00,1,1477341850853619,1477341850853619,1,4.875,13312,-29.5,865.7,6.1359234
40000000000000000000CC00,1,1477341850860527,1477341850860527,1,1.625,13312,-29.5,865.7,6.1359234
40000000000000000000CC00,1,1477341850867483,1477341850867483,1,0.8125,13312,-29.5,865.7,6.1543307
40000000000000000000CC00,1,1477341850874711,1477341850874711,1,-0.8125,13312,-29.5,865.7,6.1543307
40000000000000000000CC00,1,1477341850881425,1477341850881425,1,2.4375,13312,-29.5,865.7,6.142059
40000000000000000000CC00,1,1477341850888393,1477341850888393,1,-0.8125,13312,-29.5,865.7,6.1666026
40000000000000000000CC00,1,1477341850895606,1477341850895606,1,3.25,13312,-29.5,865.7,6.1359234
40000000000000000000CC00,1,1477341850902236,1477341850902236,1,4.875,13312,-29.5,865.7,6.1236515
40000000000000000000CC00,1,1477341850909484,1477341850909484,1,0.8125,13312,-29.5,865.7,6.148195
40000000000000000000CC00,1,1477341850916192,1477341850916192,1,0.8125,13312,-29.5,865.7,6.148195
40000000000000000000CC00,1,1477341850923274,1477341850923274,1,0.0,13312,-29.5,865.7,6.1543307
40000000000000000000CC00,1,1477341850930250,1477341850930250,1,0.8125,13312,-29.5,865.7,6.1543307
40000000000000000000CC00,1,1477341850937201,1477341850937201,1,5.6875,13312,-29.5,865.7,6.1236515
40000000000000000000CC00,1,1477341850944147,1477341850944147,1,2.4375,13312,-29.5,865.7,6.1359234
40000000000000000000CC00,1,1477341850951273,1477341850951273,1,-2.4375,13312,-29.5,865.7,6.1666026
40000000000000000000CC00,1,1477341850958222,1477341850958222,1,-1.625,13312,-29.5,865.7,6.1666026
40000000000000000000CC00,1,1477341850964995,1477341850964995,1,0.8125,13312,-29.5,865.7,6.1543307
40000000000000000000CC00,1,1477341850971897,1477341850971897,1,-0.8125,13312,-29.5,865.7,6.1666026
40000000000000000000CC00,1,1477341850978841,1477341850978841,1,0.8125,13312,-29.5,865.7,6.148195
40000000000000000000CC00,1,1477341850985800,1477341850985800,1,1.625,13312,-29.5,865.7,6.148195
40000000000000000000CC00,1,1477341850993105,1477341850993105,1,1.625,13312,-29.5,865.7,6.142059
40000000000000000000CC00,1,1477341851000110,1477341851000110,1,4.875,13312,-29.5,865.7,6.1359234
40000000000000000000CC00,1,1477341851007122,1477341851007122,1,-1.625,13312,-29.5,865.7,6.1666026
40000000000000000000CC00,1,1477341851013806,1477341851013806,1,0.0,13312,-29.5,865.7,6.1604667
40000000000000000000CC00,1,1477341851020980,1477341851020980,1,4.875,13312,-29.5,865.7,6.1297874
40000000000000000000CC00,1,1477341851027619,1477341851027619,1,0.0,13312,-29.5,865.7,6.1604667
40000000000000000000CC00,1,1477341851034770,1477341851034770,1,-0.8125,13312,-29.5,865.7,6.1666026
40000000000000000000CC00,1,1477341851041458,1477341851041458,1,3.25,13312,-29.5,865.7,6.148195
40000000000000000000CC00,1,1477341851048418,1477341851048418,1,-0.8125,13312,-29.5,865.7,6.1727386
40000000000000000000CC00,1,1477341851055616,1477341851055616,1,3.25,13312,-29.5,865.7,6.142059
40000000000000000000CC00,1,1477341851062633,1477341851062633,1,1.625,13312,-29.5,865.7,6.148195
40000000000000000000CC00,1,1477341851069570,1477341851069570,1,7.3125,13312,-29.5,865.7,6.1236515
40000000000000000000CC00,1,1477341851076537,1477341851076537,1,0.8125,13312,-29.5,865.7,6.1666026
40000000000000000000CC00,1,1477341851083225,1477341851083225,1,0.0,13312,-29.5,865.7,6.1666026
40000000000000000000CC00,1,1477341851090409,1477341851090409,1,4.875,13312,-29.5,865.7,6.142059
40000000000000000000CC00,1,1477341851097358,1477341851097358,1,1.625,13312,-29.5,865.7,6.1543307
40000000000000000000CC00,1,1477341851104055,1477341851104055,1,0.0,13312,-29.5,865.7,6.1727386
40000000000000000000CC00,1,1477341851110967,1477341851110967,1,-2.4375,13312,-29.5,865.7,6.1911464
40000000000000000000CC00,1,1477341851117960,1477341851117960,1,0.0,13312,-29.5,865.7,6.1666026
40000000000000000000CC00,1,1477341851124920,1477341851124920,1,2.4375,13312,-29.5,865.7,6.1543307
40000000000000000000CC00,1,1477341851132149,1477341851132149,1,2.4375,13312,-29.5,865.7,6.1543307
40000000000000000000CC00,1,1477341851138909,1477341851138909,1,-3.25,13312,-29.5,865.7,6.1850104
40000000000000000000CC00,1,1477341851145905,1477341851145905,1,0.8125,13312,-29.5,865.7,6.1604667
40000000000000000000CC00,1,1477341851153091,1477341851153091,1,0.0,13312,-29.5,865.7,6.1666026
40000000000000000000CC00,1,1477341851160008,1477341851160008,1,1.625,13312,-29.5,865.7,6.1604667
40000000000000000000CC00,1,1477341851166665,1477341851166665,1,0.8125,13312,-29.5,865.7,6.1727386
40000000000000000000CC00,1,1477341851173682,1477341851173682,1,0.0,13312,-29.5,865.7,6.1727386
40000000000000000000CC00,1,1477341851180887,1477341851180887,1,4.875,13312,-29.5,865.7,6.148195
40000000000000000000CC00,1,1477341851187607,1477341851187607,1,3.25,13312,-29.5,865.7,6.148195
40000000000000000000CC00,1,1477341851194768,1477341851194768,1,-1.625,13312,-29.5,865.7,6.1788745
40000000000000000000CC00,1,1477341851201721,1477341851201721,1,0.8125,13312,-29.5,865.7,6.1666026
40000000000000000000CC00,1,1477341851208695,1477341851208695,1,3.25,13312,-29.5,865.7,6.1543307
40000000000000000000CC00,1,1477341851215716,1477341851215716,1,4.875,13312,-29.5,865.7,6.148195
40000000000000000000CC00,1,1477341851222783,1477341851222783,1,-2.4375,13312,-29.5,865.7,6.1911464
40000000000000000000CC00,1,1477341851229717,1477341851229717,1,-0.8125,13312,-29.5,865.7,6.1788745
40000000000000000000CC00,1,1477341851236739,1477341851236739,1,5.6875,13312,-29.5,865.7,6.1359234
40000000000000000000CC00,1,1477341851243705,1477341851243705,1,4.875,13312,-29.5,865.7,6.142059
40000000000000000000CC00,1,1477341851250684,1477341851250684,1,0.0,13312,-29.5,865.7,6.1727386
40000000000000000000CC00,1,1477341851257710,1477341851257710,1,0.0,13312,-29.5,865.7,6.1850104
40000000000000000000CC00,1,1477341851264658,1477341851264658,1,1.625,13312,-29.5,865.7,6.1666026
40000000000000000000CC00,1,1477341851271387,1477341851271387,1,2.4375,13312,-29.5,865.7,6.1604667
40000000000000000000CC00,1,1477341851278639,1477341851278639,1,0.8125,13312,-29.5,865.7,6.1727386
40000000000000000000CC00,1,1477341851285341,1477341851285341,1,1.625,13312,-29.5,865.7,6.1666026
40000000000000000000CC00,1,1477341851292312,1477341851292312,1,2.4375,13312,-29.5,865.7,6.1604667
40000000000000000000CC00,1,1477341851299508,1477341851299508,1,0.0,13312,-29.5,865.7,6.1788745
40000000000000000000CC00,1,1477341851306412,1477341851306412,1,1.625,13312,-29.5,865.7,6.1604667
40000000000000000000CC00,1,1477341851313423,1477341851313423,1,-0.8125,13312,-29.5,865.7,6.1788745
40000000000000000000CC00,1,1477341851320135,1477341851320135,1,0.0,13312,-29.5,865.7,6.1788745
40000000000000000000CC00,1,1477341851327100,1477341851327100,1,-1.625,13312,-29.5,865.7,6.1850104
40000000000000000000CC00,1,1477341851334044,1477341851334044,1,2.4375,13312,-29.5,865.7,6.1604667
40000000000000000000CC00,1,1477341851341030,1477341851341030,1,0.0,13312,-29.5,865.7,6.1727386
40000000000000000000CC00,1,1477341851348075,1477341851348075,1,0.8125,13312,-29.5,865.7,6.1666026
40000000000000000000CC00,1,1477341851355261,1477341851355261,1,5.6875,13312,-29.5,865.7,6.1297874
40000000000000000000CC00,1,1477341851361965,1477341851361965,1,3.25,13312,-29.5,865.7,6.1543307
40000000000000000000CC00,1,1477341851369187,1477341851369187,1,-1.625,13312,-29.5,865.7,6.1788745
40000000000000000000CC00,1,1477341851376135,1477341851376135,1,0.0,13312,-29.5,865.7,6.1727386
40000000000000000000CC00,1,1477341851382861,1477341851382861,1,0.8125,13312,-29.5,865.7,6.1666026
40000000000000000000CC00,1,1477341851390031,1477341851390031,1,1.625,13312,-29.5,865.7,6.1604667
40000000000000000000CC00,1,1477341851396680,1477341851396680,1,-0.8125,13312,-29.5,865.7,6.1666026
40000000000000000000CC00,1,1477341851403778,1477341851403778,1,1.625,13312,-29.5,865.7,6.1543307
40000000000000000000CC00,1,1477341851410494,1477341851410494,1,5.6875,13312,-29.5,865.7,6.1297874
40000000000000000000CC00,1,1477341851417721,1477341851417721,1,0.0,13312,-29.5,865.7,6.1666026
40000000000000000000CC00,1,1477341851424681,1477341851424681,1,0.8125,13312,-29.5,865.7,6.1604667
40000000000000000000CC00,1,1477341851431382,1477341851431382,1,1.625,13312,-29.5,865.7,6.1543307
40000000000000000000CC00,1,1477341851438381,1477341851438381,1,4.875,13312,-29.5,865.7,6.1359234
40000000000000000000CC00,1,1477341851445542,1477341851445542,1,5.6875,13312,-29.5,865.7,6.1297874
40000000000000000000CC00,1,1477341851452437,1477341851452437,1,-0.8125,13312,-29.5,865.7,6.1666026
40000000000000000000CC00,1,1477341851459356,1477341851459356,1,1.625,13312,-29.5,865.7,6.1359234
40000000000000000000CC00,1,1477341851466277,1477341851466277,1,1.625,13312,-29.5,865.7,6.142059
40000000000000000000CC00,1,1477341851472993,1477341851472993,1,1.625,13312,-29.5,865.7,6.148195
40000000000000000000CC00,1,1477341851480239,1477341851480239,1,0.0,13312,-29.5,865.7,6.1543307
40000000000000000000CC00,1,1477341851487183,1477341851487183,1,-3.25,13312,-29.5,865.7,6.1788745
40000000000000000000CC00,1,1477341851493938,1477341851493938,1,0.0,13312,-29.5,865.7,6.1666026
40000000000000000000CC00,1,1477341851501113,1477341851501113,1,0.8125,13312,-29.5,865.7,6.148195
40000000000000000000CC00,1,1477341851508155,1477341851508155,1,4.875,13312,-29.5,865.7,6.1175156
40000000000000000000CC00,1,1477341851514870,1477341851514870,1,2.4375,13312,-29.5,865.7,6.1297874
40000000000000000000CC00,1,1477341851522074,1477341851522074,1,0.8125,13312,-29.5,865.7,6.148195
40000000000000000000CC00,1,1477341851528748,1477341851528748,1,0.8125,13312,-29.5,865.7,6.148195
40000000000000000000CC00,1,1477341851535743,1477341851535743,1,-2.4375,13312,-29.5,865.7,6.1543307
40000000000000000000CC00,1,1477341851542790,1477341851542790,1,1.625,13312,-29.5,865.7,6.1297874
40000000000000000000CC00,1,1477341851549711,1477341851549711,1,0.0,13312,-29.5,865.7,6.148195
40000000000000000000CC00,1,1477341851556723,1477341851556723,1,-1.625,13312,-29.5,865.7,6.1543307
40000000000000000000CC00,1,1477341851563704,1477341851563704,1,0.8125,13312,-29.5,865.7,6.1359234
40000000000000000000CC00,1,1477341851570906,1477341851570906,1,2.4375,13312,-29.5,865.7,6.1297874
40000000000000000000CC00,1,1477341851577905,1477341851577905,1,-0.8125,13312,-29.5,865.7,6.148195
40000000000000000000CC00,1,1477341851584866,1477341851584866,1,0.8125,13312,-29.5,865.7,6.1359234
40000000000000000000CC00,1,1477341851591840,1477341851591840,1,0.8125,13312,-29.5,865.7,6.1359234
40000000000000000000CC00,1,1477341851598655,1477341851598655,1,0.8125,13312,-29.5,865.7,6.1297874
40000000000000000000CC00,1,1477341851605619,1477341851605619,1,2.4375,13312,-29.5,865.7,6.1113796
40000000000000000000CC00,1,1477341851612895,1477341851612895,1,2.4375,13312,-29.5,865.7,6.1236515
40000000000000000000CC00,1,1477341851619890,1477341851619890,1,4.875,13312,-29.5,865.7,6.1175156
40000000000000000000CC00,1,1477341851626586,1477341851626586,1,3.25,13312,-29.5,865.7,6.1113796
40000000000000000000CC00,1,1477341851633537,1477341851633537,1,4.875,13312,-29.5,865.7,6.1175156
40000000000000000000CC00,1,1477341851640705,1477341851640705,1,1.625,13312,-29.5,865.7,6.1236515
40000000000000000000CC00,1,1477341851647419,1477341851647419,1,3.25,13312,-29.5,865.7,6.1175156
40000000000000000000CC00,1,1477341851654649,1477341851654649,1,2.4375,13312,-29.5,865.7,6.1175156
40000000000000000000CC00,1,1477341851661342,1477341851661342,1,1.625,13312,-29.5,865.7,6.1236515
40000000000000000000CC00,1,1477341851668268,1477341851668268,1,4.875,13312,-29.5,865.7,6.1052437
40000000000000000000CC00,1,1477341851675377,1477341851675377,1,-0.8125,13312,-29.5,865.7,6.142059
40000000000000000000CC00,1,1477341851682351,1477341851682351,1,4.875,13312,-29.5,865.7,6.1052437
40000000000000000000CC00,1,1477341851689282,1477341851689282,1,2.4375,13312,-29.5,865.7,6.1052437
40000000000000000000CC00,1,1477341851695993,1477341851695993,1,0.8125,13312,-29.5,865.7,6.1113796
40000000000000000000CC00,1,1477341851702903,1477341851702903,1,4.875,13312,-29.5,865.7,6.0991077
40000000000000000000CC00,1,1477341851710102,1477341851710102,1,3.25,13312,-29.5,865.7,6.1052437
40000000000000000000CC00,1,1477341851717088,1477341851717088,1,2.4375,13312,-29.5,865.7,6.1052437
40000000000000000000CC00,1,1477341851723841,1477341851723841,1,0.0,13312,-29.5,865.7,6.1236515
40000000000000000000CC00,1,1477341851731065,1477341851731065,1,0.8125,13312,-29.5,865.7,6.1236515
40000000000000000000CC00,1,1477341851737976,1477341851737976,1,-1.625,13312,-29.5,865.7,6.1359234
40000000000000000000CC00,1,1477341851744976,1477341851744976,1,4.875,13312,-29.5,865.7,6.0991077
40000000000000000000CC00,1,1477341851751641,1477341851751641,1,1.625,13312,-29.5,865.7,6.1113796
40000000000000000000CC00,1,1477341851758848,1477341851758848,1,0.8125,13312,-29.5,865.7,6.1052437
40000000000000000000CC00,1,1477341851765904,1477341851765904,1,0.8125,13312,-29.5,865.7,6.1113796
40000000000000000000CC00,1,1477341851772991,1477341851772991,1,1.625,13312,-29.5,865.7,6.1052437
40000000000000000000CC00,1,1477341851779668,1477341851779668,1,1.625,13312,-29.5,865.7,6.1113796
40000000000000000000CC00,1,1477341851786994,1477341851786994,1,0.8125,13312,-29.5,865.7,6.1052437
40000000000000000000CC00,1,1477341851793925,1477341851793925,1,3.25,13312,-29.5,865.7,6.092972
40000000000000000000CC00,1,1477341851800880,1477341851800880,1,2.4375,13312,-29.5,865.7,6.1052437
40000000000000000000CC00,1,1477341851807830,1477341851807830,1,5.6875,13312,-29.5,865.7,6.086836
40000000000000000000CC00,1,1477341851814483,1477341851814483,1,0.0,13312,-29.5,865.7,6.1113796
40000000000000000000CC00,1,1477341851821481,1477341851821481,1,1.625,13312,-29.5,865.7,6.0991077
40000000000000000000CC00,1,1477341851828668,1477341851828668,1,2.4375,13312,-29.5,865.7,6.092972
40000000000000000000CC00,1,1477341851835372,1477341851835372,1,1.625,13312,-29.5,865.7,6.092972
40000000000000000000CC00,1,1477341851842326,1477341851842326,1,1.625,13312,-29.5,865.7,6.0991077
40000000000000000000CC00,1,1477341851849511,1477341851849511,1,0.8125,13312,-29.5,865.7,6.092972
40000000000000000000CC00,1,1477341851856435,1477341851856435,1,0.0,13312,-29.5,865.7,6.1052437
40000000000000000000CC00,1,1477341851863166,1477341851863166,1,5.6875,13312,-29.5,865.7,6.062292
40000000000000000000CC00,1,1477341851870375,1477341851870375,1,0.8125,13312,-29.5,865.7,6.086836
40000000000000000000CC00,1,1477341851877352,1477341851877352,1,1.625,13312,-29.5,865.7,6.0807
40000000000000000000CC00,1,1477341851884068,1477341851884068,1,2.4375,13312,-29.5,865.7,6.062292
40000000000000000000CC00,1,1477341851891182,1477341851891182,1,1.625,13312,-29.5,865.7,6.074564
40000000000000000000CC00,1,1477341851897936,1477341851897936,1,3.25,13312,-29.5,865.7,6.068428
40000000000000000000CC00,1,1477341851905062,1477341851905062,1,3.25,13312,-29.5,865.7,6.062292
40000000000000000000CC00,1,1477341851911984,1477341851911984,1,2.4375,13312,-29.5,865.7,6.05002
40000000000000000000CC00,1,1477341851918699,1477341851918699,1,1.625,13312,-29.5,865.7,6.05002
40000000000000000000CC00,1,1477341851925699,1477341851925699,1,0.0,13312,-29.5,865.7,6.0438843
40000000000000000000CC00,1,1477341851932948,1477341851932948,1,2.4375,13312,-29.5,865.7,6.0254765
40000000000000000000CC00,1,1477341851939679,1477341851939679,1,0.8125,13312,-29.5,865.7,6.0254765
40000000000000000000CC00,1,1477341851947001,1477341851947001,1,1.625,13312,-29.5,865.7,6.0070686
40000000000000000000CC00,1,1477341851954047,1477341851954047,1,0.8125,13312,-29.5,865.7,6.0009327
40000000000000000000CC00,1,1477341851961118,1477341851961118,1,2.4375,13312,-29.5,865.7,5.976389
40000000000000000000CC00,1,1477341851967933,1477341851967933,1,1.625,13312,-29.5,865.7,5.9641175
40000000000000000000CC00,1,1477341851975267,1477341851975267,1,0.8125,13312,-29.5,865.7,5.9518456
40000000000000000000CC00,1,1477341851982062,1477341851982062,1,2.4375,13312,-29.5,865.7,5.927302
40000000000000000000CC00,1,1477341851989162,1477341851989162,1,1.625,13312,-30.0,865.7,5.91503
40000000000000000000CC00,1,1477341851996377,1477341851996377,1,0.8125,13312,-29.5,865.7,5.902758
40000000000000000000CC00,1,1477341852003178,1477341852003178,1,1.625,13312,-30.0,865.7,5.8904862
40000000000000000000CC00,1,1477341852010258,1477341852010258,1,1.625,13312,-29.5,865.7,5.8843503
40000000000000000000CC00,1,1477341852017643,1477341852017643,1,2.4375,13312,-30.0,865.7,5.8720784
40000000000000000000CC00,1,1477341852024620,1477341852024620,1,3.25,13312,-30.0,865.7,5.8598065
40000000000000000000CC00,1,1477341852031692,1477341852031692,1,3.25,13312,-30.0,865.7,5.8475347
40000000000000000000CC00,1,1477341852038681,1477341852038681,1,1.625,13312,-30.0,865.7,5.8475347
40000000000000000000CC00,1,1477341852045447,1477341852045447,1,1.625,13312,-30.0,865.7,5.8475347
40000000000000000000CC00,1,1477341852052559,1477341852052559,1,4.875,13312,-30.0,865.7,5.822991
40000000000000000000CC00,1,1477341852059851,1477341852059851,1,0.0,13312,-30.0,865.7,5.8475347
40000000000000000000CC00,1,1477341852066657,1477341852066657,1,1.625,13312,-30.0,865.7,5.835263
40000000000000000000CC00,1,1477341852073664,1477341852073664,1,0.8125,13312,-30.0,865.7,5.829127
40000000000000000000CC00,1,1477341852080640,1477341852080640,1,0.0,13312,-30.0,865.7,5.829127
40000000000000000000CC00,1,1477341852087894,1477341852087894,1,1.625,13312,-30.0,865.7,5.810719
40000000000000000000CC00,1,1477341852094930,1477341852094930,1,1.625,13312,-30.0,865.7,5.7984476
40000000000000000000CC00,1,1477341852101974,1477341852101974,1,1.625,13312,-30.0,865.7,5.804583
40000000000000000000CC00,1,1477341852109038,1477341852109038,1,1.625,13312,-30.0,865.7,5.7984476
40000000000000000000CC00,1,1477341852116072,1477341852116072,1,1.625,13312,-30.0,865.7,5.7984476
40000000000000000000CC00,1,1477341852122993,1477341852122993,1,1.625,13312,-30.0,865.7,5.7984476
40000000000000000000CC00,1,1477341852130073,1477341852130073,1,0.0,13312,-30.0,865.7,5.804583
40000000000000000000CC00,1,1477341852137275,1477341852137275,1,2.4375,13312,-30.5,865.7,5.78004
40000000000000000000CC00,1,1477341852144193,1477341852144193,1,1.625,13312,-30.0,865.7,5.7861757
40000000000000000000CC00,1,1477341852151148,1477341852151148,1,2.4375,13312,-30.5,865.7,5.773904
40000000000000000000CC00,1,1477341852158063,1477341852158063,1,3.25,13312,-30.5,865.7,5.767768
40000000000000000000CC00,1,1477341852165039,1477341852165039,1,2.4375,13312,-30.0,865.7,5.767768
40000000000000000000CC00,1,1477341852171938,1477341852171938,1,2.4375,13312,-30.5,865.7,5.767768
40000000000000000000CC00,1,1477341852178892,1477341852178892,1,1.625,13312,-30.5,865.7,5.78004
40000000000000000000CC00,1,1477341852185677,1477341852185677,1,3.25,13312,-30.5,865.7,5.761632
40000000000000000000CC00,1,1477341852192741,1477341852192741,1,3.25,13312,-30.5,865.7,5.761632
40000000000000000000CC00,1,1477341852199989,1477341852199989,1,3.25,13312,-30.5,865.7,5.761632
40000000000000000000CC00,1,1477341852206703,1477341852206703,1,4.875,13312,-30.5,865.7,5.74936
40000000000000000000CC00,1,1477341852213873,1477341852213873,1,0.8125,13312,-30.5,865.7,5.773904
40000000000000000000CC00,1,1477341852220600,1477341852220600,1,0.8125,13312,-30.5,865.7,5.767768
40000000000000000000CC00,1,1477341852227559,1477341852227559,1,2.4375,13312,-30.5,865.7,5.74936
40000000000000000000CC00,1,1477341852234764,1477341852234764,1,5.6875,13312,-30.5,865.7,5.743224
40000000000000000000CC00,1,1477341852241449,1477341852241449,1,3.25,13312,-30.5,865.7,5.755496
40000000000000000000CC00,1,1477341852248344,1477341852248344,1,2.4375,13312,-30.5,865.7,5.761632
40000000000000000000CC00,1,1477341852255280,1477341852255280,1,0.8125,13312,-30.5,865.7,5.767768
40000000000000000000CC00,1,1477341852262452,1477341852262452,1,-0.8125,13312,-30.5,865.7,5.767768
40000000000000000000CC00,1,1477341852269359,1477341852269359,1,-1.625,13312,-30.5,865.7,5.767768
40000000000000000000CC00,1,1477341852276296,1477341852276296,1,0.8125,13312,-30.5,865.7,5.755496
40000000000000000000CC00,1,1477341852283214,1477341852283214,1,1.625,13312,-30.5,865.7,5.761632
40000000000000000000CC00,1,1477341852290215,1477341852290215,1,2.4375,13312,-30.5,865.7,5.74936
40000000000000000000CC00,1,1477341852296932,1477341852296932,1,0.8125,13312,-30.5,865.7,5.74936
40000000000000000000CC00,1,1477341852303889,1477341852303889,1,0.8125,13312,-31.0,865.7,5.767768
40000000000000000000CC00,1,1477341852310884,1477341852310884,1,0.0,13312,-30.5,865.7,5.767768
40000000000000000000CC00,1,1477341852318004,1477341852318004,1,0.0,13312,-30.5,865.7,5.767768
40000000000000000000CC00,1,1477341852324706,1477341852324706,1,1.625,13312,-30.5,865.7,5.761632
40000000000000000000CC00,1,1477341852331698,1477341852331698,1,1.625,13312,-30.5,865.7,5.74936
40000000000000000000CC00,1,1477341852338915,1477341852338915,1,-2.4375,13312,-30.5,865.7,5.773904
40000000000000000000CC00,1,1477341852345586,1477341852345586,1,1.625,13312,-30.5,865.7,5.74936
40000000000000000000CC00,1,1477341852352843,1477341852352843,1,1.625,13312,-30.5,865.7,5.74936
40000000000000000000CC00,1,1477341852359556,1477341852359556,1,1.625,13312,-30.5,865.7,5.74936
40000000000000000000CC00,1,1477341852366465,1477341852366465,1,0.8125,13312,-30.5,865.7,5.74936
40000000000000000000CC00,1,1477341852373683,1477341852373683,1,1.625,13312,-31.0,865.7,5.755496
40000000000000000000CC00,1,1477341852380381,1477341852380381,1,0.0,13312,-31.0,865.7,5.755496
40000000000000000000CC00,1,1477341852387595,1477341852387595,1,-1.625,13312,-30.5,865.7,5.773904
40000000000000000000CC00,1,1477341852394377,1477341852394377,1,-2.4375,13312,-30.5,865.7,5.78004
40000000000000000000CC00,1,1477341852401310,1477341852401310,1,1.625,13312,-31.0,865.7,5.743224
40000000000000000000CC00,1,1477341852409706,1477341852409706,1,3.25,13312,-30.5,865.7,5.743224
40000000000000000000CC00,1,1477341852416931,1477341852416931,1,5.6875,13312,-31.0,865.7,5.737088
40000000000000000000CC00,1,1477341852423631,1477341852423631,1,1.625,13312,-30.5,865.7,5.74936
40000000000000000000CC00,1,1477341852430813,1477341852430813,1,4.875,13312,-30.5,865.7,5.7309523
40000000000000000000CC00,1,1477341852437533,1477341852437533,1,-0.8125,13312,-30.5,865.7,5.773904
40000000000000000000CC00,1,1477341852444765,1477341852444765,1,1.625,13312,-31.0,865.7,5.755496
40000000000000000000CC00,1,1477341852451477,1477341852451477,1,1.625,13312,-31.0,865.7,5.755496
40000000000000000000CC00,1,1477341852458389,1477341852458389,1,-0.8125,13312,-30.5,865.7,5.767768
40000000000000000000CC00,1,1477341852465583,1477341852465583,1,2.4375,13312,-31.0,865.7,5.74936
40000000000000000000CC00,1,1477341852472308,1477341852472308,1,1.625,13312,-31.0,865.7,5.755496
40000000000000000000CC00,1,1477341852479493,1477341852479493,1,1.625,13312,-31.0,865.7,5.755496
40000000000000000000CC00,1,1477341852486209,1477341852486209,1,1.625,13312,-31.0,865.7,5.761632
40000000000000000000CC00,1,1477341852493128,1477341852493128,1,1.625,13312,-31.0,865.7,5.761632
40000000000000000000CC00,1,1477341852500348,1477341852500348,1,-0.8125,13312,-31.0,865.7,5.767768
40000000000000000000CC00,1,1477341852507298,1477341852507298,1,1.625,13312,-31.0,865.7,5.767768
40000000000000000000CC00,1,1477341852514005,1477341852514005,1,0.8125,13312,-31.0,865.7,5.767768
40000000000000000000CC00,1,1477341852521205,1477341852521205,1,1.625,13312,-31.0,865.7,5.767768
40000000000000000000CC00,1,1477341852527854,1477341852527854,1,0.0,13312,-31.0,865.7,5.767768
40000000000000000000CC00,1,1477341852534780,1477341852534780,1,-0.8125,13312,-31.0,865.7,5.767768
40000000000000000000CC00,1,1477341852541689,1477341852541689,1,0.8125,13312,-31.0,865.7,5.773904
40000000000000000000CC00,1,1477341852548679,1477341852548679,1,0.0,13312,-31.0,865.7,5.78004
40000000000000000000CC00,1,1477341852555625,1477341852555625,1,0.8125,13312,-31.0,865.7,5.773904
40000000000000000000CC00,1,1477341852562663,1477341852562663,1,4.875,13312,-31.0,865.7,5.767768
40000000000000000000CC00,1,1477341852569632,1477341852569632,1,1.625,13312,-31.0,865.7,5.78004
40000000000000000000CC00,1,1477341852576882,1477341852576882,1,2.4375,13312,-31.0,865.7,5.773904
40000000000000000000CC00,1,1477341852583854,1477341852583854,1,2.4375,13312,-31.0,865.7,5.773904
40000000000000000000CC00,1,1477341852590844,1477341852590844,1,4.875,13312,-31.0,865.7,5.773904
40000000000000000000CC00,1,1477341852597871,1477341852597871,1,2.4375,13312,-31.0,865.7,5.7861757
40000000000000000000CC00,1,1477341852605000,1477341852605000,1,1.625,13312,-31.0,865.7,5.7923117
40000000000000000000CC00,1,1477341852611711,1477341852611711,1,2.4375,13312,-31.0,865.7,5.7923117
40000000000000000000CC00,1,1477341852618770,1477341852618770,1,1.625,13312,-31.0,865.7,5.7984476
40000000000000000000CC00,1,1477341852625772,1477341852625772,1,1.625,13312,-31.0,865.7,5.7984476
40000000000000000000CC00,1,1477341852632800,1477341852632800,1,3.25,13312,-31.0,865.7,5.804583
40000000000000000000CC00,1,1477341852639753,1477341852639753,1,1.625,13312,-31.0,865.7,5.810719
40000000000000000000CC00,1,1477341852646710,1477341852646710,1,2.4375,13312,-31.0,865.7,5.816855
40000000000000000000CC00,1,1477341852653904,1477341852653904,1,1.625,13312,-31.0,865.7,5.816855
40000000000000000000CC00,1,1477341852660620,1477341852660620,1,1.625,13312,-30.5,865.7,5.822991
40000000000000000000CC00,1,1477341852667856,1477341852667856,1,0.8125,13312,-31.0,865.7,5.835263
40000000000000000000CC00,1,1477341852674526,1477341852674526,1,0.0,13312,-30.5,865.7,5.8413987
40000000000000000000CC00,1,1477341852681471,1477341852681471,1,4.875,13312,-30.5,865.7,5.829127
40000000000000000000CC00,1,1477341852688686,1477341852688686,1,1.625,13312,-30.5,865.7,5.835263
40000000000000000000CC00,1,1477341852695368,1477341852695368,1,-0.8125,13312,-31.0,865.7,5.8598065
40000000000000000000CC00,1,1477341852702583,1477341852702583,1,0.8125,13312,-30.5,865.7,5.8475347
40000000000000000000CC00,1,1477341852709517,1477341852709517,1,3.25,13312,-30.5,865.7,5.8475347
40000000000000000000CC00,1,1477341852717906,1477341852717906,1,2.4375,13312,-31.0,865.7,5.8598065
40000000000000000000CC00,1,1477341852724663,1477341852724663,1,1.625,13312,-31.0,865.7,5.8659425
40000000000000000000CC00,1,1477341852731637,1477341852731637,1,4.875,13312,-30.5,865.7,5.8598065
40000000000000000000CC00,1,1477341852738618,1477341852738618,1,0.8125,13312,-31.0,865.7,5.8904862
40000000000000000000CC00,1,1477341852745836,1477341852745836,1,1.625,13312,-31.0,865.7,5.8904862
40000000000000000000CC00,1,1477341852752650,1477341852752650,1,0.0,13312,-30.5,865.7,5.902758
40000000000000000000CC00,1,1477341852759632,1477341852759632,1,0.0,13312,-30.5,865.7,5.908894
40000000000000000000CC00,1,1477341852766890,1477341852766890,1,3.25,13312,-30.5,865.7,5.8904862
40000000000000000000CC00,1,1477341852773821,1477341852773821,1,1.625,13312,-30.5,865.7,5.91503
40000000000000000000CC00,1,1477341852780783,1477341852780783,1,-1.625,13312,-30.5,865.7,5.939574
40000000000000000000CC00,1,1477341852787545,1477341852787545,1,3.25,13312,-30.5,865.7,5.921166
40000000000000000000CC00,1,1477341852794468,1477341852794468,1,0.0,13312,-30.5,865.7,5.933438
40000000000000000000CC00,1,1477341852801629,1477341852801629,1,3.25,13312,-30.5,865.7,5.927302
40000000000000000000CC00,1,1477341852808582,1477341852808582,1,0.8125,13312,-30.5,865.7,5.9579816
40000000000000000000CC00,1,1477341852815356,1477341852815356,1,1.625,13312,-30.5,865.7,5.9457097
40000000000000000000CC00,1,1477341852822536,1477341852822536,1,-1.625,13312,-30.5,865.7,5.982525
40000000000000000000CC00,1,1477341852829558,1477341852829558,1,1.625,13312,-30.5,865.7,5.9579816
40000000000000000000CC00,1,1477341852836576,1477341852836576,1,4.875,13312,-30.5,865.7,5.982525
40000000000000000000CC00,1,1477341852843274,1477341852843274,1,1.625,13312,-30.5,865.7,5.982525
40000000000000000000CC00,1,1477341852850506,1477341852850506,1,-0.8125,13312,-30.5,865.7,6.0070686
40000000000000000000CC00,1,1477341852857444,1477341852857444,1,3.25,13312,-30.5,865.7,5.9947968
40000000000000000000CC00,1,1477341852864172,1477341852864172,1,2.4375,13312,-30.5,865.7,6.0193405
40000000000000000000CC00,1,1477341852871445,1477341852871445,1,1.625,13312,-31.0,865.7,6.0377483
40000000000000000000CC00,1,1477341852878371,1477341852878371,1,0.8125,13312,-30.5,865.7,6.062292
40000000000000000000CC00,1,1477341852885311,1477341852885311,1,2.4375,13312,-30.5,865.7,6.056156
40000000000000000000CC00,1,1477341852892007,1477341852892007,1,1.625,13312,-30.5,865.7,6.0807
40000000000000000000CC00,1,1477341852899201,1477341852899201,1,1.625,13312,-30.5,865.7,6.086836
40000000000000000000CC00,1,1477341852906166,1477341852906166,1,1.625,13312,-31.0,865.7,6.092972
40000000000000000000CC00,1,1477341852913127,1477341852913127,1,2.4375,13312,-30.5,865.7,6.1113796
40000000000000000000CC00,1,1477341852920119,1477341852920119,1,1.625,13312,-30.5,865.7,6.1236515
40000000000000000000CC00,1,1477341852926802,1477341852926802,1,1.625,13312,-30.5,865.7,6.1359234
40000000000000000000CC00,1,1477341852933987,1477341852933987,1,1.625,13312,-30.5,865.7,6.1604667
40000000000000000000CC00,1,1477341852940660,1477341852940660,1,0.8125,13312,-30.5,865.7,6.1788745
40000000000000000000CC00,1,1477341852947874,1477341852947874,1,1.625,13312,-30.5,865.7,6.1850104
40000000000000000000CC00,1,1477341852954529,1477341852954529,1,-0.8125,13312,-30.5,865.7,6.209554
40000000000000000000CC00,1,1477341852961465,1477341852961465,1,0.0,13312,-31.0,865.7,6.221826
40000000000000000000CC00,1,1477341852968637,1477341852968637,1,-2.4375,13312,-31.0,865.7,6.252506
40000000000000000000CC00,1,1477341852975359,1477341852975359,1,-0.8125,13312,-31.0,865.7,6.2586417
40000000000000000000CC00,1,1477341852982339,1477341852982339,1,-1.625,13312,-31.0,865.7,6.2770495
40000000000000000000CC00,1,1477341852989383,1477341852989383,1,4.875,13312,-31.0,865.7,6.2586417
40000000000000000000CC00,1,1477341852996361,1477341852996361,1,2.4375,13312,-31.0,865.7,0.0
40000000000000000000CC00,1,1477341853003510,1477341853003510,1,0.8125,13312,-31.0,865.7,0.024543693
40000000000000000000CC00,1,1477341853010426,1477341853010426,1,0.0,13312,-31.0,865.7,0.030679615
40000000000000000000CC00,1,1477341853017110,1477341853017110,1,1.625,13312,-30.5,865.7,0.03681554
40000000000000000000CC00,1,1477341853024082,1477341853024082,1,0.8125,13312,-30.5,865.7,0.05522331
40000000000000000000CC00,1,1477341853031326,1477341853031326,1,0.8125,13312,-31.0,865.7,0.07363108
40000000000000000000CC00,1,1477341853038247,1477341853038247,1,-0.8125,13312,-30.5,865.7,0.08590292
40000000000000000000CC00,1,1477341853044958,1477341853044958,1,2.4375,13312,-30.5,865.7,0.079767
40000000000000000000CC00,1,1477341853051876,1477341853051876,1,1.625,13312,-30.5,865.7,0.09817477
40000000000000000000CC00,1,1477341853059044,1477341853059044,1,0.8125,13312,-30.5,865.7,0.11044662
40000000000000000000CC00,1,1477341853065715,1477341853065715,1,2.4375,13312,-30.5,865.7,0.11044662
40000000000000000000CC00,1,1477341853072779,1477341853072779,1,2.4375,13312,-30.5,865.7,0.12885438
40000000000000000000CC00,1,1477341853079962,1477341853079962,1,0.8125,13312,-30.5,865.7,0.14726216
40000000000000000000CC00,1,1477341853086935,1477341853086935,1,0.0,13312,-30.5,865.7,0.159534
40000000000000000000CC00,1,1477341853093881,1477341853093881,1,1.625,13312,-30.5,865.7,0.159534
40000000000000000000CC00,1,1477341853100792,1477341853100792,1,3.25,13312,-30.5,865.7,0.16566992
40000000000000000000CC00,1,1477341853107478,1477341853107478,1,3.25,13312,-30.5,865.7,0.1840777
40000000000000000000CC00,1,1477341853114715,1477341853114715,1,2.4375,13312,-30.5,865.7,0.20248546
40000000000000000000CC00,1,1477341853121650,1477341853121650,1,0.8125,13312,-30.5,865.7,0.20862138
40000000000000000000CC00,1,1477341853128341,1477341853128341,1,0.8125,13312,-30.5,865.7,0.22089323
40000000000000000000CC00,1,1477341853135213,1477341853135213,1,1.625,13312,-30.5,865.7,0.22702916
40000000000000000000CC00,1,1477341853142164,1477341853142164,1,2.4375,13312,-30.5,865.7,0.22702916
40000000000000000000CC00,1,1477341853149100,1477341853149100,1,3.25,13312,-30.5,865.7,0.22702916
40000000000000000000CC00,1,1477341853156262,1477341853156262,1,2.4375,13312,-30.5,865.7,0.239301
40000000000000000000CC00,1,1477341853163190,1477341853163190,1,2.4375,13312,-31.0,865.7,0.239301
40000000000000000000CC00,1,1477341853170112,1477341853170112,1,0.0,13312,-30.5,865.7,0.25770876
40000000000000000000CC00,1,1477341853176787,1477341853176787,1,3.25,13312,-30.5,865.7,0.25157285
40000000000000000000CC00,1,1477341853183817,1477341853183817,1,2.4375,13312,-31.0,865.7,0.2638447
40000000000000000000CC00,1,1477341853190974,1477341853190974,1,0.8125,13312,-30.5,865.7,0.28225246
40000000000000000000CC00,1,1477341853197617,1477341853197617,1,3.25,13312,-30.5,865.7,0.27611655
40000000000000000000CC00,1,1477341853204556,1477341853204556,1,0.8125,13312,-31.0,865.7,0.2945243
40000000000000000000CC00,1,1477341853211540,1477341853211540,1,0.0,13312,-30.5,865.7,0.30679616
40000000000000000000CC00,1,1477341853218469,1477341853218469,1,2.4375,13312,-31.0,865.7,0.30679616
40000000000000000000CC00,1,1477341853225368,1477341853225368,1,-0.8125,13312,-31.0,865.7,0.33133984
40000000000000000000CC00,1,1477341853232372,1477341853232372,1,2.4375,13312,-31.0,865.7,0.319068
40000000000000000000CC00,1,1477341853239396,1477341853239396,1,2.4375,13312,-31.0,865.7,0.33133984
40000000000000000000CC00,1,1477341853246533,1477341853246533,1,4.875,13312,-31.0,865.7,0.33133984
40000000000000000000CC00,1,1477341853253263,1477341853253263,1,2.4375,13312,-31.0,865.7,0.3436117
40000000000000000000CC00,1,1477341853260436,1477341853260436,1,0.0,13312,-31.0,865.7,0.3681554
40000000000000000000CC00,1,1477341853267137,1477341853267137,1,1.625,13312,-31.0,865.7,0.3681554
40000000000000000000CC00,1,1477341853274338,1477341853274338,1,1.625,13312,-31.0,865.7,0.38042724
40000000000000000000CC00,1,1477341853281280,1477341853281280,1,3.25,13312,-31.0,865.7,0.3742913
40000000000000000000CC00,1,1477341853288245,1477341853288245,1,0.0,13312,-31.0,865.7,0.398835
40000000000000000000CC00,1,1477341853295242,1477341853295242,1,2.4375,13312,-31.0,865.7,0.398835
40000000000000000000CC00,1,1477341853301882,1477341853301882,1,1.625,13312,-31.0,865.7,0.4049709
40000000000000000000CC00,1,1477341853309106,1477341853309106,1,3.25,13312,-31.5,865.7,0.41110685
40000000000000000000CC00,1,1477341853316091,1477341853316091,1,1.625,13312,-31.0,865.7,0.4233787
40000000000000000000CC00,1,1477341853323126,1477341853323126,1,3.25,13312,-31.0,865.7,0.42951462
40000000000000000000CC00,1,1477341853330056,1477341853330056,1,0.8125,13312,-31.5,865.7,0.44792238
40000000000000000000CC00,1,1477341853337024,1477341853337024,1,1.625,13312,-31.0,865.7,0.45405832
40000000000000000000CC00,1,1477341853343698,1477341853343698,1,3.25,13312,-31.0,865.7,0.45405832
40000000000000000000CC00,1,1477341853350875,1477341853350875,1,3.25,13312,-31.5,865.7,0.46019423
40000000000000000000CC00,1,1477341853357587,1477341853357587,1,3.25,13312,-31.0,865.7,0.47246608
40000000000000000000CC00,1,1477341853364797,1477341853364797,1,2.4375,13312,-31.5,865.7,0.49087384
40000000000000000000CC00,1,1477341853371413,1477341853371413,1,2.4375,13312,-31.0,865.7,0.48473793
40000000000000000000CC00,1,1477341853378632,1477341853378632,1,2.4375,13312,-31.5,865.7,0.49700978
40000000000000000000CC00,1,1477341853385303,1477341853385303,1,0.0,13312,-31.5,865.7,0.50928164
40000000000000000000CC00,1,1477341853392246,1477341853392246,1,2.4375,13312,-31.5,865.7,0.5154175
40000000000000000000CC00,1,1477341853399238,1477341853399238,1,2.4375,13312,-31.5,865.7,0.5154175
40000000000000000000CC00,1,1477341853406233,1477341853406233,1,3.25,13312,-31.5,865.7,0.5276894
40000000000000000000CC00,1,1477341853413437,1477341853413437,1,2.4375,13312,-31.5,865.7,0.5276894
40000000000000000000CC00,1,1477341853420149,1477341853420149,1,2.4375,13312,-31.5,865.7,0.5399612
40000000000000000000CC00,1,1477341853427312,1477341853427312,1,4.875,13312,-31.5,865.7,0.53382534
40000000000000000000CC00,1,1477341853434045,1477341853434045,1,5.6875,13312,-31.5,865.7,0.5399612
40000000000000000000CC00,1,1477341853440961,1477341853440961,1,3.25,13312,-31.5,865.7,0.54609716
40000000000000000000CC00,1,1477341853448239,1477341853448239,1,0.8125,13312,-31.5,865.7,0.558369
40000000000000000000CC00,1,1477341853454937,1477341853454937,1,-0.8125,13312,-31.5,865.7,0.5829127
40000000000000000000CC00,1,1477341853462149,1477341853462149,1,2.4375,13312,-32.0,865.7,0.57064086
40000000000000000000CC00,1,1477341853468836,1477341853468836,1,2.4375,13312,-32.0,865.7,0.57064086
40000000000000000000CC00,1,1477341853475718,1477341853475718,1,0.8125,13312,-32.0,865.7,0.57064086
40000000000000000000CC00,1,1477341853482749,1477341853482749,1,3.25,13312,-32.0,865.7,0.5645049
40000000000000000000CC00,1,1477341853489989,1477341853489989,1,2.4375,13312,-32.0,865.7,0.5767768
40000000000000000000CC00,1,1477341853496718,1477341853496718,1,2.4375,13312,-31.5,865.7,0.5829127
40000000000000000000CC00,1,1477341853503694,1477341853503694,1,1.625,13312,-32.0,865.7,0.5890486
40000000000000000000CC00,1,1477341853510883,1477341853510883,1,1.625,13312,-31.5,865.7,0.5890486
40000000000000000000CC00,1,1477341853517824,1477341853517824,1,2.4375,13312,-31.5,865.7,0.59518456
40000000000000000000CC00,1,1477341853524512,1477341853524512,1,3.25,13312,-31.5,865.7,0.59518456
40000000000000000000CC00,1,1477341853531557,1477341853531557,1,3.25,13312,-32.0,865.7,0.5890486
40000000000000000000CC00,1,1477341853538764,1477341853538764,1,0.0,13312,-32.0,865.7,0.6074564
40000000000000000000CC00,1,1477341853545507,1477341853545507,1,4.875,13312,-31.5,865.7,0.59518456
40000000000000000000CC00,1,1477341853552778,1477341853552778,1,4.875,13312,-31.5,865.7,0.5890486
40000000000000000000CC00,1,1477341853559469,1477341853559469,1,0.8125,13312,-32.0,865.7,0.6135923
40000000000000000000CC00,1,1477341853566667,1477341853566667,1,1.625,13312,-32.0,865.7,0.6135923
40000000000000000000CC00,1,1477341853573629,1477341853573629,1,1.625,13312,-32.0,865.7,0.61972827
40000000000000000000CC00,1,1477341853580577,1477341853580577,1,0.8125,13312,-32.0,865.7,0.638136
40000000000000000000CC00,1,1477341853587281,1477341853587281,1,3.25,13312,-32.0,865.7,0.61972827
40000000000000000000CC00,1,1477341853594269,1477341853594269,1,6.5,13312,-32.0,865.7,0.61972827
40000000000000000000CC00,1,1477341853601209,1477341853601209,1,3.25,13312,-32.0,865.7,0.6442719
40000000000000000000CC00,1,1477341853608121,1477341853608121,1,5.6875,13312,-32.0,865.7,0.6442719
40000000000000000000CC00,1,1477341853615351,1477341853615351,1,0.8125,13312,-32.0,865.7,0.6810875
40000000000000000000CC00,1,1477341853622302,1477341853622302,1,4.875,13312,-32.0,865.7,0.67495155
40000000000000000000CC00,1,1477341853628988,1477341853628988,1,1.625,13312,-32.0,865.7,0.6933593
40000000000000000000CC00,1,1477341853636184,1477341853636184,1,1.625,13312,-32.0,865.7,0.70563114
40000000000000000000CC00,1,1477341853643138,1477341853643138,1,1.625,13312,-32.0,865.7,0.7117671
40000000000000000000CC00,1,1477341853650137,1477341853650137,1,0.8125,13312,-32.0,865.7,0.72403896
40000000000000000000CC00,1,1477341853657133,1477341853657133,1,0.0,13312,-32.0,865.7,0.7363108
40000000000000000000CC00,1,1477341853663869,1477341853663869,1,1.625,13312,-32.0,865.7,0.7424467
40000000000000000000CC00,1,1477341853671117,1477341853671117,1,2.4375,13312,-32.0,865.7,0.7424467
40000000000000000000CC00,1,1477341853678030,1477341853678030,1,0.8125,13312,-32.0,865.7,0.7608545
40000000000000000000CC00,1,1477341853684726,1477341853684726,1,0.8125,13312,-32.0,865.7,0.7669904
40000000000000000000CC00,1,1477341853691689,1477341853691689,1,0.8125,13312,-32.0,865.7,0.7669904
40000000000000000000CC00,1,1477341853698947,1477341853698947,1,1.625,13312,-32.0,865.7,0.7731263
40000000000000000000CC00,1,1477341853705662,1477341853705662,1,1.625,13312,-32.0,865.7,0.7853982
40000000000000000000CC00,1,1477341853712698,1477341853712698,1,0.8125,13312,-32.0,865.7,0.80380595
40000000000000000000CC00,1,1477341853719613,1477341853719613,1,-1.625,13312,-32.0,865.7,0.83448553
40000000000000000000CC00,1,1477341853726774,1477341853726774,1,1.625,13312,-31.5,865.7,0.83448553
40000000000000000000CC00,1,1477341853733669,1477341853733669,1,2.4375,13312,-31.5,865.7,0.8467574
40000000000000000000CC00,1,1477341853740554,1477341853740554,1,3.25,13312,-31.5,865.7,0.8713011
40000000000000000000CC00,1,1477341853747281,1477341853747281,1,2.4375,13312,-31.5,865.7,0.8897089
40000000000000000000CC00,1,1477341853754442,1477341853754442,1,3.25,13312,-31.0,865.7,0.9142526
40000000000000000000CC00,1,1477341853761160,1477341853761160,1,4.875,13312,-31.0,865.7,0.92038846
40000000000000000000CC00,1,1477341853768445,1477341853768445,1,6.5,13312,-31.0,865.7,0.93266034
40000000000000000000CC00,1,1477341853775119,1477341853775119,1,1.625,13312,-31.0,865.7,0.96947587
40000000000000000000CC00,1,1477341853782289,1477341853782289,1,1.625,13312,-31.0,865.7,0.9878836
40000000000000000000CC00,1,1477341853789039,1477341853789039,1,3.25,13312,-31.0,865.7,0.99401957
40000000000000000000CC00,1,1477341853795981,1477341853795981,1,2.4375,13312,-31.0,865.7,1.0124273
40000000000000000000CC00,1,1477341853803154,1477341853803154,1,2.4375,13312,-31.0,865.7,1.0246992
40000000000000000000CC00,1,1477341853810120,1477341853810120,1,2.4375,13312,-30.5,865.7,1.030835
40000000000000000000CC00,1,1477341853817103,1477341853817103,1,1.625,13312,-31.0,865.7,1.036971
40000000000000000000CC00,1,1477341853824033,1477341853824033,1,1.625,13312,-31.0,865.7,1.036971
40000000000000000000CC00,1,1477341853830948,1477341853830948,1,4.875,13312,-30.5,865.7,1.0553788
40000000000000000000CC00,1,1477341853837602,1477341853837602,1,6.5,13312,-30.5,865.7,1.0431069
40000000000000000000CC00,1,1477341853844796,1477341853844796,1,0.8125,13312,-30.5,865.7,1.0860584
40000000000000000000CC00,1,1477341853851468,1477341853851468,1,1.625,13312,-30.5,865.7,1.0983303
40000000000000000000CC00,1,1477341853858367,1477341853858367,1,5.6875,13312,-30.5,865.7,1.1044662
40000000000000000000CC00,1,1477341853865406,1477341853865406,1,0.0,13312,-30.5,865.7,1.1412817
40000000000000000000CC00,1,1477341853872352,1477341853872352,1,2.4375,13312,-30.5,865.7,1.1474177
40000000000000000000CC00,1,1477341853879591,1477341853879591,1,1.625,13312,-30.0,865.7,1.1658254
40000000000000000000CC00,1,1477341853886262,1477341853886262,1,1.625,13312,-30.5,865.7,1.1903691
40000000000000000000CC00,1,1477341853893474,1477341853893474,1,3.25,13312,-30.5,865.7,1.1903691
40000000000000000000CC00,1,1477341853900131,1477341853900131,1,1.625,13312,-30.5,865.7,1.2210487
40000000000000000000CC00,1,1477341853907070,1477341853907070,1,3.25,13312,-30.5,865.7,1.2271847
40000000000000000000CC00,1,1477341853914063,1477341853914063,1,2.4375,13312,-30.0,865.7,1.2394565
40000000000000000000CC00,1,1477341853921014,1477341853921014,1,2.4375,13312,-30.0,865.7,1.2578642
40000000000000000000CC00,1,1477341853928268,1477341853928268,1,5.6875,13312,-30.0,865.7,1.2578642
40000000000000000000CC00,1,1477341853935281,1477341853935281,1,2.4375,13312,-30.0,865.7,1.276272
40000000000000000000CC00,1,1477341853942036,1477341853942036,1,2.4375,13312,-30.0,865.7,1.2824079
40000000000000000000CC00,1,1477341853948987,1477341853948987,1,0.8125,13312,-30.0,865.7,1.2946798
40000000000000000000CC00,1,1477341853955948,1477341853955948,1,2.4375,13312,-30.0,865.7,1.2946798
40000000000000000000CC00,1,1477341853962873,1477341853962873,1,1.625,13312,-29.5,865.7,1.3069516
40000000000000000000CC00,1,1477341853969829,1477341853969829,1,3.25,13312,-29.5,865.7,1.3008157
40000000000000000000CC00,1,1477341853976767,1477341853976767,1,1.625,13312,-29.5,865.7,1.3314953
40000000000000000000CC00,1,1477341853983959,1477341853983959,1,1.625,13312,-29.5,865.7,1.3314953
40000000000000000000CC00,1,1477341853990871,1477341853990871,1,2.4375,13312,-29.5,865.7,1.3253593
40000000000000000000CC00,1,1477341853997662,1477341853997662,1,5.6875,13312,-29.5,865.7,1.3192235
40000000000000000000CC00,1,1477341854004875,1477341854004875,1,3.25,13312,-29.0,865.7,1.3314953
40000000000000000000CC00,1,1477341854011625,1477341854011625,1,4.875,13312,-29.5,865.7,1.3314953
40000000000000000000CC00,1,1477341854018793,1477341854018793,1,2.4375,13312,-29.5,865.7,1.3437672
40000000000000000000CC00,1,1477341854025789,1477341854025789,1,2.4375,13312,-29.0,865.7,1.3499031
40000000000000000000CC00,1,1477341854032829,1477341854032829,1,2.4375,13312,-29.0,865.7,1.3499031
40000000000000000000CC00,1,1477341854039755,1477341854039755,1,3.25,13312,-29.0,865.7,1.3437672
40000000000000000000CC00,1,1477341854046773,1477341854046773,1,4.875,13312,-29.0,865.7,1.3437672
40000000000000000000CC00,1,1477341854053447,1477341854053447,1,7.3125,13312,-28.5,865.7,1.3253593
40000000000000000000CC00,1,1477341854060640,1477341854060640,1,5.6875,13312,-28.5,865.7,1.3253593
40000000000000000000CC00,1,1477341854067353,1477341854067353,1,3.25,13312,-28.5,865.7,1.3376312
40000000000000000000CC00,1,1477341854074392,1477341854074392,1,6.5,13312,-28.5,865.7,1.3192235
40000000000000000000CC00,1,1477341854081334,1477341854081334,1,3.25,13312,-28.0,865.7,1.3253593
40000000000000000000CC00,1,1477341854088553,1477341854088553,1,4.875,13312,-28.5,865.7,1.3130876
40000000000000000000CC00,1,1477341854095298,1477341854095298,1,3.25,13312,-28.0,865.7,1.3130876
40000000000000000000CC00,1,1477341854102477,1477341854102477,1,3.25,13312,-28.0,865.7,1.3130876
40000000000000000000CC00,1,1477341854109362,1477341854109362,1,7.3125,13312,-28.0,865.7,1.2824079
40000000000000000000CC00,1,1477341854116118,1477341854116118,1,4.875,13312,-28.0,865.7,1.2885438
40000000000000000000CC00,1,1477341854123234,1477341854123234,1,5.6875,13312,-28.0,865.7,1.2701361
40000000000000000000CC00,1,1477341854129975,1477341854129975,1,2.4375,13312,-27.5,865.7,1.276272
40000000000000000000CC00,1,1477341854137146,1477341854137146,1,3.25,13312,-27.5,865.7,1.2640002
40000000000000000000CC00,1,1477341854143852,1477341854143852,1,4.875,13312,-27.5,865.7,1.2578642
40000000000000000000CC00,1,1477341854151051,1477341854151051,1,5.6875,13312,-27.5,865.7,1.2455924
40000000000000000000CC00,1,1477341854157725,1477341854157725,1,4.875,13312,-27.0,865.7,1.2455924
40000000000000000000CC00,1,1477341854164914,1477341854164914,1,5.6875,13312,-27.0,865.7,1.2271847
40000000000000000000CC00,1,1477341854171627,1477341854171627,1,4.875,13312,-27.0,865.7,1.2271847
40000000000000000000CC00,1,1477341854178527,1477341854178527,1,4.875,13312,-27.0,865.7,1.2149128
40000000000000000000CC00,1,1477341854185519,1477341854185519,1,4.875,13312,-27.0,865.7,1.2026409
40000000000000000000CC00,1,1477341854192787,1477341854192787,1,5.6875,13312,-27.0,865.7,1.1903691
40000000000000000000CC00,1,1477341854199509,1477341854199509,1,4.875,13312,-26.5,865.7,1.1842332
40000000000000000000CC00,1,1477341854206432,1477341854206432,1,4.875,13312,-26.5,865.7,1.1780972
40000000000000000000CC00,1,1477341854213608,1477341854213608,1,4.875,13312,-26.5,865.7,1.1658254
40000000000000000000CC00,1,1477341854220291,1477341854220291,1,3.25,13312,-26.5,865.7,1.1596894
40000000000000000000CC00,1,1477341854227216,1477341854227216,1,4.875,13312,-26.5,865.7,1.1535536
40000000000000000000CC00,1,1477341854234383,1477341854234383,1,3.25,13312,-26.5,865.7,1.1474177
40000000000000000000CC00,1,1477341854241079,1477341854241079,1,3.25,13312,-26.5,865.7,1.1351458
40000000000000000000CC00,1,1477341854248021,1477341854248021,1,5.6875,13312,-26.5,865.7,1.1228739
40000000000000000000CC00,1,1477341854254982,1477341854254982,1,4.875,13312,-26.0,865.7,1.116738
40000000000000000000CC00,1,1477341854261926,1477341854261926,1,5.6875,13312,-26.0,865.7,1.1044662
40000000000000000000CC00,1,1477341854268924,1477341854268924,1,3.25,13312,-26.0,865.7,1.1044662
40000000000000000000CC00,1,1477341854276157,1477341854276157,1,4.875,13312,-26.5,865.7,1.0860584
40000000000000000000CC00,1,1477341854282978,1477341854282978,1,2.4375,13312,-26.0,865.7,1.0860584
40000000000000000000CC00,1,1477341854290258,1477341854290258,1,5.6875,13312,-26.0,865.7,1.0615147
40000000000000000000CC00,1,1477341854296981,1477341854296981,1,3.25,13312,-26.0,865.7,1.0431069
40000000000000000000CC00,1,1477341854304152,1477341854304152,1,2.4375,13312,-26.0,865.7,1.0246992
40000000000000000000CC00,1,1477341854310891,1477341854310891,1,5.6875,13312,-25.5,865.7,0.99401957
40000000000000000000CC00,1,1477341854318053,1477341854318053,1,3.25,13312,-26.0,865.7,0.9756118
40000000000000000000CC00,1,1477341854324779,1477341854324779,1,6.5,13312,-25.5,865.7,0.9510681
40000000000000000000CC00,1,1477341854331690,1477341854331690,1,0.8125,13312,-25.5,865.7,0.9510681
40000000000000000000CC00,1,1477341854338870,1477341854338870,1,1.625,13312,-26.0,865.7,0.9142526
40000000000000000000CC00,1,1477341854345513,1477341854345513,1,3.25,13312,-25.5,865.7,0.8897089
40000000000000000000CC00,1,1477341854352514,1477341854352514,1,2.4375,13312,-26.0,865.7,0.85902923
40000000000000000000CC00,1,1477341854359491,1477341854359491,1,2.4375,13312,-25.5,865.7,0.83448553
40000000000000000000CC00,1,1477341854366475,1477341854366475,1,2.4375,13312,-25.5,865.7,0.8099418
40000000000000000000CC00,1,1477341854373394,1477341854373394,1,4.875,13312,-25.5,865.7,0.7853982
40000000000000000000CC00,1,1477341854380332,1477341854380332,1,3.25,13312,-25.5,865.7,0.7669904
40000000000000000000CC00,1,1477341854387329,1477341854387329,1,2.4375,13312,-25.0,865.7,0.7424467
40000000000000000000CC00,1,1477341854394493,1477341854394493,1,2.4375,13312,-25.0,865.7,0.72403896
40000000000000000000CC00,1,1477341854401209,1477341854401209,1,3.25,13312,-25.0,865.7,0.6933593
40000000000000000000CC00,1,1477341854408122,1477341854408122,1,5.6875,13312,-25.0,865.7,0.65040785
40000000000000000000CC00,1,1477341854415076,1477341854415076,1,6.5,13312,-25.0,865.7,0.61972827
40000000000000000000CC00,1,1477341854422198,1477341854422198,1,3.25,13312,-25.0,865.7,0.60132045
40000000000000000000CC00,1,1477341854428878,1477341854428878,1,3.25,13312,-24.5,865.7,0.5645049
40000000000000000000CC00,1,1477341854436099,1477341854436099,1,4.875,13312,-25.0,865.7,0.53382534
40000000000000000000CC00,1,1477341854442856,1477341854442856,1,3.25,13312,-25.0,865.7,0.50928164
40000000000000000000CC00,1,1477341854449777,1477341854449777,1,2.4375,13312,-25.0,865.7,0.478602
40000000000000000000CC00,1,1477341854456906,1477341854456906,1,3.25,13312,-24.5,865.7,0.45405832
40000000000000000000CC00,1,1477341854463857,1477341854463857,1,0.8125,13312,-25.0,865.7,0.4233787
40000000000000000000CC00,1,1477341854470582,1477341854470582,1,4.875,13312,-25.0,865.7,0.4049709
40000000000000000000CC00,1,1477341854477521,1477341854477521,1,0.8125,13312,-25.0,865.7,0.3926991
40000000000000000000CC00,1,1477341854484367,1477341854484367,1,3.25,13312,-25.0,865.7,0.36201948
40000000000000000000CC00,1,1477341854491259,1477341854491259,1,0.8125,13312,-25.0,865.7,0.33133984
40000000000000000000CC00,1,1477341854498502,1477341854498502,1,3.25,13312,-25.0,865.7,0.31293207
40000000000000000000CC00,1,1477341854505505,1477341854505505,1,2.4375,13312,-25.0,865.7,0.30679616
40000000000000000000CC00,1,1477341854512508,1477341854512508,1,3.25,13312,-25.0,865.7,0.28225246
40000000000000000000CC00,1,1477341854519251,1477341854519251,1,1.625,13312,-25.0,865.7,0.27611655
40000000000000000000CC00,1,1477341854526202,1477341854526202,1,2.4375,13312,-25.5,865.7,0.2638447
40000000000000000000CC00,1,1477341854533168,1477341854533168,1,3.25,13312,-25.5,865.7,0.25157285
40000000000000000000CC00,1,1477341854540103,1477341854540103,1,0.8125,13312,-25.0,865.7,0.25157285
40000000000000000000CC00,1,1477341854547084,1477341854547084,1,2.4375,13312,-25.5,865.7,0.23316509
40000000000000000000CC00,1,1477341854554001,1477341854554001,1,2.4375,13312,-25.5,865.7,0.22702916
40000000000000000000CC00,1,1477341854561010,1477341854561010,1,4.875,13312,-25.5,865.7,0.20862138
40000000000000000000CC00,1,1477341854568201,1477341854568201,1,2.4375,13312,-25.5,865.7,0.20248546
40000000000000000000CC00,1,1477341854574927,1477341854574927,1,1.625,13312,-25.5,865.7,0.19634955
40000000000000000000CC00,1,1477341854581885,1477341854581885,1,5.6875,13312,-25.5,865.7,0.17794177
40000000000000000000CC00,1,1477341854588918,1477341854588918,1,3.25,13312,-25.5,865.7,0.17794177
40000000000000000000CC00,1,1477341854595858,1477341854595858,1,1.625,13312,-25.5,865.7,0.17180584
40000000000000000000CC00,1,1477341854602880,1477341854602880,1,1.625,13312,-25.5,865.7,0.16566992
40000000000000000000CC00,1,1477341854610157,1477341854610157,1,0.8125,13312,-25.5,865.7,0.159534
40000000000000000000CC00,1,1477341854617137,1477341854617137,1,2.4375,13312,-25.5,865.7,0.14112623
40000000000000000000CC00,1,1477341854624054,1477341854624054,1,3.25,13312,-25.5,865.7,0.12271846
40000000000000000000CC00,1,1477341854630964,1477341854630964,1,2.4375,13312,-25.5,865.7,0.11044662
40000000000000000000CC00,1,1477341854637861,1477341854637861,1,3.25,13312,-25.5,865.7,0.09817477
40000000000000000000CC00,1,1477341854644587,1477341854644587,1,1.625,13312,-26.0,865.7,0.08590292
40000000000000000000CC00,1,1477341854760007,1477341854760007,1,2.4375,13312,-26.5,865.7,6.05002
40000000000000000000CC00,1,1477341854766966,1477341854766966,1,3.25,13312,-26.0,865.7,6.0438843
40000000000000000000CC00,1,1477341854773658,1477341854773658,1,3.25,13312,-26.5,865.7,6.0316124
40000000000000000000CC00,1,1477341854780569,1477341854780569,1,1.625,13312,-26.0,865.7,6.0377483
40000000000000000000CC00,1,1477341854787612,1477341854787612,1,0.8125,13312,-26.5,865.7,6.0316124
40000000000000000000CC00,1,1477341854794603,1477341854794603,1,3.25,13312,-26.5,865.7,6.0193405
40000000000000000000CC00,1,1477341854801783,1477341854801783,1,2.4375,13312,-26.0,865.7,6.0132046
40000000000000000000CC00,1,1477341854808455,1477341854808455,1,0.8125,13312,-26.5,865.7,6.0193405
40000000000000000000CC00,1,1477341854815354,1477341854815354,1,1.625,13312,-26.0,865.7,6.0132046
40000000000000000000CC00,1,1477341854822275,1477341854822275,1,4.875,13312,-26.5,865.7,6.0009327
40000000000000000000CC00,1,1477341854829568,1477341854829568,1,1.625,13312,-26.0,865.7,6.0009327
40000000000000000000CC00,1,1477341854836283,1477341854836283,1,1.625,13312,-26.0,865.7,6.0009327
40000000000000000000CC00,1,1477341854843507,1477341854843507,1,2.4375,13312,-26.0,865.7,5.9947968
40000000000000000000CC00,1,1477341854850247,1477341854850247,1,4.875,13312,-26.0,865.7,5.970253
40000000000000000000CC00,1,1477341854857156,1477341854857156,1,1.625,13312,-26.0,865.7,5.9947968
40000000000000000000CC00,1,1477341854864165,1477341854864165,1,2.4375,13312,-26.0,865.7,5.982525
40000000000000000000CC00,1,1477341854871108,1477341854871108,1,1.625,13312,-26.0,865.7,5.982525
40000000000000000000CC00,1,1477341854878322,1477341854878322,1,2.4375,13312,-26.0,865.7,5.970253
40000000000000000000CC00,1,1477341854885022,1477341854885022,1,1.625,13312,-26.0,865.7,5.970253
40000000000000000000CC00,1,1477341854891991,1477341854891991,1,3.25,13312,-26.0,865.7,5.9579816
40000000000000000000CC00,1,1477341854898958,1477341854898958,1,1.625,13312,-26.0,865.7,5.9579816
40000000000000000000CC00,1,1477341854906156,1477341854906156,1,4.875,13312,-26.0,865.7,5.933438
40000000000000000000CC00,1,1477341854913123,1477341854913123,1,0.0,13312,-26.5,865.7,5.9579816
40000000000000000000CC00,1,1477341854919926,1477341854919926,1,0.8125,13312,-26.0,865.7,5.939574
40000000000000000000CC00,1,1477341854926905,1477341854926905,1,0.8125,13312,-26.5,865.7,5.933438
40000000000000000000CC00,1,1477341854934101,1477341854934101,1,0.0,13312,-26.0,865.7,5.927302
40000000000000000000CC00,1,1477341854940822,1477341854940822,1,2.4375,13312,-26.0,865.7,5.921166
40000000000000000000CC00,1,1477341854947786,1477341854947786,1,2.4375,13312,-26.0,865.7,5.902758
40000000000000000000CC00,1,1477341854954956,1477341854954956,1,2.4375,13312,-26.5,865.7,5.896622
40000000000000000000CC00,1,1477341854961640,1477341854961640,1,3.25,13312,-26.0,865.7,5.8782144
40000000000000000000CC00,1,1477341854968821,1477341854968821,1,3.25,13312,-26.5,865.7,5.8598065
40000000000000000000CC00,1,1477341854975788,1477341854975788,1,3.25,13312,-26.5,865.7,5.8475347
40000000000000000000CC00,1,1477341854982785,1477341854982785,1,1.625,13312,-26.5,865.7,5.8413987
40000000000000000000CC00,1,1477341854989484,1477341854989484,1,0.8125,13312,-26.5,865.7,5.829127
40000000000000000000CC00,1,1477341854996383,1477341854996383,1,3.25,13312,-26.5,865.7,5.810719
40000000000000000000CC00,1,1477341855003450,1477341855003450,1,4.875,13312,-26.5,865.7,5.7923117
40000000000000000000CC00,1,1477341855010590,1477341855010590,1,2.4375,13312,-26.5,865.7,5.773904
40000000000000000000CC00,1,1477341855017597,1477341855017597,1,0.0,13312,-27.0,865.7,5.7861757
40000000000000000000CC00,1,1477341855024538,1477341855024538,1,1.625,13312,-27.0,865.7,5.761632
40000000000000000000CC00,1,1477341855031192,1477341855031192,1,0.8125,13312,-27.0,865.7,5.761632
40000000000000000000CC00,1,1477341855038365,1477341855038365,1,2.4375,13312,-26.5,865.7,5.74936
40000000000000000000CC00,1,1477341855045135,1477341855045135,1,1.625,13312,-27.0,865.7,5.743224
40000000000000000000CC00,1,1477341855052036,1477341855052036,1,2.4375,13312,-27.0,865.7,5.737088
40000000000000000000CC00,1,1477341855059314,1477341855059314,1,1.625,13312,-27.0,865.7,5.737088
40000000000000000000CC00,1,1477341855066012,1477341855066012,1,2.4375,13312,-26.5,865.7,5.7309523
40000000000000000000CC00,1,1477341855072974,1477341855072974,1,2.4375,13312,-27.0,865.7,5.7248163
40000000000000000000CC00,1,1477341855079902,1477341855079902,1,1.625,13312,-27.0,865.7,5.7248163
40000000000000000000CC00,1,1477341855086822,1477341855086822,1,2.4375,13312,-27.0,865.7,5.7186804
40000000000000000000CC00,1,1477341855094000,1477341855094000,1,2.4375,13312,-27.0,865.7,5.7064085
40000000000000000000CC00,1,1477341855100668,1477341855100668,1,0.8125,13312,-27.0,865.7,5.7186804
40000000000000000000CC00,1,1477341855107890,1477341855107890,1,2.4375,13312,-27.0,865.7,5.7064085
40000000000000000000CC00,1,1477341855114619,1477341855114619,1,0.8125,13312,-27.0,865.7,5.7125444
40000000000000000000CC00,1,1477341855121761,1477341855121761,1,3.25,13312,-27.0,865.7,5.7002726
40000000000000000000CC00,1,1477341855128812,1477341855128812,1,0.8125,13312,-27.0,865.7,5.7186804
40000000000000000000CC00,1,1477341855135555,1477341855135555,1,2.4375,13312,-27.0,865.7,5.7064085
40000000000000000000CC00,1,1477341855142567,1477341855142567,1,1.625,13312,-27.0,865.7,5.7064085
40000000000000000000CC00,1,1477341855149817,1477341855149817,1,1.625,13312,-27.0,865.7,5.7002726
40000000000000000000CC00,1,1477341855156724,1477341855156724,1,0.8125,13312,-27.0,865.7,5.6941366
40000000000000000000CC00,1,1477341855163744,1477341855163744,1,2.4375,13312,-27.0,865.7,5.6880007
40000000000000000000CC00,1,1477341855170499,1477341855170499,1,2.4375,13312,-27.0,865.7,5.6818647
40000000000000000000CC00,1,1477341855177428,1477341855177428,1,2.4375,13312,-27.0,865.7,5.669593
40000000000000000000CC00,1,1477341855184665,1477341855184665,1,2.4375,13312,-27.5,865.7,5.663457
40000000000000000000CC00,1,1477341855191293,1477341855191293,1,1.625,13312,-27.0,865.7,5.669593
40000000000000000000CC00,1,1477341855198488,1477341855198488,1,1.625,13312,-27.0,865.7,5.651185
40000000000000000000CC00,1,1477341855205445,1477341855205445,1,1.625,13312,-27.5,865.7,5.651185
40000000000000000000CC00,1,1477341855212410,1477341855212410,1,1.625,13312,-27.0,865.7,5.645049
40000000000000000000CC00,1,1477341855219332,1477341855219332,1,1.625,13312,-27.5,865.7,5.638913
40000000000000000000CC00,1,1477341855226273,1477341855226273,1,3.25,13312,-27.5,865.7,5.6266418
40000000000000000000CC00,1,1477341855232932,1477341855232932,1,3.25,13312,-27.5,865.7,5.61437
40000000000000000000CC00,1,1477341855239925,1477341855239925,1,2.4375,13312,-27.5,865.7,5.602098
40000000000000000000CC00,1,1477341855246876,1477341855246876,1,0.8125,13312,-27.5,865.7,5.608234
40000000000000000000CC00,1,1477341855253822,1477341855253822,1,2.4375,13312,-27.5,865.7,5.58369
40000000000000000000CC00,1,1477341855260784,1477341855260784,1,1.625,13312,-27.5,865.7,5.577554
40000000000000000000CC00,1,1477341855267705,1477341855267705,1,0.0,13312,-27.5,865.7,5.589826
40000000000000000000CC00,1,1477341855274594,1477341855274594,1,1.625,13312,-27.5,865.7,5.5652823
40000000000000000000CC00,1,1477341855281781,1477341855281781,1,1.625,13312,-28.0,865.7,5.5591464
40000000000000000000CC00,1,1477341855288672,1477341855288672,1,2.4375,13312,-27.5,865.7,5.5468745
40000000000000000000CC00,1,1477341855295437,1477341855295437,1,0.8125,13312,-28.0,865.7,5.5530105
40000000000000000000CC00,1,1477341855302638,1477341855302638,1,2.4375,13312,-28.0,865.7,5.5284667
40000000000000000000CC00,1,1477341855309593,1477341855309593,1,2.4375,13312,-28.0,865.7,5.5223308
40000000000000000000CC00,1,1477341855316533,1477341855316533,1,2.4375,13312,-28.0,865.7,5.510059
40000000000000000000CC00,1,1477341855323512,1477341855323512,1,3.25,13312,-28.0,865.7,5.503923
40000000000000000000CC00,1,1477341855330437,1477341855330437,1,0.0,13312,-28.0,865.7,5.516195
40000000000000000000CC00,1,1477341855337480,1477341855337480,1,2.4375,13312,-28.0,865.7,5.503923
40000000000000000000CC00,1,1477341855344197,1477341855344197,1,2.4375,13312,-28.0,865.7,5.491651
40000000000000000000CC00,1,1477341855351395,1477341855351395,1,1.625,13312,-28.0,865.7,5.485515
40000000000000000000CC00,1,1477341855358109,1477341855358109,1,1.625,13312,-28.0,865.7,5.485515
40000000000000000000CC00,1,1477341855365386,1477341855365386,1,5.6875,13312,-28.0,865.7,5.473243
40000000000000000000CC00,1,1477341855372330,1477341855372330,1,1.625,13312,-28.5,865.7,5.479379
40000000000000000000CC00,1,1477341855379031,1477341855379031,1,2.4375,13312,-28.0,865.7,5.473243
40000000000000000000CC00,1,1477341855385971,1477341855385971,1,2.4375,13312,-28.0,865.7,5.460972
40000000000000000000CC00,1,1477341855392900,1477341855392900,1,2.4375,13312,-28.0,865.7,5.460972
40000000000000000000CC00,1,1477341855399822,1477341855399822,1,2.4375,13312,-28.0,865.7,5.460972
40000000000000000000CC00,1,1477341855406763,1477341855406763,1,1.625,13312,-28.0,865.7,5.4671073
40000000000000000000CC00,1,1477341855413918,1477341855413918,1,0.8125,13312,-28.5,865.7,5.473243
40000000000000000000CC00,1,1477341855420883,1477341855420883,1,3.25,13312,-28.5,865.7,5.454836
40000000000000000000CC00,1,1477341855427640,1477341855427640,1,3.25,13312,-28.0,865.7,5.460972
40000000000000000000CC00,1,1477341855434636,1477341855434636,1,4.875,13312,-28.0,865.7,5.4487
40000000000000000000CC00,1,1477341855441577,1477341855441577,1,1.625,13312,-28.0,865.7,5.454836
40000000000000000000CC00,1,1477341855448744,1477341855448744,1,1.625,13312,-28.5,865.7,5.454836
40000000000000000000CC00,1,1477341855455388,1477341855455388,1,2.4375,13312,-28.0,865.7,5.4487
40000000000000000000CC00,1,1477341855462594,1477341855462594,1,-0.8125,13312,-28.0,865.7,5.4671073
40000000000000000000CC00,1,1477341855469551,1477341855469551,1,0.0,13312,-28.0,865.7,5.4671073
40000000000000000000CC00,1,1477341855476230,1477341855476230,1,1.625,13312,-28.0,865.7,5.454836
40000000000000000000CC00,1,1477341855483141,1477341855483141,1,1.625,13312,-28.5,865.7,5.454836
40000000000000000000CC00,1,1477341855490117,1477341855490117,1,1.625,13312,-28.0,865.7,5.460972
40000000000000000000CC00,1,1477341855497271,1477341855497271,1,0.8125,13312,-28.0,865.7,5.4487
40000000000000000000CC00,1,1477341855504185,1477341855504185,1,4.875,13312,-28.5,865.7,5.442564
40000000000000000000CC00,1,1477341855511140,1477341855511140,1,0.0,13312,-28.0,865.7,5.454836
40000000000000000000CC00,1,1477341855518097,1477341855518097,1,2.4375,13312,-28.0,865.7,5.4487
40000000000000000000CC00,1,1477341855524775,1477341855524775,1,0.8125,13312,-28.5,865.7,5.4487
40000000000000000000CC00,1,1477341855531981,1477341855531981,1,2.4375,13312,-28.0,865.7,5.4487
40000000000000000000CC00,1,1477341855538697,1477341855538697,1,2.4375,13312,-28.0,865.7,5.4487
40000000000000000000CC00,1,1477341855545936,1477341855545936,1,-0.8125,13312,-28.5,865.7,5.4671073
40000000000000000000CC00,1,1477341855552966,1477341855552966,1,2.4375,13312,-28.0,865.7,5.4487
40000000000000000000CC00,1,1477341855559877,1477341855559877,1,1.625,13312,-28.0,865.7,5.4487
40000000000000000000CC00,1,1477341855566592,1477341855566592,1,3.25,13312,-28.5,865.7,5.442564
40000000000000000000CC00,1,1477341855573742,1477341855573742,1,1.625,13312,-28.0,865.7,5.4487
40000000000000000000CC00,1,1477341855580427,1477341855580427,1,1.625,13312,-28.0,865.7,5.4487
40000000000000000000CC00,1,1477341855587388,1477341855587388,1,1.625,13312,-28.0,865.7,5.442564
40000000000000000000CC00,1,1477341855594326,1477341855594326,1,0.8125,13312,-28.0,865.7,5.4487
40000000000000000000CC00,1,1477341855601297,1477341855601297,1,1.625,13312,-28.5,865.7,5.4487
40000000000000000000CC00,1,1477341855608523,1477341855608523,1,-0.8125,13312,-28.0,865.7,5.460972
40000000000000000000CC00,1,1477341855615277,1477341855615277,1,-0.8125,13312,-28.0,865.7,5.460972
40000000000000000000CC00,1,1477341855622460,1477341855622460,1,0.8125,13312,-28.0,865.7,5.454836
40000000000000000000CC00,1,1477341855629133,1477341855629133,1,1.625,13312,-28.0,865.7,5.4487
40000000000000000000CC00,1,1477341855636350,1477341855636350,1,1.625,13312,-28.0,865.7,5.454836
40000000000000000000CC00,1,1477341855643300,1477341855643300,1,0.8125,13312,-28.0,865.7,5.4487
40000000000000000000CC00,1,1477341855650028,1477341855650028,1,2.4375,13312,-28.5,865.7,5.4487
40000000000000000000CC00,1,1477341855657294,1477341855657294,1,3.25,13312,-28.0,865.7,5.442564
40000000000000000000CC00,1,1477341855663991,1477341855663991,1,1.625,13312,-28.0,865.7,5.442564
40000000000000000000CC00,1,1477341855670948,1477341855670948,1,1.625,13312,-28.0,865.7,5.442564
40000000000000000000CC00,1,1477341855678168,1477341855678168,1,2.4375,13312,-28.0,865.7,5.436428
