-57.0,3.6876898140770815,-39.875
-57.5,3.7981364308048478,-63.4375
-57.0,3.6876898140770815,-28.4375
-58.0,3.4177091954092087,39.0
-57.5,3.6447383520162835,-18.6875
-57.0,3.6079228131070282,0.0
-57.0,3.650874275167826,-18.6875
-57.5,3.706097583531709,-26.8125
-58.0,3.706097583531709,-23.5625
-58.5,3.4606606574700063,52.0625
-58.0,3.7981364308048478,-50.4375
-58.5,3.6263305825616556,-8.125
-58.0,3.6447383520162835,-3.25
-57.5,3.7429131224409646,-42.3125
-57.0,3.749049045592507,-45.5625
-57.5,3.902447124381071,-78.875
-57.5,3.6017868899554855,-17.0625
-57.5,3.6263305825616556,4.875
-57.0,3.6017868899554855,4.875
-56.5,3.6692820446224537,-18.6875
-57.0,3.5772431973493153,8.125
-58.0,3.5588354278946874,21.9375
-58.0,4.000621894805752,-105.75
-58.0,3.736777199289422,-28.4375
-57.5,3.8963112012295285,-78.875
-58.0,3.80427235395639,-42.3125
-57.5,3.773592738198677,-43.9375
-58.0,3.56497135104623,15.4375
-58.0,3.6570101983193686,-6.5
-58.0,3.5956509668039427,18.6875
-57.5,3.6324665057131984,1.625
-58.0,3.847223816017188,-43.9375
-57.5,3.6386024288647407,-15.4375
-57.0,3.663146121470911,-23.5625
-57.5,3.773592738198677,-42.3125
-56.5,3.706097583531709,-31.6875
-58.0,3.6447383520162835,-1.625
-58.5,3.6570101983193686,23.5625
-57.5,3.730641276137879,-30.0625
-57.5,3.5895150436524004,17.0625
-58.5,3.6140587362585705,8.125
-58.0,3.6876898140770815,-10.5625
-58.5,3.56497135104623,3.25
-58.0,3.6876898140770815,-8.125
-58.0,3.724505352986337,-26.8125
-57.0,3.724505352986337,-18.6875
-57.5,3.6815538909255388,-28.4375
-58.5,3.6386024288647407,1.625
-58.5,3.6263305825616556,1.625
-57.5,3.718369429834794,-8.125
-57.0,3.6999616603801666,-17.0625
-57.5,3.9638063558964967,-91.125
-57.5,3.5772431973493153,4.875
-58.0,3.877903431774901,-77.25
-57.0,3.5895150436524004,20.3125
-58.0,3.650874275167826,-13.8125
-57.5,3.902447124381071,-74.0
-57.5,3.54042765844006,15.4375
-57.5,3.6079228131070282,17.0625
-57.5,3.5281558121369745,26.8125
-57.5,3.6447383520162835,-6.5
-57.5,3.7551849687440497,-39.0
-56.5,3.718369429834794,-45.5625
-58.5,3.5588354278946874,11.375
-58.0,3.7981364308048478,-40.6875
-58.0,3.724505352986337,-25.1875
-57.5,3.724505352986337,-17.0625
-58.0,3.6079228131070282,20.3125
-57.5,3.693825737228624,-30.0625
-58.0,3.6201946594101133,6.5
-58.0,3.6570101983193686,0.0
-58.5,3.663146121470911,-9.75
-57.5,3.890175278077986,-75.625
-57.0,3.80427235395639,-58.5625
-57.0,3.7551849687440497,-26.8125
-58.0,3.6754179677739964,-4.875
-57.0,3.6140587362585705,0.0
-58.0,3.5833791205008576,31.6875
-58.0,3.6815538909255388,-3.25
-58.0,3.6692820446224537,0.0
-57.5,3.736777199289422,-26.8125
-57.5,3.693825737228624,-8.125
-58.0,3.5895150436524004,8.125
-58.5,3.693825737228624,-3.25
-58.0,3.6263305825616556,-11.375
-58.5,3.749049045592507,-25.1875
-58.0,3.552699504743145,39.0
-58.0,3.5772431973493153,26.8125
-57.0,3.847223816017188,-52.0625
-58.0,3.6263305825616556,20.3125
-57.5,3.650874275167826,6.5
-57.0,3.77972866135022,-25.1875
-58.5,3.6447383520162835,13.8125
-57.5,3.8533597391687304,-47.1875
-57.0,3.6815538909255388,-11.375
-58.5,3.773592738198677,-40.6875
-58.0,3.6692820446224537,0.0
-58.0,3.6692820446224537,9.75
-57.0,3.8963112012295285,-56.9375
-57.0,3.6815538909255388,-18.6875
-58.5,3.6447383520162835,11.375
-58.5,3.77972866135022,-13.8125
-58.0,3.663146121470911,18.6875
-58.0,3.7122335066832517,1.625
-57.5,4.006757817957295,-88.6875
-57.0,3.749049045592507,11.375
-57.5,3.834951969714103,-36.5625
-57.0,3.6754179677739964,1.625
-57.5,3.718369429834794,-6.5
-58.0,3.706097583531709,-11.375
-57.5,3.7551849687440497,-20.3125
-57.0,3.767456815047135,-13.8125
-57.5,3.6692820446224537,25.1875
-57.5,3.816544200259475,-48.8125
-57.0,3.80427235395639,-15.4375
-57.5,3.6386024288647407,17.0625
-57.5,3.8533597391687304,-23.5625
-59.0,3.650874275167826,9.75
-57.5,3.6386024288647407,4.875
-57.5,3.6876898140770815,-34.9375
-58.0,3.6017868899554855,43.9375
-57.5,3.6570101983193686,18.6875
-57.0,3.767456815047135,-25.1875
-57.0,3.877903431774901,-43.9375
-57.5,3.9147189706841563,-52.0625
-58.0,4.04357335686655,-91.125
-58.0,3.77972866135022,-15.4375
-58.0,3.730641276137879,-3.25
-57.5,3.8717675086233583,-43.9375
-57.0,3.8533597391687304,-45.5625
-57.0,3.80427235395639,-18.6875
-58.0,3.5956509668039427,43.9375
-57.0,3.810408277107933,-26.8125
-57.5,3.8963112012295285,-38.1875
-57.5,3.9576704327449543,-53.6875
-57.5,3.767456815047135,-4.875
-58.0,3.6754179677739964,26.8125
-58.0,3.8840393549264434,-36.5625
-58.5,3.8533597391687304,-18.6875
-58.0,3.9392626632903265,-48.8125
-57.5,4.166291819897402,-110.625
-58.5,3.9392626632903265,-33.3125
-58.5,3.6692820446224537,31.6875
-58.0,3.5711072741977725,74.0
-58.5,3.730641276137879,15.4375
-58.0,3.9822141253511245,-34.9375
-58.0,3.834951969714103,13.8125
-58.0,4.184699589352029,-92.75
-58.0,3.9515345095934116,8.125
-59.0,3.9699422790480394,9.75
-58.5,4.000621894805752,17.0625
-58.0,4.104932588381976,-17.0625
-58.5,4.037437433715008,13.8125
-58.5,4.23378697456437,-28.4375
-57.5,3.9269908169872414,74.0
-57.5,4.289010282928253,-23.5625
-58.0,4.154019973594316,28.4375
-57.5,4.356505437595221,-45.5625
-57.5,4.381049130201391,-31.6875
-57.5,4.4976316700806995,-60.1875
-57.5,4.227651051412827,21.9375
-57.0,4.411728745959104,-55.3125
-57.5,4.368777283898306,-31.6875
-57.5,4.227651051412827,17.0625
-57.5,4.23378697456437,21.9375
-57.5,4.558990901596125,-67.5
-57.5,4.362641360746763,-6.5
-57.0,4.2092432819582,28.4375
-57.5,4.552854978444583,-72.375
-58.0,4.368777283898306,-28.4375
-57.0,4.448544284868359,-25.1875
-57.0,4.565126824747668,-83.8125
-57.5,4.319689898685965,-8.125
-57.0,4.424000592262189,-31.6875
-57.5,4.25833066717054,27.625
-57.0,4.381049130201391,3.25
-58.0,4.3503695144436785,1.625
-58.0,4.319689898685965,21.9375
-57.0,4.473087977474529,-6.5
-57.5,4.540583132141498,-30.0625
-57.0,4.442408361716817,-8.125
-56.5,4.565126824747668,-34.9375
-57.0,4.614214209960009,-47.1875
-57.0,4.417864669110647,33.3125
-56.5,4.571262747899211,-28.4375
-57.0,4.589670517353839,-21.9375
-57.0,4.479223900626073,17.0625
-57.0,4.620350133111551,-33.3125
-57.0,4.473087977474529,18.6875
-57.0,4.620350133111551,-63.4375
-56.5,4.454680208019902,18.6875
-57.0,4.601942363656923,-23.5625
-56.0,4.651029748869264,-34.9375
-57.0,4.552854978444583,0.0
-57.0,4.767612288748572,-58.5625
-56.0,4.454680208019902,50.4375
-56.5,4.749204519293945,-26.8125
-56.5,4.724660826687775,-13.8125
-56.0,4.516039439535327,25.1875
-56.0,4.614214209960009,18.6875
-56.0,4.485359823777615,45.5625
-56.0,4.71238898038469,-18.6875
-56.0,4.847379289718626,-31.6875
-57.0,4.871922982324796,-21.9375
-56.0,4.81056375080937,-21.9375
-56.0,4.847379289718626,-33.3125
-55.5,4.896466674930966,-33.3125
-55.5,4.816699673960914,-11.375
-56.0,4.871922982324796,-13.8125
-55.5,4.908738521234052,-15.4375
-55.5,4.828971520263998,-4.875
-56.0,4.792155981354743,42.3125
-55.5,4.878058905476339,-9.75
-56.0,5.006913291658733,-36.5625
-55.5,4.97623367590102,-17.0625
-55.5,4.841243366567084,13.8125
-55.5,4.97623367590102,-9.75
-55.5,4.853515212870168,26.8125
-55.5,4.871922982324796,11.375
-55.5,5.031456984264903,-11.375
-54.5,4.92714629068868,0.0
-55.0,5.129631754689584,-39.0
-55.0,5.080544369477243,-15.4375
-54.5,5.056000676871073,-20.3125
-54.5,5.031456984264903,-21.9375
-55.0,5.062136600022616,-8.125
-55.0,4.9823695990525625,13.8125
-54.5,5.105088062083414,-17.0625
-54.5,5.154175447295755,-25.1875
-54.0,5.006913291658733,17.0625
-54.5,5.043728830567988,0.0
-54.5,5.031456984264903,26.8125
-55.0,5.086680292628786,8.125
-54.5,5.006913291658733,36.5625
-54.0,5.1725832167503825,-21.9375
-54.5,5.0682725231741586,23.5625
-55.0,5.313709449235861,-34.9375
-54.0,5.135767677841127,0.0
-54.5,5.1725832167503825,-3.25
-54.0,5.117359908386499,8.125
-54.0,5.1725832167503825,3.25
-54.0,5.227806525114265,-17.0625
-54.0,5.184855063053467,-3.25
-54.0,5.252350217720435,-23.5625
-54.0,5.160311370447297,0.0
-54.0,5.325981295538946,-43.9375
-54.5,5.258486140871978,-3.25
-53.5,5.1725832167503825,9.75
-53.5,5.301437602932776,-21.9375
-54.0,5.387340527054372,-50.4375
-53.5,5.1725832167503825,26.8125
-53.5,5.2768939103266055,-9.75
-53.5,5.227806525114265,1.625
-54.0,5.270757987175063,0.0
-53.5,5.190990986205009,30.0625
-54.0,5.399612373357457,-25.1875
-54.0,5.190990986205009,34.9375
-53.5,5.424156065963627,-26.8125
-53.5,5.368932757599744,-4.875
-53.5,5.399612373357457,-29.25
-53.0,5.3627968344482015,-17.0625
-53.5,5.338253141842031,11.375
-53.5,5.344389064993574,-1.625
-53.5,5.424156065963627,-13.8125
-53.5,5.227806525114265,55.3125
-53.0,5.350524988145116,9.75
-53.0,5.393476450205914,6.5
-53.5,5.289165756629691,30.0625
-53.0,5.368932757599744,-1.625
-53.0,5.356660911296659,25.1875
-53.0,5.411884219660542,8.125
-53.0,5.424156065963627,-1.625
-53.0,5.516194913236766,-17.0625
-53.0,5.411884219660542,15.4375
-53.0,5.460971604872882,-3.25
-52.5,5.411884219660542,11.375
-53.0,5.5284667595398505,-11.375
-53.0,5.5284667595398505,-15.4375
-52.5,5.50392306693368,-8.125
-52.0,5.448699758569798,13.8125
-52.5,5.47937937432751,3.25
-52.5,5.540738605842936,-15.4375
-52.0,5.485515297479052,3.25
-52.5,5.589825991055276,-34.9375
-52.5,5.497787143782138,6.5
-52.5,5.553010452146021,-9.75
-52.5,5.485515297479052,0.0
-52.5,5.47937937432751,15.4375
-52.5,5.626641529964532,-40.6875
-52.0,5.534602682691394,-6.5
-52.5,5.546874528994478,1.625
-52.5,5.559146375297564,0.0
-52.0,5.5714182216006485,-6.5
-52.0,5.5714182216006485,-18.6875
-52.0,5.522330836388308,0.0
-52.5,5.602097837358362,-18.6875
-52.0,5.534602682691394,6.5
-52.0,5.651185222570702,-26.8125
-52.5,5.565282298449106,4.875
-52.0,5.546874528994478,0.0
-52.0,5.559146375297564,6.5
-51.5,5.565282298449106,-3.25
-52.0,5.553010452146021,-4.875
-52.0,5.565282298449106,1.625
-52.0,5.565282298449106,1.625
-52.0,5.522330836388308,9.75
-52.0,5.559146375297564,11.375
-52.0,5.595961914206819,3.25
-52.0,5.5284667595398505,11.375
-51.5,5.66959299202533,-18.6875
-51.5,5.620505606812989,-6.5
-51.5,5.638913376267617,-8.125
-51.5,5.620505606812989,-9.75
-51.0,5.577554144752192,6.5
-51.5,5.663457068873787,-20.3125
-51.5,5.583690067903734,8.9375
-51.0,5.66959299202533,-21.9375
-51.5,5.66959299202533,-15.4375
-51.0,5.681864838328415,-25.1875
-51.0,5.577554144752192,8.125
-51.0,5.688000761479957,-23.5625
-51.0,5.608233760509904,1.625
-51.0,5.651185222570702,-6.5
-51.0,5.5714182216006485,8.125
-51.0,5.565282298449106,13.8125
-50.5,5.632777453116074,-4.875
-51.0,5.6143696836614465,0.0
-51.0,5.66959299202533,-9.75
-50.5,5.595961914206819,6.5
-50.5,5.5714182216006485,8.125
-50.5,5.553010452146021,13.8125
-50.5,5.663457068873787,-15.4375
-50.5,5.589825991055276,13.8125
-50.5,5.632777453116074,-3.25
-50.5,5.577554144752192,9.75
-50.5,5.602097837358362,-1.625
-50.0,5.6573211457222445,-15.4375
-50.5,5.620505606812989,4.875
-50.0,5.620505606812989,-1.625
-50.5,5.632777453116074,-13.8125
-50.0,5.595961914206819,6.5
-50.5,5.66959299202533,-15.4375
-50.0,5.626641529964532,9.75
-50.5,5.6941366846315,-25.1875
-50.5,5.651185222570702,-3.25
-50.5,5.595961914206819,1.625
-50.0,5.602097837358362,4.875
-50.5,5.632777453116074,-3.25
-50.5,5.589825991055276,0.0
-50.5,5.712544454086128,-20.3125
-50.5,5.638913376267617,1.625
-50.0,5.743224069843841,-26.8125
-50.5,5.6573211457222445,-4.875
-50.5,5.663457068873787,-3.25
-50.5,5.780039608753096,-18.6875
-50.5,5.706408530934585,11.375
-50.5,5.822991070813893,-21.9375
-51.0,5.730952223540755,-4.875
-51.0,5.681864838328415,18.6875
-51.0,5.749359992995383,-3.25
-50.5,5.749359992995383,4.875
-51.0,5.810719224510809,-17.0625
-51.0,5.780039608753096,-9.75
-51.0,5.780039608753096,4.875
-51.0,5.8659425328746915,-21.9375
-51.0,5.816855147662351,-13.8125
-50.5,5.767767762450011,4.875
-50.5,5.780039608753096,6.5
-51.0,5.816855147662351,-6.5
-51.5,5.822991070813893,-4.875
-50.5,5.822991070813893,-8.125
-51.0,5.829126993965437,-3.25
-51.0,5.810719224510809,3.25
-51.0,5.786175531904639,11.375
-51.5,5.8659425328746915,-11.375
-51.0,5.829126993965437,3.25
-51.0,5.8475347634200645,-1.625
-51.0,5.773903685601553,17.0625
-51.5,5.8475347634200645,-9.75
-51.5,5.829126993965437,3.25
-51.5,5.853670686571607,-9.75
-51.5,5.798447378207723,13.8125
-51.5,5.8659425328746915,-13.8125
-51.5,5.859806609723149,-13.8125
-51.5,5.816855147662351,6.5
-51.5,5.829126993965437,-4.875
-52.0,5.773903685601553,3.25
-51.5,5.829126993965437,-3.25
-51.5,5.859806609723149,-18.6875
-52.0,5.822991070813893,1.625
-52.0,5.841398840268521,-25.1875
-52.0,5.872078456026235,-28.4375
-51.5,5.706408530934585,25.1875
-52.5,5.786175531904639,-1.625
-52.5,5.780039608753096,3.25
-52.5,5.773903685601553,17.0625
-52.0,5.798447378207723,-4.875
-52.0,5.841398840268521,-15.4375
-52.0,5.890486225480862,-20.3125
-52.0,5.872078456026235,-25.1875
-52.5,5.798447378207723,-11.375
-52.5,5.780039608753096,-1.625
-52.0,5.767767762450011,0.0
-52.0,5.773903685601553,-4.875
-52.0,5.749359992995383,4.875
-52.5,5.730952223540755,6.5
-52.5,5.66959299202533,22.75
-52.0,5.792311455056181,-15.4375
-52.0,5.71868037723767,0.0
-52.5,5.6941366846315,20.3125
-52.5,5.773903685601553,-8.125
-52.5,5.700272607783043,6.5
-52.5,5.798447378207723,-21.9375
-52.5,5.780039608753096,-17.0625
-53.0,5.810719224510809,-25.1875
-52.5,5.64504929941916,30.0625
-52.5,5.651185222570702,15.4375
-52.5,5.749359992995383,3.25
-52.5,5.681864838328415,3.25
-52.5,5.749359992995383,-11.375
-52.5,5.700272607783043,0.0
-52.5,5.780039608753096,-18.6875
-52.5,5.71868037723767,-6.5
-52.5,5.6941366846315,-4.875
-52.5,5.66959299202533,8.125
-53.0,5.749359992995383,-13.8125
-52.5,5.743224069843841,-20.3125
-53.0,5.6573211457222445,3.25
-52.5,5.663457068873787,8.125
-53.0,5.681864838328415,-1.625
-52.5,5.651185222570702,13.8125
-53.0,5.64504929941916,1.625
-52.5,5.663457068873787,13.8125
-53.0,5.700272607783043,-18.6875
-53.0,5.724816300389213,-21.9375
-53.0,5.626641529964532,9.75
-53.0,5.681864838328415,-9.75
-53.5,5.66959299202533,-11.375
-53.0,5.64504929941916,4.875
-53.0,5.6573211457222445,-15.4375
-53.0,5.663457068873787,0.0
-53.5,5.553010452146021,15.4375
-53.5,5.706408530934585,-36.5625
-53.0,5.66959299202533,-15.4375
-53.5,5.66959299202533,-20.3125
-53.5,5.66959299202533,-26.8125
-53.5,5.626641529964532,-8.125
-53.5,5.602097837358362,-11.375
-53.5,5.491651220630596,25.1875
-53.5,5.626641529964532,-20.3125
-54.0,5.583690067903734,-6.5
-54.0,5.577554144752192,-8.125
-53.5,5.5714182216006485,-4.875
-54.0,5.589825991055276,-20.3125
-53.5,5.5100589900852235,20.3125
-54.0,5.546874528994478,-1.625
-53.0,5.460971604872882,15.4375
-54.0,5.497787143782138,0.0
-53.5,5.4671075280244255,9.75
-54.0,5.473243451175968,11.375
-53.5,5.559146375297564,-17.0625
-53.5,5.540738605842936,-18.6875
-53.5,5.485515297479052,-9.75
-53.5,5.50392306693368,-3.25
-54.0,5.4671075280244255,-3.25
-53.5,5.553010452146021,-25.1875
-54.0,5.338253141842031,31.6875
-53.5,5.47937937432751,-13.8125
-53.0,5.393476450205914,9.75
-53.5,5.473243451175968,-3.25
-53.5,5.47937937432751,-8.125
-54.0,5.436427912266712,-9.75
-53.5,5.399612373357457,-1.625
-54.0,5.399612373357457,3.25
-53.0,5.344389064993574,9.75
-54.0,5.301437602932776,30.0625
-54.0,5.325981295538946,18.6875
-54.0,5.3627968344482015,3.25
-54.0,5.368932757599744,-1.625
-53.5,5.295301679781233,23.5625
-53.5,5.307573526084319,3.25
-53.5,5.313709449235861,13.8125
-54.0,5.344389064993574,6.5
-53.5,5.313709449235861,18.6875
-54.0,5.313709449235861,0.0
-53.5,5.375068680751287,-11.375
-53.5,5.387340527054372,0.0
-53.5,5.270757987175063,23.5625
-53.5,5.43029198911517,-20.3125
-53.5,5.368932757599744,-4.875
-53.5,5.270757987175063,28.4375
-54.0,5.393476450205914,-15.4375
-54.5,5.295301679781233,17.0625
-53.5,5.375068680751287,1.625
-54.0,5.350524988145116,-15.4375
-53.5,5.252350217720435,13.8125
-54.0,5.338253141842031,6.5
-53.5,5.381204603902829,-4.875
-53.5,5.381204603902829,-18.6875
-53.5,5.332117218690489,-1.625
-53.5,5.442563835418255,-41.5
-54.0,5.240078371417351,33.3125
-54.0,5.307573526084319,15.4375
-53.5,5.338253141842031,-4.875
-54.0,5.350524988145116,-4.875
-54.0,5.289165756629691,20.3125
-53.5,5.295301679781233,3.25
-54.0,5.227806525114265,36.5625
-54.0,5.3198453723874035,0.0
-53.5,5.350524988145116,-4.875
-54.0,5.332117218690489,-11.375
-53.5,5.332117218690489,-9.75
-53.5,5.344389064993574,-4.875
-53.5,5.21553467881118,25.1875
-53.5,5.258486140871978,21.9375
-53.0,5.307573526084319,1.625
-53.5,5.246214294568893,21.9375
-53.5,5.313709449235861,-1.625
-53.5,5.3198453723874035,-8.125
-53.0,5.301437602932776,0.0
-53.5,5.381204603902829,-15.4375
-54.0,5.3198453723874035,1.625
-53.5,5.2339424482658075,13.8125
-53.0,5.3198453723874035,-3.25
-53.5,5.289165756629691,-3.25
-53.5,5.209398755659637,33.3125
-53.5,5.301437602932776,-13.8125
-53.5,5.283029833478148,-6.5
-53.5,5.240078371417351,9.75
-53.5,5.2339424482658075,18.6875
-53.5,5.338253141842031,-21.9375
-53.0,5.356660911296659,-21.9375
-53.5,5.227806525114265,15.4375
-53.0,5.270757987175063,17.0625
-53.5,5.381204603902829,-28.4375
-53.0,5.203262832508095,28.4375
-53.5,5.221670601962723,18.6875
-53.0,5.1725832167503825,18.6875
-53.5,5.221670601962723,12.1875
-53.0,5.2768939103266055,-4.875
-53.0,5.258486140871978,6.5
-53.0,5.141903600992669,17.0625
-53.0,5.2339424482658075,3.25
-52.5,5.178719139901925,9.75
-53.0,5.258486140871978,-20.3125
-53.0,5.197126909356553,9.75
-52.5,5.178719139901925,28.4375
-52.5,5.221670601962723,3.25
-52.5,5.258486140871978,-8.125
-52.5,5.056000676871073,42.3125
-52.5,5.240078371417351,-18.6875
-52.5,5.056000676871073,36.5625
-52.5,5.2339424482658075,-11.375
-52.5,5.166447293598839,1.625
-52.5,5.148039524144211,-8.125
-52.5,5.227806525114265,-20.3125
-52.5,5.264622064023521,-21.9375
-52.5,5.129631754689584,0.0
-52.0,5.21553467881118,-23.5625
-52.0,5.098952138931871,8.125
-52.5,5.190990986205009,-17.0625
-52.5,5.086680292628786,15.4375
-52.0,5.184855063053467,-15.4375
-52.0,5.086680292628786,9.75
-52.0,5.074408446325701,9.75
-52.0,5.037592907416445,18.6875
-52.0,4.97623367590102,25.1875
-52.5,5.160311370447297,-31.6875
-51.5,5.080544369477243,1.625
-52.5,5.086680292628786,4.875
-52.5,5.098952138931871,-8.125
-52.0,5.013049214810275,15.4375
-52.0,5.006913291658733,15.4375
-52.0,4.945554060143307,26.8125
-52.0,4.95168998329485,25.1875
-52.5,5.037592907416445,21.9375
-52.0,5.006913291658733,-1.625
-52.5,4.9394181369917645,25.1875
-51.5,5.074408446325701,-11.375
-52.0,4.97623367590102,15.4375
-52.0,4.994641445355648,15.4375
-52.0,5.006913291658733,-1.625
-51.5,4.914874444385594,23.5625
-52.0,5.0253210611133605,0.0
-52.0,4.9823695990525625,4.875
-52.0,5.0682725231741586,-13.8125
-51.5,4.95168998329485,6.5
-52.0,4.97623367590102,6.5
-52.0,5.062136600022616,-8.125
-52.0,4.95168998329485,31.6875
-52.0,5.006913291658733,6.5
-51.5,4.9823695990525625,17.0625
-52.0,5.074408446325701,-15.4375
-52.0,5.006913291658733,4.875
-51.5,4.970097752749477,6.5
-51.5,4.963961829597935,26.8125
-51.5,4.988505522204105,11.375
-52.0,5.074408446325701,-11.375
-51.5,5.049864753719531,-4.875
-51.5,5.00077736850719,8.125
-52.0,4.970097752749477,20.3125
-52.0,4.988505522204105,6.5
-52.0,5.019185137961818,-4.875
-52.0,5.086680292628786,-17.0625
-51.5,5.019185137961818,6.5
-51.5,4.988505522204105,6.5
-51.5,5.105088062083414,-28.4375
-52.0,5.049864753719531,-9.75
-52.0,5.056000676871073,-8.125
-51.5,4.945554060143307,23.5625
-52.0,5.031456984264903,-3.25
-52.0,5.092816215780329,-13.8125
-51.5,5.062136600022616,-9.75
-51.5,5.031456984264903,-15.4375
-52.0,4.908738521234052,25.1875
-51.5,5.006913291658733,-4.875
-52.0,5.037592907416445,-13.8125
-52.0,4.921010367537137,17.0625
-51.5,4.921010367537137,9.75
-51.5,4.97623367590102,3.25
-51.5,4.847379289718626,31.6875
-52.0,4.921010367537137,9.75
-51.5,5.006913291658733,-1.625
-52.0,4.957825906446392,-4.875
-51.5,4.957825906446392,0.0
-51.5,5.0682725231741586,-42.3125
-52.0,4.902602598082509,18.6875
-51.5,5.0253210611133605,-8.125
-51.5,4.878058905476339,13.8125
-51.5,4.914874444385594,13.8125
-52.0,4.921010367537137,-4.875
-51.5,4.822835597112456,34.9375
-51.5,4.970097752749477,-9.75
-51.5,4.902602598082509,11.375
-51.5,4.896466674930966,21.9375
-51.5,4.9394181369917645,1.625
-51.5,4.945554060143307,-8.9375
-51.5,4.902602598082509,17.0625
-51.0,5.006913291658733,-8.125
-51.5,5.006913291658733,-6.5
-51.5,5.049864753719531,-13.8125
-51.5,5.037592907416445,1.625
-52.0,5.019185137961818,0.0
-51.5,5.049864753719531,6.5
-51.5,5.056000676871073,-9.75
-51.5,5.098952138931871,-13.8125
-51.5,5.117359908386499,-18.6875
-52.0,5.129631754689584,-11.375
-52.0,5.148039524144211,-4.875
-52.0,5.141903600992669,-9.75
-52.0,5.111223985234957,6.5
-52.0,5.178719139901925,-13.8125
-52.0,5.148039524144211,9.75
-52.5,5.227806525114265,-3.25
-52.0,5.270757987175063,-9.75
-52.0,5.325981295538946,-25.1875
-52.0,5.295301679781233,-8.125
-52.0,5.227806525114265,15.4375
-51.5,5.356660911296659,-15.4375
-51.5,5.3198453723874035,3.25
-52.0,5.325981295538946,6.5
-51.5,5.350524988145116,0.0
-51.5,5.283029833478148,21.9375
-51.5,5.325981295538946,1.625
-51.5,5.381204603902829,1.625
-51.5,5.399612373357457,3.25
-51.5,5.3627968344482015,3.25
-51.5,5.356660911296659,15.4375
-51.0,5.356660911296659,17.0625
-51.5,5.325981295538946,23.5625
-51.5,5.393476450205914,25.1875
-51.0,5.473243451175968,1.625
-51.5,5.405748296509,34.9375
-51.5,5.47937937432751,3.25
-51.5,5.50392306693368,4.875
-51.0,5.559146375297564,-4.875
-51.0,5.595961914206819,-11.375
-51.0,5.6143696836614465,-15.4375
-51.0,5.497787143782138,17.0625
-51.0,5.626641529964532,-18.6875
-51.0,5.540738605842936,17.0625
-51.0,5.6573211457222445,-23.5625
-50.5,5.638913376267617,-8.125
-50.5,5.64504929941916,-17.0625
-50.5,5.583690067903734,9.75
-50.5,5.66959299202533,-11.375
-50.5,5.638913376267617,3.25
-50.5,5.64504929941916,1.625
-50.0,5.681864838328415,-1.625
-50.0,5.681864838328415,-3.25
-50.0,5.6573211457222445,3.25
-50.5,5.675728915176872,-1.625
-50.0,5.632777453116074,13.8125
-50.0,5.6941366846315,0.0
-50.0,5.700272607783043,-4.875
-50.0,5.6573211457222445,9.75
-49.5,5.681864838328415,9.75
-50.0,5.724816300389213,-4.875
-50.0,5.638913376267617,21.9375
-49.0,5.6941366846315,13.8125
-49.5,5.773903685601553,-17.0625
-49.5,5.638913376267617,20.3125
-49.5,5.712544454086128,3.25
-49.5,5.681864838328415,13.8125
-49.5,5.749359992995383,-6.5
-49.5,5.755495916146925,-4.875
-49.0,5.706408530934585,6.5
-49.5,5.755495916146925,0.0
-49.5,5.810719224510809,-11.375
-49.0,5.7616318392984684,-6.5
-49.0,5.724816300389213,15.4375
-49.5,5.688000761479957,18.6875
-49.5,5.712544454086128,18.6875
-49.5,5.773903685601553,3.25
-49.0,5.700272607783043,15.4375
-49.5,5.730952223540755,18.6875
-49.5,5.786175531904639,6.5
-49.0,5.773903685601553,1.625
-49.5,5.780039608753096,3.25
-49.0,5.816855147662351,3.25
-49.0,5.786175531904639,15.4375
-49.0,5.792311455056181,13.8125
-49.5,5.786175531904639,17.0625
-49.0,5.9088939949354895,-13.8125
-49.0,5.841398840268521,-1.625
-49.0,5.810719224510809,6.5
-49.5,5.822991070813893,13.8125
-49.0,5.890486225480862,-3.25
-49.0,5.859806609723149,3.25
-49.0,5.8475347634200645,9.75
-49.0,5.915029918087033,-8.125
-49.0,5.915029918087033,-9.75
-49.0,5.853670686571607,6.5
-48.5,5.829126993965437,9.75
-49.0,5.841398840268521,9.75
-49.0,5.822991070813893,13.8125
-49.0,5.902758071783947,-9.75
-49.0,5.896622148632405,-4.875
-49.0,5.896622148632405,-8.125
-49.0,5.8475347634200645,4.875
-49.0,5.890486225480862,1.625
-49.0,5.915029918087033,-1.625
-49.0,5.859806609723149,6.5
-49.5,5.859806609723149,13.8125
-49.0,5.841398840268521,17.0625
-49.0,5.964117303299373,-12.1875
-49.0,5.896622148632405,1.625
-49.0,5.878214379177777,13.8125
-49.0,5.921165841238575,1.625
-49.0,5.927301764390117,-4.875
-49.0,5.822991070813893,25.1875
-49.5,5.853670686571607,13.8125
-49.0,5.859806609723149,18.6875
-49.0,5.9518454569962875,-3.25
-49.0,5.878214379177777,13.8125
-49.0,5.939573610693203,-4.875
-49.0,5.890486225480862,13.8125
-49.0,5.994796919057086,-13.8125
-49.0,5.93343768754166,6.5
-49.0,5.8659425328746915,23.5625
-48.5,5.994796919057086,-9.75
-49.0,5.93343768754166,9.75
-49.0,5.927301764390117,13.8125
-48.5,5.921165841238575,13.8125
-49.0,5.945709533844745,9.75
-49.0,5.945709533844745,11.375
-48.5,5.939573610693203,18.6875
-48.5,5.970253226450915,1.625
-48.5,5.927301764390117,18.6875
-48.5,6.000932842208628,-6.5
-49.0,5.93343768754166,9.75
-48.5,5.970253226450915,0.0
-48.5,5.970253226450915,13.8125
-49.0,5.921165841238575,23.5625
-48.5,5.988660995905543,4.875
-48.5,6.007068765360171,1.625
-48.5,5.982525072754001,3.25
-48.5,6.037748381117884,-8.125
-48.5,5.988660995905543,13.8125
-48.5,6.019340611663256,1.625
-48.5,6.019340611663256,-3.25
-48.0,6.007068765360171,4.875
-48.0,5.964117303299373,15.4375
-48.0,5.939573610693203,15.4375
-48.0,6.007068765360171,-6.5
-48.0,6.007068765360171,-1.625
-47.5,5.957981380147831,8.125
-47.5,5.957981380147831,8.125
-47.5,5.921165841238575,13.8125
-47.5,5.927301764390117,4.875
-47.5,5.890486225480862,11.375
-47.5,5.8659425328746915,23.5625
-47.5,5.976389149602458,-21.9375
-47.0,5.878214379177777,6.5
-47.0,5.8475347634200645,15.4375
-47.0,5.884350302329319,1.625
-47.0,5.872078456026235,1.625
-47.0,5.835262917116979,4.875
-47.0,5.829126993965437,6.5
-47.0,5.8045833013592665,20.3125
-47.0,5.816855147662351,9.75
-47.0,5.798447378207723,17.0625
-47.0,5.792311455056181,13.8125
-46.5,5.798447378207723,18.6875
-47.0,5.786175531904639,9.75
-47.0,5.798447378207723,11.375
-46.5,5.786175531904639,15.4375
-47.0,5.786175531904639,13.8125
-46.5,5.773903685601553,13.8125
-46.5,5.792311455056181,15.4375
-46.5,5.8045833013592665,0.0
-46.5,5.786175531904639,0.0
-46.5,5.786175531904639,0.0
-47.0,5.767767762450011,6.5
-46.5,5.792311455056181,3.25
-46.5,5.755495916146925,6.5
-46.5,5.792311455056181,3.25
-46.5,5.792311455056181,-1.625
-46.5,5.767767762450011,1.625
-46.5,5.749359992995383,4.875
-46.5,5.786175531904639,-6.5
-46.5,5.8045833013592665,-9.75
-46.5,5.755495916146925,8.125
-46.5,5.798447378207723,-4.875
-46.5,5.71868037723767,15.4375
-46.5,5.773903685601553,-3.25
-46.0,5.700272607783043,15.4375
-46.0,5.724816300389213,13.8125
-46.5,5.71868037723767,13.8125
-46.0,5.730952223540755,9.75
-46.5,5.712544454086128,11.375
-46.0,5.71868037723767,4.875
-46.5,5.749359992995383,3.25
-46.0,5.71868037723767,8.9375
-46.0,5.730952223540755,3.25
-46.5,5.724816300389213,6.5
-46.5,5.712544454086128,13.8125
-46.0,5.743224069843841,6.5
-46.5,5.700272607783043,11.375
-46.0,5.730952223540755,4.875
-46.0,5.749359992995383,1.625
-46.0,5.681864838328415,17.0625
-46.0,5.730952223540755,4.875
-46.0,5.706408530934585,13.8125
-46.0,5.706408530934585,9.75
-46.5,5.737088146692298,3.25
-46.0,5.706408530934585,13.8125
-46.0,5.71868037723767,13.8125
-46.5,5.786175531904639,-8.125
-46.0,5.706408530934585,17.0625
-46.5,5.706408530934585,8.125
-46.0,5.675728915176872,20.3125
-46.0,5.737088146692298,6.5
-46.0,5.700272607783043,13.8125
-46.0,5.724816300389213,8.125
-46.5,5.688000761479957,11.375
-46.0,5.706408530934585,9.75
-46.0,5.663457068873787,18.6875
-46.0,5.767767762450011,1.625
-46.5,5.743224069843841,-3.25
-46.0,5.786175531904639,-6.5
-46.0,5.712544454086128,8.125
-46.0,5.681864838328415,15.4375
-46.0,5.786175531904639,-9.75
-46.0,5.663457068873787,25.1875
-46.0,5.730952223540755,0.0
-46.0,5.6941366846315,17.0625
-46.0,5.71868037723767,9.75
-46.0,5.737088146692298,8.125
-46.5,5.700272607783043,18.6875
-46.5,5.743224069843841,1.625
-46.0,5.71868037723767,6.5
-46.0,5.706408530934585,9.75
-46.0,5.6573211457222445,23.5625
-46.0,5.681864838328415,17.0625
-46.0,5.6941366846315,8.125
-46.0,5.749359992995383,0.0
-46.0,5.681864838328415,13.8125
-46.0,5.706408530934585,6.5
-46.0,5.730952223540755,6.5
