E28011606000020612B000DD,1,1467315006730949,1467315006730949,1,0.0625,12288,-40.5,927.25,1.4971652
E28011606000020612AF528C,1,1467315006753576,1467315006753576,1,0.0625,12288,-34.5,905.25,0.36201948
E28011606000020612B0007D,1,1467315006766536,1467315006766536,1,0.1875,12288,-36.5,905.25,0.10431069
E28011606000020612AFC4DD,1,1467315006776369,1467315006776369,1,0.0,12288,-46.5,905.25,0.2699806
E28011606000020612AF527C,1,1467315006786132,1467315006786132,1,0.125,12288,-34.5,905.25,0.5154175
E28011606000020612AF540B,1,1467315006809057,1467315006809057,1,0.0,12288,-54.0,905.25,5.4057484
E28011606000020612B000BD,1,1467315006828776,1467315006828776,1,-0.5,12288,-53.5,905.25,5.8536706
E28011606000020612B0006D,1,1467315006838719,1467315006838719,1,0.1875,12288,-45.5,905.25,0.2638447
E28011606000020612B0009D,1,1467315006848653,1467315006848653,1,0.0625,12288,-42.5,905.25,4.147884
E28011606000020612AF52FC,1,1467315006884000,1467315006884000,1,0.0,12288,-55.5,905.25,2.147573
E28011606000020612AFC4ED,1,1467315006929090,1467315006929090,1,0.1875,12288,-51.0,905.25,4.239923
E28011606000020612B0005D,1,1467315006965802,1467315006965802,1,0.4375,12288,-53.5,916.25,1.0615147
E28011606000020612AFC4FD,1,1467315006975687,1467315006975687,1,0.25,12288,-54.0,916.25,1.1412817
E28011606000020612B000AD,1,1467315007038899,1467315007038899,1,-0.0625,12288,-46.0,916.25,4.6817093
E28011606000020612B000CD,1,1467315007116407,1467315007116407,1,0.375,12288,-28.5,916.25,4.6571655
E28011606000020612B0008D,1,1467315007126434,1467315007126434,1,0.5625,12288,-30.0,916.25,0.10431069
E28011606000020612B0000D,1,1467315007139151,1467315007139151,1,0.75,12288,-32.0,916.25,0.6933593
E28011606000020612AFC4CD,1,1467315007161756,1467315007161756,1,0.25,12288,-39.5,907.25,1.0553788
E28011606000020612B0001D,1,1467315007171555,1467315007171555,1,0.625,12288,-34.0,907.25,0.7117671
E28011606000020612AF528C,1,1467315007181419,1467315007181419,1,0.0625,12288,-35.0,907.25,6.1850104
E28011606000020612B0002D,1,1467315007196648,1467315007196648,1,0.0,12288,-44.5,907.25,5.8904862
E28011606000020612AFC4ED,1,1467315007206492,1467315007206492,1,0.0,12288,-50.5,907.25,0.7363108
E28011606000020612AF527C,1,1467315007216312,1467315007216312,1,0.125,12288,-34.0,907.25,0.11658254
E28011606000020612B0007D,1,1467315007228575,1467315007228575,1,0.0625,12288,-38.0,907.25,6.068428
E28011606000020612B0009D,1,1467315007245814,1467315007245814,1,0.375,12288,-43.0,907.25,0.6872234
E28011606000020612AF52FC,1,1467315007267490,1467315007267490,1,0.125,12288,-55.0,907.25,1.9941751
E28011606000020612B000BD,1,1467315007277352,1467315007277352,1,0.0,12288,-51.0,907.25,5.8475347
E28011606000020612B0006D,1,1467315007297303,1467315007297303,1,0.0,12288,-44.5,907.25,6.0254765
E28011606000020612B000AD,1,1467315007307109,1467315007307109,1,0.4375,12288,-47.0,907.25,6.062292
E28011606000020612B000DD,1,1467315007326772,1467315007326772,1,0.375,12288,-40.0,907.25,4.853515
E28011606000020612AFC4DD,1,1467315007373493,1467315007373493,1,0.5,12288,-44.5,913.75,1.7916895
E28011606000020612AF540B,1,1467315007399812,1467315007399812,1,0.375,12288,-51.0,913.75,3.749049
E28011606000020612B0005D,1,1467315007436068,1467315007436068,1,-0.625,12288,-57.5,913.75,1.7241944
E28011606000020612AFC4FD,1,1467315007477671,1467315007477671,1,0.0625,12288,-58.0,913.75,6.2647777
E28011606000020612B0001D,2,1467315007570551,1467315007570551,1,0.25,12288,-40.0,904.25,6.24637
E28011606000020612B0006D,2,1467315007584637,1467315007584637,1,0.5,12288,-38.0,904.25,1.3130876
E28011606000020612B0005D,2,1467315007594472,1467315007594472,1,0.4375,12288,-38.0,904.25,4.792156
E28011606000020612AFC4CD,2,1467315007604697,1467315007604697,1,0.125,12288,-40.5,904.25,0.17180584
E28011606000020612B000BD,2,1467315007622825,1467315007622825,1,-0.1875,12288,-53.0,904.25,5.2523503
E28011606000020612AF540B,2,1467315007652639,1467315007652639,1,0.5,12288,-45.0,904.25,4.258331
E28011606000020612B0007D,2,1467315007677085,1467315007677085,1,0.25,12288,-50.5,904.25,0.024543693
E28011606000020612B000CD,2,1467315007696901,1467315007696901,1,0.1875,12288,-44.0,904.25,5.645049
E28011606000020612B0002D,2,1467315007718436,1467315007718436,1,0.125,12288,-50.5,904.25,4.9026027
E28011606000020612B0009D,2,1467315007738257,1467315007738257,1,0.0625,12288,-47.0,904.25,5.4487
E28011606000020612AFC4ED,2,1467315007781364,1467315007781364,1,0.4375,12288,-45.0,917.25,0.6442719
E28011606000020612B0008D,2,1467315007828907,1467315007828907,1,-0.0625,12288,-44.5,917.25,6.240234
E28011606000020612AFC4DD,2,1467315007838712,1467315007838712,1,0.1875,12288,-57.0,917.25,5.773904
E28011606000020612B0000D,2,1467315007860871,1467315007860871,1,0.5,12288,-43.5,917.25,1.4971652
E28011606000020612B0004D,2,1467315007870830,1467315007870830,1,-0.0625,12288,-52.5,917.25,4.9946413
E28011606000020612B000AD,2,1467315007893947,1467315007893947,1,0.25,12288,-57.0,917.25,5.6266418
E28011606000020612AFC4FD,2,1467315007971484,1467315007971484,1,0.75,12288,-50.5,915.75,5.58369
E28011606000020612AF528C,2,1467315008045934,1467315008045934,1,0.5625,12288,-48.5,915.75,0.28225246
E28011606000020612B0006D,2,1467315008407907,1467315008407907,1,0.5625,12288,-38.5,909.25,0.54609716
E28011606000020612B0001D,2,1467315008434395,1467315008434395,1,0.25,12288,-42.5,909.25,5.049865
E28011606000020612B0001D,2,1467315008553043,1467315008553043,1,0.25,12288,-43.0,909.25,4.9823694
E28011606000020612B0000D,2,1467315008573018,1467315008573018,1,0.375,12288,-43.0,925.25,5.755496
E28011606000020612B0008D,2,1467315008582926,1467315008582926,1,0.5625,12288,-45.5,925.25,4.215379
E28011606000020612B0009D,2,1467315008592861,1467315008592861,1,0.5625,12288,-39.0,925.25,0.8897089
E28011606000020612B0006D,2,1467315008650765,1467315008650765,1,0.25,12288,-39.5,925.25,1.2394565
E28011606000020612AF528C,2,1467315008660597,1467315008660597,1,0.625,12288,-52.5,925.25,0.3436117
E28011606000020612AFC4ED,2,1467315008734533,1467315008734533,1,0.5,12288,-47.0,925.25,5.5468745
E28011606000020612AFC4FD,2,1467315008824377,1467315008824377,1,-0.25,12288,-46.0,915.25,1.521709
E28011606000020612AF527C,1,1467315008996329,1467315008996329,1,0.4375,12288,-36.0,918.25,4.3258257
E28011606000020612B0000D,1,1467315009006155,1467315009006155,1,0.25,12288,-30.5,918.25,0.53382534
E28011606000020612B0008D,1,1467315009018674,1467315009018674,1,0.1875,12288,-30.5,918.25,0.11044662
E28011606000020612B000CD,1,1467315009028594,1467315009028594,1,0.625,12288,-29.5,918.25,1.030835
E28011606000020612AF528C,1,1467315009038408,1467315009038408,1,0.0625,12288,-36.5,918.25,4.405593
E28011606000020612B0009D,1,1467315009048331,1467315009048331,1,0.125,12288,-44.0,918.25,1.8100973
E28011606000020612B0002D,1,1467315009061101,1467315009061101,1,0.1875,12288,-44.5,918.25,0.8099418
E28011606000020612B000DD,1,1467315009071037,1467315009071037,1,0.5625,12288,-39.5,918.25,6.1604667
E28011606000020612B000AD,1,1467315009080992,1467315009080992,1,0.0625,12288,-45.5,918.25,0.72403896
E28011606000020612AFC4ED,1,1467315009116230,1467315009116230,1,0.1875,12288,-48.0,918.25,1.7855537
E28011606000020612AFC4CD,1,1467315009130773,1467315009130773,1,0.4375,12288,-40.0,918.25,2.0432625
E28011606000020612AFC4FD,1,1467315009140668,1467315009140668,1,0.5625,12288,-44.5,918.25,4.8044276
E28011606000020612B0004D,1,1467315009160472,1467315009160472,1,0.0625,12288,-53.0,918.25,0.38656315
E28011606000020612B0006D,1,1467315009187297,1467315009187297,1,0.125,12288,-45.5,903.25,0.69949526
E28011606000020612B0007D,1,1467315009197222,1467315009197222,1,0.375,12288,-37.0,903.25,3.497476
E28011606000020612B000BD,1,1467315009207069,1467315009207069,1,0.4375,12288,-55.5,903.25,0.43565056
E28011606000020612AFC4DD,1,1467315009216841,1467315009216841,1,0.25,12288,-46.0,903.25,0.48473793
E28011606000020612B0001D,1,1467315009280298,1467315009280298,1,0.1875,12288,-35.0,903.25,4.6571655
E28011606000020612B0005D,1,1467315009299971,1467315009299971,1,-0.0625,12288,-53.5,903.25,0.6810875
E28011606000020612AF540B,1,1467315009664300,1467315009664300,1,-0.125,12288,-55.0,921.75,2.5464082
E28011606000020612AF52FC,1,1467315009694933,1467315009694933,1,0.1875,12288,-57.5,921.75,6.062292
E28011606000020612B0008D,1,1467315009808105,1467315009808105,1,0.125,12288,-30.5,912.75,1.4664856
E28011606000020612B0000D,1,1467315009818012,1467315009818012,1,0.375,12288,-29.5,912.75,1.6260196
E28011606000020612B0000D,1,1467315009953013,1467315009953013,1,0.5,12288,-29.0,912.75,4.706253
E28011606000020612B0008D,1,1467315009962943,1467315009962943,1,0.375,12288,-30.0,912.75,1.4051265
E28011606000020612B0001D,1,1467315009972999,1467315009972999,1,-0.0625,12288,-34.5,912.75,5.896622
E28011606000020612B0007D,1,1467315009985673,1467315009985673,1,0.5,12288,-37.5,912.75,1.9757673
E28011606000020612AFC4DD,1,1467315010005946,1467315010005946,1,0.5,12288,-44.5,919.75,0.6442719
E28011606000020612AF52FC,1,1467315010119767,1467315010119767,1,-0.1875,12288,-57.5,919.75,0.11658254
E28011606000020612B0005D,1,1467315010162437,1467315010162437,1,0.125,12288,-56.5,919.75,0.2638447
E28011606000020612B0000D,2,1467315010363850,1467315010363850,1,0.0625,12288,-42.5,925.75,5.608234
E28011606000020612AFC4CD,2,1467315010373858,1467315010373858,1,0.25,12288,-36.5,925.75,5.7125444
E28011606000020612B0005D,2,1467315010393642,1467315010393642,1,0.1875,12288,-44.0,925.75,0.28225246
E28011606000020612B0009D,2,1467315010451009,1467315010451009,1,0.375,12288,-40.0,916.75,2.6691265
E28011606000020612AFC4ED,2,1467315010474281,1467315010474281,1,0.0625,12288,-45.5,916.75,3.8104084
E28011606000020612B000DD,2,1467315010484204,1467315010484204,1,0.125,12288,-54.5,916.75,0.638136
E28011606000020612B0002D,2,1467315010494097,1467315010494097,1,0.125,12288,-52.0,916.75,5.988661
E28011606000020612B000BD,2,1467315010555316,1467315010555316,1,0.25,12288,-47.5,916.75,5.988661
E28011606000020612B0008D,2,1467315010596889,1467315010596889,1,0.1875,12288,-45.5,916.75,6.252506
E28011606000020612B0004D,2,1467315010639133,1467315010639133,1,-0.125,12288,-55.0,907.75,0.09817477
E28011606000020612B0001D,2,1467315010699743,1467315010699743,1,0.0625,12288,-42.0,907.75,5.2400784
E28011606000020612B0006D,2,1467315010733864,1467315010733864,1,0.125,12288,-38.5,907.75,3.7920005
E28011606000020612B0007D,2,1467315010795417,1467315010795417,1,0.1875,12288,-52.5,907.75,5.3750687
E28011606000020612B000CD,2,1467315010805294,1467315010805294,1,0.125,12288,-48.0,907.75,5.608234
E28011606000020612AF528C,2,1467315010888324,1467315010888324,1,0.4375,12288,-50.0,911.75,0.7731263
E28011606000020612AFC4DD,2,1467315010978165,1467315010978165,1,0.0625,12288,-64.5,911.75,0.012271847
E28011606000020612B000AD,2,1467315011010670,1467315011010670,1,0.125,12288,-55.0,911.75,0.3742913
E28011606000020612B0009D,2,1467315011199590,1467315011199590,1,0.125,12288,-40.0,914.75,6.2647777
E28011606000020612B0005D,2,1467315011209426,1467315011209426,1,0.4375,12288,-39.5,914.75,5.3934765
E28011606000020612B0008D,2,1467315011237651,1467315011237651,1,0.0625,12288,-42.5,924.25,3.9760783
E28011606000020612B000CD,2,1467315011250364,1467315011250364,1,0.5,12288,-43.0,924.25,5.8475347
E28011606000020612B0007D,2,1467315011260240,1467315011260240,1,0.1875,12288,-53.0,924.25,0.82834965
E28011606000020612B0001D,2,1467315011300979,1467315011300979,1,0.25,12288,-49.0,924.25,2.55868
E28011606000020612B000AD,2,1467315011311015,1467315011311015,1,0.125,12288,-50.0,924.25,5.4671073
E28011606000020612B000DD,2,1467315011330925,1467315011330925,1,0.5625,12288,-50.0,924.25,1.3744467
E28011606000020612B0006D,2,1467315011375200,1467315011375200,1,0.1875,12288,-39.5,924.25,1.4910294
E28011606000020612B0004D,2,1467315011387885,1467315011387885,1,0.25,12288,-54.5,924.25,0.22702916
E28011606000020612AFC4ED,2,1467315011407824,1467315011407824,1,0.5,12288,-46.0,924.25,5.761632
E28011606000020612B0002D,2,1467315011419639,1467315011419639,1,-0.125,12288,-48.5,924.25,5.2155347
E28011606000020612AF528C,2,1467315011470882,1467315011470882,1,0.5,12288,-47.0,921.25,4.258331
E28011606000020612AFC4DD,2,1467315011486585,1467315011486585,1,0.1875,12288,-56.5,921.25,5.822991
E28011606000020612B0001D,1,1467315011693879,1467315011693879,1,0.5,12288,-36.0,918.75,1.8591847
E28011606000020612AFC4CD,1,1467315011706680,1467315011706680,1,0.1875,12288,-40.5,918.75,5.595962
E28011606000020612B000CD,1,1467315011716600,1467315011716600,1,0.75,12288,-29.5,918.75,0.93266034
E28011606000020612B0008D,1,1467315011726668,1467315011726668,1,0.0625,12288,-30.5,918.75,0.06135923
E28011606000020612AF527C,1,1467315011736451,1467315011736451,1,0.4375,12288,-35.0,918.75,1.2824079
E28011606000020612B0000D,1,1467315011746375,1467315011746375,1,0.125,12288,-31.0,918.75,0.398835
E28011606000020612B0002D,1,1467315011756267,1467315011756267,1,0.1875,12288,-44.0,918.75,0.8528933
E28011606000020612B0007D,1,1467315011766181,1467315011766181,1,0.1875,12288,-39.5,918.75,0.90811664
E28011606000020612AF528C,1,1467315011776014,1467315011776014,1,0.1875,12288,-35.0,918.75,4.4362726
E28011606000020612B000DD,1,1467315011785878,1467315011785878,1,0.5625,12288,-40.0,918.75,6.142059
E28011606000020612AFC4DD,1,1467315011822764,1467315011822764,1,0.125,12288,-43.0,918.75,3.9515345
E28011606000020612AFC4ED,1,1467315011832641,1467315011832641,1,-0.0625,12288,-48.5,918.75,4.9885054
E28011606000020612B000BD,1,1467315011854088,1467315011854088,1,-0.0625,12288,-51.0,904.75,0.25770876
E28011606000020612B000AD,1,1467315011883899,1467315011883899,1,0.0625,12288,-47.0,904.75,0.159534
E28011606000020612B0004D,1,1467315011903960,1467315011903960,1,0.125,12288,-49.5,904.75,5.9457097
E28011606000020612B0009D,1,1467315011920919,1467315011920919,1,0.125,12288,-44.0,904.75,4.147884
E28011606000020612B0006D,1,1467315011962704,1467315011962704,1,0.25,12288,-45.0,904.75,0.44178647
E28011606000020612AFC4FD,1,1467315011975561,1467315011975561,1,0.625,12288,-57.0,904.75,6.0132046
E28011606000020612B0005D,1,1467315012120469,1467315012120469,1,0.125,12288,-56.5,909.75,2.4850488
E28011606000020612AF540B,1,1467315012180450,1467315012180450,1,0.375,12288,-54.5,909.75,5.822991
E28011606000020612AF52FC,1,1467315012215747,1467315012215747,1,0.5625,12288,-56.5,909.75,4.6633015
E28011606000020612B000BD,1,1467315012612332,1467315012612332,1,0.25,12288,-48.5,926.75,5.11736
E28011606000020612B0004D,1,1467315012637022,1467315012637022,1,0.125,12288,-51.0,926.75,5.442564
E28011606000020612B0009D,1,1467315012660083,1467315012660083,1,0.0,12288,-43.5,913.25,5.761632
E28011606000020612AFC4DD,1,1467315012672780,1467315012672780,1,0.5,12288,-44.0,913.25,1.8469129
E28011606000020612B000AD,1,1467315012692394,1467315012692394,1,0.0625,12288,-46.0,913.25,4.9332824
E28011606000020612B0006D,1,1467315012754565,1467315012754565,1,0.0625,12288,-45.0,913.25,4.8228354
E28011606000020612AFC4ED,1,1467315012778659,1467315012778659,1,0.0,12288,-48.0,913.25,6.056156
E28011606000020612B0005D,1,1467315012858084,1467315012858084,1,0.5,12288,-55.0,914.25,1.4848934
E28011606000020612AF52FC,1,1467315012925945,1467315012925945,1,0.0625,12288,-57.5,914.25,0.96947587
E28011606000020612AF540B,1,1467315012945916,1467315012945916,1,0.25,12288,-54.5,914.25,0.41724277
E28011606000020612B0005D,2,1467315013159324,1467315013159324,1,0.125,12288,-41.0,919.25,1.4848934
E28011606000020612B0008D,2,1467315013172092,1467315013172092,1,0.25,12288,-42.5,919.25,5.3689327
E28011606000020612B0002D,2,1467315013186356,1467315013186356,1,-0.1875,12288,-52.5,919.25,5.78004
E28011606000020612AFC4CD,2,1467315013196162,1467315013196162,1,0.25,12288,-37.5,919.25,0.41110685
E28011606000020612AFC4ED,2,1467315013206106,1467315013206106,1,0.25,12288,-45.5,919.25,3.3256702
E28011606000020612B0000D,2,1467315013218858,1467315013218858,1,0.375,12288,-43.0,919.25,1.0983303
E28011606000020612B0009D,2,1467315013228792,1467315013228792,1,0.125,12288,-39.5,919.25,2.1414373
E28011606000020612B0006D,2,1467315013238774,1467315013238774,1,0.25,12288,-39.0,919.25,2.1414373
E28011606000020612B0004D,2,1467315013259690,1467315013259690,1,-0.0625,12288,-55.0,906.75,0.30679616
E28011606000020612AF528C,2,1467315013275850,1467315013275850,1,0.125,12288,-48.5,906.75,5.111224
E28011606000020612B000CD,2,1467315013322618,1467315013322618,1,0.1875,12288,-47.5,906.75,2.2825634
E28011606000020612B000BD,2,1467315013332486,1467315013332486,1,0.25,12288,-51.5,906.75,1.2087768
E28011606000020612B0001D,2,1467315013342404,1467315013342404,1,0.4375,12288,-41.5,906.75,5.362797
E28011606000020612AFC4DD,2,1467315013506501,1467315013506501,1,0.0625,12288,-59.5,902.75,4.068117
E28011606000020612B000AD,2,1467315013568787,1467315013568787,1,0.375,12288,-58.0,902.75,4.405593
E28011606000020612B0007D,2,1467315013580449,1467315013580449,1,0.625,12288,-55.5,902.75,0.11044662
E28011606000020612B000DD,2,1467315013874490,1467315013874490,1,0.125,12288,-50.0,926.25,0.5399612
E28011606000020612AF527C,2,1467315013914090,1467315013914090,1,0.25,12288,-51.5,926.25,2.0984857
E28011606000020612B0004D,2,1467315014077945,1467315014077945,1,0.375,12288,-55.0,917.75,4.6510296
E28011606000020612AFC4CD,2,1467315014102828,1467315014102828,1,0.1875,12288,-37.0,917.75,3.7981365
E28011606000020612AFC4ED,2,1467315014118039,1467315014118039,1,0.1875,12288,-45.5,917.75,3.577243
E28011606000020612B0009D,2,1467315014189365,1467315014189365,1,0.5,12288,-39.0,917.75,5.4487
E28011606000020612B0008D,2,1467315014201304,1467315014201304,1,0.0,12288,-44.0,917.75,6.0254765
E28011606000020612B0000D,2,1467315014233110,1467315014233110,1,0.0625,12288,-43.0,917.75,1.3928546
E28011606000020612AF528C,2,1467315014248323,1467315014248323,1,-0.0625,12288,-49.5,917.75,5.270758
E28011606000020612B0006D,2,1467315014287260,1467315014287260,1,0.625,12288,-39.0,922.25,4.8412433
E28011606000020612B0005D,2,1467315014297113,1467315014297113,1,0.1875,12288,-42.5,922.25,0.877437
E28011606000020612B0001D,2,1467315014306930,1467315014306930,1,0.0625,12288,-46.5,922.25,5.8782144
E28011606000020612B000CD,2,1467315014323791,1467315014323791,1,0.25,12288,-43.0,922.25,6.252506
E28011606000020612B0002D,2,1467315014333682,1467315014333682,1,0.125,12288,-51.0,922.25,5.737088
E28011606000020612B000BD,2,1467315014358120,1467315014358120,1,0.4375,12288,-45.5,922.25,4.5896707
E28011606000020612AFC4DD,2,1467315014500768,1467315014500768,1,0.25,12288,-62.5,911.25,5.773904
E28011606000020612B000AD,2,1467315014571299,1467315014571299,1,0.5,12288,-55.0,911.25,0.024543693
E28011606000020612B0007D,2,1467315014592634,1467315014592634,1,0.125,12288,-52.0,911.25,4.2767386
E28011606000020612B0006D,2,1467315014663028,1467315014663028,1,0.0,12288,-39.0,911.25,0.159534
E28011606000020612AFC4CD,2,1467315014672855,1467315014672855,1,0.0625,12288,-36.0,911.25,5.0744085
E28011606000020612B0005D,2,1467315014709754,1467315014709754,1,0.0625,12288,-39.0,908.75,0.46633017
E28011606000020612B000BD,2,1467315014722206,1467315014722206,1,0.125,12288,-53.0,908.75,1.1290098
E28011606000020612B0008D,2,1467315014734460,1467315014734460,1,0.0625,12288,-47.5,908.75,4.693981
E28011606000020612AF528C,2,1467315014754149,1467315014754149,1,0.0,12288,-48.5,908.75,1.4235342
E28011606000020612B000CD,2,1467315014774028,1467315014774028,1,0.1875,12288,-45.5,908.75,5.4057484
E28011606000020612B0001D,2,1467315014801094,1467315014801094,1,0.0,12288,-42.5,908.75,5.160311
E28011606000020612AFC4ED,2,1467315014820863,1467315014820863,1,0.0625,12288,-47.5,908.75,4.847379
E28011606000020612B0000D,2,1467315014832779,1467315014832779,1,0.1875,12288,-48.5,908.75,3.8656316
E28011606000020612B0002D,2,1467315014852513,1467315014852513,1,-0.0625,12288,-54.0,908.75,0.49087384
E28011606000020612AFC4DD,2,1467315014872261,1467315014872261,1,-0.0625,12288,-62.0,908.75,6.148195
E28011606000020612B000AD,2,1467315014882045,1467315014882045,1,-0.4375,12288,-56.5,908.75,3.5404277
E28011606000020612B0007D,2,1467315014913729,1467315014913729,1,0.125,12288,-53.0,923.75,1.036971
E28011606000020612B0009D,2,1467315014925478,1467315014925478,1,0.25,12288,-38.0,923.75,1.0921943
E28011606000020612B0000D,1,1467315015156218,1467315015156218,1,0.125,12288,-30.5,920.75,0.05522331
E28011606000020612B000CD,1,1467315015168743,1467315015168743,1,0.8125,12288,-29.0,920.75,0.6320001
E28011606000020612B0009D,1,1467315015181000,1467315015181000,1,0.0,12288,-44.0,920.75,1.2578642
E28011606000020612B0008D,1,1467315015190956,1467315015190956,1,0.25,12288,-31.5,920.75,6.1604667
E28011606000020612B000DD,1,1467315015201031,1467315015201031,1,0.125,12288,-40.0,920.75,5.9579816
E28011606000020612B0007D,1,1467315015210927,1467315015210927,1,0.125,12288,-41.0,920.75,0.41724277
E28011606000020612B0005D,1,1467315015220789,1467315015220789,1,-0.25,12288,-54.0,920.75,6.2709136
E28011606000020612AF527C,1,1467315015230595,1467315015230595,1,0.125,12288,-36.5,920.75,0.7117671
E28011606000020612AF528C,1,1467315015240478,1467315015240478,1,0.1875,12288,-36.5,920.75,3.9699423
E28011606000020612AFC4CD,1,1467315015253175,1467315015253175,1,0.125,12288,-40.5,920.75,5.1419034
E28011606000020612B0001D,1,1467315015263005,1467315015263005,1,0.25,12288,-36.0,920.75,1.435806
E28011606000020612B000AD,1,1467315015273200,1467315015273200,1,0.0625,12288,-46.0,920.75,0.5890486
E28011606000020612B0002D,1,1467315015293138,1467315015293138,1,0.1875,12288,-45.5,920.75,0.5154175
E28011606000020612AFC4ED,1,1467315015302902,1467315015302902,1,0.125,12288,-48.5,920.75,1.3314953
E28011606000020612B0006D,1,1467315015324589,1467315015324589,1,0.5,12288,-45.5,920.25,0.2883884
E28011606000020612AFC4DD,1,1467315015379695,1467315015379695,1,0.0,12288,-44.0,920.25,0.54609716
E28011606000020612B0004D,1,1467315015415061,1467315015415061,1,0.0625,12288,-51.5,920.25,6.209554
E28011606000020612AF52FC,1,1467315015488602,1467315015488602,1,0.8125,12288,-57.5,920.25,0.17794177
E28011606000020612B000BD,1,1467315015578479,1467315015578479,1,0.1875,12288,-49.5,922.75,0.17794177
E28011606000020612AF540B,1,1467315015800666,1467315015800666,1,-0.0625,12288,-53.5,910.25,5.9518456
E28011606000020612B0001D,1,1467315016032793,1467315016032793,1,0.5625,12288,-34.0,905.75,1.0431069
E28011606000020612AF527C,1,1467315016042711,1467315016042711,1,0.5625,12288,-33.5,905.75,0.3926991
E28011606000020612AFC4CD,1,1467315016063740,1467315016063740,1,0.625,12288,-39.0,905.75,1.59534
E28011606000020612B000BD,1,1467315016073523,1467315016073523,1,0.125,12288,-51.5,905.75,6.0009327
E28011606000020612AFC4DD,1,1467315016083515,1467315016083515,1,0.0625,12288,-45.5,905.75,6.1850104
E28011606000020612B0006D,1,1467315016103367,1467315016103367,1,-0.0625,12288,-45.5,905.75,0.44792238
E28011606000020612B0004D,1,1467315016124176,1467315016124176,1,-0.0625,12288,-49.5,906.25,5.4057484
E28011606000020612AF52FC,1,1467315016183585,1467315016183585,1,0.25,12288,-54.5,906.25,2.1107576
E28011606000020612AF540B,1,1467315016395438,1467315016395438,1,-0.125,12288,-54.0,912.25,1.8223692
E28011606000020612B0006D,2,1467315016622152,1467315016622152,1,0.25,12288,-39.0,924.75,4.466952
E28011606000020612AFC4ED,2,1467315016634523,1467315016634523,1,0.125,12288,-45.5,924.75,5.651185
E28011606000020612AFC4CD,2,1467315016657335,1467315016657335,1,0.5,12288,-38.0,924.75,5.982525
E28011606000020612B0009D,2,1467315016667231,1467315016667231,1,0.0625,12288,-39.0,924.75,1.0799224
E28011606000020612B000CD,2,1467315016679983,1467315016679983,1,0.125,12288,-41.5,924.75,5.8782144
E28011606000020612B000AD,2,1467315016689769,1467315016689769,1,0.25,12288,-51.0,924.75,5.197127
E28011606000020612B0001D,2,1467315016699806,1467315016699806,1,0.125,12288,-47.5,924.75,2.5709517
E28011606000020612B0000D,2,1467315016752146,1467315016752146,1,0.1875,12288,-43.5,927.25,5.0621367
E28011606000020612B000BD,2,1467315016761933,1467315016761933,1,0.125,12288,-48.0,927.25,6.062292
E28011606000020612B0008D,2,1467315016774669,1467315016774669,1,0.375,12288,-48.0,927.25,0.024543693
E28011606000020612AF528C,2,1467315016787604,1467315016787604,1,0.8125,12288,-52.0,927.25,2.6629906
E28011606000020612B0005D,2,1467315016832684,1467315016832684,1,0.5625,12288,-48.0,927.25,0.31293207
E28011606000020612B0004D,2,1467315016880186,1467315016880186,1,0.0,12288,-56.5,927.25,5.970253
E28011606000020612AFC4DD,2,1467315016983323,1467315016983323,1,-0.0625,12288,-58.0,905.25,0.239301
E28011606000020612B0002D,2,1467315017046165,1467315017046165,1,0.0,12288,-51.0,905.25,1.1596894
E28011606000020612B0007D,2,1467315017151697,1467315017151697,1,1.0625,12288,-55.5,916.25,0.25157285
E28011606000020612B000DD,2,1467315017184934,1467315017184934,1,0.0,12288,-55.0,916.25,0.6074564
E28011606000020612B0005D,2,1467315017527384,1467315017527384,1,0.1875,12288,-39.0,907.25,0.70563114
E28011606000020612B0008D,2,1467315017560395,1467315017560395,1,0.25,12288,-48.5,907.25,4.95169
E28011606000020612B0002D,2,1467315017583384,1467315017583384,1,-0.375,12288,-54.0,913.75,0.50928164
E28011606000020612B0007D,2,1467315017613236,1467315017613236,1,0.625,12288,-53.5,913.75,0.398835
E28011606000020612B0004D,2,1467315017632962,1467315017632962,1,-0.0625,12288,-52.5,913.75,5.6880007
E28011606000020612AF528C,2,1467315017685082,1467315017685082,1,-0.0625,12288,-51.0,913.75,0.82834965
E28011606000020612AFC4DD,2,1467315017899371,1467315017899371,1,0.25,12288,-59.5,904.25,0.93266034
E28011606000020612B000DD,2,1467315018003366,1467315018003366,1,-0.125,12288,-56.5,917.25,0.53382534
E28011606000020612B0008D,1,1467315018091829,1467315018091829,1,0.375,12288,-30.0,917.25,0.20862138
E28011606000020612B0007D,1,1467315018101738,1467315018101738,1,0.1875,12288,-39.0,917.25,1.1596894
E28011606000020612B0000D,1,1467315018115956,1467315018115956,1,0.1875,12288,-30.0,917.25,0.69949526
E28011606000020612AFC4CD,1,1467315018125739,1467315018125739,1,0.0,12288,-40.5,917.25,2.5770876
E28011606000020612B0001D,1,1467315018135654,1467315018135654,1,0.125,12288,-36.0,917.25,2.0187187
E28011606000020612AF527C,1,1467315018147429,1467315018147429,1,0.4375,12288,-34.5,917.25,4.6019425
E28011606000020612B000CD,1,1467315018157315,1467315018157315,1,0.625,12288,-29.5,917.25,1.2149128
E28011606000020612B000DD,1,1467315018167209,1467315018167209,1,0.1875,12288,-39.5,917.25,0.20862138
E28011606000020612B0009D,1,1467315018179860,1467315018179860,1,0.375,12288,-43.0,917.25,1.6935148
E28011606000020612AF528C,1,1467315018203523,1467315018203523,1,0.4375,12288,-35.5,915.75,4.9087386
E28011606000020612AFC4DD,1,1467315018221644,1467315018221644,1,0.0,12288,-44.5,915.75,1.4542137
E28011606000020612B0002D,1,1467315018231556,1467315018231556,1,0.25,12288,-45.0,915.75,1.3253593
E28011606000020612AFC4ED,1,1467315018258513,1467315018258513,1,0.0625,12288,-47.5,915.75,5.5714183
E28011606000020612B0004D,1,1467315018282961,1467315018282961,1,-0.25,12288,-51.0,915.75,0.5829127
E28011606000020612B0006D,1,1467315018361143,1467315018361143,1,0.0,12288,-45.5,915.75,1.0921943
E28011606000020612B0005D,1,1467315018413613,1467315018413613,1,-0.125,12288,-54.0,908.25,5.510059
E28011606000020612B000AD,1,1467315018527046,1467315018527046,1,0.125,12288,-45.5,908.25,5.737088
E28011606000020612AF52FC,1,1467315018560135,1467315018560135,1,-0.125,12288,-55.5,908.25,1.7303303
E28011606000020612B000BD,1,1467315018626116,1467315018626116,1,-0.0625,12288,-52.0,909.25,5.3934765
E28011606000020612AFC4FD,1,1467315018725716,1467315018725716,1,-0.8125,12288,-62.0,909.25,5.5652823
E28011606000020612AF540B,1,1467315018775063,1467315018775063,1,0.125,12288,-58.5,909.25,6.142059
E28011606000020612AF528C,1,1467315018976582,1467315018976582,1,0.1875,12288,-37.0,925.25,6.21569
E28011606000020612AFC4DD,1,1467315018988874,1467315018988874,1,0.125,12288,-44.0,925.25,5.8475347
E28011606000020612B0006D,1,1467315019011762,1467315019011762,1,0.0,12288,-45.5,915.25,4.2828746
E28011606000020612AFC4ED,1,1467315019027242,1467315019027242,1,-0.0625,12288,-48.0,915.25,5.651185
E28011606000020612AF540B,1,1467315019044128,1467315019044128,1,0.0625,12288,-57.0,915.25,0.52155346
E28011606000020612B000AD,1,1467315019115903,1467315019115903,1,0.25,12288,-47.0,915.25,4.6510296
E28011606000020612B0005D,1,1467315019145578,1467315019145578,1,0.0,12288,-55.0,915.25,0.99401957
E28011606000020612B000BD,1,1467315019165379,1467315019165379,1,0.1875,12288,-50.5,915.25,4.460816
E28011606000020612B0004D,1,1467315019192101,1467315019192101,1,0.375,12288,-50.5,915.25,0.5829127
E28011606000020612AF52FC,1,1467315019226263,1467315019226263,1,-0.5,12288,-56.5,918.25,0.34974763
E28011606000020612B0006D,2,1467315019410560,1467315019410560,1,0.1875,12288,-38.5,918.25,5.4180202
E28011606000020612AFC4ED,2,1467315019433311,1467315019433311,1,-0.0625,12288,-46.5,903.25,5.58369
E28011606000020612B0005D,2,1467315019445477,1467315019445477,1,0.625,12288,-38.5,903.25,4.8351073
E28011606000020612AFC4CD,2,1467315019457841,1467315019457841,1,0.0,12288,-41.0,903.25,0.1349903
E28011606000020612B0001D,2,1467315019470574,1467315019470574,1,0.1875,12288,-40.0,903.25,0.21475731
E28011606000020612B000CD,2,1467315019480406,1467315019480406,1,0.1875,12288,-44.0,903.25,5.7064085
E28011606000020612AF528C,2,1467315019490294,1467315019490294,1,0.0625,12288,-51.5,903.25,5.9457097
E28011606000020612B0009D,2,1467315019517094,1467315019517094,1,0.125,12288,-45.5,903.25,5.6327777
E28011606000020612B0008D,2,1467315019583842,1467315019583842,1,0.125,12288,-48.5,903.25,5.362797
E28011606000020612B0002D,2,1467315019593755,1467315019593755,1,-0.25,12288,-50.5,903.25,4.9762335
E28011606000020612B0007D,2,1467315019658055,1467315019658055,1,0.25,12288,-54.0,923.25,1.5646604
E28011606000020612B000AD,2,1467315019684305,1467315019684305,1,0.125,12288,-52.5,923.25,5.976389
E28011606000020612B0000D,2,1467315019798703,1467315019798703,1,0.0625,12288,-41.5,923.25,6.21569
E28011606000020612B000DD,2,1467315019874615,1467315019874615,1,0.1875,12288,-51.0,921.75,5.1419034
E28011606000020612B0004D,2,1467315019884518,1467315019884518,1,-0.0625,12288,-54.0,921.75,4.0128937
E28011606000020612B000BD,2,1467315019938577,1467315019938577,1,0.4375,12288,-45.5,921.75,4.712389
