-40.0,0.0,0.25
-38.5,4.135612204139688,0.5
-53.0,-0.6565437772150542,0.125
-45.0,-2.3930100291016,0.0625
-49.0,-0.46633015951723467,0.4375
-23.5,-0.8467573949128742,0.875
-50.5,-1.0983302441261191,0.125
-35.0,0.8160777791551611,0.375
-37.0,3.3011266555299,0.0625
-40.0,1.72419440558346,0.125
-36.5,0.0,0.0625
-56.0,1.816233252856599,-0.0625
-60.5,-1.7364662518865457,0.5625
-35.5,4.847379289718626,0.0625
-57.0,-4.06811704947272,0.1875
-55.0,-0.06135923151542566,0.25
-50.5,-0.9940195505498954,0.125
-48.5,5.743224069843841,0.0625
-54.0,-4.786020058203201,-0.0625
-45.0,-0.8406214717613313,0.5
-41.5,0.0,0.1875
-57.5,-0.20248546400090464,-0.5
-49.0,5.780039608753095,-0.0625
-44.5,-1.3192234775816516,0.625
-59.0,-3.4054373491061227,0.25
-42.0,3.491340273227719,0.25
-53.0,-3.663146121470911,-0.0625
-64.5,3.7551849687440493,-0.1875
-36.5,1.3560390164909073,0.125
-47.0,-1.2762720155208536,0.5625
-36.0,0.0,0.5625
-23.0,-0.527689391032661,0.5625
-36.0,-3.264311116620644,-0.125
-40.5,4.006757817957295,0.1875
-43.0,-0.5092816215780331,0.125
-50.0,0.5338253141842033,0.0625
-39.0,-5.037592907416446,0.4375
-48.5,-0.6013204688511713,0.125
-37.0,5.724816300389213,0.4375
-57.0,-4.4546802080199015,-0.25
-46.5,3.0925052683774528,0.0625
-33.0,-4.601942363656923,0.0
-47.5,5.602097837358361,0.125
-41.0,0.0,0.5
-58.5,3.687689814077081,0.375
-50.5,1.2701360923693112,0.375
-48.0,-4.632621979414637,0.0
-30.5,3.9699422790480394,0.0
-55.5,-3.749049045592507,0.375
-45.0,-1.368310862793992,0.0
-52.0,5.737088146692298,0.5
-32.0,-4.675573441475434,0.5625
-53.5,-0.5706408530934586,0.1875
-58.0,-0.5154175447295755,0.25
-56.5,0.0,0.0625
-40.5,-4.28287435977671,0.1875
-43.0,4.804427827657828,0.25
-56.5,-0.9449321653375549,-0.125
-53.0,1.264000169217768,0.125
-45.0,-0.5951845456996283,0.0625
-48.0,-4.166291819897402,0.1875
-36.5,0.0,0.0625
-44.5,0.7669903939428204,0.25
-35.0,0.6197282383057994,-0.0625
-31.5,-1.5769322499464398,0.25
-35.0,-4.129476280988146,0.1875
-38.5,1.129009859883832,0.125
-45.0,-0.8774370106705869,0.4375
-56.5,5.019185137961818,0.0625
-42.5,-5.516194913236766,0.25
-47.5,1.9880391010997909,0.125
-39.5,3.282718886075272,0.1875
-57.5,-3.0495538063166543,0.375
-35.0,0.0,0.5625
-35.0,0.7731263170943627,0.125
-66.5,-4.233786974564369,-0.0625
-34.5,4.25833066717054,0.25
-54.5,-0.08590292412159606,0.0625
-53.5,0.7117670855789369,0.4375
-45.0,-2.589359569950962,0.75
-62.5,2.0371264863121317,0.1875
-63.5,0.09203884727313838,0.375
-59.5,-3.479068426924634,0.25
-32.5,-2.184388641949153,0.25
-58.0,0.0,0.1875
-42.0,3.472932503773092,0.5
-57.0,-3.7735927381986776,0.1875
-49.0,5.074408446325701,0.0625
-56.0,-1.5217089415825562,0.1875
-54.5,-3.9760782021995817,0.0625
-53.0,0.4295146206079795,0.125
-36.0,1.2149127840054277,0.0625
-36.5,4.006757817957295,0.125
-36.5,-5.88435030232932,0.0
-59.0,0.3497476196379262,-0.125
-23.0,4.945554060143307,0.25
-49.0,0.570640853093459,0.125
-48.0,-5.485515297479053,0.25
-57.0,0.0,0.0
-40.5,0.09203884727313838,0.25
-24.0,1.2824079386723963,0.1875
-33.5,-1.6628351740680354,0.625
-45.5,3.117048960983623,0.375
-35.0,1.368310862793992,0.25
-53.5,-0.34361169648638334,-0.125
-45.5,1.0492428589137779,0.1875
-35.5,-2.294835258676919,0.375
-54.5,-3.5833791205008576,0.0625
-62.0,0.0,-0.0625
-31.0,5.344389064993574,0.375
-43.5,-5.092816215780329,0.1875
-58.0,4.657165672020807,0.25
-57.5,-0.4295146206079803,0.0625
-32.5,-3.1109130378320797,0.5625
-60.0,-1.1106020904292042,0.375
-47.5,5.00077736850719,0.125
-47.0,-3.8901752780779857,0.125
-64.0,0.0,-0.125
-57.0,-0.4601942363656919,0.0
-63.5,-1.3928545554001621,0.5625
-31.5,2.3071071049800045,0.1875
-39.5,-5.951845456996288,0.375
-43.0,0.25770877236478773,0.5
-51.5,0.17180584824319184,-0.0625
-34.5,3.96994227904804,0.25
-23.5,-2.8593401886188357,0.5625
-38.0,4.319689898685966,0.5
-32.5,0.31906800388021317,0.5625
-36.5,-1.5523885573402687,0.1875
-45.0,-3.865631585471816,0.625
-57.0,5.381204603902829,0.0625
-36.0,-4.09266074207889,0.5
-23.0,0.0,0.625
-41.5,3.663146121470911,0.5
-37.0,-2.3868741059500573,0.5
-67.0,3.7367771992894214,0.375
-48.5,0.15953400194010658,0.25
-38.5,-3.7920005076533045,0.375
-35.0,-1.0492428589137788,0.125
-47.5,0.3865631585471815,0.375
-35.0,-1.0492428589137786,0.375
-46.5,1.5278448647340988,-0.0625
-45.5,-0.5890486225480863,0.0625
-45.0,4.804427827657828,0.0
-43.0,0.34361169648638334,0.5625
-50.0,-4.896466674930966,0.125
-30.5,3.393165502803038,0.1875
-63.5,1.3192234775816516,0.25
-45.5,0.0,0.0
-59.0,3.5465635815916023,0.0
-47.0,1.3621749396424496,0.0625
-50.5,-1.6444274046134075,0.625
-40.0,-1.7364662518865457,0.625
-48.5,3.75518496874405,0.0625
-32.0,-1.4296700943094178,0.0625
-30.5,0.9572040116406395,0.0625
-47.5,0.15339807878856426,0.0
-54.5,-4.951689983294849,0.5
-52.5,5.2768939103266055,-0.125
-45.5,0.0,0.0
-52.5,0.7853981633974483,0.0625
-46.5,4.28287435977671,-0.0625
-46.5,-2.4359614911623986,0.0625
-35.0,1.4235341711578746,0.25
-24.0,-2.87161203492192,0.5625
-39.0,-1.6321555583103222,0.375
-36.0,-0.23930100291016004,0.375
-69.5,5.927301764390117,-0.0625
-41.0,-5.289165756629691,0.1875
-32.5,0.0,0.0625
-50.0,-3.914718970684156,0.4375
-40.0,3.9760782021995817,0.125
-38.0,-0.2699806186678728,0.1875
-45.0,-3.104777114680538,0.0625
-35.0,1.5339807878856413,0.25
-65.5,-3.5281558121369745,0.25
-54.5,0.5276893910326605,0.0625
-33.5,3.920854893835699,0.1875
-31.5,0.589048622548086,0.0625
-56.5,-1.3192234775816516,-0.125
-61.0,0.0,0.25
-48.5,1.7855536370988867,-0.125
-44.0,-2.540272184738622,0.25
-43.5,2.0432624094636735,0.1875
-45.0,-5.21553467881118,0.125
-54.5,4.239922897715912,0.0
-30.5,-4.154019973594316,0.0625
-31.0,5.166447293598839,0.0625
-56.5,-5.675728915176872,-0.375
-46.5,4.792155981354743,0.4375
-57.0,-3.258175193469102,-0.0625
-32.0,-0.8835729338221293,0.5
-46.5,0.0,0.125
-53.5,4.344233591292135,-0.0625
-35.0,1.0492428589137788,0.0
-35.0,-4.0558452031696355,0.5625
-46.5,4.221515128261284,0.125
-33.5,-5.473243451175968,-0.0625
-39.5,5.0437288305679875,0.5625
-57.5,-4.933282213840221,0.0625
-35.0,4.718524903536232,0.1875
-45.5,0.3313398501832987,0.1875
-71.0,0.3865631585471814,-0.375
-36.5,0.0,0.125
-56.0,1.662835174068035,0.25
-46.5,-1.7303303287350031,0.1875
-47.5,0.4049709280018092,0.0625
-41.0,3.7551849687440493,0.375
-49.0,1.60147594255261,0.375
-40.0,0.04295146206079803,0.5625
-30.5,-5.6941366846315,0.625
-45.0,-0.19634954084936201,0.5
-55.5,0.6442719309119693,0.0625
-44.0,2.5648158773447918,0.0
-48.5,0.0,-0.125
-53.5,-1.2578642460662257,0.375
-58.0,-3.025010113710484,-0.0625
-58.5,4.638757902566178,0.25
-57.0,-1.6566992509164926,-0.125
-51.0,-3.8042723539563896,0.5625
-44.5,0.15953400194010675,0.5625
-39.0,5.497787143782138,0.125
-38.0,-0.4663301595172351,0.125
-35.0,-4.663301595172349,0.5
-46.0,4.031301510563464,0.25
-58.0,0.0,0.1875
-42.5,0.05522330836388312,-0.125
-30.5,1.1903690913992575,0.0625
-42.5,2.276427489222291,-0.1875
-23.5,-3.5895150436524004,0.125
-40.5,5.338253141842031,0.0
-45.0,-4.724660826687774,0.75
-49.5,0.1718058482431919,-0.375
-46.0,-0.19634954084936207,0.25
-57.0,0.0,0.0625
-45.0,0.44792239006260726,0.5
-50.5,0.9142525495798421,1.125
-51.0,-2.110757564130642,0.125
-59.0,5.737088146692298,-0.5625
-42.5,-4.552854978444583,0.0
-31.5,0.4049709280018092,0.5625
-58.0,2.8716120349219203,-0.5625
-45.0,0.28838838812250067,0.125
-33.0,-4.1417481272912315,0.25
-46.5,0.8467573949128739,0.875
-63.0,-1.1780972450961724,0.5625
-32.0,0.0,0.0625
-53.0,-5.5100589900852235,0.25
-59.5,5.982525072754001,1.9375
-59.5,-1.306951631278567,-0.0625
-52.0,0.4295146206079803,1.0625
-42.5,-4.853515212870169,0.5
-44.5,1.7916895602504288,0.125
-40.5,-0.5706408530934586,0.0
-60.0,4.160155896745859,1.3125
-44.5,-5.184855063053467,0.125
-37.0,4.534447208989955,0.0625
-39.0,0.8528933180644165,-0.0625
-46.5,0.0,0.1875
-42.5,1.932815792735908,0.0
-56.5,0.9326603190344698,-0.8125
-44.0,1.3192234775816516,0.1875
-64.5,-0.5583690067903735,-0.5
-22.5,0.2024854640009046,0.5
-36.0,-0.18407769454627676,0.625
-33.0,-4.871922982324796,0.1875
-37.5,-0.11658253987930872,0.5
-38.5,0.9510680884890974,0.125
-37.0,4.773748211900116,0.0625
-38.5,0.37429131224409584,0.25
-51.5,-0.1656699250916489,0.0
-57.0,0.0,0.5625
-54.5,-2.2396119503130363,-0.1875
-48.5,-1.2149127840054277,0.0625
-44.0,0.25157284921324513,0.625
-49.5,4.534447208989955,0.1875
-29.5,-1.1290098598838316,0.375
-51.5,-3.7858645845017627,1.0625
-32.5,5.835262917116979,0.0625
-38.0,-5.436427912266712,-0.125
-48.5,1.6935147898257477,-0.625
-42.0,0.0,0.0625
-55.5,0.11658253987930872,-0.25
-35.5,-0.24543692606170256,0.375
-23.0,0.34361169648638357,0.4375
-47.5,5.141903600992669,0.5
-31.5,-3.853359739168731,0.75
-37.5,0.0,0.125
-46.0,-0.8222137023067037,0.4375
-31.5,0.7915340865489909,0.375
-23.0,-1.3069516312785663,0.625
-47.5,0.7976700097005335,-0.0625
-56.0,-0.705631162427395,0.0625
-55.0,3.215223731408304,0.1875
-37.0,1.3130875544301088,0.25
-58.5,0.030679615757712497,-0.875
-49.5,-3.4422528880153784,0.125
-48.0,0.0,0.375
-32.5,0.20862138715244716,0.1875
-51.0,1.8469128686143121,0.1875
-57.0,1.5892040962495244,0.0
-53.5,1.0369710126106932,0.375
-41.5,-0.3558835427894689,0.25
-31.0,-0.23930100291016032,0.0625
-52.0,-1.503301172127928,0.125
-44.5,0.0,0.1875
-59.5,5.448699758569798,0.125
-40.5,-0.08590292412159606,0.1875
-41.0,-4.436272438565274,0.375
-47.0,0.49087385212340506,0.5625
-37.5,-0.6258641614573415,0.5625
-38.5,4.3503695144436785,0.375
-35.0,-3.908583047532614,0.875
-30.0,0.8651651643675016,0.5625
-23.5,-1.368310862793992,0.5625
-53.5,0.0,0.125
-47.0,-0.20862138715244694,0.1875
-31.0,-4.374913207049849,0.5625
-53.0,5.47937937432751,0.0
-37.5,-0.030679615757712497,0.1875
-40.5,-4.571262747899211,0.125
-41.5,4.031301510563465,0.25
-32.0,0.3620194659410112,0.25
-64.5,-4.675573441475434,0.625
-53.0,4.841243366567083,0.1875
-49.5,-1.073786551519949,-0.5
-29.5,-4.436272438565274,0.375
-55.5,5.111223985234957,0.625
-31.5,0.0,0.1875
-47.0,-5.6143696836614465,0.0625
-53.5,4.313553975534423,0.0
-48.5,0.840621471761331,0.0625
-45.5,0.38656315854718226,0.1875
-47.0,-2.3684663364954304,0.5625
-50.5,1.3437671701878218,0.25
-63.5,-0.0981747704246807,0.125
-67.5,1.178097245096172,0.5
-56.0,-5.651185222570702,0.5
-55.0,0.0,0.375
-40.5,0.6074563920027138,0.75
-63.5,-5.019185137961817,0.0625
-36.0,5.945709533844745,-0.1875
-46.5,-0.4663301595172351,0.125
-31.5,0.3681553890925535,0.25
-36.0,-1.0185632431560654,0.375
-23.5,-3.5772431973493157,0.5625
-33.5,3.6570101983193686,0.0625
-41.5,-3.307262578681442,0.0625
-43.5,0.2024854640009046,0.1875
-34.5,-0.859029241215959,0.625
-37.5,-0.9326603190344699,0.1875
-22.5,0.0,0.75
-38.5,-4.693981210930062,0.1875
-34.5,-1.2640001692177683,0.5625
-42.0,0.9756117810952678,0.1875
-52.5,3.6017868899554855,0.9375
-43.0,-4.074252972624263,0.25
-52.0,1.6873788666742051,0.5
-32.5,-2.350058567040802,0.375
-45.0,3.699961660380166,-0.0625
-57.5,-1.9941750242513334,0.5625
-45.5,0.0,0.125
-35.5,-0.04908738521234035,0.375
-50.5,0.11658253987930856,-0.1875
-55.0,0.1288543861823941,0.0
-34.5,-5.982525072754001,0.5
-59.0,0.1595340019401067,0.25
-35.0,5.577554144752192,0.375
-40.5,-1.8100973297050569,0.5625
-35.0,0.0,0.375
-48.0,-5.5714182216006485,0.1875
-36.5,-0.3067961575771282,0.0
-66.0,5.485515297479053,-0.5625
-46.0,-5.2339424482658075,0.0
-38.5,1.2762720155208536,0.5
-48.0,4.104932588381976,0.4375
-55.5,-5.295301679781233,-0.4375
-35.5,0.6749515466696823,0.375
-23.0,-1.1412817061869172,0.0625
-30.5,1.1719613219446299,0.125
-47.0,0.34361169648638357,0.0
-41.0,-0.901980703276757,0.1875
-42.0,0.0,0.0625
-35.0,1.227184630308513,0.25
-51.0,-2.282563412373834,0.1875
-45.5,0.07976700097005333,0.1875
-43.0,-0.09203884727313846,0.5625
-46.5,0.3067961575771282,0.125
-34.0,5.773903685601553,0.125
-42.0,-1.2762720155208536,0.25
-32.0,-4.06811704947272,0.625
-57.0,0.0,-0.75
-67.0,3.2581751934691017,0.25
-49.0,-4.71238898038469,0.5
-54.0,3.4177091954092083,0.1875
-49.5,-4.669437518323892,0.25
-47.5,-0.01227184630308513,0.125
-33.5,5.086680292628786,0.1875
-42.5,1.0001554737014375,0.125
-47.5,-0.4356505437595217,0.0625
-39.0,-1.662835174068035,0.5
-47.0,0.0,0.5625
-35.0,-0.8467573949128742,0.1875
-36.0,0.9387962421860125,0.625
-42.0,-0.7179030087304801,0.5
-39.0,-3.043417883165112,0.125
-35.0,-0.8713010875190441,0.375
-46.0,-0.7056311624273949,0.25
-42.0,-0.2638446955163303,0.125
-40.0,5.589825991055276,0.75
-23.0,-1.0921943209745768,-0.0625
-46.5,0.48473792897186296,0.25
-55.0,0.0,0.1875
-59.0,0.3988350048502669,-0.125
-42.0,0.47860200582031975,0.5
-34.5,-4.81056375080937,0.125
-45.0,-0.22089323345553236,0.375
-40.0,0.8713010875190442,0.8125
-54.0,2.043262409463674,0.5
-31.5,1.1412817061869176,0.25
-49.5,0.0,0.0625
-31.0,-5.737088146692298,0.375
-51.5,4.743068596142403,0.25
-31.5,-4.718524903536233,0.375
-48.0,1.1228739367322893,0.0625
-50.5,-0.9387962421860123,0.5
-47.5,5.221670601962723,0.25
-23.0,-0.5092816215780331,0.4375
-38.5,0.31906800388021406,0.1875
-56.0,-4.172427743048944,-0.25
-49.5,4.344233591292135,0.1875
-47.0,0.24543692606170264,0.125
-39.0,0.0,0.5625
-34.0,1.4726215563702154,0.375
-22.5,2.5709518004963345,0.1875
-48.0,0.6258641614573417,0.125
-38.0,-5.166447293598839,0.625
-62.0,5.344389064993574,-0.0625
-41.0,0.0,0.125
-33.5,-5.608233760509904,0.25
-45.5,6.000932842208629,0.0625
-51.5,0.0,0.4375
-32.5,-1.3314953238847365,0.5625
-37.0,-0.7547185476397353,0.125
-49.5,-0.018407769454627743,0.1875
-47.0,3.8963112012295285,0.125
-45.5,-3.9269908169872414,0.375
-43.5,0.2515728492132452,0.0625
-39.5,1.0369710126106935,0.1875
-43.5,-1.214912784005428,0.25
-32.0,0.0,0.375
-41.5,-0.8160777791551611,0.1875
-49.0,5.2584861408719785,0.8125
-34.5,-5.086680292628786,0.0625
-35.0,-0.11658253987930872,0.875
-59.0,4.368777283898305,-0.25
-45.0,-3.963806355896496,0.375
-66.5,1.3192234775816514,0.0
-23.0,4.104932588381976,0.5
-43.5,0.0,0.1875
-34.5,0.42337869745643697,0.125
-51.0,-0.20248546400090467,0.5625
-34.5,5.117359908386499,0.125
-40.0,-3.160000423044421,0.5625
-36.0,2.4114177985562275,-0.0625
-32.0,0.570640853093459,0.5
-36.5,-0.7669903939428204,0.0625
-47.0,0.25157284921324496,0.375
-47.0,-4.638757902566179,0.25
-62.5,5.129631754689584,-0.375
-52.5,0.0,0.4375
-37.0,0.8099418560036185,0.5
-56.5,0.7301748550335647,0.25
-32.5,-0.09203884727313838,0.1875
-45.0,-4.8351074434155406,0.375
-53.5,4.417864669110647,0.125
-46.5,-3.215223731408304,0.0625
-47.5,3.252039270317559,0.0
-43.5,-5.595961914206819,0.375
-59.0,5.123495831538041,0.75
-61.0,0.0,-0.5
-45.5,-4.779884135051658,0.25
-39.0,-0.2270291566070749,0.25
-44.5,2.043262409463674,0.4375
-23.5,-0.7117670855789373,0.1875
-37.0,4.509903516383785,0.125
-40.0,-0.7547185476397349,0.25
-40.0,-4.73693267299086,0.875
-44.5,5.197126909356552,0.125
-34.0,-1.2701360923693104,0.375
-33.5,1.4787574795217582,0.5
-47.0,0.018407769454626965,0.0
-48.0,0.0,0.5
-45.5,5.5959619142068195,0.125
-43.0,-0.030679615757713385,0.5
-41.5,-4.638757902566178,0.25
-50.0,1.7119225592803755,-0.125
-52.5,2.061670178918302,-0.0625
-34.0,0.8160777791551608,0.375
-37.0,0.12271846303085177,0.1875
-55.5,0.0,-0.625
-47.0,-0.5829126993965437,0.0625
-31.5,4.276738436625168,0.0625
-54.5,0.7976700097005329,0.125
-48.0,0.0,0.0625
-67.5,-0.11658253987930856,-0.625
-46.5,-1.4848934026733005,0.1875
-31.5,0.7608544707912781,0.0
-41.0,0.0,0.625
-39.5,4.509903516383785,0.25
-24.0,-3.2643111166206444,0.125
-32.0,-2.0493983326152168,0.25
-40.0,0.25157284921324513,0.5625
-52.5,3.8042723539563905,0.0
-46.5,0.47860200582031975,0.0625
-34.0,0.15339807878856426,0.375
-35.5,0.7547185476397349,0.0625
-36.5,-4.890330751779423,0.1875
-47.0,5.295301679781234,0.0
-62.0,-4.92714629068868,-1.9375
-42.5,0.12271846303085132,0.375
-39.0,4.6019423636569226,-0.0625
-37.5,0.0,0.0625
-22.5,5.105088062083413,0.25
-47.5,0.012271846303085532,0.125
-52.5,0.19021361769781908,-0.1875
-44.0,-0.8528933180644165,0.1875
-55.5,1.1842331682477152,0.5625
-30.5,-5.767767762450011,0.25
-57.0,2.8716120349219203,-0.125
-66.5,0.0,-2.5
-34.0,1.1044661672776617,0.5625
-43.0,3.650874275167826,0.5625
-59.0,-0.7853981633974483,0.125
-47.5,0.2699806186678728,-0.0625
-53.5,-4.6448938257177215,0.1875
-42.0,0.28838838812250056,0.375
-36.0,3.331806271287613,0.0625
-41.0,-4.123340357836604,0.25
-40.0,4.908738521234052,0.875
-52.5,-0.6688156235181397,-0.5
-61.5,-4.006757817957295,-0.75
-23.0,0.0,0.5625
-41.0,-4.835107443415541,0.625
-55.0,0.8958447801252145,-0.1875
-35.5,-1.8285050991596843,0.5
-40.0,4.399456899656019,0.0
-39.0,-3.3624858870453256,0.125
-41.0,5.117359908386499,0.125
-35.5,-0.03681553890925482,0.1875
-33.0,-5.154175447295755,0.1875
-46.5,-0.3497476196379261,0.0
-51.5,0.0,0.125
-42.0,-0.23930100291016002,0.0
-31.0,0.030679615757712803,0.1875
-54.5,5.031456984264903,0.1875
-44.5,-4.503767593232242,0.1875
-52.0,5.00077736850719,1.0625
-44.0,-4.528311285838413,0.0
-45.0,1.3867186322486198,0.5
-54.0,2.411417798556228,0.75
-52.5,0.0,-0.0625
-30.5,0.2699806186678737,0.25
-53.5,-0.22702915660707568,0.25
-32.0,-5.638913376267617,0.125
-35.5,1.294679784975481,0.25
-47.5,3.9699422790480394,0.25
-35.5,-0.06135923151542588,0.375
-22.5,-0.3067961575771285,0.5
-52.0,-5.105088062083413,-0.1875
-55.5,1.7978254834019716,-0.1875
-33.5,0.0,0.1875
-38.0,0.816077779155161,0.0
-44.0,-0.006135923151542544,0.0
-23.0,-0.3988350048502667,0.5
-44.0,-0.901980703276757,0.0
-40.5,5.841398840268521,0.25
-53.0,-0.15339807878856426,0.0
-52.0,-1.116738013580746,0.0625
-47.0,-0.11658253987930944,0.125
-44.0,0.0,0.0
-53.0,-0.08590292412159606,-0.125
-64.0,-3.859495662320273,-0.75
-51.0,2.4359614911623986,-0.1875
-63.5,1.7364662518865455,0.5
-53.5,-4.577398671050753,0.1875
-32.0,0.0,0.5625
-47.0,-0.5890486225480862,0.4375
-37.0,0.39269908169872414,0.1875
-23.0,-0.11658253987930878,0.75
-46.0,1.2271846303085128,0.5
-43.5,-0.2822524649709579,0.375
-33.0,0.34361169648638357,0.1875
-35.0,0.0,0.375
-50.0,0.5583690067903735,0.25
-34.0,-0.1963495408493623,0.375
-47.5,-1.2394564766115979,0.1875
-60.0,-0.7976700097005338,-0.875
-55.0,-1.1044661672776614,-0.25
-54.5,-1.9819031779482486,0.5
-49.5,0.0,0.0
-54.0,2.5157284921324514,0.625
-42.0,1.6996507129772906,0.375
-48.0,0.030679615757712497,0.0
-34.0,0.21475731030399015,-0.0625
-56.0,-4.632621979414637,0.75
-43.5,5.074408446325701,0.1875
-53.0,-1.1535535524900018,0.375
-44.5,-3.792000507653305,0.25
-63.5,0.0,-0.1875
-33.0,3.761320891895592,0.0
-54.0,-4.945554060143307,-0.0625
-48.0,-0.95720401164064,0.25
-38.5,3.982214125351125,0.9375
-39.5,-2.595495493102505,0.25
-23.5,0.9203884727313847,0.625
-42.0,-2.2027964114037806,0.25
-40.0,1.423534171157875,0.5
-57.0,-0.3497476196379261,0.25
-33.5,0.0,0.125
-47.5,-0.29452431127404305,0.0
-39.0,4.28287435977671,0.1875
-41.0,-4.516039439535327,0.125
-50.5,5.64504929941916,0.125
-46.0,-0.7301748550335656,0.125
-50.5,-4.71238898038469,-0.0625
-44.0,-0.024543692606170286,0.25
-54.5,0.0,0.0625
-59.5,5.240078371417351,0.125
-45.5,-4.786020058203201,0.875
-46.0,1.3437671701878218,0.5625
-31.0,3.4115732722576655,0.0
-39.5,-5.902758071783947,0.0625
-23.0,1.5830681730979816,0.625
-39.5,0.0,0.4375
-31.5,-0.27611654181941514,0.625
-39.5,-3.767456815047135,0.1875
-47.5,0.7608544707912781,-0.125
-57.5,4.1417481272912315,0.375
-43.5,-4.571262747899211,0.0
-34.5,4.822835597112456,0.0625
-37.0,-5.595961914206819,0.5625
-54.0,2.773437264497239,-0.25
-44.5,2.6200391857086753,0.1875
-39.0,-4.154019973594316,0.125
-38.0,0.0,-0.125
-51.0,4.160155896745859,0.1875
-31.0,-0.9203884727313847,0.5
-34.0,-0.4295146206079794,0.25
-43.5,0.3313398501832978,0.125
-45.0,0.0,0.5625
-56.0,0.07976700097005374,0.5625
-46.0,0.6197282383057985,0.0
-44.5,-4.565126824747668,0.1875
-71.5,0.0,1.5625
-39.5,-1.5401167110371838,0.0625
-31.5,5.902758071783947,0.25
-33.0,-5.111223985234957,0.875
-45.5,0.06135923151542566,0.125
-52.0,0.0,0.5
-59.5,-2.528000338435537,0.25
-42.0,1.7426021750380882,-0.125
-44.5,-2.8716120349219203,0.1875
-49.0,1.902136176978195,0.125
-58.5,-0.7853981633974483,0.1875
-52.5,-1.3130875544301088,0.0
-46.0,0.0,-0.0625
-47.5,-0.28225246497095835,0.1875
-53.0,-0.5276893910326601,0.125
-47.5,-5.313709449235861,0.1875
-38.5,4.031301510563464,0.5625
-39.5,0.14726215563702194,0.5
-31.5,-0.47246608266877743,0.8125
-43.5,-0.49700977527494805,0.1875
-38.0,0.0,0.0625
-49.0,-0.03067961575771283,0.375
-46.5,-0.5706408530934586,0.0625
-31.0,0.674951546669682,0.8125
-23.0,4.816699673960913,0.25
-34.5,0.4356505437595226,0.5
-53.0,-1.5462526341887264,-0.1875
-52.0,-4.18469958935203,0.5
-58.0,4.417864669110647,-0.125
-44.0,0.0,0.5
-43.5,1.8039614065535141,0.25
-31.0,3.2029518851052186,0.4375
-54.0,-3.669282044622453,0.75
-35.5,2.589359569950962,0.5
-41.0,-2.307107104980004,0.0
-42.0,2.8470683423157497,0.0
-46.0,0.0,0.375
-63.5,4.252194744018997,-0.5
-44.0,-4.362641360746763,-0.125
-55.0,-0.4970097752749477,-0.25
-44.5,0.5951845456996289,-0.0625
-32.0,0.7547185476397353,-0.25
-39.0,-0.6258641614573415,0.5
-34.0,-0.5031456984264904,0.375
-41.5,0.23316507975861733,0.5
-38.0,4.399456899656019,0.5
-37.0,-3.706097583531709,0.5
-23.5,-1.3314953238847367,0.5
-23.5,0.0,0.25
-34.0,3.54042765844006,0.5625
-39.5,0.4356505437595217,-0.125
-42.5,-3.5956509668039427,0.125
-32.0,0.9756117810952677,0.375
-46.0,-0.3129320807286706,0.1875
-46.0,0.03681553890925526,0.1875
-47.0,0.0,0.0625
-51.5,5.626641529964532,0.625
-54.5,-5.2584861408719785,0.625
-34.5,0.8467573949128738,0.5625
-41.5,3.51588396583389,0.375
-57.0,0.9449321653375549,-0.25
-32.0,-0.4663301595172351,0.125
-55.5,0.20862138715244694,0.5
-59.0,-2.024854640009046,0.5
-38.5,0.0,0.375
-32.0,-0.26998061866787293,0.25
-47.0,0.05522330836388312,0.125
-38.5,-0.43565054375952206,0.75
-40.5,0.1227184630308513,0.125
-46.0,-0.20248546400090464,0.0625
-48.5,1.2087768608538854,0.125
-43.0,4.417864669110647,0.1875
-35.5,0.0,0.25
-39.0,0.8774370106705867,-0.0625
-60.5,-0.39269908169872414,0.625
-44.0,-0.04295146206079792,0.375
-45.0,3.08636934522591,0.0
-29.0,-2.8347964960126646,0.5
-53.0,0.0,-0.1875
-39.0,-3.245903347166016,0.125
-52.0,-0.6994952392758523,0.125
-57.5,-0.23316507975861744,-0.25
-30.0,0.8958447801252145,0.125
-51.5,4.270602513473625,0.125
-57.0,-5.706408530934585,0.1875
-22.5,0.23316507975861744,0.5
-49.0,1.380582709097077,0.375
-52.0,0.0,0.0625
-34.0,0.3252039270317555,0.5
-38.0,-4.608078286808466,0.5
-48.5,0.3190680038802134,0.5
-56.5,-1.5155730184310134,-0.0625
-23.0,0.0674951546669682,0.8125
-31.0,1.3192234775816514,0.0625
-43.5,4.614214209960009,-0.0625
-35.0,-5.399612373357457,0.375
-39.5,0.889708856973672,0.375
-40.5,0.0,0.5625
-38.0,4.865787059173254,0.5
-31.5,-0.3988350048502669,0.125
-30.0,-0.31293208072867085,0.1875
-43.5,-5.117359908386499,0.1875
-35.5,4.71238898038469,0.1875
-57.0,-4.147884050442773,-0.375
-46.0,0.0,0.4375
-43.5,1.3130875544301084,-0.0625
-60.0,-0.4663301595172351,0.1875
-46.5,-4.466952054322987,0.25
-46.5,4.0558452031696355,0.8125
-47.0,-0.04908738521234035,0.375
-45.5,-3.792000507653305,0.5625
-31.5,0.0,0.375
-35.5,5.4671075280244255,0.1875
-48.5,-5.178719139901925,0.5625
-47.0,4.528311285838413,0.1875
-45.0,-0.527689391032661,0.125
-23.5,0.7608544707912781,0.4375
-35.5,-5.184855063053467,0.25
-41.5,1.1228739367322893,0.0
-35.5,3.6938257372286243,0.375
-42.5,0.5031456984264899,0.125
-44.5,0.0,-0.0625
-54.0,-4.853515212870169,-0.8125
-43.0,0.7179030087304802,0.375
-32.5,4.681709364626977,0.5625
-50.5,-0.0981747704246807,0.125
-35.0,-0.7301748550335656,0.1875
-51.0,-0.018407769454627854,0.0625
-36.5,0.0,-0.0625
-53.0,-0.2945243112740432,0.1875
-52.5,-1.3192234775816514,0.8125
-50.0,5.915029918087033,0.0
-23.5,-4.540583132141498,0.5625
-47.5,0.4295146206079794,0.0625
-44.5,-1.4726215563702154,0.0625
-31.0,5.344389064993574,0.125
-44.5,0.05522330836388356,-0.0625
-45.0,-2.564815877344792,0.0625
-36.5,0.0,0.25
-34.5,-1.1719613219446299,0.375
-45.0,0.3190680038802133,0.4375
-43.5,4.847379289718626,0.125
-45.0,-1.3805827090970766,0.375
-49.5,0.8283496254582454,0.125
-36.5,-0.5706408530934581,0.0625
-35.5,1.6505633277649503,0.375
-31.5,-1.2824079386723968,0.1875
-37.0,-3.35021404074224,0.25
-31.5,2.8777479580734626,0.75
-48.0,0.0,0.375
-40.5,-4.614214209960009,0.125
-44.5,-0.2515728492132452,0.25
-45.5,4.73693267299086,1.5
-55.5,-1.349903093339364,0.375
-32.5,1.8100973297050569,0.125
-44.0,0.0,0.5
-46.5,-0.6320000846088842,0.375
-46.0,0.521553467881118,0.5625
-46.5,5.497787143782138,0.1875
-34.0,-0.41724277430489387,0.375
-37.5,-0.527689391032661,0.375
-23.0,0.9142525495798424,0.625
-31.0,-4.9823695990525625,0.375
-45.5,-0.6626797003665968,-0.0625
-44.0,-0.19021361769781953,0.1875
-54.0,5.8659425328746915,0.125
-36.0,0.0,0.25
-44.0,-0.6933593161243099,0.1875
-46.0,0.17180584824319178,0.0625
-35.0,5.381204603902829,0.0625
-23.0,0.3620194659410112,0.4375
-31.5,-5.117359908386499,0.5625
-45.0,0.9940195505498955,0.1875
-51.5,4.325825821837508,0.0
-45.0,-1.159689475641545,-0.125
-42.0,-4.424000592262189,-0.0625
-31.0,-0.46019423636569234,0.1875
-56.5,4.755340442445488,0.0
-51.0,0.0,0.0
-42.0,6.013204688511713,0.125
-56.5,-2.2027964114037806,0.25
-32.0,-3.8349519697141026,0.5625
-55.5,0.8406214717613313,0.0
-40.0,0.9572040116406402,0.8125
-51.0,0.0,0.0
-38.0,-5.043728830567988,0.0
-52.0,5.418020142812084,0.4375
-37.5,-0.07363107781851053,0.5
-53.5,-2.086213871524472,0.25
-43.0,1.791689560250429,0.5
-23.5,-0.4356505437595217,0.4375
-37.0,0.061359231515424995,0.5
-36.0,-3.6386024288647407,0.25
-40.5,-1.4910293258248433,0.25
-50.0,0.0,0.75
-23.0,-2.9759227284981438,0.5625
-34.0,0.3067961575771283,0.5
-51.0,0.20862138715244716,0.125
-65.0,4.577398671050753,-0.75
-32.5,-4.638757902566178,0.8125
-54.5,3.56497135104623,-0.25
-29.5,-3.2581751934691026,0.1875
-48.5,0.024543692606170397,0.0625
-40.5,0.0,0.375
-39.5,1.4480778637640448,0.1875
-51.5,-1.91440802328128,0.0
-55.0,-1.1474176293384597,-0.5
-49.5,-0.8651651643675016,0.25
-41.0,0.22089323345553233,0.125
-48.5,0.0,0.25
-48.0,4.914874444385594,0.25
-49.5,0.5154175447295755,0.0
-37.5,0.3313398501832987,0.375
-30.5,-6.092971689481767,0.375
-33.5,4.558990901596125,0.25
-23.0,-2.7366217255879834,0.4375
-39.0,-0.9081166264282996,0.375
-35.5,4.638757902566179,0.125
-45.5,0.3620194659410112,-0.125
-48.5,0.0,0.0
-44.5,3.7429131224409646,0.25
-54.5,-4.454680208019902,0.0625
-54.5,4.657165672020807,0.75
-32.0,1.5892040962495235,0.25
-43.0,-0.7915340865489906,-0.1875
-41.5,-4.9394181369917645,0.375
-41.0,3.8042723539563896,0.375
-53.0,-3.914718970684156,0.4375
-48.5,5.6941366846315,0.125
-49.0,0.0,0.25
-46.0,-5.516194913236765,0.25
-42.5,4.4976316700806995,0.0625
-35.0,1.030835089459151,0.5625
-47.5,-3.6201946594101133,0.0
-47.5,2.0064468705544187,0.1875
-39.5,0.8713010875190443,0.25
-45.0,0.0,0.5
-23.0,-0.31293208072867085,0.5625
-41.5,0.337475773334841,0.5
-43.5,4.779884135051658,0.0
-34.5,-2.3132430281315473,0.375
-41.0,-3.785864584501762,0.25
-34.0,1.1903690913992575,0.125
-32.0,1.1596894756415446,0.1875
-62.5,-2.331650797586174,-0.5
-44.5,5.154175447295755,0.1875
-37.5,-0.3374757733348419,0.1875
-44.5,-4.368777283898305,0.4375
-30.5,0.0,0.125
-41.0,-5.043728830567988,0.5
-52.5,5.019185137961818,0.1875
-53.0,-0.8590292412159597,0.25
-49.0,0.9510680884890981,0.75
-54.0,-5.062136600022616,-0.0625
-56.5,4.516039439535327,-0.0625
-53.5,-1.5646604036433538,0.375
-42.5,2.288699335525377,0.0625
-49.5,-3.896311201229529,0.5625
-55.0,2.4605051837685687,-0.875
-56.5,-4.28287435977671,0.0
-56.0,0.0,-1.25
-36.5,5.037592907416445,0.0625
-39.5,-5.730952223540755,0.5
-33.0,1.214912784005428,0.5
-23.0,0.564504929941916,0.5
-49.0,2.8041168802549516,0.125
-50.0,1.1965050145508007,0.375
-39.0,-0.3252039270317564,0.0625
-37.0,-5.123495831538041,0.5
-32.0,0.0,0.0625
-64.0,0.2024854640009046,-0.1875
-40.0,0.28838838812250045,0.0
-54.0,3.963806355896497,-0.0625
-46.0,-0.1656699250916498,0.25
-35.0,-2.7857091108003242,0.125
-58.5,3.6999616603801666,0.8125
-23.5,-0.2699806186678728,0.5625
-56.0,-4.01902966426038,0.25
-50.0,4.031301510563465,0.125
-29.5,0.5951845456996283,0.5
-35.5,0.0,0.25
-43.5,5.344389064993574,0.1875
-46.0,-0.7301748550335656,0.375
-61.0,-0.294524311274043,0.375
-50.5,-1.0737865515199485,0.0625
-45.0,1.865320638068939,0.25
-59.0,-0.632000084608884,0.1875
-49.0,-4.209243281958199,0.5
-30.0,0.30066023442558576,0.0625
-38.0,-0.04295146206079803,0.5625
-44.0,-0.3497476196379262,0.8125
-37.5,0.0,0.25
-40.0,-5.485515297479053,0.25
-61.0,6.000932842208629,-0.75
-49.0,-0.1349903093339364,-0.1875
-41.5,-4.822835597112456,0.5
-32.5,-0.8406214717613314,0.75
-39.5,5.878214379177777,0.5
-38.0,-2.0371264863121317,0.5
-23.5,-2.1475731030398975,0.625
-40.5,-1.6137477888556944,0.375
-44.5,5.663457068873787,0.1875
-41.5,0.0,0.25
-23.0,4.663301595172349,0.25
-36.0,0.6381360077604263,0.0625
-33.5,-5.405748296509,0.625
-48.5,1.0124273200045233,0.0
-38.5,-1.3867186322486198,0.5
-44.5,0.5767767762450011,0.125
-44.5,5.197126909356553,0.0625
-44.0,-1.5892040962495244,0.625
-60.5,0.0,0.9375
-33.5,-2.620039185708675,0.125
-53.0,3.6692820446224537,0.25
-57.5,-1.853048791765855,-0.9375
-62.5,-1.93895171588745,-0.125
-44.0,-1.3192234775816516,0.375
-41.5,4.9394181369917645,0.1875
-30.0,-0.2024854640009046,0.5
-46.0,-0.012271846303084644,0.0
-55.0,-0.07976700097005374,-0.125
-61.5,0.3681553890925544,-0.25
-52.0,0.0,0.125
-36.0,-0.02454369260617023,0.1875
-39.5,0.19021361769781953,0.8125
-34.0,4.933282213840222,0.5
-44.0,-0.865165164367502,0.5
-23.0,1.2762720155208536,0.4375
-40.0,-0.12271846303085177,0.25
-48.0,-5.270757987175063,0.375
-41.5,0.39269908169872414,0.1875
-41.5,-0.5767767762450011,0.875
-35.5,5.5100589900852235,0.375
-57.0,-1.5094370952794707,-0.0625
-32.0,-3.3808936564999534,0.375
-35.0,0.0,0.25
-22.5,-0.31906800388021317,0.4375
-44.5,-1.0062913968529807,0.25
-39.5,-3.258175193469102,0.1875
-42.5,-1.184233168247715,0.4375
-38.5,5.553010452146021,0.25
-31.0,-0.21475731030398926,0.1875
-50.5,0.3926990816987237,0.1875
-44.0,-5.927301764390117,0.25
-30.5,0.0,0.0625
-45.5,0.7915340865489906,0.1875
-40.0,-0.7731263170943627,0.8125
-51.0,-5.1725832167503825,0.25
-48.0,0.9756117810952678,0.125
-30.5,5.092816215780329,0.0625
-57.5,-1.0615147052168643,-0.1875
-48.0,0.9019807032767577,0.0
-60.0,-5.688000761479958,0.375
-48.5,5.71868037723767,0.25
-36.5,-0.5583690067903735,0.25
-42.0,0.0,0.5
-23.0,-0.6135923151542565,0.125
-53.0,5.3812046039028285,0.0625
-32.5,-1.0001554737014375,0.375
-42.0,0.8651651643675011,0.25
-65.0,-5.178719139901924,0.125
-35.0,0.3190680038802135,0.5
-54.5,2.82252464970958,0.9375
-39.5,0.6994952392758522,0.0
-35.0,-4.080388895775806,0.625
-48.0,1.0676506283684062,0.4375
-47.5,-0.4049709280018092,0.125
-40.5,0.9510680884890976,0.0625
-35.5,0.0,0.5
-23.0,-0.28838838812250056,0.625
-35.0,-0.07976700097005335,0.25
-55.5,0.3620194659410113,0.125
-51.5,1.2517283229146832,0.125
-40.0,-0.9326603190344698,0.0625
-46.0,0.23930100291016,0.5625
-31.0,0.2515728492132451,0.625
-60.0,-0.6258641614573416,-0.125
-55.5,-0.2515728492132451,0.375
-43.0,5.577554144752192,0.375
-32.0,-5.540738605842936,0.0625
-50.0,0.03067961575771283,0.1875
-46.0,0.9326603190344698,0.25
-46.0,0.0,0.25
-50.5,2.6139032625571326,0.4375
-51.0,2.294835258676919,0.0
-32.0,-5.491651220630596,0.375
-53.0,4.485359823777615,0.125
-31.0,-0.5154175447295755,0.625
-46.5,-1.4235341711578746,0.0625
-32.5,-1.6198837120072371,-0.25
-43.5,4.209243281958199,0.5625
-36.0,-5.006913291658733,0.375
-57.0,2.9943304979527716,0.0
-42.5,0.0,0.1875
-40.0,-0.5522330836388307,0.5625
-49.0,4.528311285838413,0.125
-45.5,0.4356505437595217,0.5
-62.0,-5.50392306693368,-1.1875
-31.5,6.14819499784565,0.25
-39.0,-2.6445828783148455,0.0
-23.0,-1.6935147898257479,0.5
-51.0,0.0,0.375
-39.0,5.491651220630596,0.125
-40.0,-1.306951631278566,0.375
-52.5,-3.497476196379262,0.0
-56.5,3.6386024288647407,0.1875
-45.0,1.3744467859455343,0.25
-43.0,-5.890486225480862,0.5625
-44.5,4.7860200582032,0.1875
-51.5,1.0615147052168634,0.1875
-61.5,-4.558990901596125,0.625
-54.5,2.386874105950058,0.0625
-31.0,-3.6201946594101133,0.375
-31.0,5.166447293598839,0.0
-48.5,0.0,0.0625
-45.5,0.2024854640009046,0.1875
-35.5,5.013049214810276,0.0625
-48.0,-0.1349903093339364,0.0
-59.5,0.006135923151542322,-0.0625
-50.5,0.28225246497095835,0.125
-42.5,-4.381049130201392,0.0625
-23.0,3.7797286613502203,0.1875
-45.0,-5.344389064993574,0.25
-35.0,6.105243535784852,0.5625
-45.0,-6.14819499784565,0.0625
-34.5,5.2339424482658075,-0.0625
-44.5,0.0,0.125
-39.5,0.6872233929727676,-0.1875
-41.5,-1.0676506283684066,-0.125
-47.5,-3.454524734318464,0.125
-34.0,-0.11658253987930856,0.625
-50.5,1.2210487071569702,0.8125
-42.5,-2.2150682577068657,0.25
-46.0,1.2701360923693108,0.5
-36.0,3.4913402732277192,0.125
-51.5,0.6197282383057994,0.1875
-44.0,0.0,0.25
-53.0,3.951534509593412,-0.125
-50.5,0.5399612373357456,0.25
-60.0,-3.6324665057131984,0.0
-66.5,3.0434178831651115,1.0625
-33.0,0.865165164367502,0.5
-34.0,-3.816544200259475,0.375
-49.0,3.914718970684156,0.0625
-55.5,-0.24543692606170264,-0.25
-42.5,-3.2459033471660166,0.0
-50.5,2.1230294104337273,0.125
-53.5,0.0,0.5
-32.0,2.6016314162540475,0.0625
-44.5,-3.3563499638937824,0.25
-33.0,0.31293208072867085,-0.0625
-34.5,-1.0676506283684064,0.25
-23.5,-0.19634954084936207,0.25
-35.0,5.994796919057086,0.25
-42.0,-4.282874359776709,0.125
-67.0,4.061981126321179,-0.125
-46.5,-5.411884219660543,0.25
-40.0,4.411728745959104,0.4375
-35.5,0.0,0.125
-42.0,1.4480778637640457,0.25
-44.5,-1.245592399763141,0.5
-39.5,-2.6445828783148455,0.1875
-39.5,-0.8099418560036185,0.1875
-46.5,-0.9694758579437252,0.125
-42.0,2.1537090261914402,0.125
-59.0,3.368621810196868,-0.1875
-47.0,-1.1842331682477152,-0.125
-58.5,1.1719613219446297,-0.25
-49.5,-0.41110685115335155,0.0625
-49.5,-4.743068596142402,0.25
-53.5,-0.6994952392758524,0.125
-35.0,0.0,0.125
-47.0,0.11658253987930944,0.125
-58.5,-0.337475773334841,0.0
-34.0,-5.240078371417351,0.25
-51.0,5.540738605842936,0.125
-48.0,-0.31906800388021317,0.125
-60.5,0.3681553890925535,-0.0625
-45.5,-4.399456899656019,0.5625
-39.0,0.0,0.25
-34.5,-5.14190360099267,0.5
-33.5,3.785864584501762,0.1875
-35.0,0.31906800388021317,0.1875
-41.0,0.8590292412159597,0.375
-23.0,-4.6878452877785195,0.25
-42.0,0.4908738521234053,0.5625
-32.5,0.7424467013366505,0.25
-43.5,2.7918450339518666,0.5625
-43.5,-1.761009944492716,0.0625
-37.0,-1.5523885573402687,0.5
-42.0,-1.4971652489763858,0.75
-56.0,-0.3620194659410113,-0.0625
-43.0,5.013049214810275,0.25
-34.0,0.0,0.0625
-34.0,4.589670517353838,0.1875
-39.5,-4.657165672020806,0.375
-23.0,4.933282213840222,0.4375
-60.0,-3.9883500485026664,0.0625
-58.0,4.135612204139688,0.0
-40.0,-0.9387962421860125,0.8125
-51.0,-4.2031073588066565,0.1875
-31.5,4.853515212870168,0.5
-45.0,-0.4970097752749476,0.125
-39.0,-5.221670601962723,0.0625
-43.5,3.8533597391687304,0.1875
-58.5,0.0,0.1875
-56.0,-4.516039439535327,0.0625
-33.0,-0.5583690067903735,0.625
-52.0,5.810719224510809,0.4375
-45.5,-4.374913207049849,0.1875
-50.5,4.111068511533518,0.0625
-47.5,0.10431069357622391,0.1875
-69.0,-1.5462526341887264,0.8125
-32.5,-3.9392626632903265,0.25
-54.0,4.301282129231337,-0.0625
-35.0,1.3928545554001621,0.25
-34.0,0.0,0.1875
-42.5,-1.644427404613407,0.75
-65.5,0.2270291566070749,-0.625
-23.0,4.865787059173254,0.25
-46.5,-5.485515297479052,0.0625
-33.5,0.662679700366597,0.75
-35.5,4.933282213840222,0.0625
-43.5,0.18407769454627676,0.25
-59.0,-5.491651220630595,0.0
-46.0,1.509437095279471,0.0
-36.5,-1.6873788666742053,0.0625
-62.0,0.38042723539563905,-0.1875
-67.5,4.221515128261284,-0.0625
-34.0,0.0,0.875
-56.0,4.074252972624263,0.1875
-50.0,0.23930100291016032,0.125
-45.0,-4.565126824747669,0.25
-57.0,-0.3742913122440965,0.1875
-32.5,5.289165756629691,0.25
-55.0,-0.4908738521234053,0.25
-48.0,-3.141592653589793,0.1875
-48.0,3.6754179677739964,0.0
-39.5,0.0,0.625
-46.0,3.4545247343184635,0.1875
-60.0,0.4663301595172351,0.1875
-47.0,-3.8410878928656453,0.375
-39.5,3.877903431774901,0.1875
-36.5,-0.865165164367502,0.125
-42.0,0.9817477042468106,0.5625
-40.5,-4.264466590322082,0.0625
-42.0,4.859651136021712,0.0
-46.5,0.0,0.1875
-39.5,4.945554060143308,0.125
-42.5,-3.957670432744955,0.125
-32.5,3.687689814077082,0.5625
-36.0,-3.7183694298347945,0.1875
-41.0,-0.14726215563702172,0.75
-46.5,-0.07363107781851075,0.1875
-66.5,-0.8774370106705867,-0.25
-52.5,4.166291819897402,0.25
-34.5,-4.154019973594316,0.125
-23.5,0.32520392703175593,0.5625
-53.0,0.7117670855789375,0.0
-44.5,2.8347964960126646,0.0625
-43.0,0.0,0.1875
-63.5,0.3497476196379261,0.1875
-52.0,3.018874190558942,0.5
-58.0,-5.313709449235861,-0.375
-50.0,4.8780589054763395,0.0
-62.5,-0.2024854640009046,0.0
-33.5,-0.14726215563702194,0.125
-48.0,0.7915340865489906,0.125
-54.0,-0.7792622402459051,-0.0625
-32.0,0.589048622548086,0.0
-45.0,0.0,0.4375
-51.0,2.5893595699509624,0.5
-42.5,-3.3502140407422405,0.125
-38.0,5.21553467881118,0.25
-22.5,-0.024543692606170175,0.5625
-40.5,-5.203262832508095,0.125
-60.0,-0.11044661672776616,0.0
-35.0,5.031456984264903,0.0
-45.5,0.8344855486097886,0.125
-47.0,-0.0981747704246807,0.0625
-41.5,-0.34974761963792655,0.125
-36.0,-0.030679615757712497,0.125
-39.0,0.0,0.625
-23.0,4.865787059173254,0.1875
-33.5,-4.9210103675371375,0.25
-56.0,1.6996507129772906,0.375
-51.5,1.2394564766115983,0.1875
-43.5,-3.7981364308048478,0.25
-34.5,5.540738605842936,0.1875
-47.0,-5.3627968344482015,0.125
-42.5,0.4540583132141498,0.375
-46.0,-0.2761165418194155,0.1875
-57.0,-0.5583690067903734,0.125
-59.5,4.638757902566179,-0.1875
-57.0,0.0,-0.0625
-50.5,1.0246991663076086,0.1875
-31.5,-5.712544454086128,0.75
-43.5,5.700272607783043,0.375
-53.0,-0.04295146206079803,0.125
-47.0,-1.1535535524900018,0.375
-46.5,-3.730641276137879,0.0
-39.5,-0.10431069357622369,0.75
-46.0,0.227029156607075,0.25
-56.5,-1.1903690913992575,0.1875
-45.5,0.0,0.125
-58.0,-0.1963495408493623,0.0625
-42.5,-2.2089323345553233,0.1875
-39.5,-0.18407769454627698,0.1875
-35.0,4.589670517353839,0.125
-47.0,-5.602097837358362,0.125
-56.5,0.4847379289718625,0.0625
-40.5,0.3067961575771283,0.25
-34.0,-1.1228739367322893,0.625
-62.0,1.7671458676442586,0.0625
-47.5,3.8901752780779866,0.25
-42.0,-0.5399612373357456,0.1875
-51.5,0.0,0.1875
-35.0,2.466641106920111,0.0
-39.0,0.8958447801252145,0.1875
-47.5,-1.5953400194010667,0.1875
-33.0,1.1474176293384595,0.25
-51.0,-0.27611654181941514,0.125
-53.0,-0.7363107781851079,0.0
-53.5,-0.4663301595172351,0.4375
-47.5,-2.018718716857504,0.125
-59.0,0.0,-0.0625
-40.5,0.2270291566070748,0.125
-47.0,2.9575149590435164,0.1875
-31.5,-3.6570101983193686,0.75
-44.0,-0.7240389318820226,0.5625
-54.0,5.872078456026234,-0.0625
-55.5,-5.645049299419159,0.125
-56.0,0.11044661672776623,0.1875
-50.5,3.32567034813607,0.25
-63.0,-2.2334760271614935,-0.1875
-50.0,3.4974761963792615,0.125
-59.5,0.0,0.25
-40.0,-0.1349903093339364,0.625
-36.0,5.332117218690489,0.25
-44.0,-0.9756117810952682,0.0
-23.0,0.8897088569736722,0.8125
-33.0,-4.822835597112456,-0.0625
-57.0,1.239456476611598,0.25
-35.5,4.3503695144436785,0.5
-45.0,-0.3681553890925535,0.0625
-52.0,-5.638913376267618,0.5
-62.0,-0.02454369260617026,-0.125
-47.0,1.1474176293384597,0.25
-35.5,0.0,0.25
-34.0,-4.289010282928253,0.5
-32.5,3.859495662320273,0.5
-45.5,0.3620194659410112,0.0625
-56.0,0.38042723539563905,0.0625
-53.0,-0.7608544707912781,0.4375
-32.5,0.7669903939428204,0.1875
-48.5,0.28225246497095835,0.5
-48.0,-0.07976700097005285,0.0625
-50.5,-1.2946797849754814,0.0625
-58.0,-0.632000084608884,0.0
-59.5,0.0,-0.375
-33.5,4.608078286808466,0.375
-63.5,-2.8593401886188348,-0.75
-56.5,3.3440781175906977,0.1875
-44.0,-4.749204519293945,0.375
-32.5,4.847379289718626,0.125
-49.5,-0.21475731030398926,0.0625
-52.0,-0.8713010875190443,0.1875
-35.0,0.7915340865489906,0.125
-42.5,-4.779884135051658,0.25
-43.0,4.571262747899211,0.1875
-23.0,0.0,0.5
-34.0,-4.963961829597935,0.1875
-35.0,-1.2210487071569704,0.125
-40.5,4.7307967498393175,0.25
-40.5,-4.491495746929157,0.5
-39.5,1.0799224746714913,0.375
-40.0,-0.17180584824319167,0.75
-43.5,-0.3497476196379262,-0.0625
-42.5,0.71790300873048,0.1875
-46.0,-1.1719613219446297,0.125
-42.0,4.816699673960913,0.25
-41.5,0.0,0.5625
-49.0,4.135612204139688,-0.125
-56.0,-5.295301679781233,-0.0625
-46.5,2.5402721847386216,0.25
-59.5,2.7550294950426117,-0.125
-58.5,0.41110685115335155,-0.0625
-45.0,-2.5954954931025047,0.0
-47.5,-2.779573187648782,0.0625
-35.0,5.221670601962722,0.0
-45.0,-4.147884050442773,0.5
-48.0,-1.1167380135807468,0.125
-40.5,0.0,0.75
-44.0,4.074252972624263,0.0625
-45.5,-3.6140587362585705,0.5625
-41.5,4.651029748869264,0.375
-32.0,-4.583534594202296,0.1875
-63.0,0.49700977527494783,0.1875
-48.0,4.4362724385652745,0.0625
-40.0,-1.2578642460662257,0.375
-46.5,-4.227651051412828,0.0625
-47.0,0.0,0.625
-56.0,-5.006913291658733,0.0625
-35.0,5.43029198911517,0.25
-43.5,-1.0246991663076077,0.1875
-51.0,-4.3503695144436785,-0.0625
-37.5,0.036815538909255374,0.8125
-66.0,0.11658253987930867,0.125
-34.0,4.865787059173254,0.375
-33.0,-4.4976316700806995,0.5625
-40.5,4.933282213840222,0.25
-39.0,-5.1725832167503825,0.375
-23.0,4.945554060143308,0.4375
-42.0,-4.865787059173254,0.625
-57.0,4.632621979414636,-0.0625
-55.5,0.0,0.25
-33.5,-5.405748296509,0.625
-49.5,5.510058990085223,0.125
-46.0,-5.595961914206819,0.125
-49.5,3.0004664211043144,0.125
-54.5,2.6813984172241003,0.25
-60.5,-5.45483568172134,-0.25
-59.0,5.381204603902829,-0.125
-54.0,-4.835107443415541,-0.1875
-48.5,3.1600004230444205,0.1875
-35.0,1.7119225592803762,0.5
-45.5,-0.9694758579437259,-0.0625
-31.0,0.0,0.4375
-31.0,-1.2517283229146834,0.5
-41.0,1.2394564766115979,0.1875
-39.0,-0.9019807032767568,0.125
-39.5,0.9940195505498952,0.375
-48.0,-5.092816215780328,0.1875
-36.0,4.865787059173254,0.25
-39.5,0.03681553890925571,0.375
-37.0,-0.6872233929727676,0.125
-44.5,-4.276738436625167,0.75
-42.0,-0.3988350048502667,0.25
-59.5,5.448699758569798,0.125
-39.5,0.0,0.625
-38.0,0.0,0.0625
-33.5,-3.429981041712294,0.5
-46.5,-0.8713010875190441,0.5
-34.0,-0.2638446955163303,0.375
-34.5,-0.5460971604872883,0.5625
-56.0,5.270757987175063,0.25
-52.0,-0.5583690067903735,0.0
-44.0,-4.859651136021711,0.1875
-57.0,0.0,0.0625
-44.0,5.246214294568893,0.1875
-31.0,-0.570640853093459,0.0625
-43.5,0.9633399347921827,0.375
-58.0,-0.10431069357622302,0.1875
-41.5,0.25157284921324496,0.25
-31.5,0.0981747704246807,0.375
-59.0,-3.4852043500761765,-0.0625
-45.5,-1.9512235621905356,0.1875
-38.5,4.540583132141498,0.5625
-48.0,-5.209398755659637,0.1875
-50.5,1.8653206380689398,-0.0625
-52.5,0.0,0.0625
-60.5,4.147884050442774,0.0
-44.0,0.1288543861823932,0.125
-34.5,-1.4235341711578746,0.1875
-45.5,1.0369710126106932,0.0
-33.0,0.4601942363656928,0.5
-35.0,-0.48473792897186296,0.125
-49.5,-4.172427743048944,-0.0625
-23.0,0.2945243112740432,0.25
-67.5,0.0,-0.0625
-41.5,-4.227651051412828,0.0
-36.5,2.5709518004963345,0.5625
-23.0,2.1414371798883547,0.5
-46.0,-5.602097837358361,0.0
-60.0,5.283029833478148,0.5
-41.0,-0.4049709280018092,0.1875
-50.5,-3.9638063558964967,0.125
-31.5,0.0,0.5625
-50.5,0.38042723539563894,0.25
-45.5,1.2333205534600558,0.5
-40.5,-2.1230294104337277,0.75
-43.5,3.877903431774901,0.0
-54.0,-3.773592738198677,0.25
-31.0,2.4420974143139405,0.5
-56.5,1.5523885573402691,0.1875
-45.5,1.0983302441261191,0.125
-45.0,-4.749204519293945,0.375
-35.5,0.0,0.125
-43.0,-0.294524311274043,0.375
-24.0,-3.7981364308048473,0.625
-45.5,3.792000507653305,0.625
-38.5,-2.926835343285804,0.1875
-35.0,-1.1290098598838318,0.625
-58.5,5.460971604872882,0.25
-32.5,-0.7669903939428204,0.5625
-43.0,0.6197282383057994,0.4375
-33.5,-4.779884135051658,0.375
-40.5,4.540583132141498,0.0625
-42.0,0.0,0.25
-60.0,5.0437288305679875,-0.1875
-37.0,-0.11044661672776623,0.1875
-42.5,-0.18407769454627676,0.25
-47.0,-3.4115732722576655,0.25
-53.0,2.9084275738311756,0.0
-56.0,-3.7858645845017627,-0.1875
-51.0,4.25833066717054,0.125
-34.5,-0.17180584824319212,0.0625
-32.5,0.5399612373357456,0.1875
-55.0,0.19021361769781997,0.0625
-44.5,0.0,0.1875
-51.0,4.3933209765044765,0.0
-47.5,0.41724277430489387,0.25
-59.0,-0.7117670855789369,-0.1875
-50.0,-0.527689391032661,0.0
-47.5,0.4049709280018092,0.0625
-60.0,-0.17180584824319212,0.1875
-34.0,-3.706097583531709,0.1875
-40.0,0.0,0.625
-56.0,1.7119225592803755,0.0625
-44.0,3.9024471243810708,0.125
-32.5,-5.160311370447296,0.5625
-35.5,4.914874444385594,0.5625
-46.5,0.3620194659410121,0.625
-22.5,-0.5338253141842033,0.25
-34.5,-0.28838838812250067,0.25
-58.5,-4.933282213840222,0.0625
-51.5,0.05522330836388306,0.25
-43.5,4.252194744018997,0.1875
-41.0,-3.5588354278946874,0.5
-46.5,0.5276893910326605,0.25
-34.0,0.0,0.5
-39.5,4.012893741108837,0.1875
-56.0,-3.9208548938356986,0.125
-40.5,0.466330159517235,0.1875
-47.0,0.24543692606170242,0.1875
-61.0,-0.7363107781851077,0.1875
-43.0,-0.7853981633974483,0.125
-56.0,5.602097837358361,0.125
-56.5,0.5522330836388312,0.1875
-32.0,-1.497165248976386,0.5
-32.5,0.0,0.125
-53.5,5.688000761479957,0.0625
-48.0,-5.405748296508999,0.5
-45.5,3.0679615757712826,0.375
-49.5,1.7487380981896306,-0.125
-23.0,-3.1600004230444205,0.1875
-39.0,1.9389517158874505,0.1875
-49.0,1.2333205534600555,0.125
-41.5,-3.853359739168731,0.5
-38.0,-1.2640001692177683,0.25
-44.5,0.0,0.5
-49.0,0.09203884727313849,0.0625
-45.5,5.154175447295755,0.4375
-42.0,-0.9326603190344702,0.1875
-52.0,-5.111223985234957,0.4375
-31.5,0.12271846303085132,0.25
-44.5,5.553010452146021,0.125
-36.0,-2.988194574801229,0.1875
-53.0,-2.2212041808584084,0.0625
-22.5,4.558990901596125,0.25
-47.5,0.34361169648638423,0.125
-35.5,0.0,0.0625
-54.5,-0.779262240245906,0.0625
-58.0,0.9081166264283,-0.0625
-70.5,0.3681553890925535,0.5625
-32.0,-0.012271846303084644,0.1875
-48.5,-0.1288543861823941,0.0625
-47.0,-3.4606606574700067,0.1875
-42.5,3.6876898140770815,0.0625
-51.5,-1.41126232485479,0.1875
-51.0,0.7179030087304801,0.25
-50.5,0.6994952392758522,0.0625
-31.0,0.0,0.8125
-32.5,5.203262832508095,0.125
-52.5,0.41724277430489476,0.125
-57.0,-1.2762720155208536,0.0625
-49.0,-4.479223900626073,0.25
-37.5,0.18407769454627687,0.125
-47.0,1.748738098189631,0.25
-53.0,2.6384469551633027,0.0625
-45.0,1.3867186322486198,0.375
-53.5,-5.589825991055276,-0.0625
-43.0,-0.10431069357622358,0.75
-61.5,0.0,-1.5
-38.5,-1.6873788666742051,0.5
-51.0,-0.13499030933393644,0.5
-39.0,0.09817477042468106,0.5
-34.5,4.908738521234052,0.125
-55.5,-4.779884135051658,0.25
-44.5,-0.024543692606170286,0.0625
-36.0,5.178719139901924,0.0625
-65.0,-5.467107528024425,0.5625
-32.0,0.5522330836388308,0.625
-23.5,4.853515212870169,0.5
-38.5,0.5338253141842024,0.375
-52.0,-0.3313398501832978,0.1875
-33.0,-0.3620194659410121,0.375
-51.0,0.0,0.0625
-33.0,-1.0185632431560663,0.1875
-59.5,-2.8716120349219203,0.0625
-39.5,1.9082721001297376,0.8125
-55.0,2.215068257706866,0.25
-41.5,-5.00077736850719,0.25
-31.5,4.945554060143307,0.25
-51.0,-1.0799224746714913,0.0
-43.0,0.7424467013366502,0.5625
-57.0,-0.736310778185107,0.75
-38.0,0.3681553890925535,0.75
-55.0,0.0,0.0
-44.5,0.18407769454627698,0.1875
-45.0,0.6872233929727674,0.5
-23.5,-1.1596894756415448,0.625
-33.0,4.503767593232242,0.375
-42.0,-2.6691265709210152,0.125
-39.0,3.0802334220743677,0.5
-34.0,-1.9696313316451635,0.5625
-40.5,0.822213702306704,0.0625
-33.5,-3.5097480426823475,0.625
-42.0,0.0,0.0
-39.5,-3.798136430804848,0.5
-42.5,0.012271846303085088,0.1875
-40.5,-1.1658253987930873,0.25
-59.0,0.4970097752749477,0.0625
-23.0,-0.705631162427395,0.75
-33.5,5.964117303299372,0.25
-33.5,-6.00706876536017,0.125
-65.0,5.902758071783947,-0.0625
-53.0,-0.3988350048502669,0.375
-61.5,0.0,-0.75
-58.5,-2.7059421098302714,0.25
-31.5,0.6810874698212246,0.625
-48.5,0.08590292412159606,-0.0625
-48.0,-1.227184630308513,0.1875
-58.0,0.5583690067903734,0.0
-53.5,4.387185053352933,0.1875
-56.5,-0.7976700097005329,-0.0625
-54.5,0.8958447801252145,-0.5
-36.0,-1.3805827090970775,1.1875
-43.0,-2.675262494072558,0.25
-48.5,1.7057866361288332,0.5
-38.0,0.0,0.25
-37.0,5.368932757599744,0.0625
-38.0,-4.859651136021711,0.1875
-46.5,5.350524988145116,0.125
-40.0,-5.460971604872883,0.1875
-34.5,5.0069132916587336,0.125
-40.0,0.061359231515424995,0.5
-53.0,-0.17794177139473444,0.75
-23.0,-3.4299810417122933,0.625
-47.5,-1.5094370952794707,0.5
-43.5,0.8099418560036186,0.0
-34.5,3.4606606574700067,0.1875
-44.5,0.0,0.5625
-40.0,5.203262832508095,0.25
-33.0,-5.092816215780329,0.25
-37.0,5.0866802926287855,0.375
-53.0,0.04295146206079803,0.1875
-56.5,0.21475731030399015,-0.625
-56.5,-3.595650966803943,1.1875
-46.5,2.331650797586175,0.5625
-53.5,-3.3808936564999534,0.8125
-32.5,-0.7731263170943632,0.5
-65.5,3.6631461214709113,0.1875
-51.5,-2.926835343285804,0.0625
-51.5,3.3870295796514958,-0.0625
-41.0,0.0,0.5
-53.5,-5.325981295538946,0.0
-61.5,5.043728830567988,1.0625
-58.0,-5.767767762450011,-0.1875
-39.5,1.4296700943094176,0.1875
-33.0,3.8226801234110184,0.1875
-35.5,0.7792622402459051,0.1875
-46.5,0.0,0.5
-46.0,4.06811704947272,0.5
-64.5,-3.8779034317749006,0.0625
-36.0,2.6384469551633027,-0.0625
-39.5,1.6873788666742051,0.4375
-34.0,-5.473243451175968,0.25
-31.0,4.957825906446391,0.375
-23.0,-4.558990901596125,0.5
-47.0,4.368777283898306,-0.5
-35.5,-3.890175278077986,0.375
-45.0,-1.4603497100671303,0.5625
-49.5,4.908738521234052,0.1875
-50.5,0.07363107781851141,-0.0625
-37.0,0.9019807032767568,0.25
-23.5,0.0,0.5
-55.0,-0.6872233929727674,0.1875
-49.5,5.135767677841127,-0.0625
-54.0,-1.0860583978230336,0.75
-63.5,-4.387185053352934,0.625
-52.5,1.7794177139473437,0.0
-32.5,3.5772431973493153,0.125
-39.0,0.0,0.0
-60.5,-1.3192234775816514,0.75
-55.0,4.853515212870168,0.625
-47.5,0.7731263170943627,0.1875
-29.5,-4.209243281958199,0.5
-44.0,2.435961491162398,0.0
-45.5,-2.141437179888355,-0.125
-41.0,3.160000423044421,0.25
-22.5,-4.706253057233147,0.5625
-22.5,0.0,0.625
-41.5,1.7119225592803757,0.4375
-47.0,-0.6258641614573417,0.1875
-67.0,3.9024471243810708,-0.1875
-34.5,-5.645049299419159,0.375
-45.0,5.325981295538946,0.75
-38.5,0.28225246497095835,0.4375
-50.0,-0.41724277430489476,0.25
-31.0,-3.436116964863836,0.375
-54.0,-1.632155558310322,0.375
-46.5,1.0983302441261191,-0.0625
-58.0,0.0,0.625
-36.5,4.4546802080199015,0.0625
-60.5,0.6013204688511715,1.125
-34.0,-5.737088146692298,-0.0625
-58.5,1.2087768608538854,0.25
-60.5,0.0,-0.1875
-55.5,1.4051264017032472,0.125
-42.5,0.6933593161243099,0.5
-23.0,-4.534447208989955,0.75
-55.0,4.0558452031696355,0.1875
-40.0,-4.681709364626977,0.0
-34.0,3.4238451185607515,0.5
-38.0,1.791689560250429,0.1875
-67.0,0.0,0.25
-35.5,0.8160777791551608,0.1875
-47.0,0.6442719309119695,0.4375
-54.0,-1.0185632431560654,-0.5625
-22.5,0.6258641614573417,0.4375
-37.5,-5.148039524144212,-0.375
-39.0,3.117048960983623,0.1875
-37.0,2.5648158773447918,0.5
-43.0,-5.473243451175968,0.5625
-47.5,5.283029833478148,-0.125
-65.0,-3.0372819600135696,0.5
-39.5,2.8286605728611227,0.375
-45.5,0.0,0.1875
-50.5,-3.77972866135022,0.125
-47.5,4.061981126321179,0.4375
-35.0,-0.19021361769781997,0.25
-43.5,0.3006602344255862,0.0625
-39.0,-1.3928545554001621,0.5
-33.5,-4.657165672020807,0.125
-52.0,0.6749515466696822,-0.125
-58.0,-0.33747577333484113,-0.25
-31.5,0.0,0.5625
-41.0,4.28287435977671,0.25
-59.0,1.8285050991596838,0.1875
-46.0,-0.2577087723647873,0.5625
-40.5,-5.227806525114265,0.1875
-48.0,4.81056375080937,0.125
-42.5,-5.516194913236766,0.0
-44.5,6.013204688511713,-0.125
-34.5,-3.988350048502667,-0.0625
-49.5,-1.5953400194010667,0.5
-32.5,0.0,0.25
-47.5,-4.442408361716817,0.0
-56.0,3.5097480426823466,-1.125
-38.5,-0.294524311274043,0.5625
-37.5,1.4173982480063323,0.0
-32.5,-3.718369429834794,0.0
-43.5,2.159844949342983,0.625
-51.5,1.1290098598838316,0.0
-44.0,0.00613592315154321,-0.1875
-49.5,0.0,0.1875
-51.5,4.847379289718626,-0.4375
-46.0,-4.675573441475434,0.5625
-30.0,3.577243197349315,0.375
-46.0,-0.41110685115335155,0.75
-35.5,-3.5711072741977725,0.0
-54.0,4.338097668140593,-0.1875
-46.0,0.0,0.125
-41.5,-0.07976700097005329,0.1875
-48.5,1.9512235621905354,0.0625
-43.5,-2.018718716857504,0.1875
-35.5,-0.36815538909255396,0.1875
-65.5,4.908738521234052,-0.1875
-32.0,-3.80427235395639,0.375
-23.0,-1.423534171157875,0.5625
-38.5,1.3437671701878218,0.375
-47.0,-0.38042723539563905,0.125
-22.5,0.0,0.5
-34.5,2.6752624940725585,0.125
-50.5,0.4417864669110645,0.5625
-50.0,1.5462526341887264,0.375
-64.0,-3.963806355896497,1.125
-43.0,-1.6382914814618648,0.625
-35.5,1.2333205534600555,0.125
-31.5,4.18469958935203,0.1875
-44.0,-0.8344855486097895,0.125
-45.0,0.0,0.25
-41.5,-0.38042723539563905,0.25
-31.0,-5.5530104521460215,0.8125
-52.5,5.411884219660543,0.5
-43.0,-1.1412817061869172,0.25
-46.0,-3.0066023442558567,0.0
-59.0,-1.0921943209745766,-0.375
-36.0,5.485515297479052,0.125
-22.5,-0.337475773334841,0.5625
-53.5,0.0,0.375
-39.5,2.190524565100695,0.125
-38.5,-4.945554060143307,0.5625
-39.5,3.6140587362585705,0.8125
-46.0,-4.491495746929157,0.0625
-37.0,3.816544200259475,0.625
-55.0,-0.09203884727313838,-0.25
-34.5,-4.049709280018093,0.1875
-51.0,0.0,0.1875
-35.0,-3.35021404074224,0.5
-46.0,3.098641191528995,-0.0625
-46.0,1.4848934026733005,0.75
-31.5,-4.338097668140593,0.9375
-57.0,4.123340357836604,0.75
-32.0,0.0,-0.0625
-30.5,0.9142525495798421,0.125
-57.0,-0.2822524649709579,-0.75
-56.0,-0.3313398501832985,0.75
-45.0,-0.23930100291016004,0.875
-60.0,0.9756117810952678,-0.75
-39.5,0.2822524649709579,0.125
-49.0,-0.30066023442558554,0.8125
-42.0,0.6197282383057989,0.25
-40.5,0.0,0.9375
-32.5,-5.5530104521460215,0.25
-54.5,0.6197282383057992,-0.75
-41.0,3.6386024288647407,0.0625
-37.0,-0.5092816215780331,0.8125
-44.5,-2.9636508821950587,0.5
-35.0,-0.11044661672776623,0.5
-41.5,3.558835427894688,0.0625
-23.0,-3.9269908169872414,0.625
-30.5,0.0,0.125
-48.5,1.2087768608538854,-0.4375
-33.5,-5.411884219660543,0.375
-55.5,2.36846633649543,-0.0625
-46.5,-1.8775924843720246,0.1875
-42.5,4.841243366567083,0.0625
-57.0,-1.834641022311227,0.0625
-42.5,-2.288699335525376,0.125
-65.0,-1.5769322499464393,-0.0625
-30.5,0.0,-0.375
-51.0,-5.098952138931871,0.25
-44.0,5.473243451175968,0.25
-42.5,-5.577554144752192,0.1875
-39.5,0.0674951546669682,0.125
-46.5,0.0,-0.1875
-47.0,-3.7306412761378795,0.1875
-35.0,-0.93266031903447,0.25
-44.5,4.534447208989955,0.5
-56.0,-6.043884304269427,-0.25
-46.5,5.589825991055277,0.25
-45.5,0.27611654181941514,0.125
-49.5,0.15339807878856426,0.0
-33.5,0.0,0.25
-54.5,-2.9759227284981438,-0.0625
-53.5,2.7550294950426113,-0.25
-46.0,-3.773592738198677,0.125
-55.5,4.080388895775806,0.1875
-39.0,-1.5094370952794707,0.1875
-55.5,-3.6508742751678263,-0.125
-53.5,-0.024543692606170175,0.5
-46.0,0.0,0.0625
-49.0,3.9760782021995817,0.125
-35.5,-0.7301748550335647,-0.0625
-51.5,-2.5832236467994196,0.125
-44.5,1.0001554737014382,0.125
-35.5,3.5588354278946874,0.5625
-43.0,-5.565282298449106,0.9375
-38.5,1.000155473701438,0.25
-32.0,0.16566992509164913,0.5
-51.5,0.28225246497095813,0.1875
-42.0,0.0,-0.125
-46.5,-2.9329712664373457,0.25
-56.0,-1.859184714917397,-0.8125
-46.5,3.9453985864418684,0.625
-49.5,1.221048707156971,0.1875
-45.5,-5.424156065963627,0.5
-64.5,4.681709364626977,0.8125
-61.0,0.4663301595172351,-0.375
-50.0,0.0,0.5
-42.5,-0.9940195505498952,0.0
-29.5,-3.6324665057131984,0.625
-55.5,1.6996507129772902,-0.0625
-40.0,3.3318062712876126,-0.25
-47.5,0.0,0.8125
-37.5,2.3193789512830896,0.0625
-51.5,-5.148039524144212,0.375
-43.0,0.07363107781851075,0.1875
-42.5,3.4299810417122933,0.125
-35.0,-2.0984857178275567,0.0
-56.0,-1.257864246066226,0.0
-31.5,-0.11658253987930856,0.625
-41.0,4.9394181369917645,0.375
-40.5,0.0,0.5625
-36.5,-0.07363107781851141,0.0
-42.5,-4.417864669110646,0.0
-32.5,2.2089323345553233,0.25
-50.0,2.3071071049800045,0.0
-45.0,-0.0674951546669682,0.5625
-52.0,-4.835107443415541,0.25
-55.5,4.828971520263998,0.25
-41.0,0.0,0.5
-45.5,-3.5465635815916023,0.125
-32.0,4.01902966426038,0.625
-53.0,-0.7424467013366502,-0.1875
-43.0,-5.325981295538946,0.375
-43.5,0.0,0.0
-37.5,-0.38656315854718226,0.25
-35.0,-5.270757987175063,0.625
-43.5,0.8344855486097889,0.25
-42.0,1.257864246066226,-0.375
-45.0,2.2457478734645786,0.125
-34.5,-3.6508742751678263,0.5625
-22.0,-0.20248546400090484,0.625
-58.5,-0.914252549579842,-0.5625
-59.5,0.0674951546669682,-0.25
-44.5,0.0,0.125
-35.5,1.22104870715697,0.5
-50.5,-1.0062913968529799,0.5625
-45.5,0.8713010875190434,0.0625
-46.0,0.570640853093459,0.5625
-52.0,-4.289010282928253,-0.125
-31.0,3.2520392703175593,0.375
-49.5,-4.411728745959104,0.0625
-46.5,0.0,0.125
-44.5,3.172272269347506,0.25
-46.0,0.0,0.5
-33.0,-5.8475347634200645,0.0625
-49.5,5.8475347634200645,0.1875
-41.5,-0.7976700097005338,-0.125
-44.0,-3.859495662320273,0.75
-48.0,0.0,0.625
-52.5,-0.5645049299419159,1.25
-35.5,0.03681553890925539,0.0625
-32.5,1.3192234775816514,0.0625
-37.0,-0.7669903939428206,0.1875
-35.5,5.178719139901924,0.125
-46.5,-0.5583690067903735,0.375
-49.0,-0.2024854640009046,0.5625
-41.0,-3.5895150436524,-0.0625
-23.5,4.816699673960914,0.1875
-61.5,-4.473087977474529,-0.0625
-46.5,0.0,-0.1875
-44.0,4.589670517353838,0.1875
-62.5,-0.2577087723647873,0.0
-62.0,-4.779884135051658,-0.5
-34.5,6.1850105367549055,0.375
-53.0,-5.798447378207724,0.875
-50.0,-0.2024854640009046,0.1875
-43.0,4.160155896745859,0.5
-43.5,-3.896311201229529,0.875
-45.0,4.669437518323892,0.125
-33.0,-4.381049130201391,0.0625
-50.5,1.055378782065321,0.375
-46.0,0.0,0.1875
-58.5,1.595340019401067,-1.3125
-49.0,1.2701360923693104,0.75
-53.5,-4.516039439535327,0.5625
-40.0,2.0678061020698446,0.5
-30.0,3.2213596545598464,0.5625
-40.5,0.31293208072867085,0.0
-50.0,-5.301437602932776,0.625
-32.5,5.184855063053467,0.5
-48.0,0.0,0.1875
-34.0,-4.399456899656019,0.25
-37.5,-0.8897088569736719,0.75
-46.0,1.9266798695843654,0.75
-34.5,3.0495538063166543,0.25
-38.5,-5.209398755659637,0.25
-31.5,0.06749515466696826,0.25
-39.5,5.0682725231741586,0.125
-39.5,-1.9941750242513336,-0.0625
-55.5,0.0,0.0
-45.5,-1.969631331645163,0.1875
-61.0,-2.1230294104337277,-1.0625
-54.0,5.227806525114265,-0.5625
-48.5,0.2699806186678728,0.0
-52.0,-0.17180584824319212,-0.0625
-35.5,-0.822213702306704,0.0625
-42.5,-3.7981364308048473,0.375
-56.0,4.196971435655114,0.5
-33.0,0.8835729338221299,0.5625
-57.0,0.0,0.0625
-54.0,-0.47246608266877743,-0.5625
-42.5,-4.822835597112456,-0.1875
-42.5,5.448699758569798,0.5
-35.5,-3.675417967773996,0.0625
-40.5,2.0003109474028755,0.1875
-40.5,-3.0066023442558563,-0.1875
-36.0,4.841243366567083,0.5625
-44.5,0.17180584824319212,0.1875
-47.5,-5.43029198911517,-0.125
-59.0,0.0,0.8125
-41.5,-2.8716120349219203,0.375
-35.0,0.1595340019401067,0.375
-39.5,4.025165587411923,0.125
-40.0,0.5645049299419158,0.125
-35.0,-5.062136600022616,0.75
-53.5,4.528311285838413,0.0
-51.0,0.9019807032767568,0.0625
-40.0,-4.773748211900115,-0.1875
-44.0,0.0,0.5
-33.0,-1.227184630308513,0.5625
-47.5,2.5832236467994196,0.5625
-41.5,3.466796580621549,0.375
-37.5,-0.18407769454627676,0.1875
-58.0,-2.509592568980909,-0.5
-56.5,2.2457478734645786,0.25
-56.5,-5.675728915176872,-0.75
-38.0,0.0,0.0625
-39.5,-1.6382914814618645,0.5
-43.0,5.141903600992669,0.375
-49.5,0.23930100291016032,0.25
-22.0,-1.0492428589137788,0.25
-35.0,-0.11044661672776623,0.5
-48.5,-3.6201946594101133,0.0
-47.5,4.6694375183238925,0.5625
-33.5,0.0,0.0
-40.5,1.8653206380689396,0.1875
-40.5,-0.7179030087304801,0.375
-69.0,-4.9210103675371375,0.1875
-35.0,4.2092432819582,-0.0625
-47.5,-4.289010282928253,0.1875
-52.0,4.2031073588066565,-0.25
-45.0,1.325359400733194,0.125
-58.0,0.0,0.125
-52.0,-1.4419419406125027,0.5
-34.0,4.896466674930966,0.25
-54.5,0.3988350048502669,0.25
-56.0,-2.675262494072558,0.1875
-50.5,-1.859184714917397,0.1875
-50.5,-1.0492428589137788,0.1875
-48.5,0.0,-0.0625
-37.5,5.755495916146926,0.5625
-39.5,-1.7364662518865455,0.5
-42.5,0.0,0.125
-23.0,5.172583216750382,0.25
-47.0,-5.26462206402352,-0.0625
-34.5,5.178719139901924,0.5
-43.0,-0.632000084608884,0.25
-49.5,-3.2949907323783574,0.625
-38.0,4.786020058203201,0.375
-33.5,-5.528466759539851,0.8125
-54.0,4.47308797747453,-0.5
-64.5,0.7056311624273945,0.375
-45.0,0.0,0.8125
-49.5,-5.184855063053467,0.0
-49.0,0.9633399347921826,0.1875
-43.5,3.0556897294681975,0.25
-45.5,-3.884039354926444,0.25
-59.0,-0.08590292412159592,0.1875
-59.5,4.558990901596125,0.0
-61.5,-4.227651051412827,0.375
-50.0,-0.5031456984264904,0.1875
-44.5,4.25833066717054,0.1875
-66.5,-3.2581751934691017,-0.1875
-53.0,-0.6013204688511713,0.4375
-54.0,0.0,0.0
-52.0,-0.9940195505498961,0.25
-64.5,0.9142525495798424,-0.5625
-59.0,-0.018407769454627854,0.5
-45.0,-5.8659425328746915,0.25
-34.5,1.1658253987930873,0.625
-44.0,-0.07976700097005329,0.1875
-39.5,4.798291904506286,0.1875
-34.5,-5.26462206402352,0.125
-47.5,4.147884050442773,0.25
-35.0,0.0,0.25
-46.5,2.1353012567368124,0.0
-23.0,-2.307107104980004,0.625
-34.5,6.111379458936395,0.5
-46.5,-5.350524988145117,0.125
-38.5,-0.1595340019401067,0.5625
-56.5,-0.6320000846088842,-0.125
-43.5,0.2945243112740431,0.625
-34.0,0.0,0.0
-30.5,-1.7732817907958012,0.1875
-59.0,4.196971435655115,0.375
-51.0,-4.239922897715912,-0.125
-43.5,4.4546802080199015,0.1875
-46.5,-1.3867186322486198,0.4375
-52.0,-1.2026409377023426,0.125
-54.0,-1.644427404613407,-0.125
-50.5,0.04908738521234057,0.5
-53.5,-1.3376312470362792,0.5625
-43.0,0.662679700366597,0.0
-54.5,0.0,0.1875
-60.5,-0.28838838812250056,0.125
-61.0,3.3133985018329852,-0.8125
-35.0,-3.2949907323783574,0.5
-51.0,5.700272607783043,0.1875
-38.5,-2.4727770300716534,0.375
-23.0,-1.4480778637640455,0.625
-53.5,1.8960002538266527,0.5
-34.5,1.7180584824319176,0.125
-61.0,0.0,-0.5
-32.0,0.5031456984264904,0.25
-36.5,4.479223900626072,0.375
-37.0,0.6013204688511715,-0.0625
-46.0,-5.780039608753096,0.5
-34.5,5.755495916146926,0.375
-41.0,-1.4173982480063323,0.8125
-43.0,0.4356505437595217,0.5
-48.0,-3.988350048502667,-0.0625
-44.0,0.16566992509164913,0.1875
-56.0,3.307262578681442,-0.4375
-61.0,-2.2334760271614935,0.5
-34.5,0.0,0.125
-58.5,0.08590292412159595,0.625
-41.5,1.5339807878856413,0.625
-58.0,4.01902966426038,-0.1875
-53.0,-0.8528933180644165,0.1875
-58.5,0.44792239006260637,0.1875
-49.0,-5.546874528994478,0.125
-55.5,0.07976700097005335,0.75
-61.0,1.9880391010997909,0.75
-44.5,-2.184388641949153,0.375
-56.5,0.0,-0.0625
-40.0,3.687689814077081,0.625
-43.5,-4.301282129231337,0.375
-23.5,0.8038059328520759,0.4375
-41.5,3.9822141253511245,0.375
-31.5,0.337475773334841,0.125
-58.5,-4.313553975534423,-0.625
-37.0,3.6754179677739964,0.0
-51.0,-0.3620194659410121,0.125
-44.0,0.0,0.5625
-23.0,-4.319689898685966,0.625
-44.0,4.23378697456437,0.25
-48.0,-1.4787574795217582,0.125
-44.0,1.0860583978230336,0.1875
-67.0,-5.473243451175968,0.5625
-54.0,0.42337869745643697,-0.125
-52.5,5.737088146692298,-0.625
-35.5,-0.12271846303085177,-0.0625
-55.0,-0.44792239006260726,0.625
-49.5,-3.8226801234110175,0.0625
-49.5,0.0,0.25
-53.0,3.0250101137104846,-0.5
-50.5,-2.2948352586769194,1.0625
-52.5,-1.7548740213411738,-0.0625
-56.0,5.184855063053467,0.5625
-42.0,-0.04908738521234035,0.0625
-47.5,-0.4970097752749476,0.5
-43.5,-4.301282129231338,0.1875
-46.0,0.8344855486097887,0.1875
-62.0,4.147884050442774,0.0625
-41.0,0.0,0.25
-42.0,-0.865165164367502,0.0625
-38.0,-4.503767593232243,0.5625
-42.5,1.264000169217768,-0.0625
-40.0,3.6263305825616556,0.8125
-44.0,-1.1044661672776614,0.75
-40.5,-3.847223816017188,0.375
-37.0,-0.5460971604872882,0.1875
-47.0,0.9449321653375551,0.5
-35.5,-0.09817477042468115,0.0625
-23.0,-0.4295146206079795,0.4375
-41.5,0.0,0.1875
-35.0,3.5895150436524004,0.125
-45.5,-0.8344855486097886,0.0625
-39.5,-1.8162332528565992,0.125
-43.0,-2.2457478734645786,0.5625
-33.0,5.724816300389213,0.0
-45.5,-3.031146036862027,0.25
-44.5,-1.6873788666742053,0.0625
-55.0,0.3497476196379261,-0.8125
-58.0,3.3993014259545813,0.0
-55.5,0.0674951546669682,-0.5
-59.5,0.2699806186678728,-0.1875
-42.0,0.8344855486097886,1.25
-45.0,0.0,0.75
-50.5,0.5092816215780331,0.5
-47.0,0.15339807878856426,0.0625
-48.5,-1.1106020904292047,0.5
-51.0,-3.4422528880153784,-0.625
-34.0,3.687689814077081,-0.125
-46.0,-0.11044661672776623,0.25
-32.0,0.6810874698212253,0.125
-41.5,-5.436427912266713,0.5625
-38.0,0.0,0.5
-48.0,-5.5284667595398505,0.25
-41.0,1.3867186322486198,0.0625
-46.5,-1.4358060174609601,0.125
-48.0,4.779884135051658,0.1875
-45.0,-5.203262832508094,0.375
-58.5,1.380582709097077,1.9375
-39.5,-0.15339807878856404,-0.0625
-42.5,4.816699673960914,0.25
-51.0,-5.227806525114265,-0.0625
-23.0,4.847379289718626,0.0625
-35.5,0.5276893910326601,0.5
-39.5,-5.540738605842936,0.8125
-49.0,0.0,0.625
-31.5,0.4970097752749477,0.5625
-39.0,4.01902966426038,-0.0625
-61.0,-3.2888548092268146,-0.625
-33.0,-0.9387962421860123,0.8125
-75.5,5.620505606812989,0.5625
-58.5,-4.865787059173254,-0.1875
-56.0,1.0431069357622362,0.0625
-65.0,-1.9021361769781953,-2.5
-44.0,4.571262747899211,0.0625
-44.0,0.0,0.5
-52.0,1.91440802328128,0.1875
-31.0,3.8533597391687304,0.375
-70.5,-0.7179030087304801,0.8125
-30.5,-4.7860200582032,0.75
-49.5,1.540116711037184,0.125
-52.0,2.061670178918302,0.625
-29.5,-3.2949907323783574,0.5
-35.0,4.957825906446392,0.375
-58.5,0.0,0.1875
-54.0,-3.331806271287613,-0.125
-46.0,3.663146121470911,0.8125
-55.5,-4.957825906446392,-0.5
-33.0,3.945398586441869,0.625
-36.5,1.7303303287350031,0.375
-46.5,0.47246608266877743,0.0
-54.5,-0.6994952392758522,0.8125
-23.0,-4.509903516383785,0.625
-29.5,4.853515212870169,0.0625
-45.5,-4.773748211900116,0.0
-67.0,2.681398417224101,0.5625
-35.5,-2.2886993355253766,0.5625
-40.0,0.0,0.5625
-35.0,5.148039524144211,-0.0625
-39.5,-0.48473792897186296,0.125
-33.0,-5.019185137961817,0.125
-59.0,5.344389064993574,0.5
-59.5,-5.706408530934585,0.0
-44.5,4.945554060143307,0.25
-55.5,-5.049864753719531,0.1875
-30.5,4.466952054322987,0.125
-55.5,1.055378782065321,-0.0625
-47.5,-4.0987966652304335,0.5
-62.0,0.0,0.375
-58.0,0.0,-0.4375
-60.5,1.313087554430109,0.25
-35.5,-1.920543946432823,0.5625
-31.5,4.828971520263998,0.0
-50.0,-3.9085830475326135,0.5
-43.0,3.1293208072867085,0.1875
-46.0,-3.0802334220743677,0.1875
-38.0,3.0986411915289946,-0.125
-34.5,0.0,0.0
-60.0,-1.5953400194010667,-0.75
-35.5,4.466952054322987,0.25
-36.0,1.2946797849754805,0.0
-53.5,-1.0062913968529799,-0.25
-31.5,0.44178646691106405,0.375
-23.5,-4.289010282928253,0.25
-39.0,3.4483888111669216,0.375
-50.5,-3.1293208072867085,0.125
-51.0,4.424000592262189,0.4375
-56.0,-0.6442719309119687,-0.0625
-41.0,-5.135767677841127,0.75
-58.5,0.0,0.0
-53.0,1.6996507129772906,-0.125
-43.0,-0.4540583132141496,0.0
-53.5,-4.0987966652304335,0.4375
-43.0,2.736621725587984,0.375
-29.0,1.030835089459151,0.1875
-40.5,-5.332117218690488,0.1875
-30.0,6.19728238305799,0.5
-52.0,-0.9449321653375549,0.0625
-46.5,-4.859651136021712,0.4375
-43.0,0.0,0.125
-59.5,-4.405592822807561,-0.0625
-68.0,5.448699758569797,0.5625
-44.0,-0.23930100291015943,0.125
-38.0,-1.1474176293384595,0.5625
-35.5,-4.42400059226219,0.625
-40.0,0.1227184630308513,0.625
-23.0,5.95798138014783,0.4375
-38.0,-5.344389064993574,0.1875
-54.0,4.6448938257177215,0.0
-40.5,-3.294990732378357,0.25
-42.0,0.0,0.1875
-35.0,-4.970097752749478,0.5625
-37.0,0.8713010875190441,0.0625
-37.0,-1.67510702037112,0.0625
-50.5,1.3130875544301088,0.0625
-56.5,0.2699806186678728,-0.0625
-58.0,-0.9694758579437253,0.25
-30.5,0.0,0.375
-32.0,-0.3620194659410113,0.1875
-44.5,-0.10431069357622358,0.1875
-56.5,4.651029748869264,0.1875
-42.5,-4.57126274789921,0.0625
-45.0,2.7857091108003242,0.125
-52.5,0.6504078540635123,0.1875
-55.0,0.7792622402459051,-0.125
-54.5,0.0,-0.1875
-46.0,0.27611654181941536,0.125
-36.0,2.8777479580734626,0.0625
-38.0,-1.9941750242513332,0.0625
-61.5,3.1845441156505907,-0.5625
-23.5,-4.724660826687774,0.75
-41.0,-0.06135923151542566,0.75
-34.5,3.816544200259475,0.1875
-45.5,-2.9636508821950587,0.5625
-31.5,0.22089323345553225,0.1875
-35.5,-1.6137477888556946,0.5625
-42.0,5.221670601962723,0.125
-66.0,0.0,0.25
-45.0,-1.8100973297050567,0.375
-45.0,1.4542137869155878,0.0
-32.5,0.15339807878856404,0.5
-43.0,3.436116964863836,0.5625
-33.0,-4.037437433715008,0.5
-41.5,-1.3008157081270237,0.1875
-52.0,1.0492428589137786,0.125
-52.5,0.0,-0.125
-30.5,0.8038059328520761,0.125
-53.0,-2.3930100291016005,0.5625
-51.0,-3.405437349106123,-0.5
-38.5,4.865787059173254,0.375
-50.0,-0.8897088569736713,0.25
-53.5,-3.1293208072867085,0.1875
-44.5,4.6878452877785195,1.0625
-30.5,-3.736777199289422,0.1875
-35.5,0.0,-0.0625
-59.0,-1.527844864734099,0.75
-46.5,1.8530487917658545,0.1875
-35.0,-0.030679615757712497,0.1875
-45.0,0.15953400194010658,0.125
-36.5,-1.4051264017032477,0.5625
-31.5,1.7855536370988867,0.1875
-45.0,-1.3130875544301093,0.0
-50.0,1.0676506283684066,0.8125
-44.5,-4.755340442445488,0.0
-37.5,2.84706834231575,0.625
-60.5,-0.3804272353956386,0.25
-41.0,-2.6998061866787286,0.4375
-56.5,0.0,-0.125
-32.0,0.1349903093339364,0.1875
-57.5,-5.203262832508095,0.1875
-36.0,-0.42337869745643697,0.25
-34.0,5.184855063053467,0.1875
-23.5,-3.742913122440964,0.1875
-48.5,-0.9387962421860123,-0.125
-45.5,4.908738521234051,0.1875
-42.0,-4.73693267299086,0.25
-60.5,0.2761165418194155,-0.375
-33.5,4.01902966426038,0.125
-61.5,0.0,0.8125
-57.5,-4.338097668140593,0.75
-55.0,4.074252972624263,0.375
-42.0,-0.12271846303085177,0.1875
-53.0,-1.306951631278566,-0.0625
-49.5,-3.098641191528995,-0.0625
-30.0,3.368621810196868,0.25
-45.0,-3.227495577711389,0.375
-53.5,4.227651051412828,-0.125
-52.5,-2.9145634969827188,-0.25
-66.5,-0.9019807032767568,0.0
-46.0,4.509903516383785,0.375
-58.5,0.0,0.0625
-41.5,-2.5954954931025047,0.75
-24.0,-1.423534171157875,0.625
-61.0,2.442097414313941,0.0
-45.0,0.6013204688511715,0.0625
-60.0,-0.7608544707912781,-0.1875
-34.5,1.1903690913992575,0.0
-49.0,-4.841243366567084,0.1875
-37.5,3.6386024288647407,0.25
-39.0,0.9326603190344702,0.0
-36.0,0.7669903939428204,0.0625
-40.5,-4.792155981354743,0.4375
-36.5,0.0,0.125
-23.0,-5.896622148632405,0.4375
-45.5,0.9572040116406402,0.0
-66.0,4.227651051412827,0.25
-47.5,-1.1474176293384595,0.25
-40.5,-3.6570101983193686,0.25
-45.0,3.160000423044421,0.375
-44.5,-2.662990647769473,0.5
-56.5,4.73693267299086,-0.125
-42.5,-0.4601942363656919,0.375
-54.5,-1.1842331682477152,-0.0625
-53.5,0.0,0.25
-30.5,6.099107612633309,0.125
-53.0,-4.994641445355647,-0.1875
-43.5,2.0984857178275576,0.375
-53.0,-1.595340019401067,0.4375
-49.0,-1.2701360923693108,0.5625
-56.5,0.14112623248547895,0.8125
-36.0,5.632777453116074,0.1875
-38.0,-6.074563920027139,0.5
-36.5,5.50392306693368,0.125
-45.0,-0.1656699250916489,0.125
-45.5,0.0,0.1875
-45.0,2.2764274892222915,0.25
-50.5,-5.307573526084319,0.375
-46.5,-0.7485826244881929,0.0625
-41.5,3.8901752780779857,0.1875
-45.0,0.9019807032767577,0.375
-36.5,-4.749204519293945,0.1875
-45.0,5.356660911296659,0.125
-24.0,-3.0863693452259104,0.5625
-40.5,2.3746022596469727,0.1875
-32.5,-1.1474176293384595,0.5625
-34.5,1.3560390164909064,0.125
-61.0,-0.3865631585471814,-0.0625
-39.5,1.1290098598838316,0.0
-51.0,0.0,-0.0625
-58.5,3.0986411915289955,0.375
-51.5,-4.338097668140594,-0.125
-39.5,3.926990816987241,0.375
-40.0,-4.313553975534423,0.75
-42.0,1.7303303287350031,0.25
-57.0,3.1477285767413363,0.25
-58.0,-4.7307967498393175,0.125
-44.5,5.24007837141735,0.125
-56.5,-0.8897088569736713,0.0625
-52.0,1.22104870715697,-0.125
-65.5,0.0,0.125
-33.5,-0.7976700097005338,0.5625
-31.0,0.7853981633974483,0.125
-48.5,-0.2577087723647882,0.0625
-55.0,-3.540427658440059,0.375
-57.0,-0.8099418560036186,-0.125
-46.0,4.927146290688679,0.1875
-64.0,-4.957825906446392,-0.0625
-44.0,-0.3374757733348411,0.1875
-40.0,4.798291904506286,0.625
-36.5,-0.5338253141842033,0.125
-38.5,1.60147594255261,0.25
-44.5,0.0,0.1875
-41.5,-5.3627968344482015,0.625
-38.5,5.092816215780329,0.5
-42.5,-0.9387962421860125,0.125
-45.5,1.1658253987930873,0.1875
-39.0,0.030679615757712497,0.0625
-50.5,-3.9085830475326135,0.1875
-49.0,-1.7978254834019713,0.0625
-36.5,4.669437518323892,0.0
-48.0,0.8099418560036185,0.0
-46.5,-4.859651136021711,0.1875
-33.0,0.0,0.0625
-56.0,0.22089323345553233,0.0625
-56.0,3.6692820446224537,0.0
-45.0,-2.595495493102505,0.25
-35.5,4.239922897715912,0.5
-47.0,-0.08590292412159606,0.0625
-47.5,0.47246608266877743,0.0625
-46.5,-0.09203884727313838,-0.0625
-54.5,0.0,0.0
-52.0,-2.6629906477694734,0.1875
-31.0,-1.0921943209745764,0.5
-30.0,3.7920005076533054,0.0625
-35.5,-3.9576704327449543,-0.0625
-58.5,2.239611950313036,-0.0625
-36.5,3.4606606574700063,0.375
-32.5,-4.638757902566178,0.5625
-51.5,-0.5276893910326604,0.125
-45.5,0.4049709280018091,0.25
-42.0,5.037592907416446,0.0
-45.0,-6.0991076126333095,0.1875
-38.5,1.1903690913992575,0.375
-44.5,-0.20862138715244716,0.25
-52.0,0.0,0.4375
-43.0,0.7853981633974482,-0.1875
-44.5,-0.23316507975861733,0.4375
-36.0,-0.9694758579437253,0.125
-44.5,0.9142525495798421,0.5625
-32.5,0.15953400194010658,0.375
-50.5,-0.2822524649709579,0.5
-36.5,4.95168998329485,0.1875
-42.5,-0.5767767762450005,0.0625
-50.0,-4.28287435977671,0.0625
-59.0,3.8288160465625602,0.25
-57.5,0.0,0.25
-46.5,0.527689391032661,0.5
-53.5,0.20862138715244694,0.0625
-54.5,-5.50392306693368,-0.125
-45.5,4.424000592262189,0.5
-33.0,-0.10431069357622391,0.125
-59.5,-3.368621810196868,0.5625
-31.0,4.135612204139688,0.5625
-52.0,-0.04295146206079803,0.125
-45.0,-3.4545247343184635,0.25
-45.5,0.012271846303085088,0.375
-48.5,3.184544115650591,0.4375
-59.0,0.0,-0.1875
-35.0,0.6320000846088842,0.125
-45.5,-1.0983302441261191,0.375
-32.0,6.013204688511713,0.25
-57.0,-0.030679615757713385,0.0
-23.5,-4.221515128261284,0.4375
-40.5,-0.9142525495798421,0.25
-35.0,4.749204519293945,0.25
-35.5,-0.3681553890925535,0.0
-44.5,-0.6258641614573417,0.1875
-45.0,0.0,0.1875
-45.5,-0.9878836273983529,0.25
-23.5,1.761009944492716,0.25
-46.0,3.663146121470911,0.1875
-35.5,-0.2024854640009046,0.0625
-47.0,0.4663301595172351,0.375
-61.5,-4.338097668140593,0.0625
-46.5,3.963806355896497,-0.0625
-49.0,-0.6688156235181397,0.125
-48.5,1.3008157081270237,-0.0625
-57.0,-5.503923066933681,0.0
-44.5,0.0,0.1875
-54.0,5.675728915176872,0.1875
-52.5,-1.6382914814618648,0.25
-41.0,0.4970097752749476,0.25
-52.5,-2.9145634969827183,0.0
-42.5,4.319689898685966,0.4375
-30.0,-0.37429131224409673,0.1875
-30.0,-5.522330836388308,0.1875
-59.0,4.859651136021711,0.375
-46.5,-4.871922982324796,0.1875
-36.5,0.0,0.125
-32.0,0.8099418560036193,0.375
-43.5,1.0246991663076077,0.1875
-46.0,-3.9392626632903265,-0.1875
-42.0,2.7979809571034093,0.5
-49.0,-3.2581751934691017,0.5625
-38.5,4.061981126321178,0.125
-45.0,-0.21475731030398926,0.375
-23.0,-4.7307967498393175,0.4375
-33.5,0.18407769454627698,0.25
-45.5,0.0,0.1875
-49.0,-5.246214294568893,0.5
-35.0,5.0682725231741586,0.25
-40.5,-4.368777283898306,0.375
-47.0,4.828971520263998,0.1875
-48.0,-5.994796919057086,0.0625
-45.0,1.4480778637640455,0.25
-69.0,2.84706834231575,0.8125
-51.0,1.7180584824319176,0.0625
-33.0,-5.816855147662351,0.25
-60.5,0.0,0.125
-31.5,0.0,0.375
-52.0,-6.019340611663256,0.1875
-30.0,5.21553467881118,0.5
-54.5,0.04908738521234124,-0.0625
-40.5,-4.3933209765044765,0.1875
-51.5,-0.06135923151542566,0.0
-51.5,0.31293208072867074,-0.0625
-56.0,4.28287435977671,0.0625
-56.5,-4.2092432819582,0.1875
-31.5,-1.0062913968529805,0.125
-45.5,4.632621979414637,0.25
-34.5,0.0,0.125
-35.5,1.8653206380689396,0.625
-65.0,0.4356505437595226,-0.25
-39.5,1.5217089415825562,0.25
-53.0,-3.8104082771079333,0.0
-23.5,-0.632000084608884,0.125
-46.0,3.681553890925539,0.375
-31.5,0.5276893910326601,0.25
-36.5,-2.36846633649543,0.0625
-40.0,1.0921943209745764,1.0625
-35.5,0.5522330836388312,0.125
-51.5,0.0,0.1875
-49.0,3.368621810196868,0.25
-56.5,-1.7978254834019713,-0.4375
-29.5,-1.3008157081270237,0.75
-53.5,5.780039608753096,-0.1875
-39.0,-0.06135923151542588,0.5625
-58.0,-5.221670601962722,0.125
-55.0,3.362485887045325,-0.0625
-43.5,-4.282874359776709,0.4375
-30.5,5.994796919057086,0.125
-54.0,-5.743224069843841,0.25
-47.0,0.0,0.25
-55.0,0.6565437772150544,0.0
-30.0,4.914874444385594,0.125
-44.5,-5.663457068873787,0.5
-57.5,3.632466505713198,0.1875
-57.0,1.3314953238847367,0.5
-44.0,-4.09266074207889,0.625
-47.5,-0.07976700097005329,0.1875
-44.0,-0.5951845456996288,0.25
-45.0,0.09817477042468103,0.1875
-41.5,5.080544369477243,0.125
-40.5,-4.25833066717054,0.5
-41.0,0.0,0.25
-56.5,3.2765829629237295,-0.125
-47.5,1.8653206380689396,0.125
-39.0,-5.921165841238575,0.5
-64.5,4.71238898038469,0.375
-45.0,1.4603497100671303,0.25
-61.0,-1.6260196351587792,-0.1875
-43.0,-3.80427235395639,0.25
-38.5,1.981903177948248,0.5
-31.5,-2.448233337465483,0.125
-36.5,1.6751070203711202,0.5
-52.5,0.0,0.125
-55.5,2.8041168802549516,0.0625
-45.5,-0.11658253987930856,0.125
-55.0,1.5953400194010667,0.25
-33.0,-4.871922982324796,0.8125
-31.0,3.957670432744955,0.125
-45.0,-0.3374757733348419,0.0625
-42.5,-4.743068596142402,0.25
-45.0,1.6137477888556946,0.25
-46.5,3.724505352986337,0.125
-57.5,-5.221670601962723,0.25
-41.0,0.0,0.625
-55.0,4.779884135051658,0.0
-63.5,-3.773592738198677,0.125
-55.5,-0.8713010875190441,-0.0625
-23.0,-0.8222137023067035,0.75
-37.0,3.454524734318464,0.75
-36.5,2.331650797586175,0.1875
-63.5,-0.07363107781851141,-0.1875
-50.0,-4.828971520263998,0.1875
-65.0,-0.816077779155161,0.625
-43.5,0.0,0.125
-45.5,0.4663301595172351,0.0625
-32.5,-4.485359823777615,0.5
-45.0,-0.8467573949128738,0.0625
-49.5,0.5645049299419159,0.0
-42.5,0.2393010029101601,0.125
-23.0,-1.0921943209745766,0.75
-45.0,0.7915340865489908,0.1875
-67.5,0.0,0.75
-47.5,4.970097752749478,0.0
-48.5,-0.7424467013366511,0.0
-33.0,-5.209398755659637,0.1875
-48.0,-0.2086213871524472,0.0625
-35.5,5.755495916146925,0.25
-45.0,-4.282874359776709,0.25
-62.5,0.12271846303085132,0.5625
-60.5,-1.2149127840054277,0.0
-53.0,0.0,0.125
-69.5,-5.62050560681299,0.375
-47.0,0.38042723539563905,0.125
-53.5,3.859495662320273,0.125
-38.5,-4.209243281958199,0.125
-32.0,0.1349903093339364,0.375
-40.0,0.5092816215780328,0.1875
-46.0,5.062136600022616,0.0625
-36.5,-0.8099418560036185,0.1875
-38.0,0.8038059328520761,0.375
-44.0,-5.921165841238575,0.0625
-57.5,1.5155730184310134,0.0625
-59.5,3.0127382674074,0.1875
-38.5,0.0,0.25
-45.0,0.8467573949128733,-0.0625
-40.5,-3.9944859716542096,0.4375
-24.0,0.8038059328520759,0.5625
-47.0,-2.1782527187976104,0.125
-51.0,0.12885438618239384,0.25
-33.5,0.0,0.0625
-59.5,-4.154019973594316,0.125
-42.5,-0.17794177139473433,0.1875
-52.0,5.031456984264903,0.25
-55.5,-4.700117134081605,0.25
-56.5,0.5031456984264903,0.0
-60.5,3.3870295796514958,0.5625
-58.5,-4.693981210930062,0.0
-31.0,5.534602682691393,0.1875
-64.5,0.3988350048502669,0.0625
-53.5,0.0,0.0625
-45.5,3.7981364308048478,0.1875
-40.0,-0.03681553890925571,0.25
-34.5,-0.6810874698212244,0.1875
-44.5,-0.9940195505498961,0.125
-40.0,-3.730641276137879,0.125
-50.0,1.6137477888556946,0.25
-35.5,1.791689560250429,0.75
-31.5,-1.368310862793992,0.375
-37.0,-2.3255148744346323,0.125
-35.5,4.693981210930062,0.375
-23.5,-3.4729325037730914,0.5625
-56.0,4.196971435655115,0.5625
-63.0,0.0,0.8125
-45.5,1.2640001692177683,0.0625
-42.5,-0.23316507975861733,0.0625
-23.0,-1.0615147052168639,0.5625
-30.0,0.9756117810952677,0.25
-42.0,4.233786974564369,0.1875
-34.0,-4.878058905476339,0.75
-55.0,4.945554060143307,0.0625
-53.5,0.31906800388021406,0.1875
-64.0,-0.3374757733348419,0.0
-55.0,0.0,-0.375
-45.0,-3.0618256526197403,0.375
-33.5,2.613903262557133,0.5
-45.0,0.22089323345553158,0.125
-57.0,-2.6384469551633023,-0.1875
-45.5,3.5036121195308043,0.125
-54.5,-4.424000592262189,0.0625
-52.5,4.54671905529304,-0.0625
-41.5,-0.4540583132141496,0.4375
-38.0,0.926524395882927,0.5625
-41.5,0.0,0.0625
-35.0,2.0923497946760143,0.125
-41.0,-4.424000592262189,0.5
-36.0,-1.3989904785517049,0.0625
-46.0,0.5890486225480862,0.25
-49.5,0.1349903093339364,0.0
-32.5,-0.4049709280018092,0.25
-64.0,1.4603497100671303,0.1875
-52.5,0.0,-0.0625
-55.0,0.24543692606170264,0.375
-55.0,0.570640853093459,-0.125
-48.5,-0.19021361769781997,0.25
-50.5,-0.2331650797586171,0.0625
-46.0,-0.4908738521234053,0.0625
-46.0,0.3067961575771285,0.375
-32.0,0.4049709280018092,0.5
-43.0,-4.963961829597935,0.375
-49.0,-0.14112623248547895,0.1875
-59.5,0.4295146206079796,0.1875
-42.0,0.0,0.0625
-29.5,-4.485359823777615,0.5
-51.5,0.4417864669110647,0.125
-49.0,-0.5706408530934586,0.5
-43.5,-0.3313398501832985,0.1875
-67.5,4.0128937411088375,-0.0625
-54.5,-2.8102528034064944,0.375
-44.0,-0.9203884727313847,0.25
-41.5,5.3627968344482015,0.1875
-22.5,0.1963495408493623,0.8125
-46.0,-4.71238898038469,0.4375
-38.5,-0.3865631585471816,0.5625
-58.0,1.3192234775816514,-0.25
-34.5,0.0,0.0625
-45.0,-3.202951885105218,0.0625
-24.0,0.6504078540635116,0.125
-45.0,3.092505268377453,0.0
-64.0,-0.4295146206079803,0.8125
-49.5,-4.190835512503571,0.0625
-45.0,5.203262832508095,0.1875
-45.5,0.1288543861823932,0.125
-32.5,-2.601631416254047,0.0625
-46.0,0.25770877236478773,0.1875
-64.5,0.926524395882927,-0.1875
-51.5,0.0,0.1875
-29.5,-3.9760782021995813,0.8125
-57.5,0.4970097752749478,-0.0625
-53.5,5.240078371417351,0.25
-54.0,-1.791689560250429,0.125
-53.5,-2.589359569950962,0.0625
-53.0,-1.5953400194010667,0.125
-48.0,0.22702915660707487,0.375
-30.5,5.577554144752191,0.25
-59.0,-0.6565437772150542,0.5
-41.5,-0.38042723539563905,0.25
-53.5,0.0,0.0
-33.5,-3.9760782021995817,0.1875
-61.5,2.7243498792848984,0.0625
-36.5,1.6505633277649503,0.25
-34.5,-4.227651051412828,0.1875
-36.0,-1.22104870715697,0.25
-45.0,4.368777283898306,0.0625
-39.0,0.5399612373357456,0.1875
-23.5,-4.3074180523828804,0.25
-41.5,0.0,0.625
-36.5,3.730641276137879,0.1875
-23.0,-3.4483888111669208,0.5
-37.0,1.3130875544301088,0.125
-68.0,4.129476280988146,-0.125
-61.0,-5.270757987175063,0.125
-59.5,2.5464081078901644,-0.1875
-42.0,-1.7057866361288332,0.0
-45.0,-0.674951546669682,0.375
-52.5,-0.6013204688511713,0.1875
-34.0,0.49087385212340523,0.625
-55.0,5.258486140871978,0.0625
-54.0,0.0,0.0625
-30.5,-0.4049709280018092,0.1875
-48.5,-0.37429131224409584,0.0
-33.5,-3.626330582561656,0.25
-55.0,0.38042723539563905,0.1875
-44.5,0.2638446955163303,0.1875
-53.0,3.515883965833889,0.25
-42.0,0.9203884727313847,0.5
-45.5,-0.9019807032767568,0.25
-42.5,0.0,0.125
-58.5,-0.576776776245001,-0.125
-56.0,0.8651651643675016,-0.0625
-41.0,0.3190680038802133,0.25
-23.5,0.11658253987930878,0.875
-31.5,4.209243281958199,0.25
-36.0,-0.6810874698212244,0.0625
-45.5,-4.252194744018997,0.5
-36.5,0.15339807878856415,0.625
-55.0,4.693981210930063,0.1875
-58.0,0.6135923151542562,-0.0625
-49.5,0.0,0.1875
-48.0,-0.38042723539563905,0.0625
-39.0,-5.246214294568893,0.25
-50.0,-0.006135923151542572,0.5
-56.5,1.380582709097077,0.0625
-44.0,4.767612288748572,0.1875
-61.0,-1.7364662518865455,0.1875
-40.5,-3.411573272257666,0.1875
-55.5,4.430136515413731,0.25
-42.0,0.18407769454627676,0.0625
-31.0,0.0,-0.0625
-44.0,3.2949907323783574,0.4375
-44.0,-2.779573187648782,0.625
-30.0,0.17794177139473444,0.25
-49.5,3.1293208072867085,0.5625
-52.0,0.4663301595172342,0.375
-40.5,-4.037437433715008,0.5625
-59.5,4.460816131171445,0.0
-42.5,0.3006602344255862,0.125
-53.5,-4.7307967498393175,0.1875
-57.5,1.0676506283684062,0.25
-45.5,0.0,0.5625
-62.0,-5.43029198911517,0.0
-63.5,-0.6320000846088841,0.125
-32.0,1.6260196351587797,0.375
-38.5,3.792000507653305,0.25
-45.5,-3.5833791205008576,0.0
-36.0,-1.8653206380689398,0.375
-44.5,5.178719139901925,0.0625
-23.0,-4.651029748869264,0.75
-42.5,1.0492428589137788,0.0625
-45.0,-0.7117670855789376,0.375
-23.0,0.0,0.625
-45.0,1.3314953238847367,0.125
-39.5,3.614058736258571,0.125
-38.0,-3.687689814077082,0.625
-35.5,-1.1474176293384597,0.375
-56.0,0.09817477042468103,0.0
-45.0,3.2765829629237295,0.1875
-30.0,0.6381360077604268,0.5
-65.0,0.0,-0.375
-55.0,-4.1417481272912315,0.125
-31.0,0.5460971604872882,0.1875
-59.5,-1.9266798695843652,0.1875
-47.0,5.325981295538946,0.125
-49.0,-0.5951845456996283,0.1875
-55.0,-4.761476365597031,0.0625
-57.0,0.607456392002714,-0.25
-33.0,0.5767767762450011,0.8125
-52.0,0.6872233929727674,-0.0625
-45.0,-0.2515728492132454,0.625
-60.0,-0.5829126993965437,-0.125
-38.5,0.0,0.0625
-45.0,-4.706253057233147,0.1875
-54.5,3.51588396583389,0.0
-33.0,-0.3926990816987237,0.625
-41.0,-2.55867995419325,0.5
-23.5,-0.9633399347921827,0.125
-45.5,-0.6442719309119692,0.25
-36.0,3.239767424014474,0.125
-47.0,2.2886993355253766,0.1875
-46.5,-3.5711072741977725,0.5
-36.5,2.1659808724945258,0.0625
-36.5,1.178097245096172,0.0625
-50.0,0.0,0.1875
-41.5,5.049864753719531,0.0625
-46.0,0.9142525495798424,0.5
-58.5,-1.2455923997631402,0.0625
-30.5,1.3744467859455343,0.0625
-30.5,-0.7547185476397358,0.125
-55.0,0.10431069357622391,-0.0625
-53.5,0.0674951546669682,0.0
-57.0,-5.344389064993574,0.125
-44.5,5.902758071783947,0.125
-65.0,0.0,-0.0625
-48.5,5.098952138931871,0.25
-54.5,-3.0802334220743677,0.0
-46.5,2.853204265467293,0.1875
-48.5,-1.2517283229146834,0.375
-44.0,-3.3072625786814425,0.25
-59.0,3.657010198319369,0.375
-45.5,0.6197282383057985,0.125
-23.5,-3.693825737228624,0.875
-46.0,3.7060975835317094,0.5
-31.5,0.5522330836388303,0.25
-45.0,0.0,0.8125
-31.5,4.988505522204106,0.5
-40.5,-4.362641360746764,0.25
-46.0,0.8651651643675018,0.375
-61.0,0.3865631585471814,-0.25
-45.0,0.15339807878856426,0.25
-39.5,-2.2089323345553233,0.25
-55.0,5.105088062083414,0.0
-23.5,-4.1417481272912315,0.5
-34.5,0.6074563920027138,0.375
-61.5,2.644582878314845,0.1875
-36.5,-4.651029748869264,0.25
-36.0,0.7669903939428205,0.0
-36.0,4.117204434685061,0.1875
-32.0,0.0,0.125
-30.0,3.663146121470911,0.5625
-50.0,-3.522019888985432,0.1875
-41.0,0.012271846303085088,0.5625
-42.5,4.59580644050538,-0.0625
-53.0,-3.012738267407399,0.0
-45.0,1.325359400733194,0.1875
-47.0,0.4601942363656928,0.125
-54.5,-0.024543692606170175,0.1875
