300833B2DDD9014000000000,865.7,1.4848934,0.8125
300833B2DDD9014000000000,865.7,6.074564,2.4375
300833B2DDD9014000000000,865.7,1.0553788,4.875
300833B2DDD9014000000000,865.7,3.1600003,2.4375
300833B2DDD9014000000000,865.7,4.411729,1.625
300833B2DDD9014000000000,865.7,3.282719,2.4375
300833B2DDD9014000000000,865.7,3.583379,13.8125
300833B2DDD9014000000000,865.7,2.2825634,-2.4375
300833B2DDD9014000000000,865.7,3.6938257,-17.875
300833B2DDD9014000000000,865.7,0.42951462,1.625
300833B2DDD9014000000000,865.7,4.1785636,-0.8125
300833B2DDD9014000000000,865.7,6.0438843,8.125
300833B2DDD9014000000000,865.7,1.0860584,4.0625
300833B2DDD9014000000000,865.7,3.2949908,0.8125
300833B2DDD9014000000000,865.7,3.5526996,8.125
300833B2DDD9014000000000,865.7,6.21569,10.5625
300833B2DDD9014000000000,865.7,3.2459033,3.25
300833B2DDD9014000000000,865.7,5.810719,8.9375
300833B2DDD9014000000000,865.7,3.1722722,0.8125
300833B2DDD9014000000000,865.7,1.0676507,3.25
300833B2DDD9014000000000,865.7,2.6813984,3.25
300833B2DDD9014000000000,865.7,2.712078,0.8125
300833B2DDD9014000000000,865.7,1.4603497,-1.625
300833B2DDD9014000000000,865.7,4.4424086,-0.8125
300833B2DDD9014000000000,865.7,1.441942,3.25
300833B2DDD9014000000000,865.7,2.883884,0.0
300833B2DDD9014000000000,865.7,2.9206994,-4.875
300833B2DDD9014000000000,865.7,6.1788745,7.3125
300833B2DDD9014000000000,865.7,3.5404277,0.8125
300833B2DDD9014000000000,865.7,1.4480779,6.5
300833B2DDD9014000000000,865.7,3.3072627,2.4375
300833B2DDD9014000000000,865.7,0.44178647,0.0
300833B2DDD9014000000000,865.7,2.718214,-2.4375
300833B2DDD9014000000000,865.7,4.417865,0.0
300833B2DDD9014000000000,865.7,1.356039,6.5
300833B2DDD9014000000000,865.7,5.829127,7.3125
300833B2DDD9014000000000,865.7,2.2518837,0.0
300833B2DDD9014000000000,865.7,6.0132046,6.5
300833B2DDD9014000000000,865.7,3.1600003,0.8125
300833B2DDD9014000000000,865.7,1.0737865,4.0625
300833B2DDD9014000000000,865.7,4.28901,-5.6875
300833B2DDD9014000000000,865.7,3.270447,-5.6875
300833B2DDD9014000000000,865.7,2.6691265,-4.875
300833B2DDD9014000000000,865.7,3.6079228,-4.875
300833B2DDD9014000000000,865.7,1.0983303,2.4375
300833B2DDD9014000000000,865.7,6.056156,4.875
300833B2DDD9014000000000,865.7,3.1722722,0.8125
300833B2DDD9014000000000,865.7,2.883884,1.625
300833B2DDD9014000000000,865.7,1.116738,1.625
300833B2DDD9014000000000,865.7,4.2828746,1.625
300833B2DDD9014000000000,865.7,4.405593,4.875
300833B2DDD9014000000000,865.7,3.282719,1.625
300833B2DDD9014000000000,865.7,6.0254765,0.8125
300833B2DDD9014000000000,865.7,2.6998062,-0.8125
300833B2DDD9014000000000,865.7,0.36201948,6.5
300833B2DDD9014000000000,865.7,1.0615147,5.6875
300833B2DDD9014000000000,865.7,3.4422529,5.6875
300833B2DDD9014000000000,865.7,2.644583,-4.875
300833B2DDD9014000000000,865.7,1.1965051,8.125
300833B2DDD9014000000000,865.7,3.2336316,-1.625
300833B2DDD9014000000000,865.7,2.1966605,0.8125
300833B2DDD9014000000000,865.7,5.8475347,4.0625
300833B2DDD9014000000000,865.7,1.5646604,0.0
300833B2DDD9014000000000,865.7,3.5588355,18.6875
300833B2DDD9014000000000,865.7,2.5893595,6.5
300833B2DDD9014000000000,865.7,3.1722722,0.8125
300833B2DDD9014000000000,865.7,5.7984476,9.75
300833B2DDD9014000000000,865.7,4.3319616,0.0
300833B2DDD9014000000000,865.7,3.35635,2.4375
300833B2DDD9014000000000,865.7,1.0983303,5.6875
300833B2DDD9014000000000,865.7,3.264311,5.6875
300833B2DDD9014000000000,865.7,3.2090878,-5.6875
300833B2DDD9014000000000,865.7,2.877748,1.625
300833B2DDD9014000000000,865.7,3.6815538,-14.625
300833B2DDD9014000000000,865.7,4.399457,1.625
300833B2DDD9014000000000,865.7,1.1780972,3.25
300833B2DDD9014000000000,865.7,5.9457097,4.875
300833B2DDD9014000000000,865.7,2.2089324,-1.625
300833B2DDD9014000000000,865.7,1.0676507,0.0
300833B2DDD9014000000000,865.7,1.6689711,-3.25
300833B2DDD9014000000000,865.7,5.9457097,5.6875
300833B2DDD9014000000000,865.7,2.6813984,8.125
300833B2DDD9014000000000,865.7,0.30066022,9.75
300833B2DDD9014000000000,865.7,4.4301367,-2.4375
300833B2DDD9014000000000,865.7,3.3011267,1.625
300833B2DDD9014000000000,865.7,1.1903691,2.4375
300833B2DDD9014000000000,865.7,1.6076119,3.25
300833B2DDD9014000000000,865.7,5.9579816,4.0625
300833B2DDD9014000000000,865.7,2.877748,0.8125
300833B2DDD9014000000000,865.7,1.030835,4.0625
300833B2DDD9014000000000,865.7,3.1538644,0.8125
300833B2DDD9014000000000,865.7,3.276583,1.625
300833B2DDD9014000000000,865.7,2.6139033,-4.875
300833B2DDD9014000000000,865.7,3.202952,-1.625
300833B2DDD9014000000000,865.7,5.8782144,5.6875
300833B2DDD9014000000000,865.7,5.804583,9.75
300833B2DDD9014000000000,865.7,0.3926991,-5.6875
300833B2DDD9014000000000,865.7,2.2150683,-0.8125
300833B2DDD9014000000000,865.7,3.5220199,8.9375
300833B2DDD9014000000000,865.7,0.9633399,3.25
300833B2DDD9014000000000,865.7,4.381049,1.625
300833B2DDD9014000000000,865.7,2.712078,0.0
300833B2DDD9014000000000,865.7,3.1600003,0.8125
300833B2DDD9014000000000,865.7,3.2520392,4.875
300833B2DDD9014000000000,865.7,0.38656315,0.0
300833B2DDD9014000000000,865.7,4.411729,2.4375
300833B2DDD9014000000000,865.7,1.0246992,4.0625
300833B2DDD9014000000000,865.7,0.9756118,-4.875
300833B2DDD9014000000000,865.7,5.9518456,5.6875
300833B2DDD9014000000000,865.7,1.2087768,0.8125
300833B2DDD9014000000000,865.7,3.1415927,-0.8125
300833B2DDD9014000000000,865.7,5.810719,9.75
300833B2DDD9014000000000,865.7,2.5770876,5.6875
300833B2DDD9014000000000,865.7,3.276583,0.8125
300833B2DDD9014000000000,865.7,4.374913,4.875
300833B2DDD9014000000000,865.7,2.2518837,-8.9375
300833B2DDD9014000000000,865.7,2.6752625,2.4375
300833B2DDD9014000000000,865.7,2.871612,1.625
300833B2DDD9014000000000,865.7,1.601476,12.1875
300833B2DDD9014000000000,865.7,5.8413987,2.4375
300833B2DDD9014000000000,865.7,3.6263306,-10.5625
300833B2DDD9014000000000,865.7,3.2459033,5.6875
300833B2DDD9014000000000,865.7,4.411729,2.4375
300833B2DDD9014000000000,865.7,2.6261752,-8.125
300833B2DDD9014000000000,865.7,5.976389,2.4375
300833B2DDD9014000000000,865.7,2.6936703,0.8125
300833B2DDD9014000000000,865.7,3.1354568,4.875
300833B2DDD9014000000000,865.7,3.589515,0.8125
300833B2DDD9014000000000,865.7,4.399457,3.25
300833B2DDD9014000000000,865.7,1.030835,6.5
300833B2DDD9014000000000,865.7,1.1965051,3.25
300833B2DDD9014000000000,865.7,3.1661363,0.8125
300833B2DDD9014000000000,865.7,2.2457478,-4.875
300833B2DDD9014000000000,865.7,3.270447,1.625
300833B2DDD9014000000000,865.7,2.877748,1.625
300833B2DDD9014000000000,865.7,5.8536706,4.0625
300833B2DDD9014000000000,865.7,0.398835,1.625
300833B2DDD9014000000000,865.7,1.6689711,-3.25
300833B2DDD9014000000000,865.7,5.810719,2.4375
300833B2DDD9014000000000,865.7,0.9142526,3.25
300833B2DDD9014000000000,865.7,2.5954955,2.4375
300833B2DDD9014000000000,865.7,5.810719,10.5625
300833B2DDD9014000000000,865.7,3.2888548,-0.8125
300833B2DDD9014000000000,865.7,1.6444274,-4.875
300833B2DDD9014000000000,865.7,4.417865,0.8125
300833B2DDD9014000000000,865.7,0.92038846,-3.25
300833B2DDD9014000000000,865.7,3.6508744,-8.125
300833B2DDD9014000000000,865.7,0.33133984,8.125
300833B2DDD9014000000000,865.7,3.1600003,3.25
300833B2DDD9014000000000,865.7,6.0009327,4.0625
300833B2DDD9014000000000,865.7,3.264311,2.4375
300833B2DDD9014000000000,865.7,2.8961558,-0.8125
300833B2DDD9014000000000,865.7,4.4301367,-1.625
300833B2DDD9014000000000,865.7,1.0676507,2.4375
300833B2DDD9014000000000,865.7,2.2273402,-2.4375
300833B2DDD9014000000000,865.7,5.761632,2.4375
300833B2DDD9014000000000,865.7,2.6936703,5.6875
300833B2DDD9014000000000,865.7,1.1965051,-0.8125
300833B2DDD9014000000000,865.7,3.1415927,0.0
300833B2DDD9014000000000,865.7,3.117049,-4.875
300833B2DDD9014000000000,865.7,3.276583,0.8125
300833B2DDD9014000000000,865.7,2.8961558,-1.625
300833B2DDD9014000000000,865.7,0.79153407,1.625
300833B2DDD9014000000000,865.7,3.6263306,-3.25
300833B2DDD9014000000000,865.7,3.276583,0.0
300833B2DDD9014000000000,865.7,4.5160394,0.8125
300833B2DDD9014000000000,865.7,4.4485445,0.8125
300833B2DDD9014000000000,865.7,6.0991077,2.4375
300833B2DDD9014000000000,865.7,2.3071072,-6.5
300833B2DDD9014000000000,865.7,3.1477287,1.625
300833B2DDD9014000000000,865.7,0.38042724,7.3125
300833B2DDD9014000000000,865.7,1.0676507,6.5
300833B2DDD9014000000000,865.7,2.55868,-7.3125
300833B2DDD9014000000000,865.7,1.1044662,0.8125
300833B2DDD9014000000000,865.7,5.5468745,4.875
300833B2DDD9014000000000,865.7,5.8904862,4.0625
300833B2DDD9014000000000,865.7,2.72435,0.0
300833B2DDD9014000000000,865.7,1.4910294,-1.625
300833B2DDD9014000000000,865.7,0.8406215,1.625
300833B2DDD9014000000000,865.7,0.35588354,10.5625
300833B2DDD9014000000000,865.7,5.804583,17.0625
300833B2DDD9014000000000,865.7,6.1113796,4.0625
300833B2DDD9014000000000,865.7,4.4424086,-0.8125
300833B2DDD9014000000000,865.7,2.9145634,-1.625
300833B2DDD9014000000000,865.7,5.5223308,5.6875
300833B2DDD9014000000000,865.7,3.1600003,2.4375
300833B2DDD9014000000000,865.7,3.2581751,3.25
300833B2DDD9014000000000,865.7,4.558991,-7.3125
300833B2DDD9014000000000,865.7,1.435806,1.625
300833B2DDD9014000000000,865.7,1.0799224,6.5
300833B2DDD9014000000000,865.7,2.3316507,-7.3125
300833B2DDD9014000000000,865.7,2.7059422,3.25
300833B2DDD9014000000000,865.7,3.3011267,0.8125
300833B2DDD9014000000000,865.7,3.6570103,-16.25
300833B2DDD9014000000000,865.7,3.0495539,0.8125
300833B2DDD9014000000000,865.7,1.0799224,3.25
300833B2DDD9014000000000,865.7,2.4420974,7.3125
300833B2DDD9014000000000,865.7,5.503923,6.5
300833B2DDD9014000000000,865.7,1.116738,1.625
300833B2DDD9014000000000,865.7,3.0556898,-5.6875
300833B2DDD9014000000000,865.7,4.4485445,1.625
300833B2DDD9014000000000,865.7,2.4543693,-5.6875
300833B2DDD9014000000000,865.7,1.0615147,8.125
300833B2DDD9014000000000,865.7,3.1600003,0.8125
300833B2DDD9014000000000,865.7,2.9329712,-2.4375
300833B2DDD9014000000000,865.7,3.7183695,-28.4375
300833B2DDD9014000000000,865.7,3.282719,0.0
300833B2DDD9014000000000,865.7,2.7427576,0.8125
300833B2DDD9014000000000,865.7,3.2888548,6.5
300833B2DDD9014000000000,865.7,0.92038846,2.4375
300833B2DDD9014000000000,865.7,4.552855,-1.625
300833B2DDD9014000000000,865.7,5.8536706,13.0
300833B2DDD9014000000000,865.7,2.2886994,6.5
300833B2DDD9014000000000,865.7,0.44178647,4.0625
300833B2DDD9014000000000,865.7,1.515573,-2.4375
300833B2DDD9014000000000,865.7,6.1113796,2.4375
300833B2DDD9014000000000,865.7,2.9391072,0.0
300833B2DDD9014000000000,865.7,1.0983303,0.8125
300833B2DDD9014000000000,865.7,4.460816,0.8125
300833B2DDD9014000000000,865.7,2.3377867,13.0
300833B2DDD9014000000000,865.7,3.1722722,2.4375
300833B2DDD9014000000000,865.7,3.3195345,0.0
300833B2DDD9014000000000,865.7,6.1543307,0.8125
300833B2DDD9014000000000,865.7,3.270447,3.25
300833B2DDD9014000000000,865.7,2.957515,3.25
300833B2DDD9014000000000,865.7,5.3873405,7.3125
300833B2DDD9014000000000,865.7,0.41724277,13.8125
300833B2DDD9014000000000,865.7,2.3500586,0.8125
300833B2DDD9014000000000,865.7,4.565127,-1.625
300833B2DDD9014000000000,865.7,0.9878836,2.4375
300833B2DDD9014000000000,865.7,1.1474177,1.625
300833B2DDD9014000000000,865.7,2.718214,4.0625
300833B2DDD9014000000000,865.7,5.8475347,17.875
300833B2DDD9014000000000,865.7,1.4051265,6.5
300833B2DDD9014000000000,865.7,3.675418,-13.8125
300833B2DDD9014000000000,865.7,3.2888548,2.4375
300833B2DDD9014000000000,865.7,3.19068,1.625
300833B2DDD9014000000000,865.7,1.1412817,4.875
300833B2DDD9014000000000,865.7,4.5896707,-2.4375
300833B2DDD9014000000000,865.7,0.94493216,8.9375
300833B2DDD9014000000000,865.7,1.0983303,-1.625
300833B2DDD9014000000000,865.7,3.276583,2.4375
300833B2DDD9014000000000,865.7,6.1666026,1.625
300833B2DDD9014000000000,865.7,5.8843503,16.25
300833B2DDD9014000000000,865.7,2.712078,5.6875
300833B2DDD9014000000000,865.7,2.969787,-3.25
300833B2DDD9014000000000,865.7,2.9329712,-4.875
300833B2DDD9014000000000,865.7,4.4914956,-4.875
300833B2DDD9014000000000,865.7,2.4114177,-6.5
300833B2DDD9014000000000,865.7,5.3689327,4.875
300833B2DDD9014000000000,865.7,0.4233787,18.6875
300833B2DDD9014000000000,865.7,2.3746023,4.875
300833B2DDD9014000000000,865.7,1.3805827,7.3125
300833B2DDD9014000000000,865.7,3.5588355,-2.4375
300833B2DDD9014000000000,865.7,0.53382534,-0.8125
300833B2DDD9014000000000,865.7,4.6387577,-5.6875
300833B2DDD9014000000000,865.7,2.3868742,-1.625
300833B2DDD9014000000000,865.7,5.908894,8.125
300833B2DDD9014000000000,865.7,3.3133986,-1.625
300833B2DDD9014000000000,865.7,2.8961558,2.4375
300833B2DDD9014000000000,865.7,4.466952,-0.8125
300833B2DDD9014000000000,865.7,0.9756118,8.9375
300833B2DDD9014000000000,865.7,2.9820588,-3.25
300833B2DDD9014000000000,865.7,1.1780972,0.0
300833B2DDD9014000000000,865.7,6.1972823,0.0
300833B2DDD9014000000000,865.7,3.19068,2.4375
300833B2DDD9014000000000,865.7,3.3195345,-2.4375
300833B2DDD9014000000000,865.7,2.7611654,1.625
300833B2DDD9014000000000,865.7,1.0615147,5.6875
300833B2DDD9014000000000,865.7,2.3991458,-4.0625
300833B2DDD9014000000000,865.7,1.435806,6.5
300833B2DDD9014000000000,865.7,5.350525,4.875
300833B2DDD9014000000000,865.7,3.589515,-1.625
300833B2DDD9014000000000,865.7,1.1658254,5.6875
300833B2DDD9014000000000,865.7,2.963651,0.8125
300833B2DDD9014000000000,865.7,5.3014374,5.6875
300833B2DDD9014000000000,865.7,4.6203504,-1.625
300833B2DDD9014000000000,865.7,2.4052818,-1.625
300833B2DDD9014000000000,865.7,3.19068,4.875
300833B2DDD9014000000000,865.7,3.6140587,-5.6875
300833B2DDD9014000000000,865.7,1.4173982,6.5
300833B2DDD9014000000000,865.7,0.50928164,2.4375
300833B2DDD9014000000000,865.7,1.0737865,3.25
300833B2DDD9014000000000,865.7,3.2888548,0.8125
300833B2DDD9014000000000,865.7,4.4546804,1.625
300833B2DDD9014000000000,865.7,1.030835,2.4375
300833B2DDD9014000000000,865.7,2.3500586,0.8125
300833B2DDD9014000000000,865.7,6.234098,0.0
300833B2DDD9014000000000,865.7,2.797981,-0.8125
300833B2DDD9014000000000,865.7,3.276583,6.5
300833B2DDD9014000000000,865.7,2.9022915,-5.6875
300833B2DDD9014000000000,865.7,5.933438,8.9375
300833B2DDD9014000000000,865.7,0.48473793,9.75
300833B2DDD9014000000000,865.7,3.2090878,0.0
300833B2DDD9014000000000,865.7,2.313243,2.4375
300833B2DDD9014000000000,865.7,4.4546804,2.4375
300833B2DDD9014000000000,865.7,3.2520392,12.1875
300833B2DDD9014000000000,865.7,5.933438,13.8125
300833B2DDD9014000000000,865.7,3.6201947,-16.25
300833B2DDD9014000000000,865.7,4.6510296,-3.25
300833B2DDD9014000000000,865.7,2.963651,2.4375
300833B2DDD9014000000000,865.7,2.797981,-1.625
300833B2DDD9014000000000,865.7,1.1658254,4.0625
300833B2DDD9014000000000,865.7,3.3133986,0.8125
300833B2DDD9014000000000,865.7,1.0492429,3.25
300833B2DDD9014000000000,865.7,2.8347964,3.25
300833B2DDD9014000000000,865.7,1.0983303,0.8125
300833B2DDD9014000000000,865.7,1.4603497,-0.8125
300833B2DDD9014000000000,865.7,2.4114177,-2.4375
300833B2DDD9014000000000,865.7,6.209554,4.0625
300833B2DDD9014000000000,865.7,5.3014374,3.25
300833B2DDD9014000000000,865.7,3.5526996,-3.25
300833B2DDD9014000000000,865.7,6.1972823,4.875
300833B2DDD9014000000000,865.7,0.5645049,-0.8125
300833B2DDD9014000000000,865.7,3.3011267,2.4375
300833B2DDD9014000000000,865.7,2.8163888,1.625
300833B2DDD9014000000000,865.7,5.902758,21.9375
300833B2DDD9014000000000,865.7,2.4482334,-4.875
300833B2DDD9014000000000,865.7,1.1658254,4.875
300833B2DDD9014000000000,865.7,3.0127382,-0.8125
300833B2DDD9014000000000,865.7,4.6510296,0.8125
300833B2DDD9014000000000,865.7,2.8286605,-6.5
300833B2DDD9014000000000,865.7,1.0676507,3.25
300833B2DDD9014000000000,865.7,3.2274957,2.4375
300833B2DDD9014000000000,865.7,1.3989905,7.3125
300833B2DDD9014000000000,865.7,3.3011267,2.4375
300833B2DDD9014000000000,865.7,4.4792237,0.8125
300833B2DDD9014000000000,865.7,5.3873405,-4.875
300833B2DDD9014000000000,865.7,1.0553788,2.4375
300833B2DDD9014000000000,865.7,2.313243,-2.4375
300833B2DDD9014000000000,865.7,3.5649714,-2.4375
300833B2DDD9014000000000,865.7,3.0127382,-1.625
300833B2DDD9014000000000,865.7,2.8225245,1.625
300833B2DDD9014000000000,865.7,1.0492429,5.6875
300833B2DDD9014000000000,865.7,1.0615147,7.3125
300833B2DDD9014000000000,865.7,6.227962,2.4375
300833B2DDD9014000000000,865.7,0.558369,0.8125
300833B2DDD9014000000000,865.7,4.4546804,4.0625
300833B2DDD9014000000000,865.7,3.2336316,1.625
300833B2DDD9014000000000,865.7,4.6694374,-2.4375
300833B2DDD9014000000000,865.7,6.0009327,4.875
300833B2DDD9014000000000,865.7,3.3072627,0.8125
300833B2DDD9014000000000,865.7,3.3195345,0.8125
300833B2DDD9014000000000,865.7,2.4543693,-1.625
300833B2DDD9014000000000,865.7,1.2087768,0.8125
300833B2DDD9014000000000,865.7,5.295302,6.5
300833B2DDD9014000000000,865.7,2.8286605,-4.0625
300833B2DDD9014000000000,865.7,2.3009713,1.625
300833B2DDD9014000000000,865.7,1.3928546,5.6875
300833B2DDD9014000000000,865.7,2.8163888,-0.8125
300833B2DDD9014000000000,865.7,5.2462144,9.75
300833B2DDD9014000000000,865.7,1.0553788,8.125
300833B2DDD9014000000000,865.7,3.0188742,-3.25
300833B2DDD9014000000000,865.7,4.4853597,0.0
300833B2DDD9014000000000,865.7,1.0492429,4.875
300833B2DDD9014000000000,865.7,1.1903691,2.4375
300833B2DDD9014000000000,865.7,4.6694374,-0.8125
300833B2DDD9014000000000,865.7,6.240234,4.875
300833B2DDD9014000000000,865.7,0.57064086,-1.625
300833B2DDD9014000000000,865.7,3.2459033,0.0
300833B2DDD9014000000000,865.7,1.4051265,5.6875
300833B2DDD9014000000000,865.7,2.4911847,-9.75
300833B2DDD9014000000000,865.7,3.3072627,2.4375
300833B2DDD9014000000000,865.7,2.2641556,8.125
300833B2DDD9014000000000,865.7,3.577243,-8.125
300833B2DDD9014000000000,865.7,3.2949908,2.4375
300833B2DDD9014000000000,865.7,2.791845,1.625
300833B2DDD9014000000000,865.7,6.0254765,2.4375
300833B2DDD9014000000000,865.7,4.6755733,-0.8125
300833B2DDD9014000000000,865.7,0.54609716,6.5
300833B2DDD9014000000000,865.7,3.2949908,3.25
300833B2DDD9014000000000,865.7,6.24637,6.5
300833B2DDD9014000000000,865.7,2.478913,-1.625
300833B2DDD9014000000000,865.7,5.976389,16.25
300833B2DDD9014000000000,865.7,2.7734373,0.8125
300833B2DDD9014000000000,865.7,3.0004663,0.0
300833B2DDD9014000000000,865.7,3.5465636,-6.5
300833B2DDD9014000000000,865.7,1.3805827,8.125
300833B2DDD9014000000000,865.7,1.1965051,5.6875
300833B2DDD9014000000000,865.7,1.0676507,3.25
300833B2DDD9014000000000,865.7,1.0553788,2.4375
300833B2DDD9014000000000,865.7,3.2888548,4.0625
300833B2DDD9014000000000,865.7,3.2520392,-0.8125
300833B2DDD9014000000000,865.7,2.8593402,-4.875
300833B2DDD9014000000000,865.7,4.466952,0.8125
300833B2DDD9014000000000,865.7,5.2339425,8.9375
300833B2DDD9014000000000,865.7,2.313243,-4.0625
300833B2DDD9014000000000,865.7,3.2459033,1.625
300833B2DDD9014000000000,865.7,3.3011267,8.125
300833B2DDD9014000000000,865.7,4.5099034,-2.4375
300833B2DDD9014000000000,865.7,3.3133986,2.4375
300833B2DDD9014000000000,865.7,5.270758,0.8125
300833B2DDD9014000000000,865.7,2.810253,-2.4375
300833B2DDD9014000000000,865.7,1.0921943,-0.8125
300833B2DDD9014000000000,865.7,5.9641175,23.5625
300833B2DDD9014000000000,865.7,0.0,0.0
300833B2DDD9014000000000,865.7,4.706253,-4.875
300833B2DDD9014000000000,865.7,1.0860584,-0.8125
300833B2DDD9014000000000,865.7,3.0188742,-2.4375
300833B2DDD9014000000000,865.7,2.8347964,0.0
300833B2DDD9014000000000,865.7,0.62586415,-1.625
300833B2DDD9014000000000,865.7,1.1965051,4.875
300833B2DDD9014000000000,865.7,3.509748,6.5
300833B2DDD9014000000000,865.7,2.5157285,-1.625
300833B2DDD9014000000000,865.7,2.2396119,7.3125
300833B2DDD9014000000000,865.7,1.435806,-4.875
300833B2DDD9014000000000,865.7,6.0009327,8.9375
300833B2DDD9014000000000,865.7,2.233476,7.3125
300833B2DDD9014000000000,865.7,2.9943304,1.625
300833B2DDD9014000000000,865.7,3.3011267,2.4375
300833B2DDD9014000000000,865.7,2.8470683,-0.8125
300833B2DDD9014000000000,865.7,0.0,1.625
300833B2DDD9014000000000,865.7,1.030835,3.25
300833B2DDD9014000000000,865.7,3.344078,-2.4375
300833B2DDD9014000000000,865.7,2.4973207,-1.625
300833B2DDD9014000000000,865.7,1.1965051,6.5
300833B2DDD9014000000000,865.7,4.700117,-3.25
300833B2DDD9014000000000,865.7,5.270758,4.875
300833B2DDD9014000000000,865.7,3.264311,-0.8125
300833B2DDD9014000000000,865.7,0.6074564,2.4375
300833B2DDD9014000000000,865.7,4.4914956,2.4375
300833B2DDD9014000000000,865.7,2.791845,0.8125
300833B2DDD9014000000000,865.7,1.441942,-3.25
300833B2DDD9014000000000,865.7,1.0737865,-1.625
300833B2DDD9014000000000,865.7,3.4483888,0.8125
300833B2DDD9014000000000,865.7,3.2949908,4.875
300833B2DDD9014000000000,865.7,1.2333206,0.0
300833B2DDD9014000000000,865.7,5.988661,14.625
300833B2DDD9014000000000,865.7,3.3318062,-0.8125
300833B2DDD9014000000000,865.7,0.59518456,5.6875
300833B2DDD9014000000000,865.7,4.6694374,3.25
300833B2DDD9014000000000,865.7,3.2581751,1.625
300833B2DDD9014000000000,865.7,3.5711074,-19.5
300833B2DDD9014000000000,865.7,1.0185633,6.5
300833B2DDD9014000000000,865.7,2.7366216,6.5
300833B2DDD9014000000000,865.7,1.0124273,7.3125
300833B2DDD9014000000000,865.7,2.5157285,0.8125
300833B2DDD9014000000000,865.7,0.0061359233,1.625
300833B2DDD9014000000000,865.7,4.4853597,4.875
300833B2DDD9014000000000,865.7,2.9391072,-8.125
300833B2DDD9014000000000,865.7,1.3928546,0.8125
300833B2DDD9014000000000,865.7,2.9943304,3.25
300833B2DDD9014000000000,865.7,2.313243,-8.125
300833B2DDD9014000000000,865.7,5.2462144,8.125
300833B2DDD9014000000000,865.7,3.037282,-2.4375
300833B2DDD9014000000000,865.7,0.0,4.0625
300833B2DDD9014000000000,865.7,3.589515,-19.5
300833B2DDD9014000000000,865.7,6.0193405,10.5625
300833B2DDD9014000000000,865.7,0.53382534,7.3125
300833B2DDD9014000000000,865.7,1.1903691,7.3125
300833B2DDD9014000000000,865.7,4.700117,-0.8125
300833B2DDD9014000000000,865.7,4.4914956,0.8125
300833B2DDD9014000000000,865.7,2.313243,-6.5
300833B2DDD9014000000000,865.7,3.3379421,0.8125
300833B2DDD9014000000000,865.7,3.3379421,-4.0625
300833B2DDD9014000000000,865.7,3.264311,1.625
300833B2DDD9014000000000,865.7,5.2523503,-3.25
300833B2DDD9014000000000,865.7,1.0185633,6.5
300833B2DDD9014000000000,865.7,2.9145634,-7.3125
300833B2DDD9014000000000,865.7,2.7857091,-0.8125
300833B2DDD9014000000000,865.7,2.55868,-7.3125
300833B2DDD9014000000000,865.7,1.0246992,5.6875
300833B2DDD9014000000000,865.7,1.3683108,9.75
300833B2DDD9014000000000,865.7,6.05002,7.3125
300833B2DDD9014000000000,865.7,3.2888548,-3.25
300833B2DDD9014000000000,865.7,3.031146,-1.625
300833B2DDD9014000000000,865.7,2.718214,9.75
300833B2DDD9014000000000,865.7,4.5283113,-4.875
300833B2DDD9014000000000,865.7,3.5588355,-6.5
300833B2DDD9014000000000,865.7,3.3133986,0.8125
300833B2DDD9014000000000,865.7,1.0124273,6.5
300833B2DDD9014000000000,865.7,3.3133986,4.875
300833B2DDD9014000000000,865.7,4.6633015,1.625
300833B2DDD9014000000000,865.7,1.036971,4.875
300833B2DDD9014000000000,865.7,2.5709517,-8.125
300833B2DDD9014000000000,865.7,1.1903691,8.125
300833B2DDD9014000000000,865.7,6.2647777,4.0625
300833B2DDD9014000000000,865.7,2.8347964,5.6875
300833B2DDD9014000000000,865.7,0.5399612,9.75
300833B2DDD9014000000000,865.7,1.4296701,0.8125
300833B2DDD9014000000000,865.7,2.2825634,-8.125
300833B2DDD9014000000000,865.7,5.28303,5.6875
300833B2DDD9014000000000,865.7,3.02501,0.0
300833B2DDD9014000000000,865.7,4.5099034,-1.625
300833B2DDD9014000000000,865.7,3.2520392,0.8125
300833B2DDD9014000000000,865.7,1.2149128,1.625
300833B2DDD9014000000000,865.7,0.5890486,4.875
300833B2DDD9014000000000,865.7,4.693981,-0.8125
300833B2DDD9014000000000,865.7,2.791845,-4.875
300833B2DDD9014000000000,865.7,6.2709136,2.4375
300833B2DDD9014000000000,865.7,1.0737865,7.3125
300833B2DDD9014000000000,865.7,3.3011267,6.5
300833B2DDD9014000000000,865.7,2.5709517,-8.9375
300833B2DDD9014000000000,865.7,1.0062914,7.3125
300833B2DDD9014000000000,865.7,5.988661,17.0625
300833B2DDD9014000000000,865.7,3.2949908,8.125
300833B2DDD9014000000000,865.7,5.270758,5.6875
300833B2DDD9014000000000,865.7,2.877748,4.0625
300833B2DDD9014000000000,865.7,2.2825634,-4.875
300833B2DDD9014000000000,865.7,1.356039,6.5
300833B2DDD9014000000000,865.7,3.5465636,-4.875
300833B2DDD9014000000000,865.7,3.3379421,0.0
300833B2DDD9014000000000,865.7,3.0004663,3.25
300833B2DDD9014000000000,865.7,2.5464082,-4.0625
300833B2DDD9014000000000,865.7,3.350214,-0.8125
300833B2DDD9014000000000,865.7,2.8163888,-3.25
300833B2DDD9014000000000,865.7,1.1044662,6.5
300833B2DDD9014000000000,865.7,6.24637,6.5
300833B2DDD9014000000000,865.7,4.687845,-0.8125
300833B2DDD9014000000000,865.7,2.9145634,-3.25
300833B2DDD9014000000000,865.7,4.5160394,0.8125
300833B2DDD9014000000000,865.7,3.270447,1.625
300833B2DDD9014000000000,865.7,0.54609716,5.6875
300833B2DDD9014000000000,865.7,2.2089324,6.5
300833B2DDD9014000000000,865.7,6.0132046,14.625
300833B2DDD9014000000000,865.7,1.1780972,8.125
300833B2DDD9014000000000,865.7,5.276894,8.125
300833B2DDD9014000000000,865.7,1.4112623,0.0
300833B2DDD9014000000000,865.7,1.0185633,3.25
300833B2DDD9014000000000,865.7,3.589515,-15.4375
300833B2DDD9014000000000,865.7,4.687845,-0.8125
300833B2DDD9014000000000,865.7,1.3867186,8.125
300833B2DDD9014000000000,865.7,3.4667966,-3.25
300833B2DDD9014000000000,865.7,6.0254765,12.1875
300833B2DDD9014000000000,865.7,2.871612,1.625
300833B2DDD9014000000000,865.7,6.24637,5.6875
300833B2DDD9014000000000,865.7,4.5099034,-2.4375
300833B2DDD9014000000000,865.7,1.0185633,3.25
300833B2DDD9014000000000,865.7,1.1658254,3.25
300833B2DDD9014000000000,865.7,2.552544,-5.6875
300833B2DDD9014000000000,865.7,5.319845,0.0
300833B2DDD9014000000000,865.7,3.3686218,-0.8125
300833B2DDD9014000000000,865.7,1.1903691,5.6875
300833B2DDD9014000000000,865.7,2.8347964,-8.9375
300833B2DDD9014000000000,865.7,2.2641556,0.0
300833B2DDD9014000000000,865.7,3.276583,-0.8125
300833B2DDD9014000000000,865.7,3.0188742,0.8125
300833B2DDD9014000000000,865.7,0.5522331,8.125
300833B2DDD9014000000000,865.7,3.3133986,4.875
300833B2DDD9014000000000,865.7,3.5526996,-5.6875
300833B2DDD9014000000000,865.7,1.1842332,5.6875
300833B2DDD9014000000000,865.7,3.02501,-1.625
300833B2DDD9014000000000,865.7,6.221826,8.125
300833B2DDD9014000000000,865.7,4.4976315,2.4375
300833B2DDD9014000000000,865.7,1.0246992,3.25
300833B2DDD9014000000000,865.7,3.276583,-0.8125
300833B2DDD9014000000000,865.7,6.0377483,5.6875
300833B2DDD9014000000000,865.7,2.2825634,0.0
300833B2DDD9014000000000,865.7,5.344389,0.8125
300833B2DDD9014000000000,865.7,3.3195345,4.875
300833B2DDD9014000000000,865.7,4.687845,-2.4375
300833B2DDD9014000000000,865.7,3.3808937,-4.0625
300833B2DDD9014000000000,865.7,1.362175,5.6875
300833B2DDD9014000000000,865.7,0.54609716,4.875
300833B2DDD9014000000000,865.7,2.797981,-1.625
300833B2DDD9014000000000,865.7,1.2026409,1.625
300833B2DDD9014000000000,865.7,2.877748,4.0625
300833B2DDD9014000000000,865.7,2.552544,-2.4375
300833B2DDD9014000000000,865.7,1.1903691,6.5
300833B2DDD9014000000000,865.7,4.6633015,0.8125
300833B2DDD9014000000000,865.7,1.036971,1.625
300833B2DDD9014000000000,865.7,1.4173982,0.0
300833B2DDD9014000000000,865.7,5.319845,8.125
300833B2DDD9014000000000,865.7,6.227962,6.5
300833B2DDD9014000000000,865.7,2.804117,-1.625
300833B2DDD9014000000000,865.7,1.1474177,13.8125
300833B2DDD9014000000000,865.7,4.473088,5.6875
300833B2DDD9014000000000,865.7,3.0066023,0.0
300833B2DDD9014000000000,865.7,2.55868,-5.6875
300833B2DDD9014000000000,865.7,6.0254765,8.125
300833B2DDD9014000000000,865.7,3.350214,4.875
300833B2DDD9014000000000,865.7,0.54609716,5.6875
300833B2DDD9014000000000,865.7,3.3256702,2.4375
300833B2DDD9014000000000,865.7,3.282719,0.0
300833B2DDD9014000000000,865.7,2.9329712,-7.3125
300833B2DDD9014000000000,865.7,2.2396119,9.75
300833B2DDD9014000000000,865.7,3.5526996,-7.3125
300833B2DDD9014000000000,865.7,1.362175,6.5
300833B2DDD9014000000000,865.7,0.5399612,6.5
300833B2DDD9014000000000,865.7,2.313243,-5.6875
300833B2DDD9014000000000,865.7,3.276583,0.8125
300833B2DDD9014000000000,865.7,3.0004663,2.4375
300833B2DDD9014000000000,865.7,1.2087768,0.8125
300833B2DDD9014000000000,865.7,3.3318062,7.3125
300833B2DDD9014000000000,865.7,3.344078,0.8125
300833B2DDD9014000000000,865.7,4.5160394,0.0
300833B2DDD9014000000000,865.7,2.552544,-4.0625
300833B2DDD9014000000000,865.7,1.0246992,2.4375
300833B2DDD9014000000000,865.7,1.2210487,6.5
300833B2DDD9014000000000,865.7,6.0132046,12.1875
300833B2DDD9014000000000,865.7,4.6694374,0.0
300833B2DDD9014000000000,865.7,6.252506,1.625
300833B2DDD9014000000000,865.7,5.3750687,6.5
300833B2DDD9014000000000,865.7,2.9391072,-5.6875
300833B2DDD9014000000000,865.7,2.7673013,6.5
300833B2DDD9014000000000,865.7,3.515884,5.6875
300833B2DDD9014000000000,865.7,3.264311,1.625
300833B2DDD9014000000000,865.7,1.0124273,5.6875
300833B2DDD9014000000000,865.7,2.3193789,-1.625
300833B2DDD9014000000000,865.7,2.9084275,-2.4375
300833B2DDD9014000000000,865.7,1.2026409,4.875
300833B2DDD9014000000000,865.7,4.6694374,-1.625
300833B2DDD9014000000000,865.7,6.0316124,8.125
300833B2DDD9014000000000,865.7,3.3318062,3.25
300833B2DDD9014000000000,865.7,1.2701361,3.25
300833B2DDD9014000000000,865.7,3.35635,5.6875
300833B2DDD9014000000000,865.7,3.0495539,-3.25
300833B2DDD9014000000000,865.7,2.8347964,-6.5
300833B2DDD9014000000000,865.7,2.5402722,-1.625
300833B2DDD9014000000000,865.7,5.3934765,5.6875
300833B2DDD9014000000000,865.7,6.2647777,-1.625
300833B2DDD9014000000000,865.7,3.6079228,-16.25
300833B2DDD9014000000000,865.7,4.5099034,-0.8125
300833B2DDD9014000000000,865.7,0.5399612,10.5625
300833B2DDD9014000000000,865.7,1.3683108,4.875
300833B2DDD9014000000000,865.7,5.479379,3.25
300833B2DDD9014000000000,865.7,6.0193405,7.3125
300833B2DDD9014000000000,865.7,3.270447,3.25
300833B2DDD9014000000000,865.7,3.031146,-3.25
300833B2DDD9014000000000,865.7,6.21569,4.875
300833B2DDD9014000000000,865.7,3.4667966,3.25
300833B2DDD9014000000000,865.7,1.3867186,0.8125
300833B2DDD9014000000000,865.7,1.0431069,0.0
300833B2DDD9014000000000,865.7,0.57064086,6.5
300833B2DDD9014000000000,865.7,3.3993015,1.625
300833B2DDD9014000000000,865.7,1.3008157,6.5
300833B2DDD9014000000000,865.7,3.3318062,2.4375
300833B2DDD9014000000000,865.7,2.55868,-2.4375
300833B2DDD9014000000000,865.7,1.2210487,0.0
300833B2DDD9014000000000,865.7,2.877748,4.875
300833B2DDD9014000000000,865.7,4.6387577,-6.5
300833B2DDD9014000000000,865.7,4.460816,6.5
300833B2DDD9014000000000,865.7,2.3316507,-1.625
300833B2DDD9014000000000,865.7,2.8409324,0.8125
300833B2DDD9014000000000,865.7,5.5591464,6.5
300833B2DDD9014000000000,865.7,2.89002,4.875
300833B2DDD9014000000000,865.7,1.4051265,1.625
300833B2DDD9014000000000,865.7,2.8347964,0.0
300833B2DDD9014000000000,865.7,3.3195345,2.4375
300833B2DDD9014000000000,865.7,1.3069516,6.5
300833B2DDD9014000000000,865.7,3.423845,4.0625
300833B2DDD9014000000000,865.7,4.4853597,-1.625
300833B2DDD9014000000000,865.7,1.0246992,4.875
300833B2DDD9014000000000,865.7,2.4052818,-7.3125
300833B2DDD9014000000000,865.7,4.552855,1.625
300833B2DDD9014000000000,865.7,0.57064086,7.3125
300833B2DDD9014000000000,865.7,1.1965051,4.875
300833B2DDD9014000000000,865.7,6.05002,4.0625
300833B2DDD9014000000000,865.7,6.1850104,5.6875
300833B2DDD9014000000000,865.7,3.4606607,7.3125
300833B2DDD9014000000000,865.7,2.5893595,-4.875
300833B2DDD9014000000000,865.7,2.9881945,0.8125
300833B2DDD9014000000000,865.7,3.276583,0.8125
300833B2DDD9014000000000,865.7,3.3072627,2.4375
300833B2DDD9014000000000,865.7,1.3314953,4.875
300833B2DDD9014000000000,865.7,2.969787,1.625
300833B2DDD9014000000000,865.7,2.8961558,4.0625
300833B2DDD9014000000000,865.7,5.743224,2.4375
300833B2DDD9014000000000,865.7,0.5767768,7.3125
300833B2DDD9014000000000,865.7,6.227962,1.625
300833B2DDD9014000000000,865.7,4.473088,-0.8125
300833B2DDD9014000000000,865.7,3.417709,8.125
300833B2DDD9014000000000,865.7,1.1903691,7.3125
300833B2DDD9014000000000,865.7,2.5832236,-1.625
300833B2DDD9014000000000,865.7,5.921166,19.5
300833B2DDD9014000000000,865.7,3.2581751,2.4375
300833B2DDD9014000000000,865.7,4.4976315,0.0
300833B2DDD9014000000000,865.7,1.0062914,6.5
300833B2DDD9014000000000,865.7,3.6263306,-23.5625
300833B2DDD9014000000000,865.7,1.4848934,-3.25
300833B2DDD9014000000000,865.7,2.883884,8.125
300833B2DDD9014000000000,865.7,2.3623304,6.5
300833B2DDD9014000000000,865.7,2.951379,-2.4375
300833B2DDD9014000000000,865.7,6.21569,2.4375
300833B2DDD9014000000000,865.7,2.9759228,-1.625
300833B2DDD9014000000000,865.7,3.270447,0.8125
300833B2DDD9014000000000,865.7,3.4422529,7.3125
300833B2DDD9014000000000,865.7,1.3867186,-0.8125
300833B2DDD9014000000000,865.7,4.4240007,4.0625
300833B2DDD9014000000000,865.7,3.3072627,1.625
300833B2DDD9014000000000,865.7,1.2087768,6.5
300833B2DDD9014000000000,865.7,1.4664856,-0.8125
300833B2DDD9014000000000,865.7,3.577243,-11.375
300833B2DDD9014000000000,865.7,2.644583,-5.6875
300833B2DDD9014000000000,865.7,2.9022915,0.8125
300833B2DDD9014000000000,865.7,4.4485445,-2.4375
300833B2DDD9014000000000,865.7,5.921166,14.625
300833B2DDD9014000000000,865.7,6.0070686,-6.5
300833B2DDD9014000000000,865.7,0.54609716,8.125
300833B2DDD9014000000000,865.7,1.0062914,5.6875
300833B2DDD9014000000000,865.7,2.4666412,0.0
300833B2DDD9014000000000,865.7,1.030835,2.4375
300833B2DDD9014000000000,865.7,4.4301367,2.4375
300833B2DDD9014000000000,865.7,2.4543693,-0.8125
300833B2DDD9014000000000,865.7,3.2520392,1.625
300833B2DDD9014000000000,865.7,2.638447,-2.4375
300833B2DDD9014000000000,865.7,2.963651,0.8125
300833B2DDD9014000000000,865.7,6.21569,2.4375
300833B2DDD9014000000000,865.7,5.9579816,6.5
300833B2DDD9014000000000,865.7,3.497476,1.625
300833B2DDD9014000000000,865.7,3.3133986,-1.625
300833B2DDD9014000000000,865.7,1.4173982,6.5
300833B2DDD9014000000000,865.7,1.2210487,4.0625
300833B2DDD9014000000000,865.7,2.957515,-8.9375
300833B2DDD9014000000000,865.7,1.3989905,6.5
300833B2DDD9014000000000,865.7,4.399457,-1.625
300833B2DDD9014000000000,865.7,3.4913402,-5.6875
300833B2DDD9014000000000,865.7,2.951379,-1.625
300833B2DDD9014000000000,865.7,0.5645049,10.5625
300833B2DDD9014000000000,865.7,5.9947968,11.375
300833B2DDD9014000000000,865.7,4.4301367,0.0
300833B2DDD9014000000000,865.7,3.2459033,3.25
300833B2DDD9014000000000,865.7,2.9759228,-5.6875
300833B2DDD9014000000000,865.7,6.062292,9.75
300833B2DDD9014000000000,865.7,1.2394565,1.625
300833B2DDD9014000000000,865.7,6.1972823,6.5
300833B2DDD9014000000000,865.7,1.3744467,13.8125
300833B2DDD9014000000000,865.7,2.951379,-2.4375
300833B2DDD9014000000000,865.7,5.896622,16.25
300833B2DDD9014000000000,865.7,4.3687773,-1.625
300833B2DDD9014000000000,865.7,3.5404277,-1.625
300833B2DDD9014000000000,865.7,3.3011267,-0.8125
300833B2DDD9014000000000,865.7,3.5649714,-11.375
300833B2DDD9014000000000,865.7,2.6752625,-5.6875
300833B2DDD9014000000000,865.7,2.9759228,1.625
300833B2DDD9014000000000,865.7,1.4296701,7.3125
300833B2DDD9014000000000,865.7,2.5095925,-0.8125
300833B2DDD9014000000000,865.7,0.6320001,1.625
300833B2DDD9014000000000,865.7,0.9817477,6.5
300833B2DDD9014000000000,865.7,2.5464082,-7.3125
300833B2DDD9014000000000,865.7,6.1359234,6.5
300833B2DDD9014000000000,865.7,1.4296701,0.8125
300833B2DDD9014000000000,865.7,5.939574,7.3125
300833B2DDD9014000000000,865.7,2.9145634,0.8125
300833B2DDD9014000000000,865.7,3.2949908,-0.8125
300833B2DDD9014000000000,865.7,6.209554,5.6875
300833B2DDD9014000000000,865.7,2.9206994,1.625
300833B2DDD9014000000000,865.7,3.2459033,0.8125
300833B2DDD9014000000000,865.7,3.5588355,0.8125
300833B2DDD9014000000000,865.7,4.313554,1.625
300833B2DDD9014000000000,865.7,0.9817477,5.6875
300833B2DDD9014000000000,865.7,4.411729,0.0
300833B2DDD9014000000000,865.7,0.6135923,8.125
300833B2DDD9014000000000,865.7,2.6752625,0.8125
300833B2DDD9014000000000,865.7,1.2333206,6.5
300833B2DDD9014000000000,865.7,3.5711074,-11.375
300833B2DDD9014000000000,865.7,3.0004663,-1.625
300833B2DDD9014000000000,865.7,1.4910294,-1.625
300833B2DDD9014000000000,865.7,1.4664856,-2.4375
300833B2DDD9014000000000,865.7,5.8904862,13.8125
300833B2DDD9014000000000,865.7,3.0188742,-4.0625
300833B2DDD9014000000000,865.7,3.2336316,1.625
300833B2DDD9014000000000,865.7,4.2828746,0.0
300833B2DDD9014000000000,865.7,2.9759228,-5.6875
300833B2DDD9014000000000,865.7,0.957204,7.3125
300833B2DDD9014000000000,865.7,6.234098,11.375
300833B2DDD9014000000000,865.7,3.5711074,2.4375
300833B2DDD9014000000000,865.7,2.7366216,-7.3125
300833B2DDD9014000000000,865.7,4.393321,1.625
300833B2DDD9014000000000,865.7,3.2581751,2.4375
300833B2DDD9014000000000,865.7,2.5218644,1.625
300833B2DDD9014000000000,865.7,2.9084275,1.625
300833B2DDD9014000000000,865.7,6.1972823,6.5
300833B2DDD9014000000000,865.7,3.5404277,-13.8125
300833B2DDD9014000000000,865.7,1.4726216,1.625
300833B2DDD9014000000000,865.7,0.6320001,3.25
300833B2DDD9014000000000,865.7,1.2640002,2.4375
300833B2DDD9014000000000,865.7,3.2520392,0.8125
300833B2DDD9014000000000,865.7,0.030679615,-0.8125
300833B2DDD9014000000000,865.7,2.9943304,-1.625
300833B2DDD9014000000000,865.7,2.9820588,-1.625
300833B2DDD9014000000000,865.7,4.411729,-0.8125
300833B2DDD9014000000000,865.7,2.72435,-4.875
300833B2DDD9014000000000,865.7,4.264467,-1.625
300833B2DDD9014000000000,865.7,5.8843503,9.75
300833B2DDD9014000000000,865.7,3.6201947,-0.8125
300833B2DDD9014000000000,865.7,3.264311,0.8125
300833B2DDD9014000000000,865.7,2.5709517,0.0
300833B2DDD9014000000000,865.7,0.96947587,4.875
300833B2DDD9014000000000,865.7,1.3867186,8.9375
300833B2DDD9014000000000,865.7,1.521709,1.625
300833B2DDD9014000000000,865.7,6.221826,4.875
300833B2DDD9014000000000,865.7,0.6442719,6.5
300833B2DDD9014000000000,865.7,2.9084275,3.25
300833B2DDD9014000000000,865.7,1.3069516,-4.0625
300833B2DDD9014000000000,865.7,3.5711074,-13.8125
300833B2DDD9014000000000,865.7,0.96947587,4.875
300833B2DDD9014000000000,865.7,2.7488935,-8.125
300833B2DDD9014000000000,865.7,2.9881945,0.8125
300833B2DDD9014000000000,865.7,2.9145634,0.0
300833B2DDD9014000000000,865.7,1.2640002,4.875
300833B2DDD9014000000000,865.7,5.9457097,4.875
300833B2DDD9014000000000,865.7,1.4296701,4.875
300833B2DDD9014000000000,865.7,2.5770876,0.0
300833B2DDD9014000000000,865.7,4.252195,-2.4375
300833B2DDD9014000000000,865.7,0.67495155,4.0625
300833B2DDD9014000000000,865.7,3.6079228,6.5
300833B2DDD9014000000000,865.7,6.221826,4.875
300833B2DDD9014000000000,865.7,1.5094371,6.5
300833B2DDD9014000000000,865.7,3.2581751,0.0
300833B2DDD9014000000000,865.7,3.515884,-3.25
300833B2DDD9014000000000,865.7,3.2581751,0.0
300833B2DDD9014000000000,865.7,2.951379,0.0
300833B2DDD9014000000000,865.7,4.405593,0.8125
300833B2DDD9014000000000,865.7,0.05522331,8.9375
300833B2DDD9014000000000,865.7,3.02501,-2.4375
300833B2DDD9014000000000,865.7,3.2520392,1.625
300833B2DDD9014000000000,865.7,3.2336316,2.4375
300833B2DDD9014000000000,865.7,6.234098,4.0625
300833B2DDD9014000000000,865.7,4.221515,-2.4375
300833B2DDD9014000000000,865.7,3.6079228,2.4375
300833B2DDD9014000000000,865.7,2.877748,4.875
300833B2DDD9014000000000,865.7,2.7673013,-7.3125
300833B2DDD9014000000000,865.7,3.577243,-30.875
300833B2DDD9014000000000,865.7,4.387185,1.625
300833B2DDD9014000000000,865.7,1.3989905,6.5
300833B2DDD9014000000000,865.7,0.12271846,1.625
300833B2DDD9014000000000,865.7,5.927302,2.4375
300833B2DDD9014000000000,865.7,1.2824079,2.4375
300833B2DDD9014000000000,865.7,1.5585245,6.5
300833B2DDD9014000000000,865.7,0.94493216,4.875
300833B2DDD9014000000000,865.7,2.9391072,4.875
300833B2DDD9014000000000,865.7,0.6688156,7.3125
300833B2DDD9014000000000,865.7,2.6139033,-0.8125
300833B2DDD9014000000000,865.7,3.6508744,0.0
300833B2DDD9014000000000,865.7,5.927302,6.5
300833B2DDD9014000000000,865.7,1.5523885,8.9375
300833B2DDD9014000000000,865.7,3.2213597,2.4375
300833B2DDD9014000000000,865.7,6.240234,5.6875
300833B2DDD9014000000000,865.7,3.2459033,2.4375
300833B2DDD9014000000000,865.7,2.7795732,-5.6875
300833B2DDD9014000000000,865.7,4.405593,-0.8125
300833B2DDD9014000000000,865.7,4.1969714,-0.8125
300833B2DDD9014000000000,865.7,2.9759228,4.875
300833B2DDD9014000000000,865.7,0.08590292,5.6875
300833B2DDD9014000000000,865.7,1.4542137,-6.5
300833B2DDD9014000000000,865.7,1.2824079,5.6875
300833B2DDD9014000000000,865.7,0.9265244,2.4375
300833B2DDD9014000000000,865.7,2.9084275,-2.4375
300833B2DDD9014000000000,865.7,2.9391072,-0.8125
300833B2DDD9014000000000,865.7,0.7363108,-3.25
300833B2DDD9014000000000,865.7,2.5770876,1.625
300833B2DDD9014000000000,865.7,3.5404277,-18.6875
300833B2DDD9014000000000,865.7,3.675418,6.5
300833B2DDD9014000000000,865.7,1.3805827,1.625
300833B2DDD9014000000000,865.7,4.399457,-4.875
300833B2DDD9014000000000,865.7,3.0986412,-10.5625
300833B2DDD9014000000000,865.7,1.6628351,3.25
300833B2DDD9014000000000,865.7,0.06135923,2.4375
300833B2DDD9014000000000,865.7,2.7857091,-5.6875
300833B2DDD9014000000000,865.7,4.1785636,0.0
300833B2DDD9014000000000,865.7,1.276272,7.3125
300833B2DDD9014000000000,865.7,0.717903,-1.625
300833B2DDD9014000000000,865.7,3.2274957,0.8125
300833B2DDD9014000000000,865.7,2.9145634,-2.4375
300833B2DDD9014000000000,865.7,0.89584476,7.3125
300833B2DDD9014000000000,865.7,5.8782144,7.3125
300833B2DDD9014000000000,865.7,3.4913402,-8.125
300833B2DDD9014000000000,865.7,3.2520392,0.0
300833B2DDD9014000000000,865.7,0.0061359233,1.625
300833B2DDD9014000000000,865.7,2.9268353,-6.5
300833B2DDD9014000000000,865.7,2.632311,4.875
300833B2DDD9014000000000,865.7,1.7119225,2.4375
300833B2DDD9014000000000,865.7,0.0061359233,4.875
300833B2DDD9014000000000,865.7,0.89584476,6.5
300833B2DDD9014000000000,865.7,3.7245054,6.5
300833B2DDD9014000000000,865.7,3.4483888,-10.5625
300833B2DDD9014000000000,865.7,3.2152238,1.625
300833B2DDD9014000000000,865.7,4.399457,0.0
300833B2DDD9014000000000,865.7,3.0740974,-4.0625
300833B2DDD9014000000000,865.7,2.8225245,-2.4375
300833B2DDD9014000000000,865.7,5.8598065,12.1875
300833B2DDD9014000000000,865.7,0.0,8.125
300833B2DDD9014000000000,865.7,1.2640002,8.125
300833B2DDD9014000000000,865.7,3.2459033,-0.8125
300833B2DDD9014000000000,865.7,2.8961558,-0.8125
300833B2DDD9014000000000,865.7,4.1846995,-4.875
300833B2DDD9014000000000,865.7,0.77926224,-3.25
300833B2DDD9014000000000,865.7,2.718214,-4.875
300833B2DDD9014000000000,865.7,1.3192235,5.6875
300833B2DDD9014000000000,865.7,2.7795732,2.4375
300833B2DDD9014000000000,865.7,2.804117,0.0
300833B2DDD9014000000000,865.7,0.7669904,3.25
300833B2DDD9014000000000,865.7,1.3130876,0.0
300833B2DDD9014000000000,865.7,4.405593,-1.625
300833B2DDD9014000000000,865.7,2.718214,-1.625
300833B2DDD9014000000000,865.7,3.7797287,4.875
300833B2DDD9014000000000,865.7,2.8532043,-8.9375
300833B2DDD9014000000000,865.7,0.0061359233,4.875
300833B2DDD9014000000000,865.7,3.2213597,-2.4375
300833B2DDD9014000000000,865.7,2.883884,0.8125
300833B2DDD9014000000000,865.7,0.88357294,0.8125
300833B2DDD9014000000000,865.7,3.02501,2.4375
300833B2DDD9014000000000,865.7,1.3253593,6.5
300833B2DDD9014000000000,865.7,3.2152238,2.4375
300833B2DDD9014000000000,865.7,0.06749515,4.0625
300833B2DDD9014000000000,865.7,5.7984476,16.25
300833B2DDD9014000000000,865.7,4.15402,-0.8125
300833B2DDD9014000000000,865.7,1.8469129,0.0
300833B2DDD9014000000000,865.7,3.4054372,5.6875
300833B2DDD9014000000000,865.7,3.196816,0.8125
300833B2DDD9014000000000,865.7,4.399457,0.8125
300833B2DDD9014000000000,865.7,2.8470683,-1.625
300833B2DDD9014000000000,865.7,3.7797287,4.0625
300833B2DDD9014000000000,865.7,2.8532043,-4.0625
300833B2DDD9014000000000,865.7,2.6875343,1.625
300833B2DDD9014000000000,865.7,2.89002,-3.25
300833B2DDD9014000000000,865.7,0.73017484,7.3125
300833B2DDD9014000000000,865.7,4.1908355,-2.4375
300833B2DDD9014000000000,865.7,5.7861757,14.625
300833B2DDD9014000000000,865.7,3.2336316,-0.8125
300833B2DDD9014000000000,865.7,1.2210487,9.75
300833B2DDD9014000000000,865.7,3.350214,8.9375
300833B2DDD9014000000000,865.7,1.7916895,5.6875
300833B2DDD9014000000000,865.7,0.030679615,2.4375
300833B2DDD9014000000000,865.7,1.3499031,6.5
300833B2DDD9014000000000,865.7,0.03681554,5.6875
300833B2DDD9014000000000,865.7,0.83448553,5.6875
300833B2DDD9014000000000,865.7,2.9881945,8.125
300833B2DDD9014000000000,865.7,0.06749515,-0.8125
300833B2DDD9014000000000,865.7,2.8532043,-7.3125
300833B2DDD9014000000000,865.7,1.7855537,4.875
300833B2DDD9014000000000,865.7,4.1724277,0.0
300833B2DDD9014000000000,865.7,3.2213597,0.0
300833B2DDD9014000000000,865.7,3.2274957,-3.25
300833B2DDD9014000000000,865.7,3.104777,-7.3125
300833B2DDD9014000000000,865.7,3.7981365,-0.8125
300833B2DDD9014000000000,865.7,2.6691265,1.625
300833B2DDD9014000000000,865.7,4.405593,-0.8125
300833B2DDD9014000000000,865.7,3.515884,-15.4375
300833B2DDD9014000000000,865.7,0.8713011,0.8125
300833B2DDD9014000000000,865.7,2.883884,-4.0625
300833B2DDD9014000000000,865.7,0.04295146,6.5
300833B2DDD9014000000000,865.7,0.79767,0.8125
300833B2DDD9014000000000,865.7,1.2394565,5.6875
300833B2DDD9014000000000,865.7,1.356039,2.4375
300833B2DDD9014000000000,865.7,5.8598065,6.5
300833B2DDD9014000000000,865.7,2.8654761,-2.4375
300833B2DDD9014000000000,865.7,0.05522331,0.8125
300833B2DDD9014000000000,865.7,5.8720784,5.6875
300833B2DDD9014000000000,865.7,4.399457,0.0
300833B2DDD9014000000000,865.7,3.7981365,0.8125
300833B2DDD9014000000000,865.7,0.05522331,1.625
300833B2DDD9014000000000,865.7,3.202952,0.0
300833B2DDD9014000000000,865.7,4.1662917,-0.8125
300833B2DDD9014000000000,865.7,1.8162333,5.6875
300833B2DDD9014000000000,865.7,3.2152238,0.0
300833B2DDD9014000000000,865.7,2.8532043,-0.8125
300833B2DDD9014000000000,865.7,2.8961558,-2.4375
300833B2DDD9014000000000,865.7,3.5281558,-18.6875
300833B2DDD9014000000000,865.7,0.7853982,5.6875
300833B2DDD9014000000000,865.7,2.7795732,4.875
300833B2DDD9014000000000,865.7,3.0556898,0.8125
300833B2DDD9014000000000,865.7,2.718214,-6.5
300833B2DDD9014000000000,865.7,1.3989905,0.0
300833B2DDD9014000000000,865.7,0.8099418,3.25
300833B2DDD9014000000000,865.7,1.2578642,-5.6875
300833B2DDD9014000000000,865.7,3.2152238,0.8125
300833B2DDD9014000000000,865.7,6.2770495,2.4375
300833B2DDD9014000000000,865.7,0.024543693,4.875
300833B2DDD9014000000000,865.7,1.8960003,2.4375
300833B2DDD9014000000000,865.7,1.2149128,-0.8125
300833B2DDD9014000000000,865.7,3.429981,-7.3125
300833B2DDD9014000000000,865.7,0.7731263,5.6875
300833B2DDD9014000000000,865.7,1.3867186,1.625
300833B2DDD9014000000000,865.7,3.196816,0.8125
300833B2DDD9014000000000,865.7,4.411729,-2.4375
300833B2DDD9014000000000,865.7,5.7923117,12.1875
300833B2DDD9014000000000,865.7,3.8533597,2.4375
300833B2DDD9014000000000,865.7,2.6507187,6.5
300833B2DDD9014000000000,865.7,4.160156,0.0
300833B2DDD9014000000000,865.7,2.8286605,1.625
300833B2DDD9014000000000,865.7,2.951379,-5.6875
300833B2DDD9014000000000,865.7,2.8286605,-8.125
300833B2DDD9014000000000,865.7,3.0925052,-1.625
300833B2DDD9014000000000,865.7,0.83448553,0.8125
300833B2DDD9014000000000,865.7,3.1784081,4.875
300833B2DDD9014000000000,865.7,0.079767,0.8125
300833B2DDD9014000000000,865.7,2.0493984,-5.6875
300833B2DDD9014000000000,865.7,1.1596894,5.6875
300833B2DDD9014000000000,865.7,6.1113796,3.25
300833B2DDD9014000000000,865.7,4.1662917,0.8125
300833B2DDD9014000000000,865.7,3.9024472,-1.625
300833B2DDD9014000000000,865.7,4.387185,5.6875
300833B2DDD9014000000000,865.7,2.8593402,-2.4375
300833B2DDD9014000000000,865.7,3.196816,2.4375
300833B2DDD9014000000000,865.7,3.417709,5.6875
300833B2DDD9014000000000,865.7,1.4173982,1.625
300833B2DDD9014000000000,865.7,2.7857091,-0.8125
300833B2DDD9014000000000,865.7,0.8651652,1.625
300833B2DDD9014000000000,865.7,0.73017484,4.875
300833B2DDD9014000000000,865.7,2.7488935,-4.0625
300833B2DDD9014000000000,865.7,3.0986412,0.8125
300833B2DDD9014000000000,865.7,5.8598065,4.0625
300833B2DDD9014000000000,865.7,2.9881945,-2.4375
300833B2DDD9014000000000,865.7,3.2090878,0.0
300833B2DDD9014000000000,865.7,2.7611654,0.8125
300833B2DDD9014000000000,865.7,1.4787575,-1.625
300833B2DDD9014000000000,865.7,3.19068,-1.625
300833B2DDD9014000000000,865.7,5.755496,10.5625
300833B2DDD9014000000000,865.7,4.405593,1.625
300833B2DDD9014000000000,865.7,0.11044662,7.3125
300833B2DDD9014000000000,865.7,4.15402,-2.4375
300833B2DDD9014000000000,865.7,3.4054372,-8.9375
300833B2DDD9014000000000,865.7,2.2886994,3.25
300833B2DDD9014000000000,865.7,0.85902923,5.6875
300833B2DDD9014000000000,865.7,3.0127382,-4.875
300833B2DDD9014000000000,865.7,3.9944859,2.4375
300833B2DDD9014000000000,865.7,2.8225245,1.625
300833B2DDD9014000000000,865.7,3.0986412,0.0
300833B2DDD9014000000000,865.7,1.0615147,4.875
300833B2DDD9014000000000,865.7,0.7363108,-2.4375
300833B2DDD9014000000000,865.7,5.908894,4.875
300833B2DDD9014000000000,865.7,2.7673013,0.8125
300833B2DDD9014000000000,865.7,3.1293209,-1.625
300833B2DDD9014000000000,865.7,3.0495539,-13.0
300833B2DDD9014000000000,865.7,3.4115732,-1.625
300833B2DDD9014000000000,865.7,4.4362726,0.0
300833B2DDD9014000000000,865.7,3.19068,0.8125
300833B2DDD9014000000000,865.7,0.88357294,4.875
300833B2DDD9014000000000,865.7,0.70563114,0.0
300833B2DDD9014000000000,865.7,4.0497093,-2.4375
300833B2DDD9014000000000,865.7,2.797981,2.4375
300833B2DDD9014000000000,865.7,4.1662917,-3.25
300833B2DDD9014000000000,865.7,0.159534,0.0
300833B2DDD9014000000000,865.7,3.1784081,-1.625
300833B2DDD9014000000000,865.7,2.6629906,4.875
300833B2DDD9014000000000,865.7,1.4726216,0.0
300833B2DDD9014000000000,865.7,1.0431069,0.8125
300833B2DDD9014000000000,865.7,2.7795732,0.0
300833B2DDD9014000000000,865.7,5.6880007,3.25
300833B2DDD9014000000000,865.7,5.7309523,13.0
300833B2DDD9014000000000,865.7,2.4298255,3.25
300833B2DDD9014000000000,865.7,2.8409324,-3.25
300833B2DDD9014000000000,865.7,0.12885438,4.875
300833B2DDD9014000000000,865.7,3.19068,1.625
300833B2DDD9014000000000,865.7,5.7186804,15.4375
300833B2DDD9014000000000,865.7,0.6565438,5.6875
300833B2DDD9014000000000,865.7,3.1784081,-0.8125
300833B2DDD9014000000000,865.7,5.61437,2.4375
300833B2DDD9014000000000,865.7,3.0188742,-4.0625
300833B2DDD9014000000000,865.7,4.0435734,1.625
300833B2DDD9014000000000,865.7,2.4298255,1.625
300833B2DDD9014000000000,865.7,1.4910294,2.4375
300833B2DDD9014000000000,865.7,2.7734373,0.0
300833B2DDD9014000000000,865.7,3.1293209,-4.875
300833B2DDD9014000000000,865.7,3.4545248,-17.875
300833B2DDD9014000000000,865.7,0.96947587,7.3125
300833B2DDD9014000000000,865.7,0.8467574,14.625
300833B2DDD9014000000000,865.7,4.4301367,-0.8125
300833B2DDD9014000000000,865.7,2.7488935,-4.875
300833B2DDD9014000000000,865.7,4.1908355,-5.6875
300833B2DDD9014000000000,865.7,4.4362726,1.625
300833B2DDD9014000000000,865.7,2.810253,-5.6875
300833B2DDD9014000000000,865.7,5.7248163,13.0
300833B2DDD9014000000000,865.7,5.5591464,2.4375
300833B2DDD9014000000000,865.7,0.8713011,9.75
300833B2DDD9014000000000,865.7,3.202952,-0.8125
300833B2DDD9014000000000,865.7,3.043418,13.0
300833B2DDD9014000000000,865.7,2.810253,0.8125
300833B2DDD9014000000000,865.7,0.17180584,-4.0625
300833B2DDD9014000000000,865.7,2.7673013,-8.125
300833B2DDD9014000000000,865.7,3.1661363,0.8125
300833B2DDD9014000000000,865.7,2.3684664,0.8125
300833B2DDD9014000000000,865.7,4.1724277,-0.8125
300833B2DDD9014000000000,865.7,4.0497093,-0.8125
300833B2DDD9014000000000,865.7,1.4542137,8.125
300833B2DDD9014000000000,865.7,0.6626797,1.625
300833B2DDD9014000000000,865.7,1.0185633,-2.4375
300833B2DDD9014000000000,865.7,3.0066023,-0.8125
300833B2DDD9014000000000,865.7,3.3686218,0.0
300833B2DDD9014000000000,865.7,4.2031074,-5.6875
300833B2DDD9014000000000,865.7,3.037282,-6.5
300833B2DDD9014000000000,865.7,2.7427576,-6.5
300833B2DDD9014000000000,865.7,4.0374374,-0.8125
300833B2DDD9014000000000,865.7,4.417865,0.8125
300833B2DDD9014000000000,865.7,2.804117,4.875
300833B2DDD9014000000000,865.7,3.1784081,3.25
300833B2DDD9014000000000,865.7,0.89584476,5.6875
300833B2DDD9014000000000,865.7,3.4483888,-8.125
300833B2DDD9014000000000,865.7,3.1661363,1.625
300833B2DDD9014000000000,865.7,0.6320001,4.875
300833B2DDD9014000000000,865.7,5.5468745,0.0
300833B2DDD9014000000000,865.7,0.11044662,7.3125
300833B2DDD9014000000000,865.7,1.0185633,0.0
300833B2DDD9014000000000,865.7,1.4848934,4.875
300833B2DDD9014000000000,865.7,3.1354568,-0.8125
300833B2DDD9014000000000,865.7,2.791845,-5.6875
300833B2DDD9014000000000,865.7,2.2948353,8.125
300833B2DDD9014000000000,865.7,5.743224,7.3125
300833B2DDD9014000000000,865.7,3.429981,-4.875
300833B2DDD9014000000000,865.7,1.4542137,4.875
300833B2DDD9014000000000,865.7,5.5223308,5.6875
300833B2DDD9014000000000,865.7,0.90811664,2.4375
300833B2DDD9014000000000,865.7,4.215379,-4.875
300833B2DDD9014000000000,865.7,3.196816,-0.8125
300833B2DDD9014000000000,865.7,3.117049,-0.8125
300833B2DDD9014000000000,865.7,3.1538644,1.625
300833B2DDD9014000000000,865.7,5.761632,5.6875
300833B2DDD9014000000000,865.7,0.65040785,1.625
300833B2DDD9014000000000,865.7,2.72435,-3.25
300833B2DDD9014000000000,865.7,2.8163888,-0.8125
300833B2DDD9014000000000,865.7,3.0618258,-9.75
300833B2DDD9014000000000,865.7,2.8163888,-7.3125
300833B2DDD9014000000000,865.7,2.2948353,0.0
300833B2DDD9014000000000,865.7,0.9878836,6.5
300833B2DDD9014000000000,865.7,4.000622,1.625
300833B2DDD9014000000000,865.7,4.405593,4.0625
300833B2DDD9014000000000,865.7,0.10431069,8.125
300833B2DDD9014000000000,865.7,4.417865,1.625
300833B2DDD9014000000000,865.7,2.8347964,-0.8125
300833B2DDD9014000000000,865.7,3.0127382,-4.0625
300833B2DDD9014000000000,865.7,5.755496,9.75
300833B2DDD9014000000000,865.7,0.94493216,0.0
300833B2DDD9014000000000,865.7,4.1969714,-0.8125
300833B2DDD9014000000000,865.7,0.67495155,3.25
300833B2DDD9014000000000,865.7,3.1600003,0.8125
300833B2DDD9014000000000,865.7,3.9638064,-0.8125
300833B2DDD9014000000000,865.7,3.184544,0.8125
300833B2DDD9014000000000,865.7,0.09817477,2.4375
300833B2DDD9014000000000,865.7,5.6941366,4.875
300833B2DDD9014000000000,865.7,2.7488935,1.625
300833B2DDD9014000000000,865.7,2.6875343,10.5625
300833B2DDD9014000000000,865.7,3.0863693,6.5
300833B2DDD9014000000000,865.7,3.3379421,2.4375
300833B2DDD9014000000000,865.7,1.1228739,-5.6875
300833B2DDD9014000000000,865.7,1.4787575,0.0
300833B2DDD9014000000000,865.7,2.073942,0.0
300833B2DDD9014000000000,865.7,2.712078,-3.25
300833B2DDD9014000000000,865.7,0.6688156,9.75
300833B2DDD9014000000000,865.7,2.0064468,2.4375
300833B2DDD9014000000000,865.7,3.19068,-0.8125
300833B2DDD9014000000000,865.7,4.2092433,0.0
300833B2DDD9014000000000,865.7,4.387185,2.4375
300833B2DDD9014000000000,865.7,0.06135923,6.5
300833B2DDD9014000000000,865.7,2.8225245,-1.625
300833B2DDD9014000000000,865.7,5.7923117,3.25
300833B2DDD9014000000000,865.7,3.8717675,0.8125
300833B2DDD9014000000000,865.7,3.19068,0.0
300833B2DDD9014000000000,865.7,3.3808937,-2.4375
300833B2DDD9014000000000,865.7,5.804583,2.4375
300833B2DDD9014000000000,865.7,3.043418,-7.3125
300833B2DDD9014000000000,865.7,0.89584476,3.25
300833B2DDD9014000000000,865.7,1.4664856,0.8125
300833B2DDD9014000000000,865.7,2.718214,-1.625
300833B2DDD9014000000000,865.7,3.037282,9.75
300833B2DDD9014000000000,865.7,1.1474177,-3.25
300833B2DDD9014000000000,865.7,3.1354568,-5.6875
300833B2DDD9014000000000,865.7,3.02501,-7.3125
300833B2DDD9014000000000,865.7,0.72403896,2.4375
300833B2DDD9014000000000,865.7,1.8837284,-0.8125
300833B2DDD9014000000000,865.7,4.399457,-0.8125
300833B2DDD9014000000000,865.7,4.2092433,2.4375
300833B2DDD9014000000000,865.7,3.1784081,1.625
300833B2DDD9014000000000,865.7,1.0921943,9.75
300833B2DDD9014000000000,865.7,2.7611654,4.875
300833B2DDD9014000000000,865.7,0.024543693,6.5
300833B2DDD9014000000000,865.7,0.877437,7.3125
300833B2DDD9014000000000,865.7,5.7923117,8.9375
300833B2DDD9014000000000,865.7,3.7920005,5.6875
300833B2DDD9014000000000,865.7,3.19068,0.0
300833B2DDD9014000000000,865.7,2.8225245,-0.8125
300833B2DDD9014000000000,865.7,2.6568546,2.4375
300833B2DDD9014000000000,865.7,5.8598065,4.875
300833B2DDD9014000000000,865.7,1.4296701,4.0625
300833B2DDD9014000000000,865.7,3.362486,-0.8125
300833B2DDD9014000000000,865.7,2.8286605,-1.625
300833B2DDD9014000000000,865.7,1.4051265,6.5
300833B2DDD9014000000000,865.7,1.7671459,1.625
300833B2DDD9014000000000,865.7,2.6507187,2.4375
300833B2DDD9014000000000,865.7,3.417709,-15.4375
300833B2DDD9014000000000,865.7,3.19068,0.8125
300833B2DDD9014000000000,865.7,3.02501,-4.0625
300833B2DDD9014000000000,865.7,4.239923,-0.8125
300833B2DDD9014000000000,865.7,3.0925052,4.875
300833B2DDD9014000000000,865.7,4.381049,0.8125
300833B2DDD9014000000000,865.7,3.8042724,-0.8125
300833B2DDD9014000000000,865.7,3.1784081,0.8125
300833B2DDD9014000000000,865.7,5.7861757,4.875
300833B2DDD9014000000000,865.7,5.8843503,4.875
300833B2DDD9014000000000,865.7,0.8713011,3.25
300833B2DDD9014000000000,865.7,0.04295146,0.8125
300833B2DDD9014000000000,865.7,2.8225245,-8.9375
300833B2DDD9014000000000,865.7,0.7608545,1.625
300833B2DDD9014000000000,865.7,1.1965051,3.25
300833B2DDD9014000000000,865.7,4.374913,0.8125
300833B2DDD9014000000000,865.7,3.1600003,-6.5
300833B2DDD9014000000000,865.7,3.184544,1.625
300833B2DDD9014000000000,865.7,2.6568546,1.625
300833B2DDD9014000000000,865.7,1.1351458,4.875
300833B2DDD9014000000000,865.7,3.3686218,-8.9375
300833B2DDD9014000000000,865.7,3.7735927,6.5
300833B2DDD9014000000000,865.7,1.441942,-2.4375
300833B2DDD9014000000000,865.7,5.902758,4.875
300833B2DDD9014000000000,865.7,2.7795732,1.625
300833B2DDD9014000000000,865.7,2.791845,-5.6875
300833B2DDD9014000000000,865.7,0.04295146,4.0625
300833B2DDD9014000000000,865.7,2.9943304,-5.6875
300833B2DDD9014000000000,865.7,3.184544,0.8125
300833B2DDD9014000000000,865.7,5.804583,5.6875
300833B2DDD9014000000000,865.7,0.73017484,6.5
300833B2DDD9014000000000,865.7,4.239923,-2.4375
300833B2DDD9014000000000,865.7,1.748738,3.25
300833B2DDD9014000000000,865.7,0.8467574,5.6875
300833B2DDD9014000000000,865.7,3.1661363,4.875
300833B2DDD9014000000000,865.7,2.72435,-6.5
300833B2DDD9014000000000,865.7,4.381049,4.0625
300833B2DDD9014000000000,865.7,3.123185,-4.875
300833B2DDD9014000000000,865.7,1.4296701,4.0625
300833B2DDD9014000000000,865.7,1.7057866,9.75
300833B2DDD9014000000000,865.7,2.8163888,1.625
300833B2DDD9014000000000,865.7,3.429981,-4.875
300833B2DDD9014000000000,865.7,3.7797287,1.625
300833B2DDD9014000000000,865.7,3.0066023,-4.0625
300833B2DDD9014000000000,865.7,0.7424467,4.875
