-35.5,6.0991076126333095,1.625
-35.5,6.086835766330224,5.6875
-35.0,6.080699843178682,2.4375
-35.0,6.092971689481767,0.8125
-35.5,6.086835766330224,2.4375
-35.5,6.086835766330224,1.625
-35.0,6.092971689481767,2.4375
-35.5,6.092971689481767,4.0625
-35.0,6.0991076126333095,0.8125
-35.5,6.111379458936394,0.8125
-35.5,6.111379458936394,0.8125
-35.5,6.111379458936394,0.8125
-35.5,6.0991076126333095,2.4375
-35.0,6.12365130523948,-0.8125
-35.5,6.068427996875596,8.125
-35.0,6.111379458936394,1.625
-35.5,6.105243535784852,0.8125
-35.5,6.092971689481767,2.4375
-35.5,6.105243535784852,0.0
-35.5,6.074563920027139,5.6875
-35.0,6.111379458936394,0.8125
-35.0,6.092971689481767,1.625
-35.5,6.092971689481767,1.625
-35.5,6.086835766330224,4.0625
-35.5,6.086835766330224,2.4375
-35.5,6.092971689481767,2.4375
-35.0,6.0991076126333095,2.4375
-35.5,6.135923151542564,4.875
-35.0,6.178874613603362,-0.8125
-35.5,6.17273869045182,4.0625
-35.5,6.19728238305799,0.8125
-35.5,6.19728238305799,0.0
-35.5,6.209554229361076,0.8125
-35.5,6.234097921967246,-0.8125
-36.0,6.2463697682703305,-0.8125
-36.0,6.2463697682703305,-1.625
-36.0,6.2463697682703305,0.8125
-35.5,6.252505691421874,0.8125
-35.5,6.2463697682703305,2.4375
-36.5,6.258641614573416,2.4375
-36.0,6.227961998815704,4.0625
-36.0,6.2463697682703305,2.4375
-36.0,6.252505691421874,-0.8125
-36.0,6.240233845118788,0.0
-35.5,6.2463697682703305,-0.8125
-36.0,6.234097921967246,0.0
-35.5,6.19728238305799,2.4375
-35.5,6.2034183062095325,-0.8125
-35.0,6.1850105367549055,0.0
-35.5,6.14819499784565,1.625
-35.5,6.129787228391022,2.4375
-35.5,6.086835766330224,5.6875
-35.5,6.080699843178682,1.625
-35.5,6.037748381117884,2.4375
-35.5,5.988660995905543,4.875
-35.5,5.9088939949354895,2.4375
-36.0,5.8659425328746915,-0.8125
-36.5,5.749359992995383,-1.625
-36.0,5.767767762450011,-0.8125
-36.5,5.7616318392984684,0.8125
-36.0,5.792311455056181,-1.625
-36.0,5.798447378207723,-0.8125
-36.0,5.810719224510809,-0.8125
-36.5,5.737088146692298,-4.875
-38.5,5.283029833478148,0.8125
-38.0,5.295301679781233,1.625
-38.0,5.325981295538946,0.8125
-37.5,5.368932757599744,0.0
-38.0,5.405748296509,-1.625
-36.5,5.583690067903734,4.875
-36.0,5.890486225480862,4.875
-35.5,5.982525072754001,4.0625
-35.5,6.013204688511713,1.625
-35.0,6.105243535784852,4.0625
-35.0,6.1850105367549055,2.4375
-34.5,6.277049384028044,-0.8125
-35.0,0.018407769454627694,1.625
-34.5,0.07363107781851078,0.8125
-34.5,0.1227184630308513,1.625
-34.0,0.17794177139473438,0.8125
-34.5,0.21475731030398976,1.625
-34.0,0.23316507975861744,1.625
-34.0,0.2761165418194154,0.0
-34.0,0.28225246497095796,1.625
-34.0,0.2945243112740431,2.4375
-34.0,0.34974761963792617,1.625
-34.0,0.34974761963792617,4.0625
-34.0,0.3988350048502667,0.0
-34.5,0.4540583132141498,0.0
-34.5,0.4908738521234052,2.4375
-35.0,0.5154175447295755,4.0625
-35.0,0.5522330836388308,1.625
-35.0,0.5522330836388308,4.875
-35.5,0.5890486225480862,4.0625
-35.5,0.5951845456996288,4.875
-35.5,0.6013204688511713,5.6875
-35.5,0.619728238305799,4.0625
-35.5,0.619728238305799,2.4375
-35.5,0.619728238305799,4.875
-35.5,0.6442719309119693,1.625
-35.0,0.6320000846088841,4.0625
-35.0,0.6381360077604268,4.0625
-35.0,0.6381360077604268,4.0625
-34.5,0.6381360077604268,4.0625
-34.5,0.6442719309119693,2.4375
-34.0,0.6442719309119693,2.4375
-34.5,0.6320000846088841,4.0625
-34.0,0.6504078540635119,1.625
-34.0,0.6442719309119693,2.4375
-34.0,0.6565437772150544,0.8125
-33.5,0.6565437772150544,0.8125
-33.5,0.6565437772150544,2.4375
-33.5,0.6442719309119693,4.875
-33.5,0.6504078540635119,5.6875
-33.0,0.6749515466696822,2.4375
-33.0,0.6872233929727672,0.8125
-33.0,0.6749515466696822,2.4375
-33.0,0.705631162427395,-1.625
-32.5,0.6872233929727672,2.4375
-32.5,0.6994952392758523,0.8125
-32.5,0.7117670855789375,0.0
-32.5,0.7117670855789375,0.0
-32.5,0.7117670855789375,4.0625
-33.0,0.7179030087304801,1.625
