-39.0,0.0,4.875
-51.0,-1.9573594853420782,6.5
-46.5,1.6014759425526093,0.0
-61.0,-2.9513790358919736,8.125
-36.5,1.0246991663076082,6.5
-43.5,0.7976700097005336,8.9375
-44.0,-0.21475731030398992,1.625
-45.5,1.2946797849754812,1.625
-46.5,1.1842331682477147,-4.875
-49.0,-2.589359569950962,8.125
-43.5,0.1595340019401068,4.0625
-40.5,1.1044661672776614,4.875
-42.0,0.3988350048502669,5.6875
-50.0,-0.5951845456996288,7.3125
-48.5,-1.1167380135807468,7.3125
-52.0,0.9203884727313845,2.4375
-46.5,0.5399612373357456,6.5
-61.0,-2.8593401886188348,0.8125
-42.0,3.129320807286708,6.5
-49.0,-1.6198837120072374,0.8125
-36.5,-0.5154175447295755,4.0625
-44.0,0.6013204688511715,4.875
-45.0,1.251728322914683,5.6875
-43.5,-1.055378782065321,5.6875
-46.5,1.073786551519949,4.875
-40.0,-0.14112623248547917,4.0625
-39.0,0.5522330836388312,4.875
-46.5,0.8038059328520757,-8.125
-44.0,-2.4911847995262812,0.8125
-60.5,-1.5585244804918112,-0.8125
-48.5,1.3621749396424494,2.4375
-49.5,1.1044661672776614,-2.4375
-52.0,-0.11658253987930856,3.25
-50.5,-1.043106935762236,4.875
-60.0,-1.3069516312785663,-4.875
-44.0,1.5830681730979814,4.0625
-39.0,1.6751070203711205,2.4375
-46.5,-0.39269908169872414,0.0
-49.0,-1.3621749396424494,-0.8125
-45.0,1.3192234775816514,8.125
-46.0,1.208776860853885,-4.875
-44.0,-2.4911847995262812,5.6875
-52.0,0.8344855486097889,0.8125
-40.0,0.31293208072867085,6.5
-50.5,-1.3989904785517049,6.5
-49.5,1.159689475641545,2.4375
-42.0,0.632000084608884,5.6875
-44.0,-1.3314953238847367,7.3125
-36.0,-0.7853981633974483,4.0625
-48.5,0.411106851153352,6.5
-36.5,-0.4295146206079796,6.5
-43.5,0.6258641614573415,4.875
-49.0,0.8467573949128742,10.5625
-42.0,0.6933593161243099,4.875
-52.0,-0.7853981633974483,3.25
-44.0,-0.7731263170943634,6.5
-38.5,1.7057866361288332,5.6875
-40.0,-0.5645049299419163,7.3125
-44.0,-0.9203884727313847,2.4375
-49.0,-0.3129320807286706,5.6875
-46.5,1.4542137869155878,-7.3125
-45.0,-0.10431069357622347,8.9375
-46.5,1.178097245096172,4.0625
-50.0,-2.6875343403756426,6.5
-48.5,0.09203884727313838,4.0625
-61.0,-1.3928545554001621,-2.4375
-48.5,1.368310862793992,4.0625
-49.0,1.0860583978230338,2.4375
-42.0,0.6381360077604268,6.5
-46.5,0.8958447801252141,4.0625
-40.5,-1.294679784975481,4.875
-36.5,-1.7426021750380882,6.5
-60.5,-1.0062913968529805,5.6875
-45.0,2.890019804376548,5.6875
-44.5,-1.2885438618239387,2.4375
-51.5,0.8160777791551612,0.8125
-49.0,-0.9019807032767571,3.25
-44.0,0.3067961575771283,5.6875
-39.0,1.4910293258248433,0.8125
-43.5,-1.7119225592803757,7.3125
-46.5,1.3192234775816516,1.625
-50.5,-1.5892040962495244,8.9375
-48.5,0.07976700097005329,9.75
-39.0,1.8960002538266525,3.25
-45.0,-0.41110685115335155,4.0625
-46.0,1.1535535524900022,-2.4375
-44.0,-2.4482333374654837,3.25
-36.5,-0.5706408530934584,0.8125
-49.0,1.478757479521758,6.5
-42.0,0.6565437772150546,2.4375
-61.0,-3.0679615757712826,-2.4375
-50.5,1.2394564766115979,8.125
-43.5,0.28225246497095813,2.4375
-40.5,1.1412817061869172,4.0625
-44.0,-0.9449321653375553,5.6875
-46.5,1.0921943209745768,2.4375
-49.0,-1.3867186322486198,3.25
-51.5,0.8590292412159592,8.125
-43.5,-0.7363107781851079,1.625
-48.5,-0.2270291566070748,5.6875
-61.5,-1.3499030933393643,4.0625
-46.5,2.84706834231575,4.0625
-51.5,-0.5338253141842029,7.3125
-49.5,0.11658253987930856,6.5
-46.0,1.589204096249524,-6.5
-42.0,-0.9326603190344693,5.6875
-36.5,-2.1230294104337277,2.4375
-38.5,2.2825634123738343,2.4375
-44.0,-1.5033011721279284,7.3125
-45.0,1.0737865515199485,6.5
-49.5,-1.4051264017032472,8.125
-40.5,1.2701360923693108,4.875
-50.0,-1.3867186322486194,2.4375
-44.0,0.2147573103039897,7.3125
-45.0,1.294679784975481,5.6875
-44.0,-1.2762720155208533,4.875
-50.5,-0.2147573103039897,2.4375
-49.5,0.12271846303085132,8.125
-44.0,0.1227184630308511,5.6875
-40.0,1.116738013580747,5.6875
-46.5,0.2024854640009046,-2.4375
-52.0,-0.5399612373357456,-1.625
-38.5,0.9019807032767568,4.875
-46.0,0.7853981633974487,-8.125
-44.0,-2.264155642919207,4.875
-49.5,0.705631162427395,1.625
-48.5,-1.0737865515199487,-1.625
-36.5,-0.4540583132141498,7.3125
-61.0,-0.8897088569736719,4.0625
-42.5,3.043417883165112,4.875
-42.0,-0.012271846303085088,5.6875
-38.5,0.15953400194010658,3.25
-40.5,-0.546097160487288,4.0625
-36.0,-1.7548740213411738,6.5
-43.5,0.8038059328520761,7.3125
-48.5,-0.38042723539563905,5.6875
-49.5,1.1167380135807465,5.6875
-46.0,1.527844864734099,-5.6875
-45.5,-1.190369091399258,4.875
-44.0,-1.3008157081270235,4.875
-61.0,-1.4480778637640452,4.875
-43.5,1.5033011721279281,2.4375
-52.0,0.7424467013366507,3.25
-46.5,0.5399612373357456,1.625
-49.0,-1.423534171157875,3.25
-50.5,-0.17794177139473444,14.625
-49.0,0.19021361769781953,4.875
-38.5,1.7978254834019713,2.4375
-61.0,-3.0495538063166547,-14.625
-40.5,2.5034566458293668,4.0625
-42.0,0.3804272353956386,7.3125
-43.5,-1.4971652489763856,1.625
-44.0,-0.05522330836388312,4.875
-36.5,-0.5890486225480862,7.3125
-46.5,1.9144080232812801,2.4375
-50.0,-0.337475773334841,1.625
-43.5,-0.7424467013366502,2.4375
-46.5,2.215068257706866,-0.8125
-51.5,-1.6812429435226628,8.125
-45.0,0.515417544729575,1.625
-48.5,-1.4664856332186726,9.75
-50.5,-0.08590292412159606,7.3125
-36.5,-0.3067961575771281,4.0625
-52.0,1.3560390164909069,1.625
-45.5,0.4847379289718625,6.5
-42.0,0.28838838812250067,7.3125
-48.5,-1.7119225592803757,6.5
-44.0,0.16566992509164913,2.4375
-46.5,1.313087554430109,2.4375
-49.0,-1.4296700943094176,3.25
-38.5,1.803961406553514,5.6875
-46.0,0.7179030087304801,0.0
-50.0,-1.5033011721279284,16.25
-40.5,0.2270291566070748,5.6875
-50.5,-1.3437671701878215,-4.0625
-44.0,0.41110685115335177,8.125
-44.0,-0.17180584824319167,4.0625
-62.0,-1.466485633218673,-4.875
-42.0,2.9820586516496865,7.3125
-39.0,0.15339807878856426,4.875
-43.5,-1.6689710972195777,4.875
-50.0,0.9326603190344698,4.0625
-49.5,-1.043106935762236,2.4375
-48.5,-0.07976700097005329,-0.8125
-36.0,-0.4233786974564371,4.875
-46.5,1.9082721001297376,0.0
-43.5,-1.1044661672776614,3.25
-45.0,1.030835089459151,8.125
-46.0,1.2149127840054281,-6.5
-40.5,-1.3253594007331944,5.6875
-50.5,-1.3867186322486196,4.875
-61.0,-1.1842331682477152,4.875
-51.5,2.2580197197676637,-2.4375
-44.0,-0.8467573949128739,6.5
-44.0,0.24543692606170242,5.6875
-48.5,-0.42337869745643686,8.9375
-49.0,0.08590292412159606,10.5625
-42.0,1.6566992509164924,7.3125
-51.5,-0.8038059328520761,7.3125
-50.0,0.22089323345553247,4.875
-45.0,0.3067961575771281,2.4375
-50.5,-1.5033011721279281,2.4375
-36.5,-0.337475773334841,2.4375
-46.0,3.0004664211043144,0.0
-44.0,-2.448233337465483,6.5
-61.5,-1.380582709097077,-9.75
-43.5,1.4296700943094176,4.875
-38.5,1.6873788666742051,2.4375
-40.5,-0.5829126993965437,6.5
-46.5,0.19021361769781953,0.8125
-45.0,-0.04908738521234035,4.0625
-44.0,-1.3008157081270237,5.6875
-50.0,-0.23316507975861755,6.5
-49.0,0.1595340019401068,5.6875
-36.5,-0.48473792897186274,4.0625
-39.0,2.2825634123738343,5.6875
-40.5,-0.5583690067903735,5.6875
-52.0,-0.3620194659410112,3.25
-42.0,0.7485826244881926,8.9375
-46.0,0.9203884727313851,0.0
-43.5,-2.2396119503130363,7.3125
-43.5,-0.15339807878856426,1.625
-61.5,-1.6014759425526093,26.8125
-48.5,1.3867186322486196,4.875
-50.0,1.1228739367322893,8.9375
-46.5,0.3620194659410112,0.0
-36.5,-1.9082721001297376,4.0625
-43.5,0.6197282383057989,0.8125
-50.5,-0.2883883881225002,9.75
-38.5,1.9634954084936207,3.25
-50.0,-0.7424467013366502,10.5625
-40.5,0.177941771394734,5.6875
-44.0,-1.1290098598838316,0.0
-49.0,-0.10431069357622369,3.25
-48.5,-0.07363107781851075,4.875
-62.0,-1.3069516312785663,7.3125
-44.0,1.6935147898257477,5.6875
-46.5,1.0799224746714917,2.4375
-45.5,-0.03067961575771294,2.4375
-42.0,0.2761165418194156,2.4375
-46.0,0.9081166264282992,-3.25
-52.0,-1.6382914814618648,-3.25
-52.0,-0.01840776945462741,-1.625
-42.0,0.7424467013366502,5.6875
-49.0,-1.6198837120072371,1.625
-44.0,0.0674951546669682,4.875
-46.0,2.4605051837685687,-3.25
-38.5,-0.7424467013366502,2.4375
-48.5,-1.8960002538266525,9.75
-36.5,-0.411106851153352,5.6875
-50.0,1.5462526341887264,12.1875
-40.5,0.20862138715244738,4.0625
-50.5,-1.4051264017032474,4.875
-61.0,-1.1658253987930873,-15.4375
-46.5,2.7304858024364416,0.0
-45.5,-0.06135923151542588,4.0625
-43.5,-1.2271846303085128,4.875
-44.0,0.18407769454627676,6.5
-61.5,-1.7119225592803753,5.6875
-44.0,1.4726215563702154,5.6875
-46.5,1.3314953238847367,2.4375
-36.5,-1.8960002538266527,5.6875
-51.5,1.3683108627939922,0.8125
-46.0,1.6689710972195777,-1.625
-49.5,-1.4910293258248437,8.125
-48.5,-1.1167380135807465,8.125
-50.0,-0.0674951546669682,4.0625
-39.0,1.9389517158874505,5.6875
-40.5,-0.5645049299419163,6.5
-42.0,0.3988350048502669,6.5
-49.5,-1.6014759425526093,-2.4375
-45.0,1.3130875544301086,6.5
-44.0,-1.0185632431560654,1.625
-43.5,-0.21475731030399015,7.3125
-52.0,0.7301748550335652,5.6875
-46.5,0.5706408530934586,1.625
-36.5,-1.9021361769781948,2.4375
-49.5,0.4970097752749476,2.4375
-40.5,1.2394564766115983,1.625
-42.0,0.39883500485026646,6.5
-45.0,-0.30066023442558576,6.5
-43.5,-1.2149127840054277,0.8125
-44.0,-0.04908738521234057,2.4375
-49.5,1.0062913968529805,2.4375
-39.0,0.7117670855789378,3.25
-44.0,-1.484893402673301,3.25
-48.5,-0.4417864669110645,13.8125
-50.5,-0.024543692606170175,2.4375
-60.5,-1.2087768608538854,4.0625
-46.0,3.9147189706841568,-7.3125
-44.0,-2.233476027161494,3.25
-50.5,-0.4540583132141498,4.0625
-48.5,0.09817477042468092,-2.4375
-44.0,0.12885438618239387,2.4375
-40.5,1.1351457830353746,6.5
-50.0,-0.14112623248547917,2.4375
-43.5,-0.969475857943725,4.875
-42.0,1.5217089415825562,4.875
-38.5,0.15339807878856382,2.4375
-45.0,-0.44792239006260726,6.5
-36.5,-1.8530487917658545,6.5
-52.0,1.349903093339364,8.125
-46.0,1.6935147898257483,-0.8125
-49.0,-2.564815877344792,7.3125
-62.0,-1.3008157081270237,10.5625
-46.5,2.7550294950426113,-0.8125
-40.5,-0.18407769454627676,2.4375
-43.5,-0.9203884727313847,5.6875
-43.5,-0.19021361769781953,2.4375
-48.0,-0.24543692606170264,12.1875
-36.0,-0.36815538909255374,4.875
-46.0,3.03728196001357,-4.875
-46.5,-1.1351457830353748,0.0
-45.0,-0.0674951546669682,7.3125
-61.0,-2.7120780329818137,4.875
-42.0,3.0066023442558567,3.25
-44.0,-1.5707963267948966,4.875
-49.0,-0.09203884727313838,5.6875
-39.0,1.8039614065535141,3.25
-50.0,-0.7117670855789378,6.5
-50.5,-1.2271846303085128,1.625
-52.0,1.0062913968529807,4.875
-45.5,0.5092816215780327,2.4375
-46.0,1.1842331682477147,-4.875
-44.0,-2.2273401040099507,2.4375
-49.5,-0.3313398501832985,4.875
-40.5,1.2455923997631404,4.875
-44.0,-1.1351457830353744,0.8125
-48.5,-0.16566992509164913,4.0625
-44.0,0.19634954084936207,5.6875
-46.5,1.2701360923693108,0.8125
-61.0,-2.804116880254952,13.8125
-36.5,0.8958447801252144,7.3125
-42.0,2.159844949342983,3.25
-50.0,-0.5951845456996288,6.5
-38.5,0.7363107781851075,4.875
-50.0,-1.9389517158874503,4.875
-51.5,0.9940195505498954,5.6875
-50.0,0.20862138715244738,9.75
-61.0,-2.454369260617026,5.6875
-40.0,2.6384469551633027,2.4375
-44.0,-1.1474176293384597,0.0
-38.5,1.6996507129772904,3.25
-44.0,-1.662835174068035,4.0625
-44.0,0.18407769454627676,4.875
-36.5,-0.8038059328520757,2.4375
-42.0,2.1353012567368124,3.25
-46.5,-0.24543692606170264,2.4375
-49.0,-1.4358060174609601,9.75
-45.0,1.3744467859455347,8.9375
-48.5,-1.3928545554001623,2.4375
-46.0,2.6016314162540475,-4.875
-50.0,-2.718213956133356,8.9375
-52.0,1.055378782065321,0.0
-38.5,0.9081166264282996,3.25
-50.0,-0.705631162427395,6.5
-42.5,0.5522330836388312,5.6875
-44.0,-1.5646604036433542,4.875
-51.5,0.779262240245906,5.6875
-40.5,0.3742913122440963,5.6875
-36.5,-1.736466251886546,8.125
-62.0,-0.8897088569736719,8.9375
-45.5,2.730485802436441,8.9375
-44.0,-1.030835089459151,6.5
-46.5,1.0983302441261191,0.0
-43.5,-1.2762720155208536,2.4375
-46.0,2.423689644859313,-0.8125
-48.0,-2.644582878314845,8.125
-50.5,-0.09817477042468115,13.8125
-49.0,0.19021361769781953,6.5
-49.0,-0.012271846303085088,7.3125
-39.0,1.7978254834019713,8.125
-43.5,-1.466485633218673,6.5
-42.5,1.3314953238847367,4.875
-50.5,-1.7916895602504288,1.625
-36.5,-0.36815538909255396,7.3125
-40.5,1.7610099444927163,5.6875
-46.0,1.2640001692177685,0.8125
-45.0,-1.159689475641545,2.4375
-50.0,-0.3190680038802136,10.5625
-52.0,-0.15953400194010658,2.4375
-43.5,-0.7424467013366502,2.4375
-61.0,-1.521708941582556,6.5
-48.5,1.325359400733194,4.875
-44.0,0.1472621556370215,6.5
-47.0,1.3069516312785663,4.0625
-42.0,0.24543692606170264,8.125
-36.5,-2.1168934872821845,1.625
-40.5,1.7241944055834606,2.4375
-38.5,0.5522330836388307,2.4375
-50.0,-0.7117670855789373,4.0625
-44.0,-1.0001554737014382,4.875
-44.0,0.22089323345553225,7.3125
-46.5,2.208932334555324,0.8125
-44.0,-2.3807381827985155,0.0
-50.5,-0.2699806186678728,5.6875
-46.5,1.5462526341887264,1.625
-51.5,-0.5031456984264904,-1.625
-48.5,-0.9940195505498954,7.3125
-45.0,1.4419419406125027,5.6875
-49.5,-1.3989904785517049,8.9375
-60.5,-1.3008157081270237,-4.875
-39.0,3.147728576741336,3.25
-44.0,-1.6751070203711205,4.0625
-42.0,1.5155730184310139,6.5
-36.5,-2.135301256736813,4.875
-44.0,0.5583690067903735,5.6875
-50.5,-0.2024854640009046,4.0625
-52.0,0.969475857943725,5.6875
-40.5,0.411106851153352,4.875
-43.5,-0.9387962421860125,8.125
-48.5,-0.4172427743048943,12.1875
-46.0,2.662990647769473,-5.6875
-45.0,-1.1842331682477147,2.4375
-49.0,-1.3744467859455345,5.6875
-46.5,1.4235341711578748,4.0625
-61.0,-2.8593401886188348,-1.625
-50.0,2.546408107890164,0.0
-48.5,-1.1903690913992573,6.5
-52.0,0.9633399347921825,4.875
-44.0,-0.7976700097005334,3.25
-43.5,0.06135923151542588,1.625
-44.0,0.177941771394734,3.25
-36.5,-0.8283496254582461,8.125
-45.0,1.8837284075235672,6.5
-42.0,0.28225246497095835,4.875
-39.0,0.15953400194010658,0.8125
-61.5,-3.2643111166206444,8.125
-50.0,2.5034566458293663,9.75
-40.0,0.18407769454627676,5.6875
-46.5,0.17180584824319212,0.0
-49.0,-1.4358060174609601,6.5
-46.0,2.5893595699509624,-5.6875
-50.5,-2.6998061866787286,4.0625
-61.0,-1.227184630308513,2.4375
-42.0,3.0066023442558567,5.6875
-45.0,-0.25770877236478773,2.4375
-44.0,-1.2824079386723963,2.4375
-50.0,1.030835089459151,-1.625
-36.5,-1.6382914814618648,6.5
-39.0,2.3071071049800045,4.875
-40.5,-0.5706408530934586,5.6875
-44.0,-1.116738013580747,4.875
-43.5,0.20862138715244738,2.4375
-46.5,1.086058397823034,-0.8125
-49.5,-1.4358060174609601,4.875
-46.5,2.577087723647877,-2.4375
-50.5,-2.65685472461793,-6.5
-48.5,0.018407769454627854,7.3125
-51.5,0.9633399347921825,2.4375
-46.5,0.5338253141842033,0.8125
-52.0,-0.5583690067903735,2.4375
-45.0,0.5154175447295755,5.6875
-42.0,0.2761165418194156,2.4375
-46.5,0.8651651643675011,0.8125
-39.0,-0.7117670855789373,1.625
-50.0,-0.7179030087304801,9.75
-40.5,0.15953400194010658,4.875
-44.0,-1.0983302441261187,-0.8125
-61.0,-1.5278448647340988,2.4375
-36.5,0.9019807032767571,4.875
-50.5,0.32520392703175593,6.5
-49.0,0.16566992509164913,3.25
-48.5,-0.05522330836388312,4.0625
-43.5,0.3742913122440965,2.4375
-44.0,-0.227029156607075,1.625
-51.5,0.7608544707912783,3.25
-49.0,-0.9019807032767573,15.4375
-49.5,1.1351457830353744,5.6875
-38.5,0.6994952392758527,4.875
-61.0,-3.221359654559847,0.8125
-44.0,1.7303303287350034,7.3125
-45.0,1.0492428589137783,6.5
-44.0,-1.2210487071569704,2.4375
-36.5,-0.632000084608884,8.125
-46.0,3.0066023442558567,0.8125
-46.5,-1.0799224746714913,-1.625
-48.5,-1.4971652489763858,8.125
-44.0,0.1472621556370215,7.3125
-40.5,1.1719613219446299,4.0625
-50.5,-1.380582709097077,5.6875
-42.0,1.791689560250429,4.875
-52.0,-0.8344855486097891,8.125
-60.5,-2.1966604882522383,-2.4375
-49.0,1.368310862793992,4.875
-44.0,0.3313398501832985,3.25
-48.5,-0.39269908169872414,8.9375
-44.0,0.19634954084936185,4.0625
-50.5,-0.2577087723647875,4.0625
-42.0,1.7732817907958014,4.875
-46.5,0.9449321653375549,-6.5
-40.5,-1.337631247036279,0.8125
-39.0,0.546097160487288,3.25
-44.0,-1.6996507129772904,0.8125
-36.5,-0.5951845456996288,4.875
-46.5,1.8960002538266527,2.4375
-50.0,-0.337475773334841,4.875
-45.0,0.3129320807286704,0.8125
-40.5,-0.15339807878856382,6.5
-43.5,-1.086058397823034,4.0625
-36.5,-0.6013204688511713,0.8125
-46.0,3.031146036862027,-1.625
-61.0,-3.9147189706841563,1.625
-44.0,1.6689710972195773,5.6875
-44.0,-0.23316507975861733,0.0
-49.0,-0.06135923151542566,1.625
-39.0,1.7855536370988863,2.4375
-45.0,-0.46019423636569234,6.5
-42.5,0.28838838812250067,8.125
-46.5,-0.2270291566070748,-0.8125
-52.0,-0.5829126993965437,8.9375
-48.5,-0.9142525495798421,7.3125
-50.5,-0.036815538909255485,4.0625
-50.0,1.1842331682477152,7.3125
-40.5,0.17180584824319167,5.6875
-46.5,1.3314953238847367,-6.5
-50.5,-2.6752624940725585,1.625
-49.5,1.2087768608538854,0.0
-52.0,-0.1963495408493623,2.4375
-44.0,-0.8038059328520759,1.625
-43.5,0.04295146206079825,2.4375
-49.0,-0.23316507975861755,8.125
-42.5,1.7426021750380882,5.6875
-61.5,-2.9513790358919736,4.0625
-39.0,3.098641191528995,4.875
-36.5,-2.294835258676919,4.0625
-46.5,1.9082721001297378,0.8125
-49.5,-1.3989904785517049,1.625
-43.5,0.294524311274043,5.6875
-45.0,1.0615147052168639,3.25
-43.5,-1.2394564766115983,4.875
-46.5,1.3069516312785665,-1.625
-51.5,-0.5583690067903735,2.4375
-50.0,0.1840776945462772,8.125
-48.5,-1.1474176293384597,7.3125
-50.0,-0.0920388472731386,13.0
-61.0,-1.2149127840054277,10.5625
-45.5,2.7550294950426113,5.6875
-36.5,-1.828505099159684,0.0
-40.5,1.7119225592803755,4.0625
-44.0,-0.9203884727313847,3.25
-42.0,1.3192234775816516,5.6875
-44.0,-1.5707963267948968,5.6875
-38.5,1.7241944055834606,4.875
-46.0,0.7792622402459055,-4.875
-49.0,-2.5586799541932495,1.625
-48.0,-0.08590292412159584,4.0625
-38.5,1.8775924843720246,0.8125
-43.5,-1.5217089415825558,11.375
-36.5,-0.791534086548991,4.0625
-44.5,0.5951845456996288,5.6875
-46.5,1.3069516312785665,4.0625
-46.0,1.1903690913992575,-8.125
-42.5,-0.9510680884890976,5.6875
-50.5,-1.7794177139473437,6.5
-40.5,1.3805827090970768,5.6875
-52.0,-0.39269908169872414,6.5
-49.0,-0.8467573949128737,1.625
-44.0,0.11044661672776623,8.125
-45.0,1.294679784975481,0.0
-49.5,-0.33133985018329826,6.5
-61.0,-2.497320722677824,9.75
-44.0,1.5033011721279284,6.5
-40.0,1.1596894756415446,6.5
-42.0,0.40497092800180967,4.875
-48.5,-1.7241944055834608,4.875
-52.0,0.926524395882927,6.5
-43.5,-0.7179030087304801,2.4375
-46.5,2.4175537217077707,-0.8125
-61.0,-3.890175278077986,-10.5625
-39.0,3.153864499892878,1.625
-46.5,-0.39883500485026646,0.0
-44.0,-1.104466167277662,6.5
-45.0,1.073786551519949,3.25
-36.5,-1.859184714917397,1.625
-50.5,0.3497476196379261,6.5
-49.5,1.214912784005428,6.5
-49.0,-1.086058397823034,2.4375
-49.0,-0.006135923151542544,2.4375
-50.0,1.0860583978230338,4.0625
-45.0,0.28838838812250067,4.0625
-42.0,0.2822524649709579,5.6875
-44.0,-1.5217089415825562,2.4375
-36.5,-0.6013204688511711,1.625
-38.5,2.270291566070749,3.25
-46.5,0.7731263170943632,-4.0625
-46.5,-1.1474176293384595,-0.8125
-44.0,-1.3376312470362792,5.6875
-48.5,-0.14112623248547895,6.5
-44.0,0.36815538909255396,4.875
-50.0,-0.49700977527494783,9.75
-40.5,1.4419419406125027,1.625
-52.0,-0.3865631585471814,6.5
-60.5,-2.2886993355253766,1.625
-44.0,1.7057866361288332,8.125
-52.0,0.6013204688511711,-0.8125
-44.0,-0.7669903939428204,4.0625
-46.5,1.3008157081270237,2.4375
-44.0,-1.3314953238847367,3.25
-45.0,1.2762720155208536,2.4375
-40.5,-0.12271846303085132,4.875
-49.5,-0.17794177139473444,8.9375
-36.5,-1.5523885573402687,4.0625
-60.5,-0.9387962421860125,4.875
-46.5,3.963806355896497,0.8125
-39.0,-0.7424467013366507,4.875
-49.5,-1.7855536370988863,5.6875
-48.5,-0.07363107781851075,5.6875
-42.0,1.7119225592803755,5.6875
-50.0,-1.8285050991596843,13.8125
-40.5,1.4173982480063323,5.6875
-46.5,1.3499030933393645,-7.3125
-46.5,-1.1474176293384595,-2.4375
-44.0,-1.104466167277662,0.8125
-38.5,1.466485633218673,3.25
-49.0,-1.7978254834019716,4.875
-42.0,1.6444274046134073,5.6875
-49.5,-0.589048622548086,3.25
-43.5,-0.9326603190344702,2.4375
-36.5,-0.6197282383057989,4.875
-44.0,0.5706408530934586,5.6875
-50.5,-0.2515728492132452,13.0
-45.0,1.5401167110371838,5.6875
-52.0,-0.5031456984264904,4.875
-48.5,-0.9449321653375549,8.125
-60.5,-1.3376312470362792,0.0
-49.0,1.3989904785517049,8.125
-38.5,1.8346410223112268,1.625
-36.5,-2.3071071049800045,4.875
-44.5,0.5829126993965437,4.875
-50.0,-0.22089323345553225,4.0625
-43.5,0.2577087723647875,1.625
-40.5,1.116738013580747,4.0625
-45.5,0.11044661672776623,8.125
-60.5,-2.742757648739526,-6.5
-42.0,3.037281960013569,3.25
-46.5,0.8958447801252145,0.0
-46.5,-1.1044661672776614,-4.875
-52.0,-0.5583690067903735,5.6875
-48.5,-0.9510680884890976,4.875
-49.5,1.1167380135807465,8.9375
-44.0,-0.7240389318820224,4.875
-40.5,0.9081166264282996,6.5
-44.0,-1.0983302441261191,0.8125
-46.5,1.2885438618239387,-2.4375
-61.0,-2.779573187648782,-8.125
-36.5,0.8835729338221294,4.0625
-43.5,0.7853981633974483,6.5
-42.0,1.3437671701878218,3.25
-45.5,-0.2699806186678728,3.25
-52.0,-0.4724660826687779,0.0
-50.0,0.17180584824319212,4.875
-44.5,-0.9817477042468106,2.4375
-50.5,-0.2699806186678728,6.5
-39.0,1.9819031779482486,3.25
-48.5,-1.9144080232812803,13.0
-49.5,0.08590292412159606,8.125
-46.5,2.570951800496335,-4.875
-42.0,-0.9142525495798424,4.875
-46.5,0.9510680884890972,-6.5
-43.5,-2.264155642919206,0.0
-46.5,1.0676506283684062,0.0
-36.5,-1.8960002538266527,6.5
-48.5,0.4295146206079796,0.8125
-50.5,-0.09203884727313838,4.875
-49.5,1.264000169217768,-1.625
-49.0,-1.165825398793087,14.625
-52.0,0.9756117810952676,0.8125
-60.5,-2.331650797586174,0.0
-44.0,1.5401167110371838,5.6875
-44.0,-0.04295146206079803,7.3125
-45.0,1.294679784975481,5.6875
-39.0,0.44792239006260726,2.4375
-40.5,-0.5706408530934581,4.0625
-50.5,-1.4051264017032474,8.9375
-46.5,2.736621725587984,-8.125
-44.0,-2.288699335525377,7.3125
-45.5,1.073786551519949,7.3125
-50.0,-0.23930100291015988,0.0
-40.5,0.10431069357622347,6.5
-52.0,-0.3742913122440963,2.4375
-46.5,0.546097160487288,0.0
-61.0,-2.816388726558037,4.0625
-36.5,0.9387962421860124,4.0625
-39.0,2.282563412373834,3.25
-42.0,-0.1656699250916489,4.875
-43.5,-1.4910293258248433,-2.4375
-48.5,-0.22089323345553247,4.875
-49.5,0.06135923151542566,8.125
-44.0,0.08590292412159584,3.25
-40.5,1.1535535524900022,5.6875
-44.0,-1.0799224746714913,-1.625
-42.0,1.4971652489763856,6.5
-50.0,-1.8223691760081417,6.5
-49.0,0.15339807878856426,6.5
-61.5,-1.41126232485479,8.9375
-36.0,0.9449321653375551,4.0625
-46.5,1.9021361769781948,0.0
-44.0,-1.3192234775816514,6.5
-39.0,1.7303303287350034,0.8125
-48.5,-1.88986433067511,4.0625
-43.5,0.3865631585471816,3.25
-46.5,2.2396119503130363,-4.0625
-45.0,-1.202640937702343,5.6875
-49.5,-0.294524311274043,8.125
-51.5,-0.20862138715244694,7.3125
-40.5,0.3865631585471814,1.625
-49.5,-0.14112623248547917,2.4375
-44.0,-0.7915340865489906,7.3125
-44.0,-0.22089323345553247,4.875
-52.0,0.779262240245906,0.8125
-43.5,-0.7424467013366507,0.8125
-38.5,1.6751070203711205,3.25
-61.0,-3.178408192499049,-2.4375
-36.5,0.8958447801252145,4.875
-46.5,1.902136176978195,-0.8125
-46.5,1.0983302441261191,2.4375
-45.0,-1.1658253987930873,4.875
-48.5,-1.423534171157875,4.0625
-42.0,1.7119225592803757,5.6875
-50.5,-1.7732817907958014,4.875
-49.0,0.12271846303085132,5.6875
-46.5,1.4235341711578748,0.0
-46.0,1.104466167277662,4.875
-39.0,-0.705631162427395,0.8125
-43.5,-1.6873788666742056,4.0625
-48.0,-0.21475731030398948,9.75
-61.0,-1.3069516312785665,1.625
-42.0,3.0372819600135696,7.3125
-36.5,-2.147573103039898,7.3125
-40.5,1.748738098189631,4.875
-49.0,-1.2640001692177683,6.5
-43.5,0.3313398501832985,4.875
-44.0,-0.22089323345553247,3.25
-45.0,1.2701360923693108,8.9375
-50.0,-1.4848934026733005,0.8125
-52.0,0.9817477042468106,5.6875
-49.5,0.2270291566070748,4.0625
-61.0,-2.380738182798515,-21.125
-52.0,2.1230294104337277,9.75
-44.0,-0.7608544707912781,7.3125
-40.5,1.1658253987930873,7.3125
-46.5,1.3560390164909069,-5.6875
-39.0,-0.7853981633974483,2.4375
-50.5,-1.9512235621905356,5.6875
-49.0,0.12885438618239387,8.125
-36.5,-0.4663301595172349,4.0625
-48.5,0.44792239006260703,1.625
-44.0,0.18407769454627698,2.4375
-46.5,1.2762720155208536,-0.8125
-44.0,-1.1474176293384595,8.9375
-49.5,0.8099418560036185,0.8125
-45.0,0.27611654181941514,2.4375
-42.0,0.28225246497095835,7.3125
-46.5,-0.23930100291016032,1.625
-44.0,-1.325359400733194,5.6875
-44.0,0.23316507975861755,7.3125
-44.0,-0.1840776945462772,4.875
-39.0,1.6689710972195777,6.5
-61.0,-3.1354567304382504,12.1875
-36.5,0.8467573949128738,5.6875
-40.5,1.7241944055834608,5.6875
-42.0,0.4233786974564371,3.25
-46.5,0.9265243958829275,-5.6875
-45.5,-1.221048707156971,2.4375
-52.5,-0.47246608266877743,2.4375
-50.5,-1.0431069357622358,6.5
-48.5,0.055223308363882895,9.75
-50.0,1.1658253987930873,8.9375
-49.0,-1.0799224746714913,7.3125
-50.0,-0.15339807878856426,8.9375
-60.5,-1.2578642460662257,4.0625
-46.0,3.957670432744954,0.0
-40.5,-1.294679784975481,5.6875
-39.0,0.5706408530934586,2.4375
-44.0,-1.7119225592803755,3.25
-52.0,0.7669903939428206,3.25
-50.0,0.1963495408493623,13.8125
-46.5,0.35588354278946843,0.8125
-36.5,-1.9021361769781948,5.6875
-45.0,1.8591847149173968,3.25
-44.0,-1.2394564766115979,1.625
-42.0,1.5094370952794711,7.3125
-44.0,-1.3376312470362794,6.5
-49.0,-0.337475773334841,7.3125
-48.5,-0.03681553890925526,4.0625
-36.5,-0.4295146206079796,5.6875
-52.0,1.3928545554001623,-1.625
-46.5,0.5154175447295755,1.625
-43.5,-1.2946797849754814,6.5
-60.5,-1.589204096249524,6.5
-44.0,1.761009944492716,9.75
-50.0,0.7731263170943632,9.75
-42.0,0.5767767762450009,5.6875
-48.5,-1.7241944055834606,8.9375
-40.0,1.3192234775816514,5.6875
-38.5,0.5706408530934586,4.875
-44.5,-1.7057866361288332,4.875
-50.5,-0.2147573103039897,0.8125
-46.0,2.693670263527186,-7.3125
-49.5,-2.577087723647877,3.25
-45.5,1.3621749396424492,6.5
-44.5,-1.2701360923693108,2.4375
-42.0,1.5585244804918115,4.875
-45.0,-0.294524311274043,4.0625
-44.0,-1.2210487071569704,0.8125
-43.5,0.17180584824319167,5.6875
-38.5,1.484893402673301,5.6875
-36.5,-2.258019719767664,2.4375
-49.5,0.4663301595172349,4.875
-48.5,-0.07976700097005329,7.3125
-40.5,1.3192234775816511,6.5
-49.5,-0.12885438618239364,4.875
-52.0,-0.2638446955163305,8.125
-46.5,0.5399612373357461,4.0625
-46.5,1.1596894756415446,-0.8125
-50.5,-2.693670263527186,4.875
-60.5,-1.1903690913992575,-2.4375
-46.0,3.920854893835699,-8.125
-43.5,-2.276427489222292,6.5
-39.0,1.4910293258248433,5.6875
-42.0,-0.1472621556370215,4.875
-46.5,-0.25770877236478773,5.6875
-36.5,-1.8837284075235674,5.6875
-50.5,0.3742913122440965,-0.8125
-45.0,1.491029325824843,4.0625
-44.0,-1.294679784975481,5.6875
-40.5,1.1658253987930873,2.4375
-51.5,-0.3742913122440963,3.25
-50.0,0.24543692606170264,-0.8125
-49.0,-1.0983302441261193,2.4375
-48.5,-0.11658253987930878,7.3125
-44.0,0.2147573103039897,6.5
-61.0,-1.5278448647340985,-8.125
-46.5,3.9576704327449543,-4.0625
-40.5,-1.3069516312785665,5.6875
-48.5,-1.3192234775816511,8.125
-44.0,0.15339807878856404,8.125
-44.0,0.24543692606170242,5.6875
-44.0,-0.19021361769781953,1.625
-36.0,-0.6442719309119691,8.125
-46.5,1.8775924843720246,8.125
-45.5,0.018407769454627854,4.0625
-50.0,-0.28838838812250067,2.4375
-49.5,-1.1351457830353744,10.5625
-52.0,0.8958447801252145,6.5
-60.5,-2.325514874434632,6.5
-39.0,3.294990732378357,0.8125
-42.0,-0.17180584824319167,4.875
-50.5,-1.7916895602504288,2.4375
-43.5,0.2699806186678726,4.0625
-50.5,-0.2822524649709577,4.875
-46.5,1.5401167110371838,4.0625
-49.5,-1.4051264017032474,7.3125
-42.0,1.6689710972195775,6.5
-44.0,-1.5585244804918115,2.4375
-44.0,0.23316507975861755,4.875
-40.5,0.9081166264282996,6.5
-46.0,1.3437671701878213,-4.0625
-36.0,-3.074097498922825,5.6875
-60.0,-1.0062913968529805,16.25
-48.5,1.4296700943094176,6.5
-39.0,1.871456561220482,3.25
-45.0,-0.4049709280018092,0.8125
-50.0,-0.30066023442558576,1.625
-51.5,-0.23930100291015988,2.4375
-39.0,0.969475857943725,1.625
-44.0,-1.5401167110371836,11.375
-49.5,0.8222137023067035,0.0
-44.0,-1.0246991663076082,4.875
-52.0,0.779262240245906,1.625
-60.5,-2.1966604882522383,-8.9375
-44.0,1.4787574795217582,1.625
-36.5,-0.6320000846088845,4.875
-45.0,1.877592484372025,2.4375
-46.5,0.01840776945462741,2.4375
-42.0,0.2515728492132454,5.6875
-49.5,-1.6566992509164926,2.4375
-50.5,-0.1472621556370215,5.6875
-40.0,1.3928545554001621,5.6875
-48.5,-1.325359400733194,4.875
-46.5,2.650718801466388,-4.875
-50.5,-2.7673013413456964,14.625
-51.5,1.0369710126106935,9.75
-38.5,0.9633399347921827,4.875
-36.5,-2.313243028131547,7.3125
-44.0,0.6074563920027138,2.4375
-45.0,1.270136092369311,5.6875
-46.5,1.17196132194463,0.0
-48.5,-2.5770877236478773,4.0625
-46.5,1.4296700943094176,2.4375
-50.0,-0.294524311274043,7.3125
-42.0,0.5460971604872884,7.3125
-40.0,-0.40497092800180967,4.875
-44.0,-0.9326603190344698,6.5
-49.0,-0.33133985018329826,8.9375
-61.0,-1.4787574795217582,21.9375
-43.5,1.6260196351587797,5.6875
-52.0,0.7608544707912781,3.25
-36.5,-1.3560390164909069,1.625
-44.0,0.7976700097005334,2.4375
-49.5,0.7363107781851079,8.125
-40.5,0.18407769454627676,4.0625
-45.0,0.11044661672776623,7.3125
-46.5,0.04295146206079803,4.0625
-42.5,0.24543692606170264,4.875
-49.5,-1.6566992509164926,5.6875
-39.0,1.8407769454627694,2.4375
-43.5,-1.6935147898257479,2.4375
-44.0,-0.06135923151542566,3.25
-48.5,-0.12885438618239387,4.875
-60.5,-1.4051264017032472,1.625
-46.5,4.031301510563465,-4.875
-50.5,-2.6875343403756435,-1.625
-46.5,2.699806186678729,-5.6875
-50.0,-2.7673013413456973,10.5625
-43.5,0.28838838812250045,4.875
-44.0,0.2147573103039897,5.6875
-46.5,1.086058397823034,0.8125
-44.0,-1.3192234775816514,1.625
-36.5,-0.5460971604872882,0.8125
-48.5,0.3865631585471816,7.3125
-39.0,1.8960002538266523,2.4375
-60.5,-3.2520392703175593,4.0625
-40.0,2.6691265709210157,5.6875
-50.0,-0.1349903093339364,6.5
-45.0,0.25770877236478773,5.6875
-42.0,0.28225246497095835,7.3125
-51.5,-0.7669903939428209,4.875
-49.0,-0.8713010875190441,2.4375
-49.5,-0.03067961575771272,7.3125
-36.5,-0.4540583132141498,4.0625
-42.5,2.1353012567368124,2.4375
-50.0,-0.5399612373357456,-0.8125
-46.5,0.294524311274043,-0.8125
-48.0,-1.466485633218673,0.0
-40.5,1.294679784975481,5.6875
-38.5,0.5829126993965437,1.625
-46.5,0.748582624488193,-2.4375
-44.0,-2.2334760271614935,0.8125
-44.0,-0.2638446955163303,5.6875
-59.5,-1.4603497100671303,-16.25
-43.5,1.491029325824843,5.6875
-45.0,1.2640001692177685,2.4375
-50.5,-1.5339807878856413,7.3125
-52.0,0.9940195505498957,8.9375
-50.5,-0.9756117810952678,5.6875
-44.0,0.4540583132141496,7.3125
-40.5,0.9387962421860125,4.0625
-36.5,-1.7241944055834606,4.875
-42.0,2.1353012567368124,3.25
-44.0,-1.5339807878856413,4.875
-52.0,0.7363107781851079,7.3125
-46.5,0.546097160487288,0.0
-60.5,-2.7979809571034093,-4.875
-38.5,3.1968159619536762,4.875
-45.0,-0.44178646691106493,2.4375
-49.5,-0.27611654181941514,7.3125
-49.5,-1.0676506283684064,6.5
-44.0,0.0920388472731386,1.625
-48.5,-0.19634954084936207,7.3125
-46.0,2.6629906477694725,-2.4375
-60.5,-3.9760782021995817,-1.625
-48.5,1.3192234775816516,8.9375
-45.0,1.4542137869155876,4.875
-44.0,-1.251728322914683,4.875
-49.5,-0.12271846303085132,6.5
-40.5,1.2455923997631406,6.5
-42.0,0.411106851153352,4.875
-44.0,-1.3314953238847367,3.25
-50.5,-0.4847379289718625,8.125
-36.5,-0.33747577333484124,6.5
-44.5,0.5706408530934586,8.125
-38.5,1.7487380981896308,1.625
-46.0,0.7179030087304805,1.625
-46.5,-1.1106020904292047,-0.8125
-50.0,-0.3067961575771281,4.0625
-51.5,-0.2147573103039897,-2.4375
-40.5,0.337475773334841,4.875
-50.5,-1.4296700943094176,12.1875
-48.5,0.14112623248547895,0.0
-49.5,1.1412817061869172,7.3125
-39.0,0.7117670855789373,3.25
-44.0,-1.6873788666742051,4.875
-36.5,-0.6197282383057992,5.6875
-43.5,0.8038059328520759,8.9375
-44.5,-0.22089323345553225,5.6875
-46.5,1.313087554430109,4.0625
-46.5,1.1290098598838316,1.625
-51.5,-1.6505633277649499,8.9375
-42.0,0.779262240245906,3.25
-45.0,-0.29452431127404344,5.6875
-61.5,-2.8286605728611223,4.875
-49.0,1.454213786915588,8.9375
-36.5,-0.4663301595172349,2.4375
-44.0,0.5645049299419158,2.4375
-46.5,2.509592568980909,-7.3125
-52.0,-1.7303303287350031,5.6875
-60.5,-2.3193789512830896,5.6875
-40.5,2.6998061866787286,4.0625
-49.5,-0.17180584824319167,8.125
-39.0,0.7301748550335652,4.875
-46.5,-0.3988350048502669,4.0625
-45.5,-0.03681553890925526,6.5
-49.5,-1.3989904785517049,8.125
-48.0,-0.01840776945462763,4.875
-44.0,0.3620194659410114,6.5
-50.0,-0.48473792897186274,8.9375
-42.0,1.8285050991596845,4.875
-43.5,-1.5339807878856413,4.875
-45.5,1.2394564766115979,6.5
-49.5,-1.4112623248547898,14.625
-43.5,0.35588354278946865,6.5
-36.5,-0.773126317094363,0.8125
-52.0,1.3499030933393643,4.875
-48.5,-0.9572040116406402,6.5
-46.5,2.6629906477694734,-6.5
-50.0,-1.5462526341887264,10.5625
-43.5,-0.9142525495798424,4.0625
-40.5,1.1106020904292042,5.6875
-46.5,0.15339807878856426,2.4375
-38.5,0.4172427743048943,3.25
-44.0,-1.7119225592803755,1.625
-42.0,1.552388557340269,4.875
-50.5,-1.8223691760081417,9.75
-61.5,-1.1903690913992575,1.625
-52.0,2.2825634123738343,-3.25
-50.5,-1.0737865515199487,7.3125
-48.5,0.07363107781851075,7.3125
-36.5,-0.4417864669110647,8.125
-39.0,2.337786720737717,1.625
-44.0,-1.6873788666742056,0.8125
-44.0,-0.04295146206079781,3.25
-44.0,0.20862138715244716,8.125
-49.5,0.7669903939428209,8.9375
-49.5,-1.0676506283684064,1.625
-45.5,1.3560390164909066,5.6875
-40.0,-0.09203884727313838,2.4375
-46.5,0.1472621556370215,4.0625
-46.0,1.159689475641545,-2.4375
-42.0,-0.9081166264282996,6.5
-61.0,-3.06182565261974,-4.0625
-60.5,-0.042951462060797974,13.0
-48.5,1.4112623248547898,1.625
-43.5,0.1595340019401068,4.875
-44.0,-0.036815538909255485,3.25
-49.5,0.9817477042468103,6.5
-46.0,1.4787574795217582,-1.625
-46.5,-1.1535535524900022,4.0625
-52.0,-0.5031456984264904,0.0
-40.5,0.3497476196379261,7.3125
-49.5,-1.2455923997631404,6.5
-42.5,1.6566992509164924,6.5
-36.5,-2.1598449493429825,8.125
-39.0,2.313243028131547,5.6875
-45.0,-0.44178646691106493,5.6875
-44.0,-1.0492428589137783,5.6875
-50.5,-0.46019423636569234,1.625
-48.0,0.04295146206079781,8.9375
-40.5,1.356039016490907,4.875
-50.5,-1.3989904785517049,5.6875
-44.0,0.25770877236478773,1.625
-36.5,-0.5890486225480862,4.875
-39.0,2.2886993355253766,3.25
-45.0,-0.4417864669110645,4.875
-60.0,-2.718213956133356,-7.3125
-46.5,3.9024471243810708,-2.4375
-49.0,-2.5586799541932495,3.25
-44.0,0.14726215563702172,1.625
-52.0,0.7547185476397353,0.8125
-49.5,0.14112623248547873,5.6875
-42.0,0.6074563920027143,5.6875
-44.0,-1.3130875544301088,4.875
-46.5,1.0799224746714913,0.0
-48.5,-1.4848934026733007,6.5
-49.0,0.0674951546669682,4.875
-40.5,1.2640001692177683,2.4375
-50.0,-0.19634954084936185,4.875
-42.5,0.5829126993965437,5.6875
-61.0,-2.859340188618835,-13.0
-44.0,1.5462526341887264,3.25
-46.0,2.245747873464578,-4.875
-36.5,-3.0618256526197394,4.0625
-39.0,2.3009711818284617,3.25
-46.5,-0.39269908169872414,-0.8125
-50.5,-1.564660403643354,5.6875
-45.0,1.5033011721279281,4.875
-43.5,-1.2271846303085128,4.875
-44.0,-0.04295146206079803,1.625
-52.0,0.8283496254582463,-2.4375
-36.5,-1.3989904785517047,4.0625
-48.5,0.4049709280018092,8.9375
-46.0,2.656854724617931,-6.5
-39.0,-0.779262240245906,3.25
-42.0,-0.16566992509164935,8.125
-43.5,-1.5033011721279284,1.625
-44.0,0.1963495408493623,2.4375
-50.0,-0.4663301595172351,4.0625
-40.5,1.368310862793992,6.5
-49.5,-1.2455923997631406,6.5
-49.5,1.043106935762236,9.75
-45.0,0.33133985018329826,4.875
-46.5,0.05522330836388312,4.0625
-44.0,-1.325359400733194,2.4375
-61.0,-1.576932249946439,5.6875
-51.5,2.36846633649543,1.625
-36.5,-1.3621749396424494,1.625
-44.0,0.7853981633974481,8.125
-46.5,2.2273401040099507,-0.8125
-45.5,-1.1535535524900018,7.3125
-50.0,-0.32520392703175593,6.5
-48.5,-1.1228739367322893,4.875
-50.5,-0.12271846303085132,9.75
-44.0,0.294524311274043,2.4375
-43.5,0.024543692606170175,5.6875
-42.0,1.5217089415825562,7.3125
-49.0,-1.6321555583103222,0.0
-40.0,1.214912784005428,8.125
-60.5,-2.8409324191642074,25.1875
-39.0,3.411573272257666,5.6875
-52.0,-0.9203884727313847,-0.8125
-46.5,0.546097160487288,-1.625
-48.5,-1.5155730184310132,9.75
-49.5,1.0860583978230338,14.625
-38.5,0.8160777791551612,1.625
-49.0,-1.8346410223112268,7.3125
-42.5,1.6689710972195775,6.5
-45.0,-0.2822524649709579,4.875
-40.5,-0.10431069357622347,2.4375
-36.5,-1.7671458676442588,5.6875
-43.5,0.6504078540635119,0.0
-46.5,1.2640001692177685,2.4375
-44.0,-1.086058397823034,4.875
-52.0,0.5215534678811178,9.75
-61.0,-2.313243028131547,8.9375
-50.5,1.2824079386723959,13.0
-44.0,0.2699806186678728,4.875
-46.0,2.485048876374739,-1.625
-40.5,-1.306951631278566,1.625
-43.5,-1.1351457830353748,2.4375
-52.0,0.7301748550335656,6.5
-42.0,0.7915340865489906,5.6875
-46.5,0.926524395882927,-4.0625
-36.5,-3.0495538063166543,0.8125
-44.0,0.5583690067903733,3.25
-48.5,-0.14112623248547895,6.5
-61.0,-1.3192234775816514,-8.125
-44.0,1.6873788666742053,5.6875
-46.5,1.1044661672776614,0.0
-39.0,0.3865631585471818,5.6875
-45.0,-0.43565054375952217,1.625
-49.5,-0.32520392703175593,12.1875
-49.0,-1.0246991663076084,0.0
-50.5,-0.16566992509164913,4.875
-42.0,1.7978254834019713,5.6875
-61.5,-3.117048960983623,7.3125
-44.0,1.5523885573402687,3.25
-50.5,-0.24543692606170242,5.6875
-48.5,0.09817477042468092,4.0625
-46.0,2.675262494072558,-8.9375
-44.0,-2.2948352586769194,8.125
-52.0,0.5706408530934586,3.25
-40.5,0.36815538909255396,5.6875
-36.5,-1.761009944492716,6.5
-39.0,2.313243028131547,5.6875
-49.5,-0.7853981633974483,5.6875
-43.5,-0.8958447801252145,2.4375
-46.5,1.2824079386723963,1.625
-45.0,-0.049087385212340795,8.9375
-49.0,-1.3437671701878215,1.625
-49.5,1.0185632431560656,4.0625
-48.5,-1.1351457830353744,13.0
-42.0,1.761009944492716,1.625
-38.5,0.15339807878856426,1.625
-61.0,-3.270447039772187,1.625
-43.5,1.7671458676442586,6.5
-44.0,-0.19021361769781953,6.5
-36.5,-0.6074563920027138,4.875
-40.5,1.7426021750380882,4.0625
-52.0,-0.36815538909255396,3.25
-44.0,-0.8099418560036185,2.4375
-50.0,-0.17794177139473444,-1.625
-49.0,0.10431069357622369,2.4375
-46.5,2.5832236467994196,-7.3125
-45.0,-1.2271846303085132,4.0625
-46.5,0.049087385212340795,1.625
-49.0,-1.423534171157875,5.6875
-36.5,-0.4663301595172349,2.4375
-44.0,0.8038059328520759,4.875
-46.5,1.0799224746714913,2.4375
-42.0,0.22089323345553247,8.9375
-52.0,-0.748582624488193,6.5
-44.0,-0.8099418560036185,7.3125
-46.5,2.5095925689809087,-1.625
-43.5,-2.4543692606170255,4.875
-50.5,-0.2638446955163303,5.6875
-60.5,-1.3069516312785663,15.4375
-40.5,2.693670263527186,7.3125
-39.0,0.5583690067903735,2.4375
-45.5,-0.42951462060797985,7.3125
-49.5,-0.3620194659410112,8.9375
-48.0,-1.098330244126119,7.3125
-45.0,1.4664856332186729,5.6875
-36.5,-1.8837284075235674,8.125
-40.5,1.761009944492716,4.875
-49.0,-1.2701360923693108,6.5
-39.0,1.8162332528565992,3.25
-52.0,-0.9203884727313847,5.6875
-42.5,0.7669903939428204,5.6875
-48.5,-1.718058482431918,6.5
-44.0,0.1472621556370215,4.875
-46.5,1.3314953238847367,4.875
-44.0,-1.0799224746714913,4.875
-44.0,-0.1963495408493623,2.4375
-46.5,2.4605051837685683,-4.875
-49.5,-1.601475942552609,10.5625
-50.5,-1.1228739367322895,6.5
-60.5,-1.2824079386723959,-5.6875
-36.0,0.9265243958829273,2.4375
-60.5,-0.8590292412159591,-20.3125
-39.0,3.1661363461959633,1.625
-44.5,-1.7241944055834606,4.875
-50.0,-0.22089323345553225,4.875
-46.5,1.5646604036433542,0.0
-45.0,-0.06749515466696865,5.6875
-48.0,-1.43580601746096,1.625
-49.0,0.0674951546669682,2.4375
-49.5,1.0062913968529805,6.5
-42.0,0.6381360077604268,3.25
-40.5,-0.3865631585471814,4.0625
-52.0,-0.31293208072867085,-0.8125
-44.0,-0.6565437772150546,8.9375
-44.0,-0.15953400194010658,4.0625
-46.0,2.4605051837685683,-2.4375
-46.5,-1.1535535524900018,-4.0625
-44.5,-0.06749515466696865,5.6875
-50.0,-1.491029325824843,1.625
-46.5,2.718213956133356,-6.5
-44.0,-2.276427489222291,6.5
-39.0,1.4910293258248433,3.25
-40.0,-0.5522330836388307,4.0625
-36.5,-1.7548740213411738,5.6875
-44.0,0.5829126993965437,2.4375
-48.5,-0.16566992509164913,8.9375
-42.0,1.7303303287350034,4.875
-44.0,-1.5217089415825562,4.0625
-60.5,-1.6014759425526095,-1.625
-49.5,1.4910293258248433,0.8125
-52.0,0.8897088569736717,6.5
-49.0,0.08590292412159606,5.6875
-46.5,1.5892040962495244,-4.0625
-40.0,-1.325359400733194,5.6875
-44.0,-0.9572040116406404,8.9375
-44.0,-0.1656699250916489,1.625
-48.5,-0.23930100291016032,6.5
-42.0,1.7426021750380887,8.125
-49.0,-0.6381360077604268,5.6875
-39.0,0.8222137023067035,2.4375
-44.0,-1.7548740213411735,5.6875
-45.0,1.3314953238847365,-0.8125
-36.5,-1.9082721001297376,5.6875
-50.0,0.34974761963792633,12.1875
-49.5,0.14112623248547895,8.9375
-52.0,0.9449321653375549,-2.4375
-60.5,-2.4605051837685683,-5.6875
-46.5,2.945243112740431,4.0625
-44.0,-1.337631247036279,4.875
-46.5,2.552544031041707,-8.125
-44.0,-2.497320722677824,4.0625
-45.0,1.2517283229146834,8.125
-60.0,-2.877747958073463,-13.0
-40.5,2.7550294950426117,8.125
-36.0,-1.7732817907958014,7.3125
-46.5,1.945087639038993,-0.8125
-48.5,-1.509437095279471,6.5
-39.0,1.9082721001297374,0.8125
-44.0,-1.5094370952794707,4.875
-49.5,0.6688156235181397,4.0625
-50.0,-1.129009859883832,2.4375
-42.0,1.7732817907958012,9.75
-52.0,-0.7363107781851079,5.6875
-49.0,-0.9081166264282994,1.625
-49.0,0.01840776945462763,1.625
-36.5,-0.5154175447295755,6.5
-60.5,-1.0983302441261191,10.5625
-45.0,2.9881945748012293,8.125
-46.5,1.1780972450961724,0.0
-46.5,-1.116738013580747,-0.8125
-50.5,-1.5462526341887264,2.4375
-43.5,0.2270291566070748,1.625
-44.0,-0.01840776945462741,1.625
-42.0,1.5462526341887264,4.875
-44.0,-1.3437671701878218,8.9375
-39.0,1.5094370952794707,0.8125
-40.5,-0.5645049299419158,7.3125
-52.5,-0.36815538909255396,1.625
-48.0,-0.9633399347921825,5.6875
-49.0,1.098330244126119,0.0
-42.0,0.6381360077604268,5.6875
-49.0,-1.6689710972195775,6.5
-40.5,1.257864246066226,7.3125
-46.5,0.18407769454627676,0.0
-44.0,-1.116738013580747,4.875
-45.0,1.0676506283684066,8.125
-43.5,-1.2701360923693112,4.875
-49.0,0.8713010875190443,5.6875
-48.5,-1.0676506283684062,8.9375
-36.5,-0.4233786974564371,6.5
-51.5,1.41126232485479,8.9375
-50.0,-1.043106935762236,9.75
-46.5,2.6568547246179306,7.3125
-39.0,-0.6994952392758527,2.4375
-44.0,-1.7426021750380882,5.6875
-60.0,-1.662835174068035,20.3125
-44.0,1.6996507129772902,-0.8125
-36.0,-0.6197282383057989,6.5
-48.5,0.4049709280018092,13.8125
-46.5,2.681398417224101,-2.4375
-42.5,-0.9142525495798424,3.25
-52.0,-0.7547185476397358,2.4375
-45.0,0.4786020058203202,5.6875
-44.0,-1.2578642460662257,2.4375
-43.5,0.15339807878856426,8.9375
-39.0,1.5155730184310134,5.6875
-60.0,-3.2520392703175593,-2.4375
-49.5,2.4605051837685683,1.625
-40.0,0.24543692606170264,8.125
-50.5,-1.4051264017032472,7.3125
-49.0,0.1472621556370215,4.875
-46.5,1.4358060174609601,0.0
-46.5,1.17196132194463,-6.5
-42.5,-0.9572040116406404,6.5
-38.5,0.15953400194010658,3.25
-36.5,-2.3071071049800045,4.875
-52.0,1.4112623248547898,7.3125
-40.5,0.36201946594101164,1.625
-45.0,0.12885438618239364,3.25
-44.0,-1.086058397823034,2.4375
-43.5,-0.2024854640009046,5.6875
-46.5,1.3314953238847367,-1.625
-44.0,-1.3560390164909069,5.6875
-50.0,-0.19021361769781953,1.625
-48.5,0.036815538909255485,5.6875
-49.5,1.0737865515199487,2.4375
-59.5,-2.380738182798515,-9.75
-49.0,1.380582709097077,1.625
-46.5,1.41126232485479,4.0625
-36.5,-1.9082721001297376,2.4375
-46.5,3.055689729468197,0.0
-40.5,-1.3130875544301088,5.6875
-51.5,-0.38042723539563905,8.125
-44.0,-0.7424467013366502,6.5
-44.0,-0.04295146206079803,5.6875
-42.0,1.5646604036433542,3.25
-45.0,-0.2638446955163305,4.0625
-50.5,-1.5033011721279284,0.8125
-61.0,-1.3621749396424492,-2.4375
-39.0,3.2888548092268146,3.25
-48.5,-1.88986433067511,10.5625
-49.0,0.0674951546669682,7.3125
-49.5,1.0246991663076084,4.875
-44.0,-0.6872233929727671,2.4375
-44.0,-0.23930100291016032,0.8125
-40.0,1.1780972450961724,4.875
-46.5,0.14112623248547917,1.625
-52.0,-0.4908738521234053,0.8125
-49.5,0.10431069357622347,8.125
-43.5,-0.8897088569736717,4.0625
-49.0,-0.10431069357622369,-1.625
-36.5,-0.5338253141842031,6.5
-39.0,2.3193789512830896,3.25
-60.5,-3.2643111166206444,1.625
-46.5,4.0558452031696355,-7.3125
-45.0,-1.2394564766115983,5.6875
-42.0,0.3067961575771281,3.25
-44.0,-1.3437671701878213,3.25
-49.0,-0.44178646691106493,14.625
-50.0,-0.006135923151542544,4.0625
-40.5,1.3744467859455345,5.6875
-46.0,1.3130875544301088,-2.4375
-44.0,-2.2457478734645786,6.5
-42.5,1.3314953238847367,5.6875
-45.0,-0.2761165418194156,6.5
-43.5,-1.2455923997631406,2.4375
-36.5,-0.6320000846088842,4.875
-49.0,0.48473792897186274,3.25
-51.5,0.9142525495798419,4.875
-46.5,0.5276893910326605,4.0625
-50.5,-1.533980787885641,1.625
-44.0,0.19021361769781953,4.875
-49.0,-0.17794177139473422,9.75
-39.0,1.8960002538266525,3.25
-49.5,-0.7547185476397358,2.4375
-60.0,-2.601631416254047,9.75
-49.5,2.601631416254047,6.5
-44.0,-0.7117670855789373,3.25
-46.5,1.0921943209745764,-1.625
-40.5,-0.1656699250916489,4.875
-45.0,0.12885438618239364,4.0625
-44.0,-1.2455923997631406,5.6875
-48.0,-0.24543692606170264,8.9375
-44.0,0.19021361769781953,3.25
-46.5,2.5095925689809087,-8.125
-36.5,-3.1047771146805374,4.875
-39.0,2.3193789512830896,4.875
-49.0,-1.8162332528565992,6.5
-51.5,0.8835729338221294,7.3125
-60.5,-2.411417798556228,9.75
-42.5,3.1784081924990484,6.5
-50.5,-1.803961406553514,5.6875
-44.0,0.23930100291015988,3.25
-46.5,2.485048876374739,-2.4375
-38.5,-0.7547185476397353,6.5
-42.0,-0.17180584824319167,6.5
-52.0,-0.748582624488193,2.4375
-49.5,-0.9203884727313847,8.9375
-44.0,0.337475773334841,5.6875
-46.5,1.129009859883832,-1.625
-40.5,-0.19021361769781953,7.3125
-36.5,-1.7241944055834608,1.625
-60.5,-1.0983302441261191,20.3125
-50.5,1.4419419406125027,4.875
-50.0,1.227184630308513,-4.875
-48.5,-1.1719613219446299,8.125
-44.0,0.20862138715244716,4.0625
-45.0,1.2578642460662257,2.4375
-42.0,0.2699806186678728,4.875
-48.5,-1.7241944055834606,4.875
-44.0,0.20248546400090484,2.4375
-40.0,1.1290098598838316,2.4375
-46.5,1.3008157081270237,-4.0625
-43.5,-2.2580197197676637,5.6875
-36.5,-0.8099418560036187,5.6875
-44.0,0.5890486225480862,5.6875
-39.0,1.736466251886546,3.25
-46.5,-0.4233786974564371,6.5
-51.5,-0.5338253141842029,5.6875
-50.5,-1.0246991663076084,8.9375
-49.5,1.214912784005428,4.0625
-49.0,-1.0676506283684064,3.25
-60.0,-1.4542137869155878,-0.8125
-45.5,2.84706834231575,4.0625
-49.0,-1.3928545554001623,3.25
-45.0,1.3989904785517047,1.625
-46.5,1.1412817061869167,5.6875
-36.5,-3.012738267407399,2.4375
-52.0,1.3499030933393643,10.5625
-38.5,0.95720401164064,2.4375
-42.5,-0.17794177139473444,5.6875
-40.5,-0.39269908169872414,6.5
-44.0,-1.1106020904292042,4.0625
-47.0,1.2946797849754814,0.8125
-49.5,-0.3988350048502669,7.3125
-44.0,-0.9449321653375551,2.4375
-50.5,-0.22089323345553225,5.6875
-43.5,0.43565054375952217,5.6875
-59.5,-1.8285050991596843,17.875
-48.5,1.4664856332186729,5.6875
-51.5,0.9142525495798421,4.875
-48.5,-0.9449321653375549,4.875
-36.5,-0.411106851153352,2.4375
-44.0,0.6258641614573417,4.0625
-38.5,1.6812429435226628,4.875
-44.0,-1.7241944055834608,3.25
-40.5,1.1658253987930873,5.6875
-50.5,-1.4173982480063323,9.75
-46.5,1.6076118657041518,0.0
-60.0,-2.8654761117703775,-10.5625
-49.5,2.4420974143139405,8.125
-44.0,-0.6872233929727671,2.4375
-45.5,1.0369710126106932,4.875
-42.5,0.2761165418194156,6.5
-46.0,0.865165164367502,5.6875
-49.0,-2.4911847995262817,-0.8125
-46.5,1.4051264017032472,1.625
-46.5,1.116738013580747,0.8125
-43.5,-2.3930100291016,0.8125
-40.5,1.1106020904292042,4.0625
-48.5,-1.3437671701878218,12.1875
-42.5,1.7426021750380882,5.6875
-44.0,-1.5585244804918115,1.625
-45.0,1.2885438618239387,2.4375
-49.5,-0.3742913122440963,8.125
-36.5,-1.5217089415825562,4.875
-44.0,0.8283496254582463,6.5
-39.0,1.4910293258248433,1.625
-49.0,-1.8162332528565992,3.25
-50.5,-0.11044661672776623,4.0625
-52.0,1.0246991663076082,2.4375
-60.5,-2.3991459522531424,0.0
-49.5,2.5218644152839937,8.9375
-44.0,-0.883572933822129,0.0
-44.0,-0.05522330836388334,0.8125
-42.0,1.552388557340269,8.125
-61.0,-2.9820586516496865,-12.1875
-39.0,3.160000423044421,2.4375
-44.0,-1.5339807878856413,8.9375
-36.0,-0.8038059328520759,7.3125
-46.5,3.098641191528995,-4.875
-40.5,-1.325359400733194,6.5
-50.5,-1.3989904785517049,1.625
-48.5,0.08590292412159584,4.0625
-52.0,0.93266031903447,5.6875
-49.0,-0.9142525495798424,9.75
-46.5,1.454213786915588,2.4375
-45.0,-0.05522330836388312,6.5
-43.5,-1.2762720155208536,2.4375
-36.5,-0.5829126993965437,4.0625
-59.5,-0.9510680884890974,0.8125
-45.0,2.82252464970958,6.5
-46.0,1.202640937702343,-4.875
-51.5,-1.6628351740680354,-0.8125
-49.5,-0.9203884727313847,5.6875
-40.5,1.2578642460662257,4.0625
-46.5,0.17180584824319167,-0.8125
-42.0,0.2515728492132454,3.25
-39.0,0.12885438618239364,4.875
-44.0,-1.5033011721279284,6.5
-44.0,-0.1656699250916489,1.625
-49.5,0.9326603190344698,0.8125
-50.5,-1.257864246066226,13.8125
-49.0,0.11044661672776623,4.875
-48.5,0.0,10.5625
-36.5,-0.41724277430489454,4.875
-49.0,0.4663301595172351,7.3125
-42.0,1.6812429435226628,5.6875
-46.5,0.95720401164064,-8.9375
-39.0,-0.7853981633974483,0.8125
-40.5,-0.5767767762450009,4.0625
-43.5,-0.9265243958829275,5.6875
-44.0,-0.22089323345553247,1.625
-44.0,0.04295146206079803,4.0625
-45.0,1.2271846303085128,5.6875
-49.5,-0.337475773334841,5.6875
-51.5,-0.14112623248547873,4.875
-60.5,-2.3746022596469727,4.0625
-46.5,2.9084275738311756,0.8125
-50.5,-1.5953400194010667,12.1875
-44.0,0.3067961575771285,4.0625
-38.5,1.67510702037112,2.4375
-44.0,-1.7241944055834608,4.875
-52.0,0.791534086548991,2.4375
-46.5,1.6751070203711205,-4.0625
-36.5,-3.055689729468198,5.6875
-44.0,0.816077779155161,6.5
-49.5,0.705631162427395,8.9375
-46.5,0.38042723539563905,4.0625
-45.0,-0.024543692606170175,4.875
-40.5,-0.1349903093339364,5.6875
-49.0,-1.2517283229146832,2.4375
-42.5,1.6566992509164924,7.3125
-60.5,-3.067961575771282,-8.125
-48.5,1.3437671701878218,5.6875
-50.5,-0.06135923151542566,4.875
-42.0,1.8039614065535141,2.4375
-36.5,-2.147573103039898,2.4375
-52.0,1.3683108627939917,1.625
-49.5,0.15339807878856426,7.3125
-48.5,-1.0921943209745766,8.9375
-60.0,-1.337631247036279,-16.25
-44.0,1.7241944055834606,4.875
-46.5,1.086058397823034,1.625
-39.0,0.39269908169872414,2.4375
-50.5,-1.945087639038993,4.875
-44.0,0.2270291566070748,2.4375
-49.0,-0.09817477042468092,5.6875
-43.5,0.15953400194010658,0.0
-46.5,2.411417798556228,-5.6875
-45.0,-1.1842331682477147,2.4375
-40.0,-0.1288543861823941,4.875
-45.0,0.11044661672776623,5.6875
-60.5,-2.82252464970958,-4.875
-44.0,1.5523885573402687,0.8125
-38.5,1.7057866361288332,5.6875
-36.0,-2.300971181828462,4.875
-52.0,1.3805827090970773,3.25
-46.5,1.7548740213411733,-13.0
-43.5,-2.4911847995262812,2.4375
-48.0,-0.20862138715244716,6.5
-42.5,1.7119225592803755,5.6875
-44.0,-1.349903093339364,7.3125
-49.0,-0.3067961575771283,5.6875
-40.5,1.2640001692177683,4.875
-46.5,0.15953400194010658,1.625
-50.5,-1.5646604036433538,8.125
-49.5,1.1965050145507998,5.6875
-49.0,-1.0737865515199485,12.1875
-44.0,0.16566992509164935,4.0625
-44.0,0.18407769454627676,5.6875
-60.5,-1.6996507129772904,-4.875
-40.5,2.6200391857086753,6.5
-46.5,0.17180584824319167,1.625
-44.0,-1.3314953238847365,2.4375
-49.5,0.9817477042468103,2.4375
-36.0,-1.5523885573402687,2.4375
-38.5,2.3009711818284617,3.25
-46.0,0.7669903939428209,-1.625
-45.5,-1.2271846303085132,6.5
-50.5,-1.4787574795217582,1.625
-42.5,1.7671458676442588,8.125
-51.5,-0.7363107781851079,2.4375
-48.5,-0.9878836273983529,10.5625
-46.0,2.6629906477694734,-4.875
-46.5,-1.190369091399258,8.125
-36.5,-1.902136176978195,6.5
-44.0,0.6135923151542564,0.8125
-42.0,1.5462526341887264,6.5
-38.5,0.16566992509164935,4.875
-50.5,-1.9573594853420782,8.125
-52.0,1.0615147052168636,0.0
-40.5,0.3436116964863838,2.4375
-43.5,-1.1228739367322893,4.0625
-45.0,1.251728322914683,4.0625
-44.0,-1.0921943209745764,7.3125
-48.5,-0.36815538909255396,4.0625
-49.0,0.0674951546669682,1.625
-49.5,1.043106935762236,6.5
-59.5,-2.442097414313941,-8.9375
-36.5,0.9203884727313848,1.625
-40.5,1.7303303287350034,5.6875
-50.5,-1.3867186322486198,-2.4375
-45.0,1.4971652489763856,7.3125
-46.5,0.10431069357622391,-4.0625
-48.5,-1.5339807878856413,4.875
-46.5,2.6384469551633027,-4.0625
-42.5,-0.9081166264282996,5.6875
-44.0,-1.3314953238847362,4.875
-38.5,1.4603497100671303,7.3125
-60.5,-3.245903347166017,4.875
-49.0,1.4603497100671303,4.875
-44.0,0.14112623248547895,1.625
-44.0,-0.05522330836388312,4.875
-50.0,0.9878836273983529,1.625
-52.0,-0.23930100291015988,8.125
-43.5,-0.7240389318820228,6.5
-42.0,1.540116711037184,7.3125
-49.5,-0.5890486225480864,4.875
-36.5,-1.564660403643354,5.6875
-46.5,1.9266798695843652,1.625
-39.0,0.3865631585471818,0.0
-40.5,-0.5767767762450013,7.3125
-44.0,-0.926524395882927,5.6875
-46.0,2.239611950313036,1.625
-49.0,-2.5648158773447918,7.3125
-45.0,1.4173982480063323,0.0
-50.5,-1.5462526341887262,5.6875
-44.0,0.20862138715244716,8.125
-52.0,0.7976700097005334,7.3125
-48.5,-0.9387962421860123,6.5
-60.5,-1.4051264017032472,1.625
-44.0,1.8162332528565992,4.875
-50.0,0.6994952392758522,4.0625
-45.0,0.337475773334841,6.5
-50.5,-1.4848934026733005,2.4375
-36.5,-0.3865631585471816,5.6875
-48.5,0.4540583132141498,2.4375
-40.5,1.3008157081270237,5.6875
-46.5,0.1288543861823941,4.875
-38.5,0.4356505437595217,2.4375
-60.5,-3.356349963893783,8.125
-51.5,2.4175537217077707,7.3125
-42.0,0.7731263170943632,6.5
-44.0,-1.5707963267948968,4.875
-44.0,0.06135923151542566,4.875
-46.0,2.4359614911623986,-2.4375
-49.0,-2.6200391857086753,3.25
-45.0,1.4112623248547898,5.6875
-42.0,0.29452431127404344,4.875
-48.5,-1.7241944055834608,5.6875
-61.0,-1.4051264017032472,0.0
-36.5,0.95720401164064,5.6875
-46.5,3.1109130378320806,-8.125
-44.0,-2.5034566458293668,0.0
-49.0,-0.09203884727313838,3.25
-40.0,1.2394564766115983,7.3125
-44.0,-1.0983302441261191,0.0
-50.5,-0.28838838812250067,4.875
-39.0,1.9450876390389928,6.5
-46.5,-0.4049709280018092,6.5
-51.5,-0.5154175447295755,5.6875
-44.0,-0.5645049299419158,4.875
-49.5,0.6442719309119691,16.25
-45.0,0.3988350048502669,6.5
-46.5,1.2210487071569704,-5.6875
-40.5,-1.3314953238847367,4.0625
-48.5,-1.3192234775816514,4.875
-60.5,-1.466485633218673,10.5625
-39.0,3.362485887045325,0.8125
-44.0,-1.503301172127928,4.875
-46.5,1.1106020904292042,0.0
-44.0,-1.3008157081270237,2.4375
-36.5,-0.6504078540635121,6.5
-42.0,2.1537090261914402,8.9375
-44.0,-1.5585244804918117,6.5
-52.0,0.8222137023067038,0.0
-50.5,-1.0246991663076084,1.625
-49.0,0.09817477042468115,8.125
-49.5,1.0553787820653209,8.125
-46.5,0.36201946594101164,5.6875
-36.5,-1.8837284075235674,1.625
-44.5,0.5829126993965434,0.8125
-44.0,0.04295146206079825,1.625
-42.0,1.4971652489763856,9.75
-49.5,-1.6382914814618648,3.25
-48.5,-0.036815538909255485,-1.625
-46.0,2.6200391857086753,-2.4375
-40.5,-1.3253594007331944,5.6875
-39.0,0.5522330836388307,2.4375
-44.0,-1.5033011721279284,6.5
-60.0,-1.7978254834019713,1.625
-51.5,2.3930100291016,1.625
-50.5,-1.012427320004523,1.625
-45.0,1.497165248976386,4.875
-49.5,-0.32520392703175593,4.0625
-36.5,-1.5585244804918117,4.875
-60.0,-0.8835729338221292,-5.6875
-49.5,1.3560390164909069,8.9375
-46.5,1.4542137869155876,0.8125
-39.0,0.38042723539563905,4.875
-40.0,-0.5645049299419158,6.5
-46.5,1.3314953238847362,-0.8125
-42.0,-0.9203884727313842,6.5
-44.0,-1.325359400733194,3.25
-52.0,0.558369006790373,1.625
-49.5,0.1472621556370215,9.75
-44.0,-0.883572933822129,4.0625
-44.0,-0.05522330836388334,2.4375
-45.0,1.257864246066226,4.875
-48.5,-1.423534171157875,6.5
-50.5,-0.12271846303085132,4.875
-50.5,0.0,6.5
-60.5,-1.3130875544301088,-13.8125
-45.0,2.8838838812250054,0.8125
-43.5,-1.2517283229146834,6.5
-46.5,1.2824079386723963,-1.625
-40.5,-0.15953400194010658,4.875
-36.0,-1.7610099444927163,5.6875
-49.5,0.4663301595172349,6.5
-46.0,2.6077673394055902,-4.0625
-48.5,-2.650718801466388,7.3125
-42.0,1.7426021750380885,3.25
-38.5,0.14112623248547873,4.875
-44.0,-1.7241944055834606,4.875
-44.0,0.227029156607075,6.5
-52.0,0.5399612373357456,6.5
-49.5,0.15953400194010658,7.3125
-40.5,0.23930100291015988,5.6875
-48.5,-1.337631247036279,8.9375
-42.0,1.736466251886546,8.125
-45.0,-0.294524311274043,8.125
-43.5,-1.2087768608538854,1.625
-44.0,-0.05522330836388312,5.6875
-49.0,0.9203884727313847,7.3125
-46.0,1.6137477888556946,-8.125
-39.0,-0.8160777791551612,3.25
-43.5,-1.4848934026733005,4.875
-49.0,-0.34974761963792633,6.5
-50.5,-0.17794177139473422,13.8125
-46.5,1.5953400194010667,6.5
-36.0,-1.8960002538266525,6.5
-52.0,1.3130875544301088,11.375
-60.5,-2.380738182798515,5.6875
-49.5,2.5954954931025047,6.5
-52.0,-0.15339807878856382,2.4375
-36.0,-1.3621749396424496,5.6875
-46.5,1.9144080232812803,0.0
-38.5,0.4049709280018092,2.4375
-44.0,-1.5033011721279284,5.6875
-49.0,-0.337475773334841,6.5
-42.0,1.6689710972195777,5.6875
-40.5,-0.3988350048502669,5.6875
-44.0,-1.1596894756415448,1.625
-46.5,2.509592568980909,-2.4375
-43.5,-2.4543692606170255,-1.625
-60.5,-1.6996507129772906,8.125
-45.5,2.9329712664373457,1.625
-48.5,-1.478757479521758,8.9375
-51.0,-0.10431069357622347,6.5
-49.5,0.19634954084936207,1.625
-40.5,1.2640001692177685,2.4375
-44.0,-1.1780972450961726,4.875
-42.0,1.595340019401067,1.625
-46.5,-0.25770877236478773,0.0
-50.5,-1.6014759425526095,8.125
-49.0,0.11044661672776623,0.0
-44.0,0.3865631585471814,7.3125
-36.5,-0.8038059328520759,4.0625
-38.5,2.300971181828462,4.875
-44.0,-1.6689710972195777,0.8125
-45.0,1.2394564766115979,3.25
-49.0,-0.3681553890925535,2.4375
-51.5,-0.09817477042468115,-2.4375
-46.5,1.644427404613407,2.4375
-60.5,-4.147884050442774,2.4375
-46.5,2.9820586516496865,1.625
-39.0,0.41110685115335155,4.875
-40.5,-0.5522330836388307,4.875
-36.5,-1.761009944492716,5.6875
-49.0,0.5276893910326605,-2.4375
-44.0,0.3067961575771281,2.4375
-50.5,-0.5031456984264902,4.0625
-44.0,0.3190680038802134,-0.8125
-42.0,1.5094370952794711,4.875
-44.0,-1.5646604036433542,2.4375
-46.5,2.485048876374739,-0.8125
-48.5,-2.6752624940725585,8.9375
-45.0,1.4603497100671303,5.6875
-52.5,-0.5276893910326605,7.3125
-60.0,-2.3868741059500573,4.0625
-49.0,2.5341362615870793,8.125
-49.0,-0.9940195505498952,7.3125
-39.0,1.8223691760081415,5.6875
-52.5,-0.9203884727313847,-0.8125
-50.5,-1.0921943209745764,9.75
-44.0,0.337475773334841,2.4375
-46.5,2.4727770300716534,-8.125
-36.0,-3.1047771146805374,7.3125
-40.5,1.7364662518865457,6.5
-60.0,-2.8225246497095795,10.5625
-42.0,3.2397674240144743,6.5
-44.0,-1.5707963267948968,1.625
-45.0,1.282407938672396,4.0625
-43.5,-1.0369710126106937,4.875
-48.5,-0.41110685115335155,8.125
-46.5,1.5033011721279284,-0.8125
-49.5,-0.4172427743048943,5.6875
-40.5,0.25157284921324496,4.875
-46.5,1.306951631278566,2.4375
-60.5,-4.178563666200486,12.1875
-38.5,3.436116964863836,2.4375
-42.0,-0.1656699250916489,7.3125
-44.0,-1.3314953238847367,3.25
-44.0,-0.19021361769781953,5.6875
-49.0,-0.15339807878856426,4.875
-36.0,-0.47246608266877743,4.0625
-46.5,1.9266798695843654,0.8125
-45.0,-0.07363107781851097,7.3125
-50.5,-1.5155730184310134,4.875
-48.5,0.0920388472731386,1.625
-44.0,0.14112623248547895,4.875
-49.5,0.9203884727313847,4.875
-52.0,-0.15339807878856426,2.4375
-44.0,-0.7669903939428204,5.6875
-46.5,2.5034566458293663,-4.0625
-48.5,-2.662990647769473,8.9375
-36.5,-0.411106851153352,4.0625
-39.0,2.2948352586769194,5.6875
-46.5,-0.3988350048502669,4.0625
-44.0,-1.0676506283684062,2.4375
-45.0,1.0185632431560658,8.9375
-49.0,-1.3560390164909069,4.875
-52.0,0.8406214717613314,4.875
-61.0,-2.4605051837685687,21.9375
-50.5,1.4787574795217582,0.0
-49.0,1.1903690913992573,4.0625
-40.5,0.2024854640009046,6.5
-42.0,0.3988350048502669,8.125
-43.5,-1.5155730184310134,4.875
-36.5,-0.6197282383057992,2.4375
-38.5,2.300971181828462,1.625
-46.5,-0.38042723539563905,-0.8125
-40.5,-0.17794177139473444,5.6875
-44.0,-1.1658253987930873,3.25
-49.5,0.9142525495798424,6.5
-42.0,0.6504078540635119,6.5
-46.5,0.8958447801252145,1.625
-50.5,-2.6998061866787286,4.0625
-60.5,-1.41126232485479,5.6875
-43.5,1.8775924843720246,6.5
-52.0,0.5583690067903735,5.6875
-49.5,-0.8835729338221292,7.3125
-45.0,1.3867186322486196,4.0625
-43.5,-1.2517283229146834,4.875
-48.5,-0.23316507975861733,10.5625
-44.0,0.17794177139473444,5.6875
-46.5,2.4973207226778245,-0.8125
-48.5,-2.6629906477694734,13.8125
-36.0,-0.39269908169872414,4.875
-43.5,0.6135923151542564,6.5
-43.5,0.19021361769781953,5.6875
-40.5,0.9387962421860125,4.875
-46.5,0.17180584824319167,-0.8125
-49.5,-1.4542137869155878,3.25
-38.5,1.8407769454627696,4.875
-50.5,-1.9573594853420782,4.0625
-42.0,1.7978254834019716,5.6875
-49.0,-0.6504078540635119,8.125
-45.0,0.3742913122440963,4.0625
-60.5,-2.9391071895888885,13.8125
-52.0,2.435961491162398,4.875
-46.5,0.5767767762450013,-4.0625
-48.5,-1.5339807878856413,7.3125
-46.5,2.7182139561333565,-6.5
-61.0,-4.135612204139689,-0.8125
-52.0,2.3868741059500573,0.0
-44.0,-0.816077779155161,8.125
-44.0,0.055223308363882895,6.5
-42.0,1.5217089415825562,5.6875
-43.5,-1.3130875544301088,5.6875
-40.5,0.9142525495798419,4.875
-38.5,0.5645049299419163,2.4375
-36.0,-2.300971181828462,4.0625
-45.0,1.8653206380689398,4.875
-50.5,-1.521708941582556,-2.4375
-49.5,1.153553552490002,5.6875
-49.0,-1.0185632431560656,4.875
-50.5,-0.15339807878856426,2.4375
-49.0,1.1780972450961726,5.6875
-43.5,-0.8713010875190443,2.4375
-44.0,0.18407769454627676,4.875
-36.0,-0.8283496254582461,5.6875
-40.5,1.7610099444927163,4.0625
-46.5,0.1472621556370215,4.875
-45.0,-0.05522330836388312,8.125
-52.0,-0.46019423636569234,2.4375
-60.0,-2.386874105950058,-9.75
-42.0,3.1661363461959633,3.25
-49.0,-1.7548740213411733,8.9375
-38.5,1.9021361769781948,2.4375
-44.0,-1.7364662518865457,4.875
-46.5,2.503456645829366,-4.0625
-49.0,-2.620039185708675,6.5
-50.5,-0.12271846303085132,5.6875
-36.0,-0.31906800388021317,1.625
-45.0,1.8407769454627694,4.0625
-49.0,-1.3744467859455345,6.5
-42.0,1.6689710972195775,5.6875
-48.5,-1.7303303287350031,5.6875
-46.5,1.4910293258248433,0.8125
-52.0,-0.5890486225480864,8.9375
-46.5,1.7426021750380887,-1.625
-38.5,-0.748582624488193,2.4375
-44.0,-1.748738098189631,7.3125
-43.5,0.25770877236478773,4.875
-40.5,0.9203884727313847,4.0625
-43.5,-1.1106020904292042,2.4375
-60.0,-1.7732817907958012,15.4375
-49.0,2.6384469551633027,5.6875
-39.0,0.8160777791551612,2.4375
-46.5,-0.3988350048502669,1.625
-60.5,-2.9820586516496865,-12.1875
-36.0,1.055378782065321,4.875
-45.0,1.88986433067511,-0.8125
-44.0,-1.2455923997631406,2.4375
-50.5,-0.3067961575771283,4.0625
-46.5,2.7550294950426117,-4.0625
-42.0,-0.9326603190344702,4.875
-43.5,-1.3008157081270237,0.8125
-49.0,-0.3988350048502667,4.875
-49.5,1.0492428589137786,8.125
-40.5,0.23930100291015988,7.3125
-48.5,-1.3621749396424492,9.75
-52.0,0.9326603190344698,8.9375
-44.0,-0.7301748550335652,4.875
-50.5,-0.24543692606170264,0.8125
-46.5,1.5769322499464393,4.875
-45.0,-0.04295146206079803,4.0625
-51.5,-0.5706408530934586,9.75
-44.0,-0.7117670855789375,2.4375
-49.5,-0.07363107781851075,1.625
-40.5,1.2333205534600555,4.875
-43.5,-1.1106020904292042,2.4375
-42.0,1.5217089415825562,6.5
-36.0,-2.159844949342983,5.6875
-49.5,1.5155730184310134,6.5
-39.0,0.8099418560036185,1.625
-43.5,-1.5094370952794707,6.5
-60.0,-1.8714565612204823,-5.6875
-48.5,1.4603497100671303,9.75
-46.0,2.681398417224101,-4.0625
-52.0,-1.7057866361288334,-0.8125
-42.0,0.7669903939428209,6.5
-49.0,-1.6751070203711205,5.6875
-49.5,1.0615147052168639,0.8125
-50.5,-1.2517283229146832,10.5625
-45.0,1.576932249946439,5.6875
-39.0,0.47860200582031975,1.625
-36.0,-2.3316507975861747,4.0625
-44.0,0.5951845456996288,1.625
-43.5,0.024543692606170397,2.4375
-46.5,2.4605051837685687,-4.875
-46.5,-1.1412817061869172,0.0
-60.5,-3.0372819600135696,8.125
-40.5,2.8347964960126646,6.5
-43.5,-0.926524395882927,7.3125
-49.0,-0.411106851153352,6.5
-60.0,-1.4358060174609601,-8.125
-52.0,2.356194490192345,4.875
-38.5,1.000155473701438,3.25
-49.5,-0.8038059328520757,6.5
-40.5,0.2270291566070748,6.5
-44.0,-0.9449321653375549,6.5
-36.5,-0.8099418560036187,6.5
-45.0,1.8837284075235672,4.875
-46.5,0.06135923151542588,-0.8125
-46.5,1.1351457830353744,0.0
-42.0,-0.9142525495798419,6.5
-49.0,-1.6628351740680352,4.875
-44.0,0.15339807878856404,1.625
-44.0,-0.06135923151542566,4.875
-50.5,-0.2822524649709579,7.3125
-48.5,0.10431069357622369,7.3125
-42.0,1.7548740213411733,5.6875
-48.5,-1.7548740213411733,8.125
-46.5,2.705942109830271,-9.75
-52.0,-1.7303303287350031,-3.25
-43.5,-0.5767767762450013,6.5
-50.5,-0.47860200582032,4.875
-44.0,0.2699806186678728,1.625
-45.0,1.2640001692177683,1.625
-40.5,-0.11658253987930856,6.5
-38.5,0.5645049299419158,5.6875
-36.0,-2.3316507975861747,7.3125
-60.0,-1.1044661672776617,8.9375
-49.0,1.607611865704152,5.6875
-46.5,1.3989904785517047,4.875
-49.0,-0.36815538909255396,5.6875
-44.0,-0.8835729338221294,4.875
-48.5,-0.23316507975861733,5.6875
-40.5,1.3499030933393643,4.0625
-39.0,0.5645049299419158,4.875
-44.0,-1.7610099444927159,8.125
-60.0,-1.7855536370988863,19.5
-49.0,1.705786636128833,6.5
-36.5,-0.4663301595172349,4.0625
-49.5,1.5155730184310137,7.3125
-46.5,0.4049709280018092,0.8125
-43.5,-1.104466167277662,4.875
-43.5,-0.18407769454627676,1.625
-45.0,1.2333205534600555,4.875
-42.0,0.30066023442558576,4.875
-46.5,0.9326603190344693,-1.625
-50.5,-2.822524649709579,12.1875
-52.0,1.0860583978230338,1.625
-38.5,0.95720401164064,2.4375
-46.5,0.8160777791551612,-9.75
-43.5,-2.509592568980909,2.4375
-40.5,1.104466167277662,6.5
-45.0,0.12885438618239364,5.6875
-42.0,0.29452431127404344,6.5
-50.0,-1.834641022311227,2.4375
-36.0,-0.3313398501832985,8.125
-46.5,1.9266798695843652,-0.8125
-48.5,-1.4971652489763856,4.0625
-49.0,0.08590292412159584,-0.8125
-49.0,1.0124273200045233,8.125
-60.0,-2.6691265709210157,12.1875
-52.0,2.4911847995262812,5.6875
-44.0,-0.748582624488193,0.8125
-43.5,0.23316507975861755,4.875
-46.5,1.0983302441261191,1.625
-36.5,-1.9144080232812803,1.625
-40.5,1.7426021750380887,4.0625
-42.0,0.41110685115335155,4.875
-46.5,0.9142525495798419,-2.4375
-49.5,-1.5278448647340985,4.875
-38.5,0.7608544707912781,3.25
-52.0,-0.9449321653375549,0.0
-61.0,-2.5770877236478773,21.125
-45.0,3.0679615757712826,7.3125
-44.0,-1.270136092369311,4.875
-43.5,0.2393010029101601,6.5
-44.0,-0.1963495408493623,2.4375
-48.5,-0.22089323345553202,7.3125
-51.0,-0.12271846303085132,9.75
-49.5,0.19021361769781953,8.125
-43.5,0.38042723539563905,0.8125
-36.0,-0.8344855486097889,0.0
-42.0,2.1353012567368124,5.6875
-46.5,-0.22702915660707523,-0.8125
-49.0,-1.4419419406125025,2.4375
-43.5,0.12271846303085132,5.6875
-45.0,1.2394564766115979,6.5
-40.5,-0.10431069357622347,4.875
-38.5,0.5767767762450009,3.25
-44.0,-1.7548740213411733,5.6875
-50.5,-0.25770877236478773,5.6875
-46.0,2.7857091108003242,-4.875
-49.5,-1.5585244804918115,4.875
-52.0,-0.19634954084936185,6.5
-60.5,-2.435961491162398,2.4375
-48.5,1.4910293258248433,7.3125
-39.0,1.920543946432823,3.25
-50.5,-1.9696313316451632,0.8125
-52.0,1.0001554737014378,2.4375
-40.0,0.3988350048502669,4.0625
-42.0,0.4049709280018092,7.3125
-44.0,-1.564660403643354,2.4375
-36.0,-0.5645049299419158,1.625
-49.5,1.4542137869155878,13.0
-43.5,-0.6504078540635119,2.4375
-46.5,2.2273401040099507,-1.625
-48.5,-2.644582878314845,8.125
-46.5,1.5033011721279284,1.625
-45.0,-0.07363107781851097,8.9375
-44.0,-1.2271846303085128,5.6875
-60.5,-1.5155730184310134,-22.75
-49.0,1.380582709097077,3.25
-43.5,0.12885438618239364,7.3125
-44.0,0.2147573103039897,4.875
-60.0,-1.969631331645163,13.0
-36.0,1.141281706186917,6.5
-49.5,1.521708941582556,8.125
-45.0,0.3558835427894689,5.6875
-46.5,0.04295146206079803,1.625
-44.0,-1.313087554430109,0.8125
-49.5,-0.14112623248547895,8.9375
-46.5,2.6384469551633027,-5.6875
-42.0,-0.926524395882927,2.4375
-40.5,-0.4172427743048943,2.4375
-38.5,0.5706408530934581,4.875
-48.5,-1.9082721001297374,7.3125
-50.5,-0.07363107781851075,0.0
-51.5,1.0185632431560658,0.8125
-45.0,0.5092816215780327,5.6875
-38.5,0.4417864669110645,5.6875
-60.5,-3.32567034813607,-8.9375
-44.0,1.5707963267948966,8.9375
-49.5,0.9940195505498952,4.875
-49.0,-1.0246991663076082,-2.4375
-36.5,-0.5154175447295755,4.0625
-42.0,2.141437179888355,8.125
-44.0,-1.5339807878856413,4.875
-46.5,2.478912953223196,-4.0625
-43.5,-2.270291566070749,1.625
-48.5,-0.4295146206079796,8.9375
-40.5,1.3437671701878215,4.875
-52.0,-0.39883500485026646,3.25
-51.0,-1.0246991663076084,5.6875
-46.5,1.5707963267948968,4.0625
-40.5,-0.14112623248547917,7.3125
-42.0,0.4049709280018092,3.25
-44.0,-1.5830681730979816,5.6875
-38.5,1.748738098189631,2.4375
-45.0,-0.44178646691106493,0.0
-49.5,-0.33133985018329826,7.3125
-46.5,0.38042723539563905,1.625
-36.0,-1.920543946432823,4.875
-44.0,0.8099418560036187,7.3125
-48.5,-0.39269908169872414,5.6875
-50.5,-0.11658253987930878,5.6875
-46.0,2.761165418194154,-5.6875
-52.0,-1.6689710972195777,-1.625
-43.5,-0.7731263170943632,4.875
-49.5,-0.1472621556370215,7.3125
-60.5,-1.5585244804918115,6.5
-43.5,1.6566992509164924,5.6875
-44.0,0.06749515466696843,1.625
-43.5,0.18407769454627676,4.875
-45.0,1.030835089459151,7.3125
-40.5,-0.116582539879309,5.6875
-36.0,-1.7610099444927159,8.9375
-49.5,1.552388557340269,5.6875
-46.5,0.38042723539563905,0.0
-42.0,0.25770877236478773,2.4375
-39.0,0.15339807878856382,2.4375
-46.5,0.7792622402459055,-4.0625
-52.0,-1.7303303287350027,1.625
-49.0,-0.9817477042468106,7.3125
-60.0,-1.5585244804918115,10.5625
-50.5,1.5033011721279284,8.125
-49.0,0.14726215563702172,5.6875
-48.5,-0.04908738521234057,1.625
-49.0,1.1351457830353744,0.0
-44.0,-0.9633399347921827,6.5
-49.0,-0.12885438618239364,3.25
-44.0,0.09203884727313838,6.5
-43.5,0.2822524649709579,0.0
-45.0,1.0246991663076082,1.625
-60.5,-3.037281960013569,19.5
-36.0,1.1596894756415446,6.5
-50.5,0.3067961575771283,7.3125
-38.5,2.018718716857504,1.625
-40.5,-0.5951845456996288,8.9375
-46.5,0.19021361769781953,-0.8125
-42.0,0.23316507975861755,6.5
-52.0,-0.7608544707912781,-2.4375
-46.5,1.7119225592803753,-8.125
-44.0,-2.2580197197676632,0.0
-50.5,-0.5154175447295757,5.6875
-48.5,0.07976700097005351,10.5625
-49.0,0.055223308363882895,5.6875
-60.0,-1.5155730184310134,-16.25
-38.5,3.362485887045325,2.4375
-40.5,-0.5706408530934586,4.0625
-49.5,-0.19021361769781953,6.5
-52.0,-0.20862138715244694,8.9375
-36.0,-1.3314953238847367,4.0625
-44.0,0.5706408530934586,4.875
-43.5,0.04295146206079803,2.4375
-42.0,1.5278448647340985,7.3125
-46.5,-0.23316507975861755,0.8125
-45.0,-0.0674951546669682,7.3125
-46.5,1.2087768608538858,1.625
-44.0,-2.2396119503130367,6.5
-38.5,1.497165248976386,6.5
-46.0,0.7608544707912777,-1.625
-40.0,-1.3314953238847362,4.875
-50.5,-1.4542137869155878,8.125
-44.0,0.2822524649709579,6.5
-36.0,-0.564504929941916,3.25
-42.0,2.147573103039898,2.4375
-52.0,-0.8283496254582463,6.5
-45.0,0.5338253141842029,5.6875
-46.5,0.05522330836388312,1.625
-43.5,-1.2885438618239387,4.0625
-49.0,-0.14726215563702127,3.25
-48.5,-0.07363107781851075,4.875
-49.0,1.1044661672776614,10.5625
-60.0,-2.5586799541932495,-1.625
-36.5,1.0615147052168639,4.0625
-40.5,1.7303303287350031,4.0625
-39.0,0.5706408530934586,1.625
-45.0,-0.45405831321415,4.875
-42.0,0.29452431127404344,3.25
-44.0,-1.5155730184310134,0.0
-46.5,1.2578642460662257,1.625
-46.5,1.2026409377023421,-12.1875
-52.0,-1.7487380981896306,4.875
-49.5,0.19634954084936185,7.3125
-44.0,-0.9878836273983527,6.5
-49.5,-0.09817477042468115,8.125
-43.5,0.34974761963792633,6.5
-59.5,-1.902136176978195,-2.4375
-50.5,1.3928545554001621,8.125
-48.5,0.12885438618239387,5.6875
-43.5,0.39269908169872414,3.25
-50.5,-0.5154175447295755,6.5
-46.5,2.718213956133356,2.4375
-36.5,-3.031146036862027,4.875
-42.0,2.1537090261914402,6.5
-44.0,-1.5585244804918115,1.625
-40.5,1.1474176293384595,5.6875
-59.5,-2.8409324191642074,5.6875
-48.5,1.5094370952794711,4.875
-43.5,0.22089323345553202,4.875
-49.5,-0.15953400194010658,6.5
-38.5,1.8407769454627694,4.875
-49.5,-0.7792622402459055,8.9375
-52.0,-0.19021361769781953,0.0
-45.5,0.5399612373357456,1.625
-46.5,0.03681553890925526,0.0
-46.0,1.1535535524900022,-0.8125
-50.5,-2.742757648739526,6.5
-49.5,1.1596894756415448,10.5625
-52.0,-0.15953400194010658,7.3125
-36.0,-1.3437671701878218,7.3125
-40.5,1.7671458676442588,4.0625
-38.5,0.5522330836388307,5.6875
-42.0,-0.15953400194010658,8.125
-49.0,-1.65056332776495,4.875
-60.0,-1.607611865704152,1.625
-44.0,1.9328157927359078,5.6875
-46.5,1.0799224746714917,4.875
-48.5,-1.497165248976386,8.125
-45.0,1.4480778637640452,7.3125
-44.0,-1.2824079386723959,3.25
-43.5,0.0674951546669682,2.4375
-48.0,-0.23316507975861755,6.5
-50.0,-0.11044661672776601,10.5625
-44.0,0.2822524649709579,7.3125
-49.5,-0.12271846303085132,10.5625
-43.5,0.1718058482431919,5.6875
-39.0,1.6873788666742051,3.25
-40.5,-0.5767767762450009,5.6875
-36.5,-1.7426021750380885,8.125
-44.0,0.816077779155161,6.5
-49.5,0.7179030087304801,10.5625
-45.0,0.3190680038802136,6.5
-60.5,-3.0004664211043144,14.625
-52.5,2.540272184738622,-0.8125
-46.5,0.5092816215780327,6.5
-46.5,1.208776860853885,-2.4375
-42.0,-0.9510680884890972,5.6875
-46.5,0.8713010875190443,4.875
-36.5,-3.0250101137104846,5.6875
-43.5,0.6504078540635119,0.0
-40.5,1.0921943209745764,6.5
-43.5,-0.9326603190344698,4.875
-39.0,1.5155730184310134,3.25
-52.0,-1.000155473701438,8.125
-44.0,-0.7547185476397353,10.5625
-42.0,1.5892040962495244,6.5
-48.5,-1.7548740213411738,8.9375
-45.0,1.4603497100671303,4.875
-50.5,-1.5217089415825558,0.8125
-49.0,0.12885438618239364,3.25
-49.5,1.0921943209745768,4.875
-59.5,-2.7120780329818137,9.75
-46.5,3.074097498922825,0.8125
-42.0,0.23316507975861755,5.6875
-48.5,-1.7426021750380885,6.5
-46.5,2.699806186678728,-8.9375
-46.5,-1.2455923997631406,8.125
-44.0,-1.270136092369311,2.4375
-36.0,-0.5951845456996288,4.0625
-44.0,0.638136007760427,0.8125
-50.5,-0.3313398501832987,6.5
-44.0,0.4908738521234053,8.125
-49.0,-0.30066023442558576,0.0
-52.0,0.7792622402459055,16.25
-45.0,0.5829126993965437,5.6875
-40.0,-0.11044661672776579,4.875
-60.5,-2.82252464970958,-0.8125
-39.0,3.380893656499953,6.5
-49.5,-0.7731263170943632,9.75
-48.5,-1.1474176293384595,9.75
-52.0,0.9633399347921827,0.8125
-46.5,1.718058482431918,0.8125
-38.5,-0.748582624488193,1.625
-49.0,-1.859184714917397,9.75
-40.5,1.270136092369311,6.5
-49.5,-0.16566992509164935,1.625
-44.0,-0.7363107781851075,1.625
-43.5,-0.2638446955163305,6.5
-42.0,1.5892040962495244,6.5
-45.0,-0.29452431127404344,5.6875
-36.5,-1.859184714917397,4.875
-50.5,0.3067961575771283,6.5
-46.5,1.5953400194010667,0.0
-59.5,-2.957514959043516,-9.75
-43.5,1.693514789825748,0.8125
-49.5,0.8958447801252141,4.875
-46.5,0.38042723539563905,4.875
-44.0,-1.3437671701878215,4.875
-42.0,1.595340019401067,4.875
-46.5,0.8958447801252145,-4.0625
-36.0,-3.0556897294681975,1.625
-52.5,1.3928545554001621,-2.4375
-50.5,-1.1474176293384595,13.0
-60.0,-1.368310862793992,5.6875
-38.5,3.429981041712294,1.625
-43.5,-1.497165248976386,3.25
-40.5,0.9265243958829275,5.6875
-48.5,-1.3499030933393643,7.3125
-43.5,0.23316507975861733,2.4375
-49.0,-0.14112623248547873,0.8125
-45.0,1.368310862793992,7.3125
-49.0,-1.3867186322486198,6.5
-59.5,-1.5953400194010667,2.4375
-46.5,4.2031073588066565,-4.0625
-43.5,-2.4420974143139405,1.625
-45.0,1.2026409377023426,12.1875
-48.5,-1.4112623248547898,4.0625
-36.5,-0.4295146206079796,4.875
-42.0,2.1537090261914402,5.6875
-38.5,0.15953400194010658,2.4375
-43.5,-1.5033011721279284,4.875
-50.5,-0.5399612373357456,13.0
-40.5,1.466485633218673,6.5
-49.5,-0.1840776945462772,1.625
-46.5,0.36201946594101164,2.4375
-51.5,-0.5338253141842033,0.8125
-44.0,-0.8038059328520759,3.25
-40.5,1.1780972450961726,2.4375
-46.5,0.14112623248547873,2.4375
-48.5,-1.5033011721279284,7.3125
-50.5,-0.03681553890925526,-0.8125
-44.0,0.4786020058203202,2.4375
-42.0,1.3130875544301088,4.875
-60.0,-3.233631500862932,-2.4375
-49.0,1.5523885573402687,5.6875
-46.5,2.63231103201176,-4.875
-49.5,-1.589204096249524,9.75
-44.0,-0.9265243958829275,2.4375
-38.5,1.7303303287350031,4.875
-36.5,-2.319378951283089,6.5
-52.0,1.3805827090970773,-2.4375
-43.5,-0.7363107781851079,0.0
-45.5,1.2333205534600555,4.0625
-60.0,-3.0004664211043144,8.9375
-42.0,3.2765829629237295,6.5
-46.5,-0.23930100291016032,-0.8125
-36.0,-1.9144080232812801,6.5
-52.0,1.3437671701878215,5.6875
-48.5,-0.9387962421860123,8.9375
-38.5,1.9144080232812801,3.25
-40.5,-0.558369006790373,4.0625
-43.5,-1.1351457830353748,7.3125
-49.5,0.9387962421860125,2.4375
-44.0,-0.9756117810952678,4.875
-46.0,2.4789129532231966,-1.625
-43.5,-2.2396119503130367,5.6875
-45.0,1.030835089459151,5.6875
-49.0,-1.3560390164909066,0.8125
-50.5,-0.19021361769781953,4.0625
-44.0,0.2699806186678728,4.875
-40.0,1.184233168247715,5.6875
-50.5,-1.4480778637640452,7.3125
-46.5,1.6137477888556946,-0.8125
-42.0,0.23930100291015988,3.25
-44.0,-1.5585244804918115,8.125
-38.5,1.705786636128833,4.875
-49.0,-0.7731263170943632,2.4375
-60.0,-2.5341362615870793,-14.625
-45.0,2.8716120349219203,0.8125
-36.0,-1.871456561220482,4.875
-48.5,0.39269908169872414,8.125
-49.0,0.10431069357622369,0.0
-46.0,2.5954954931025047,-2.4375
-44.0,-2.2764274892222915,6.5
-52.0,0.5583690067903735,0.8125
-46.5,0.5583690067903735,-1.625
-36.5,-1.9389517158874505,5.6875
-49.5,0.47246608266877743,3.25
-38.5,1.8407769454627694,3.25
-42.0,-0.15953400194010658,5.6875
-43.5,-1.3437671701878218,5.6875
-40.5,0.9449321653375553,4.875
-48.5,-1.356039016490907,10.5625
-43.5,0.23316507975861733,2.4375
-49.0,0.8958447801252145,4.0625
-44.0,-0.9326603190344698,1.625
-50.5,-0.30066023442558554,8.9375
-46.5,2.7979809571034098,-5.6875
-45.0,-1.2149127840054281,6.5
-60.5,-2.988194574801229,4.0625
-52.0,2.442097414313941,6.5
-48.5,-0.9387962421860125,8.9375
-44.0,0.4172427743048943,8.125
-38.5,1.5033011721279284,4.875
-36.0,-2.319378951283089,8.9375
-49.0,1.521708941582556,5.6875
-40.0,0.23316507975861755,5.6875
-52.0,-0.3313398501832987,-4.875
-50.5,-1.0921943209745764,2.4375
-42.0,1.8285050991596843,5.6875
-45.0,-0.294524311274043,5.6875
-44.0,-1.3069516312785663,8.125
-44.0,0.07976700097005307,6.5
-46.5,1.2762720155208536,4.875
-60.0,-3.067961575771282,9.75
-49.0,1.619883712007237,6.5
-46.5,2.6384469551633027,-2.4375
-40.5,-1.349903093339364,6.5
-36.0,-1.7426021750380885,5.6875
-42.0,2.1598449493429825,3.25
-48.5,-1.7487380981896308,4.875
-43.5,0.41110685115335177,5.6875
-44.0,-0.19021361769781953,4.0625
-49.0,-0.16566992509164935,3.25
-46.5,2.6261751088602177,-4.0625
-49.0,-1.5830681730979816,6.5
-44.0,-0.9387962421860123,5.6875
-45.0,1.2885438618239384,4.0625
-52.0,-0.4847379289718625,3.25
-46.5,0.5276893910326605,0.0
-39.0,0.39269908169872414,5.6875
-50.5,-1.9512235621905354,0.8125
-60.5,-1.5033011721279284,6.5
-49.5,2.6998061866787286,4.0625
-38.5,0.7731263170943632,0.8125
-40.5,-0.5706408530934586,4.0625
-36.0,-1.761009944492716,7.3125
-45.0,1.8775924843720246,5.6875
-44.0,-1.3008157081270235,6.5
-50.5,-0.22089323345553225,0.0
-49.5,0.1472621556370215,2.4375
-49.0,-0.07363107781851075,7.3125
-42.0,1.7303303287350034,5.6875
-46.5,-0.22702915660707523,-0.8125
-43.5,-1.294679784975481,4.875
-43.5,0.2024854640009046,5.6875
-52.0,0.5767767762450009,-1.625
-46.5,1.67510702037112,-1.625
-59.5,-4.184699589352029,0.8125
-42.0,3.2520392703175593,5.6875
-40.0,-0.3865631585471818,0.8125
-48.5,-1.337631247036279,4.0625
-36.0,-0.411106851153352,4.0625
-50.5,0.3558835427894689,1.625
-45.0,1.4971652489763856,4.0625
-44.0,-1.2824079386723959,3.25
-38.5,1.7303303287350031,2.4375
-43.5,-1.4910293258248433,2.4375
-46.0,2.245747873464579,0.0
-49.0,-1.5339807878856413,4.875
-46.5,0.4295146206079794,-5.6875
-52.0,-0.6135923151542566,3.25
-49.0,-0.8713010875190439,5.6875
-44.0,0.1472621556370215,5.6875
-60.0,-1.7855536370988863,13.0
-44.0,2.012582793705961,0.8125
-46.5,1.0676506283684062,2.4375
-36.5,-1.9205439464328227,4.875
-42.5,2.1537090261914402,6.5
-39.0,0.15953400194010658,3.25
-59.5,-3.4729325037730914,14.625
-44.0,1.7426021750380882,6.5
-40.5,1.1780972450961724,4.875
-43.5,-1.129009859883832,4.875
-45.0,1.2333205534600555,8.125
-46.5,1.245592399763141,-4.875
-49.0,-1.5953400194010672,5.6875
-48.5,-1.098330244126119,7.3125
-49.0,0.03681553890925526,8.9375
-52.0,0.9142525495798421,4.875
-50.5,-1.0492428589137786,6.5
-46.5,1.62601963515878,-1.625
-48.5,-1.540116711037184,4.875
-44.0,0.42951462060797985,4.875
-44.0,-0.23930100291016032,2.4375
-40.0,1.159689475641545,5.6875
-49.5,-0.24543692606170264,6.5
-36.0,-1.5033011721279286,5.6875
-46.5,3.0925052683774528,-2.4375
-39.0,-0.7853981633974483,3.25
-60.0,-3.380893656499953,-7.3125
-44.0,1.7241944055834608,0.0
-51.0,-0.32520392703175616,1.625
-49.0,0.14726215563702172,5.6875
-45.0,1.3989904785517044,4.0625
-42.0,0.28225246497095835,4.875
-52.0,-0.7669903939428209,3.25
-44.5,0.47246608266877743,5.6875
-44.0,-1.2271846303085128,2.4375
-48.5,-0.18407769454627698,4.875
-46.5,2.6077673394055907,0.8125
-44.0,-2.4789129532231966,5.6875
-49.0,0.9326603190344698,7.3125
-42.0,0.6688156235181397,-0.8125
-46.5,-0.2515728492132454,0.0
-40.5,-0.19021361769781953,8.9375
-39.0,0.5767767762450013,2.4375
-36.5,-2.3071071049800045,4.875
-44.0,0.8099418560036185,7.3125
-59.5,-1.9450876390389928,-4.875
-52.0,2.509592568980909,0.8125
-50.5,-1.043106935762236,4.0625
-49.0,0.14112623248547895,3.25
-42.0,1.6935147898257477,4.875
-49.0,-1.7487380981896308,11.375
-49.0,1.0001554737014382,15.4375
-43.5,-0.6074563920027143,5.6875
-50.5,-0.5031456984264902,9.75
-46.5,1.6198837120072371,0.8125
-40.5,-0.18407769454627676,7.3125
-36.0,-1.7610099444927163,6.5
-39.0,2.319378951283089,5.6875
-44.0,-1.6873788666742051,5.6875
-44.0,-0.036815538909255485,2.4375
-46.5,2.4727770300716543,1.625
-45.0,-1.202640937702343,5.6875
-48.5,-1.4173982480063325,1.625
-59.5,-1.6014759425526095,7.3125
-52.0,2.5157284921324514,5.6875
-36.0,-1.3560390164909069,4.0625
-50.5,0.3190680038802134,8.9375
-46.5,1.6198837120072371,0.8125
-44.0,-1.3560390164909069,5.6875
-45.0,1.3008157081270237,6.5
-49.0,-1.380582709097077,3.25
-49.0,0.969475857943725,10.5625
-46.5,1.6505633277649499,-4.875
-42.5,-0.969475857943725,7.3125
-60.0,-3.393165502803038,4.875
-40.5,2.9943304979527716,4.875
-52.0,-0.36201946594101164,2.4375
-43.5,-0.5767767762450009,5.6875
-38.5,1.5094370952794707,1.625
-43.5,-1.705786636128833,8.9375
-48.5,-0.20862138715244694,9.75
-46.5,1.5278448647340985,0.0
-44.0,-1.2885438618239387,1.625
-49.0,-0.1472621556370215,3.25
-52.0,0.8713010875190443,5.6875
-45.0,0.5031456984264899,6.5
-40.5,-0.0981747704246807,4.875
-42.0,0.38042723539563905,5.6875
-36.0,-2.1659808724945258,5.6875
-50.5,0.32520392703175593,8.125
-39.0,2.0125827937059615,1.625
-44.0,-1.5155730184310134,6.5
-44.0,-0.21475731030398992,4.875
-48.5,-0.17180584824319167,7.3125
-59.0,-1.6444274046134073,7.3125
-49.0,2.693670263527186,12.1875
-46.5,1.6076118657041523,-2.4375
-36.0,-3.0986411915289955,5.6875
-44.0,0.6688156235181397,0.8125
-46.5,1.3008157081270237,-1.625
-59.0,-3.0986411915289955,-4.0625
-43.5,1.975767254796706,2.4375
-50.5,-0.4479223900626075,-1.625
-49.0,0.08590292412159584,6.5
-46.5,2.681398417224101,-12.1875
-40.0,-1.3928545554001626,4.0625
-44.0,-1.1535535524900022,0.8125
-45.0,1.2640001692177685,5.6875
-49.0,-0.3742913122440963,5.6875
-52.0,-0.1288543861823941,3.25
-49.0,-0.9510680884890974,7.3125
-42.5,1.7364662518865457,8.125
-38.5,0.15339807878856426,6.5
-46.0,0.7976700097005329,-4.0625
-48.5,-2.6875343403756426,5.6875
-36.0,-0.40497092800180945,1.625
-44.0,0.5583690067903735,5.6875
-49.0,0.9265243958829275,7.3125
-59.0,-2.6752624940725585,-4.875
-40.5,2.9391071895888885,6.5
-39.0,0.5645049299419158,2.4375
-42.5,-0.1656699250916489,8.125
-43.5,-1.3376312470362794,5.6875
-46.5,1.129009859883832,0.8125
-49.0,-1.4726215563702154,6.5
-52.0,0.9019807032767568,7.3125
-45.0,0.5031456984264904,5.6875
-50.5,-1.5401167110371836,4.875
-43.5,0.2822524649709579,6.5
-40.5,1.129009859883832,7.3125
-59.5,-2.9452431127404313,-2.4375
-44.0,1.7855536370988863,1.625
-49.0,-0.2024854640009046,8.9375
-45.0,1.4910293258248433,5.6875
-39.0,0.4295146206079794,5.6875
-36.5,-2.3071071049800045,4.0625
-50.5,0.3190680038802134,6.5
-46.5,1.6014759425526095,1.625
-43.5,-1.2885438618239387,1.625
-43.5,0.17180584824319167,6.5
-49.0,0.6872233929727676,7.3125
-42.0,0.6688156235181393,5.6875
-46.5,0.9387962421860121,-2.4375
-49.0,-2.6384469551633023,5.6875
-52.0,0.9203884727313849,4.875
-43.5,-0.5522330836388307,3.25
-42.0,1.325359400733194,2.4375
-43.5,-1.5339807878856413,7.3125
-46.0,2.4605051837685687,-0.8125
-44.0,-2.509592568980909,3.25
-51.5,0.8099418560036187,6.5
-48.5,-0.9510680884890976,5.6875
-44.5,1.454213786915588,4.0625
-46.5,0.05522330836388312,-1.625
-39.0,0.3804272353956386,3.25
-40.5,-0.558369006790373,6.5
-36.0,-1.779417713947344,8.125
-50.0,0.2945243112740432,12.1875
-49.0,0.19634954084936207,1.625
-49.0,1.000155473701438,8.125
-59.5,-2.6016314162540475,-8.9375
-44.0,1.761009944492716,4.0625
-49.0,-0.1718058482431919,3.25
-45.0,1.4235341711578753,4.0625
-50.5,-1.5155730184310137,-0.8125
-44.0,0.17794177139473444,8.9375
-36.5,-0.5399612373357459,1.625
-42.0,2.141437179888355,6.5
-60.0,-3.32567034813607,6.5
-43.5,2.018718716857504,0.8125
-40.5,0.9203884727313847,5.6875
-52.0,-0.3988350048502669,4.875
-49.0,0.10431069357622347,7.3125
-39.0,0.8406214717613314,3.25
-49.0,-1.871456561220482,5.6875
-46.0,2.6629906477694725,-3.25
-46.5,-1.1719613219446297,0.0
-44.0,-1.3437671701878215,3.25
-39.0,1.7364662518865457,2.4375
-40.0,-0.5645049299419158,6.5
-59.5,-3.0250101137104846,8.125
-48.5,1.6751070203711202,8.125
-46.5,1.5339807878856413,-0.8125
-36.0,-1.9266798695843654,2.4375
-45.0,1.8775924843720246,1.625
-42.0,0.2699806186678728,5.6875
-49.0,-0.6994952392758522,8.9375
-46.0,1.6628351740680354,-8.125
-43.5,-2.4973207226778245,4.875
-52.0,0.7976700097005338,-3.25
-43.5,-0.5951845456996288,3.25
-50.5,-0.5154175447295757,8.9375
-49.0,0.16566992509164935,2.4375
-42.5,1.6751070203711202,5.6875
-44.0,-1.5707963267948968,1.625
-40.5,1.1780972450961726,6.5
-36.0,-1.7732817907958014,6.5
-43.5,0.6381360077604266,4.875
-39.0,1.6751070203711205,3.25
-46.5,0.7669903939428204,-0.8125
-44.0,-2.2580197197676637,5.6875
-45.0,1.0921943209745764,1.625
-46.5,0.049087385212340795,-1.625
-48.5,-1.5339807878856413,2.4375
-49.0,0.0674951546669682,1.625
-52.0,0.9142525495798419,-0.8125
-49.0,0.09203884727313882,1.625
-50.5,-1.159689475641545,4.875
-59.0,-1.4664856332186729,-1.625
-49.0,1.6198837120072371,1.625
-36.5,-0.49700977527494783,4.875
-44.0,0.6442719309119693,5.6875
-42.0,1.5217089415825562,6.5
-52.0,-0.7853981633974483,8.9375
-46.5,0.5706408530934586,1.625
-40.5,-0.16566992509164935,5.6875
-39.0,0.5338253141842029,4.875
-46.5,0.7424467013366502,4.875
-44.0,-2.4727770300716534,3.25
-43.5,0.23930100291015988,2.4375
-48.5,-0.4601942363656921,13.0
-50.5,-0.05522330836388312,8.9375
-49.0,1.1780972450961722,4.0625
-59.5,-2.705942109830271,4.875
-45.0,3.098641191528995,8.125
-52.0,-0.47860200582031975,2.4375
-40.0,0.38042723539563905,4.0625
-59.5,-3.018874190558942,13.0
-43.5,1.8653206380689398,5.6875
-46.5,1.294679784975481,5.6875
-36.0,-1.9328157927359078,8.125
-45.0,1.8898643306751097,6.5
-38.5,0.42951462060797985,5.6875
-48.5,-1.88986433067511,8.125
-50.5,-0.09817477042468115,7.3125
-49.0,1.165825398793087,4.875
-44.0,-0.8958447801252143,2.4375
-42.0,1.5585244804918117,6.5
-46.5,0.9203884727313847,2.4375
-43.5,-2.245747873464579,4.875
-49.0,-0.31906800388021317,1.625
-58.5,-1.7119225592803755,8.9375
-40.5,2.9697868053466014,8.125
-46.0,1.3560390164909069,-6.5
-39.0,-0.8038059328520761,4.875
-49.0,-1.9144080232812801,9.75
-42.0,1.7610099444927163,4.875
-43.5,-1.3499030933393645,6.5
-52.0,0.5583690067903735,2.4375
-44.0,-0.7240389318820224,2.4375
-36.0,-0.6442719309119695,4.875
-44.0,0.5706408530934586,5.6875
-45.0,1.325359400733194,2.4375
-49.0,-1.4419419406125027,8.125
-49.5,1.0124273200045233,8.125
-46.0,0.4786020058203202,0.8125
-50.5,-1.6321555583103224,9.75
-43.5,0.4786020058203202,7.3125
-36.5,-0.8099418560036187,8.125
-39.0,2.319378951283089,5.6875
-50.5,-1.9696313316451632,2.4375
-49.0,1.153553552490002,4.0625
-46.5,0.4663301595172351,0.0
-59.0,-3.06182565261974,-8.9375
-49.0,1.564660403643354,6.5
-44.5,1.4358060174609604,4.0625
-51.5,-0.4908738521234053,0.0
-46.5,1.6996507129772902,-4.875
-44.0,-2.466641106920111,2.4375
-42.5,1.527844864734099,6.5
-44.0,-1.595340019401067,5.6875
-40.0,1.2026409377023428,4.875
-48.5,-1.3560390164909069,7.3125
-48.5,0.0,4.875
-46.5,2.6813984172241008,-0.8125
-40.0,-1.325359400733194,5.6875
-49.0,-0.29452431127404344,4.875
-42.0,0.6994952392758527,3.25
-59.5,-3.2397674240144743,-13.8125
-52.0,2.448233337465483,5.6875
-39.0,0.9387962421860125,3.25
-45.0,-0.4295146206079794,7.3125
-43.5,-1.313087554430109,4.875
-44.0,0.28225246497095813,1.625
-36.0,-0.8590292412159592,4.875
-49.0,0.5031456984264904,2.4375
-43.5,0.11658253987930856,5.6875
-46.5,1.3130875544301088,0.8125
-50.5,-1.6076118657041518,7.3125
-60.0,-1.478757479521758,-7.3125
-36.0,1.153553552490002,4.875
-45.0,1.8837284075235674,5.6875
-46.5,1.2517283229146834,-6.5
-52.0,-1.7426021750380887,5.6875
-49.0,-0.9326603190344698,6.5
-42.0,1.6996507129772906,4.875
-50.5,-1.7978254834019716,-2.4375
-40.5,1.4112623248547898,4.875
-43.5,-1.1351457830353744,4.0625
-43.5,0.1963495408493623,1.625
-44.0,-0.23930100291016032,2.4375
-39.0,1.7303303287350031,2.4375
-49.0,-0.8283496254582459,8.9375
-46.5,0.42337869745643664,4.0625
-48.5,-1.5278448647340985,10.5625
-39.0,1.9389517158874505,0.8125
-51.0,-1.9757672547967058,2.4375
-45.0,1.5217089415825558,6.5
-44.0,-1.2885438618239384,3.25
-59.5,-1.6873788666742051,-13.0
-43.5,1.9021361769781953,6.5
-40.5,0.9633399347921827,6.5
-48.5,-1.3805827090970773,9.75
-42.0,1.7794177139473437,4.875
-46.5,0.9694758579437255,-5.6875
-44.0,-2.497320722677824,2.4375
-36.0,-0.6442719309119693,5.6875
-49.0,0.4663301595172349,8.9375
-46.5,1.484893402673301,0.8125
-49.0,-0.44178646691106493,7.3125
-52.0,-0.14112623248547873,10.5625
-46.5,0.5951845456996288,-0.8125
-40.5,-0.19021361769781953,4.875
-44.5,0.1349903093339364,1.625
-50.5,-1.5830681730979819,8.125
-39.0,2.000310947402876,3.25
-46.5,0.7976700097005334,-5.6875
-36.0,-3.1231848841351653,5.6875
-42.5,2.172116795646068,7.3125
-49.0,-1.7487380981896308,7.3125
-52.0,0.9449321653375551,9.75
-49.0,-0.9019807032767573,7.3125
-44.0,0.39269908169872414,0.0
-44.0,-0.2270291566070748,4.875
-49.0,0.8160777791551612,13.0
-43.5,-0.8713010875190443,7.3125
-59.0,-1.761009944492716,0.0
-52.0,2.5157284921324514,8.9375
-58.5,-2.4850488763747385,-5.6875
-44.0,1.957359485342078,8.9375
-44.0,-0.22089323345553225,4.875
-39.0,1.7426021750380885,4.875
-51.0,-1.9819031779482486,4.0625
-44.0,0.3067961575771285,-1.625
-36.0,-0.6442719309119695,4.875
-48.5,0.4049709280018092,5.6875
-46.5,2.6875343403756435,-0.8125
-45.0,-1.1903690913992575,2.4375
-42.0,0.26384469551633005,7.3125
-40.0,-0.41110685115335155,8.125
-49.0,-1.257864246066226,2.4375
-49.5,1.0062913968529805,5.6875
-46.5,0.4295146206079794,1.625
-45.0,-0.03681553890925526,4.0625
-59.5,-3.055689729468197,2.4375
-44.0,1.7426021750380882,1.625
-46.5,1.3560390164909069,0.8125
-36.0,-1.9266798695843654,4.875
-49.0,0.49700977527494783,-0.8125
-44.0,0.3190680038802134,2.4375
-52.0,0.5215534678811178,8.125
-50.5,-0.9940195505498952,2.4375
-44.0,0.27611654181941514,2.4375
-40.5,1.14741762933846,4.0625
-48.5,-1.3499030933393643,4.0625
-46.5,2.718213956133356,-8.125
-42.0,-0.9817477042468101,5.6875
-38.5,0.16566992509164935,3.25
-49.0,-0.8283496254582463,4.0625
-46.5,0.44178646691106493,0.0
-44.0,-1.3130875544301093,4.875
-39.0,1.6996507129772906,1.625
-49.0,-0.8344855486097886,4.0625
-42.0,0.674951546669682,7.3125
-46.5,0.9510680884890972,-4.0625
-40.5,-1.349903093339364,4.875
-49.0,-1.2885438618239384,2.4375
-48.5,-0.04295146206079803,2.4375
-52.0,0.9265243958829272,7.3125
-36.0,-1.3437671701878215,2.4375
-44.0,0.5706408530934584,1.625
-59.0,-1.8346410223112268,13.0
-50.5,1.5585244804918115,4.0625
-44.0,0.48473792897186274,7.3125
-45.0,1.0921943209745764,4.0625
-44.0,-1.2701360923693108,6.5
-39.0,1.7119225592803753,1.625
-52.0,-0.9633399347921823,5.6875
-43.5,-0.5460971604872884,2.4375
-40.5,0.9449321653375549,4.875
-49.0,-1.2701360923693108,4.875
-44.0,0.09817477042468092,0.0
-42.5,1.5585244804918117,6.5
-36.0,-2.159844949342983,6.5
-46.5,1.9266798695843654,4.875
-45.0,-0.05522330836388312,8.9375
-59.0,-3.0250101137104846,-5.6875
-50.5,1.509437095279471,0.0
-49.0,1.1044661672776614,14.625
-46.5,1.6137477888556946,4.875
-48.5,-2.650718801466388,7.3125
-51.5,0.9510680884890976,4.875
-36.0,-1.3683108627939922,2.4375
-49.0,1.478757479521758,7.3125
-42.5,0.6933593161243099,5.6875
-50.5,-1.828505099159684,2.4375
-46.5,1.607611865704152,0.0
-40.5,-0.1840776945462772,4.875
-59.5,-2.9759227284981438,5.6875
-45.0,3.0925052683774528,6.5
-44.0,-1.3069516312785665,5.6875
-43.5,0.2515728492132454,3.25
-39.0,1.5094370952794707,2.4375
-49.0,-1.9389517158874505,8.9375
-44.0,0.23930100291016032,0.8125
-46.5,2.485048876374739,-4.875
-49.0,-2.6445828783148455,0.8125
-45.0,1.3989904785517047,4.0625
-36.0,-1.8653206380689396,1.625
-44.0,0.6197282383057989,4.875
-49.0,-0.15953400194010658,8.9375
-46.5,1.4603497100671303,0.8125
-59.5,-3.043417883165112,-6.5
-44.0,1.67510702037112,5.6875
-46.5,2.5525440310417067,-2.4375
-39.0,-0.7792622402459055,0.8125
-50.0,-2.018718716857504,6.5
-40.0,1.4480778637640452,4.0625
-48.5,-1.3621749396424492,5.6875
-43.5,0.4172427743048943,3.25
-42.0,1.3560390164909069,2.4375
-52.0,-0.7669903939428209,-4.875
-49.0,0.08590292412159606,4.0625
-40.5,0.2699806186678728,4.875
-36.0,-1.7671458676442586,4.875
-45.0,1.8837284075235676,5.6875
-49.0,-0.39269908169872414,7.3125
-48.5,-1.0983302441261193,8.9375
-46.5,1.5278448647340988,1.625
-52.0,-0.5645049299419158,8.125
-44.0,-0.7424467013366507,4.0625
-42.0,1.5462526341887264,5.6875
-39.0,0.15953400194010658,4.875
-46.5,0.7792622402459055,-0.8125
-43.5,-2.294835258676919,7.3125
-50.0,-0.47860200582032,6.5
-59.5,-1.5155730184310134,4.875
-49.0,1.6689710972195777,2.4375
-44.0,0.09817477042468092,4.875
-43.5,0.23930100291015988,4.875
-45.0,1.073786551519949,2.4375
-49.0,-0.4172427743048943,8.125
-39.0,0.8406214717613314,3.25
-36.0,-2.3193789512830896,4.0625
-44.0,0.6258641614573417,4.0625
-40.5,1.1351457830353744,7.3125
-44.0,-1.1719613219446299,4.875
-46.5,1.3376312470362792,0.0
-42.5,0.23316507975861755,5.6875
-49.0,-1.7610099444927163,8.125
-49.5,0.08590292412159606,5.6875
-50.5,-0.0920388472731386,-4.0625
-52.0,0.9878836273983529,1.625
-46.5,1.7119225592803757,-0.8125
-59.0,-4.276738436625168,-1.625
-46.5,3.1231848841351653,-1.625
-42.0,0.2270291566070748,3.25
-43.5,-1.337631247036279,3.25
-43.5,-0.2024854640009046,4.0625
-50.5,-0.23316507975861755,-2.4375
-44.0,0.19021361769781953,7.3125
-49.5,-0.09817477042468092,2.4375
-52.0,0.9019807032767571,3.25
-48.5,-0.9756117810952678,8.9375
-45.0,1.4664856332186726,4.875
-40.5,-0.11658253987930856,7.3125
-46.5,1.3499030933393645,-4.875
-36.0,-3.1047771146805383,2.4375
-39.0,2.3071071049800045,6.5
-59.0,-3.5342917352885173,4.0625
-48.5,2.6998061866787286,8.9375
-43.5,-0.6504078540635119,3.25
-52.0,0.5645049299419158,0.8125
-44.0,-0.7853981633974483,6.5
-40.0,1.1535535524900022,4.0625
-50.5,-1.4051264017032472,-4.875
-36.0,-0.3558835427894689,6.5
-45.0,1.8653206380689396,7.3125
-44.0,-1.294679784975481,3.25
-46.5,1.368310862793992,1.625
-49.0,-1.4358060174609601,-0.8125
-46.5,2.626175108860218,-5.6875
-39.0,-0.7976700097005338,2.4375
-42.0,-0.17180584824319167,7.3125
-48.5,-1.748738098189631,6.5
-60.0,-1.65056332776495,10.5625
-49.5,2.748893571891069,1.625
-38.5,0.8283496254582459,0.8125
-36.0,-2.350058567040802,6.5
-40.0,1.779417713947344,4.875
-44.0,-1.1842331682477152,5.6875
-44.0,0.25770877236478773,2.4375
-46.5,1.073786551519949,4.0625
-45.0,-0.018407769454627854,2.4375
-42.0,0.2822524649709579,4.875
-46.5,0.8958447801252145,0.0
-49.0,-2.6261751088602177,10.5625
-49.0,1.055378782065321,4.875
-48.5,-1.0737865515199487,5.6875
-52.0,0.9387962421860123,3.25
-50.5,-1.012427320004523,1.625
-44.0,0.23316507975861733,9.75
-59.5,-1.7426021750380882,1.625
-40.0,2.920699420134261,4.875
-39.0,0.5767767762450009,0.8125
-49.0,-0.8222137023067035,1.625
-42.0,0.6381360077604268,6.5
-49.0,-1.6873788666742056,5.6875
-48.5,-0.07976700097005329,9.75
-44.0,0.2147573103039897,-0.8125
-43.5,0.03067961575771294,4.0625
-44.0,0.18407769454627676,4.875
-59.0,-2.043262409463674,2.4375
-46.5,3.141592653589793,0.8125
-36.0,-1.9328157927359078,6.5
-50.5,0.3497476196379261,1.625
-46.5,2.7918450339518674,-5.6875
-52.0,-1.7732817907958016,9.75
-45.0,0.5338253141842033,5.6875
-52.0,-0.5031456984264904,2.4375
-40.0,0.38042723539563905,4.0625
-50.5,-1.441941940612503,6.5
