E28011606000020612AF20BD,926.75,1.8285052,0.0
E28011606000020612B0941C,926.75,1.6076119,0.625
E28011606000020612AF20CD,926.75,0.6442719,0.25
E28011606000020612AF20ED,926.75,2.3684664,0.125
E28011606000020612B0942C,926.75,5.8659425,-0.0625
E28011606000020612B0348C,906.75,6.227962,0.0625
E28011606000020612AF20FD,907.75,6.1911464,0.75
E28011606000020612AF20CD,907.75,3.6263306,0.0
E28011606000020612AF20ED,907.75,6.1543307,0.5
E28011606000020612AF20CD,912.25,5.988661,0.375
E28011606000020612AEE2EB,912.25,0.3436117,0.1875
E28011606000020612AEE2FB,912.25,1.0124273,0.625
E28011606000020612AF20CD,912.25,2.1598449,0.5625
E28011606000020612B0942C,912.25,6.0991077,-0.1875
E28011606000020612AF520D,912.25,0.8222137,0.375
E28011606000020612AF20BD,912.25,1.8591847,0.0625
E28011606000020612AF20CD,926.25,5.5346026,0.0625
E28011606000020612B0349C,926.25,6.1359234,-0.1875
E28011606000020612AF208C,926.25,1.7671459,-1.0625
E28011606000020612AF20ED,926.25,1.0246992,0.125
E28011606000020612AF20BD,926.25,5.982525,0.0
E28011606000020612AF20BD,926.25,1.8223692,0.25
E28011606000020612AF20CD,914.25,5.6880007,0.375
E28011606000020612AF20DD,914.25,6.209554,0.1875
E28011606000020612AF520D,914.25,3.8656316,0.0
E28011606000020612AF52AD,909.75,5.123496,0.75
E28011606000020612AF20FD,909.75,3.4422529,0.4375
E28011606000020612AF520D,909.75,4.3380976,0.375
E28011606000020612AF20DD,909.75,1.9450877,0.5
E28011606000020612AF20BD,909.75,2.2948353,0.0625
E28011606000020612AF20DD,902.75,0.07363108,0.5625
E28011606000020612AF20FD,902.75,4.3565054,0.125
E28011606000020612AF20BD,902.75,0.45405832,0.625
E28011606000020612AF20FD,902.75,0.79767,0.5625
E28011606000020612AF20DD,902.75,5.485515,0.25
E28011606000020612AF20ED,906.25,0.49700978,0.0625
E28011606000020612AF20FD,906.25,0.24543692,0.625
E28011606000020612AF20BD,906.25,4.957826,0.25
E28011606000020612AF520D,910.25,4.264467,0.1875
E28011606000020612AF20CD,910.25,5.58369,0.5
E28011606000020612AF20ED,910.25,5.7923117,0.0625
E28011606000020612AF20DD,910.25,1.8530488,0.1875
E28011606000020612AF20BD,910.25,2.2150683,0.125
E28011606000020612AF20BC,922.25,0.012271847,-0.5
E28011606000020612AF20CD,905.75,0.92038846,0.0625
E28011606000020612AF20DD,905.75,5.184855,0.125
E28011606000020612AF20ED,905.75,0.6810875,0.1875
E28011606000020612AF90BC,905.75,1.6076119,0.5
E28011606000020612AF20CD,918.25,0.46019423,0.25
E28011606000020612AF522D,918.25,0.25770876,0.375
E28011606000020612B068BC,918.25,5.264622,-0.8125
E28011606000020612AF20FD,918.25,5.344389,0.5625
E28011606000020612AF20BD,918.25,0.93266034,-0.0625
E28011606000020612AF520D,918.25,6.068428,0.5625
E28011606000020612B0343C,918.25,1.3314953,0.25
E28011606000020612AF20BD,927.25,5.939574,0.375
E28011606000020612AF20DD,927.25,0.2699806,0.0
E28011606000020612AF20FD,927.25,3.8410878,0.5
E28011606000020612AF20CD,927.25,0.52155346,0.0625
E28011606000020612AF20ED,927.25,5.4118843,0.375
E28011606000020612AF20DD,912.75,0.69949526,0.125
E28011606000020612AF20FD,912.75,5.289166,0.0625
E28011606000020612AF20BD,912.75,0.9387962,0.25
E28011606000020612AF20CD,912.75,5.91503,0.375
E28011606000020612AF520D,912.75,3.9024472,0.5625
E28011606000020612AF520C,912.75,4.9026027,0.9375
E28011606000020612AF520D,904.25,5.2523503,0.25
E28011606000020612AF20ED,904.25,1.0799224,0.25
E28011606000020612AF20FD,904.25,4.15402,0.25
E28011606000020612AF20CD,904.25,0.45405832,0.375
E28011606000020612AF522D,904.25,5.976389,0.5
E28011606000020612AF20BD,904.25,0.12885438,0.25
E28011606000020612AF20CD,921.25,1.6689711,0.1875
E28011606000020612AF20ED,921.25,0.20248546,0.375
E28011606000020612AF20FD,921.25,4.626486,0.1875
E28011606000020612AF20BD,921.25,2.6261752,0.0
E28011606000020612AF20ED,917.25,3.8472238,0.25
E28011606000020612AF20CD,917.25,5.442564,0.375
E28011606000020612AF20BD,917.25,1.0676507,0.4375
E28011606000020612AF20DC,917.25,6.092972,-0.75
E28011606000020612AF520D,917.25,0.0061359233,0.75
E28011606000020612AF20CD,907.25,6.0807,0.125
E28011606000020612AF20DD,907.25,2.5034566,0.5
E28011606000020612AF20BD,907.25,5.8782144,0.25
E28011606000020612AF520D,907.25,4.7676125,0.125
E28011606000020612AF20CD,907.25,0.558369,0.75
E28011606000020612AF20BD,907.25,4.8044276,0.1875
E28011606000020612AF520D,921.75,1.4971652,0.125
E28011606000020612AF20ED,921.75,0.09817477,0.5
E28011606000020612AF20CD,921.75,1.5769322,0.0
E28011606000020612AF20FD,921.75,4.6019425,0.0
E28011606000020612AF20BD,921.75,2.4911847,0.375
E28011606000020612AF20FD,917.75,4.9639616,0.0625
E28011606000020612AF20BD,917.75,0.9817477,0.1875
E28011606000020612AF520D,917.75,6.1666026,0.375
E28011606000020612AF52AD,917.75,5.019185,0.125
E28011606000020612AF522D,917.75,0.01840777,-0.1875
E28011606000020612AF20CD,917.75,0.5154175,0.125
E28011606000020612AF20DD,917.75,0.717903,0.25
E28011606000020612B0343C,917.75,4.9762335,0.0625
E28011606000020612AF20BD,916.75,0.9817477,0.5625
E28011606000020612B0343C,916.75,5.835263,-1.8125
E28011606000020612AF20FD,916.75,5.3934765,0.125
E28011606000020612AF20CD,916.75,5.430292,0.125
E28011606000020612AF20BD,916.75,0.19634955,0.125
E28011606000020612AF20BD,909.25,4.4853597,0.125
E28011606000020612B034BC,909.25,5.0007772,0.75
E28011606000020612AF20FD,908.25,3.7858646,0.25
E28011606000020612AF520D,908.25,4.5896707,0.25
E28011606000020612AF20BD,908.25,2.5034566,0.0625
E28011606000020612AF20CD,908.25,5.982525,0.5
E28011606000020612AF52AD,908.25,5.3934765,0.1875
E28011606000020612AF20DD,908.25,2.233476,0.5625
E28011606000020612AF20BD,925.25,6.0991077,0.125
E28011606000020612AF520D,925.25,1.3805827,0.5625
E28011606000020612AF20BD,925.25,1.9450877,-0.0625
E28011606000020612B0942C,925.25,6.2586417,-0.4375
E28011606000020612AF20BD,924.25,2.0125828,0.1875
E28011606000020612AF20DD,924.25,0.45405832,1.75
E28011606000020612AF20ED,924.25,5.835263,0.5
E28011606000020612AF20BD,924.25,6.1727386,0.1875
E28011606000020612AF20CD,924.25,6.0438843,0.0625
E28011606000020612AF520D,913.25,3.8226802,0.0
E28011606000020612AF20BD,913.25,1.748738,0.25
E28011606000020612AF20DD,913.25,1.2578642,-0.125
E28011606000020612AF20FD,913.25,2.5218644,-0.125
E28011606000020612AEE2FB,913.25,0.8528933,0.375
E28011606000020612AF20FD,923.75,0.4049709,0.1875
E28011606000020612AF20ED,923.75,2.080078,0.125
E28011606000020612AF20CD,923.75,1.2701361,0.5
E28011606000020612AF20FD,923.75,4.577399,0.5
E28011606000020612AF20BD,923.75,5.460972,0.125
E28011606000020612B034BC,903.25,4.2767386,0.1875
E28011606000020612AF520D,903.25,5.350525,0.1875
E28011606000020612AF20CD,903.25,0.09817477,0.4375
E28011606000020612AF20BD,903.25,0.11658254,0.25
E28011606000020612AF20BD,913.75,1.356039,0.25
E28011606000020612AF20FD,913.75,6.1543307,0.25
E28011606000020612AF20CD,913.75,4.5221753,0.125
E28011606000020612AF520D,913.75,3.5711074,0.25
E28011606000020612AF20DD,913.75,1.1351458,0.375
E28011606000020612AF20FD,920.25,4.7860203,0.4375
E28011606000020612AF20CD,920.25,1.8100973,0.5625
E28011606000020612AF20BD,920.25,5.737088,0.25
E28011606000020612AF20CD,908.75,6.227962,0.875
E28011606000020612AF20FD,908.75,0.5154175,-0.4375
E28011606000020612AF521C,908.75,4.6019425,-2.4375
E28011606000020612AF20DD,908.75,5.516195,0.0625
E28011606000020612AF520D,908.75,4.6142144,0.5
E28011606000020612AF20FD,922.75,0.24543692,0.125
E28011606000020612AEE43C,922.75,5.657321,4.625
E28011606000020612AEE45C,922.75,5.3689327,0.375
E28011606000020612AF20DD,922.75,6.234098,0.25
E28011606000020612AF20BD,922.75,0.6320001,0.0
E28011606000020612AF20CD,922.75,1.276272,0.625
E28011606000020612AF20FD,922.75,3.9024472,-0.0625
E28011606000020612AF20DD,915.75,2.4175537,0.0625
E28011606000020612AF20BD,915.75,0.47246608,0.25
E28011606000020612AF20CD,915.75,5.516195,0.1875
E28011606000020612AF20FD,915.75,4.5958066,0.5
E28011606000020612B034BC,915.75,5.669593,0.0625
E28011606000020612AF20CD,919.75,5.0866804,0.125
E28011606000020612AF20CD,919.75,6.24637,-0.1875
E28011606000020612AF20ED,919.75,2.4727771,0.0625
E28011606000020612B068BC,919.75,4.221515,0.0
E28011606000020612AF520D,919.75,5.7984476,0.8125
E28011606000020612AF20FD,919.75,2.2886994,0.125
E28011606000020612AF20DD,910.75,1.8407769,0.25
E28011606000020612AF52AD,910.75,1.441942,0.5
E28011606000020612AF20BD,910.75,1.9941751,0.1875
E28011606000020612AF20ED,910.75,4.258331,-0.125
E28011606000020612AF20CD,910.75,5.270758,0.625
E28011606000020612B034BC,910.75,5.921166,1.125
E28011606000020612AF520D,910.75,0.43565056,0.0625
E28011606000020612AF520D,923.25,1.0860584,-0.5
E28011606000020612AF20CD,923.25,1.2701361,-0.0625
E28011606000020612AF20BD,923.25,5.270758,0.1875
E28011606000020612AF20FD,904.75,4.957826,0.4375
E28011606000020612AF520D,904.75,5.2278066,0.25
E28011606000020612AF20ED,904.75,2.3684664,0.125
E28011606000020612AF520C,904.75,4.9332824,2.25
E28011606000020612AF20BD,904.75,0.1840777,0.75
E28011606000020612AF20DD,904.75,0.06749515,0.1875
E28011606000020612AF522D,904.75,5.8904862,0.9375
E28011606000020612AF520D,903.75,5.4057484,0.5
E28011606000020612AF20ED,903.75,6.2709136,0.25
E28011606000020612AF20FD,903.75,4.890331,-0.875
E28011606000020612AF20BD,903.75,0.89584476,0.5625
E28011606000020612AF20ED,903.75,0.35588354,0.5
E28011606000020612AF520D,903.75,5.197127,0.125
E28011606000020612AF20CD,903.75,0.6688156,0.25
E28011606000020612AF20BD,924.75,5.319845,0.0625
E28011606000020612AEE48C,924.75,6.086836,0.0625
E28011606000020612AF20CD,915.25,1.2210487,0.5625
E28011606000020612AF520D,915.25,0.60132045,0.375
E28011606000020612AF20FD,915.25,2.5954955,0.75
E28011606000020612AF20ED,915.25,5.896622,0.0625
E28011606000020612AEE2FB,915.25,6.1727386,-0.0625
E28011606000020612AF20BD,915.25,1.1842332,0.125
E28011606000020612AF20EC,915.25,0.9142526,0.25
E28011606000020612AF20DD,915.25,5.184855,-0.0625
E28011606000020612AF20CD,916.25,1.276272,0.8125
E28011606000020612AF20FD,916.25,5.11736,0.75
E28011606000020612AF20BD,916.25,0.09817477,0.1875
E28011606000020612AF20ED,916.25,4.227651,0.4375
E28011606000020612AF20BD,925.75,5.006913,0.1875
E28011606000020612AF20ED,925.75,5.675729,0.1875
E28011606000020612AF20DD,925.75,6.0009327,0.125
E28011606000020612AF20BD,925.75,6.0132046,0.0625
E28011606000020612AF20FD,925.75,0.0,0.4375
E28011606000020612AF54FD,925.75,5.638913,-0.25
E28011606000020612AF20BD,918.75,0.72403896,0.8125
E28011606000020612AF20DD,918.75,1.0676507,0.125
E28011606000020612AF520D,918.75,5.902758,0.0
E28011606000020612AF20FD,919.25,4.847379,-0.0625
E28011606000020612AF20DD,919.25,4.1785636,0.25
E28011606000020612AF520D,919.25,2.2027965,-0.375
E28011606000020612AF20CD,919.25,4.8289714,0.0
E28011606000020612AF20ED,919.25,0.60132045,0.1875
E28011606000020612AF20BD,914.75,6.21569,0.125
E28011606000020612AF20CD,914.75,5.460972,0.1875
E28011606000020612AF90BC,914.75,1.1106021,-0.9375
E28011606000020612AF20CD,914.75,5.473243,0.1875
E28011606000020612AF208C,914.75,4.534447,-0.9375
E28011606000020612AF522D,914.75,0.9510681,0.125
E28011606000020612AF541D,914.75,5.595962,1.5625
E28011606000020612AF520D,914.75,0.4049709,0.375
E28011606000020612AF20FD,905.25,4.6019425,1.5625
E28011606000020612AF206C,905.25,1.2271847,2.5625
E28011606000020612AF20DD,905.25,2.7550294,0.25
E28011606000020612AF20FD,905.25,0.638136,0.625
E28011606000020612AF90CC,911.25,0.83448553,1.0625
E28011606000020612AF20BD,911.25,4.068117,0.1875
E28011606000020612AF520D,911.25,5.4118843,0.25
E28011606000020612AF20CD,911.25,6.056156,-0.125
E28011606000020612AF20ED,911.25,5.6266418,0.1875
E28011606000020612AF20DD,911.25,4.9885054,1.1875
E28011606000020612AF20ED,920.75,6.21569,0.25
E28011606000020612AEE2FB,920.75,4.552855,1.125
E28011606000020612AF20BD,920.75,4.1110687,0.1875
E28011606000020612AF20FD,920.75,1.4296701,0.5625
E28011606000020612AF529D,911.75,6.0132046,0.1875
E28011606000020612AF20DD,911.75,1.8775924,0.8125
E28011606000020612AF20CD,911.75,5.9641175,0.0625
E28011606000020612AF20FD,926.75,3.8779035,0.25
E28011606000020612AF20BD,926.75,1.834641,0.25
E28011606000020612AF20CD,926.75,0.54609716,0.5
E28011606000020612AF205C,926.75,0.319068,1.875
E28011606000020612AF20ED,926.75,2.4727771,0.375
E28011606000020612AF20FD,906.75,4.5221753,0.625
E28011606000020612B0942C,906.75,0.72403896,1.875
E28011606000020612AFC22C,906.75,4.632622,1.0625
E28011606000020612AEE2FB,906.75,5.669593,0.5
E28011606000020612B068CC,906.75,5.620506,1.8125
E28011606000020612AF522D,906.75,1.7671459,1.3125
E28011606000020612AF20CD,906.75,5.442564,0.375
E28011606000020612AF20BD,906.75,0.12271846,0.875
E28011606000020612AF20DD,906.75,2.877748,-0.375
E28011606000020612AF20EC,906.75,0.0061359233,0.4375
E28011606000020612AF20ED,906.75,5.657321,0.0
E28011606000020612AF520D,906.75,4.95169,0.125
E28011606000020612AF20DD,907.75,2.478913,-0.0625
E28011606000020612AF520D,907.75,5.2093987,0.875
E28011606000020612AF20BD,907.75,4.847379,0.0
E28011606000020612AF20DD,912.25,4.301282,-0.125
E28011606000020612AF20BD,912.25,3.7674568,0.5
E28011606000020612AF20FD,912.25,5.908894,0.4375
E28011606000020612AF20CD,912.25,6.1788745,0.0625
E28011606000020612B068BC,912.25,4.847379,2.5625
E28011606000020612B0348C,912.25,0.0061359233,1.25
E28011606000020612AEE46C,926.25,5.933438,0.875
E28011606000020612AF20CD,926.25,6.2770495,-0.125
E28011606000020612AEE47C,926.25,6.1113796,0.9375
E28011606000020612AF520D,926.25,1.356039,0.125
E28011606000020612AF521C,926.25,5.5714183,1.75
E28011606000020612AF20DD,926.25,6.209554,0.0625
E28011606000020612B034BC,926.25,1.515573,0.5
E28011606000020612AF521D,926.25,5.3689327,-0.4375
E28011606000020612AF54FD,926.25,1.521709,1.8125
E28011606000020612AF20BD,914.25,1.7794178,0.1875
E28011606000020612AF20DD,914.25,1.1842332,-0.375
E28011606000020612AF20BD,914.25,0.61972827,0.75
E28011606000020612AF20ED,914.25,4.3319616,-0.4375
E28011606000020612AF20CD,914.25,5.338253,0.0
E28011606000020612AFC4FC,914.25,3.8594956,3.9375
E28011606000020612B068BC,914.25,3.19068,2.5
E28011606000020612AF522D,914.25,2.4052818,0.25
E28011606000020612AF520D,909.75,4.0251656,1.0625
E28011606000020612AF20ED,909.75,4.405593,0.375
E28011606000020612AF20DD,909.75,4.9885054,-3.625
E28011606000020612AF20BD,909.75,5.645049,0.25
E28011606000020612AF209C,909.75,0.59518456,1.5
E28011606000020612AF20BD,902.75,4.1110687,-0.375
E28011606000020612AF541C,902.75,1.5646604,2.5
E28011606000020612AF520D,902.75,5.319845,-0.0625
E28011606000020612B034DC,902.75,0.49087384,1.0625
E28011606000020612AF20DD,902.75,0.28225246,0.75
E28011606000020612AEE2EB,902.75,0.398835,1.625
E28011606000020612AF200C,902.75,1.5462526,0.5
E28011606000020612AF20FD,906.25,0.05522331,0.25
E28011606000020612AF206C,906.25,0.030679615,1.875
E28011606000020612AF20FC,906.25,0.049087387,1.25
E28011606000020612B0348C,906.25,0.7485826,2.0
E28011606000020612B0349C,910.25,5.908894,0.625
E28011606000020612B0684C,910.25,0.46633017,3.5
E28011606000020612AF528D,910.25,5.3873405,0.8125
E28011606000020612AF20CD,910.25,1.9880391,1.0625
E28011606000020612AEE2FB,910.25,0.3926991,1.75
E28011606000020612AFC49C,910.25,0.12885438,-0.9375
E28011606000020612AEE2EB,910.25,6.1666026,1.75
E28011606000020612B068BC,910.25,1.2026409,1.5
E28011606000020612AF20DD,910.25,5.7248163,-0.25
E28011606000020612AF20DC,922.25,5.896622,0.1875
E28011606000020612B0945D,922.25,1.515573,1.0625
E28011606000020612AF20AC,922.25,0.6810875,0.75
E28011606000020612AF900C,922.25,3.5588355,1.75
E28011606000020612AEE4EC,922.25,6.0132046,0.375
E28011606000020612AEE2EB,922.25,0.33747578,1.0625
E28011606000020612AF522D,922.25,4.712389,1.3125
E28011606000020612AEE48C,922.25,5.485515,0.875
E28011606000020612AF20BD,922.25,2.1168935,0.0625
E28011606000020612AF20ED,922.25,0.24543692,0.375
E28011606000020612AF546C,905.75,5.3812046,1.125
E28011606000020612AEE4CC,905.75,0.47246608,0.5625
E28011606000020612AF529D,905.75,5.197127,0.875
E28011606000020612AEE49C,905.75,0.04295146,0.8125
E28011606000020612B0945D,905.75,0.19021362,-0.125
E28011606000020612AF208C,905.75,2.55868,1.125
E28011606000020612B0007C,905.75,0.52155346,0.5625
E28011606000020612AF522D,905.75,4.890331,2.9375
E28011606000020612AF20ED,905.75,6.2034183,-0.125
E28011606000020612B0346C,918.25,2.7550294,2.875
E28011606000020612B068BC,918.25,5.442564,0.25
E28011606000020612AF209C,918.25,1.0860584,0.125
E28011606000020612AF20EC,918.25,0.9142526,-0.4375
E28011606000020612AF20ED,918.25,5.982525,0.0
E28011606000020612AF907D,918.25,5.5714183,0.875
E28011606000020612AF90CC,918.25,5.7186804,1.0625
E28011606000020612AF20CD,918.25,6.209554,0.8125
E28011606000020612AEE2FB,918.25,5.1357675,1.0625
E28011606000020612AEE4FC,918.25,5.7002726,0.125
E28011606000020612AF523D,918.25,1.5769322,0.1875
E28011606000020612AF20DD,918.25,1.441942,0.125
E28011606000020612AF520C,918.25,0.239301,0.25
E28011606000020612AF905C,927.25,3.6508744,0.9375
E28011606000020612AF20DC,927.25,3.497476,0.0625
E28011606000020612AEE4EC,927.25,5.0805445,0.9375
E28011606000020612B0682C,927.25,0.46633017,1.5
E28011606000020612AF20FC,927.25,5.454836,0.5
E28011606000020612B034BC,927.25,0.92038846,-0.375
E28011606000020612AF20FD,927.25,0.398835,0.0
E28011606000020612AF907D,927.25,5.620506,-0.8125
E28011606000020612AF20DD,927.25,0.19634955,-0.125
E28011606000020612B0942C,927.25,0.44178647,0.5625
E28011606000020612AF20ED,927.25,0.04295146,0.5
E28011606000020612B0347C,912.75,5.424156,1.5625
E28011606000020612AF20ED,912.75,5.276894,0.0625
E28011606000020612AF905D,912.75,0.79767,-0.8125
E28011606000020612B0940C,912.75,5.7984476,2.125
E28011606000020612AF20BD,912.75,4.4976315,0.25
E28011606000020612AF20FD,912.75,6.0193405,-0.125
E28011606000020612B0327C,912.75,5.939574,0.5
E28011606000020612AF20BC,912.75,0.5829127,0.5
E28011606000020612B0684C,904.25,5.485515,0.875
E28011606000020612AEE2EB,904.25,5.460972,0.625
E28011606000020612AF52DD,904.25,4.227651,0.9375
E28011606000020612AF20DD,904.25,0.49700978,0.8125
E28011606000020612AF20FC,904.25,5.7186804,0.0
E28011606000020612AF20CC,904.25,1.2149128,0.0
E28011606000020612AF544D,904.25,0.9019807,0.625
E28011606000020612AF20CD,904.25,3.184544,0.125
E28011606000020612AF520D,904.25,5.5591464,0.5625
E28011606000020612B0942C,904.25,4.9455543,1.125
E28011606000020612AF209C,904.25,6.2034183,-0.125
E28011606000020612AF20DC,904.25,0.89584476,-0.25
E28011606000020612AF20FD,921.25,0.82834965,0.625
E28011606000020612AF20DD,921.25,0.25770876,-0.1875
E28011606000020612B0942C,921.25,6.209554,0.9375
E28011606000020612AF90CC,921.25,1.4603497,1.0625
E28011606000020612B0349C,921.25,1.1780972,0.75
E28011606000020612AF54FD,921.25,5.896622,0.5625
E28011606000020612B0683C,921.25,6.24637,2.125
E28011606000020612AF20BD,921.25,5.503923,0.25
E28011606000020612AF520D,921.25,1.2885438,-0.8125
E28011606000020612AF904D,917.25,0.06135923,1.625
E28011606000020612B0348C,917.25,0.48473793,0.5625
E28011606000020612AF20BD,917.25,2.951379,0.375
E28011606000020612AF54FD,917.25,0.03681554,0.25
E28011606000020612AF20FD,917.25,4.6080785,0.0625
E28011606000020612AF90CC,917.25,3.9269907,1.75
E28011606000020612AF20DD,907.25,0.35588354,0.375
E28011606000020612B0007C,907.25,4.4424086,0.0625
E28011606000020612AF541D,907.25,4.632622,0.75
E28011606000020612B0687C,907.25,0.7363108,0.625
E28011606000020612B0942C,907.25,1.9266798,0.125
E28011606000020612AF90BC,907.25,0.38042724,0.1875
E28011606000020612B0683C,907.25,4.3626413,0.25
E28011606000020612B034FC,907.25,4.8351073,1.3125
E28011606000020612B0009C,907.25,1.9328158,0.5
E28011606000020612AFC4EC,907.25,0.5276894,0.5
E28011606000020612AF20BD,907.25,0.2945243,0.5
E28011606000020612AEE2EB,907.25,3.595651,0.625
E28011606000020612B032BC,907.25,0.28225246,0.1875
E28011606000020612B068DC,921.75,1.2640002,0.9375
E28011606000020612B0687C,921.75,4.129476,0.375
E28011606000020612B0942C,921.75,5.9579816,0.625
E28011606000020612AF90AC,921.75,6.1911464,1.8125
E28011606000020612AF20FC,921.75,5.013049,-0.1875
E28011606000020612AF20CD,921.75,1.1780972,0.75
E28011606000020612AF20BD,921.75,4.95169,0.125
E28011606000020612AEE2EB,921.75,5.178719,1.1875
E28011606000020612AF20ED,921.75,3.8779035,0.25
E28011606000020612AFC2DC,921.75,5.043729,1.875
E28011606000020612AF20DD,917.75,4.239923,0.0
E28011606000020612B0942C,917.75,6.142059,2.125
E28011606000020612AEE2EB,917.75,4.0374374,1.5625
E28011606000020612AF54FD,917.75,6.0807,0.5625
E28011606000020612AF521C,917.75,5.58369,1.75
E28011606000020612AF900D,917.75,5.190991,0.0
E28011606000020612B0006C,917.75,4.3196898,2.25
E28011606000020612B0689C,917.75,1.362175,0.1875
E28011606000020612AEE47C,917.75,0.09817477,-0.625
E28011606000020612B0945D,916.75,0.1840777,-1.25
E28011606000020612B068BC,916.75,5.460972,1.125
E28011606000020612AF20CD,916.75,0.5645049,0.1875
E28011606000020612B032FC,916.75,2.0432625,0.4375
E28011606000020612AF548D,916.75,5.7248163,0.25
E28011606000020612B0689C,916.75,0.5522331,0.5
E28011606000020612AF20DD,916.75,1.036971,1.75
E28011606000020612AEE2FB,916.75,0.049087387,0.375
E28011606000020612AF54FD,916.75,3.6201947,0.0625
E28011606000020612AF20FC,909.25,5.675729,-0.375
E28011606000020612AF20BD,909.25,4.7614765,0.125
E28011606000020612AF20CD,909.25,0.024543693,0.1875
E28011606000020612AF520D,909.25,0.2699806,0.5
E28011606000020612B0680C,909.25,1.7671459,1.75
E28011606000020612B034FC,909.25,1.5278449,1.4375
E28011606000020612B0941C,909.25,5.8843503,1.25
E28011606000020612B068DC,909.25,5.737088,1.5
E28011606000020612B0683C,909.25,0.01840777,1.25
E28011606000020612AF20FD,909.25,6.1911464,0.0
E28011606000020612B0686C,909.25,1.748738,1.625
E28011606000020612AF90CC,909.25,5.8475347,1.1875
E28011606000020612B0683C,908.25,5.3996124,1.5625
E28011606000020612B0685C,908.25,0.05522331,1.3125
E28011606000020612AF20FD,908.25,0.27611655,0.8125
E28011606000020612B0683C,908.25,6.0991077,0.25
E28011606000020612AF54DD,908.25,2.1905246,0.4375
E28011606000020612AFC2BC,908.25,0.957204,1.25
E28011606000020612AF20CD,908.25,5.7923117,0.25
E28011606000020612B0349C,908.25,0.59518456,0.8125
E28011606000020612AF90BC,908.25,6.1359234,-0.875
E28011606000020612AF20FD,908.25,0.05522331,0.25
E28011606000020612AF52DD,925.25,1.748738,0.0625
E28011606000020612AF20BC,925.25,6.0316124,-0.0625
E28011606000020612AF20FD,925.25,5.7984476,0.8125
E28011606000020612AF20CD,925.25,6.1359234,0.5625
E28011606000020612B0006C,925.25,1.1044662,0.0
E28011606000020612AF54BC,925.25,0.62586415,0.0625
E28011606000020612B0009C,925.25,5.503923,0.75
E28011606000020612AF54FD,925.25,1.0246992,0.125
E28011606000020612B068CC,925.25,5.8720784,0.4375
E28011606000020612AF900C,925.25,5.927302,-0.4375
E28011606000020612AF52ED,925.25,2.8593402,-0.5625
E28011606000020612B068CC,925.25,5.276894,0.875
E28011606000020612B0686C,924.25,2.791845,0.0625
E28011606000020612B068DC,924.25,5.822991,0.625
E28011606000020612AF20FD,924.25,0.6320001,0.75
E28011606000020612B0685C,924.25,6.0807,1.3125
E28011606000020612B068CC,924.25,3.35635,1.25
E28011606000020612AEE2EB,924.25,2.2948353,1.5
E28011606000020612B068BC,924.25,0.8099418,0.5625
E28011606000020612AF20BD,924.25,1.5769322,-0.125
E28011606000020612AEE2FB,924.25,5.332117,0.25
E28011606000020612AF54BC,913.25,5.7064085,-0.5625
E28011606000020612AF521D,913.25,0.2638447,-1.75
E28011606000020612AFC2CC,913.25,5.8536706,-1.125
E28011606000020612B0343C,913.25,5.037593,-0.875
E28011606000020612B0327C,913.25,5.9457097,0.75
E28011606000020612AF20BD,913.25,5.7984476,0.5
E28011606000020612AF520D,913.25,3.7245054,0.125
E28011606000020612AF20DD,913.25,1.7732818,0.25
E28011606000020612B068BC,923.75,5.270758,-0.25
E28011606000020612AF90AC,923.75,5.657321,-0.5
E28011606000020612AF20DD,923.75,0.14726216,0.5
E28011606000020612AF905D,923.75,0.5645049,-0.8125
E28011606000020612AEE49C,923.75,6.05002,-0.0625
E28011606000020612AF902D,923.75,0.77926224,-0.875
E28011606000020612B0683C,923.75,5.7984476,1.75
E28011606000020612AF20FD,923.75,3.8410878,0.0625
E28011606000020612AF20FD,903.25,1.2394565,-0.0625
E28011606000020612AF20DD,903.25,5.019185,0.625
E28011606000020612AF20BD,903.25,5.669593,-0.125
E28011606000020612AF20ED,903.25,0.5522331,-0.1875
E28011606000020612AF54FD,903.25,6.1604667,0.75
E28011606000020612AEE4DC,903.25,6.0377483,0.0
E28011606000020612B0687C,903.25,6.1052437,0.25
E28011606000020612AF541D,903.25,4.687845,0.0625
E28011606000020612AFC4EC,913.75,2.3561945,-1.1875
E28011606000020612AF20BD,913.75,5.28303,0.1875
E28011606000020612AF20ED,913.75,0.75471854,0.125
E28011606000020612AF20FD,913.75,2.080078,0.125
E28011606000020612AF52DD,913.75,4.6448936,-0.25
E28011606000020612AF20DD,913.75,4.9639616,0.0625
E28011606000020612B0007C,913.75,4.4853597,-0.9375
E28011606000020612AF900D,913.75,0.2945243,-0.5
E28011606000020612AF20CD,913.75,0.67495155,0.0625
E28011606000020612AF520D,913.75,0.73017484,0.375
E28011606000020612AF541D,920.25,5.025321,-1.4375
E28011606000020612AF521C,920.25,5.7248163,0.0
E28011606000020612AF54FD,920.25,0.10431069,-0.8125
E28011606000020612AF20FD,920.25,5.7923117,-0.1875
E28011606000020612AF90CC,920.25,4.865787,-1.1875
E28011606000020612AFC2CC,920.25,2.0309906,1.5625
E28011606000020612AF20CD,920.25,1.515573,0.0625
E28011606000020612AF520D,920.25,1.3314953,-0.875
E28011606000020612B034FC,920.25,5.902758,0.5625
E28011606000020612AF907C,908.75,1.3683108,-0.875
E28011606000020612AF90CC,908.75,6.0438843,-0.625
E28011606000020612AFC4EC,908.75,6.074564,0.375
E28011606000020612AF20FD,908.75,6.2586417,0.1875
E28011606000020612B0348C,908.75,2.9268353,-0.375
E28011606000020612AF20BD,908.75,1.1842332,0.0625
E28011606000020612AF90BC,908.75,4.227651,-1.1875
E28011606000020612AFC2CC,922.75,0.079767,0.4375
E28011606000020612AF20ED,922.75,5.197127,0.625
E28011606000020612AF907D,922.75,5.0744085,-0.1875
E28011606000020612AF20CD,922.75,5.7309523,-0.5
E28011606000020612AF520D,922.75,5.5530105,0.25
E28011606000020612AF906D,922.75,4.730797,-0.125
E28011606000020612AF902D,922.75,1.1351458,0.375
E28011606000020612AF54FD,922.75,0.44178647,-0.4375
E28011606000020612AF20BD,922.75,0.6810875,0.25
E28011606000020612AF90BC,922.75,4.2828746,-1.25
E28011606000020612AF540D,915.75,5.2093987,-1.25
E28011606000020612AF90BC,915.75,0.04295146,-0.9375
E28011606000020612AF520D,915.75,0.7117671,0.9375
E28011606000020612AF20BD,919.75,5.6941366,0.5625
E28011606000020612AF520D,919.75,0.94493216,0.375
E28011606000020612AF20FD,919.75,4.693981,0.4375
E28011606000020612AF20CD,919.75,4.7737484,0.0625
E28011606000020612AF52DD,919.75,1.3008157,0.5625
E28011606000020612AF20DD,919.75,0.30679616,0.0
E28011606000020612AF520D,919.75,5.3934765,0.5625
E28011606000020612AF520D,910.75,0.54609716,0.125
E28011606000020612AF90BC,910.75,0.239301,-0.25
E28011606000020612AEE2FB,910.75,4.9394183,0.0
E28011606000020612B0349C,910.75,1.681243,-0.625
E28011606000020612AF20ED,910.75,4.7369328,0.0
E28011606000020612AF20DD,910.75,2.153709,-0.125
E28011606000020612AF20FD,910.75,4.160156,0.5625
E28011606000020612AEE2FB,923.25,5.78004,-0.625
E28011606000020612AF20ED,923.25,0.012271847,0.0625
E28011606000020612AF20CD,923.25,0.9387962,0.5
E28011606000020612AF20FD,923.25,4.5160394,0.1875
E28011606000020612AF520D,923.25,0.24543692,0.1875
E28011606000020612AF20BD,923.25,2.2396119,0.125
E28011606000020612B034EC,904.75,6.1175156,0.8125
E28011606000020612AF20ED,904.75,6.221826,0.8125
E28011606000020612AF20DD,904.75,5.7186804,-0.75
E28011606000020612AF54FD,904.75,0.9878836,0.0
E28011606000020612AF20FD,904.75,4.2706027,-0.1875
E28011606000020612B0685C,904.75,0.77926224,-0.8125
E28011606000020612AF20DD,904.75,6.252506,0.5625
E28011606000020612AF520D,904.75,4.687845,0.375
E28011606000020612AF20ED,903.75,0.17794177,0.75
E28011606000020612B0348C,903.75,4.7553406,-1.125
E28011606000020612AF20FD,903.75,3.8042724,0.125
E28011606000020612B068FC,903.75,4.2031074,-1.5625
E28011606000020612AF520D,903.75,5.013049,0.5625
E28011606000020612AF20BD,903.75,5.835263,0.125
E28011606000020612AF20CD,903.75,0.67495155,0.625
E28011606000020612B0681C,903.75,6.1666026,-1.125
E28011606000020612B0680C,903.75,0.239301,0.0
E28011606000020612AF52DD,903.75,5.0621367,-1.5
E28011606000020612AF20DD,903.75,0.5399612,0.25
E28011606000020612AF20CD,924.75,3.9822142,0.25
E28011606000020612AF54BD,924.75,1.5830681,0.1875
E28011606000020612AF52DD,924.75,0.8713011,-0.5625
E28011606000020612AF20FD,924.75,4.0190296,0.125
E28011606000020612AF20BD,924.75,5.976389,0.125
E28011606000020612AF20ED,915.25,4.6080785,0.5625
E28011606000020612AF52DD,915.25,2.2273402,-0.375
E28011606000020612B034BC,915.25,1.5523885,-0.5625
E28011606000020612AF20ED,915.25,0.1349903,-0.1875
E28011606000020612AF20CD,915.25,1.1842332,-0.125
E28011606000020612B0680C,915.25,5.589826,-0.875
E28011606000020612AEE2FB,915.25,2.5709517,-0.125
E28011606000020612AF520D,916.25,0.06135923,0.375
E28011606000020612AF54FD,916.25,0.52155346,-0.25
E28011606000020612AF20BD,916.25,5.013049,0.25
E28011606000020612AF20CD,916.25,1.9819032,0.25
E28011606000020612AF20ED,925.75,6.0193405,0.625
E28011606000020612AF20FD,925.75,0.3742913,0.25
E28011606000020612AF20DD,925.75,2.2396119,0.0
E28011606000020612AF20CD,925.75,0.2638447,0.1875
E28011606000020612AF20BD,925.75,2.1843886,0.375
E28011606000020612AEE2EB,918.75,0.35588354,0.125
E28011606000020612AF20CD,918.75,0.19634955,0.1875
E28011606000020612AF520D,918.75,5.908894,0.0625
E28011606000020612AF20FD,918.75,0.030679615,0.5
E28011606000020612AF54FD,918.75,5.338253,-0.0625
E28011606000020612AF20DD,918.75,0.61972827,0.125
E28011606000020612AEE2FB,919.25,0.159534,-0.0625
E28011606000020612AF20DD,919.25,0.3926991,0.125
E28011606000020612AF20ED,914.75,4.730797,-0.0625
E28011606000020612AF20FD,914.75,5.0744085,0.5625
E28011606000020612AF20CD,914.75,5.497787,0.375
E28011606000020612AF20BD,914.75,1.0246992,0.1875
E28011606000020612AF20DD,905.25,6.074564,0.125
E28011606000020612AF20ED,905.25,0.52155346,0.125
E28011606000020612AF20BD,905.25,0.5645049,0.875
E28011606000020612AF520D,905.25,4.4914956,0.625
E28011606000020612AF20CD,905.25,0.3926991,0.375
E28011606000020612B0942C,905.25,0.24543692,0.0
E28011606000020612AF20FD,905.25,4.258331,0.1875
E28011606000020612AF520D,911.25,0.36201948,0.5
E28011606000020612AF20FD,911.25,6.0132046,0.1875
E28011606000020612AF20BD,911.25,4.1969714,0.4375
E28011606000020612AF20DD,911.25,4.95169,0.8125
E28011606000020612AF20ED,920.75,0.7608545,0.1875
E28011606000020612AF20FD,920.75,4.632622,0.1875
E28011606000020612AF20CD,920.75,1.5707964,0.0
E28011606000020612AF20BD,920.75,0.83448553,0.1875
E28011606000020612AF520D,911.75,0.53382534,0.5
E28011606000020612AF20DD,911.75,5.503923,0.375
E28011606000020612AF20CD,911.75,1.2271847,0.375
E28011606000020612AF20BD,911.75,5.2278066,0.0
E28011606000020612AFC49C,911.75,0.030679615,-0.1875
E28011606000020612AF20FD,911.75,6.1911464,0.0625
E28011606000020612B0349C,926.75,3.8472238,0.5
E28011606000020612AF20CD,926.75,0.44792238,0.125
E28011606000020612AF20BD,926.75,5.006913,0.25
E28011606000020612AF520D,906.75,4.724661,0.125
E28011606000020612AF20CD,906.75,0.43565056,0.625
E28011606000020612AF20DD,906.75,0.19021362,0.1875
E28011606000020612AF520D,906.75,4.5896707,0.1875
E28011606000020612B034FC,906.75,4.2706027,0.0625
E28011606000020612AF907D,906.75,1.0062914,-0.1875
E28011606000020612AF520D,907.75,4.393321,0.25
E28011606000020612AF20BD,907.75,5.939574,0.0625
E28011606000020612AF20DD,907.75,0.030679615,0.1875
E28011606000020612AF20CD,907.75,5.503923,0.625
E28011606000020612AEE43C,907.75,5.0621367,0.625
E28011606000020612AF52ED,907.75,4.871923,-0.5
E28011606000020612B0343C,912.25,5.7248163,-1.3125
E28011606000020612AF20CD,912.25,5.8782144,0.125
E28011606000020612AF20DD,912.25,4.28901,0.25
E28011606000020612AF20BD,912.25,0.81607777,0.1875
E28011606000020612AF20DD,926.25,1.8530488,0.625
E28011606000020612AF20CD,926.25,0.5154175,0.375
E28011606000020612AF20ED,926.25,1.1474177,0.5625
E28011606000020612AF20FD,926.25,5.9641175,0.25
E28011606000020612B0004C,926.25,1.9082721,2.6875
E28011606000020612B0348C,914.25,0.19634955,0.5625
E28011606000020612AF52AD,914.25,0.22702916,0.125
E28011606000020612AF20DD,914.25,1.6198837,0.375
E28011606000020612AF20FD,914.25,5.58369,0.0625
E28011606000020612AF520D,914.25,3.362486,0.125
E28011606000020612AF20FD,914.25,5.5346026,0.1875
E28011606000020612AF20ED,909.75,5.190991,0.25
E28011606000020612AF20BD,909.75,1.2087768,0.625
E28011606000020612AF20CD,909.75,0.09203885,0.25
E28011606000020612B0686C,902.75,0.1349903,1.125
E28011606000020612AF520D,902.75,5.049865,0.25
E28011606000020612AF20BD,902.75,0.6135923,0.25
E28011606000020612AF20DD,902.75,0.24543692,0.375
E28011606000020612B034DC,902.75,0.7485826,0.8125
E28011606000020612AF520D,906.25,1.2149128,0.1875
E28011606000020612AF20BD,906.25,3.4115732,0.0625
E28011606000020612AF20FD,906.25,0.5767768,0.25
E28011606000020612AF20CD,906.25,0.57064086,0.0625
E28011606000020612AF20ED,910.25,5.0560007,0.125
E28011606000020612AF20BD,910.25,4.258331,0.25
E28011606000020612AF20CD,910.25,6.1359234,0.25
E28011606000020612AF20FD,910.25,0.049087387,0.1875
E28011606000020612AF520D,910.25,5.2400784,0.375
E28011606000020612AF20DD,922.25,0.9633399,0.1875
E28011606000020612AF20FD,922.25,1.4296701,0.4375
E28011606000020612AF20BD,922.25,0.16566992,0.1875
E28011606000020612AF520D,922.25,4.9762335,0.375
E28011606000020612AF20ED,905.75,0.24543692,0.25
E28011606000020612AF20CD,905.75,5.8843503,0.375
E28011606000020612AF520D,905.75,4.4914956,0.125
E28011606000020612AF20CD,905.75,0.3742913,0.125
E28011606000020612AF520D,905.75,3.9944859,-0.5
E28011606000020612AF20DD,905.75,5.160311,0.125
E28011606000020612AF20BD,918.25,6.2586417,0.25
E28011606000020612AF20DD,918.25,5.8413987,0.1875
E28011606000020612B0327C,918.25,2.1905246,1.75
E28011606000020612AFC2CC,918.25,2.0984857,0.0
E28011606000020612AF20FD,918.25,4.7798843,0.4375
E28011606000020612AF20ED,918.25,4.221515,0.5
E28011606000020612AF20DD,927.25,5.8598065,0.375
E28011606000020612AF20BD,927.25,6.21569,0.1875
E28011606000020612AF903D,927.25,5.510059,1.75
E28011606000020612AF20ED,927.25,1.2946798,0.5
E28011606000020612AF520D,927.25,1.0737865,0.25
E28011606000020612B034FC,927.25,5.4180202,0.5625
E28011606000020612AF20CD,927.25,1.5707964,0.5625
E28011606000020612AF52DD,912.75,0.8897089,0.5625
E28011606000020612AF20CD,912.75,2.730486,0.375
E28011606000020612AF520D,912.75,2.1659808,-0.1875
E28011606000020612AF20FD,912.75,5.4057484,0.5
E28011606000020612AF20CD,904.25,1.1474177,0.1875
E28011606000020612AF20BD,904.25,5.2462144,0.125
E28011606000020612B0349C,904.25,4.957826,-0.25
E28011606000020612AF520D,904.25,0.27611655,-0.1875
E28011606000020612AF20FD,904.25,0.6074564,0.125
E28011606000020612AF520D,904.25,4.792156,0.375
E28011606000020612B068AC,904.25,1.0001554,0.5
E28011606000020612AF520D,921.25,1.9205439,0.1875
E28011606000020612AF20DD,921.25,0.5829127,0.0625
E28011606000020612AF20BD,921.25,0.42951462,0.25
E28011606000020612AF20ED,921.25,0.05522331,0.0
E28011606000020612AF20CD,921.25,0.75471854,0.625
E28011606000020612AEE2FB,921.25,2.3746023,0.625
E28011606000020612AF20FD,917.25,2.3439226,0.1875
E28011606000020612AF20ED,917.25,0.6688156,0.625
E28011606000020612AF20FD,917.25,4.9271464,0.0625
E28011606000020612AF20CD,917.25,5.2462144,0.75
E28011606000020612AF20DD,917.25,4.12334,0.5625
E28011606000020612AF52DD,907.25,0.3681554,1.75
E28011606000020612AF54AD,907.25,4.558991,0.0625
E28011606000020612AF20DD,907.25,5.491651,-0.125
E28011606000020612AF20CD,907.25,3.9883502,0.5625
E28011606000020612B0685C,907.25,5.0928164,0.5
E28011606000020612AF903D,907.25,1.0431069,0.5
E28011606000020612AF20FD,921.75,1.7610099,-0.0625
E28011606000020612AF90CC,917.75,4.252195,-0.0625
E28011606000020612AF20CD,917.75,5.362797,0.0
E28011606000020612AEE2FB,917.75,2.5464082,0.0
E28011606000020612B0343C,917.75,1.1658254,1.125
E28011606000020612AF20FD,917.75,5.270758,0.25
E28011606000020612AF20BD,916.75,3.497476,0.0
E28011606000020612AF90BC,916.75,2.9206994,1.1875
E28011606000020612AEE2EB,916.75,1.6505634,0.25
E28011606000020612AF520D,916.75,5.976389,0.0625
E28011606000020612AF20BD,916.75,1.59534,-0.0625
E28011606000020612AF52FD,909.25,0.877437,2.25
E28011606000020612AF20ED,909.25,5.5346026,0.75
E28011606000020612AF54DD,909.25,0.99401957,2.125
E28011606000020612B068BC,909.25,1.0737865,2.1875
E28011606000020612AEE2EB,909.25,0.638136,0.875
E28011606000020612AF52AD,909.25,0.7485826,0.1875
E28011606000020612AF52DD,909.25,6.1604667,0.75
E28011606000020612AF52DD,908.25,0.80380595,0.5
E28011606000020612AF20DD,908.25,0.57064086,-0.125
E28011606000020612AF20FD,908.25,0.52155346,0.0
E28011606000020612B0348C,908.25,4.3319616,0.8125
E28011606000020612AF20BD,908.25,4.7860203,0.0625
E28011606000020612AFC4EC,925.25,4.1785636,0.25
E28011606000020612AF20ED,925.25,5.577554,0.0625
E28011606000020612AF20ED,925.25,4.417865,-0.1875
E28011606000020612AF541D,925.25,0.28225246,0.0
E28011606000020612AF520D,925.25,1.5523885,0.375
E28011606000020612AF900D,925.25,5.031457,1.3125
E28011606000020612B0004C,925.25,1.6628351,1.0625
E28011606000020612AF20DD,924.25,0.5645049,0.375
E28011606000020612AF901D,924.25,5.276894,0.375
E28011606000020612AF52DD,924.25,5.921166,0.0
E28011606000020612AF54CD,924.25,6.1297874,-0.8125
E28011606000020612AF20CD,924.25,5.822991,0.1875
E28011606000020612B0349C,924.25,1.4173982,-0.0625
E28011606000020612B0343C,924.25,5.976389,0.1875
E28011606000020612AF20ED,924.25,0.2699806,0.5
E28011606000020612AF20CD,913.25,6.0132046,0.5625
E28011606000020612AF520D,913.25,4.9946413,-0.25
E28011606000020612B0343C,913.25,5.5284667,-0.1875
E28011606000020612AF20BD,913.25,4.0128937,0.25
E28011606000020612AFC4EC,913.25,5.8475347,1.25
E28011606000020612AF52DD,913.25,3.8656316,0.5625
E28011606000020612AF20DD,913.25,0.38042724,-1.1875
E28011606000020612AF20ED,913.25,4.7553406,-0.25
E28011606000020612AF20FD,913.25,5.810719,-0.0625
E28011606000020612AF90BC,923.75,5.91503,1.5625
E28011606000020612AF54AD,923.75,5.190991,1.3125
E28011606000020612AF520D,923.75,1.914408,0.9375
E28011606000020612B0348C,923.75,6.1175156,1.125
E28011606000020612AF906D,923.75,5.289166,0.0625
E28011606000020612AF90CC,923.75,4.9026027,1.75
E28011606000020612AF20FD,923.75,6.24637,0.125
E28011606000020612AF900D,923.75,4.706253,0.875
E28011606000020612AF20CD,923.75,5.2400784,0.0625
E28011606000020612AEE4CC,903.25,5.454836,0.0625
E28011606000020612AF541D,903.25,3.8840394,0.5
E28011606000020612AF20DD,903.25,0.5276894,-0.0625
E28011606000020612AF20FD,903.25,1.0492429,0.4375
E28011606000020612AF20CD,903.25,1.0553788,0.375
E28011606000020612AF520C,903.25,0.2699806,0.125
E28011606000020612AF541D,913.75,0.2945243,-0.1875
E28011606000020612B068AC,913.75,0.46019423,-0.4375
E28011606000020612B0687C,913.75,0.079767,-0.75
E28011606000020612AF20BD,913.75,0.7669904,0.0
E28011606000020612AEE2EB,913.75,3.6447384,0.375
E28011606000020612AF20ED,913.75,3.9699423,0.75
E28011606000020612B0343C,913.75,0.5645049,2.25
E28011606000020612B034DC,913.75,1.6444274,-1.3125
E28011606000020612AFC2CC,920.25,1.6689711,0.4375
E28011606000020612AF902D,920.25,0.9019807,0.0625
E28011606000020612AF901D,920.25,5.4057484,0.5625
E28011606000020612AF20CD,920.25,5.1541753,0.25
E28011606000020612AF900D,920.25,3.4054372,0.75
E28011606000020612AF20DD,920.25,0.42951462,1.125
E28011606000020612AF54FD,920.25,2.080078,0.9375
E28011606000020612AF54BD,920.25,6.221826,0.0
E28011606000020612AF549D,920.25,1.2087768,-0.8125
E28011606000020612AF905D,920.25,4.147884,0.625
E28011606000020612AF520D,920.25,5.737088,0.1875
E28011606000020612AF20FD,920.25,1.0431069,-0.1875
E28011606000020612AF905D,908.75,1.1658254,0.1875
E28011606000020612B0343C,908.75,0.7853982,0.5625
E28011606000020612AF902D,908.75,4.8289714,0.5
E28011606000020612AF54FD,908.75,1.4235342,-0.0625
E28011606000020612AF20FD,908.75,6.086836,0.0
E28011606000020612AF20CD,908.75,0.079767,0.0625
E28011606000020612AF20DD,908.75,4.1969714,0.5625
E28011606000020612AF20ED,922.75,3.663146,0.25
E28011606000020612AF20FD,922.75,4.3503695,1.25
E28011606000020612B068CC,922.75,5.178719,-1.0625
E28011606000020612AF206C,922.75,5.2093987,0.1875
E28011606000020612B0684C,922.75,5.0682726,-0.9375
E28011606000020612AF20CD,922.75,1.1596894,0.0
E28011606000020612AFC22C,922.75,0.957204,-3.0
E28011606000020612AF520D,922.75,4.9332824,0.5
E28011606000020612B068CC,922.75,1.1044662,-0.5
E28011606000020612AFC2CC,922.75,5.0007772,0.8125
E28011606000020612AF521C,922.75,5.804583,-0.9375
E28011606000020612AF52DD,922.75,0.319068,0.125
E28011606000020612B0688C,915.75,5.7984476,-0.1875
E28011606000020612B0327C,915.75,4.5958066,0.25
E28011606000020612AF208C,915.75,2.89002,0.875
E28011606000020612AF543D,915.75,6.1850104,-0.25
E28011606000020612AF20DD,915.75,1.276272,0.375
E28011606000020612AF20FD,915.75,5.737088,-0.1875
E28011606000020612AEE2FB,915.75,4.558991,-0.0625
E28011606000020612AF520D,915.75,6.227962,0.25
E28011606000020612AF54BC,915.75,5.4180202,0.0625
E28011606000020612AF90BC,915.75,3.344078,0.5625
E28011606000020612AFC2DC,919.75,1.59534,-0.125
E28011606000020612AF20DD,919.75,6.240234,-0.375
E28011606000020612AEE2FB,919.75,5.7064085,-1.3125
E28011606000020612AF20ED,919.75,0.85902923,0.0
E28011606000020612B0349C,919.75,4.5283113,-0.875
E28011606000020612AF20BD,919.75,6.2034183,0.125
E28011606000020612B0684C,910.75,5.1541753,-0.1875
E28011606000020612AEE2FB,910.75,1.3928546,-0.5
E28011606000020612AEE2FB,910.75,3.755185,-0.625
E28011606000020612B034EC,910.75,5.123496,0.125
E28011606000020612AF903D,910.75,0.957204,-0.4375
E28011606000020612AF20BD,910.75,5.638913,0.625
E28011606000020612B0680C,910.75,2.3193789,0.0
E28011606000020612AF547D,923.25,5.822991,-0.125
E28011606000020612AF520D,923.25,1.9512236,0.1875
E28011606000020612AF20CD,923.25,4.387185,0.8125
E28011606000020612AF540D,923.25,1.3867186,-0.5625
E28011606000020612B0687C,923.25,0.59518456,-0.125
E28011606000020612B0349C,923.25,6.1359234,-0.1875
E28011606000020612AF54AD,923.25,6.221826,-1.125
E28011606000020612AF20BD,923.25,0.41724277,0.125
E28011606000020612AF20CD,904.75,0.88357294,0.75
E28011606000020612AF20FD,904.75,1.0921943,0.4375
E28011606000020612B0007C,904.75,1.3376312,-1.3125
E28011606000020612AF54FD,904.75,0.9142526,-0.4375
E28011606000020612B068CC,904.75,5.454836,-0.5625
E28011606000020612B034EC,904.75,5.1541753,1.5
E28011606000020612AF522D,904.75,6.1788745,-1.9375
E28011606000020612AF902D,904.75,6.0991077,-1.0625
E28011606000020612AEE2EB,904.75,0.09817477,-0.625
E28011606000020612AF20FD,903.75,1.0246992,0.125
E28011606000020612AF903D,903.75,4.5037675,-0.4375
E28011606000020612AF20CD,903.75,0.35588354,0.5
E28011606000020612AF20EC,903.75,0.67495155,-0.125
E28011606000020612AF20BD,903.75,4.0435734,-0.0625
E28011606000020612B0686C,903.75,0.20862138,-0.4375
E28011606000020612AF20ED,903.75,5.3873405,0.0625
E28011606000020612AF520D,903.75,5.178719,0.625
E28011606000020612AF54FD,903.75,0.5031457,0.0625
E28011606000020612B0349C,924.75,2.080078,-0.375
E28011606000020612B0687C,924.75,1.4112623,-0.375
E28011606000020612AEE43C,924.75,2.2027965,0.4375
E28011606000020612AF544D,924.75,1.515573,-1.1875
E28011606000020612B068EC,924.75,0.30066022,-0.1875
E28011606000020612AF20BD,924.75,5.295302,0.875
E28011606000020612B034DC,924.75,0.88357294,0.25
E28011606000020612AF901D,915.25,5.5407386,-0.625
E28011606000020612AF20CD,915.25,5.620506,0.1875
E28011606000020612AF900D,915.25,6.221826,-0.9375
E28011606000020612B034EC,915.25,5.5223308,-0.1875
E28011606000020612AF904D,915.25,6.148195,0.0625
E28011606000020612B068CC,915.25,5.589826,0.4375
E28011606000020612AF902D,915.25,1.3008157,-3.1875
E28011606000020612AF20FD,915.25,5.737088,0.0
E28011606000020612AEE2EB,915.25,2.4298255,-0.5625
E28011606000020612AF520D,916.25,5.9457097,0.375
E28011606000020612AF20CD,916.25,0.5399612,0.25
E28011606000020612B068DC,916.25,5.7861757,-0.25
E28011606000020612AEE2FB,916.25,2.89002,-0.5625
E28011606000020612AF20ED,916.25,5.4671073,-0.0625
E28011606000020612AEE4DC,916.25,5.3750687,0.0
E28011606000020612AF20FC,916.25,5.4180202,0.375
E28011606000020612AF20CC,916.25,0.6565438,0.75
E28011606000020612AF209C,916.25,5.608234,0.25
E28011606000020612B0346C,916.25,6.062292,0.75
E28011606000020612B0686C,925.75,6.092972,-0.625
E28011606000020612AF52DD,925.75,0.3742913,0.5625
E28011606000020612AF54DC,925.75,5.8904862,-0.25
E28011606000020612AF20FC,925.75,1.0615147,0.5
E28011606000020612AF520D,925.75,1.4480779,0.25
E28011606000020612AF20CD,925.75,4.2031074,0.1875
E28011606000020612AF90CC,925.75,0.14112623,-0.75
E28011606000020612AEE4CC,925.75,5.123496,1.1875
E28011606000020612AF520D,925.75,5.5346026,0.0625
E28011606000020612B0009C,925.75,2.3684664,0.25
E28011606000020612AEE4CC,918.75,5.2523503,-0.1875
E28011606000020612AF90CC,918.75,0.319068,-1.1875
E28011606000020612AF20EC,918.75,4.0251656,0.0
E28011606000020612AF200C,918.75,1.9880391,0.125
E28011606000020612AF20ED,918.75,0.024543693,0.1875
E28011606000020612AF20BD,918.75,5.8720784,0.25
E28011606000020612AF20BD,918.75,1.0246992,0.0
E28011606000020612B034EC,919.25,6.227962,-0.1875
E28011606000020612AF20FC,919.25,0.30679616,0.25
E28011606000020612AF20FD,919.25,1.681243,0.0625
E28011606000020612AF20DD,919.25,0.70563114,0.0625
E28011606000020612AF520D,919.25,5.773904,0.0
E28011606000020612AEE47C,919.25,0.35588354,-0.125
E28011606000020612B032FC,919.25,4.147884,0.0
E28011606000020612AF200C,919.25,6.1236515,0.75
E28011606000020612AF206C,919.25,5.332117,0.5625
E28011606000020612B068BC,919.25,1.681243,0.75
E28011606000020612AF20AC,919.25,5.8598065,0.0625
E28011606000020612AF20ED,919.25,6.0991077,0.5
E28011606000020612B0942C,919.25,5.123496,-0.25
E28011606000020612AF20BC,914.75,2.0248547,0.375
E28011606000020612B068DC,914.75,5.2462144,-0.5
E28011606000020612AEE47C,914.75,5.78004,0.1875
E28011606000020612AF20DC,914.75,5.657321,0.25
E28011606000020612AF20DD,914.75,1.3744467,0.25
E28011606000020612AF20ED,914.75,4.264467,0.25
E28011606000020612AEE2EB,914.75,4.9026027,-0.8125
E28011606000020612AF529D,914.75,0.94493216,-0.4375
E28011606000020612AF902D,905.25,6.0377483,-1.3125
E28011606000020612AF54DC,905.25,5.2278066,-1.875
E28011606000020612AF20ED,905.25,6.056156,0.1875
E28011606000020612AF521D,905.25,0.8099418,-1.0625
E28011606000020612AF54CC,905.25,1.754874,-2.125
E28011606000020612AF20DD,905.25,5.473243,-0.125
E28011606000020612B0346C,905.25,0.59518456,-0.8125
E28011606000020612AF20EC,905.25,5.8413987,-0.5625
E28011606000020612AF200C,905.25,4.5160394,0.0
E28011606000020612AF520C,905.25,4.8964667,-0.1875
E28011606000020612AF20DD,905.25,0.23316509,0.0625
E28011606000020612AFC4AC,905.25,5.362797,0.0
E28011606000020612AF90BC,905.25,0.06135923,-0.375
E28011606000020612AF20DD,911.25,2.1353014,0.25
E28011606000020612AF20CD,911.25,1.1780972,0.0
E28011606000020612B0682C,911.25,1.6137478,0.75
E28011606000020612AF209C,911.25,5.988661,0.1875
E28011606000020612B0007C,911.25,0.57064086,1.75
E28011606000020612AF200C,911.25,5.761632,0.1875
E28011606000020612AF20FD,911.25,0.3681554,-0.1875
E28011606000020612AEE4EC,911.25,0.17180584,2.6875
E28011606000020612B034BC,911.25,1.4787575,0.125
E28011606000020612AF205C,911.25,5.773904,0.1875
E28011606000020612AF20BD,911.25,5.197127,0.625
E28011606000020612AEE4FC,911.25,1.2210487,0.8125
E28011606000020612AF54CC,911.25,5.356661,0.0
E28011606000020612AF207C,920.75,4.558991,-0.5
E28011606000020612AF20DD,920.75,0.52155346,0.125
E28011606000020612B0683C,920.75,4.730797,-1.0625
E28011606000020612AF20BD,920.75,5.7923117,0.5
E28011606000020612AF20ED,920.75,3.3318062,-0.1875
E28011606000020612AF20EC,920.75,5.424156,-0.9375
E28011606000020612AFC4AC,920.75,4.7982917,0.75
E28011606000020612AF54FD,920.75,0.049087387,2.875
E28011606000020612B0941C,920.75,3.583379,-0.5625
E28011606000020612AF20CD,920.75,1.6689711,0.375
E28011606000020612AF20FD,920.75,4.295146,0.25
E28011606000020612AF20DD,911.75,4.080389,0.5
E28011606000020612AF20DC,911.75,0.1349903,0.125
E28011606000020612AF20FD,911.75,5.927302,0.0
E28011606000020612AF20ED,911.75,4.417865,0.125
E28011606000020612AF20CD,911.75,6.1052437,0.125
E28011606000020612AF208C,911.75,1.276272,0.25
E28011606000020612B068BC,911.75,0.07363108,-0.1875
E28011606000020612AF20DC,911.75,5.11736,0.0625
E28011606000020612AEE4FC,911.75,0.85902923,0.125
E28011606000020612AF20ED,911.75,2.4543693,0.0
E28011606000020612B0686C,926.75,4.95169,-0.25
E28011606000020612AEE4DC,926.75,4.28901,0.1875
E28011606000020612AF20FC,926.75,5.497787,0.25
E28011606000020612AF20DD,926.75,0.3742913,0.0625
E28011606000020612B034BC,926.75,5.5530105,0.25
E28011606000020612AEE2FB,926.75,1.7426022,-0.1875
E28011606000020612AF520D,926.75,1.4910294,0.0
E28011606000020612AF20CD,926.75,5.6818647,0.375
E28011606000020612AEE2EB,926.75,0.239301,0.0
E28011606000020612AF20ED,906.75,5.620506,-0.0625
E28011606000020612AF20BD,906.75,5.4057484,0.125
E28011606000020612AF521C,906.75,2.1598449,0.0625
E28011606000020612AF20DD,906.75,4.712389,0.375
E28011606000020612B068CC,906.75,4.9210105,0.8125
E28011606000020612AF20FD,906.75,0.319068,0.25
E28011606000020612AF20CD,906.75,0.7669904,0.1875
E28011606000020612AF20FC,906.75,0.79767,-0.125
E28011606000020612B0683C,906.75,6.086836,0.5625
E28011606000020612AEE2FB,906.75,5.037593,0.5
E28011606000020612AF207C,907.75,0.6626797,-0.9375
E28011606000020612AF20BD,907.75,5.0805445,0.0625
E28011606000020612AF20BD,907.75,0.16566992,0.1875
E28011606000020612AF20FC,907.75,0.43565056,0.0625
E28011606000020612AEE44C,907.75,0.10431069,0.0
E28011606000020612AF20AC,907.75,0.49087384,0.0625
E28011606000020612AF54CC,907.75,3.583379,0.0625
E28011606000020612AEE43C,912.25,2.4420974,0.125
E28011606000020612AF20FC,912.25,1.8837284,0.125
E28011606000020612AF546C,912.25,5.0007772,-4.5
E28011606000020612AF203C,912.25,0.6810875,-0.625
E28011606000020612B0348C,912.25,1.6628351,0.125
E28011606000020612AF20FD,912.25,2.4114177,0.25
E28011606000020612AEE2EB,912.25,5.9518456,-0.0625
E28011606000020612AF20BD,912.25,2.4666412,0.0
E28011606000020612AF20ED,926.25,5.7186804,0.1875
E28011606000020612AF20BD,926.25,1.7119225,0.125
E28011606000020612B068CC,926.25,5.5591464,0.0625
E28011606000020612AEE4BC,926.25,4.1662917,2.5
E28011606000020612AEE2EB,926.25,4.258331,-0.0625
E28011606000020612AF20CD,926.25,0.70563114,0.5625
E28011606000020612B0945D,914.25,4.1172047,-1.125
E28011606000020612AF20ED,914.25,0.7424467,0.5625
E28011606000020612AF20FD,914.25,5.350525,0.5
E28011606000020612AFC4FC,914.25,4.712389,0.625
E28011606000020612AF20CD,914.25,4.565127,0.0
E28011606000020612AF20DD,914.25,4.95169,0.1875
E28011606000020612AF520C,914.25,2.4175537,0.25
E28011606000020612AF521D,914.25,1.6566993,0.125
E28011606000020612AF204C,914.25,3.8533597,-0.0625
E28011606000020612AF20EC,914.25,0.31293207,0.0
E28011606000020612AF20FC,914.25,1.3314953,0.0
E28011606000020612AF20BC,914.25,1.4664856,0.1875
E28011606000020612AF905D,914.25,2.0862138,0.625
E28011606000020612AF520D,914.25,0.31293207,0.25
E28011606000020612AF20CC,909.75,4.8964667,-0.25
E28011606000020612AF20DD,909.75,2.644583,0.125
E28011606000020612AF521C,909.75,4.7860203,0.1875
E28011606000020612AF20DC,909.75,1.8162333,-0.0625
E28011606000020612AF20ED,909.75,5.61437,0.1875
E28011606000020612AF20FD,909.75,5.908894,0.1875
E28011606000020612AF20FC,909.75,5.976389,0.0625
E28011606000020612B068BC,909.75,5.61437,-0.8125
E28011606000020612AF520C,902.75,5.645049,-1.5
E28011606000020612AF20FC,902.75,0.5829127,0.0
E28011606000020612AEE2EB,902.75,0.31293207,-0.625
E28011606000020612AF20CD,902.75,4.7369328,0.1875
E28011606000020612AF528D,902.75,1.7855537,-0.5
E28011606000020612AEE2FB,902.75,4.865787,-0.25
E28011606000020612B0683C,902.75,5.7861757,0.0625
E28011606000020612B0942C,902.75,4.9210105,0.1875
E28011606000020612AFC27C,902.75,4.104933,0.1875
E28011606000020612AF20BD,902.75,5.7186804,0.0625
E28011606000020612AF20CD,906.25,1.9450877,0.0625
E28011606000020612AEE4FC,906.25,0.9633399,0.125
E28011606000020612AF906D,906.25,1.8591847,-0.875
E28011606000020612AF520D,906.25,1.5585245,0.1875
E28011606000020612B0004C,906.25,1.9328158,0.5
E28011606000020612AF20DC,906.25,1.1535536,-0.375
E28011606000020612AF905C,906.25,0.20248546,-0.25
E28011606000020612AEE4EC,906.25,2.1168935,-0.625
E28011606000020612AEE4AC,906.25,1.6566993,0.1875
E28011606000020612AEE41C,906.25,6.142059,-0.375
E28011606000020612B034BC,906.25,5.7064085,0.125
E28011606000020612AEE41C,910.25,1.0860584,-0.625
E28011606000020612AF541C,910.25,5.7861757,0.0625
E28011606000020612AF20BD,910.25,5.454836,0.5
E28011606000020612AF20EC,910.25,5.3137093,-0.0625
E28011606000020612AF54DC,910.25,5.829127,0.1875
E28011606000020612B0346C,910.25,1.7241944,-0.9375
E28011606000020612AF520D,910.25,5.1541753,1.0625
E28011606000020612B068CC,910.25,0.03681554,-6.4375
E28011606000020612AF20FD,910.25,6.062292,0.0625
E28011606000020612AF20FD,922.25,4.4976315,0.1875
E28011606000020612B0942C,922.25,6.2709136,-0.875
E28011606000020612B0349C,922.25,4.6142144,-0.25
E28011606000020612AF525D,922.25,1.9021362,-0.875
E28011606000020612B0343C,922.25,1.748738,0.0
E28011606000020612AFC2CC,922.25,1.1044662,-0.75
E28011606000020612B034BC,905.75,1.1780972,0.0
E28011606000020612AFC22C,905.75,0.33133984,0.625
E28011606000020612AF20CD,905.75,5.2093987,0.375
E28011606000020612AF20DD,905.75,6.221826,0.25
E28011606000020612AF20BD,905.75,0.558369,0.5
E28011606000020612B0945D,905.75,0.0,3.8125
E28011606000020612AF202C,905.75,5.28303,-0.5
E28011606000020612AFC48C,905.75,6.0009327,-0.375
E28011606000020612B034DC,905.75,2.0862138,-0.5625
E28011606000020612AEE41C,905.75,0.45405832,-0.625
E28011606000020612AF90CC,905.75,0.5522331,-1.0625
E28011606000020612AEE41C,918.25,3.7981365,0.0625
E28011606000020612B0683C,918.25,1.3130876,-0.1875
E28011606000020612AF20BD,918.25,2.8593402,0.1875
E28011606000020612B0942C,918.25,1.4542137,-0.4375
E28011606000020612B0941C,918.25,5.939574,-0.375
E28011606000020612B0682C,918.25,5.497787,0.0
E28011606000020612AF20CD,918.25,1.8653207,-0.0625
E28011606000020612B034BC,918.25,0.22702916,0.0
E28011606000020612AF20DD,927.25,2.6077673,0.5625
E28011606000020612AF20BD,927.25,1.4296701,0.0625
E28011606000020612B0941C,927.25,1.4173982,-0.5
E28011606000020612AF20FD,927.25,3.9392626,0.0625
E28011606000020612B0942C,927.25,4.534447,-1.125
E28011606000020612AF20FD,927.25,6.2647777,0.0
E28011606000020612AF90BC,927.25,5.7186804,-1.0625
E28011606000020612AF20DD,927.25,5.829127,0.0
E28011606000020612AEE2FB,912.75,5.5346026,-1.0625
E28011606000020612AEE49C,912.75,0.41110685,-0.625
E28011606000020612AF20CD,912.75,1.4112623,-0.1875
E28011606000020612AF54FD,912.75,1.6137478,-0.625
E28011606000020612AF52ED,912.75,3.4422529,-1.125
E28011606000020612AF20BD,912.75,5.479379,0.0625
E28011606000020612B034BC,912.75,0.59518456,-0.625
E28011606000020612B034EC,912.75,0.7731263,-1.9375
E28011606000020612AF20ED,912.75,5.0007772,0.0625
E28011606000020612AF20DD,912.75,1.6382915,0.625
E28011606000020612AF20DD,904.25,5.0805445,0.5
E28011606000020612AF20ED,904.25,5.5714183,0.75
E28011606000020612AF20CD,904.25,0.72403896,0.125
E28011606000020612AF20FD,904.25,0.558369,0.4375
E28011606000020612AF20BD,904.25,5.5652823,0.1875
E28011606000020612B068BC,921.25,5.197127,-1.8125
E28011606000020612AF20CD,921.25,1.030835,0.0625
E28011606000020612AF20BD,921.25,2.7611654,0.625
E28011606000020612AFC49C,921.25,0.44178647,-1.5
E28011606000020612B0941C,921.25,4.859651,-1.125
E28011606000020612AF20DD,921.25,0.239301,-0.125
E28011606000020612B0349C,921.25,0.5276894,-1.125
E28011606000020612AF20ED,921.25,0.12271846,0.75
E28011606000020612AF20FD,917.25,0.7485826,0.5
E28011606000020612AFC48C,917.25,0.8222137,-0.0625
E28011606000020612AF20DD,917.25,0.89584476,0.375
E28011606000020612AF520D,917.25,5.7984476,0.125
E28011606000020612AEE49C,917.25,4.9271464,0.1875
E28011606000020612AF904D,917.25,1.1535536,-1.5
E28011606000020612AF20EC,917.25,1.9205439,-0.4375
E28011606000020612AF20BD,917.25,1.2885438,0.0625
E28011606000020612AF20ED,917.25,4.2767386,0.5
E28011606000020612AEE4DC,907.25,0.34974763,-0.0625
E28011606000020612AF520D,907.25,5.663457,-0.125
E28011606000020612AF20ED,907.25,5.78004,0.125
E28011606000020612AF20FD,907.25,0.45405832,0.5625
E28011606000020612AF20CD,907.25,0.59518456,0.625
E28011606000020612AEE4DC,921.75,4.0374374,-1.25
E28011606000020612B0942C,921.75,2.3684664,-1.5625
E28011606000020612AF522D,921.75,0.73017484,-0.8125
E28011606000020612AEE2FB,921.75,0.83448553,-0.9375
E28011606000020612B0683C,921.75,5.78004,1.3125
E28011606000020612AF20ED,921.75,5.1480393,1.8125
E28011606000020612AF520D,921.75,2.2150683,0.375
E28011606000020612AF20FD,921.75,1.2517283,0.5
E28011606000020612B0682C,917.75,6.1052437,-2.5625
E28011606000020612AF20CD,917.75,5.9457097,0.1875
E28011606000020612AF20DD,917.75,1.8162333,-2.5
E28011606000020612AF20BD,917.75,1.0124273,0.5625
E28011606000020612AF520D,917.75,6.05002,0.125
E28011606000020612B032FC,917.75,1.5339808,0.1875
E28011606000020612AEE4CC,917.75,3.8226802,-2.9375
E28011606000020612AF200C,917.75,1.4726216,-2.9375
E28011606000020612AF20FD,917.75,5.0560007,0.25
E28011606000020612AF520D,916.75,1.4971652,-0.375
E28011606000020612AF520C,916.75,4.000622,2.875
E28011606000020612AF20ED,916.75,0.77926224,0.625
E28011606000020612AF20FD,916.75,4.8166995,-0.1875
E28011606000020612AF20CD,916.75,1.914408,0.125
E28011606000020612AF20BD,909.25,5.7861757,0.0
E28011606000020612AEE2EB,909.25,0.0061359233,-1.3125
E28011606000020612AF20EC,909.25,0.4233787,-0.5
E28011606000020612AF20DD,909.25,2.8470683,-0.875
E28011606000020612AF520D,909.25,4.221515,0.5625
E28011606000020612B0007C,909.25,0.30679616,-0.625
E28011606000020612AF20ED,909.25,5.3137093,0.875
E28011606000020612AF20CD,909.25,5.436428,0.625
E28011606000020612AEE47C,908.25,1.675107,0.5625
E28011606000020612AF90BC,908.25,0.49087384,0.5625
E28011606000020612AF20DD,908.25,2.6077673,-1.25
E28011606000020612AEE45C,908.25,1.6873789,4.375
E28011606000020612AF20BD,908.25,4.565127,0.375
E28011606000020612AF20FD,908.25,5.663457,0.5
E28011606000020612AF20CD,925.25,0.6933593,0.625
E28011606000020612AF520D,925.25,6.1727386,0.0625
E28011606000020612AF20ED,925.25,6.0316124,-0.0625
E28011606000020612AEE45C,925.25,5.638913,0.9375
E28011606000020612AF20BC,924.25,5.5346026,-0.25
E28011606000020612AF20FD,924.25,1.2271847,0.25
E28011606000020612AF520C,924.25,0.6626797,-0.5
E28011606000020612AF20EC,924.25,5.7125444,-1.0625
E28011606000020612AF520D,924.25,5.184855,0.125
E28011606000020612AEE47C,924.25,1.0553788,-1.8125
E28011606000020612AF520D,913.25,0.42951462,0.5
E28011606000020612B034DC,913.25,4.1969714,-1.125
E28011606000020612AF20BD,913.25,3.4913402,0.1875
E28011606000020612AF20DD,913.25,5.270758,0.0
E28011606000020612B0942C,913.25,4.1969714,0.125
E28011606000020612AF20FD,913.25,5.1480393,0.5
E28011606000020612AF20BD,923.75,2.5709517,0.0
E28011606000020612AF520D,923.75,0.61972827,-0.375
E28011606000020612AF520D,923.75,1.834641,0.25
E28011606000020612AF20DD,923.75,5.970253,0.0625
E28011606000020612AF20BD,923.75,0.2638447,0.375
E28011606000020612B0942C,903.25,5.651185,-0.875
E28011606000020612AF520D,903.25,5.0928164,0.0
E28011606000020612AF522D,903.25,6.1297874,0.1875
E28011606000020612AF20DD,903.25,3.4790685,0.25
E28011606000020612AF20BD,903.25,0.6810875,0.375
E28011606000020612AF20ED,903.25,6.1911464,-0.0625
E28011606000020612AF20FD,913.75,5.264622,0.0625
E28011606000020612AF20ED,913.75,4.160156,0.8125
E28011606000020612AF20BD,913.75,0.34974763,0.0625
E28011606000020612AF520D,913.75,4.7982917,-0.5625
E28011606000020612AF20FD,920.25,4.295146,0.5625
E28011606000020612AF520D,920.25,2.3193789,0.125
E28011606000020612AF20BD,920.25,1.030835,0.0
E28011606000020612AF20DD,920.25,6.1666026,0.1875
E28011606000020612AF20DD,908.75,2.2641556,0.125
E28011606000020612AF20BD,908.75,5.816855,0.1875
E28011606000020612AF20FD,908.75,2.5893595,0.625
E28011606000020612AF520D,908.75,1.1658254,0.375
E28011606000020612AF20ED,908.75,1.4603497,0.5625
E28011606000020612B0942C,908.75,1.5892041,-0.25
E28011606000020612AF20FD,922.75,4.9026027,0.5625
E28011606000020612AF20CD,922.75,1.3683108,0.5
E28011606000020612AF520D,922.75,0.77926224,0.0625
E28011606000020612AF20DD,922.75,0.0061359233,0.0625
E28011606000020612AF20DD,915.75,1.1965051,0.0625
E28011606000020612AF520D,915.75,0.04295146,0.75
E28011606000020612AF20ED,915.75,5.8659425,-0.0625
E28011606000020612AF20FD,915.75,1.6321555,0.1875
E28011606000020612AF520D,919.75,2.4298255,0.0625
E28011606000020612AF20FD,919.75,0.46633017,0.25
E28011606000020612AF20DD,919.75,0.48473793,0.1875
E28011606000020612AF20CD,919.75,0.8222137,0.0
E28011606000020612AF20FD,919.75,4.853515,0.4375
E28011606000020612AF20DD,919.75,6.0254765,0.375
E28011606000020612AF20FD,910.75,5.921166,0.1875
E28011606000020612AF20BD,910.75,1.1780972,0.625
E28011606000020612AF20CD,910.75,2.8470683,0.0625
E28011606000020612AF20ED,910.75,5.491651,0.25
E28011606000020612AF20FD,923.25,5.810719,0.125
E28011606000020612AF20ED,923.25,1.6444274,-0.25
E28011606000020612AF20CD,923.25,0.12271846,0.4375
E28011606000020612AF520D,923.25,1.8591847,0.125
E28011606000020612AF20BD,923.25,5.921166,0.125
E28011606000020612AF20BD,904.75,3.6079228,0.375
E28011606000020612AF20CD,904.75,4.4546804,0.0
E28011606000020612AF20FD,904.75,4.4424086,0.125
E28011606000020612AF20BD,904.75,5.58369,0.125
E28011606000020612AF20ED,903.75,1.2640002,0.125
E28011606000020612AF20FD,903.75,0.81607777,0.25
E28011606000020612AF20BD,903.75,5.7064085,0.1875
E28011606000020612AF20CD,903.75,4.258331,0.25
E28011606000020612AF20DD,903.75,4.884195,-0.0625
E28011606000020612AF20BD,924.75,5.5714183,0.0625
E28011606000020612AF520D,924.75,1.5892041,0.5625
E28011606000020612AF20ED,924.75,6.0377483,1.25
E28011606000020612AF20DD,924.75,5.5714183,0.375
E28011606000020612AF20FD,924.75,0.15339808,0.1875
E28011606000020612AF20FD,915.25,1.9082721,0.4375
E28011606000020612B034DC,915.25,2.1782527,-0.25
E28011606000020612AF20BD,915.25,1.3253593,0.0
E28011606000020612AF20FD,915.25,5.485515,0.25
E28011606000020612AF20DD,915.25,3.3686218,0.0625
E28011606000020612AF20BD,915.25,3.5465636,0.5625
E28011606000020612AF520D,915.25,5.589826,0.8125
E28011606000020612AF20ED,916.25,4.080389,0.25
E28011606000020612AF20CD,916.25,5.332117,0.1875
E28011606000020612AF20BD,916.25,0.30066022,0.5625
E28011606000020612B034BC,916.25,1.7426022,0.0
E28011606000020612AEE43C,916.25,0.72403896,1.5
E28011606000020612AF20BD,925.75,5.4057484,-0.375
E28011606000020612AF20FD,925.75,6.2034183,0.0625
E28011606000020612AF20CD,925.75,1.5094371,0.0
E28011606000020612AF520D,925.75,1.3989905,0.5625
E28011606000020612AF20DD,925.75,5.5407386,0.125
E28011606000020612AF20BD,918.75,0.5767768,0.375
E28011606000020612AF20CD,918.75,1.834641,0.1875
E28011606000020612AF20FD,918.75,4.5037675,0.5625
E28011606000020612AF20DD,919.25,6.1727386,0.0
E28011606000020612AF20FD,919.25,4.7982917,0.75
E28011606000020612AF20ED,919.25,0.6626797,0.0
E28011606000020612AF520D,919.25,1.5094371,-0.0625
E28011606000020612AF20FD,919.25,1.4173982,0.0
E28011606000020612B068BC,914.75,4.546719,0.25
E28011606000020612AF20CD,914.75,0.7117671,0.5625
E28011606000020612B068CC,914.75,2.0309906,0.5625
E28011606000020612AFC2CC,914.75,3.9576705,0.125
E28011606000020612AF20FD,914.75,1.9941751,0.25
E28011606000020612AF520D,914.75,0.06749515,0.375
E28011606000020612B034DC,914.75,6.0254765,1.0625
E28011606000020612AEE2EB,914.75,5.197127,0.5
E28011606000020612AF20FD,905.25,4.5958066,0.4375
E28011606000020612AF20BD,905.25,5.3137093,-0.375
E28011606000020612AF520D,905.25,4.687845,-0.75
E28011606000020612AF20CD,905.25,0.8467574,-0.1875
E28011606000020612AF20CD,911.25,5.9641175,0.375
E28011606000020612AF20ED,911.25,5.2523503,0.375
E28011606000020612AF20FD,911.25,5.982525,0.4375
E28011606000020612AF52AD,911.25,1.3253593,-0.5
E28011606000020612AEE43C,911.25,0.47246608,-0.1875
E28011606000020612AF20DD,920.75,0.24543692,0.0625
E28011606000020612AF20BD,920.75,0.23316509,0.375
E28011606000020612AF520D,920.75,2.233476,0.25
E28011606000020612AF20CD,920.75,0.15339808,0.375
E28011606000020612AF20FD,920.75,0.3926991,0.1875
E28011606000020612AF20CD,911.75,5.896622,0.75
E28011606000020612AF20FD,911.75,5.61437,0.0
E28011606000020612AF20ED,911.75,5.0928164,-0.0625
E28011606000020612AF20DD,926.75,5.436428,-0.0625
E28011606000020612AF520D,926.75,1.3376312,0.5
E28011606000020612B0349C,926.75,0.11658254,-0.1875
E28011606000020612AF20CD,926.75,5.0928164,-0.125
E28011606000020612AEE2FB,926.75,4.6694374,0.0625
E28011606000020612AF20ED,906.75,1.9266798,0.1875
E28011606000020612AF20BD,906.75,0.049087387,0.1875
E28011606000020612AF520D,906.75,4.884195,0.125
E28011606000020612AF20DD,906.75,5.91503,0.875
E28011606000020612B0349C,906.75,4.2828746,-0.375
E28011606000020612AF520D,906.75,4.227651,0.5
E28011606000020612AF20ED,907.75,6.0070686,0.0625
E28011606000020612AF20BD,907.75,4.853515,0.75
E28011606000020612AF20CD,907.75,0.319068,0.125
E28011606000020612B0348C,907.75,0.9387962,0.375
E28011606000020612AF520D,912.25,0.77926224,0.625
E28011606000020612AF20FD,912.25,5.773904,0.0625
E28011606000020612AF20BD,912.25,4.884195,0.625
E28011606000020612AF20CD,912.25,4.9210105,0.5625
E28011606000020612AF20ED,912.25,5.927302,0.0
E28011606000020612AF20DD,912.25,1.5769322,0.0
E28011606000020612AF20ED,926.25,5.773904,0.5
E28011606000020612AF20CD,926.25,0.70563114,0.125
E28011606000020612AF20ED,926.25,2.4052818,0.125
E28011606000020612B0942C,926.25,4.4485445,-0.0625
E28011606000020612AF20CD,914.25,2.4175537,0.125
E28011606000020612AF20BD,914.25,0.60132045,0.625
E28011606000020612AF20FD,914.25,5.3075733,0.0625
E28011606000020612AF520D,909.75,4.411729,0.0
E28011606000020612AF20BD,909.75,2.3868742,0.1875
E28011606000020612AF20CD,909.75,5.5714183,0.0
E28011606000020612AF20DD,909.75,2.1414373,0.125
E28011606000020612AF20ED,909.75,0.38042724,0.0625
E28011606000020612AF20FD,902.75,5.0989523,0.4375
E28011606000020612AF20CD,902.75,0.8651652,0.25
E28011606000020612AF520D,902.75,5.362797,0.5625
E28011606000020612B0348C,902.75,0.16566992,-0.0625
E28011606000020612AF20BD,902.75,5.651185,0.0
E28011606000020612AF20CD,906.25,0.5645049,0.375
E28011606000020612AF20ED,906.25,0.024543693,0.0625
E28011606000020612AF20BD,906.25,5.0928164,0.125
E28011606000020612AF20DD,906.25,4.8289714,0.125
E28011606000020612AF520D,906.25,4.399457,0.0
E28011606000020612B0349C,906.25,4.9087386,0.0
E28011606000020612AF20BD,910.25,5.344389,0.625
E28011606000020612AF20CD,910.25,2.3316507,-0.0625
E28011606000020612AF520D,910.25,4.313554,0.25
E28011606000020612AF52AD,910.25,5.043729,0.1875
E28011606000020612AF20DD,910.25,2.0187187,0.1875
E28011606000020612AF20CD,922.25,1.276272,0.5
E28011606000020612AF20BD,922.25,2.3930101,0.0
E28011606000020612AF520D,905.75,4.626486,0.125
E28011606000020612AF20CD,905.75,0.6810875,0.375
E28011606000020612B0348C,905.75,5.013049,0.125
E28011606000020612AF20CD,905.75,0.62586415,0.1875
E28011606000020612AF520D,905.75,4.9946413,0.5
E28011606000020612AF20FD,905.75,1.1719613,0.1875
E28011606000020612AF20BD,918.25,0.62586415,0.8125
E28011606000020612B034BC,918.25,0.50928164,0.1875
E28011606000020612AEE42C,918.25,1.116738,-0.0625
E28011606000020612B068BC,918.25,2.5648158,-0.0625
E28011606000020612B0349C,918.25,6.24637,-0.1875
E28011606000020612AF20DD,918.25,0.60132045,0.125
E28011606000020612AF20FD,918.25,1.1596894,0.25
E28011606000020612AEE43C,918.25,5.2093987,-1.125
E28011606000020612AF20BD,927.25,1.8162333,0.1875
E28011606000020612AF20CD,927.25,0.5829127,0.5
E28011606000020612AF520D,927.25,5.743224,0.375
E28011606000020612B0942C,927.25,0.57064086,0.25
E28011606000020612AF20BD,912.75,0.81607777,0.25
E28011606000020612B034BC,912.75,0.9265244,0.375
E28011606000020612AF20DD,912.75,1.4787575,0.375
E28011606000020612AF20FD,912.75,5.657321,-0.125
E28011606000020612B034BC,912.75,0.0,-0.25
E28011606000020612AF520D,912.75,0.70563114,0.5625
E28011606000020612AF20CD,912.75,5.013049,0.0
E28011606000020612AF20BD,904.25,0.59518456,0.625
E28011606000020612AF20FD,921.25,4.4914956,0.1875
E28011606000020612AF20CD,921.25,1.4603497,0.1875
E28011606000020612AF20ED,921.25,0.14112623,0.25
E28011606000020612AF20CD,917.25,5.0989523,-0.1875
E28011606000020612B034DC,917.25,0.5522331,1.0625
E28011606000020612AF20CD,917.25,0.6872234,0.1875
E28011606000020612AF20DD,917.25,0.85902923,0.25
E28011606000020612AF520D,917.25,5.976389,0.375
E28011606000020612B034BC,917.25,1.0124273,0.1875
E28011606000020612AEE43C,917.25,6.068428,-0.125
E28011606000020612AF20FD,907.25,0.7853982,0.1875
E28011606000020612AF20BD,907.25,6.1666026,0.5
E28011606000020612AF520D,907.25,4.8105636,0.125
E28011606000020612AF20CD,907.25,0.14112623,0.125
E28011606000020612AF20DD,907.25,4.700117,0.125
E28011606000020612AF20BD,921.75,5.651185,0.5
E28011606000020612AF20FD,921.75,4.466952,0.1875
E28011606000020612AF20ED,921.75,0.07363108,0.25
E28011606000020612AF520D,921.75,0.60132045,0.1875
E28011606000020612AF20CD,921.75,1.3989905,-0.1875
E28011606000020612AF520D,917.75,5.8782144,0.1875
E28011606000020612B068CC,917.75,6.1727386,0.8125
E28011606000020612AF20FD,917.75,1.2824079,0.25
E28011606000020612AF52AD,917.75,1.0676507,0.0
E28011606000020612AF20BD,917.75,0.79153407,0.5625
E28011606000020612AEE43C,917.75,5.8843503,0.125
E28011606000020612B034BC,916.75,1.7057866,-0.5625
E28011606000020612AF20FD,916.75,4.718525,0.0625
E28011606000020612AF20ED,916.75,4.2031074,0.125
E28011606000020612AF20CD,916.75,5.0866804,0.5
E28011606000020612AF20DD,909.25,4.5160394,0.0
E28011606000020612AF20FD,909.25,6.1236515,0.5
E28011606000020612AF20CD,909.25,6.252506,0.1875
E28011606000020612AF20ED,909.25,5.6941366,0.375
E28011606000020612AF20ED,908.25,0.99401957,0.0
E28011606000020612AF20BD,908.25,5.902758,0.25
E28011606000020612AF20FD,908.25,0.5645049,0.5
E28011606000020612AEE44C,908.25,4.687845,-0.9375
E28011606000020612AEE43C,908.25,5.0805445,0.4375
E28011606000020612AF20DD,908.25,2.4420974,0.375
E28011606000020612AF20CD,908.25,6.0991077,0.1875
E28011606000020612AF520D,908.25,1.5033011,0.25
E28011606000020612AF20FD,925.25,4.1785636,0.25
E28011606000020612AF520D,924.25,6.1666026,0.0625
E28011606000020612AF20BD,924.25,2.1659808,0.1875
E28011606000020612AF20ED,924.25,5.908894,0.25
E28011606000020612AF20DD,924.25,5.602098,0.125
E28011606000020612B0349C,913.25,2.478913,-0.1875
E28011606000020612AF20ED,913.25,5.516195,0.1875
E28011606000020612AF20CD,913.25,1.7855537,0.0625
E28011606000020612AF20BD,913.25,4.7860203,0.375
E28011606000020612AF20DD,913.25,1.435806,0.0625
E28011606000020612B034BC,913.25,5.976389,1.25
E28011606000020612AF20FD,913.25,2.3316507,0.0625
E28011606000020612B0942C,913.25,5.8598065,-0.25
E28011606000020612AF52AD,913.25,0.12885438,0.0
E28011606000020612AEE2EB,913.25,0.06135923,0.5
E28011606000020612AF20DD,923.75,5.835263,0.125
E28011606000020612AF20BD,923.75,2.2273402,0.125
E28011606000020612AF20CD,923.75,1.0492429,0.375
E28011606000020612AF20FD,923.75,4.3626413,0.4375
E28011606000020612AF520D,923.75,6.142059,0.125
E28011606000020612AF20CD,903.25,1.1842332,0.5
E28011606000020612AF20BD,903.25,5.5591464,0.0625
E28011606000020612AF520D,903.25,5.013049,0.25
E28011606000020612AF520D,903.25,5.3137093,0.25
E28011606000020612AF20BD,913.75,1.5769322,0.1875
E28011606000020612AF20CD,913.75,4.792156,0.125
E28011606000020612AF20FD,913.75,2.1905246,0.1875
E28011606000020612AF20BD,920.25,2.8163888,0.4375
E28011606000020612AF20CD,920.25,1.6137478,0.125
E28011606000020612AF20DD,920.25,2.2702916,0.0
E28011606000020612AF20FD,920.25,4.6019425,0.4375
E28011606000020612AF520D,920.25,1.2087768,0.125
E28011606000020612AF20DD,908.75,5.510059,0.125
E28011606000020612AF20BD,908.75,5.761632,0.375
E28011606000020612AF20FD,908.75,0.5031457,0.125
E28011606000020612AF20FD,922.75,0.030679615,0.25
E28011606000020612AF20ED,922.75,0.25157285,0.4375
E28011606000020612AF20BD,922.75,6.0009327,0.1875
E28011606000020612AF520D,922.75,1.9328158,0.0625
E28011606000020612AF20CD,922.75,4.3626413,0.5
E28011606000020612AF20ED,915.75,4.3626413,0.1875
E28011606000020612AF20BD,915.75,0.33133984,0.5625
E28011606000020612AF20CD,915.75,5.2339425,0.375
E28011606000020612AF20BD,919.75,0.2883884,0.5
E28011606000020612B068BC,919.75,2.0493984,0.5625
E28011606000020612AF20ED,919.75,4.571263,0.0625
E28011606000020612B0942C,919.75,6.1972823,0.4375
E28011606000020612AF20CD,919.75,0.07363108,0.0625
E28011606000020612AF20DD,919.75,0.20248546,0.1875
E28011606000020612AF20FD,919.75,0.717903,0.25
E28011606000020612B034DC,910.75,4.9394183,0.0625
E28011606000020612AF520D,910.75,5.5652823,0.125
E28011606000020612AF20DD,910.75,3.9944859,0.125
E28011606000020612AF20BD,910.75,4.313554,0.1875
E28011606000020612AF20CD,910.75,6.0132046,0.375
E28011606000020612AF20ED,923.25,6.062292,0.5625
E28011606000020612AF20FD,923.25,4.393321,0.125
E28011606000020612AF20BD,923.25,5.3934765,0.25
E28011606000020612B034BC,923.25,4.12334,0.75
E28011606000020612AF520D,904.75,5.1480393,0.25
E28011606000020612AF20CD,904.75,0.877437,0.5
E28011606000020612AF20BD,904.75,0.5031457,0.4375
E28011606000020612AF20FD,904.75,4.5896707,0.0
E28011606000020612AF20DD,904.75,6.227962,0.1875
E28011606000020612AF20BD,903.75,0.6810875,0.625
E28011606000020612AF20DD,903.75,0.05522331,0.1875
E28011606000020612AF20FD,903.75,0.877437,0.1875
E28011606000020612AF20CD,903.75,1.0921943,0.5625
E28011606000020612AF20ED,903.75,0.6135923,0.1875
E28011606000020612AF20BD,903.75,5.4671073,0.125
E28011606000020612AF20BD,924.75,2.153709,0.0625
E28011606000020612AF520D,924.75,6.068428,0.125
E28011606000020612AF20CD,924.75,2.0125828,0.1875
E28011606000020612AF20CD,915.25,1.2149128,0.1875
E28011606000020612AF20ED,915.25,5.2462144,0.0625
E28011606000020612AF20BD,915.25,1.356039,0.5625
E28011606000020612AF20FD,915.25,5.0621367,0.4375
E28011606000020612AEE2EB,915.25,4.5835347,0.5
E28011606000020612AF20DD,915.25,1.2271847,0.0625
E28011606000020612AF20ED,916.25,4.2767386,0.25
E28011606000020612AF20BD,916.25,0.2699806,0.1875
E28011606000020612AF20FD,916.25,5.025321,0.4375
E28011606000020612AF20FD,925.75,4.080389,0.625
E28011606000020612AF20ED,925.75,2.478913,0.25
E28011606000020612AF20CD,925.75,0.7731263,0.25
E28011606000020612AF20FD,925.75,5.976389,0.5
E28011606000020612AF20DD,925.75,5.350525,0.5
E28011606000020612AFC2CC,918.75,0.9019807,0.1875
E28011606000020612B068BC,918.75,2.2518837,0.0
E28011606000020612AF20DD,918.75,0.41110685,0.5
E28011606000020612AF20CD,918.75,0.28225246,0.125
E28011606000020612AF520D,918.75,5.675729,0.1875
E28011606000020612AF20BD,918.75,6.1727386,0.5
E28011606000020612AF20BD,919.25,6.1359234,0.1875
E28011606000020612AF20FD,919.25,4.706253,0.5
E28011606000020612AF20ED,919.25,3.6201947,0.5625
E28011606000020612AF520D,919.25,1.5401167,0.375
E28011606000020612AF20CD,919.25,1.7426022,0.1875
E28011606000020612AF20CD,914.75,5.4057484,0.375
E28011606000020612AF20DD,914.75,0.11044662,0.375
E28011606000020612AF520D,914.75,0.22702916,0.625
E28011606000020612AF20DD,914.75,1.2640002,0.125
E28011606000020612B034BC,914.75,2.2702916,0.0625
E28011606000020612AF20BD,914.75,1.441942,0.1875
E28011606000020612AF20ED,914.75,5.2523503,0.125
E28011606000020612AF520D,905.25,5.0744085,0.125
E28011606000020612AF20FD,905.25,4.405593,0.125
E28011606000020612AF20CD,905.25,3.9024472,0.1875
E28011606000020612AF20BD,905.25,0.398835,0.1875
E28011606000020612AF20DD,905.25,6.1727386,0.5
E28011606000020612B0348C,905.25,5.276894,0.875
E28011606000020612AF20BD,911.25,1.0737865,0.1875
E28011606000020612AF20CD,911.25,5.9457097,0.1875
E28011606000020612B034BC,911.25,2.0309906,1.125
E28011606000020612AF20ED,911.25,5.203263,0.25
E28011606000020612AF520D,911.25,5.454836,-0.0625
E28011606000020612AF20DD,920.75,5.61437,0.125
E28011606000020612AF20FD,920.75,0.46633017,0.5
E28011606000020612AF20ED,920.75,1.0185633,-0.0625
E28011606000020612B034BC,920.75,5.3812046,0.1875
E28011606000020612AF20DD,920.75,0.024543693,0.5
E28011606000020612AF520D,920.75,2.2089324,0.125
E28011606000020612AF20BD,911.75,5.0682726,0.0625
E28011606000020612AF20CD,911.75,5.908894,0.1875
E28011606000020612B034BC,911.75,4.8964667,0.125
E28011606000020612AF20FD,911.75,5.6941366,0.25
E28011606000020612AF20ED,911.75,5.0928164,0.1875
E28011606000020612AF20CD,926.75,0.6565438,0.125
E28011606000020612AF20BD,926.75,1.9450877,-0.0625
E28011606000020612B0942C,926.75,3.6263306,0.25
E28011606000020612AF20FD,926.75,3.9208548,0.75
E28011606000020612AF20FD,906.75,4.092661,0.25
E28011606000020612AF20CD,906.75,0.30066022,0.375
E28011606000020612AF20DD,906.75,5.921166,0.375
E28011606000020612B0349C,906.75,4.5835347,0.625
E28011606000020612AF20BD,906.75,0.04295146,0.5
E28011606000020612AF20ED,907.75,4.2706027,0.5
E28011606000020612AF20CD,907.75,6.2647777,0.1875
E28011606000020612B0348C,907.75,0.5276894,-0.25
E28011606000020612AF20BD,907.75,1.6873789,0.1875
E28011606000020612AF20FD,912.25,5.61437,0.4375
E28011606000020612AF20CD,912.25,5.835263,0.25
E28011606000020612AF20DD,912.25,0.25157285,0.0625
E28011606000020612AF20DD,912.25,1.6260196,0.5
E28011606000020612B0348C,912.25,0.16566992,0.0625
E28011606000020612AF20BD,926.25,5.2400784,0.125
E28011606000020612AF20DD,926.25,5.350525,0.125
E28011606000020612B0941C,926.25,5.589826,-0.125
E28011606000020612AF20ED,926.25,5.7002726,0.0625
E28011606000020612AF520D,926.25,1.4173982,0.25
E28011606000020612AF20CD,926.25,1.59534,0.375
E28011606000020612AF20DD,914.25,0.1349903,-0.0625
E28011606000020612AF20BD,914.25,0.5890486,0.0
E28011606000020612AF20CD,914.25,5.5346026,0.0
E28011606000020612AF20DD,909.75,4.3319616,0.125
E28011606000020612AF520D,909.75,4.387185,0.625
E28011606000020612AF52AD,909.75,5.203263,0.625
E28011606000020612AF20FD,909.75,0.239301,0.5
E28011606000020612B034DC,909.75,5.7186804,-0.5625
E28011606000020612B034BC,902.75,6.240234,-0.1875
E28011606000020612AF20ED,902.75,6.1666026,-0.125
E28011606000020612AF20CD,902.75,1.116738,0.125
E28011606000020612B0348C,902.75,5.111224,0.125
E28011606000020612AF520D,902.75,5.3812046,0.375
E28011606000020612AF20BD,902.75,0.79153407,0.8125
E28011606000020612AF20FD,902.75,5.013049,0.4375
E28011606000020612AEE4AC,902.75,2.067806,-0.1875
E28011606000020612AF20DD,902.75,0.17180584,0.25
E28011606000020612B0348C,906.25,4.5896707,0.25
E28011606000020612AF20DD,906.25,4.712389,0.0625
E28011606000020612AF20BD,906.25,5.0805445,-0.0625
E28011606000020612AF20CD,906.25,0.558369,0.25
E28011606000020612AF20CD,910.25,6.0807,0.1875
E28011606000020612AF520D,910.25,4.307418,0.125
E28011606000020612AF20FD,910.25,0.11044662,0.0625
E28011606000020612B0348C,910.25,4.8044276,0.75
E28011606000020612AF20BD,910.25,5.4057484,0.125
E28011606000020612AF20DD,910.25,2.0309906,0.5
E28011606000020612AF520D,922.25,2.0064468,0.0625
E28011606000020612AF20DD,922.25,6.1113796,0.0625
E28011606000020612B0942C,922.25,5.2462144,-0.25
E28011606000020612AF20CD,922.25,1.3130876,0.1875
E28011606000020612AF20ED,905.75,0.12885438,0.1875
E28011606000020612AF20DD,905.75,4.7430687,-0.0625
E28011606000020612AF20CD,905.75,0.67495155,0.0625
E28011606000020612AF20BD,918.25,6.221826,0.1875
E28011606000020612AF20CD,918.25,0.4049709,0.5625
E28011606000020612AF20DD,918.25,0.5767768,0.25
E28011606000020612B068CC,918.25,5.927302,0.9375
E28011606000020612AEE43C,918.25,5.3014374,-0.25
E28011606000020612AF20BD,918.25,0.6872234,0.625
E28011606000020612AF20CD,927.25,1.441942,0.75
E28011606000020612AF20ED,927.25,5.362797,0.125
E28011606000020612AF20DD,927.25,5.344389,0.0625
E28011606000020612AF520D,927.25,1.2455924,0.125
E28011606000020612AF20ED,927.25,5.3996124,0.375
E28011606000020612AF20CD,927.25,0.5645049,0.5
E28011606000020612AF20DD,912.75,0.14726216,0.0625
E28011606000020612AF520D,912.75,5.638913,0.125
E28011606000020612AF20CD,912.75,5.7861757,0.125
E28011606000020612AF20FD,912.75,5.5591464,0.125
E28011606000020612AF520D,904.25,5.203263,0.0625
E28011606000020612AF20DD,904.25,0.0,0.1875
E28011606000020612AF20BD,904.25,0.6135923,0.625
E28011606000020612AF20CD,904.25,0.9510681,0.1875
E28011606000020612AF520D,921.25,2.1353014,0.125
E28011606000020612AF20CD,921.25,4.5958066,0.1875
E28011606000020612AF20ED,921.25,0.14112623,0.25
E28011606000020612AF520D,921.25,0.7731263,0.375
E28011606000020612AF20FD,917.25,4.95169,0.25
E28011606000020612AF20CD,917.25,1.9205439,0.125
E28011606000020612AEE43C,917.25,6.2034183,-0.125
E28011606000020612B0942C,917.25,1.0860584,-0.4375
E28011606000020612AF20CD,917.25,3.8104084,0.1875
E28011606000020612AF20BD,907.25,6.1911464,0.25
E28011606000020612AF20DD,907.25,2.6936703,0.125
E28011606000020612AF207C,907.25,6.0316124,-6.0625
E28011606000020612AF52AD,907.25,0.5890486,0.1875
E28011606000020612AF20ED,907.25,4.417865,0.125
E28011606000020612AF20CD,907.25,0.15339808,0.25
E28011606000020612AF20FD,907.25,0.83448553,0.1875
E28011606000020612AF20DD,921.75,6.1911464,0.0
E28011606000020612AF20DD,921.75,2.7366216,-0.125
E28011606000020612AF20BD,921.75,5.7002726,0.1875
E28011606000020612AF20CD,921.75,1.3805827,0.375
E28011606000020612AF20ED,921.75,0.05522331,0.5625
E28011606000020612AF20CD,917.75,5.025321,0.125
E28011606000020612AF20FD,917.75,4.8964667,0.25
E28011606000020612B034DC,917.75,0.2699806,-0.1875
E28011606000020612AF20FD,917.75,1.3253593,0.25
E28011606000020612AF20DD,917.75,0.6933593,0.5
E28011606000020612AF20CD,917.75,0.52155346,0.625
E28011606000020612AF20FD,916.75,4.730797,0.125
E28011606000020612AF20BD,916.75,1.0860584,-0.0625
E28011606000020612AF520D,916.75,6.0807,0.5625
E28011606000020612B034BC,916.75,1.2640002,0.0
E28011606000020612AF20DD,916.75,0.94493216,0.25
E28011606000020612AEE2FB,909.25,0.35588354,-0.5625
E28011606000020612AF20FD,909.25,6.1175156,0.1875
E28011606000020612AF20CD,909.25,6.24637,0.25
E28011606000020612AF20DD,909.25,4.417865,0.1875
E28011606000020612AF20BD,909.25,4.565127,-0.0625
E28011606000020612AF20FD,908.25,0.024543693,0.125
E28011606000020612AEE2FB,908.25,1.435806,-1.875
E28011606000020612AF20DD,908.25,4.552855,0.375
E28011606000020612AEE43C,908.25,4.9700975,-0.125
E28011606000020612AF20DD,908.25,5.608234,0.25
E28011606000020612AF520D,908.25,1.5033011,0.125
E28011606000020612AF20FD,925.25,6.062292,0.125
E28011606000020612AF20CD,925.25,1.9205439,-0.25
E28011606000020612AF20ED,925.25,5.970253,0.0625
E28011606000020612AF520D,925.25,4.687845,0.25
E28011606000020612AF20CD,925.25,0.81607777,0.1875
E28011606000020612AF20BD,924.25,5.332117,0.1875
E28011606000020612B0942C,924.25,5.3873405,1.4375
E28011606000020612AF20FD,924.25,4.3319616,0.0625
E28011606000020612AF20ED,924.25,2.7427576,0.1875
E28011606000020612AF20CD,924.25,4.086525,0.5
E28011606000020612AF20DD,924.25,2.4175537,0.125
E28011606000020612AF20CD,913.25,4.8964667,0.0625
E28011606000020612B0349C,913.25,5.3689327,0.25
E28011606000020612AF20ED,913.25,5.589826,-0.0625
E28011606000020612AF20FD,913.25,2.3255148,0.1875
E28011606000020612AF20BD,913.25,4.8044276,0.25
E28011606000020612AF520D,913.25,3.7060976,0.375
E28011606000020612AF20BD,923.75,5.8598065,0.125
E28011606000020612AF20ED,923.75,0.04295146,0.0625
E28011606000020612B068BC,923.75,0.80380595,0.5
E28011606000020612AF520D,923.75,1.7671459,0.125
E28011606000020612AF20FD,923.75,6.1543307,0.4375
E28011606000020612AF20BD,923.75,2.233476,0.25
E28011606000020612AF20CD,923.75,1.030835,0.375
E28011606000020612AF520D,923.75,6.086836,0.125
E28011606000020612AF20ED,923.75,5.970253,0.25
E28011606000020612AF20DD,903.25,5.013049,0.5
E28011606000020612AF20BD,903.25,5.5591464,0.125
E28011606000020612AF520D,903.25,5.3137093,0.25
E28011606000020612B0942C,913.75,2.644583,0.0625
E28011606000020612AF20ED,913.75,5.430292,0.5625
E28011606000020612AF20DD,913.75,1.3805827,0.25
E28011606000020612AF20CD,913.75,1.6628351,0.0625
E28011606000020612AF20FD,913.75,5.332117,0.125
E28011606000020612AF20BD,913.75,4.7553406,0.1875
E28011606000020612B034BC,913.75,5.669593,0.8125
E28011606000020612AF52AD,913.75,6.2647777,-0.25
E28011606000020612B068BC,920.25,5.0621367,-0.125
E28011606000020612AF20CD,920.25,6.234098,0.125
E28011606000020612AF20FD,920.25,4.5896707,0.4375
E28011606000020612AF20BD,908.75,4.6633015,0.1875
E28011606000020612AF20CD,908.75,0.04295146,0.625
E28011606000020612AF52AD,908.75,6.0132046,-0.0625
E28011606000020612AEE43C,908.75,4.534447,0.625
E28011606000020612AF20FD,908.75,0.5031457,0.4375
E28011606000020612AF20CD,922.75,2.5832236,0.125
E28011606000020612AF520D,922.75,1.9021362,0.1875
E28011606000020612AF20ED,922.75,0.2699806,0.4375
E28011606000020612AF20DD,922.75,5.970253,0.375
E28011606000020612AF20BD,922.75,6.0377483,0.1875
E28011606000020612AF20FD,922.75,0.01840777,-0.0625
E28011606000020612AEE2EB,915.75,0.7485826,-0.375
E28011606000020612AF20FD,915.75,5.0866804,0.0625
E28011606000020612AF20DD,915.75,6.209554,0.1875
E28011606000020612AF20BD,915.75,0.36201948,0.25
E28011606000020612AF20CD,915.75,2.1107576,0.1875
E28011606000020612AF520D,915.75,2.5157285,0.25
E28011606000020612AF20BD,919.75,6.0438843,0.5
E28011606000020612AF20CD,919.75,4.8228354,0.0625
