1464156904778:109.0:109.0:109.0
1464156904845:109.0:109.0:109.0
1464156904926:109.0:109.0:109.0
1464156905006:109.0:109.0:109.0
1464156905086:109.0:109.0:109.0
1464156905166:109.0:109.0:109.0
1464156905246:109.0:109.0:109.0
1464156905339:109.0:109.0:109.0
1464156905405:109.0:109.0:109.0
1464156905486:109.0:109.0:109.0
1464156905566:109.0:109.0:109.0
1464156905646:109.0:109.0:109.0
1464156905726:109.0:109.0:109.0
1464156905806:109.0:109.0:109.0
1464156905886:109.0:109.0:109.0
1464156905966:109.0:109.0:109.0
1464156906046:109.0:109.0:109.0
1464156906126:109.0:109.0:109.0
1464156906206:109.0:109.0:109.0
1464156906286:109.0:109.0:109.0
1464156906366:109.0:109.0:109.0
1464156906445:109.0:109.0:109.0
1464156906526:109.0:109.0:109.0
1464156906606:109.0:109.0:109.0
1464156906686:109.0:109.0:109.0
1464156906765:109.0:109.0:109.0
1464156906846:109.0:109.0:109.0
1464156906926:109.0:109.0:109.0
1464156907006:109.0:109.0:109.0
1464156907086:109.0:109.0:109.0
1464156907166:109.0:109.0:109.0
1464156907246:109.0:109.0:109.0
1464156907326:109.0:109.0:109.0
1464156907405:109.0:109.0:109.0
1464156907486:109.0:109.0:109.0
1464156907566:109.0:109.0:109.0
1464156907646:109.0:109.0:109.0
1464156907726:109.0:109.0:109.0
1464156907806:109.0:109.0:109.0
1464156907886:109.0:109.0:109.0
1464156907966:109.0:109.0:109.0
1464156908046:109.0:109.0:109.0
1464156908126:109.0:109.0:109.0
1464156908206:109.0:109.0:109.0
1464156908286:109.0:109.0:109.0
1464156908366:109.0:109.0:109.0
1464156908446:109.0:109.0:109.0
1464156908525:109.0:109.0:109.0
1464156908606:109.0:109.0:109.0
1464156908686:109.0:109.0:109.0
1464156908766:109.0:109.0:109.0
1464156908846:109.0:109.0:109.0
1464156908926:109.0:109.0:109.0
1464156909006:109.0:109.0:109.0
1464156909086:109.0:109.0:109.0
1464156909166:109.0:109.0:109.0
1464156909246:109.0:109.0:109.0
1464156909326:109.0:109.0:109.0
1464156909406:109.0:109.0:109.0
1464156909486:109.0:109.0:109.0
1464156909566:109.0:109.0:109.0
1464156909645:109.0:109.0:109.0
1464156909726:109.0:109.0:109.0
1464156909806:109.0:109.0:109.0
1464156909886:109.0:109.0:109.0
1464156909966:109.0:109.0:109.0
1464156910046:109.0:109.0:109.0
1464156910126:109.0:109.0:109.0
1464156910206:109.0:109.0:109.0
1464156910286:109.0:109.0:109.0
1464156910366:109.0:109.0:109.0
1464156910446:109.0:109.0:109.0
1464156910525:109.0:109.0:109.0
1464156910606:109.0:109.0:109.0
1464156910686:109.0:109.0:109.0
1464156910766:109.0:109.0:109.0
1464156910846:109.0:109.0:109.0
1464156910926:109.0:109.0:109.0
1464156911006:109.0:109.0:109.0
1464156911086:109.0:109.0:109.0
1464156911166:109.0:109.0:109.0
1464156911246:109.0:109.0:109.0
1464156911325:109.0:109.0:109.0
1464156911406:109.0:109.0:109.0
1464156911486:109.0:109.0:109.0
1464156911565:109.0:109.0:109.0
1464156911646:109.0:109.0:109.0
1464156911726:109.0:109.0:109.0
1464156911806:109.0:109.0:109.0
1464156911886:109.0:109.0:109.0
1464156911966:109.0:109.0:109.0
1464156912046:109.0:109.0:109.0
1464156912126:109.0:109.0:109.0
1464156912206:109.0:109.0:109.0
1464156912286:109.0:109.0:109.0
1464156912366:109.0:109.0:109.0
1464156912446:109.0:109.0:109.0
1464156912526:109.0:109.0:109.0
1464156912620:109.0:109.0:109.0
1464156912696:109.0:109.0:109.0
1464156912776:109.0:109.0:109.0
1464156912856:109.0:109.0:109.0
1464156912936:109.0:109.0:109.0
1464156913016:109.0:109.0:109.0
1464156913096:109.0:109.0:109.0
1464156913176:109.0:109.0:109.0
1464156913256:109.0:109.0:109.0
1464156913336:109.0:109.0:109.0
1464156913416:109.0:109.0:109.0
1464156913496:109.0:109.0:109.0
1464156913576:109.0:109.0:109.0
1464156913655:109.0:109.0:109.0
1464156913736:109.0:109.0:109.0
1464156913816:109.0:109.0:109.0
1464156913896:109.0:109.0:109.0
1464156913976:109.0:109.0:109.0
1464156914056:109.0:109.0:109.0
1464156914136:109.0:109.0:109.0
1464156914216:109.0:109.0:109.0
1464156914296:109.0:109.0:109.0
1464156914376:109.0:109.0:109.0
1464156914456:109.0:109.0:109.0
1464156914536:109.0:109.0:109.0
1464156914616:109.0:109.0:109.0
1464156914695:109.0:109.0:109.0
1464156914775:109.0:109.0:109.0
1464156914856:109.0:109.0:109.0
1464156914936:109.0:109.0:109.0
1464156915016:109.0:109.0:109.0
1464156915095:109.0:109.0:109.0
1464156915176:109.0:109.0:109.0
1464156915256:109.0:109.0:109.0
1464156915336:109.0:109.0:109.0
1464156915416:109.0:109.0:109.0
1464156915496:109.0:109.0:109.0
1464156915576:109.0:109.0:109.0
1464156915656:109.0:109.0:109.0
1464156915736:109.0:109.0:109.0
1464156915815:109.0:109.0:109.0
1464156915896:109.0:109.0:109.0
1464156915976:109.0:109.0:109.0
1464156916056:109.0:109.0:109.0
1464156916136:109.0:109.0:109.0
1464156916216:109.0:109.0:109.0
1464156916296:109.0:109.0:109.0
1464156916375:109.0:109.0:109.0
1464156916456:109.0:109.0:109.0
1464156916536:109.0:109.0:109.0
1464156916616:109.0:109.0:109.0
1464156916696:109.0:109.0:109.0
1464156916775:102.0:102.0:102.0
1464156916859:102.0:102.0:102.0
1464156916935:102.0:102.0:102.0
1464156917016:102.0:102.0:102.0
1464156917096:103.0:103.0:103.0
1464156917176:103.0:103.0:103.0
1464156917256:103.0:103.0:103.0
1464156917336:103.0:103.0:103.0
1464156917416:103.0:103.0:103.0
1464156917496:103.0:103.0:103.0
1464156917576:103.0:103.0:103.0
1464156917656:103.0:103.0:103.0
1464156917736:103.0:103.0:103.0
1464156917816:103.0:103.0:103.0
1464156917896:103.0:103.0:103.0
1464156917976:103.0:103.0:103.0
1464156918056:103.0:103.0:103.0
1464156918136:103.0:103.0:103.0
1464156918216:103.0:103.0:103.0
1464156918296:103.0:103.0:103.0
1464156918376:103.0:103.0:103.0
1464156918456:103.0:103.0:103.0
1464156918536:103.0:103.0:103.0
1464156918616:103.0:103.0:103.0
1464156918696:103.0:103.0:103.0
1464156918776:103.0:103.0:103.0
1464156918856:103.0:103.0:103.0
1464156918936:103.0:103.0:103.0
1464156919016:103.0:103.0:103.0
1464156919096:103.0:103.0:103.0
1464156919176:103.0:103.0:103.0
1464156919256:103.0:103.0:103.0
1464156919336:103.0:103.0:103.0
1464156919416:103.0:103.0:103.0
1464156919496:103.0:103.0:103.0
1464156919576:103.0:103.0:103.0
1464156919656:103.0:103.0:103.0
1464156919736:103.0:103.0:103.0
1464156919816:103.0:103.0:103.0
1464156919896:103.0:103.0:103.0
1464156919975:103.0:103.0:103.0
1464156920056:103.0:103.0:103.0
1464156920136:103.0:103.0:103.0
1464156920217:103.0:103.0:103.0
1464156920296:103.0:103.0:103.0
1464156920376:103.0:103.0:103.0
1464156920456:103.0:103.0:103.0
1464156920536:103.0:103.0:103.0
1464156920616:103.0:103.0:103.0
1464156920697:103.0:103.0:103.0
1464156920776:103.0:103.0:103.0
1464156920856:103.0:103.0:103.0
1464156920935:103.0:103.0:103.0
1464156921016:103.0:103.0:103.0
1464156921096:103.0:103.0:103.0
1464156921176:103.0:103.0:103.0
1464156921256:103.0:103.0:103.0
1464156921336:103.0:103.0:103.0
1464156921416:103.0:103.0:103.0
1464156921496:103.0:103.0:103.0
1464156921576:103.0:103.0:103.0
1464156921656:103.0:103.0:103.0
1464156921736:103.0:103.0:103.0
1464156921816:103.0:103.0:103.0
1464156921895:103.0:103.0:103.0
1464156921976:103.0:103.0:103.0
1464156922056:103.0:103.0:103.0
1464156922136:103.0:103.0:103.0
1464156922216:103.0:103.0:103.0
1464156922296:103.0:103.0:103.0
1464156922376:103.0:103.0:103.0
1464156922456:103.0:103.0:103.0
1464156922537:103.0:103.0:103.0
1464156922616:103.0:103.0:103.0
1464156922696:103.0:103.0:103.0
1464156922776:103.0:103.0:103.0
1464156922856:103.0:103.0:103.0
1464156922935:103.0:103.0:103.0
1464156923016:103.0:103.0:103.0
1464156923096:103.0:103.0:103.0
1464156923176:103.0:103.0:103.0
1464156923256:103.0:103.0:103.0
1464156923336:103.0:103.0:103.0
1464156923416:103.0:103.0:103.0
1464156923496:103.0:103.0:103.0
1464156923576:103.0:103.0:103.0
1464156923655:103.0:103.0:103.0
1464156923737:103.0:103.0:103.0
1464156923816:103.0:103.0:103.0
1464156923896:103.0:103.0:103.0
1464156923975:103.0:103.0:103.0
1464156924055:103.0:103.0:103.0
1464156924136:103.0:103.0:103.0
1464156924216:103.0:103.0:103.0
1464156924297:103.0:103.0:103.0
1464156924376:103.0:103.0:103.0
1464156924455:103.0:103.0:103.0
1464156924536:103.0:103.0:103.0
1464156924616:103.0:103.0:103.0
1464156924696:103.0:103.0:103.0
1464156924776:103.0:103.0:103.0
1464156924855:103.0:103.0:103.0
1464156924936:103.0:103.0:103.0
1464156925015:103.0:103.0:103.0
1464156925095:103.0:103.0:103.0
1464156925176:103.0:103.0:103.0
1464156925256:103.0:103.0:103.0
1464156925336:103.0:103.0:103.0
1464156925425:103.0:103.0:103.0
1464156925496:103.0:103.0:103.0
1464156925576:103.0:103.0:103.0
1464156925656:103.0:103.0:103.0
1464156925736:103.0:103.0:103.0
1464156925816:103.0:103.0:103.0
1464156925896:103.0:103.0:103.0
1464156925976:103.0:103.0:103.0
1464156926055:103.0:103.0:103.0
1464156926136:103.0:103.0:103.0
1464156926216:103.0:103.0:103.0
1464156926296:103.0:103.0:103.0
1464156926376:103.0:103.0:103.0
1464156926456:103.0:103.0:103.0
1464156926536:103.0:103.0:103.0
1464156926615:103.0:103.0:103.0
1464156926696:103.0:103.0:103.0
1464156926776:103.0:103.0:103.0
1464156926856:103.0:103.0:103.0
1464156926936:103.0:103.0:103.0
1464156927016:103.0:103.0:103.0
1464156927095:103.0:103.0:103.0
1464156927175:103.0:103.0:103.0
1464156927264:103.0:103.0:103.0
1464156927336:103.0:103.0:103.0
1464156927416:103.0:103.0:103.0
1464156927496:103.0:103.0:103.0
1464156927576:103.0:103.0:103.0
1464156927656:103.0:103.0:103.0
1464156927736:103.0:103.0:103.0
1464156927816:103.0:103.0:103.0
1464156927896:103.0:103.0:103.0
1464156927976:103.0:103.0:103.0
1464156928056:103.0:103.0:103.0
1464156928135:103.0:103.0:103.0
1464156928216:103.0:103.0:103.0
1464156928296:103.0:103.0:103.0
1464156928376:103.0:103.0:103.0
1464156928465:103.0:103.0:103.0
1464156928535:103.0:103.0:103.0
1464156928616:103.0:103.0:103.0
1464156928696:103.0:103.0:103.0
1464156928776:103.0:103.0:103.0
1464156928856:103.0:103.0:103.0
1464156928936:103.0:103.0:103.0
1464156929016:103.0:103.0:103.0
1464156929096:103.0:103.0:103.0
1464156929176:103.0:103.0:103.0
1464156929256:103.0:103.0:103.0
1464156929336:103.0:103.0:103.0
1464156929416:103.0:103.0:103.0
1464156929496:103.0:103.0:103.0
1464156929576:103.0:103.0:103.0
1464156929668:103.0:103.0:103.0
1464156929736:103.0:103.0:103.0
1464156929816:103.0:103.0:103.0
1464156929896:103.0:103.0:103.0
1464156929976:103.0:103.0:103.0
1464156930056:103.0:103.0:103.0
1464156930136:103.0:103.0:103.0
1464156930216:103.0:103.0:103.0
1464156930295:103.0:103.0:103.0
1464156930376:103.0:103.0:103.0
1464156930456:103.0:103.0:103.0
1464156930536:103.0:103.0:103.0
1464156930616:103.0:103.0:103.0
1464156930696:103.0:103.0:103.0
1464156930776:103.0:103.0:103.0
1464156930869:103.0:103.0:103.0
1464156930946:103.0:103.0:103.0
1464156931026:103.0:103.0:103.0
1464156931106:103.0:103.0:103.0
1464156931186:103.0:103.0:103.0
1464156931266:103.0:103.0:103.0
1464156931346:103.0:103.0:103.0
1464156931426:103.0:103.0:103.0
1464156931506:103.0:103.0:103.0
1464156931586:103.0:103.0:103.0
1464156931666:103.0:103.0:103.0
1464156931746:103.0:103.0:103.0
1464156931826:103.0:103.0:103.0
1464156931906:103.0:103.0:103.0
1464156931986:103.0:103.0:103.0
1464156932069:103.0:103.0:103.0
1464156932145:103.0:103.0:103.0
1464156932225:103.0:103.0:103.0
1464156932305:103.0:103.0:103.0
1464156932386:103.0:103.0:103.0
1464156932466:103.0:103.0:103.0
1464156932546:103.0:103.0:103.0
1464156932626:103.0:103.0:103.0
1464156932705:103.0:103.0:103.0
1464156932786:103.0:103.0:103.0
1464156932866:103.0:103.0:103.0
1464156932946:103.0:103.0:103.0
1464156933026:103.0:103.0:103.0
1464156933106:103.0:103.0:103.0
1464156933186:103.0:103.0:103.0
1464156933265:103.0:103.0:103.0
1464156933345:103.0:103.0:103.0
1464156933425:103.0:103.0:103.0
1464156933506:103.0:103.0:103.0
1464156933586:103.0:103.0:103.0
1464156933666:103.0:103.0:103.0
1464156933746:103.0:103.0:103.0
1464156933826:103.0:103.0:103.0
1464156933912:103.0:103.0:103.0
1464156933985:103.0:103.0:103.0
1464156934066:103.0:103.0:103.0
1464156934146:103.0:103.0:103.0
1464156934226:103.0:103.0:103.0
1464156934306:103.0:103.0:103.0
1464156934385:103.0:103.0:103.0
1464156934466:103.0:103.0:103.0
1464156934546:103.0:103.0:103.0
1464156934626:103.0:103.0:103.0
1464156934706:103.0:103.0:103.0
1464156934786:103.0:103.0:103.0
1464156934866:103.0:103.0:103.0
1464156934946:103.0:103.0:103.0
1464156935026:103.0:103.0:103.0
1464156935106:103.0:103.0:103.0
1464156935185:103.0:103.0:103.0
1464156935266:103.0:103.0:103.0
1464156935345:103.0:103.0:103.0
1464156935425:103.0:103.0:103.0
1464156935506:103.0:103.0:103.0
1464156935586:103.0:103.0:103.0
1464156935666:103.0:103.0:103.0
1464156935746:103.0:103.0:103.0
1464156935826:103.0:103.0:103.0
1464156935906:103.0:103.0:103.0
1464156935986:103.0:103.0:103.0
1464156936066:103.0:103.0:103.0
1464156936146:103.0:103.0:103.0
1464156936226:103.0:103.0:103.0
1464156936306:103.0:103.0:103.0
1464156936385:103.0:103.0:103.0
1464156936466:103.0:103.0:103.0
1464156936546:103.0:103.0:103.0
1464156936626:103.0:103.0:103.0
1464156936706:103.0:103.0:103.0
1464156936786:103.0:103.0:103.0
1464156936866:103.0:103.0:103.0
1464156936946:103.0:103.0:103.0
1464156937027:103.0:103.0:103.0
1464156937106:103.0:103.0:103.0
1464156937186:103.0:103.0:103.0
1464156937266:103.0:103.0:103.0
1464156937346:103.0:103.0:103.0
1464156937426:103.0:103.0:103.0
1464156937512:103.0:103.0:103.0
1464156937585:103.0:103.0:103.0
1464156937666:103.0:103.0:103.0
1464156937746:103.0:103.0:103.0
1464156937826:103.0:103.0:103.0
1464156937906:103.0:103.0:103.0
1464156937986:103.0:103.0:103.0
1464156938066:103.0:103.0:103.0
1464156938146:103.0:103.0:103.0
1464156938226:103.0:103.0:103.0
1464156938306:103.0:103.0:103.0
1464156938386:103.0:103.0:103.0
1464156938465:103.0:103.0:103.0
1464156938545:103.0:103.0:103.0
1464156938626:103.0:103.0:103.0
1464156938708:103.0:103.0:103.0
1464156938785:103.0:103.0:103.0
1464156938866:103.0:103.0:103.0
1464156938946:103.0:103.0:103.0
1464156939026:103.0:103.0:103.0
1464156939106:103.0:103.0:103.0
1464156939186:103.0:103.0:103.0
1464156939266:103.0:103.0:103.0
1464156939346:103.0:103.0:103.0
1464156939426:103.0:103.0:103.0
1464156939506:103.0:103.0:103.0
1464156939586:103.0:103.0:103.0
1464156939666:103.0:103.0:103.0
1464156939746:103.0:103.0:103.0
1464156939826:103.0:103.0:103.0
1464156939906:103.0:103.0:103.0
1464156939985:103.0:103.0:103.0
1464156940066:103.0:103.0:103.0
1464156940146:103.0:103.0:103.0
1464156940226:103.0:103.0:103.0
1464156940306:103.0:103.0:103.0
1464156940385:103.0:103.0:103.0
1464156940466:103.0:103.0:103.0
1464156940546:103.0:103.0:103.0
1464156940626:103.0:103.0:103.0
1464156940706:103.0:103.0:103.0
1464156940786:103.0:103.0:103.0
1464156940866:103.0:103.0:103.0
1464156940946:103.0:103.0:103.0
1464156941026:103.0:103.0:103.0
1464156941106:103.0:103.0:103.0
1464156941185:103.0:103.0:103.0
1464156941266:103.0:103.0:103.0
1464156941346:103.0:103.0:103.0
1464156941426:103.0:103.0:103.0
1464156941506:103.0:103.0:103.0
1464156941586:103.0:103.0:103.0
1464156941665:103.0:103.0:103.0
1464156941749:103.0:103.0:103.0
1464156941825:103.0:103.0:103.0
1464156941906:103.0:103.0:103.0
1464156941986:103.0:103.0:103.0
1464156942066:103.0:103.0:103.0
1464156942146:103.0:103.0:103.0
1464156942226:103.0:103.0:103.0
1464156942306:103.0:103.0:103.0
1464156942386:103.0:103.0:103.0
1464156942466:103.0:103.0:103.0
1464156942546:103.0:103.0:103.0
1464156942626:103.0:103.0:103.0
1464156942706:103.0:103.0:103.0
1464156942786:103.0:103.0:103.0
1464156942866:103.0:103.0:103.0
1464156942945:103.0:103.0:103.0
1464156943026:103.0:103.0:103.0
1464156943106:103.0:103.0:103.0
1464156943186:103.0:103.0:103.0
1464156943266:103.0:103.0:103.0
1464156943346:103.0:103.0:103.0
1464156943426:103.0:103.0:103.0
1464156943506:103.0:103.0:103.0
1464156943586:103.0:103.0:103.0
1464156943666:103.0:103.0:103.0
1464156943746:103.0:103.0:103.0
1464156943826:103.0:103.0:103.0
1464156943906:103.0:103.0:103.0
1464156943986:103.0:103.0:103.0
1464156944066:103.0:103.0:103.0
1464156944146:103.0:103.0:103.0
1464156944226:103.0:103.0:103.0
1464156944306:103.0:103.0:103.0
1464156944386:103.0:103.0:103.0
1464156944466:103.0:103.0:103.0
1464156944546:103.0:103.0:103.0
1464156944625:103.0:103.0:103.0
1464156944705:103.0:103.0:103.0
1464156944786:103.0:103.0:103.0
1464156944866:103.0:103.0:103.0
1464156944946:103.0:103.0:103.0
1464156945026:103.0:103.0:103.0
1464156945106:103.0:103.0:103.0
1464156945186:103.0:103.0:103.0
1464156945266:103.0:103.0:103.0
1464156945346:103.0:103.0:103.0
1464156945426:103.0:103.0:103.0
1464156945506:103.0:103.0:103.0
1464156945586:103.0:103.0:103.0
1464156945666:103.0:103.0:103.0
1464156945746:103.0:103.0:103.0
1464156945826:103.0:103.0:103.0
1464156945906:103.0:103.0:103.0
1464156945997:103.0:103.0:103.0
1464156946065:103.0:103.0:103.0
1464156946146:103.0:103.0:103.0
1464156946226:103.0:103.0:103.0
1464156946306:103.0:103.0:103.0
1464156946386:103.0:103.0:103.0
1464156946466:103.0:103.0:103.0
1464156946546:103.0:103.0:103.0
1464156946626:103.0:103.0:103.0
1464156946705:103.0:103.0:103.0
1464156946786:103.0:103.0:103.0
1464156946866:103.0:103.0:103.0
1464156946946:103.0:103.0:103.0
1464156947026:103.0:103.0:103.0
1464156947106:103.0:103.0:103.0
1464156947186:103.0:103.0:103.0
1464156947266:103.0:103.0:103.0
1464156947346:103.0:103.0:103.0
1464156947426:103.0:103.0:103.0
1464156947506:103.0:103.0:103.0
1464156947586:103.0:103.0:103.0
1464156947666:103.0:103.0:103.0
1464156947745:103.0:103.0:103.0
1464156947826:103.0:103.0:103.0
1464156947906:103.0:103.0:103.0
1464156947986:103.0:103.0:103.0
1464156948066:103.0:103.0:103.0
1464156948146:103.0:103.0:103.0
1464156948226:103.0:103.0:103.0
1464156948306:103.0:103.0:103.0
1464156948386:103.0:103.0:103.0
1464156948466:103.0:103.0:103.0
1464156948546:103.0:103.0:103.0
1464156948626:103.0:103.0:103.0
1464156948706:103.0:103.0:103.0
1464156948785:103.0:103.0:103.0
1464156948865:103.0:103.0:103.0
1464156948946:103.0:103.0:103.0
1464156949026:103.0:103.0:103.0
1464156949106:103.0:103.0:103.0
1464156949186:103.0:103.0:103.0
1464156949266:103.0:103.0:103.0
1464156949346:103.0:103.0:103.0
1464156949426:103.0:103.0:103.0
1464156949506:103.0:103.0:103.0
1464156949586:103.0:103.0:103.0
1464156949666:103.0:103.0:103.0
1464156949746:103.0:103.0:103.0
1464156949825:103.0:103.0:103.0
1464156949906:103.0:103.0:103.0
1464156949986:103.0:103.0:103.0
1464156950066:103.0:103.0:103.0
1464156950146:103.0:103.0:103.0
1464156950226:103.0:103.0:103.0
1464156950305:103.0:103.0:103.0
1464156950386:103.0:103.0:103.0
1464156950466:103.0:103.0:103.0
1464156950546:103.0:103.0:103.0
1464156950626:103.0:103.0:103.0
1464156950706:103.0:103.0:103.0
1464156950786:103.0:103.0:103.0
1464156950881:103.0:103.0:103.0
1464156950946:103.0:103.0:103.0
1464156951026:103.0:103.0:103.0
1464156951106:103.0:103.0:103.0
1464156951186:103.0:103.0:103.0
1464156951266:103.0:103.0:103.0
1464156951346:103.0:103.0:103.0
1464156951426:103.0:103.0:103.0
1464156951506:103.0:103.0:103.0
1464156951586:103.0:103.0:103.0
1464156951666:103.0:103.0:103.0
1464156951746:103.0:103.0:103.0
1464156951826:103.0:103.0:103.0
1464156951905:103.0:103.0:103.0
1464156951986:103.0:103.0:103.0
1464156952066:103.0:103.0:103.0
1464156952146:103.0:103.0:103.0
1464156952226:103.0:103.0:103.0
1464156952306:103.0:103.0:103.0
1464156952386:103.0:103.0:103.0
1464156952466:103.0:103.0:103.0
1464156952546:103.0:103.0:103.0
1464156952626:103.0:103.0:103.0
1464156952705:103.0:103.0:103.0
1464156952787:103.0:103.0:103.0
1464156952876:103.0:103.0:103.0
1464156952956:103.0:103.0:103.0
1464156953036:103.0:103.0:103.0
1464156953116:103.0:103.0:103.0
1464156953196:103.0:103.0:103.0
1464156953276:103.0:103.0:103.0
1464156953356:103.0:103.0:103.0
1464156953436:103.0:103.0:103.0
1464156953516:103.0:103.0:103.0
1464156953596:103.0:103.0:103.0
1464156953676:103.0:103.0:103.0
1464156953756:103.0:103.0:103.0
1464156953836:103.0:103.0:103.0
1464156953916:103.0:103.0:103.0
1464156953996:103.0:103.0:103.0
1464156954076:103.0:103.0:103.0
1464156954155:103.0:103.0:103.0
1464156954236:103.0:103.0:103.0
1464156954317:103.0:103.0:103.0
1464156954396:103.0:103.0:103.0
1464156954478:103.0:103.0:103.0
1464156954556:103.0:103.0:103.0
1464156954636:103.0:103.0:103.0
1464156954716:103.0:103.0:103.0
1464156954796:103.0:103.0:103.0
1464156954876:103.0:103.0:103.0
1464156954956:103.0:103.0:103.0
1464156955035:103.0:103.0:103.0
1464156955116:103.0:103.0:103.0
1464156955196:103.0:103.0:103.0
1464156955276:103.0:103.0:103.0
1464156955356:103.0:103.0:103.0
1464156955435:103.0:103.0:103.0
1464156955516:103.0:103.0:103.0
1464156955596:103.0:103.0:103.0
1464156955676:103.0:103.0:103.0
1464156955756:103.0:103.0:103.0
1464156955836:103.0:103.0:103.0
1464156955916:103.0:103.0:103.0
1464156955996:103.0:103.0:103.0
1464156956076:103.0:103.0:103.0
1464156956156:103.0:103.0:103.0
1464156956236:103.0:103.0:103.0
1464156956317:103.0:103.0:103.0
1464156956396:103.0:103.0:103.0
1464156956476:103.0:103.0:103.0
1464156956556:103.0:103.0:103.0
1464156956636:103.0:103.0:103.0
1464156956716:103.0:103.0:103.0
1464156956796:103.0:103.0:103.0
1464156956876:103.0:103.0:103.0
1464156956956:103.0:103.0:103.0
1464156957036:103.0:103.0:103.0
1464156957115:103.0:103.0:103.0
1464156957196:103.0:103.0:103.0
